{
    "goal": {
        "global_pose": {
            "orientation": {
                "w": -0.00223480608172531,
                "x": 0.0024358444001904467,
                "y": 0.7094548369677653,
                "z": -0.704743149386269
            },
            "position": {
                "x": 0.6205249238014221,
                "y": -0.6371506643295288,
                "z": 0.19426114857196808
            }
        },
        "name": "move_to_magneteinheit_B"
    },
    "id": "ProjEST_move_to_magneteinheit_B_130",
    "joint_names": [
        "shoulder_pan_joint",
        "shoulder_lift_joint",
        "elbow_joint",
        "wrist_1_joint",
        "wrist_2_joint",
        "wrist_3_joint"
    ],
    "metrics": {
        "cart_traj_len": 3.6386620631882343,
        "distance_elbow_joint": 5.237563697891975,
        "distance_shoulder_lift_joint": 1.4498134807756666,
        "distance_shoulder_pan_joint": 2.0763097089862907,
        "distance_wrist_1_joint": 3.9690221743192966,
        "distance_wrist_2_joint": 4.577119254702957,
        "distance_wrist_3_joint": 1.4883986124401178,
        "smoothness": 0.5517807333068994,
        "time": 1.9217404660000001,
        "traj_len": 4.33569220876163,
        "weighted_distance": 5.5064657978615275
    },
    "planner": "ProjEST",
    "start": {
        "state": {
            "elbow_joint": 2.6216224122426386,
            "shoulder_lift_joint": -1.4174107377796124,
            "shoulder_pan_joint": 0.7066234856936794,
            "wrist_1_joint": 1.9546482284002225,
            "wrist_2_joint": -0.7096286983471962,
            "wrist_3_joint": 0.005740856962016249
        }
    },
    "waypoints": [
        {
            "positions": [
                0.7066234856936794,
                -1.4174107377796124,
                2.6216224122426386,
                1.9546482284002225,
                -0.7096286983471962,
                0.005740856962016249
            ]
        },
        {
            "positions": [
                0.6757314296325378,
                -1.5359512799501462,
                2.648032357512281,
                1.835242704672211,
                -0.7337257988638695,
                0.054054952871404854
            ]
        },
        {
            "positions": [
                0.6448393735713964,
                -1.6544918221206801,
                2.6744423027819226,
                1.7158371809441997,
                -0.7578228993805428,
                0.10236904878079346
            ]
        },
        {
            "positions": [
                0.6764688982864975,
                -1.6477862033646182,
                2.514685812639591,
                1.6389507557512568,
                -0.6651248658998324,
                0.07681008978993856
            ]
        },
        {
            "positions": [
                0.7080984230015985,
                -1.6410805846085563,
                2.3549293224972585,
                1.562064330558314,
                -0.572426832419122,
                0.051251130799083645
            ]
        },
        {
            "positions": [
                0.7397279477166997,
                -1.6343749658524946,
                2.1951728323549267,
                1.4851779053653709,
                -0.4797287989384116,
                0.025692171808228748
            ]
        },
        {
            "positions": [
                0.7713574724318008,
                -1.6276693470964327,
                2.0354163422125944,
                1.408291480172428,
                -0.38703076545770115,
                0.00013321281737382895
            ]
        },
        {
            "positions": [
                0.8029869971469018,
                -1.6209637283403708,
                1.8756598520702625,
                1.3314050549794851,
                -0.2943327319769907,
                -0.025425746173481076
            ]
        },
        {
            "positions": [
                0.8346165218620029,
                -1.614258109584309,
                1.7159033619279305,
                1.2545186297865423,
                -0.20163469849628035,
                -0.05098470516433597
            ]
        },
        {
            "positions": [
                0.866246046577104,
                -1.6075524908282472,
                1.5561468717855984,
                1.1776322045935994,
                -0.10893666501556987,
                -0.07654366415519089
            ]
        },
        {
            "positions": [
                0.8978755712922051,
                -1.6008468720721853,
                1.3963903816432663,
                1.1007457794006563,
                -0.016238631534859493,
                -0.1021026231460458
            ]
        },
        {
            "positions": [
                0.9295050960073061,
                -1.5941412533161234,
                1.2366338915009343,
                1.0238593542077137,
                0.07645940194585088,
                -0.1276615821369007
            ]
        },
        {
            "positions": [
                0.9611346207224072,
                -1.5874356345600615,
                1.0768774013586022,
                0.9469729290147706,
                0.16915743542656136,
                -0.15322054112775563
            ]
        },
        {
            "positions": [
                0.9927641454375082,
                -1.5807300158039999,
                0.9171209112162704,
                0.8700865038218278,
                0.26185546890727174,
                -0.1787795001186105
            ]
        },
        {
            "positions": [
                1.0243936701526093,
                -1.574024397047938,
                0.7573644210739383,
                0.7932000786288849,
                0.3545535023879821,
                -0.2043384591094654
            ]
        },
        {
            "positions": [
                1.0560231948677106,
                -1.567318778291876,
                0.5976079309316065,
                0.7163136534359419,
                0.4472515358686925,
                -0.22989741810032033
            ]
        },
        {
            "positions": [
                1.0876527195828114,
                -1.5606131595358141,
                0.4378514407892742,
                0.6394272282429989,
                0.5399495693494031,
                -0.25545637709117525
            ]
        },
        {
            "positions": [
                1.1192822442979127,
                -1.5539075407797525,
                0.2780949506469419,
                0.562540803050056,
                0.6326476028301135,
                -0.28101533608203016
            ]
        },
        {
            "positions": [
                1.1509117690130135,
                -1.5472019220236906,
                0.11833846050461005,
                0.4856543778571132,
                0.7253456363108238,
                -0.3065742950728851
            ]
        },
        {
            "positions": [
                1.1825412937281148,
                -1.5404963032676287,
                -0.04141802963772179,
                0.40876795266417054,
                0.818043669791534,
                -0.33213325406373995
            ]
        },
        {
            "positions": [
                1.2141708184432158,
                -1.5337906845115667,
                -0.20117451978005407,
                0.33188152747122746,
                0.9107417032722446,
                -0.3576922130545949
            ]
        },
        {
            "positions": [
                1.245800343158317,
                -1.527085065755505,
                -0.3609310099223859,
                0.2549951022782846,
                1.0034397367529548,
                -0.3832511720454498
            ]
        },
        {
            "positions": [
                1.2774298678734182,
                -1.5203794469994432,
                -0.5206875000647182,
                0.1781086770853415,
                1.0961377702336654,
                -0.4088101310363047
            ]
        },
        {
            "positions": [
                1.309059392588519,
                -1.5136738282433813,
                -0.68044399020705,
                0.10122225189239864,
                1.188835803714376,
                -0.4343690900271596
            ]
        },
        {
            "positions": [
                1.34068891730362,
                -1.5069682094873194,
                -0.8402004803493819,
                0.024335826699455998,
                1.2815338371950862,
                -0.45992804901801443
            ]
        },
        {
            "positions": [
                1.372318442018721,
                -1.5002625907312575,
                -0.9999569704917142,
                -0.05255059849348709,
                1.3742318706757968,
                -0.48548700800886946
            ]
        },
        {
            "positions": [
                1.4039479667338224,
                -1.4935569719751958,
                -1.159713460634046,
                -0.12943702368642995,
                1.466929904156507,
                -0.5110459669997243
            ]
        },
        {
            "positions": [
                1.4355774914489232,
                -1.4868513532191339,
                -1.3194699507763779,
                -0.20632344887937282,
                1.559627937637217,
                -0.5366049259905792
            ]
        },
        {
            "positions": [
                1.4672070161640245,
                -1.480145734463072,
                -1.4792264409187097,
                -0.2832098740723159,
                1.6523259711179277,
                -0.5621638849814341
            ]
        },
        {
            "positions": [
                1.4988365408791253,
                -1.4734401157070103,
                -1.6389829310610415,
                -0.36009629926525877,
                1.7450240045986383,
                -0.587722843972289
            ]
        },
        {
            "positions": [
                1.5304660655942266,
                -1.4667344969509484,
                -1.7987394212033743,
                -0.43698272445820185,
                1.8377220380793489,
                -0.6132818029631439
            ]
        },
        {
            "positions": [
                1.5620955903093277,
                -1.4600288781948865,
                -1.958495911345706,
                -0.5138691496511447,
                1.930420071560059,
                -0.6388407619539989
            ]
        },
        {
            "positions": [
                1.6384249954957992,
                -1.5166289114101998,
                -2.002182169186033,
                -0.4176244063046664,
                1.996304698177661,
                -0.6089826038458851
            ]
        },
        {
            "positions": [
                1.714754400682271,
                -1.5732289446255132,
                -2.04586842702636,
                -0.3213796629581881,
                2.062189324795263,
                -0.5791244457377714
            ]
        },
        {
            "positions": [
                1.7910838058687426,
                -1.6298289778408266,
                -2.089554684866687,
                -0.22513491961170976,
                2.128073951412865,
                -0.5492662876296577
            ]
        },
        {
            "positions": [
                1.8541373046082574,
                -1.690639401883299,
                -2.069149017434393,
                -0.13809902601738977,
                2.0328436671169117,
                -0.5103958191737297
            ]
        },
        {
            "positions": [
                1.917190803347772,
                -1.7514498259257714,
                -2.0487433500020984,
                -0.05106313242306981,
                1.9376133828209587,
                -0.47152535071780166
            ]
        },
        {
            "positions": [
                1.9802443020872866,
                -1.8122602499682439,
                -2.0283376825698043,
                0.03597276117125012,
                1.8423830985250054,
                -0.4326548822618737
            ]
        },
        {
            "positions": [
                2.0432978008268012,
                -1.8730706740107164,
                -2.0079320151375097,
                0.12300865476557013,
                1.7471528142290522,
                -0.3937844138059457
            ]
        },
        {
            "positions": [
                2.1063512995663163,
                -1.9338810980531886,
                -1.9875263477052156,
                0.2100445483598901,
                1.651922529933099,
                -0.35491394535001775
            ]
        },
        {
            "positions": [
                2.169404798305831,
                -1.9946915220956611,
                -1.9671206802729213,
                0.29708044195421,
                1.556692245637146,
                -0.31604347689408974
            ]
        },
        {
            "positions": [
                2.2324582970453455,
                -2.0555019461381336,
                -1.946715012840627,
                0.38411633554853,
                1.4614619613411928,
                -0.2771730084381617
            ]
        },
        {
            "positions": [
                2.2955117957848605,
                -2.116312370180606,
                -1.9263093454083327,
                0.47115222914285004,
                1.3662316770452394,
                -0.23830253998223372
            ]
        },
        {
            "positions": [
                2.358565294524375,
                -2.1771227942230786,
                -1.9059036779760383,
                0.55818812273717,
                1.2710013927492863,
                -0.19943207152630577
            ]
        },
        {
            "positions": [
                2.4216187932638897,
                -2.237933218265551,
                -1.885498010543744,
                0.64522401633149,
                1.175771108453333,
                -0.16056160307037776
            ]
        },
        {
            "positions": [
                2.4691680286981925,
                -2.286006240753179,
                -1.8421599814675167,
                0.7135063423885487,
                1.0376260364699987,
                -0.12610531286979226
            ]
        },
        {
            "positions": [
                2.5167172641324953,
                -2.3340792632408074,
                -1.7988219523912894,
                0.7817886684456075,
                0.8994809644866644,
                -0.09164902266920677
            ]
        },
        {
            "positions": [
                2.5642664995667985,
                -2.382152285728435,
                -1.7554839233150619,
                0.8500709945026663,
                0.7613358925033302,
                -0.05719273246862128
            ]
        },
        {
            "positions": [
                2.6118157350011013,
                -2.4302253082160634,
                -1.7121458942388346,
                0.9183533205597251,
                0.6231908205199957,
                -0.022736442268035784
            ]
        },
        {
            "positions": [
                2.659364970435404,
                -2.4782983307036917,
                -1.6688078651626073,
                0.9866356466167838,
                0.48504574853666155,
                0.011719847932549704
            ]
        }
    ]
}