{
    "goal": {
        "global_pose": {
            "orientation": {
                "w": 0.7031023502349854,
                "x": -0.7110244035720825,
                "y": 0.007748599164187908,
                "z": 0.005598929710686207
            },
            "position": {
                "x": 0.11585023208521307,
                "y": 0.44412534475326537,
                "z": 0.3711530566215515
            }
        },
        "name": "move_to_auspresseinheit_A"
    },
    "id": "ProjEST_move_to_auspresseinheit_A_142",
    "joint_names": [
        "shoulder_pan_joint",
        "shoulder_lift_joint",
        "elbow_joint",
        "wrist_1_joint",
        "wrist_2_joint",
        "wrist_3_joint"
    ],
    "metrics": {
        "cart_traj_len": 1.8494265292659111,
        "distance_elbow_joint": 0.4809270256689566,
        "distance_shoulder_lift_joint": 1.7669822801478194,
        "distance_shoulder_pan_joint": 4.623553231392061,
        "distance_wrist_1_joint": 7.509632508145327,
        "distance_wrist_2_joint": 5.8258850756162195,
        "distance_wrist_3_joint": 3.113197463754226,
        "smoothness": 0.5618384070104363,
        "time": 0.06411325699999999,
        "traj_len": 4.829096974044383,
        "weighted_distance": 6.548441806719721
    },
    "planner": "ProjEST",
    "start": {
        "state": {
            "elbow_joint": 2.4225746658250005,
            "shoulder_lift_joint": -1.3736534386056498,
            "shoulder_pan_joint": -0.3378633547517467,
            "wrist_1_joint": -1.0288598680537169,
            "wrist_2_joint": 1.233022673432363,
            "wrist_3_joint": -3.0940220416140027
        }
    },
    "waypoints": [
        {
            "positions": [
                -0.3378633547517467,
                -1.3736534386056498,
                2.4225746658250005,
                -1.0288598680537169,
                1.233022673432363,
                -3.0940220416140027
            ]
        },
        {
            "positions": [
                -0.395606933983601,
                -1.4107568571912357,
                2.414293544996193,
                -0.8984534529356758,
                1.130471245163432,
                -3.0445434272210328
            ]
        },
        {
            "positions": [
                -0.4533505132154553,
                -1.4478602757768215,
                2.4060124241673857,
                -0.7680470378176348,
                1.027919816894501,
                -2.9950648128280632
            ]
        },
        {
            "positions": [
                -0.5110940924473095,
                -1.4849636943624074,
                2.397731303338578,
                -0.6376406226995939,
                0.92536838862557,
                -2.9455861984350933
            ]
        },
        {
            "positions": [
                -0.5688376716791638,
                -1.5220671129479932,
                2.389450182509771,
                -0.5072342075815528,
                0.8228169603566391,
                -2.8961075840421233
            ]
        },
        {
            "positions": [
                -0.626581250911018,
                -1.559170531533579,
                2.3811690616809633,
                -0.37682779246351183,
                0.720265532087708,
                -2.8466289696491534
            ]
        },
        {
            "positions": [
                -0.6843248301428724,
                -1.596273950119165,
                2.372887940852156,
                -0.24642137734547076,
                0.617714103818777,
                -2.797150355256184
            ]
        },
        {
            "positions": [
                -0.7420684093747266,
                -1.6333773687047508,
                2.3646068200233485,
                -0.1160149622274298,
                0.5151626755498461,
                -2.747671740863214
            ]
        },
        {
            "positions": [
                -0.7998119886065809,
                -1.6704807872903367,
                2.3563256991945414,
                0.014391452890611278,
                0.41261124728091503,
                -2.698193126470244
            ]
        },
        {
            "positions": [
                -0.8575555678384352,
                -1.7075842058759225,
                2.3480445783657338,
                0.14479786800865235,
                0.310059819011984,
                -2.648714512077274
            ]
        },
        {
            "positions": [
                -0.9152991470702894,
                -1.7446876244615084,
                2.3397634575369266,
                0.2752042831266932,
                0.20750839074305305,
                -2.5992358976843044
            ]
        },
        {
            "positions": [
                -0.9730427263021437,
                -1.7817910430470942,
                2.331482336708119,
                0.4056106982447343,
                0.104956962474122,
                -2.5497572832913344
            ]
        },
        {
            "positions": [
                -1.030786305533998,
                -1.8188944616326799,
                2.3232012158793114,
                0.5360171133627754,
                0.0024055342051909623,
                -2.5002786688983645
            ]
        },
        {
            "positions": [
                -1.0885298847658522,
                -1.855997880218266,
                2.3149200950505042,
                0.6664235284808164,
                -0.10014589406374008,
                -2.4508000545053945
            ]
        },
        {
            "positions": [
                -1.1462734639977066,
                -1.8931012988038516,
                2.3066389742216966,
                0.7968299435988573,
                -0.2026973223326709,
                -2.401321440112425
            ]
        },
        {
            "positions": [
                -1.204017043229561,
                -1.9302047173894374,
                2.2983578533928894,
                0.9272363587168984,
                -0.30524875060160195,
                -2.351842825719455
            ]
        },
        {
            "positions": [
                -1.261760622461415,
                -1.9673081359750233,
                2.290076732564082,
                1.0576427738349394,
                -0.407800178870533,
                -2.302364211326485
            ]
        },
        {
            "positions": [
                -1.3195042016932692,
                -2.004411554560609,
                2.2817956117352747,
                1.18804918895298,
                -0.5103516071394638,
                -2.252885596933515
            ]
        },
        {
            "positions": [
                -1.3772477809251236,
                -2.041514973146195,
                2.273514490906467,
                1.3184556040710216,
                -0.6129030354083951,
                -2.203406982540545
            ]
        },
        {
            "positions": [
                -1.434991360156978,
                -2.078618391731781,
                2.26523337007766,
                1.4488620191890627,
                -0.7154544636773259,
                -2.1539283681475756
            ]
        },
        {
            "positions": [
                -1.492734939388832,
                -2.1157218103173667,
                2.2569522492488523,
                1.5792684343071033,
                -0.818005891946257,
                -2.1044497537546056
            ]
        },
        {
            "positions": [
                -1.5504785186206862,
                -2.1528252289029526,
                2.248671128420045,
                1.7096748494251444,
                -0.920557320215188,
                -2.054971139361636
            ]
        },
        {
            "positions": [
                -1.6082220978525408,
                -2.1899286474885384,
                2.2403900075912375,
                1.8400812645431854,
                -1.023108748484119,
                -2.005492524968666
            ]
        },
        {
            "positions": [
                -1.665965677084395,
                -2.2270320660741243,
                2.23210888676243,
                1.9704876796612265,
                -1.12566017675305,
                -1.9560139105756962
            ]
        },
        {
            "positions": [
                -1.7237092563162493,
                -2.26413548465971,
                2.2238277659336227,
                2.1008940947792674,
                -1.2282116050219811,
                -1.9065352961827264
            ]
        },
        {
            "positions": [
                -1.7814528355481034,
                -2.301238903245296,
                2.215546645104815,
                2.2313005098973084,
                -1.3307630332909117,
                -1.8570566817897565
            ]
        },
        {
            "positions": [
                -1.8391964147799578,
                -2.338342321830882,
                2.207265524276008,
                2.3617069250153495,
                -1.4333144615598432,
                -1.8075780673967865
            ]
        },
        {
            "positions": [
                -1.8969399940118121,
                -2.3754457404164677,
                2.1989844034472004,
                2.4921133401333906,
                -1.5358658898287738,
                -1.7580994530038168
            ]
        },
        {
            "positions": [
                -1.9546835732436663,
                -2.4125491590020536,
                2.190703282618393,
                2.6225197552514317,
                -1.6384173180977049,
                -1.708620838610847
            ]
        },
        {
            "positions": [
                -2.0124271524755204,
                -2.4496525775876394,
                2.1824221617895856,
                2.7529261703694727,
                -1.740968746366636,
                -1.659142224217877
            ]
        },
        {
            "positions": [
                -2.070170731707375,
                -2.4867559961732253,
                2.1741410409607784,
                2.883332585487514,
                -1.843520174635567,
                -1.609663609824907
            ]
        },
        {
            "positions": [
                -2.127914310939229,
                -2.523859414758811,
                2.165859920131971,
                3.013739000605555,
                -1.946071602904498,
                -1.5601849954319373
            ]
        },
        {
            "positions": [
                -2.0302073359321744,
                -2.502591266345202,
                2.1735913780621754,
                2.8941861164853457,
                -1.8548029546534854,
                -1.6146456994861498
            ]
        },
        {
            "positions": [
                -1.9325003609251201,
                -2.4813231179315935,
                2.1813228359923795,
                2.7746332323651366,
                -1.763534306402473,
                -1.6691064035403622
            ]
        },
        {
            "positions": [
                -1.8347933859180656,
                -2.4600549695179845,
                2.189054293922584,
                2.655080348244928,
                -1.6722656581514606,
                -1.7235671075945747
            ]
        },
        {
            "positions": [
                -1.7370864109110111,
                -2.4387868211043755,
                2.1967857518527882,
                2.5355274641247187,
                -1.580997009900448,
                -1.778027811648787
            ]
        },
        {
            "positions": [
                -1.6393794359039566,
                -2.4175186726907665,
                2.204517209782993,
                2.4159745800045096,
                -1.4897283616494357,
                -1.8324885157029995
            ]
        },
        {
            "positions": [
                -1.5416724608969021,
                -2.396250524277158,
                2.212248667713197,
                2.2964216958843005,
                -1.3984597133984233,
                -1.886949219757212
            ]
        },
        {
            "positions": [
                -1.4439654858898474,
                -2.374982375863549,
                2.2199801256434015,
                2.1768688117640913,
                -1.3071910651474106,
                -1.9414099238114244
            ]
        },
        {
            "positions": [
                -1.3462585108827931,
                -2.35371422744994,
                2.2277115835736057,
                2.0573159276438826,
                -1.2159224168963982,
                -1.9958706278656368
            ]
        },
        {
            "positions": [
                -1.2485515358757384,
                -2.3324460790363313,
                2.2354430415038102,
                1.9377630435236735,
                -1.124653768645386,
                -2.0503313319198493
            ]
        },
        {
            "positions": [
                -1.1508445608686841,
                -2.3111779306227223,
                2.243174499434015,
                1.8182101594034643,
                -1.0333851203943731,
                -2.1047920359740617
            ]
        },
        {
            "positions": [
                -1.0531375858616296,
                -2.2899097822091132,
                2.250905957364219,
                1.6986572752832554,
                -0.9421164721433608,
                -2.159252740028274
            ]
        },
        {
            "positions": [
                -0.9554306108545751,
                -2.268641633795504,
                2.2586374152944235,
                1.5791043911630462,
                -0.8508478238923485,
                -2.2137134440824866
            ]
        },
        {
            "positions": [
                -0.8577236358475204,
                -2.2473734853818956,
                2.2663688732246277,
                1.459551507042837,
                -0.7595791756413359,
                -2.268174148136699
            ]
        },
        {
            "positions": [
                -0.7600166608404659,
                -2.2261053369682866,
                2.2741003311548322,
                1.339998622922628,
                -0.6683105273903234,
                -2.3226348521909115
            ]
        },
        {
            "positions": [
                -0.6623096858334114,
                -2.2048371885546776,
                2.2818317890850364,
                1.220445738802419,
                -0.5770418791393108,
                -2.377095556245124
            ]
        },
        {
            "positions": [
                -0.5646027108263572,
                -2.1835690401410686,
                2.289563247015241,
                1.10089285468221,
                -0.4857732308882985,
                -2.4315562602993364
            ]
        },
        {
            "positions": [
                -0.46689573581930266,
                -2.16230089172746,
                2.297294704945445,
                0.9813399705620012,
                -0.39450458263728616,
                -2.486016964353549
            ]
        },
        {
            "positions": [
                -0.36918876081224794,
                -2.141032743313851,
                2.3050261628756497,
                0.861787086441792,
                -0.3032359343862736,
                -2.5404776684077612
            ]
        },
        {
            "positions": [
                -0.27148178580519366,
                -2.119764594900242,
                2.3127576208058542,
                0.7422342023215829,
                -0.21196728613526106,
                -2.5949383724619737
            ]
        },
        {
            "positions": [
                -0.17377481079813895,
                -2.0984964464866334,
                2.3204890787360584,
                0.6226813182013737,
                -0.1206986378842485,
                -2.649399076516186
            ]
        },
        {
            "positions": [
                -0.07606783579108445,
                -2.0772282980730243,
                2.328220536666263,
                0.5031284340811646,
                -0.029429989633236175,
                -2.7038597805703986
            ]
        },
        {
            "positions": [
                0.021639139215969827,
                -2.0559601496594153,
                2.335951994596467,
                0.3835755499609559,
                0.061838658617776376,
                -2.758320484624611
            ]
        },
        {
            "positions": [
                0.11934611422302455,
                -2.0346920012458063,
                2.3436834525266717,
                0.26402266584074674,
                0.1531073068687887,
                -2.8127811886788234
            ]
        },
        {
            "positions": [
                0.21705308923007882,
                -2.0134238528321977,
                2.351414910456876,
                0.1444697817205376,
                0.24437595511980104,
                -2.867241892733036
            ]
        },
        {
            "positions": [
                0.31476006423713354,
                -1.9921557044185887,
                2.3591463683870804,
                0.02491689760032889,
                0.33564460337081337,
                -2.9217025967872483
            ]
        },
        {
            "positions": [
                0.41246703924418826,
                -1.9708875560049797,
                2.3668778263172845,
                -0.0946359865198807,
                0.42691325162182614,
                -2.9761633008414607
            ]
        },
        {
            "positions": [
                0.5101740142512425,
                -1.9496194075913709,
                2.374609284247489,
                -0.2141888706400894,
                0.5181818998728385,
                -3.030624004895673
            ]
        },
        {
            "positions": [
                0.6078809892582973,
                -1.928351259177762,
                2.3823407421776936,
                -0.333741754760299,
                0.6094505481238512,
                -3.0850847089498856
            ]
        },
        {
            "positions": [
                0.7055879642653515,
                -1.907083110764153,
                2.390072200107898,
                -0.45329463888050753,
                0.7007191963748635,
                -3.139545413004098
            ]
        }
    ]
}