{
    "goal": {
        "global_pose": {
            "orientation": {
                "w": -0.4816463035849501,
                "x": 0.5182115481033762,
                "y": 0.4908360881923453,
                "z": -0.5084816262002911
            },
            "position": {
                "x": -0.8240239810943604,
                "y": 0.19912469901144506,
                "z": 0.16403168439865112
            }
        },
        "name": "move_to_storage_D"
    },
    "id": "ProjEST_move_to_storage_D_134",
    "joint_names": [
        "shoulder_pan_joint",
        "shoulder_lift_joint",
        "elbow_joint",
        "wrist_1_joint",
        "wrist_2_joint",
        "wrist_3_joint"
    ],
    "metrics": {
        "cart_traj_len": 4.099735399367554,
        "distance_elbow_joint": 4.21033726057334,
        "distance_shoulder_lift_joint": 1.2655840715107618,
        "distance_shoulder_pan_joint": 2.8137079309844486,
        "distance_wrist_1_joint": 2.3770555328783143,
        "distance_wrist_2_joint": 0.8725435088890042,
        "distance_wrist_3_joint": 3.128010056220841,
        "smoothness": 0.022309386854673235,
        "time": 0.170350702,
        "traj_len": 3.829783069712528,
        "weighted_distance": 4.916590029203747
    },
    "planner": "ProjEST",
    "start": {
        "state": {
            "elbow_joint": -2.384821988534728,
            "shoulder_lift_joint": -2.2788054721415256,
            "shoulder_pan_joint": -0.1854694642142757,
            "wrist_1_joint": 1.4845938289331202,
            "wrist_2_joint": 0.17898776772866878,
            "wrist_3_joint": 0.037105688729662994
        }
    },
    "waypoints": [
        {
            "positions": [
                -0.1854694642142757,
                -2.2788054721415256,
                -2.384821988534728,
                1.4845938289331202,
                0.17898776772866878,
                0.037105688729662994
            ]
        },
        {
            "positions": [
                -0.09022114796577432,
                -2.26895600147277,
                -2.373893014535418,
                1.4949014142622805,
                0.30619080967919976,
                -0.06537495989986007
            ]
        },
        {
            "positions": [
                0.0050271682827270625,
                -2.259106530804015,
                -2.362964040536108,
                1.505208999591441,
                0.43339385162973076,
                -0.16785560852938314
            ]
        },
        {
            "positions": [
                0.10027548453122845,
                -2.2492570601352595,
                -2.3520350665367977,
                1.5155165849206014,
                0.5605968935802618,
                -0.2703362571589062
            ]
        },
        {
            "positions": [
                0.19552380077972983,
                -2.2394075894665044,
                -2.341106092537488,
                1.525824170249762,
                0.6877999355307928,
                -0.3728169057884293
            ]
        },
        {
            "positions": [
                0.29077211702823125,
                -2.229558118797749,
                -2.330177118538178,
                1.5361317555789222,
                0.8150029774813238,
                -0.4752975544179523
            ]
        },
        {
            "positions": [
                0.3636151181986409,
                -2.1926301438646423,
                -2.203249836157204,
                1.4641295553966407,
                0.8213351203145473,
                -0.5483396221367044
            ]
        },
        {
            "positions": [
                0.43645811936905055,
                -2.155702168931536,
                -2.07632255377623,
                1.3921273552143592,
                0.8276672631477707,
                -0.6213816898554564
            ]
        },
        {
            "positions": [
                0.5093011205394602,
                -2.1187741939984295,
                -1.9493952713952558,
                1.3201251550320774,
                0.8339994059809942,
                -0.6944237575742085
            ]
        },
        {
            "positions": [
                0.5821441217098697,
                -2.0818462190653233,
                -1.8224679890142819,
                1.2481229548497959,
                0.8403315488142177,
                -0.7674658252929605
            ]
        },
        {
            "positions": [
                0.6549871228802795,
                -2.0449182441322167,
                -1.695540706633308,
                1.1761207546675143,
                0.8466636916474413,
                -0.8405078930117126
            ]
        },
        {
            "positions": [
                0.727830124050689,
                -2.0079902691991105,
                -1.5686134242523337,
                1.1041185544852326,
                0.8529958344806647,
                -0.9135499607304647
            ]
        },
        {
            "positions": [
                0.8006731252210987,
                -1.9710622942660039,
                -1.4416861418713598,
                1.032116354302951,
                0.8593279773138882,
                -0.9865920284492167
            ]
        },
        {
            "positions": [
                0.8735161263915083,
                -1.9341343193328977,
                -1.3147588594903858,
                0.9601141541206695,
                0.8656601201471117,
                -1.0596340961679687
            ]
        },
        {
            "positions": [
                0.946359127561918,
                -1.897206344399791,
                -1.187831577109412,
                0.8881119539383879,
                0.8719922629803352,
                -1.1326761638867209
            ]
        },
        {
            "positions": [
                1.0192021287323276,
                -1.860278369466685,
                -1.060904294728438,
                0.8161097537561063,
                0.8783244058135586,
                -1.2057182316054729
            ]
        },
        {
            "positions": [
                1.0920451299027372,
                -1.8233503945335783,
                -0.9339770123474638,
                0.7441075535738246,
                0.8846565486467821,
                -1.278760299324225
            ]
        },
        {
            "positions": [
                1.164888131073147,
                -1.7864224196004719,
                -0.8070497299664898,
                0.6721053533915431,
                0.8909886914800056,
                -1.351802367042977
            ]
        },
        {
            "positions": [
                1.2377311322435565,
                -1.7494944446673655,
                -0.6801224475855159,
                0.6001031532092616,
                0.8973208343132291,
                -1.424844434761729
            ]
        },
        {
            "positions": [
                1.310574133413966,
                -1.712566469734259,
                -0.5531951652045417,
                0.5281009530269798,
                0.9036529771464525,
                -1.497886502480481
            ]
        },
        {
            "positions": [
                1.3834171345843758,
                -1.6756384948011527,
                -0.42626788282356776,
                0.45609875284469825,
                0.909985119979676,
                -1.5709285701992333
            ]
        },
        {
            "positions": [
                1.4562601357547855,
                -1.6387105198680463,
                -0.2993406004425938,
                0.3840965526624167,
                0.9163172628128995,
                -1.6439706379179853
            ]
        },
        {
            "positions": [
                1.5291031369251948,
                -1.6017825449349399,
                -0.17241331806161986,
                0.3120943524801352,
                0.9226494056461231,
                -1.7170127056367372
            ]
        },
        {
            "positions": [
                1.6019461380956046,
                -1.5648545700018335,
                -0.04548603568064591,
                0.24009215229785363,
                0.9289815484793466,
                -1.7900547733554895
            ]
        },
        {
            "positions": [
                1.6747891392660144,
                -1.527926595068727,
                0.08144124670032804,
                0.16808995211557187,
                0.93531369131257,
                -1.8630968410742414
            ]
        },
        {
            "positions": [
                1.7476321404364241,
                -1.4909986201356207,
                0.208368529081302,
                0.09608775193329033,
                0.9416458341457935,
                -1.9361389087929934
            ]
        },
        {
            "positions": [
                1.8204751416068334,
                -1.4540706452025143,
                0.3352958114622764,
                0.024085551751008794,
                0.947977976979017,
                -2.009180976511746
            ]
        },
        {
            "positions": [
                1.8933181427772432,
                -1.4171426702694077,
                0.46222309384325033,
                -0.04791664843127297,
                0.9543101198122405,
                -2.0822230442304974
            ]
        },
        {
            "positions": [
                1.966161143947653,
                -1.3802146953363015,
                0.5891503762242243,
                -0.11991884861355451,
                0.9606422626454639,
                -2.15526511194925
            ]
        },
        {
            "positions": [
                2.0390041451180623,
                -1.3432867204031949,
                0.7160776586051982,
                -0.19192104879583605,
                0.9669744054786874,
                -2.228307179668002
            ]
        },
        {
            "positions": [
                2.111847146288472,
                -1.3063587454700887,
                0.8430049409861722,
                -0.2639232489781176,
                0.9733065483119109,
                -2.301349247386754
            ]
        },
        {
            "positions": [
                2.184690147458882,
                -1.269430770536982,
                0.9699322233671461,
                -0.3359254491603991,
                0.9796386911451345,
                -2.374391315105506
            ]
        },
        {
            "positions": [
                2.2575331486292916,
                -1.2325027956038759,
                1.09685950574812,
                -0.4079276493426809,
                0.9859708339783579,
                -2.447433382824258
            ]
        },
        {
            "positions": [
                2.330376149799701,
                -1.1955748206707693,
                1.2237867881290945,
                -0.47992984952496265,
                0.9923029768115814,
                -2.52047545054301
            ]
        },
        {
            "positions": [
                2.4032191509701106,
                -1.1586468457376629,
                1.3507140705100684,
                -0.551932049707244,
                0.9986351196448049,
                -2.5935175182617622
            ]
        },
        {
            "positions": [
                2.4760621521405204,
                -1.1217188708045565,
                1.4776413528910424,
                -0.6239342498895257,
                1.0049672624780284,
                -2.6665595859805142
            ]
        },
        {
            "positions": [
                2.5489051533109297,
                -1.08479089587145,
                1.6045686352720163,
                -0.695936450071807,
                1.0112994053112518,
                -2.7396016536992662
            ]
        },
        {
            "positions": [
                2.6217481544813395,
                -1.0478629209383437,
                1.7314959176529898,
                -0.7679386502540886,
                1.0176315481444753,
                -2.812643721418018
            ]
        },
        {
            "positions": [
                2.624993310625756,
                -1.0305421607845537,
                1.7785055948458006,
                -0.7786622504538393,
                1.0345814123810742,
                -2.951774044454598
            ]
        },
        {
            "positions": [
                2.628238466770173,
                -1.0132214006307638,
                1.8255152720386114,
                -0.78938585065359,
                1.051531276617673,
                -3.090904367491178
            ]
        }
    ]
}