{
    "goal": {
        "global_pose": {
            "orientation": {
                "w": 0.7031023480610252,
                "x": -0.7110244013736278,
                "y": 0.0077485991402295624,
                "z": 0.005598929693374583
            },
            "position": {
                "x": -0.8841497679147869,
                "y": 0.44412534475326537,
                "z": 0.3711530566215515
            }
        },
        "name": "move_to_auspresseinheit_D"
    },
    "id": "ProjEST_move_to_auspresseinheit_D_123",
    "joint_names": [
        "shoulder_pan_joint",
        "shoulder_lift_joint",
        "elbow_joint",
        "wrist_1_joint",
        "wrist_2_joint",
        "wrist_3_joint"
    ],
    "metrics": {
        "cart_traj_len": 0.3443317161010846,
        "distance_elbow_joint": 0.6606925657981637,
        "distance_shoulder_lift_joint": 0.13430408610581868,
        "distance_shoulder_pan_joint": 0.13450786237172538,
        "distance_wrist_1_joint": 0.6014427471354553,
        "distance_wrist_2_joint": 1.437048814041306,
        "distance_wrist_3_joint": 0.06427377772499154,
        "smoothness": 6.908054402309963e-16,
        "time": 0.103490677,
        "traj_len": 1.7413413947808916,
        "weighted_distance": 2.280199326770404
    },
    "planner": "ProjEST",
    "start": {
        "state": {
            "elbow_joint": -1.8275523626775212,
            "shoulder_lift_joint": -2.126789852344167,
            "shoulder_pan_joint": -0.03513704404078235,
            "wrist_1_joint": -2.347782403156801,
            "wrist_2_joint": -1.6058999987535132,
            "wrist_3_joint": -3.0880379163319196
        }
    },
    "waypoints": [
        {
            "positions": [
                -0.03513704404078235,
                -2.126789852344167,
                -1.8275523626775212,
                -2.347782403156801,
                -1.6058999987535132,
                -3.0880379163319196
            ]
        },
        {
            "positions": [
                -0.05195052683724802,
                -2.143577863107394,
                -1.7449657919527508,
                -2.4229627465487327,
                -1.42626889699835,
                -3.0800036941162956
            ]
        },
        {
            "positions": [
                -0.0687640096337137,
                -2.1603658738706217,
                -1.6623792212279802,
                -2.4981430899406645,
                -1.2466377952431866,
                -3.0719694719006716
            ]
        },
        {
            "positions": [
                -0.08557749243017937,
                -2.177153884633849,
                -1.5797926505032098,
                -2.5733234333325967,
                -1.0670066934880236,
                -3.0639352496850476
            ]
        },
        {
            "positions": [
                -0.10239097522664503,
                -2.193941895397076,
                -1.4972060797784392,
                -2.6485037767245285,
                -0.8873755917328602,
                -3.0559010274694236
            ]
        },
        {
            "positions": [
                -0.11920445802311072,
                -2.2107299061603034,
                -1.4146195090536688,
                -2.7236841201164603,
                -0.7077444899776969,
                -3.0478668052538
            ]
        },
        {
            "positions": [
                -0.13601794081957638,
                -2.2275179169235306,
                -1.3320329383288985,
                -2.7988644635083926,
                -0.5281133882225337,
                -3.039832583038176
            ]
        },
        {
            "positions": [
                -0.15283142361604204,
                -2.2443059276867583,
                -1.2494463676041279,
                -2.8740448069003244,
                -0.34848228646737045,
                -3.031798360822552
            ]
        },
        {
            "positions": [
                -0.16964490641250773,
                -2.2610939384499855,
                -1.1668597968793575,
                -2.949225150292256,
                -0.16885118471220725,
                -3.023764138606928
            ]
        }
    ]
}