{
    "goal": {
        "global_pose": {
            "orientation": {
                "w": 0.7031023502349854,
                "x": -0.7110244035720825,
                "y": 0.007748599164187908,
                "z": 0.005598929710686207
            },
            "position": {
                "x": 0.11585023208521307,
                "y": 0.44412534475326537,
                "z": 0.3711530566215515
            }
        },
        "name": "move_to_auspresseinheit_A"
    },
    "id": "ProjEST_move_to_auspresseinheit_A_65",
    "joint_names": [
        "shoulder_pan_joint",
        "shoulder_lift_joint",
        "elbow_joint",
        "wrist_1_joint",
        "wrist_2_joint",
        "wrist_3_joint"
    ],
    "metrics": {
        "cart_traj_len": 0.8874751803264929,
        "distance_elbow_joint": 1.0187566775690713,
        "distance_shoulder_lift_joint": 0.5350374640265663,
        "distance_shoulder_pan_joint": 1.0429158303888908,
        "distance_wrist_1_joint": 0.7383013332621606,
        "distance_wrist_2_joint": 2.7990649761391633,
        "distance_wrist_3_joint": 1.5046853860622753,
        "smoothness": 0.9163032071409273,
        "time": 1.257997343,
        "traj_len": 2.7638309766424083,
        "weighted_distance": 3.766364128569356
    },
    "planner": "ProjEST",
    "start": {
        "state": {
            "elbow_joint": 2.4225746658250005,
            "shoulder_lift_joint": -1.3736534386056498,
            "shoulder_pan_joint": -0.3378633547517467,
            "wrist_1_joint": -1.0288598680537169,
            "wrist_2_joint": 1.233022673432363,
            "wrist_3_joint": -3.0940220416140027
        }
    },
    "waypoints": [
        {
            "positions": [
                -0.3378633547517467,
                -1.3736534386056498,
                2.4225746658250005,
                -1.0288598680537169,
                1.233022673432363,
                -3.0940220416140027
            ]
        },
        {
            "positions": [
                -0.2988387293161118,
                -1.389790684211045,
                2.374992712883971,
                -0.9700013365652582,
                1.081919570184631,
                -3.0271368557947747
            ]
        },
        {
            "positions": [
                -0.2598141038804769,
                -1.4059279298164402,
                2.327410759942942,
                -0.9111428050767995,
                0.9308164669368986,
                -2.960251669975547
            ]
        },
        {
            "positions": [
                -0.22078947844484198,
                -1.4220651754218354,
                2.279828807001912,
                -0.8522842735883408,
                0.7797133636891664,
                -2.893366484156319
            ]
        },
        {
            "positions": [
                -0.18176485300920703,
                -1.4382024210272306,
                2.232246854060883,
                -0.793425742099882,
                0.6286102604414342,
                -2.8264812983370913
            ]
        },
        {
            "positions": [
                -0.14274022757357213,
                -1.4543396666326258,
                2.1846649011198536,
                -0.7345672106114234,
                0.47750715719370207,
                -2.759596112517863
            ]
        },
        {
            "positions": [
                -0.10371560213793721,
                -1.4704769122380208,
                2.1370829481788243,
                -0.6757086791229647,
                0.32640405394596983,
                -2.692710926698635
            ]
        },
        {
            "positions": [
                -0.06469097670230228,
                -1.486614157843416,
                2.0895009952377945,
                -0.6168501476345061,
                0.1753009506982377,
                -2.6258257408794075
            ]
        },
        {
            "positions": [
                -0.02566635126666733,
                -1.5027514034488112,
                2.0419190422967652,
                -0.5579916161460473,
                0.02419784745050535,
                -2.5589405550601794
            ]
        },
        {
            "positions": [
                0.013358274168967565,
                -1.5188886490542064,
                1.994337089355736,
                -0.49913308465758854,
                -0.126905255797227,
                -2.4920553692409513
            ]
        },
        {
            "positions": [
                0.05238289960460246,
                -1.5350258946596016,
                1.9467551364147067,
                -0.44027455316913,
                -0.2780083590449589,
                -2.4251701834217236
            ]
        },
        {
            "positions": [
                0.09140752504023741,
                -1.5511631402649968,
                1.8991731834736771,
                -0.38141602168067124,
                -0.4291114622926913,
                -2.3582849976024955
            ]
        },
        {
            "positions": [
                0.1440118468554885,
                -1.5688662355908378,
                1.9695347112019461,
                -0.40318960611104254,
                -0.3705994039480064,
                -2.4544479248744775
            ]
        },
        {
            "positions": [
                0.19661616867073958,
                -1.586569330916679,
                2.039896238930215,
                -0.42496319054141385,
                -0.3120873456033215,
                -2.550610852146459
            ]
        },
        {
            "positions": [
                0.24922049048599065,
                -1.6042724262425203,
                2.110257766658484,
                -0.4467367749717851,
                -0.2535752872586366,
                -2.6467737794184405
            ]
        },
        {
            "positions": [
                0.30182481230124175,
                -1.6219755215683613,
                2.180619294386753,
                -0.4685103594021564,
                -0.19506322891395167,
                -2.7429367066904224
            ]
        },
        {
            "positions": [
                0.3690294228572255,
                -1.669761418412337,
                2.2162708084375318,
                -0.4691375509300948,
                -0.04458279440805679,
                -2.8069861455175626
            ]
        },
        {
            "positions": [
                0.4362340334132092,
                -1.717547315256313,
                2.2519223224883103,
                -0.4697647424580331,
                0.10589764009783809,
                -2.871035584344703
            ]
        },
        {
            "positions": [
                0.5034386439691929,
                -1.7653332121002887,
                2.2875738365390887,
                -0.4703919339859715,
                0.256378074603733,
                -2.935085023171843
            ]
        },
        {
            "positions": [
                0.5706432545251767,
                -1.8131191089442644,
                2.3232253505898677,
                -0.4710191255139099,
                0.40685850910962784,
                -2.9991344619989833
            ]
        },
        {
            "positions": [
                0.6378478650811604,
                -1.8609050057882404,
                2.3588768646406466,
                -0.47164631704184823,
                0.5573389436155228,
                -3.0631839008261235
            ]
        },
        {
            "positions": [
                0.7050524756371441,
                -1.908690902632216,
                2.394528378691425,
                -0.4722735085697866,
                0.7078193781214177,
                -3.1272333396532637
            ]
        }
    ]
}