{
    "goal": {
        "global_pose": {
            "orientation": {
                "w": 0.7031023502349854,
                "x": -0.7110244035720825,
                "y": 0.007748599164187908,
                "z": 0.005598929710686207
            },
            "position": {
                "x": 0.11585023208521307,
                "y": 0.44412534475326537,
                "z": 0.3711530566215515
            }
        },
        "name": "move_to_auspresseinheit_A"
    },
    "id": "ProjEST_move_to_auspresseinheit_A_86",
    "joint_names": [
        "shoulder_pan_joint",
        "shoulder_lift_joint",
        "elbow_joint",
        "wrist_1_joint",
        "wrist_2_joint",
        "wrist_3_joint"
    ],
    "metrics": {
        "cart_traj_len": 2.585808497050202,
        "distance_elbow_joint": 3.657592719302921,
        "distance_shoulder_lift_joint": 0.5633774655489763,
        "distance_shoulder_pan_joint": 1.5700553607663825,
        "distance_wrist_1_joint": 0.6364909567378012,
        "distance_wrist_2_joint": 1.9918946906341133,
        "distance_wrist_3_joint": 1.1911922970045499,
        "smoothness": 1.150883393616134,
        "time": 0.757247227,
        "traj_len": 3.1000973355678276,
        "weighted_distance": 3.823790492610147
    },
    "planner": "ProjEST",
    "start": {
        "state": {
            "elbow_joint": 2.4225746658250005,
            "shoulder_lift_joint": -1.3736534386056498,
            "shoulder_pan_joint": -0.3378633547517467,
            "wrist_1_joint": -1.0288598680537169,
            "wrist_2_joint": 1.233022673432363,
            "wrist_3_joint": -3.0940220416140027
        }
    },
    "waypoints": [
        {
            "positions": [
                -0.3378633547517467,
                -1.3736534386056498,
                2.4225746658250005,
                -1.0288598680537169,
                1.233022673432363,
                -3.0940220416140027
            ]
        },
        {
            "positions": [
                -0.3617681501162512,
                -1.382891986426717,
                2.255141075572106,
                -1.0309648660696886,
                1.1208978318356793,
                -3.0411042896948057
            ]
        },
        {
            "positions": [
                -0.3856729454807557,
                -1.3921305342477843,
                2.087707485319212,
                -1.0330698640856606,
                1.0087729902389955,
                -2.988186537775609
            ]
        },
        {
            "positions": [
                -0.40957774084526016,
                -1.4013690820688516,
                1.9202738950663176,
                -1.0351748621016323,
                0.8966481486423117,
                -2.935268785856412
            ]
        },
        {
            "positions": [
                -0.4334825362097646,
                -1.4106076298899188,
                1.7528403048134233,
                -1.037279860117604,
                0.7845233070456279,
                -2.8823510339372156
            ]
        },
        {
            "positions": [
                -0.45738733157426914,
                -1.419846177710986,
                1.5854067145605288,
                -1.0393848581335758,
                0.6723984654489441,
                -2.8294332820180186
            ]
        },
        {
            "positions": [
                -0.4812921269387736,
                -1.4290847255320531,
                1.4179731243076348,
                -1.0414898561495478,
                0.5602736238522603,
                -2.776515530098822
            ]
        },
        {
            "positions": [
                -0.5051969223032781,
                -1.4383232733531204,
                1.2505395340547403,
                -1.0435948541655196,
                0.4481487822555765,
                -2.723597778179625
            ]
        },
        {
            "positions": [
                -0.5291017176677826,
                -1.4475618211741876,
                1.083105943801846,
                -1.0456998521814913,
                0.33602394065889274,
                -2.6706800262604284
            ]
        },
        {
            "positions": [
                -0.5530065130322871,
                -1.456800368995255,
                0.9156723535489517,
                -1.047804850197463,
                0.22389909906220895,
                -2.6177622743412314
            ]
        },
        {
            "positions": [
                -0.5769113083967915,
                -1.4660389168163221,
                0.7482387632960574,
                -1.049909848213435,
                0.11177425746552516,
                -2.5648445224220344
            ]
        },
        {
            "positions": [
                -0.600816103761296,
                -1.4752774646373894,
                0.5808051730431631,
                -1.0520148462294068,
                -0.0003505841311586544,
                -2.511926770502838
            ]
        },
        {
            "positions": [
                -0.5120397880339862,
                -1.5073904612786526,
                0.7101193365158383,
                -1.0097303110875913,
                0.05224304755412478,
                -2.550416385112755
            ]
        },
        {
            "positions": [
                -0.4232634723066764,
                -1.5395034579199156,
                0.8394334999885135,
                -0.9674457759457759,
                0.10483667923940822,
                -2.5889059997226718
            ]
        },
        {
            "positions": [
                -0.33448715657936656,
                -1.5716164545611788,
                0.9687476634611887,
                -0.9251612408039604,
                0.15743031092469165,
                -2.6273956143325887
            ]
        },
        {
            "positions": [
                -0.24571084085205674,
                -1.603729451202442,
                1.0980618269338638,
                -0.8828767056621449,
                0.2100239426099751,
                -2.6658852289425057
            ]
        },
        {
            "positions": [
                -0.15693452512474693,
                -1.635842447843705,
                1.2273759904065389,
                -0.8405921705203294,
                0.26261757429525856,
                -2.7043748435524226
            ]
        },
        {
            "positions": [
                -0.06815820939743711,
                -1.6679554444849682,
                1.3566901538792142,
                -0.798307635378514,
                0.315211205980542,
                -2.7428644581623396
            ]
        },
        {
            "positions": [
                0.02061810632987271,
                -1.7000684411262315,
                1.4860043173518893,
                -0.7560231002366986,
                0.3678048376658254,
                -2.781354072772257
            ]
        },
        {
            "positions": [
                0.10939442205718253,
                -1.7321814377674944,
                1.6153184808245644,
                -0.7137385650948831,
                0.4203984693511088,
                -2.819843687382174
            ]
        },
        {
            "positions": [
                0.19817073778449246,
                -1.7642944344087577,
                1.7446326442972397,
                -0.6714540299530676,
                0.47299210103639233,
                -2.858333301992091
            ]
        },
        {
            "positions": [
                0.28694705351180216,
                -1.7964074310500209,
                1.8739468077699148,
                -0.6291694948112522,
                0.5255857327216757,
                -2.896822916602008
            ]
        },
        {
            "positions": [
                0.375723369239112,
                -1.8285204276912839,
                2.00326097124259,
                -0.5868849596694368,
                0.5781793644069592,
                -2.935312531211925
            ]
        },
        {
            "positions": [
                0.4644996849664218,
                -1.8606334243325469,
                2.132575134715265,
                -0.5446004245276213,
                0.6307729960922426,
                -2.9738021458218418
            ]
        },
        {
            "positions": [
                0.5532760006937316,
                -1.8927464209738103,
                2.26188929818794,
                -0.5023158893858057,
                0.6833666277775261,
                -3.0122917604317587
            ]
        },
        {
            "positions": [
                0.6420523164210413,
                -1.9248594176150733,
                2.3912034616606155,
                -0.46003135424399033,
                0.7359602594628095,
                -3.0507813750416757
            ]
        },
        {
            "positions": [
                0.7062865079955369,
                -1.9126879310755205,
                2.3966283995642454,
                -0.48138384082068525,
                0.7137496699861869,
                -3.121023796396223
            ]
        }
    ]
}