{
    "goal": {
        "global_pose": {
            "orientation": {
                "w": 0.7031023502349854,
                "x": -0.7110244035720825,
                "y": 0.007748599164187908,
                "z": 0.005598929710686207
            },
            "position": {
                "x": 0.11585023208521307,
                "y": 0.44412534475326537,
                "z": 0.3711530566215515
            }
        },
        "name": "move_to_auspresseinheit_A"
    },
    "id": "ProjEST_move_to_auspresseinheit_A_11",
    "joint_names": [
        "shoulder_pan_joint",
        "shoulder_lift_joint",
        "elbow_joint",
        "wrist_1_joint",
        "wrist_2_joint",
        "wrist_3_joint"
    ],
    "metrics": {
        "cart_traj_len": 0.7819435970237972,
        "distance_elbow_joint": 0.16625910817308398,
        "distance_shoulder_lift_joint": 0.5502207862434865,
        "distance_shoulder_pan_joint": 1.0547591664918765,
        "distance_wrist_1_joint": 0.5876693210467174,
        "distance_wrist_2_joint": 0.5250037312199499,
        "distance_wrist_3_joint": 0.34271735652155666,
        "smoothness": 0.6444550417066388,
        "time": 0.065832345,
        "traj_len": 1.796282124193377,
        "weighted_distance": 2.241592566682548
    },
    "planner": "ProjEST",
    "start": {
        "state": {
            "elbow_joint": 2.4225746658250005,
            "shoulder_lift_joint": -1.3736534386056498,
            "shoulder_pan_joint": -0.3378633547517467,
            "wrist_1_joint": -1.0288598680537169,
            "wrist_2_joint": 1.233022673432363,
            "wrist_3_joint": -3.0940220416140027
        }
    },
    "waypoints": [
        {
            "positions": [
                -0.3378633547517467,
                -1.3736534386056498,
                2.4225746658250005,
                -1.0288598680537169,
                1.233022673432363,
                -3.0940220416140027
            ]
        },
        {
            "positions": [
                -0.34271025665887744,
                -1.372896393092827,
                2.3771658880121582,
                -1.046959158071413,
                1.2321108215194858,
                -3.035871696999349
            ]
        },
        {
            "positions": [
                -0.20823806284648114,
                -1.4635287178509073,
                2.3686260357792808,
                -0.9581789003372271,
                1.1797419799707454,
                -3.01934028472609
            ]
        },
        {
            "positions": [
                -0.07376586903408483,
                -1.5541610426089874,
                2.3600861835464038,
                -0.8693986426030411,
                1.127373138422005,
                -3.002808872452831
            ]
        },
        {
            "positions": [
                0.060706324778311505,
                -1.6447933673670676,
                2.3515463313135267,
                -0.780618384868855,
                1.0750042968732645,
                -2.9862774601795716
            ]
        },
        {
            "positions": [
                0.19517851859070778,
                -1.7354256921251476,
                2.3430064790806493,
                -0.6918381271346691,
                1.022635455324524,
                -2.9697460479063125
            ]
        },
        {
            "positions": [
                0.3296507124031042,
                -1.8260580168832279,
                2.334466626847772,
                -0.603057869400483,
                0.9702666137757836,
                -2.9532146356330533
            ]
        },
        {
            "positions": [
                0.46412290621550045,
                -1.9166903416413081,
                2.325926774614895,
                -0.514277611666297,
                0.9178977722270432,
                -2.936683223359794
            ]
        },
        {
            "positions": [
                0.5856624570706843,
                -1.9138554455502168,
                2.360732383096384,
                -0.4958333693543444,
                0.8129583572197281,
                -3.029372492493468
            ]
        },
        {
            "positions": [
                0.7072020079258682,
                -1.9110205494591255,
                2.395537991577873,
                -0.47738912704239184,
                0.7080189422124131,
                -3.122061761627142
            ]
        }
    ]
}