{
    "goal": {
        "global_pose": {
            "orientation": {
                "w": -0.4816463035849501,
                "x": 0.5182115481033762,
                "y": 0.4908360881923453,
                "z": -0.5084816262002911
            },
            "position": {
                "x": -0.8240239810943604,
                "y": -0.300875300988555,
                "z": 0.16403168439865112
            }
        },
        "name": "move_to_storage_C"
    },
    "id": "ProjEST_move_to_storage_C_91",
    "joint_names": [
        "shoulder_pan_joint",
        "shoulder_lift_joint",
        "elbow_joint",
        "wrist_1_joint",
        "wrist_2_joint",
        "wrist_3_joint"
    ],
    "metrics": {
        "cart_traj_len": 0.576352727429793,
        "distance_elbow_joint": 0.26001753018968143,
        "distance_shoulder_lift_joint": 0.1895058679271565,
        "distance_shoulder_pan_joint": 0.4946593922141562,
        "distance_wrist_1_joint": 0.08689712491804646,
        "distance_wrist_2_joint": 1.0649180120495174,
        "distance_wrist_3_joint": 0.07233158504153891,
        "smoothness": 0.0,
        "time": 0.075434603,
        "traj_len": 1.4725248766455854,
        "weighted_distance": 1.8613994250001096
    },
    "planner": "ProjEST",
    "start": {
        "state": {
            "elbow_joint": 2.010868314990456,
            "shoulder_lift_joint": -1.1634956873337592,
            "shoulder_pan_joint": -2.4736205022346125,
            "wrist_1_joint": -0.8367026794202681,
            "wrist_2_joint": 0.6746043897044499,
            "wrist_3_joint": -3.1496632123970403
        }
    },
    "waypoints": [
        {
            "positions": [
                -2.4736205022346125,
                -1.1634956873337592,
                2.010868314990456,
                -0.8367026794202681,
                0.6746043897044499,
                -3.1496632123970403
            ]
        },
        {
            "positions": [
                -2.556063734270305,
                -1.1319113760125665,
                1.9675320599588422,
                -0.8222198252672603,
                0.8520907250460361,
                -3.1376079482234505
            ]
        },
        {
            "positions": [
                -2.638506966305998,
                -1.1003270646913736,
                1.9241958049272287,
                -0.8077369711142526,
                1.0295770603876224,
                -3.1255526840498606
            ]
        },
        {
            "positions": [
                -2.720950198341691,
                -1.068742753370181,
                1.880859549895615,
                -0.7932541169612448,
                1.2070633957292087,
                -3.113497419876271
            ]
        },
        {
            "positions": [
                -2.8033934303773833,
                -1.037158442048988,
                1.8375232948640015,
                -0.7787712628082372,
                1.3845497310707948,
                -3.101442155702681
            ]
        },
        {
            "positions": [
                -2.885836662413076,
                -1.0055741307277954,
                1.794187039832388,
                -0.7642884086552294,
                1.5620360664123811,
                -3.089386891529091
            ]
        },
        {
            "positions": [
                -2.9682798944487687,
                -0.9739898194066027,
                1.7508507848007744,
                -0.7498055545022216,
                1.7395224017539672,
                -3.0773316273555014
            ]
        }
    ]
}