{
    "goal": {
        "global_pose": {
            "orientation": {
                "w": 0.7047431493862688,
                "x": -0.7094548369677653,
                "y": 0.0024358444001904,
                "z": -0.0022348060817251984
            },
            "position": {
                "x": -0.39052492380142206,
                "y": 0.3671506643295288,
                "z": 0.19426114857196808
            }
        },
        "name": "move_to_magneteinheit_D"
    },
    "id": "ProjEST_move_to_magneteinheit_D_8",
    "joint_names": [
        "shoulder_pan_joint",
        "shoulder_lift_joint",
        "elbow_joint",
        "wrist_1_joint",
        "wrist_2_joint",
        "wrist_3_joint"
    ],
    "metrics": {
        "cart_traj_len": 3.9522727765856023,
        "distance_elbow_joint": 3.105566588774767,
        "distance_shoulder_lift_joint": 1.5056433709072838,
        "distance_shoulder_pan_joint": 2.98478229598937,
        "distance_wrist_1_joint": 5.396309365438178,
        "distance_wrist_2_joint": 2.2856226166896936,
        "distance_wrist_3_joint": 6.164701742692866,
        "smoothness": 0.23644030902792065,
        "time": 0.15625909300000002,
        "traj_len": 4.630618315138071,
        "weighted_distance": 6.438475087162002
    },
    "planner": "ProjEST",
    "start": {
        "state": {
            "elbow_joint": 0.749534889911806,
            "shoulder_lift_joint": -0.6476975780787326,
            "shoulder_pan_joint": -2.711696901376241,
            "wrist_1_joint": -0.07506478083263063,
            "wrist_2_joint": 0.43296659715538205,
            "wrist_3_joint": -3.14703540197715
        }
    },
    "waypoints": [
        {
            "positions": [
                -2.711696901376241,
                -0.6476975780787326,
                0.749534889911806,
                -0.07506478083263063,
                0.43296659715538205,
                -3.14703540197715
            ]
        },
        {
            "positions": [
                -2.734298737103221,
                -0.6101113360211057,
                0.6685844786046061,
                0.029843950382336476,
                0.48320549648221967,
                -3.0559365667481115
            ]
        },
        {
            "positions": [
                -2.756900572830201,
                -0.5725250939634788,
                0.5876340672974063,
                0.13475268159730358,
                0.5334443958090572,
                -2.964837731519073
            ]
        },
        {
            "positions": [
                -2.756694975572722,
                -0.5530504428590401,
                0.5106422458200723,
                0.23659685701117877,
                0.5779470386334451,
                -2.8249722873671903
            ]
        },
        {
            "positions": [
                -2.7564893783152433,
                -0.5335757917546013,
                0.43365042434273826,
                0.33844103242505397,
                0.622449681457833,
                -2.685106843215308
            ]
        },
        {
            "positions": [
                -2.7562837810577645,
                -0.5141011406501625,
                0.35665860286540424,
                0.4402852078389291,
                0.6669523242822208,
                -2.5452413990634253
            ]
        },
        {
            "positions": [
                -2.7560781838002857,
                -0.49462648954572386,
                0.2796667813880702,
                0.5421293832528044,
                0.7114549671066087,
                -2.405375954911543
            ]
        },
        {
            "positions": [
                -2.755872586542807,
                -0.4751518384412851,
                0.2026749599107362,
                0.6439735586666795,
                0.7559576099309966,
                -2.2655105107596603
            ]
        },
        {
            "positions": [
                -2.7496398330914666,
                -0.4657001852188802,
                0.1472699147819888,
                0.7178420724232301,
                0.7870632129348945,
                -2.1499380893355213
            ]
        },
        {
            "positions": [
                -2.743407079640127,
                -0.4562485319964753,
                0.0918648696532414,
                0.7917105861797806,
                0.8181688159387923,
                -2.0343656679113824
            ]
        },
        {
            "positions": [
                -2.7371743261887866,
                -0.44679687877407037,
                0.03645982452449398,
                0.8655790999363313,
                0.8492744189426902,
                -1.9187932464872435
            ]
        },
        {
            "positions": [
                -2.7157941964080643,
                -0.44654822922900883,
                -0.02739951012923017,
                0.9520704717770041,
                0.882981181815232,
                -1.7507711226324103
            ]
        },
        {
            "positions": [
                -2.694414066627342,
                -0.44629957968394723,
                -0.09125884478295432,
                1.038561843617677,
                0.9166879446877738,
                -1.5827489987775774
            ]
        },
        {
            "positions": [
                -2.673033936846619,
                -0.44605093013888564,
                -0.15511817943667847,
                1.1250532154583497,
                0.9503947075603157,
                -1.4147268749227442
            ]
        },
        {
            "positions": [
                -2.651653807065897,
                -0.4458022805938241,
                -0.21897751409040261,
                1.2115445872990223,
                0.9841014704328576,
                -1.2467047510679112
            ]
        },
        {
            "positions": [
                -2.6302736772851745,
                -0.44555363104876256,
                -0.2828368487441268,
                1.2980359591396953,
                1.0178082333053995,
                -1.078682627213078
            ]
        },
        {
            "positions": [
                -2.6088935475044517,
                -0.44530498150370096,
                -0.3466961833978509,
                1.3845273309803678,
                1.0515149961779413,
                -0.9106605033582449
            ]
        },
        {
            "positions": [
                -2.5875134177237293,
                -0.44505633195863936,
                -0.41055551805157503,
                1.4710187028210406,
                1.0852217590504831,
                -0.7426383795034119
            ]
        },
        {
            "positions": [
                -2.566133287943007,
                -0.4448076824135778,
                -0.4744148527052992,
                1.5575100746617134,
                1.118928521923025,
                -0.5746162556485788
            ]
        },
        {
            "positions": [
                -2.4313005837234987,
                -0.48063792273989225,
                -0.5375698818439517,
                1.4615838151984437,
                1.1305260575927945,
                -0.5339827513358621
            ]
        },
        {
            "positions": [
                -2.2964678795039903,
                -0.5164681630662067,
                -0.6007249109826043,
                1.3656575557351742,
                1.1421235932625637,
                -0.49334924702314564
            ]
        },
        {
            "positions": [
                -2.1616351752844825,
                -0.5522984033925211,
                -0.6638799401212567,
                1.2697312962719045,
                1.1537211289323333,
                -0.4527157427104291
            ]
        },
        {
            "positions": [
                -2.026802471064974,
                -0.5881286437188356,
                -0.7270349692599092,
                1.1738050368086348,
                1.1653186646021025,
                -0.4120822383977125
            ]
        },
        {
            "positions": [
                -1.8919697668454658,
                -0.62395888404515,
                -0.7901899983985617,
                1.077878777345365,
                1.176916200271872,
                -0.3714487340849959
            ]
        },
        {
            "positions": [
                -1.7571370626259575,
                -0.6597891243714644,
                -0.8533450275372143,
                0.9819525178820955,
                1.1885137359416416,
                -0.3308152297722794
            ]
        },
        {
            "positions": [
                -1.6223043584064496,
                -0.6956193646977789,
                -0.9165000566758668,
                0.886026258418826,
                1.2001112716114108,
                -0.29018172545956283
            ]
        },
        {
            "positions": [
                -1.487471654186941,
                -0.7314496050240934,
                -0.9796550858145192,
                0.7900999989555563,
                1.2117088072811804,
                -0.24954822114684622
            ]
        },
        {
            "positions": [
                -1.352638949967433,
                -0.7672798453504077,
                -1.0428101149531717,
                0.6941737394922867,
                1.2233063429509499,
                -0.20891471683412965
            ]
        },
        {
            "positions": [
                -1.2178062457479246,
                -0.8031100856767223,
                -1.1059651440918243,
                0.598247480029017,
                1.2349038786207192,
                -0.1682812125214131
            ]
        },
        {
            "positions": [
                -1.0829735415284165,
                -0.8389403260030367,
                -1.1691201732304768,
                0.5023212205657472,
                1.2465014142904887,
                -0.12764770820869653
            ]
        },
        {
            "positions": [
                -0.9481408373089082,
                -0.8747705663293511,
                -1.2322752023691292,
                0.4063949611024775,
                1.258098949960258,
                -0.08701420389597997
            ]
        },
        {
            "positions": [
                -0.8133081330894001,
                -0.9106008066556656,
                -1.2954302315077817,
                0.31046870163920803,
                1.2696964856300275,
                -0.04638069958326341
            ]
        },
        {
            "positions": [
                -0.7682081995619251,
                -0.9368498659340861,
                -1.336315320512684,
                0.1982093601913322,
                1.231133053406549,
                -0.16946147830481714
            ]
        },
        {
            "positions": [
                -0.72310826603445,
                -0.9630989252125067,
                -1.3772004095175867,
                0.08595001874345637,
                1.1925696211830705,
                -0.2925422570263709
            ]
        },
        {
            "positions": [
                -0.678008332506975,
                -0.9893479844909273,
                -1.418085498522489,
                -0.026309322704419436,
                1.1540061889595923,
                -0.4156230357479246
            ]
        },
        {
            "positions": [
                -0.6329083989794999,
                -1.0155970437693478,
                -1.4589705875273915,
                -0.1385686641522953,
                1.1154427567361138,
                -0.5387038144694783
            ]
        },
        {
            "positions": [
                -0.5878084654520249,
                -1.0418461030477684,
                -1.499855676532294,
                -0.25082800560017116,
                1.0768793245126353,
                -0.6617845931910321
            ]
        },
        {
            "positions": [
                -0.5427085319245499,
                -1.068095162326189,
                -1.5407407655371965,
                -0.3630873470480469,
                1.0383158922891569,
                -0.7848653719125858
            ]
        },
        {
            "positions": [
                -0.49760859839707483,
                -1.0943442216046095,
                -1.581625854542099,
                -0.4753466884959229,
                0.9997524600656784,
                -0.9079461506341396
            ]
        },
        {
            "positions": [
                -0.45250866486959984,
                -1.1205932808830301,
                -1.6225109435470013,
                -0.5876060299437986,
                0.9611890278422001,
                -1.0310269293556933
            ]
        },
        {
            "positions": [
                -0.4074087313421248,
                -1.1468423401614507,
                -1.663396032551904,
                -0.6998653713916745,
                0.9226255956187216,
                -1.154107708077247
            ]
        },
        {
            "positions": [
                -0.36230879781464975,
                -1.1730913994398713,
                -1.7042811215568063,
                -0.8121247128395503,
                0.8840621633952431,
                -1.2771884867988008
            ]
        },
        {
            "positions": [
                -0.3172088642871747,
                -1.1993404587182919,
                -1.7451662105617087,
                -0.9243840542874262,
                0.8454987311717648,
                -1.4002692655203546
            ]
        },
        {
            "positions": [
                -0.2721089307596998,
                -1.2255895179967125,
                -1.7860512995666111,
                -1.0366433957353018,
                0.8069352989482863,
                -1.5233500442419081
            ]
        },
        {
            "positions": [
                -0.22700899723222467,
                -1.251838577275133,
                -1.8269363885715135,
                -1.1489027371831777,
                0.7683718667248078,
                -1.6464308229634619
            ]
        },
        {
            "positions": [
                -0.18190906370474957,
                -1.2780876365535536,
                -1.8678214775764161,
                -1.2611620786310538,
                0.7298084345013295,
                -1.7695116016850159
            ]
        },
        {
            "positions": [
                -0.13680913017727458,
                -1.3043366958319742,
                -1.9087065665813188,
                -1.3734214200789296,
                0.691245002277851,
                -1.8925923804065696
            ]
        },
        {
            "positions": [
                -0.0917091966497996,
                -1.3305857551103948,
                -1.9495916555862212,
                -1.4856807615268053,
                0.6526815700543727,
                -2.015673159128123
            ]
        },
        {
            "positions": [
                -0.04660926312232461,
                -1.3568348143888154,
                -1.9904767445911236,
                -1.5979401029746811,
                0.6141181378308942,
                -2.138753937849677
            ]
        },
        {
            "positions": [
                -0.0015093295948495414,
                -1.383083873667236,
                -2.031361833596026,
                -1.7101994444225568,
                0.5755547056074157,
                -2.2618347165712307
            ]
        },
        {
            "positions": [
                -0.015905297044566877,
                -1.41190452725582,
                -2.0563196623624638,
                -1.752596567890668,
                0.5158465399156821,
                -2.325897156909056
            ]
        },
        {
            "positions": [
                -0.04016121330890168,
                -1.4598554744558039,
                -2.099135667576821,
                -1.8174005489465896,
                0.4165547138441531,
                -2.437972954476654
            ]
        },
        {
            "positions": [
                -0.0644171295732365,
                -1.5078064216557876,
                -2.1419516727911776,
                -1.8822045300025112,
                0.31726288777262407,
                -2.5500487520442516
            ]
        },
        {
            "positions": [
                -0.08867304583757131,
                -1.5557573688557715,
                -2.1847676780055347,
                -1.9470085110584328,
                0.2179710617010951,
                -2.6621245496118497
            ]
        },
        {
            "positions": [
                -0.11292896210190612,
                -1.6037083160557553,
                -2.2275836832198914,
                -2.0118124921143545,
                0.11867923562956606,
                -2.774200347179448
            ]
        },
        {
            "positions": [
                -0.13718487836624094,
                -1.6516592632557392,
                -2.2703996884342486,
                -2.076616473170276,
                0.019387409558037028,
                -2.886276144747046
            ]
        },
        {
            "positions": [
                -0.16144079463057576,
                -1.699610210455723,
                -2.3132156936486052,
                -2.141420454226197,
                -0.0799044165134919,
                -2.9983519423146436
            ]
        },
        {
            "positions": [
                -0.18569671089491055,
                -1.7475611576557069,
                -2.3560316988629624,
                -2.206224435282119,
                -0.179196242585021,
                -3.1104277398822417
            ]
        }
    ]
}