{
    "goal": {
        "global_pose": {
            "orientation": {
                "w": -0.4816463035849501,
                "x": 0.5182115481033762,
                "y": 0.4908360881923453,
                "z": -0.5084816262002911
            },
            "position": {
                "x": -0.8240239810943604,
                "y": 0.19912469901144506,
                "z": 0.16403168439865112
            }
        },
        "name": "move_to_storage_D"
    },
    "id": "ProjEST_move_to_storage_D_18",
    "joint_names": [
        "shoulder_pan_joint",
        "shoulder_lift_joint",
        "elbow_joint",
        "wrist_1_joint",
        "wrist_2_joint",
        "wrist_3_joint"
    ],
    "metrics": {
        "cart_traj_len": 4.179386186060124,
        "distance_elbow_joint": 4.405610964670129,
        "distance_shoulder_lift_joint": 1.5572484149772605,
        "distance_shoulder_pan_joint": 2.8130504422809675,
        "distance_wrist_1_joint": 3.8864418382482584,
        "distance_wrist_2_joint": 2.6614092968471863,
        "distance_wrist_3_joint": 3.1272477281109294,
        "smoothness": 0.2649320968787497,
        "time": 0.29346900600000003,
        "traj_len": 4.295463733420959,
        "weighted_distance": 5.590470040743625
    },
    "planner": "ProjEST",
    "start": {
        "state": {
            "elbow_joint": -2.384821988534728,
            "shoulder_lift_joint": -2.2788054721415256,
            "shoulder_pan_joint": -0.1854694642142757,
            "wrist_1_joint": 1.4845938289331202,
            "wrist_2_joint": 0.17898776772866878,
            "wrist_3_joint": 0.037105688729662994
        }
    },
    "waypoints": [
        {
            "positions": [
                -0.1854694642142757,
                -2.2788054721415256,
                -2.384821988534728,
                1.4845938289331202,
                0.17898776772866878,
                0.037105688729662994
            ]
        },
        {
            "positions": [
                -0.06554301195944892,
                -2.2477566584342545,
                -2.346817860542393,
                1.4273845732523995,
                0.18185471236811135,
                -0.08852785880630004
            ]
        },
        {
            "positions": [
                0.054383440295377866,
                -2.216707844726983,
                -2.3088137325500586,
                1.3701753175716789,
                0.18472165700755389,
                -0.21416140634226308
            ]
        },
        {
            "positions": [
                0.17430989255020465,
                -2.1856590310197115,
                -2.2708096045577237,
                1.312966061890958,
                0.18758860164699645,
                -0.3397949538782261
            ]
        },
        {
            "positions": [
                0.29423634480503147,
                -2.1546102173124404,
                -2.232805476565389,
                1.2557568062102373,
                0.19045554628643901,
                -0.4654285014141891
            ]
        },
        {
            "positions": [
                0.34552299216287824,
                -2.1590455119691416,
                -2.106849159127909,
                1.1692613085018018,
                0.24363210203457206,
                -0.5359696868331099
            ]
        },
        {
            "positions": [
                0.39680963952072507,
                -2.1634808066258433,
                -1.980892841690429,
                1.0827658107933662,
                0.2968086577827051,
                -0.6065108722520305
            ]
        },
        {
            "positions": [
                0.44809628687857184,
                -2.1679161012825445,
                -1.854936524252949,
                0.9962703130849306,
                0.34998521353083817,
                -0.6770520576709511
            ]
        },
        {
            "positions": [
                0.49938293423641866,
                -2.1723513959392458,
                -1.7289802068154692,
                0.9097748153764951,
                0.4031617692789712,
                -0.7475932430898719
            ]
        },
        {
            "positions": [
                0.5506695815942655,
                -2.1767866905959474,
                -1.603023889377989,
                0.8232793176680595,
                0.45633832502710425,
                -0.8181344285087926
            ]
        },
        {
            "positions": [
                0.6019562289521123,
                -2.1812219852526487,
                -1.477067571940509,
                0.7367838199596239,
                0.5095148807752373,
                -0.8886756139277132
            ]
        },
        {
            "positions": [
                0.653242876309959,
                -2.18565727990935,
                -1.351111254503029,
                0.6502883222511884,
                0.5626914365233704,
                -0.9592167993466338
            ]
        },
        {
            "positions": [
                0.7045295236678057,
                -2.190092574566051,
                -1.2251549370655492,
                0.5637928245427528,
                0.6158679922715034,
                -1.0297579847655545
            ]
        },
        {
            "positions": [
                0.7558161710256526,
                -2.194527869222753,
                -1.0991986196280692,
                0.47729732683431736,
                0.6690445480196364,
                -1.100299170184475
            ]
        },
        {
            "positions": [
                0.8071028183834994,
                -2.198963163879454,
                -0.9732423021905892,
                0.3908018291258817,
                0.7222211037677695,
                -1.170840355603396
            ]
        },
        {
            "positions": [
                0.8583894657413461,
                -2.2033984585361552,
                -0.8472859847531093,
                0.3043063314174461,
                0.7753976595159024,
                -1.2413815410223166
            ]
        },
        {
            "positions": [
                0.909676113099193,
                -2.207833753192857,
                -0.7213296673156293,
                0.21781083370901055,
                0.8285742152640356,
                -1.3119227264412374
            ]
        },
        {
            "positions": [
                0.9609627604570398,
                -2.212269047849558,
                -0.5953733498781495,
                0.131315336000575,
                0.8817507710121686,
                -1.382463911860158
            ]
        },
        {
            "positions": [
                1.0122494078148865,
                -2.2167043425062594,
                -0.46941703244066924,
                0.044819838292139424,
                0.9349273267603017,
                -1.4530050972790787
            ]
        },
        {
            "positions": [
                1.0635360551727333,
                -2.221139637162961,
                -0.3434607150031894,
                -0.04167565941629614,
                0.9881038825084347,
                -1.5235462826979993
            ]
        },
        {
            "positions": [
                1.1148227025305801,
                -2.2255749318196623,
                -0.2175043975657096,
                -0.1281711571247317,
                1.041280438256568,
                -1.59408746811692
            ]
        },
        {
            "positions": [
                1.166109349888427,
                -2.2300102264763635,
                -0.09154808012822935,
                -0.21466665483316727,
                1.0944569940047009,
                -1.6646286535358406
            ]
        },
        {
            "positions": [
                1.2173959972462738,
                -2.2344455211330647,
                0.03440823730925047,
                -0.3011621525416026,
                1.1476335497528338,
                -1.7351698389547612
            ]
        },
        {
            "positions": [
                1.2686826446041206,
                -2.2388808157897664,
                0.16036455474673073,
                -0.3876576502500386,
                1.200810105500967,
                -1.8057110243736822
            ]
        },
        {
            "positions": [
                1.3199692919619674,
                -2.2433161104464676,
                0.28632087218421054,
                -0.47415314795847396,
                1.2539866612491,
                -1.8762522097926029
            ]
        },
        {
            "positions": [
                1.371255939319814,
                -2.247751405103169,
                0.41227718962169035,
                -0.5606486456669095,
                1.307163216997233,
                -1.9467933952115235
            ]
        },
        {
            "positions": [
                1.4225425866776606,
                -2.2521866997598705,
                0.5382335070591702,
                -0.6471441433753451,
                1.3603397727453659,
                -2.017334580630444
            ]
        },
        {
            "positions": [
                1.4738292340355077,
                -2.2566219944165717,
                0.6641898244966504,
                -0.7336396410837809,
                1.413516328493499,
                -2.0878757660493648
            ]
        },
        {
            "positions": [
                1.5251158813933547,
                -2.261057289073273,
                0.7901461419341302,
                -0.8201351387922162,
                1.4666928842416322,
                -2.1584169514682854
            ]
        },
        {
            "positions": [
                1.5764025287512013,
                -2.2654925837299746,
                0.9161024593716101,
                -0.9066306365006518,
                1.5198694399897652,
                -2.228958136887206
            ]
        },
        {
            "positions": [
                1.627689176109048,
                -2.269927878386676,
                1.0420587768090899,
                -0.9931261342090874,
                1.5730459957378982,
                -2.2994993223061266
            ]
        },
        {
            "positions": [
                1.678975823466895,
                -2.274363173043377,
                1.1680150942465701,
                -1.079621631917523,
                1.6262225514860313,
                -2.3700405077250477
            ]
        },
        {
            "positions": [
                1.7302624708247416,
                -2.2787984677000788,
                1.2939714116840504,
                -1.1661171296259585,
                1.6793991072341643,
                -2.4405816931439683
            ]
        },
        {
            "positions": [
                1.7815491181825887,
                -2.28323376235678,
                1.4199277291215302,
                -1.252612627334394,
                1.7325756629822973,
                -2.5111228785628885
            ]
        },
        {
            "positions": [
                1.8328357655404353,
                -2.2876690570134812,
                1.54588404655901,
                -1.3391081250428296,
                1.7857522187304304,
                -2.581664063981809
            ]
        },
        {
            "positions": [
                1.8841224128982823,
                -2.2921043516701824,
                1.6718403639964903,
                -1.4256036227512652,
                1.8389287744785636,
                -2.65220524940073
            ]
        },
        {
            "positions": [
                1.935409060256129,
                -2.296539646326884,
                1.7977966814339696,
                -1.5120991204597007,
                1.8921053302266966,
                -2.722746434819651
            ]
        },
        {
            "positions": [
                1.9866957076139757,
                -2.3009749409835853,
                1.92375299887145,
                -1.5985946181681365,
                1.9452818859748295,
                -2.7932876202385715
            ]
        },
        {
            "positions": [
                2.044958004927859,
                -2.184003264940219,
                1.9149315463929089,
                -1.5255715826093181,
                1.863907778829282,
                -2.82027438561518
            ]
        },
        {
            "positions": [
                2.103220302241742,
                -2.0670315888968527,
                1.9061100939143678,
                -1.4525485470504997,
                1.7825336716837341,
                -2.847261150991789
            ]
        },
        {
            "positions": [
                2.1614825995556255,
                -1.9500599128534861,
                1.8972886414358268,
                -1.3795255114916811,
                1.7011595645381865,
                -2.874247916368397
            ]
        },
        {
            "positions": [
                2.219744896869509,
                -1.8330882368101198,
                1.8884671889572857,
                -1.3065024759328627,
                1.6197854573926387,
                -2.901234681745006
            ]
        },
        {
            "positions": [
                2.278007194183392,
                -1.7161165607667535,
                1.8796457364787447,
                -1.2334794403740443,
                1.538411350247091,
                -2.9282214471216146
            ]
        },
        {
            "positions": [
                2.3362694914972755,
                -1.599144884723387,
                1.8708242840002038,
                -1.160456404815226,
                1.4570372431015435,
                -2.9552082124982233
            ]
        },
        {
            "positions": [
                2.3945317888111584,
                -1.4821732086800206,
                1.8620028315216628,
                -1.0874333692564075,
                1.3756631359559957,
                -2.982194977874832
            ]
        },
        {
            "positions": [
                2.452794086125042,
                -1.3652015326366542,
                1.8531813790431217,
                -1.014410333697589,
                1.2942890288104478,
                -3.0091817432514407
            ]
        },
        {
            "positions": [
                2.511056383438925,
                -1.2482298565932877,
                1.8443599265645807,
                -0.9413872981387705,
                1.2129149216649,
                -3.036168508628049
            ]
        },
        {
            "positions": [
                2.5693186807528083,
                -1.1312581805499213,
                1.8355384740860397,
                -0.8683642625799521,
                1.1315408145193526,
                -3.0631552740046577
            ]
        },
        {
            "positions": [
                2.6275809780666917,
                -1.014286504506555,
                1.8267170216074986,
                -0.7953412270211336,
                1.0501667073738048,
                -3.0901420393812664
            ]
        }
    ]
}