{
    "goal": {
        "global_pose": {
            "orientation": {
                "w": 0.7047431468963623,
                "x": -0.7094548344612122,
                "y": 0.0024358443915843964,
                "z": -0.0022348060738295317
            },
            "position": {
                "x": 0.6094750761985779,
                "y": 0.3671506643295288,
                "z": 0.19426114857196808
            }
        },
        "name": "move_to_magneteinheit_A"
    },
    "id": "ProjEST_move_to_magneteinheit_A_29",
    "joint_names": [
        "shoulder_pan_joint",
        "shoulder_lift_joint",
        "elbow_joint",
        "wrist_1_joint",
        "wrist_2_joint",
        "wrist_3_joint"
    ],
    "metrics": {
        "cart_traj_len": 4.0185973341037435,
        "distance_elbow_joint": 3.8977039310842,
        "distance_shoulder_lift_joint": 0.1020683126958648,
        "distance_shoulder_pan_joint": 4.695878889215837,
        "distance_wrist_1_joint": 4.602610526236532,
        "distance_wrist_2_joint": 1.7773484931349943,
        "distance_wrist_3_joint": 2.6854144942356726,
        "smoothness": 0.30628168783089743,
        "time": 0.31808939599999997,
        "traj_len": 4.214383068327213,
        "weighted_distance": 5.432477579746277
    },
    "planner": "ProjEST",
    "start": {
        "state": {
            "elbow_joint": -1.9196185241190666,
            "shoulder_lift_joint": -1.2443396400964142,
            "shoulder_pan_joint": 2.6996025414629847,
            "wrist_1_joint": -1.5485510000780065,
            "wrist_2_joint": -1.5709468930060704,
            "wrist_3_joint": 0.4420197071253992
        }
    },
    "waypoints": [
        {
            "positions": [
                2.6996025414629847,
                -1.2443396400964142,
                -1.9196185241190666,
                -1.5485510000780065,
                -1.5709468930060704,
                0.4420197071253992
            ]
        },
        {
            "positions": [
                2.5822926237769774,
                -1.2422578797538435,
                -1.8197674628640375,
                -1.4624904871503568,
                -1.5149057495778193,
                0.47369421965141006
            ]
        },
        {
            "positions": [
                2.4649827060909706,
                -1.240176119411273,
                -1.7199164016090083,
                -1.376429974222707,
                -1.4588646061495685,
                0.505368732177421
            ]
        },
        {
            "positions": [
                2.3476727884049637,
                -1.2380943590687024,
                -1.620065340353979,
                -1.2903694612950574,
                -1.4028234627213174,
                0.5370432447034318
            ]
        },
        {
            "positions": [
                2.2303628707189564,
                -1.2360125987261317,
                -1.52021427909895,
                -1.2043089483674077,
                -1.3467823192930664,
                0.5687177572294426
            ]
        },
        {
            "positions": [
                2.113052953032949,
                -1.2339308383835612,
                -1.420363217843921,
                -1.118248435439758,
                -1.2907411758648155,
                0.6003922697554536
            ]
        },
        {
            "positions": [
                1.9957430353469423,
                -1.2318490780409905,
                -1.3205121565888918,
                -1.0321879225121082,
                -1.2347000324365645,
                0.6320667822814644
            ]
        },
        {
            "positions": [
                1.8784331176609352,
                -1.2297673176984198,
                -1.2206610953338626,
                -0.9461274095844585,
                -1.1786588890083134,
                0.6637412948074752
            ]
        },
        {
            "positions": [
                1.7611231999749282,
                -1.2276855573558494,
                -1.1208100340788334,
                -0.8600668966568088,
                -1.1226177455800626,
                0.6954158073334862
            ]
        },
        {
            "positions": [
                1.6438132822889209,
                -1.2256037970132787,
                -1.0209589728238042,
                -0.774006383729159,
                -1.0665766021518115,
                0.727090319859497
            ]
        },
        {
            "positions": [
                1.526503364602914,
                -1.223522036670708,
                -0.9211079115687751,
                -0.6879458708015094,
                -1.0105354587235604,
                0.7587648323855078
            ]
        },
        {
            "positions": [
                1.4091934469169067,
                -1.2214402763281376,
                -0.8212568503137458,
                -0.6018853578738596,
                -0.9544943152953095,
                0.7904393449115188
            ]
        },
        {
            "positions": [
                1.2918835292308999,
                -1.2193585159855669,
                -0.7214057890587169,
                -0.51582484494621,
                -0.8984531718670585,
                0.8221138574375296
            ]
        },
        {
            "positions": [
                1.1745736115448926,
                -1.2172767556429962,
                -0.6215547278036875,
                -0.42976433201856,
                -0.8424120284388075,
                0.8537883699635405
            ]
        },
        {
            "positions": [
                1.0572636938588857,
                -1.2151949953004257,
                -0.5217036665486585,
                -0.3437038190909105,
                -0.7863708850105565,
                0.8854628824895514
            ]
        },
        {
            "positions": [
                0.9399537761728785,
                -1.213113234957855,
                -0.42185260529362933,
                -0.2576433061632606,
                -0.7303297415823055,
                0.9171373950155622
            ]
        },
        {
            "positions": [
                0.8226438584868716,
                -1.2110314746152844,
                -0.32200154403860015,
                -0.1715827932356111,
                -0.6742885981540546,
                0.9488119075415731
            ]
        },
        {
            "positions": [
                0.7053339408008645,
                -1.208949714272714,
                -0.2221504827835712,
                -0.08552228030796138,
                -0.6182474547258037,
                0.9804864200675839
            ]
        },
        {
            "positions": [
                0.588024023114857,
                -1.2068679539301432,
                -0.12229942152854179,
                0.0005382326196885501,
                -0.5622063112975524,
                1.012160932593595
            ]
        },
        {
            "positions": [
                0.47071410542885017,
                -1.2047861935875726,
                -0.022448360273512602,
                0.08659874554733826,
                -0.5061651678693015,
                1.0438354451196057
            ]
        },
        {
            "positions": [
                0.3534041877428433,
                -1.2027044332450019,
                0.07740270098151636,
                0.17265925847498775,
                -0.4501240244410507,
                1.0755099576456164
            ]
        },
        {
            "positions": [
                0.23609427005683647,
                -1.2006226729024314,
                0.17725376223654532,
                0.25871977140263747,
                -0.39408288101279965,
                1.1071844701716274
            ]
        },
        {
            "positions": [
                0.11878435237082874,
                -1.1985409125598607,
                0.27710482349157495,
                0.3447802843302874,
                -0.3380417375845486,
                1.1388589826976383
            ]
        },
        {
            "positions": [
                0.0014744346848218903,
                -1.19645915221729,
                0.37695588474660413,
                0.4308407972579371,
                -0.2820005941562975,
                1.170533495223649
            ]
        },
        {
            "positions": [
                -0.11583548300118496,
                -1.1943773918747196,
                0.47680694600163287,
                0.5169013101855866,
                -0.22595945072804668,
                1.2022080077496602
            ]
        },
        {
            "positions": [
                -0.2331454006871918,
                -1.192295631532149,
                0.576658007256662,
                0.6029618231132365,
                -0.16991830729979562,
                1.233882520275671
            ]
        },
        {
            "positions": [
                -0.35045531837319954,
                -1.1902138711895782,
                0.6765090685116917,
                0.6890223360408865,
                -0.11387716387154456,
                1.2655570328016819
            ]
        },
        {
            "positions": [
                -0.4677652360592064,
                -1.1881321108470078,
                0.7763601297667204,
                0.775082848968536,
                -0.05783602044329372,
                1.2972315453276928
            ]
        },
        {
            "positions": [
                -0.5850751537452132,
                -1.186050350504437,
                0.8762111910217496,
                0.8611433618961855,
                -0.0017948770150426618,
                1.3289060578537035
            ]
        },
        {
            "positions": [
                -0.7023850714312205,
                -1.1839685901618664,
                0.9760622522767788,
                0.9472038748238354,
                0.05424626641320818,
                1.3605805703797142
            ]
        },
        {
            "positions": [
                -0.8196949891172278,
                -1.181886829819296,
                1.075913313531808,
                1.0332643877514853,
                0.11028740984145946,
                1.3922550829057254
            ]
        },
        {
            "positions": [
                -0.9370049068032348,
                -1.1798050694767253,
                1.1757643747868372,
                1.1193249006791348,
                0.1663285532697103,
                1.4239295954317361
            ]
        },
        {
            "positions": [
                -0.8663868107399271,
                -1.1773028200049802,
                1.2292524435987235,
                0.9903425923138421,
                0.16365701681242936,
                1.5374965691603586
            ]
        },
        {
            "positions": [
                -0.7957687146766194,
                -1.1748005705332352,
                1.28274051241061,
                0.8613602839485495,
                0.16098548035514842,
                1.6510635428889808
            ]
        },
        {
            "positions": [
                -0.7251506186133116,
                -1.1722983210614901,
                1.3362285812224963,
                0.7323779755832569,
                0.1583139438978675,
                1.7646305166176033
            ]
        },
        {
            "positions": [
                -0.654532522550004,
                -1.169796071589745,
                1.3897166500343827,
                0.6033956672179642,
                0.15564240744058655,
                1.8781974903462257
            ]
        },
        {
            "positions": [
                -0.5839144264866962,
                -1.167293822118,
                1.4432047188462689,
                0.47441335885267155,
                0.1529708709833056,
                1.991764464074848
            ]
        },
        {
            "positions": [
                -0.5132963304233885,
                -1.164791572646255,
                1.4966927876581555,
                0.3454310504873789,
                0.15029933452602467,
                2.1053314378034704
            ]
        },
        {
            "positions": [
                -0.44267823436008086,
                -1.16228932317451,
                1.5501808564700417,
                0.2164487421220862,
                0.14762779806874377,
                2.2188984115320927
            ]
        },
        {
            "positions": [
                -0.3720601382967732,
                -1.1597870737027647,
                1.6036689252819283,
                0.08746643375679364,
                0.1449562616114628,
                2.3324653852607153
            ]
        },
        {
            "positions": [
                -0.3014420422334655,
                -1.1572848242310196,
                1.6571569940938145,
                -0.041515874608498926,
                0.1422847251541819,
                2.4460323589893376
            ]
        },
        {
            "positions": [
                -0.23082394617015778,
                -1.1547825747592746,
                1.7106450629057008,
                -0.1704981829737917,
                0.13961318869690095,
                2.55959933271796
            ]
        },
        {
            "positions": [
                -0.16020585010685007,
                -1.1522803252875295,
                1.7641331317175872,
                -0.2994804913390843,
                0.13694165223962002,
                2.673166306446582
            ]
        },
        {
            "positions": [
                -0.08958775404354224,
                -1.1497780758157845,
                1.8176212005294738,
                -0.42846279970437706,
                0.13427011578233908,
                2.7867332801752047
            ]
        },
        {
            "positions": [
                -0.018969657980234644,
                -1.1472758263440395,
                1.87110926934136,
                -0.5574451080696696,
                0.13159857932505814,
                2.9003002539038274
            ]
        },
        {
            "positions": [
                0.05164843808307307,
                -1.1447735768722944,
                1.9245973381532464,
                -0.6864274164349624,
                0.1289270428677772,
                3.013867227632449
            ]
        },
        {
            "positions": [
                0.12226653414638086,
                -1.1422713274005494,
                1.9780854069651328,
                -0.8154097248002551,
                0.12625550641049627,
                3.127434201361072
            ]
        }
    ]
}