{
    "goal": {
        "global_pose": {
            "orientation": {
                "w": -0.00223480608172531,
                "x": 0.0024358444001904467,
                "y": 0.7094548369677653,
                "z": -0.704743149386269
            },
            "position": {
                "x": -0.37947507619857795,
                "y": -0.6371506643295288,
                "z": 0.19426114857196808
            }
        },
        "name": "move_to_magneteinheit_C"
    },
    "id": "ProjEST_move_to_magneteinheit_C_101",
    "joint_names": [
        "shoulder_pan_joint",
        "shoulder_lift_joint",
        "elbow_joint",
        "wrist_1_joint",
        "wrist_2_joint",
        "wrist_3_joint"
    ],
    "metrics": {
        "cart_traj_len": 1.271491240957772,
        "distance_elbow_joint": 1.5036156287200284,
        "distance_shoulder_lift_joint": 0.8695902708778085,
        "distance_shoulder_pan_joint": 1.3915283141065922,
        "distance_wrist_1_joint": 3.5944008777511733,
        "distance_wrist_2_joint": 2.290656722734953,
        "distance_wrist_3_joint": 3.8102290066741475,
        "smoothness": 0.9908367452248883,
        "time": 0.901683397,
        "traj_len": 3.6687901031354606,
        "weighted_distance": 5.192835105671959
    },
    "planner": "ProjEST",
    "start": {
        "state": {
            "elbow_joint": 1.9565354010623817,
            "shoulder_lift_joint": -1.4165861575791021,
            "shoulder_pan_joint": -1.6717766225146293,
            "wrist_1_joint": -0.5286633292919765,
            "wrist_2_joint": 1.472756589071564,
            "wrist_3_joint": -3.1238370188695823
        }
    },
    "waypoints": [
        {
            "positions": [
                -1.6717766225146293,
                -1.4165861575791021,
                1.9565354010623817,
                -0.5286633292919765,
                1.472756589071564,
                -3.1238370188695823
            ]
        },
        {
            "positions": [
                -1.6521542323934073,
                -1.4371387315283763,
                2.005310397606158,
                -0.6582657848576489,
                1.5177627632461534,
                -2.997838135600731
            ]
        },
        {
            "positions": [
                -1.632531842272185,
                -1.4576913054776504,
                2.0540853941499346,
                -0.7878682404233213,
                1.5627689374207427,
                -2.871839252331879
            ]
        },
        {
            "positions": [
                -1.612909452150963,
                -1.4782438794269246,
                2.102860390693711,
                -0.9174706959889938,
                1.6077751115953323,
                -2.7458403690630275
            ]
        },
        {
            "positions": [
                -1.5932870620297408,
                -1.4987964533761988,
                2.151635387237487,
                -1.0470731515546663,
                1.6527812857699218,
                -2.619841485794176
            ]
        },
        {
            "positions": [
                -1.5736646719085188,
                -1.5193490273254728,
                2.200410383781264,
                -1.1766756071203386,
                1.697787459944511,
                -2.4938426025253246
            ]
        },
        {
            "positions": [
                -1.5540422817872968,
                -1.539901601274747,
                2.24918538032504,
                -1.306278062686011,
                1.7427936341191006,
                -2.3678437192564727
            ]
        },
        {
            "positions": [
                -1.5344198916660745,
                -1.5604541752240213,
                2.2979603768688164,
                -1.4358805182516834,
                1.7877998082936901,
                -2.2418448359876213
            ]
        },
        {
            "positions": [
                -1.5147975015448525,
                -1.5810067491732953,
                2.346735373412593,
                -1.565482973817356,
                1.8328059824682794,
                -2.11584595271877
            ]
        },
        {
            "positions": [
                -1.4951751114236302,
                -1.6015593231225695,
                2.3955103699563693,
                -1.6950854293830284,
                1.877812156642869,
                -1.989847069449918
            ]
        },
        {
            "positions": [
                -1.4755527213024082,
                -1.6221118970718438,
                2.4442853665001456,
                -1.8246878849487007,
                1.9228183308174582,
                -1.8638481861810665
            ]
        },
        {
            "positions": [
                -1.4559303311811862,
                -1.6426644710211178,
                2.493060363043922,
                -1.9542903405143732,
                1.9678245049920478,
                -1.7378493029122148
            ]
        },
        {
            "positions": [
                -1.436307941059964,
                -1.663217044970392,
                2.5418353595876986,
                -2.083892796080046,
                2.0128306791666373,
                -1.6118504196433632
            ]
        },
        {
            "positions": [
                -1.416685550938742,
                -1.6837696189196663,
                2.5906103561314753,
                -2.2134952516457185,
                2.057836853341227,
                -1.4858515363745115
            ]
        },
        {
            "positions": [
                -1.39706316081752,
                -1.7043221928689403,
                2.6393853526752515,
                -2.3430977072113905,
                2.1028430275158163,
                -1.35985265310566
            ]
        },
        {
            "positions": [
                -1.3774407706962977,
                -1.7248747668182145,
                2.688160349219028,
                -2.472700162777063,
                2.1478492016904056,
                -1.2338537698368084
            ]
        },
        {
            "positions": [
                -1.4194118745972313,
                -1.6996640991164138,
                2.647805245312447,
                -2.3810512353058324,
                2.062025686506304,
                -1.3302265858099431
            ]
        },
        {
            "positions": [
                -1.4613829784981647,
                -1.6744534314146131,
                2.607450141405866,
                -2.289402307834602,
                1.9762021713222027,
                -1.426599401783078
            ]
        },
        {
            "positions": [
                -1.503354082399098,
                -1.6492427637128124,
                2.5670950374992856,
                -2.1977533803633715,
                1.890378656138101,
                -1.5229722177562128
            ]
        },
        {
            "positions": [
                -1.5453251863000317,
                -1.6240320960110117,
                2.526739933592705,
                -2.106104452892141,
                1.8045551409539997,
                -1.6193450337293476
            ]
        },
        {
            "positions": [
                -1.5872962902009653,
                -1.598821428309211,
                2.486384829686124,
                -2.0144555254209107,
                1.7187316257698981,
                -1.7157178497024825
            ]
        },
        {
            "positions": [
                -1.6292673941018987,
                -1.5736107606074103,
                2.4460297257795434,
                -1.92280659794968,
                1.6329081105857965,
                -1.8120906656756173
            ]
        },
        {
            "positions": [
                -1.671238498002832,
                -1.5484000929056096,
                2.4056746218729628,
                -1.8311576704784494,
                1.547084595401695,
                -1.9084634816487522
            ]
        },
        {
            "positions": [
                -1.7132096019037657,
                -1.523189425203809,
                2.3653195179663817,
                -1.7395087430072191,
                1.4612610802175936,
                -2.0048362976218868
            ]
        },
        {
            "positions": [
                -1.7551807058046993,
                -1.497978757502008,
                2.324964414059801,
                -1.6478598155359885,
                1.375437565033492,
                -2.1012091135950217
            ]
        },
        {
            "positions": [
                -1.7971518097056327,
                -1.4727680898002076,
                2.2846093101532206,
                -1.5562108880647578,
                1.2896140498493904,
                -2.1975819295681567
            ]
        },
        {
            "positions": [
                -1.8391229136065663,
                -1.4475574220984067,
                2.2442542062466395,
                -1.4645619605935274,
                1.203790534665289,
                -2.293954745541291
            ]
        },
        {
            "positions": [
                -1.8810940175074997,
                -1.4223467543966062,
                2.203899102340059,
                -1.372913033122297,
                1.1179670194811875,
                -2.390327561514426
            ]
        },
        {
            "positions": [
                -1.9230651214084333,
                -1.3971360866948053,
                2.1635439984334783,
                -1.2812641056510665,
                1.032143504297086,
                -2.486700377487561
            ]
        },
        {
            "positions": [
                -1.9650362253093667,
                -1.3719254189930046,
                2.1231888945268973,
                -1.1896151781798359,
                0.9463199891129845,
                -2.583073193460696
            ]
        },
        {
            "positions": [
                -2.0070073292103,
                -1.3467147512912039,
                2.0828337906203167,
                -1.0979662507086054,
                0.860496473928883,
                -2.6794460094338306
            ]
        },
        {
            "positions": [
                -2.048978433111234,
                -1.3215040835894032,
                2.042478686713736,
                -1.006317323237375,
                0.7746729587447816,
                -2.775818825406965
            ]
        },
        {
            "positions": [
                -2.0909495370121673,
                -1.2962934158876025,
                2.002123582807155,
                -0.9146683957661446,
                0.68884944356068,
                -2.8721916413801
            ]
        },
        {
            "positions": [
                -2.1329206409131007,
                -1.2710827481858018,
                1.9617684789005745,
                -0.8230194682949139,
                0.6030259283765784,
                -2.968564457353235
            ]
        },
        {
            "positions": [
                -2.3037769369488297,
                -1.21732792668266,
                1.984567884023039,
                -0.8226777934029458,
                0.6383963467777204,
                -3.061331992415708
            ]
        },
        {
            "positions": [
                -2.474633232984558,
                -1.1635731051795184,
                2.0073672891455034,
                -0.8223361185109777,
                0.6737667651788624,
                -3.154099527478181
            ]
        }
    ]
}