{
    "goal": {
        "global_pose": {
            "orientation": {
                "w": 0.7031023502349854,
                "x": -0.7110244035720825,
                "y": 0.007748599164187908,
                "z": 0.005598929710686207
            },
            "position": {
                "x": 0.11585023208521307,
                "y": 0.44412534475326537,
                "z": 0.3711530566215515
            }
        },
        "name": "move_to_auspresseinheit_A"
    },
    "id": "ProjEST_move_to_auspresseinheit_A_62",
    "joint_names": [
        "shoulder_pan_joint",
        "shoulder_lift_joint",
        "elbow_joint",
        "wrist_1_joint",
        "wrist_2_joint",
        "wrist_3_joint"
    ],
    "metrics": {
        "cart_traj_len": 0.756453287024231,
        "distance_elbow_joint": 0.3228247376735247,
        "distance_shoulder_lift_joint": 0.5923839687213015,
        "distance_shoulder_pan_joint": 1.0423362299789851,
        "distance_wrist_1_joint": 0.6524226891214364,
        "distance_wrist_2_joint": 3.2234276694253157,
        "distance_wrist_3_joint": 3.4533186391330877,
        "smoothness": 0.985013721456483,
        "time": 0.051750887999999995,
        "traj_len": 3.047411021515419,
        "weighted_distance": 4.479866244751798
    },
    "planner": "ProjEST",
    "start": {
        "state": {
            "elbow_joint": 2.4225746658250005,
            "shoulder_lift_joint": -1.3736534386056498,
            "shoulder_pan_joint": -0.3378633547517467,
            "wrist_1_joint": -1.0288598680537169,
            "wrist_2_joint": 1.233022673432363,
            "wrist_3_joint": -3.0940220416140027
        }
    },
    "waypoints": [
        {
            "positions": [
                -0.3378633547517467,
                -1.3736534386056498,
                2.4225746658250005,
                -1.0288598680537169,
                1.233022673432363,
                -3.0940220416140027
            ]
        },
        {
            "positions": [
                -0.31181127973671785,
                -1.4078825777593722,
                2.408999030543098,
                -0.9897704075516008,
                1.088703001222372,
                -2.962990271760112
            ]
        },
        {
            "positions": [
                -0.28575920472168903,
                -1.4421117169130946,
                2.395423395261195,
                -0.9506809470494849,
                0.9443833290123811,
                -2.8319585019062212
            ]
        },
        {
            "positions": [
                -0.25970712970666016,
                -1.476340856066817,
                2.3818477599792924,
                -0.9115914865473689,
                0.80006365680239,
                -2.7009267320523307
            ]
        },
        {
            "positions": [
                -0.2336550546916313,
                -1.5105699952205391,
                2.3682721246973895,
                -0.8725020260452528,
                0.655743984592399,
                -2.5698949621984397
            ]
        },
        {
            "positions": [
                -0.20760297967660246,
                -1.5447991343742615,
                2.354696489415487,
                -0.8334125655431368,
                0.511424312382408,
                -2.438863192344549
            ]
        },
        {
            "positions": [
                -0.1815509046615736,
                -1.579028273527984,
                2.3411208541335844,
                -0.7943231050410209,
                0.36710464017241706,
                -2.307831422490658
            ]
        },
        {
            "positions": [
                -0.15549882964654477,
                -1.6132574126817063,
                2.3275452188516814,
                -0.755233644538905,
                0.22278496796242608,
                -2.1767996526367677
            ]
        },
        {
            "positions": [
                -0.1294467546315159,
                -1.6474865518354287,
                2.313969583569779,
                -0.7161441840367888,
                0.078465295752435,
                -2.0457678827828767
            ]
        },
        {
            "positions": [
                -0.10339467961648705,
                -1.6817156909891509,
                2.3003939482878764,
                -0.6770547235346729,
                -0.06585437645755587,
                -1.9147361129289864
            ]
        },
        {
            "positions": [
                -0.0773426046014582,
                -1.7159448301428735,
                2.2868183130059734,
                -0.6379652630325569,
                -0.21017404866754696,
                -1.7837043430750954
            ]
        },
        {
            "positions": [
                -0.05129052958642932,
                -1.7501739692965956,
                2.273242677724071,
                -0.5988758025304408,
                -0.35449372087753783,
                -1.6526725732212049
            ]
        },
        {
            "positions": [
                -0.025238454571400448,
                -1.784403108450318,
                2.259667042442168,
                -0.5597863420283249,
                -0.4988133930875289,
                -1.5216408033673139
            ]
        },
        {
            "positions": [
                0.0008136204436283712,
                -1.8186322476040404,
                2.2460914071602653,
                -0.5206968815262089,
                -0.6431330652975198,
                -1.3906090335134234
            ]
        },
        {
            "positions": [
                0.07338112635494409,
                -1.833542705349501,
                2.2577106062848213,
                -0.5080630928742182,
                -0.5395664687426601,
                -1.5352827062028993
            ]
        },
        {
            "positions": [
                0.14594863226625981,
                -1.8484531630949619,
                2.2693298054093773,
                -0.49542930422222775,
                -0.43599987218780045,
                -1.6799563788923753
            ]
        },
        {
            "positions": [
                0.21851613817757554,
                -1.8633636208404227,
                2.280949004533934,
                -0.48279551557023714,
                -0.33243327563294073,
                -1.8246300515818512
            ]
        },
        {
            "positions": [
                0.29108364408889126,
                -1.8782740785858834,
                2.29256820365849,
                -0.4701617269182466,
                -0.22886667907808106,
                -1.969303724271327
            ]
        },
        {
            "positions": [
                0.363651150000207,
                -1.893184536331344,
                2.304187402783046,
                -0.45752793826625604,
                -0.12530008252322133,
                -2.113977396960803
            ]
        },
        {
            "positions": [
                0.4362186559115227,
                -1.9080949940768048,
                2.3158066019076022,
                -0.44489414961426543,
                -0.021733485968361665,
                -2.258651069650279
            ]
        },
        {
            "positions": [
                0.5087861618228384,
                -1.9230054518222657,
                2.3274258010321582,
                -0.4322603609622749,
                0.081833110586498,
                -2.4033247423397546
            ]
        },
        {
            "positions": [
                0.5813536677341542,
                -1.9379159095677263,
                2.3390450001567142,
                -0.41962657231028433,
                0.18539970714135767,
                -2.5479984150292307
            ]
        },
        {
            "positions": [
                0.6121334696074252,
                -1.9308855351279202,
                2.3523919716597996,
                -0.43042392065478535,
                0.31508449670549665,
                -2.696127477408406
            ]
        },
        {
            "positions": [
                0.6429132714806962,
                -1.9238551606881138,
                2.3657389431628846,
                -0.4412212689992864,
                0.4447692862696356,
                -2.8442565397875814
            ]
        },
        {
            "positions": [
                0.6736930733539672,
                -1.9168247862483074,
                2.3790859146659695,
                -0.4520186173437874,
                0.5744540758337745,
                -2.9923856021667565
            ]
        },
        {
            "positions": [
                0.7044728752272382,
                -1.9097944118085013,
                2.392432886169055,
                -0.4628159656882884,
                0.7041388653979135,
                -3.1405146645459316
            ]
        }
    ]
}