{
    "goal": {
        "global_pose": {
            "orientation": {
                "w": -0.00223480608172531,
                "x": 0.0024358444001904467,
                "y": 0.7094548369677653,
                "z": -0.704743149386269
            },
            "position": {
                "x": -0.37947507619857795,
                "y": -0.6371506643295288,
                "z": 0.19426114857196808
            }
        },
        "name": "move_to_magneteinheit_C"
    },
    "id": "ProjEST_move_to_magneteinheit_C_33",
    "joint_names": [
        "shoulder_pan_joint",
        "shoulder_lift_joint",
        "elbow_joint",
        "wrist_1_joint",
        "wrist_2_joint",
        "wrist_3_joint"
    ],
    "metrics": {
        "cart_traj_len": 3.4025885900966815,
        "distance_elbow_joint": 2.9471580214539164,
        "distance_shoulder_lift_joint": 2.151569196161151,
        "distance_shoulder_pan_joint": 4.4480476692823245,
        "distance_wrist_1_joint": 3.3179683879817032,
        "distance_wrist_2_joint": 1.9565310209488123,
        "distance_wrist_3_joint": 1.8223770773234458,
        "smoothness": 0.964383314160975,
        "time": 1.6668230389999998,
        "traj_len": 4.0796631445686,
        "weighted_distance": 5.05597714954575
    },
    "planner": "ProjEST",
    "start": {
        "state": {
            "elbow_joint": 1.9565354010623817,
            "shoulder_lift_joint": -1.4165861575791021,
            "shoulder_pan_joint": -1.6717766225146293,
            "wrist_1_joint": -0.5286633292919765,
            "wrist_2_joint": 1.472756589071564,
            "wrist_3_joint": -3.1238370188695823
        }
    },
    "waypoints": [
        {
            "positions": [
                -1.6717766225146293,
                -1.4165861575791021,
                1.9565354010623817,
                -0.5286633292919765,
                1.472756589071564,
                -3.1238370188695823
            ]
        },
        {
            "positions": [
                -1.630947656947967,
                -1.4318408134314609,
                1.958211890895641,
                -0.5301359641180285,
                1.4733546461831402,
                -3.074196133163374
            ]
        },
        {
            "positions": [
                -1.541119080768444,
                -1.4930338871644337,
                1.892188471195885,
                -0.5323594293845085,
                1.3975325663281177,
                -3.0033554185268705
            ]
        },
        {
            "positions": [
                -1.451290504588921,
                -1.5542269608974069,
                1.8261650514961292,
                -0.5345828946509886,
                1.321710486473095,
                -2.932514703890367
            ]
        },
        {
            "positions": [
                -1.361461928409398,
                -1.6154200346303798,
                1.7601416317963732,
                -0.5368063599174686,
                1.2458884066180727,
                -2.8616739892538643
            ]
        },
        {
            "positions": [
                -1.2716333522298753,
                -1.6766131083633529,
                1.6941182120966174,
                -0.5390298251839486,
                1.1700663267630502,
                -2.790833274617361
            ]
        },
        {
            "positions": [
                -1.1818047760503523,
                -1.7378061820963258,
                1.6280947923968614,
                -0.5412532904504287,
                1.0942442469080278,
                -2.7199925599808576
            ]
        },
        {
            "positions": [
                -1.0919761998708293,
                -1.7989992558292989,
                1.5620713726971056,
                -0.5434767557169087,
                1.0184221670530054,
                -2.6491518453443543
            ]
        },
        {
            "positions": [
                -1.0021476236913063,
                -1.8601923295622718,
                1.4960479529973496,
                -0.5457002209833887,
                0.9426000871979827,
                -2.578311130707851
            ]
        },
        {
            "positions": [
                -0.9123190475117834,
                -1.9213854032952447,
                1.4300245332975936,
                -0.5479236862498688,
                0.8667780073429603,
                -2.5074704160713477
            ]
        },
        {
            "positions": [
                -0.8224904713322604,
                -1.9825784770282178,
                1.3640011135978378,
                -0.5501471515163487,
                0.7909559274879379,
                -2.4366297014348444
            ]
        },
        {
            "positions": [
                -0.7326618951527374,
                -2.043771550761191,
                1.2979776938980818,
                -0.5523706167828287,
                0.7151338476329153,
                -2.365788986798341
            ]
        },
        {
            "positions": [
                -0.6428333189732145,
                -2.1049646244941638,
                1.2319542741983258,
                -0.5545940820493088,
                0.6393117677778929,
                -2.294948272161838
            ]
        },
        {
            "positions": [
                -0.5530047427936916,
                -2.1661576982271367,
                1.16593085449857,
                -0.5568175473157888,
                0.5634896879228704,
                -2.224107557525335
            ]
        },
        {
            "positions": [
                -0.6911634504537993,
                -2.1766877663237247,
                1.2449320320831598,
                -0.651182605831226,
                0.5937639515402348,
                -2.2589294482273043
            ]
        },
        {
            "positions": [
                -0.829322158113907,
                -2.187217834420313,
                1.3239332096677496,
                -0.7455476643466633,
                0.6240382151575992,
                -2.2937513389292743
            ]
        },
        {
            "positions": [
                -0.9674808657740146,
                -2.197747902516901,
                1.4029343872523397,
                -0.8399127228621005,
                0.6543124787749637,
                -2.328573229631244
            ]
        },
        {
            "positions": [
                -1.1056395734341224,
                -2.2082779706134894,
                1.4819355648369295,
                -0.9342777813775378,
                0.6845867423923281,
                -2.3633951203332133
            ]
        },
        {
            "positions": [
                -1.24379828109423,
                -2.2188080387100775,
                1.5609367424215193,
                -1.028642839892975,
                0.7148610060096925,
                -2.3982170110351833
            ]
        },
        {
            "positions": [
                -1.3819569887543377,
                -2.2293381068066656,
                1.6399379200061093,
                -1.1230078984084122,
                0.745135269627057,
                -2.4330389017371528
            ]
        },
        {
            "positions": [
                -1.5201156964144453,
                -2.2398681749032536,
                1.7189390975906989,
                -1.2173729569238496,
                0.7754095332444214,
                -2.4678607924391223
            ]
        },
        {
            "positions": [
                -1.658274404074553,
                -2.2503982429998417,
                1.7979402751752889,
                -1.3117380154392868,
                0.8056837968617858,
                -2.502682683141092
            ]
        },
        {
            "positions": [
                -1.796433111734661,
                -2.2609283110964298,
                1.8769414527598787,
                -1.406103073954724,
                0.8359580604791502,
                -2.5375045738430617
            ]
        },
        {
            "positions": [
                -1.9345918193947687,
                -2.2714583791930183,
                1.9559426303444685,
                -1.5004681324701612,
                0.8662323240965146,
                -2.572326464545031
            ]
        },
        {
            "positions": [
                -2.0727505270548763,
                -2.2819884472896064,
                2.0349438079290585,
                -1.5948331909855986,
                0.8965065877138791,
                -2.607148355247001
            ]
        },
        {
            "positions": [
                -2.210909234714984,
                -2.2925185153861944,
                2.1139449855136485,
                -1.6891982495010356,
                0.9267808513312435,
                -2.6419702459489707
            ]
        },
        {
            "positions": [
                -2.3490679423750915,
                -2.3030485834827825,
                2.192946163098238,
                -1.783563308016473,
                0.957055114948608,
                -2.67679213665094
            ]
        },
        {
            "positions": [
                -2.487226650035199,
                -2.3135786515793706,
                2.2719473406828277,
                -1.8779283665319102,
                0.9873293785659725,
                -2.7116140273529097
            ]
        },
        {
            "positions": [
                -2.625385357695307,
                -2.3241087196759587,
                2.350948518267418,
                -1.9722934250473474,
                1.017603642183337,
                -2.7464359180548796
            ]
        },
        {
            "positions": [
                -2.7635440653554144,
                -2.3346387877725467,
                2.4299496958520077,
                -2.066658483562785,
                1.0478779058007013,
                -2.781257808756849
            ]
        },
        {
            "positions": [
                -2.9017027730155225,
                -2.3451688558691353,
                2.5089508734365977,
                -2.161023542078222,
                1.0781521694180658,
                -2.816079699458819
            ]
        },
        {
            "positions": [
                -3.03986148067563,
                -2.3556989239657233,
                2.5879520510211873,
                -2.255388600593659,
                1.10842643303543,
                -2.850901590160788
            ]
        },
        {
            "positions": [
                -3.1780201883357377,
                -2.3662289920623114,
                2.6669532286057773,
                -2.3497536591090964,
                1.1387006966527946,
                -2.885723480862758
            ]
        },
        {
            "positions": [
                -3.123846315718865,
                -2.2737731180870853,
                2.6167856808275944,
                -2.234609193096436,
                1.1024809276645606,
                -2.9058028418352024
            ]
        },
        {
            "positions": [
                -3.069672443101993,
                -2.1813172441118587,
                2.5666181330494116,
                -2.119464727083776,
                1.0662611586763264,
                -2.9258822028076468
            ]
        },
        {
            "positions": [
                -3.0154985704851205,
                -2.0888613701366325,
                2.5164505852712282,
                -2.0043202610711157,
                1.0300413896880924,
                -2.9459615637800907
            ]
        },
        {
            "positions": [
                -2.961324697868248,
                -1.9964054961614062,
                2.4662830374930453,
                -1.8891757950584553,
                0.9938216206998585,
                -2.966040924752535
            ]
        },
        {
            "positions": [
                -2.9071508252513754,
                -1.9039496221861798,
                2.4161154897148625,
                -1.7740313290457952,
                0.9576018517116244,
                -2.9861202857249793
            ]
        },
        {
            "positions": [
                -2.8529769526345032,
                -1.8114937482109537,
                2.3659479419366796,
                -1.658886863033135,
                0.9213820827233903,
                -3.0061996466974237
            ]
        },
        {
            "positions": [
                -2.7988030800176307,
                -1.7190378742357275,
                2.3157803941584962,
                -1.5437423970204747,
                0.8851623137351563,
                -3.0262790076698676
            ]
        },
        {
            "positions": [
                -2.744629207400758,
                -1.626582000260501,
                2.2656128463803133,
                -1.4285979310078143,
                0.8489425447469222,
                -3.046358368642312
            ]
        },
        {
            "positions": [
                -2.690455334783886,
                -1.5341261262852748,
                2.2154452986021305,
                -1.3134534649951544,
                0.8127227757586881,
                -3.0664377296147562
            ]
        },
        {
            "positions": [
                -2.6362814621670134,
                -1.4416702523100484,
                2.1652777508239476,
                -1.198308998982494,
                0.7765030067704541,
                -3.0865170905872006
            ]
        },
        {
            "positions": [
                -2.582107589550141,
                -1.349214378334822,
                2.1151102030457647,
                -1.0831645329698338,
                0.7402832377822202,
                -3.1065964515596445
            ]
        },
        {
            "positions": [
                -2.5279337169332683,
                -1.2567585043595957,
                2.0649426552675814,
                -0.9680200669571735,
                0.704063468793986,
                -3.126675812532089
            ]
        },
        {
            "positions": [
                -2.473759844316396,
                -1.1643026303843695,
                2.0147751074893985,
                -0.8528756009445132,
                0.667843699805752,
                -3.146755173504533
            ]
        }
    ]
}