{
    "goal": {
        "global_pose": {
            "orientation": {
                "w": 0.005598929693374612,
                "x": 0.007748599140229565,
                "y": 0.7110244013736278,
                "z": -0.7031023480610252
            },
            "position": {
                "x": -0.8858502320852131,
                "y": -0.7141253447532654,
                "z": 0.3711530566215515
            }
        },
        "name": "move_to_auspresseinheit_C"
    },
    "id": "ProjEST_move_to_auspresseinheit_C_136",
    "joint_names": [
        "shoulder_pan_joint",
        "shoulder_lift_joint",
        "elbow_joint",
        "wrist_1_joint",
        "wrist_2_joint",
        "wrist_3_joint"
    ],
    "metrics": {
        "cart_traj_len": 0.49328946275874186,
        "distance_elbow_joint": 0.9920083162401777,
        "distance_shoulder_lift_joint": 0.320609798872173,
        "distance_shoulder_pan_joint": 0.2574565883441746,
        "distance_wrist_1_joint": 0.6667690356532112,
        "distance_wrist_2_joint": 1.3007322788200986,
        "distance_wrist_3_joint": 0.04762970324053528,
        "smoothness": 4.844609574787718e-16,
        "time": 0.421214012,
        "traj_len": 1.8934639476817008,
        "weighted_distance": 2.3765450641897683
    },
    "planner": "ProjEST",
    "start": {
        "state": {
            "elbow_joint": 1.7527959577737207,
            "shoulder_lift_joint": -0.9740617694225068,
            "shoulder_pan_joint": -2.967991417825858,
            "wrist_1_joint": -0.759517768980727,
            "wrist_2_joint": 1.7443932448377408,
            "wrist_3_joint": -3.0840537646736568
        }
    },
    "waypoints": [
        {
            "positions": [
                -2.967991417825858,
                -0.9740617694225068,
                1.7527959577737207,
                -0.759517768980727,
                1.7443932448377408,
                -3.0840537646736568
            ]
        },
        {
            "positions": [
                -2.9422457589914406,
                -0.9420007895352894,
                1.6535951261497028,
                -0.6928408654154059,
                1.614320016955731,
                -3.0888167349977103
            ]
        },
        {
            "positions": [
                -2.916500100157023,
                -0.9099398096480722,
                1.554394294525685,
                -0.6261639618500847,
                1.4842467890737212,
                -3.0935797053217637
            ]
        },
        {
            "positions": [
                -2.8907544413226054,
                -0.8778788297608549,
                1.4551934629016674,
                -0.5594870582847636,
                1.3541735611917112,
                -3.0983426756458172
            ]
        },
        {
            "positions": [
                -2.865008782488188,
                -0.8458178498736375,
                1.3559926312776496,
                -0.4928101547194425,
                1.2241003333097014,
                -3.1031056459698707
            ]
        },
        {
            "positions": [
                -2.8392631236537706,
                -0.8137568699864203,
                1.2567917996536317,
                -0.4261332511541214,
                1.0940271054276915,
                -3.107868616293924
            ]
        },
        {
            "positions": [
                -2.8135174648193533,
                -0.781695890099203,
                1.1575909680296141,
                -0.35945634758880024,
                0.9639538775456817,
                -3.112631586617978
            ]
        },
        {
            "positions": [
                -2.787771805984936,
                -0.7496349102119857,
                1.0583901364055963,
                -0.29277944402347916,
                0.8338806496636719,
                -3.1173945569420316
            ]
        },
        {
            "positions": [
                -2.762026147150518,
                -0.7175739303247683,
                0.9591893047815785,
                -0.22610254045815803,
                0.7038074217816619,
                -3.122157527266085
            ]
        },
        {
            "positions": [
                -2.7362804883161007,
                -0.685512950437551,
                0.8599884731575607,
                -0.15942563689283684,
                0.5737341938996521,
                -3.1269204975901386
            ]
        },
        {
            "positions": [
                -2.7105348294816833,
                -0.6534519705503338,
                0.760787641533543,
                -0.0927487333275158,
                0.44366096601764227,
                -3.131683467914192
            ]
        }
    ]
}