{
    "goal": {
        "global_pose": {
            "orientation": {
                "w": 0.5084816217422485,
                "x": -0.49083608388900757,
                "y": 0.5182115435600281,
                "z": -0.4816462993621826
            },
            "position": {
                "x": 0.5540239810943604,
                "y": 0.030875300988554955,
                "z": 0.16403168439865112
            }
        },
        "name": "move_to_storage_A"
    },
    "id": "ProjEST_move_to_storage_A_55",
    "joint_names": [
        "shoulder_pan_joint",
        "shoulder_lift_joint",
        "elbow_joint",
        "wrist_1_joint",
        "wrist_2_joint",
        "wrist_3_joint"
    ],
    "metrics": {
        "cart_traj_len": 0.3532683424513293,
        "distance_elbow_joint": 0.4509388175656388,
        "distance_shoulder_lift_joint": 0.23420128401326923,
        "distance_shoulder_pan_joint": 0.460705296350266,
        "distance_wrist_1_joint": 0.24339570333727145,
        "distance_wrist_2_joint": 1.1049222653911293,
        "distance_wrist_3_joint": 0.09973525319549559,
        "smoothness": 4.440892098500626e-16,
        "time": 0.034051909,
        "traj_len": 1.6105584807305415,
        "weighted_distance": 2.03511353368122
    },
    "planner": "ProjEST",
    "start": {
        "state": {
            "elbow_joint": 1.971548259319323,
            "shoulder_lift_joint": -1.1394851275133948,
            "shoulder_pan_joint": 0.1228115487234821,
            "wrist_1_joint": -0.7804723859257726,
            "wrist_2_joint": 0.12958671773740124,
            "wrist_3_joint": -3.192489227718131
        }
    },
    "waypoints": [
        {
            "positions": [
                0.1228115487234821,
                -1.1394851275133948,
                1.971548259319323,
                -0.7804723859257726,
                0.12958671773740124,
                -3.192489227718131
            ]
        },
        {
            "positions": [
                0.05699650638772981,
                -1.1729424538010047,
                2.0359680904001287,
                -0.81524320068824,
                0.2874327556504197,
                -3.178241334404489
            ]
        },
        {
            "positions": [
                -0.008818535948022482,
                -1.2063997800886146,
                2.1003879214809342,
                -0.8500140154507073,
                0.44527879356343814,
                -3.1639934410908466
            ]
        },
        {
            "positions": [
                -0.07463357828377476,
                -1.2398571063762245,
                2.1648077525617397,
                -0.8847848302131747,
                0.6031248314764566,
                -3.1497455477772043
            ]
        },
        {
            "positions": [
                -0.14044862061952706,
                -1.2733144326638344,
                2.2292275836425453,
                -0.919555644975642,
                0.7609708693894751,
                -3.1354976544635624
            ]
        },
        {
            "positions": [
                -0.20626366295527937,
                -1.3067717589514443,
                2.2936474147233508,
                -0.9543264597381094,
                0.9188169073024937,
                -3.12124976114992
            ]
        },
        {
            "positions": [
                -0.2720787052910316,
                -1.3402290852390542,
                2.3580672458041563,
                -0.9890972745005767,
                1.0766629452155119,
                -3.107001867836278
            ]
        },
        {
            "positions": [
                -0.3378937476267839,
                -1.373686411526664,
                2.422487076884962,
                -1.023868089263044,
                1.2345089831285305,
                -3.0927539745226356
            ]
        }
    ]
}{
    "goal": {
        "global_pose": {
            "orientation": {
                "w": 0.5084816217422485,
                "x": -0.49083608388900757,
                "y": 0.5182115435600281,
                "z": -0.4816462993621826
            },
            "position": {
                "x": 0.5540239810943604,
                "y": 0.030875300988554955,
                "z": 0.16403168439865112
            }
        },
        "name": "move_to_storage_A"
    },
    "id": "ProjEST_move_to_storage_A_55",
    "joint_names": [
        "shoulder_pan_joint",
        "shoulder_lift_joint",
        "elbow_joint",
        "wrist_1_joint",
        "wrist_2_joint",
        "wrist_3_joint"
    ],
    "metrics": {
        "cart_traj_len": 0.3535028326596835,
        "distance_elbow_joint": 0.44915336579060794,
        "distance_shoulder_lift_joint": 0.23665850842894276,
        "distance_shoulder_pan_joint": 0.4644850976636572,
        "distance_wrist_1_joint": 0.23413555827491872,
        "distance_wrist_2_joint": 1.091189954094439,
        "distance_wrist_3_joint": 0.09668204882065812,
        "smoothness": 1.3322676330666221e-15,
        "time": 0.030874742,
        "traj_len": 1.6038405572478904,
        "weighted_distance": 2.0226206127407824
    },
    "planner": "ProjEST",
    "start": {
        "state": {
            "elbow_joint": 1.97154746011099,
            "shoulder_lift_joint": -1.13948474672311,
            "shoulder_pan_joint": 0.12281154466712228,
            "wrist_1_joint": -0.7804688027058302,
            "wrist_2_joint": 0.12958655903071145,
            "wrist_3_joint": 3.0906928834467795
        }
    },
    "waypoints": [
        {
            "positions": [
                0.12281154466712228,
                -1.13948474672311,
                1.97154746011099,
                -0.7804688027058302,
                0.12958655903071145,
                3.0906928834467795
            ]
        },
        {
            "positions": [
                0.05645653071517126,
                -1.1732931050701019,
                2.0357122266525054,
                -0.8139167396022472,
                0.28547083818705987,
                3.1045046047068734
            ]
        },
        {
            "positions": [
                -0.009898483236779762,
                -1.2071014634170936,
                2.099876993194021,
                -0.8473646764986641,
                0.44135511734340827,
                3.1183163259669677
            ]
        },
        {
            "positions": [
                -0.0762534971887308,
                -1.2409098217640855,
                2.1640417597355364,
                -0.8808126133950811,
                0.5972393964997567,
                3.1321280472270616
            ]
        },
        {
            "positions": [
                -0.1426085111406818,
                -1.2747181801110772,
                2.2282065262770514,
                -0.914260550291498,
                0.7531236756561052,
                3.1459397684871555
            ]
        },
        {
            "positions": [
                -0.20896352509263283,
                -1.308526538458069,
                2.292371292818567,
                -0.947708487187915,
                0.9090079548124537,
                3.1597514897472494
            ]
        },
        {
            "positions": [
                -0.27531853904458387,
                -1.3423348968050608,
                2.3565360593600824,
                -0.9811564240843319,
                1.0648922339688018,
                3.1735632110073437
            ]
        },
        {
            "positions": [
                -0.3416735529965349,
                -1.3761432551520527,
                2.420700825901598,
                -1.014604360980749,
                1.2207765131251505,
                3.1873749322674376
            ]
        }
    ]
}{
    "goal": {
        "global_pose": {
            "orientation": {
                "w": 0.5084816217422485,
                "x": -0.49083608388900757,
                "y": 0.5182115435600281,
                "z": -0.4816462993621826
            },
            "position": {
                "x": 0.5540239810943604,
                "y": 0.030875300988554955,
                "z": 0.16403168439865112
            }
        },
        "name": "move_to_storage_A"
    },
    "id": "ProjEST_move_to_storage_A_55",
    "joint_names": [
        "shoulder_pan_joint",
        "shoulder_lift_joint",
        "elbow_joint",
        "wrist_1_joint",
        "wrist_2_joint",
        "wrist_3_joint"
    ],
    "metrics": {
        "cart_traj_len": 0.35303178325793044,
        "distance_elbow_joint": 0.44825358067619225,
        "distance_shoulder_lift_joint": 0.23557098868675608,
        "distance_shoulder_pan_joint": 0.46360603456309013,
        "distance_wrist_1_joint": 0.23577096573384315,
        "distance_wrist_2_joint": 1.0904244204801883,
        "distance_wrist_3_joint": 0.08709283977022775,
        "smoothness": 2.2204460668324854e-16,
        "time": 0.11134734,
        "traj_len": 1.6002246185802471,
        "weighted_distance": 2.015217084004794
    },
    "planner": "ProjEST",
    "start": {
        "state": {
            "elbow_joint": 1.9715472970024885,
            "shoulder_lift_joint": -1.1394870060712896,
            "shoulder_pan_joint": 0.12281152778156021,
            "wrist_1_joint": -0.780463741449964,
            "wrist_2_joint": 0.12958659822042276,
            "wrist_3_joint": 3.090690232415272
        }
    },
    "waypoints": [
        {
            "positions": [
                0.12281152778156021,
                -1.1394870060712896,
                1.9715472970024885,
                -0.780463741449964,
                0.12958659822042276,
                3.090690232415272
            ]
        },
        {
            "positions": [
                0.05658209427254733,
                -1.173140004455112,
                2.035583522813373,
                -0.8141453079833701,
                0.2853615154318782,
                3.1031320666681617
            ]
        },
        {
            "positions": [
                -0.009647339236465546,
                -1.2067930028389342,
                2.099619748624258,
                -0.8478268745167763,
                0.4411364326433337,
                3.115573900921051
            ]
        },
        {
            "positions": [
                -0.07587677274547841,
                -1.2404460012227565,
                2.1636559744351422,
                -0.8815084410501824,
                0.5969113498547891,
                3.128015735173941
            ]
        },
        {
            "positions": [
                -0.1421062062544913,
                -1.2740989996065788,
                2.227692200246027,
                -0.9151900075835886,
                0.7526862670662445,
                3.1404575694268306
            ]
        },
        {
            "positions": [
                -0.2083356397635042,
                -1.307751997990401,
                2.2917284260569115,
                -0.9488715741169949,
                0.9084611842777001,
                3.1528994036797204
            ]
        },
        {
            "positions": [
                -0.274565073272517,
                -1.3414049963742234,
                2.355764651867796,
                -0.982553140650401,
                1.0642361014891555,
                3.16534123793261
            ]
        },
        {
            "positions": [
                -0.3407945067815299,
                -1.3750579947580457,
                2.419800877678681,
                -1.0162347071838072,
                1.220011018700611,
                3.1777830721854996
            ]
        }
    ]
}