{
    "goal": {
        "global_pose": {
            "orientation": {
                "w": 0.005598929693374612,
                "x": 0.007748599140229565,
                "y": 0.7110244013736278,
                "z": -0.7031023480610252
            },
            "position": {
                "x": 0.1141497679147869,
                "y": -0.7141253447532654,
                "z": 0.3711530566215515
            }
        },
        "name": "move_to_auspresseinheit_B"
    },
    "id": "ProjEST_move_to_auspresseinheit_B_65",
    "joint_names": [
        "shoulder_pan_joint",
        "shoulder_lift_joint",
        "elbow_joint",
        "wrist_1_joint",
        "wrist_2_joint",
        "wrist_3_joint"
    ],
    "metrics": {
        "cart_traj_len": 0.5636201353683317,
        "distance_elbow_joint": 0.059513090979951055,
        "distance_shoulder_lift_joint": 0.2952266634834966,
        "distance_shoulder_pan_joint": 0.5770091672177537,
        "distance_wrist_1_joint": 0.3160495035229798,
        "distance_wrist_2_joint": 0.9866600344721066,
        "distance_wrist_3_joint": 0.0069182882356764175,
        "smoothness": 0.0,
        "time": 0.026799246999999998,
        "traj_len": 1.4971228232553146,
        "weighted_distance": 1.8862457057282869
    },
    "planner": "ProjEST",
    "start": {
        "state": {
            "elbow_joint": 2.0193083361928714,
            "shoulder_lift_joint": -1.1220246554650708,
            "shoulder_pan_joint": -1.0952077554168747,
            "wrist_1_joint": -0.8559753972642168,
            "wrist_2_joint": 0.4759566250798843,
            "wrist_3_joint": -3.1240929996934557
        }
    },
    "waypoints": [
        {
            "positions": [
                -1.0952077554168747,
                -1.1220246554650708,
                2.0193083361928714,
                -0.8559753972642168,
                0.4759566250798843,
                -3.1240929996934557
            ]
        },
        {
            "positions": [
                -1.1913759499531669,
                -1.171229099378987,
                2.009389487696213,
                -0.8033004800103868,
                0.6403999641585687,
                -3.1229399516541765
            ]
        },
        {
            "positions": [
                -1.2875441444894593,
                -1.220433543292903,
                1.9994706391995545,
                -0.7506255627565569,
                0.8048433032372531,
                -3.121786903614897
            ]
        },
        {
            "positions": [
                -1.3837123390257515,
                -1.269637987206819,
                1.989551790702896,
                -0.6979506455027269,
                0.9692866423159376,
                -3.1206338555756172
            ]
        },
        {
            "positions": [
                -1.4798805335620437,
                -1.3188424311207352,
                1.9796329422062373,
                -0.645275728248897,
                1.133729981394622,
                -3.119480807536338
            ]
        },
        {
            "positions": [
                -1.5760487280983362,
                -1.3680468750346513,
                1.969714093709579,
                -0.5926008109950669,
                1.2981733204733066,
                -3.118327759497059
            ]
        },
        {
            "positions": [
                -1.6722169226346284,
                -1.4172513189485674,
                1.9597952452129204,
                -0.539925893741237,
                1.462616659551991,
                -3.1171747114577792
            ]
        }
    ]
}