{
    "goal": {
        "global_pose": {
            "orientation": {
                "w": 0.005598929693374612,
                "x": 0.007748599140229565,
                "y": 0.7110244013736278,
                "z": -0.7031023480610252
            },
            "position": {
                "x": -0.8858502320852131,
                "y": -0.7141253447532654,
                "z": 0.3711530566215515
            }
        },
        "name": "move_to_auspresseinheit_C"
    },
    "id": "ProjEST_move_to_auspresseinheit_C_71",
    "joint_names": [
        "shoulder_pan_joint",
        "shoulder_lift_joint",
        "elbow_joint",
        "wrist_1_joint",
        "wrist_2_joint",
        "wrist_3_joint"
    ],
    "metrics": {
        "cart_traj_len": 0.4935007479014263,
        "distance_elbow_joint": 0.9937486553189491,
        "distance_shoulder_lift_joint": 0.3212550746623618,
        "distance_shoulder_pan_joint": 0.25702917871738507,
        "distance_wrist_1_joint": 0.6655586477739575,
        "distance_wrist_2_joint": 1.3025866902478507,
        "distance_wrist_3_joint": 0.05943138170232398,
        "smoothness": 1.6148698667872622e-16,
        "time": 0.39502668999999996,
        "traj_len": 1.897263721368969,
        "weighted_distance": 2.3846630222841303
    },
    "planner": "ProjEST",
    "start": {
        "state": {
            "elbow_joint": 1.7527959577737207,
            "shoulder_lift_joint": -0.9740617694225068,
            "shoulder_pan_joint": -2.967991417825858,
            "wrist_1_joint": -0.759517768980727,
            "wrist_2_joint": 1.7443932448377408,
            "wrist_3_joint": -3.0840537646736568
        }
    },
    "waypoints": [
        {
            "positions": [
                -2.967991417825858,
                -0.9740617694225068,
                1.7527959577737207,
                -0.759517768980727,
                1.7443932448377408,
                -3.0840537646736568
            ]
        },
        {
            "positions": [
                -2.9422884999541195,
                -0.9419362619562706,
                1.6534210922418258,
                -0.6929619042033313,
                1.6141345758129557,
                -3.089996902843889
            ]
        },
        {
            "positions": [
                -2.916585582082381,
                -0.9098107544900345,
                1.5540462267099309,
                -0.6264060394259354,
                1.4838759067881706,
                -3.0959400410141216
            ]
        },
        {
            "positions": [
                -2.8908826642106424,
                -0.8776852470237982,
                1.454671361178036,
                -0.5598501746485398,
                1.3536172377633857,
                -3.101883179184354
            ]
        },
        {
            "positions": [
                -2.865179746338904,
                -0.845559739557562,
                1.355296495646141,
                -0.493294309871144,
                1.2233585687386004,
                -3.1078263173545864
            ]
        },
        {
            "positions": [
                -2.8394768284671654,
                -0.8134342320913259,
                1.2559216301142462,
                -0.42673844509374825,
                1.0930998997138155,
                -3.1137694555248188
            ]
        },
        {
            "positions": [
                -2.813773910595427,
                -0.7813087246250897,
                1.1565467645823513,
                -0.36018258031635253,
                0.9628412306890305,
                -3.119712593695051
            ]
        },
        {
            "positions": [
                -2.7880709927236884,
                -0.7491832171588535,
                1.0571718990504564,
                -0.2936267155389568,
                0.8325825616642454,
                -3.1256557318652836
            ]
        },
        {
            "positions": [
                -2.76236807485195,
                -0.7170577096926174,
                0.9577970335185614,
                -0.22707085076156097,
                0.7023238926394602,
                -3.131598870035516
            ]
        },
        {
            "positions": [
                -2.7366651569802114,
                -0.6849322022263811,
                0.8584221679866665,
                -0.16051498598416525,
                0.5720652236146753,
                -3.1375420082057484
            ]
        },
        {
            "positions": [
                -2.710962239108473,
                -0.652806694760145,
                0.7590473024547716,
                -0.09395912120676947,
                0.4418065545898902,
                -3.1434851463759808
            ]
        }
    ]
}