{
    "goal": {
        "global_pose": {
            "orientation": {
                "w": -0.00223480608172531,
                "x": 0.0024358444001904467,
                "y": 0.7094548369677653,
                "z": -0.704743149386269
            },
            "position": {
                "x": 0.6205249238014221,
                "y": -0.6371506643295288,
                "z": 0.19426114857196808
            }
        },
        "name": "move_to_magneteinheit_B"
    },
    "id": "ProjEST_move_to_magneteinheit_B_28",
    "joint_names": [
        "shoulder_pan_joint",
        "shoulder_lift_joint",
        "elbow_joint",
        "wrist_1_joint",
        "wrist_2_joint",
        "wrist_3_joint"
    ],
    "metrics": {
        "cart_traj_len": 3.8145133154036226,
        "distance_elbow_joint": 4.701316424318027,
        "distance_shoulder_lift_joint": 1.1139361012955256,
        "distance_shoulder_pan_joint": 3.1434965433634847,
        "distance_wrist_1_joint": 2.826615440809407,
        "distance_wrist_2_joint": 1.2170175575459834,
        "distance_wrist_3_joint": 1.2164714841346382,
        "smoothness": 0.49153056416732965,
        "time": 0.265204342,
        "traj_len": 3.770789513015419,
        "weighted_distance": 4.549222957615039
    },
    "planner": "ProjEST",
    "start": {
        "state": {
            "elbow_joint": 2.6216224122426386,
            "shoulder_lift_joint": -1.4174107377796124,
            "shoulder_pan_joint": 0.7066234856936794,
            "wrist_1_joint": 1.9546482284002225,
            "wrist_2_joint": -0.7096286983471962,
            "wrist_3_joint": 0.005740856962016249
        }
    },
    "waypoints": [
        {
            "positions": [
                0.7066234856936794,
                -1.4174107377796124,
                2.6216224122426386,
                1.9546482284002225,
                -0.7096286983471962,
                0.005740856962016249
            ]
        },
        {
            "positions": [
                0.6164650321643925,
                -1.4354618039709384,
                2.606145153286511,
                1.9457548885618103,
                -0.6602561455299174,
                -0.05854049629227026
            ]
        },
        {
            "positions": [
                0.5263065786351055,
                -1.4535128701622644,
                2.5906678943303842,
                1.936861548723398,
                -0.6108835927126386,
                -0.12282184954655677
            ]
        },
        {
            "positions": [
                0.44997032111075996,
                -1.4672232119059219,
                2.5222806221690024,
                1.8353140210916605,
                -0.5329081118658845,
                -0.15958789414918564
            ]
        },
        {
            "positions": [
                0.37363406358641443,
                -1.4809335536495793,
                2.45389335000762,
                1.733766493459923,
                -0.45493263101913045,
                -0.1963539387518145
            ]
        },
        {
            "positions": [
                0.2972978060620689,
                -1.494643895393237,
                2.3855060778462382,
                1.6322189658281856,
                -0.3769571501723764,
                -0.2331199833544434
            ]
        },
        {
            "positions": [
                0.2209615485377233,
                -1.5083542371368945,
                2.3171188056848564,
                1.5306714381964481,
                -0.2989816693256223,
                -0.2698860279570723
            ]
        },
        {
            "positions": [
                0.265985414356176,
                -1.5066919222751998,
                2.1531992943335614,
                1.438617836322244,
                -0.2640899523085901,
                -0.23510817753475582
            ]
        },
        {
            "positions": [
                0.31100928017462875,
                -1.5050296074135052,
                1.989279782982266,
                1.3465642344480397,
                -0.22919823529155786,
                -0.20033032711243934
            ]
        },
        {
            "positions": [
                0.35603314599308145,
                -1.5033672925518105,
                1.825360271630971,
                1.2545106325738355,
                -0.19430651827452566,
                -0.16555247669012285
            ]
        },
        {
            "positions": [
                0.4010570118115342,
                -1.501704977690116,
                1.6614407602796755,
                1.1624570306996314,
                -0.15941480125749344,
                -0.1307746262678064
            ]
        },
        {
            "positions": [
                0.44608087762998694,
                -1.5000426628284211,
                1.4975212489283805,
                1.0704034288254272,
                -0.12452308424046121,
                -0.09599677584548993
            ]
        },
        {
            "positions": [
                0.4911047434484397,
                -1.4983803479667266,
                1.3336017375770852,
                0.9783498269512229,
                -0.08963136722342901,
                -0.06121892542317345
            ]
        },
        {
            "positions": [
                0.5361286092668923,
                -1.4967180331050318,
                1.16968222622579,
                0.8862962250770187,
                -0.05473965020639679,
                -0.02644107500085696
            ]
        },
        {
            "positions": [
                0.5811524750853451,
                -1.495055718243337,
                1.0057627148744948,
                0.7942426232028145,
                -0.019847933189364564,
                0.008336775421459497
            ]
        },
        {
            "positions": [
                0.6261763409037978,
                -1.4933934033816425,
                0.8418432035231995,
                0.7021890213286103,
                0.015043783827667634,
                0.043114625843775956
            ]
        },
        {
            "positions": [
                0.6712002067222506,
                -1.4917310885199477,
                0.6779236921719043,
                0.6101354194544061,
                0.04993550084469989,
                0.07789247626609241
            ]
        },
        {
            "positions": [
                0.7162240725407033,
                -1.4900687736582532,
                0.5140041808206091,
                0.5180818175802018,
                0.08482721786173208,
                0.11267032668840893
            ]
        },
        {
            "positions": [
                0.761247938359156,
                -1.4884064587965584,
                0.35008466946931405,
                0.4260282157059976,
                0.11971893487876428,
                0.1474481771107254
            ]
        },
        {
            "positions": [
                0.8062718041776088,
                -1.4867441439348639,
                0.1861651581180186,
                0.3339746138317934,
                0.15461065189579654,
                0.18222602753304185
            ]
        },
        {
            "positions": [
                0.8512956699960614,
                -1.485081829073169,
                0.02224564676672358,
                0.2419210119575892,
                0.18950236891282873,
                0.21700387795535836
            ]
        },
        {
            "positions": [
                0.8963195358145142,
                -1.4834195142114746,
                -0.14167386458457187,
                0.149867410083385,
                0.224394085929861,
                0.25178172837767476
            ]
        },
        {
            "positions": [
                0.9413434016329669,
                -1.4817571993497798,
                -0.305593375935867,
                0.05781380820918085,
                0.2592858029468932,
                0.2865595787999913
            ]
        },
        {
            "positions": [
                1.0894126798190602,
                -1.5233579476792782,
                -0.43822393738813115,
                0.1063327871987566,
                0.25783996213953364,
                0.2918854267703554
            ]
        },
        {
            "positions": [
                1.2374819580051535,
                -1.5649586960087765,
                -0.5708544988403952,
                0.15485176618833235,
                0.25639412133217415,
                0.2972112747407195
            ]
        },
        {
            "positions": [
                1.3855512361912465,
                -1.606559444338275,
                -0.7034850602926593,
                0.2033707451779081,
                0.2549482805248146,
                0.30253712271108363
            ]
        },
        {
            "positions": [
                1.5336205143773398,
                -1.6481601926677731,
                -0.8361156217449235,
                0.25188972416748384,
                0.2535024397174551,
                0.30786297068144775
            ]
        },
        {
            "positions": [
                1.681689792563433,
                -1.6897609409972716,
                -0.9687461831971875,
                0.3004087031570596,
                0.2520565989100956,
                0.3131888186518118
            ]
        },
        {
            "positions": [
                1.8297590707495264,
                -1.7313616893267698,
                -1.1013767446494516,
                0.34892768214663533,
                0.2506107581027361,
                0.3185146666221759
            ]
        },
        {
            "positions": [
                1.9778283489356197,
                -1.7729624376562683,
                -1.2340073061017158,
                0.39744666113621113,
                0.24916491729537654,
                0.32384051459254004
            ]
        },
        {
            "positions": [
                2.125897627121713,
                -1.8145631859857665,
                -1.36663786755398,
                0.4459656401257869,
                0.24771907648801703,
                0.32916636256290416
            ]
        },
        {
            "positions": [
                2.273966905307806,
                -1.856163934315265,
                -1.4992684290062441,
                0.4944846191153626,
                0.2462732356806575,
                0.3344922105332683
            ]
        },
        {
            "positions": [
                2.4220361834938995,
                -1.8977646826447634,
                -1.6318989904585082,
                0.5430035981049384,
                0.244827394873298,
                0.3398180585036324
            ]
        },
        {
            "positions": [
                2.5701054616799928,
                -1.9393654309742616,
                -1.7645295519107724,
                0.5915225770945141,
                0.24338155406593848,
                0.3451439064739965
            ]
        },
        {
            "positions": [
                2.6697322345264456,
                -2.021887196682049,
                -1.8190942422138234,
                0.669291259937154,
                0.26392963247672263,
                0.3022204627098575
            ]
        },
        {
            "positions": [
                2.7693590073728984,
                -2.104408962389836,
                -1.8736589325168747,
                0.7470599427797939,
                0.28447771088750684,
                0.2592970189457185
            ]
        },
        {
            "positions": [
                2.74199972052981,
                -2.197844912667604,
                -1.8221501626272458,
                0.8071936642917321,
                0.3322533735248495,
                0.19930507463166788
            ]
        },
        {
            "positions": [
                2.714640433686722,
                -2.2912808629453725,
                -1.770641392737617,
                0.8673273858036703,
                0.3800290361621922,
                0.13931313031761727
            ]
        },
        {
            "positions": [
                2.6872811468436337,
                -2.3847168132231404,
                -1.7191326228479884,
                0.9274611073156086,
                0.4278046987995348,
                0.07932118600356663
            ]
        },
        {
            "positions": [
                2.659921860000545,
                -2.4781527635009084,
                -1.6676238529583596,
                0.9875948288275468,
                0.4755803614368775,
                0.019329241689516028
            ]
        }
    ]
}