{
    "goal": {
        "global_pose": {
            "orientation": {
                "w": 0.005598929693374612,
                "x": 0.007748599140229565,
                "y": 0.7110244013736278,
                "z": -0.7031023480610252
            },
            "position": {
                "x": -0.8858502320852131,
                "y": -0.7141253447532654,
                "z": 0.3711530566215515
            }
        },
        "name": "move_to_auspresseinheit_C"
    },
    "id": "ProjEST_move_to_auspresseinheit_C_36",
    "joint_names": [
        "shoulder_pan_joint",
        "shoulder_lift_joint",
        "elbow_joint",
        "wrist_1_joint",
        "wrist_2_joint",
        "wrist_3_joint"
    ],
    "metrics": {
        "cart_traj_len": 0.49438775958720177,
        "distance_elbow_joint": 1.0053819450805848,
        "distance_shoulder_lift_joint": 0.32731115898041785,
        "distance_shoulder_pan_joint": 0.2566557437903265,
        "distance_wrist_1_joint": 0.6805345231884296,
        "distance_wrist_2_joint": 1.3210556607438189,
        "distance_wrist_3_joint": 0.06812961972704423,
        "smoothness": 9.68921913573737e-16,
        "time": 0.857395281,
        "traj_len": 1.9128692196568542,
        "weighted_distance": 2.40767898086455
    },
    "planner": "ProjEST",
    "start": {
        "state": {
            "elbow_joint": 1.7527959577737207,
            "shoulder_lift_joint": -0.9740617694225068,
            "shoulder_pan_joint": -2.967991417825858,
            "wrist_1_joint": -0.759517768980727,
            "wrist_2_joint": 1.7443932448377408,
            "wrist_3_joint": -3.0840537646736568
        }
    },
    "waypoints": [
        {
            "positions": [
                -2.967991417825858,
                -0.9740617694225068,
                1.7527959577737207,
                -0.759517768980727,
                1.7443932448377408,
                -3.0840537646736568
            ]
        },
        {
            "positions": [
                -2.942325843446825,
                -0.941330653524465,
                1.652257763265662,
                -0.691464316661884,
                1.6122876787633589,
                -3.090866726646361
            ]
        },
        {
            "positions": [
                -2.9166602690677927,
                -0.9085995376264232,
                1.5517195687576038,
                -0.623410864343041,
                1.480182112688977,
                -3.0976796886190656
            ]
        },
        {
            "positions": [
                -2.89099469468876,
                -0.8758684217283814,
                1.4511813742495452,
                -0.5553574120241981,
                1.3480765466145952,
                -3.1044926505917703
            ]
        },
        {
            "positions": [
                -2.8653291203097275,
                -0.8431373058303396,
                1.3506431797414868,
                -0.48730395970535517,
                1.2159709805402132,
                -3.1113056125644745
            ]
        },
        {
            "positions": [
                -2.8396635459306947,
                -0.8104061899322978,
                1.2501049852334283,
                -0.4192505073865122,
                1.0838654144658313,
                -3.1181185745371787
            ]
        },
        {
            "positions": [
                -2.813997971551662,
                -0.7776750740342561,
                1.1495667907253697,
                -0.35119705506766924,
                0.9517598483914496,
                -3.1249315365098833
            ]
        },
        {
            "positions": [
                -2.7883323971726295,
                -0.7449439581362143,
                1.0490285962173114,
                -0.28314360274882633,
                0.8196542823170677,
                -3.131744498482588
            ]
        },
        {
            "positions": [
                -2.7626668227935967,
                -0.7122128422381725,
                0.9484904017092528,
                -0.21509015042998336,
                0.6875487162426857,
                -3.138557460455292
            ]
        },
        {
            "positions": [
                -2.7370012484145643,
                -0.6794817263401307,
                0.8479522072011944,
                -0.1470366981111404,
                0.5554431501683039,
                -3.1453704224279964
            ]
        },
        {
            "positions": [
                -2.7113356740355314,
                -0.6467506104420889,
                0.7474140126931359,
                -0.07898324579229739,
                0.42333758409392197,
                -3.152183384400701
            ]
        }
    ]
}