{
    "goal": {
        "global_pose": {
            "orientation": {
                "w": -0.4816463035849501,
                "x": 0.5182115481033762,
                "y": 0.4908360881923453,
                "z": -0.5084816262002911
            },
            "position": {
                "x": -0.8240239810943604,
                "y": 0.19912469901144506,
                "z": 0.16403168439865112
            }
        },
        "name": "move_to_storage_D"
    },
    "id": "ProjEST_move_to_storage_D_51",
    "joint_names": [
        "shoulder_pan_joint",
        "shoulder_lift_joint",
        "elbow_joint",
        "wrist_1_joint",
        "wrist_2_joint",
        "wrist_3_joint"
    ],
    "metrics": {
        "cart_traj_len": 0.6085990948807426,
        "distance_elbow_joint": 0.5574178935050149,
        "distance_shoulder_lift_joint": 0.15154628574362805,
        "distance_shoulder_pan_joint": 0.2588704575656303,
        "distance_wrist_1_joint": 3.8783653601114603,
        "distance_wrist_2_joint": 1.7734194835529997,
        "distance_wrist_3_joint": 3.283810217870926,
        "smoothness": 0.17182945488872348,
        "time": 0.128532716,
        "traj_len": 3.146971512160486,
        "weighted_distance": 4.703491785658392
    },
    "planner": "ProjEST",
    "start": {
        "state": {
            "elbow_joint": -2.384821988534728,
            "shoulder_lift_joint": -2.2788054721415256,
            "shoulder_pan_joint": -0.1854694642142757,
            "wrist_1_joint": 1.4845938289331202,
            "wrist_2_joint": 0.17898776772866878,
            "wrist_3_joint": 0.037105688729662994
        }
    },
    "waypoints": [
        {
            "positions": [
                -0.1854694642142757,
                -2.2788054721415256,
                -2.384821988534728,
                1.4845938289331202,
                0.17898776772866878,
                0.037105688729662994
            ]
        },
        {
            "positions": [
                -0.11201740935979329,
                -2.2423618628200757,
                -2.3465341034353786,
                1.5042840181112391,
                0.11564441577793945,
                0.12062073844084195
            ]
        },
        {
            "positions": [
                -0.046033700445289025,
                -2.203178575901265,
                -2.298432618135895,
                1.5053995921428158,
                0.02827439737894559,
                0.08161359546210095
            ]
        },
        {
            "positions": [
                0.01995000846921524,
                -2.1639952889824547,
                -2.2503311328364113,
                1.5065151661743927,
                -0.05909562102004828,
                0.042606452483359945
            ]
        },
        {
            "positions": [
                0.017626052604774407,
                -2.1623980671309524,
                -2.2319430007578593,
                1.338843686919167,
                -0.1258493642724084,
                -0.09314489022108635
            ]
        },
        {
            "positions": [
                0.01530209674033357,
                -2.1608008452794496,
                -2.213554868679307,
                1.1711722076639417,
                -0.1926031075247685,
                -0.22889623292553266
            ]
        },
        {
            "positions": [
                0.012978140875892736,
                -2.1592036234279472,
                -2.195166736600755,
                1.003500728408716,
                -0.25935685077712867,
                -0.36464757562997896
            ]
        },
        {
            "positions": [
                0.0106541850114519,
                -2.157606401576445,
                -2.176778604522203,
                0.8358292491534905,
                -0.3261105940294887,
                -0.5003989183344253
            ]
        },
        {
            "positions": [
                0.008330229147011065,
                -2.156009179724942,
                -2.1583904724436507,
                0.668157769898265,
                -0.39286433728184883,
                -0.6361502610388716
            ]
        },
        {
            "positions": [
                0.006006273282570229,
                -2.1544119578734398,
                -2.1400023403650987,
                0.5004862906430394,
                -0.459618080534209,
                -0.7719016037433178
            ]
        },
        {
            "positions": [
                0.003682317418129393,
                -2.1528147360219374,
                -2.121614208286547,
                0.33281481138781377,
                -0.5263718237865691,
                -0.9076529464477643
            ]
        },
        {
            "positions": [
                0.0013583615536885592,
                -2.151217514170435,
                -2.1032260762079944,
                0.16514333213258836,
                -0.5931255670389292,
                -1.0434042891522104
            ]
        },
        {
            "positions": [
                -0.0009655943107522783,
                -2.1496202923189323,
                -2.0848379441294425,
                -0.00252814712263727,
                -0.6598793102912893,
                -1.1791556318566567
            ]
        },
        {
            "positions": [
                -0.003289550175193112,
                -2.14802307046743,
                -2.0664498120508905,
                -0.17019962637786268,
                -0.7266330535436494,
                -1.314906974561103
            ]
        },
        {
            "positions": [
                -0.00561350603963395,
                -2.1464258486159276,
                -2.048061679972338,
                -0.3378711056330883,
                -0.7933867967960095,
                -1.4506583172655494
            ]
        },
        {
            "positions": [
                -0.007937461904074784,
                -2.1448286267644248,
                -2.029673547893786,
                -0.5055425848883139,
                -0.8601405400483697,
                -1.5864096599699955
            ]
        },
        {
            "positions": [
                -0.010261417768515618,
                -2.1432314049129224,
                -2.011285415815234,
                -0.6732140641435391,
                -0.9268942833007298,
                -1.7221610026744418
            ]
        },
        {
            "positions": [
                -0.012585373632956455,
                -2.14163418306142,
                -1.9928972837366818,
                -0.8408855433987652,
                -0.9936480265530899,
                -1.8579123453788884
            ]
        },
        {
            "positions": [
                -0.014909329497397289,
                -2.1400369612099173,
                -1.97450915165813,
                -1.0085570226539904,
                -1.0604017698054502,
                -1.9936636880833347
            ]
        },
        {
            "positions": [
                -0.017233285361838123,
                -2.138439739358415,
                -1.9561210195795777,
                -1.176228501909216,
                -1.1271555130578101,
                -2.129415030787781
            ]
        },
        {
            "positions": [
                -0.019557241226278957,
                -2.1368425175069126,
                -1.9377328875010256,
                -1.3438999811644416,
                -1.19390925631017,
                -2.265166373492227
            ]
        },
        {
            "positions": [
                -0.021881197090719798,
                -2.13524529565541,
                -1.9193447554224736,
                -1.5115714604196673,
                -1.2606629995625305,
                -2.4009177161966737
            ]
        },
        {
            "positions": [
                -0.024205152955160632,
                -2.1336480738039074,
                -1.9009566233439215,
                -1.679242939674893,
                -1.3274167428148904,
                -2.53666905890112
            ]
        },
        {
            "positions": [
                -0.026529108819601466,
                -2.132050851952405,
                -1.8825684912653693,
                -1.846914418930118,
                -1.3941704860672504,
                -2.6724204016055664
            ]
        },
        {
            "positions": [
                -0.0288530646840423,
                -2.1304536301009027,
                -1.8641803591868173,
                -2.0145858981853437,
                -1.4609242293196107,
                -2.8081717443100125
            ]
        },
        {
            "positions": [
                -0.03117702054848314,
                -2.1288564082494,
                -1.8457922271082652,
                -2.1822573774405694,
                -1.5276779725719707,
                -2.943923087014459
            ]
        },
        {
            "positions": [
                -0.033500976412923975,
                -2.1272591863978976,
                -1.827404095029713,
                -2.349928856695795,
                -1.5944317158243309,
                -3.079674429718905
            ]
        }
    ]
}