{
    "goal": {
        "global_pose": {
            "orientation": {
                "w": 0.005598929693374612,
                "x": 0.007748599140229565,
                "y": 0.7110244013736278,
                "z": -0.7031023480610252
            },
            "position": {
                "x": 0.1141497679147869,
                "y": -0.7141253447532654,
                "z": 0.3711530566215515
            }
        },
        "name": "move_to_auspresseinheit_B"
    },
    "id": "ProjEST_move_to_auspresseinheit_B_12",
    "joint_names": [
        "shoulder_pan_joint",
        "shoulder_lift_joint",
        "elbow_joint",
        "wrist_1_joint",
        "wrist_2_joint",
        "wrist_3_joint"
    ],
    "metrics": {
        "cart_traj_len": 0.5650696486959432,
        "distance_elbow_joint": 0.06447952613365926,
        "distance_shoulder_lift_joint": 0.2933660087919774,
        "distance_shoulder_pan_joint": 0.5783013511402797,
        "distance_wrist_1_joint": 0.3310121337406473,
        "distance_wrist_2_joint": 0.9881818581559325,
        "distance_wrist_3_joint": 0.00671604669057535,
        "smoothness": 2.5376526478085547e-16,
        "time": 0.034648559,
        "traj_len": 1.5040136052087667,
        "weighted_distance": 1.8959649284548492
    },
    "planner": "ProjEST",
    "start": {
        "state": {
            "elbow_joint": 2.0193083361928714,
            "shoulder_lift_joint": -1.1220246554650708,
            "shoulder_pan_joint": -1.0952077554168747,
            "wrist_1_joint": -0.8559753972642168,
            "wrist_2_joint": 0.4759566250798843,
            "wrist_3_joint": -3.1240929996934557
        }
    },
    "waypoints": [
        {
            "positions": [
                -1.0952077554168747,
                -1.1220246554650708,
                2.0193083361928714,
                -0.8559753972642168,
                0.4759566250798843,
                -3.1240929996934557
            ]
        },
        {
            "positions": [
                -1.1915913139402545,
                -1.1709189902637336,
                2.0085617485039284,
                -0.8008067083074423,
                0.6406536014392064,
                -3.12297365857836
            ]
        },
        {
            "positions": [
                -1.2879748724636346,
                -1.2198133250623966,
                1.997815160814985,
                -0.7456380193506676,
                0.8053505777985284,
                -3.121854317463264
            ]
        },
        {
            "positions": [
                -1.3843584309870145,
                -1.2687076598610596,
                1.9870685731260418,
                -0.6904693303938931,
                0.9700475541578506,
                -3.120734976348168
            ]
        },
        {
            "positions": [
                -1.4807419895103944,
                -1.3176019946597224,
                1.9763219854370986,
                -0.6353006414371186,
                1.1347445305171726,
                -3.119615635233072
            ]
        },
        {
            "positions": [
                -1.5771255480337745,
                -1.3664963294583852,
                1.9655753977481554,
                -0.580131952480344,
                1.2994415068764948,
                -3.118496294117976
            ]
        },
        {
            "positions": [
                -1.6735091065571543,
                -1.4153906642570482,
                1.9548288100592122,
                -0.5249632635235695,
                1.4641384832358169,
                -3.1173769530028803
            ]
        }
    ]
}