{
    "goal": {
        "global_pose": {
            "orientation": {
                "w": 0.005598929693374612,
                "x": 0.007748599140229565,
                "y": 0.7110244013736278,
                "z": -0.7031023480610252
            },
            "position": {
                "x": 0.1141497679147869,
                "y": -0.7141253447532654,
                "z": 0.3711530566215515
            }
        },
        "name": "move_to_auspresseinheit_B"
    },
    "id": "ProjEST_move_to_auspresseinheit_B_76",
    "joint_names": [
        "shoulder_pan_joint",
        "shoulder_lift_joint",
        "elbow_joint",
        "wrist_1_joint",
        "wrist_2_joint",
        "wrist_3_joint"
    ],
    "metrics": {
        "cart_traj_len": 0.5646835304810692,
        "distance_elbow_joint": 0.06220937716213415,
        "distance_shoulder_lift_joint": 0.29550045194774155,
        "distance_shoulder_pan_joint": 0.5778797330700538,
        "distance_wrist_1_joint": 0.3284508262417516,
        "distance_wrist_2_joint": 0.9908373259601537,
        "distance_wrist_3_joint": 0.008370131427936744,
        "smoothness": 0.0,
        "time": 0.166531884,
        "traj_len": 1.5044094674688044,
        "weighted_distance": 1.8971758645069123
    },
    "planner": "ProjEST",
    "start": {
        "state": {
            "elbow_joint": 2.0193083361928714,
            "shoulder_lift_joint": -1.1220246554650708,
            "shoulder_pan_joint": -1.0952077554168747,
            "wrist_1_joint": -0.8559753972642168,
            "wrist_2_joint": 0.4759566250798843,
            "wrist_3_joint": -3.1240929996934557
        }
    },
    "waypoints": [
        {
            "positions": [
                -1.0952077554168747,
                -1.1220246554650708,
                2.0193083361928714,
                -0.8559753972642168,
                0.4759566250798843,
                -3.1240929996934557
            ]
        },
        {
            "positions": [
                -1.1915210442618835,
                -1.1712747307896945,
                2.008940106665849,
                -0.8012335928905915,
                0.6410961794065766,
                -3.1226979777887998
            ]
        },
        {
            "positions": [
                -1.2878343331068927,
                -1.220524806114318,
                1.9985718771388268,
                -0.7464917885169663,
                0.8062357337332688,
                -3.1213029558841434
            ]
        },
        {
            "positions": [
                -1.3841476219519016,
                -1.2697748814389416,
                1.9882036476118043,
                -0.691749984143341,
                0.9713752880599611,
                -3.119907933979487
            ]
        },
        {
            "positions": [
                -1.4804609107969104,
                -1.3190249567635652,
                1.977835418084782,
                -0.6370081797697158,
                1.1365148423866533,
                -3.118512912074831
            ]
        },
        {
            "positions": [
                -1.5767741996419196,
                -1.3682750320881887,
                1.9674671885577597,
                -0.5822663753960904,
                1.3016543967133458,
                -3.1171178901701753
            ]
        },
        {
            "positions": [
                -1.6730874884869285,
                -1.4175251074128123,
                1.9570989590307373,
                -0.5275245710224652,
                1.466793951040038,
                -3.115722868265519
            ]
        }
    ]
}