{
    "goal": {
        "global_pose": {
            "orientation": {
                "w": -0.4816463035849501,
                "x": 0.5182115481033762,
                "y": 0.4908360881923453,
                "z": -0.5084816262002911
            },
            "position": {
                "x": -0.8240239810943604,
                "y": 0.19912469901144506,
                "z": 0.16403168439865112
            }
        },
        "name": "move_to_storage_D"
    },
    "id": "ProjEST_move_to_storage_D_124",
    "joint_names": [
        "shoulder_pan_joint",
        "shoulder_lift_joint",
        "elbow_joint",
        "wrist_1_joint",
        "wrist_2_joint",
        "wrist_3_joint"
    ],
    "metrics": {
        "cart_traj_len": 3.643676735048656,
        "distance_elbow_joint": 4.214091978943944,
        "distance_shoulder_lift_joint": 1.2637403930144255,
        "distance_shoulder_pan_joint": 2.8137901565685812,
        "distance_wrist_1_joint": 2.280715605739183,
        "distance_wrist_2_joint": 1.8702855026806449,
        "distance_wrist_3_joint": 3.1494332624445542,
        "smoothness": 0.04966201627478674,
        "time": 0.140082285,
        "traj_len": 3.9486778672602982,
        "weighted_distance": 5.103128896343915
    },
    "planner": "ProjEST",
    "start": {
        "state": {
            "elbow_joint": -2.384821988534728,
            "shoulder_lift_joint": -2.2788054721415256,
            "shoulder_pan_joint": -0.1854694642142757,
            "wrist_1_joint": 1.4845938289331202,
            "wrist_2_joint": 0.17898776772866878,
            "wrist_3_joint": 0.037105688729662994
        }
    },
    "waypoints": [
        {
            "positions": [
                -0.1854694642142757,
                -2.2788054721415256,
                -2.384821988534728,
                1.4845938289331202,
                0.17898776772866878,
                0.037105688729662994
            ]
        },
        {
            "positions": [
                -0.06201707455230983,
                -2.2232745323509238,
                -2.312532615379108,
                1.4124206261822658,
                0.15444699271477358,
                0.07989815495544533
            ]
        },
        {
            "positions": [
                0.06143531510965605,
                -2.1677435925603223,
                -2.240243242223488,
                1.3402474234314115,
                0.1299062177008784,
                0.12269062118122769
            ]
        },
        {
            "positions": [
                0.1848877047716219,
                -2.1122126527697205,
                -2.167953869067868,
                1.268074220680557,
                0.10536544268698321,
                0.16548308740701
            ]
        },
        {
            "positions": [
                0.3083400944335878,
                -2.0566817129791186,
                -2.095664495912248,
                1.1959010179297027,
                0.080824667673088,
                0.20827555363279238
            ]
        },
        {
            "positions": [
                0.4317924840955537,
                -2.001150773188517,
                -2.023375122756628,
                1.1237278151788483,
                0.056283892659192813,
                0.25106801985857474
            ]
        },
        {
            "positions": [
                0.5552448737575195,
                -1.9456198333979153,
                -1.9510857496010081,
                1.051554612427994,
                0.031743117645297636,
                0.293860486084357
            ]
        },
        {
            "positions": [
                0.6786972634194854,
                -1.8900888936073137,
                -1.878796376445388,
                0.9793814096771397,
                0.007202342631402431,
                0.33665295231013936
            ]
        },
        {
            "positions": [
                0.8021496530814514,
                -1.8345579538167118,
                -1.8065070032897683,
                0.9072082069262853,
                -0.017338432382492774,
                0.37944541853592173
            ]
        },
        {
            "positions": [
                0.9256020427434172,
                -1.7790270140261102,
                -1.734217630134148,
                0.835035004175431,
                -0.04187920739638798,
                0.4222378847617041
            ]
        },
        {
            "positions": [
                1.049054432405383,
                -1.7234960742355083,
                -1.6619282569785283,
                0.7628618014245766,
                -0.06641998241028316,
                0.46503035098748646
            ]
        },
        {
            "positions": [
                1.172506822067349,
                -1.6679651344449067,
                -1.5896388838229083,
                0.6906885986737222,
                -0.09096075742417839,
                0.5078228172132688
            ]
        },
        {
            "positions": [
                1.2959592117293146,
                -1.612434194654305,
                -1.5173495106672883,
                0.6185153959228679,
                -0.11550153243807351,
                0.5506152834390511
            ]
        },
        {
            "positions": [
                1.4194116013912808,
                -1.5569032548637032,
                -1.4450601375116685,
                0.5463421931720135,
                -0.14004230745196874,
                0.5934077496648336
            ]
        },
        {
            "positions": [
                1.5428639910532465,
                -1.5013723150731018,
                -1.3727707643560485,
                0.47416899042115923,
                -0.16458308246586392,
                0.6362002158906158
            ]
        },
        {
            "positions": [
                1.6663163807152124,
                -1.4458413752825,
                -1.3004813912004285,
                0.40199578767030486,
                -0.1891238574797591,
                0.6789926821163982
            ]
        },
        {
            "positions": [
                1.7897687703771783,
                -1.390310435491898,
                -1.2281920180448085,
                0.3298225849194505,
                -0.21366463249365433,
                0.7217851483421805
            ]
        },
        {
            "positions": [
                1.9132211600391442,
                -1.3347794957012964,
                -1.1559026448891887,
                0.2576493821685961,
                -0.2382054075075495,
                0.7645776145679628
            ]
        },
        {
            "positions": [
                2.03667354970111,
                -1.2792485559106948,
                -1.0836132717335685,
                0.18547617941774175,
                -0.26274618252144477,
                0.8073700807937453
            ]
        },
        {
            "positions": [
                2.1601259393630756,
                -1.223717616120093,
                -1.0113238985779487,
                0.11330297666688738,
                -0.28728695753533984,
                0.8501625470195275
            ]
        },
        {
            "positions": [
                2.2835783290250418,
                -1.1681866763294912,
                -0.9390345254223288,
                0.04112977391603301,
                -0.3118277325492351,
                0.8929550132453099
            ]
        },
        {
            "positions": [
                2.3008154471915048,
                -1.1605305964693717,
                -0.8006192996307515,
                -0.0007328036200718382,
                -0.24285423242909807,
                1.0076342101417552
            ]
        },
        {
            "positions": [
                2.318052565357968,
                -1.1528745166092522,
                -0.6622040738391741,
                -0.042595381156176684,
                -0.173880732308961,
                1.1223134070382006
            ]
        },
        {
            "positions": [
                2.3352896835244312,
                -1.1452184367491325,
                -0.523788848047597,
                -0.08445795869228151,
                -0.10490723218882397,
                1.236992603934646
            ]
        },
        {
            "positions": [
                2.3525268016908947,
                -1.137562356889013,
                -0.38537362225601957,
                -0.12632053622838638,
                -0.035933732068686886,
                1.3516718008310913
            ]
        },
        {
            "positions": [
                2.3697639198573577,
                -1.1299062770288935,
                -0.2469583964644423,
                -0.16818311376449122,
                0.03303976805145015,
                1.4663509977275369
            ]
        },
        {
            "positions": [
                2.3870010380238207,
                -1.122250197168774,
                -0.10854317067286501,
                -0.21004569130059603,
                0.10201326817158718,
                1.581030194623982
            ]
        },
        {
            "positions": [
                2.404238156190284,
                -1.1145941173086544,
                0.02987205511871227,
                -0.25190826883670087,
                0.1709867682917242,
                1.6957093915204275
            ]
        },
        {
            "positions": [
                2.421475274356747,
                -1.1069380374485347,
                0.16828728091028966,
                -0.29377084637280576,
                0.23996026841186135,
                1.810388588416873
            ]
        },
        {
            "positions": [
                2.4387123925232106,
                -1.0992819575884152,
                0.30670250670186705,
                -0.3356334239089106,
                0.3089337685319984,
                1.9250677853133182
            ]
        },
        {
            "positions": [
                2.4559495106896736,
                -1.0916258777282957,
                0.4451177324934442,
                -0.37749600144501544,
                0.3779072686521354,
                2.0397469822097634
            ]
        },
        {
            "positions": [
                2.4731866288561366,
                -1.0839697978681762,
                0.5835329582850216,
                -0.41935857898112033,
                0.44688076877227256,
                2.154426179106209
            ]
        },
        {
            "positions": [
                2.4904237470226,
                -1.0763137180080566,
                0.7219481840765988,
                -0.46122115651722506,
                0.5158542688924095,
                2.2691053760026545
            ]
        },
        {
            "positions": [
                2.507660865189063,
                -1.068657638147937,
                0.8603634098681762,
                -0.50308373405333,
                0.5848277690125466,
                2.3837845728991
            ]
        },
        {
            "positions": [
                2.5248979833555265,
                -1.0610015582878174,
                0.9987786356597533,
                -0.5449463115894347,
                0.6538012691326835,
                2.4984637697955447
            ]
        },
        {
            "positions": [
                2.5421351015219895,
                -1.0533454784276979,
                1.137193861451331,
                -0.5868088891255396,
                0.7227747692528208,
                2.6131429666919903
            ]
        },
        {
            "positions": [
                2.5593722196884525,
                -1.0456893985675784,
                1.2756090872429082,
                -0.6286714666616445,
                0.7917482693729578,
                2.727822163588436
            ]
        },
        {
            "positions": [
                2.576609337854916,
                -1.0380333187074589,
                1.4140243130344854,
                -0.6705340441977493,
                0.8607217694930949,
                2.842501360484881
            ]
        },
        {
            "positions": [
                2.593846456021379,
                -1.0303772388473391,
                1.552439538826063,
                -0.7123966217338542,
                0.9296952696132319,
                2.9571805573813266
            ]
        },
        {
            "positions": [
                2.6110835741878424,
                -1.0227211589872196,
                1.6908547646176397,
                -0.754259199269959,
                0.9986687697333689,
                3.0718597542777717
            ]
        },
        {
            "positions": [
                2.6283206923543054,
                -1.0150650791271,
                1.8292699904092173,
                -0.7961217768060639,
                1.067642269853506,
                3.1865389511742173
            ]
        }
    ]
}