{
    "goal": {
        "global_pose": {
            "orientation": {
                "w": 0.5084816217422485,
                "x": -0.49083608388900757,
                "y": 0.5182115435600281,
                "z": -0.4816462993621826
            },
            "position": {
                "x": 0.5540239810943604,
                "y": 0.030875300988554955,
                "z": 0.16403168439865112
            }
        },
        "name": "move_to_storage_A"
    },
    "id": "ProjEST_move_to_storage_A_48",
    "joint_names": [
        "shoulder_pan_joint",
        "shoulder_lift_joint",
        "elbow_joint",
        "wrist_1_joint",
        "wrist_2_joint",
        "wrist_3_joint"
    ],
    "metrics": {
        "cart_traj_len": 0.35315553374763126,
        "distance_elbow_joint": 0.4521595031497865,
        "distance_shoulder_lift_joint": 0.23494541475259667,
        "distance_shoulder_pan_joint": 0.46185218214575263,
        "distance_wrist_1_joint": 0.24603084291463795,
        "distance_wrist_2_joint": 1.0997508533710492,
        "distance_wrist_3_joint": 0.10358721302362017,
        "smoothness": 4.440892098500626e-16,
        "time": 0.011268848,
        "traj_len": 1.6119323836183215,
        "weighted_distance": 2.0374695412914448
    },
    "planner": "ProjEST",
    "start": {
        "state": {
            "elbow_joint": 1.971548259319323,
            "shoulder_lift_joint": -1.1394851275133948,
            "shoulder_pan_joint": 0.1228115487234821,
            "wrist_1_joint": -0.7804723859257726,
            "wrist_2_joint": 0.12958671773740124,
            "wrist_3_joint": -3.192489227718131
        }
    },
    "waypoints": [
        {
            "positions": [
                0.1228115487234821,
                -1.1394851275133948,
                1.971548259319323,
                -0.7804723859257726,
                0.12958671773740124,
                -3.192489227718131
            ]
        },
        {
            "positions": [
                0.05683266555980315,
                -1.1730487581923372,
                2.0361424740550067,
                -0.8156196491992923,
                0.28669398250469397,
                -3.1776910544290424
            ]
        },
        {
            "positions": [
                -0.009146217603875795,
                -1.2066123888712796,
                2.1007366887906906,
                -0.850766912472812,
                0.44380124727198667,
                -3.162892881139954
            ]
        },
        {
            "positions": [
                -0.07512510076755474,
                -1.240176019550222,
                2.165330903526374,
                -0.8859141757463317,
                0.6009085120392794,
                -3.1480947078508654
            ]
        },
        {
            "positions": [
                -0.1411039839312337,
                -1.2737396502291642,
                2.229925118262058,
                -0.9210614390198515,
                0.7580157768065722,
                -3.1332965345617767
            ]
        },
        {
            "positions": [
                -0.20708286709491264,
                -1.3073032809081067,
                2.294519332997742,
                -0.9562087022933712,
                0.9151230415738649,
                -3.118498361272688
            ]
        },
        {
            "positions": [
                -0.2730617502585916,
                -1.340866911587049,
                2.3591135477334255,
                -0.9913559655668909,
                1.0722303063411576,
                -3.1037001879835997
            ]
        },
        {
            "positions": [
                -0.33904063342227053,
                -1.3744305422659915,
                2.4237077624691095,
                -1.0265032288404106,
                1.2293375711084504,
                -3.088902014694511
            ]
        }
    ]
}{
    "goal": {
        "global_pose": {
            "orientation": {
                "w": 0.5084816217422485,
                "x": -0.49083608388900757,
                "y": 0.5182115435600281,
                "z": -0.4816462993621826
            },
            "position": {
                "x": 0.5540239810943604,
                "y": 0.030875300988554955,
                "z": 0.16403168439865112
            }
        },
        "name": "move_to_storage_A"
    },
    "id": "ProjEST_move_to_storage_A_48",
    "joint_names": [
        "shoulder_pan_joint",
        "shoulder_lift_joint",
        "elbow_joint",
        "wrist_1_joint",
        "wrist_2_joint",
        "wrist_3_joint"
    ],
    "metrics": {
        "cart_traj_len": 0.35326295787853873,
        "distance_elbow_joint": 0.4486973503272873,
        "distance_shoulder_lift_joint": 0.23613434911208908,
        "distance_shoulder_pan_joint": 0.4617376332993021,
        "distance_wrist_1_joint": 0.23396014283115618,
        "distance_wrist_2_joint": 1.1008612122050947,
        "distance_wrist_3_joint": 0.10190819640578752,
        "smoothness": 1.3322676330666221e-15,
        "time": 0.013246348,
        "traj_len": 1.6072644101642757,
        "weighted_distance": 2.030255312030618
    },
    "planner": "ProjEST",
    "start": {
        "state": {
            "elbow_joint": 1.97154746011099,
            "shoulder_lift_joint": -1.13948474672311,
            "shoulder_pan_joint": 0.12281154466712228,
            "wrist_1_joint": -0.7804688027058302,
            "wrist_2_joint": 0.12958655903071145,
            "wrist_3_joint": 3.0906928834467795
        }
    },
    "waypoints": [
        {
            "positions": [
                0.12281154466712228,
                -1.13948474672311,
                1.97154746011099,
                -0.7804688027058302,
                0.12958655903071145,
                3.0906928834467795
            ]
        },
        {
            "positions": [
                0.056849025624364835,
                -1.1732182251676941,
                2.035647081586317,
                -0.8138916802531382,
                0.2868524464885821,
                3.105251197219035
            ]
        },
        {
            "positions": [
                -0.009113493418392613,
                -1.2069517036122783,
                2.0997467030616432,
                -0.8473145578004462,
                0.4441183339464527,
                3.1198095109912902
            ]
        },
        {
            "positions": [
                -0.07507601246115005,
                -1.2406851820568625,
                2.16384632453697,
                -0.8807374353477543,
                0.6013842214043235,
                3.1343678247635456
            ]
        },
        {
            "positions": [
                -0.1410385315039075,
                -1.2744186605014465,
                2.227945946012297,
                -0.9141603128950623,
                0.7586501088621941,
                3.148926138535801
            ]
        },
        {
            "positions": [
                -0.20700105054666496,
                -1.3081521389460307,
                2.292045567487624,
                -0.9475831904423704,
                0.9159159963200648,
                3.1634844523080563
            ]
        },
        {
            "positions": [
                -0.27296356958942236,
                -1.3418856173906148,
                2.3561451889629503,
                -0.9810060679896784,
                1.0731818837779354,
                3.1780427660803117
            ]
        },
        {
            "positions": [
                -0.3389260886321798,
                -1.375619095835199,
                2.420244810438277,
                -1.0144289455369864,
                1.2304477712358062,
                3.192601079852567
            ]
        }
    ]
}{
    "goal": {
        "global_pose": {
            "orientation": {
                "w": 0.5084816217422485,
                "x": -0.49083608388900757,
                "y": 0.5182115435600281,
                "z": -0.4816462993621826
            },
            "position": {
                "x": 0.5540239810943604,
                "y": 0.030875300988554955,
                "z": 0.16403168439865112
            }
        },
        "name": "move_to_storage_A"
    },
    "id": "ProjEST_move_to_storage_A_48",
    "joint_names": [
        "shoulder_pan_joint",
        "shoulder_lift_joint",
        "elbow_joint",
        "wrist_1_joint",
        "wrist_2_joint",
        "wrist_3_joint"
    ],
    "metrics": {
        "cart_traj_len": 0.35305435618369174,
        "distance_elbow_joint": 0.45045170591479655,
        "distance_shoulder_lift_joint": 0.2349269366619955,
        "distance_shoulder_pan_joint": 0.46216914185544516,
        "distance_wrist_1_joint": 0.2426595198310224,
        "distance_wrist_2_joint": 1.097063578638664,
        "distance_wrist_3_joint": 0.0907770075963894,
        "smoothness": 4.440892098500626e-16,
        "time": 0.035648855,
        "traj_len": 1.6056300602873355,
        "weighted_distance": 2.024678987928896
    },
    "planner": "ProjEST",
    "start": {
        "state": {
            "elbow_joint": 1.9715472970024885,
            "shoulder_lift_joint": -1.1394870060712896,
            "shoulder_pan_joint": 0.12281152778156021,
            "wrist_1_joint": -0.780463741449964,
            "wrist_2_joint": 0.12958659822042276,
            "wrist_3_joint": 3.090690232415272
        }
    },
    "waypoints": [
        {
            "positions": [
                0.12281152778156021,
                -1.1394870060712896,
                1.9715472970024885,
                -0.780463741449964,
                0.12958659822042276,
                3.090690232415272
            ]
        },
        {
            "positions": [
                0.05678736465935377,
                -1.1730479970230032,
                2.0358975407046023,
                -0.8151293871401101,
                0.28630996659737473,
                3.1036583763576133
            ]
        },
        {
            "positions": [
                -0.009236798462852663,
                -1.2066089879747168,
                2.100247784406716,
                -0.8497950328302561,
                0.44303333497432673,
                3.1166265202999544
            ]
        },
        {
            "positions": [
                -0.0752609615850591,
                -1.2401699789264304,
                2.1645980281088297,
                -0.8844606785204021,
                0.5997567033512787,
                3.129594664242296
            ]
        },
        {
            "positions": [
                -0.14128512470726554,
                -1.273730969878144,
                2.2289482718109435,
                -0.9191263242105482,
                0.7564800717282307,
                3.1425628081846373
            ]
        },
        {
            "positions": [
                -0.20730928782947203,
                -1.3072919608298579,
                2.2932985155130576,
                -0.9537919699006943,
                0.9132034401051827,
                3.1555309521269788
            ]
        },
        {
            "positions": [
                -0.2733334509516784,
                -1.3408529517815715,
                2.3576487592151714,
                -0.9884576155908403,
                1.0699268084821347,
                3.16849909606932
            ]
        },
        {
            "positions": [
                -0.33935761407388493,
                -1.374413942733285,
                2.421999002917285,
                -1.0231232612809864,
                1.2266501768590867,
                3.1814672400116613
            ]
        }
    ]
}