{
    "goal": {
        "global_pose": {
            "orientation": {
                "w": 0.005598929693374612,
                "x": 0.007748599140229565,
                "y": 0.7110244013736278,
                "z": -0.7031023480610252
            },
            "position": {
                "x": -0.8858502320852131,
                "y": -0.7141253447532654,
                "z": 0.3711530566215515
            }
        },
        "name": "move_to_auspresseinheit_C"
    },
    "id": "ProjEST_move_to_auspresseinheit_C_56",
    "joint_names": [
        "shoulder_pan_joint",
        "shoulder_lift_joint",
        "elbow_joint",
        "wrist_1_joint",
        "wrist_2_joint",
        "wrist_3_joint"
    ],
    "metrics": {
        "cart_traj_len": 0.4944637436362854,
        "distance_elbow_joint": 1.0167534885207532,
        "distance_shoulder_lift_joint": 0.3332489042023822,
        "distance_shoulder_pan_joint": 0.256655005639598,
        "distance_wrist_1_joint": 0.7089685843187786,
        "distance_wrist_2_joint": 1.3108227546771851,
        "distance_wrist_3_joint": 0.08471414779818964,
        "smoothness": 3.2297397080004555e-16,
        "time": 0.780953633,
        "traj_len": 1.9264378747203053,
        "weighted_distance": 2.429070299466286
    },
    "planner": "ProjEST",
    "start": {
        "state": {
            "elbow_joint": 1.7527959577737207,
            "shoulder_lift_joint": -0.9740617694225068,
            "shoulder_pan_joint": -2.967991417825858,
            "wrist_1_joint": -0.759517768980727,
            "wrist_2_joint": 1.7443932448377408,
            "wrist_3_joint": -3.0840537646736568
        }
    },
    "waypoints": [
        {
            "positions": [
                -2.967991417825858,
                -0.9740617694225068,
                1.7527959577737207,
                -0.759517768980727,
                1.7443932448377408,
                -3.0840537646736568
            ]
        },
        {
            "positions": [
                -2.9423259172618983,
                -0.9407368790022685,
                1.6511206089216452,
                -0.6886209105488491,
                1.6133109693700223,
                -3.092525179453476
            ]
        },
        {
            "positions": [
                -2.916660416697938,
                -0.9074119885820303,
                1.54944526006957,
                -0.6177240521169712,
                1.4822286939023037,
                -3.100996594233295
            ]
        },
        {
            "positions": [
                -2.8909949161339785,
                -0.8740870981617921,
                1.4477699112174947,
                -0.5468271936850934,
                1.3511464184345854,
                -3.1094680090131135
            ]
        },
        {
            "positions": [
                -2.865329415570019,
                -0.8407622077415539,
                1.3460945623654195,
                -0.47593033525321554,
                1.2200641429668666,
                -3.1179394237929325
            ]
        },
        {
            "positions": [
                -2.839663915006059,
                -0.8074373173213156,
                1.244419213513344,
                -0.40503347682133767,
                1.0889818674991483,
                -3.1264108385727516
            ]
        },
        {
            "positions": [
                -2.813998414442099,
                -0.7741124269010775,
                1.1427438646612686,
                -0.3341366183894598,
                0.9578995920314298,
                -3.1348822533525706
            ]
        },
        {
            "positions": [
                -2.7883329138781394,
                -0.7407875364808393,
                1.0410685158091935,
                -0.263239759957582,
                0.8268173165637113,
                -3.1433536681323897
            ]
        },
        {
            "positions": [
                -2.7626674133141798,
                -0.707462646060601,
                0.939393166957118,
                -0.1923429015257041,
                0.6957350410959926,
                -3.1518250829122083
            ]
        },
        {
            "positions": [
                -2.7370019127502196,
                -0.6741377556403628,
                0.8377178181050428,
                -0.12144604309382623,
                0.5646527656282743,
                -3.1602964976920274
            ]
        },
        {
            "positions": [
                -2.71133641218626,
                -0.6408128652201246,
                0.7360424692529676,
                -0.050549184661948396,
                0.43357049016055565,
                -3.1687679124718464
            ]
        }
    ]
}