{
    "goal": {
        "global_pose": {
            "orientation": {
                "w": -0.4816463035849501,
                "x": 0.5182115481033762,
                "y": 0.4908360881923453,
                "z": -0.5084816262002911
            },
            "position": {
                "x": -0.8240239810943604,
                "y": 0.19912469901144506,
                "z": 0.16403168439865112
            }
        },
        "name": "move_to_storage_D"
    },
    "id": "ProjEST_move_to_storage_D_127",
    "joint_names": [
        "shoulder_pan_joint",
        "shoulder_lift_joint",
        "elbow_joint",
        "wrist_1_joint",
        "wrist_2_joint",
        "wrist_3_joint"
    ],
    "metrics": {
        "cart_traj_len": 0.6297761513368084,
        "distance_elbow_joint": 0.5557157383627334,
        "distance_shoulder_lift_joint": 0.20639532546580508,
        "distance_shoulder_pan_joint": 0.7739409649552523,
        "distance_wrist_1_joint": 3.825768816654956,
        "distance_wrist_2_joint": 1.7829815395007544,
        "distance_wrist_3_joint": 3.1175697902889237,
        "smoothness": 0.06338550652367614,
        "time": 0.071887361,
        "traj_len": 3.2034937451520684,
        "weighted_distance": 4.701729693629993
    },
    "planner": "ProjEST",
    "start": {
        "state": {
            "elbow_joint": -2.384821988534728,
            "shoulder_lift_joint": -2.2788054721415256,
            "shoulder_pan_joint": -0.1854694642142757,
            "wrist_1_joint": 1.4845938289331202,
            "wrist_2_joint": 0.17898776772866878,
            "wrist_3_joint": 0.037105688729662994
        }
    },
    "waypoints": [
        {
            "positions": [
                -0.1854694642142757,
                -2.2788054721415256,
                -2.384821988534728,
                1.4845938289331202,
                0.17898776772866878,
                0.037105688729662994
            ]
        },
        {
            "positions": [
                0.04583428754657928,
                -2.2924414903422035,
                -2.3323329415227834,
                1.4515311321315616,
                0.17904739625586563,
                -0.009982061103660414
            ]
        },
        {
            "positions": [
                0.2771380393074343,
                -2.3060775085428817,
                -2.2798438945108384,
                1.418468435330003,
                0.1791070247830625,
                -0.05706981093698382
            ]
        },
        {
            "positions": [
                0.26416581174770337,
                -2.2986140381651965,
                -2.261063159330053,
                1.2618166260361763,
                0.10482109634779749,
                -0.18304457304624536
            ]
        },
        {
            "positions": [
                0.25119358418797244,
                -2.291150567787511,
                -2.242282424149268,
                1.1051648167423498,
                0.030535167912532468,
                -0.3090193351555069
            ]
        },
        {
            "positions": [
                0.2382213566282415,
                -2.2836870974098256,
                -2.223501688968483,
                0.9485130074485231,
                -0.04375076052273258,
                -0.43499409726476845
            ]
        },
        {
            "positions": [
                0.22524912906851058,
                -2.2762236270321403,
                -2.2047209537876977,
                0.7918611981546966,
                -0.11803668895799757,
                -0.56096885937403
            ]
        },
        {
            "positions": [
                0.21227690150877962,
                -2.268760156654455,
                -2.1859402186069126,
                0.6352093888608699,
                -0.19232261739326267,
                -0.6869436214832916
            ]
        },
        {
            "positions": [
                0.1993046739490487,
                -2.2612966862767694,
                -2.1671594834261274,
                0.47855757956704326,
                -0.26660854582852767,
                -0.8129183835925531
            ]
        },
        {
            "positions": [
                0.18633244638931773,
                -2.253833215899084,
                -2.1483787482453423,
                0.32190577027321665,
                -0.3408944742637927,
                -0.9388931457018147
            ]
        },
        {
            "positions": [
                0.17336021882958683,
                -2.246369745521399,
                -2.129598013064557,
                0.16525396097939016,
                -0.41518040269905765,
                -1.064867907811076
            ]
        },
        {
            "positions": [
                0.16038799126985587,
                -2.238906275143713,
                -2.110817277883772,
                0.008602151685563442,
                -0.4894663311343227,
                -1.1908426699203376
            ]
        },
        {
            "positions": [
                0.14741576371012494,
                -2.231442804766028,
                -2.092036542702987,
                -0.14804965760826327,
                -0.5637522595695879,
                -1.3168174320295993
            ]
        },
        {
            "positions": [
                0.134443536150394,
                -2.2239793343883427,
                -2.0732558075222016,
                -0.30470146690208977,
                -0.6380381880048528,
                -1.4427921941388608
            ]
        },
        {
            "positions": [
                0.12147130859066307,
                -2.216515864010657,
                -2.0544750723414165,
                -0.4613532761959165,
                -0.7123241164401178,
                -1.5687669562481223
            ]
        },
        {
            "positions": [
                0.10849908103093214,
                -2.209052393632972,
                -2.0356943371606313,
                -0.618005085489743,
                -0.7866100448753828,
                -1.6947417183573839
            ]
        },
        {
            "positions": [
                0.09552685347120118,
                -2.2015889232552865,
                -2.016913601979846,
                -0.7746568947835697,
                -0.8608959733106479,
                -1.8207164804666456
            ]
        },
        {
            "positions": [
                0.08255462591147028,
                -2.1941254528776013,
                -1.998132866799061,
                -0.9313087040773964,
                -0.935181901745913,
                -1.946691242575907
            ]
        },
        {
            "positions": [
                0.06958239835173935,
                -2.1866619824999156,
                -1.9793521316182758,
                -1.0879605133712227,
                -1.009467830181178,
                -2.0726660046851686
            ]
        },
        {
            "positions": [
                0.05661017079200839,
                -2.1791985121222304,
                -1.9605713964374907,
                -1.2446123226650498,
                -1.0837537586164432,
                -2.19864076679443
            ]
        },
        {
            "positions": [
                0.04363794323227746,
                -2.171735041744545,
                -1.9417906612567055,
                -1.4012641319588761,
                -1.158039687051708,
                -2.324615528903691
            ]
        },
        {
            "positions": [
                0.03066571567254653,
                -2.16427157136686,
                -1.9230099260759204,
                -1.5579159412527028,
                -1.2323256154869728,
                -2.4505902910129533
            ]
        },
        {
            "positions": [
                0.01769348811281557,
                -2.156808100989174,
                -1.9042291908951352,
                -1.7145677505465295,
                -1.306611543922238,
                -2.5765650531222146
            ]
        },
        {
            "positions": [
                0.0047212605530846385,
                -2.149344630611489,
                -1.88544845571435,
                -1.8712195598403563,
                -1.380897472357503,
                -2.702539815231476
            ]
        },
        {
            "positions": [
                -0.008250967006646293,
                -2.1418811602338037,
                -1.866667720533565,
                -2.0278713691341825,
                -1.4551834007927682,
                -2.828514577340738
            ]
        },
        {
            "positions": [
                -0.021223194566377224,
                -2.134417689856118,
                -1.8478869853527797,
                -2.1845231784280097,
                -1.529469329228033,
                -2.9544893394499994
            ]
        },
        {
            "positions": [
                -0.034195422126108176,
                -2.1269542194784328,
                -1.8291062501719946,
                -2.341174987721836,
                -1.603755257663298,
                -3.0804641015592606
            ]
        }
    ]
}