{
    "goal": {
        "global_pose": {
            "orientation": {
                "w": -0.4816463035849501,
                "x": 0.5182115481033762,
                "y": 0.4908360881923453,
                "z": -0.5084816262002911
            },
            "position": {
                "x": -0.8240239810943604,
                "y": -0.300875300988555,
                "z": 0.16403168439865112
            }
        },
        "name": "move_to_storage_C"
    },
    "id": "ProjEST_move_to_storage_C_37",
    "joint_names": [
        "shoulder_pan_joint",
        "shoulder_lift_joint",
        "elbow_joint",
        "wrist_1_joint",
        "wrist_2_joint",
        "wrist_3_joint"
    ],
    "metrics": {
        "cart_traj_len": 0.5767320788996565,
        "distance_elbow_joint": 0.2552756812803594,
        "distance_shoulder_lift_joint": 0.1899418800036129,
        "distance_shoulder_pan_joint": 0.4950131180684636,
        "distance_wrist_1_joint": 0.06463905495968525,
        "distance_wrist_2_joint": 1.064263305212473,
        "distance_wrist_3_joint": 0.058671617545299704,
        "smoothness": 0.0,
        "time": 0.13678932,
        "traj_len": 1.4586996459415125,
        "weighted_distance": 1.8368588003253412
    },
    "planner": "ProjEST",
    "start": {
        "state": {
            "elbow_joint": 2.010868314990456,
            "shoulder_lift_joint": -1.1634956873337592,
            "shoulder_pan_joint": -2.4736205022346125,
            "wrist_1_joint": -0.8367026794202681,
            "wrist_2_joint": 0.6746043897044499,
            "wrist_3_joint": -3.1496632123970403
        }
    },
    "waypoints": [
        {
            "positions": [
                -2.4736205022346125,
                -1.1634956873337592,
                2.010868314990456,
                -0.8367026794202681,
                0.6746043897044499,
                -3.1496632123970403
            ]
        },
        {
            "positions": [
                -2.5561226885793564,
                -1.131838707333157,
                1.9683223681103958,
                -0.8259295035936539,
                0.851981607239862,
                -3.1398846094728237
            ]
        },
        {
            "positions": [
                -2.6386248749241004,
                -1.100181727332555,
                1.925776421230336,
                -0.8151563277670397,
                1.0293588247752743,
                -3.130106006548607
            ]
        },
        {
            "positions": [
                -2.7211270612688443,
                -1.0685247473319528,
                1.8832304743502761,
                -0.8043831519404254,
                1.2067360423106863,
                -3.1203274036243904
            ]
        },
        {
            "positions": [
                -2.8036292476135882,
                -1.0368677673313507,
                1.8406845274702162,
                -0.7936099761138112,
                1.3841132598460986,
                -3.110548800700174
            ]
        },
        {
            "positions": [
                -2.886131433958332,
                -1.0052107873307485,
                1.7981385805901564,
                -0.782836800287197,
                1.5614904773815108,
                -3.100770197775957
            ]
        },
        {
            "positions": [
                -2.968633620303076,
                -0.9735538073301463,
                1.7555926337100964,
                -0.7720636244605829,
                1.738867694916923,
                -3.0909915948517406
            ]
        }
    ]
}