{
    "goal": {
        "global_pose": {
            "orientation": {
                "w": 0.7047431468963623,
                "x": -0.7094548344612122,
                "y": 0.0024358443915843964,
                "z": -0.0022348060738295317
            },
            "position": {
                "x": 0.6094750761985779,
                "y": 0.3671506643295288,
                "z": 0.19426114857196808
            }
        },
        "name": "move_to_magneteinheit_A"
    },
    "id": "ProjEST_move_to_magneteinheit_A_118",
    "joint_names": [
        "shoulder_pan_joint",
        "shoulder_lift_joint",
        "elbow_joint",
        "wrist_1_joint",
        "wrist_2_joint",
        "wrist_3_joint"
    ],
    "metrics": {
        "cart_traj_len": 4.0809833985447375,
        "distance_elbow_joint": 3.891083625183962,
        "distance_shoulder_lift_joint": 0.5069019083701447,
        "distance_shoulder_pan_joint": 5.044203527257153,
        "distance_wrist_1_joint": 1.0120585930670174,
        "distance_wrist_2_joint": 1.7008739064334528,
        "distance_wrist_3_joint": 2.980059778403356,
        "smoothness": 0.21718011126247103,
        "time": 0.093606286,
        "traj_len": 3.89039603880056,
        "weighted_distance": 4.879368134812361
    },
    "planner": "ProjEST",
    "start": {
        "state": {
            "elbow_joint": -1.9196185241190666,
            "shoulder_lift_joint": -1.2443396400964142,
            "shoulder_pan_joint": 2.6996025414629847,
            "wrist_1_joint": -1.5485510000780065,
            "wrist_2_joint": -1.5709468930060704,
            "wrist_3_joint": 0.4420197071253992
        }
    },
    "waypoints": [
        {
            "positions": [
                2.6996025414629847,
                -1.2443396400964142,
                -1.9196185241190666,
                -1.5485510000780065,
                -1.5709468930060704,
                0.4420197071253992
            ]
        },
        {
            "positions": [
                2.533932088707772,
                -1.2530863870759514,
                -1.8003117749826427,
                -1.5097285741223363,
                -1.5210159164907917,
                0.43474904599166814
            ]
        },
        {
            "positions": [
                2.3682616359525586,
                -1.2618331340554887,
                -1.6810050258462188,
                -1.4709061481666659,
                -1.471084939975513,
                0.42747838485793704
            ]
        },
        {
            "positions": [
                2.2025911831973457,
                -1.2705798810350257,
                -1.5616982767097949,
                -1.4320837222109957,
                -1.4211539634602344,
                0.420207723724206
            ]
        },
        {
            "positions": [
                2.036920730442133,
                -1.279326628014563,
                -1.4423915275733712,
                -1.3932612962553255,
                -1.3712229869449557,
                0.4129370625904749
            ]
        },
        {
            "positions": [
                1.8712502776869198,
                -1.2880733749941002,
                -1.3230847784369473,
                -1.3544388702996553,
                -1.321292010429677,
                0.4056664014567439
            ]
        },
        {
            "positions": [
                1.7055798249317067,
                -1.2968201219736375,
                -1.2037780293005234,
                -1.315616444343985,
                -1.2713610339143984,
                0.3983957403230128
            ]
        },
        {
            "positions": [
                1.5399093721764936,
                -1.3055668689531745,
                -1.0844712801640994,
                -1.2767940183883146,
                -1.2214300573991197,
                0.39112507918928174
            ]
        },
        {
            "positions": [
                1.3742389194212807,
                -1.3143136159327118,
                -0.9651645310276756,
                -1.2379715924326444,
                -1.1714990808838412,
                0.38385441805555065
            ]
        },
        {
            "positions": [
                1.2085684666660677,
                -1.323060362912249,
                -0.8458577818912516,
                -1.1991491664769742,
                -1.1215681043685624,
                0.3765837569218196
            ]
        },
        {
            "positions": [
                1.0428980139108548,
                -1.3318071098917863,
                -0.7265510327548279,
                -1.1603267405213038,
                -1.071637127853284,
                0.3693130957880885
            ]
        },
        {
            "positions": [
                0.8772275611556417,
                -1.3405538568713236,
                -0.607244283618404,
                -1.1215043145656336,
                -1.0217061513380052,
                0.3620424346543575
            ]
        },
        {
            "positions": [
                0.7115571084004289,
                -1.3493006038508606,
                -0.4879375344819801,
                -1.0826818886099634,
                -0.9717751748227265,
                0.3547717735206264
            ]
        },
        {
            "positions": [
                0.5458866556452158,
                -1.3580473508303978,
                -0.3686307853455564,
                -1.0438594626542932,
                -0.9218441983074479,
                0.34750111238689535
            ]
        },
        {
            "positions": [
                0.38021620289000246,
                -1.366794097809935,
                -0.24932403620913224,
                -1.0050370366986228,
                -0.8719132217921691,
                0.34023045125316426
            ]
        },
        {
            "positions": [
                0.2145457501347896,
                -1.3755408447894724,
                -0.13001728707270832,
                -0.9662146107429526,
                -0.8219822452768905,
                0.3329597901194332
            ]
        },
        {
            "positions": [
                0.04887529737957674,
                -1.3842875917690094,
                -0.010710537936284625,
                -0.9273921847872824,
                -0.7720512687616119,
                0.3256891289857021
            ]
        },
        {
            "positions": [
                -0.11679515537563612,
                -1.3930343387485467,
                0.10859621120013907,
                -0.8885697588316122,
                -0.7221202922463332,
                0.3184184678519711
            ]
        },
        {
            "positions": [
                -0.2824656081308494,
                -1.401781085728084,
                0.22790296033656343,
                -0.8497473328759417,
                -0.6721893157310544,
                0.31114780671824005
            ]
        },
        {
            "positions": [
                -0.4481360608860623,
                -1.4105278327076212,
                0.3472097094729869,
                -0.8109249069202715,
                -0.6222583392157759,
                0.30387714558450896
            ]
        },
        {
            "positions": [
                -0.6138065136412751,
                -1.4192745796871584,
                0.4665164586094108,
                -0.7721024809646013,
                -0.5723273627004972,
                0.29660648445077786
            ]
        },
        {
            "positions": [
                -0.779476966396488,
                -1.4280213266666955,
                0.5858232077458347,
                -0.733280055008931,
                -0.5223963861852186,
                0.2893358233170468
            ]
        },
        {
            "positions": [
                -0.9451474191517013,
                -1.4367680736462327,
                0.7051299568822587,
                -0.6944576290532607,
                -0.4724654096699399,
                0.2820651621833158
            ]
        },
        {
            "positions": [
                -1.1108178719069142,
                -1.44551482062577,
                0.8244367060186824,
                -0.6556352030975905,
                -0.4225344331546612,
                0.2747945010495847
            ]
        },
        {
            "positions": [
                -1.033706427288961,
                -1.4264069001357207,
                0.8961259807090707,
                -0.6630816278530031,
                -0.38800559274328345,
                0.45059666182005603
            ]
        },
        {
            "positions": [
                -0.9565949826710077,
                -1.4072989796456714,
                0.9678152553994589,
                -0.6705280526084156,
                -0.3534767523319056,
                0.6263988225905274
            ]
        },
        {
            "positions": [
                -0.8794835380530546,
                -1.3881910591556221,
                1.0395045300898471,
                -0.6779744773638282,
                -0.31894791192052785,
                0.8022009833609987
            ]
        },
        {
            "positions": [
                -0.8023720934351013,
                -1.3690831386655726,
                1.1111938047802354,
                -0.6854209021192408,
                -0.28441907150915,
                0.97800314413147
            ]
        },
        {
            "positions": [
                -0.725260648817148,
                -1.3499752181755234,
                1.1828830794706238,
                -0.6928673268746534,
                -0.24989023109777225,
                1.1538053049019414
            ]
        },
        {
            "positions": [
                -0.6481492041991949,
                -1.330867297685474,
                1.254572354161012,
                -0.7003137516300659,
                -0.21536139068639448,
                1.3296074656724126
            ]
        },
        {
            "positions": [
                -0.5710377595812417,
                -1.3117593771954248,
                1.3262616288514004,
                -0.7077601763854785,
                -0.18083255027501668,
                1.505409626442884
            ]
        },
        {
            "positions": [
                -0.4939263149632884,
                -1.2926514567053755,
                1.3979509035417887,
                -0.7152066011408911,
                -0.1463037098636389,
                1.6812117872133554
            ]
        },
        {
            "positions": [
                -0.41681487034533515,
                -1.2735435362153262,
                1.469640178232177,
                -0.7226530258963038,
                -0.11177486945226112,
                1.8570139479838268
            ]
        },
        {
            "positions": [
                -0.339703425727382,
                -1.254435615725277,
                1.5413294529225652,
                -0.7300994506517163,
                -0.07724602904088329,
                2.0328161087542984
            ]
        },
        {
            "positions": [
                -0.26259198110942883,
                -1.2353276952352277,
                1.6130187276129535,
                -0.7375458754071289,
                -0.04271718862950552,
                2.208618269524769
            ]
        },
        {
            "positions": [
                -0.18548053649147556,
                -1.2162197747451784,
                1.6847080023033418,
                -0.7449923001625415,
                -0.00818834821812775,
                2.3844204302952408
            ]
        },
        {
            "positions": [
                -0.10836909187352228,
                -1.197111854255129,
                1.75639727699373,
                -0.752438724917954,
                0.026340492193250076,
                2.5602225910657124
            ]
        },
        {
            "positions": [
                -0.03125764725556923,
                -1.1780039337650796,
                1.8280865516841183,
                -0.7598851496733666,
                0.060869332604627846,
                2.736024751836183
            ]
        },
        {
            "positions": [
                0.04585379736238404,
                -1.1588960132750303,
                1.8997758263745066,
                -0.7673315744287792,
                0.09539817301600562,
                2.9118269126066547
            ]
        },
        {
            "positions": [
                0.12296524198033734,
                -1.139788092784981,
                1.971465101064895,
                -0.7747779991841918,
                0.12992701342738344,
                3.0876290733771263
            ]
        }
    ]
}