{
    "goal": {
        "global_pose": {
            "orientation": {
                "w": 0.7047431468963623,
                "x": -0.7094548344612122,
                "y": 0.0024358443915843964,
                "z": -0.0022348060738295317
            },
            "position": {
                "x": 0.6094750761985779,
                "y": 0.3671506643295288,
                "z": 0.19426114857196808
            }
        },
        "name": "move_to_magneteinheit_A"
    },
    "id": "ProjEST_move_to_magneteinheit_A_114",
    "joint_names": [
        "shoulder_pan_joint",
        "shoulder_lift_joint",
        "elbow_joint",
        "wrist_1_joint",
        "wrist_2_joint",
        "wrist_3_joint"
    ],
    "metrics": {
        "cart_traj_len": 4.6505887980854395,
        "distance_elbow_joint": 3.9382336630936923,
        "distance_shoulder_lift_joint": 1.8575130704772977,
        "distance_shoulder_pan_joint": 6.783821978258394,
        "distance_wrist_1_joint": 3.5724385696948584,
        "distance_wrist_2_joint": 3.1543689831447654,
        "distance_wrist_3_joint": 0.5598446046568564,
        "smoothness": 0.2703582304952099,
        "time": 0.090303259,
        "traj_len": 4.457153897873154,
        "weighted_distance": 5.2642870012452025
    },
    "planner": "ProjEST",
    "start": {
        "state": {
            "elbow_joint": -1.9196185241190666,
            "shoulder_lift_joint": -1.2443396400964142,
            "shoulder_pan_joint": 2.6996025414629847,
            "wrist_1_joint": -1.5485510000780065,
            "wrist_2_joint": -1.5709468930060704,
            "wrist_3_joint": 0.4420197071253992
        }
    },
    "waypoints": [
        {
            "positions": [
                2.6996025414629847,
                -1.2443396400964142,
                -1.9196185241190666,
                -1.5485510000780065,
                -1.5709468930060704,
                0.4420197071253992
            ]
        },
        {
            "positions": [
                2.5382082573401137,
                -1.268495976660304,
                -1.8406949444785206,
                -1.5106206646658753,
                -1.4915867779594447,
                0.42855918107128216
            ]
        },
        {
            "positions": [
                2.376813973217242,
                -1.2926523132241938,
                -1.7617713648379743,
                -1.472690329253744,
                -1.412226662912819,
                0.41509865501716514
            ]
        },
        {
            "positions": [
                2.215419689094371,
                -1.3168086497880835,
                -1.6828477851974282,
                -1.434759993841613,
                -1.3328665478661934,
                0.4016381289630481
            ]
        },
        {
            "positions": [
                2.0540254049715,
                -1.3409649863519735,
                -1.6039242055568819,
                -1.3968296584294815,
                -1.253506432819568,
                0.3881776029089311
            ]
        },
        {
            "positions": [
                1.8926311208486286,
                -1.3651213229158632,
                -1.5250006259163358,
                -1.3588993230173503,
                -1.1741463177729423,
                0.37471707685481404
            ]
        },
        {
            "positions": [
                1.7312368367257576,
                -1.3892776594797531,
                -1.4460770462757897,
                -1.320968987605219,
                -1.0947862027263167,
                0.3612565508006971
            ]
        },
        {
            "positions": [
                1.5698425526028863,
                -1.4134339960436428,
                -1.3671534666352434,
                -1.2830386521930879,
                -1.015426087679691,
                0.34779602474658
            ]
        },
        {
            "positions": [
                1.4084482684800153,
                -1.4375903326075328,
                -1.2882298869946973,
                -1.2451083167809567,
                -0.9360659726330655,
                0.334335498692463
            ]
        },
        {
            "positions": [
                1.247053984357144,
                -1.4617466691714225,
                -1.2093063073541512,
                -1.2071779813688255,
                -0.8567058575864398,
                0.32087497263834597
            ]
        },
        {
            "positions": [
                1.0856597002342727,
                -1.4859030057353124,
                -1.130382727713605,
                -1.1692476459566943,
                -0.7773457425398141,
                0.30741444658422895
            ]
        },
        {
            "positions": [
                0.9242654161114019,
                -1.5100593422992021,
                -1.0514591480730588,
                -1.131317310544563,
                -0.6979856274931886,
                0.29395392053011193
            ]
        },
        {
            "positions": [
                0.7628711319885306,
                -1.534215678863092,
                -0.9725355684325127,
                -1.0933869751324317,
                -0.6186255124465629,
                0.2804933944759949
            ]
        },
        {
            "positions": [
                0.6014768478656594,
                -1.5583720154269818,
                -0.8936119887919665,
                -1.0554566397203005,
                -0.5392653973999373,
                0.2670328684218779
            ]
        },
        {
            "positions": [
                0.44008256374278787,
                -1.5825283519908717,
                -0.8146884091514202,
                -1.0175263043081693,
                -0.45990528235331163,
                0.25357234236776083
            ]
        },
        {
            "positions": [
                0.2786882796199168,
                -1.6066846885547614,
                -0.7357648295108741,
                -0.9795959688960381,
                -0.38054516730668597,
                0.2401118163136438
            ]
        },
        {
            "positions": [
                0.11729399549704578,
                -1.6308410251186514,
                -0.656841249870328,
                -0.9416656334839069,
                -0.30118505226006054,
                0.22665129025952682
            ]
        },
        {
            "positions": [
                -0.04410028862582527,
                -1.654997361682541,
                -0.5779176702297819,
                -0.9037352980717757,
                -0.22182493721343488,
                0.2131907642054098
            ]
        },
        {
            "positions": [
                -0.20549457274869676,
                -1.679153698246431,
                -0.4989940905892356,
                -0.8658049626596444,
                -0.14246482216680922,
                0.19973023815129276
            ]
        },
        {
            "positions": [
                -0.3668888568715678,
                -1.7033100348103207,
                -0.4200705109486895,
                -0.8278746272475132,
                -0.06310470712018379,
                0.18626971209717574
            ]
        },
        {
            "positions": [
                -0.5282831409944393,
                -1.7274663713742107,
                -0.3411469313081432,
                -0.7899442918353818,
                0.01625540792644209,
                0.17280918604305873
            ]
        },
        {
            "positions": [
                -0.6896774251173103,
                -1.7516227079381004,
                -0.26222335166759714,
                -0.7520139564232506,
                0.09561552297306752,
                0.1593486599889417
            ]
        },
        {
            "positions": [
                -0.8510717092401809,
                -1.77577904450199,
                -0.18329977202705106,
                -0.7140836210111194,
                0.17497563801969318,
                0.1458881339348247
            ]
        },
        {
            "positions": [
                -1.0124659933630524,
                -1.79993538106588,
                -0.10437619238650475,
                -0.6761532855989881,
                0.25433575306631884,
                0.13242760788070762
            ]
        },
        {
            "positions": [
                -1.1738602774859235,
                -1.82409171762977,
                -0.02545261274595867,
                -0.6382229501868569,
                0.3336958681129445,
                0.11896708182659066
            ]
        },
        {
            "positions": [
                -1.3352545616087945,
                -1.8482480541936597,
                0.05347096689458741,
                -0.6002926147747258,
                0.41305598315956993,
                0.10550655577247364
            ]
        },
        {
            "positions": [
                -1.496648845731666,
                -1.8724043907575494,
                0.13239454653513372,
                -0.5623622793625945,
                0.4924160982061958,
                0.09204602971835657
            ]
        },
        {
            "positions": [
                -1.6580431298545375,
                -1.8965607273214393,
                0.21131812617567958,
                -0.5244319439504632,
                0.5717762132528212,
                0.07858550366423955
            ]
        },
        {
            "positions": [
                -1.819437413977409,
                -1.9207170638853293,
                0.2902417058162263,
                -0.486501608538332,
                0.6511363282994471,
                0.06512497761012254
            ]
        },
        {
            "positions": [
                -1.9808316981002798,
                -1.944873400449219,
                0.3691652854567723,
                -0.4485712731262008,
                0.7304964433460726,
                0.05166445155600552
            ]
        },
        {
            "positions": [
                -1.8852231645232285,
                -1.8922834318071966,
                0.444140278798493,
                -0.3361867802742439,
                0.6917270957645898,
                0.04396039023384814
            ]
        },
        {
            "positions": [
                -1.7896146309461773,
                -1.8396934631651742,
                0.5191152721402137,
                -0.223802287422287,
                0.652957748183107,
                0.03625632891169076
            ]
        },
        {
            "positions": [
                -1.694006097369126,
                -1.7871034945231519,
                0.5940902654819343,
                -0.11141779457033013,
                0.6141884006016243,
                0.028552267589533383
            ]
        },
        {
            "positions": [
                -1.5983975637920749,
                -1.7345135258811293,
                0.6690652588236551,
                0.000966698281626821,
                0.5754190530201414,
                0.020848206267376
            ]
        },
        {
            "positions": [
                -1.5027890302150235,
                -1.681923557239107,
                0.7440402521653757,
                0.11335119113358372,
                0.5366497054386586,
                0.013144144945218622
            ]
        },
        {
            "positions": [
                -1.4071804966379724,
                -1.6293335885970845,
                0.8190152455070965,
                0.22573568398554056,
                0.4978803578571759,
                0.005440083623061247
            ]
        },
        {
            "positions": [
                -1.311571963060921,
                -1.5767436199550622,
                0.8939902388488171,
                0.3381201768374975,
                0.4591110102756931,
                -0.0022639776990961355
            ]
        },
        {
            "positions": [
                -1.2159634294838697,
                -1.5241536513130396,
                0.9689652321905379,
                0.45050466968945446,
                0.4203416626942103,
                -0.009968039021253518
            ]
        },
        {
            "positions": [
                -1.1203548959068186,
                -1.4715636826710172,
                1.0439402255322585,
                0.5628891625414114,
                0.3815723151127275,
                -0.017672100343410907
            ]
        },
        {
            "positions": [
                -1.0247463623297675,
                -1.4189737140289949,
                1.1189152188739793,
                0.6752736553933683,
                0.3428029675312448,
                -0.025376161665568275
            ]
        },
        {
            "positions": [
                -0.9291378287527161,
                -1.3663837453869725,
                1.1938902122156998,
                0.7876581482453251,
                0.30403361994976197,
                -0.03308022298772566
            ]
        },
        {
            "positions": [
                -0.833529295175665,
                -1.3137937767449501,
                1.2688652055574206,
                0.9000426410972819,
                0.2652642723682792,
                -0.040784284309883026
            ]
        },
        {
            "positions": [
                -0.7379207615986136,
                -1.2612038081029278,
                1.3438401988991413,
                1.012427133949239,
                0.22649492478679634,
                -0.04848834563204042
            ]
        },
        {
            "positions": [
                -0.6423122280215623,
                -1.2086138394609054,
                1.4188151922408618,
                1.1248116268011958,
                0.1877255772053137,
                -0.05619240695419779
            ]
        },
        {
            "positions": [
                -0.5467036944445112,
                -1.156023870818883,
                1.4937901855825828,
                1.2371961196531527,
                0.14895622962383093,
                -0.06389646827635517
            ]
        },
        {
            "positions": [
                -0.4510951608674598,
                -1.1034339021768604,
                1.5687651789243033,
                1.3495806125051097,
                0.11018688204234806,
                -0.07160052959851256
            ]
        },
        {
            "positions": [
                -0.3554866272904087,
                -1.050843933534838,
                1.6437401722660239,
                1.4619651053570664,
                0.0714175344608653,
                -0.07930459092066994
            ]
        },
        {
            "positions": [
                -0.25987809371335735,
                -0.9982539648928156,
                1.7187151656077448,
                1.5743495982090236,
                0.032648186879382424,
                -0.08700865224282733
            ]
        },
        {
            "positions": [
                -0.16426956013630623,
                -0.9456639962507932,
                1.7936901589494654,
                1.6867340910609803,
                -0.006121160702100337,
                -0.0947127135649847
            ]
        },
        {
            "positions": [
                -0.06866102655925488,
                -0.893074027608771,
                1.868665152291186,
                1.7991185839129373,
                -0.044890508283582986,
                -0.10241677488714207
            ]
        },
        {
            "positions": [
                0.026947507017796246,
                -0.8404840589667484,
                1.9436401456329069,
                1.9115030767648944,
                -0.08365985586506586,
                -0.11012083620929947
            ]
        },
        {
            "positions": [
                0.12255604059484775,
                -0.7878940903247261,
                2.0186151389746274,
                2.023887569616851,
                -0.12242920344654862,
                -0.11782489753145683
            ]
        }
    ]
}