{
    "goal": {
        "global_pose": {
            "orientation": {
                "w": -0.00223480608172531,
                "x": 0.0024358444001904467,
                "y": 0.7094548369677653,
                "z": -0.704743149386269
            },
            "position": {
                "x": -0.37947507619857795,
                "y": -0.6371506643295288,
                "z": 0.19426114857196808
            }
        },
        "name": "move_to_magneteinheit_C"
    },
    "id": "ProjEST_move_to_magneteinheit_C_104",
    "joint_names": [
        "shoulder_pan_joint",
        "shoulder_lift_joint",
        "elbow_joint",
        "wrist_1_joint",
        "wrist_2_joint",
        "wrist_3_joint"
    ],
    "metrics": {
        "cart_traj_len": 0.6174272584375838,
        "distance_elbow_joint": 0.06626683929895938,
        "distance_shoulder_lift_joint": 0.3106491064061019,
        "distance_shoulder_pan_joint": 0.8730533482175209,
        "distance_wrist_1_joint": 0.43185365717974034,
        "distance_wrist_2_joint": 1.0803218139948987,
        "distance_wrist_3_joint": 0.2376342408440104,
        "smoothness": 2.1272803029668688,
        "time": 0.335961402,
        "traj_len": 1.7319870109043058,
        "weighted_distance": 2.233209116675796
    },
    "planner": "ProjEST",
    "start": {
        "state": {
            "elbow_joint": 1.9565354010623817,
            "shoulder_lift_joint": -1.4165861575791021,
            "shoulder_pan_joint": -1.6717766225146293,
            "wrist_1_joint": -0.5286633292919765,
            "wrist_2_joint": 1.472756589071564,
            "wrist_3_joint": -3.1238370188695823
        }
    },
    "waypoints": [
        {
            "positions": [
                -1.6717766225146293,
                -1.4165861575791021,
                1.9565354010623817,
                -0.5286633292919765,
                1.472756589071564,
                -3.1238370188695823
            ]
        },
        {
            "positions": [
                -1.636747715233681,
                -1.44557840843924,
                1.9492351362313767,
                -0.4620921264706775,
                1.42788999336339,
                -3.0226332808867413
            ]
        },
        {
            "positions": [
                -1.7447900791797293,
                -1.4076130302951968,
                1.9548045956160556,
                -0.508312843902972,
                1.2482178500636023,
                -3.0331299626025623
            ]
        },
        {
            "positions": [
                -1.8528324431257777,
                -1.3696476521511536,
                1.9603740550007345,
                -0.5545335613352667,
                1.0685457067638149,
                -3.0436266443183833
            ]
        },
        {
            "positions": [
                -1.9608748070718263,
                -1.3316822740071104,
                1.9659435143854136,
                -0.6007542787675613,
                0.8888735634640273,
                -3.0541233260342038
            ]
        },
        {
            "positions": [
                -2.0689171710178744,
                -1.2937168958630672,
                1.9715129737700925,
                -0.6469749961998559,
                0.7092014201642397,
                -3.0646200077500247
            ]
        },
        {
            "positions": [
                -2.176959534963923,
                -1.255751517719024,
                1.9770824331547714,
                -0.6931957136321505,
                0.5295292768644522,
                -3.0751166894658457
            ]
        },
        {
            "positions": [
                -2.325865845567088,
                -1.20983653530615,
                1.9926420719270512,
                -0.7602851472306347,
                0.5980765277583455,
                -3.1170902366068782
            ]
        },
        {
            "positions": [
                -2.4747721561702534,
                -1.163921552893276,
                2.008201710699331,
                -0.8273745808291189,
                0.666623778652239,
                -3.1590637837479107
            ]
        }
    ]
}