{
    "goal": {
        "global_pose": {
            "orientation": {
                "w": 0.005598929693374612,
                "x": 0.007748599140229565,
                "y": 0.7110244013736278,
                "z": -0.7031023480610252
            },
            "position": {
                "x": -0.8858502320852131,
                "y": -0.7141253447532654,
                "z": 0.3711530566215515
            }
        },
        "name": "move_to_auspresseinheit_C"
    },
    "id": "ProjEST_move_to_auspresseinheit_C_13",
    "joint_names": [
        "shoulder_pan_joint",
        "shoulder_lift_joint",
        "elbow_joint",
        "wrist_1_joint",
        "wrist_2_joint",
        "wrist_3_joint"
    ],
    "metrics": {
        "cart_traj_len": 0.49328729264528687,
        "distance_elbow_joint": 0.9922418814570403,
        "distance_shoulder_lift_joint": 0.3203797675331317,
        "distance_shoulder_pan_joint": 0.2571402798126976,
        "distance_wrist_1_joint": 0.6663853069124936,
        "distance_wrist_2_joint": 1.3033758194569751,
        "distance_wrist_3_joint": 0.04271948904129541,
        "smoothness": 0.0,
        "time": 1.081472097,
        "traj_len": 1.8926813107899685,
        "weighted_distance": 2.3743299367749406
    },
    "planner": "ProjEST",
    "start": {
        "state": {
            "elbow_joint": 1.7527959577737207,
            "shoulder_lift_joint": -0.9740617694225068,
            "shoulder_pan_joint": -2.967991417825858,
            "wrist_1_joint": -0.759517768980727,
            "wrist_2_joint": 1.7443932448377408,
            "wrist_3_joint": -3.0840537646736568
        }
    },
    "waypoints": [
        {
            "positions": [
                -2.967991417825858,
                -0.9740617694225068,
                1.7527959577737207,
                -0.759517768980727,
                1.7443932448377408,
                -3.0840537646736568
            ]
        },
        {
            "positions": [
                -2.9422773898445884,
                -0.9420237926691936,
                1.6535717696280166,
                -0.6928792382894776,
                1.6140556628920433,
                -3.0883257135777864
            ]
        },
        {
            "positions": [
                -2.9165633618633184,
                -0.9099858159158805,
                1.5543475814823127,
                -0.6262407075982283,
                1.4837180809463457,
                -3.092597662481916
            ]
        },
        {
            "positions": [
                -2.8908493338820485,
                -0.8779478391625672,
                1.4551233933366086,
                -0.5596021769069789,
                1.3533804990006484,
                -3.096869611386045
            ]
        },
        {
            "positions": [
                -2.865135305900779,
                -0.845909862409254,
                1.3558992051909045,
                -0.4929636462157295,
                1.2230429170549506,
                -3.101141560290175
            ]
        },
        {
            "positions": [
                -2.8394212779195094,
                -0.8138718856559409,
                1.2566750170452006,
                -0.42632511552448016,
                1.0927053351092533,
                -3.1054135091943045
            ]
        },
        {
            "positions": [
                -2.8137072499382394,
                -0.7818339089026278,
                1.1574508288994965,
                -0.3596865848332308,
                0.9623677531635558,
                -3.109685458098434
            ]
        },
        {
            "positions": [
                -2.7879932219569694,
                -0.7497959321493146,
                1.0582266407537926,
                -0.2930480541419815,
                0.8320301712178583,
                -3.1139574070025637
            ]
        },
        {
            "positions": [
                -2.7622791939757,
                -0.7177579553960014,
                0.9590024526080884,
                -0.22640952345073206,
                0.7016925892721606,
                -3.118229355906693
            ]
        },
        {
            "positions": [
                -2.7365651659944303,
                -0.6857199786426882,
                0.8597782644623844,
                -0.1597709927594827,
                0.5713550073264633,
                -3.1225013048108226
            ]
        },
        {
            "positions": [
                -2.7108511380131604,
                -0.6536820018893751,
                0.7605540763166804,
                -0.09313246206823332,
                0.4410174253807658,
                -3.126773253714952
            ]
        }
    ]
}