{
    "goal": {
        "global_pose": {
            "orientation": {
                "w": 0.7047431493862688,
                "x": -0.7094548369677653,
                "y": 0.0024358444001904,
                "z": -0.0022348060817251984
            },
            "position": {
                "x": -0.39052492380142206,
                "y": 0.3671506643295288,
                "z": 0.19426114857196808
            }
        },
        "name": "move_to_magneteinheit_D"
    },
    "id": "ProjEST_move_to_magneteinheit_D_140",
    "joint_names": [
        "shoulder_pan_joint",
        "shoulder_lift_joint",
        "elbow_joint",
        "wrist_1_joint",
        "wrist_2_joint",
        "wrist_3_joint"
    ],
    "metrics": {
        "cart_traj_len": 6.857651128390918,
        "distance_elbow_joint": 5.458009898959705,
        "distance_shoulder_lift_joint": 1.8795565786327162,
        "distance_shoulder_pan_joint": 5.899681784227942,
        "distance_wrist_1_joint": 3.908449965470792,
        "distance_wrist_2_joint": 1.8259537562408106,
        "distance_wrist_3_joint": 2.019812304216853,
        "smoothness": 0.9854022651754284,
        "time": 0.6305152350000001,
        "traj_len": 4.581644277740122,
        "weighted_distance": 5.546664999609596
    },
    "planner": "ProjEST",
    "start": {
        "state": {
            "elbow_joint": 0.749534889911806,
            "shoulder_lift_joint": -0.6476975780787326,
            "shoulder_pan_joint": -2.711696901376241,
            "wrist_1_joint": -0.07506478083263063,
            "wrist_2_joint": 0.43296659715538205,
            "wrist_3_joint": -3.14703540197715
        }
    },
    "waypoints": [
        {
            "positions": [
                -2.711696901376241,
                -0.6476975780787326,
                0.749534889911806,
                -0.07506478083263063,
                0.43296659715538205,
                -3.14703540197715
            ]
        },
        {
            "positions": [
                -2.7302660713611173,
                -0.7105218674932927,
                0.8336919883791172,
                0.05321121050710545,
                0.43385724340788234,
                -3.054787390565566
            ]
        },
        {
            "positions": [
                -2.721790224974679,
                -0.7638238878088601,
                0.8511428093052209,
                0.1343730086240202,
                0.428555857257644,
                -2.9503812455534844
            ]
        },
        {
            "positions": [
                -2.71331437858824,
                -0.8171259081244274,
                0.8685936302313245,
                0.21553480674093498,
                0.4232544711074056,
                -2.845975100541403
            ]
        },
        {
            "positions": [
                -2.7048385322018014,
                -0.8704279284399948,
                0.8860444511574282,
                0.29669660485784977,
                0.41795308495716726,
                -2.7415689555293214
            ]
        },
        {
            "positions": [
                -2.6798527694695764,
                -0.9389444223505479,
                0.87714866395291,
                0.385229397994195,
                0.4076773590425534,
                -2.5920600181185662
            ]
        },
        {
            "positions": [
                -2.654867006737352,
                -1.007460916261101,
                0.8682528767483918,
                0.4737621911305402,
                0.3974016331279396,
                -2.4425510807078106
            ]
        },
        {
            "positions": [
                -2.5460207579279337,
                -1.0348481335045214,
                0.7481899258128095,
                0.3841910528728985,
                0.3766591254878841,
                -2.4628095834821373
            ]
        },
        {
            "positions": [
                -2.437174509118516,
                -1.0622353507479416,
                0.6281269748772271,
                0.29461991461525683,
                0.35591661784782863,
                -2.483068086256464
            ]
        },
        {
            "positions": [
                -2.328328260309098,
                -1.089622567991362,
                0.5080640239416447,
                0.2050487763576151,
                0.3351741102077731,
                -2.5033265890307903
            ]
        },
        {
            "positions": [
                -2.21948201149968,
                -1.1170097852347824,
                0.38800107300606246,
                0.11547763809997341,
                0.3144316025677176,
                -2.523585091805117
            ]
        },
        {
            "positions": [
                -2.110635762690262,
                -1.1443970024782026,
                0.26793812207048007,
                0.025906499842331676,
                0.29368909492766215,
                -2.5438435945794438
            ]
        },
        {
            "positions": [
                -2.001789513880844,
                -1.171784219721623,
                0.1478751711348978,
                -0.06366463841531,
                0.2729465872876067,
                -2.5641020973537705
            ]
        },
        {
            "positions": [
                -1.892943265071426,
                -1.1991714369650432,
                0.027812220199315396,
                -0.15323577667295174,
                0.2522040796475512,
                -2.584360600128097
            ]
        },
        {
            "positions": [
                -1.784097016262008,
                -1.2265586542084637,
                -0.09225073073626688,
                -0.24280691493059336,
                0.23146157200749573,
                -2.6046191029024235
            ]
        },
        {
            "positions": [
                -1.67525076745259,
                -1.253945871451884,
                -0.21231368167184927,
                -0.3323780531882351,
                0.21071906436744023,
                -2.62487760567675
            ]
        },
        {
            "positions": [
                -1.5664045186431719,
                -1.2813330886953043,
                -0.33237663260743167,
                -0.42194919144587684,
                0.18997655672738473,
                -2.645136108451077
            ]
        },
        {
            "positions": [
                -1.457558269833754,
                -1.3087203059387247,
                -0.45243958354301383,
                -0.5115203297035185,
                0.16923404908732928,
                -2.6653946112254037
            ]
        },
        {
            "positions": [
                -1.348712021024336,
                -1.3361075231821449,
                -0.5725025344785962,
                -0.6010914679611602,
                0.14849154144727378,
                -2.68565311399973
            ]
        },
        {
            "positions": [
                -1.239865772214918,
                -1.3634947404255653,
                -0.6925654854141784,
                -0.6906626062188018,
                0.1277490338072183,
                -2.7059116167740567
            ]
        },
        {
            "positions": [
                -1.1310195234054998,
                -1.3908819576689857,
                -0.812628436349761,
                -0.7802337444764437,
                0.10700652616716277,
                -2.7261701195483834
            ]
        },
        {
            "positions": [
                -1.0221732745960819,
                -1.418269174912406,
                -0.9326913872853432,
                -0.8698048827340853,
                0.08626401852710736,
                -2.74642862232271
            ]
        },
        {
            "positions": [
                -0.9133270257866641,
                -1.4456563921558263,
                -1.0527543382209257,
                -0.9593760209917269,
                0.06552151088705188,
                -2.766687125097037
            ]
        },
        {
            "positions": [
                -0.804480776977246,
                -1.4730436093992467,
                -1.1728172891565083,
                -1.0489471592493689,
                0.04477900324699635,
                -2.786945627871363
            ]
        },
        {
            "positions": [
                -0.695634528167828,
                -1.500430826642667,
                -1.2928802400920905,
                -1.1385182975070105,
                0.024036495606940878,
                -2.80720413064569
            ]
        },
        {
            "positions": [
                -0.58678827935841,
                -1.5278180438860873,
                -1.4129431910276726,
                -1.2280894357646521,
                0.0032939879668854033,
                -2.8274626334200166
            ]
        },
        {
            "positions": [
                -0.47794203054899187,
                -1.5552052611295077,
                -1.5330061419632552,
                -1.3176605740222938,
                -0.017448519673170126,
                -2.8477211361943433
            ]
        },
        {
            "positions": [
                -0.36909578173957414,
                -1.582592478372928,
                -1.6530690928988374,
                -1.4072317122799354,
                -0.0381910273132256,
                -2.86797963896867
            ]
        },
        {
            "positions": [
                -0.26024953293015596,
                -1.6099796956163481,
                -1.7731320438344196,
                -1.496802850537577,
                -0.05893353495328102,
                -2.8882381417429963
            ]
        },
        {
            "positions": [
                -0.15140328412073778,
                -1.6373669128597688,
                -1.8931949947700022,
                -1.586373988795219,
                -0.07967604259333655,
                -2.908496644517323
            ]
        },
        {
            "positions": [
                -0.042557035311320046,
                -1.664754130103189,
                -2.0132579457055844,
                -1.6759451270528607,
                -0.10041855023339202,
                -2.9287551472916498
            ]
        },
        {
            "positions": [
                0.07477042891291148,
                -1.634889022059307,
                -1.9331554326195735,
                -1.7432299237705584,
                -0.152784070502713,
                -2.9035035924846517
            ]
        },
        {
            "positions": [
                0.192097893137143,
                -1.6050239140154252,
                -1.8530529195335625,
                -1.8105147204882561,
                -0.20514959077203399,
                -2.8782520376776533
            ]
        },
        {
            "positions": [
                0.30942535736137455,
                -1.5751588059715433,
                -1.7729504064475516,
                -1.877799517205954,
                -0.25751511104135494,
                -2.853000482870655
            ]
        },
        {
            "positions": [
                0.42675282158560607,
                -1.5452936979276615,
                -1.6928478933615407,
                -1.9450843139236518,
                -0.3098806313106759,
                -2.8277489280636567
            ]
        },
        {
            "positions": [
                0.5440802858098376,
                -1.5154285898837796,
                -1.6127453802755296,
                -2.0123691106413495,
                -0.3622461515799969,
                -2.8024973732566587
            ]
        },
        {
            "positions": [
                0.6614077500340692,
                -1.4855634818398977,
                -1.532642867189519,
                -2.0796539073590474,
                -0.41461167184931785,
                -2.7772458184496607
            ]
        },
        {
            "positions": [
                0.7787352142583006,
                -1.4556983737960159,
                -1.4525403541035078,
                -2.146938704076745,
                -0.4669771921186388,
                -2.751994263642662
            ]
        },
        {
            "positions": [
                0.8960626784825322,
                -1.425833265752134,
                -1.3724378410174969,
                -2.214223500794443,
                -0.5193427123879598,
                -2.726742708835664
            ]
        },
        {
            "positions": [
                1.0133901427067638,
                -1.3959681577082521,
                -1.292335327931486,
                -2.281508297512141,
                -0.5717082326572808,
                -2.701491154028666
            ]
        },
        {
            "positions": [
                1.1307176069309952,
                -1.3661030496643702,
                -1.212232814845475,
                -2.3487930942298383,
                -0.6240737529266018,
                -2.6762395992216677
            ]
        },
        {
            "positions": [
                1.2480450711552267,
                -1.3362379416204884,
                -1.1321303017594642,
                -2.4160778909475362,
                -0.6764392731959228,
                -2.6509880444146696
            ]
        },
        {
            "positions": [
                1.3653725353794584,
                -1.3063728335766065,
                -1.0520277886734533,
                -2.4833626876652337,
                -0.7288047934652437,
                -2.625736489607671
            ]
        },
        {
            "positions": [
                1.4826999996036898,
                -1.2765077255327246,
                -0.9719252755874423,
                -2.5506474843829317,
                -0.7811703137345646,
                -2.600484934800673
            ]
        },
        {
            "positions": [
                1.3543810347361318,
                -1.3129887733817858,
                -1.0781456810284367,
                -2.5248618445372277,
                -0.7342445019771906,
                -2.6390121427908806
            ]
        },
        {
            "positions": [
                1.2260620698685738,
                -1.349469821230847,
                -1.184366086469431,
                -2.4990762046915243,
                -0.6873186902198165,
                -2.677539350781088
            ]
        },
        {
            "positions": [
                1.0977431050010158,
                -1.3859508690799083,
                -1.2905864919104253,
                -2.4732905648458203,
                -0.6403928784624424,
                -2.7160665587712955
            ]
        },
        {
            "positions": [
                0.9694241401334578,
                -1.4224319169289694,
                -1.3968068973514196,
                -2.447504925000117,
                -0.5934670667050684,
                -2.754593766761503
            ]
        },
        {
            "positions": [
                0.8411051752658998,
                -1.4589129647780306,
                -1.5030273027924137,
                -2.421719285154413,
                -0.5465412549476945,
                -2.7931209747517105
            ]
        },
        {
            "positions": [
                0.7127862103983418,
                -1.495394012627092,
                -1.6092477082334082,
                -2.395933645308709,
                -0.49961544319032036,
                -2.831648182741918
            ]
        },
        {
            "positions": [
                0.5844672455307838,
                -1.5318750604761528,
                -1.7154681136744023,
                -2.3701480054630055,
                -0.4526896314329464,
                -2.8701753907321255
            ]
        },
        {
            "positions": [
                0.45614828066322577,
                -1.5683561083252142,
                -1.8216885191153969,
                -2.3443623656173016,
                -0.4057638196755723,
                -2.9087025987223334
            ]
        },
        {
            "positions": [
                0.32782931579566776,
                -1.6048371561742754,
                -1.927908924556391,
                -2.3185767257715977,
                -0.3588380079181983,
                -2.947229806712541
            ]
        },
        {
            "positions": [
                0.19951035092810976,
                -1.6413182040233365,
                -2.034129329997385,
                -2.292791085925894,
                -0.3119121961608242,
                -2.9857570147027483
            ]
        },
        {
            "positions": [
                0.07119138606055175,
                -1.6777992518723979,
                -2.1403497354383796,
                -2.2670054460801903,
                -0.26498638440345024,
                -3.024284222692956
            ]
        },
        {
            "positions": [
                -0.05712757880700625,
                -1.714280299721459,
                -2.246570140879374,
                -2.241219806234487,
                -0.21806057264607615,
                -3.0628114306831633
            ]
        },
        {
            "positions": [
                -0.18544654367456426,
                -1.7507613475705202,
                -2.352790546320368,
                -2.215434166388783,
                -0.17113476088870216,
                -3.101338638673371
            ]
        }
    ]
}