{
    "goal": {
        "global_pose": {
            "orientation": {
                "w": 0.005598929693374612,
                "x": 0.007748599140229565,
                "y": 0.7110244013736278,
                "z": -0.7031023480610252
            },
            "position": {
                "x": 0.1141497679147869,
                "y": -0.7141253447532654,
                "z": 0.3711530566215515
            }
        },
        "name": "move_to_auspresseinheit_B"
    },
    "id": "ProjEST_move_to_auspresseinheit_B_4",
    "joint_names": [
        "shoulder_pan_joint",
        "shoulder_lift_joint",
        "elbow_joint",
        "wrist_1_joint",
        "wrist_2_joint",
        "wrist_3_joint"
    ],
    "metrics": {
        "cart_traj_len": 0.5654811762960631,
        "distance_elbow_joint": 0.0636229145771745,
        "distance_shoulder_lift_joint": 0.2944397719597709,
        "distance_shoulder_pan_joint": 0.5770103605928603,
        "distance_wrist_1_joint": 0.32919661170113124,
        "distance_wrist_2_joint": 0.9992811794702186,
        "distance_wrist_3_joint": 0.010036222670512629,
        "smoothness": 0.0,
        "time": 0.087497435,
        "traj_len": 1.5078418554250537,
        "weighted_distance": 1.903191345473188
    },
    "planner": "ProjEST",
    "start": {
        "state": {
            "elbow_joint": 2.0193083361928714,
            "shoulder_lift_joint": -1.1220246554650708,
            "shoulder_pan_joint": -1.0952077554168747,
            "wrist_1_joint": -0.8559753972642168,
            "wrist_2_joint": 0.4759566250798843,
            "wrist_3_joint": -3.1240929996934557
        }
    },
    "waypoints": [
        {
            "positions": [
                -1.0952077554168747,
                -1.1220246554650708,
                2.0193083361928714,
                -0.8559753972642168,
                0.4759566250798843,
                -3.1240929996934557
            ]
        },
        {
            "positions": [
                -1.191376148849018,
                -1.1710979507916992,
                2.0087045170966755,
                -0.8011092953140282,
                0.6425034883249208,
                -3.122420295915037
            ]
        },
        {
            "positions": [
                -1.2875445422811613,
                -1.2201712461183278,
                1.9981006980004798,
                -0.7462431933638397,
                0.8090503515699572,
                -3.120747592136618
            ]
        },
        {
            "positions": [
                -1.3837129357133047,
                -1.2692445414449562,
                1.9874968789042842,
                -0.6913770914136512,
                0.9755972148149936,
                -3.1190748883581993
            ]
        },
        {
            "positions": [
                -1.479881329145448,
                -1.3183178367715847,
                1.9768930598080885,
                -0.6365109894634626,
                1.14214407806003,
                -3.1174021845797806
            ]
        },
        {
            "positions": [
                -1.5760497225775916,
                -1.3673911320982133,
                1.9662892407118926,
                -0.581644887513274,
                1.3086909413050665,
                -3.115729480801362
            ]
        },
        {
            "positions": [
                -1.672218116009735,
                -1.4164644274248417,
                1.955685421615697,
                -0.5267787855630855,
                1.475237804550103,
                -3.114056777022943
            ]
        }
    ]
}