{
    "goal": {
        "global_pose": {
            "orientation": {
                "w": -0.4816463035849501,
                "x": 0.5182115481033762,
                "y": 0.4908360881923453,
                "z": -0.5084816262002911
            },
            "position": {
                "x": -0.8240239810943604,
                "y": 0.19912469901144506,
                "z": 0.16403168439865112
            }
        },
        "name": "move_to_storage_D"
    },
    "id": "ProjEST_move_to_storage_D_44",
    "joint_names": [
        "shoulder_pan_joint",
        "shoulder_lift_joint",
        "elbow_joint",
        "wrist_1_joint",
        "wrist_2_joint",
        "wrist_3_joint"
    ],
    "metrics": {
        "cart_traj_len": 0.7909748443516735,
        "distance_elbow_joint": 0.5565657055811839,
        "distance_shoulder_lift_joint": 0.4033922871609903,
        "distance_shoulder_pan_joint": 0.7991817582729124,
        "distance_wrist_1_joint": 3.83023247139432,
        "distance_wrist_2_joint": 2.0538576517200937,
        "distance_wrist_3_joint": 3.1185431033795705,
        "smoothness": 0.13581592135079684,
        "time": 0.11680618200000001,
        "traj_len": 3.280514133106131,
        "weighted_distance": 4.783612579147963
    },
    "planner": "ProjEST",
    "start": {
        "state": {
            "elbow_joint": -2.384821988534728,
            "shoulder_lift_joint": -2.2788054721415256,
            "shoulder_pan_joint": -0.1854694642142757,
            "wrist_1_joint": 1.4845938289331202,
            "wrist_2_joint": 0.17898776772866878,
            "wrist_3_joint": 0.037105688729662994
        }
    },
    "waypoints": [
        {
            "positions": [
                -0.1854694642142757,
                -2.2788054721415256,
                -2.384821988534728,
                1.4845938289331202,
                0.17898776772866878,
                0.037105688729662994
            ]
        },
        {
            "positions": [
                -0.14463262484086287,
                -2.247232210006156,
                -2.3785303132303826,
                1.4386670137686899,
                0.2053792202204922,
                0.038301592194391554
            ]
        },
        {
            "positions": [
                -0.0576683170657198,
                -2.1979066954909197,
                -2.329323308163586,
                1.3435360488302985,
                0.22817104684589298,
                0.015696690882608118
            ]
        },
        {
            "positions": [
                0.029295990709423264,
                -2.1485811809756834,
                -2.2801163030967886,
                1.2484050838919072,
                0.25096287347129376,
                -0.006908210429175318
            ]
        },
        {
            "positions": [
                0.11626029848456632,
                -2.0992556664604467,
                -2.230909298029992,
                1.1532741189535158,
                0.2737547000966945,
                -0.029513111740958747
            ]
        },
        {
            "positions": [
                0.2032246062597094,
                -2.0499301519452104,
                -2.1817022929631946,
                1.0581431540151245,
                0.2965465267220953,
                -0.05211801305274219
            ]
        },
        {
            "positions": [
                0.2901889140348524,
                -2.000604637429974,
                -2.132495287896398,
                0.9630121890767332,
                0.31933835334749605,
                -0.07472291436452562
            ]
        },
        {
            "positions": [
                0.2761226801207748,
                -2.0060477440582107,
                -2.1192675050727954,
                0.8191578050968231,
                0.23614239395178882,
                -0.2053456401626093
            ]
        },
        {
            "positions": [
                0.26205644620669716,
                -2.0114908506864473,
                -2.1060397222491933,
                0.675303421116913,
                0.1529464345560816,
                -0.33596836596069296
            ]
        },
        {
            "positions": [
                0.24799021229261956,
                -2.0169339573146834,
                -2.092811939425591,
                0.5314490371370029,
                0.06975047516037436,
                -0.4665910917587766
            ]
        },
        {
            "positions": [
                0.23392397837854195,
                -2.02237706394292,
                -2.0795841566019884,
                0.38759465315709274,
                -0.013445484235332872,
                -0.5972138175568603
            ]
        },
        {
            "positions": [
                0.21985774446446432,
                -2.0278201705711565,
                -2.0663563737783863,
                0.2437402691771826,
                -0.0966414436310401,
                -0.727836543354944
            ]
        },
        {
            "positions": [
                0.2057915105503867,
                -2.033263277199393,
                -2.053128590954784,
                0.09988588519727248,
                -0.17983740302674733,
                -0.8584592691530276
            ]
        },
        {
            "positions": [
                0.1917252766363091,
                -2.0387063838276296,
                -2.0399008081311814,
                -0.043968498782637755,
                -0.26303336242245456,
                -0.9890819949511114
            ]
        },
        {
            "positions": [
                0.17765904272223149,
                -2.044149490455866,
                -2.0266730253075793,
                -0.18782288276254777,
                -0.3462293218181618,
                -1.119704720749195
            ]
        },
        {
            "positions": [
                0.16359280880815386,
                -2.0495925970841022,
                -2.013445242483977,
                -0.331677266742458,
                -0.429425281213869,
                -1.2503274465472787
            ]
        },
        {
            "positions": [
                0.14952657489407623,
                -2.055035703712339,
                -2.0002174596603743,
                -0.475531650722368,
                -0.5126212406095763,
                -1.3809501723453623
            ]
        },
        {
            "positions": [
                0.13546034097999862,
                -2.0604788103405753,
                -1.986989676836772,
                -0.619386034702278,
                -0.5958172000052835,
                -1.511572898143446
            ]
        },
        {
            "positions": [
                0.12139410706592099,
                -2.065921916968812,
                -1.9737618940131698,
                -0.7632404186821883,
                -0.6790131594009907,
                -1.6421956239415296
            ]
        },
        {
            "positions": [
                0.10732787315184339,
                -2.0713650235970484,
                -1.9605341111895673,
                -0.9070948026620983,
                -0.762209118796698,
                -1.7728183497396133
            ]
        },
        {
            "positions": [
                0.09326163923776576,
                -2.076808130225285,
                -1.947306328365965,
                -1.0509491866420086,
                -0.8454050781924052,
                -1.9034410755376971
            ]
        },
        {
            "positions": [
                0.07919540532368813,
                -2.082251236853521,
                -1.9340785455423628,
                -1.1948035706219184,
                -0.9286010375881124,
                -2.0340638013357806
            ]
        },
        {
            "positions": [
                0.06512917140961053,
                -2.0876943434817576,
                -1.9208507627187603,
                -1.3386579546018287,
                -1.0117969969838196,
                -2.1646865271338647
            ]
        },
        {
            "positions": [
                0.05106293749553292,
                -2.093137450109994,
                -1.907622979895158,
                -1.4825123385817385,
                -1.0949929563795269,
                -2.295309252931948
            ]
        },
        {
            "positions": [
                0.03699670358145529,
                -2.0985805567382307,
                -1.8943951970715558,
                -1.6263667225616492,
                -1.178188915775234,
                -2.425931978730032
            ]
        },
        {
            "positions": [
                0.022930469667377662,
                -2.1040236633664673,
                -1.8811674142479533,
                -1.770221106541559,
                -1.2613848751709413,
                -2.5565547045281156
            ]
        },
        {
            "positions": [
                0.008864235753300032,
                -2.109466769994704,
                -1.867939631424351,
                -1.9140754905214692,
                -1.3445808345666486,
                -2.6871774303261993
            ]
        },
        {
            "positions": [
                -0.005201998160777543,
                -2.11490987662294,
                -1.8547118486007488,
                -2.057929874501379,
                -1.4277767939623558,
                -2.817800156124283
            ]
        },
        {
            "positions": [
                -0.019268232074855174,
                -2.1203529832511765,
                -1.8414840657771463,
                -2.2017842584812892,
                -1.510972753358063,
                -2.9484228819223666
            ]
        },
        {
            "positions": [
                -0.03333446598893278,
                -2.125796089879413,
                -1.828256282953544,
                -2.3456386424611995,
                -1.5941687127537703,
                -3.07904560772045
            ]
        }
    ]
}