{
    "goal": {
        "global_pose": {
            "orientation": {
                "w": 0.7047431468963623,
                "x": -0.7094548344612122,
                "y": 0.0024358443915843964,
                "z": -0.0022348060738295317
            },
            "position": {
                "x": 0.6094750761985779,
                "y": 0.3671506643295288,
                "z": 0.19426114857196808
            }
        },
        "name": "move_to_magneteinheit_A"
    },
    "id": "ProjEST_move_to_magneteinheit_A_67",
    "joint_names": [
        "shoulder_pan_joint",
        "shoulder_lift_joint",
        "elbow_joint",
        "wrist_1_joint",
        "wrist_2_joint",
        "wrist_3_joint"
    ],
    "metrics": {
        "cart_traj_len": 3.944643599995256,
        "distance_elbow_joint": 3.9074472576064965,
        "distance_shoulder_lift_joint": 1.6593228758047371,
        "distance_shoulder_pan_joint": 3.02423590018446,
        "distance_wrist_1_joint": 4.459392090712641,
        "distance_wrist_2_joint": 2.711560402889181,
        "distance_wrist_3_joint": 2.293499854618466,
        "smoothness": 0.26383842507457406,
        "time": 0.08033388799999999,
        "traj_len": 4.249171493575657,
        "weighted_distance": 5.4601658019381345
    },
    "planner": "ProjEST",
    "start": {
        "state": {
            "elbow_joint": -1.9196185241190666,
            "shoulder_lift_joint": -1.2443396400964142,
            "shoulder_pan_joint": 2.6996025414629847,
            "wrist_1_joint": -1.5485510000780065,
            "wrist_2_joint": -1.5709468930060704,
            "wrist_3_joint": 0.4420197071253992
        }
    },
    "waypoints": [
        {
            "positions": [
                2.6996025414629847,
                -1.2443396400964142,
                -1.9196185241190666,
                -1.5485510000780065,
                -1.5709468930060704,
                0.4420197071253992
            ]
        },
        {
            "positions": [
                2.600088462172577,
                -1.2726501099306315,
                -1.8365768055316507,
                -1.5723161213257593,
                -1.4718732923242241,
                0.48632087135425345
            ]
        },
        {
            "positions": [
                2.50057438288217,
                -1.3009605797648491,
                -1.753535086944235,
                -1.596081242573512,
                -1.3727996916423781,
                0.5306220355831077
            ]
        },
        {
            "positions": [
                2.4010603035917626,
                -1.3292710495990665,
                -1.6704933683568193,
                -1.6198463638212648,
                -1.273726090960532,
                0.574923199811962
            ]
        },
        {
            "positions": [
                2.301546224301355,
                -1.357581519433284,
                -1.5874516497694033,
                -1.6436114850690173,
                -1.1746524902786857,
                0.6192243640408164
            ]
        },
        {
            "positions": [
                2.2020321450109472,
                -1.3858919892675015,
                -1.5044099311819874,
                -1.66737660631677,
                -1.0755788895968394,
                0.6635255282696706
            ]
        },
        {
            "positions": [
                2.10251806572054,
                -1.414202459101719,
                -1.4213682125945717,
                -1.6911417275645229,
                -0.9765052889149934,
                0.7078266924985249
            ]
        },
        {
            "positions": [
                2.0030039864301328,
                -1.4425129289359364,
                -1.338326494007156,
                -1.7149068488122756,
                -0.8774316882331472,
                0.7521278567273793
            ]
        },
        {
            "positions": [
                1.903489907139725,
                -1.470823398770154,
                -1.25528477541974,
                -1.7386719700600284,
                -0.7783580875513011,
                0.7964290209562335
            ]
        },
        {
            "positions": [
                1.8039758278493176,
                -1.4991338686043714,
                -1.172243056832324,
                -1.7624370913077811,
                -0.679284486869455,
                0.8407301851850878
            ]
        },
        {
            "positions": [
                1.7044617485589102,
                -1.527444338438589,
                -1.0892013382449084,
                -1.786202212555534,
                -0.5802108861876087,
                0.8850313494139421
            ]
        },
        {
            "positions": [
                1.6049476692685025,
                -1.5557548082728063,
                -1.0061596196574925,
                -1.8099673338032867,
                -0.4811372855057625,
                0.9293325136427965
            ]
        },
        {
            "positions": [
                1.5054335899780953,
                -1.584065278107024,
                -0.9231179010700767,
                -1.8337324550510392,
                -0.3820636848239165,
                0.9736336778716507
            ]
        },
        {
            "positions": [
                1.4059195106876876,
                -1.6123757479412413,
                -0.8400761824826608,
                -1.857497576298792,
                -0.2829900841420703,
                1.017934842100505
            ]
        },
        {
            "positions": [
                1.3064054313972804,
                -1.6406862177754586,
                -0.7570344638952451,
                -1.8812626975465447,
                -0.18391648346022405,
                1.0622360063293592
            ]
        },
        {
            "positions": [
                1.2068913521068727,
                -1.6689966876096762,
                -0.6739927453078292,
                -1.9050278187942975,
                -0.08484288277837782,
                1.1065371705582137
            ]
        },
        {
            "positions": [
                1.1073772728164655,
                -1.6973071574438938,
                -0.5909510267204134,
                -1.92879294004205,
                0.014230717903468193,
                1.1508383347870679
            ]
        },
        {
            "positions": [
                1.0078631935260578,
                -1.7256176272781112,
                -0.5079093081329975,
                -1.9525580612898028,
                0.11330431858531442,
                1.195139499015922
            ]
        },
        {
            "positions": [
                0.9083491142356506,
                -1.7539280971123286,
                -0.4248675895455818,
                -1.9763231825375556,
                0.21237791926716043,
                1.2394406632447765
            ]
        },
        {
            "positions": [
                0.8088350349452429,
                -1.7822385669465461,
                -0.34182587095816586,
                -2.0000883037853083,
                0.3114515199490069,
                1.283741827473631
            ]
        },
        {
            "positions": [
                0.7093209556548357,
                -1.8105490367807637,
                -0.25878415237075014,
                -2.023853425033061,
                0.4105251206308529,
                1.328042991702485
            ]
        },
        {
            "positions": [
                0.6098068763644281,
                -1.838859506614981,
                -0.17574243378333415,
                -2.047618546280814,
                0.5095987213126991,
                1.3723441559313394
            ]
        },
        {
            "positions": [
                0.5723952134095601,
                -1.8027692985660266,
                -0.08048296953096971,
                -1.896346527091865,
                0.4918342909763246,
                1.3152704224258824
            ]
        },
        {
            "positions": [
                0.534983550454692,
                -1.7666790905170722,
                0.014776494721394723,
                -1.745074507902916,
                0.4740698606399501,
                1.2581966889204257
            ]
        },
        {
            "positions": [
                0.497571887499824,
                -1.7305888824681175,
                0.11003595897375917,
                -1.5938024887139668,
                0.45630543030357557,
                1.2011229554149687
            ]
        },
        {
            "positions": [
                0.460160224544956,
                -1.694498674419163,
                0.2052954232261236,
                -1.4425304695250178,
                0.43854099996720103,
                1.1440492219095117
            ]
        },
        {
            "positions": [
                0.422748561590088,
                -1.6584084663702086,
                0.300554887478488,
                -1.291258450336069,
                0.42077656963082655,
                1.0869754884040548
            ]
        },
        {
            "positions": [
                0.3853368986352199,
                -1.622318258321254,
                0.3958143517308525,
                -1.1399864311471197,
                0.403012139294452,
                1.029901754898598
            ]
        },
        {
            "positions": [
                0.34792523568035194,
                -1.5862280502722994,
                0.4910738159832169,
                -0.9887144119581708,
                0.3852477089580775,
                0.9728280213931411
            ]
        },
        {
            "positions": [
                0.3105135727254839,
                -1.5501378422233452,
                0.5863332802355814,
                -0.8374423927692218,
                0.36748327862170294,
                0.9157542878876841
            ]
        },
        {
            "positions": [
                0.2731019097706159,
                -1.5140476341743905,
                0.6815927444879457,
                -0.6861703735802729,
                0.34971884828532845,
                0.8586805543822272
            ]
        },
        {
            "positions": [
                0.23569024681574785,
                -1.477957426125436,
                0.7768522087403102,
                -0.5348983543913239,
                0.331954417948954,
                0.8016068208767704
            ]
        },
        {
            "positions": [
                0.19827858386087976,
                -1.4418672180764815,
                0.8721116729926748,
                -0.38362633520237477,
                0.31418998761257944,
                0.7445330873713134
            ]
        },
        {
            "positions": [
                0.1608669209060118,
                -1.4057770100275269,
                0.9673711372450391,
                -0.23235431601342582,
                0.2964255572762049,
                0.6874593538658565
            ]
        },
        {
            "positions": [
                0.1234552579511437,
                -1.3696868019785724,
                1.0626306014974036,
                -0.08108229682447665,
                0.27866112693983036,
                0.6303856203603996
            ]
        },
        {
            "positions": [
                0.08604359499627579,
                -1.333596593929618,
                1.157890065749768,
                0.0701897223644723,
                0.2608966966034558,
                0.5733118868549427
            ]
        },
        {
            "positions": [
                0.0486319320414077,
                -1.2975063858806635,
                1.2531495300021325,
                0.22146174155342147,
                0.24313226626708134,
                0.5162381533494858
            ]
        },
        {
            "positions": [
                0.011220269086539725,
                -1.261416177831709,
                1.3484089942544968,
                0.3727337607423702,
                0.2253678359307068,
                0.4591644198440289
            ]
        },
        {
            "positions": [
                -0.02619139386832836,
                -1.2253259697827543,
                1.4436684585068613,
                0.5240057799313194,
                0.20760340559433227,
                0.4020906863385719
            ]
        },
        {
            "positions": [
                -0.06360305682319634,
                -1.1892357617338,
                1.5389279227592256,
                0.6752777991202681,
                0.1898389752579578,
                0.34501695283311506
            ]
        },
        {
            "positions": [
                -0.1010147197780644,
                -1.1531455536848454,
                1.6341873870115902,
                0.8265498183092174,
                0.17207454492158325,
                0.2879432193276582
            ]
        },
        {
            "positions": [
                -0.06906919992900554,
                -1.098989974205412,
                1.6847075793652813,
                0.9817149868691891,
                0.1301473146102556,
                0.24811829515496608
            ]
        },
        {
            "positions": [
                -0.037123680079946694,
                -1.0448343947259784,
                1.7352277717189726,
                1.136880155429161,
                0.08822008429892797,
                0.20829337098227393
            ]
        },
        {
            "positions": [
                -0.005178160230887852,
                -0.9906788152465449,
                1.7857479640726637,
                1.2920453239891327,
                0.04629285398760033,
                0.16846844680958178
            ]
        },
        {
            "positions": [
                0.026767359618171005,
                -0.9365232357671114,
                1.8362681564263548,
                1.4472104925491045,
                0.00436562367627269,
                0.12864352263688966
            ]
        },
        {
            "positions": [
                0.05871287946722986,
                -0.8823676562876779,
                1.8867883487800459,
                1.6023756611090763,
                -0.03756160663505498,
                0.08881859846419751
            ]
        },
        {
            "positions": [
                0.09065839931628869,
                -0.8282120768082444,
                1.9373085411337372,
                1.757540829669048,
                -0.07948883694638259,
                0.04899367429150539
            ]
        },
        {
            "positions": [
                0.12260391916534756,
                -0.7740564973288109,
                1.9878287334874283,
                1.9127059982290198,
                -0.12141606725771023,
                0.00916875011881326
            ]
        }
    ]
}