{
    "goal": {
        "global_pose": {
            "orientation": {
                "w": -0.4816463035849501,
                "x": 0.5182115481033762,
                "y": 0.4908360881923453,
                "z": -0.5084816262002911
            },
            "position": {
                "x": -0.8240239810943604,
                "y": 0.19912469901144506,
                "z": 0.16403168439865112
            }
        },
        "name": "move_to_storage_D"
    },
    "id": "ProjEST_move_to_storage_D_6",
    "joint_names": [
        "shoulder_pan_joint",
        "shoulder_lift_joint",
        "elbow_joint",
        "wrist_1_joint",
        "wrist_2_joint",
        "wrist_3_joint"
    ],
    "metrics": {
        "cart_traj_len": 0.6185003081531139,
        "distance_elbow_joint": 0.5603058664007903,
        "distance_shoulder_lift_joint": 0.15173681964420815,
        "distance_shoulder_pan_joint": 0.4813212638771446,
        "distance_wrist_1_joint": 4.081264365757567,
        "distance_wrist_2_joint": 1.7884173772994942,
        "distance_wrist_3_joint": 3.2195368596194984,
        "smoothness": 0.22365665728575854,
        "time": 0.071453339,
        "traj_len": 3.206646621097919,
        "weighted_distance": 4.753034611161039
    },
    "planner": "ProjEST",
    "start": {
        "state": {
            "elbow_joint": -2.384821988534728,
            "shoulder_lift_joint": -2.2788054721415256,
            "shoulder_pan_joint": -0.1854694642142757,
            "wrist_1_joint": 1.4845938289331202,
            "wrist_2_joint": 0.17898776772866878,
            "wrist_3_joint": 0.037105688729662994
        }
    },
    "waypoints": [
        {
            "positions": [
                -0.1854694642142757,
                -2.2788054721415256,
                -2.384821988534728,
                1.4845938289331202,
                0.17898776772866878,
                0.037105688729662994
            ]
        },
        {
            "positions": [
                -0.08028027549617152,
                -2.2597361575880335,
                -2.3490486686761236,
                1.5249292191873385,
                0.0954759528333756,
                0.05413781215413144
            ]
        },
        {
            "positions": [
                0.02490891322193267,
                -2.240666843034541,
                -2.3132753488175197,
                1.5652646094415568,
                0.011964137938082403,
                0.07116993557859988
            ]
        },
        {
            "positions": [
                0.13009810194003688,
                -2.2215975284810487,
                -2.2775020289589154,
                1.605599999695775,
                -0.07154767695721079,
                0.08820205900306832
            ]
        },
        {
            "positions": [
                0.1231916978682522,
                -2.21765882531506,
                -2.2586276161745413,
                1.4405892415709871,
                -0.13562609081611138,
                -0.04381629471968557
            ]
        },
        {
            "positions": [
                0.11628529379646751,
                -2.213720122149071,
                -2.2397532033901673,
                1.275578483446199,
                -0.199704504675012,
                -0.17583464844243946
            ]
        },
        {
            "positions": [
                0.10937888972468283,
                -2.2097814189830824,
                -2.220878790605793,
                1.110567725321411,
                -0.2637829185339126,
                -0.3078530021651934
            ]
        },
        {
            "positions": [
                0.10247248565289815,
                -2.2058427158170937,
                -2.202004377821419,
                0.9455569671966231,
                -0.32786133239281323,
                -0.43987135588794724
            ]
        },
        {
            "positions": [
                0.09556608158111346,
                -2.201904012651105,
                -2.183129965037045,
                0.7805462090718349,
                -0.3919397462517138,
                -0.5718897096107013
            ]
        },
        {
            "positions": [
                0.0886596775093288,
                -2.1979653094851157,
                -2.164255552252671,
                0.615535450947047,
                -0.45601816011061447,
                -0.7039080633334551
            ]
        },
        {
            "positions": [
                0.0817532734375441,
                -2.194026606319127,
                -2.145381139468297,
                0.4505246928222588,
                -0.520096573969515,
                -0.8359264170562091
            ]
        },
        {
            "positions": [
                0.07484686936575943,
                -2.190087903153138,
                -2.126506726683923,
                0.2855139346974711,
                -0.5841749878284156,
                -0.9679447707789628
            ]
        },
        {
            "positions": [
                0.06794046529397474,
                -2.1861491999871494,
                -2.1076323138995487,
                0.12050317657268295,
                -0.6482534016873163,
                -1.099963124501717
            ]
        },
        {
            "positions": [
                0.06103406122219006,
                -2.1822104968211606,
                -2.0887579011151747,
                -0.04450758155210521,
                -0.7123318155462168,
                -1.231981478224471
            ]
        },
        {
            "positions": [
                0.05412765715040538,
                -2.178271793655172,
                -2.0698834883308006,
                -0.20951833967689293,
                -0.7764102294051174,
                -1.3639998319472246
            ]
        },
        {
            "positions": [
                0.0472212530786207,
                -2.174333090489183,
                -2.0510090755464265,
                -0.3745290978016811,
                -0.8404886432640181,
                -1.4960181856699786
            ]
        },
        {
            "positions": [
                0.04031484900683602,
                -2.1703943873231943,
                -2.0321346627620525,
                -0.539539855926469,
                -0.9045670571229186,
                -1.6280365393927323
            ]
        },
        {
            "positions": [
                0.033408444935051324,
                -2.1664556841572056,
                -2.0132602499776784,
                -0.7045506140512574,
                -0.9686454709818193,
                -1.7600548931154865
            ]
        },
        {
            "positions": [
                0.026502040863266657,
                -2.162516980991217,
                -1.9943858371933043,
                -0.8695613721760453,
                -1.0327238848407199,
                -1.8920732468382402
            ]
        },
        {
            "positions": [
                0.019595636791481977,
                -2.158578277825228,
                -1.9755114244089302,
                -1.0345721303008328,
                -1.0968022986996204,
                -2.024091600560994
            ]
        },
        {
            "positions": [
                0.012689232719697283,
                -2.1546395746592393,
                -1.9566370116245562,
                -1.1995828884256212,
                -1.1608807125585212,
                -2.156109954283748
            ]
        },
        {
            "positions": [
                0.005782828647912602,
                -2.1507008714932505,
                -1.937762598840182,
                -1.3645936465504092,
                -1.2249591264174218,
                -2.2881283080065025
            ]
        },
        {
            "positions": [
                -0.001123575423872064,
                -2.1467621683272613,
                -1.918888186055808,
                -1.529604404675197,
                -1.2890375402763223,
                -2.420146661729256
            ]
        },
        {
            "positions": [
                -0.008029979495656758,
                -2.1428234651612725,
                -1.900013773271434,
                -1.6946151627999855,
                -1.353115954135223,
                -2.55216501545201
            ]
        },
        {
            "positions": [
                -0.014936383567441425,
                -2.1388847619952838,
                -1.8811393604870599,
                -1.859625920924773,
                -1.4171943679941235,
                -2.6841833691747636
            ]
        },
        {
            "positions": [
                -0.02184278763922612,
                -2.134946058829295,
                -1.8622649477026858,
                -2.0246366790495607,
                -1.481272781853024,
                -2.8162017228975174
            ]
        },
        {
            "positions": [
                -0.028749191711010813,
                -2.1310073556633062,
                -1.8433905349183117,
                -2.189647437174349,
                -1.5453511957119248,
                -2.948220076620272
            ]
        },
        {
            "positions": [
                -0.03565559578279547,
                -2.1270686524973175,
                -1.8245161221339377,
                -2.354658195299137,
                -1.6094296095708254,
                -3.0802384303430252
            ]
        }
    ]
}