{
    "goal": {
        "global_pose": {
            "orientation": {
                "w": -0.4816463035849501,
                "x": 0.5182115481033762,
                "y": 0.4908360881923453,
                "z": -0.5084816262002911
            },
            "position": {
                "x": -0.8240239810943604,
                "y": -0.300875300988555,
                "z": 0.16403168439865112
            }
        },
        "name": "move_to_storage_C"
    },
    "id": "ProjEST_move_to_storage_C_135",
    "joint_names": [
        "shoulder_pan_joint",
        "shoulder_lift_joint",
        "elbow_joint",
        "wrist_1_joint",
        "wrist_2_joint",
        "wrist_3_joint"
    ],
    "metrics": {
        "cart_traj_len": 0.5772259488460202,
        "distance_elbow_joint": 0.2571739626130829,
        "distance_shoulder_lift_joint": 0.1898054978971283,
        "distance_shoulder_pan_joint": 0.49515092143347506,
        "distance_wrist_1_joint": 0.07112171122312538,
        "distance_wrist_2_joint": 1.0670477829659486,
        "distance_wrist_3_joint": 0.055585231664342594,
        "smoothness": 5.075305295617109e-16,
        "time": 0.016997803000000002,
        "traj_len": 1.4614667658886749,
        "weighted_distance": 1.8398981127537637
    },
    "planner": "ProjEST",
    "start": {
        "state": {
            "elbow_joint": 2.010868314990456,
            "shoulder_lift_joint": -1.1634956873337592,
            "shoulder_pan_joint": -2.4736205022346125,
            "wrist_1_joint": -0.8367026794202681,
            "wrist_2_joint": 0.6746043897044499,
            "wrist_3_joint": -3.1496632123970403
        }
    },
    "waypoints": [
        {
            "positions": [
                -2.4736205022346125,
                -1.1634956873337592,
                2.010868314990456,
                -0.8367026794202681,
                0.6746043897044499,
                -3.1496632123970403
            ]
        },
        {
            "positions": [
                -2.5561456558068585,
                -1.1318614376842377,
                1.9680059878882754,
                -0.8248490608830805,
                0.8524456868654413,
                -3.1403990071196497
            ]
        },
        {
            "positions": [
                -2.638670809379104,
                -1.1002271880347165,
                1.9251436607860948,
                -0.8129954423458929,
                1.0302869840264328,
                -3.1311348018422596
            ]
        },
        {
            "positions": [
                -2.72119596295135,
                -1.068592938385195,
                1.8822813336839144,
                -0.8011418238087054,
                1.2081282811874243,
                -3.121870596564869
            ]
        },
        {
            "positions": [
                -2.803721116523596,
                -1.0369586887356737,
                1.839419006581734,
                -0.7892882052715179,
                1.3859695783484156,
                -3.1126063912874784
            ]
        },
        {
            "positions": [
                -2.8862462700958416,
                -1.0053244390861522,
                1.7965566794795533,
                -0.7774345867343303,
                1.5638108755094071,
                -3.1033421860100883
            ]
        },
        {
            "positions": [
                -2.9687714236680876,
                -0.9736901894366309,
                1.753694352377373,
                -0.7655809681971427,
                1.7416521726703984,
                -3.0940779807326977
            ]
        }
    ]
}