{
    "goal": {
        "global_pose": {
            "orientation": {
                "w": 0.005598929693374612,
                "x": 0.007748599140229565,
                "y": 0.7110244013736278,
                "z": -0.7031023480610252
            },
            "position": {
                "x": 0.1141497679147869,
                "y": -0.7141253447532654,
                "z": 0.3711530566215515
            }
        },
        "name": "move_to_auspresseinheit_B"
    },
    "id": "ProjEST_move_to_auspresseinheit_B_7",
    "joint_names": [
        "shoulder_pan_joint",
        "shoulder_lift_joint",
        "elbow_joint",
        "wrist_1_joint",
        "wrist_2_joint",
        "wrist_3_joint"
    ],
    "metrics": {
        "cart_traj_len": 0.5643389571823627,
        "distance_elbow_joint": 0.06558929339663822,
        "distance_shoulder_lift_joint": 0.29437097007184354,
        "distance_shoulder_pan_joint": 0.5757242644607181,
        "distance_wrist_1_joint": 0.3381143046413635,
        "distance_wrist_2_joint": 0.9974725102723132,
        "distance_wrist_3_joint": 0.006352228836304263,
        "smoothness": 3.806478935924272e-16,
        "time": 0.165158321,
        "traj_len": 1.509179767847151,
        "weighted_distance": 1.9041835111841154
    },
    "planner": "ProjEST",
    "start": {
        "state": {
            "elbow_joint": 2.0193083361928714,
            "shoulder_lift_joint": -1.1220246554650708,
            "shoulder_pan_joint": -1.0952077554168747,
            "wrist_1_joint": -0.8559753972642168,
            "wrist_2_joint": 0.4759566250798843,
            "wrist_3_joint": -3.1240929996934557
        }
    },
    "waypoints": [
        {
            "positions": [
                -1.0952077554168747,
                -1.1220246554650708,
                2.0193083361928714,
                -0.8559753972642168,
                0.4759566250798843,
                -3.1240929996934557
            ]
        },
        {
            "positions": [
                -1.191161799493661,
                -1.171086483810378,
                2.0083767872934315,
                -0.7996230131573229,
                0.6422020434586031,
                -3.123034294887405
            ]
        },
        {
            "positions": [
                -1.2871158435704473,
                -1.2201483121556853,
                1.997445238393992,
                -0.743270629050429,
                0.8084474618373221,
                -3.1219755900813544
            ]
        },
        {
            "positions": [
                -1.3830698876472338,
                -1.2692101405009926,
                1.9865136894945523,
                -0.686918244943535,
                0.9746928802160408,
                -3.1209168852753035
            ]
        },
        {
            "positions": [
                -1.47902393172402,
                -1.3182719688462998,
                1.9755821405951126,
                -0.6305658608366411,
                1.1409382985947598,
                -3.1198581804692527
            ]
        },
        {
            "positions": [
                -1.5749779758008065,
                -1.367333797191607,
                1.964650591695673,
                -0.5742134767297472,
                1.3071837169734786,
                -3.1187994756632023
            ]
        },
        {
            "positions": [
                -1.6709320198775928,
                -1.4163956255369143,
                1.9537190427962332,
                -0.5178610926228533,
                1.4734291353521975,
                -3.1177407708571514
            ]
        }
    ]
}