{
    "goal": {
        "global_pose": {
            "orientation": {
                "w": 0.7047431493862688,
                "x": -0.7094548369677653,
                "y": 0.0024358444001904,
                "z": -0.0022348060817251984
            },
            "position": {
                "x": -0.39052492380142206,
                "y": 0.3671506643295288,
                "z": 0.19426114857196808
            }
        },
        "name": "move_to_magneteinheit_D"
    },
    "id": "ProjEST_move_to_magneteinheit_D_87",
    "joint_names": [
        "shoulder_pan_joint",
        "shoulder_lift_joint",
        "elbow_joint",
        "wrist_1_joint",
        "wrist_2_joint",
        "wrist_3_joint"
    ],
    "metrics": {
        "cart_traj_len": 7.992658385793492,
        "distance_elbow_joint": 7.526755910837563,
        "distance_shoulder_lift_joint": 1.6319452886105748,
        "distance_shoulder_pan_joint": 8.270704240607898,
        "distance_wrist_1_joint": 3.984777453574571,
        "distance_wrist_2_joint": 3.49162151198938,
        "distance_wrist_3_joint": 6.203402466671762,
        "smoothness": 0.6240663684987049,
        "time": 0.309598889,
        "traj_len": 5.577562807561361,
        "weighted_distance": 7.140897056476812
    },
    "planner": "ProjEST",
    "start": {
        "state": {
            "elbow_joint": 0.749534889911806,
            "shoulder_lift_joint": -0.6476975780787326,
            "shoulder_pan_joint": -2.711696901376241,
            "wrist_1_joint": -0.07506478083263063,
            "wrist_2_joint": 0.43296659715538205,
            "wrist_3_joint": -3.14703540197715
        }
    },
    "waypoints": [
        {
            "positions": [
                -2.711696901376241,
                -0.6476975780787326,
                0.749534889911806,
                -0.07506478083263063,
                0.43296659715538205,
                -3.14703540197715
            ]
        },
        {
            "positions": [
                -2.724769759282965,
                -0.6862585294287662,
                0.773227319282296,
                -0.0032224071159989987,
                0.4284807907525095,
                -3.0112954493555226
            ]
        },
        {
            "positions": [
                -2.7378426171896892,
                -0.7248194807787998,
                0.796919748652786,
                0.06861996660063263,
                0.42399498434963695,
                -2.8755554967338957
            ]
        },
        {
            "positions": [
                -2.7509154750964133,
                -0.7633804321288333,
                0.8206121780232761,
                0.14046234031726426,
                0.4195091779467644,
                -2.7398155441122682
            ]
        },
        {
            "positions": [
                -2.646721436696583,
                -0.8138036312079469,
                0.7178104594056058,
                0.14832157584969746,
                0.3933968151734628,
                -2.6511461621538355
            ]
        },
        {
            "positions": [
                -2.542527398296753,
                -0.8642268302870604,
                0.6150087407879357,
                0.15618081138213066,
                0.36728445240016117,
                -2.5624767801954023
            ]
        },
        {
            "positions": [
                -2.4383333598969226,
                -0.9146500293661738,
                0.5122070221702654,
                0.16404004691456386,
                0.3411720896268596,
                -2.4738073982369695
            ]
        },
        {
            "positions": [
                -2.3341393214970925,
                -0.9650732284452873,
                0.4094053035525951,
                0.17189928244699704,
                0.315059726853558,
                -2.3851380162785363
            ]
        },
        {
            "positions": [
                -2.2299452830972624,
                -1.015496427524401,
                0.3066035849349248,
                0.17975851797943027,
                0.28894736408025634,
                -2.2964686343201035
            ]
        },
        {
            "positions": [
                -2.1257512446974323,
                -1.0659196266035142,
                0.2038018663172546,
                0.18761775351186344,
                0.26283500130695475,
                -2.2077992523616707
            ]
        },
        {
            "positions": [
                -2.0215572062976017,
                -1.1163428256826278,
                0.10100014769958432,
                0.19547698904429664,
                0.23672263853365316,
                -2.1191298704032375
            ]
        },
        {
            "positions": [
                -1.9173631678977716,
                -1.1667660247617413,
                -0.0018015709180859707,
                0.20333622457672984,
                0.21061027576035155,
                -2.0304604884448048
            ]
        },
        {
            "positions": [
                -1.8131691294979415,
                -1.2171892238408548,
                -0.10460328953575615,
                0.21119546010916304,
                0.18449791298704993,
                -1.9417911064863715
            ]
        },
        {
            "positions": [
                -1.7089750910981112,
                -1.2676124229199683,
                -0.20740500815342655,
                0.21905469564159624,
                0.15838555021374834,
                -1.8531217245279388
            ]
        },
        {
            "positions": [
                -1.604781052698281,
                -1.3180356219990819,
                -0.31020672677109673,
                0.22691393117402944,
                0.1322731874404467,
                -1.7644523425695056
            ]
        },
        {
            "positions": [
                -1.500587014298451,
                -1.3684588210781952,
                -0.4130084453887669,
                0.23477316670646264,
                0.1061608246671451,
                -1.6757829606110728
            ]
        },
        {
            "positions": [
                -1.3963929758986207,
                -1.418882020157309,
                -0.5158101640064373,
                0.24263240223889584,
                0.08004846189384346,
                -1.5871135786526398
            ]
        },
        {
            "positions": [
                -1.2921989374987906,
                -1.4693052192364222,
                -0.6186118826241075,
                0.25049163777132905,
                0.053936099120541925,
                -1.4984441966942068
            ]
        },
        {
            "positions": [
                -1.1880048990989602,
                -1.5197284183155357,
                -0.7214136012417779,
                0.2583508733037622,
                0.02782373634724028,
                -1.4097748147357738
            ]
        },
        {
            "positions": [
                -1.0838108606991301,
                -1.5701516173946493,
                -0.8242153198594481,
                0.26621010883619545,
                0.0017113735739386904,
                -1.321105432777341
            ]
        },
        {
            "positions": [
                -0.9796168222992998,
                -1.6205748164737628,
                -0.9270170384771185,
                0.2740693443686286,
                -0.024400989199362955,
                -1.2324360508189078
            ]
        },
        {
            "positions": [
                -0.8754227838994697,
                -1.6709980155528763,
                -1.0298187570947883,
                0.2819285799010618,
                -0.050513351972664544,
                -1.143766668860475
            ]
        },
        {
            "positions": [
                -0.7712287454996394,
                -1.7214212146319898,
                -1.132620475712459,
                0.289787815433495,
                -0.07662571474596613,
                -1.055097286902042
            ]
        },
        {
            "positions": [
                -0.667034707099809,
                -1.7718444137111033,
                -1.2354221943301291,
                0.29764705096592825,
                -0.10273807751926772,
                -0.9664279049436091
            ]
        },
        {
            "positions": [
                -0.562840668699979,
                -1.8222676127902169,
                -1.3382239129477993,
                0.3055062864983614,
                -0.1288504402925693,
                -0.8777585229851761
            ]
        },
        {
            "positions": [
                -0.4344297491933226,
                -1.8281248198227469,
                -1.253119026371072,
                0.25736442820228433,
                -0.06405253548997526,
                -0.9387207752521098
            ]
        },
        {
            "positions": [
                -0.30601882968666627,
                -1.8339820268552771,
                -1.1680141397943447,
                0.20922256990620725,
                0.0007453693126187877,
                -0.9996830275190435
            ]
        },
        {
            "positions": [
                -0.17760791018000993,
                -1.8398392338878071,
                -1.0829092532176174,
                0.16108071161013016,
                0.06554327411521282,
                -1.0606452797859771
            ]
        },
        {
            "positions": [
                -0.04919699067335359,
                -1.8456964409203374,
                -0.99780436664089,
                0.11293885331405307,
                0.1303411789178069,
                -1.1216075320529109
            ]
        },
        {
            "positions": [
                0.0792139288333028,
                -1.8515536479528674,
                -0.9126994800641628,
                0.06479699501797598,
                0.19513908372040095,
                -1.1825697843198446
            ]
        },
        {
            "positions": [
                0.2076248483399591,
                -1.8574108549853976,
                -0.8275945934874355,
                0.01665513672189889,
                0.25993698852299496,
                -1.2435320365867784
            ]
        },
        {
            "positions": [
                0.3360357678466155,
                -1.8632680620179276,
                -0.742489706910708,
                -0.031486721574178256,
                0.3247348933255891,
                -1.304494288853712
            ]
        },
        {
            "positions": [
                0.46444668735327177,
                -1.8691252690504578,
                -0.6573848203339808,
                -0.07962857987025529,
                0.3895327981281831,
                -1.3654565411206456
            ]
        },
        {
            "positions": [
                0.592857606859928,
                -1.8749824760829878,
                -0.5722799337572535,
                -0.12777043816633238,
                0.45433070293077715,
                -1.4264187933875794
            ]
        },
        {
            "positions": [
                0.7212685263665846,
                -1.880839683115518,
                -0.4871750471805262,
                -0.17591229646240947,
                0.5191286077333712,
                -1.4873810456545131
            ]
        },
        {
            "positions": [
                0.8496794458732408,
                -1.886696890148048,
                -0.40207016060379885,
                -0.22405415475848656,
                0.5839265125359653,
                -1.5483432979214469
            ]
        },
        {
            "positions": [
                0.9780903653798971,
                -1.8925540971805783,
                -0.31696527402707164,
                -0.27219601305456365,
                0.6487244173385592,
                -1.6093055501883806
            ]
        },
        {
            "positions": [
                1.1065012848865534,
                -1.8984113042131083,
                -0.2318603874503442,
                -0.32033787135064073,
                0.7135223221411534,
                -1.6702678024553141
            ]
        },
        {
            "positions": [
                1.23491220439321,
                -1.9042685112456386,
                -0.14675550087361677,
                -0.36847972964671794,
                0.7783202269437475,
                -1.7312300547222481
            ]
        },
        {
            "positions": [
                1.363323123899866,
                -1.9101257182781686,
                -0.06165061429688978,
                -0.4166215879427949,
                0.8431181317463414,
                -1.7921923069891816
            ]
        },
        {
            "positions": [
                1.4917340434065225,
                -1.9159829253106988,
                0.02345427227983765,
                -0.464763446238872,
                0.9079160365489355,
                -1.8531545592561154
            ]
        },
        {
            "positions": [
                1.6201449629131788,
                -1.9218401323432288,
                0.10855915885656509,
                -0.5129053045349492,
                0.9727139413515297,
                -1.9141168115230491
            ]
        },
        {
            "positions": [
                1.748555882419835,
                -1.927697339375759,
                0.1936640454332923,
                -0.5610471628310262,
                1.0375118461541235,
                -1.9750790637899827
            ]
        },
        {
            "positions": [
                1.8769668019264913,
                -1.933554546408289,
                0.2787689320100195,
                -0.6091890211271033,
                1.1023097509567177,
                -2.0360413160569166
            ]
        },
        {
            "positions": [
                2.005377721433148,
                -1.9394117534408193,
                0.36387381858674694,
                -0.6573308794231804,
                1.1671076557593119,
                -2.09700356832385
            ]
        },
        {
            "positions": [
                2.133788640939804,
                -1.9452689604733493,
                0.44897870516347416,
                -0.7054727377192574,
                1.2319055605619056,
                -2.1579658205907837
            ]
        },
        {
            "positions": [
                2.2621995604464606,
                -1.9511261675058795,
                0.5340835917402016,
                -0.7536145960153345,
                1.2967034653644998,
                -2.2189280728577176
            ]
        },
        {
            "positions": [
                2.390610479953117,
                -1.9569833745384095,
                0.619188478316929,
                -0.8017564543114116,
                1.361501370167094,
                -2.2798903251246516
            ]
        },
        {
            "positions": [
                2.519021399459773,
                -1.9628405815709398,
                0.704293364893656,
                -0.8498983126074887,
                1.4262992749696877,
                -2.340852577391585
            ]
        },
        {
            "positions": [
                2.6474323189664295,
                -1.9686977886034698,
                0.7893982514703834,
                -0.8980401709035659,
                1.4910971797722818,
                -2.4018148296585187
            ]
        },
        {
            "positions": [
                2.558896760440652,
                -1.9784148222936522,
                0.6903601149911073,
                -0.8230195481272643,
                1.4501641530698888,
                -2.3265001646270673
            ]
        },
        {
            "positions": [
                2.470361201914874,
                -1.9881318559838346,
                0.5913219785118312,
                -0.7479989253509627,
                1.409231126367496,
                -2.2511854995956155
            ]
        },
        {
            "positions": [
                2.3818256433890967,
                -1.997848889674017,
                0.49228384203255504,
                -0.6729783025746611,
                1.3682980996651029,
                -2.175870834564164
            ]
        },
        {
            "positions": [
                2.2932900848633193,
                -2.0075659233641994,
                0.3932457055532789,
                -0.5979576797983595,
                1.3273650729627098,
                -2.100556169532713
            ]
        },
        {
            "positions": [
                2.2047545263375414,
                -2.0172829570543818,
                0.2942075690740028,
                -0.5229370570220578,
                1.286432046260317,
                -2.025241504501261
            ]
        },
        {
            "positions": [
                2.116218967811764,
                -2.026999990744564,
                0.19516943259472663,
                -0.4479164342457562,
                1.2454990195579239,
                -1.9499268394698097
            ]
        },
        {
            "positions": [
                2.027683409285986,
                -2.0367170244347466,
                0.09613129611545057,
                -0.3728958114694546,
                1.2045659928555308,
                -1.8746121744383581
            ]
        },
        {
            "positions": [
                1.9391478507602087,
                -2.0464340581249294,
                -0.0029068403638256024,
                -0.297875188693153,
                1.163632966153138,
                -1.7992975094069066
            ]
        },
        {
            "positions": [
                1.8506122922344312,
                -2.056151091815112,
                -0.10194497684310178,
                -0.22285456591685138,
                1.1226999394507449,
                -1.7239828443754552
            ]
        },
        {
            "positions": [
                1.7620767337086536,
                -2.065868125505294,
                -0.20098311332237784,
                -0.14783394314054976,
                1.081766912748352,
                -1.6486681793440037
            ]
        },
        {
            "positions": [
                1.673541175182876,
                -2.0755851591954766,
                -0.3000212498016539,
                -0.07281332036424815,
                1.040833886045959,
                -1.573353514312552
            ]
        },
        {
            "positions": [
                1.5850056166570985,
                -2.085302192885659,
                -0.3990593862809302,
                0.002207302412053469,
                0.9999008593435659,
                -1.4980388492811008
            ]
        },
        {
            "positions": [
                1.4964700581313208,
                -2.0950192265758414,
                -0.49809752276020625,
                0.07722792518835508,
                0.9589678326411729,
                -1.4227241842496492
            ]
        },
        {
            "positions": [
                1.4079344996055432,
                -2.104736260266024,
                -0.5971356592394823,
                0.1522485479646567,
                0.91803480593878,
                -1.3474095192181976
            ]
        },
        {
            "positions": [
                1.3193989410797657,
                -2.114453293956206,
                -0.6961737957187586,
                0.22726917074095843,
                0.8771017792363869,
                -1.2720948541867463
            ]
        },
        {
            "positions": [
                1.230863382553988,
                -2.1241703276463886,
                -0.7952119321980347,
                0.30228979351725993,
                0.8361687525339939,
                -1.1967801891552947
            ]
        },
        {
            "positions": [
                1.1423278240282104,
                -2.133887361336571,
                -0.8942500686773107,
                0.37731041629356143,
                0.795235725831601,
                -1.1214655241238431
            ]
        },
        {
            "positions": [
                1.053792265502433,
                -2.1436043950267534,
                -0.993288205156587,
                0.45233103906986316,
                0.7543026991292079,
                -1.0461508590923918
            ]
        },
        {
            "positions": [
                0.9652567069766553,
                -2.1533214287169358,
                -1.092326341635863,
                0.5273516618461649,
                0.7133696724268149,
                -0.9708361940609402
            ]
        },
        {
            "positions": [
                0.8767211484508777,
                -2.163038462407118,
                -1.1913644781151391,
                0.6023722846224664,
                0.672436645724422,
                -0.8955215290294887
            ]
        },
        {
            "positions": [
                0.7881855899251002,
                -2.1727554960973006,
                -1.2904026145944152,
                0.6773929073987679,
                0.6315036190220289,
                -0.8202068639980373
            ]
        },
        {
            "positions": [
                0.6996500313993226,
                -2.182472529787483,
                -1.3894407510736912,
                0.7524135301750696,
                0.5905705923196359,
                -0.7448921989665858
            ]
        },
        {
            "positions": [
                0.6111144728735449,
                -2.1921895634776654,
                -1.4884788875529678,
                0.8274341529513713,
                0.549637565617243,
                -0.6695775339351342
            ]
        },
        {
            "positions": [
                0.5225789143477675,
                -2.2019065971678478,
                -1.5875170240322438,
                0.9024547757276729,
                0.5087045389148499,
                -0.5942628689036829
            ]
        },
        {
            "positions": [
                0.4340433558219896,
                -2.2116236308580306,
                -1.6865551605115199,
                0.9774753985039744,
                0.46777151221245705,
                -0.5189482038722313
            ]
        },
        {
            "positions": [
                0.34550779729621217,
                -2.221340664548213,
                -1.785593296990796,
                1.052496021280276,
                0.426838485510064,
                -0.4436335388407797
            ]
        },
        {
            "positions": [
                0.25697223877043474,
                -2.2310576982383954,
                -1.884631433470072,
                1.1275166440565778,
                0.3859054588076709,
                -0.3683188738093284
            ]
        },
        {
            "positions": [
                0.16843668024465686,
                -2.240774731928578,
                -1.983669569949348,
                1.2025372668328793,
                0.34497243210527806,
                -0.2930042087778766
            ]
        },
        {
            "positions": [
                0.07990112171887942,
                -2.25049176561876,
                -2.0827077064286246,
                1.2775578896091808,
                0.304039405402885,
                -0.21768954374642524
            ]
        },
        {
            "positions": [
                -0.008634436806898016,
                -2.2602087993089426,
                -2.1817458429079006,
                1.3525785123854828,
                0.2631063787004919,
                -0.1423748787149739
            ]
        },
        {
            "positions": [
                -0.0971699953326759,
                -2.269925832999125,
                -2.2807839793871767,
                1.4275991351617843,
                0.22217335199809907,
                -0.06706021368352211
            ]
        },
        {
            "positions": [
                -0.18570555385845317,
                -2.2796428666893074,
                -2.3798221158664528,
                1.502619757938086,
                0.18124032529570597,
                0.008254451347929116
            ]
        }
    ]
}