{
    "goal": {
        "global_pose": {
            "orientation": {
                "w": -0.00223480608172531,
                "x": 0.0024358444001904467,
                "y": 0.7094548369677653,
                "z": -0.704743149386269
            },
            "position": {
                "x": 0.6205249238014221,
                "y": -0.6371506643295288,
                "z": 0.19426114857196808
            }
        },
        "name": "move_to_magneteinheit_B"
    },
    "id": "ProjEST_move_to_magneteinheit_B_138",
    "joint_names": [
        "shoulder_pan_joint",
        "shoulder_lift_joint",
        "elbow_joint",
        "wrist_1_joint",
        "wrist_2_joint",
        "wrist_3_joint"
    ],
    "metrics": {
        "cart_traj_len": 3.697334688149124,
        "distance_elbow_joint": 4.516232810147351,
        "distance_shoulder_lift_joint": 0.956417418212268,
        "distance_shoulder_pan_joint": 2.326901135432586,
        "distance_wrist_1_joint": 4.550537417112171,
        "distance_wrist_2_joint": 0.7600158472725587,
        "distance_wrist_3_joint": 3.378657431557548,
        "smoothness": 0.23511605663539933,
        "time": 3.756261759,
        "traj_len": 4.060635671878786,
        "weighted_distance": 5.343840396871365
    },
    "planner": "ProjEST",
    "start": {
        "state": {
            "elbow_joint": 2.6216224122426386,
            "shoulder_lift_joint": -1.4174107377796124,
            "shoulder_pan_joint": 0.7066234856936794,
            "wrist_1_joint": 1.9546482284002225,
            "wrist_2_joint": -0.7096286983471962,
            "wrist_3_joint": 0.005740856962016249
        }
    },
    "waypoints": [
        {
            "positions": [
                0.7066234856936794,
                -1.4174107377796124,
                2.6216224122426386,
                1.9546482284002225,
                -0.7096286983471962,
                0.005740856962016249
            ]
        },
        {
            "positions": [
                0.6291448706192211,
                -1.433480922460283,
                2.5815643706069564,
                1.9879317645256953,
                -0.7047127894624401,
                0.03312943809277151
            ]
        },
        {
            "positions": [
                0.5516662555447629,
                -1.4495511071409535,
                2.5415063289712743,
                2.021215300651168,
                -0.6997968805776841,
                0.06051801922352677
            ]
        },
        {
            "positions": [
                0.5504273958230519,
                -1.4361487610309502,
                2.3416043962520368,
                1.9608916707787458,
                -0.64296772715705,
                0.07063648031568805
            ]
        },
        {
            "positions": [
                0.5491885361013409,
                -1.422746414920947,
                2.1417024635327997,
                1.9005680409063233,
                -0.5861385737364159,
                0.08075494140784933
            ]
        },
        {
            "positions": [
                0.5479496763796299,
                -1.4093440688109438,
                1.9418005308135622,
                1.840244411033901,
                -0.5293094203157818,
                0.09087340250001061
            ]
        },
        {
            "positions": [
                0.5467108166579189,
                -1.3959417227009403,
                1.7418985980943247,
                1.7799207811614783,
                -0.47248026689514755,
                0.10099186359217188
            ]
        },
        {
            "positions": [
                0.5454719569362079,
                -1.382539376590937,
                1.5419966653750874,
                1.719597151289056,
                -0.41565111347451345,
                0.11111032468433317
            ]
        },
        {
            "positions": [
                0.5442330972144969,
                -1.3691370304809338,
                1.34209473265585,
                1.6592735214166336,
                -0.35882196005387934,
                0.12122878577649446
            ]
        },
        {
            "positions": [
                0.5429942374927859,
                -1.3557346843709306,
                1.1421927999366126,
                1.598949891544211,
                -0.3019928066332452,
                0.13134724686865573
            ]
        },
        {
            "positions": [
                0.6108065576058238,
                -1.3666541802050698,
                1.0481735176368179,
                1.4815031326956296,
                -0.31059783120877604,
                0.04670657889025755
            ]
        },
        {
            "positions": [
                0.6786188777188618,
                -1.3775736760392088,
                0.9541542353370231,
                1.3640563738470481,
                -0.31920285578430685,
                -0.03793408908814064
            ]
        },
        {
            "positions": [
                0.7464311978318998,
                -1.388493171873348,
                0.8601349530372284,
                1.2466096149984667,
                -0.3278078803598377,
                -0.12257475706653881
            ]
        },
        {
            "positions": [
                0.8142435179449377,
                -1.3994126677074872,
                0.7661156707374337,
                1.1291628561498852,
                -0.3364129049353686,
                -0.207215425044937
            ]
        },
        {
            "positions": [
                0.8820558380579757,
                -1.4103321635416264,
                0.672096388437639,
                1.0117160973013037,
                -0.3450179295108994,
                -0.29185609302333515
            ]
        },
        {
            "positions": [
                0.9498681581710137,
                -1.4212516593757654,
                0.5780771061378442,
                0.8942693384527222,
                -0.35362295408643024,
                -0.37649676100173335
            ]
        },
        {
            "positions": [
                1.0176804782840516,
                -1.4321711552099046,
                0.4840578238380495,
                0.7768225796041406,
                -0.3622279786619611,
                -0.46113742898013155
            ]
        },
        {
            "positions": [
                1.0854927983970897,
                -1.4430906510440438,
                0.3900385415382548,
                0.6593758207555591,
                -0.3708330032374919,
                -0.5457780969585297
            ]
        },
        {
            "positions": [
                1.1533051185101275,
                -1.4540101468781828,
                0.29601925923845995,
                0.5419290619069776,
                -0.37943802781302277,
                -0.6304187649369279
            ]
        },
        {
            "positions": [
                1.2211174386231654,
                -1.464929642712322,
                0.20199997693866534,
                0.4244823030583962,
                -0.38804305238855363,
                -0.715059432915326
            ]
        },
        {
            "positions": [
                1.2889297587362036,
                -1.4758491385464612,
                0.10798069463887039,
                0.3070355442098145,
                -0.39664807696408444,
                -0.7997001008937243
            ]
        },
        {
            "positions": [
                1.3567420788492415,
                -1.4867686343806001,
                0.013961412339075885,
                0.18958878536123325,
                -0.4052531015396153,
                -0.8843407688721224
            ]
        },
        {
            "positions": [
                1.4245543989622793,
                -1.4976881302147393,
                -0.08005786996071906,
                0.07214202651265156,
                -0.41385812611514616,
                -0.9689814368505206
            ]
        },
        {
            "positions": [
                1.4923667190753174,
                -1.5086076260488785,
                -0.17407715226051357,
                -0.04530473233592991,
                -0.42246315069067697,
                -1.0536221048289187
            ]
        },
        {
            "positions": [
                1.5601790391883554,
                -1.5195271218830178,
                -0.2680964345603085,
                -0.16275149118451138,
                -0.43106817526620783,
                -1.138262772807317
            ]
        },
        {
            "positions": [
                1.6279913593013933,
                -1.5304466177171567,
                -0.362115716860103,
                -0.28019825003309284,
                -0.4396731998417387,
                -1.2229034407857151
            ]
        },
        {
            "positions": [
                1.695803679414431,
                -1.541366113551296,
                -0.45613499915989775,
                -0.3976450088816741,
                -0.4482782244172695,
                -1.3075441087641133
            ]
        },
        {
            "positions": [
                1.7636159995274694,
                -1.5522856093854351,
                -0.5501542814596927,
                -0.5150917677302558,
                -0.4568832489928004,
                -1.3921847767425115
            ]
        },
        {
            "positions": [
                1.8314283196405072,
                -1.5632051052195743,
                -0.6441735637594874,
                -0.6325385265788372,
                -0.4654882735683312,
                -1.4768254447209097
            ]
        },
        {
            "positions": [
                1.899240639753545,
                -1.5741246010537133,
                -0.7381928460592819,
                -0.7499852854274187,
                -0.47409329814386203,
                -1.561466112699308
            ]
        },
        {
            "positions": [
                1.9670529598665831,
                -1.5850440968878525,
                -0.8322121283590767,
                -0.8674320442760002,
                -0.4826983227193929,
                -1.646106780677706
            ]
        },
        {
            "positions": [
                2.034865279979621,
                -1.5959635927219917,
                -0.9262314106588718,
                -0.9848788031245821,
                -0.49130334729492375,
                -1.7307474486561043
            ]
        },
        {
            "positions": [
                2.102677600092659,
                -1.6068830885561307,
                -1.0202506929586663,
                -1.1023255619731636,
                -0.49990837187045456,
                -1.8153881166345025
            ]
        },
        {
            "positions": [
                2.1704899202056973,
                -1.61780258439027,
                -1.1142699752584608,
                -1.2197723208217446,
                -0.5085133964459854,
                -1.9000287846129007
            ]
        },
        {
            "positions": [
                2.2383022403187347,
                -1.6287220802244091,
                -1.2082892575582558,
                -1.337219079670326,
                -0.5171184210215163,
                -1.984669452591299
            ]
        },
        {
            "positions": [
                2.306114560431773,
                -1.639641576058548,
                -1.3023085398580507,
                -1.454665838518908,
                -0.5257234455970472,
                -2.069310120569697
            ]
        },
        {
            "positions": [
                2.3739268805448113,
                -1.6505610718926873,
                -1.3963278221578452,
                -1.5721125973674894,
                -0.534328470172578,
                -2.1539507885480953
            ]
        },
        {
            "positions": [
                2.4417392006578487,
                -1.6614805677268265,
                -1.4903471044576397,
                -1.689559356216071,
                -0.5429334947481088,
                -2.2385914565264935
            ]
        },
        {
            "positions": [
                2.509551520770887,
                -1.6724000635609655,
                -1.5843663867574347,
                -1.807006115064652,
                -0.5515385193236396,
                -2.3232321245048917
            ]
        },
        {
            "positions": [
                2.5773638408839252,
                -1.6833195593951047,
                -1.6783856690572296,
                -1.9244528739132338,
                -0.5601435438991704,
                -2.40787279248329
            ]
        },
        {
            "positions": [
                2.6451761609969626,
                -1.694239055229244,
                -1.772404951357024,
                -2.0418996327618153,
                -0.5687485684747013,
                -2.492513460461688
            ]
        },
        {
            "positions": [
                2.663927081951746,
                -1.7916848215980656,
                -1.7662515152389502,
                -2.156365316948418,
                -0.5607970910588802,
                -2.6397717613069736
            ]
        },
        {
            "positions": [
                2.68267800290653,
                -1.8891305879668872,
                -1.7600980791208762,
                -2.270831001135021,
                -0.5528456136430591,
                -2.787030062152259
            ]
        },
        {
            "positions": [
                2.67481529563388,
                -1.9881521621285363,
                -1.7234652210170298,
                -2.334805682160033,
                -0.5296052006812226,
                -2.8985879730289237
            ]
        },
        {
            "positions": [
                2.666952588361231,
                -2.087173736290185,
                -1.6868323629131836,
                -2.398780363185046,
                -0.5063647877193863,
                -3.010145883905588
            ]
        },
        {
            "positions": [
                2.6590898810885815,
                -2.1861953104518346,
                -1.6501995048093372,
                -2.4627550442100583,
                -0.48312437475754993,
                -3.1217037947822526
            ]
        }
    ]
}