{
    "goal": {
        "global_pose": {
            "orientation": {
                "w": 0.5084816217422485,
                "x": -0.49083608388900757,
                "y": 0.5182115435600281,
                "z": -0.4816462993621826
            },
            "position": {
                "x": 0.5540239810943604,
                "y": 0.030875300988554955,
                "z": 0.16403168439865112
            }
        },
        "name": "move_to_storage_A"
    },
    "id": "ProjEST_move_to_storage_A_57",
    "joint_names": [
        "shoulder_pan_joint",
        "shoulder_lift_joint",
        "elbow_joint",
        "wrist_1_joint",
        "wrist_2_joint",
        "wrist_3_joint"
    ],
    "metrics": {
        "cart_traj_len": 0.3533191762520905,
        "distance_elbow_joint": 0.4477203754732024,
        "distance_shoulder_lift_joint": 0.233840766675959,
        "distance_shoulder_pan_joint": 0.461823475595487,
        "distance_wrist_1_joint": 0.23597849210367594,
        "distance_wrist_2_joint": 1.0994131072827067,
        "distance_wrist_3_joint": 0.10486405481709804,
        "smoothness": 1.3322676295501878e-15,
        "time": 0.049760399999999996,
        "traj_len": 1.6073706081511288,
        "weighted_distance": 2.0319350336486424
    },
    "planner": "ProjEST",
    "start": {
        "state": {
            "elbow_joint": 1.971548259319323,
            "shoulder_lift_joint": -1.1394851275133948,
            "shoulder_pan_joint": 0.1228115487234821,
            "wrist_1_joint": -0.7804723859257726,
            "wrist_2_joint": 0.12958671773740124,
            "wrist_3_joint": -3.192489227718131
        }
    },
    "waypoints": [
        {
            "positions": [
                0.1228115487234821,
                -1.1394851275133948,
                1.971548259319323,
                -0.7804723859257726,
                0.12958671773740124,
                -3.192489227718131
            ]
        },
        {
            "positions": [
                0.0568367664955554,
                -1.172890951324246,
                2.0355083129583518,
                -0.8141835990834406,
                0.28664573306350216,
                -3.1775086484585455
            ]
        },
        {
            "positions": [
                -0.009138015732371302,
                -1.2062967751350975,
                2.099468366597381,
                -0.8478948122411086,
                0.44370474838960317,
                -3.1625280691989603
            ]
        },
        {
            "positions": [
                -0.07511279796029802,
                -1.2397025989459487,
                2.16342842023641,
                -0.8816060253987765,
                0.6007637637157041,
                -3.1475474899393747
            ]
        },
        {
            "positions": [
                -0.1410875801882247,
                -1.2731084227568,
                2.227388473875439,
                -0.9153172385564445,
                0.7578227790418051,
                -3.1325669106797895
            ]
        },
        {
            "positions": [
                -0.20706236241615145,
                -1.3065142465676511,
                2.291348527514468,
                -0.9490284517141125,
                0.9148817943679061,
                -3.117586331420204
            ]
        },
        {
            "positions": [
                -0.27303714464407813,
                -1.3399200703785026,
                2.3553085811534964,
                -0.9827396648717805,
                1.0719408096940068,
                -3.1026057521606187
            ]
        },
        {
            "positions": [
                -0.3390119268720049,
                -1.3733258941893538,
                2.4192686347925254,
                -1.0164508780294486,
                1.228999825020108,
                -3.087625172901033
            ]
        }
    ]
}{
    "goal": {
        "global_pose": {
            "orientation": {
                "w": 0.5084816217422485,
                "x": -0.49083608388900757,
                "y": 0.5182115435600281,
                "z": -0.4816462993621826
            },
            "position": {
                "x": 0.5540239810943604,
                "y": 0.030875300988554955,
                "z": 0.16403168439865112
            }
        },
        "name": "move_to_storage_A"
    },
    "id": "ProjEST_move_to_storage_A_57",
    "joint_names": [
        "shoulder_pan_joint",
        "shoulder_lift_joint",
        "elbow_joint",
        "wrist_1_joint",
        "wrist_2_joint",
        "wrist_3_joint"
    ],
    "metrics": {
        "cart_traj_len": 0.35329860818805614,
        "distance_elbow_joint": 0.45065560124714077,
        "distance_shoulder_lift_joint": 0.2368550452727105,
        "distance_shoulder_pan_joint": 0.46412737045992736,
        "distance_wrist_1_joint": 0.23825039956055427,
        "distance_wrist_2_joint": 1.0916423999905165,
        "distance_wrist_3_joint": 0.10123749789643632,
        "smoothness": 1.1102230263833737e-15,
        "time": 0.077188982,
        "traj_len": 1.6070993480265263,
        "weighted_distance": 2.0285798258316654
    },
    "planner": "ProjEST",
    "start": {
        "state": {
            "elbow_joint": 1.97154746011099,
            "shoulder_lift_joint": -1.13948474672311,
            "shoulder_pan_joint": 0.12281154466712228,
            "wrist_1_joint": -0.7804688027058302,
            "wrist_2_joint": 0.12958655903071145,
            "wrist_3_joint": 3.0906928834467795
        }
    },
    "waypoints": [
        {
            "positions": [
                0.12281154466712228,
                -1.13948474672311,
                1.97154746011099,
                -0.7804688027058302,
                0.12958655903071145,
                3.0906928834467795
            ]
        },
        {
            "positions": [
                0.056507634601418374,
                -1.1733211817620686,
                2.0359268317177244,
                -0.8145045740716237,
                0.28553547331507095,
                3.1051553831462706
            ]
        },
        {
            "positions": [
                -0.009796275464285534,
                -1.2071576168010272,
                2.100306203324459,
                -0.8485403454374171,
                0.44148438759943043,
                3.1196178828457612
            ]
        },
        {
            "positions": [
                -0.07610018552998944,
                -1.2409940518399858,
                2.1646855749311933,
                -0.8825761168032106,
                0.59743330188379,
                3.1340803825452523
            ]
        },
        {
            "positions": [
                -0.14240409559569334,
                -1.2748304868789444,
                2.2290649465379273,
                -0.9166118881690041,
                0.7533822161681495,
                3.148542882244743
            ]
        },
        {
            "positions": [
                -0.20870800566139724,
                -1.3086669219179032,
                2.2934443181446618,
                -0.9506476595347975,
                0.909331130452509,
                3.163005381944234
            ]
        },
        {
            "positions": [
                -0.27501191572710115,
                -1.3425033569568618,
                2.3578236897513962,
                -0.984683430900591,
                1.0652800447368684,
                3.1774678816437247
            ]
        },
        {
            "positions": [
                -0.34131582579280506,
                -1.3763397919958205,
                2.4222030613581307,
                -1.0187192022663845,
                1.221228959021228,
                3.191930381343216
            ]
        }
    ]
}{
    "goal": {
        "global_pose": {
            "orientation": {
                "w": 0.5084816217422485,
                "x": -0.49083608388900757,
                "y": 0.5182115435600281,
                "z": -0.4816462993621826
            },
            "position": {
                "x": 0.5540239810943604,
                "y": 0.030875300988554955,
                "z": 0.16403168439865112
            }
        },
        "name": "move_to_storage_A"
    },
    "id": "ProjEST_move_to_storage_A_57",
    "joint_names": [
        "shoulder_pan_joint",
        "shoulder_lift_joint",
        "elbow_joint",
        "wrist_1_joint",
        "wrist_2_joint",
        "wrist_3_joint"
    ],
    "metrics": {
        "cart_traj_len": 0.3528632270790845,
        "distance_elbow_joint": 0.4546273253172819,
        "distance_shoulder_lift_joint": 0.23351687150475775,
        "distance_shoulder_pan_joint": 0.4579416767477709,
        "distance_wrist_1_joint": 0.2611412965298159,
        "distance_wrist_2_joint": 1.1136999010232946,
        "distance_wrist_3_joint": 0.0948052498958365,
        "smoothness": 6.661338200497456e-16,
        "time": 0.11864957899999999,
        "traj_len": 1.617322577910405,
        "weighted_distance": 2.0445498326926494
    },
    "planner": "ProjEST",
    "start": {
        "state": {
            "elbow_joint": 1.9715472970024885,
            "shoulder_lift_joint": -1.1394870060712896,
            "shoulder_pan_joint": 0.12281152778156021,
            "wrist_1_joint": -0.780463741449964,
            "wrist_2_joint": 0.12958659822042276,
            "wrist_3_joint": 3.090690232415272
        }
    },
    "waypoints": [
        {
            "positions": [
                0.12281152778156021,
                -1.1394870060712896,
                1.9715472970024885,
                -0.780463741449964,
                0.12958659822042276,
                3.090690232415272
            ]
        },
        {
            "positions": [
                0.05739128824616438,
                -1.1728465591433979,
                2.0364940577621002,
                -0.8177696409542234,
                0.2886865840808934,
                3.1042338395432485
            ]
        },
        {
            "positions": [
                -0.00802895128923145,
                -1.206206112215506,
                2.101440818521712,
                -0.8550755404584828,
                0.4477865699413641,
                3.117777446671225
            ]
        },
        {
            "positions": [
                -0.07344919082462728,
                -1.2395656652876144,
                2.1663875792813236,
                -0.8923814399627422,
                0.6068865558018347,
                3.131321053799202
            ]
        },
        {
            "positions": [
                -0.1388694303600231,
                -1.2729252183597226,
                2.2313343400409353,
                -0.9296873394670017,
                0.7659865416623054,
                3.1448646609271784
            ]
        },
        {
            "positions": [
                -0.204289669895419,
                -1.3062847714318309,
                2.296281100800547,
                -0.966993238971261,
                0.9250865275227761,
                3.158408268055155
            ]
        },
        {
            "positions": [
                -0.26970990943081474,
                -1.339644324503939,
                2.3612278615601587,
                -1.0042991384755204,
                1.0841865133832467,
                3.1719518751831317
            ]
        },
        {
            "positions": [
                -0.3351301489662107,
                -1.3730038775760474,
                2.4261746223197704,
                -1.0416050379797799,
                1.2432864992437174,
                3.1854954823111084
            ]
        }
    ]
}