{
    "goal": {
        "global_pose": {
            "orientation": {
                "w": 0.005598929693374612,
                "x": 0.007748599140229565,
                "y": 0.7110244013736278,
                "z": -0.7031023480610252
            },
            "position": {
                "x": 0.1141497679147869,
                "y": -0.7141253447532654,
                "z": 0.3711530566215515
            }
        },
        "name": "move_to_auspresseinheit_B"
    },
    "id": "ProjEST_move_to_auspresseinheit_B_149",
    "joint_names": [
        "shoulder_pan_joint",
        "shoulder_lift_joint",
        "elbow_joint",
        "wrist_1_joint",
        "wrist_2_joint",
        "wrist_3_joint"
    ],
    "metrics": {
        "cart_traj_len": 0.5646084162657958,
        "distance_elbow_joint": 0.06515249916083565,
        "distance_shoulder_lift_joint": 0.2931448281167728,
        "distance_shoulder_pan_joint": 0.5777682096913428,
        "distance_wrist_1_joint": 0.3360502642138288,
        "distance_wrist_2_joint": 0.9896525814375261,
        "distance_wrist_3_joint": 0.00893067098764444,
        "smoothness": 8.881784231541381e-16,
        "time": 0.059455274,
        "traj_len": 1.506883888562072,
        "weighted_distance": 1.9011215745539773
    },
    "planner": "ProjEST",
    "start": {
        "state": {
            "elbow_joint": 2.0193083361928714,
            "shoulder_lift_joint": -1.1220246554650708,
            "shoulder_pan_joint": -1.0952077554168747,
            "wrist_1_joint": -0.8559753972642168,
            "wrist_2_joint": 0.4759566250798843,
            "wrist_3_joint": -3.1240929996934557
        }
    },
    "waypoints": [
        {
            "positions": [
                -1.0952077554168747,
                -1.1220246554650708,
                2.0193083361928714,
                -0.8559753972642168,
                0.4759566250798843,
                -3.1240929996934557
            ]
        },
        {
            "positions": [
                -1.1915024570320984,
                -1.1708821268178662,
                2.0084495863327323,
                -0.7999670198952453,
                0.6408987219861386,
                -3.122604554528848
            ]
        },
        {
            "positions": [
                -1.2877971586473222,
                -1.2197395981706618,
                1.997590836472593,
                -0.7439586425262739,
                0.8058408188923929,
                -3.121116109364241
            ]
        },
        {
            "positions": [
                -1.384091860262546,
                -1.2685970695234572,
                1.9867320866124536,
                -0.6879502651573024,
                0.9707829157986474,
                -3.1196276641996334
            ]
        },
        {
            "positions": [
                -1.4803865618777698,
                -1.3174545408762526,
                1.9758733367523142,
                -0.6319418877883309,
                1.1357250127049017,
                -3.118139219035026
            ]
        },
        {
            "positions": [
                -1.5766812634929936,
                -1.3663120122290482,
                1.9650145868921751,
                -0.5759335104193595,
                1.3006671096111562,
                -3.1166507738704188
            ]
        },
        {
            "positions": [
                -1.6729759651082174,
                -1.4151694835818436,
                1.9541558370320358,
                -0.519925133050388,
                1.4656092065174104,
                -3.1151623287058112
            ]
        }
    ]
}