{
    "goal": {
        "global_pose": {
            "orientation": {
                "w": 0.005598929693374612,
                "x": 0.007748599140229565,
                "y": 0.7110244013736278,
                "z": -0.7031023480610252
            },
            "position": {
                "x": -0.8858502320852131,
                "y": -0.7141253447532654,
                "z": 0.3711530566215515
            }
        },
        "name": "move_to_auspresseinheit_C"
    },
    "id": "ProjEST_move_to_auspresseinheit_C_106",
    "joint_names": [
        "shoulder_pan_joint",
        "shoulder_lift_joint",
        "elbow_joint",
        "wrist_1_joint",
        "wrist_2_joint",
        "wrist_3_joint"
    ],
    "metrics": {
        "cart_traj_len": 0.49225567387498304,
        "distance_elbow_joint": 0.9928809302791796,
        "distance_shoulder_lift_joint": 0.3211545357600215,
        "distance_shoulder_pan_joint": 0.2557440820262076,
        "distance_wrist_1_joint": 0.6657409208784811,
        "distance_wrist_2_joint": 1.3129142589440377,
        "distance_wrist_3_joint": 0.04345981524040754,
        "smoothness": 4.844609574787718e-16,
        "time": 0.178202988,
        "traj_len": 1.8952294170174582,
        "weighted_distance": 2.378543536164867
    },
    "planner": "ProjEST",
    "start": {
        "state": {
            "elbow_joint": 1.7527959577737207,
            "shoulder_lift_joint": -0.9740617694225068,
            "shoulder_pan_joint": -2.967991417825858,
            "wrist_1_joint": -0.759517768980727,
            "wrist_2_joint": 1.7443932448377408,
            "wrist_3_joint": -3.0840537646736568
        }
    },
    "waypoints": [
        {
            "positions": [
                -2.967991417825858,
                -0.9740617694225068,
                1.7527959577737207,
                -0.759517768980727,
                1.7443932448377408,
                -3.0840537646736568
            ]
        },
        {
            "positions": [
                -2.942417009623237,
                -0.9419463158465047,
                1.6535078647458028,
                -0.6929436768928788,
                1.613101818943337,
                -3.0883997461976973
            ]
        },
        {
            "positions": [
                -2.9168426014206164,
                -0.9098308622705025,
                1.5542197717178847,
                -0.6263695848050308,
                1.4818103930489332,
                -3.0927457277217383
            ]
        },
        {
            "positions": [
                -2.8912681932179956,
                -0.8777154086945003,
                1.4549316786899669,
                -0.5597954927171827,
                1.3505189671545295,
                -3.0970917092457793
            ]
        },
        {
            "positions": [
                -2.8656937850153748,
                -0.8455999551184982,
                1.3556435856620488,
                -0.4932214006293345,
                1.2192275412601257,
                -3.10143769076982
            ]
        },
        {
            "positions": [
                -2.840119376812754,
                -0.8134845015424961,
                1.256355492634131,
                -0.4266473085414864,
                1.0879361153657219,
                -3.1057836722938603
            ]
        },
        {
            "positions": [
                -2.8145449686101336,
                -0.7813690479664939,
                1.157067399606213,
                -0.3600732164536383,
                0.9566446894713182,
                -3.1101296538179013
            ]
        },
        {
            "positions": [
                -2.788970560407513,
                -0.7492535943904918,
                1.057779306578295,
                -0.29349912436579023,
                0.8253532635769145,
                -3.114475635341942
            ]
        },
        {
            "positions": [
                -2.763396152204892,
                -0.7171381408144896,
                0.9584912135503769,
                -0.22692503227794203,
                0.6940618376825107,
                -3.118821616865983
            ]
        },
        {
            "positions": [
                -2.737821744002271,
                -0.6850226872384875,
                0.8592031205224591,
                -0.160350940190094,
                0.5627704117881069,
                -3.1231675983900233
            ]
        },
        {
            "positions": [
                -2.7122473357996504,
                -0.6529072336624853,
                0.7599150274945411,
                -0.09377684810224586,
                0.43147898589370315,
                -3.1275135799140643
            ]
        }
    ]
}