{
    "goal": {
        "global_pose": {
            "orientation": {
                "w": -0.00223480608172531,
                "x": 0.0024358444001904467,
                "y": 0.7094548369677653,
                "z": -0.704743149386269
            },
            "position": {
                "x": -0.37947507619857795,
                "y": -0.6371506643295288,
                "z": 0.19426114857196808
            }
        },
        "name": "move_to_magneteinheit_C"
    },
    "id": "ProjEST_move_to_magneteinheit_C_23",
    "joint_names": [
        "shoulder_pan_joint",
        "shoulder_lift_joint",
        "elbow_joint",
        "wrist_1_joint",
        "wrist_2_joint",
        "wrist_3_joint"
    ],
    "metrics": {
        "cart_traj_len": 2.1773262703598206,
        "distance_elbow_joint": 1.8310906894192387,
        "distance_shoulder_lift_joint": 2.0700726512060212,
        "distance_shoulder_pan_joint": 2.5531549920401377,
        "distance_wrist_1_joint": 1.3618322244273484,
        "distance_wrist_2_joint": 2.1182774596588754,
        "distance_wrist_3_joint": 3.51100845106811,
        "smoothness": 1.1788982680430442,
        "time": 1.848474452,
        "traj_len": 3.6668019400861738,
        "weighted_distance": 4.893624735719135
    },
    "planner": "ProjEST",
    "start": {
        "state": {
            "elbow_joint": 1.9565354010623817,
            "shoulder_lift_joint": -1.4165861575791021,
            "shoulder_pan_joint": -1.6717766225146293,
            "wrist_1_joint": -0.5286633292919765,
            "wrist_2_joint": 1.472756589071564,
            "wrist_3_joint": -3.1238370188695823
        }
    },
    "waypoints": [
        {
            "positions": [
                -1.6717766225146293,
                -1.4165861575791021,
                1.9565354010623817,
                -0.5286633292919765,
                1.472756589071564,
                -3.1238370188695823
            ]
        },
        {
            "positions": [
                -1.5992260625342323,
                -1.4472776735976831,
                1.958609001237074,
                -0.5669317666681493,
                1.4448789516209286,
                -2.957818221845071
            ]
        },
        {
            "positions": [
                -1.5462038737207042,
                -1.4463701960711,
                1.8870844471248183,
                -0.5943759845748193,
                1.3803744037168513,
                -2.797325678731833
            ]
        },
        {
            "positions": [
                -1.4931816849071764,
                -1.4454627185445166,
                1.8155598930125625,
                -0.6218202024814895,
                1.315869855812774,
                -2.636833135618595
            ]
        },
        {
            "positions": [
                -1.4401594960936484,
                -1.4445552410179334,
                1.7440353389003067,
                -0.6492644203881596,
                1.2513653079086966,
                -2.476340592505357
            ]
        },
        {
            "positions": [
                -1.3871373072801205,
                -1.44364776349135,
                1.672510784788051,
                -0.6767086382948296,
                1.1868607600046195,
                -2.315848049392119
            ]
        },
        {
            "positions": [
                -1.3341151184665925,
                -1.4427402859647669,
                1.600986230675795,
                -0.7041528562014998,
                1.1223562121005421,
                -2.155355506278881
            ]
        },
        {
            "positions": [
                -1.2810929296530646,
                -1.4418328084381835,
                1.5294616765635392,
                -0.7315970741081699,
                1.0578516641964648,
                -1.9948629631656434
            ]
        },
        {
            "positions": [
                -1.2280707408395366,
                -1.4409253309116004,
                1.4579371224512834,
                -0.7590412920148399,
                0.9933471162923875,
                -1.8343704200524054
            ]
        },
        {
            "positions": [
                -1.35708776053168,
                -1.508440459712366,
                1.5302238638408938,
                -0.7181745987118036,
                1.043959709185775,
                -1.7999466257720418
            ]
        },
        {
            "positions": [
                -1.4861047802238234,
                -1.5759555885131318,
                1.6025106052305043,
                -0.6773079054087671,
                1.094572302079163,
                -1.7655228314916782
            ]
        },
        {
            "positions": [
                -1.6151217999159668,
                -1.6434707173138974,
                1.6747973466201147,
                -0.6364412121057307,
                1.1451848949725505,
                -1.7310990372113146
            ]
        },
        {
            "positions": [
                -1.7441388196081102,
                -1.7109858461146632,
                1.747084088009725,
                -0.5955745188026943,
                1.1957974878659383,
                -1.696675242930951
            ]
        },
        {
            "positions": [
                -1.8731558393002539,
                -1.7785009749154288,
                1.8193708293993354,
                -0.5547078254996578,
                1.246410080759326,
                -1.6622514486505875
            ]
        },
        {
            "positions": [
                -2.002172858992397,
                -1.8460161037161944,
                1.8916575707889458,
                -0.5138411321966214,
                1.2970226736527137,
                -1.627827654370224
            ]
        },
        {
            "positions": [
                -2.1311898786845407,
                -1.9135312325169602,
                1.9639443121785563,
                -0.47297443889358504,
                1.3476352665461013,
                -1.5934038600898606
            ]
        },
        {
            "positions": [
                -2.2602068983766843,
                -1.9810463613177258,
                2.0362310535681667,
                -0.4321077455905486,
                1.3982478594394891,
                -1.558980065809497
            ]
        },
        {
            "positions": [
                -2.3892239180688275,
                -2.0485614901184914,
                2.108517794957777,
                -0.3912410522875122,
                1.4488604523328767,
                -1.5245562715291334
            ]
        },
        {
            "positions": [
                -2.5182409377609707,
                -2.1160766189192572,
                2.1808045363473876,
                -0.3503743589844757,
                1.4994730452262646,
                -1.4901324772487698
            ]
        },
        {
            "positions": [
                -2.6472579574531143,
                -2.1835917477200226,
                2.253091277736998,
                -0.30950766568143934,
                1.5500856381196522,
                -1.4557086829684063
            ]
        },
        {
            "positions": [
                -2.776274977145258,
                -2.2511068765207884,
                2.3253780191266085,
                -0.2686409723784029,
                1.6006982310130398,
                -1.4212848886880427
            ]
        },
        {
            "positions": [
                -2.905291996837401,
                -2.3186220053215543,
                2.3976647605162187,
                -0.22777427907536651,
                1.6513108239064276,
                -1.3868610944076791
            ]
        },
        {
            "positions": [
                -2.8744185786683167,
                -2.23609828260074,
                2.3699063624880887,
                -0.2706447968442959,
                1.5812462325303092,
                -1.5135777034509796
            ]
        },
        {
            "positions": [
                -2.8435451604992323,
                -2.153574559879925,
                2.3421479644599588,
                -0.31351531461322524,
                1.5111816411541905,
                -1.6402943124942801
            ]
        },
        {
            "positions": [
                -2.8126717423301484,
                -2.0710508371591105,
                2.314389566431829,
                -0.3563858323821546,
                1.441117049778072,
                -1.7670109215375807
            ]
        },
        {
            "positions": [
                -2.781798324161064,
                -1.988527114438296,
                2.2866311684036984,
                -0.399256350151084,
                1.3710524584019537,
                -1.8937275305808812
            ]
        },
        {
            "positions": [
                -2.7509249059919796,
                -1.9060033917174815,
                2.2588727703755684,
                -0.44212686792001343,
                1.300987867025835,
                -2.020444139624182
            ]
        },
        {
            "positions": [
                -2.720051487822895,
                -1.823479668996667,
                2.2311143723474385,
                -0.48499738568894274,
                1.2309232756497166,
                -2.147160748667482
            ]
        },
        {
            "positions": [
                -2.689178069653811,
                -1.7409559462758524,
                2.2033559743193085,
                -0.5278679034578722,
                1.1608586842735982,
                -2.2738773577107825
            ]
        },
        {
            "positions": [
                -2.658304651484727,
                -1.658432223555038,
                2.1755975762911786,
                -0.5707384212268015,
                1.0907940928974798,
                -2.400593966754083
            ]
        },
        {
            "positions": [
                -2.6274312333156424,
                -1.575908500834223,
                2.1478391782630486,
                -0.6136089389957309,
                1.020729501521361,
                -2.527310575797384
            ]
        },
        {
            "positions": [
                -2.596557815146558,
                -1.4933847781134086,
                2.120080780234918,
                -0.6564794567646604,
                0.9506649101452426,
                -2.6540271848406842
            ]
        },
        {
            "positions": [
                -2.5656843969774736,
                -1.4108610553925942,
                2.0923223822067882,
                -0.6993499745335896,
                0.8806003187691241,
                -2.7807437938839845
            ]
        },
        {
            "positions": [
                -2.5348109788083897,
                -1.3283373326717798,
                2.0645639841786583,
                -0.742220492302519,
                0.8105357273930057,
                -2.9074604029272852
            ]
        },
        {
            "positions": [
                -2.5039375606393053,
                -1.245813609950965,
                2.0368055861505283,
                -0.7850910100714484,
                0.7404711360168871,
                -3.034177011970586
            ]
        },
        {
            "positions": [
                -2.473064142470221,
                -1.1632898872301505,
                2.0090471881223984,
                -0.8279615278403778,
                0.6704065446407687,
                -3.1608936210138863
            ]
        }
    ]
}