{
    "goal": {
        "global_pose": {
            "orientation": {
                "w": 0.005598929693374612,
                "x": 0.007748599140229565,
                "y": 0.7110244013736278,
                "z": -0.7031023480610252
            },
            "position": {
                "x": 0.1141497679147869,
                "y": -0.7141253447532654,
                "z": 0.3711530566215515
            }
        },
        "name": "move_to_auspresseinheit_B"
    },
    "id": "ProjEST_move_to_auspresseinheit_B_111",
    "joint_names": [
        "shoulder_pan_joint",
        "shoulder_lift_joint",
        "elbow_joint",
        "wrist_1_joint",
        "wrist_2_joint",
        "wrist_3_joint"
    ],
    "metrics": {
        "cart_traj_len": 0.5650784036676274,
        "distance_elbow_joint": 0.06505252173075804,
        "distance_shoulder_lift_joint": 0.29421515856519154,
        "distance_shoulder_pan_joint": 0.575470300730538,
        "distance_wrist_1_joint": 0.3344551116201627,
        "distance_wrist_2_joint": 1.0042521727460874,
        "distance_wrist_3_joint": 0.0054621336482951754,
        "smoothness": 2.5376526478085547e-16,
        "time": 0.012965121,
        "traj_len": 1.5096050473686926,
        "weighted_distance": 1.9048724237344279
    },
    "planner": "ProjEST",
    "start": {
        "state": {
            "elbow_joint": 2.0193083361928714,
            "shoulder_lift_joint": -1.1220246554650708,
            "shoulder_pan_joint": -1.0952077554168747,
            "wrist_1_joint": -0.8559753972642168,
            "wrist_2_joint": 0.4759566250798843,
            "wrist_3_joint": -3.1240929996934557
        }
    },
    "waypoints": [
        {
            "positions": [
                -1.0952077554168747,
                -1.1220246554650708,
                2.0193083361928714,
                -0.8559753972642168,
                0.4759566250798843,
                -3.1240929996934557
            ]
        },
        {
            "positions": [
                -1.1911194722052976,
                -1.1710605152259361,
                2.008466249237745,
                -0.8002328786608564,
                0.6433319872042322,
                -3.125003355301505
            ]
        },
        {
            "positions": [
                -1.2870311889937207,
                -1.2200963749868012,
                1.9976241622826187,
                -0.7444903600574959,
                0.8107073493285801,
                -3.125913710909554
            ]
        },
        {
            "positions": [
                -1.3829429057821436,
                -1.2691322347476666,
                1.9867820753274925,
                -0.6887478414541355,
                0.978082711452928,
                -3.126824066517603
            ]
        },
        {
            "positions": [
                -1.4788546225705665,
                -1.318168094508532,
                1.975939988372366,
                -0.633005322850775,
                1.145458073577276,
                -3.1277344221256524
            ]
        },
        {
            "positions": [
                -1.5747663393589897,
                -1.367203954269397,
                1.9650979014172396,
                -0.5772628042474145,
                1.3128334357016238,
                -3.128644777733702
            ]
        },
        {
            "positions": [
                -1.6706780561474126,
                -1.4162398140302623,
                1.9542558144621134,
                -0.5215202856440541,
                1.4802087978259717,
                -3.129555133341751
            ]
        }
    ]
}