{
    "goal": {
        "global_pose": {
            "orientation": {
                "w": 0.5084816262002911,
                "x": -0.4908360881923452,
                "y": 0.5182115481033761,
                "z": -0.48164630358495003
            },
            "position": {
                "x": 0.5540239810943604,
                "y": -0.46912469901144505,
                "z": 0.16403168439865112
            }
        },
        "name": "move_to_storage_B"
    },
    "id": "ProjEST_move_to_storage_B_65",
    "joint_names": [
        "shoulder_pan_joint",
        "shoulder_lift_joint",
        "elbow_joint",
        "wrist_1_joint",
        "wrist_2_joint",
        "wrist_3_joint"
    ],
    "metrics": {
        "cart_traj_len": 2.1990567688939393,
        "distance_elbow_joint": 2.0267079768578364,
        "distance_shoulder_lift_joint": 0.4584473668450253,
        "distance_shoulder_pan_joint": 1.887915411978156,
        "distance_wrist_1_joint": 3.1143050216475268,
        "distance_wrist_2_joint": 2.7009792267580917,
        "distance_wrist_3_joint": 3.1433450579984066,
        "smoothness": 0.2277112644859799,
        "time": 0.07471937000000001,
        "traj_len": 3.651260064975521,
        "weighted_distance": 5.043180982920153
    },
    "planner": "ProjEST",
    "start": {
        "state": {
            "elbow_joint": 1.664937868594044,
            "shoulder_lift_joint": -0.661644460510453,
            "shoulder_pan_joint": -0.9139846352900073,
            "wrist_1_joint": 2.146753192139373,
            "wrist_2_joint": -2.2341966793290973,
            "wrist_3_joint": 0.005466555786416001
        }
    },
    "waypoints": [
        {
            "positions": [
                -0.9139846352900073,
                -0.661644460510453,
                1.664937868594044,
                2.146753192139373,
                -2.2341966793290973,
                0.005466555786416001
            ]
        },
        {
            "positions": [
                -0.8192123110774492,
                -0.6875533901188258,
                1.571813000899282,
                2.153534179903004,
                -2.1142492380943416,
                0.031946732357469684
            ]
        },
        {
            "positions": [
                -0.724439986864891,
                -0.7134623197271985,
                1.4786881332045205,
                2.160315167666635,
                -1.9943017968595862,
                0.05842690892852337
            ]
        },
        {
            "positions": [
                -0.6296676626523329,
                -0.7393712493355713,
                1.385563265509759,
                2.167096155430266,
                -1.8743543556248308,
                0.08490708549957705
            ]
        },
        {
            "positions": [
                -0.5348953384397748,
                -0.7652801789439441,
                1.2924383978149971,
                2.173877143193897,
                -1.7544069143900753,
                0.11138726207063074
            ]
        },
        {
            "positions": [
                -0.44012301422721656,
                -0.7911891085523168,
                1.1993135301202353,
                2.1806581309575277,
                -1.6344594731553197,
                0.13786743864168444
            ]
        },
        {
            "positions": [
                -0.34535069001465846,
                -0.8170980381606896,
                1.1061886624254738,
                2.1874391187211586,
                -1.5145120319205643,
                0.1643476152127381
            ]
        },
        {
            "positions": [
                -0.25057836580210036,
                -0.8430069677690624,
                1.013063794730712,
                2.1942201064847895,
                -1.3945645906858086,
                0.1908277917837918
            ]
        },
        {
            "positions": [
                -0.15580604158954225,
                -0.8689158973774351,
                0.9199389270359503,
                2.2010010942484204,
                -1.2746171494510534,
                0.21730796835484548
            ]
        },
        {
            "positions": [
                -0.06103371737698404,
                -0.8948248269858079,
                0.8268140593411886,
                2.2077820820120513,
                -1.1546697082162978,
                0.24378814492589918
            ]
        },
        {
            "positions": [
                -0.10084004407179686,
                -0.9034889423846414,
                0.8725288350183033,
                2.0903483846360955,
                -1.092306159922248,
                0.35551981680508854
            ]
        },
        {
            "positions": [
                -0.14064637076660969,
                -0.9121530577834749,
                0.9182436106954179,
                1.9729146872601397,
                -1.0299426116281982,
                0.4672514886842779
            ]
        },
        {
            "positions": [
                -0.1804526974614225,
                -0.9208171731823084,
                0.9639583863725325,
                1.855480989884184,
                -0.9675790633341486,
                0.5789831605634673
            ]
        },
        {
            "positions": [
                -0.22025902415623533,
                -0.9294812885811418,
                1.0096731620496473,
                1.7380472925082284,
                -0.9052155150400989,
                0.6907148324426566
            ]
        },
        {
            "positions": [
                -0.26006535085104815,
                -0.9381454039799753,
                1.0553879377267619,
                1.6206135951322727,
                -0.8428519667460491,
                0.802446504321846
            ]
        },
        {
            "positions": [
                -0.29987167754586097,
                -0.9468095193788088,
                1.1011027134038764,
                1.5031798977563169,
                -0.7804884184519993,
                0.9141781762010355
            ]
        },
        {
            "positions": [
                -0.33967800424067374,
                -0.9554736347776422,
                1.1468174890809912,
                1.3857462003803613,
                -0.7181248701579497,
                1.0259098480802247
            ]
        },
        {
            "positions": [
                -0.3794843309354866,
                -0.9641377501764757,
                1.1925322647581058,
                1.2683125030044056,
                -0.6557613218639,
                1.137641519959414
            ]
        },
        {
            "positions": [
                -0.4192906576302994,
                -0.9728018655753092,
                1.2382470404352204,
                1.1508788056284498,
                -0.5933977735698502,
                1.2493731918386035
            ]
        },
        {
            "positions": [
                -0.45909698432511226,
                -0.9814659809741426,
                1.2839618161123352,
                1.033445108252494,
                -0.5310342252758005,
                1.361104863717793
            ]
        },
        {
            "positions": [
                -0.498903311019925,
                -0.9901300963729761,
                1.3296765917894497,
                0.9160114108765385,
                -0.4686706769817508,
                1.4728365355969821
            ]
        },
        {
            "positions": [
                -0.5387096377147379,
                -0.9987942117718096,
                1.3753913674665645,
                0.7985777135005825,
                -0.406307128687701,
                1.5845682074761718
            ]
        },
        {
            "positions": [
                -0.5785159644095507,
                -1.0074583271706432,
                1.4211061431436791,
                0.6811440161246269,
                -0.34394358039365136,
                1.696299879355361
            ]
        },
        {
            "positions": [
                -0.6183222911043634,
                -1.0161224425694766,
                1.4668209188207937,
                0.5637103187486714,
                -0.2815800320996017,
                1.8080315512345502
            ]
        },
        {
            "positions": [
                -0.6581286177991762,
                -1.02478655796831,
                1.5125356944979083,
                0.4462766213727156,
                -0.21921648380555203,
                1.9197632231137396
            ]
        },
        {
            "positions": [
                -0.6979349444939892,
                -1.0334506733671436,
                1.558250470175023,
                0.32884292399675963,
                -0.15685293551150215,
                2.031494894992929
            ]
        },
        {
            "positions": [
                -0.737741271188802,
                -1.042114788765977,
                1.6039652458521378,
                0.21140922662080408,
                -0.09448938721745237,
                2.1432265668721184
            ]
        },
        {
            "positions": [
                -0.7775475978836147,
                -1.0507789041648106,
                1.6496800215292524,
                0.09397552924484831,
                -0.032125838923402705,
                2.254958238751308
            ]
        },
        {
            "positions": [
                -0.8173539245784275,
                -1.059443019563644,
                1.695394797206367,
                -0.02345816813110746,
                0.03023770937064696,
                2.3666899106304973
            ]
        },
        {
            "positions": [
                -0.8571602512732405,
                -1.0681071349624776,
                1.7411095728834818,
                -0.14089186550706323,
                0.09260125766469685,
                2.4784215825096867
            ]
        },
        {
            "positions": [
                -0.8969665779680532,
                -1.076771250361311,
                1.7868243485605964,
                -0.258325562883019,
                0.1549648059587465,
                2.590153254388876
            ]
        },
        {
            "positions": [
                -0.936772904662866,
                -1.0854353657601443,
                1.832539124237711,
                -0.3757592602589743,
                0.21732835425279617,
                2.701884926268065
            ]
        },
        {
            "positions": [
                -0.9765792313576788,
                -1.094099481158978,
                1.8782538999148257,
                -0.4931929576349301,
                0.27969190254684584,
                2.8136165981472545
            ]
        },
        {
            "positions": [
                -1.0163855580524919,
                -1.1027635965578113,
                1.9239686755919405,
                -0.6106266550108863,
                0.3420554508408957,
                2.9253482700264444
            ]
        },
        {
            "positions": [
                -1.0561918847473044,
                -1.111427711956645,
                1.969683451269055,
                -0.7280603523868416,
                0.4044189991349454,
                3.0370799419056334
            ]
        },
        {
            "positions": [
                -1.0959982114421174,
                -1.1200918273554783,
                2.0153982269461697,
                -0.8454940497627973,
                0.4667825474289951,
                3.1488116137848228
            ]
        }
    ]
}