{
    "goal": {
        "global_pose": {
            "orientation": {
                "w": -0.00223480608172531,
                "x": 0.0024358444001904467,
                "y": 0.7094548369677653,
                "z": -0.704743149386269
            },
            "position": {
                "x": 0.6205249238014221,
                "y": -0.6371506643295288,
                "z": 0.19426114857196808
            }
        },
        "name": "move_to_magneteinheit_B"
    },
    "id": "ProjEST_move_to_magneteinheit_B_80",
    "joint_names": [
        "shoulder_pan_joint",
        "shoulder_lift_joint",
        "elbow_joint",
        "wrist_1_joint",
        "wrist_2_joint",
        "wrist_3_joint"
    ],
    "metrics": {
        "cart_traj_len": 1.7737863475724422,
        "distance_elbow_joint": 1.1747407178534113,
        "distance_shoulder_lift_joint": 1.3502880113057212,
        "distance_shoulder_pan_joint": 1.6199727893168427,
        "distance_wrist_1_joint": 3.6549362299456387,
        "distance_wrist_2_joint": 1.899738142302889,
        "distance_wrist_3_joint": 1.7841464681227674,
        "smoothness": 0.7221336057730088,
        "time": 0.329787104,
        "traj_len": 3.3887788890465065,
        "weighted_distance": 4.539470196767607
    },
    "planner": "ProjEST",
    "start": {
        "state": {
            "elbow_joint": 2.6216224122426386,
            "shoulder_lift_joint": -1.4174107377796124,
            "shoulder_pan_joint": 0.7066234856936794,
            "wrist_1_joint": 1.9546482284002225,
            "wrist_2_joint": -0.7096286983471962,
            "wrist_3_joint": 0.005740856962016249
        }
    },
    "waypoints": [
        {
            "positions": [
                0.7066234856936794,
                -1.4174107377796124,
                2.6216224122426386,
                1.9546482284002225,
                -0.7096286983471962,
                0.005740856962016249
            ]
        },
        {
            "positions": [
                0.6457517174895738,
                -1.4499453572927938,
                2.60145038825157,
                1.8623197663754223,
                -0.6485317105522244,
                0.044561394752121175
            ]
        },
        {
            "positions": [
                0.5848799492854683,
                -1.4824799768059755,
                2.5812783642605006,
                1.769991304350622,
                -0.5874347227572525,
                0.0833819325422261
            ]
        },
        {
            "positions": [
                0.5240081810813627,
                -1.515014596319157,
                2.561106340269432,
                1.6776628423258217,
                -0.5263377349622806,
                0.12220247033233103
            ]
        },
        {
            "positions": [
                0.49829020685719,
                -1.5330677294600856,
                2.4695255621102206,
                1.545127616590673,
                -0.5500073542275951,
                0.04056622880186987
            ]
        },
        {
            "positions": [
                0.4725722326330173,
                -1.5511208626010144,
                2.377944783951009,
                1.4125923908555245,
                -0.5736769734929096,
                -0.04107001272859129
            ]
        },
        {
            "positions": [
                0.44685425840884463,
                -1.569173995741943,
                2.2863640057917975,
                1.2800571651203756,
                -0.597346592758224,
                -0.12270625425905243
            ]
        },
        {
            "positions": [
                0.4211362841846719,
                -1.5872271288828717,
                2.194783227632586,
                1.147521939385227,
                -0.6210162120235385,
                -0.2043424957895136
            ]
        },
        {
            "positions": [
                0.3954183099604992,
                -1.6052802620238005,
                2.1032024494733745,
                1.014986713650078,
                -0.6446858312888529,
                -0.2859787373199747
            ]
        },
        {
            "positions": [
                0.36970033573632655,
                -1.623333395164729,
                2.0116216713141633,
                0.8824514879149296,
                -0.6683554505541675,
                -0.3676149788504359
            ]
        },
        {
            "positions": [
                0.34398236151215383,
                -1.6413865283056577,
                1.9200408931549517,
                0.7499162621797808,
                -0.6920250698194819,
                -0.44925122038089704
            ]
        },
        {
            "positions": [
                0.3182643872879811,
                -1.6594396614465865,
                1.8284601149957402,
                0.6173810364446322,
                -0.7156946890847964,
                -0.5308874619113583
            ]
        },
        {
            "positions": [
                0.2925464130638084,
                -1.677492794587515,
                1.7368793368365287,
                0.4848458107094833,
                -0.7393643083501108,
                -0.6125237034418195
            ]
        },
        {
            "positions": [
                0.26682843883963575,
                -1.695545927728444,
                1.6452985586773174,
                0.35231058497433465,
                -0.7630339276154252,
                -0.6941599449722805
            ]
        },
        {
            "positions": [
                0.24111046461546304,
                -1.7135990608693725,
                1.553717780518106,
                0.21977535923918595,
                -0.7867035468807397,
                -0.7757961865027417
            ]
        },
        {
            "positions": [
                0.17320106648377911,
                -1.651593196856669,
                1.5600022561727458,
                0.33272026281475076,
                -0.8723553919983582,
                -0.7305205278017194
            ]
        },
        {
            "positions": [
                0.10529166835209519,
                -1.5895873328439654,
                1.5662867318273859,
                0.4456651663903156,
                -0.9580072371159767,
                -0.685244869100697
            ]
        },
        {
            "positions": [
                0.03738227022041127,
                -1.527581468831262,
                1.5725712074820257,
                0.5586100699658805,
                -1.0436590822335952,
                -0.6399692103996747
            ]
        },
        {
            "positions": [
                -0.030527127911272656,
                -1.4655756048185582,
                1.5788556831366656,
                0.6715549735414452,
                -1.1293109273512136,
                -0.5946935516986523
            ]
        },
        {
            "positions": [
                -0.09843652604295655,
                -1.4035697408058547,
                1.5851401587913054,
                0.7844998771170102,
                -1.214962772468832,
                -0.54941789299763
            ]
        },
        {
            "positions": [
                -0.1663459241746405,
                -1.3415638767931513,
                1.5914246344459455,
                0.8974447806925749,
                -1.3006146175864508,
                -0.5041422342966075
            ]
        },
        {
            "positions": [
                -0.23425532230632434,
                -1.2795580127804476,
                1.5977091101005854,
                1.0103896842681397,
                -1.3862664627040693,
                -0.45886657559558525
            ]
        },
        {
            "positions": [
                -0.30216472043800835,
                -1.217552148767744,
                1.6039935857552252,
                1.1233345878437047,
                -1.4719183078216878,
                -0.4135909168945629
            ]
        },
        {
            "positions": [
                -0.3700741185696922,
                -1.1555462847550406,
                1.6102780614098653,
                1.2362794914192696,
                -1.5575701529393062,
                -0.36831525819354055
            ]
        },
        {
            "positions": [
                -0.43798351670137614,
                -1.093540420742337,
                1.6165625370645051,
                1.3492243949948344,
                -1.6432219980569247,
                -0.3230395994925182
            ]
        },
        {
            "positions": [
                -0.5058929148330601,
                -1.0315345567296332,
                1.622847012719145,
                1.4621692985703993,
                -1.7288738431745432,
                -0.2777639407914958
            ]
        },
        {
            "positions": [
                -0.573802312964744,
                -0.9695286927169298,
                1.629131488373785,
                1.575114202145964,
                -1.8145256882921617,
                -0.23248828209047345
            ]
        },
        {
            "positions": [
                -0.6417117110964279,
                -0.9075228287042263,
                1.635415964028425,
                1.6880591057215288,
                -1.90017753340978,
                -0.18721262338945122
            ]
        },
        {
            "positions": [
                -0.7096211092281117,
                -0.8455169646915227,
                1.6417004396830648,
                1.8010040092970936,
                -1.9858293785273986,
                -0.14193696468842876
            ]
        },
        {
            "positions": [
                -0.7775305073597957,
                -0.7835111006788191,
                1.6479849153377046,
                1.9139489128726586,
                -2.071481223645017,
                -0.09666130598740641
            ]
        },
        {
            "positions": [
                -0.8454399054914797,
                -0.7215052366661155,
                1.6542693909923447,
                2.026893816448223,
                -2.1571330687626356,
                -0.05138564728638406
            ]
        },
        {
            "positions": [
                -0.9133493036231637,
                -0.6594993726534119,
                1.6605538666469846,
                2.1398387200237883,
                -2.242784913880254,
                -0.006109988585361766
            ]
        }
    ]
}