{
    "goal": {
        "global_pose": {
            "orientation": {
                "w": -0.00223480608172531,
                "x": 0.0024358444001904467,
                "y": 0.7094548369677653,
                "z": -0.704743149386269
            },
            "position": {
                "x": 0.6205249238014221,
                "y": -0.6371506643295288,
                "z": 0.19426114857196808
            }
        },
        "name": "move_to_magneteinheit_B"
    },
    "id": "ProjEST_move_to_magneteinheit_B_85",
    "joint_names": [
        "shoulder_pan_joint",
        "shoulder_lift_joint",
        "elbow_joint",
        "wrist_1_joint",
        "wrist_2_joint",
        "wrist_3_joint"
    ],
    "metrics": {
        "cart_traj_len": 6.581109402893714,
        "distance_elbow_joint": 6.286331296995451,
        "distance_shoulder_lift_joint": 3.596453829677185,
        "distance_shoulder_pan_joint": 9.907189817689869,
        "distance_wrist_1_joint": 4.954944276148966,
        "distance_wrist_2_joint": 6.159504043425606,
        "distance_wrist_3_joint": 8.71423732539396,
        "smoothness": 0.4373524652388791,
        "time": 1.585053892,
        "traj_len": 6.294335595543911,
        "weighted_distance": 8.256002880310392
    },
    "planner": "ProjEST",
    "start": {
        "state": {
            "elbow_joint": 2.6216224122426386,
            "shoulder_lift_joint": -1.4174107377796124,
            "shoulder_pan_joint": 0.7066234856936794,
            "wrist_1_joint": 1.9546482284002225,
            "wrist_2_joint": -0.7096286983471962,
            "wrist_3_joint": 0.005740856962016249
        }
    },
    "waypoints": [
        {
            "positions": [
                0.7066234856936794,
                -1.4174107377796124,
                2.6216224122426386,
                1.9546482284002225,
                -0.7096286983471962,
                0.005740856962016249
            ]
        },
        {
            "positions": [
                0.7100726964292781,
                -1.4704155520980988,
                2.5417185368743676,
                1.8009932243176041,
                -0.7712184861855125,
                0.0018390459863655687
            ]
        },
        {
            "positions": [
                0.7135219071648766,
                -1.5234203664165853,
                2.4618146615060965,
                1.6473382202349858,
                -0.8328082740238288,
                -0.002062764989285111
            ]
        },
        {
            "positions": [
                0.7169711179004752,
                -1.5764251807350715,
                2.381910786137825,
                1.4936832161523677,
                -0.8943980618621452,
                -0.005964575964935791
            ]
        },
        {
            "positions": [
                0.7204203286360739,
                -1.629429995053558,
                2.302006910769554,
                1.3400282120697493,
                -0.9559878497004615,
                -0.009866386940586471
            ]
        },
        {
            "positions": [
                0.6199348298768012,
                -1.6267098648253084,
                2.267103071034679,
                1.220637882795591,
                -0.9168004268661882,
                0.0860914209141094
            ]
        },
        {
            "positions": [
                0.5194493311175286,
                -1.6239897345970589,
                2.2321992312998042,
                1.1012475535214328,
                -0.8776130040319151,
                0.18204922876880528
            ]
        },
        {
            "positions": [
                0.41896383235825585,
                -1.6212696043688093,
                2.1972953915649294,
                0.9818572242472745,
                -0.8384255811976419,
                0.2780070366235012
            ]
        },
        {
            "positions": [
                0.3184783335989832,
                -1.6185494741405597,
                2.1623915518300545,
                0.8624668949731163,
                -0.7992381583633688,
                0.37396484447819706
            ]
        },
        {
            "positions": [
                0.21799283483971055,
                -1.61582934391231,
                2.1274877120951796,
                0.7430765656989581,
                -0.7600507355290955,
                0.46992265233289293
            ]
        },
        {
            "positions": [
                0.11750733608043784,
                -1.6131092136840604,
                2.0925838723603047,
                0.6236862364247998,
                -0.7208633126948224,
                0.5658804601875888
            ]
        },
        {
            "positions": [
                0.017021837321165245,
                -1.6103890834558108,
                2.05768003262543,
                0.5042959071506417,
                -0.6816758898605493,
                0.6618382680422846
            ]
        },
        {
            "positions": [
                -0.08346366143810746,
                -1.6076689532275612,
                2.022776192890555,
                0.3849055778764834,
                -0.642488467026276,
                0.7577960758969805
            ]
        },
        {
            "positions": [
                -0.18394916019738017,
                -1.6049488229993116,
                1.9878723531556801,
                0.2655152486023251,
                -0.6033010441920028,
                0.8537538837516764
            ]
        },
        {
            "positions": [
                -0.28443465895665276,
                -1.602228692771062,
                1.9529685134208052,
                0.14612491932816685,
                -0.5641136213577296,
                0.9497116916063723
            ]
        },
        {
            "positions": [
                -0.38492015771592547,
                -1.5995085625428125,
                1.9180646736859304,
                0.026734590054008578,
                -0.5249261985234565,
                1.0456694994610682
            ]
        },
        {
            "positions": [
                -0.4854056564751982,
                -1.596788432314563,
                1.8831608339510555,
                -0.09265573922014969,
                -0.4857387756891833,
                1.1416273073157641
            ]
        },
        {
            "positions": [
                -0.5858911552344707,
                -1.5940683020863131,
                1.8482569942161808,
                -0.21204606849430774,
                -0.4465513528549101,
                1.23758511517046
            ]
        },
        {
            "positions": [
                -0.6863766539937434,
                -1.5913481718580635,
                1.813353154481306,
                -0.331436397768466,
                -0.407363930020637,
                1.3335429230251559
            ]
        },
        {
            "positions": [
                -0.7868621527530161,
                -1.588628041629814,
                1.778449314746431,
                -0.4508267270426243,
                -0.36817650718636374,
                1.4295007308798517
            ]
        },
        {
            "positions": [
                -0.8873476515122888,
                -1.5859079114015644,
                1.7435454750115562,
                -0.5702170563167825,
                -0.3289890843520906,
                1.5254585387345476
            ]
        },
        {
            "positions": [
                -0.9878331502715615,
                -1.5831877811733148,
                1.7086416352766813,
                -0.6896073855909408,
                -0.2898016615178174,
                1.6214163465892435
            ]
        },
        {
            "positions": [
                -1.088318649030834,
                -1.5804676509450652,
                1.6737377955418065,
                -0.8089977148650991,
                -0.25061423868354415,
                1.7173741544439394
            ]
        },
        {
            "positions": [
                -1.188804147790107,
                -1.5777475207168157,
                1.6388339558069316,
                -0.9283880441392574,
                -0.21142681584927103,
                1.8133319622986352
            ]
        },
        {
            "positions": [
                -1.2892896465493795,
                -1.575027390488566,
                1.6039301160720567,
                -1.0477783734134156,
                -0.1722393930149978,
                1.9092897701533311
            ]
        },
        {
            "positions": [
                -1.3897751453086524,
                -1.5723072602603165,
                1.5690262763371818,
                -1.1671687026875739,
                -0.13305197018072468,
                2.005247578008027
            ]
        },
        {
            "positions": [
                -1.490260644067925,
                -1.5695871300320667,
                1.534122436602307,
                -1.2865590319617322,
                -0.09386454734645144,
                2.101205385862723
            ]
        },
        {
            "positions": [
                -1.5907461428271978,
                -1.5668669998038172,
                1.499218596867432,
                -1.4059493612358904,
                -0.05467712451217821,
                2.1971631937174187
            ]
        },
        {
            "positions": [
                -1.6912316415864703,
                -1.5641468695755676,
                1.4643147571325572,
                -1.5253396905100487,
                -0.015489701677905088,
                2.2931210015721146
            ]
        },
        {
            "positions": [
                -1.7917171403457433,
                -1.561426739347318,
                1.4294109173976823,
                -1.644730019784207,
                0.023697721156368146,
                2.3890788094268105
            ]
        },
        {
            "positions": [
                -1.8922026391050153,
                -1.5587066091190684,
                1.3945070776628077,
                -1.7641203490583648,
                0.06288514399064127,
                2.4850366172815064
            ]
        },
        {
            "positions": [
                -1.9926881378642882,
                -1.5559864788908189,
                1.3596032379279328,
                -1.883510678332523,
                0.10207256682491428,
                2.5809944251362023
            ]
        },
        {
            "positions": [
                -2.0931736366235607,
                -1.5532663486625693,
                1.324699398193058,
                -2.002901007606681,
                0.1412599896591875,
                2.676952232990898
            ]
        },
        {
            "positions": [
                -2.1936591353828336,
                -1.5505462184343197,
                1.289795558458183,
                -2.1222913368808394,
                0.18044741249346075,
                2.772910040845594
            ]
        },
        {
            "positions": [
                -2.294144634142106,
                -1.5478260882060701,
                1.2548917187233082,
                -2.2416816661549976,
                0.21963483532773398,
                2.86886784870029
            ]
        },
        {
            "positions": [
                -2.394630132901379,
                -1.5451059579778204,
                1.2199878789884333,
                -2.361071995429156,
                0.2588222581620072,
                2.9648256565549858
            ]
        },
        {
            "positions": [
                -2.4951156316606515,
                -1.5423858277495708,
                1.1850840392535584,
                -2.480462324703314,
                0.2980096809962802,
                3.0607834644096816
            ]
        },
        {
            "positions": [
                -2.5956011304199245,
                -1.5396656975213212,
                1.1501801995186836,
                -2.5998526539774724,
                0.33719710383055346,
                3.1567412722643775
            ]
        },
        {
            "positions": [
                -2.696086629179197,
                -1.5369455672930716,
                1.1152763597838087,
                -2.7192429832516307,
                0.3763845266648267,
                3.2526990801190734
            ]
        },
        {
            "positions": [
                -2.5552115873791914,
                -1.5054596917729868,
                1.0253902341695842,
                -2.7161973021823953,
                0.3116690809976304,
                3.1865192095943313
            ]
        },
        {
            "positions": [
                -2.4143365455791854,
                -1.473973816252902,
                0.9355041085553599,
                -2.71315162111316,
                0.2469536353304341,
                3.1203393390695893
            ]
        },
        {
            "positions": [
                -2.2734615037791794,
                -1.442487940732817,
                0.8456179829411354,
                -2.710105940043925,
                0.18223818966323782,
                3.054159468544847
            ]
        },
        {
            "positions": [
                -2.132586461979174,
                -1.4110020652127322,
                0.7557318573269112,
                -2.7070602589746895,
                0.11752274399604151,
                2.9879795980201056
            ]
        },
        {
            "positions": [
                -1.9917114201791681,
                -1.3795161896926473,
                0.6658457317126867,
                -2.704014577905454,
                0.05280729832884523,
                2.9217997274953635
            ]
        },
        {
            "positions": [
                -1.8508363783791624,
                -1.3480303141725625,
                0.5759596060984623,
                -2.7009688968362187,
                -0.01190814733835105,
                2.8556198569706215
            ]
        },
        {
            "positions": [
                -1.7099613365791566,
                -1.3165444386524774,
                0.48607348048423793,
                -2.6979232157669837,
                -0.07662359300554733,
                2.7894399864458794
            ]
        },
        {
            "positions": [
                -1.5690862947791508,
                -1.2850585631323925,
                0.39618735487001355,
                -2.6948775346977483,
                -0.14133903867274367,
                2.7232601159211374
            ]
        },
        {
            "positions": [
                -1.428211252979145,
                -1.2535726876123077,
                0.3063012292557892,
                -2.691831853628513,
                -0.2060544843399399,
                2.6570802453963953
            ]
        },
        {
            "positions": [
                -1.2873362111791393,
                -1.2220868120922228,
                0.2164151036415648,
                -2.6887861725592774,
                -0.27076993000713623,
                2.5909003748716533
            ]
        },
        {
            "positions": [
                -1.1464611693791333,
                -1.190600936572138,
                0.1265289780273403,
                -2.6857404914900425,
                -0.33548537567433256,
                2.524720504346911
            ]
        },
        {
            "positions": [
                -1.0055861275791278,
                -1.159115061052053,
                0.036642852413115934,
                -2.682694810420807,
                -0.4002008213415288,
                2.4585406338221696
            ]
        },
        {
            "positions": [
                -0.8647110857791218,
                -1.1276291855319682,
                -0.053243273201108554,
                -2.6796491293515716,
                -0.4649162670087251,
                2.3923607632974275
            ]
        },
        {
            "positions": [
                -0.7238360439791163,
                -1.0961433100118834,
                -0.14312939881533282,
                -2.676603448282336,
                -0.5296317126759214,
                2.3261808927726855
            ]
        },
        {
            "positions": [
                -0.5829610021791103,
                -1.0646574344917985,
                -0.2330155244295573,
                -2.6735577672131012,
                -0.5943471583431177,
                2.2600010222479434
            ]
        },
        {
            "positions": [
                -0.44208596037910475,
                -1.0331715589717136,
                -0.3229016500437816,
                -2.670512086143866,
                -0.659062604010314,
                2.193821151723202
            ]
        },
        {
            "positions": [
                -0.30121091857909876,
                -1.0016856834516288,
                -0.41278777565800606,
                -2.6674664050746304,
                -0.7237780496775104,
                2.1276412811984597
            ]
        },
        {
            "positions": [
                -0.16033587677909322,
                -0.9701998079315439,
                -0.5026739012722303,
                -2.664420724005395,
                -0.7884934953447065,
                2.0614614106737177
            ]
        },
        {
            "positions": [
                -0.019460834979087238,
                -0.938713932411459,
                -0.5925600268864548,
                -2.66137504293616,
                -0.8532089410119028,
                1.9952815401489754
            ]
        },
        {
            "positions": [
                0.1214142068209183,
                -0.9072280568913741,
                -0.6824461525006791,
                -2.6583293618669246,
                -0.9179243866790991,
                1.9291016696242336
            ]
        },
        {
            "positions": [
                0.2622892486209243,
                -0.8757421813712892,
                -0.7723322781149036,
                -2.655283680797689,
                -0.9826398323462955,
                1.8629217990994915
            ]
        },
        {
            "positions": [
                0.40316429042093027,
                -0.8442563058512044,
                -0.8622184037291281,
                -2.6522379997284538,
                -1.0473552780134918,
                1.7967419285747495
            ]
        },
        {
            "positions": [
                0.5440393322209363,
                -0.8127704303311194,
                -0.9521045293433525,
                -2.6491923186592183,
                -1.1120707236806882,
                1.7305620580500074
            ]
        },
        {
            "positions": [
                0.6849143740209414,
                -0.7812845548110346,
                -1.0419906549575768,
                -2.6461466375899834,
                -1.1767861693478843,
                1.6643821875252656
            ]
        },
        {
            "positions": [
                0.8257894158209473,
                -0.7497986792909497,
                -1.131876780571801,
                -2.643100956520748,
                -1.2415016150150806,
                1.5982023170005235
            ]
        },
        {
            "positions": [
                0.9666644576209533,
                -0.7183128037708648,
                -1.2217629061860258,
                -2.6400552754515125,
                -1.306217060682277,
                1.5320224464757815
            ]
        },
        {
            "positions": [
                1.1075394994209593,
                -0.68682692825078,
                -1.31164903180025,
                -2.637009594382277,
                -1.3709325063494733,
                1.4658425759510394
            ]
        },
        {
            "positions": [
                1.2484145412209644,
                -0.6553410527306951,
                -1.4015351574144743,
                -2.633963913313042,
                -1.4356479520166694,
                1.3996627054262976
            ]
        },
        {
            "positions": [
                1.3892895830209708,
                -0.6238551772106102,
                -1.4914212830286986,
                -2.6309182322438067,
                -1.5003633976838657,
                1.3334828349015555
            ]
        },
        {
            "positions": [
                1.5301646248209764,
                -0.5923693016905254,
                -1.5813074086429233,
                -2.6278725511745713,
                -1.565078843351062,
                1.2673029643768134
            ]
        },
        {
            "positions": [
                1.671039666620982,
                -0.5608834261704404,
                -1.6711935342571476,
                -2.624826870105336,
                -1.6297942890182586,
                1.2011230938520714
            ]
        },
        {
            "positions": [
                1.8119147084209875,
                -0.5293975506503557,
                -1.7610796598713718,
                -2.621781189036101,
                -1.6945097346854547,
                1.1349432233273298
            ]
        },
        {
            "positions": [
                1.9527897502209939,
                -0.4979116751302708,
                -1.850965785485596,
                -2.6187355079668655,
                -1.7592251803526509,
                1.0687633528025877
            ]
        },
        {
            "positions": [
                2.0936647920209994,
                -0.46642579961018593,
                -1.9408519110998208,
                -2.61568982689763,
                -1.8239406260198474,
                1.0025834822778457
            ]
        },
        {
            "positions": [
                2.234539833821005,
                -0.43493992409010085,
                -2.030738036714045,
                -2.6126441458283947,
                -1.8886560716870435,
                0.9364036117531036
            ]
        },
        {
            "positions": [
                2.3754148756210105,
                -0.4034540485700162,
                -2.1206241623282693,
                -2.6095984647591597,
                -1.9533715173542396,
                0.8702237412283615
            ]
        },
        {
            "positions": [
                2.516289917421017,
                -0.37196817304993113,
                -2.2105102879424936,
                -2.6065527836899243,
                -2.018086963021436,
                0.8040438707036195
            ]
        },
        {
            "positions": [
                2.6571649592210225,
                -0.34048229752984627,
                -2.3003964135567183,
                -2.603507102620689,
                -2.0828024086886323,
                0.7378640001788774
            ]
        },
        {
            "positions": [
                2.798040001021028,
                -0.3089964220097614,
                -2.3902825391709426,
                -2.6004614215514534,
                -2.147517854355829,
                0.6716841296541354
            ]
        },
        {
            "positions": [
                2.9389150428210336,
                -0.27751054648967655,
                -2.480168664785167,
                -2.5974157404822185,
                -2.212233300023025,
                0.6055042591293938
            ]
        },
        {
            "positions": [
                3.07979008462104,
                -0.24602467096959169,
                -2.570054790399391,
                -2.594370059412983,
                -2.276948745690221,
                0.5393243886046517
            ]
        },
        {
            "positions": [
                3.2206651264210455,
                -0.21453879544950683,
                -2.659940916013616,
                -2.5913243783437476,
                -2.3416641913574177,
                0.47314451807990987
            ]
        },
        {
            "positions": [
                3.1939920663576187,
                -0.3083265751066111,
                -2.6120948222641305,
                -2.5840322612204503,
                -2.2529630581343314,
                0.5996449967652686
            ]
        },
        {
            "positions": [
                3.1673190062941923,
                -0.4021143547637154,
                -2.564248728514645,
                -2.576740144097153,
                -2.1642619249112447,
                0.7261454754506274
            ]
        },
        {
            "positions": [
                3.1406459462307654,
                -0.49590213442081965,
                -2.51640263476516,
                -2.5694480269738555,
                -2.0755607916881584,
                0.852645954135986
            ]
        },
        {
            "positions": [
                3.113972886167339,
                -0.5896899140779239,
                -2.4685565410156745,
                -2.5621559098505577,
                -1.986859658465072,
                0.9791464328213447
            ]
        },
        {
            "positions": [
                3.087299826103912,
                -0.6834776937350282,
                -2.4207104472661887,
                -2.5548637927272604,
                -1.8981585252419855,
                1.1056469115067034
            ]
        },
        {
            "positions": [
                3.060626766040486,
                -0.7772654733921325,
                -2.3728643535167033,
                -2.547571675603963,
                -1.809457392018899,
                1.232147390192062
            ]
        },
        {
            "positions": [
                3.033953705977059,
                -0.8710532530492368,
                -2.325018259767218,
                -2.5402795584806657,
                -1.7207562587958125,
                1.3586478688774208
            ]
        },
        {
            "positions": [
                3.0072806459136325,
                -0.964841032706341,
                -2.2771721660177326,
                -2.5329874413573683,
                -1.6320551255727263,
                1.4851483475627796
            ]
        },
        {
            "positions": [
                2.9806075858502057,
                -1.0586288123634453,
                -2.2293260722682473,
                -2.525695324234071,
                -1.5433539923496395,
                1.611648826248138
            ]
        },
        {
            "positions": [
                2.9539345257867793,
                -1.1524165920205496,
                -2.181479978518762,
                -2.5184032071107736,
                -1.4546528591265533,
                1.7381493049334968
            ]
        },
        {
            "positions": [
                2.9272614657233524,
                -1.246204371677654,
                -2.1336338847692766,
                -2.511111089987476,
                -1.3659517259034666,
                1.8646497836188558
            ]
        },
        {
            "positions": [
                2.900588405659926,
                -1.3399921513347581,
                -2.0857877910197913,
                -2.5038189728641784,
                -1.2772505926803803,
                1.9911502623042143
            ]
        },
        {
            "positions": [
                2.873915345596499,
                -1.4337799309918626,
                -2.0379416972703055,
                -2.496526855740881,
                -1.1885494594572938,
                2.117650740989573
            ]
        },
        {
            "positions": [
                2.847242285533073,
                -1.5275677106489667,
                -1.9900956035208204,
                -2.4892347386175837,
                -1.0998483262342074,
                2.244151219674932
            ]
        },
        {
            "positions": [
                2.820569225469646,
                -1.6213554903060712,
                -1.9422495097713348,
                -2.4819426214942863,
                -1.0111471930111209,
                2.3706516983602905
            ]
        },
        {
            "positions": [
                2.7938961654062195,
                -1.7151432699631752,
                -1.8944034160218495,
                -2.474650504370989,
                -0.9224460597880346,
                2.497152177045649
            ]
        },
        {
            "positions": [
                2.7672231053427927,
                -1.8089310496202797,
                -1.8465573222723641,
                -2.4673583872476916,
                -0.8337449265649479,
                2.623652655731008
            ]
        },
        {
            "positions": [
                2.7405500452793663,
                -1.9027188292773838,
                -1.7987112285228788,
                -2.460066270124394,
                -0.7450437933418617,
                2.750153134416366
            ]
        },
        {
            "positions": [
                2.7138769852159395,
                -1.9965066089344883,
                -1.7508651347733935,
                -2.4527741530010965,
                -0.6563426601187752,
                2.876653613101725
            ]
        },
        {
            "positions": [
                2.687203925152513,
                -2.0902943885915923,
                -1.703019041023908,
                -2.445482035877799,
                -0.5676415268956887,
                3.003154091787084
            ]
        },
        {
            "positions": [
                2.660530865089086,
                -2.184082168248697,
                -1.6551729472744225,
                -2.4381899187545018,
                -0.47894039367260227,
                3.1296545704724426
            ]
        }
    ]
}