{
    "goal": {
        "global_pose": {
            "orientation": {
                "w": 0.005598929693374612,
                "x": 0.007748599140229565,
                "y": 0.7110244013736278,
                "z": -0.7031023480610252
            },
            "position": {
                "x": -0.8858502320852131,
                "y": -0.7141253447532654,
                "z": 0.3711530566215515
            }
        },
        "name": "move_to_auspresseinheit_C"
    },
    "id": "ProjEST_move_to_auspresseinheit_C_121",
    "joint_names": [
        "shoulder_pan_joint",
        "shoulder_lift_joint",
        "elbow_joint",
        "wrist_1_joint",
        "wrist_2_joint",
        "wrist_3_joint"
    ],
    "metrics": {
        "cart_traj_len": 0.49290088238542706,
        "distance_elbow_joint": 1.0058282104998901,
        "distance_shoulder_lift_joint": 0.32797675602385623,
        "distance_shoulder_pan_joint": 0.2559957743145769,
        "distance_wrist_1_joint": 0.6928831445311083,
        "distance_wrist_2_joint": 1.3109872020213194,
        "distance_wrist_3_joint": 0.065623306779516,
        "smoothness": 8.074349294524176e-16,
        "time": 0.149920487,
        "traj_len": 1.912928225044073,
        "weighted_distance": 2.4071583567106107
    },
    "planner": "ProjEST",
    "start": {
        "state": {
            "elbow_joint": 1.7527959577737207,
            "shoulder_lift_joint": -0.9740617694225068,
            "shoulder_pan_joint": -2.967991417825858,
            "wrist_1_joint": -0.759517768980727,
            "wrist_2_joint": 1.7443932448377408,
            "wrist_3_joint": -3.0840537646736568
        }
    },
    "waypoints": [
        {
            "positions": [
                -2.967991417825858,
                -0.9740617694225068,
                1.7527959577737207,
                -0.759517768980727,
                1.7443932448377408,
                -3.0840537646736568
            ]
        },
        {
            "positions": [
                -2.9423918403944,
                -0.9412640938201211,
                1.6522131367237316,
                -0.6902294545276162,
                1.613294524635609,
                -3.090616095351608
            ]
        },
        {
            "positions": [
                -2.9167922629629426,
                -0.9084664182177355,
                1.5516303156737425,
                -0.6209411400745053,
                1.4821958044334769,
                -3.09717842602956
            ]
        },
        {
            "positions": [
                -2.891192685531485,
                -0.8756687426153499,
                1.4510474946237537,
                -0.5516528256213945,
                1.351097084231345,
                -3.1037407567075115
            ]
        },
        {
            "positions": [
                -2.865593108100027,
                -0.8428710670129642,
                1.3504646735737647,
                -0.48236451116828366,
                1.219998364029213,
                -3.1103030873854633
            ]
        },
        {
            "positions": [
                -2.8399935306685693,
                -0.8100733914105787,
                1.2498818525237756,
                -0.4130761967151728,
                1.088899643827081,
                -3.1168654180634148
            ]
        },
        {
            "positions": [
                -2.814393953237112,
                -0.7772757158081931,
                1.1492990314737868,
                -0.343787882262062,
                0.9578009236249493,
                -3.123427748741366
            ]
        },
        {
            "positions": [
                -2.7887943758056544,
                -0.7444780402058074,
                1.0487162104237977,
                -0.2744995678089512,
                0.8267022034228173,
                -3.129990079419318
            ]
        },
        {
            "positions": [
                -2.7631947983741965,
                -0.7116803646034218,
                0.9481333893738085,
                -0.20521125335584034,
                0.6956034832206852,
                -3.1365524100972695
            ]
        },
        {
            "positions": [
                -2.7375952209427385,
                -0.6788826890010362,
                0.8475505683238195,
                -0.13592293890272944,
                0.5645047630185533,
                -3.1431147407752213
            ]
        },
        {
            "positions": [
                -2.711995643511281,
                -0.6460850133986505,
                0.7469677472738306,
                -0.06663462444961869,
                0.4334060428164214,
                -3.1496770714531728
            ]
        }
    ]
}