{
    "goal": {
        "global_pose": {
            "orientation": {
                "w": 0.5084816217422485,
                "x": -0.49083608388900757,
                "y": 0.5182115435600281,
                "z": -0.4816462993621826
            },
            "position": {
                "x": 0.5540239810943604,
                "y": 0.030875300988554955,
                "z": 0.16403168439865112
            }
        },
        "name": "move_to_storage_A"
    },
    "id": "ProjEST_move_to_storage_A_104",
    "joint_names": [
        "shoulder_pan_joint",
        "shoulder_lift_joint",
        "elbow_joint",
        "wrist_1_joint",
        "wrist_2_joint",
        "wrist_3_joint"
    ],
    "metrics": {
        "cart_traj_len": 0.35299454083346904,
        "distance_elbow_joint": 0.44960718783924203,
        "distance_shoulder_lift_joint": 0.23527306523270153,
        "distance_shoulder_pan_joint": 0.46319858053333307,
        "distance_wrist_1_joint": 0.24498593585899842,
        "distance_wrist_2_joint": 1.0915815733341292,
        "distance_wrist_3_joint": 0.10083487626901544,
        "smoothness": 8.881784197001252e-16,
        "time": 0.029899764000000002,
        "traj_len": 1.6079431641284525,
        "weighted_distance": 2.0306940884334543
    },
    "planner": "ProjEST",
    "start": {
        "state": {
            "elbow_joint": 1.971548259319323,
            "shoulder_lift_joint": -1.1394851275133948,
            "shoulder_pan_joint": 0.1228115487234821,
            "wrist_1_joint": -0.7804723859257726,
            "wrist_2_joint": 0.12958671773740124,
            "wrist_3_joint": -3.192489227718131
        }
    },
    "waypoints": [
        {
            "positions": [
                0.1228115487234821,
                -1.1394851275133948,
                1.971548259319323,
                -0.7804723859257726,
                0.12958671773740124,
                -3.192489227718131
            ]
        },
        {
            "positions": [
                0.05664032293300596,
                -1.1730955654037807,
                2.035777857582072,
                -0.8154703767627723,
                0.2855269424994197,
                -3.178084245393986
            ]
        },
        {
            "positions": [
                -0.009530902857470186,
                -1.2067060032941668,
                2.1000074558448207,
                -0.8504683675997722,
                0.4414671672614381,
                -3.163679263069841
            ]
        },
        {
            "positions": [
                -0.07570212864794634,
                -1.2403164411845526,
                2.1642370541075695,
                -0.8854663584367719,
                0.5974073920234566,
                -3.149274280745696
            ]
        },
        {
            "positions": [
                -0.14187335443842247,
                -1.2739268790749385,
                2.2284666523703183,
                -0.9204643492737717,
                0.753347616785475,
                -3.1348692984215507
            ]
        },
        {
            "positions": [
                -0.20804458022889866,
                -1.3075373169653246,
                2.2926962506330675,
                -0.9554623401107715,
                0.9092878415474935,
                -3.1204643160974057
            ]
        },
        {
            "positions": [
                -0.2742158060193748,
                -1.3411477548557105,
                2.3569258488958162,
                -0.9904603309477713,
                1.065228066309512,
                -3.1060593337732607
            ]
        },
        {
            "positions": [
                -0.34038703180985097,
                -1.3747581927460963,
                2.421155447158565,
                -1.025458321784771,
                1.2211682910715305,
                -3.0916543514491157
            ]
        }
    ]
}{
    "goal": {
        "global_pose": {
            "orientation": {
                "w": 0.5084816217422485,
                "x": -0.49083608388900757,
                "y": 0.5182115435600281,
                "z": -0.4816462993621826
            },
            "position": {
                "x": 0.5540239810943604,
                "y": 0.030875300988554955,
                "z": 0.16403168439865112
            }
        },
        "name": "move_to_storage_A"
    },
    "id": "ProjEST_move_to_storage_A_104",
    "joint_names": [
        "shoulder_pan_joint",
        "shoulder_lift_joint",
        "elbow_joint",
        "wrist_1_joint",
        "wrist_2_joint",
        "wrist_3_joint"
    ],
    "metrics": {
        "cart_traj_len": 0.3530477161987895,
        "distance_elbow_joint": 0.45106500991043585,
        "distance_shoulder_lift_joint": 0.235714919298335,
        "distance_shoulder_pan_joint": 0.46109971711007824,
        "distance_wrist_1_joint": 0.24212214229584794,
        "distance_wrist_2_joint": 1.102270655096174,
        "distance_wrist_3_joint": 0.08824815434234834,
        "smoothness": 0.0,
        "time": 0.036713242,
        "traj_len": 1.606399887342258,
        "weighted_distance": 2.0251937448377473
    },
    "planner": "ProjEST",
    "start": {
        "state": {
            "elbow_joint": 1.97154746011099,
            "shoulder_lift_joint": -1.13948474672311,
            "shoulder_pan_joint": 0.12281154466712228,
            "wrist_1_joint": -0.7804688027058302,
            "wrist_2_joint": 0.12958655903071145,
            "wrist_3_joint": 3.0906928834467795
        }
    },
    "waypoints": [
        {
            "positions": [
                0.12281154466712228,
                -1.13948474672311,
                1.97154746011099,
                -0.7804688027058302,
                0.12958655903071145,
                3.0906928834467795
            ]
        },
        {
            "positions": [
                0.056940156508539674,
                -1.1731583066228721,
                2.0359853186696237,
                -0.8150576801766656,
                0.287053795473022,
                3.1032997626385437
            ]
        },
        {
            "positions": [
                -0.008931231650042934,
                -1.2068318665226343,
                2.100423177228257,
                -0.849646557647501,
                0.44452103191533254,
                3.1159066418303074
            ]
        },
        {
            "positions": [
                -0.07480261980862553,
                -1.2405054264223965,
                2.164861035786891,
                -0.8842354351183365,
                0.6019882683576432,
                3.1285135210220716
            ]
        },
        {
            "positions": [
                -0.14067400796720814,
                -1.2741789863221584,
                2.2292988943455248,
                -0.9188243125891719,
                0.7594555047999537,
                3.1411204002138358
            ]
        },
        {
            "positions": [
                -0.20654539612579076,
                -1.3078525462219206,
                2.2937367529041586,
                -0.9534131900600074,
                0.9169227412422644,
                3.1537272794056
            ]
        },
        {
            "positions": [
                -0.2724167842843733,
                -1.3415261061216828,
                2.358174611462792,
                -0.9880020675308427,
                1.074389977684575,
                3.1663341585973637
            ]
        },
        {
            "positions": [
                -0.33828817244295595,
                -1.375199666021445,
                2.4226124700214258,
                -1.0225909450016781,
                1.2318572141268855,
                3.178941037789128
            ]
        }
    ]
}{
    "goal": {
        "global_pose": {
            "orientation": {
                "w": 0.5084816217422485,
                "x": -0.49083608388900757,
                "y": 0.5182115435600281,
                "z": -0.4816462993621826
            },
            "position": {
                "x": 0.5540239810943604,
                "y": 0.030875300988554955,
                "z": 0.16403168439865112
            }
        },
        "name": "move_to_storage_A"
    },
    "id": "ProjEST_move_to_storage_A_104",
    "joint_names": [
        "shoulder_pan_joint",
        "shoulder_lift_joint",
        "elbow_joint",
        "wrist_1_joint",
        "wrist_2_joint",
        "wrist_3_joint"
    ],
    "metrics": {
        "cart_traj_len": 0.35331188849685236,
        "distance_elbow_joint": 0.4504413636729234,
        "distance_shoulder_lift_joint": 0.23433671944940082,
        "distance_shoulder_pan_joint": 0.46415854567567105,
        "distance_wrist_1_joint": 0.24337349386518659,
        "distance_wrist_2_joint": 1.090117098850774,
        "distance_wrist_3_joint": 0.08908527461823201,
        "smoothness": 0.0,
        "time": 0.14793442,
        "traj_len": 1.6035936193849698,
        "weighted_distance": 2.0206864274509817
    },
    "planner": "ProjEST",
    "start": {
        "state": {
            "elbow_joint": 1.9715472970024885,
            "shoulder_lift_joint": -1.1394870060712896,
            "shoulder_pan_joint": 0.12281152778156021,
            "wrist_1_joint": -0.780463741449964,
            "wrist_2_joint": 0.12958659822042276,
            "wrist_3_joint": 3.090690232415272
        }
    },
    "waypoints": [
        {
            "positions": [
                0.12281152778156021,
                -1.1394870060712896,
                1.9715472970024885,
                -0.780463741449964,
                0.12958659822042276,
                3.090690232415272
            ]
        },
        {
            "positions": [
                0.0565031641136072,
                -1.172963680278347,
                2.0358960632414775,
                -0.8152313834307049,
                0.2853176123419619,
                3.1034167002178763
            ]
        },
        {
            "positions": [
                -0.009805199554345806,
                -1.206440354485404,
                2.1002448294804665,
                -0.8499990254114459,
                0.44104862646350107,
                3.116143168020481
            ]
        },
        {
            "positions": [
                -0.07611356322229881,
                -1.2399170286924615,
                2.1645935957194555,
                -0.8847666673921868,
                0.5967796405850402,
                3.1288696358230856
            ]
        },
        {
            "positions": [
                -0.14242192689025182,
                -1.2733937028995186,
                2.2289423619584445,
                -0.9195343093729278,
                0.7525106547065793,
                3.14159610362569
            ]
        },
        {
            "positions": [
                -0.20873029055820483,
                -1.306870377106576,
                2.293291128197434,
                -0.9543019513536687,
                0.9082416688281185,
                3.1543225714282945
            ]
        },
        {
            "positions": [
                -0.2750386542261578,
                -1.340347051313633,
                2.357639894436423,
                -0.9890695933344096,
                1.0639726829496576,
                3.1670490392308994
            ]
        },
        {
            "positions": [
                -0.3413470178941108,
                -1.3738237255206904,
                2.421988660675412,
                -1.0238372353151506,
                1.2197036970711967,
                3.179775507033504
            ]
        }
    ]
}