{
    "goal": {
        "global_pose": {
            "orientation": {
                "w": 0.7047431493862688,
                "x": -0.7094548369677653,
                "y": 0.0024358444001904,
                "z": -0.0022348060817251984
            },
            "position": {
                "x": -0.39052492380142206,
                "y": 0.3671506643295288,
                "z": 0.19426114857196808
            }
        },
        "name": "move_to_magneteinheit_D"
    },
    "id": "ProjEST_move_to_magneteinheit_D_63",
    "joint_names": [
        "shoulder_pan_joint",
        "shoulder_lift_joint",
        "elbow_joint",
        "wrist_1_joint",
        "wrist_2_joint",
        "wrist_3_joint"
    ],
    "metrics": {
        "cart_traj_len": 4.662900159174588,
        "distance_elbow_joint": 3.8330529730042224,
        "distance_shoulder_lift_joint": 1.3560067135248468,
        "distance_shoulder_pan_joint": 3.1081527559165805,
        "distance_wrist_1_joint": 2.4310214595965243,
        "distance_wrist_2_joint": 2.8619209370589425,
        "distance_wrist_3_joint": 6.280337659372533,
        "smoothness": 0.30505236120983426,
        "time": 0.249270829,
        "traj_len": 4.4576330600974385,
        "weighted_distance": 6.141995621447006
    },
    "planner": "ProjEST",
    "start": {
        "state": {
            "elbow_joint": 0.749534889911806,
            "shoulder_lift_joint": -0.6476975780787326,
            "shoulder_pan_joint": -2.711696901376241,
            "wrist_1_joint": -0.07506478083263063,
            "wrist_2_joint": 0.43296659715538205,
            "wrist_3_joint": -3.14703540197715
        }
    },
    "waypoints": [
        {
            "positions": [
                -2.711696901376241,
                -0.6476975780787326,
                0.749534889911806,
                -0.07506478083263063,
                0.43296659715538205,
                -3.14703540197715
            ]
        },
        {
            "positions": [
                -2.729497992531043,
                -0.6728352014377779,
                0.7871803138942849,
                -0.03249968662588377,
                0.4739189397426353,
                -3.019460442808102
            ]
        },
        {
            "positions": [
                -2.747299083685845,
                -0.697972824796823,
                0.8248257378767638,
                0.010065407580863092,
                0.5148712823298887,
                -2.8918854836390544
            ]
        },
        {
            "positions": [
                -2.744918205273574,
                -0.7454380603705225,
                0.8692319885034596,
                0.02681553441405079,
                0.5956130660836543,
                -2.7191758718785897
            ]
        },
        {
            "positions": [
                -2.742537326861303,
                -0.792903295944222,
                0.9136382391301553,
                0.043565661247238485,
                0.6763548498374198,
                -2.546466260118125
            ]
        },
        {
            "positions": [
                -2.7401564484490324,
                -0.8403685315179215,
                0.9580444897568511,
                0.060315788080426175,
                0.7570966335911854,
                -2.37375664835766
            ]
        },
        {
            "positions": [
                -2.7377755700367614,
                -0.887833767091621,
                1.0024507403835468,
                0.07706591491361388,
                0.8378384173449509,
                -2.2010470365971955
            ]
        },
        {
            "positions": [
                -2.7353946916244904,
                -0.9352990026653205,
                1.0468569910102425,
                0.09381604174680157,
                0.9185802010987165,
                -2.0283374248367307
            ]
        },
        {
            "positions": [
                -2.6744339605421166,
                -0.991843903830739,
                1.054623711529808,
                0.044133041712009054,
                0.9887680104688727,
                -1.885482412741585
            ]
        },
        {
            "positions": [
                -2.6134732294597427,
                -1.0483888049961574,
                1.0623904320493736,
                -0.00554995832278346,
                1.058955819839029,
                -1.7426274006464393
            ]
        },
        {
            "positions": [
                -2.5525124983773693,
                -1.1049337061615758,
                1.070157152568939,
                -0.05523295835757598,
                1.1291436292091852,
                -1.5997723885512936
            ]
        },
        {
            "positions": [
                -2.4915517672949954,
                -1.1614786073269943,
                1.0779238730885048,
                -0.10491595839236849,
                1.1993314385793417,
                -1.4569173764561478
            ]
        },
        {
            "positions": [
                -2.4305910362126215,
                -1.2180235084924127,
                1.0856905936080703,
                -0.15459895842716098,
                1.2695192479494977,
                -1.314062364361002
            ]
        },
        {
            "positions": [
                -2.369630305130248,
                -1.2745684096578311,
                1.0934573141276358,
                -0.20428195846195352,
                1.3397070573196541,
                -1.1712073522658566
            ]
        },
        {
            "positions": [
                -2.308669574047874,
                -1.3311133108232496,
                1.1012240346472013,
                -0.253964958496746,
                1.4098948666898103,
                -1.0283523401707109
            ]
        },
        {
            "positions": [
                -2.2477088429655003,
                -1.387658211988668,
                1.1089907551667668,
                -0.30364795853153853,
                1.4800826760599666,
                -0.8854973280755651
            ]
        },
        {
            "positions": [
                -2.1795517954551356,
                -1.4019497619266297,
                1.0191634438405126,
                -0.35614828263301235,
                1.4290879896927475,
                -0.7728219780176906
            ]
        },
        {
            "positions": [
                -2.1113947479447712,
                -1.4162413118645913,
                0.9293361325142585,
                -0.40864860673448616,
                1.3780933033255287,
                -0.660146627959816
            ]
        },
        {
            "positions": [
                -2.0432377004344064,
                -1.430532861802553,
                0.8395088211880044,
                -0.46114893083596,
                1.3270986169583097,
                -0.5474712779019415
            ]
        },
        {
            "positions": [
                -1.975080652924042,
                -1.4448244117405147,
                0.7496815098617502,
                -0.5136492549374337,
                1.2761039305910908,
                -0.43479592784406695
            ]
        },
        {
            "positions": [
                -1.9069236054136773,
                -1.4591159616784763,
                0.659854198535496,
                -0.5661495790389076,
                1.2251092442238718,
                -0.3221205777861924
            ]
        },
        {
            "positions": [
                -1.8387665579033128,
                -1.473407511616438,
                0.5700268872092419,
                -0.6186499031403814,
                1.1741145578566528,
                -0.20944522772831786
            ]
        },
        {
            "positions": [
                -1.7706095103929482,
                -1.4876990615543997,
                0.4801995758829878,
                -0.6711502272418552,
                1.123119871489434,
                -0.09676987767044332
            ]
        },
        {
            "positions": [
                -1.7024524628825835,
                -1.5019906114923613,
                0.3903722645567336,
                -0.723650551343329,
                1.0721251851222149,
                0.01590547238743123
            ]
        },
        {
            "positions": [
                -1.6342954153722191,
                -1.516282161430323,
                0.30054495323047936,
                -0.7761508754448029,
                1.021130498754996,
                0.12858082244530578
            ]
        },
        {
            "positions": [
                -1.5661383678618543,
                -1.5305737113682847,
                0.21071764190422515,
                -0.8286511995462766,
                0.970135812387777,
                0.24125617250318032
            ]
        },
        {
            "positions": [
                -1.4979813203514898,
                -1.5448652613062464,
                0.12089033057797105,
                -0.8811515236477505,
                0.9191411260205581,
                0.35393152256105487
            ]
        },
        {
            "positions": [
                -1.4298242728411252,
                -1.559156811244208,
                0.03106301925171695,
                -0.9336518477492244,
                0.8681464396533392,
                0.4666068726189294
            ]
        },
        {
            "positions": [
                -1.3616672253307607,
                -1.5734483611821695,
                -0.05876429207453726,
                -0.986152171850698,
                0.8171517532861202,
                0.579282222676804
            ]
        },
        {
            "positions": [
                -1.2935101778203961,
                -1.5877399111201314,
                -0.14859160340079125,
                -1.038652495952172,
                0.7661570669189013,
                0.6919575727346785
            ]
        },
        {
            "positions": [
                -1.2253531303100313,
                -1.6020314610580928,
                -0.23841891472704546,
                -1.0911528200536458,
                0.7151623805516824,
                0.804632922792553
            ]
        },
        {
            "positions": [
                -1.1571960827996668,
                -1.6163230109960547,
                -0.32824622605329967,
                -1.1436531441551194,
                0.6641676941844633,
                0.9173082728504276
            ]
        },
        {
            "positions": [
                -1.0890390352893022,
                -1.6306145609340161,
                -0.4180735373795539,
                -1.1961534682565933,
                0.6131730078172444,
                1.0299836229083021
            ]
        },
        {
            "positions": [
                -1.0208819877789377,
                -1.644906110871978,
                -0.5079008487058081,
                -1.2486537923580672,
                0.5621783214500254,
                1.1426589729661767
            ]
        },
        {
            "positions": [
                -0.9527249402685731,
                -1.6591976608099395,
                -0.5977281600320623,
                -1.301154116459541,
                0.5111836350828064,
                1.2553343230240512
            ]
        },
        {
            "positions": [
                -0.8845678927582084,
                -1.6734892107479014,
                -0.6875554713583165,
                -1.353654440561015,
                0.46018894871558746,
                1.3680096730819258
            ]
        },
        {
            "positions": [
                -0.8164108452478438,
                -1.6877807606858628,
                -0.7773827826845705,
                -1.4061547646624888,
                0.4091942623483684,
                1.4806850231398003
            ]
        },
        {
            "positions": [
                -0.7482537977374792,
                -1.7020723106238247,
                -0.8672100940108247,
                -1.4586550887639624,
                0.3581995759811496,
                1.5933603731976749
            ]
        },
        {
            "positions": [
                -0.6800967502271147,
                -1.7163638605617861,
                -0.9570374053370792,
                -1.5111554128654363,
                0.30720488961393055,
                1.7060357232555494
            ]
        },
        {
            "positions": [
                -0.6119397027167499,
                -1.730655410499748,
                -1.046864716663333,
                -1.5636557369669102,
                0.25621020324671173,
                1.818711073313424
            ]
        },
        {
            "positions": [
                -0.5437826552063854,
                -1.7449469604377095,
                -1.1366920279895871,
                -1.616156061068384,
                0.2052155168794927,
                1.9313864233712985
            ]
        },
        {
            "positions": [
                -0.475625607696021,
                -1.7592385103756711,
                -1.2265193393158413,
                -1.6686563851698577,
                0.15422083051227387,
                2.0440617734291733
            ]
        },
        {
            "positions": [
                -0.40746856018565647,
                -1.7735300603136328,
                -1.3163466506420956,
                -1.7211567092713314,
                0.10322614414505482,
                2.156737123487048
            ]
        },
        {
            "positions": [
                -0.3393115126752917,
                -1.7878216102515945,
                -1.4061739619683493,
                -1.7736570333728052,
                0.052231457777836,
                2.2694124735449224
            ]
        },
        {
            "positions": [
                -0.27115446516492714,
                -1.8021131601895561,
                -1.4960012732946035,
                -1.826157357474279,
                0.0012367714106169547,
                2.382087823602797
            ]
        },
        {
            "positions": [
                -0.20299741765456236,
                -1.8164047101275178,
                -1.5858285846208577,
                -1.878657681575753,
                -0.04975791495660187,
                2.4947631736606715
            ]
        },
        {
            "positions": [
                -0.13484037014419803,
                -1.8306962600654795,
                -1.675655895947112,
                -1.9311580056772268,
                -0.10075260132382091,
                2.607438523718546
            ]
        },
        {
            "positions": [
                -0.06668332263383325,
                -1.8449878100034411,
                -1.7654832072733662,
                -1.9836583297787005,
                -0.15174728769103996,
                2.7201138737764206
            ]
        },
        {
            "positions": [
                0.0014737248765310795,
                -1.8592793599414028,
                -1.8553105185996204,
                -2.0361586538801744,
                -0.20274197405825878,
                2.832789223834295
            ]
        },
        {
            "positions": [
                0.06963077238689591,
                -1.8735709098793645,
                -1.9451378299258746,
                -2.0886589779816482,
                -0.2537366604254777,
                2.9454645738921696
            ]
        },
        {
            "positions": [
                -0.015576133457849362,
                -1.8301931159712927,
                -2.0849606708114146,
                -2.115214183744529,
                -0.22674148653583912,
                3.0080771350599074
            ]
        },
        {
            "positions": [
                -0.10078303930259463,
                -1.7868153220632212,
                -2.224783511696955,
                -2.141769389507409,
                -0.19974631264620055,
                3.070689696227645
            ]
        },
        {
            "positions": [
                -0.1859899451473399,
                -1.7434375281551495,
                -2.364606352582495,
                -2.1683245952702896,
                -0.17275113875656195,
                3.133302257395383
            ]
        }
    ]
}