{
    "goal": {
        "global_pose": {
            "orientation": {
                "w": 0.7047431468963623,
                "x": -0.7094548344612122,
                "y": 0.0024358443915843964,
                "z": -0.0022348060738295317
            },
            "position": {
                "x": 0.6094750761985779,
                "y": 0.3671506643295288,
                "z": 0.19426114857196808
            }
        },
        "name": "move_to_magneteinheit_A"
    },
    "id": "ProjEST_move_to_magneteinheit_A_110",
    "joint_names": [
        "shoulder_pan_joint",
        "shoulder_lift_joint",
        "elbow_joint",
        "wrist_1_joint",
        "wrist_2_joint",
        "wrist_3_joint"
    ],
    "metrics": {
        "cart_traj_len": 3.3249301170912644,
        "distance_elbow_joint": 3.878677918151417,
        "distance_shoulder_lift_joint": 0.9555390571279041,
        "distance_shoulder_pan_joint": 3.8984438197838904,
        "distance_wrist_1_joint": 2.811908064111492,
        "distance_wrist_2_joint": 1.7535506858389962,
        "distance_wrist_3_joint": 3.7503964959364837,
        "smoothness": 0.26928678784644444,
        "time": 0.267904808,
        "traj_len": 4.1289848680941175,
        "weighted_distance": 5.395810206333583
    },
    "planner": "ProjEST",
    "start": {
        "state": {
            "elbow_joint": -1.9196185241190666,
            "shoulder_lift_joint": -1.2443396400964142,
            "shoulder_pan_joint": 2.6996025414629847,
            "wrist_1_joint": -1.5485510000780065,
            "wrist_2_joint": -1.5709468930060704,
            "wrist_3_joint": 0.4420197071253992
        }
    },
    "waypoints": [
        {
            "positions": [
                2.6996025414629847,
                -1.2443396400964142,
                -1.9196185241190666,
                -1.5485510000780065,
                -1.5709468930060704,
                0.4420197071253992
            ]
        },
        {
            "positions": [
                2.579699244968226,
                -1.2599895829603016,
                -1.8186238736139566,
                -1.4812459542666467,
                -1.5088379502140044,
                0.42060375305208675
            ]
        },
        {
            "positions": [
                2.4597959484734666,
                -1.275639525824189,
                -1.7176292231088464,
                -1.4139409084552872,
                -1.446729007421938,
                0.3991877989787743
            ]
        },
        {
            "positions": [
                2.3398926519787078,
                -1.2912894686880765,
                -1.6166345726037363,
                -1.3466358626439274,
                -1.384620064629872,
                0.37777184490546195
            ]
        },
        {
            "positions": [
                2.2199893554839485,
                -1.306939411551964,
                -1.515639922098626,
                -1.2793308168325677,
                -1.3225111218378058,
                0.3563558908321495
            ]
        },
        {
            "positions": [
                2.1000860589891897,
                -1.3225893544158513,
                -1.414645271593516,
                -1.2120257710212081,
                -1.2604021790457398,
                0.3349399367588371
            ]
        },
        {
            "positions": [
                1.9801827624944304,
                -1.3382392972797388,
                -1.313650621088406,
                -1.1447207252098484,
                -1.1982932362536738,
                0.3135239826855247
            ]
        },
        {
            "positions": [
                1.8602794659996715,
                -1.3538892401436262,
                -1.2126559705832958,
                -1.0774156793984888,
                -1.1361842934616075,
                0.2921080286122123
            ]
        },
        {
            "positions": [
                1.7403761695049123,
                -1.3695391830075136,
                -1.1116613200781857,
                -1.010110633587129,
                -1.0740753506695415,
                0.2706920745388999
            ]
        },
        {
            "positions": [
                1.6204728730101534,
                -1.385189125871401,
                -1.0106666695730757,
                -0.9428055877757694,
                -1.0119664078774755,
                0.24927612046558745
            ]
        },
        {
            "positions": [
                1.5005695765153944,
                -1.4008390687352885,
                -0.9096720190679655,
                -0.8755005419644097,
                -0.9498574650854092,
                0.22786016639227505
            ]
        },
        {
            "positions": [
                1.3806662800206353,
                -1.416489011599176,
                -0.8086773685628554,
                -0.8081954961530501,
                -0.8877485222933431,
                0.20644421231896262
            ]
        },
        {
            "positions": [
                1.2607629835258762,
                -1.4321389544630634,
                -0.7076827180577452,
                -0.7408904503416903,
                -0.8256395795012771,
                0.18502825824565022
            ]
        },
        {
            "positions": [
                1.1408596870311172,
                -1.4477888973269508,
                -0.6066880675526352,
                -0.6735854045303307,
                -0.763530636709211,
                0.1636123041723378
            ]
        },
        {
            "positions": [
                1.0209563905363581,
                -1.4634388401908383,
                -0.5056934170475251,
                -0.606280358718971,
                -0.7014216939171448,
                0.14219635009902537
            ]
        },
        {
            "positions": [
                0.9010530940415988,
                -1.479088783054726,
                -0.4046987665424149,
                -0.5389753129076111,
                -0.6393127511250786,
                0.12078039602571294
            ]
        },
        {
            "positions": [
                0.78114979754684,
                -1.4947387259186131,
                -0.30370411603730485,
                -0.4716702670962516,
                -0.5772038083330125,
                0.09936444195240057
            ]
        },
        {
            "positions": [
                0.6612465010520809,
                -1.5103886687825008,
                -0.2027094655321946,
                -0.40436522128489183,
                -0.5150948655409464,
                0.07794848787908815
            ]
        },
        {
            "positions": [
                0.5413432045573221,
                -1.526038611646388,
                -0.10171481502708457,
                -0.3370601754735323,
                -0.4529859227488804,
                0.05653253380577572
            ]
        },
        {
            "positions": [
                0.4214399080625628,
                -1.5416885545102756,
                -0.0007201645219743202,
                -0.2697551296621725,
                -0.39087697995681414,
                0.03511657973246329
            ]
        },
        {
            "positions": [
                0.301536611567804,
                -1.557338497374163,
                0.10027448598313571,
                -0.20245008385081298,
                -0.3287680371647481,
                0.013700625659150922
            ]
        },
        {
            "positions": [
                0.1816333150730447,
                -1.5729884402380505,
                0.20126913648824596,
                -0.1351450380394532,
                -0.26665909437268187,
                -0.007715328414161504
            ]
        },
        {
            "positions": [
                0.06173001857828586,
                -1.588638383101938,
                0.30226378699335577,
                -0.06783999222809367,
                -0.20455015158061585,
                -0.02913128248747393
            ]
        },
        {
            "positions": [
                -0.05817327791647342,
                -1.6042883259658254,
                0.403258437498466,
                -0.0005349464167336837,
                -0.14244120878854982,
                -0.05054723656078636
            ]
        },
        {
            "positions": [
                -0.17807657441123226,
                -1.6199382688297128,
                0.5042530880035763,
                0.06677009939462586,
                -0.0803322659964838,
                -0.07196319063409873
            ]
        },
        {
            "positions": [
                -0.29797987090599154,
                -1.6355882116936002,
                0.6052477385086865,
                0.13407514520598562,
                -0.018223323204417552,
                -0.09337914470741115
            ]
        },
        {
            "positions": [
                -0.4178831674007504,
                -1.6512381545574877,
                0.7062423890137963,
                0.20138019101734517,
                0.04388561958764847,
                -0.11479509878072358
            ]
        },
        {
            "positions": [
                -0.5377864638955097,
                -1.6668880974213751,
                0.8072370395189068,
                0.26868523682870504,
                0.10599456237971466,
                -0.13621105285403595
            ]
        },
        {
            "positions": [
                -0.5004414500072835,
                -1.636191295705302,
                0.8766119815599451,
                0.20779431233318285,
                0.10913067492441739,
                0.053185227761626264
            ]
        },
        {
            "positions": [
                -0.46309643611905715,
                -1.6054944939892288,
                0.9459869236009835,
                0.1469033878376607,
                0.11226678746912011,
                0.24258150837728848
            ]
        },
        {
            "positions": [
                -0.42575142223083096,
                -1.5747976922731555,
                1.0153618656420218,
                0.08601246334213852,
                0.11540290001382282,
                0.43197778899295075
            ]
        },
        {
            "positions": [
                -0.3884064083426047,
                -1.5441008905570823,
                1.0847368076830604,
                0.02512153884661633,
                0.11853901255852554,
                0.621374069608613
            ]
        },
        {
            "positions": [
                -0.35106139445437845,
                -1.5134040888410092,
                1.1541117497240987,
                -0.03576938564890586,
                0.12167512510322827,
                0.8107703502242751
            ]
        },
        {
            "positions": [
                -0.31371638056615225,
                -1.4827072871249358,
                1.223486691765137,
                -0.096660310144428,
                0.12481123764793098,
                1.0001666308399375
            ]
        },
        {
            "positions": [
                -0.276371366677926,
                -1.4520104854088627,
                1.2928616338061754,
                -0.1575512346399502,
                0.1279473501926337,
                1.1895629114555997
            ]
        },
        {
            "positions": [
                -0.23902635278969975,
                -1.4213136836927895,
                1.3622365758472137,
                -0.21844215913547238,
                0.13108346273733643,
                1.3789591920712618
            ]
        },
        {
            "positions": [
                -0.2016813389014735,
                -1.3906168819767164,
                1.431611517888252,
                -0.2793330836309945,
                0.13421957528203915,
                1.568355472686924
            ]
        },
        {
            "positions": [
                -0.16433632501324724,
                -1.3599200802606433,
                1.5009864599292904,
                -0.34022400812651676,
                0.13735568782674187,
                1.7577517533025862
            ]
        },
        {
            "positions": [
                -0.12699131112502104,
                -1.32922327854457,
                1.5703614019703287,
                -0.4011149326220389,
                0.1404918003714446,
                1.9471480339182483
            ]
        },
        {
            "positions": [
                -0.08964629723679479,
                -1.2985264768284968,
                1.639736344011367,
                -0.46200585711756104,
                0.1436279129161473,
                2.1365443145339107
            ]
        },
        {
            "positions": [
                -0.05230128334856854,
                -1.2678296751124236,
                1.7091112860524054,
                -0.5228967816130833,
                0.14676402546085004,
                2.325940595149573
            ]
        },
        {
            "positions": [
                -0.014956269460342342,
                -1.2371328733963503,
                1.778486228093444,
                -0.5837877061086054,
                0.14990013800555274,
                2.515336875765235
            ]
        },
        {
            "positions": [
                0.022388744427883966,
                -1.2064360716802771,
                1.8478611701344823,
                -0.6446786306041277,
                0.15303625055025546,
                2.704733156380897
            ]
        },
        {
            "positions": [
                0.059733758316110136,
                -1.175739269964204,
                1.9172361121755206,
                -0.7055695550996498,
                0.1561723630949582,
                2.8941294369965593
            ]
        },
        {
            "positions": [
                0.1232683505298851,
                -1.133897497618432,
                1.959059394032351,
                -0.7259865903760767,
                0.12974093335699027,
                3.035954683103013
            ]
        }
    ]
}