{
    "goal": {
        "global_pose": {
            "orientation": {
                "w": 0.005598929693374612,
                "x": 0.007748599140229565,
                "y": 0.7110244013736278,
                "z": -0.7031023480610252
            },
            "position": {
                "x": 0.1141497679147869,
                "y": -0.7141253447532654,
                "z": 0.3711530566215515
            }
        },
        "name": "move_to_auspresseinheit_B"
    },
    "id": "ProjEST_move_to_auspresseinheit_B_78",
    "joint_names": [
        "shoulder_pan_joint",
        "shoulder_lift_joint",
        "elbow_joint",
        "wrist_1_joint",
        "wrist_2_joint",
        "wrist_3_joint"
    ],
    "metrics": {
        "cart_traj_len": 0.5645572379279191,
        "distance_elbow_joint": 0.06355334201603213,
        "distance_shoulder_lift_joint": 0.2951312340579999,
        "distance_shoulder_pan_joint": 0.5767626209944274,
        "distance_wrist_1_joint": 0.33265345394479884,
        "distance_wrist_2_joint": 0.9952804599510312,
        "distance_wrist_3_joint": 0.007256372224536456,
        "smoothness": 0.0,
        "time": 0.191580551,
        "traj_len": 1.5068634587077976,
        "weighted_distance": 1.9008114429195047
    },
    "planner": "ProjEST",
    "start": {
        "state": {
            "elbow_joint": 2.0193083361928714,
            "shoulder_lift_joint": -1.1220246554650708,
            "shoulder_pan_joint": -1.0952077554168747,
            "wrist_1_joint": -0.8559753972642168,
            "wrist_2_joint": 0.4759566250798843,
            "wrist_3_joint": -3.1240929996934557
        }
    },
    "waypoints": [
        {
            "positions": [
                -1.0952077554168747,
                -1.1220246554650708,
                2.0193083361928714,
                -0.8559753972642168,
                0.4759566250798843,
                -3.1240929996934557
            ]
        },
        {
            "positions": [
                -1.1913348589159458,
                -1.1712131944747375,
                2.008716112523533,
                -0.8005331549400836,
                0.6418367017383895,
                -3.1228836043226997
            ]
        },
        {
            "positions": [
                -1.2874619624150172,
                -1.2204017334844042,
                1.9981238888541941,
                -0.7450909126159505,
                0.8077167783968946,
                -3.1216742089519434
            ]
        },
        {
            "positions": [
                -1.3835890659140884,
                -1.2695902724940709,
                1.9875316651848554,
                -0.6896486702918174,
                0.9735968550554,
                -3.1204648135811874
            ]
        },
        {
            "positions": [
                -1.4797161694131595,
                -1.3187788115037373,
                1.9769394415155166,
                -0.6342064279676842,
                1.139476931713905,
                -3.1192554182104315
            ]
        },
        {
            "positions": [
                -1.575843272912231,
                -1.367967350513404,
                1.966347217846178,
                -0.578764185643551,
                1.3053570083724104,
                -3.118046022839675
            ]
        },
        {
            "positions": [
                -1.671970376411302,
                -1.4171558895230707,
                1.9557549941768393,
                -0.523321943319418,
                1.4712370850309155,
                -3.116836627468919
            ]
        }
    ]
}