{
    "goal": {
        "global_pose": {
            "orientation": {
                "w": -0.4816463035849501,
                "x": 0.5182115481033762,
                "y": 0.4908360881923453,
                "z": -0.5084816262002911
            },
            "position": {
                "x": -0.8240239810943604,
                "y": 0.19912469901144506,
                "z": 0.16403168439865112
            }
        },
        "name": "move_to_storage_D"
    },
    "id": "ProjEST_move_to_storage_D_2",
    "joint_names": [
        "shoulder_pan_joint",
        "shoulder_lift_joint",
        "elbow_joint",
        "wrist_1_joint",
        "wrist_2_joint",
        "wrist_3_joint"
    ],
    "metrics": {
        "cart_traj_len": 3.542648079471225,
        "distance_elbow_joint": 4.210071175973644,
        "distance_shoulder_lift_joint": 1.2641644177711762,
        "distance_shoulder_pan_joint": 2.8123136456277193,
        "distance_wrist_1_joint": 3.7220504064656215,
        "distance_wrist_2_joint": 1.8996666384136447,
        "distance_wrist_3_joint": 4.832514663230397,
        "smoothness": 0.30831420806655263,
        "time": 0.175692451,
        "traj_len": 4.329062363547354,
        "weighted_distance": 5.833311865383357
    },
    "planner": "ProjEST",
    "start": {
        "state": {
            "elbow_joint": -2.384821988534728,
            "shoulder_lift_joint": -2.2788054721415256,
            "shoulder_pan_joint": -0.1854694642142757,
            "wrist_1_joint": 1.4845938289331202,
            "wrist_2_joint": 0.17898776772866878,
            "wrist_3_joint": 0.037105688729662994
        }
    },
    "waypoints": [
        {
            "positions": [
                -0.1854694642142757,
                -2.2788054721415256,
                -2.384821988534728,
                1.4845938289331202,
                0.17898776772866878,
                0.037105688729662994
            ]
        },
        {
            "positions": [
                -0.0613368611348126,
                -2.2232578105518734,
                -2.351171035343094,
                1.5450645782879149,
                0.13616085969669073,
                0.10798156376708815
            ]
        },
        {
            "positions": [
                0.06279574194465051,
                -2.1677101489622213,
                -2.31752008215146,
                1.6055353276427093,
                0.09333395166471267,
                0.1788574388045133
            ]
        },
        {
            "positions": [
                0.18692834502411362,
                -2.112162487372569,
                -2.283869128959826,
                1.6660060769975038,
                0.050507043632734616,
                0.24973331384193848
            ]
        },
        {
            "positions": [
                0.31106094810357676,
                -2.0566148257829164,
                -2.2502181757681923,
                1.7264768263522985,
                0.00768013560075656,
                0.3206091888793636
            ]
        },
        {
            "positions": [
                0.43519355118303993,
                -2.0010671641932642,
                -2.216567222576558,
                1.7869475757070932,
                -0.035146772431221496,
                0.39148506391678883
            ]
        },
        {
            "positions": [
                0.559326154262503,
                -1.945519502603612,
                -2.1829162693849242,
                1.8474183250618876,
                -0.07797368046319955,
                0.46236093895421393
            ]
        },
        {
            "positions": [
                0.6834587573419661,
                -1.8899718410139599,
                -2.1492653161932904,
                1.907889074416682,
                -0.12080058849517764,
                0.5332368139916391
            ]
        },
        {
            "positions": [
                0.8075913604214292,
                -1.8344241794243077,
                -2.115614363001656,
                1.9683598237714768,
                -0.16362749652715566,
                0.6041126890290642
            ]
        },
        {
            "positions": [
                0.9317239635008924,
                -1.7788765178346555,
                -2.0819634098100224,
                2.0288305731262715,
                -0.20645440455913375,
                0.6749885640664894
            ]
        },
        {
            "positions": [
                1.0558565665803554,
                -1.7233288562450033,
                -2.0483124566183886,
                2.0893013224810657,
                -0.24928131259111178,
                0.7458644391039146
            ]
        },
        {
            "positions": [
                1.1799891696598184,
                -1.6677811946553511,
                -2.0146615034267543,
                2.1497720718358604,
                -0.29210822062308983,
                0.8167403141413397
            ]
        },
        {
            "positions": [
                1.3041217727392815,
                -1.6122335330656987,
                -1.9810105502351205,
                2.210242821190655,
                -0.3349351286550679,
                0.887616189178765
            ]
        },
        {
            "positions": [
                1.3408640618691194,
                -1.595633741990828,
                -1.8752811130775084,
                2.1270094485737636,
                -0.29644224693201493,
                0.7770049624348402
            ]
        },
        {
            "positions": [
                1.3776063509989571,
                -1.579033950915957,
                -1.7695516759198961,
                2.0437760759568726,
                -0.25794936520896194,
                0.6663937356909153
            ]
        },
        {
            "positions": [
                1.414348640128795,
                -1.5624341598410862,
                -1.663822238762284,
                1.9605427033399812,
                -0.21945648348590893,
                0.5557825089469905
            ]
        },
        {
            "positions": [
                1.451090929258633,
                -1.5458343687662155,
                -1.558092801604672,
                1.8773093307230897,
                -0.18096360176285595,
                0.44517128220306573
            ]
        },
        {
            "positions": [
                1.4878332183884708,
                -1.5292345776913447,
                -1.4523633644470597,
                1.7940759581061985,
                -0.1424707200398029,
                0.3345600554591409
            ]
        },
        {
            "positions": [
                1.5245755075183087,
                -1.5126347866164738,
                -1.3466339272894476,
                1.7108425854893072,
                -0.10397783831674995,
                0.22394882871521615
            ]
        },
        {
            "positions": [
                1.5613177966481464,
                -1.496034995541603,
                -1.2409044901318356,
                1.6276092128724158,
                -0.06548495659369691,
                0.11333760197129128
            ]
        },
        {
            "positions": [
                1.5980600857779843,
                -1.4794352044667323,
                -1.1351750529742235,
                1.5443758402555243,
                -0.02699207487064398,
                0.0027263752273665176
            ]
        },
        {
            "positions": [
                1.6348023749078222,
                -1.4628354133918613,
                -1.0294456158166112,
                1.461142467638633,
                0.011500806852409062,
                -0.10788485151655836
            ]
        },
        {
            "positions": [
                1.6715446640376599,
                -1.4462356223169905,
                -0.9237161786589989,
                1.3779090950217419,
                0.0499936885754621,
                -0.21849607826048312
            ]
        },
        {
            "positions": [
                1.708286953167498,
                -1.4296358312421198,
                -0.8179867415013868,
                1.2946757224048504,
                0.08848657029851509,
                -0.3291073050044081
            ]
        },
        {
            "positions": [
                1.7450292422973357,
                -1.413036040167249,
                -0.7122573043437748,
                1.2114423497879592,
                0.12697945202156802,
                -0.43971853174833264
            ]
        },
        {
            "positions": [
                1.7817715314271736,
                -1.396436249092378,
                -0.6065278671861627,
                1.1282089771710677,
                0.165472333744621,
                -0.5503297584922576
            ]
        },
        {
            "positions": [
                1.8185138205570115,
                -1.3798364580175073,
                -0.5007984300285504,
                1.0449756045541765,
                0.2039652154676741,
                -0.6609409852361824
            ]
        },
        {
            "positions": [
                1.8552561096868492,
                -1.3632366669426366,
                -0.39506899287093833,
                0.961742231937285,
                0.24245809719072708,
                -0.7715522119801074
            ]
        },
        {
            "positions": [
                1.891998398816687,
                -1.3466368758677656,
                -0.28933955571332626,
                0.8785088593203938,
                0.28095097891377996,
                -0.8821634387240319
            ]
        },
        {
            "positions": [
                1.928740687946525,
                -1.3300370847928948,
                -0.18361011855571419,
                0.7952754867035026,
                0.31944386063683305,
                -0.9927746654679569
            ]
        },
        {
            "positions": [
                1.9654829770763627,
                -1.313437293718024,
                -0.07788068139810189,
                0.7120421140866111,
                0.35793674235988604,
                -1.1033858922118815
            ]
        },
        {
            "positions": [
                2.002225266206201,
                -1.2968375026431533,
                0.02784875575951018,
                0.6288087414697197,
                0.396429624082939,
                -1.2139971189558065
            ]
        },
        {
            "positions": [
                2.0389675553360385,
                -1.2802377115682826,
                0.1335781929171227,
                0.5455753688528284,
                0.4349225058059921,
                -1.324608345699731
            ]
        },
        {
            "positions": [
                2.0757098444658766,
                -1.2636379204934116,
                0.23930763007473477,
                0.46234199623593697,
                0.4734153875290451,
                -1.435219572443656
            ]
        },
        {
            "positions": [
                2.1124521335957143,
                -1.2470381294185409,
                0.34503706723234684,
                0.37910862361904574,
                0.5119082692520981,
                -1.545830799187581
            ]
        },
        {
            "positions": [
                2.149194422725552,
                -1.2304383383436701,
                0.45076650438995847,
                0.2958752510021545,
                0.550401150975151,
                -1.6564420259315056
            ]
        },
        {
            "positions": [
                2.1859367118553896,
                -1.2138385472687991,
                0.556495941547571,
                0.21264187838526327,
                0.588894032698204,
                -1.7670532526754301
            ]
        },
        {
            "positions": [
                2.2226790009852277,
                -1.1972387561939284,
                0.662225378705183,
                0.12940850576837182,
                0.6273869144212569,
                -1.877664479419355
            ]
        },
        {
            "positions": [
                2.2594212901150654,
                -1.1806389651190576,
                0.7679548158627951,
                0.04617513315148036,
                0.6658797961443099,
                -1.98827570616328
            ]
        },
        {
            "positions": [
                2.2961635792449036,
                -1.1640391740441869,
                0.8736842530204076,
                -0.03705823946541109,
                0.7043726778673631,
                -2.0988869329072046
            ]
        },
        {
            "positions": [
                2.3329058683747412,
                -1.147439382969316,
                0.9794136901780197,
                -0.1202916120823021,
                0.7428655595904161,
                -2.2094981596511296
            ]
        },
        {
            "positions": [
                2.369648157504579,
                -1.1308395918944452,
                1.0851431273356318,
                -0.20352498469919356,
                0.7813584413134691,
                -2.3201093863950546
            ]
        },
        {
            "positions": [
                2.406390446634417,
                -1.1142398008195742,
                1.1908725644932439,
                -0.286758357316085,
                0.8198513230365221,
                -2.4307206131389796
            ]
        },
        {
            "positions": [
                2.443132735764255,
                -1.0976400097447034,
                1.2966020016508564,
                -0.36999172993297647,
                0.8583442047595751,
                -2.541331839882904
            ]
        },
        {
            "positions": [
                2.479875024894093,
                -1.0810402186698327,
                1.402331438808468,
                -0.4532251025498675,
                0.8968370864826278,
                -2.6519430666268287
            ]
        },
        {
            "positions": [
                2.5166173140239305,
                -1.064440427594962,
                1.50806087596608,
                -0.5364584751667589,
                0.935329968205681,
                -2.7625542933707536
            ]
        },
        {
            "positions": [
                2.553359603153768,
                -1.0478406365200912,
                1.6137903131236921,
                -0.6196918477836499,
                0.973822849928734,
                -2.8731655201146786
            ]
        },
        {
            "positions": [
                2.590101892283606,
                -1.0312408454452204,
                1.7195197502813047,
                -0.7029252204005414,
                1.012315731651787,
                -2.983776746858603
            ]
        },
        {
            "positions": [
                2.626844181413444,
                -1.0146410543703495,
                1.8252491874389167,
                -0.7861585930174326,
                1.05080861337484,
                -3.094387973602528
            ]
        }
    ]
}