{
    "goal": {
        "global_pose": {
            "orientation": {
                "w": -0.4816463035849501,
                "x": 0.5182115481033762,
                "y": 0.4908360881923453,
                "z": -0.5084816262002911
            },
            "position": {
                "x": -0.8240239810943604,
                "y": -0.300875300988555,
                "z": 0.16403168439865112
            }
        },
        "name": "move_to_storage_C"
    },
    "id": "ProjEST_move_to_storage_C_147",
    "joint_names": [
        "shoulder_pan_joint",
        "shoulder_lift_joint",
        "elbow_joint",
        "wrist_1_joint",
        "wrist_2_joint",
        "wrist_3_joint"
    ],
    "metrics": {
        "cart_traj_len": 0.5763454581375269,
        "distance_elbow_joint": 0.2543477580429434,
        "distance_shoulder_lift_joint": 0.18829070296443418,
        "distance_shoulder_pan_joint": 0.4951973603740396,
        "distance_wrist_1_joint": 0.06947960326413405,
        "distance_wrist_2_joint": 1.0668497955004845,
        "distance_wrist_3_joint": 0.06854692452157396,
        "smoothness": 0.0,
        "time": 0.030403063999999997,
        "traj_len": 1.4638005822746518,
        "weighted_distance": 1.848279035339463
    },
    "planner": "ProjEST",
    "start": {
        "state": {
            "elbow_joint": 2.010868314990456,
            "shoulder_lift_joint": -1.1634956873337592,
            "shoulder_pan_joint": -2.4736205022346125,
            "wrist_1_joint": -0.8367026794202681,
            "wrist_2_joint": 0.6746043897044499,
            "wrist_3_joint": -3.1496632123970403
        }
    },
    "waypoints": [
        {
            "positions": [
                -2.4736205022346125,
                -1.1634956873337592,
                2.010868314990456,
                -0.8367026794202681,
                0.6746043897044499,
                -3.1496632123970403
            ]
        },
        {
            "positions": [
                -2.556153395630286,
                -1.1321139035063534,
                1.9684770219832985,
                -0.8251227455429124,
                0.8524126889545307,
                -3.138238724976778
            ]
        },
        {
            "positions": [
                -2.638686289025959,
                -1.100732119678948,
                1.9260857289761413,
                -0.8135428116655568,
                1.0302209882046114,
                -3.1268142375565158
            ]
        },
        {
            "positions": [
                -2.721219182421632,
                -1.0693503358515422,
                1.8836944359689842,
                -0.8019628777882011,
                1.2080292874546923,
                -3.115389750136253
            ]
        },
        {
            "positions": [
                -2.8037520758173056,
                -1.0379685520241364,
                1.841303142961827,
                -0.7903829439108454,
                1.3858375867047728,
                -3.103965262715991
            ]
        },
        {
            "positions": [
                -2.886284969212979,
                -1.0065867681967307,
                1.7989118499546697,
                -0.7788030100334897,
                1.5636458859548537,
                -3.0925407752957286
            ]
        },
        {
            "positions": [
                -2.968817862608652,
                -0.975204984369325,
                1.7565205569475124,
                -0.767223076156134,
                1.7414541852049343,
                -3.0811162878754663
            ]
        }
    ]
}