{
    "goal": {
        "global_pose": {
            "orientation": {
                "w": -0.00223480608172531,
                "x": 0.0024358444001904467,
                "y": 0.7094548369677653,
                "z": -0.704743149386269
            },
            "position": {
                "x": 0.6205249238014221,
                "y": -0.6371506643295288,
                "z": 0.19426114857196808
            }
        },
        "name": "move_to_magneteinheit_B"
    },
    "id": "ProjEST_move_to_magneteinheit_B_52",
    "joint_names": [
        "shoulder_pan_joint",
        "shoulder_lift_joint",
        "elbow_joint",
        "wrist_1_joint",
        "wrist_2_joint",
        "wrist_3_joint"
    ],
    "metrics": {
        "cart_traj_len": 1.4956997863323858,
        "distance_elbow_joint": 0.9549434259232825,
        "distance_shoulder_lift_joint": 0.7541479408785751,
        "distance_shoulder_pan_joint": 1.6209166773996513,
        "distance_wrist_1_joint": 0.7096136120988801,
        "distance_wrist_2_joint": 1.7618721754711306,
        "distance_wrist_3_joint": 0.31984968332970815,
        "smoothness": 0.5415361512270841,
        "time": 0.41712506800000004,
        "traj_len": 2.474134902365113,
        "weighted_distance": 3.03850763851774
    },
    "planner": "ProjEST",
    "start": {
        "state": {
            "elbow_joint": 2.6216224122426386,
            "shoulder_lift_joint": -1.4174107377796124,
            "shoulder_pan_joint": 0.7066234856936794,
            "wrist_1_joint": 1.9546482284002225,
            "wrist_2_joint": -0.7096286983471962,
            "wrist_3_joint": 0.005740856962016249
        }
    },
    "waypoints": [
        {
            "positions": [
                0.7066234856936794,
                -1.4174107377796124,
                2.6216224122426386,
                1.9546482284002225,
                -0.7096286983471962,
                0.005740856962016249
            ]
        },
        {
            "positions": [
                0.6257696373844539,
                -1.405373356963661,
                2.5975923659113342,
                1.8276257561659892,
                -0.6495154823092203,
                -0.07046209193207507
            ]
        },
        {
            "positions": [
                0.5449157890752284,
                -1.3933359761477098,
                2.57356231958003,
                1.7006032839317557,
                -0.5894022662712444,
                -0.14666504082616638
            ]
        },
        {
            "positions": [
                0.44068657616228557,
                -1.3411878919158047,
                2.508784938632839,
                1.7331439030482139,
                -0.7066626765137571,
                -0.13470477043034315
            ]
        },
        {
            "positions": [
                0.3364573632493427,
                -1.2890398076838994,
                2.444007557685648,
                1.765684522164672,
                -0.8239230867562699,
                -0.1227445000345199
            ]
        },
        {
            "positions": [
                0.23222815033639982,
                -1.2368917234519943,
                2.379230176738457,
                1.79822514128113,
                -0.9411834969987827,
                -0.11078422963869666
            ]
        },
        {
            "positions": [
                0.12799893742345697,
                -1.184743639220089,
                2.314452795791266,
                1.8307657603975882,
                -1.0584439072412954,
                -0.09882395924287342
            ]
        },
        {
            "positions": [
                0.023769724510514068,
                -1.1325955549881839,
                2.249675414844075,
                1.8633063795140463,
                -1.1757043174838082,
                -0.08686368884705017
            ]
        },
        {
            "positions": [
                -0.08045948840242878,
                -1.0804474707562788,
                2.184898033896884,
                1.8958469986305042,
                -1.292964727726321,
                -0.07490341845122693
            ]
        },
        {
            "positions": [
                -0.18468870131537163,
                -1.0282993865243735,
                2.120120652949693,
                1.9283876177469623,
                -1.4102251379688338,
                -0.06294314805540369
            ]
        },
        {
            "positions": [
                -0.2889179142283145,
                -0.9761513022924684,
                2.055343272002502,
                1.9609282368634204,
                -1.5274855482113465,
                -0.050982877659580456
            ]
        },
        {
            "positions": [
                -0.39314712714125744,
                -0.9240032180605631,
                1.990565891055311,
                1.9934688559798786,
                -1.6447459584538593,
                -0.0390226072637572
            ]
        },
        {
            "positions": [
                -0.4973763400542003,
                -0.871855133828658,
                1.92578851010812,
                2.0260094750963367,
                -1.762006368696372,
                -0.027062336867933953
            ]
        },
        {
            "positions": [
                -0.601605552967143,
                -0.8197070495967528,
                1.861011129160929,
                2.058550094212795,
                -1.8792667789388848,
                -0.015102066472110709
            ]
        },
        {
            "positions": [
                -0.705834765880086,
                -0.7675589653648477,
                1.796233748213738,
                2.091090713329253,
                -1.9965271891813976,
                -0.0031417960762874786
            ]
        },
        {
            "positions": [
                -0.8100639787930289,
                -0.7154108811329425,
                1.731456367266547,
                2.123631332445711,
                -2.1137875994239104,
                0.00881847431953578
            ]
        },
        {
            "positions": [
                -0.9142931917059718,
                -0.6632627969010373,
                1.666678986319356,
                2.156171951562169,
                -2.231048009666423,
                0.020778744715359003
            ]
        }
    ]
}