{
    "goal": {
        "global_pose": {
            "orientation": {
                "w": -0.4816463035849501,
                "x": 0.5182115481033762,
                "y": 0.4908360881923453,
                "z": -0.5084816262002911
            },
            "position": {
                "x": -0.8240239810943604,
                "y": 0.19912469901144506,
                "z": 0.16403168439865112
            }
        },
        "name": "move_to_storage_D"
    },
    "id": "ProjEST_move_to_storage_D_84",
    "joint_names": [
        "shoulder_pan_joint",
        "shoulder_lift_joint",
        "elbow_joint",
        "wrist_1_joint",
        "wrist_2_joint",
        "wrist_3_joint"
    ],
    "metrics": {
        "cart_traj_len": 3.269853778260798,
        "distance_elbow_joint": 4.213941668825019,
        "distance_shoulder_lift_joint": 1.2643732595754418,
        "distance_shoulder_pan_joint": 2.8130912499735015,
        "distance_wrist_1_joint": 2.6557251686172325,
        "distance_wrist_2_joint": 1.0281157379725356,
        "distance_wrist_3_joint": 3.132814951463199,
        "smoothness": 0.03146543210365232,
        "time": 0.115856501,
        "traj_len": 3.8869090594490276,
        "weighted_distance": 5.0057499783691854
    },
    "planner": "ProjEST",
    "start": {
        "state": {
            "elbow_joint": -2.384821988534728,
            "shoulder_lift_joint": -2.2788054721415256,
            "shoulder_pan_joint": -0.1854694642142757,
            "wrist_1_joint": 1.4845938289331202,
            "wrist_2_joint": 0.17898776772866878,
            "wrist_3_joint": 0.037105688729662994
        }
    },
    "waypoints": [
        {
            "positions": [
                -0.1854694642142757,
                -2.2788054721415256,
                -2.384821988534728,
                1.4845938289331202,
                0.17898776772866878,
                0.037105688729662994
            ]
        },
        {
            "positions": [
                -0.11938678395448797,
                -2.22880995418579,
                -2.383362152149491,
                1.520578639516957,
                0.1645389451694127,
                -0.0498134137679974
            ]
        },
        {
            "positions": [
                -0.013320565615716914,
                -2.159278564078566,
                -2.3296219110488128,
                1.5312521775373567,
                0.1599962638242357,
                -0.18225721387768756
            ]
        },
        {
            "positions": [
                0.09274565272305414,
                -2.0897471739713422,
                -2.2758816699481343,
                1.5419257155577564,
                0.1554535824790587,
                -0.3147010139873777
            ]
        },
        {
            "positions": [
                0.19881187106182518,
                -2.0202157838641184,
                -2.222141428847456,
                1.552599253578156,
                0.1509109011338817,
                -0.44714481409706786
            ]
        },
        {
            "positions": [
                0.30487808940059624,
                -1.9506843937568947,
                -2.168401187746777,
                1.5632727915985558,
                0.1463682197887047,
                -0.579588614206758
            ]
        },
        {
            "positions": [
                0.4109443077393673,
                -1.8811530036496709,
                -2.1146609466460986,
                1.5739463296189555,
                0.1418255384435277,
                -0.7120324143164483
            ]
        },
        {
            "positions": [
                0.5170105260781384,
                -1.811621613542447,
                -2.06092070554542,
                1.5846198676393553,
                0.1372828570983507,
                -0.8444762144261383
            ]
        },
        {
            "positions": [
                0.6230767444169094,
                -1.7420902234352231,
                -2.0071804644447417,
                1.595293405659755,
                0.1327401757531737,
                -0.9769200145358286
            ]
        },
        {
            "positions": [
                0.7291429627556805,
                -1.6725588333279995,
                -1.9534402233440633,
                1.605966943680155,
                0.12819749440799671,
                -1.1093638146455185
            ]
        },
        {
            "positions": [
                0.8352091810944516,
                -1.6030274432207754,
                -1.8996999822433847,
                1.6166404817005546,
                0.1236548130628197,
                -1.2418076147552088
            ]
        },
        {
            "positions": [
                0.9412753994332226,
                -1.5334960531135517,
                -1.8459597411427062,
                1.6273140197209544,
                0.1191121317176427,
                -1.374251414864899
            ]
        },
        {
            "positions": [
                1.0473416177719936,
                -1.4639646630063279,
                -1.7922195000420278,
                1.637987557741354,
                0.11456945037246571,
                -1.5066952149745891
            ]
        },
        {
            "positions": [
                1.1534078361107647,
                -1.394433272899104,
                -1.7384792589413491,
                1.6486610957617538,
                0.11002676902728872,
                -1.639139015084279
            ]
        },
        {
            "positions": [
                1.2594740544495358,
                -1.3249018827918801,
                -1.6847390178406707,
                1.6593346337821535,
                0.1054840876821117,
                -1.7715828151939694
            ]
        },
        {
            "positions": [
                1.3655402727883068,
                -1.2553704926846563,
                -1.6309987767399923,
                1.6700081718025532,
                0.10094140633693471,
                -1.9040266153036596
            ]
        },
        {
            "positions": [
                1.4160235333071436,
                -1.2457329614799133,
                -1.492594038458781,
                1.5711957387726412,
                0.1389441814001668,
                -1.9516939212008546
            ]
        },
        {
            "positions": [
                1.4665067938259804,
                -1.2360954302751705,
                -1.3541893001775696,
                1.4723833057427294,
                0.17694695646339886,
                -1.9993612270980496
            ]
        },
        {
            "positions": [
                1.5169900543448172,
                -1.2264578990704276,
                -1.2157845618963583,
                1.3735708727128175,
                0.2149497315266309,
                -2.047028532995245
            ]
        },
        {
            "positions": [
                1.567473314863654,
                -1.2168203678656846,
                -1.0773798236151468,
                1.2747584396829055,
                0.252952506589863,
                -2.0946958388924397
            ]
        },
        {
            "positions": [
                1.6179565753824905,
                -1.2071828366609418,
                -0.9389750853339356,
                1.1759460066529934,
                0.29095528165309503,
                -2.142363144789635
            ]
        },
        {
            "positions": [
                1.6684398359013273,
                -1.1975453054561989,
                -0.8005703470527242,
                1.0771335736230816,
                0.3289580567163271,
                -2.19003045068683
            ]
        },
        {
            "positions": [
                1.718923096420164,
                -1.1879077742514559,
                -0.6621656087715129,
                0.9783211405931695,
                0.36696083177955924,
                -2.237697756584025
            ]
        },
        {
            "positions": [
                1.7694063569390008,
                -1.1782702430467131,
                -0.5237608704903016,
                0.8795087075632577,
                0.40496360684279126,
                -2.2853650624812203
            ]
        },
        {
            "positions": [
                1.8198896174578376,
                -1.1686327118419702,
                -0.3853561322090904,
                0.7806962745333458,
                0.44296638190602333,
                -2.333032368378415
            ]
        },
        {
            "positions": [
                1.8703728779766744,
                -1.1589951806372274,
                -0.2469513939278789,
                0.6818838415034337,
                0.4809691569692554,
                -2.3806996742756104
            ]
        },
        {
            "positions": [
                1.9208561384955112,
                -1.1493576494324844,
                -0.10854665564666766,
                0.5830714084735218,
                0.5189719320324875,
                -2.4283669801728056
            ]
        },
        {
            "positions": [
                1.9713393990143477,
                -1.1397201182277414,
                0.029858082634543814,
                0.48425897544360996,
                0.5569747070957195,
                -2.4760342860700004
            ]
        },
        {
            "positions": [
                2.0218226595331847,
                -1.1300825870229987,
                0.16826282091575506,
                0.3854465424136979,
                0.5949774821589516,
                -2.5237015919671957
            ]
        },
        {
            "positions": [
                2.0723059200520213,
                -1.1204450558182557,
                0.30666755919696653,
                0.28663410938378586,
                0.6329802572221838,
                -2.5713688978643905
            ]
        },
        {
            "positions": [
                2.122789180570858,
                -1.1108075246135127,
                0.4450722974781778,
                0.18782167635387403,
                0.6709830322854157,
                -2.6190362037615857
            ]
        },
        {
            "positions": [
                2.173272441089695,
                -1.10116999340877,
                0.583477035759389,
                0.0890092433239622,
                0.7089858073486478,
                -2.666703509658781
            ]
        },
        {
            "positions": [
                2.223755701608532,
                -1.091532462204027,
                0.7218817740406007,
                -0.009803189705949844,
                0.7469885824118799,
                -2.714370815555976
            ]
        },
        {
            "positions": [
                2.2742389621273684,
                -1.081894930999284,
                0.8602865123218115,
                -0.10861562273586167,
                0.784991357475112,
                -2.762038121453171
            ]
        },
        {
            "positions": [
                2.324722222646205,
                -1.0722573997945413,
                0.9986912506030232,
                -0.20742805576577372,
                0.822994132538344,
                -2.809705427350366
            ]
        },
        {
            "positions": [
                2.375205483165042,
                -1.0626198685897983,
                1.1370959888842345,
                -0.3062404887956858,
                0.8609969076015761,
                -2.857372733247561
            ]
        },
        {
            "positions": [
                2.4256887436838785,
                -1.0529823373850555,
                1.2755007271654457,
                -0.4050529218255976,
                0.8989996826648081,
                -2.9050400391447564
            ]
        },
        {
            "positions": [
                2.4761720042027155,
                -1.0433448061803126,
                1.413905465446657,
                -0.5038653548555097,
                0.9370024577280403,
                -2.952707345041951
            ]
        },
        {
            "positions": [
                2.526655264721552,
                -1.0337072749755696,
                1.5523102037278687,
                -0.6026777878854217,
                0.9750052327912723,
                -3.0003746509391465
            ]
        },
        {
            "positions": [
                2.5771385252403887,
                -1.0240697437708268,
                1.69071494200908,
                -0.7014902209153333,
                1.0130080078545043,
                -3.0480419568363413
            ]
        },
        {
            "positions": [
                2.6276217857592257,
                -1.0144322125660838,
                1.8291196802902912,
                -0.8003026539452456,
                1.0510107829177364,
                -3.0957092627335365
            ]
        }
    ]
}