{
    "goal": {
        "global_pose": {
            "orientation": {
                "w": 0.5084816262002911,
                "x": -0.4908360881923452,
                "y": 0.5182115481033761,
                "z": -0.48164630358495003
            },
            "position": {
                "x": 0.5540239810943604,
                "y": -0.46912469901144505,
                "z": 0.16403168439865112
            }
        },
        "name": "move_to_storage_B"
    },
    "id": "ProjEST_move_to_storage_B_44",
    "joint_names": [
        "shoulder_pan_joint",
        "shoulder_lift_joint",
        "elbow_joint",
        "wrist_1_joint",
        "wrist_2_joint",
        "wrist_3_joint"
    ],
    "metrics": {
        "cart_traj_len": 2.542221162197974,
        "distance_elbow_joint": 3.1458240336612038,
        "distance_shoulder_lift_joint": 0.9347143813060357,
        "distance_shoulder_pan_joint": 1.8853933797318645,
        "distance_wrist_1_joint": 2.98928483784169,
        "distance_wrist_2_joint": 2.7095110533895563,
        "distance_wrist_3_joint": 3.169461454781325,
        "smoothness": 0.44226482104083054,
        "time": 0.2106269,
        "traj_len": 3.851517771049703,
        "weighted_distance": 5.183812105150569
    },
    "planner": "ProjEST",
    "start": {
        "state": {
            "elbow_joint": 1.664937868594044,
            "shoulder_lift_joint": -0.661644460510453,
            "shoulder_pan_joint": -0.9139846352900073,
            "wrist_1_joint": 2.146753192139373,
            "wrist_2_joint": -2.2341966793290973,
            "wrist_3_joint": 0.005466555786416001
        }
    },
    "waypoints": [
        {
            "positions": [
                -0.9139846352900073,
                -0.661644460510453,
                1.664937868594044,
                2.146753192139373,
                -2.2341966793290973,
                0.005466555786416001
            ]
        },
        {
            "positions": [
                -0.8424748139092195,
                -0.7051289891009829,
                1.6470911432275825,
                2.0563323747350726,
                -2.1345341318755207,
                -0.0026419998630547474
            ]
        },
        {
            "positions": [
                -0.7709649925284316,
                -0.7486135176915127,
                1.6292444178611212,
                1.9659115573307715,
                -2.0348715844219436,
                -0.010750555512525496
            ]
        },
        {
            "positions": [
                -0.831755245405775,
                -0.7845500673444669,
                1.5491858423636158,
                1.8867758375400645,
                -1.9261770595210579,
                0.009747007874694
            ]
        },
        {
            "positions": [
                -0.8925454982831181,
                -0.8204866169974209,
                1.4691272668661102,
                1.8076401177493575,
                -1.817482534620172,
                0.030244571261913496
            ]
        },
        {
            "positions": [
                -0.9533357511604614,
                -0.856423166650375,
                1.3890686913686048,
                1.7285043979586505,
                -1.7087880097192862,
                0.05074213464913299
            ]
        },
        {
            "positions": [
                -1.0141260040378046,
                -0.892359716303329,
                1.3090101158710992,
                1.6493686781679435,
                -1.6000934848184003,
                0.0712396980363525
            ]
        },
        {
            "positions": [
                -1.0749162569151478,
                -0.9282962659562831,
                1.2289515403735938,
                1.5702329583772365,
                -1.4913989599175146,
                0.09173726142357197
            ]
        },
        {
            "positions": [
                -1.1357065097924912,
                -0.9642328156092372,
                1.1488929648760884,
                1.4910972385865295,
                -1.3827044350166289,
                0.11223482481079147
            ]
        },
        {
            "positions": [
                -1.1964967626698344,
                -1.0001693652621912,
                1.068834389378583,
                1.4119615187958228,
                -1.2740099101157432,
                0.13273238819801098
            ]
        },
        {
            "positions": [
                -1.2572870155471776,
                -1.0361059149151453,
                0.9887758138810774,
                1.3328257990051158,
                -1.1653153852148572,
                0.15322995158523048
            ]
        },
        {
            "positions": [
                -1.318077268424521,
                -1.0720424645680995,
                0.908717238383572,
                1.2536900792144088,
                -1.0566208603139715,
                0.17372751497244995
            ]
        },
        {
            "positions": [
                -1.3788675213018642,
                -1.1079790142210535,
                0.8286586628860665,
                1.1745543594237018,
                -0.9479263354130856,
                0.19422507835966946
            ]
        },
        {
            "positions": [
                -1.4396577741792074,
                -1.1439155638740075,
                0.748600087388561,
                1.0954186396329948,
                -0.8392318105121999,
                0.21472264174688896
            ]
        },
        {
            "positions": [
                -1.5004480270565508,
                -1.1798521135269617,
                0.6685415118910555,
                1.0162829198422878,
                -0.7305372856113139,
                0.23522020513410846
            ]
        },
        {
            "positions": [
                -1.5612382799338937,
                -1.2157886631799157,
                0.5884829363935502,
                0.937147200051581,
                -0.6218427607104284,
                0.2557177685213279
            ]
        },
        {
            "positions": [
                -1.6220285328112372,
                -1.2517252128328697,
                0.5084243608960446,
                0.858011480260874,
                -0.5131482358095425,
                0.2762153319085474
            ]
        },
        {
            "positions": [
                -1.6828187856885806,
                -1.2876617624858238,
                0.4283657853985392,
                0.778875760470167,
                -0.4044537109086568,
                0.2967128952957669
            ]
        },
        {
            "positions": [
                -1.7436090385659235,
                -1.323598312138778,
                0.3483072099010336,
                0.69974004067946,
                -0.29575918600777085,
                0.3172104586829864
            ]
        },
        {
            "positions": [
                -1.804399291443267,
                -1.359534861791732,
                0.2682486344035282,
                0.6206043208887531,
                -0.18706466110688524,
                0.3377080220702059
            ]
        },
        {
            "positions": [
                -1.7689523195404944,
                -1.347693662790494,
                0.35570537437706257,
                0.5474475225591996,
                -0.15394570934851792,
                0.47794731036518856
            ]
        },
        {
            "positions": [
                -1.7335053476377216,
                -1.3358524637892564,
                0.44316211435059694,
                0.47429072422964613,
                -0.12082675759015062,
                0.6181865986601711
            ]
        },
        {
            "positions": [
                -1.698058375734949,
                -1.3240112647880184,
                0.5306188543241313,
                0.4011339259000928,
                -0.08770780583178332,
                0.7584258869551537
            ]
        },
        {
            "positions": [
                -1.6626114038321762,
                -1.3121700657867807,
                0.6180755942976657,
                0.32797712757053926,
                -0.05458885407341599,
                0.8986651752501364
            ]
        },
        {
            "positions": [
                -1.6271644319294036,
                -1.3003288667855428,
                0.7055323342712001,
                0.25482032924098585,
                -0.021469902315048695,
                1.038904463545119
            ]
        },
        {
            "positions": [
                -1.5917174600266308,
                -1.288487667784305,
                0.7929890742447344,
                0.18166353091143245,
                0.011649049443318599,
                1.1791437518401016
            ]
        },
        {
            "positions": [
                -1.5562704881238583,
                -1.2766464687830672,
                0.8804458142182688,
                0.10850673258187904,
                0.04476800120168592,
                1.3193830401350843
            ]
        },
        {
            "positions": [
                -1.5208235162210855,
                -1.2648052697818293,
                0.9679025541918033,
                0.035349934252325466,
                0.07788695296005327,
                1.4596223284300671
            ]
        },
        {
            "positions": [
                -1.485376544318313,
                -1.2529640707805916,
                1.0553592941653376,
                -0.037806864077227886,
                0.11100590471842053,
                1.5998616167250495
            ]
        },
        {
            "positions": [
                -1.4499295724155403,
                -1.2411228717793537,
                1.142816034138872,
                -0.11096366240678135,
                0.14412485647678785,
                1.7401009050200322
            ]
        },
        {
            "positions": [
                -1.4144826005127675,
                -1.2292816727781157,
                1.2302727741124064,
                -0.1841204607363348,
                0.17724380823515518,
                1.880340193315015
            ]
        },
        {
            "positions": [
                -1.379035628609995,
                -1.217440473776878,
                1.3177295140859406,
                -0.25727725906588816,
                0.21036275999352244,
                2.0205794816099973
            ]
        },
        {
            "positions": [
                -1.3435886567072222,
                -1.20559927477564,
                1.4051862540594753,
                -0.33043405739544174,
                0.24348171175188982,
                2.16081876990498
            ]
        },
        {
            "positions": [
                -1.3081416848044496,
                -1.1937580757744024,
                1.4926429940330095,
                -0.403590855724995,
                0.2766006635102571,
                2.3010580581999625
            ]
        },
        {
            "positions": [
                -1.2726947129016768,
                -1.1819168767731645,
                1.580099734006544,
                -0.47674765405454855,
                0.3097196152686244,
                2.4412973464949452
            ]
        },
        {
            "positions": [
                -1.237247740998904,
                -1.1700756777719266,
                1.6675564739800783,
                -0.5499044523841021,
                0.3428385670269918,
                2.581536634789928
            ]
        },
        {
            "positions": [
                -1.2018007690961316,
                -1.1582344787706889,
                1.7550132139536125,
                -0.6230612507136555,
                0.375957518785359,
                2.7217759230849103
            ]
        },
        {
            "positions": [
                -1.1663537971933589,
                -1.146393279769451,
                1.8424699539271472,
                -0.6962180490432088,
                0.4090764705437263,
                2.862015211379893
            ]
        },
        {
            "positions": [
                -1.130906825290586,
                -1.1345520807682132,
                1.9299266939006814,
                -0.7693748473727622,
                0.44219542230209363,
                3.0022544996748755
            ]
        },
        {
            "positions": [
                -1.0954598533878135,
                -1.1227108817669753,
                2.017383433874216,
                -0.8425316457023156,
                0.4753143740604609,
                3.1424937879698582
            ]
        }
    ]
}