{
    "goal": {
        "global_pose": {
            "orientation": {
                "w": -0.4816463035849501,
                "x": 0.5182115481033762,
                "y": 0.4908360881923453,
                "z": -0.5084816262002911
            },
            "position": {
                "x": -0.8240239810943604,
                "y": 0.19912469901144506,
                "z": 0.16403168439865112
            }
        },
        "name": "move_to_storage_D"
    },
    "id": "ProjEST_move_to_storage_D_24",
    "joint_names": [
        "shoulder_pan_joint",
        "shoulder_lift_joint",
        "elbow_joint",
        "wrist_1_joint",
        "wrist_2_joint",
        "wrist_3_joint"
    ],
    "metrics": {
        "cart_traj_len": 3.949369181153902,
        "distance_elbow_joint": 4.20930244008298,
        "distance_shoulder_lift_joint": 1.2658481066036193,
        "distance_shoulder_pan_joint": 2.8146251558703206,
        "distance_wrist_1_joint": 2.269565101020489,
        "distance_wrist_2_joint": 0.9046755495785833,
        "distance_wrist_3_joint": 3.143039845930028,
        "smoothness": 0.0012719926058897921,
        "time": 0.09921819,
        "traj_len": 3.8219178692229923,
        "weighted_distance": 4.905851255546294
    },
    "planner": "ProjEST",
    "start": {
        "state": {
            "elbow_joint": -2.384821988534728,
            "shoulder_lift_joint": -2.2788054721415256,
            "shoulder_pan_joint": -0.1854694642142757,
            "wrist_1_joint": 1.4845938289331202,
            "wrist_2_joint": 0.17898776772866878,
            "wrist_3_joint": 0.037105688729662994
        }
    },
    "waypoints": [
        {
            "positions": [
                -0.1854694642142757,
                -2.2788054721415256,
                -2.384821988534728,
                1.4845938289331202,
                0.17898776772866878,
                0.037105688729662994
            ]
        },
        {
            "positions": [
                -0.08965727527340467,
                -2.2482313460636343,
                -2.2470780645187354,
                1.4259939849570407,
                0.22600670707552178,
                0.04489883989864184
            ]
        },
        {
            "positions": [
                0.006154913667466372,
                -2.217657219985743,
                -2.1093341405027424,
                1.3673941409809613,
                0.2730256464223748,
                0.05269199106762068
            ]
        },
        {
            "positions": [
                0.10196710260833738,
                -2.1870830939078516,
                -1.9715902164867498,
                1.3087942970048818,
                0.3200445857692278,
                0.06048514223659952
            ]
        },
        {
            "positions": [
                0.19777929154920845,
                -2.1565089678299603,
                -1.8338462924707573,
                1.2501944530288025,
                0.36706352511608087,
                0.06827829340557837
            ]
        },
        {
            "positions": [
                0.29359148049007944,
                -2.125934841752069,
                -1.6961023684547645,
                1.191594609052723,
                0.41408246446293384,
                0.0760714445745572
            ]
        },
        {
            "positions": [
                0.3894036694309505,
                -2.0953607156741776,
                -1.5583584444387717,
                1.1329947650766434,
                0.4611014038097868,
                0.08386459574353605
            ]
        },
        {
            "positions": [
                0.4852158583718216,
                -2.0647865895962862,
                -1.4206145204227791,
                1.0743949211005641,
                0.5081203431566399,
                0.09165774691251488
            ]
        },
        {
            "positions": [
                0.5810280473126926,
                -2.034212463518395,
                -1.2828705964067864,
                1.0157950771244846,
                0.5551392825034929,
                0.09945089808149374
            ]
        },
        {
            "positions": [
                0.6768402362535636,
                -2.0036383374405036,
                -1.1451266723907938,
                0.9571952331484052,
                0.6021582218503458,
                0.10724404925047257
            ]
        },
        {
            "positions": [
                0.7726524251944347,
                -1.973064211362612,
                -1.007382748374801,
                0.8985953891723257,
                0.6491771611971989,
                0.11503720041945141
            ]
        },
        {
            "positions": [
                0.8684646141353057,
                -1.9424900852847207,
                -0.8696388243588082,
                0.8399955451962462,
                0.6961961005440519,
                0.12283035158843027
            ]
        },
        {
            "positions": [
                0.9642768030761767,
                -1.9119159592068293,
                -0.7318949003428157,
                0.7813957012201668,
                0.7432150398909049,
                0.13062350275740908
            ]
        },
        {
            "positions": [
                1.0600889920170478,
                -1.8813418331289378,
                -0.5941509763268229,
                0.7227958572440872,
                0.790233979237758,
                0.13841665392638797
            ]
        },
        {
            "positions": [
                1.1559011809579187,
                -1.8507677070510467,
                -0.45640705231083034,
                0.6641960132680079,
                0.8372529185846109,
                0.1462098050953668
            ]
        },
        {
            "positions": [
                1.25171336989879,
                -1.820193580973155,
                -0.31866312829483734,
                0.6055961692919284,
                0.884271857931464,
                0.15400295626434563
            ]
        },
        {
            "positions": [
                1.3475255588396609,
                -1.7896194548952638,
                -0.18091920427884478,
                0.546996325315849,
                0.931290797278317,
                0.16179610743332445
            ]
        },
        {
            "positions": [
                1.4433377477805318,
                -1.7590453288173724,
                -0.04317528026285222,
                0.48839648133976943,
                0.97830973662517,
                0.1695892586023033
            ]
        },
        {
            "positions": [
                1.5391499367214028,
                -1.728471202739481,
                0.09456864375314034,
                0.4297966373636901,
                1.025328675972023,
                0.17738240977128214
            ]
        },
        {
            "positions": [
                1.634962125662274,
                -1.6978970766615897,
                0.2323125677691334,
                0.3711967933876106,
                1.072347615318876,
                0.185175560940261
            ]
        },
        {
            "positions": [
                1.6872881028198408,
                -1.661847618181396,
                0.3161108774417186,
                0.310345842573138,
                1.07175205205633,
                0.3428055595570731
            ]
        },
        {
            "positions": [
                1.7396140799774078,
                -1.6257981597012021,
                0.3999091871143038,
                0.2494948917586655,
                1.071156488793784,
                0.5004355581738852
            ]
        },
        {
            "positions": [
                1.7919400571349746,
                -1.589748701221008,
                0.483707496786889,
                0.18864394094419296,
                1.0705609255312376,
                0.6580655567906973
            ]
        },
        {
            "positions": [
                1.8442660342925417,
                -1.5536992427408143,
                0.5675058064594742,
                0.1277929901297204,
                1.0699653622686915,
                0.8156955554075094
            ]
        },
        {
            "positions": [
                1.8965920114501085,
                -1.5176497842606205,
                0.6513041161320594,
                0.06694203931524784,
                1.0693697990061455,
                0.9733255540243215
            ]
        },
        {
            "positions": [
                1.9489179886076755,
                -1.4816003257804264,
                0.7351024258046446,
                0.006091088500775332,
                1.0687742357435994,
                1.1309555526411337
            ]
        },
        {
            "positions": [
                2.001243965765242,
                -1.4455508673002326,
                0.81890073547723,
                -0.05475986231369723,
                1.0681786724810534,
                1.2885855512579458
            ]
        },
        {
            "positions": [
                2.053569942922809,
                -1.4095014088200388,
                0.9026990451498151,
                -0.11561081312816979,
                1.067583109218507,
                1.4462155498747578
            ]
        },
        {
            "positions": [
                2.105895920080376,
                -1.373451950339845,
                0.9864973548224003,
                -0.17646176394264235,
                1.066987545955961,
                1.60384554849157
            ]
        },
        {
            "positions": [
                2.1582218972379428,
                -1.3374024918596512,
                1.0702956644949855,
                -0.2373127147571149,
                1.066391982693415,
                1.761475547108382
            ]
        },
        {
            "positions": [
                2.21054787439551,
                -1.3013530333794572,
                1.1540939741675709,
                -0.29816366557158747,
                1.065796419430869,
                1.9191055457251944
            ]
        },
        {
            "positions": [
                2.262873851553077,
                -1.2653035748992634,
                1.2378922838401558,
                -0.3590146163860599,
                1.0652008561683226,
                2.0767355443420064
            ]
        },
        {
            "positions": [
                2.315199828710644,
                -1.2292541164190696,
                1.3216905935127412,
                -0.4198655672005326,
                1.0646052929057765,
                2.2343655429588187
            ]
        },
        {
            "positions": [
                2.3675258058682105,
                -1.1932046579388755,
                1.4054889031853264,
                -0.48071651801500503,
                1.0640097296432305,
                2.3919955415756307
            ]
        },
        {
            "positions": [
                2.4198517830257775,
                -1.1571551994586817,
                1.4892872128579115,
                -0.5415674688294777,
                1.0634141663806844,
                2.5496255401924426
            ]
        },
        {
            "positions": [
                2.4721777601833446,
                -1.121105740978488,
                1.5730855225304967,
                -0.6024184196439502,
                1.0628186031181384,
                2.7072555388092545
            ]
        },
        {
            "positions": [
                2.524503737340911,
                -1.085056282498294,
                1.656883832203082,
                -0.6632693704584227,
                1.062223039855592,
                2.864885537426067
            ]
        },
        {
            "positions": [
                2.576829714498478,
                -1.0490068240181003,
                1.740682141875667,
                -0.7241203212728953,
                1.061627476593046,
                3.022515536042879
            ]
        },
        {
            "positions": [
                2.6291556916560452,
                -1.0129573655379063,
                1.8244804515482524,
                -0.7849712720873679,
                1.0610319133305,
                3.180145534659691
            ]
        }
    ]
}