{
    "goal": {
        "global_pose": {
            "orientation": {
                "w": -0.00223480608172531,
                "x": 0.0024358444001904467,
                "y": 0.7094548369677653,
                "z": -0.704743149386269
            },
            "position": {
                "x": -0.37947507619857795,
                "y": -0.6371506643295288,
                "z": 0.19426114857196808
            }
        },
        "name": "move_to_magneteinheit_C"
    },
    "id": "ProjEST_move_to_magneteinheit_C_113",
    "joint_names": [
        "shoulder_pan_joint",
        "shoulder_lift_joint",
        "elbow_joint",
        "wrist_1_joint",
        "wrist_2_joint",
        "wrist_3_joint"
    ],
    "metrics": {
        "cart_traj_len": 1.8253739213233282,
        "distance_elbow_joint": 0.4281092486858351,
        "distance_shoulder_lift_joint": 1.6642357535267955,
        "distance_shoulder_pan_joint": 1.4581575252119945,
        "distance_wrist_1_joint": 1.9650309176551755,
        "distance_wrist_2_joint": 2.244514497280004,
        "distance_wrist_3_joint": 0.8522842146967928,
        "smoothness": 1.3266336596570794,
        "time": 0.40183148399999996,
        "traj_len": 2.934677521816766,
        "weighted_distance": 3.8113575011254666
    },
    "planner": "ProjEST",
    "start": {
        "state": {
            "elbow_joint": 1.9565354010623817,
            "shoulder_lift_joint": -1.4165861575791021,
            "shoulder_pan_joint": -1.6717766225146293,
            "wrist_1_joint": -0.5286633292919765,
            "wrist_2_joint": 1.472756589071564,
            "wrist_3_joint": -3.1238370188695823
        }
    },
    "waypoints": [
        {
            "positions": [
                -1.6717766225146293,
                -1.4165861575791021,
                1.9565354010623817,
                -0.5286633292919765,
                1.472756589071564,
                -3.1238370188695823
            ]
        },
        {
            "positions": [
                -1.6280939797881946,
                -1.5342169054582682,
                1.9260004662290222,
                -0.5864380552233723,
                1.5378053558542124,
                -3.054272999848607
            ]
        },
        {
            "positions": [
                -1.5844113370617599,
                -1.6518476533374342,
                1.895465531395663,
                -0.6442127811547681,
                1.602854122636861,
                -2.9847089808276315
            ]
        },
        {
            "positions": [
                -1.5407286943353253,
                -1.7694784012166003,
                1.8649305965623035,
                -0.7019875070861639,
                1.6679028894195094,
                -2.9151449618066563
            ]
        },
        {
            "positions": [
                -1.4970460516088906,
                -1.8871091490957665,
                1.834395661728944,
                -0.7597622330175597,
                1.7329516562021576,
                -2.845580942785681
            ]
        },
        {
            "positions": [
                -1.4533634088824559,
                -2.0047398969749324,
                1.8038607268955849,
                -0.8175369589489556,
                1.7980004229848061,
                -2.7760169237647054
            ]
        },
        {
            "positions": [
                -1.4096807661560211,
                -2.1223706448540987,
                1.7733257920622254,
                -0.8753116848803514,
                1.8630491897674546,
                -2.7064529047437302
            ]
        },
        {
            "positions": [
                -1.5160504301511875,
                -2.0942504499111623,
                1.7867756295470023,
                -0.7931975614700871,
                1.7107859268670171,
                -2.7103140477736565
            ]
        },
        {
            "positions": [
                -1.6224200941463538,
                -2.0661302549682263,
                1.800225467031779,
                -0.7110834380598229,
                1.55852266396658,
                -2.7141751908035827
            ]
        },
        {
            "positions": [
                -1.72878975814152,
                -2.03801006002529,
                1.813675304516556,
                -0.6289693146495587,
                1.4062594010661424,
                -2.7180363338335094
            ]
        },
        {
            "positions": [
                -1.8351594221366863,
                -2.009889865082354,
                1.8271251420013326,
                -0.5468551912392945,
                1.253996138165705,
                -2.7218974768634356
            ]
        },
        {
            "positions": [
                -1.9415290861318526,
                -1.9817696701394176,
                1.8405749794861095,
                -0.46474106782903024,
                1.1017328752652678,
                -2.725758619893362
            ]
        },
        {
            "positions": [
                -2.0478987501270187,
                -1.9536494751964815,
                1.8540248169708864,
                -0.38262694441876605,
                0.9494696123648304,
                -2.729619762923288
            ]
        },
        {
            "positions": [
                -2.154268414122185,
                -1.9255292802535453,
                1.867474654455663,
                -0.30051282100850185,
                0.7972063494643931,
                -2.7334809059532144
            ]
        },
        {
            "positions": [
                -2.2606380781173514,
                -1.897409085310609,
                1.88092449194044,
                -0.2183986975982375,
                0.6449430865639556,
                -2.737342048983141
            ]
        },
        {
            "positions": [
                -2.3670077421125177,
                -1.8692888903676728,
                1.8943743294252167,
                -0.13628457418797335,
                0.49267982366351815,
                -2.7412031920130673
            ]
        },
        {
            "positions": [
                -2.473377406107684,
                -1.8411686954247366,
                1.9078241669099936,
                -0.054170450777709045,
                0.3404165607630808,
                -2.7450643350429935
            ]
        },
        {
            "positions": [
                -2.4867053188928563,
                -1.7589210226640193,
                1.92955865368165,
                -0.15554620923033874,
                0.38373213446641774,
                -2.807980364921533
            ]
        },
        {
            "positions": [
                -2.5000332316780285,
                -1.676673349903302,
                1.9512931404533065,
                -0.2569219676829684,
                0.42704770816975474,
                -2.8708963948000727
            ]
        },
        {
            "positions": [
                -2.5133611444632007,
                -1.5944256771425849,
                1.9730276272249632,
                -0.35829772613559807,
                0.4703632818730917,
                -2.933812424678612
            ]
        },
        {
            "positions": [
                -2.526689057248373,
                -1.5121780043818676,
                1.9947621139966196,
                -0.45967348458822777,
                0.5136788555764287,
                -2.9967284545571515
            ]
        },
        {
            "positions": [
                -2.540016970033545,
                -1.4299303316211502,
                2.016496600768276,
                -0.5610492430408573,
                0.5569944292797656,
                -3.059644484435691
            ]
        },
        {
            "positions": [
                -2.5181084817082575,
                -1.3412600139482,
                2.0159203237750667,
                -0.657836754941194,
                0.5953315623007835,
                -3.0868806580620176
            ]
        },
        {
            "positions": [
                -2.4961999933829704,
                -1.2525896962752499,
                2.0153440467818573,
                -0.7546242668415306,
                0.6336686953218014,
                -3.1141168316883445
            ]
        },
        {
            "positions": [
                -2.474291505057683,
                -1.1639193786022997,
                2.014767769788648,
                -0.8514117787418674,
                0.6720058283428193,
                -3.141353005314671
            ]
        }
    ]
}