{
    "goal": {
        "global_pose": {
            "orientation": {
                "w": -0.00223480608172531,
                "x": 0.0024358444001904467,
                "y": 0.7094548369677653,
                "z": -0.704743149386269
            },
            "position": {
                "x": -0.37947507619857795,
                "y": -0.6371506643295288,
                "z": 0.19426114857196808
            }
        },
        "name": "move_to_magneteinheit_C"
    },
    "id": "ProjEST_move_to_magneteinheit_C_125",
    "joint_names": [
        "shoulder_pan_joint",
        "shoulder_lift_joint",
        "elbow_joint",
        "wrist_1_joint",
        "wrist_2_joint",
        "wrist_3_joint"
    ],
    "metrics": {
        "cart_traj_len": 0.8059333410563745,
        "distance_elbow_joint": 0.7709047142459942,
        "distance_shoulder_lift_joint": 0.6028207043084672,
        "distance_shoulder_pan_joint": 1.4333067518459368,
        "distance_wrist_1_joint": 0.3237137324364251,
        "distance_wrist_2_joint": 2.164788699367165,
        "distance_wrist_3_joint": 1.3573381155578104,
        "smoothness": 1.3326848036856263,
        "time": 0.741534574,
        "traj_len": 2.5793163275879523,
        "weighted_distance": 3.443261735721089
    },
    "planner": "ProjEST",
    "start": {
        "state": {
            "elbow_joint": 1.9565354010623817,
            "shoulder_lift_joint": -1.4165861575791021,
            "shoulder_pan_joint": -1.6717766225146293,
            "wrist_1_joint": -0.5286633292919765,
            "wrist_2_joint": 1.472756589071564,
            "wrist_3_joint": -3.1238370188695823
        }
    },
    "waypoints": [
        {
            "positions": [
                -1.6717766225146293,
                -1.4165861575791021,
                1.9565354010623817,
                -0.5286633292919765,
                1.472756589071564,
                -3.1238370188695823
            ]
        },
        {
            "positions": [
                -1.7734341636165447,
                -1.4324748794384161,
                1.9941739205174245,
                -0.540748618461435,
                1.3378773621926947,
                -3.0628071735783853
            ]
        },
        {
            "positions": [
                -1.87509170471846,
                -1.44836360129773,
                2.0318124399724673,
                -0.5528339076308934,
                1.2029981353138255,
                -3.001777328287188
            ]
        },
        {
            "positions": [
                -1.9767492458203753,
                -1.464252323157044,
                2.0694509594275097,
                -0.5649191968003519,
                1.0681189084349563,
                -2.9407474829959908
            ]
        },
        {
            "positions": [
                -2.0784067869222906,
                -1.4801410450163577,
                2.1070894788825525,
                -0.5770044859698104,
                0.9332396815560872,
                -2.8797176377047933
            ]
        },
        {
            "positions": [
                -2.180064328024206,
                -1.4960297668756717,
                2.1447279983375953,
                -0.5890897751392687,
                0.798360454677218,
                -2.8186877924135962
            ]
        },
        {
            "positions": [
                -2.2817218691261214,
                -1.5119184887349855,
                2.182366517792638,
                -0.6011750643087272,
                0.6634812277983488,
                -2.7576579471223988
            ]
        },
        {
            "positions": [
                -2.3833794102280366,
                -1.5278072105942995,
                2.220005037247681,
                -0.6132603534781857,
                0.5286020009194795,
                -2.6966281018312017
            ]
        },
        {
            "positions": [
                -2.485036951329952,
                -1.5436959324536133,
                2.2576435567027238,
                -0.6253456426476441,
                0.3937227740406104,
                -2.6355982565400042
            ]
        },
        {
            "positions": [
                -2.5866944924318673,
                -1.5595846543129273,
                2.295282076157766,
                -0.6374309318171026,
                0.25884354716174096,
                -2.574568411248807
            ]
        },
        {
            "positions": [
                -2.688352033533783,
                -1.575473376172241,
                2.332920595612809,
                -0.649516220986561,
                0.12396432028287196,
                -2.51353856595761
            ]
        },
        {
            "positions": [
                -2.790009574635698,
                -1.591362098031555,
                2.3705591150678518,
                -0.6616015101560195,
                -0.010914906595997309,
                -2.4525087206664127
            ]
        },
        {
            "positions": [
                -2.74499903181786,
                -1.5302128460521245,
                2.3195761150334913,
                -0.6888551603806455,
                0.08638755107537469,
                -2.550510123145647
            ]
        },
        {
            "positions": [
                -2.6999884890000216,
                -1.4690635940726937,
                2.2685931149991307,
                -0.7161088106052715,
                0.18369000874674668,
                -2.6485115256248815
            ]
        },
        {
            "positions": [
                -2.6549779461821834,
                -1.4079143420932632,
                2.2176101149647702,
                -0.7433624608298975,
                0.2809924664181187,
                -2.746512928104116
            ]
        },
        {
            "positions": [
                -2.6099674033643447,
                -1.3467650901138326,
                2.1666271149304093,
                -0.7706161110545235,
                0.37829492408949067,
                -2.8445143305833502
            ]
        },
        {
            "positions": [
                -2.5649568605465065,
                -1.2856158381344018,
                2.1156441148960488,
                -0.7978697612791495,
                0.47559738176086275,
                -2.9425157330625846
            ]
        },
        {
            "positions": [
                -2.5199463177286683,
                -1.2244665861549713,
                2.0646611148616882,
                -0.8251234115037756,
                0.5728998394322347,
                -3.040517135541819
            ]
        },
        {
            "positions": [
                -2.47493577491083,
                -1.1633173341755407,
                2.0136781148273277,
                -0.8523770617284016,
                0.6702022971036068,
                -3.1385185380210534
            ]
        }
    ]
}