{
    "goal": {
        "global_pose": {
            "orientation": {
                "w": 0.005598929693374612,
                "x": 0.007748599140229565,
                "y": 0.7110244013736278,
                "z": -0.7031023480610252
            },
            "position": {
                "x": -0.8858502320852131,
                "y": -0.7141253447532654,
                "z": 0.3711530566215515
            }
        },
        "name": "move_to_auspresseinheit_C"
    },
    "id": "ProjEST_move_to_auspresseinheit_C_149",
    "joint_names": [
        "shoulder_pan_joint",
        "shoulder_lift_joint",
        "elbow_joint",
        "wrist_1_joint",
        "wrist_2_joint",
        "wrist_3_joint"
    ],
    "metrics": {
        "cart_traj_len": 0.49348189213490923,
        "distance_elbow_joint": 1.0001861240330736,
        "distance_shoulder_lift_joint": 0.32545988195876807,
        "distance_shoulder_pan_joint": 0.2564793948724393,
        "distance_wrist_1_joint": 0.6721145948556868,
        "distance_wrist_2_joint": 1.3100180694038062,
        "distance_wrist_3_joint": 0.05355773122505081,
        "smoothness": 0.0,
        "time": 0.043071003999999996,
        "traj_len": 1.9020556764587162,
        "weighted_distance": 2.388946195094904
    },
    "planner": "ProjEST",
    "start": {
        "state": {
            "elbow_joint": 1.7527959577737207,
            "shoulder_lift_joint": -0.9740617694225068,
            "shoulder_pan_joint": -2.967991417825858,
            "wrist_1_joint": -0.759517768980727,
            "wrist_2_joint": 1.7443932448377408,
            "wrist_3_joint": -3.0840537646736568
        }
    },
    "waypoints": [
        {
            "positions": [
                -2.967991417825858,
                -0.9740617694225068,
                1.7527959577737207,
                -0.759517768980727,
                1.7443932448377408,
                -3.0840537646736568
            ]
        },
        {
            "positions": [
                -2.942343478338614,
                -0.9415157812266299,
                1.6527773453704133,
                -0.6923063094951583,
                1.6133914378973602,
                -3.0894095377961617
            ]
        },
        {
            "positions": [
                -2.91669553885137,
                -0.9089697930307532,
                1.552758732967106,
                -0.6250948500095896,
                1.4823896309569795,
                -3.094765310918667
            ]
        },
        {
            "positions": [
                -2.8910475993641263,
                -0.8764238048348764,
                1.4527401205637986,
                -0.5578833905240209,
                1.351387824016599,
                -3.100121084041172
            ]
        },
        {
            "positions": [
                -2.865399659876882,
                -0.8438778166389995,
                1.3527215081604913,
                -0.49067193103845225,
                1.2203860170762182,
                -3.1054768571636773
            ]
        },
        {
            "positions": [
                -2.8397517203896383,
                -0.8113318284431228,
                1.2527028957571837,
                -0.4234604715528836,
                1.0893842101358377,
                -3.110832630286182
            ]
        },
        {
            "positions": [
                -2.8141037809023945,
                -0.778785840247246,
                1.1526842833538766,
                -0.3562490120673149,
                0.9583824031954572,
                -3.116188403408687
            ]
        },
        {
            "positions": [
                -2.7884558414151503,
                -0.7462398520513691,
                1.052665670950569,
                -0.28903755258174624,
                0.8273805962550765,
                -3.1215441765311924
            ]
        },
        {
            "positions": [
                -2.7628079019279066,
                -0.7136938638554924,
                0.9526470585472617,
                -0.2218260930961775,
                0.6963787893146958,
                -3.1268999496536973
            ]
        },
        {
            "positions": [
                -2.7371599624406624,
                -0.6811478756596154,
                0.8526284461439544,
                -0.1546146336106088,
                0.5653769823743153,
                -3.1322557227762027
            ]
        },
        {
            "positions": [
                -2.7115120229534186,
                -0.6486018874637387,
                0.752609833740647,
                -0.08740317412504013,
                0.4343751754339346,
                -3.1376114958987076
            ]
        }
    ]
}