{
    "goal": {
        "global_pose": {
            "orientation": {
                "w": 0.7031023502349854,
                "x": -0.7110244035720825,
                "y": 0.007748599164187908,
                "z": 0.005598929710686207
            },
            "position": {
                "x": 0.11585023208521307,
                "y": 0.44412534475326537,
                "z": 0.3711530566215515
            }
        },
        "name": "move_to_auspresseinheit_A"
    },
    "id": "ProjEST_move_to_auspresseinheit_A_7",
    "joint_names": [
        "shoulder_pan_joint",
        "shoulder_lift_joint",
        "elbow_joint",
        "wrist_1_joint",
        "wrist_2_joint",
        "wrist_3_joint"
    ],
    "metrics": {
        "cart_traj_len": 2.4334662675597967,
        "distance_elbow_joint": 1.6236997380716733,
        "distance_shoulder_lift_joint": 1.0103711780282458,
        "distance_shoulder_pan_joint": 2.0610299427982097,
        "distance_wrist_1_joint": 1.7242250959962666,
        "distance_wrist_2_joint": 0.6533770160463915,
        "distance_wrist_3_joint": 4.286179509971436,
        "smoothness": 0.6183378700885795,
        "time": 0.50931895,
        "traj_len": 3.370294123798726,
        "weighted_distance": 4.723223858012422
    },
    "planner": "ProjEST",
    "start": {
        "state": {
            "elbow_joint": 2.4225746658250005,
            "shoulder_lift_joint": -1.3736534386056498,
            "shoulder_pan_joint": -0.3378633547517467,
            "wrist_1_joint": -1.0288598680537169,
            "wrist_2_joint": 1.233022673432363,
            "wrist_3_joint": -3.0940220416140027
        }
    },
    "waypoints": [
        {
            "positions": [
                -0.3378633547517467,
                -1.3736534386056498,
                2.4225746658250005,
                -1.0288598680537169,
                1.233022673432363,
                -3.0940220416140027
            ]
        },
        {
            "positions": [
                -0.325146336543407,
                -1.38217886867497,
                2.3043994835553288,
                -0.973136630878048,
                1.2109253735782395,
                -2.9577874858917292
            ]
        },
        {
            "positions": [
                -0.3124293183350673,
                -1.3907042987442904,
                2.1862243012856566,
                -0.9174133937023792,
                1.1888280737241161,
                -2.821552930169456
            ]
        },
        {
            "positions": [
                -0.2997123001267276,
                -1.3992297288136106,
                2.068049119015985,
                -0.8616901565267103,
                1.1667307738699926,
                -2.6853183744471827
            ]
        },
        {
            "positions": [
                -0.2869952819183879,
                -1.407755158882931,
                1.949873936746313,
                -0.8059669193510415,
                1.1446334740158692,
                -2.549083818724909
            ]
        },
        {
            "positions": [
                -0.2742782637100482,
                -1.4162805889522512,
                1.831698754476641,
                -0.7502436821753726,
                1.1225361741617457,
                -2.412849263002636
            ]
        },
        {
            "positions": [
                -0.26156124550170856,
                -1.4248060190215714,
                1.713523572206969,
                -0.6945204449997038,
                1.1004388743076223,
                -2.2766147072803626
            ]
        },
        {
            "positions": [
                -0.24884422729336883,
                -1.4333314490908917,
                1.595348389937297,
                -0.6387972078240349,
                1.0783415744534988,
                -2.140380151558089
            ]
        },
        {
            "positions": [
                -0.11580570942969826,
                -1.4979682425920422,
                1.5969818363339616,
                -0.5703644390639641,
                1.0593665505183134,
                -2.0337829386201207
            ]
        },
        {
            "positions": [
                0.01723280843397232,
                -1.5626050360931927,
                1.5986152827306264,
                -0.5019316703038932,
                1.0403915265831283,
                -1.9271857256821523
            ]
        },
        {
            "positions": [
                0.15027132629764287,
                -1.6272418295943432,
                1.6002487291272909,
                -0.4334989015438223,
                1.021416502647943,
                -1.8205885127441839
            ]
        },
        {
            "positions": [
                0.28330984416131344,
                -1.6918786230954936,
                1.6018821755239554,
                -0.3650661327837514,
                1.0024414787127578,
                -1.7139912998062155
            ]
        },
        {
            "positions": [
                0.41634836202498404,
                -1.7565154165966441,
                1.6035156219206201,
                -0.2966333640236805,
                0.9834664547775724,
                -1.607394086868247
            ]
        },
        {
            "positions": [
                0.5493868798886545,
                -1.8211522100977946,
                1.6051490683172847,
                -0.22820059526360964,
                0.9644914308423872,
                -1.5007968739302786
            ]
        },
        {
            "positions": [
                0.6824253977523252,
                -1.885789003598945,
                1.6067825147139494,
                -0.15976782650353877,
                0.945516406907202,
                -1.3941996609923102
            ]
        },
        {
            "positions": [
                0.8154639156159957,
                -1.9504257971000956,
                1.608415961110614,
                -0.09133505774346784,
                0.9265413829720166,
                -1.2876024480543418
            ]
        },
        {
            "positions": [
                0.9485024334796666,
                -2.015062590601246,
                1.6100494075072784,
                -0.022902288983396968,
                0.9075663590368314,
                -1.1810052351163733
            ]
        },
        {
            "positions": [
                1.081540951343337,
                -2.0796993841023967,
                1.6116828539039432,
                0.045530479776673904,
                0.8885913351016461,
                -1.074408022178405
            ]
        },
        {
            "positions": [
                1.2145794692070075,
                -2.144336177603547,
                1.6133163003006077,
                0.11396324853674483,
                0.8696163111664609,
                -0.9678108092404365
            ]
        },
        {
            "positions": [
                1.1711109519808904,
                -2.129733230619246,
                1.6890767295263256,
                0.08144599893490555,
                0.8441102652976874,
                -1.147043283028931
            ]
        },
        {
            "positions": [
                1.1276424347547735,
                -2.115130283634944,
                1.7648371587520437,
                0.04892874933306626,
                0.8186042194289138,
                -1.3262757568174257
            ]
        },
        {
            "positions": [
                1.0841739175286564,
                -2.100527336650643,
                1.8405975879777616,
                0.016411499731226964,
                0.7930981735601403,
                -1.5055082306059202
            ]
        },
        {
            "positions": [
                1.0407054003025393,
                -2.0859243896663413,
                1.9163580172034798,
                -0.016105749870612307,
                0.7675921276913668,
                -1.684740704394415
            ]
        },
        {
            "positions": [
                0.9972368830764223,
                -2.07132144268204,
                1.9921184464291977,
                -0.04862299947245163,
                0.7420860818225933,
                -1.8639731781829094
            ]
        },
        {
            "positions": [
                0.9537683658503053,
                -2.0567184956977385,
                2.0678788756549156,
                -0.0811402490742909,
                0.7165800359538197,
                -2.043205651971404
            ]
        },
        {
            "positions": [
                0.9102998486241882,
                -2.0421155487134373,
                2.143639304880634,
                -0.1136574986761302,
                0.6910739900850462,
                -2.222438125759899
            ]
        },
        {
            "positions": [
                0.8668313313980711,
                -2.0275126017291356,
                2.219399734106352,
                -0.14617474827796945,
                0.6655679442162727,
                -2.4016705995483933
            ]
        },
        {
            "positions": [
                0.8233628141719541,
                -2.0129096547448344,
                2.2951601633320697,
                -0.17869199787980877,
                0.6400618983474992,
                -2.580903073336888
            ]
        },
        {
            "positions": [
                0.7940201982208535,
                -1.9858441757019254,
                2.319325585529369,
                -0.25087868112712164,
                0.6551659585878811,
                -2.7176220767122423
            ]
        },
        {
            "positions": [
                0.7646775822697527,
                -1.9587786966590164,
                2.3434910077266684,
                -0.32306536437443456,
                0.670270018828263,
                -2.8543410800875972
            ]
        },
        {
            "positions": [
                0.735334966318652,
                -1.9317132176161074,
                2.3676564299239677,
                -0.3952520476217475,
                0.6853740790686449,
                -2.991060083462952
            ]
        },
        {
            "positions": [
                0.7059923503675514,
                -1.9046477385731984,
                2.391821852121267,
                -0.46743873086906035,
                0.7004781393090268,
                -3.1277790868383066
            ]
        }
    ]
}