{
    "goal": {
        "global_pose": {
            "orientation": {
                "w": 0.005598929693374612,
                "x": 0.007748599140229565,
                "y": 0.7110244013736278,
                "z": -0.7031023480610252
            },
            "position": {
                "x": -0.8858502320852131,
                "y": -0.7141253447532654,
                "z": 0.3711530566215515
            }
        },
        "name": "move_to_auspresseinheit_C"
    },
    "id": "ProjEST_move_to_auspresseinheit_C_93",
    "joint_names": [
        "shoulder_pan_joint",
        "shoulder_lift_joint",
        "elbow_joint",
        "wrist_1_joint",
        "wrist_2_joint",
        "wrist_3_joint"
    ],
    "metrics": {
        "cart_traj_len": 0.49472486421256945,
        "distance_elbow_joint": 1.0125593772219,
        "distance_shoulder_lift_joint": 0.330747860814784,
        "distance_shoulder_pan_joint": 0.2569491969980202,
        "distance_wrist_1_joint": 0.699322876706146,
        "distance_wrist_2_joint": 1.3126311000736572,
        "distance_wrist_3_joint": 0.07719486463102232,
        "smoothness": 3.2297397335745243e-16,
        "time": 0.011451169999999998,
        "traj_len": 1.9207824646340173,
        "weighted_distance": 2.4198654885111646
    },
    "planner": "ProjEST",
    "start": {
        "state": {
            "elbow_joint": 1.7527959577737207,
            "shoulder_lift_joint": -0.9740617694225068,
            "shoulder_pan_joint": -2.967991417825858,
            "wrist_1_joint": -0.759517768980727,
            "wrist_2_joint": 1.7443932448377408,
            "wrist_3_joint": -3.0840537646736568
        }
    },
    "waypoints": [
        {
            "positions": [
                -2.967991417825858,
                -0.9740617694225068,
                1.7527959577737207,
                -0.759517768980727,
                1.7443932448377408,
                -3.0840537646736568
            ]
        },
        {
            "positions": [
                -2.9422964981260558,
                -0.9409869833410284,
                1.6515400200515307,
                -0.6895854813101123,
                1.613130134830375,
                -3.091773251136759
            ]
        },
        {
            "positions": [
                -2.916601578426254,
                -0.90791219725955,
                1.5502840823293407,
                -0.6196531936394978,
                1.4818670248230092,
                -3.0994927375998613
            ]
        },
        {
            "positions": [
                -2.890906658726452,
                -0.8748374111780716,
                1.4490281446071507,
                -0.5497209059688832,
                1.3506039148156437,
                -3.1072122240629634
            ]
        },
        {
            "positions": [
                -2.86521173902665,
                -0.8417626250965932,
                1.3477722068849607,
                -0.4797886182982686,
                1.219340804808278,
                -3.114931710526066
            ]
        },
        {
            "positions": [
                -2.839516819326848,
                -0.8086878390151148,
                1.2465162691627707,
                -0.409856330627654,
                1.088077694800912,
                -3.122651196989168
            ]
        },
        {
            "positions": [
                -2.8138218996270457,
                -0.7756130529336364,
                1.1452603314405807,
                -0.3399240429570394,
                0.9568145847935465,
                -3.13037068345227
            ]
        },
        {
            "positions": [
                -2.788126979927244,
                -0.742538266852158,
                1.0440043937183907,
                -0.26999175528642483,
                0.8255514747861808,
                -3.1380901699153725
            ]
        },
        {
            "positions": [
                -2.7624320602274417,
                -0.7094634807706796,
                0.9427484559962007,
                -0.20005946761581017,
                0.694288364778815,
                -3.1458096563784745
            ]
        },
        {
            "positions": [
                -2.73673714052764,
                -0.6763886946892012,
                0.8414925182740107,
                -0.13012717994519551,
                0.5630252547714494,
                -3.153529142841577
            ]
        },
        {
            "positions": [
                -2.7110422208278377,
                -0.6433139086077228,
                0.7402365805518207,
                -0.06019489227458094,
                0.4317621447640836,
                -3.161248629304679
            ]
        }
    ]
}