{
    "goal": {
        "global_pose": {
            "orientation": {
                "w": 0.5084816217422485,
                "x": -0.49083608388900757,
                "y": 0.5182115435600281,
                "z": -0.4816462993621826
            },
            "position": {
                "x": 0.5540239810943604,
                "y": 0.030875300988554955,
                "z": 0.16403168439865112
            }
        },
        "name": "move_to_storage_A"
    },
    "id": "ProjEST_move_to_storage_A_99",
    "joint_names": [
        "shoulder_pan_joint",
        "shoulder_lift_joint",
        "elbow_joint",
        "wrist_1_joint",
        "wrist_2_joint",
        "wrist_3_joint"
    ],
    "metrics": {
        "cart_traj_len": 0.3533569385717328,
        "distance_elbow_joint": 0.4531263585732719,
        "distance_shoulder_lift_joint": 0.23425112363741296,
        "distance_shoulder_pan_joint": 0.464043738935988,
        "distance_wrist_1_joint": 0.2516794324106898,
        "distance_wrist_2_joint": 1.0915044090580643,
        "distance_wrist_3_joint": 0.0949687495971232,
        "smoothness": 1.1102230263833737e-15,
        "time": 0.11956737299999999,
        "traj_len": 1.6092152783927172,
        "weighted_distance": 2.0304421077380046
    },
    "planner": "ProjEST",
    "start": {
        "state": {
            "elbow_joint": 1.971548259319323,
            "shoulder_lift_joint": -1.1394851275133948,
            "shoulder_pan_joint": 0.1228115487234821,
            "wrist_1_joint": -0.7804723859257726,
            "wrist_2_joint": 0.12958671773740124,
            "wrist_3_joint": -3.192489227718131
        }
    },
    "waypoints": [
        {
            "positions": [
                0.1228115487234821,
                -1.1394851275133948,
                1.971548259319323,
                -0.7804723859257726,
                0.12958671773740124,
                -3.192489227718131
            ]
        },
        {
            "positions": [
                0.056519586018340964,
                -1.172949573747311,
                2.036280596258362,
                -0.8164265905558712,
                0.28551591903141044,
                -3.1789222634899708
            ]
        },
        {
            "positions": [
                -0.009772376686800172,
                -1.206414019981227,
                2.1010129331974006,
                -0.8523807951859697,
                0.4414451203254196,
                -3.1653552992618104
            ]
        },
        {
            "positions": [
                -0.07606433939194132,
                -1.2398784662151432,
                2.1657452701364397,
                -0.8883349998160682,
                0.5973743216194288,
                -3.15178833503365
            ]
        },
        {
            "positions": [
                -0.14235630209708244,
                -1.2733429124490594,
                2.2304776070754784,
                -0.9242892044461668,
                0.753303522913438,
                -3.138221370805489
            ]
        },
        {
            "positions": [
                -0.2086482648022236,
                -1.3068073586829756,
                2.295209944014517,
                -0.9602434090762653,
                0.9092327242074473,
                -3.1246544065773287
            ]
        },
        {
            "positions": [
                -0.27494022750736474,
                -1.3402718049168916,
                2.359942280953556,
                -0.9961976137063638,
                1.0651619255014564,
                -3.1110874423491683
            ]
        },
        {
            "positions": [
                -0.3412321902125059,
                -1.3737362511508078,
                2.424674617892595,
                -1.0321518183364624,
                1.2210911267954656,
                -3.097520478121008
            ]
        }
    ]
}{
    "goal": {
        "global_pose": {
            "orientation": {
                "w": 0.5084816217422485,
                "x": -0.49083608388900757,
                "y": 0.5182115435600281,
                "z": -0.4816462993621826
            },
            "position": {
                "x": 0.5540239810943604,
                "y": 0.030875300988554955,
                "z": 0.16403168439865112
            }
        },
        "name": "move_to_storage_A"
    },
    "id": "ProjEST_move_to_storage_A_99",
    "joint_names": [
        "shoulder_pan_joint",
        "shoulder_lift_joint",
        "elbow_joint",
        "wrist_1_joint",
        "wrist_2_joint",
        "wrist_3_joint"
    ],
    "metrics": {
        "cart_traj_len": 0.3524566348972325,
        "distance_elbow_joint": 0.45264427747952984,
        "distance_shoulder_lift_joint": 0.23408989588106266,
        "distance_shoulder_pan_joint": 0.4580384294759827,
        "distance_wrist_1_joint": 0.2587135572984216,
        "distance_wrist_2_joint": 1.1096614893640855,
        "distance_wrist_3_joint": 0.09209423485838819,
        "smoothness": 0.0,
        "time": 0.04399304,
        "traj_len": 1.614076170556232,
        "weighted_distance": 2.039069739056699
    },
    "planner": "ProjEST",
    "start": {
        "state": {
            "elbow_joint": 1.97154746011099,
            "shoulder_lift_joint": -1.13948474672311,
            "shoulder_pan_joint": 0.12281154466712228,
            "wrist_1_joint": -0.7804688027058302,
            "wrist_2_joint": 0.12958655903071145,
            "wrist_3_joint": 3.0906928834467795
        }
    },
    "waypoints": [
        {
            "positions": [
                0.12281154466712228,
                -1.13948474672311,
                1.97154746011099,
                -0.7804688027058302,
                0.12958655903071145,
                3.0906928834467795
            ]
        },
        {
            "positions": [
                0.05737748331341047,
                -1.1729261604204047,
                2.0362109283223515,
                -0.8174278823198904,
                0.2881096289398665,
                3.1038492027122637
            ]
        },
        {
            "positions": [
                -0.00805657804030134,
                -1.2063675741176993,
                2.1008743965337127,
                -0.8543869619339506,
                0.44663269884902157,
                3.1170055219777475
            ]
        },
        {
            "positions": [
                -0.07349063939401317,
                -1.239808987814994,
                2.1655378647450743,
                -0.8913460415480109,
                0.6051557687581767,
                3.1301618412432317
            ]
        },
        {
            "positions": [
                -0.13892470074772495,
                -1.2732504015122885,
                2.2302013329564354,
                -0.9283051211620711,
                0.7636788386673318,
                3.1433181605087155
            ]
        },
        {
            "positions": [
                -0.20435876210143678,
                -1.3066918152095832,
                2.294864801167797,
                -0.9652642007761314,
                0.9222019085764869,
                3.1564744797741997
            ]
        },
        {
            "positions": [
                -0.2697928234551486,
                -1.340133228906878,
                2.359528269379158,
                -1.0022232803901916,
                1.0807249784856419,
                3.1696307990396835
            ]
        },
        {
            "positions": [
                -0.3352268848088604,
                -1.3735746426041726,
                2.4241917375905198,
                -1.0391823600042518,
                1.239248048394797,
                3.1827871183051677
            ]
        }
    ]
}{
    "goal": {
        "global_pose": {
            "orientation": {
                "w": 0.5084816217422485,
                "x": -0.49083608388900757,
                "y": 0.5182115435600281,
                "z": -0.4816462993621826
            },
            "position": {
                "x": 0.5540239810943604,
                "y": 0.030875300988554955,
                "z": 0.16403168439865112
            }
        },
        "name": "move_to_storage_A"
    },
    "id": "ProjEST_move_to_storage_A_99",
    "joint_names": [
        "shoulder_pan_joint",
        "shoulder_lift_joint",
        "elbow_joint",
        "wrist_1_joint",
        "wrist_2_joint",
        "wrist_3_joint"
    ],
    "metrics": {
        "cart_traj_len": 0.35356471086000446,
        "distance_elbow_joint": 0.45172149214816093,
        "distance_shoulder_lift_joint": 0.23286543194848242,
        "distance_shoulder_pan_joint": 0.46354780223672004,
        "distance_wrist_1_joint": 0.2522333595468613,
        "distance_wrist_2_joint": 1.093940058049086,
        "distance_wrist_3_joint": 0.09923398050512633,
        "smoothness": 0.0,
        "time": 0.075559422,
        "traj_len": 1.6104478024557136,
        "weighted_distance": 2.034252566187551
    },
    "planner": "ProjEST",
    "start": {
        "state": {
            "elbow_joint": 1.9715472970024885,
            "shoulder_lift_joint": -1.1394870060712896,
            "shoulder_pan_joint": 0.12281152778156021,
            "wrist_1_joint": -0.780463741449964,
            "wrist_2_joint": 0.12958659822042276,
            "wrist_3_joint": 3.090690232415272
        }
    },
    "waypoints": [
        {
            "positions": [
                0.12281152778156021,
                -1.1394870060712896,
                1.9715472970024885,
                -0.780463741449964,
                0.12958659822042276,
                3.090690232415272
            ]
        },
        {
            "positions": [
                0.0565904131763145,
                -1.1727534963496442,
                2.03607893873794,
                -0.8164970785280871,
                0.28586374937029213,
                3.104866515344576
            ]
        },
        {
            "positions": [
                -0.009630701428931215,
                -1.2060199866279988,
                2.1006105804733917,
                -0.8525304156062101,
                0.44214090052016153,
                3.1190427982738793
            ]
        },
        {
            "positions": [
                -0.07585181603417693,
                -1.2392864769063534,
                2.1651422222088432,
                -0.8885637526843331,
                0.5984180516700309,
                3.1332190812031833
            ]
        },
        {
            "positions": [
                -0.14207293063942264,
                -1.272552967184708,
                2.229673863944295,
                -0.9245970897624561,
                0.7546952028199003,
                3.1473953641324868
            ]
        },
        {
            "positions": [
                -0.20829404524466835,
                -1.3058194574630628,
                2.2942055056797463,
                -0.9606304268405792,
                0.9109723539697698,
                3.1615716470617907
            ]
        },
        {
            "positions": [
                -0.27451515984991404,
                -1.3390859477414174,
                2.358737147415198,
                -0.9966637639187023,
                1.0672495051196391,
                3.1757479299910942
            ]
        },
        {
            "positions": [
                -0.3407362744551598,
                -1.372352438019772,
                2.4232687891506495,
                -1.0326971009968253,
                1.2235266562695086,
                3.189924212920398
            ]
        }
    ]
}