{
    "goal": {
        "global_pose": {
            "orientation": {
                "w": 0.7031023480610252,
                "x": -0.7110244013736278,
                "y": 0.0077485991402295624,
                "z": 0.005598929693374583
            },
            "position": {
                "x": -0.8841497679147869,
                "y": 0.44412534475326537,
                "z": 0.3711530566215515
            }
        },
        "name": "move_to_auspresseinheit_D"
    },
    "id": "ProjEST_move_to_auspresseinheit_D_131",
    "joint_names": [
        "shoulder_pan_joint",
        "shoulder_lift_joint",
        "elbow_joint",
        "wrist_1_joint",
        "wrist_2_joint",
        "wrist_3_joint"
    ],
    "metrics": {
        "cart_traj_len": 0.3444489685558932,
        "distance_elbow_joint": 0.6655996750392401,
        "distance_shoulder_lift_joint": 0.1365463100925055,
        "distance_shoulder_pan_joint": 0.13426291956010813,
        "distance_wrist_1_joint": 0.6266024659126392,
        "distance_wrist_2_joint": 1.430810222089085,
        "distance_wrist_3_joint": 0.07953200750007428,
        "smoothness": 5.921189511553294e-16,
        "time": 0.024592428,
        "traj_len": 1.7530982859479534,
        "weighted_distance": 2.299963109094475
    },
    "planner": "ProjEST",
    "start": {
        "state": {
            "elbow_joint": -1.8275523626775212,
            "shoulder_lift_joint": -2.126789852344167,
            "shoulder_pan_joint": -0.03513704404078235,
            "wrist_1_joint": -2.347782403156801,
            "wrist_2_joint": -1.6058999987535132,
            "wrist_3_joint": -3.0880379163319196
        }
    },
    "waypoints": [
        {
            "positions": [
                -0.03513704404078235,
                -2.126789852344167,
                -1.8275523626775212,
                -2.347782403156801,
                -1.6058999987535132,
                -3.0880379163319196
            ]
        },
        {
            "positions": [
                -0.05191990898579586,
                -2.14385814110573,
                -1.744352403297616,
                -2.426107711395881,
                -1.4270487209923775,
                -3.0780964153944104
            ]
        },
        {
            "positions": [
                -0.06870277393080938,
                -2.160926429867293,
                -1.6611524439177112,
                -2.504433019634961,
                -1.248197443231242,
                -3.068154914456901
            ]
        },
        {
            "positions": [
                -0.08548563887582289,
                -2.1779947186288564,
                -1.5779524845378061,
                -2.5827583278740405,
                -1.0693461654701064,
                -3.058213413519392
            ]
        },
        {
            "positions": [
                -0.10226850382083641,
                -2.1950630073904196,
                -1.4947525251579012,
                -2.6610836361131205,
                -0.8904948877089707,
                -3.0482719125818827
            ]
        },
        {
            "positions": [
                -0.11905136876584993,
                -2.212131296151983,
                -1.4115525657779961,
                -2.7394089443522005,
                -0.711643609947835,
                -3.038330411644373
            ]
        },
        {
            "positions": [
                -0.13583423371086345,
                -2.229199584913546,
                -1.328352606398091,
                -2.81773425259128,
                -0.5327923321866994,
                -3.028388910706864
            ]
        },
        {
            "positions": [
                -0.15261709865587697,
                -2.246267873675109,
                -1.2451526470181862,
                -2.89605956083036,
                -0.3539410544255639,
                -3.0184474097693546
            ]
        },
        {
            "positions": [
                -0.1693999636008905,
                -2.2633361624366723,
                -1.161952687638281,
                -2.97438486906944,
                -0.17508977666442824,
                -3.0085059088318453
            ]
        }
    ]
}