{
    "goal": {
        "global_pose": {
            "orientation": {
                "w": 0.5084816262002911,
                "x": -0.4908360881923452,
                "y": 0.5182115481033761,
                "z": -0.48164630358495003
            },
            "position": {
                "x": 0.5540239810943604,
                "y": -0.46912469901144505,
                "z": 0.16403168439865112
            }
        },
        "name": "move_to_storage_B"
    },
    "id": "ProjEST_move_to_storage_B_125",
    "joint_names": [
        "shoulder_pan_joint",
        "shoulder_lift_joint",
        "elbow_joint",
        "wrist_1_joint",
        "wrist_2_joint",
        "wrist_3_joint"
    ],
    "metrics": {
        "cart_traj_len": 0.6603394692591659,
        "distance_elbow_joint": 0.3715468082559177,
        "distance_shoulder_lift_joint": 0.4594831219468858,
        "distance_shoulder_pan_joint": 0.32366521318321795,
        "distance_wrist_1_joint": 2.9943847264831507,
        "distance_wrist_2_joint": 2.7010804140597005,
        "distance_wrist_3_joint": 3.1298070101783764,
        "smoothness": 0.09909833946099654,
        "time": 0.116943204,
        "traj_len": 3.1591086233472967,
        "weighted_distance": 4.683486570388224
    },
    "planner": "ProjEST",
    "start": {
        "state": {
            "elbow_joint": 1.664937868594044,
            "shoulder_lift_joint": -0.661644460510453,
            "shoulder_pan_joint": -0.9139846352900073,
            "wrist_1_joint": 2.146753192139373,
            "wrist_2_joint": -2.2341966793290973,
            "wrist_3_joint": 0.005466555786416001
        }
    },
    "waypoints": [
        {
            "positions": [
                -0.9139846352900073,
                -0.661644460510453,
                1.664937868594044,
                2.146753192139373,
                -2.2341966793290973,
                0.005466555786416001
            ]
        },
        {
            "positions": [
                -0.8435682202124188,
                -0.7117464356306267,
                1.65461902000537,
                2.1453633212608096,
                -2.2113572254927245,
                -0.022433129514073457
            ]
        },
        {
            "positions": [
                -0.853698172136644,
                -0.7281216815036952,
                1.6690681383920598,
                2.025643527036626,
                -2.104227587083791,
                -0.1465094225091889
            ]
        },
        {
            "positions": [
                -0.8638281240608692,
                -0.7444969273767637,
                1.6835172567787495,
                1.9059237328124428,
                -1.9970979486748583,
                -0.2705857155043044
            ]
        },
        {
            "positions": [
                -0.8739580759850943,
                -0.7608721732498321,
                1.6979663751654392,
                1.786203938588259,
                -1.8899683102659253,
                -0.39466200849941985
            ]
        },
        {
            "positions": [
                -0.8840880279093195,
                -0.7772474191229006,
                1.7124154935521292,
                1.6664841443640757,
                -1.7828386718569922,
                -0.5187383014945354
            ]
        },
        {
            "positions": [
                -0.8942179798335448,
                -0.7936226649959691,
                1.726864611938819,
                1.5467643501398922,
                -1.6757090334480589,
                -0.6428145944896508
            ]
        },
        {
            "positions": [
                -0.90434793175777,
                -0.8099979108690376,
                1.7413137303255086,
                1.4270445559157088,
                -1.568579395039126,
                -0.7668908874847663
            ]
        },
        {
            "positions": [
                -0.9144778836819951,
                -0.8263731567421061,
                1.7557628487121983,
                1.3073247616915251,
                -1.4614497566301927,
                -0.8909671804798818
            ]
        },
        {
            "positions": [
                -0.9246078356062203,
                -0.8427484026151746,
                1.770211967098888,
                1.1876049674673417,
                -1.3543201182212596,
                -1.0150434734749971
            ]
        },
        {
            "positions": [
                -0.9347377875304455,
                -0.859123648488243,
                1.7846610854855778,
                1.0678851732431582,
                -1.2471904798123266,
                -1.1391197664701125
            ]
        },
        {
            "positions": [
                -0.9448677394546706,
                -0.8754988943613116,
                1.7991102038722677,
                0.9481653790189748,
                -1.1400608414033935,
                -1.263196059465228
            ]
        },
        {
            "positions": [
                -0.9549976913788958,
                -0.8918741402343799,
                1.8135593222589574,
                0.8284455847947914,
                -1.0329312029944604,
                -1.3872723524603434
            ]
        },
        {
            "positions": [
                -0.965127643303121,
                -0.9082493861074485,
                1.8280084406456472,
                0.7087257905706079,
                -0.9258015645855273,
                -1.511348645455459
            ]
        },
        {
            "positions": [
                -0.9752575952273461,
                -0.9246246319805169,
                1.8424575590323369,
                0.5890059963464243,
                -0.818671926176594,
                -1.6354249384505744
            ]
        },
        {
            "positions": [
                -0.9853875471515714,
                -0.9409998778535855,
                1.8569066774190266,
                0.4692862021222406,
                -0.7115422877676609,
                -1.75950123144569
            ]
        },
        {
            "positions": [
                -0.9955174990757966,
                -0.9573751237266539,
                1.8713557958057163,
                0.3495664078980574,
                -0.6044126493587278,
                -1.8835775244408053
            ]
        },
        {
            "positions": [
                -1.0056474510000217,
                -0.9737503695997225,
                1.8858049141924063,
                0.22984661367387393,
                -0.49728301094979477,
                -2.007653817435921
            ]
        },
        {
            "positions": [
                -1.015777402924247,
                -0.9901256154727909,
                1.900254032579096,
                0.11012681944969005,
                -0.39015337254086147,
                -2.1317301104310364
            ]
        },
        {
            "positions": [
                -1.025907354848472,
                -1.0065008613458595,
                1.9147031509657857,
                -0.009592974774493168,
                -0.2830237341319286,
                -2.255806403426152
            ]
        },
        {
            "positions": [
                -1.0360373067726973,
                -1.0228761072189279,
                1.9291522693524754,
                -0.1293127689986764,
                -0.1758940957229953,
                -2.3798826964212676
            ]
        },
        {
            "positions": [
                -1.0461672586969224,
                -1.0392513530919965,
                1.9436013877391651,
                -0.24903256322286005,
                -0.06876445731406244,
                -2.503958989416383
            ]
        },
        {
            "positions": [
                -1.0562972106211477,
                -1.0556265989650648,
                1.9580505061258549,
                -0.36875235744704327,
                0.03836518109487086,
                -2.6280352824114983
            ]
        },
        {
            "positions": [
                -1.0664271625453727,
                -1.0720018448381334,
                1.9724996245125448,
                -0.48847215167122693,
                0.14549481950380372,
                -2.7521115754066137
            ]
        },
        {
            "positions": [
                -1.076557114469598,
                -1.0883770907112018,
                1.9869487428992345,
                -0.6081919458954106,
                0.252624457912737,
                -2.8761878684017295
            ]
        },
        {
            "positions": [
                -1.086687066393823,
                -1.1047523365842702,
                2.0013978612859242,
                -0.7279117401195938,
                0.3597540963216699,
                -3.000264161396845
            ]
        },
        {
            "positions": [
                -1.0968170183180483,
                -1.1211275824573388,
                2.015846979672614,
                -0.8476315343437775,
                0.4668837347306031,
                -3.12434045439196
            ]
        }
    ]
}