{
    "goal": {
        "global_pose": {
            "orientation": {
                "w": 0.7031023480610252,
                "x": -0.7110244013736278,
                "y": 0.0077485991402295624,
                "z": 0.005598929693374583
            },
            "position": {
                "x": -0.8841497679147869,
                "y": 0.44412534475326537,
                "z": 0.3711530566215515
            }
        },
        "name": "move_to_auspresseinheit_D"
    },
    "id": "ProjEST_move_to_auspresseinheit_D_5",
    "joint_names": [
        "shoulder_pan_joint",
        "shoulder_lift_joint",
        "elbow_joint",
        "wrist_1_joint",
        "wrist_2_joint",
        "wrist_3_joint"
    ],
    "metrics": {
        "cart_traj_len": 0.3432459789630736,
        "distance_elbow_joint": 0.6563658681937079,
        "distance_shoulder_lift_joint": 0.1317299483414507,
        "distance_shoulder_pan_joint": 0.1335209496245185,
        "distance_wrist_1_joint": 0.5989271902065054,
        "distance_wrist_2_joint": 1.430820898314788,
        "distance_wrist_3_joint": 0.06443423485148791,
        "smoothness": 0.0,
        "time": 0.106304273,
        "traj_len": 1.7366056229128302,
        "weighted_distance": 2.274734192769944
    },
    "planner": "ProjEST",
    "start": {
        "state": {
            "elbow_joint": -1.8275523626775212,
            "shoulder_lift_joint": -2.126789852344167,
            "shoulder_pan_joint": -0.03513704404078235,
            "wrist_1_joint": -2.347782403156801,
            "wrist_2_joint": -1.6058999987535132,
            "wrist_3_joint": -3.0880379163319196
        }
    },
    "waypoints": [
        {
            "positions": [
                -0.03513704404078235,
                -2.126789852344167,
                -1.8275523626775212,
                -2.347782403156801,
                -1.6058999987535132,
                -3.0880379163319196
            ]
        },
        {
            "positions": [
                -0.05182716274384716,
                -2.1432560958868483,
                -1.7455066291533077,
                -2.422648301932614,
                -1.4270473864641646,
                -3.0799836369754834
            ]
        },
        {
            "positions": [
                -0.06851728144691197,
                -2.1597223394295293,
                -1.6634608956290942,
                -2.4975142007084274,
                -1.248194774174816,
                -3.0719293576190476
            ]
        },
        {
            "positions": [
                -0.08520740014997678,
                -2.1761885829722107,
                -1.5814151621048806,
                -2.5723800994842403,
                -1.0693421618854677,
                -3.063875078262612
            ]
        },
        {
            "positions": [
                -0.1018975188530416,
                -2.192654826514892,
                -1.4993694285806671,
                -2.6472459982600536,
                -0.8904895495961191,
                -3.0558207989061756
            ]
        },
        {
            "positions": [
                -0.1185876375561064,
                -2.2091210700575736,
                -1.4173236950564538,
                -2.722111897035867,
                -0.7116369373067706,
                -3.0477665195497394
            ]
        },
        {
            "positions": [
                -0.1352777562591712,
                -2.225587313600255,
                -1.3352779615322403,
                -2.7969777958116797,
                -0.5327843250174222,
                -3.0397122401933037
            ]
        },
        {
            "positions": [
                -0.15196787496223604,
                -2.242053557142936,
                -1.2532322280080268,
                -2.871843694587493,
                -0.35393171272807367,
                -3.031657960836868
            ]
        },
        {
            "positions": [
                -0.16865799366530085,
                -2.2585198006856175,
                -1.1711864944838133,
                -2.9467095933633063,
                -0.17507910043872507,
                -3.0236036814804317
            ]
        }
    ]
}