{
    "goal": {
        "global_pose": {
            "orientation": {
                "w": -0.4816463035849501,
                "x": 0.5182115481033762,
                "y": 0.4908360881923453,
                "z": -0.5084816262002911
            },
            "position": {
                "x": -0.8240239810943604,
                "y": 0.19912469901144506,
                "z": 0.16403168439865112
            }
        },
        "name": "move_to_storage_D"
    },
    "id": "ProjEST_move_to_storage_D_53",
    "joint_names": [
        "shoulder_pan_joint",
        "shoulder_lift_joint",
        "elbow_joint",
        "wrist_1_joint",
        "wrist_2_joint",
        "wrist_3_joint"
    ],
    "metrics": {
        "cart_traj_len": 3.263804909889552,
        "distance_elbow_joint": 4.662085694015421,
        "distance_shoulder_lift_joint": 1.7421748556251253,
        "distance_shoulder_pan_joint": 3.2923186765186405,
        "distance_wrist_1_joint": 3.16071412080254,
        "distance_wrist_2_joint": 2.3610559072384163,
        "distance_wrist_3_joint": 3.5398932589883954,
        "smoothness": 0.3720445194703673,
        "time": 0.25153712500000003,
        "traj_len": 4.33107867778785,
        "weighted_distance": 5.5999820588289655
    },
    "planner": "ProjEST",
    "start": {
        "state": {
            "elbow_joint": -2.384821988534728,
            "shoulder_lift_joint": -2.2788054721415256,
            "shoulder_pan_joint": -0.1854694642142757,
            "wrist_1_joint": 1.4845938289331202,
            "wrist_2_joint": 0.17898776772866878,
            "wrist_3_joint": 0.037105688729662994
        }
    },
    "waypoints": [
        {
            "positions": [
                -0.1854694642142757,
                -2.2788054721415256,
                -2.384821988534728,
                1.4845938289331202,
                0.17898776772866878,
                0.037105688729662994
            ]
        },
        {
            "positions": [
                -0.21105958812954687,
                -2.21749806839681,
                -2.425594236630435,
                1.3419081829248942,
                0.24477771750475044,
                0.07208993664239255
            ]
        },
        {
            "positions": [
                -0.236649712044818,
                -2.1561906646520947,
                -2.4663664847261426,
                1.1992225369166685,
                0.31056766728083207,
                0.10707418455512212
            ]
        },
        {
            "positions": [
                -0.26223983596008915,
                -2.094883260907379,
                -2.5071387328218497,
                1.0565368909084425,
                0.37635761705691373,
                0.1420584324678517
            ]
        },
        {
            "positions": [
                -0.2878299598753603,
                -2.0335758571626634,
                -2.547910980917557,
                0.9138512449002166,
                0.4421475668329954,
                0.17704268038058124
            ]
        },
        {
            "positions": [
                -0.30745729052299753,
                -1.8867963857279455,
                -2.5568655785265206,
                0.9777910159422054,
                0.5657111131740657,
                0.16887218716316996
            ]
        },
        {
            "positions": [
                -0.32708462117063475,
                -1.7400169142932276,
                -2.565820176135485,
                1.0417307869841943,
                0.6892746595151361,
                0.16070169394575867
            ]
        },
        {
            "positions": [
                -0.34671195181827197,
                -1.5932374428585097,
                -2.5747747737444486,
                1.1056705580261832,
                0.8128382058562065,
                0.1525312007283474
            ]
        },
        {
            "positions": [
                -0.3663392824659092,
                -1.4464579714237917,
                -2.5837293713534124,
                1.1696103290681719,
                0.9364017521972768,
                0.1443607075109361
            ]
        },
        {
            "positions": [
                -0.3859666131135464,
                -1.2996784999890738,
                -2.592683968962376,
                1.2335501001101608,
                1.0599652985383472,
                0.1361902142935248
            ]
        },
        {
            "positions": [
                -0.40559394376118363,
                -1.1528990285543559,
                -2.6016385665713404,
                1.2974898711521496,
                1.1835288448794175,
                0.1280197210761135
            ]
        },
        {
            "positions": [
                -0.42522127440882085,
                -1.006119557119638,
                -2.610593164180304,
                1.3614296421941385,
                1.307092391220488,
                0.11984922785870222
            ]
        },
        {
            "positions": [
                -0.338043027370594,
                -1.013826557357121,
                -2.4854349767699437,
                1.3223031623679526,
                1.2831025328326426,
                0.013851117081693051
            ]
        },
        {
            "positions": [
                -0.2508647803323672,
                -1.0215335575946038,
                -2.3602767893595837,
                1.2831766825417668,
                1.2591126744447974,
                -0.09214699369531612
            ]
        },
        {
            "positions": [
                -0.1636865332941404,
                -1.029240557832087,
                -2.2351186019492233,
                1.244050202715581,
                1.2351228160569518,
                -0.1981451044723253
            ]
        },
        {
            "positions": [
                -0.07650828625591355,
                -1.0369475580695697,
                -2.1099604145388633,
                1.2049237228893952,
                1.2111329576691066,
                -0.30414321524933446
            ]
        },
        {
            "positions": [
                0.010669960782313248,
                -1.0446545583070528,
                -1.9848022271285028,
                1.1657972430632093,
                1.1871430992812613,
                -0.4101413260263437
            ]
        },
        {
            "positions": [
                0.09784820782054005,
                -1.0523615585445356,
                -1.8596440397181426,
                1.1266707632370234,
                1.163153240893416,
                -0.5161394368033528
            ]
        },
        {
            "positions": [
                0.1850264548587669,
                -1.0600685587820187,
                -1.7344858523077824,
                1.0875442834108378,
                1.1391633825055707,
                -0.622137547580362
            ]
        },
        {
            "positions": [
                0.27220470189699375,
                -1.0677755590195015,
                -1.6093276648974222,
                1.0484178035846519,
                1.1151735241177254,
                -0.7281356583573712
            ]
        },
        {
            "positions": [
                0.3593829489352206,
                -1.0754825592569845,
                -1.4841694774870617,
                1.009291323758466,
                1.09118366572988,
                -0.8341337691343804
            ]
        },
        {
            "positions": [
                0.44656119597344734,
                -1.0831895594944676,
                -1.3590112900767017,
                0.9701648439322801,
                1.0671938073420346,
                -0.9401318799113896
            ]
        },
        {
            "positions": [
                0.5337394430116742,
                -1.0908965597319504,
                -1.2338531026663413,
                0.9310383641060942,
                1.0432039489541893,
                -1.0461299906883987
            ]
        },
        {
            "positions": [
                0.6209176900499009,
                -1.0986035599694335,
                -1.108694915255981,
                0.8919118842799084,
                1.019214090566344,
                -1.152128101465408
            ]
        },
        {
            "positions": [
                0.7080959370881279,
                -1.1063105602069163,
                -0.9835367278456209,
                0.8527854044537225,
                0.9952242321784988,
                -1.258126212242417
            ]
        },
        {
            "positions": [
                0.7952741841263546,
                -1.1140175604443994,
                -0.8583785404352606,
                0.8136589246275368,
                0.9712343737906534,
                -1.3641243230194262
            ]
        },
        {
            "positions": [
                0.8824524311645814,
                -1.1217245606818822,
                -0.7332203530249002,
                0.7745324448013509,
                0.947244515402808,
                -1.4701224337964356
            ]
        },
        {
            "positions": [
                0.9696306782028083,
                -1.1294315609193653,
                -0.6080621656145402,
                0.735405964975165,
                0.9232546570149627,
                -1.5761205445734445
            ]
        },
        {
            "positions": [
                1.056808925241035,
                -1.137138561156848,
                -0.4829039782041802,
                0.6962794851489792,
                0.8992647986271174,
                -1.6821186553504537
            ]
        },
        {
            "positions": [
                1.143987172279262,
                -1.1448455613943311,
                -0.3577457907938193,
                0.6571530053227933,
                0.8752749402392721,
                -1.788116766127463
            ]
        },
        {
            "positions": [
                1.2311654193174888,
                -1.152552561631814,
                -0.2325876033834593,
                0.6180265254966074,
                0.8512850818514267,
                -1.894114876904472
            ]
        },
        {
            "positions": [
                1.3183436663557155,
                -1.160259561869297,
                -0.1074294159730993,
                0.5789000456704216,
                0.8272952234635814,
                -2.000112987681481
            ]
        },
        {
            "positions": [
                1.4055219133939423,
                -1.16796656210678,
                0.017728771437261148,
                0.5397735658442359,
                0.8033053650757361,
                -2.1061110984584905
            ]
        },
        {
            "positions": [
                1.4927001604321692,
                -1.175673562344263,
                0.1428869588476216,
                0.5006470860180499,
                0.7793155066878907,
                -2.2121092092355
            ]
        },
        {
            "positions": [
                1.5798784074703962,
                -1.183380562581746,
                0.2680451462579816,
                0.4615206061918641,
                0.7553256483000454,
                -2.3181073200125093
            ]
        },
        {
            "positions": [
                1.6670566545086227,
                -1.1910875628192288,
                0.39320333366834204,
                0.4223941263656783,
                0.7313357899122002,
                -2.424105430789518
            ]
        },
        {
            "positions": [
                1.7542349015468497,
                -1.1987945630567118,
                0.518361521078702,
                0.3832676465394924,
                0.7073459315243548,
                -2.530103541566527
            ]
        },
        {
            "positions": [
                1.8414131485850767,
                -1.2065015632941947,
                0.6435197084890625,
                0.3441411667133065,
                0.6833560731365095,
                -2.6361016523435365
            ]
        },
        {
            "positions": [
                1.9285913956233032,
                -1.2142085635316777,
                0.7686778958994229,
                0.30501468688712063,
                0.6593662147486641,
                -2.742099763120546
            ]
        },
        {
            "positions": [
                2.01576964266153,
                -1.2219155637691606,
                0.8938360833097829,
                0.26588820706093497,
                0.6353763563608188,
                -2.8480978738975544
            ]
        },
        {
            "positions": [
                2.102947889699757,
                -1.2296225640066436,
                1.018994270720143,
                0.22676172723474908,
                0.6113864979729735,
                -2.954095984674564
            ]
        },
        {
            "positions": [
                2.190126136737984,
                -1.2373295642441264,
                1.1441524581305038,
                0.1876352474085632,
                0.5873966395851281,
                -3.060094095451573
            ]
        },
        {
            "positions": [
                2.2773043837762104,
                -1.2450365644816095,
                1.2693106455408638,
                0.14850876758237735,
                0.5634067811972828,
                -3.1660922062285826
            ]
        },
        {
            "positions": [
                2.3273102706532196,
                -1.2120977168757143,
                1.3487978896335318,
                0.01572701545895544,
                0.6333018774434817,
                -3.1579748661245377
            ]
        },
        {
            "positions": [
                2.377316157530229,
                -1.1791588692698192,
                1.4282851337262,
                -0.11705473666446647,
                0.7031969736896806,
                -3.1498575260204933
            ]
        },
        {
            "positions": [
                2.427322044407238,
                -1.146220021663924,
                1.5077723778188679,
                -0.2498364887878884,
                0.7730920699358794,
                -3.1417401859164484
            ]
        },
        {
            "positions": [
                2.477327931284247,
                -1.1132811740580288,
                1.587259621911536,
                -0.3826182409113103,
                0.8429871661820783,
                -3.1336228458124036
            ]
        },
        {
            "positions": [
                2.527333818161256,
                -1.0803423264521337,
                1.666746866004204,
                -0.5153999930347324,
                0.9128822624282772,
                -3.1255055057083587
            ]
        },
        {
            "positions": [
                2.5773397050382654,
                -1.0474034788462385,
                1.746234110096872,
                -0.6481817451581542,
                0.9827773586744761,
                -3.1173881656043143
            ]
        },
        {
            "positions": [
                2.6273455919152746,
                -1.0144646312403434,
                1.82572135418954,
                -0.7809634972815762,
                1.052672454920675,
                -3.1092708255002695
            ]
        }
    ]
}