{
    "goal": {
        "global_pose": {
            "orientation": {
                "w": -0.4816463035849501,
                "x": 0.5182115481033762,
                "y": 0.4908360881923453,
                "z": -0.5084816262002911
            },
            "position": {
                "x": -0.8240239810943604,
                "y": -0.300875300988555,
                "z": 0.16403168439865112
            }
        },
        "name": "move_to_storage_C"
    },
    "id": "ProjEST_move_to_storage_C_89",
    "joint_names": [
        "shoulder_pan_joint",
        "shoulder_lift_joint",
        "elbow_joint",
        "wrist_1_joint",
        "wrist_2_joint",
        "wrist_3_joint"
    ],
    "metrics": {
        "cart_traj_len": 0.5764362338975139,
        "distance_elbow_joint": 0.25481856053352736,
        "distance_shoulder_lift_joint": 0.18953030641987145,
        "distance_shoulder_pan_joint": 0.4955780077055443,
        "distance_wrist_1_joint": 0.06762349964242897,
        "distance_wrist_2_joint": 1.0605608339279606,
        "distance_wrist_3_joint": 0.06000294740311318,
        "smoothness": 7.612957943425664e-16,
        "time": 0.025486118,
        "traj_len": 1.458805729229374,
        "weighted_distance": 1.8374722811539392
    },
    "planner": "ProjEST",
    "start": {
        "state": {
            "elbow_joint": 2.010868314990456,
            "shoulder_lift_joint": -1.1634956873337592,
            "shoulder_pan_joint": -2.4736205022346125,
            "wrist_1_joint": -0.8367026794202681,
            "wrist_2_joint": 0.6746043897044499,
            "wrist_3_joint": -3.1496632123970403
        }
    },
    "waypoints": [
        {
            "positions": [
                -2.4736205022346125,
                -1.1634956873337592,
                2.010868314990456,
                -0.8367026794202681,
                0.6746043897044499,
                -3.1496632123970403
            ]
        },
        {
            "positions": [
                -2.556216836852203,
                -1.1319073029304474,
                1.9683985549015346,
                -0.8254320961465299,
                0.8513645286924434,
                -3.1396627211631882
            ]
        },
        {
            "positions": [
                -2.6388131714697938,
                -1.1003189185271354,
                1.9259287948126134,
                -0.8141615128727918,
                1.0281246676804368,
                -3.1296622299293357
            ]
        },
        {
            "positions": [
                -2.721409506087385,
                -1.0687305341238234,
                1.8834590347236921,
                -0.8028909295990536,
                1.2048848066684301,
                -3.1196617386954837
            ]
        },
        {
            "positions": [
                -2.8040058407049755,
                -1.0371421497205116,
                1.840989274634771,
                -0.7916203463253154,
                1.3816449456564235,
                -3.1096612474616316
            ]
        },
        {
            "positions": [
                -2.886602175322566,
                -1.0055537653171998,
                1.7985195145458497,
                -0.7803497630515773,
                1.5584050846444173,
                -3.099660756227779
            ]
        },
        {
            "positions": [
                -2.9691985099401568,
                -0.9739653809138877,
                1.7560497544569285,
                -0.7690791797778391,
                1.7351652236324104,
                -3.089660264993927
            ]
        }
    ]
}