{
    "goal": {
        "global_pose": {
            "orientation": {
                "w": 0.005598929693374612,
                "x": 0.007748599140229565,
                "y": 0.7110244013736278,
                "z": -0.7031023480610252
            },
            "position": {
                "x": 0.1141497679147869,
                "y": -0.7141253447532654,
                "z": 0.3711530566215515
            }
        },
        "name": "move_to_auspresseinheit_B"
    },
    "id": "ProjEST_move_to_auspresseinheit_B_129",
    "joint_names": [
        "shoulder_pan_joint",
        "shoulder_lift_joint",
        "elbow_joint",
        "wrist_1_joint",
        "wrist_2_joint",
        "wrist_3_joint"
    ],
    "metrics": {
        "cart_traj_len": 0.5646522944949968,
        "distance_elbow_joint": 0.06534076874183237,
        "distance_shoulder_lift_joint": 0.29274875210387763,
        "distance_shoulder_pan_joint": 0.5777654126442804,
        "distance_wrist_1_joint": 0.3335252607876207,
        "distance_wrist_2_joint": 0.9875526552247567,
        "distance_wrist_3_joint": 0.006818412654949757,
        "smoothness": 0.0,
        "time": 0.19225667400000002,
        "traj_len": 1.5045767717724867,
        "weighted_distance": 1.896962309451507
    },
    "planner": "ProjEST",
    "start": {
        "state": {
            "elbow_joint": 2.0193083361928714,
            "shoulder_lift_joint": -1.1220246554650708,
            "shoulder_pan_joint": -1.0952077554168747,
            "wrist_1_joint": -0.8559753972642168,
            "wrist_2_joint": 0.4759566250798843,
            "wrist_3_joint": -3.1240929996934557
        }
    },
    "waypoints": [
        {
            "positions": [
                -1.0952077554168747,
                -1.1220246554650708,
                2.0193083361928714,
                -0.8559753972642168,
                0.4759566250798843,
                -3.1240929996934557
            ]
        },
        {
            "positions": [
                -1.1915019908575881,
                -1.1708161141490505,
                2.0084182080692328,
                -0.8003878537996133,
                0.6405487342840104,
                -3.1229565975842974
            ]
        },
        {
            "positions": [
                -1.2877962262983014,
                -1.21960757283303,
                1.997528079945594,
                -0.7448003103350099,
                0.8051408434881364,
                -3.1218201954751392
            ]
        },
        {
            "positions": [
                -1.3840904617390148,
                -1.2683990315170095,
                1.9866379518219552,
                -0.6892127668704064,
                0.9697329526922627,
                -3.1206837933659806
            ]
        },
        {
            "positions": [
                -1.480384697179728,
                -1.3171904902009892,
                1.9757478236983166,
                -0.6336252234058031,
                1.1343250618963887,
                -3.1195473912568223
            ]
        },
        {
            "positions": [
                -1.5766789326204416,
                -1.365981948884969,
                1.9648576955746777,
                -0.5780376799411995,
                1.298917171100515,
                -3.118410989147664
            ]
        },
        {
            "positions": [
                -1.672973168061155,
                -1.4147734075689484,
                1.953967567451039,
                -0.5224501364765961,
                1.463509280304641,
                -3.117274587038506
            ]
        }
    ]
}