{
    "goal": {
        "global_pose": {
            "orientation": {
                "w": 0.7047431468963623,
                "x": -0.7094548344612122,
                "y": 0.0024358443915843964,
                "z": -0.0022348060738295317
            },
            "position": {
                "x": 0.6094750761985779,
                "y": 0.3671506643295288,
                "z": 0.19426114857196808
            }
        },
        "name": "move_to_magneteinheit_A"
    },
    "id": "ProjEST_move_to_magneteinheit_A_117",
    "joint_names": [
        "shoulder_pan_joint",
        "shoulder_lift_joint",
        "elbow_joint",
        "wrist_1_joint",
        "wrist_2_joint",
        "wrist_3_joint"
    ],
    "metrics": {
        "cart_traj_len": 3.8764158529556894,
        "distance_elbow_joint": 3.971498428017166,
        "distance_shoulder_lift_joint": 1.8097150770634225,
        "distance_shoulder_pan_joint": 4.455297136627992,
        "distance_wrist_1_joint": 3.482714015183652,
        "distance_wrist_2_joint": 4.573685179181309,
        "distance_wrist_3_joint": 0.4565881718957657,
        "smoothness": 0.30981057553252206,
        "time": 0.10880392,
        "traj_len": 4.330069053487406,
        "weighted_distance": 5.2648906490188185
    },
    "planner": "ProjEST",
    "start": {
        "state": {
            "elbow_joint": -1.9196185241190666,
            "shoulder_lift_joint": -1.2443396400964142,
            "shoulder_pan_joint": 2.6996025414629847,
            "wrist_1_joint": -1.5485510000780065,
            "wrist_2_joint": -1.5709468930060704,
            "wrist_3_joint": 0.4420197071253992
        }
    },
    "waypoints": [
        {
            "positions": [
                2.6996025414629847,
                -1.2443396400964142,
                -1.9196185241190666,
                -1.5485510000780065,
                -1.5709468930060704,
                0.4420197071253992
            ]
        },
        {
            "positions": [
                2.5861952285643177,
                -1.2660165301654402,
                -1.7923614343339136,
                -1.5276099583468556,
                -1.4740001022371267,
                0.4297884695765218
            ]
        },
        {
            "positions": [
                2.4727879156656503,
                -1.2876934202344663,
                -1.6651043445487603,
                -1.506668916615705,
                -1.3770533114681833,
                0.4175572320276444
            ]
        },
        {
            "positions": [
                2.3593806027669832,
                -1.3093703103034924,
                -1.5378472547636073,
                -1.4857278748845542,
                -1.2801065206992397,
                0.405325994478767
            ]
        },
        {
            "positions": [
                2.2459732898683162,
                -1.3310472003725184,
                -1.410590164978454,
                -1.4647868331534035,
                -1.183159729930296,
                0.3930947569298896
            ]
        },
        {
            "positions": [
                2.132565976969649,
                -1.3527240904415445,
                -1.2833330751933012,
                -1.4438457914222527,
                -1.0862129391613526,
                0.3808635193810122
            ]
        },
        {
            "positions": [
                2.0191586640709818,
                -1.3744009805105706,
                -1.156075985408148,
                -1.422904749691102,
                -0.9892661483924091,
                0.3686322818321348
            ]
        },
        {
            "positions": [
                1.9057513511723148,
                -1.3960778705795966,
                -1.0288188956229947,
                -1.4019637079599512,
                -0.8923193576234656,
                0.3564010442832575
            ]
        },
        {
            "positions": [
                1.7923440382736477,
                -1.4177547606486227,
                -0.9015618058378416,
                -1.3810226662288003,
                -0.795372566854522,
                0.34416980673438
            ]
        },
        {
            "positions": [
                1.6789367253749803,
                -1.439431650717649,
                -0.7743047160526884,
                -1.3600816244976497,
                -0.6984257760855783,
                0.3319385691855027
            ]
        },
        {
            "positions": [
                1.5655294124763133,
                -1.461108540786675,
                -0.6470476262675355,
                -1.3391405827664988,
                -0.6014789853166349,
                0.3197073316366253
            ]
        },
        {
            "positions": [
                1.452122099577646,
                -1.4827854308557011,
                -0.5197905364823823,
                -1.318199541035348,
                -0.5045321945476913,
                0.3074760940877479
            ]
        },
        {
            "positions": [
                1.338714786678979,
                -1.5044623209247272,
                -0.3925334466972292,
                -1.2972584993041973,
                -0.40758540377874786,
                0.2952448565388705
            ]
        },
        {
            "positions": [
                1.2253074737803118,
                -1.5261392109937533,
                -0.26527635691207596,
                -1.2763174575730467,
                -0.3106386130098042,
                0.2830136189899931
            ]
        },
        {
            "positions": [
                1.1119001608816448,
                -1.5478161010627793,
                -0.13801926712692292,
                -1.2553764158418959,
                -0.2136918222408608,
                0.2707823814411157
            ]
        },
        {
            "positions": [
                0.9984928479829775,
                -1.5694929911318054,
                -0.010762177341769652,
                -1.234435374110745,
                -0.11674503147191717,
                0.2585511438922383
            ]
        },
        {
            "positions": [
                0.8850855350843105,
                -1.5911698812008315,
                0.11649491244338339,
                -1.2134943323795944,
                -0.019798240702973535,
                0.24631990634336093
            ]
        },
        {
            "positions": [
                0.7716782221856435,
                -1.6128467712698575,
                0.2437520022285362,
                -1.1925532906484435,
                0.07714855006596988,
                0.23408866879448356
            ]
        },
        {
            "positions": [
                0.6582709092869758,
                -1.6345236613388836,
                0.3710090920136899,
                -1.1716122489172927,
                0.17409534083491374,
                0.22185743124560614
            ]
        },
        {
            "positions": [
                0.5448635963883088,
                -1.6562005514079097,
                0.49826618179884274,
                -1.150671207186142,
                0.27104213160385715,
                0.20962619369672875
            ]
        },
        {
            "positions": [
                0.4314562834896418,
                -1.6778774414769357,
                0.6255232715839956,
                -1.1297301654549914,
                0.36798892237280056,
                0.19739495614785138
            ]
        },
        {
            "positions": [
                0.3180489705909748,
                -1.6995543315459618,
                0.7527803613691488,
                -1.1087891237238405,
                0.4649357131417442,
                0.18516371859897401
            ]
        },
        {
            "positions": [
                0.20464165769230735,
                -1.721231221614988,
                0.8800374511543021,
                -1.0878480819926897,
                0.5618825039106878,
                0.17293248105009656
            ]
        },
        {
            "positions": [
                0.09123434479364034,
                -1.742908111684014,
                1.0072945409394554,
                -1.066907040261539,
                0.6588292946796315,
                0.16070124350121917
            ]
        },
        {
            "positions": [
                -0.02217296810502667,
                -1.7645850017530402,
                1.1345516307246082,
                -1.0459659985303882,
                0.7557760854485747,
                0.14847000595234183
            ]
        },
        {
            "positions": [
                -0.13558028100369368,
                -1.786261891822066,
                1.261808720509761,
                -1.0250249567992373,
                0.8527228762175183,
                0.13623876840346444
            ]
        },
        {
            "positions": [
                -0.24898759390236114,
                -1.8079387818910924,
                1.3890658102949147,
                -1.0040839150680867,
                0.9496696669864619,
                0.12400753085458699
            ]
        },
        {
            "positions": [
                -0.36239490680102815,
                -1.8296156719601184,
                1.5163229000800675,
                -0.983142873336936,
                1.0466164577554056,
                0.11177629330570965
            ]
        },
        {
            "positions": [
                -0.47580221969969516,
                -1.8512925620291445,
                1.6435799898652208,
                -0.9622018316057852,
                1.1435632485243488,
                0.09954505575683226
            ]
        },
        {
            "positions": [
                -0.5892095325983622,
                -1.8729694520981703,
                1.7708370796503736,
                -0.9412607898746345,
                1.2405100392932924,
                0.08731381820795486
            ]
        },
        {
            "positions": [
                -0.7026168454970296,
                -1.8946463421671966,
                1.8980941694355273,
                -0.9203197481434836,
                1.337456830062236,
                0.07508258065907747
            ]
        },
        {
            "positions": [
                -0.8160241583956969,
                -1.9163232322362227,
                2.02535125922068,
                -0.8993787064123329,
                1.4344036208311794,
                0.06285134311020008
            ]
        },
        {
            "positions": [
                -0.7607494268210316,
                -1.8493978507701279,
                2.0237907507102437,
                -0.7326997816171577,
                1.3421486405168228,
                0.05829723676428441
            ]
        },
        {
            "positions": [
                -0.7054746952463663,
                -1.7824724693040328,
                2.0222302421998073,
                -0.5660208568219824,
                1.2498936602024662,
                0.05374313041836874
            ]
        },
        {
            "positions": [
                -0.6501999636717011,
                -1.715547087837938,
                2.020669733689371,
                -0.39934193202680723,
                1.1576386798881095,
                0.04918902407245307
            ]
        },
        {
            "positions": [
                -0.5949252320970357,
                -1.648621706371843,
                2.0191092251789344,
                -0.23266300723163214,
                1.065383699573753,
                0.0446349177265374
            ]
        },
        {
            "positions": [
                -0.5396505005223705,
                -1.581696324905748,
                2.017548716668498,
                -0.06598408243645693,
                0.9731287192593964,
                0.040080811380621736
            ]
        },
        {
            "positions": [
                -0.48437576894770523,
                -1.514770943439653,
                2.0159882081580616,
                0.1006948423587184,
                0.8808737389450397,
                0.03552670503470606
            ]
        },
        {
            "positions": [
                -0.42910103737304,
                -1.4478455619735582,
                2.014427699647625,
                0.2673737671538934,
                0.7886187586306832,
                0.030972598688790397
            ]
        },
        {
            "positions": [
                -0.3738263057983747,
                -1.3809201805074633,
                2.0128671911371887,
                0.4340526919490686,
                0.6963637783163266,
                0.02641849234287473
            ]
        },
        {
            "positions": [
                -0.3185515742237094,
                -1.3139947990413683,
                2.0113066826267523,
                0.6007316167442438,
                0.6041087980019699,
                0.021864385996959057
            ]
        },
        {
            "positions": [
                -0.26327684264904416,
                -1.2470694175752735,
                2.009746174116316,
                0.767410541539419,
                0.5118538176876133,
                0.01731027965104339
            ]
        },
        {
            "positions": [
                -0.20800211107437883,
                -1.1801440361091786,
                2.0081856656058794,
                0.9340894663345942,
                0.41959883737325665,
                0.012756173305127717
            ]
        },
        {
            "positions": [
                -0.1527273794997136,
                -1.1132186546430836,
                2.006625157095443,
                1.1007683911297697,
                0.3273438570589,
                0.008202066959212051
            ]
        },
        {
            "positions": [
                -0.09745264792504837,
                -1.0462932731769887,
                2.0050646485850065,
                1.2674473159249444,
                0.2350888767445436,
                0.0036479606132963915
            ]
        },
        {
            "positions": [
                -0.04217791635038315,
                -0.9793678917108938,
                2.00350414007457,
                1.4341262407201196,
                0.14283389643018696,
                -0.0009061457326192818
            ]
        },
        {
            "positions": [
                0.013096815224282188,
                -0.9124425102447988,
                2.0019436315641337,
                1.6008051655152948,
                0.05057891611583032,
                -0.005460252078534955
            ]
        },
        {
            "positions": [
                0.06837154679894741,
                -0.8455171287787038,
                2.0003831230536973,
                1.76748409031047,
                -0.04167606419852632,
                -0.010014358424450615
            ]
        },
        {
            "positions": [
                0.12364627837361279,
                -0.7785917473126088,
                1.998822614543261,
                1.9341630151056455,
                -0.13393104451288296,
                -0.014568464770366283
            ]
        }
    ]
}