{
    "goal": {
        "global_pose": {
            "orientation": {
                "w": 0.5084816217422485,
                "x": -0.49083608388900757,
                "y": 0.5182115435600281,
                "z": -0.4816462993621826
            },
            "position": {
                "x": 0.5540239810943604,
                "y": 0.030875300988554955,
                "z": 0.16403168439865112
            }
        },
        "name": "move_to_storage_A"
    },
    "id": "ProjEST_move_to_storage_A_90",
    "joint_names": [
        "shoulder_pan_joint",
        "shoulder_lift_joint",
        "elbow_joint",
        "wrist_1_joint",
        "wrist_2_joint",
        "wrist_3_joint"
    ],
    "metrics": {
        "cart_traj_len": 0.35268244786741065,
        "distance_elbow_joint": 0.4493930824089756,
        "distance_shoulder_lift_joint": 0.2354005332320872,
        "distance_shoulder_pan_joint": 0.46181738005711376,
        "distance_wrist_1_joint": 0.24112768841191212,
        "distance_wrist_2_joint": 1.0955380714980785,
        "distance_wrist_3_joint": 0.09403517403304296,
        "smoothness": 4.440892133664971e-16,
        "time": 0.073239815,
        "traj_len": 1.605400862601366,
        "weighted_distance": 2.0253513368344978
    },
    "planner": "ProjEST",
    "start": {
        "state": {
            "elbow_joint": 1.971548259319323,
            "shoulder_lift_joint": -1.1394851275133948,
            "shoulder_pan_joint": 0.1228115487234821,
            "wrist_1_joint": -0.7804723859257726,
            "wrist_2_joint": 0.12958671773740124,
            "wrist_3_joint": -3.192489227718131
        }
    },
    "waypoints": [
        {
            "positions": [
                0.1228115487234821,
                -1.1394851275133948,
                1.971548259319323,
                -0.7804723859257726,
                0.12958671773740124,
                -3.192489227718131
            ]
        },
        {
            "positions": [
                0.05683763728675156,
                -1.1731137751179788,
                2.035747271092034,
                -0.8149191985560458,
                0.28609215652284103,
                -3.1790556314276963
            ]
        },
        {
            "positions": [
                -0.009136274149978973,
                -1.2067424227225625,
                2.0999462828647446,
                -0.8493660111863189,
                0.4425975953082808,
                -3.165622035137262
            ]
        },
        {
            "positions": [
                -0.07511018558670951,
                -1.2403710703271464,
                2.1641452946374553,
                -0.8838128238165921,
                0.5991030340937206,
                -3.152188438846827
            ]
        },
        {
            "positions": [
                -0.14108409702344005,
                -1.2739997179317304,
                2.228344306410166,
                -0.9182596364468653,
                0.7556084728791603,
                -3.1387548425563923
            ]
        },
        {
            "positions": [
                -0.20705800846017058,
                -1.3076283655363143,
                2.292543318182877,
                -0.9527064490771384,
                0.9121139116646002,
                -3.1253212462659574
            ]
        },
        {
            "positions": [
                -0.2730319198969011,
                -1.341257013140898,
                2.356742329955588,
                -0.9871532617074116,
                1.0686193504500399,
                -3.111887649975523
            ]
        },
        {
            "positions": [
                -0.33900583133363166,
                -1.374885660745482,
                2.4209413417282986,
                -1.0216000743376847,
                1.2251247892354797,
                -3.098454053685088
            ]
        }
    ]
}{
    "goal": {
        "global_pose": {
            "orientation": {
                "w": 0.5084816217422485,
                "x": -0.49083608388900757,
                "y": 0.5182115435600281,
                "z": -0.4816462993621826
            },
            "position": {
                "x": 0.5540239810943604,
                "y": 0.030875300988554955,
                "z": 0.16403168439865112
            }
        },
        "name": "move_to_storage_A"
    },
    "id": "ProjEST_move_to_storage_A_90",
    "joint_names": [
        "shoulder_pan_joint",
        "shoulder_lift_joint",
        "elbow_joint",
        "wrist_1_joint",
        "wrist_2_joint",
        "wrist_3_joint"
    ],
    "metrics": {
        "cart_traj_len": 0.3534743706549019,
        "distance_elbow_joint": 0.45099200544231,
        "distance_shoulder_lift_joint": 0.2363629674853407,
        "distance_shoulder_pan_joint": 0.4621701304553998,
        "distance_wrist_1_joint": 0.24498791639671347,
        "distance_wrist_2_joint": 1.1007545322731103,
        "distance_wrist_3_joint": 0.0923522820111562,
        "smoothness": 6.661338165333112e-16,
        "time": 0.299507132,
        "traj_len": 1.6086080423969136,
        "weighted_distance": 2.0293020590232906
    },
    "planner": "ProjEST",
    "start": {
        "state": {
            "elbow_joint": 1.97154746011099,
            "shoulder_lift_joint": -1.13948474672311,
            "shoulder_pan_joint": 0.12281154466712228,
            "wrist_1_joint": -0.7804688027058302,
            "wrist_2_joint": 0.12958655903071145,
            "wrist_3_joint": 3.0906928834467795
        }
    },
    "waypoints": [
        {
            "positions": [
                0.12281154466712228,
                -1.13948474672311,
                1.97154746011099,
                -0.7804688027058302,
                0.12958655903071145,
                3.0906928834467795
            ]
        },
        {
            "positions": [
                0.05678724031635089,
                -1.1732508849353014,
                2.0359748894598915,
                -0.8154670764767893,
                0.28683720649829864,
                3.1038860665912305
            ]
        },
        {
            "positions": [
                -0.009237064034420497,
                -1.207017023147493,
                2.1004023188087926,
                -0.8504653502477483,
                0.4440878539658858,
                3.1170792497356814
            ]
        },
        {
            "positions": [
                -0.07526136838519189,
                -1.2407831613596845,
                2.164829748157694,
                -0.8854636240187074,
                0.601338501433473,
                3.1302724328801323
            ]
        },
        {
            "positions": [
                -0.14128567273596326,
                -1.2745492995718761,
                2.2292571775065957,
                -0.9204618977896665,
                0.7585891489010602,
                3.143465616024583
            ]
        },
        {
            "positions": [
                -0.2073099770867347,
                -1.3083154377840676,
                2.2936846068554972,
                -0.9554601715606255,
                0.9158397963686474,
                3.156658799169034
            ]
        },
        {
            "positions": [
                -0.27333428143750604,
                -1.342081575996259,
                2.3581120362043984,
                -0.9904584453315846,
                1.0730904438362345,
                3.1698519823134848
            ]
        },
        {
            "positions": [
                -0.3393585857882775,
                -1.3758477142084506,
                2.4225394655533,
                -1.0254567191025437,
                1.2303410913038217,
                3.1830451654579357
            ]
        }
    ]
}{
    "goal": {
        "global_pose": {
            "orientation": {
                "w": 0.5084816217422485,
                "x": -0.49083608388900757,
                "y": 0.5182115435600281,
                "z": -0.4816462993621826
            },
            "position": {
                "x": 0.5540239810943604,
                "y": 0.030875300988554955,
                "z": 0.16403168439865112
            }
        },
        "name": "move_to_storage_A"
    },
    "id": "ProjEST_move_to_storage_A_90",
    "joint_names": [
        "shoulder_pan_joint",
        "shoulder_lift_joint",
        "elbow_joint",
        "wrist_1_joint",
        "wrist_2_joint",
        "wrist_3_joint"
    ],
    "metrics": {
        "cart_traj_len": 0.35353578591971496,
        "distance_elbow_joint": 0.4516723225010062,
        "distance_shoulder_lift_joint": 0.2324775655605802,
        "distance_shoulder_pan_joint": 0.45887668227091793,
        "distance_wrist_1_joint": 0.2536038061772641,
        "distance_wrist_2_joint": 1.1135937290092044,
        "distance_wrist_3_joint": 0.09410105632573673,
        "smoothness": 5.551115138160447e-16,
        "time": 0.044105753,
        "traj_len": 1.6137921681073772,
        "weighted_distance": 2.0395403427445733
    },
    "planner": "ProjEST",
    "start": {
        "state": {
            "elbow_joint": 1.9715472970024885,
            "shoulder_lift_joint": -1.1394870060712896,
            "shoulder_pan_joint": 0.12281152778156021,
            "wrist_1_joint": -0.780463741449964,
            "wrist_2_joint": 0.12958659822042276,
            "wrist_3_joint": 3.090690232415272
        }
    },
    "waypoints": [
        {
            "positions": [
                0.12281152778156021,
                -1.1394870060712896,
                1.9715472970024885,
                -0.780463741449964,
                0.12958659822042276,
                3.090690232415272
            ]
        },
        {
            "positions": [
                0.05725771602857194,
                -1.1726980868656582,
                2.0360719145026325,
                -0.8166928566181446,
                0.2886714166503091,
                3.1041332404618056
            ]
        },
        {
            "positions": [
                -0.008296095724416336,
                -1.2059091676600269,
                2.100596532002776,
                -0.8529219717863251,
                0.44775623508019546,
                3.1175762485083394
            ]
        },
        {
            "positions": [
                -0.07384990747740461,
                -1.2391202484543955,
                2.16512114950292,
                -0.8891510869545057,
                0.6068410535100818,
                3.131019256554873
            ]
        },
        {
            "positions": [
                -0.13940371923039288,
                -1.272331329248764,
                2.2296457670030634,
                -0.9253802021226863,
                0.7659258719399681,
                3.1444622646014073
            ]
        },
        {
            "positions": [
                -0.20495753098338118,
                -1.3055424100431325,
                2.2941703845032073,
                -0.9616093172908668,
                0.9250106903698545,
                3.157905272647941
            ]
        },
        {
            "positions": [
                -0.27051134273636945,
                -1.3387534908375012,
                2.358695002003351,
                -0.9978384324590475,
                1.0840955087997408,
                3.171348280694475
            ]
        },
        {
            "positions": [
                -0.3360651544893577,
                -1.3719645716318698,
                2.4232196195034947,
                -1.034067547627228,
                1.2431803272296271,
                3.1847912887410086
            ]
        }
    ]
}