{
    "goal": {
        "global_pose": {
            "orientation": {
                "w": 0.005598929693374612,
                "x": 0.007748599140229565,
                "y": 0.7110244013736278,
                "z": -0.7031023480610252
            },
            "position": {
                "x": -0.8858502320852131,
                "y": -0.7141253447532654,
                "z": 0.3711530566215515
            }
        },
        "name": "move_to_auspresseinheit_C"
    },
    "id": "ProjEST_move_to_auspresseinheit_C_1",
    "joint_names": [
        "shoulder_pan_joint",
        "shoulder_lift_joint",
        "elbow_joint",
        "wrist_1_joint",
        "wrist_2_joint",
        "wrist_3_joint"
    ],
    "metrics": {
        "cart_traj_len": 0.4945089460105797,
        "distance_elbow_joint": 1.0088416932240782,
        "distance_shoulder_lift_joint": 0.3293294778867921,
        "distance_shoulder_pan_joint": 0.2568965243400574,
        "distance_wrist_1_joint": 0.6890671806448772,
        "distance_wrist_2_joint": 1.31774831331712,
        "distance_wrist_3_joint": 0.057883849250151886,
        "smoothness": 8.074349268950106e-16,
        "time": 0.32376093699999997,
        "traj_len": 1.9130517605812647,
        "weighted_distance": 2.404651789994838
    },
    "planner": "ProjEST",
    "start": {
        "state": {
            "elbow_joint": 1.7527959577737207,
            "shoulder_lift_joint": -0.9740617694225068,
            "shoulder_pan_joint": -2.967991417825858,
            "wrist_1_joint": -0.759517768980727,
            "wrist_2_joint": 1.7443932448377408,
            "wrist_3_joint": -3.0840537646736568
        }
    },
    "waypoints": [
        {
            "positions": [
                -2.967991417825858,
                -0.9740617694225068,
                1.7527959577737207,
                -0.759517768980727,
                1.7443932448377408,
                -3.0840537646736568
            ]
        },
        {
            "positions": [
                -2.942301765391852,
                -0.9411288216338276,
                1.6519117884513128,
                -0.6906110509162393,
                1.6126184135060289,
                -3.089842149598672
            ]
        },
        {
            "positions": [
                -2.9166121129578464,
                -0.9081958738451483,
                1.551027619128905,
                -0.6217043328517515,
                1.4808435821743169,
                -3.095630534523687
            ]
        },
        {
            "positions": [
                -2.8909224605238406,
                -0.8752629260564692,
                1.4501434498064971,
                -0.5527976147872639,
                1.349068750842605,
                -3.1014189194487023
            ]
        },
        {
            "positions": [
                -2.865232808089835,
                -0.8423299782677899,
                1.3492592804840893,
                -0.48389089672277613,
                1.217293919510893,
                -3.1072073043737176
            ]
        },
        {
            "positions": [
                -2.8395431556558295,
                -0.8093970304791107,
                1.2483751111616814,
                -0.4149841786582884,
                1.085519088179181,
                -3.1129956892987325
            ]
        },
        {
            "positions": [
                -2.8138535032218237,
                -0.7764640826904315,
                1.1474909418392736,
                -0.3460774605938007,
                0.9537442568474689,
                -3.118784074223748
            ]
        },
        {
            "positions": [
                -2.788163850787818,
                -0.7435311349017523,
                1.046606772516866,
                -0.277170742529313,
                0.8219694255157569,
                -3.124572459148763
            ]
        },
        {
            "positions": [
                -2.762474198353812,
                -0.7105981871130731,
                0.945722603194458,
                -0.20826402446482528,
                0.6901945941840448,
                -3.1303608440737785
            ]
        },
        {
            "positions": [
                -2.7367845459198064,
                -0.6776652393243938,
                0.8448384338720503,
                -0.1393573064003375,
                0.5584197628523329,
                -3.1361492289987933
            ]
        },
        {
            "positions": [
                -2.7110948934858006,
                -0.6447322915357147,
                0.7439542645496424,
                -0.0704505883358498,
                0.42664493152062094,
                -3.1419376139238087
            ]
        }
    ]
}