{
    "goal": {
        "global_pose": {
            "orientation": {
                "w": -0.00223480608172531,
                "x": 0.0024358444001904467,
                "y": 0.7094548369677653,
                "z": -0.704743149386269
            },
            "position": {
                "x": 0.6205249238014221,
                "y": -0.6371506643295288,
                "z": 0.19426114857196808
            }
        },
        "name": "move_to_magneteinheit_B"
    },
    "id": "ProjEST_move_to_magneteinheit_B_34",
    "joint_names": [
        "shoulder_pan_joint",
        "shoulder_lift_joint",
        "elbow_joint",
        "wrist_1_joint",
        "wrist_2_joint",
        "wrist_3_joint"
    ],
    "metrics": {
        "cart_traj_len": 1.4999256971917612,
        "distance_elbow_joint": 0.961393087570332,
        "distance_shoulder_lift_joint": 0.7885704952993658,
        "distance_shoulder_pan_joint": 1.6196416366564355,
        "distance_wrist_1_joint": 0.18466692925412076,
        "distance_wrist_2_joint": 1.5296218296141715,
        "distance_wrist_3_joint": 1.545162430984131,
        "smoothness": 0.3035767734870529,
        "time": 0.188072128,
        "traj_len": 2.574695401281199,
        "weighted_distance": 3.381371028180006
    },
    "planner": "ProjEST",
    "start": {
        "state": {
            "elbow_joint": 2.6216224122426386,
            "shoulder_lift_joint": -1.4174107377796124,
            "shoulder_pan_joint": 0.7066234856936794,
            "wrist_1_joint": 1.9546482284002225,
            "wrist_2_joint": -0.7096286983471962,
            "wrist_3_joint": 0.005740856962016249
        }
    },
    "waypoints": [
        {
            "positions": [
                0.7066234856936794,
                -1.4174107377796124,
                2.6216224122426386,
                1.9546482284002225,
                -0.7096286983471962,
                0.005740856962016249
            ]
        },
        {
            "positions": [
                0.6246158924137755,
                -1.4182944944236016,
                2.594600719923629,
                1.9694323921627412,
                -0.7149852268315805,
                -0.07662283083426648
            ]
        },
        {
            "positions": [
                0.5426082991338715,
                -1.4191782510675908,
                2.567579027604619,
                1.9842165559252598,
                -0.7203417553159648,
                -0.1589865186305492
            ]
        },
        {
            "positions": [
                0.4118537029617093,
                -1.4224404493845557,
                2.510671223069774,
                2.0077856982700713,
                -0.731579921929724,
                -0.31204704880605266
            ]
        },
        {
            "positions": [
                0.2810991067895471,
                -1.4257026477015204,
                2.4537634185349297,
                2.031354840614883,
                -0.7428180885434832,
                -0.46510757898155614
            ]
        },
        {
            "positions": [
                0.15034451061738485,
                -1.4289648460184852,
                2.396855614000085,
                2.0549239829596946,
                -0.7540562551572425,
                -0.6181681091570597
            ]
        },
        {
            "positions": [
                0.01958991444522266,
                -1.4322270443354501,
                2.33994780946524,
                2.0784931253045063,
                -0.7652944217710017,
                -0.7712286393325631
            ]
        },
        {
            "positions": [
                -0.05812742433877556,
                -1.3677475286068228,
                2.2833046023991623,
                2.083561628000326,
                -0.8881240972868656,
                -0.7072125614417671
            ]
        },
        {
            "positions": [
                -0.1358447631227738,
                -1.3032680128781955,
                2.2266613953330845,
                2.0886301306961457,
                -1.0109537728027294,
                -0.6431964835509713
            ]
        },
        {
            "positions": [
                -0.21356210190677202,
                -1.2387884971495682,
                2.1700181882670067,
                2.0936986333919654,
                -1.1337834483185931,
                -0.5791804056601753
            ]
        },
        {
            "positions": [
                -0.2912794406907702,
                -1.1743089814209409,
                2.113374981200929,
                2.098767136087785,
                -1.2566131238344571,
                -0.5151643277693794
            ]
        },
        {
            "positions": [
                -0.36899677947476844,
                -1.1098294656923133,
                2.056731774134851,
                2.103835638783605,
                -1.379442799350321,
                -0.4511482498785833
            ]
        },
        {
            "positions": [
                -0.44671411825876667,
                -1.045349949963686,
                2.000088567068773,
                2.1089041414794245,
                -1.5022724748661846,
                -0.3871321719877874
            ]
        },
        {
            "positions": [
                -0.524431457042765,
                -0.9808704342350587,
                1.9434453600026955,
                2.1139726441752447,
                -1.6251021503820486,
                -0.3231160940969914
            ]
        },
        {
            "positions": [
                -0.6021487958267632,
                -0.9163909185064314,
                1.886802152936618,
                2.1190411468710644,
                -1.7479318258979124,
                -0.2591000162061955
            ]
        },
        {
            "positions": [
                -0.6798661346107614,
                -0.8519114027778041,
                1.83015894587054,
                2.124109649566884,
                -1.8707615014137762,
                -0.1950839383153995
            ]
        },
        {
            "positions": [
                -0.7575834733947596,
                -0.7874318870491767,
                1.7735157388044622,
                2.129178152262704,
                -1.9935911769296402,
                -0.1310678604246035
            ]
        },
        {
            "positions": [
                -0.8353008121787578,
                -0.7229523713205495,
                1.7168725317383844,
                2.1342466549585235,
                -2.1164208524455037,
                -0.06705178253380761
            ]
        },
        {
            "positions": [
                -0.9130181509627561,
                -0.658472855591922,
                1.6602293246723066,
                2.139315157654343,
                -2.2392505279613677,
                -0.003035704643011618
            ]
        }
    ]
}