{
    "goal": {
        "global_pose": {
            "orientation": {
                "w": 0.005598929693374612,
                "x": 0.007748599140229565,
                "y": 0.7110244013736278,
                "z": -0.7031023480610252
            },
            "position": {
                "x": -0.8858502320852131,
                "y": -0.7141253447532654,
                "z": 0.3711530566215515
            }
        },
        "name": "move_to_auspresseinheit_C"
    },
    "id": "ProjEST_move_to_auspresseinheit_C_9",
    "joint_names": [
        "shoulder_pan_joint",
        "shoulder_lift_joint",
        "elbow_joint",
        "wrist_1_joint",
        "wrist_2_joint",
        "wrist_3_joint"
    ],
    "metrics": {
        "cart_traj_len": 0.49468549819612,
        "distance_elbow_joint": 1.0209586572731706,
        "distance_shoulder_lift_joint": 0.3349811006789417,
        "distance_shoulder_pan_joint": 0.25615785256011003,
        "distance_wrist_1_joint": 0.7148100685219974,
        "distance_wrist_2_joint": 1.3161090542899911,
        "distance_wrist_3_joint": 0.07668141117701444,
        "smoothness": 5.652044430934005e-16,
        "time": 0.609553075,
        "traj_len": 1.928651898218345,
        "weighted_distance": 2.4298107106660063
    },
    "planner": "ProjEST",
    "start": {
        "state": {
            "elbow_joint": 1.7527959577737207,
            "shoulder_lift_joint": -0.9740617694225068,
            "shoulder_pan_joint": -2.967991417825858,
            "wrist_1_joint": -0.759517768980727,
            "wrist_2_joint": 1.7443932448377408,
            "wrist_3_joint": -3.0840537646736568
        }
    },
    "waypoints": [
        {
            "positions": [
                -2.967991417825858,
                -0.9740617694225068,
                1.7527959577737207,
                -0.759517768980727,
                1.7443932448377408,
                -3.0840537646736568
            ]
        },
        {
            "positions": [
                -2.942375632569847,
                -0.9405636593546126,
                1.6507000920464037,
                -0.6880367621285273,
                1.6127823394087417,
                -3.091721905791358
            ]
        },
        {
            "positions": [
                -2.916759847313836,
                -0.9070655492867185,
                1.5486042263190865,
                -0.6165557552763274,
                1.4811714339797426,
                -3.09939004690906
            ]
        },
        {
            "positions": [
                -2.891144062057825,
                -0.8735674392188243,
                1.4465083605917695,
                -0.5450747484241278,
                1.3495605285507435,
                -3.107058188026761
            ]
        },
        {
            "positions": [
                -2.8655282768018138,
                -0.84006932915093,
                1.3444124948644525,
                -0.473593741571928,
                1.2179496231217444,
                -3.1147263291444625
            ]
        },
        {
            "positions": [
                -2.839912491545803,
                -0.8065712190830359,
                1.2423166291371355,
                -0.4021127347197283,
                1.0863387176927453,
                -3.122394470262164
            ]
        },
        {
            "positions": [
                -2.814296706289792,
                -0.7730731090151417,
                1.1402207634098183,
                -0.3306317278675286,
                0.9547278122637461,
                -3.1300626113798655
            ]
        },
        {
            "positions": [
                -2.788680921033781,
                -0.7395749989472475,
                1.0381248976825013,
                -0.2591507210153289,
                0.8231169068347471,
                -3.137730752497567
            ]
        },
        {
            "positions": [
                -2.76306513577777,
                -0.7060768888793534,
                0.9360290319551842,
                -0.18766971416312905,
                0.6915060014057479,
                -3.145398893615268
            ]
        },
        {
            "positions": [
                -2.737449350521759,
                -0.6725787788114592,
                0.8339331662278671,
                -0.11618870731092934,
                0.5598950959767488,
                -3.15306703473297
            ]
        },
        {
            "positions": [
                -2.711833565265748,
                -0.6390806687435651,
                0.7318373005005501,
                -0.044707700458729606,
                0.42828419054774974,
                -3.160735175850671
            ]
        }
    ]
}