{
    "goal": {
        "global_pose": {
            "orientation": {
                "w": 0.7047431493862688,
                "x": -0.7094548369677653,
                "y": 0.0024358444001904,
                "z": -0.0022348060817251984
            },
            "position": {
                "x": -0.39052492380142206,
                "y": 0.3671506643295288,
                "z": 0.19426114857196808
            }
        },
        "name": "move_to_magneteinheit_D"
    },
    "id": "ProjEST_move_to_magneteinheit_D_143",
    "joint_names": [
        "shoulder_pan_joint",
        "shoulder_lift_joint",
        "elbow_joint",
        "wrist_1_joint",
        "wrist_2_joint",
        "wrist_3_joint"
    ],
    "metrics": {
        "cart_traj_len": 4.972695518857966,
        "distance_elbow_joint": 3.7229115233189147,
        "distance_shoulder_lift_joint": 1.0948751895712658,
        "distance_shoulder_pan_joint": 3.948620014204113,
        "distance_wrist_1_joint": 3.1807906207878673,
        "distance_wrist_2_joint": 2.1992177841477742,
        "distance_wrist_3_joint": 6.284467392454612,
        "smoothness": 0.40086335090618835,
        "time": 0.10862423900000001,
        "traj_len": 4.520053376287117,
        "weighted_distance": 6.1951453343993
    },
    "planner": "ProjEST",
    "start": {
        "state": {
            "elbow_joint": 0.749534889911806,
            "shoulder_lift_joint": -0.6476975780787326,
            "shoulder_pan_joint": -2.711696901376241,
            "wrist_1_joint": -0.07506478083263063,
            "wrist_2_joint": 0.43296659715538205,
            "wrist_3_joint": -3.14703540197715
        }
    },
    "waypoints": [
        {
            "positions": [
                -2.711696901376241,
                -0.6476975780787326,
                0.749534889911806,
                -0.07506478083263063,
                0.43296659715538205,
                -3.14703540197715
            ]
        },
        {
            "positions": [
                -2.72089920893286,
                -0.7242947073077765,
                0.8000386280681546,
                0.015427601040757383,
                0.4605151648561824,
                -3.0586306550082596
            ]
        },
        {
            "positions": [
                -2.730101516489479,
                -0.8008918365368203,
                0.8505423662245032,
                0.1059199829141454,
                0.48806373255698277,
                -2.9702259080393696
            ]
        },
        {
            "positions": [
                -2.7393038240460985,
                -0.8774889657658641,
                0.9010461043808519,
                0.19641236478753343,
                0.5156123002577832,
                -2.881821161070479
            ]
        },
        {
            "positions": [
                -2.7485061316027175,
                -0.9540860949949079,
                0.9515498425372004,
                0.2869047466609214,
                0.5431608679585835,
                -2.7934164141015887
            ]
        },
        {
            "positions": [
                -2.7577084391593365,
                -1.0306832242239516,
                1.002053580693549,
                0.3773971285343095,
                0.5707094356593838,
                -2.7050116671326987
            ]
        },
        {
            "positions": [
                -2.7669107467159555,
                -1.1072803534529956,
                1.0525573188498978,
                0.4678895104076975,
                0.5982580033601842,
                -2.6166069201638082
            ]
        },
        {
            "positions": [
                -2.676976164250194,
                -1.124629863545678,
                1.0036532084294991,
                0.41307678350490384,
                0.5590971763353352,
                -2.4769806956248086
            ]
        },
        {
            "positions": [
                -2.5870415817844328,
                -1.1419793736383603,
                0.9547490980091003,
                0.35826405660211014,
                0.5199363493104863,
                -2.337354471085809
            ]
        },
        {
            "positions": [
                -2.4971069993186714,
                -1.1593288837310427,
                0.9058449875887017,
                0.30345132969931643,
                0.48077552228563725,
                -2.197728246546809
            ]
        },
        {
            "positions": [
                -2.4071724168529105,
                -1.176678393823725,
                0.8569408771683029,
                0.24863860279652278,
                0.4416146952607883,
                -2.0581020220078092
            ]
        },
        {
            "positions": [
                -2.317237834387149,
                -1.1940279039164075,
                0.8080367667479043,
                0.19382587589372907,
                0.40245386823593926,
                -1.9184757974688094
            ]
        },
        {
            "positions": [
                -2.227303251921388,
                -1.2113774140090898,
                0.7591326563275056,
                0.13901314899093542,
                0.3632930412110903,
                -1.7788495729298097
            ]
        },
        {
            "positions": [
                -2.1373686694556264,
                -1.2287269241017722,
                0.7102285459071068,
                0.08420042208814171,
                0.32413221418624133,
                -1.6392233483908099
            ]
        },
        {
            "positions": [
                -2.047434086989865,
                -1.2460764341944546,
                0.661324435486708,
                0.02938769518534806,
                0.28497138716139236,
                -1.4995971238518102
            ]
        },
        {
            "positions": [
                -1.9574995045241037,
                -1.2634259442871367,
                0.6124203250663094,
                -0.025425031717445645,
                0.24581056013654334,
                -1.3599708993128103
            ]
        },
        {
            "positions": [
                -1.8675649220583423,
                -1.2807754543798193,
                0.5635162146459107,
                -0.08023775862023935,
                0.20664973311169432,
                -1.2203446747738105
            ]
        },
        {
            "positions": [
                -1.777630339592581,
                -1.2981249644725015,
                0.514612104225512,
                -0.13505048552303306,
                0.16748890608684536,
                -1.0807184502348106
            ]
        },
        {
            "positions": [
                -1.6876957571268199,
                -1.3154744745651838,
                0.4657079938051133,
                -0.18986321242582666,
                0.1283280790619964,
                -0.9410922256958112
            ]
        },
        {
            "positions": [
                -1.5977611746610585,
                -1.3328239846578662,
                0.4168038833847145,
                -0.24467593932862036,
                0.08916725203714737,
                -0.8014660011568113
            ]
        },
        {
            "positions": [
                -1.5078265921952971,
                -1.3501734947505486,
                0.36789977296431586,
                -0.29948866623141407,
                0.05000642501229846,
                -0.6618397766178115
            ]
        },
        {
            "positions": [
                -1.4178920097295358,
                -1.367523004843231,
                0.3189956625439171,
                -0.3543013931342078,
                0.01084559798744944,
                -0.5222135520788118
            ]
        },
        {
            "positions": [
                -1.3279574272637746,
                -1.3848725149359133,
                0.27009155212351843,
                -0.40911412003700137,
                -0.02831522903739947,
                -0.38258732753981217
            ]
        },
        {
            "positions": [
                -1.2380228447980133,
                -1.4022220250285957,
                0.22118744170311977,
                -0.4639268469397951,
                -0.06747605606224849,
                -0.24296110300081208
            ]
        },
        {
            "positions": [
                -1.148088262332252,
                -1.419571535121278,
                0.172283331282721,
                -0.5187395738425888,
                -0.10663688308709751,
                -0.10333487846181244
            ]
        },
        {
            "positions": [
                -1.0581536798664906,
                -1.4369210452139605,
                0.12337922086232223,
                -0.5735523007453824,
                -0.14579771011194653,
                0.0362913460771872
            ]
        },
        {
            "positions": [
                -0.9682190974007292,
                -1.4542705553066428,
                0.07447511044192356,
                -0.6283650276481763,
                -0.18495853713679555,
                0.1759175706161873
            ]
        },
        {
            "positions": [
                -0.8782845149349678,
                -1.4716200653993252,
                0.025571000021524792,
                -0.6831777545509699,
                -0.22411936416164446,
                0.31554379515518693
            ]
        },
        {
            "positions": [
                -0.7883499324692065,
                -1.4889695754920076,
                -0.02333311039887387,
                -0.7379904814537637,
                -0.2632801911864935,
                0.455170019694187
            ]
        },
        {
            "positions": [
                -0.6984153500034456,
                -1.50631908558469,
                -0.07223722081927253,
                -0.7928032083565573,
                -0.3024410182113424,
                0.5947962442331862
            ]
        },
        {
            "positions": [
                -0.6084807675376842,
                -1.5236685956773721,
                -0.12114133123967119,
                -0.8476159352593509,
                -0.3416018452361914,
                0.7344224687721859
            ]
        },
        {
            "positions": [
                -0.5185461850719228,
                -1.5410181057700547,
                -0.17004544166006985,
                -0.9024286621621447,
                -0.3807626722610403,
                0.874048693311186
            ]
        },
        {
            "positions": [
                -0.4286116026061615,
                -1.5583676158627369,
                -0.21894955208046873,
                -0.9572413890649383,
                -0.41992349928588946,
                1.0136749178501856
            ]
        },
        {
            "positions": [
                -0.33867702014040013,
                -1.5757171259554195,
                -0.2678536625008674,
                -1.0120541159677319,
                -0.45908432631073837,
                1.1533011423891857
            ]
        },
        {
            "positions": [
                -0.24874243767463877,
                -1.5930666360481016,
                -0.31675777292126606,
                -1.0668668428705257,
                -0.4982451533355873,
                1.2929273669281853
            ]
        },
        {
            "positions": [
                -0.1588078552088774,
                -1.6104161461407842,
                -0.36566188334166494,
                -1.1216795697733193,
                -0.5374059803604364,
                1.432553591467185
            ]
        },
        {
            "positions": [
                -0.06887327274311605,
                -1.6277656562334664,
                -0.4145659937620636,
                -1.176492296676113,
                -0.5765668073852853,
                1.5721798160061846
            ]
        },
        {
            "positions": [
                0.021061309722645305,
                -1.645115166326149,
                -0.46347010418246226,
                -1.2313050235789067,
                -0.6157276344101345,
                1.7118060405451851
            ]
        },
        {
            "positions": [
                0.11099589218840622,
                -1.6624646764188311,
                -0.5123742146028609,
                -1.2861177504817003,
                -0.6548884614349831,
                1.851432265084184
            ]
        },
        {
            "positions": [
                0.20093047465416758,
                -1.6798141865115135,
                -0.5612783250232596,
                -1.3409304773844941,
                -0.6940492884598323,
                1.9910584896231835
            ]
        },
        {
            "positions": [
                0.29086505711992894,
                -1.6971636966041959,
                -0.6101824354436582,
                -1.3957432042872877,
                -0.7332101154846812,
                2.130684714162184
            ]
        },
        {
            "positions": [
                0.3807996395856903,
                -1.7145132066968782,
                -0.6590865458640571,
                -1.4505559311900815,
                -0.7723709425095303,
                2.2703109387011837
            ]
        },
        {
            "positions": [
                0.4707342220514518,
                -1.7318627167895606,
                -0.7079906562844558,
                -1.5053686580928751,
                -0.8115317695343792,
                2.4099371632401834
            ]
        },
        {
            "positions": [
                0.4111195674971798,
                -1.732836357776873,
                -0.8588398489432258,
                -1.5657848545516904,
                -0.7547920781663421,
                2.4760730566253906
            ]
        },
        {
            "positions": [
                0.35150491294290787,
                -1.7338099987641857,
                -1.009689041601996,
                -1.6262010510105056,
                -0.6980523867983048,
                2.542208950010598
            ]
        },
        {
            "positions": [
                0.29189025838863586,
                -1.7347836397514982,
                -1.160538234260766,
                -1.6866172474693206,
                -0.6413126954302677,
                2.6083448433958054
            ]
        },
        {
            "positions": [
                0.23227560383436385,
                -1.7357572807388106,
                -1.311387426919536,
                -1.7470334439281359,
                -0.5845730040622306,
                2.6744807367810126
            ]
        },
        {
            "positions": [
                0.1726609492800919,
                -1.7367309217261233,
                -1.4622366195783063,
                -1.807449640386951,
                -0.5278333126941934,
                2.74061663016622
            ]
        },
        {
            "positions": [
                0.1130462947258199,
                -1.7377045627134358,
                -1.6130858122370761,
                -1.8678658368457661,
                -0.47109362132615623,
                2.8067525235514275
            ]
        },
        {
            "positions": [
                0.05343164017154789,
                -1.7386782037007484,
                -1.7639350048958464,
                -1.9282820333045814,
                -0.41435392995811904,
                2.8728884169366347
            ]
        },
        {
            "positions": [
                -0.006183014382724117,
                -1.7396518446880609,
                -1.9147841975546165,
                -1.9886982297633966,
                -0.35761423859008185,
                2.939024310321842
            ]
        },
        {
            "positions": [
                -0.06579766893699618,
                -1.7406254856753733,
                -2.0656333902133865,
                -2.0491144262222116,
                -0.30087454722204465,
                3.0051602037070495
            ]
        },
        {
            "positions": [
                -0.12541232349126802,
                -1.741599126662686,
                -2.216482582872157,
                -2.109530622681027,
                -0.24413485585400752,
                3.0712960970922567
            ]
        },
        {
            "positions": [
                -0.18502697804554005,
                -1.7425727676499985,
                -2.3673317755309267,
                -2.169946819139842,
                -0.1873951644859704,
                3.137431990477464
            ]
        }
    ]
}