{
    "goal": {
        "global_pose": {
            "orientation": {
                "w": 0.7031023502349854,
                "x": -0.7110244035720825,
                "y": 0.007748599164187908,
                "z": 0.005598929710686207
            },
            "position": {
                "x": 0.11585023208521307,
                "y": 0.44412534475326537,
                "z": 0.3711530566215515
            }
        },
        "name": "move_to_auspresseinheit_A"
    },
    "id": "ProjEST_move_to_auspresseinheit_A_95",
    "joint_names": [
        "shoulder_pan_joint",
        "shoulder_lift_joint",
        "elbow_joint",
        "wrist_1_joint",
        "wrist_2_joint",
        "wrist_3_joint"
    ],
    "metrics": {
        "cart_traj_len": 2.905898747852052,
        "distance_elbow_joint": 0.7957420896126228,
        "distance_shoulder_lift_joint": 2.898377936409754,
        "distance_shoulder_pan_joint": 2.107496656652874,
        "distance_wrist_1_joint": 6.123734851182744,
        "distance_wrist_2_joint": 5.53589146574549,
        "distance_wrist_3_joint": 0.9016282512656728,
        "smoothness": 0.7235367755396208,
        "time": 0.080324454,
        "traj_len": 4.285192090311606,
        "weighted_distance": 5.641431916661649
    },
    "planner": "ProjEST",
    "start": {
        "state": {
            "elbow_joint": 2.4225746658250005,
            "shoulder_lift_joint": -1.3736534386056498,
            "shoulder_pan_joint": -0.3378633547517467,
            "wrist_1_joint": -1.0288598680537169,
            "wrist_2_joint": 1.233022673432363,
            "wrist_3_joint": -3.0940220416140027
        }
    },
    "waypoints": [
        {
            "positions": [
                -0.3378633547517467,
                -1.3736534386056498,
                2.4225746658250005,
                -1.0288598680537169,
                1.233022673432363,
                -3.0940220416140027
            ]
        },
        {
            "positions": [
                -0.27949014007133977,
                -1.4372783141508376,
                2.407336731844432,
                -0.9051244564457017,
                1.1208584113851385,
                -3.077898136045563
            ]
        },
        {
            "positions": [
                -0.22111692539093286,
                -1.5009031896960257,
                2.392098797863864,
                -0.7813890448376866,
                1.0086941493379138,
                -3.061774230477123
            ]
        },
        {
            "positions": [
                -0.1627437107105259,
                -1.5645280652412135,
                2.3768608638832958,
                -0.6576536332296714,
                0.8965298872906893,
                -3.0456503249086833
            ]
        },
        {
            "positions": [
                -0.10437049603011897,
                -1.6281529407864015,
                2.361622929902728,
                -0.5339182216216563,
                0.7843656252434646,
                -3.029526419340243
            ]
        },
        {
            "positions": [
                -0.04599728134971204,
                -1.6917778163315893,
                2.3463849959221594,
                -0.4101828100136411,
                0.67220136319624,
                -3.0134025137718035
            ]
        },
        {
            "positions": [
                0.012375933330694922,
                -1.7554026918767773,
                2.3311470619415915,
                -0.28644739840562594,
                0.5600371011490154,
                -2.9972786082033633
            ]
        },
        {
            "positions": [
                0.07074914801110183,
                -1.8190275674219651,
                2.315909127961023,
                -0.16271198679761079,
                0.4478728391017909,
                -2.9811547026349237
            ]
        },
        {
            "positions": [
                0.12912236269150879,
                -1.882652442967153,
                2.300671193980455,
                -0.03897657518959563,
                0.33570857705456625,
                -2.9650307970664835
            ]
        },
        {
            "positions": [
                0.18749557737191574,
                -1.946277318512341,
                2.285433259999887,
                0.08475883641841953,
                0.22354431500734173,
                -2.948906891498044
            ]
        },
        {
            "positions": [
                0.24586879205232265,
                -2.009902194057529,
                2.2701953260193184,
                0.20849424802643468,
                0.111380052960117,
                -2.932782985929604
            ]
        },
        {
            "positions": [
                0.30424200673272955,
                -2.073527069602717,
                2.2549573920387505,
                0.33222965963444984,
                -0.0007842090871075236,
                -2.916659080361164
            ]
        },
        {
            "positions": [
                0.36261522141313657,
                -2.1371519451479046,
                2.239719458058182,
                0.455965071242465,
                -0.11294847113433226,
                -2.9005351747927244
            ]
        },
        {
            "positions": [
                0.42098843609354347,
                -2.2007768206930924,
                2.224481524077614,
                0.5797004828504801,
                -0.22511273318155678,
                -2.8844112692242843
            ]
        },
        {
            "positions": [
                0.4793616507739504,
                -2.2644016962382807,
                2.2092435900970457,
                0.7034358944584953,
                -0.3372769952287813,
                -2.8682873636558446
            ]
        },
        {
            "positions": [
                0.5377348654543574,
                -2.3280265717834685,
                2.194005656116478,
                0.8271713060665105,
                -0.44944125727600603,
                -2.8521634580874045
            ]
        },
        {
            "positions": [
                0.5961080801347642,
                -2.3916514473286563,
                2.1787677221359094,
                0.9509067176745256,
                -0.5616055193232306,
                -2.836039552518965
            ]
        },
        {
            "positions": [
                0.6544812948151713,
                -2.4552763228738446,
                2.1635297881553415,
                1.0746421292825408,
                -0.6737697813704553,
                -2.8199156469505247
            ]
        },
        {
            "positions": [
                0.7128545094955783,
                -2.518901198419032,
                2.148291854174773,
                1.198377540890556,
                -0.7859340434176796,
                -2.803791741382085
            ]
        },
        {
            "positions": [
                0.7712277241759853,
                -2.58252607396422,
                2.1330539201942047,
                1.322112952498571,
                -0.8980983054649043,
                -2.787667835813645
            ]
        },
        {
            "positions": [
                0.8296009388563921,
                -2.646150949509408,
                2.1178159862136368,
                1.4458483641065862,
                -1.010262567512129,
                -2.771543930245205
            ]
        },
        {
            "positions": [
                0.8879741535367991,
                -2.709775825054596,
                2.1025780522330684,
                1.5695837757146014,
                -1.1224268295593538,
                -2.7554200246767655
            ]
        },
        {
            "positions": [
                0.9463473682172059,
                -2.773400700599784,
                2.0873401182525004,
                1.6933191873226165,
                -1.234591091606578,
                -2.7392961191083254
            ]
        },
        {
            "positions": [
                1.004720582897613,
                -2.837025576144972,
                2.072102184271932,
                1.8170545989306317,
                -1.3467553536538028,
                -2.7231722135398857
            ]
        },
        {
            "positions": [
                1.06309379757802,
                -2.9006504516901597,
                2.056864250291364,
                1.9407900105386469,
                -1.4589196157010276,
                -2.7070483079714456
            ]
        },
        {
            "positions": [
                1.121467012258427,
                -2.964275327235348,
                2.0416263163107957,
                2.0645254221466622,
                -1.5710838777482523,
                -2.690924402403006
            ]
        },
        {
            "positions": [
                1.1798402269388337,
                -3.0279002027805353,
                2.0263883823302278,
                2.1882608337546774,
                -1.6832481397954766,
                -2.6748004968345658
            ]
        },
        {
            "positions": [
                1.2382134416192407,
                -3.0915250783257235,
                2.0111504483496594,
                2.311996245362692,
                -1.7954124018427013,
                -2.658676591266126
            ]
        },
        {
            "positions": [
                1.2116424486051465,
                -3.0324997634912396,
                2.0303663419565234,
                2.1728523084743756,
                -1.6700395823191803,
                -2.6819907313120157
            ]
        },
        {
            "positions": [
                1.1850714555910522,
                -2.9734744486567557,
                2.0495822355633875,
                2.0337083715860587,
                -1.544666762795659,
                -2.7053048713579058
            ]
        },
        {
            "positions": [
                1.1585004625769577,
                -2.9144491338222713,
                2.0687981291702515,
                1.8945644346977422,
                -1.4192939432721379,
                -2.7286190114037954
            ]
        },
        {
            "positions": [
                1.1319294695628634,
                -2.8554238189877874,
                2.0880140227771156,
                1.7554204978094257,
                -1.2939211237486168,
                -2.7519331514496854
            ]
        },
        {
            "positions": [
                1.1053584765487692,
                -2.7963985041533035,
                2.1072299163839796,
                1.6162765609211092,
                -1.1685483042250957,
                -2.775247291495575
            ]
        },
        {
            "positions": [
                1.078787483534675,
                -2.7373731893188196,
                2.126445809990844,
                1.4771326240327924,
                -1.0431754847015746,
                -2.798561431541465
            ]
        },
        {
            "positions": [
                1.0522164905205806,
                -2.678347874484335,
                2.145661703597708,
                1.337988687144476,
                -0.9178026651780535,
                -2.8218755715873547
            ]
        },
        {
            "positions": [
                1.0256454975064861,
                -2.6193225596498513,
                2.164877597204572,
                1.1988447502561592,
                -0.7924298456545322,
                -2.8451897116332447
            ]
        },
        {
            "positions": [
                0.9990745044923919,
                -2.5602972448153674,
                2.1840934908114362,
                1.0597008133678425,
                -0.6670570261310111,
                -2.8685038516791344
            ]
        },
        {
            "positions": [
                0.9725035114782976,
                -2.5012719299808834,
                2.2033093844183003,
                0.920556876479526,
                -0.5416842066074901,
                -2.8918179917250244
            ]
        },
        {
            "positions": [
                0.9459325184642033,
                -2.4422466151463995,
                2.2225252780251643,
                0.7814129395912093,
                -0.41631138708396875,
                -2.915132131770914
            ]
        },
        {
            "positions": [
                0.9193615254501091,
                -2.383221300311915,
                2.2417411716320284,
                0.6422690027028928,
                -0.2909385675604479,
                -2.9384462718168036
            ]
        },
        {
            "positions": [
                0.8927905324360146,
                -2.3241959854774312,
                2.2609570652388924,
                0.5031250658145761,
                -0.16556574803692659,
                -2.9617604118626937
            ]
        },
        {
            "positions": [
                0.8662195394219203,
                -2.2651706706429473,
                2.2801729588457564,
                0.3639811289262598,
                -0.040192928513405723,
                -2.9850745519085833
            ]
        },
        {
            "positions": [
                0.839648546407826,
                -2.206145355808463,
                2.299388852452621,
                0.22483719203794283,
                0.08517989101011558,
                -3.0083886919544733
            ]
        },
        {
            "positions": [
                0.8130775533937318,
                -2.147120040973979,
                2.318604746059485,
                0.08569325514962634,
                0.2105527105336369,
                -3.031702832000363
            ]
        },
        {
            "positions": [
                0.7865065603796375,
                -2.088094726139495,
                2.337820639666349,
                -0.053450681738690164,
                0.335925530057158,
                -3.055016972046253
            ]
        },
        {
            "positions": [
                0.759935567365543,
                -2.029069411305011,
                2.357036533273213,
                -0.1925946186270071,
                0.46129834958067906,
                -3.0783311120921426
            ]
        },
        {
            "positions": [
                0.7333645743514489,
                -1.9700440964705273,
                2.376252426880077,
                -0.33173855551532316,
                0.5866711691042001,
                -3.1016452521380327
            ]
        },
        {
            "positions": [
                0.7067935813373545,
                -1.911018781636043,
                2.395468320486941,
                -0.4708824924036403,
                0.7120439886277214,
                -3.1249593921839223
            ]
        }
    ]
}