{
    "goal": {
        "global_pose": {
            "orientation": {
                "w": 0.5084816217422485,
                "x": -0.49083608388900757,
                "y": 0.5182115435600281,
                "z": -0.4816462993621826
            },
            "position": {
                "x": 0.5540239810943604,
                "y": 0.030875300988554955,
                "z": 0.16403168439865112
            }
        },
        "name": "move_to_storage_A"
    },
    "id": "ProjEST_move_to_storage_A_14",
    "joint_names": [
        "shoulder_pan_joint",
        "shoulder_lift_joint",
        "elbow_joint",
        "wrist_1_joint",
        "wrist_2_joint",
        "wrist_3_joint"
    ],
    "metrics": {
        "cart_traj_len": 0.3538017212516335,
        "distance_elbow_joint": 0.45371654763914404,
        "distance_shoulder_lift_joint": 0.23397090437295787,
        "distance_shoulder_pan_joint": 0.4624792763795263,
        "distance_wrist_1_joint": 0.2563956357795082,
        "distance_wrist_2_joint": 1.1013567203063517,
        "distance_wrist_3_joint": 0.099677107715054,
        "smoothness": 4.440892098500626e-16,
        "time": 0.080459936,
        "traj_len": 1.614805310925296,
        "weighted_distance": 2.0407603396059297
    },
    "planner": "ProjEST",
    "start": {
        "state": {
            "elbow_joint": 1.971548259319323,
            "shoulder_lift_joint": -1.1394851275133948,
            "shoulder_pan_joint": 0.1228115487234821,
            "wrist_1_joint": -0.7804723859257726,
            "wrist_2_joint": 0.12958671773740124,
            "wrist_3_joint": -3.192489227718131
        }
    },
    "waypoints": [
        {
            "positions": [
                0.1228115487234821,
                -1.1394851275133948,
                1.971548259319323,
                -0.7804723859257726,
                0.12958671773740124,
                -3.192489227718131
            ]
        },
        {
            "positions": [
                0.05674308066926406,
                -1.1729095424238174,
                2.036364908982058,
                -0.8171003338942738,
                0.28692339206688006,
                -3.178249640901695
            ]
        },
        {
            "positions": [
                -0.009325387384953976,
                -1.20633395733424,
                2.1011815586447926,
                -0.8537282818627749,
                0.44426006639635884,
                -3.1640100540852587
            ]
        },
        {
            "positions": [
                -0.07539385543917201,
                -1.2397583722446626,
                2.1659982083075278,
                -0.8903562298312762,
                0.6015967407258377,
                -3.1497704672688225
            ]
        },
        {
            "positions": [
                -0.14146232349339005,
                -1.273182787155085,
                2.2308148579702625,
                -0.9269841777997773,
                0.7589334150553165,
                -3.135530880452386
            ]
        },
        {
            "positions": [
                -0.20753079154760812,
                -1.3066072020655075,
                2.295631507632997,
                -0.9636121257682785,
                0.9162700893847954,
                -3.1212912936359496
            ]
        },
        {
            "positions": [
                -0.27359925960182613,
                -1.34003161697593,
                2.3604481572957323,
                -1.0002400737367796,
                1.073606763714274,
                -3.1070517068195134
            ]
        },
        {
            "positions": [
                -0.3396677276560442,
                -1.3734560318863527,
                2.425264806958467,
                -1.0368680217052808,
                1.230943438043753,
                -3.092812120003077
            ]
        }
    ]
}{
    "goal": {
        "global_pose": {
            "orientation": {
                "w": 0.5084816217422485,
                "x": -0.49083608388900757,
                "y": 0.5182115435600281,
                "z": -0.4816462993621826
            },
            "position": {
                "x": 0.5540239810943604,
                "y": 0.030875300988554955,
                "z": 0.16403168439865112
            }
        },
        "name": "move_to_storage_A"
    },
    "id": "ProjEST_move_to_storage_A_14",
    "joint_names": [
        "shoulder_pan_joint",
        "shoulder_lift_joint",
        "elbow_joint",
        "wrist_1_joint",
        "wrist_2_joint",
        "wrist_3_joint"
    ],
    "metrics": {
        "cart_traj_len": 0.35333734868031375,
        "distance_elbow_joint": 0.44875313183398724,
        "distance_shoulder_lift_joint": 0.23515208690082345,
        "distance_shoulder_pan_joint": 0.46316086280136687,
        "distance_wrist_1_joint": 0.23747538655893008,
        "distance_wrist_2_joint": 1.0946077218946688,
        "distance_wrist_3_joint": 0.09164813805972694,
        "smoothness": 1.1102230263833737e-15,
        "time": 0.039886374,
        "traj_len": 1.6033706146894122,
        "weighted_distance": 2.0214293736419675
    },
    "planner": "ProjEST",
    "start": {
        "state": {
            "elbow_joint": 1.97154746011099,
            "shoulder_lift_joint": -1.13948474672311,
            "shoulder_pan_joint": 0.12281154466712228,
            "wrist_1_joint": -0.7804688027058302,
            "wrist_2_joint": 0.12958655903071145,
            "wrist_3_joint": 3.0906928834467795
        }
    },
    "waypoints": [
        {
            "positions": [
                0.12281154466712228,
                -1.13948474672311,
                1.97154746011099,
                -0.7804688027058302,
                0.12958655903071145,
                3.0906928834467795
            ]
        },
        {
            "positions": [
                0.05664570712406988,
                -1.1730779019946562,
                2.035655050372988,
                -0.8143938579285345,
                0.28595909072994985,
                3.103785474598169
            ]
        },
        {
            "positions": [
                -0.009520130418982517,
                -1.2066710572662023,
                2.099762640634986,
                -0.8483189131512388,
                0.4423316224291882,
                3.1168780657495585
            ]
        },
        {
            "positions": [
                -0.07568596796203493,
                -1.2402642125377485,
                2.1638702308969844,
                -0.882243968373943,
                0.5987041541284266,
                3.129970656900948
            ]
        },
        {
            "positions": [
                -0.1418518055050873,
                -1.2738573678092948,
                2.2279778211589827,
                -0.9161690235966473,
                0.7550766858276651,
                3.143063248052338
            ]
        },
        {
            "positions": [
                -0.20801764304813974,
                -1.307450523080841,
                2.292085411420981,
                -0.9500940788193517,
                0.9114492175269036,
                3.1561558392037274
            ]
        },
        {
            "positions": [
                -0.27418348059119213,
                -1.3410436783523871,
                2.356193001682979,
                -0.984019134042056,
                1.0678217492261417,
                3.169248430355117
            ]
        },
        {
            "positions": [
                -0.34034931813424457,
                -1.3746368336239334,
                2.420300591944977,
                -1.0179441892647603,
                1.2241942809253803,
                3.1823410215065064
            ]
        }
    ]
}{
    "goal": {
        "global_pose": {
            "orientation": {
                "w": 0.5084816217422485,
                "x": -0.49083608388900757,
                "y": 0.5182115435600281,
                "z": -0.4816462993621826
            },
            "position": {
                "x": 0.5540239810943604,
                "y": 0.030875300988554955,
                "z": 0.16403168439865112
            }
        },
        "name": "move_to_storage_A"
    },
    "id": "ProjEST_move_to_storage_A_14",
    "joint_names": [
        "shoulder_pan_joint",
        "shoulder_lift_joint",
        "elbow_joint",
        "wrist_1_joint",
        "wrist_2_joint",
        "wrist_3_joint"
    ],
    "metrics": {
        "cart_traj_len": 0.3536890459817935,
        "distance_elbow_joint": 0.4505752455798224,
        "distance_shoulder_lift_joint": 0.23405042527942088,
        "distance_shoulder_pan_joint": 0.46195122269997047,
        "distance_wrist_1_joint": 0.2452261030280083,
        "distance_wrist_2_joint": 1.1022898474135745,
        "distance_wrist_3_joint": 0.0969835550797673,
        "smoothness": 9.992007271825419e-16,
        "time": 0.132159074,
        "traj_len": 1.6096820801265583,
        "weighted_distance": 2.0328697596456298
    },
    "planner": "ProjEST",
    "start": {
        "state": {
            "elbow_joint": 1.9715472970024885,
            "shoulder_lift_joint": -1.1394870060712896,
            "shoulder_pan_joint": 0.12281152778156021,
            "wrist_1_joint": -0.780463741449964,
            "wrist_2_joint": 0.12958659822042276,
            "wrist_3_joint": 3.090690232415272
        }
    },
    "waypoints": [
        {
            "positions": [
                0.12281152778156021,
                -1.1394870060712896,
                1.9715472970024885,
                -0.780463741449964,
                0.12958659822042276,
                3.090690232415272
            ]
        },
        {
            "positions": [
                0.05681849596727871,
                -1.1729227811112068,
                2.0359151892281773,
                -0.8154960418825367,
                0.28705657642236193,
                3.1045450259980956
            ]
        },
        {
            "positions": [
                -0.009174535847002785,
                -1.206358556151124,
                2.1002830814538664,
                -0.8505283423151092,
                0.44452655462430113,
                3.1183998195809197
            ]
        },
        {
            "positions": [
                -0.07516756766128427,
                -1.2397943311910413,
                2.164650973679555,
                -0.8855606427476819,
                0.6019965328262403,
                3.1322546131637434
            ]
        },
        {
            "positions": [
                -0.14116059947556578,
                -1.2732301062309586,
                2.2290188659052443,
                -0.9205929431802544,
                0.7594665110281795,
                3.1461094067465676
            ]
        },
        {
            "positions": [
                -0.2071536312898473,
                -1.306665881270876,
                2.293386758130933,
                -0.9556252436128271,
                0.9169364892301188,
                3.1599642003293913
            ]
        },
        {
            "positions": [
                -0.2731466631041287,
                -1.3401016563107933,
                2.357754650356622,
                -0.9906575440453996,
                1.074406467432058,
                3.1738189939122154
            ]
        },
        {
            "positions": [
                -0.33913969491841023,
                -1.3735374313507105,
                2.422122542582311,
                -1.0256898444779723,
                1.2318764456339972,
                3.187673787495039
            ]
        }
    ]
}