{
    "goal": {
        "global_pose": {
            "orientation": {
                "w": 0.7047431468963623,
                "x": -0.7094548344612122,
                "y": 0.0024358443915843964,
                "z": -0.0022348060738295317
            },
            "position": {
                "x": 0.6094750761985779,
                "y": 0.3671506643295288,
                "z": 0.19426114857196808
            }
        },
        "name": "move_to_magneteinheit_A"
    },
    "id": "ProjEST_move_to_magneteinheit_A_18",
    "joint_names": [
        "shoulder_pan_joint",
        "shoulder_lift_joint",
        "elbow_joint",
        "wrist_1_joint",
        "wrist_2_joint",
        "wrist_3_joint"
    ],
    "metrics": {
        "cart_traj_len": 3.328442165958298,
        "distance_elbow_joint": 3.885054459699608,
        "distance_shoulder_lift_joint": 0.20071913084674686,
        "distance_shoulder_pan_joint": 3.037515684982681,
        "distance_wrist_1_joint": 2.879868467242897,
        "distance_wrist_2_joint": 1.8464664204440733,
        "distance_wrist_3_joint": 2.6248805720959267,
        "smoothness": 0.410709904589186,
        "time": 0.356348948,
        "traj_len": 3.8045373878189084,
        "weighted_distance": 4.944754874328024
    },
    "planner": "ProjEST",
    "start": {
        "state": {
            "elbow_joint": -1.9196185241190666,
            "shoulder_lift_joint": -1.2443396400964142,
            "shoulder_pan_joint": 2.6996025414629847,
            "wrist_1_joint": -1.5485510000780065,
            "wrist_2_joint": -1.5709468930060704,
            "wrist_3_joint": 0.4420197071253992
        }
    },
    "waypoints": [
        {
            "positions": [
                2.6996025414629847,
                -1.2443396400964142,
                -1.9196185241190666,
                -1.5485510000780065,
                -1.5709468930060704,
                0.4420197071253992
            ]
        },
        {
            "positions": [
                2.559240451496941,
                -1.2367181546955999,
                -1.8491420341420142,
                -1.464165033685486,
                -1.502244466042251,
                0.4470945742037869
            ]
        },
        {
            "positions": [
                2.4188783615308975,
                -1.2290966692947856,
                -1.7786655441649617,
                -1.379779067292965,
                -1.4335420390784315,
                0.4521694412821747
            ]
        },
        {
            "positions": [
                2.2785162715648535,
                -1.2214751838939713,
                -1.708189054187909,
                -1.2953931009004445,
                -1.364839612114612,
                0.4572443083605624
            ]
        },
        {
            "positions": [
                2.13815418159881,
                -1.213853698493157,
                -1.6377125642108565,
                -1.2110071345079239,
                -1.2961371851507926,
                0.4623191754389501
            ]
        },
        {
            "positions": [
                1.9977920916327663,
                -1.2062322130923426,
                -1.567236074233804,
                -1.126621168115403,
                -1.2274347581869731,
                0.46739404251733785
            ]
        },
        {
            "positions": [
                1.8574300016667227,
                -1.1986107276915283,
                -1.4967595842567516,
                -1.0422352017228826,
                -1.1587323312231537,
                0.47246890959572563
            ]
        },
        {
            "positions": [
                1.717067911700679,
                -1.190989242290714,
                -1.4262830942796991,
                -0.9578492353303618,
                -1.0900299042593342,
                0.47754377667411335
            ]
        },
        {
            "positions": [
                1.5767058217346352,
                -1.1833677568898997,
                -1.3558066043026464,
                -0.8734632689378411,
                -1.0213274772955148,
                0.4826186437525011
            ]
        },
        {
            "positions": [
                1.4363437317685914,
                -1.1757462714890854,
                -1.285330114325594,
                -0.7890773025453204,
                -0.9526250503316953,
                0.48769351083088885
            ]
        },
        {
            "positions": [
                1.2959816418025478,
                -1.168124786088271,
                -1.2148536243485415,
                -0.7046913361527998,
                -0.8839226233678759,
                0.4927683779092766
            ]
        },
        {
            "positions": [
                1.155619551836504,
                -1.1605033006874568,
                -1.144377134371489,
                -0.6203053697602791,
                -0.8152201964040563,
                0.4978432449876643
            ]
        },
        {
            "positions": [
                1.0152574618704604,
                -1.1528818152866425,
                -1.0739006443944366,
                -0.5359194033677586,
                -0.746517769440237,
                0.5029181120660521
            ]
        },
        {
            "positions": [
                0.8748953719044168,
                -1.1452603298858282,
                -1.003424154417384,
                -0.45153343697523773,
                -0.6778153424764175,
                0.5079929791444397
            ]
        },
        {
            "positions": [
                0.7345332819383732,
                -1.1376388444850138,
                -0.9329476644403315,
                -0.36714747058271713,
                -0.6091129155125982,
                0.5130678462228275
            ]
        },
        {
            "positions": [
                0.5941711919723294,
                -1.1300173590841995,
                -0.8624711744632789,
                -0.2827615041901963,
                -0.5404104885487786,
                0.5181427133012153
            ]
        },
        {
            "positions": [
                0.45380910200628577,
                -1.1223958736833852,
                -0.7919946844862265,
                -0.1983755377976757,
                -0.47170806158495915,
                0.5232175803796031
            ]
        },
        {
            "positions": [
                0.31344701204024217,
                -1.114774388282571,
                -0.721518194509174,
                -0.11398957140515509,
                -0.4030056346211397,
                0.5282924474579908
            ]
        },
        {
            "positions": [
                0.17308492207419812,
                -1.1071529028817566,
                -0.6510417045321213,
                -0.02960360501263426,
                -0.33430320765732024,
                0.5333673145363785
            ]
        },
        {
            "positions": [
                0.03272283210815452,
                -1.0995314174809423,
                -0.5805652145550688,
                0.054782361379886124,
                -0.2656007806935008,
                0.5384421816147662
            ]
        },
        {
            "positions": [
                -0.10763925785788914,
                -1.091909932080128,
                -0.5100887245780162,
                0.13916832777240684,
                -0.19689835372968145,
                0.543517048693154
            ]
        },
        {
            "positions": [
                -0.09722719633408565,
                -1.094656349561468,
                -0.36948171021509135,
                0.07766376133294606,
                -0.17366280706535414,
                0.6851026128668243
            ]
        },
        {
            "positions": [
                -0.08681513481028215,
                -1.0974027670428084,
                -0.2288746958521664,
                0.01615919489348526,
                -0.1504272604010268,
                0.8266881770404946
            ]
        },
        {
            "positions": [
                -0.07640307328647866,
                -1.1001491845241484,
                -0.08826768148924147,
                -0.04534537154597554,
                -0.12719171373669946,
                0.9682737412141649
            ]
        },
        {
            "positions": [
                -0.06599101176267516,
                -1.1028956020054888,
                0.05233933287368342,
                -0.10684993798543632,
                -0.10395616707237215,
                1.1098593053878352
            ]
        },
        {
            "positions": [
                -0.055578950238871674,
                -1.1056420194868288,
                0.1929463472366083,
                -0.16835450442489713,
                -0.08072062040804483,
                1.2514448695615057
            ]
        },
        {
            "positions": [
                -0.045166888715068174,
                -1.1083884369681691,
                0.3335533615995333,
                -0.22985907086435792,
                -0.0574850737437175,
                1.3930304337351758
            ]
        },
        {
            "positions": [
                -0.03475482719126469,
                -1.1111348544495092,
                0.4741603759624581,
                -0.29136363730381865,
                -0.03424952707939019,
                1.534615997908846
            ]
        },
        {
            "positions": [
                -0.0243427656674612,
                -1.1138812719308495,
                0.6147673903253831,
                -0.3528682037432795,
                -0.011013980415062852,
                1.6762015620825164
            ]
        },
        {
            "positions": [
                -0.013930704143657699,
                -1.1166276894121896,
                0.7553744046883079,
                -0.4143727701827403,
                0.01222156624926446,
                1.8177871262561869
            ]
        },
        {
            "positions": [
                -0.003518642619854212,
                -1.11937410689353,
                0.8959814190512329,
                -0.4758773366222011,
                0.0354571129135918,
                1.9593726904298572
            ]
        },
        {
            "positions": [
                0.006893418903949289,
                -1.12212052437487,
                1.036588433414158,
                -0.5373819030616619,
                0.05869265957791914,
                2.1009582546035275
            ]
        },
        {
            "positions": [
                0.01730548042775279,
                -1.1248669418562103,
                1.1771954477770827,
                -0.5988864695011227,
                0.08192820624224645,
                2.2425438187771976
            ]
        },
        {
            "positions": [
                0.027717541951556263,
                -1.1276133593375504,
                1.3178024621400075,
                -0.6603910359405833,
                0.10516375290657376,
                2.384129382950868
            ]
        },
        {
            "positions": [
                0.038129603475359763,
                -1.1303597768188907,
                1.4584094765029323,
                -0.7218956023800441,
                0.12839929957090107,
                2.525714947124538
            ]
        },
        {
            "positions": [
                0.048541664999163237,
                -1.1331061943002307,
                1.599016490865857,
                -0.783400168819505,
                0.15163484623522838,
                2.6673005112982087
            ]
        },
        {
            "positions": [
                0.05895372652296674,
                -1.135852611781571,
                1.7396235052287823,
                -0.8449047352589658,
                0.17487039289955575,
                2.8088860754718787
            ]
        },
        {
            "positions": [
                0.06936578804677024,
                -1.1385990292629111,
                1.8802305195917073,
                -0.9064093016984265,
                0.19810593956388306,
                2.9504716396455493
            ]
        },
        {
            "positions": [
                0.0960002079253442,
                -1.1377988664390724,
                1.9228332275861244,
                -0.8331235467376022,
                0.15939914562682272,
                3.0086859594334374
            ]
        },
        {
            "positions": [
                0.12263462780391815,
                -1.1369987036152336,
                1.9654359355805413,
                -0.759837791776778,
                0.12069235168976239,
                3.0669002792213256
            ]
        }
    ]
}