{
    "goal": {
        "global_pose": {
            "orientation": {
                "w": 0.5084816217422485,
                "x": -0.49083608388900757,
                "y": 0.5182115435600281,
                "z": -0.4816462993621826
            },
            "position": {
                "x": 0.5540239810943604,
                "y": 0.030875300988554955,
                "z": 0.16403168439865112
            }
        },
        "name": "move_to_storage_A"
    },
    "id": "ProjEST_move_to_storage_A_141",
    "joint_names": [
        "shoulder_pan_joint",
        "shoulder_lift_joint",
        "elbow_joint",
        "wrist_1_joint",
        "wrist_2_joint",
        "wrist_3_joint"
    ],
    "metrics": {
        "cart_traj_len": 0.353955487750795,
        "distance_elbow_joint": 0.44991465018002663,
        "distance_shoulder_lift_joint": 0.235205807401353,
        "distance_shoulder_pan_joint": 0.4639398088039019,
        "distance_wrist_1_joint": 0.23852828258439185,
        "distance_wrist_2_joint": 1.096426701946653,
        "distance_wrist_3_joint": 0.0889965446070149,
        "smoothness": 0.0,
        "time": 0.10899900300000001,
        "traj_len": 1.6040610323561075,
        "weighted_distance": 2.0213757367863145
    },
    "planner": "ProjEST",
    "start": {
        "state": {
            "elbow_joint": 1.971548259319323,
            "shoulder_lift_joint": -1.1394851275133948,
            "shoulder_pan_joint": 0.1228115487234821,
            "wrist_1_joint": -0.7804723859257726,
            "wrist_2_joint": 0.12958671773740124,
            "wrist_3_joint": -3.192489227718131
        }
    },
    "waypoints": [
        {
            "positions": [
                0.1228115487234821,
                -1.1394851275133948,
                1.971548259319323,
                -0.7804723859257726,
                0.12958671773740124,
                -3.192489227718131
            ]
        },
        {
            "positions": [
                0.05653443318006755,
                -1.1730859571421595,
                2.0358217807736123,
                -0.8145478548664,
                0.2862191037297802,
                -3.1797754356314147
            ]
        },
        {
            "positions": [
                -0.009742682363346994,
                -1.2066867867709243,
                2.100095302227902,
                -0.8486233238070274,
                0.44285148972215915,
                -3.1670616435446983
            ]
        },
        {
            "positions": [
                -0.07601979790676155,
                -1.240287616399689,
                2.1643688236821914,
                -0.8826987927476548,
                0.5994838757145382,
                -3.154347851457982
            ]
        },
        {
            "positions": [
                -0.1422969134501761,
                -1.2738884460284536,
                2.228642345136481,
                -0.9167742616882822,
                0.7561162617069171,
                -3.1416340593712655
            ]
        },
        {
            "positions": [
                -0.20857402899359068,
                -1.3074892756572183,
                2.2929158665907705,
                -0.9508497306289097,
                0.9127486476992962,
                -3.128920267284549
            ]
        },
        {
            "positions": [
                -0.2748511445370052,
                -1.3410901052859832,
                2.35718938804506,
                -0.9849251995695371,
                1.0693810336916751,
                -3.1162064751978327
            ]
        },
        {
            "positions": [
                -0.3411282600804198,
                -1.3746909349147478,
                2.4214629094993496,
                -1.0190006685101645,
                1.2260134196840542,
                -3.1034926831111163
            ]
        }
    ]
}{
    "goal": {
        "global_pose": {
            "orientation": {
                "w": 0.5084816217422485,
                "x": -0.49083608388900757,
                "y": 0.5182115435600281,
                "z": -0.4816462993621826
            },
            "position": {
                "x": 0.5540239810943604,
                "y": 0.030875300988554955,
                "z": 0.16403168439865112
            }
        },
        "name": "move_to_storage_A"
    },
    "id": "ProjEST_move_to_storage_A_141",
    "joint_names": [
        "shoulder_pan_joint",
        "shoulder_lift_joint",
        "elbow_joint",
        "wrist_1_joint",
        "wrist_2_joint",
        "wrist_3_joint"
    ],
    "metrics": {
        "cart_traj_len": 0.35253903922845325,
        "distance_elbow_joint": 0.44823478070834,
        "distance_shoulder_lift_joint": 0.23371982697293014,
        "distance_shoulder_pan_joint": 0.4605349854769246,
        "distance_wrist_1_joint": 0.23582697493843074,
        "distance_wrist_2_joint": 1.0993550223041697,
        "distance_wrist_3_joint": 0.09172449331924204,
        "smoothness": 4.440892098500626e-16,
        "time": 0.192811508,
        "traj_len": 1.6029335868088974,
        "weighted_distance": 2.0218870066354158
    },
    "planner": "ProjEST",
    "start": {
        "state": {
            "elbow_joint": 1.97154746011099,
            "shoulder_lift_joint": -1.13948474672311,
            "shoulder_pan_joint": 0.12281154466712228,
            "wrist_1_joint": -0.7804688027058302,
            "wrist_2_joint": 0.12958655903071145,
            "wrist_3_joint": 3.0906928834467795
        }
    },
    "waypoints": [
        {
            "positions": [
                0.12281154466712228,
                -1.13948474672311,
                1.97154746011099,
                -0.7804688027058302,
                0.12958655903071145,
                3.0906928834467795
            ]
        },
        {
            "positions": [
                0.057020832456133055,
                -1.1728732934335286,
                2.0355810002121815,
                -0.8141583705541774,
                0.2866372765027357,
                3.1037963824923853
            ]
        },
        {
            "positions": [
                -0.008769879754856172,
                -1.206261840143947,
                2.0996145403133726,
                -0.8478479384025247,
                0.4436879939747599,
                3.1168998815379916
            ]
        },
        {
            "positions": [
                -0.0745605919658454,
                -1.2396503868543658,
                2.163648080414564,
                -0.8815375062508719,
                0.6007387114467841,
                3.1300033805835974
            ]
        },
        {
            "positions": [
                -0.1403513041768346,
                -1.2730389335647843,
                2.2276816205157557,
                -0.9152270740992192,
                0.7577894289188084,
                3.1431068796292037
            ]
        },
        {
            "positions": [
                -0.20614201638782387,
                -1.306427480275203,
                2.2917151606169472,
                -0.9489166419475664,
                0.9148401463908327,
                3.1562103786748095
            ]
        },
        {
            "positions": [
                -0.27193272859881307,
                -1.3398160269856214,
                2.3557487007181384,
                -0.9826062097959136,
                1.0718908638628568,
                3.1693138777204157
            ]
        },
        {
            "positions": [
                -0.3377234408098023,
                -1.37320457369604,
                2.41978224081933,
                -1.016295777644261,
                1.2289415813348812,
                3.1824173767660215
            ]
        }
    ]
}{
    "goal": {
        "global_pose": {
            "orientation": {
                "w": 0.5084816217422485,
                "x": -0.49083608388900757,
                "y": 0.5182115435600281,
                "z": -0.4816462993621826
            },
            "position": {
                "x": 0.5540239810943604,
                "y": 0.030875300988554955,
                "z": 0.16403168439865112
            }
        },
        "name": "move_to_storage_A"
    },
    "id": "ProjEST_move_to_storage_A_141",
    "joint_names": [
        "shoulder_pan_joint",
        "shoulder_lift_joint",
        "elbow_joint",
        "wrist_1_joint",
        "wrist_2_joint",
        "wrist_3_joint"
    ],
    "metrics": {
        "cart_traj_len": 0.35214672788438306,
        "distance_elbow_joint": 0.44989836070916356,
        "distance_shoulder_lift_joint": 0.23525249874998466,
        "distance_shoulder_pan_joint": 0.4596061916512306,
        "distance_wrist_1_joint": 0.24122972515990893,
        "distance_wrist_2_joint": 1.1012676499151854,
        "distance_wrist_3_joint": 0.08911571113630501,
        "smoothness": 2.2204460668324854e-16,
        "time": 0.059713245,
        "traj_len": 1.6051075158137469,
        "weighted_distance": 2.024129179343424
    },
    "planner": "ProjEST",
    "start": {
        "state": {
            "elbow_joint": 1.9715472970024885,
            "shoulder_lift_joint": -1.1394870060712896,
            "shoulder_pan_joint": 0.12281152778156021,
            "wrist_1_joint": -0.780463741449964,
            "wrist_2_joint": 0.12958659822042276,
            "wrist_3_joint": 3.090690232415272
        }
    },
    "waypoints": [
        {
            "positions": [
                0.12281152778156021,
                -1.1394870060712896,
                1.9715472970024885,
                -0.780463741449964,
                0.12958659822042276,
                3.090690232415272
            ]
        },
        {
            "positions": [
                0.05715350040281299,
                -1.173094505892716,
                2.035818491389512,
                -0.8149251307585225,
                0.2869105482083064,
                3.103421048291887
            ]
        },
        {
            "positions": [
                -0.008504526975934235,
                -1.2067020057141424,
                2.100089685776535,
                -0.8493865200670808,
                0.44423449819619,
                3.116151864168502
            ]
        },
        {
            "positions": [
                -0.07416255435468147,
                -1.2403095055355688,
                2.1643608801635588,
                -0.8838479093756393,
                0.6015584481840737,
                3.128882680045117
            ]
        },
        {
            "positions": [
                -0.13982058173342868,
                -1.273917005356995,
                2.228632074550582,
                -0.9183092986841976,
                0.7588823981719572,
                3.1416134959217317
            ]
        },
        {
            "positions": [
                -0.20547860911217594,
                -1.3075245051784214,
                2.2929032689376054,
                -0.9527706879927561,
                0.9162063481598409,
                3.1543443117983467
            ]
        },
        {
            "positions": [
                -0.2711366364909231,
                -1.3411320049998479,
                2.3571744633246285,
                -0.9872320773013145,
                1.0735302981477246,
                3.167075127674962
            ]
        },
        {
            "positions": [
                -0.3367946638696704,
                -1.3747395048212743,
                2.421445657711652,
                -1.021693466609873,
                1.2308542481356082,
                3.179805943551577
            ]
        }
    ]
}