{
    "goal": {
        "global_pose": {
            "orientation": {
                "w": -0.4816463035849501,
                "x": 0.5182115481033762,
                "y": 0.4908360881923453,
                "z": -0.5084816262002911
            },
            "position": {
                "x": -0.8240239810943604,
                "y": -0.300875300988555,
                "z": 0.16403168439865112
            }
        },
        "name": "move_to_storage_C"
    },
    "id": "ProjEST_move_to_storage_C_33",
    "joint_names": [
        "shoulder_pan_joint",
        "shoulder_lift_joint",
        "elbow_joint",
        "wrist_1_joint",
        "wrist_2_joint",
        "wrist_3_joint"
    ],
    "metrics": {
        "cart_traj_len": 0.576990051896147,
        "distance_elbow_joint": 0.2532499128975316,
        "distance_shoulder_lift_joint": 0.18811488546996458,
        "distance_shoulder_pan_joint": 0.4969395999257449,
        "distance_wrist_1_joint": 0.06449996077594833,
        "distance_wrist_2_joint": 1.0586059918514055,
        "distance_wrist_3_joint": 0.06258485117530865,
        "smoothness": 0.0,
        "time": 0.013410404999999999,
        "traj_len": 1.4573932901231237,
        "weighted_distance": 1.8363743782447723
    },
    "planner": "ProjEST",
    "start": {
        "state": {
            "elbow_joint": 2.010868314990456,
            "shoulder_lift_joint": -1.1634956873337592,
            "shoulder_pan_joint": -2.4736205022346125,
            "wrist_1_joint": -0.8367026794202681,
            "wrist_2_joint": 0.6746043897044499,
            "wrist_3_joint": -3.1496632123970403
        }
    },
    "waypoints": [
        {
            "positions": [
                -2.4736205022346125,
                -1.1634956873337592,
                2.010868314990456,
                -0.8367026794202681,
                0.6746043897044499,
                -3.1496632123970403
            ]
        },
        {
            "positions": [
                -2.5564437688889035,
                -1.1321432064220984,
                1.9686599961742006,
                -0.8259526859576101,
                0.8510387216796842,
                -3.139232403867822
            ]
        },
        {
            "positions": [
                -2.639267035543194,
                -1.1007907255104377,
                1.9264516773579452,
                -0.815202692494952,
                1.0274730536549184,
                -3.128801595338604
            ]
        },
        {
            "positions": [
                -2.722090302197485,
                -1.069438244598777,
                1.88424335854169,
                -0.804452699032294,
                1.2039073856301528,
                -3.118370786809386
            ]
        },
        {
            "positions": [
                -2.804913568851776,
                -1.0380857636871161,
                1.8420350397254348,
                -0.7937027055696358,
                1.3803417176053867,
                -3.107939978280168
            ]
        },
        {
            "positions": [
                -2.8877368355060664,
                -1.0067332827754554,
                1.7998267209091794,
                -0.7829527121069778,
                1.556776049580621,
                -3.09750916975095
            ]
        },
        {
            "positions": [
                -2.9705601021603574,
                -0.9753808018637946,
                1.7576184020929242,
                -0.7722027186443198,
                1.7332103815558553,
                -3.0870783612217316
            ]
        }
    ]
}