{
    "goal": {
        "global_pose": {
            "orientation": {
                "w": 0.7031023502349854,
                "x": -0.7110244035720825,
                "y": 0.007748599164187908,
                "z": 0.005598929710686207
            },
            "position": {
                "x": 0.11585023208521307,
                "y": 0.44412534475326537,
                "z": 0.3711530566215515
            }
        },
        "name": "move_to_auspresseinheit_A"
    },
    "id": "ProjEST_move_to_auspresseinheit_A_143",
    "joint_names": [
        "shoulder_pan_joint",
        "shoulder_lift_joint",
        "elbow_joint",
        "wrist_1_joint",
        "wrist_2_joint",
        "wrist_3_joint"
    ],
    "metrics": {
        "cart_traj_len": 0.9625837810408973,
        "distance_elbow_joint": 0.3543478178770685,
        "distance_shoulder_lift_joint": 0.8515798854269532,
        "distance_shoulder_pan_joint": 1.0468280308493263,
        "distance_wrist_1_joint": 0.5457967158970436,
        "distance_wrist_2_joint": 0.520402717651596,
        "distance_wrist_3_joint": 2.3478543160631498,
        "smoothness": 1.1530057667037863,
        "time": 1.257269807,
        "traj_len": 2.3805061402494085,
        "weighted_distance": 3.38063863041291
    },
    "planner": "ProjEST",
    "start": {
        "state": {
            "elbow_joint": 2.4225746658250005,
            "shoulder_lift_joint": -1.3736534386056498,
            "shoulder_pan_joint": -0.3378633547517467,
            "wrist_1_joint": -1.0288598680537169,
            "wrist_2_joint": 1.233022673432363,
            "wrist_3_joint": -3.0940220416140027
        }
    },
    "waypoints": [
        {
            "positions": [
                -0.3378633547517467,
                -1.3736534386056498,
                2.4225746658250005,
                -1.0288598680537169,
                1.233022673432363,
                -3.0940220416140027
            ]
        },
        {
            "positions": [
                -0.2975497251563264,
                -1.4726671100452833,
                2.395352454619885,
                -0.9926443364699035,
                1.2162025371941207,
                -2.9286845342839927
            ]
        },
        {
            "positions": [
                -0.25723609556090604,
                -1.5716807814849167,
                2.3681302434147695,
                -0.9564288048860901,
                1.1993824009558787,
                -2.7633470269539826
            ]
        },
        {
            "positions": [
                -0.21692246596548573,
                -1.6706944529245502,
                2.3409080322096543,
                -0.9202132733022768,
                1.1825622647176364,
                -2.598009519623972
            ]
        },
        {
            "positions": [
                -0.1766088363700654,
                -1.769708124364184,
                2.3136858210045386,
                -0.8839977417184633,
                1.165742128479394,
                -2.432672012293962
            ]
        },
        {
            "positions": [
                -0.13629520677464504,
                -1.8687217958038174,
                2.2864636097994233,
                -0.8477822101346499,
                1.1489219922411518,
                -2.2673345049639515
            ]
        },
        {
            "positions": [
                -0.09598157717922473,
                -1.9677354672434508,
                2.2592413985943076,
                -0.8115666785508365,
                1.1321018560029097,
                -2.1019969976339414
            ]
        },
        {
            "positions": [
                -0.05566794758380442,
                -2.0667491386830843,
                2.2320191873891924,
                -0.7753511469670231,
                1.1152817197646674,
                -1.9366594903039314
            ]
        },
        {
            "positions": [
                0.0427814706156765,
                -2.0466195590655785,
                2.2551932280875273,
                -0.7365683091032129,
                1.0645852308305288,
                -2.0962784148152607
            ]
        },
        {
            "positions": [
                0.1412308888151574,
                -2.026489979448072,
                2.2783672687858627,
                -0.6977854712394027,
                1.0138887418963902,
                -2.25589733932659
            ]
        },
        {
            "positions": [
                0.23968030701463836,
                -2.006360399830566,
                2.3015413094841977,
                -0.6590026333755924,
                0.9631922529622516,
                -2.4155162638379193
            ]
        },
        {
            "positions": [
                0.3381297252141192,
                -1.98623082021306,
                2.324715350182533,
                -0.6202197955117822,
                0.912495764028113,
                -2.5751351883492486
            ]
        },
        {
            "positions": [
                0.43657914341360027,
                -1.966101240595554,
                2.347889390880868,
                -0.5814369576479719,
                0.8617992750939744,
                -2.7347541128605783
            ]
        },
        {
            "positions": [
                0.5350285616130811,
                -1.945971660978048,
                2.3710634315792034,
                -0.5426541197841617,
                0.8111027861598359,
                -2.8943730373719077
            ]
        },
        {
            "positions": [
                0.633477979812562,
                -1.925842081360542,
                2.3942374722775384,
                -0.5038712819203515,
                0.7604062972256972,
                -3.053991961883237
            ]
        },
        {
            "positions": [
                0.7089646760975796,
                -1.9082649533335656,
                2.3958115268304527,
                -0.4830631521566733,
                0.7126199557807671,
                -3.1271512550570097
            ]
        }
    ]
}