{
    "goal": {
        "global_pose": {
            "orientation": {
                "w": 0.7047431493862688,
                "x": -0.7094548369677653,
                "y": 0.0024358444001904,
                "z": -0.0022348060817251984
            },
            "position": {
                "x": -0.39052492380142206,
                "y": 0.3671506643295288,
                "z": 0.19426114857196808
            }
        },
        "name": "move_to_magneteinheit_D"
    },
    "id": "ProjEST_move_to_magneteinheit_D_49",
    "joint_names": [
        "shoulder_pan_joint",
        "shoulder_lift_joint",
        "elbow_joint",
        "wrist_1_joint",
        "wrist_2_joint",
        "wrist_3_joint"
    ],
    "metrics": {
        "cart_traj_len": 5.849983213229832,
        "distance_elbow_joint": 3.74733778741861,
        "distance_shoulder_lift_joint": 2.9939075208570514,
        "distance_shoulder_pan_joint": 4.157084118401331,
        "distance_wrist_1_joint": 2.750216438257241,
        "distance_wrist_2_joint": 1.1237589768405951,
        "distance_wrist_3_joint": 3.2676644926835556,
        "smoothness": 0.7487678188683909,
        "time": 1.107415299,
        "traj_len": 4.247348506357628,
        "weighted_distance": 5.333786060100585
    },
    "planner": "ProjEST",
    "start": {
        "state": {
            "elbow_joint": 0.749534889911806,
            "shoulder_lift_joint": -0.6476975780787326,
            "shoulder_pan_joint": -2.711696901376241,
            "wrist_1_joint": -0.07506478083263063,
            "wrist_2_joint": 0.43296659715538205,
            "wrist_3_joint": -3.14703540197715
        }
    },
    "waypoints": [
        {
            "positions": [
                -2.711696901376241,
                -0.6476975780787326,
                0.749534889911806,
                -0.07506478083263063,
                0.43296659715538205,
                -3.14703540197715
            ]
        },
        {
            "positions": [
                -2.7732304034047566,
                -0.7801502322508829,
                0.7874297357021435,
                -0.10153372857593942,
                0.37047750865947854,
                -3.1018904506086535
            ]
        },
        {
            "positions": [
                -2.8347639054332725,
                -0.9126028864230331,
                0.825324581492481,
                -0.12800267631924822,
                0.307988420163575,
                -3.0567454992401566
            ]
        },
        {
            "positions": [
                -2.8962974074617884,
                -1.0450555405951834,
                0.8632194272828186,
                -0.154471624062557,
                0.2454993316676715,
                -3.0116005478716596
            ]
        },
        {
            "positions": [
                -2.957830909490304,
                -1.1775081947673338,
                0.9011142730731562,
                -0.18094057180586579,
                0.18301024317176798,
                -2.966455596503163
            ]
        },
        {
            "positions": [
                -3.0193644115188194,
                -1.3099608489394838,
                0.9390091188634937,
                -0.20740951954917458,
                0.12052115467586444,
                -2.9213106451346667
            ]
        },
        {
            "positions": [
                -3.0808979135473353,
                -1.4424135031116343,
                0.9769039646538313,
                -0.23387846729248335,
                0.05803206617996093,
                -2.8761656937661697
            ]
        },
        {
            "positions": [
                -3.1424314155758513,
                -1.5748661572837845,
                1.014798810444169,
                -0.2603474150357922,
                -0.004457022315942583,
                -2.8310207423976728
            ]
        },
        {
            "positions": [
                -3.2039649176043667,
                -1.7073188114559348,
                1.0526936562345064,
                -0.28681636277910094,
                -0.0669461108118461,
                -2.7858757910291763
            ]
        },
        {
            "positions": [
                -3.1359011943949473,
                -1.6314938278296371,
                1.02754208106268,
                -0.3312529600090523,
                -0.019011682402247543,
                -2.6552449449680875
            ]
        },
        {
            "positions": [
                -3.0678374711855283,
                -1.5556688442033395,
                1.0023905058908535,
                -0.37568955723900366,
                0.028922746007351008,
                -2.5246140989069987
            ]
        },
        {
            "positions": [
                -2.999773747976109,
                -1.4798438605770419,
                0.9772389307190272,
                -0.420126154468955,
                0.07685717441694956,
                -2.39398325284591
            ]
        },
        {
            "positions": [
                -2.9317100247666894,
                -1.4040188769507442,
                0.9520873555472008,
                -0.4645627516989064,
                0.12479160282654811,
                -2.263352406784821
            ]
        },
        {
            "positions": [
                -2.8636463015572704,
                -1.3281938933244466,
                0.9269357803753744,
                -0.5089993489288578,
                0.17272603123614666,
                -2.132721560723732
            ]
        },
        {
            "positions": [
                -2.795582578347851,
                -1.252368909698149,
                0.9017842052035481,
                -0.5534359461588091,
                0.2206604596457452,
                -2.002090714662643
            ]
        },
        {
            "positions": [
                -2.7275188551384315,
                -1.1765439260718513,
                0.8766326300317216,
                -0.5978725433887605,
                0.26859488805534376,
                -1.8714598686015544
            ]
        },
        {
            "positions": [
                -2.6594551319290125,
                -1.1007189424455537,
                0.8514810548598953,
                -0.6423091406187118,
                0.3165293164649423,
                -1.7408290225404657
            ]
        },
        {
            "positions": [
                -2.591391408719593,
                -1.024893958819256,
                0.8263294796880689,
                -0.6867457378486632,
                0.36446374487454086,
                -1.6101981764793767
            ]
        },
        {
            "positions": [
                -2.4864285665230215,
                -1.0720364587391735,
                0.7265781230542202,
                -0.6219445557160158,
                0.3571511074071147,
                -1.544613710431134
            ]
        },
        {
            "positions": [
                -2.3814657243264494,
                -1.119178958659091,
                0.6268267664203715,
                -0.5571433735833684,
                0.3498384699396886,
                -1.4790292443828914
            ]
        },
        {
            "positions": [
                -2.2765028821298774,
                -1.1663214585790085,
                0.5270754097865227,
                -0.4923421914507209,
                0.3425258324722624,
                -1.4134447783346487
            ]
        },
        {
            "positions": [
                -2.171540039933306,
                -1.2134639584989262,
                0.42732405315267397,
                -0.4275410093180735,
                0.33521319500483626,
                -1.347860312286406
            ]
        },
        {
            "positions": [
                -2.066577197736734,
                -1.2606064584188437,
                0.3275726965188252,
                -0.362739827185426,
                0.32790055753741015,
                -1.2822758462381634
            ]
        },
        {
            "positions": [
                -1.9616143555401622,
                -1.3077489583387611,
                0.22782133988497644,
                -0.2979386450527786,
                0.320587920069984,
                -1.2166913801899206
            ]
        },
        {
            "positions": [
                -1.8566515133435904,
                -1.3548914582586786,
                0.12806998325112784,
                -0.2331374629201312,
                0.3132752826025579,
                -1.151106914141678
            ]
        },
        {
            "positions": [
                -1.7516886711470185,
                -1.402033958178596,
                0.02831862661727902,
                -0.16833628078748375,
                0.3059626451351317,
                -1.0855224480934353
            ]
        },
        {
            "positions": [
                -1.6467258289504467,
                -1.4491764580985136,
                -0.07143273001656969,
                -0.10353509865483634,
                0.29865000766770555,
                -1.0199379820451928
            ]
        },
        {
            "positions": [
                -1.541762986753875,
                -1.4963189580184313,
                -0.1711840866504185,
                -0.03873391652218883,
                0.2913373702002794,
                -0.95435351599695
            ]
        },
        {
            "positions": [
                -1.436800144557303,
                -1.5434614579383488,
                -0.2709354432842672,
                0.026067265610458468,
                0.2840247327328533,
                -0.8887690499487074
            ]
        },
        {
            "positions": [
                -1.3318373023607313,
                -1.5906039578582662,
                -0.37068679991811604,
                0.09086844774310598,
                0.2767120952654271,
                -0.8231845839004647
            ]
        },
        {
            "positions": [
                -1.2268744601641595,
                -1.6377464577781837,
                -0.47043815655196464,
                0.1556696298757534,
                0.269399457798001,
                -0.757600117852222
            ]
        },
        {
            "positions": [
                -1.1219116179675876,
                -1.6848889576981012,
                -0.5701895131858132,
                0.2204708120084008,
                0.26208682033057484,
                -0.6920156518039794
            ]
        },
        {
            "positions": [
                -1.016948775771016,
                -1.7320314576180187,
                -0.669940869819662,
                0.2852719941410482,
                0.25477418286314873,
                -0.6264311857557368
            ]
        },
        {
            "positions": [
                -0.911985933574444,
                -1.7791739575379362,
                -0.7696922264535109,
                0.3500731762736957,
                0.24746154539572257,
                -0.560846719707494
            ]
        },
        {
            "positions": [
                -0.8070230913778722,
                -1.8263164574578536,
                -0.8694435830873597,
                0.41487435840634324,
                0.2401489079282964,
                -0.49526225365925125
            ]
        },
        {
            "positions": [
                -0.7020602491813004,
                -1.8734589573777711,
                -0.9691949397212083,
                0.47967554053899053,
                0.23283627046087027,
                -0.4296777876110087
            ]
        },
        {
            "positions": [
                -0.5970974069847288,
                -1.9206014572976886,
                -1.068946296355057,
                0.5444767226716378,
                0.22552363299344413,
                -0.3640933215627662
            ]
        },
        {
            "positions": [
                -0.49213456478815676,
                -1.9677439572176065,
                -1.168697652988906,
                0.6092779048042856,
                0.21821099552601797,
                -0.2985088555145232
            ]
        },
        {
            "positions": [
                -0.3871717225915847,
                -2.014886457137524,
                -1.2684490096227548,
                0.6740790869369329,
                0.21089835805859183,
                -0.2329243894662807
            ]
        },
        {
            "positions": [
                -0.28220888039501313,
                -2.062028957057441,
                -1.3682003662566034,
                0.7388802690695802,
                0.2035857205911657,
                -0.16733992341803816
            ]
        },
        {
            "positions": [
                -0.17724603819844154,
                -2.109171456977359,
                -1.467951722890452,
                0.8036814512022277,
                0.19627308312373956,
                -0.10175545736979541
            ]
        },
        {
            "positions": [
                -0.0722831960018695,
                -2.1563139568972765,
                -1.567703079524301,
                0.8684826333348752,
                0.1889604456563134,
                -0.03617099132155266
            ]
        },
        {
            "positions": [
                0.03267964619470254,
                -2.203456456817194,
                -1.6674544361581496,
                0.9332838154675227,
                0.18164780818888726,
                0.029413474726690092
            ]
        },
        {
            "positions": [
                0.1376424883912743,
                -2.2505989567371114,
                -1.767205792791998,
                0.99808499760017,
                0.17433517072146112,
                0.09499794077493265
            ]
        },
        {
            "positions": [
                0.056840314346882956,
                -2.25713806596844,
                -1.9232756858093492,
                1.1115111840482637,
                0.17375821096298638,
                0.08859015329206454
            ]
        },
        {
            "positions": [
                -0.023961859697508386,
                -2.263677175199769,
                -2.0793455788267003,
                1.2249373704963573,
                0.1731812512045116,
                0.08218236580919644
            ]
        },
        {
            "positions": [
                -0.10476403374189974,
                -2.270216284431098,
                -2.235415471844051,
                1.338363556944451,
                0.17260429144603684,
                0.07577457832632832
            ]
        },
        {
            "positions": [
                -0.18556620778629107,
                -2.2767553936624263,
                -2.3914853648614023,
                1.4517897433925446,
                0.1720273316875621,
                0.06936679084346022
            ]
        }
    ]
}