{
    "goal": {
        "global_pose": {
            "orientation": {
                "w": 0.5084816262002911,
                "x": -0.4908360881923452,
                "y": 0.5182115481033761,
                "z": -0.48164630358495003
            },
            "position": {
                "x": 0.5540239810943604,
                "y": -0.46912469901144505,
                "z": 0.16403168439865112
            }
        },
        "name": "move_to_storage_B"
    },
    "id": "ProjEST_move_to_storage_B_20",
    "joint_names": [
        "shoulder_pan_joint",
        "shoulder_lift_joint",
        "elbow_joint",
        "wrist_1_joint",
        "wrist_2_joint",
        "wrist_3_joint"
    ],
    "metrics": {
        "cart_traj_len": 1.4299004047997372,
        "distance_elbow_joint": 1.2698905111766323,
        "distance_shoulder_lift_joint": 0.46226839922047724,
        "distance_shoulder_pan_joint": 1.3497923303768724,
        "distance_wrist_1_joint": 3.0222499235071294,
        "distance_wrist_2_joint": 2.72022816305875,
        "distance_wrist_3_joint": 3.1113651488702585,
        "smoothness": 0.20102047677536905,
        "time": 0.078777096,
        "traj_len": 3.454821916714394,
        "weighted_distance": 4.888865191485292
    },
    "planner": "ProjEST",
    "start": {
        "state": {
            "elbow_joint": 1.664937868594044,
            "shoulder_lift_joint": -0.661644460510453,
            "shoulder_pan_joint": -0.9139846352900073,
            "wrist_1_joint": 2.146753192139373,
            "wrist_2_joint": -2.2341966793290973,
            "wrist_3_joint": 0.005466555786416001
        }
    },
    "waypoints": [
        {
            "positions": [
                -0.9139846352900073,
                -0.661644460510453,
                1.664937868594044,
                2.146753192139373,
                -2.2341966793290973,
                0.005466555786416001
            ]
        },
        {
            "positions": [
                -0.855548964661791,
                -0.6971109727444748,
                1.6194144179072656,
                2.012085332612906,
                -2.1611224869681758,
                -0.040726225737705755
            ]
        },
        {
            "positions": [
                -0.7971132940335747,
                -0.7325774849784965,
                1.5738909672204873,
                1.8774174730864384,
                -2.0880482946072543,
                -0.08691900726182751
            ]
        },
        {
            "positions": [
                -0.7386776234053584,
                -0.7680439972125181,
                1.5283675165337092,
                1.7427496135599712,
                -2.014974102246333,
                -0.13311178878594926
            ]
        },
        {
            "positions": [
                -0.6802419527771421,
                -0.8035105094465399,
                1.4828440658469308,
                1.6080817540335037,
                -1.9418999098854117,
                -0.17930457031007102
            ]
        },
        {
            "positions": [
                -0.6218062821489257,
                -0.8389770216805617,
                1.4373206151601525,
                1.4734138945070363,
                -1.8688257175244902,
                -0.22549735183419276
            ]
        },
        {
            "positions": [
                -0.5633706115207094,
                -0.8744435339145834,
                1.3917971644733742,
                1.338746034980569,
                -1.7957515251635687,
                -0.2716901333583145
            ]
        },
        {
            "positions": [
                -0.5049349408924931,
                -0.9099100461486052,
                1.346273713786596,
                1.204078175454102,
                -1.7226773328026475,
                -0.3178829148824362
            ]
        },
        {
            "positions": [
                -0.4464992702642768,
                -0.9453765583826268,
                1.3007502630998178,
                1.0694103159276342,
                -1.649603140441726,
                -0.364075696406558
            ]
        },
        {
            "positions": [
                -0.3880635996360605,
                -0.9808430706166487,
                1.2552268124130395,
                0.934742456401167,
                -1.5765289480808047,
                -0.4102684779306797
            ]
        },
        {
            "positions": [
                -0.32962792900784416,
                -1.0163095828506703,
                1.2097033617262611,
                0.8000745968746996,
                -1.5034547557198832,
                -0.4564612594548015
            ]
        },
        {
            "positions": [
                -0.36607724444092554,
                -1.021433548416397,
                1.2484965047885872,
                0.7202854860060113,
                -1.4087173157460957,
                -0.5826249420085653
            ]
        },
        {
            "positions": [
                -0.402526559874007,
                -1.0265575139821237,
                1.2872896478509135,
                0.6404963751373228,
                -1.3139798757723085,
                -0.7087886245623292
            ]
        },
        {
            "positions": [
                -0.43897587530708837,
                -1.0316814795478504,
                1.3260827909132396,
                0.5607072642686345,
                -1.219242435798521,
                -0.8349523071160929
            ]
        },
        {
            "positions": [
                -0.47542519074016976,
                -1.0368054451135769,
                1.3648759339755658,
                0.4809181533999461,
                -1.1245049958247337,
                -0.9611159896698569
            ]
        },
        {
            "positions": [
                -0.5118745061732511,
                -1.0419294106793036,
                1.403669077037892,
                0.40112904253125775,
                -1.0297675558509463,
                -1.0872796722236207
            ]
        },
        {
            "positions": [
                -0.5483238216063326,
                -1.0470533762450303,
                1.4424622201002182,
                0.32133993166256936,
                -0.9350301158771588,
                -1.2134433547773844
            ]
        },
        {
            "positions": [
                -0.584773137039414,
                -1.052177341810757,
                1.4812553631625442,
                0.24155082079388102,
                -0.8402926759033714,
                -1.3396070373311484
            ]
        },
        {
            "positions": [
                -0.6212224524724954,
                -1.0573013073764836,
                1.5200485062248705,
                0.16176170992519256,
                -0.7455552359295841,
                -1.4657707198849121
            ]
        },
        {
            "positions": [
                -0.6576717679055768,
                -1.0624252729422103,
                1.5588416492871966,
                0.08197259905650423,
                -0.6508177959557966,
                -1.591934402438676
            ]
        },
        {
            "positions": [
                -0.6941210833386582,
                -1.067549238507937,
                1.5976347923495229,
                0.002183488187815885,
                -0.5560803559820092,
                -1.7180980849924397
            ]
        },
        {
            "positions": [
                -0.7305703987717397,
                -1.0726732040736635,
                1.636427935411849,
                -0.07760562268087268,
                -0.46134291600822164,
                -1.8442617675462039
            ]
        },
        {
            "positions": [
                -0.767019714204821,
                -1.0777971696393902,
                1.6752210784741752,
                -0.1573947335495609,
                -0.3666054760344344,
                -1.9704254500999674
            ]
        },
        {
            "positions": [
                -0.8034690296379025,
                -1.082921135205117,
                1.7140142215365013,
                -0.23718384441824947,
                -0.2718680360606469,
                -2.0965891326537314
            ]
        },
        {
            "positions": [
                -0.8399183450709837,
                -1.0880451007708436,
                1.7528073645988274,
                -0.3169729552869376,
                -0.17713059608685966,
                -2.222752815207495
            ]
        },
        {
            "positions": [
                -0.8763676605040653,
                -1.0931690663365703,
                1.7916005076611536,
                -0.39676206615562615,
                -0.08239315611307219,
                -2.3489164977612593
            ]
        },
        {
            "positions": [
                -0.9128169759371467,
                -1.098293031902297,
                1.83039365072348,
                -0.4765511770243145,
                0.012344283860715066,
                -2.475080180315023
            ]
        },
        {
            "positions": [
                -0.9492662913702281,
                -1.1034169974680237,
                1.869186793785806,
                -0.5563402878930028,
                0.10708172383450254,
                -2.601243862868787
            ]
        },
        {
            "positions": [
                -0.9857156068033095,
                -1.1085409630337502,
                1.907979936848132,
                -0.6361293987616912,
                0.20181916380829001,
                -2.7274075454225506
            ]
        },
        {
            "positions": [
                -1.0221649222363909,
                -1.1136649285994769,
                1.9467730799104583,
                -0.7159185096303797,
                0.2965566037820775,
                -2.853571227976315
            ]
        },
        {
            "positions": [
                -1.0586142376694723,
                -1.1187888941652036,
                1.9855662229727846,
                -0.7957076204990678,
                0.39129404375586474,
                -2.979734910530078
            ]
        },
        {
            "positions": [
                -1.0950635531025537,
                -1.1239128597309302,
                2.0243593660351107,
                -0.8754967313677565,
                0.4860314837296522,
                -3.1058985930838423
            ]
        }
    ]
}