{
    "goal": {
        "global_pose": {
            "orientation": {
                "w": -0.4816463035849501,
                "x": 0.5182115481033762,
                "y": 0.4908360881923453,
                "z": -0.5084816262002911
            },
            "position": {
                "x": -0.8240239810943604,
                "y": -0.300875300988555,
                "z": 0.16403168439865112
            }
        },
        "name": "move_to_storage_C"
    },
    "id": "ProjEST_move_to_storage_C_40",
    "joint_names": [
        "shoulder_pan_joint",
        "shoulder_lift_joint",
        "elbow_joint",
        "wrist_1_joint",
        "wrist_2_joint",
        "wrist_3_joint"
    ],
    "metrics": {
        "cart_traj_len": 0.5772729533548752,
        "distance_elbow_joint": 0.2616107782641659,
        "distance_shoulder_lift_joint": 0.19011331430228207,
        "distance_shoulder_pan_joint": 0.4945895817358714,
        "distance_wrist_1_joint": 0.08845182928025419,
        "distance_wrist_2_joint": 1.0708108312270141,
        "distance_wrist_3_joint": 0.07617105555770864,
        "smoothness": 2.5376526478085547e-16,
        "time": 0.019213518,
        "traj_len": 1.4770739285382084,
        "weighted_distance": 1.8690511394795974
    },
    "planner": "ProjEST",
    "start": {
        "state": {
            "elbow_joint": 2.010868314990456,
            "shoulder_lift_joint": -1.1634956873337592,
            "shoulder_pan_joint": -2.4736205022346125,
            "wrist_1_joint": -0.8367026794202681,
            "wrist_2_joint": 0.6746043897044499,
            "wrist_3_joint": -3.1496632123970403
        }
    },
    "waypoints": [
        {
            "positions": [
                -2.4736205022346125,
                -1.1634956873337592,
                2.010868314990456,
                -0.8367026794202681,
                0.6746043897044499,
                -3.1496632123970403
            ]
        },
        {
            "positions": [
                -2.556052099190591,
                -1.1318101349500456,
                1.9672665186130949,
                -0.8219607078735591,
                0.8530728615756189,
                -3.1369680364707557
            ]
        },
        {
            "positions": [
                -2.6384836961465696,
                -1.1001245825663317,
                1.923664722235734,
                -0.80721873632685,
                1.031541333446788,
                -3.1242728605444707
            ]
        },
        {
            "positions": [
                -2.720915293102548,
                -1.068439030182618,
                1.8800629258583728,
                -0.792476764780141,
                1.210009805317957,
                -3.1115776846181857
            ]
        },
        {
            "positions": [
                -2.8033468900585268,
                -1.0367534777989045,
                1.8364611294810118,
                -0.777734793233432,
                1.388478277189126,
                -3.098882508691901
            ]
        },
        {
            "positions": [
                -2.8857784870145053,
                -1.0050679254151909,
                1.7928593331036509,
                -0.762992821686723,
                1.566946749060295,
                -3.0861873327656166
            ]
        },
        {
            "positions": [
                -2.968210083970484,
                -0.9733823730314771,
                1.74925753672629,
                -0.7482508501400139,
                1.745415220931464,
                -3.0734921568393316
            ]
        }
    ]
}