{
    "goal": {
        "global_pose": {
            "orientation": {
                "w": -0.00223480608172531,
                "x": 0.0024358444001904467,
                "y": 0.7094548369677653,
                "z": -0.704743149386269
            },
            "position": {
                "x": 0.6205249238014221,
                "y": -0.6371506643295288,
                "z": 0.19426114857196808
            }
        },
        "name": "move_to_magneteinheit_B"
    },
    "id": "ProjEST_move_to_magneteinheit_B_55",
    "joint_names": [
        "shoulder_pan_joint",
        "shoulder_lift_joint",
        "elbow_joint",
        "wrist_1_joint",
        "wrist_2_joint",
        "wrist_3_joint"
    ],
    "metrics": {
        "cart_traj_len": 1.5030665698378125,
        "distance_elbow_joint": 0.9600665298337643,
        "distance_shoulder_lift_joint": 0.7641861693501995,
        "distance_shoulder_pan_joint": 1.6208156984788156,
        "distance_wrist_1_joint": 0.30374579801019097,
        "distance_wrist_2_joint": 1.612568114190139,
        "distance_wrist_3_joint": 0.12627658533528208,
        "smoothness": 0.46729277709525646,
        "time": 0.12007892,
        "traj_len": 2.3211331058770392,
        "weighted_distance": 2.7489135996006286
    },
    "planner": "ProjEST",
    "start": {
        "state": {
            "elbow_joint": 2.6216224122426386,
            "shoulder_lift_joint": -1.4174107377796124,
            "shoulder_pan_joint": 0.7066234856936794,
            "wrist_1_joint": 1.9546482284002225,
            "wrist_2_joint": -0.7096286983471962,
            "wrist_3_joint": 0.005740856962016249
        }
    },
    "waypoints": [
        {
            "positions": [
                0.7066234856936794,
                -1.4174107377796124,
                2.6216224122426386,
                1.9546482284002225,
                -0.7096286983471962,
                0.005740856962016249
            ]
        },
        {
            "positions": [
                0.6001125037573015,
                -1.42019448601836,
                2.6120235129190434,
                1.8957958671764086,
                -0.6686209239350234,
                0.06177534786898067
            ]
        },
        {
            "positions": [
                0.4836275255617294,
                -1.3616250690097866,
                2.538910618264415,
                1.9146338238522838,
                -0.7895101808410208,
                0.05637210983603316
            ]
        },
        {
            "positions": [
                0.36714254736615726,
                -1.3030556520012135,
                2.4657977236097866,
                1.933471780528159,
                -0.9103994377470181,
                0.050968871803085646
            ]
        },
        {
            "positions": [
                0.2506575691705851,
                -1.2444862349926402,
                2.3926848289551583,
                1.9523097372040341,
                -1.0312886946530155,
                0.04556563377013813
            ]
        },
        {
            "positions": [
                0.134172590975013,
                -1.1859168179840671,
                2.3195719343005297,
                1.9711476938799093,
                -1.152177951559013,
                0.04016239573719062
            ]
        },
        {
            "positions": [
                0.017687612779440864,
                -1.1273474009754938,
                2.2464590396459014,
                1.9899856505557845,
                -1.2730672084650103,
                0.03475915770424311
            ]
        },
        {
            "positions": [
                -0.09879736541613127,
                -1.0687779839669207,
                2.173346144991273,
                2.0088236072316596,
                -1.3939564653710077,
                0.02935591967129559
            ]
        },
        {
            "positions": [
                -0.2152823436117034,
                -1.0102085669583474,
                2.1002332503366445,
                2.0276615639075346,
                -1.514845722277005,
                0.02395268163834808
            ]
        },
        {
            "positions": [
                -0.33176732180727553,
                -0.9516391499497742,
                2.0271203556820163,
                2.04649952058341,
                -1.6357349791830025,
                0.018549443605400562
            ]
        },
        {
            "positions": [
                -0.44825230000284766,
                -0.893069732941201,
                1.9540074610273879,
                2.065337477259285,
                -1.7566242360889999,
                0.013146205572453051
            ]
        },
        {
            "positions": [
                -0.5647372781984198,
                -0.8345003159326277,
                1.8808945663727594,
                2.0841754339351604,
                -1.8775134929949973,
                0.007742967539505534
            ]
        },
        {
            "positions": [
                -0.6812222563939919,
                -0.7759308989240545,
                1.8077816717181312,
                2.1030133906110353,
                -1.9984027499009946,
                0.0023397295065580234
            ]
        },
        {
            "positions": [
                -0.797707234589564,
                -0.7173614819154813,
                1.7346687770635025,
                2.1218513472869107,
                -2.119292006806992,
                -0.003063508526389494
            ]
        },
        {
            "positions": [
                -0.9141922127851362,
                -0.6587920649069081,
                1.6615558824088743,
                2.1406893039627857,
                -2.2401812637129894,
                -0.00846674655933701
            ]
        }
    ]
}