{
    "goal": {
        "global_pose": {
            "orientation": {
                "w": 0.7047431493862688,
                "x": -0.7094548369677653,
                "y": 0.0024358444001904,
                "z": -0.0022348060817251984
            },
            "position": {
                "x": -0.39052492380142206,
                "y": 0.3671506643295288,
                "z": 0.19426114857196808
            }
        },
        "name": "move_to_magneteinheit_D"
    },
    "id": "ProjEST_move_to_magneteinheit_D_108",
    "joint_names": [
        "shoulder_pan_joint",
        "shoulder_lift_joint",
        "elbow_joint",
        "wrist_1_joint",
        "wrist_2_joint",
        "wrist_3_joint"
    ],
    "metrics": {
        "cart_traj_len": 4.132090361199412,
        "distance_elbow_joint": 3.21931429773752,
        "distance_shoulder_lift_joint": 1.629406929491574,
        "distance_shoulder_pan_joint": 2.8463968771983477,
        "distance_wrist_1_joint": 1.6088833948147727,
        "distance_wrist_2_joint": 0.6788806207974866,
        "distance_wrist_3_joint": 4.821514396667995,
        "smoothness": 0.3893378524626138,
        "time": 0.333020539,
        "traj_len": 3.8476481799545668,
        "weighted_distance": 5.170608216221369
    },
    "planner": "ProjEST",
    "start": {
        "state": {
            "elbow_joint": 0.749534889911806,
            "shoulder_lift_joint": -0.6476975780787326,
            "shoulder_pan_joint": -2.711696901376241,
            "wrist_1_joint": -0.07506478083263063,
            "wrist_2_joint": 0.43296659715538205,
            "wrist_3_joint": -3.14703540197715
        }
    },
    "waypoints": [
        {
            "positions": [
                -2.711696901376241,
                -0.6476975780787326,
                0.749534889911806,
                -0.07506478083263063,
                0.43296659715538205,
                -3.14703540197715
            ]
        },
        {
            "positions": [
                -2.712520939558321,
                -0.6679063440044497,
                0.7690677749794755,
                0.0031483300763303634,
                0.3432538540257387,
                -3.101950742311861
            ]
        },
        {
            "positions": [
                -2.713344977740401,
                -0.6881151099301668,
                0.7886006600471451,
                0.08136144098529134,
                0.25354111089609543,
                -3.0568660826465717
            ]
        },
        {
            "positions": [
                -2.6278662739111622,
                -0.7328656238323763,
                0.7200850785388937,
                0.12796432210314931,
                0.24368349266506864,
                -2.9216831392524245
            ]
        },
        {
            "positions": [
                -2.5423875700819236,
                -0.7776161377345859,
                0.6515694970306422,
                0.1745672032210073,
                0.23382587443404182,
                -2.786500195858278
            ]
        },
        {
            "positions": [
                -2.456908866252685,
                -0.8223666516367956,
                0.5830539155223907,
                0.22117008433886526,
                0.22396825620301503,
                -2.6513172524641306
            ]
        },
        {
            "positions": [
                -2.3714301624234464,
                -0.8671171655390051,
                0.5145383340141392,
                0.26777296545672324,
                0.2141106379719882,
                -2.516134309069984
            ]
        },
        {
            "positions": [
                -2.285951458594208,
                -0.9118676794412146,
                0.4460227525058877,
                0.3143758465745813,
                0.2042530197409614,
                -2.3809513656758368
            ]
        },
        {
            "positions": [
                -2.200472754764969,
                -0.9566181933434242,
                0.37750717099763625,
                0.3609787276924392,
                0.19439540150993462,
                -2.2457684222816896
            ]
        },
        {
            "positions": [
                -2.1149940509357306,
                -1.0013687072456339,
                0.30899158948938477,
                0.40758160881029726,
                0.1845377832789078,
                -2.1105854788875424
            ]
        },
        {
            "positions": [
                -2.029515347106492,
                -1.0461192211478434,
                0.24047600798113333,
                0.4541844899281552,
                0.174680165047881,
                -1.9754025354933957
            ]
        },
        {
            "positions": [
                -1.944036643277253,
                -1.090869735050053,
                0.1719604264728818,
                0.5007873710460131,
                0.1648225468168542,
                -1.8402195920992488
            ]
        },
        {
            "positions": [
                -1.8585579394480143,
                -1.1356202489522627,
                0.10344484496463024,
                0.5473902521638712,
                0.1549649285858274,
                -1.7050366487051016
            ]
        },
        {
            "positions": [
                -1.7730792356187757,
                -1.180370762854472,
                0.03492926345637892,
                0.5939931332817291,
                0.1451073103548006,
                -1.569853705310955
            ]
        },
        {
            "positions": [
                -1.687600531789537,
                -1.2251212767566817,
                -0.03358631805187262,
                0.640596014399587,
                0.1352496921237738,
                -1.4346707619168078
            ]
        },
        {
            "positions": [
                -1.6021218279602985,
                -1.2698717906588912,
                -0.10210189956012417,
                0.6871988955174451,
                0.12539207389274698,
                -1.2994878185226608
            ]
        },
        {
            "positions": [
                -1.5166431241310598,
                -1.3146223045611007,
                -0.1706174810683756,
                0.7338017766353031,
                0.11553445566172016,
                -1.1643048751285137
            ]
        },
        {
            "positions": [
                -1.4311644203018212,
                -1.3593728184633105,
                -0.23913306257662703,
                0.780404657753161,
                0.10567683743069337,
                -1.0291219317343665
            ]
        },
        {
            "positions": [
                -1.3456857164725826,
                -1.40412333236552,
                -0.30764864408487846,
                0.827007538871019,
                0.09581921919966657,
                -0.8939389883402198
            ]
        },
        {
            "positions": [
                -1.260207012643344,
                -1.4488738462677295,
                -0.3761642255931299,
                0.8736104199888769,
                0.08596160096863978,
                -0.7587560449460731
            ]
        },
        {
            "positions": [
                -1.1747283088141052,
                -1.4936243601699393,
                -0.44467980710138155,
                0.9202133011067349,
                0.07610398273761296,
                -0.6235731015519259
            ]
        },
        {
            "positions": [
                -1.0892496049848668,
                -1.5383748740721486,
                -0.513195388609633,
                0.9668161822245929,
                0.06624636450658616,
                -0.48839015815777875
            ]
        },
        {
            "positions": [
                -1.003770901155628,
                -1.5831253879743583,
                -0.5817109701178846,
                1.0134190633424511,
                0.05638874627555934,
                -0.3532072147636316
            ]
        },
        {
            "positions": [
                -0.9182921973263893,
                -1.6278759018765678,
                -0.6502265516261359,
                1.060021944460309,
                0.04653112804453255,
                -0.21802427136948488
            ]
        },
        {
            "positions": [
                -0.8328134934971507,
                -1.6726264157787774,
                -0.7187421331343873,
                1.106624825578167,
                0.036673509813505756,
                -0.08284132797533816
            ]
        },
        {
            "positions": [
                -0.7473347896679119,
                -1.717376929680987,
                -0.7872577146426389,
                1.153227706696025,
                0.026815891582478935,
                0.05234161541880944
            ]
        },
        {
            "positions": [
                -0.6618560858386733,
                -1.7621274435831966,
                -0.8557732961508904,
                1.1998305878138829,
                0.01695827335145214,
                0.18752455881295615
            ]
        },
        {
            "positions": [
                -0.5763773820094351,
                -1.8068779574854061,
                -0.9242888776591418,
                1.246433468931741,
                0.007100655120425348,
                0.32270750220710287
            ]
        },
        {
            "positions": [
                -0.49089867818019606,
                -1.8516284713876157,
                -0.9928044591673935,
                1.293036350049599,
                -0.0027569631106014736,
                0.45789044560125003
            ]
        },
        {
            "positions": [
                -0.40541997435095745,
                -1.8963789852898252,
                -1.0613200406756447,
                1.3396392311674568,
                -0.01261458134162824,
                0.5930733889953972
            ]
        },
        {
            "positions": [
                -0.31994127052171883,
                -1.941129499192035,
                -1.1298356221838963,
                1.386242112285315,
                -0.022472199572655116,
                0.7282563323895443
            ]
        },
        {
            "positions": [
                -0.23446256669248045,
                -1.9858800130942444,
                -1.1983512036921478,
                1.4328449934031728,
                -0.03232981780368187,
                0.8634392757836911
            ]
        },
        {
            "positions": [
                -0.18439149675669586,
                -1.997448017631687,
                -1.3754554001212558,
                1.444405630130257,
                -0.012394764444580805,
                0.7586680484468415
            ]
        },
        {
            "positions": [
                -0.13432042682091128,
                -2.009016022169129,
                -1.5525595965503638,
                1.4559662668573412,
                0.007540288914520257,
                0.6538968211099919
            ]
        },
        {
            "positions": [
                -0.08424935688512666,
                -2.0205840267065716,
                -1.7296637929794718,
                1.4675269035844254,
                0.02747534227362132,
                0.5491255937731423
            ]
        },
        {
            "positions": [
                -0.03417828694934208,
                -2.032152031244014,
                -1.9067679894085798,
                1.4790875403115096,
                0.04741039563272238,
                0.4443543664362928
            ]
        },
        {
            "positions": [
                -0.03169217672496937,
                -2.070205826307012,
                -2.051106292511836,
                1.4660699215969373,
                0.06788766490980062,
                0.32645877887048924
            ]
        },
        {
            "positions": [
                -0.02920606650059666,
                -2.10825962137001,
                -2.195444595615092,
                1.4530523028823648,
                0.08836493418687888,
                0.20856319130468567
            ]
        },
        {
            "positions": [
                -0.02671995627622395,
                -2.146313416433008,
                -2.339782898718348,
                1.4400346841677925,
                0.10884220346395712,
                0.09066760373888211
            ]
        },
        {
            "positions": [
                -0.15033201315210398,
                -2.2504229630654202,
                -2.3849387096704495,
                1.4513925110618278,
                0.1640563370204034,
                0.05893876933736234
            ]
        },
        {
            "positions": [
                -0.184843735646235,
                -2.2771045075703067,
                -2.3916478675550357,
                1.4557129016947077,
                0.1812543880347405,
                0.06547798179818691
            ]
        }
    ]
}