{
    "goal": {
        "global_pose": {
            "orientation": {
                "w": 0.5084816262002911,
                "x": -0.4908360881923452,
                "y": 0.5182115481033761,
                "z": -0.48164630358495003
            },
            "position": {
                "x": 0.5540239810943604,
                "y": -0.46912469901144505,
                "z": 0.16403168439865112
            }
        },
        "name": "move_to_storage_B"
    },
    "id": "ProjEST_move_to_storage_B_39",
    "joint_names": [
        "shoulder_pan_joint",
        "shoulder_lift_joint",
        "elbow_joint",
        "wrist_1_joint",
        "wrist_2_joint",
        "wrist_3_joint"
    ],
    "metrics": {
        "cart_traj_len": 1.473574647852848,
        "distance_elbow_joint": 0.6107390536462893,
        "distance_shoulder_lift_joint": 0.45984625074800944,
        "distance_shoulder_pan_joint": 1.4666166766972668,
        "distance_wrist_1_joint": 3.0023257026592383,
        "distance_wrist_2_joint": 2.7098579918996015,
        "distance_wrist_3_joint": 3.120412947101975,
        "smoothness": 0.15217081186645015,
        "time": 0.08948476799999999,
        "traj_len": 3.371913199172301,
        "weighted_distance": 4.829369338900802
    },
    "planner": "ProjEST",
    "start": {
        "state": {
            "elbow_joint": 1.664937868594044,
            "shoulder_lift_joint": -0.661644460510453,
            "shoulder_pan_joint": -0.9139846352900073,
            "wrist_1_joint": 2.146753192139373,
            "wrist_2_joint": -2.2341966793290973,
            "wrist_3_joint": 0.005466555786416001
        }
    },
    "waypoints": [
        {
            "positions": [
                -0.9139846352900073,
                -0.661644460510453,
                1.664937868594044,
                2.146753192139373,
                -2.2341966793290973,
                0.005466555786416001
            ]
        },
        {
            "positions": [
                -0.7854373687978894,
                -0.7287028025706646,
                1.6391902733886616,
                2.1201140214052847,
                -2.1264433388785635,
                -0.027209079987572292
            ]
        },
        {
            "positions": [
                -0.6568901023057715,
                -0.795761144630876,
                1.6134426781832796,
                2.093474850671196,
                -2.0186899984280298,
                -0.059884715761560584
            ]
        },
        {
            "positions": [
                -0.5283428358136536,
                -0.8628194866910875,
                1.5876950829778973,
                2.0668356799371077,
                -1.9109366579774962,
                -0.09256035153554888
            ]
        },
        {
            "positions": [
                -0.3997955693215357,
                -0.929877828751299,
                1.5619474877725152,
                2.040196509203019,
                -1.8031833175269627,
                -0.12523598730953717
            ]
        },
        {
            "positions": [
                -0.2712483028294178,
                -0.9969361708115105,
                1.536199892567133,
                2.0135573384689307,
                -1.695429977076429,
                -0.15791162308352547
            ]
        },
        {
            "positions": [
                -0.305576650505946,
                -1.0021259433301335,
                1.5562832708012737,
                1.8940102614277308,
                -1.6049678400078067,
                -0.2811214050931935
            ]
        },
        {
            "positions": [
                -0.33990499818247427,
                -1.0073157158487565,
                1.5763666490354145,
                1.774463184386531,
                -1.5145057029391844,
                -0.40433118710286153
            ]
        },
        {
            "positions": [
                -0.3742333458590025,
                -1.0125054883673794,
                1.5964500272695552,
                1.6549161073453313,
                -1.4240435658705621,
                -0.5275409691125297
            ]
        },
        {
            "positions": [
                -0.40856169353553073,
                -1.0176952608860026,
                1.616533405503696,
                1.5353690303041314,
                -1.33358142880194,
                -0.6507507511221977
            ]
        },
        {
            "positions": [
                -0.44289004121205894,
                -1.0228850334046256,
                1.6366167837378367,
                1.4158219532629315,
                -1.2431192917333178,
                -0.7739605331318657
            ]
        },
        {
            "positions": [
                -0.47721838888858714,
                -1.0280748059232485,
                1.6567001619719774,
                1.2962748762217318,
                -1.1526571546646955,
                -0.8971703151415338
            ]
        },
        {
            "positions": [
                -0.5115467365651154,
                -1.0332645784418715,
                1.6767835402061184,
                1.176727799180532,
                -1.0621950175960733,
                -1.020380097151202
            ]
        },
        {
            "positions": [
                -0.5458750842416435,
                -1.0384543509604944,
                1.6968669184402592,
                1.0571807221393321,
                -0.9717328805274511,
                -1.1435898791608698
            ]
        },
        {
            "positions": [
                -0.5802034319181719,
                -1.0436441234791176,
                1.7169502966744,
                0.9376336450981322,
                -0.8812707434588288,
                -1.266799661170538
            ]
        },
        {
            "positions": [
                -0.6145317795947001,
                -1.0488338959977406,
                1.7370336749085407,
                0.8180865680569325,
                -0.7908086063902066,
                -1.390009443180206
            ]
        },
        {
            "positions": [
                -0.6488601272712282,
                -1.0540236685163635,
                1.7571170531426814,
                0.6985394910157328,
                -0.7003464693215844,
                -1.5132192251898742
            ]
        },
        {
            "positions": [
                -0.6831884749477566,
                -1.0592134410349865,
                1.7772004313768222,
                0.5789924139745328,
                -0.6098843322529621,
                -1.636429007199542
            ]
        },
        {
            "positions": [
                -0.7175168226242847,
                -1.0644032135536095,
                1.797283809610963,
                0.4594453369333331,
                -0.5194221951843401,
                -1.7596387892092102
            ]
        },
        {
            "positions": [
                -0.751845170300813,
                -1.0695929860722324,
                1.8173671878451036,
                0.3398982598921332,
                -0.4289600581157176,
                -1.8828485712188785
            ]
        },
        {
            "positions": [
                -0.7861735179773413,
                -1.0747827585908554,
                1.8374505660792444,
                0.22035118285093347,
                -0.3384979210470953,
                -2.0060583532285463
            ]
        },
        {
            "positions": [
                -0.8205018656538694,
                -1.0799725311094786,
                1.8575339443133851,
                0.10080410580973354,
                -0.24803578397847326,
                -2.129268135238214
            ]
        },
        {
            "positions": [
                -0.8548302133303977,
                -1.0851623036281015,
                1.877617322547526,
                -0.0187429712314664,
                -0.15757364690985076,
                -2.2524779172478824
            ]
        },
        {
            "positions": [
                -0.8891585610069259,
                -1.0903520761467245,
                1.8977007007816669,
                -0.13829004827266633,
                -0.06711150984122871,
                -2.3756876992575506
            ]
        },
        {
            "positions": [
                -0.9234869086834541,
                -1.0955418486653474,
                1.9177840790158074,
                -0.2578371253138658,
                0.02335062722739334,
                -2.4988974812672184
            ]
        },
        {
            "positions": [
                -0.9578152563599823,
                -1.1007316211839704,
                1.9378674572499484,
                -0.37738420235506576,
                0.11381276429601583,
                -2.6221072632768867
            ]
        },
        {
            "positions": [
                -0.9921436040365106,
                -1.1059213937025936,
                1.957950835484089,
                -0.4969312793962657,
                0.20427490136463788,
                -2.7453170452865545
            ]
        },
        {
            "positions": [
                -1.0264719517130387,
                -1.1111111662212165,
                1.9780342137182299,
                -0.6164783564374652,
                0.29473703843326016,
                -2.8685268272962228
            ]
        },
        {
            "positions": [
                -1.060800299389567,
                -1.1163009387398395,
                1.9981175919523706,
                -0.7360254334786651,
                0.38519917550188243,
                -2.991736609305891
            ]
        },
        {
            "positions": [
                -1.0951286470660953,
                -1.1214907112584624,
                2.0182009701865113,
                -0.855572510519865,
                0.47566131257050454,
                -3.114946391315559
            ]
        }
    ]
}