{
    "goal": {
        "global_pose": {
            "orientation": {
                "w": -0.4816463035849501,
                "x": 0.5182115481033762,
                "y": 0.4908360881923453,
                "z": -0.5084816262002911
            },
            "position": {
                "x": -0.8240239810943604,
                "y": 0.19912469901144506,
                "z": 0.16403168439865112
            }
        },
        "name": "move_to_storage_D"
    },
    "id": "ProjEST_move_to_storage_D_81",
    "joint_names": [
        "shoulder_pan_joint",
        "shoulder_lift_joint",
        "elbow_joint",
        "wrist_1_joint",
        "wrist_2_joint",
        "wrist_3_joint"
    ],
    "metrics": {
        "cart_traj_len": 3.5831809828362355,
        "distance_elbow_joint": 4.208499573596047,
        "distance_shoulder_lift_joint": 1.2650263982553505,
        "distance_shoulder_pan_joint": 2.8125469908303384,
        "distance_wrist_1_joint": 2.2645289509797406,
        "distance_wrist_2_joint": 0.8696765140074044,
        "distance_wrist_3_joint": 3.130581928320062,
        "smoothness": 2.2773805659265656e-16,
        "time": 0.074391186,
        "traj_len": 3.814558998886889,
        "weighted_distance": 4.893488497750475
    },
    "planner": "ProjEST",
    "start": {
        "state": {
            "elbow_joint": -2.384821988534728,
            "shoulder_lift_joint": -2.2788054721415256,
            "shoulder_pan_joint": -0.1854694642142757,
            "wrist_1_joint": 1.4845938289331202,
            "wrist_2_joint": 0.17898776772866878,
            "wrist_3_joint": 0.037105688729662994
        }
    },
    "waypoints": [
        {
            "positions": [
                -0.1854694642142757,
                -2.2788054721415256,
                -2.384821988534728,
                1.4845938289331202,
                0.17898776772866878,
                0.037105688729662994
            ]
        },
        {
            "positions": [
                -0.09241353354283816,
                -2.242107632750171,
                -2.2459154341902003,
                1.4264584366444295,
                0.19019322810429193,
                -0.017080197463932162
            ]
        },
        {
            "positions": [
                0.0006423971285993979,
                -2.205409793358817,
                -2.1070088798456728,
                1.368323044355739,
                0.20139868847991504,
                -0.07126608365752732
            ]
        },
        {
            "positions": [
                0.09369832780003698,
                -2.168711953967463,
                -1.9681023255011454,
                1.3101876520670483,
                0.2126041488555382,
                -0.12545196985112247
            ]
        },
        {
            "positions": [
                0.1867542584714745,
                -2.1320141145761085,
                -1.8291957711566178,
                1.2520522597783577,
                0.22380960923116133,
                -0.17963785604471763
            ]
        },
        {
            "positions": [
                0.2798101891429121,
                -2.095316275184754,
                -1.6902892168120902,
                1.193916867489667,
                0.23501506960678448,
                -0.2338237422383128
            ]
        },
        {
            "positions": [
                0.3728661198143497,
                -2.0586184357933996,
                -1.5513826624675628,
                1.1357814752009765,
                0.2462205299824076,
                -0.2880096284319079
            ]
        },
        {
            "positions": [
                0.4659220504857873,
                -2.0219205964020452,
                -1.4124761081230353,
                1.0776460829122858,
                0.2574259903580307,
                -0.3421955146255031
            ]
        },
        {
            "positions": [
                0.5589779811572247,
                -1.985222757010691,
                -1.2735695537785077,
                1.0195106906235951,
                0.26863145073365385,
                -0.39638140081909823
            ]
        },
        {
            "positions": [
                0.6520339118286623,
                -1.9485249176193367,
                -1.13466299943398,
                0.9613752983349045,
                0.279836911109277,
                -0.45056728701269344
            ]
        },
        {
            "positions": [
                0.7450898425000999,
                -1.9118270782279823,
                -0.9957564450894525,
                0.9032399060462138,
                0.29104237148490014,
                -0.5047531732062885
            ]
        },
        {
            "positions": [
                0.8381457731715375,
                -1.875129238836628,
                -0.8568498907449251,
                0.8451045137575233,
                0.3022478318605233,
                -0.5589390593998836
            ]
        },
        {
            "positions": [
                0.9312017038429751,
                -1.8384313994452737,
                -0.7179433364003975,
                0.7869691214688327,
                0.3134532922361464,
                -0.6131249455934789
            ]
        },
        {
            "positions": [
                1.0242576345144125,
                -1.8017335600539193,
                -0.57903678205587,
                0.728833729180142,
                0.3246587526117696,
                -0.667310831787074
            ]
        },
        {
            "positions": [
                1.1173135651858501,
                -1.7650357206625649,
                -0.44013022771134236,
                0.6706983368914513,
                0.33586421298739266,
                -0.7214967179806692
            ]
        },
        {
            "positions": [
                1.2103694958572877,
                -1.7283378812712107,
                -0.30122367336681455,
                0.6125629446027607,
                0.3470696733630158,
                -0.7756826041742644
            ]
        },
        {
            "positions": [
                1.303425426528725,
                -1.6916400418798565,
                -0.1623171190222874,
                0.5544275523140701,
                0.35827513373863895,
                -0.8298684903678595
            ]
        },
        {
            "positions": [
                1.3964813572001626,
                -1.654942202488502,
                -0.023410564677759815,
                0.49629216002537957,
                0.36948059411426204,
                -0.8840543765614546
            ]
        },
        {
            "positions": [
                1.4895372878716002,
                -1.6182443630971477,
                0.11549598966676777,
                0.4381567677366889,
                0.38068605448988524,
                -0.9382402627550498
            ]
        },
        {
            "positions": [
                1.5825932185430378,
                -1.5815465237057933,
                0.25440254401129536,
                0.3800213754479982,
                0.39189151486550833,
                -0.9924261489486448
            ]
        },
        {
            "positions": [
                1.6756491492144754,
                -1.544848684314439,
                0.39330909835582295,
                0.3218859831593075,
                0.4030969752411315,
                -1.04661203514224
            ]
        },
        {
            "positions": [
                1.768705079885913,
                -1.5081508449230847,
                0.5322156527003505,
                0.26375059087061703,
                0.4143024356167546,
                -1.1007979213358352
            ]
        },
        {
            "positions": [
                1.8617610105573505,
                -1.4714530055317305,
                0.6711222070448777,
                0.20561519858192634,
                0.4255078959923777,
                -1.1549838075294303
            ]
        },
        {
            "positions": [
                1.954816941228788,
                -1.4347551661403761,
                0.8100287613894057,
                0.14747980629323565,
                0.4367133563680009,
                -1.2091696937230256
            ]
        },
        {
            "positions": [
                2.0478728719002257,
                -1.3980573267490217,
                0.9489353157339329,
                0.08934441400454518,
                0.447918816743624,
                -1.2633555799166207
            ]
        },
        {
            "positions": [
                2.140928802571663,
                -1.3613594873576675,
                1.0878418700784604,
                0.03120902171585449,
                0.4591242771192471,
                -1.3175414661102158
            ]
        },
        {
            "positions": [
                2.233984733243101,
                -1.3246616479663131,
                1.226748424422988,
                -0.0269263705728362,
                0.4703297374948703,
                -1.371727352303811
            ]
        },
        {
            "positions": [
                2.3270406639145382,
                -1.287963808574959,
                1.3656549787675156,
                -0.08506176286152667,
                0.48153519787049337,
                -1.425913238497406
            ]
        },
        {
            "positions": [
                2.420096594585976,
                -1.2512659691836043,
                1.5045615331120432,
                -0.14319715515021758,
                0.49274065824611657,
                -1.4800991246910014
            ]
        },
        {
            "positions": [
                2.5131525252574134,
                -1.2145681297922502,
                1.6434680874565704,
                -0.20133254743890802,
                0.5039461186217397,
                -1.5342850108845965
            ]
        },
        {
            "positions": [
                2.525810858741708,
                -1.192258234691575,
                1.6634913649682093,
                -0.2656217223953205,
                0.5644703589677768,
                -1.7075284807407967
            ]
        },
        {
            "positions": [
                2.5384691922260023,
                -1.1699483395909,
                1.6835146424798482,
                -0.329910897351733,
                0.6249945993138137,
                -1.8807719505969969
            ]
        },
        {
            "positions": [
                2.5511275257102963,
                -1.1476384444902252,
                1.703537919991487,
                -0.39420007230814547,
                0.6855188396598508,
                -2.0540154204531973
            ]
        },
        {
            "positions": [
                2.563785859194591,
                -1.1253285493895502,
                1.723561197503126,
                -0.458489247264558,
                0.7460430800058879,
                -2.2272588903093977
            ]
        },
        {
            "positions": [
                2.5764441926788852,
                -1.1030186542888751,
                1.7435844750147649,
                -0.5227784222209705,
                0.806567320351925,
                -2.400502360165598
            ]
        },
        {
            "positions": [
                2.5891025261631797,
                -1.0807087591882,
                1.7636077525264038,
                -0.587067597177383,
                0.867091560697962,
                -2.573745830021798
            ]
        },
        {
            "positions": [
                2.6017608596474737,
                -1.058398864087525,
                1.7836310300380427,
                -0.6513567721337955,
                0.927615801043999,
                -2.746989299877998
            ]
        },
        {
            "positions": [
                2.614419193131768,
                -1.0360889689868502,
                1.8036543075496816,
                -0.715645947090208,
                0.9881400413900361,
                -2.9202327697341985
            ]
        },
        {
            "positions": [
                2.6270775266160626,
                -1.0137790738861752,
                1.8236775850613205,
                -0.7799351220466205,
                1.0486642817360732,
                -3.093476239590399
            ]
        }
    ]
}