{
    "goal": {
        "global_pose": {
            "orientation": {
                "w": -0.00223480608172531,
                "x": 0.0024358444001904467,
                "y": 0.7094548369677653,
                "z": -0.704743149386269
            },
            "position": {
                "x": 0.6205249238014221,
                "y": -0.6371506643295288,
                "z": 0.19426114857196808
            }
        },
        "name": "move_to_magneteinheit_B"
    },
    "id": "ProjEST_move_to_magneteinheit_B_78",
    "joint_names": [
        "shoulder_pan_joint",
        "shoulder_lift_joint",
        "elbow_joint",
        "wrist_1_joint",
        "wrist_2_joint",
        "wrist_3_joint"
    ],
    "metrics": {
        "cart_traj_len": 2.018807512261812,
        "distance_elbow_joint": 1.3055309371856243,
        "distance_shoulder_lift_joint": 0.8596200379195005,
        "distance_shoulder_pan_joint": 1.620921421013016,
        "distance_wrist_1_joint": 0.36087561453855654,
        "distance_wrist_2_joint": 1.516298977337298,
        "distance_wrist_3_joint": 0.9634373553551986,
        "smoothness": 0.35199124365763657,
        "time": 0.132852821,
        "traj_len": 2.574234710229274,
        "weighted_distance": 3.2296646336632917
    },
    "planner": "ProjEST",
    "start": {
        "state": {
            "elbow_joint": 2.6216224122426386,
            "shoulder_lift_joint": -1.4174107377796124,
            "shoulder_pan_joint": 0.7066234856936794,
            "wrist_1_joint": 1.9546482284002225,
            "wrist_2_joint": -0.7096286983471962,
            "wrist_3_joint": 0.005740856962016249
        }
    },
    "waypoints": [
        {
            "positions": [
                0.7066234856936794,
                -1.4174107377796124,
                2.6216224122426386,
                1.9546482284002225,
                -0.7096286983471962,
                0.005740856962016249
            ]
        },
        {
            "positions": [
                0.6449676919615621,
                -1.4259905487224447,
                2.5865158201754523,
                1.9570647200720253,
                -0.7273464527214857,
                0.006324289483731267
            ]
        },
        {
            "positions": [
                0.5169611570829622,
                -1.4308083804696297,
                2.464784940276049,
                1.9475942582070938,
                -0.8053450846990031,
                -0.04776953762520703
            ]
        },
        {
            "positions": [
                0.3889546222043622,
                -1.4356262122168146,
                2.3430540603766454,
                1.9381237963421625,
                -0.8833437166765206,
                -0.10186336473414534
            ]
        },
        {
            "positions": [
                0.2609480873257623,
                -1.4404440439639996,
                2.2213231804772415,
                1.928653334477231,
                -0.961342348654038,
                -0.15595719184308365
            ]
        },
        {
            "positions": [
                0.13294155244716233,
                -1.4452618757111846,
                2.099592300577838,
                1.9191828726122997,
                -1.0393409806315554,
                -0.21005101895202194
            ]
        },
        {
            "positions": [
                0.004935017568562405,
                -1.4500797074583693,
                1.9778614206784346,
                1.9097124107473682,
                -1.117339612609073,
                -0.2641448460609603
            ]
        },
        {
            "positions": [
                -0.12307151731003751,
                -1.4548975392055543,
                1.8561305407790312,
                1.900241948882437,
                -1.1953382445865905,
                -0.31823867316989857
            ]
        },
        {
            "positions": [
                -0.25107805218863755,
                -1.4597153709527393,
                1.7343996608796275,
                1.8907714870175054,
                -1.273336876564108,
                -0.37233250027883685
            ]
        },
        {
            "positions": [
                -0.37908458706723747,
                -1.4645332026999243,
                1.6126687809802238,
                1.8813010251525741,
                -1.3513355085416254,
                -0.42642632738777514
            ]
        },
        {
            "positions": [
                -0.5070911219458374,
                -1.4693510344471092,
                1.4909379010808204,
                1.8718305632876426,
                -1.4293341405191429,
                -0.4805201544967135
            ]
        },
        {
            "positions": [
                -0.5465459019207707,
                -1.3546118135453917,
                1.504016662733466,
                1.9026621637538708,
                -1.5476995005570482,
                -0.43737575844541826
            ]
        },
        {
            "positions": [
                -0.5860006818957039,
                -1.2398725926436742,
                1.5170954243861112,
                1.933493764220099,
                -1.6660648605949533,
                -0.3942313623941231
            ]
        },
        {
            "positions": [
                -0.6254554618706372,
                -1.1251333717419565,
                1.5301741860387565,
                1.9643253646863275,
                -1.7844302206328586,
                -0.3510869663428279
            ]
        },
        {
            "positions": [
                -0.6649102418455703,
                -1.010394150840239,
                1.543252947691402,
                1.9951569651525556,
                -1.9027955806707637,
                -0.3079425702915327
            ]
        },
        {
            "positions": [
                -0.7043650218205038,
                -0.8956549299385214,
                1.5563317093440476,
                2.0259885656187837,
                -2.0211609407086693,
                -0.26479817424023744
            ]
        },
        {
            "positions": [
                -0.7438198017954369,
                -0.7809157090368039,
                1.569410470996693,
                2.056820166085012,
                -2.1395263007465743,
                -0.22165377818894227
            ]
        },
        {
            "positions": [
                -0.8290588685573869,
                -0.7212935011159547,
                1.6175973990506596,
                2.100937847727513,
                -2.182726988215534,
                -0.11308222691630845
            ]
        },
        {
            "positions": [
                -0.9142979353193368,
                -0.6616712931951056,
                1.6657843271046264,
                2.1450555293700138,
                -2.225927675684494,
                -0.004510675643674626
            ]
        }
    ]
}