{
    "goal": {
        "global_pose": {
            "orientation": {
                "w": 0.005598929693374612,
                "x": 0.007748599140229565,
                "y": 0.7110244013736278,
                "z": -0.7031023480610252
            },
            "position": {
                "x": -0.8858502320852131,
                "y": -0.7141253447532654,
                "z": 0.3711530566215515
            }
        },
        "name": "move_to_auspresseinheit_C"
    },
    "id": "ProjEST_move_to_auspresseinheit_C_41",
    "joint_names": [
        "shoulder_pan_joint",
        "shoulder_lift_joint",
        "elbow_joint",
        "wrist_1_joint",
        "wrist_2_joint",
        "wrist_3_joint"
    ],
    "metrics": {
        "cart_traj_len": 0.49393276790412527,
        "distance_elbow_joint": 1.0083062090004322,
        "distance_shoulder_lift_joint": 0.3291844026685232,
        "distance_shoulder_pan_joint": 0.2560307921607028,
        "distance_wrist_1_joint": 0.6857904296762529,
        "distance_wrist_2_joint": 1.317152294209496,
        "distance_wrist_3_joint": 0.05737672812744554,
        "smoothness": 9.689219124001365e-16,
        "time": 1.7077766849999998,
        "traj_len": 1.911502251069261,
        "weighted_distance": 2.402402346815265
    },
    "planner": "ProjEST",
    "start": {
        "state": {
            "elbow_joint": 1.7527959577737207,
            "shoulder_lift_joint": -0.9740617694225068,
            "shoulder_pan_joint": -2.967991417825858,
            "wrist_1_joint": -0.759517768980727,
            "wrist_2_joint": 1.7443932448377408,
            "wrist_3_joint": -3.0840537646736568
        }
    },
    "waypoints": [
        {
            "positions": [
                -2.967991417825858,
                -0.9740617694225068,
                1.7527959577737207,
                -0.759517768980727,
                1.7443932448377408,
                -3.0840537646736568
            ]
        },
        {
            "positions": [
                -2.9423883386097875,
                -0.9411433291556545,
                1.6519653368736775,
                -0.6909387260131017,
                1.6126780154167912,
                -3.0897914374864013
            ]
        },
        {
            "positions": [
                -2.9167852593937176,
                -0.9082248888888022,
                1.5511347159736342,
                -0.6223596830454764,
                1.4809627859958416,
                -3.095529110299146
            ]
        },
        {
            "positions": [
                -2.891182180177647,
                -0.8753064486219498,
                1.450304095073591,
                -0.5537806400778511,
                1.349247556574892,
                -3.1012667831118903
            ]
        },
        {
            "positions": [
                -2.8655791009615768,
                -0.8423880083550974,
                1.3494734741735477,
                -0.4852015971102258,
                1.2175323271539424,
                -3.107004455924635
            ]
        },
        {
            "positions": [
                -2.839976021745507,
                -0.8094695680882451,
                1.2486428532735045,
                -0.4166225541426005,
                1.0858170977329928,
                -3.1127421287373798
            ]
        },
        {
            "positions": [
                -2.8143729425294364,
                -0.7765511278213928,
                1.1478122323734614,
                -0.34804351117497523,
                0.9541018683120432,
                -3.1184798015501243
            ]
        },
        {
            "positions": [
                -2.788769863313366,
                -0.7436326875545405,
                1.0469816114734183,
                -0.27946446820735,
                0.8223866388910938,
                -3.124217474362869
            ]
        },
        {
            "positions": [
                -2.7631667840972955,
                -0.7107142472876882,
                0.9461509905733748,
                -0.21088542523972464,
                0.690671409470144,
                -3.1299551471756133
            ]
        },
        {
            "positions": [
                -2.7375637048812256,
                -0.6777958070208359,
                0.8453203696733317,
                -0.14230638227209935,
                0.5589561800491945,
                -3.135692819988358
            ]
        },
        {
            "positions": [
                -2.711960625665155,
                -0.6448773667539835,
                0.7444897487732883,
                -0.07372733930447412,
                0.42724095062824496,
                -3.1414304928011023
            ]
        }
    ]
}