{
    "goal": {
        "global_pose": {
            "orientation": {
                "w": 0.7047431493862688,
                "x": -0.7094548369677653,
                "y": 0.0024358444001904,
                "z": -0.0022348060817251984
            },
            "position": {
                "x": -0.39052492380142206,
                "y": 0.3671506643295288,
                "z": 0.19426114857196808
            }
        },
        "name": "move_to_magneteinheit_D"
    },
    "id": "ProjEST_move_to_magneteinheit_D_56",
    "joint_names": [
        "shoulder_pan_joint",
        "shoulder_lift_joint",
        "elbow_joint",
        "wrist_1_joint",
        "wrist_2_joint",
        "wrist_3_joint"
    ],
    "metrics": {
        "cart_traj_len": 4.143358087502113,
        "distance_elbow_joint": 4.008301487366315,
        "distance_shoulder_lift_joint": 1.6309114049458253,
        "distance_shoulder_pan_joint": 3.0379856846912507,
        "distance_wrist_1_joint": 1.5538827672068987,
        "distance_wrist_2_joint": 1.2097453126002198,
        "distance_wrist_3_joint": 3.190064249199707,
        "smoothness": 0.27987142255964637,
        "time": 0.775530503,
        "traj_len": 3.8250347587976523,
        "weighted_distance": 4.87592529518416
    },
    "planner": "ProjEST",
    "start": {
        "state": {
            "elbow_joint": 0.749534889911806,
            "shoulder_lift_joint": -0.6476975780787326,
            "shoulder_pan_joint": -2.711696901376241,
            "wrist_1_joint": -0.07506478083263063,
            "wrist_2_joint": 0.43296659715538205,
            "wrist_3_joint": -3.14703540197715
        }
    },
    "waypoints": [
        {
            "positions": [
                -2.711696901376241,
                -0.6476975780787326,
                0.749534889911806,
                -0.07506478083263063,
                0.43296659715538205,
                -3.14703540197715
            ]
        },
        {
            "positions": [
                -2.7158070187223378,
                -0.6950411306092713,
                0.784143335582717,
                -0.04242125246248705,
                0.4510438295864484,
                -3.0352733955875832
            ]
        },
        {
            "positions": [
                -2.7199171360684344,
                -0.74238468313981,
                0.818751781253628,
                -0.009777724092343468,
                0.4691210620175147,
                -2.923511389198016
            ]
        },
        {
            "positions": [
                -2.7183713721967266,
                -0.8220483575122904,
                0.8647053512942738,
                0.04270436617698718,
                0.48091760345273615,
                -2.759105894679261
            ]
        },
        {
            "positions": [
                -2.7168256083250184,
                -0.9017120318847709,
                0.9106589213349197,
                0.09518645644631783,
                0.4927141448879576,
                -2.594700400160505
            ]
        },
        {
            "positions": [
                -2.7152798444533106,
                -0.9813757062572515,
                0.9566124913755656,
                0.1476685467156485,
                0.5045106863231791,
                -2.43029490564175
            ]
        },
        {
            "positions": [
                -2.7137340805816024,
                -1.0610393806297318,
                1.0025660614162115,
                0.20015063698497915,
                0.5163072277584004,
                -2.265889411122995
            ]
        },
        {
            "positions": [
                -2.7121883167098946,
                -1.1407030550022124,
                1.0485196314568572,
                0.2526327272543098,
                0.5281037691936219,
                -2.1014839166042396
            ]
        },
        {
            "positions": [
                -2.710642552838187,
                -1.220366729374693,
                1.0944732014975032,
                0.30511481752364045,
                0.5399003106288434,
                -1.9370784220854842
            ]
        },
        {
            "positions": [
                -2.7090967889664785,
                -1.3000304037471735,
                1.140426771538149,
                0.3575969077929711,
                0.5516968520640648,
                -1.7726729275667288
            ]
        },
        {
            "positions": [
                -2.7075510250947707,
                -1.3796940781196538,
                1.1863803415787948,
                0.41007899806230175,
                0.5634933934992863,
                -1.6082674330479736
            ]
        },
        {
            "positions": [
                -2.5952615495546087,
                -1.4110466329120974,
                1.0799732794986263,
                0.4546132338930253,
                0.5314097407364959,
                -1.555805905507376
            ]
        },
        {
            "positions": [
                -2.482972074014447,
                -1.4423991877045412,
                0.9735662174184577,
                0.4991474697237489,
                0.4993260879737055,
                -1.5033443779667788
            ]
        },
        {
            "positions": [
                -2.370682598474285,
                -1.4737517424969848,
                0.8671591553382892,
                0.5436817055544725,
                0.46724243521091513,
                -1.4508828504261813
            ]
        },
        {
            "positions": [
                -2.2583931229341236,
                -1.5051042972894286,
                0.7607520932581207,
                0.588215941385196,
                0.43515878244812467,
                -1.3984213228855837
            ]
        },
        {
            "positions": [
                -2.1461036473939616,
                -1.5364568520818722,
                0.6543450311779522,
                0.6327501772159195,
                0.4030751296853343,
                -1.3459597953449862
            ]
        },
        {
            "positions": [
                -2.0338141718538,
                -1.567809406874316,
                0.5479379690977837,
                0.6772844130466431,
                0.3709914769225439,
                -1.293498267804389
            ]
        },
        {
            "positions": [
                -1.921524696313638,
                -1.5991619616667596,
                0.4415309070176151,
                0.7218186488773668,
                0.3389078241597535,
                -1.2410367402637914
            ]
        },
        {
            "positions": [
                -1.8092352207734763,
                -1.6305145164592034,
                0.3351238449374466,
                0.7663528847080903,
                0.3068241713969631,
                -1.1885752127231939
            ]
        },
        {
            "positions": [
                -1.6969457452333145,
                -1.661867071251647,
                0.22871678285727803,
                0.8108871205388138,
                0.2747405186341727,
                -1.1361136851825964
            ]
        },
        {
            "positions": [
                -1.5846562696931528,
                -1.6932196260440908,
                0.12230972077710955,
                0.8554213563695374,
                0.2426568658713823,
                -1.0836521576419988
            ]
        },
        {
            "positions": [
                -1.4723667941529908,
                -1.7245721808365344,
                0.015902658696941074,
                0.8999555922002609,
                0.2105732131085919,
                -1.0311906301014016
            ]
        },
        {
            "positions": [
                -1.3600773186128292,
                -1.7559247356289782,
                -0.0905044033832274,
                0.9444898280309845,
                0.17848956034580155,
                -0.978729102560804
            ]
        },
        {
            "positions": [
                -1.2477878430726674,
                -1.7872772904214218,
                -0.19691146546339588,
                0.989024063861708,
                0.14640590758301114,
                -0.9262675750202066
            ]
        },
        {
            "positions": [
                -1.1354983675325054,
                -1.8186298452138656,
                -0.3033185275435646,
                1.0335582996924317,
                0.11432225482022068,
                -0.8738060474796091
            ]
        },
        {
            "positions": [
                -1.0232088919923437,
                -1.8499824000063092,
                -0.40972558962373307,
                1.0780925355231552,
                0.08223860205743033,
                -0.8213445199390117
            ]
        },
        {
            "positions": [
                -0.9109194164521819,
                -1.8813349547987528,
                -0.5161326517039015,
                1.122626771353879,
                0.05015494929463993,
                -0.7688829923984143
            ]
        },
        {
            "positions": [
                -0.7986299409120201,
                -1.9126875095911966,
                -0.6225397137840698,
                1.1671610071846024,
                0.01807129653184958,
                -0.7164214648578168
            ]
        },
        {
            "positions": [
                -0.6863404653718583,
                -1.9440400643836404,
                -0.7289467758642387,
                1.2116952430153258,
                -0.014012356230940881,
                -0.6639599373172193
            ]
        },
        {
            "positions": [
                -0.5740509898316963,
                -1.975392619176084,
                -0.8353538379444072,
                1.2562294788460495,
                -0.04609600899373123,
                -0.6114984097766218
            ]
        },
        {
            "positions": [
                -0.4617615142915348,
                -2.0067451739685276,
                -0.9417609000245757,
                1.300763714676773,
                -0.07817966175652169,
                -0.5590368822360243
            ]
        },
        {
            "positions": [
                -0.3494720387513728,
                -2.038097728760971,
                -1.0481679621047442,
                1.3452979505074967,
                -0.11026331451931204,
                -0.506575354695427
            ]
        },
        {
            "positions": [
                -0.23718256321121078,
                -2.069450283553415,
                -1.1545750241849126,
                1.3898321863382201,
                -0.1423469672821025,
                -0.4541138271548295
            ]
        },
        {
            "positions": [
                -0.1248930876710492,
                -2.100802838345859,
                -1.260982086265081,
                1.4343664221689436,
                -0.17443062004489282,
                -0.40165229961423204
            ]
        },
        {
            "positions": [
                -0.08722452120017771,
                -2.1194125114661575,
                -1.4202927835714323,
                1.4431250808047997,
                -0.12035865213837871,
                -0.3153358130792227
            ]
        },
        {
            "positions": [
                -0.049555954729306226,
                -2.138022184586456,
                -1.579603480877784,
                1.4518837394406556,
                -0.06628668423186458,
                -0.2290193265442134
            ]
        },
        {
            "positions": [
                -0.011887388258434758,
                -2.1566318577067545,
                -1.7389141781841353,
                1.4606423980765117,
                -0.012214716325350483,
                -0.14270284000920408
            ]
        },
        {
            "positions": [
                0.02578117821243675,
                -2.175241530827053,
                -1.8982248754904867,
                1.4694010567123676,
                0.04185725158116366,
                -0.05638635347419474
            ]
        },
        {
            "positions": [
                0.06344974468330822,
                -2.193851203947352,
                -2.057535572796838,
                1.4781597153482238,
                0.09592921948767778,
                0.029930133060814566
            ]
        },
        {
            "positions": [
                -0.05974953994034876,
                -2.236230093485955,
                -2.2213056334586847,
                1.478488850861246,
                0.1313965510774607,
                0.03647949014168593
            ]
        },
        {
            "positions": [
                -0.18294882456400574,
                -2.278608983024558,
                -2.3850756941205318,
                1.4788179863742683,
                0.1668638826672436,
                0.0430288472225573
            ]
        }
    ]
}