{
    "goal": {
        "global_pose": {
            "orientation": {
                "w": 0.5084816262002911,
                "x": -0.4908360881923452,
                "y": 0.5182115481033761,
                "z": -0.48164630358495003
            },
            "position": {
                "x": 0.5540239810943604,
                "y": -0.46912469901144505,
                "z": 0.16403168439865112
            }
        },
        "name": "move_to_storage_B"
    },
    "id": "ProjEST_move_to_storage_B_101",
    "joint_names": [
        "shoulder_pan_joint",
        "shoulder_lift_joint",
        "elbow_joint",
        "wrist_1_joint",
        "wrist_2_joint",
        "wrist_3_joint"
    ],
    "metrics": {
        "cart_traj_len": 0.7623631229662835,
        "distance_elbow_joint": 0.37627553699355687,
        "distance_shoulder_lift_joint": 0.4618361326256606,
        "distance_shoulder_pan_joint": 0.4159562964792817,
        "distance_wrist_1_joint": 2.989452258911836,
        "distance_wrist_2_joint": 2.7193246036412604,
        "distance_wrist_3_joint": 3.130775476242499,
        "smoothness": 0.06781319285140783,
        "time": 0.10476396800000001,
        "traj_len": 3.1770458455763735,
        "weighted_distance": 4.697227705778397
    },
    "planner": "ProjEST",
    "start": {
        "state": {
            "elbow_joint": 1.664937868594044,
            "shoulder_lift_joint": -0.661644460510453,
            "shoulder_pan_joint": -0.9139846352900073,
            "wrist_1_joint": 2.146753192139373,
            "wrist_2_joint": -2.2341966793290973,
            "wrist_3_joint": 0.005466555786416001
        }
    },
    "waypoints": [
        {
            "positions": [
                -0.9139846352900073,
                -0.661644460510453,
                1.664937868594044,
                2.146753192139373,
                -2.2341966793290973,
                0.005466555786416001
            ]
        },
        {
            "positions": [
                -0.8551521786770993,
                -0.73496183134254,
                1.6590410970669605,
                2.1315515802290435,
                -2.1523747654263183,
                -0.011021977813696154
            ]
        },
        {
            "positions": [
                -0.7963197220641913,
                -0.808279202174627,
                1.6531443255398768,
                2.1163499683187137,
                -2.0705528515235394,
                -0.02751051141380831
            ]
        },
        {
            "positions": [
                -0.80825137739433,
                -0.8208872578130865,
                1.6677236052974524,
                1.9979880069150666,
                -1.9683256204901114,
                -0.1514224477754993
            ]
        },
        {
            "positions": [
                -0.8201830327244686,
                -0.8334953134515459,
                1.682302885055028,
                1.8796260455114195,
                -1.8660983894566832,
                -0.2753343841371903
            ]
        },
        {
            "positions": [
                -0.8321146880546072,
                -0.8461033690900054,
                1.6968821648126036,
                1.7612640841077725,
                -1.763871158423255,
                -0.3992463204988813
            ]
        },
        {
            "positions": [
                -0.8440463433847458,
                -0.8587114247284648,
                1.7114614445701792,
                1.6429021227041254,
                -1.661643927389827,
                -0.5231582568605723
            ]
        },
        {
            "positions": [
                -0.8559779987148844,
                -0.8713194803669243,
                1.7260407243277547,
                1.5245401613004783,
                -1.559416696356399,
                -0.6470701932222633
            ]
        },
        {
            "positions": [
                -0.8679096540450231,
                -0.8839275360053838,
                1.7406200040853304,
                1.4061781998968312,
                -1.4571894653229707,
                -0.7709821295839543
            ]
        },
        {
            "positions": [
                -0.8798413093751617,
                -0.8965355916438432,
                1.7551992838429058,
                1.2878162384931842,
                -1.3549622342895424,
                -0.8948940659456454
            ]
        },
        {
            "positions": [
                -0.8917729647053003,
                -0.9091436472823027,
                1.7697785636004815,
                1.169454277089537,
                -1.2527350032561144,
                -1.0188060023073362
            ]
        },
        {
            "positions": [
                -0.9037046200354389,
                -0.9217517029207621,
                1.7843578433580571,
                1.0510923156858902,
                -1.1505077722226864,
                -1.1427179386690272
            ]
        },
        {
            "positions": [
                -0.9156362753655776,
                -0.9343597585592216,
                1.7989371231156326,
                0.9327303542822432,
                -1.0482805411892582,
                -1.2666298750307183
            ]
        },
        {
            "positions": [
                -0.9275679306957163,
                -0.9469678141976812,
                1.8135164028732083,
                0.8143683928785961,
                -0.9460533101558302,
                -1.3905418113924093
            ]
        },
        {
            "positions": [
                -0.9394995860258548,
                -0.9595758698361405,
                1.828095682630784,
                0.696006431474949,
                -0.8438260791224019,
                -1.5144537477541002
            ]
        },
        {
            "positions": [
                -0.9514312413559936,
                -0.9721839254746001,
                1.8426749623883594,
                0.5776444700713019,
                -0.7415988480889739,
                -1.6383656841157912
            ]
        },
        {
            "positions": [
                -0.9633628966861322,
                -0.9847919811130595,
                1.857254242145935,
                0.45928250866765463,
                -0.6393716170555457,
                -1.7622776204774824
            ]
        },
        {
            "positions": [
                -0.9752945520162708,
                -0.997400036751519,
                1.8718335219035107,
                0.3409205472640078,
                -0.5371443860221177,
                -1.886189556839173
            ]
        },
        {
            "positions": [
                -0.9872262073464094,
                -1.0100080923899784,
                1.8864128016610862,
                0.2225585858603607,
                -0.43491715498868944,
                -2.0101014932008643
            ]
        },
        {
            "positions": [
                -0.999157862676548,
                -1.022616148028438,
                1.9009920814186618,
                0.1041966244567134,
                -0.3326899239552612,
                -2.1340134295625552
            ]
        },
        {
            "positions": [
                -1.0110895180066866,
                -1.0352242036668973,
                1.9155713611762373,
                -0.014165336946933227,
                -0.2304626929218334,
                -2.2579253659242458
            ]
        },
        {
            "positions": [
                -1.0230211733368253,
                -1.0478322593053568,
                1.930150640933813,
                -0.1325272983505803,
                -0.12823546188840518,
                -2.381837302285937
            ]
        },
        {
            "positions": [
                -1.034952828666964,
                -1.0604403149438162,
                1.9447299206913886,
                -0.2508892597542274,
                -0.026008230854976944,
                -2.505749238647628
            ]
        },
        {
            "positions": [
                -1.0468844839971025,
                -1.0730483705822758,
                1.9593092004489643,
                -0.36925122115787445,
                0.07621900017845107,
                -2.6296611750093186
            ]
        },
        {
            "positions": [
                -1.058816139327241,
                -1.0856564262207353,
                1.9738884802065397,
                -0.48761318256152153,
                0.17844623121187908,
                -2.75357311137101
            ]
        },
        {
            "positions": [
                -1.0707477946573798,
                -1.0982644818591947,
                1.9884677599641154,
                -0.6059751439651686,
                0.28067346224530754,
                -2.877485047732701
            ]
        },
        {
            "positions": [
                -1.0826794499875185,
                -1.110872537497654,
                2.003047039721691,
                -0.7243371053688157,
                0.38290069327873555,
                -3.001396984094392
            ]
        },
        {
            "positions": [
                -1.094611105317657,
                -1.1234805931361136,
                2.0176263194792665,
                -0.8426990667724626,
                0.48512792431216367,
                -3.125308920456083
            ]
        }
    ]
}