{
    "goal": {
        "global_pose": {
            "orientation": {
                "w": 0.7047431468963623,
                "x": -0.7094548344612122,
                "y": 0.0024358443915843964,
                "z": -0.0022348060738295317
            },
            "position": {
                "x": 0.6094750761985779,
                "y": 0.3671506643295288,
                "z": 0.19426114857196808
            }
        },
        "name": "move_to_magneteinheit_A"
    },
    "id": "ProjEST_move_to_magneteinheit_A_66",
    "joint_names": [
        "shoulder_pan_joint",
        "shoulder_lift_joint",
        "elbow_joint",
        "wrist_1_joint",
        "wrist_2_joint",
        "wrist_3_joint"
    ],
    "metrics": {
        "cart_traj_len": 3.578190929317008,
        "distance_elbow_joint": 3.9316858332923283,
        "distance_shoulder_lift_joint": 0.4600919852047828,
        "distance_shoulder_pan_joint": 3.8105959988549327,
        "distance_wrist_1_joint": 3.5414095292466126,
        "distance_wrist_2_joint": 1.4486870865401462,
        "distance_wrist_3_joint": 0.734085290964104,
        "smoothness": 0.2959395540650972,
        "time": 0.102157997,
        "traj_len": 3.7318300770671353,
        "weighted_distance": 4.514955472849968
    },
    "planner": "ProjEST",
    "start": {
        "state": {
            "elbow_joint": -1.9196185241190666,
            "shoulder_lift_joint": -1.2443396400964142,
            "shoulder_pan_joint": 2.6996025414629847,
            "wrist_1_joint": -1.5485510000780065,
            "wrist_2_joint": -1.5709468930060704,
            "wrist_3_joint": 0.4420197071253992
        }
    },
    "waypoints": [
        {
            "positions": [
                2.6996025414629847,
                -1.2443396400964142,
                -1.9196185241190666,
                -1.5485510000780065,
                -1.5709468930060704,
                0.4420197071253992
            ]
        },
        {
            "positions": [
                2.593155944090094,
                -1.2390710597268315,
                -1.8017394008041805,
                -1.4545443270271154,
                -1.522663149512044,
                0.4211375829756991
            ]
        },
        {
            "positions": [
                2.486709346717203,
                -1.2338024793572488,
                -1.6838602774892946,
                -1.3605376539762246,
                -1.4743794060180175,
                0.400255458825999
            ]
        },
        {
            "positions": [
                2.380262749344312,
                -1.228533898987666,
                -1.5659811541744084,
                -1.2665309809253336,
                -1.4260956625239911,
                0.3793733346762989
            ]
        },
        {
            "positions": [
                2.2738161519714213,
                -1.2232653186180833,
                -1.4481020308595223,
                -1.1725243078744425,
                -1.3778119190299647,
                0.3584912105265988
            ]
        },
        {
            "positions": [
                2.1673695545985305,
                -1.2179967382485006,
                -1.3302229075446363,
                -1.0785176348235517,
                -1.3295281755359383,
                0.33760908637689874
            ]
        },
        {
            "positions": [
                2.0609229572256393,
                -1.212728157878918,
                -1.2123437842297502,
                -0.9845109617726605,
                -1.2812444320419119,
                0.31672696222719865
            ]
        },
        {
            "positions": [
                1.9544763598527486,
                -1.2074595775093353,
                -1.094464660914864,
                -0.8905042887217696,
                -1.2329606885478854,
                0.2958448380774985
            ]
        },
        {
            "positions": [
                1.8480297624798574,
                -1.2021909971397524,
                -0.976585537599978,
                -0.7964976156708785,
                -1.184676945053859,
                0.2749627139277985
            ]
        },
        {
            "positions": [
                1.7415831651069666,
                -1.1969224167701698,
                -0.858706414285092,
                -0.7024909426199876,
                -1.1363932015598326,
                0.25408058977809833
            ]
        },
        {
            "positions": [
                1.635136567734076,
                -1.191653836400587,
                -0.740827290970206,
                -0.6084842695690966,
                -1.0881094580658062,
                0.23319846562839827
            ]
        },
        {
            "positions": [
                1.528689970361185,
                -1.1863852560310044,
                -0.6229481676553199,
                -0.5144775965182056,
                -1.0398257145717797,
                0.21231634147869818
            ]
        },
        {
            "positions": [
                1.422243372988294,
                -1.1811166756614218,
                -0.5050690443404338,
                -0.4204709234673145,
                -0.9915419710777533,
                0.19143421732899807
            ]
        },
        {
            "positions": [
                1.315796775615403,
                -1.1758480952918389,
                -0.3871899210255476,
                -0.32646425041642346,
                -0.9432582275837269,
                0.17055209317929798
            ]
        },
        {
            "positions": [
                1.2093501782425122,
                -1.1705795149222562,
                -0.2693107977106617,
                -0.23245757736553263,
                -0.8949744840897005,
                0.1496699690295979
            ]
        },
        {
            "positions": [
                1.1029035808696213,
                -1.1653109345526735,
                -0.15143167439577554,
                -0.13845090431464158,
                -0.8466907405956741,
                0.1287878448798978
            ]
        },
        {
            "positions": [
                0.9964569834967303,
                -1.1600423541830909,
                -0.03355255108088939,
                -0.04444423126375052,
                -0.7984069971016476,
                0.10790572073019772
            ]
        },
        {
            "positions": [
                0.8900103861238395,
                -1.1547737738135082,
                0.08432657223399653,
                0.04956244178714031,
                -0.7501232536076212,
                0.08702359658049763
            ]
        },
        {
            "positions": [
                0.7835637887509486,
                -1.1495051934439253,
                0.20220569554888268,
                0.14356911483803136,
                -0.7018395101135948,
                0.06614147243079754
            ]
        },
        {
            "positions": [
                0.6771171913780578,
                -1.1442366130743427,
                0.3200848188637688,
                0.23757578788892242,
                -0.6535557666195684,
                0.045259348281097456
            ]
        },
        {
            "positions": [
                0.5706705940051671,
                -1.13896803270476,
                0.43796394217865453,
                0.33158246093981325,
                -0.605272023125542,
                0.024377224131397368
            ]
        },
        {
            "positions": [
                0.46422399663227587,
                -1.1336994523351773,
                0.5558430654935407,
                0.4255891339907043,
                -0.5569882796315155,
                0.0034950999816972805
            ]
        },
        {
            "positions": [
                0.3577773992593851,
                -1.1284308719655947,
                0.6737221888084268,
                0.5195958070415954,
                -0.5087045361374891,
                -0.017387024168002807
            ]
        },
        {
            "positions": [
                0.2513308018864939,
                -1.1231622915960118,
                0.7916013121233134,
                0.6136024800924866,
                -0.4604207926434627,
                -0.03826914831770295
            ]
        },
        {
            "positions": [
                0.14488420451360318,
                -1.117893711226429,
                0.9094804354381991,
                0.7076091531433775,
                -0.4121370491494363,
                -0.05915127246740304
            ]
        },
        {
            "positions": [
                0.03843760714071198,
                -1.1126251308568464,
                1.0273595587530853,
                0.8016158261942683,
                -0.36385330565540985,
                -0.08003339661710318
            ]
        },
        {
            "positions": [
                -0.06800899023217877,
                -1.1073565504872638,
                1.1452386820679714,
                0.8956224992451596,
                -0.31556956216138343,
                -0.10091552076680321
            ]
        },
        {
            "positions": [
                -0.17445558760506952,
                -1.1020879701176811,
                1.2631178053828576,
                0.9896291722960504,
                -0.267285818667357,
                -0.12179764491650336
            ]
        },
        {
            "positions": [
                -0.28090218497796027,
                -1.0968193897480982,
                1.3809969286977433,
                1.0836358453469412,
                -0.2190020751733306,
                -0.1426797690662034
            ]
        },
        {
            "positions": [
                -0.38734878235085146,
                -1.0915508093785156,
                1.4988760520126294,
                1.1776425183978325,
                -0.17071833167930417,
                -0.16356189321590353
            ]
        },
        {
            "positions": [
                -0.4937953797237422,
                -1.086282229008933,
                1.6167551753275156,
                1.2716491914487233,
                -0.12243458818527768,
                -0.18444401736560362
            ]
        },
        {
            "positions": [
                -0.39092903344570806,
                -1.035943133322716,
                1.6826405309684733,
                1.3918507477353705,
                -0.12246371847183656,
                -0.16650708962008676
            ]
        },
        {
            "positions": [
                -0.2880626871676739,
                -0.9856040376364991,
                1.7485258866094309,
                1.5120523040220175,
                -0.12249284875839543,
                -0.14857016187456987
            ]
        },
        {
            "positions": [
                -0.1851963408896397,
                -0.9352649419502821,
                1.8144112422503886,
                1.6322538603086647,
                -0.12252197904495432,
                -0.13063323412905298
            ]
        },
        {
            "positions": [
                -0.08232999461160556,
                -0.8849258462640652,
                1.8802965978913462,
                1.752455416595312,
                -0.1225511093315132,
                -0.11269630638353612
            ]
        },
        {
            "positions": [
                0.020536351666428643,
                -0.8345867505778484,
                1.946181953532304,
                1.872656972881959,
                -0.12258023961807207,
                -0.09475937863801924
            ]
        },
        {
            "positions": [
                0.12340269794446278,
                -0.7842476548916314,
                2.0120673091732617,
                1.992858529168606,
                -0.12260936990463095,
                -0.07682245089250236
            ]
        }
    ]
}