{
    "goal": {
        "global_pose": {
            "orientation": {
                "w": -0.4816463035849501,
                "x": 0.5182115481033762,
                "y": 0.4908360881923453,
                "z": -0.5084816262002911
            },
            "position": {
                "x": -0.8240239810943604,
                "y": -0.300875300988555,
                "z": 0.16403168439865112
            }
        },
        "name": "move_to_storage_C"
    },
    "id": "ProjEST_move_to_storage_C_39",
    "joint_names": [
        "shoulder_pan_joint",
        "shoulder_lift_joint",
        "elbow_joint",
        "wrist_1_joint",
        "wrist_2_joint",
        "wrist_3_joint"
    ],
    "metrics": {
        "cart_traj_len": 0.5769430370553909,
        "distance_elbow_joint": 0.25985042446908424,
        "distance_shoulder_lift_joint": 0.18864513225098745,
        "distance_shoulder_pan_joint": 0.4952469068273424,
        "distance_wrist_1_joint": 0.08631567981257504,
        "distance_wrist_2_joint": 1.0667933369764424,
        "distance_wrist_3_joint": 0.07437566644788918,
        "smoothness": 7.612957943425664e-16,
        "time": 0.16336279799999998,
        "traj_len": 1.4735084481550558,
        "weighted_distance": 1.8636221442312595
    },
    "planner": "ProjEST",
    "start": {
        "state": {
            "elbow_joint": 2.010868314990456,
            "shoulder_lift_joint": -1.1634956873337592,
            "shoulder_pan_joint": -2.4736205022346125,
            "wrist_1_joint": -0.8367026794202681,
            "wrist_2_joint": 0.6746043897044499,
            "wrist_3_joint": -3.1496632123970403
        }
    },
    "waypoints": [
        {
            "positions": [
                -2.4736205022346125,
                -1.1634956873337592,
                2.010868314990456,
                -0.8367026794202681,
                0.6746043897044499,
                -3.1496632123970403
            ]
        },
        {
            "positions": [
                -2.556161653372503,
                -1.1320548319585946,
                1.967559910912275,
                -0.822316732784839,
                0.8524032792005236,
                -3.137267267989059
            ]
        },
        {
            "positions": [
                -2.6387028045103933,
                -1.10061397658343,
                1.9242515068340944,
                -0.8079307861494097,
                1.0302021686965974,
                -3.124871323581077
            ]
        },
        {
            "positions": [
                -2.7212439556482835,
                -1.0691731212082654,
                1.8809431027559138,
                -0.7935448395139806,
                1.208001058192671,
                -3.1124753791730955
            ]
        },
        {
            "positions": [
                -2.803785106786174,
                -1.037732265833101,
                1.837634698677733,
                -0.7791588928785514,
                1.3857999476887448,
                -3.100079434765114
            ]
        },
        {
            "positions": [
                -2.8863262579240647,
                -1.0062914104579364,
                1.7943262945995522,
                -0.7647729462431222,
                1.5635988371848186,
                -3.087683490357133
            ]
        },
        {
            "positions": [
                -2.968867409061955,
                -0.9748505550827717,
                1.7510178905213716,
                -0.7503869996076931,
                1.7413977266808924,
                -3.075287545949151
            ]
        }
    ]
}