{
    "goal": {
        "global_pose": {
            "orientation": {
                "w": -0.4816463035849501,
                "x": 0.5182115481033762,
                "y": 0.4908360881923453,
                "z": -0.5084816262002911
            },
            "position": {
                "x": -0.8240239810943604,
                "y": -0.300875300988555,
                "z": 0.16403168439865112
            }
        },
        "name": "move_to_storage_C"
    },
    "id": "ProjEST_move_to_storage_C_4",
    "joint_names": [
        "shoulder_pan_joint",
        "shoulder_lift_joint",
        "elbow_joint",
        "wrist_1_joint",
        "wrist_2_joint",
        "wrist_3_joint"
    ],
    "metrics": {
        "cart_traj_len": 0.5760144539648777,
        "distance_elbow_joint": 0.25789538042754767,
        "distance_shoulder_lift_joint": 0.18871797521068268,
        "distance_shoulder_pan_joint": 0.49395776059798546,
        "distance_wrist_1_joint": 0.07869762027473981,
        "distance_wrist_2_joint": 1.0684899288531913,
        "distance_wrist_3_joint": 0.061372667110830115,
        "smoothness": 2.5376526478085547e-16,
        "time": 0.014779543000000001,
        "traj_len": 1.4659915867681428,
        "weighted_distance": 1.8490711765166228
    },
    "planner": "ProjEST",
    "start": {
        "state": {
            "elbow_joint": 2.010868314990456,
            "shoulder_lift_joint": -1.1634956873337592,
            "shoulder_pan_joint": -2.4736205022346125,
            "wrist_1_joint": -0.8367026794202681,
            "wrist_2_joint": 0.6746043897044499,
            "wrist_3_joint": -3.1496632123970403
        }
    },
    "waypoints": [
        {
            "positions": [
                -2.4736205022346125,
                -1.1634956873337592,
                2.010868314990456,
                -0.8367026794202681,
                0.6746043897044499,
                -3.1496632123970403
            ]
        },
        {
            "positions": [
                -2.55594679566761,
                -1.1320426914653121,
                1.9678857515858645,
                -0.8235864093744781,
                0.8526860445133151,
                -3.1394344345452354
            ]
        },
        {
            "positions": [
                -2.6382730891006076,
                -1.100589695596865,
                1.9249031881812733,
                -0.8104701393286882,
                1.0307676993221804,
                -3.12920565669343
            ]
        },
        {
            "positions": [
                -2.7205993825336052,
                -1.0691366997284177,
                1.881920624776682,
                -0.7973538692828982,
                1.2088493541310457,
                -3.1189768788416252
            ]
        },
        {
            "positions": [
                -2.802925675966603,
                -1.0376837038599707,
                1.8389380613720907,
                -0.7842375992371082,
                1.3869310089399107,
                -3.1087481009898204
            ]
        },
        {
            "positions": [
                -2.8852519693996004,
                -1.0062307079915236,
                1.7959554979674994,
                -0.7711213291913183,
                1.565012663748776,
                -3.098519323138015
            ]
        },
        {
            "positions": [
                -2.967578262832598,
                -0.9747777121230765,
                1.7529729345629081,
                -0.7580050591455283,
                1.743094318557641,
                -3.08829054528621
            ]
        }
    ]
}