{
    "goal": {
        "global_pose": {
            "orientation": {
                "w": 0.5084816217422485,
                "x": -0.49083608388900757,
                "y": 0.5182115435600281,
                "z": -0.4816462993621826
            },
            "position": {
                "x": 0.5540239810943604,
                "y": 0.030875300988554955,
                "z": 0.16403168439865112
            }
        },
        "name": "move_to_storage_A"
    },
    "id": "ProjEST_move_to_storage_A_30",
    "joint_names": [
        "shoulder_pan_joint",
        "shoulder_lift_joint",
        "elbow_joint",
        "wrist_1_joint",
        "wrist_2_joint",
        "wrist_3_joint"
    ],
    "metrics": {
        "cart_traj_len": 0.3534452586936917,
        "distance_elbow_joint": 0.453128134958124,
        "distance_shoulder_lift_joint": 0.23311397619068153,
        "distance_shoulder_pan_joint": 0.45836476465613696,
        "distance_wrist_1_joint": 0.2556979127228428,
        "distance_wrist_2_joint": 1.1158725567912704,
        "distance_wrist_3_joint": 0.10700055988054791,
        "smoothness": 1.1102230263833737e-15,
        "time": 0.052060878,
        "traj_len": 1.6196227663254192,
        "weighted_distance": 2.051523700685618
    },
    "planner": "ProjEST",
    "start": {
        "state": {
            "elbow_joint": 1.971548259319323,
            "shoulder_lift_joint": -1.1394851275133948,
            "shoulder_pan_joint": 0.1228115487234821,
            "wrist_1_joint": -0.7804723859257726,
            "wrist_2_joint": 0.12958671773740124,
            "wrist_3_joint": -3.192489227718131
        }
    },
    "waypoints": [
        {
            "positions": [
                0.1228115487234821,
                -1.1394851275133948,
                1.971548259319323,
                -0.7804723859257726,
                0.12958671773740124,
                -3.192489227718131
            ]
        },
        {
            "positions": [
                0.057330868058319676,
                -1.1727871241120635,
                2.0362808500276266,
                -0.817000659171893,
                0.288997082993297,
                -3.1772034334494816
            ]
        },
        {
            "positions": [
                -0.008149812606842749,
                -1.2060891207107325,
                2.10101344073593,
                -0.8535289324180134,
                0.44840744824919276,
                -3.1619176391808317
            ]
        },
        {
            "positions": [
                -0.07363049327200516,
                -1.2393911173094012,
                2.1657460314442334,
                -0.8900572056641338,
                0.6078178135050886,
                -3.146631844912182
            ]
        },
        {
            "positions": [
                -0.1391111739371676,
                -1.27269311390807,
                2.230478622152537,
                -0.9265854789102542,
                0.7672281787609844,
                -3.131346050643532
            ]
        },
        {
            "positions": [
                -0.20459185460233004,
                -1.3059951105067387,
                2.29521121286084,
                -0.9631137521563746,
                0.9266385440168802,
                -3.1160602563748827
            ]
        },
        {
            "positions": [
                -0.2700725352674924,
                -1.3392971071054076,
                2.3599438035691436,
                -0.999642025402495,
                1.0860489092727759,
                -3.1007744621062328
            ]
        },
        {
            "positions": [
                -0.33555321593265486,
                -1.3725991037040763,
                2.424676394277447,
                -1.0361702986486154,
                1.2454592745286717,
                -3.0854886678375832
            ]
        }
    ]
}{
    "goal": {
        "global_pose": {
            "orientation": {
                "w": 0.5084816217422485,
                "x": -0.49083608388900757,
                "y": 0.5182115435600281,
                "z": -0.4816462993621826
            },
            "position": {
                "x": 0.5540239810943604,
                "y": 0.030875300988554955,
                "z": 0.16403168439865112
            }
        },
        "name": "move_to_storage_A"
    },
    "id": "ProjEST_move_to_storage_A_30",
    "joint_names": [
        "shoulder_pan_joint",
        "shoulder_lift_joint",
        "elbow_joint",
        "wrist_1_joint",
        "wrist_2_joint",
        "wrist_3_joint"
    ],
    "metrics": {
        "cart_traj_len": 0.3530398528742579,
        "distance_elbow_joint": 0.45237831213594903,
        "distance_shoulder_lift_joint": 0.23257997651914808,
        "distance_shoulder_pan_joint": 0.4627928528799496,
        "distance_wrist_1_joint": 0.2623073670203375,
        "distance_wrist_2_joint": 1.0924711589381044,
        "distance_wrist_3_joint": 0.10441046367606921,
        "smoothness": 2.2204460668324854e-16,
        "time": 0.036540170999999996,
        "traj_len": 1.614602158790071,
        "weighted_distance": 2.0421898992209657
    },
    "planner": "ProjEST",
    "start": {
        "state": {
            "elbow_joint": 1.97154746011099,
            "shoulder_lift_joint": -1.13948474672311,
            "shoulder_pan_joint": 0.12281154466712228,
            "wrist_1_joint": -0.7804688027058302,
            "wrist_2_joint": 0.12958655903071145,
            "wrist_3_joint": 3.0906928834467795
        }
    },
    "waypoints": [
        {
            "positions": [
                0.12281154466712228,
                -1.13948474672311,
                1.97154746011099,
                -0.7804688027058302,
                0.12958655903071145,
                3.0906928834467795
            ]
        },
        {
            "positions": [
                0.05669827996998664,
                -1.1727104576544167,
                2.0361729332732685,
                -0.8179412837087355,
                0.28565386745044063,
                3.1056086639719322
            ]
        },
        {
            "positions": [
                -0.009414984727149009,
                -1.2059361685857237,
                2.1007984064355467,
                -0.8554137647116409,
                0.4417211758701698,
                3.120524444497085
            ]
        },
        {
            "positions": [
                -0.07552824942428467,
                -1.2391618795170305,
                2.1654238795978253,
                -0.8928862457145462,
                0.5977884842898991,
                3.1354402250222377
            ]
        },
        {
            "positions": [
                -0.1416415141214203,
                -1.2723875904483375,
                2.2300493527601035,
                -0.9303587267174516,
                0.7538557927096282,
                3.1503560055473905
            ]
        },
        {
            "positions": [
                -0.20775477881855597,
                -1.3056133013796443,
                2.294674825922382,
                -0.967831207720357,
                0.9099231011293575,
                3.1652717860725432
            ]
        },
        {
            "positions": [
                -0.2738680435156916,
                -1.338839012310951,
                2.3593002990846603,
                -1.0053036887232623,
                1.0659904095490866,
                3.180187566597696
            ]
        },
        {
            "positions": [
                -0.3399813082128273,
                -1.372064723242258,
                2.423925772246939,
                -1.0427761697261677,
                1.222057717968816,
                3.1951033471228487
            ]
        }
    ]
}{
    "goal": {
        "global_pose": {
            "orientation": {
                "w": 0.5084816217422485,
                "x": -0.49083608388900757,
                "y": 0.5182115435600281,
                "z": -0.4816462993621826
            },
            "position": {
                "x": 0.5540239810943604,
                "y": 0.030875300988554955,
                "z": 0.16403168439865112
            }
        },
        "name": "move_to_storage_A"
    },
    "id": "ProjEST_move_to_storage_A_30",
    "joint_names": [
        "shoulder_pan_joint",
        "shoulder_lift_joint",
        "elbow_joint",
        "wrist_1_joint",
        "wrist_2_joint",
        "wrist_3_joint"
    ],
    "metrics": {
        "cart_traj_len": 0.3533150297437875,
        "distance_elbow_joint": 0.452534261319534,
        "distance_shoulder_lift_joint": 0.2347770882820992,
        "distance_shoulder_pan_joint": 0.4593516958140086,
        "distance_wrist_1_joint": 0.2510946667860543,
        "distance_wrist_2_joint": 1.1113680984965966,
        "distance_wrist_3_joint": 0.0959277271540353,
        "smoothness": 4.440892133664971e-16,
        "time": 0.053601066,
        "traj_len": 1.6140178245150605,
        "weighted_distance": 2.0394537889942614
    },
    "planner": "ProjEST",
    "start": {
        "state": {
            "elbow_joint": 1.9715472970024885,
            "shoulder_lift_joint": -1.1394870060712896,
            "shoulder_pan_joint": 0.12281152778156021,
            "wrist_1_joint": -0.780463741449964,
            "wrist_2_joint": 0.12958659822042276,
            "wrist_3_joint": 3.090690232415272
        }
    },
    "waypoints": [
        {
            "positions": [
                0.12281152778156021,
                -1.1394870060712896,
                1.9715472970024885,
                -0.780463741449964,
                0.12958659822042276,
                3.090690232415272
            ]
        },
        {
            "positions": [
                0.057189856950987564,
                -1.1730265901115895,
                2.036195048619565,
                -0.8163344081336861,
                0.28835346943422224,
                3.104394193437277
            ]
        },
        {
            "positions": [
                -0.008431813879585082,
                -1.2065661741518894,
                2.100842800236641,
                -0.852205074817408,
                0.44712034064802175,
                3.118098154459282
            ]
        },
        {
            "positions": [
                -0.07405348471015774,
                -1.2401057581921893,
                2.1654905518537175,
                -0.8880757415011301,
                0.6058872118618213,
                3.131802115481287
            ]
        },
        {
            "positions": [
                -0.13967515554073037,
                -1.2736453422324892,
                2.2301383034707936,
                -0.9239464081848522,
                0.7646540830756208,
                3.145506076503292
            ]
        },
        {
            "positions": [
                -0.20529682637130306,
                -1.307184926272789,
                2.29478605508787,
                -0.9598170748685741,
                0.9234209542894203,
                3.159210037525297
            ]
        },
        {
            "positions": [
                -0.27091849720187566,
                -1.340724510313089,
                2.359433806704946,
                -0.9956877415522962,
                1.0821878255032198,
                3.172913998547302
            ]
        },
        {
            "positions": [
                -0.33654016803244835,
                -1.3742640943533888,
                2.4240815583220225,
                -1.0315584082360183,
                1.2409546967170193,
                3.186617959569307
            ]
        }
    ]
}