{
    "goal": {
        "global_pose": {
            "orientation": {
                "w": -0.4816463035849501,
                "x": 0.5182115481033762,
                "y": 0.4908360881923453,
                "z": -0.5084816262002911
            },
            "position": {
                "x": -0.8240239810943604,
                "y": 0.19912469901144506,
                "z": 0.16403168439865112
            }
        },
        "name": "move_to_storage_D"
    },
    "id": "ProjEST_move_to_storage_D_126",
    "joint_names": [
        "shoulder_pan_joint",
        "shoulder_lift_joint",
        "elbow_joint",
        "wrist_1_joint",
        "wrist_2_joint",
        "wrist_3_joint"
    ],
    "metrics": {
        "cart_traj_len": 3.96810746867377,
        "distance_elbow_joint": 4.213250217817647,
        "distance_shoulder_lift_joint": 1.263792894858378,
        "distance_shoulder_pan_joint": 2.8128809646915776,
        "distance_wrist_1_joint": 2.2824122003921103,
        "distance_wrist_2_joint": 0.8730097609040354,
        "distance_wrist_3_joint": 3.440795867813738,
        "smoothness": 0.025833668964213224,
        "time": 0.10302908999999999,
        "traj_len": 3.8582563298046293,
        "weighted_distance": 4.992309646185932
    },
    "planner": "ProjEST",
    "start": {
        "state": {
            "elbow_joint": -2.384821988534728,
            "shoulder_lift_joint": -2.2788054721415256,
            "shoulder_pan_joint": -0.1854694642142757,
            "wrist_1_joint": 1.4845938289331202,
            "wrist_2_joint": 0.17898776772866878,
            "wrist_3_joint": 0.037105688729662994
        }
    },
    "waypoints": [
        {
            "positions": [
                -0.1854694642142757,
                -2.2788054721415256,
                -2.384821988534728,
                1.4845938289331202,
                0.17898776772866878,
                0.037105688729662994
            ]
        },
        {
            "positions": [
                -0.07366092999109251,
                -2.2390544403056367,
                -2.26664139305408,
                1.4017563558736459,
                0.18116184637567773,
                0.04923563511973693
            ]
        },
        {
            "positions": [
                0.03814760423209068,
                -2.1993034084697483,
                -2.1484607975734313,
                1.3189188828141714,
                0.18333592502268664,
                0.06136558150981086
            ]
        },
        {
            "positions": [
                0.14995613845527386,
                -2.1595523766338593,
                -2.0302802020927833,
                1.236081409754697,
                0.18551000366969558,
                0.07349552789988478
            ]
        },
        {
            "positions": [
                0.26176467267845704,
                -2.119801344797971,
                -1.912099606612135,
                1.1532439366952227,
                0.18768408231670453,
                0.08562547428995873
            ]
        },
        {
            "positions": [
                0.3735732069016403,
                -2.080050312962082,
                -1.7939190111314867,
                1.0704064636357482,
                0.18985816096371344,
                0.09775542068003265
            ]
        },
        {
            "positions": [
                0.48538174112482346,
                -2.0402992811261935,
                -1.6757384156508386,
                0.9875689905762739,
                0.19203223961072238,
                0.10988536707010658
            ]
        },
        {
            "positions": [
                0.5971902753480066,
                -2.0005482492903046,
                -1.5575578201701905,
                0.9047315175167996,
                0.1942063182577313,
                0.1220153134601805
            ]
        },
        {
            "positions": [
                0.7089988095711899,
                -1.960797217454416,
                -1.439377224689542,
                0.8218940444573252,
                0.19638039690474024,
                0.13414525985025444
            ]
        },
        {
            "positions": [
                0.8208073437943729,
                -1.9210461856185272,
                -1.321196629208894,
                0.7390565713978509,
                0.19855447555174915,
                0.14627520624032836
            ]
        },
        {
            "positions": [
                0.9326158780175563,
                -1.8812951537826386,
                -1.2030160337282456,
                0.6562190983383763,
                0.2007285541987581,
                0.1584051526304023
            ]
        },
        {
            "positions": [
                1.0444244122407393,
                -1.8415441219467499,
                -1.0848354382475973,
                0.573381625278902,
                0.20290263284576704,
                0.17053509902047623
            ]
        },
        {
            "positions": [
                1.1562329464639225,
                -1.8017930901108612,
                -0.966654842766949,
                0.4905441522194276,
                0.20507671149277595,
                0.18266504541055018
            ]
        },
        {
            "positions": [
                1.2680414806871056,
                -1.7620420582749725,
                -0.8484742472863009,
                0.4077066791599533,
                0.2072507901397849,
                0.1947949918006241
            ]
        },
        {
            "positions": [
                1.3203249429867285,
                -1.7333101551599024,
                -0.7455164597259464,
                0.3613403310592247,
                0.2397410493125895,
                0.06852166238744037
            ]
        },
        {
            "positions": [
                1.3726084052863516,
                -1.704578252044832,
                -0.6425586721655918,
                0.3149739829584961,
                0.27223130848539406,
                -0.05775166702574336
            ]
        },
        {
            "positions": [
                1.4248918675859745,
                -1.675846348929762,
                -0.5396008846052374,
                0.2686076348577675,
                0.3047215676581987,
                -0.1840249964389271
            ]
        },
        {
            "positions": [
                1.4771753298855974,
                -1.6471144458146918,
                -0.43664309704488274,
                0.22224128675703894,
                0.33721182683100326,
                -0.3102983258521108
            ]
        },
        {
            "positions": [
                1.5294587921852205,
                -1.6183825426996215,
                -0.33368530948452824,
                0.17587493865631035,
                0.36970208600380783,
                -0.4365716552652946
            ]
        },
        {
            "positions": [
                1.5817422544848434,
                -1.5896506395845513,
                -0.23072752192417367,
                0.12950859055558178,
                0.4021923451766124,
                -0.5628449846784783
            ]
        },
        {
            "positions": [
                1.6340257167844663,
                -1.5609187364694812,
                -0.12776973436381922,
                0.08314224245485319,
                0.43468260434941697,
                -0.689118314091662
            ]
        },
        {
            "positions": [
                1.6863091790840892,
                -1.532186833354411,
                -0.024811946803464546,
                0.036775894354124594,
                0.46717286352222165,
                -0.8153916435048457
            ]
        },
        {
            "positions": [
                1.738592641383712,
                -1.5034549302393407,
                0.0781458407568899,
                -0.009590453746603944,
                0.4996631226950262,
                -0.9416649729180294
            ]
        },
        {
            "positions": [
                1.7908761036833352,
                -1.4747230271242706,
                0.18110362831724447,
                -0.05595680184733259,
                0.5321533818678308,
                -1.0679383023312132
            ]
        },
        {
            "positions": [
                1.843159565982958,
                -1.4459911240092005,
                0.2840614158775989,
                -0.10232314994806113,
                0.5646436410406354,
                -1.194211631744397
            ]
        },
        {
            "positions": [
                1.895443028282581,
                -1.4172592208941301,
                0.3870192034379536,
                -0.14868949804878973,
                0.5971339002134399,
                -1.3204849611575806
            ]
        },
        {
            "positions": [
                1.947726490582204,
                -1.38852731777906,
                0.48997699099830805,
                -0.19505584614951832,
                0.6296241593862445,
                -1.4467582905707643
            ]
        },
        {
            "positions": [
                2.0000099528818267,
                -1.35979541466399,
                0.5929347785586625,
                -0.2414221942502469,
                0.6621144185590491,
                -1.573031619983948
            ]
        },
        {
            "positions": [
                2.05229341518145,
                -1.3310635115489196,
                0.695892566119017,
                -0.2877885423509754,
                0.6946046777318536,
                -1.6993049493971317
            ]
        },
        {
            "positions": [
                2.104576877481073,
                -1.3023316084338494,
                0.7988503536793718,
                -0.3341548904517041,
                0.7270949369046583,
                -1.8255782788103154
            ]
        },
        {
            "positions": [
                2.1568603397806956,
                -1.2735997053187793,
                0.9018081412397263,
                -0.3805212385524327,
                0.7595851960774629,
                -1.9518516082234991
            ]
        },
        {
            "positions": [
                2.2091438020803187,
                -1.244867802203709,
                1.0047659288000808,
                -0.4268875866531612,
                0.7920754552502675,
                -2.078124937636683
            ]
        },
        {
            "positions": [
                2.2614272643799413,
                -1.216135899088639,
                1.1077237163604352,
                -0.47325393475388977,
                0.824565714423072,
                -2.2043982670498665
            ]
        },
        {
            "positions": [
                2.313710726679565,
                -1.1874039959735687,
                1.2106815039207899,
                -0.5196202828546185,
                0.8570559735958766,
                -2.3306715964630507
            ]
        },
        {
            "positions": [
                2.3659941889791876,
                -1.1586720928584984,
                1.3136392914811446,
                -0.5659866309553471,
                0.8895462327686812,
                -2.4569449258762344
            ]
        },
        {
            "positions": [
                2.4182776512788102,
                -1.1299401897434285,
                1.4165970790414988,
                -0.6123529790560756,
                0.9220364919414857,
                -2.583218255289418
            ]
        },
        {
            "positions": [
                2.4705611135784333,
                -1.1012082866283581,
                1.5195548666018535,
                -0.6587193271568041,
                0.9545267511142903,
                -2.7094915847026018
            ]
        },
        {
            "positions": [
                2.5228445758780564,
                -1.0724763835132878,
                1.6225126541622081,
                -0.7050856752575327,
                0.987017010287095,
                -2.8357649141157855
            ]
        },
        {
            "positions": [
                2.575128038177679,
                -1.0437444803982177,
                1.7254704417225624,
                -0.7514520233582613,
                1.0195072694598997,
                -2.962038243528969
            ]
        },
        {
            "positions": [
                2.627411500477302,
                -1.0150125772831475,
                1.8284282292829173,
                -0.7978183714589899,
                1.0519975286327041,
                -3.088311572942153
            ]
        }
    ]
}