{
    "goal": {
        "global_pose": {
            "orientation": {
                "w": 0.7047431493862688,
                "x": -0.7094548369677653,
                "y": 0.0024358444001904,
                "z": -0.0022348060817251984
            },
            "position": {
                "x": -0.39052492380142206,
                "y": 0.3671506643295288,
                "z": 0.19426114857196808
            }
        },
        "name": "move_to_magneteinheit_D"
    },
    "id": "ProjEST_move_to_magneteinheit_D_7",
    "joint_names": [
        "shoulder_pan_joint",
        "shoulder_lift_joint",
        "elbow_joint",
        "wrist_1_joint",
        "wrist_2_joint",
        "wrist_3_joint"
    ],
    "metrics": {
        "cart_traj_len": 9.54657497900219,
        "distance_elbow_joint": 4.0570287633882955,
        "distance_shoulder_lift_joint": 5.8445615309814105,
        "distance_shoulder_pan_joint": 4.90204171152966,
        "distance_wrist_1_joint": 5.166919951145969,
        "distance_wrist_2_joint": 7.448517710890778,
        "distance_wrist_3_joint": 9.088764590477805,
        "smoothness": 0.7362713834197114,
        "time": 0.405024333,
        "traj_len": 6.04217131984967,
        "weighted_distance": 8.203706546519458
    },
    "planner": "ProjEST",
    "start": {
        "state": {
            "elbow_joint": 0.749534889911806,
            "shoulder_lift_joint": -0.6476975780787326,
            "shoulder_pan_joint": -2.711696901376241,
            "wrist_1_joint": -0.07506478083263063,
            "wrist_2_joint": 0.43296659715538205,
            "wrist_3_joint": -3.14703540197715
        }
    },
    "waypoints": [
        {
            "positions": [
                -2.711696901376241,
                -0.6476975780787326,
                0.749534889911806,
                -0.07506478083263063,
                0.43296659715538205,
                -3.14703540197715
            ]
        },
        {
            "positions": [
                -2.7413642210604388,
                -0.5905080990940216,
                0.6678179209978652,
                0.028941361969281487,
                0.3940386874268956,
                -3.0768988655027103
            ]
        },
        {
            "positions": [
                -2.771031540744637,
                -0.5333186201093105,
                0.5861009520839243,
                0.1329475047711936,
                0.3551107776984091,
                -3.006762329028271
            ]
        },
        {
            "positions": [
                -2.8006988604288345,
                -0.47612914112459936,
                0.5043839831699835,
                0.23695364757310572,
                0.31618286796992257,
                -2.9366257925538317
            ]
        },
        {
            "positions": [
                -2.8303661801130326,
                -0.4189396621398883,
                0.4226670142560427,
                0.34095979037501783,
                0.2772549582414361,
                -2.866489256079392
            ]
        },
        {
            "positions": [
                -2.8600334997972303,
                -0.36175018315517726,
                0.3409500453421019,
                0.44496593317692995,
                0.23832704851294964,
                -2.7963527196049522
            ]
        },
        {
            "positions": [
                -2.889700819481428,
                -0.30456070417046616,
                0.25923307642816107,
                0.5489720759788421,
                0.19939913878446314,
                -2.726216183130513
            ]
        },
        {
            "positions": [
                -2.919368139165626,
                -0.24737122518575505,
                0.1775161075142202,
                0.6529782187807542,
                0.16047122905597666,
                -2.6560796466560737
            ]
        },
        {
            "positions": [
                -2.9490354588498238,
                -0.190181746201044,
                0.09579913860027944,
                0.7569843615826664,
                0.12154331932749018,
                -2.585943110181634
            ]
        },
        {
            "positions": [
                -2.8771339024290423,
                -0.30321312894537833,
                0.11763221384749523,
                0.7124598164434872,
                0.13598430821442947,
                -2.4644768585777794
            ]
        },
        {
            "positions": [
                -2.805232346008261,
                -0.4162445116897126,
                0.139465289094711,
                0.6679352713043082,
                0.15042529710136876,
                -2.3430106069739254
            ]
        },
        {
            "positions": [
                -2.7333307895874794,
                -0.529275894434047,
                0.1612983643419268,
                0.6234107261651292,
                0.16486628598830805,
                -2.221544355370071
            ]
        },
        {
            "positions": [
                -2.661429233166698,
                -0.6423072771783812,
                0.18313143958914258,
                0.57888618102595,
                0.17930727487524734,
                -2.100078103766217
            ]
        },
        {
            "positions": [
                -2.5895276767459166,
                -0.7553386599227155,
                0.20496451483635836,
                0.5343616358867709,
                0.19374826376218662,
                -1.9786118521623624
            ]
        },
        {
            "positions": [
                -2.517626120325135,
                -0.8683700426670499,
                0.22679759008357414,
                0.48983709074759185,
                0.2081892526491259,
                -1.8571456005585083
            ]
        },
        {
            "positions": [
                -2.4457245639043537,
                -0.9814014254113841,
                0.24863066533078992,
                0.44531254560841277,
                0.22263024153606517,
                -1.7356793489546538
            ]
        },
        {
            "positions": [
                -2.3738230074835727,
                -1.0944328081557184,
                0.2704637405780057,
                0.4007880004692337,
                0.23707123042300446,
                -1.6142130973507995
            ]
        },
        {
            "positions": [
                -2.301921451062791,
                -1.2074641909000527,
                0.2922968158252215,
                0.3562634553300546,
                0.2515122193099437,
                -1.4927468457469453
            ]
        },
        {
            "positions": [
                -2.23001989464201,
                -1.320495573644387,
                0.3141298910724373,
                0.3117389101908755,
                0.26595320819688306,
                -1.371280594143091
            ]
        },
        {
            "positions": [
                -2.158118338221228,
                -1.4335269563887214,
                0.33596296631965306,
                0.2672143650516964,
                0.2803941970838223,
                -1.2498143425392365
            ]
        },
        {
            "positions": [
                -2.086216781800447,
                -1.5465583391330557,
                0.35779604156686884,
                0.22268981991251735,
                0.29483518597076164,
                -1.1283480909353825
            ]
        },
        {
            "positions": [
                -2.014315225379665,
                -1.65958972187739,
                0.3796291168140846,
                0.1781652747733382,
                0.30927617485770087,
                -1.006881839331528
            ]
        },
        {
            "positions": [
                -1.942413668958884,
                -1.7726211046217242,
                0.4014621920613004,
                0.13364072963415918,
                0.32371716374464016,
                -0.8854155877276737
            ]
        },
        {
            "positions": [
                -1.8705121125381023,
                -1.8856524873660587,
                0.4232952673085162,
                0.08911618449498004,
                0.33815815263157945,
                -0.7639493361238194
            ]
        },
        {
            "positions": [
                -1.7986105561173211,
                -1.9986838701103928,
                0.44512834255573197,
                0.044591639355801016,
                0.35259914151851873,
                -0.6424830845199652
            ]
        },
        {
            "positions": [
                -1.7267089996965397,
                -2.111715252854727,
                0.46696141780294775,
                6.709421662187687e-05,
                0.367040130405458,
                -0.5210168329161107
            ]
        },
        {
            "positions": [
                -1.6548074432757582,
                -2.2247466355990615,
                0.48879449305016354,
                -0.04445745092255715,
                0.3814811192923973,
                -0.3995505813122566
            ]
        },
        {
            "positions": [
                -1.5829058868549768,
                -2.337778018343396,
                0.5106275682973793,
                -0.08898199606173629,
                0.3959221081793366,
                -0.27808432970840213
            ]
        },
        {
            "positions": [
                -1.5110043304341954,
                -2.45080940108773,
                0.5324606435445951,
                -0.13350654120091532,
                0.4103630970662759,
                -0.1566180781045481
            ]
        },
        {
            "positions": [
                -1.439102774013414,
                -2.5638407838320645,
                0.5542937187918109,
                -0.17803108634009446,
                0.42480408595321517,
                -0.035151826500693595
            ]
        },
        {
            "positions": [
                -1.486312976867815,
                -2.456836426088912,
                0.5474319703247541,
                -0.18421406504329627,
                0.4144690026546569,
                -0.23121410629794178
            ]
        },
        {
            "positions": [
                -1.533523179722216,
                -2.34983206834576,
                0.5405702218576973,
                -0.19039704374649805,
                0.40413391935609866,
                -0.42727638609519
            ]
        },
        {
            "positions": [
                -1.580733382576617,
                -2.2428277106026075,
                0.5337084733906404,
                -0.19658002244969985,
                0.39379883605754046,
                -0.6233386658924382
            ]
        },
        {
            "positions": [
                -1.627943585431018,
                -2.1358233528594552,
                0.5268467249235836,
                -0.20276300115290166,
                0.3834637527589822,
                -0.8194009456896864
            ]
        },
        {
            "positions": [
                -1.6751537882854193,
                -2.0288189951163034,
                0.5199849764565269,
                -0.20894597985610344,
                0.37312866946042395,
                -1.0154632254869345
            ]
        },
        {
            "positions": [
                -1.7223639911398203,
                -1.9218146373731508,
                0.5131232279894701,
                -0.21512895855930525,
                0.3627935861618657,
                -1.211525505284183
            ]
        },
        {
            "positions": [
                -1.7695741939942213,
                -1.8148102796299987,
                0.5062614795224133,
                -0.22131193726250706,
                0.3524585028633075,
                -1.4075877850814311
            ]
        },
        {
            "positions": [
                -1.8167843968486224,
                -1.7078059218868464,
                0.49939973105535646,
                -0.22749491596570884,
                0.34212341956474923,
                -1.6036500648786791
            ]
        },
        {
            "positions": [
                -1.8639945997030234,
                -1.6008015641436941,
                0.4925379825882996,
                -0.23367789466891065,
                0.331788336266191,
                -1.7997123446759273
            ]
        },
        {
            "positions": [
                -1.9112048025574244,
                -1.4937972064005418,
                0.48567623412124283,
                -0.23986087337211243,
                0.3214532529676327,
                -1.9957746244731756
            ]
        },
        {
            "positions": [
                -1.9584150054118257,
                -1.3867928486573897,
                0.47881448565418605,
                -0.24604385207531423,
                0.31111816966907446,
                -2.1918369042704238
            ]
        },
        {
            "positions": [
                -2.0056252082662267,
                -1.2797884909142372,
                0.4719527371871292,
                -0.25222683077851604,
                0.3007830863705162,
                -2.387899184067672
            ]
        },
        {
            "positions": [
                -2.0528354111206277,
                -1.1727841331710849,
                0.46509098872007243,
                -0.2584098094817179,
                0.29044800307195795,
                -2.58396146386492
            ]
        },
        {
            "positions": [
                -2.1000456139750288,
                -1.0657797754279328,
                0.4582292402530156,
                -0.26459278818491966,
                0.28011291977339975,
                -2.7800237436621686
            ]
        },
        {
            "positions": [
                -2.14725581682943,
                -0.9587754176847805,
                0.4513674917859588,
                -0.27077576688812144,
                0.2697778364748415,
                -2.9760860234594166
            ]
        },
        {
            "positions": [
                -2.065601186420568,
                -1.0092442484405797,
                0.3879285850688264,
                -0.29991266344692424,
                0.14429641766073717,
                -2.9404405776504072
            ]
        },
        {
            "positions": [
                -1.9839465560117058,
                -1.059713079196379,
                0.32448967835169396,
                -0.32904956000572705,
                0.018814998846632847,
                -2.904795131841398
            ]
        },
        {
            "positions": [
                -1.9022919256028437,
                -1.1101819099521781,
                0.26105077163456153,
                -0.35818645656452985,
                -0.1066664199674715,
                -2.869149686032388
            ]
        },
        {
            "positions": [
                -1.8206372951939818,
                -1.1606507407079774,
                0.1976118649174291,
                -0.38732335312333266,
                -0.2321478387815758,
                -2.8335042402233785
            ]
        },
        {
            "positions": [
                -1.7389826647851196,
                -1.2111195714637766,
                0.13417295820029668,
                -0.41646024968213546,
                -0.35762925759568015,
                -2.797858794414369
            ]
        },
        {
            "positions": [
                -1.6573280343762575,
                -1.2615884022195758,
                0.07073405148316425,
                -0.44559714624093827,
                -0.4831106764097845,
                -2.7622133486053597
            ]
        },
        {
            "positions": [
                -1.5756734039673956,
                -1.312057232975375,
                0.007295144766031825,
                -0.47473404279974113,
                -0.6085920952238888,
                -2.7265679027963503
            ]
        },
        {
            "positions": [
                -1.4940187735585337,
                -1.3625260637311742,
                -0.0561437619511006,
                -0.5038709393585439,
                -0.734073514037993,
                -2.690922456987341
            ]
        },
        {
            "positions": [
                -1.4123641431496716,
                -1.4129948944869735,
                -0.11958266866823297,
                -0.5330078359173467,
                -0.8595549328520973,
                -2.655277011178331
            ]
        },
        {
            "positions": [
                -1.3307095127408095,
                -1.4634637252427727,
                -0.18302157538536545,
                -0.5621447324761495,
                -0.9850363516662017,
                -2.6196315653693216
            ]
        },
        {
            "positions": [
                -1.2490548823319476,
                -1.5139325559985721,
                -0.24646048210249782,
                -0.5912816290349523,
                -1.110517770480306,
                -2.583986119560312
            ]
        },
        {
            "positions": [
                -1.1674002519230855,
                -1.5644013867543713,
                -0.3098993888196303,
                -0.6204185255937551,
                -1.2359991892944104,
                -2.548340673751303
            ]
        },
        {
            "positions": [
                -1.0857456215142236,
                -1.6148702175101706,
                -0.3733382955367627,
                -0.649555422152558,
                -1.3614806081085147,
                -2.5126952279422934
            ]
        },
        {
            "positions": [
                -1.0040909911053615,
                -1.6653390482659698,
                -0.43677720225389516,
                -0.6786923187113608,
                -1.486962026922619,
                -2.4770497821332835
            ]
        },
        {
            "positions": [
                -0.9224363606964994,
                -1.715807879021769,
                -0.5002161089710276,
                -0.7078292152701637,
                -1.6124434457367234,
                -2.441404336324274
            ]
        },
        {
            "positions": [
                -0.8407817302876375,
                -1.7662767097775682,
                -0.56365501568816,
                -0.7369661118289664,
                -1.7379248645508276,
                -2.4057588905152647
            ]
        },
        {
            "positions": [
                -0.7591270998787754,
                -1.8167455405333675,
                -0.6270939224052926,
                -0.7661030083877693,
                -1.863406283364932,
                -2.3701134447062553
            ]
        },
        {
            "positions": [
                -0.6774724694699135,
                -1.8672143712891667,
                -0.6905328291224248,
                -0.795239904946572,
                -1.988887702179036,
                -2.334467998897246
            ]
        },
        {
            "positions": [
                -0.5958178390610513,
                -1.917683202044966,
                -0.7539717358395573,
                -0.824376801505375,
                -2.114369120993141,
                -2.298822553088236
            ]
        },
        {
            "positions": [
                -0.5141632086521895,
                -1.968152032800765,
                -0.8174106425566897,
                -0.8535136980641777,
                -2.2398505398072452,
                -2.263177107279227
            ]
        },
        {
            "positions": [
                -0.4325085782433271,
                -2.0186208635565643,
                -0.8808495492738223,
                -0.8826505946229806,
                -2.3653319586213497,
                -2.227531661470217
            ]
        },
        {
            "positions": [
                -0.3508539478344652,
                -2.0690896943123636,
                -0.9442884559909545,
                -0.9117874911817833,
                -2.4908133774354537,
                -2.191886215661208
            ]
        },
        {
            "positions": [
                -0.2691993174256031,
                -2.119558525068163,
                -1.0077273627080872,
                -0.9409243877405862,
                -2.616294796249558,
                -2.1562407698521984
            ]
        },
        {
            "positions": [
                -0.1875446870167412,
                -2.170027355823962,
                -1.0711662694252193,
                -0.9700612842993889,
                -2.7417762150636626,
                -2.120595324043189
            ]
        },
        {
            "positions": [
                -0.10589005660787931,
                -2.2204961865797612,
                -1.134605176142352,
                -0.9991981808581918,
                -2.867257633877767,
                -2.084949878234179
            ]
        },
        {
            "positions": [
                -0.024235426199017418,
                -2.2709650173355604,
                -1.198044082859484,
                -1.0283350774169946,
                -2.992739052691871,
                -2.0493044324251697
            ]
        },
        {
            "positions": [
                0.05741920420984492,
                -2.3214338480913597,
                -1.2614829895766169,
                -1.0574719739757974,
                -3.1182204715059756,
                -2.0136589866161603
            ]
        },
        {
            "positions": [
                0.04733827065299564,
                -2.319531228719741,
                -1.3085255613898172,
                -0.9524547042602888,
                -2.98110342529856,
                -1.9272623290661868
            ]
        },
        {
            "positions": [
                0.037257337096146356,
                -2.317628609348122,
                -1.3555681332030176,
                -0.8474374345447802,
                -2.843986379091145,
                -1.8408656715162135
            ]
        },
        {
            "positions": [
                0.027176403539297074,
                -2.315725989976503,
                -1.402610705016218,
                -0.7424201648292714,
                -2.706869332883729,
                -1.75446901396624
            ]
        },
        {
            "positions": [
                0.017095469982447792,
                -2.3138233706048843,
                -1.4496532768294184,
                -0.6374028951137629,
                -2.569752286676314,
                -1.6680723564162667
            ]
        },
        {
            "positions": [
                0.00701453642559851,
                -2.3119207512332656,
                -1.4966958486426187,
                -0.5323856253982542,
                -2.4326352404688985,
                -1.581675698866293
            ]
        },
        {
            "positions": [
                -0.0030663971312507726,
                -2.310018131861647,
                -1.543738420455819,
                -0.42736835568274556,
                -2.295518194261483,
                -1.4952790413163197
            ]
        },
        {
            "positions": [
                -0.013147330688100062,
                -2.308115512490028,
                -1.5907809922690195,
                -0.32235108596723683,
                -2.1584011480540672,
                -1.4088823837663462
            ]
        },
        {
            "positions": [
                -0.023228264244949337,
                -2.3062128931184094,
                -1.6378235640822199,
                -0.21733381625172832,
                -2.021284101846652,
                -1.322485726216373
            ]
        },
        {
            "positions": [
                -0.03330919780179861,
                -2.3043102737467906,
                -1.6848661358954202,
                -0.1123165465362197,
                -1.8841670556392365,
                -1.2360890686663994
            ]
        },
        {
            "positions": [
                -0.0433901313586479,
                -2.3024076543751715,
                -1.7319087077086208,
                -0.007299276820710965,
                -1.7470500094318209,
                -1.149692411116426
            ]
        },
        {
            "positions": [
                -0.05347106491549718,
                -2.3005050350035527,
                -1.778951279521821,
                0.09771799289479755,
                -1.6099329632244057,
                -1.0632957535664527
            ]
        },
        {
            "positions": [
                -0.06355199847234647,
                -2.298602415631934,
                -1.8259938513350216,
                0.20273526261030628,
                -1.47281591701699,
                -0.9768990960164792
            ]
        },
        {
            "positions": [
                -0.07363293202919574,
                -2.2966997962603153,
                -1.8730364231482217,
                0.3077525323258148,
                -1.3356988708095747,
                -0.8905024384665059
            ]
        },
        {
            "positions": [
                -0.08371386558604504,
                -2.2947971768886966,
                -1.9200789949614223,
                0.41276980204132374,
                -1.1985818246021591,
                -0.8041057809165322
            ]
        },
        {
            "positions": [
                -0.09379479914289432,
                -2.2928945575170774,
                -1.9671215667746225,
                0.5177870717568323,
                -1.0614647783947437,
                -0.7177091233665589
            ]
        },
        {
            "positions": [
                -0.1038757326997436,
                -2.2909919381454587,
                -2.014164138587823,
                0.6228043414723408,
                -0.9243477321873286,
                -0.6313124658165856
            ]
        },
        {
            "positions": [
                -0.1139566662565929,
                -2.28908931877384,
                -2.0612067104010237,
                0.7278216111878495,
                -0.7872306859799125,
                -0.5449158082666119
            ]
        },
        {
            "positions": [
                -0.12403759981344215,
                -2.287186699402221,
                -2.108249282214224,
                0.832838880903358,
                -0.6501136397724974,
                -0.4585191507166386
            ]
        },
        {
            "positions": [
                -0.13411853337029142,
                -2.2852840800306025,
                -2.155291854027424,
                0.9378561506188667,
                -0.5129965935650822,
                -0.37212249316666535
            ]
        },
        {
            "positions": [
                -0.14419946692714072,
                -2.2833814606589837,
                -2.2023344258406246,
                1.0428734203343755,
                -0.37587954735766615,
                -0.2857258356166916
            ]
        },
        {
            "positions": [
                -0.15428040048399,
                -2.281478841287365,
                -2.249376997653825,
                1.1478906900498842,
                -0.238762501150251,
                -0.19932917806671835
            ]
        },
        {
            "positions": [
                -0.16436133404083927,
                -2.279576221915746,
                -2.2964195694670253,
                1.2529079597653925,
                -0.10164545494283583,
                -0.11293252051674507
            ]
        },
        {
            "positions": [
                -0.17444226759768858,
                -2.277673602544127,
                -2.3434621412802255,
                1.3579252294809012,
                0.035471591264580216,
                -0.02653586296677135
            ]
        },
        {
            "positions": [
                -0.18452320115453785,
                -2.2757709831725084,
                -2.390504713093426,
                1.46294249919641,
                0.17258863747199532,
                0.05986079458320214
            ]
        }
    ]
}