{
    "goal": {
        "global_pose": {
            "orientation": {
                "w": -0.4816463035849501,
                "x": 0.5182115481033762,
                "y": 0.4908360881923453,
                "z": -0.5084816262002911
            },
            "position": {
                "x": -0.8240239810943604,
                "y": -0.300875300988555,
                "z": 0.16403168439865112
            }
        },
        "name": "move_to_storage_C"
    },
    "id": "ProjEST_move_to_storage_C_29",
    "joint_names": [
        "shoulder_pan_joint",
        "shoulder_lift_joint",
        "elbow_joint",
        "wrist_1_joint",
        "wrist_2_joint",
        "wrist_3_joint"
    ],
    "metrics": {
        "cart_traj_len": 0.5758637763085437,
        "distance_elbow_joint": 0.25657544909721985,
        "distance_shoulder_lift_joint": 0.1897625014987917,
        "distance_shoulder_pan_joint": 0.49236808538076815,
        "distance_wrist_1_joint": 0.06998761625188454,
        "distance_wrist_2_joint": 1.0777573266957852,
        "distance_wrist_3_joint": 0.068363058370561,
        "smoothness": 2.5376526478085547e-16,
        "time": 0.01164944,
        "traj_len": 1.467928485075145,
        "weighted_distance": 1.8545309641480245
    },
    "planner": "ProjEST",
    "start": {
        "state": {
            "elbow_joint": 2.010868314990456,
            "shoulder_lift_joint": -1.1634956873337592,
            "shoulder_pan_joint": -2.4736205022346125,
            "wrist_1_joint": -0.8367026794202681,
            "wrist_2_joint": 0.6746043897044499,
            "wrist_3_joint": -3.1496632123970403
        }
    },
    "waypoints": [
        {
            "positions": [
                -2.4736205022346125,
                -1.1634956873337592,
                2.010868314990456,
                -0.8367026794202681,
                0.6746043897044499,
                -3.1496632123970403
            ]
        },
        {
            "positions": [
                -2.555681849798074,
                -1.1318686037506271,
                1.9681057401409192,
                -0.8250380767116207,
                0.8542306108204141,
                -3.13826936933528
            ]
        },
        {
            "positions": [
                -2.637743197361535,
                -1.1002415201674953,
                1.9253431652913826,
                -0.8133734740029732,
                1.0338568319363783,
                -3.12687552627352
            ]
        },
        {
            "positions": [
                -2.7198045449249966,
                -1.0686144365843633,
                1.882580590441846,
                -0.8017088712943259,
                1.2134830530523426,
                -3.11548168321176
            ]
        },
        {
            "positions": [
                -2.801865892488458,
                -1.0369873530012315,
                1.8398180155923092,
                -0.7900442685856784,
                1.3931092741683067,
                -3.1040878401499996
            ]
        },
        {
            "positions": [
                -2.883927240051919,
                -1.0053602694180994,
                1.7970554407427726,
                -0.778379665877031,
                1.572735495284271,
                -3.092693997088239
            ]
        },
        {
            "positions": [
                -2.9659885876153806,
                -0.9737331858349675,
                1.754292865893236,
                -0.7667150631683836,
                1.752361716400235,
                -3.0813001540264793
            ]
        }
    ]
}