{
    "goal": {
        "global_pose": {
            "orientation": {
                "w": 0.7031023480610252,
                "x": -0.7110244013736278,
                "y": 0.0077485991402295624,
                "z": 0.005598929693374583
            },
            "position": {
                "x": -0.8841497679147869,
                "y": 0.44412534475326537,
                "z": 0.3711530566215515
            }
        },
        "name": "move_to_auspresseinheit_D"
    },
    "id": "ProjEST_move_to_auspresseinheit_D_80",
    "joint_names": [
        "shoulder_pan_joint",
        "shoulder_lift_joint",
        "elbow_joint",
        "wrist_1_joint",
        "wrist_2_joint",
        "wrist_3_joint"
    ],
    "metrics": {
        "cart_traj_len": 0.3432613933404916,
        "distance_elbow_joint": 0.6413011996475795,
        "distance_shoulder_lift_joint": 0.12220661926985965,
        "distance_shoulder_pan_joint": 0.133670021749268,
        "distance_wrist_1_joint": 0.5496522013156051,
        "distance_wrist_2_joint": 1.4330964426520956,
        "distance_wrist_3_joint": 0.010979525756858788,
        "smoothness": 0.0,
        "time": 0.023719650999999998,
        "traj_len": 1.7002664527629976,
        "weighted_distance": 2.212603377443116
    },
    "planner": "ProjEST",
    "start": {
        "state": {
            "elbow_joint": -1.8275523626775212,
            "shoulder_lift_joint": -2.126789852344167,
            "shoulder_pan_joint": -0.03513704404078235,
            "wrist_1_joint": -2.347782403156801,
            "wrist_2_joint": -1.6058999987535132,
            "wrist_3_joint": -3.0880379163319196
        }
    },
    "waypoints": [
        {
            "positions": [
                -0.03513704404078235,
                -2.126789852344167,
                -1.8275523626775212,
                -2.347782403156801,
                -1.6058999987535132,
                -3.0880379163319196
            ]
        },
        {
            "positions": [
                -0.05184579675944085,
                -2.1420656797528994,
                -1.7473897127215738,
                -2.4164889283212516,
                -1.4267629434220013,
                -3.086665475612312
            ]
        },
        {
            "positions": [
                -0.06855454947809936,
                -2.1573415071616315,
                -1.6672270627656263,
                -2.4851954534857024,
                -1.2476258880904894,
                -3.085293034892705
            ]
        },
        {
            "positions": [
                -0.08526330219675785,
                -2.172617334570364,
                -1.587064412809679,
                -2.5539019786501527,
                -1.0684888327589772,
                -3.0839205941730974
            ]
        },
        {
            "positions": [
                -0.10197205491541636,
                -2.1878931619790967,
                -1.5069017628537313,
                -2.6226085038146034,
                -0.8893517774274654,
                -3.08254815345349
            ]
        },
        {
            "positions": [
                -0.11868080763407485,
                -2.2031689893878292,
                -1.426739112897784,
                -2.691315028979054,
                -0.7102147220959535,
                -3.081175712733883
            ]
        },
        {
            "positions": [
                -0.13538956035273336,
                -2.218444816796562,
                -1.3465764629418366,
                -2.7600215541435045,
                -0.5310776667644415,
                -3.0798032720142756
            ]
        },
        {
            "positions": [
                -0.15209831307139185,
                -2.233720644205294,
                -1.2664138129858893,
                -2.8287280793079552,
                -0.35194061143292954,
                -3.078430831294668
            ]
        },
        {
            "positions": [
                -0.16880706579005036,
                -2.2489964716140265,
                -1.1862511630299417,
                -2.897434604472406,
                -0.17280355610141768,
                -3.077058390575061
            ]
        }
    ]
}