{
    "goal": {
        "global_pose": {
            "orientation": {
                "w": -0.00223480608172531,
                "x": 0.0024358444001904467,
                "y": 0.7094548369677653,
                "z": -0.704743149386269
            },
            "position": {
                "x": -0.37947507619857795,
                "y": -0.6371506643295288,
                "z": 0.19426114857196808
            }
        },
        "name": "move_to_magneteinheit_C"
    },
    "id": "ProjEST_move_to_magneteinheit_C_60",
    "joint_names": [
        "shoulder_pan_joint",
        "shoulder_lift_joint",
        "elbow_joint",
        "wrist_1_joint",
        "wrist_2_joint",
        "wrist_3_joint"
    ],
    "metrics": {
        "cart_traj_len": 5.60637613105788,
        "distance_elbow_joint": 0.6772112007340585,
        "distance_shoulder_lift_joint": 3.0536609289741827,
        "distance_shoulder_pan_joint": 9.325119694276303,
        "distance_wrist_1_joint": 0.7385553497345326,
        "distance_wrist_2_joint": 3.5780530201274,
        "distance_wrist_3_joint": 5.051441611729754,
        "smoothness": 0.6014503293655447,
        "time": 1.0491430560000001,
        "traj_len": 4.735403024619577,
        "weighted_distance": 6.0698874288488796
    },
    "planner": "ProjEST",
    "start": {
        "state": {
            "elbow_joint": 1.9565354010623817,
            "shoulder_lift_joint": -1.4165861575791021,
            "shoulder_pan_joint": -1.6717766225146293,
            "wrist_1_joint": -0.5286633292919765,
            "wrist_2_joint": 1.472756589071564,
            "wrist_3_joint": -3.1238370188695823
        }
    },
    "waypoints": [
        {
            "positions": [
                -1.6717766225146293,
                -1.4165861575791021,
                1.9565354010623817,
                -0.5286633292919765,
                1.472756589071564,
                -3.1238370188695823
            ]
        },
        {
            "positions": [
                -1.5195931339906403,
                -1.4665876853898028,
                1.9695416187235206,
                -0.5207126810345931,
                1.3944511239474024,
                -3.0341390531543784
            ]
        },
        {
            "positions": [
                -1.3674096454666513,
                -1.5165892132005034,
                1.9825478363846596,
                -0.5127620327772097,
                1.316145658823241,
                -2.9444410874391744
            ]
        },
        {
            "positions": [
                -1.2152261569426623,
                -1.566590741011204,
                1.9955540540457983,
                -0.5048113845198263,
                1.2378401936990795,
                -2.85474312172397
            ]
        },
        {
            "positions": [
                -1.0630426684186733,
                -1.6165922688219048,
                2.0085602717069375,
                -0.4968607362624429,
                1.159534728574918,
                -2.765045156008766
            ]
        },
        {
            "positions": [
                -0.9108591798946843,
                -1.6665937966326054,
                2.0215664893680763,
                -0.48891008800505953,
                1.0812292634507565,
                -2.675347190293562
            ]
        },
        {
            "positions": [
                -0.7586756913706953,
                -1.716595324443306,
                2.034572707029215,
                -0.4809594397476762,
                1.002923798326595,
                -2.585649224578358
            ]
        },
        {
            "positions": [
                -0.6064922028467064,
                -1.7665968522540068,
                2.047578924690354,
                -0.4730087914902928,
                0.9246183332024336,
                -2.495951258863154
            ]
        },
        {
            "positions": [
                -0.45430871432271736,
                -1.8165983800647072,
                2.060585142351493,
                -0.4650581432329094,
                0.8463128680782721,
                -2.40625329314795
            ]
        },
        {
            "positions": [
                -0.30212522579872836,
                -1.866599907875408,
                2.073591360012632,
                -0.45710749497552605,
                0.7680074029541106,
                -2.316555327432746
            ]
        },
        {
            "positions": [
                -0.14994173727473936,
                -1.9166014356861085,
                2.086597577673771,
                -0.44915684671814265,
                0.6897019378299492,
                -2.226857361717542
            ]
        },
        {
            "positions": [
                0.002241751249249635,
                -1.9666029634968094,
                2.0996037953349096,
                -0.44120619846075926,
                0.6113964727057877,
                -2.137159396002338
            ]
        },
        {
            "positions": [
                0.15442523977323863,
                -2.01660449130751,
                2.112610012996049,
                -0.4332555502033759,
                0.5330910075816262,
                -2.047461430287134
            ]
        },
        {
            "positions": [
                0.30660872829722763,
                -2.0666060191182107,
                2.1256162306571875,
                -0.4253049019459925,
                0.4547855424574647,
                -1.9577634645719297
            ]
        },
        {
            "positions": [
                0.4587922168212166,
                -2.116607546928911,
                2.1386224483183263,
                -0.4173542536886091,
                0.37648007733330324,
                -1.8680654988567258
            ]
        },
        {
            "positions": [
                0.6109757053452054,
                -2.166609074739612,
                2.1516286659794654,
                -0.4094036054312257,
                0.29817461220914177,
                -1.7783675331415219
            ]
        },
        {
            "positions": [
                0.7631591938691946,
                -2.2166106025503125,
                2.164634883640604,
                -0.40145295717384233,
                0.2198691470849803,
                -1.688669567426318
            ]
        },
        {
            "positions": [
                0.9153426823931834,
                -2.266612130361013,
                2.1776411013017434,
                -0.393502308916459,
                0.1415636819608188,
                -1.5989716017111137
            ]
        },
        {
            "positions": [
                1.0675261709171726,
                -2.316613658171714,
                2.190647318962882,
                -0.3855516606590756,
                0.06325821683665733,
                -1.5092736359959096
            ]
        },
        {
            "positions": [
                1.2197096594411618,
                -2.3666151859824147,
                2.203653536624021,
                -0.3776010124016922,
                -0.015047248287504145,
                -1.4195756702807054
            ]
        },
        {
            "positions": [
                1.3718931479651506,
                -2.416616713793115,
                2.21665975428516,
                -0.36965036414430885,
                -0.09335271341166562,
                -1.3298777045655015
            ]
        },
        {
            "positions": [
                1.5240766364891398,
                -2.4666182416038156,
                2.229665971946299,
                -0.36169971588692545,
                -0.1716581785358271,
                -1.2401797388502975
            ]
        },
        {
            "positions": [
                1.6762601250131286,
                -2.5166197694145165,
                2.242672189607438,
                -0.35374906762954206,
                -0.24996364365998858,
                -1.1504817731350936
            ]
        },
        {
            "positions": [
                1.8284436135371174,
                -2.5666212972252174,
                2.2556784072685767,
                -0.3457984193721587,
                -0.32826910878415005,
                -1.0607838074198894
            ]
        },
        {
            "positions": [
                1.9806271020611066,
                -2.616622825035918,
                2.2686846249297155,
                -0.3378477711147753,
                -0.40657457390831153,
                -0.9710858417046855
            ]
        },
        {
            "positions": [
                2.1328105905850956,
                -2.6666243528466183,
                2.2816908425908546,
                -0.3298971228573919,
                -0.484880039032473,
                -0.8813878759894811
            ]
        },
        {
            "positions": [
                2.284994079109085,
                -2.716625880657319,
                2.2946970602519934,
                -0.3219464746000086,
                -0.5631855041566345,
                -0.7916899102742772
            ]
        },
        {
            "positions": [
                2.437177567633073,
                -2.76662740846802,
                2.3077032779131326,
                -0.31399582634262513,
                -0.6414909692807962,
                -0.7019919445590732
            ]
        },
        {
            "positions": [
                2.5893610561570624,
                -2.8166289362787205,
                2.3207094955742713,
                -0.3060451780852418,
                -0.7197964344049574,
                -0.6122939788438693
            ]
        },
        {
            "positions": [
                2.414740986653455,
                -2.7596076207520115,
                2.309915112601093,
                -0.3238361159655107,
                -0.6720205724514788,
                -0.6998766882129739
            ]
        },
        {
            "positions": [
                2.240120917149848,
                -2.702586305225302,
                2.299120729627915,
                -0.34162705384577957,
                -0.6242447104980001,
                -0.7874593975820786
            ]
        },
        {
            "positions": [
                2.065500847646241,
                -2.645564989698593,
                2.2883263466547366,
                -0.3594179917260485,
                -0.5764688485445215,
                -0.8750421069511833
            ]
        },
        {
            "positions": [
                1.890880778142634,
                -2.588543674171884,
                2.2775319636815583,
                -0.37720892960631736,
                -0.5286929865910428,
                -0.962624816320288
            ]
        },
        {
            "positions": [
                1.7162607086390267,
                -2.5315223586451747,
                2.26673758070838,
                -0.3949998674865863,
                -0.4809171246375642,
                -1.0502075256893928
            ]
        },
        {
            "positions": [
                1.5416406391354196,
                -2.4745010431184657,
                2.255943197735202,
                -0.41279080536685514,
                -0.4331412626840856,
                -1.1377902350584974
            ]
        },
        {
            "positions": [
                1.3670205696318125,
                -2.4174797275917568,
                2.2451488147620235,
                -0.43058174324712406,
                -0.3853654007306069,
                -1.225372944427602
            ]
        },
        {
            "positions": [
                1.1924005001282054,
                -2.3604584120650474,
                2.2343544317888453,
                -0.4483726811273929,
                -0.3375895387771283,
                -1.3129556537967066
            ]
        },
        {
            "positions": [
                1.017780430624598,
                -2.3034370965383384,
                2.223560048815667,
                -0.46616361900766184,
                -0.2898136768236496,
                -1.4005383631658113
            ]
        },
        {
            "positions": [
                0.843160361120991,
                -2.2464157810116294,
                2.212765665842489,
                -0.48395455688793076,
                -0.24203781487017095,
                -1.488121072534916
            ]
        },
        {
            "positions": [
                0.6685402916173842,
                -2.18939446548492,
                2.2019712828693105,
                -0.5017454947681996,
                -0.19426195291669235,
                -1.5757037819040207
            ]
        },
        {
            "positions": [
                0.49392022211377684,
                -2.132373149958211,
                2.1911768998961323,
                -0.5195364326484685,
                -0.14648609096321374,
                -1.6632864912731253
            ]
        },
        {
            "positions": [
                0.31930015261016953,
                -2.075351834431502,
                2.180382516922954,
                -0.5373273705287374,
                -0.09871022900973503,
                -1.7508692006422302
            ]
        },
        {
            "positions": [
                0.14468008310656266,
                -2.0183305189047926,
                2.169588133949776,
                -0.5551183084090063,
                -0.05093436705625631,
                -1.8384519100113348
            ]
        },
        {
            "positions": [
                -0.02993998639704465,
                -1.9613092033780837,
                2.1587937509765975,
                -0.5729092462892753,
                -0.003158505102777709,
                -1.9260346193804396
            ]
        },
        {
            "positions": [
                -0.20456005590065152,
                -1.9042878878513745,
                2.1479993680034197,
                -0.5907001841695441,
                0.044617356850700896,
                -2.013617328749544
            ]
        },
        {
            "positions": [
                -0.3791801254042584,
                -1.8472665723246653,
                2.1372049850302415,
                -0.608491122049813,
                0.0923932188041795,
                -2.1012000381186486
            ]
        },
        {
            "positions": [
                -0.5538001949078661,
                -1.790245256797956,
                2.1264106020570632,
                -0.6262820599300819,
                0.14016908075765822,
                -2.1887827474877533
            ]
        },
        {
            "positions": [
                -0.728420264411473,
                -1.7332239412712471,
                2.115616219083885,
                -0.6440729978103508,
                0.18794494271113682,
                -2.2763654568568583
            ]
        },
        {
            "positions": [
                -0.9030403339150803,
                -1.676202625744538,
                2.1048218361107067,
                -0.6618639356906197,
                0.23572080466461554,
                -2.363948166225963
            ]
        },
        {
            "positions": [
                -1.0776604034186872,
                -1.6191813102178287,
                2.0940274531375285,
                -0.6796548735708886,
                0.28349666661809425,
                -2.4515308755950675
            ]
        },
        {
            "positions": [
                -1.252280472922294,
                -1.5621599946911198,
                2.08323307016435,
                -0.6974458114511575,
                0.33127252857157274,
                -2.539113584964172
            ]
        },
        {
            "positions": [
                -1.4269005424259014,
                -1.5051386791644106,
                2.072438687191172,
                -0.7152367493314264,
                0.37904839052505146,
                -2.626696294333277
            ]
        },
        {
            "positions": [
                -1.6015206119295087,
                -1.4481173636377016,
                2.0616443042179937,
                -0.7330276872116952,
                0.42682425247852995,
                -2.7142790037023814
            ]
        },
        {
            "positions": [
                -1.776140681433116,
                -1.3910960481109924,
                2.0508499212448155,
                -0.7508186250919642,
                0.47460011443200867,
                -2.801861713071486
            ]
        },
        {
            "positions": [
                -1.9507607509367233,
                -1.3340747325842832,
                2.040055538271637,
                -0.768609562972233,
                0.5223759763854874,
                -2.889444422440591
            ]
        },
        {
            "positions": [
                -2.1253808204403297,
                -1.2770534170575742,
                2.029261155298459,
                -0.7864005008525019,
                0.5701518383389659,
                -2.9770271318096957
            ]
        },
        {
            "positions": [
                -2.300000889943937,
                -1.2200321015308648,
                2.0184667723252807,
                -0.8041914387327709,
                0.6179277002924448,
                -3.0646098411788003
            ]
        },
        {
            "positions": [
                -2.474620959447545,
                -1.1630107860041559,
                2.0076723893521025,
                -0.8219823766130397,
                0.6657035622459234,
                -3.152192550547905
            ]
        }
    ]
}