{
    "goal": {
        "global_pose": {
            "orientation": {
                "w": 0.7047431468963623,
                "x": -0.7094548344612122,
                "y": 0.0024358443915843964,
                "z": -0.0022348060738295317
            },
            "position": {
                "x": 0.6094750761985779,
                "y": 0.3671506643295288,
                "z": 0.19426114857196808
            }
        },
        "name": "move_to_magneteinheit_A"
    },
    "id": "ProjEST_move_to_magneteinheit_A_122",
    "joint_names": [
        "shoulder_pan_joint",
        "shoulder_lift_joint",
        "elbow_joint",
        "wrist_1_joint",
        "wrist_2_joint",
        "wrist_3_joint"
    ],
    "metrics": {
        "cart_traj_len": 3.3082322822189445,
        "distance_elbow_joint": 3.9301031671196474,
        "distance_shoulder_lift_joint": 1.0837676589081813,
        "distance_shoulder_pan_joint": 2.8092926879390068,
        "distance_wrist_1_joint": 3.5354176339832746,
        "distance_wrist_2_joint": 2.497384685023376,
        "distance_wrist_3_joint": 1.6886391783071086,
        "smoothness": 0.17420993171731378,
        "time": 0.151039375,
        "traj_len": 3.9426647094675187,
        "weighted_distance": 4.995466513440107
    },
    "planner": "ProjEST",
    "start": {
        "state": {
            "elbow_joint": -1.9196185241190666,
            "shoulder_lift_joint": -1.2443396400964142,
            "shoulder_pan_joint": 2.6996025414629847,
            "wrist_1_joint": -1.5485510000780065,
            "wrist_2_joint": -1.5709468930060704,
            "wrist_3_joint": 0.4420197071253992
        }
    },
    "waypoints": [
        {
            "positions": [
                2.6996025414629847,
                -1.2443396400964142,
                -1.9196185241190666,
                -1.5485510000780065,
                -1.5709468930060704,
                0.4420197071253992
            ]
        },
        {
            "positions": [
                2.601693595692035,
                -1.2563246619115729,
                -1.7904629872717348,
                -1.519568000157631,
                -1.4950616154219352,
                0.39976902875915005
            ]
        },
        {
            "positions": [
                2.5037846499210854,
                -1.2683096837267314,
                -1.661307450424403,
                -1.4905850002372556,
                -1.4191763378378002,
                0.357518350392901
            ]
        },
        {
            "positions": [
                2.4058757041501355,
                -1.28029470554189,
                -1.5321519135770714,
                -1.4616020003168804,
                -1.343291060253665,
                0.31526767202665185
            ]
        },
        {
            "positions": [
                2.307966758379186,
                -1.2922797273570485,
                -1.4029963767297395,
                -1.432619000396505,
                -1.2674057826695297,
                0.2730169936604028
            ]
        },
        {
            "positions": [
                2.210057812608236,
                -1.3042647491722072,
                -1.273840839882408,
                -1.4036360004761295,
                -1.1915205050853945,
                0.23076631529415362
            ]
        },
        {
            "positions": [
                2.1121488668372868,
                -1.3162497709873657,
                -1.144685303035076,
                -1.374653000555754,
                -1.1156352275012595,
                0.18851563692790452
            ]
        },
        {
            "positions": [
                2.014239921066337,
                -1.3282347928025244,
                -1.0155297661877443,
                -1.3456700006353786,
                -1.0397499499171245,
                0.14626495856165544
            ]
        },
        {
            "positions": [
                1.9163309752953872,
                -1.340219814617683,
                -0.8863742293404124,
                -1.316687000715003,
                -0.9638646723329892,
                0.10401428019540632
            ]
        },
        {
            "positions": [
                1.8184220295244375,
                -1.3522048364328416,
                -0.7572186924930808,
                -1.2877040007946279,
                -0.8879793947488541,
                0.061763601829157244
            ]
        },
        {
            "positions": [
                1.7205130837534879,
                -1.364189858248,
                -0.628063155645749,
                -1.2587210008742524,
                -0.8120941171647189,
                0.01951292346290806
            ]
        },
        {
            "positions": [
                1.6226041379825382,
                -1.3761748800631588,
                -0.49890761879841716,
                -1.229738000953877,
                -0.7362088395805838,
                -0.022737754903341012
            ]
        },
        {
            "positions": [
                1.5246951922115886,
                -1.3881599018783173,
                -0.36975208195108533,
                -1.2007550010335015,
                -0.6603235619964486,
                -0.06498843326959014
            ]
        },
        {
            "positions": [
                1.426786246440639,
                -1.400144923693476,
                -0.24059654510375372,
                -1.1717720011131263,
                -0.5844382844123135,
                -0.10723911163583921
            ]
        },
        {
            "positions": [
                1.3288773006696892,
                -1.4121299455086347,
                -0.11144100825642211,
                -1.1427890011927508,
                -0.5085530068281785,
                -0.14948979000208829
            ]
        },
        {
            "positions": [
                1.2309683548987396,
                -1.4241149673237932,
                0.017714528590909717,
                -1.1138060012723754,
                -0.4326677292440433,
                -0.19174046836833736
            ]
        },
        {
            "positions": [
                1.1330594091277897,
                -1.4360999891389519,
                0.14687006543824177,
                -1.084823001352,
                -0.3567824516599081,
                -0.23399114673458654
            ]
        },
        {
            "positions": [
                1.0351504633568402,
                -1.4480850109541104,
                0.27602560228557316,
                -1.0558400014316245,
                -0.28089717407577286,
                -0.2762418251008356
            ]
        },
        {
            "positions": [
                0.9372415175858906,
                -1.460070032769269,
                0.405181139132905,
                -1.026857001511249,
                -0.20501189649163787,
                -0.3184925034670847
            ]
        },
        {
            "positions": [
                0.8393325718149409,
                -1.4720550545844275,
                0.5343366759802368,
                -0.9978740015908738,
                -0.12912661890750265,
                -0.36074318183333376
            ]
        },
        {
            "positions": [
                0.741423626043991,
                -1.4840400763995862,
                0.6634922128275687,
                -0.9688910016704982,
                -0.05324134132336744,
                -0.40299386019958305
            ]
        },
        {
            "positions": [
                0.6435146802730416,
                -1.4960250982147447,
                0.7926477496749005,
                -0.9399080017501229,
                0.022643936260767772,
                -0.4452445385658321
            ]
        },
        {
            "positions": [
                0.5456057345020917,
                -1.5080101200299034,
                0.9218032865222323,
                -0.9109250018297476,
                0.09852921384490276,
                -0.4874952169320812
            ]
        },
        {
            "positions": [
                0.44769678873114227,
                -1.519995141845062,
                1.0509588233695637,
                -0.8819420019093721,
                0.17441449142903798,
                -0.5297458952983303
            ]
        },
        {
            "positions": [
                0.3497878429601924,
                -1.5319801636602206,
                1.180114360216896,
                -0.8529590019889967,
                0.2502997690131732,
                -0.5719965736645795
            ]
        },
        {
            "positions": [
                0.2518788971892425,
                -1.543965185475379,
                1.3092698970642274,
                -0.8239760020686212,
                0.3261850465973084,
                -0.6142472520308285
            ]
        },
        {
            "positions": [
                0.1539699514182929,
                -1.5559502072905378,
                1.4384254339115592,
                -0.7949930021482459,
                0.4020703241814435,
                -0.6564979303970775
            ]
        },
        {
            "positions": [
                0.12763895632292932,
                -1.507168162270804,
                1.4606382520980692,
                -0.6332406859308992,
                0.36192655790405054,
                -0.6318876795814776
            ]
        },
        {
            "positions": [
                0.10130796122756572,
                -1.4583861172510704,
                1.4828510702845794,
                -0.4714883697135526,
                0.32178279162665757,
                -0.6072774287658779
            ]
        },
        {
            "positions": [
                0.07497696613220214,
                -1.4096040722313365,
                1.5050638884710894,
                -0.3097360534962061,
                0.28163902534926466,
                -0.582667177950278
            ]
        },
        {
            "positions": [
                0.04864597103683854,
                -1.360822027211603,
                1.5272767066575996,
                -0.14798373727885938,
                0.24149525907187167,
                -0.5580569271346782
            ]
        },
        {
            "positions": [
                0.022314975941474975,
                -1.3120399821918691,
                1.5494895248441096,
                0.013768578938487153,
                0.20135149279447873,
                -0.5334466763190784
            ]
        },
        {
            "positions": [
                0.01967694569867518,
                -1.255867580752973,
                1.5884498583523958,
                0.21485290469970333,
                0.16329486079924505,
                -0.4898618773549658
            ]
        },
        {
            "positions": [
                0.017038915455875388,
                -1.1996951793140764,
                1.627410191860682,
                0.4159372304609195,
                0.12523822880401134,
                -0.4462770783908532
            ]
        },
        {
            "positions": [
                0.01440088521307559,
                -1.1435227778751802,
                1.6663705253689685,
                0.6170215562221357,
                0.08718159680877763,
                -0.4026922794267405
            ]
        },
        {
            "positions": [
                0.011762854970275797,
                -1.087350376436284,
                1.7053308588772547,
                0.8181058819833519,
                0.04912496481354395,
                -0.3591074804626279
            ]
        },
        {
            "positions": [
                0.009124824727476,
                -1.0311779749973875,
                1.7442911923855409,
                1.0191902077445683,
                0.011068332818310211,
                -0.31552268149851526
            ]
        },
        {
            "positions": [
                0.006486794484676206,
                -0.9750055735584913,
                1.783251525893827,
                1.2202745335057843,
                -0.026988299176923476,
                -0.27193788253440265
            ]
        },
        {
            "positions": [
                0.02972218267681558,
                -0.936763081962089,
                1.8286981493151777,
                1.373592953585681,
                -0.046050068072422595,
                -0.23082558395001138
            ]
        },
        {
            "positions": [
                0.05295757086895495,
                -0.8985205903656868,
                1.8741447727365281,
                1.5269113736655777,
                -0.06511183696792171,
                -0.1897132853656201
            ]
        },
        {
            "positions": [
                0.07619295906109431,
                -0.8602780987692846,
                1.9195913961578788,
                1.6802297937454744,
                -0.08417360586342082,
                -0.1486009867812288
            ]
        },
        {
            "positions": [
                0.0994283472532337,
                -0.8220356071728824,
                1.9650380195792292,
                1.8335482138253711,
                -0.10323537475891995,
                -0.10748868819683752
            ]
        },
        {
            "positions": [
                0.12266373544537307,
                -0.7837931155764801,
                2.01048464300058,
                1.9868666339052679,
                -0.12229714365441904,
                -0.06637638961244623
            ]
        }
    ]
}