{
    "goal": {
        "global_pose": {
            "orientation": {
                "w": -0.4816463035849501,
                "x": 0.5182115481033762,
                "y": 0.4908360881923453,
                "z": -0.5084816262002911
            },
            "position": {
                "x": -0.8240239810943604,
                "y": -0.300875300988555,
                "z": 0.16403168439865112
            }
        },
        "name": "move_to_storage_C"
    },
    "id": "ProjEST_move_to_storage_C_79",
    "joint_names": [
        "shoulder_pan_joint",
        "shoulder_lift_joint",
        "elbow_joint",
        "wrist_1_joint",
        "wrist_2_joint",
        "wrist_3_joint"
    ],
    "metrics": {
        "cart_traj_len": 0.5767363867677338,
        "distance_elbow_joint": 0.25735970183231993,
        "distance_shoulder_lift_joint": 0.19036332290581803,
        "distance_shoulder_pan_joint": 0.4927926748521374,
        "distance_wrist_1_joint": 0.07076924364127257,
        "distance_wrist_2_joint": 1.081193994108185,
        "distance_wrist_3_joint": 0.05795248065789327,
        "smoothness": 0.0,
        "time": 0.022323461,
        "traj_len": 1.4664349347985497,
        "weighted_distance": 1.8488644128391
    },
    "planner": "ProjEST",
    "start": {
        "state": {
            "elbow_joint": 2.010868314990456,
            "shoulder_lift_joint": -1.1634956873337592,
            "shoulder_pan_joint": -2.4736205022346125,
            "wrist_1_joint": -0.8367026794202681,
            "wrist_2_joint": 0.6746043897044499,
            "wrist_3_joint": -3.1496632123970403
        }
    },
    "waypoints": [
        {
            "positions": [
                -2.4736205022346125,
                -1.1634956873337592,
                2.010868314990456,
                -0.8367026794202681,
                0.6746043897044499,
                -3.1496632123970403
            ]
        },
        {
            "positions": [
                -2.5557526147099687,
                -1.131768466849456,
                1.967975031351736,
                -0.824907805480056,
                0.8548033887224807,
                -3.140004465620725
            ]
        },
        {
            "positions": [
                -2.637884727185325,
                -1.1000412463651532,
                1.9250817477130158,
                -0.8131129315398439,
                1.0350023877405117,
                -3.130345718844409
            ]
        },
        {
            "positions": [
                -2.720016839660681,
                -1.0683140258808501,
                1.8821884640742959,
                -0.8013180575996318,
                1.2152013867585425,
                -3.1206869720680936
            ]
        },
        {
            "positions": [
                -2.8021489521360374,
                -1.0365868053965472,
                1.839295180435576,
                -0.7895231836594198,
                1.3954003857765733,
                -3.1110282252917782
            ]
        },
        {
            "positions": [
                -2.8842810646113937,
                -1.0048595849122441,
                1.7964018967968558,
                -0.7777283097192076,
                1.5755993847946042,
                -3.1013694785154624
            ]
        },
        {
            "positions": [
                -2.96641317708675,
                -0.9731323644279412,
                1.7535086131581359,
                -0.7659334357789955,
                1.755798383812635,
                -3.091710731739147
            ]
        }
    ]
}