{
    "goal": {
        "global_pose": {
            "orientation": {
                "w": 0.005598929693374612,
                "x": 0.007748599140229565,
                "y": 0.7110244013736278,
                "z": -0.7031023480610252
            },
            "position": {
                "x": 0.1141497679147869,
                "y": -0.7141253447532654,
                "z": 0.3711530566215515
            }
        },
        "name": "move_to_auspresseinheit_B"
    },
    "id": "ProjEST_move_to_auspresseinheit_B_11",
    "joint_names": [
        "shoulder_pan_joint",
        "shoulder_lift_joint",
        "elbow_joint",
        "wrist_1_joint",
        "wrist_2_joint",
        "wrist_3_joint"
    ],
    "metrics": {
        "cart_traj_len": 0.5645959450882945,
        "distance_elbow_joint": 0.06491610855341734,
        "distance_shoulder_lift_joint": 0.2949964365735984,
        "distance_shoulder_pan_joint": 0.5777871264913617,
        "distance_wrist_1_joint": 0.338741488876928,
        "distance_wrist_2_joint": 0.9900296866056284,
        "distance_wrist_3_joint": 0.006734269880440902,
        "smoothness": 3.806478935924272e-16,
        "time": 0.32157344699999996,
        "traj_len": 1.5077151975692806,
        "weighted_distance": 1.9014323107133773
    },
    "planner": "ProjEST",
    "start": {
        "state": {
            "elbow_joint": 2.0193083361928714,
            "shoulder_lift_joint": -1.1220246554650708,
            "shoulder_pan_joint": -1.0952077554168747,
            "wrist_1_joint": -0.8559753972642168,
            "wrist_2_joint": 0.4759566250798843,
            "wrist_3_joint": -3.1240929996934557
        }
    },
    "waypoints": [
        {
            "positions": [
                -1.0952077554168747,
                -1.1220246554650708,
                2.0193083361928714,
                -0.8559753972642168,
                0.4759566250798843,
                -3.1240929996934557
            ]
        },
        {
            "positions": [
                -1.1915056098321015,
                -1.1711907282273373,
                2.0084889847673018,
                -0.7995184824513955,
                0.640961572847489,
                -3.1252153780068626
            ]
        },
        {
            "positions": [
                -1.2878034642473286,
                -1.2203568009896035,
                1.9976696333417323,
                -0.7430615676385741,
                0.8059665206150937,
                -3.1263377563202694
            ]
        },
        {
            "positions": [
                -1.3841013186625555,
                -1.26952287375187,
                1.9868502819161629,
                -0.6866046528257528,
                0.9709714683826984,
                -3.127460134633676
            ]
        },
        {
            "positions": [
                -1.4803991730777823,
                -1.3186889465141365,
                1.9760309304905932,
                -0.6301477380129314,
                1.1359764161503032,
                -3.128582512947083
            ]
        },
        {
            "positions": [
                -1.5766970274930094,
                -1.3678550192764027,
                1.9652115790650235,
                -0.5736908232001101,
                1.300981363917908,
                -3.1297048912604897
            ]
        },
        {
            "positions": [
                -1.6729948819082363,
                -1.4170210920386692,
                1.954392227639454,
                -0.5172339083872888,
                1.4659863116855127,
                -3.1308272695738966
            ]
        }
    ]
}