{
    "goal": {
        "global_pose": {
            "orientation": {
                "w": 0.005598929693374612,
                "x": 0.007748599140229565,
                "y": 0.7110244013736278,
                "z": -0.7031023480610252
            },
            "position": {
                "x": -0.8858502320852131,
                "y": -0.7141253447532654,
                "z": 0.3711530566215515
            }
        },
        "name": "move_to_auspresseinheit_C"
    },
    "id": "ProjEST_move_to_auspresseinheit_C_114",
    "joint_names": [
        "shoulder_pan_joint",
        "shoulder_lift_joint",
        "elbow_joint",
        "wrist_1_joint",
        "wrist_2_joint",
        "wrist_3_joint"
    ],
    "metrics": {
        "cart_traj_len": 0.49205692111715243,
        "distance_elbow_joint": 0.9885707622771479,
        "distance_shoulder_lift_joint": 0.3196487696216097,
        "distance_shoulder_pan_joint": 0.25586419761025203,
        "distance_wrist_1_joint": 0.6540667693256335,
        "distance_wrist_2_joint": 1.3177276184494584,
        "distance_wrist_3_joint": 0.04790812238620301,
        "smoothness": 9.689219149575433e-16,
        "time": 1.496765041,
        "traj_len": 1.8930890733587535,
        "weighted_distance": 2.377266680921138
    },
    "planner": "ProjEST",
    "start": {
        "state": {
            "elbow_joint": 1.7527959577737207,
            "shoulder_lift_joint": -0.9740617694225068,
            "shoulder_pan_joint": -2.967991417825858,
            "wrist_1_joint": -0.759517768980727,
            "wrist_2_joint": 1.7443932448377408,
            "wrist_3_joint": -3.0840537646736568
        }
    },
    "waypoints": [
        {
            "positions": [
                -2.967991417825858,
                -0.9740617694225068,
                1.7527959577737207,
                -0.759517768980727,
                1.7443932448377408,
                -3.0840537646736568
            ]
        },
        {
            "positions": [
                -2.942404998064833,
                -0.9420968924603458,
                1.6539388815460059,
                -0.6941110920481637,
                1.612620482992795,
                -3.088844576912277
            ]
        },
        {
            "positions": [
                -2.9168185783038076,
                -0.9101320154981848,
                1.555081805318291,
                -0.6287044151156003,
                1.4808477211478492,
                -3.093635389150897
            ]
        },
        {
            "positions": [
                -2.8912321585427825,
                -0.8781671385360239,
                1.4562247290905763,
                -0.563297738183037,
                1.3490749593029032,
                -3.098426201389518
            ]
        },
        {
            "positions": [
                -2.8656457387817573,
                -0.8462022615738629,
                1.3573676528628615,
                -0.4978910612504736,
                1.2173021974579574,
                -3.103217013628138
            ]
        },
        {
            "positions": [
                -2.8400593190207317,
                -0.8142373846117019,
                1.2585105766351468,
                -0.43248438431791025,
                1.0855294356130116,
                -3.1080078258667583
            ]
        },
        {
            "positions": [
                -2.8144728992597066,
                -0.7822725076495409,
                1.159653500407432,
                -0.3670777073853469,
                0.9537566737680658,
                -3.1127986381053785
            ]
        },
        {
            "positions": [
                -2.7888864794986814,
                -0.7503076306873799,
                1.0607964241797172,
                -0.3016710304527836,
                0.82198391192312,
                -3.1175894503439987
            ]
        },
        {
            "positions": [
                -2.7633000597376562,
                -0.7183427537252189,
                0.9619393479520023,
                -0.23626435352022024,
                0.690211150078174,
                -3.1223802625826194
            ]
        },
        {
            "positions": [
                -2.737713639976631,
                -0.686377876763058,
                0.8630822717242875,
                -0.17085767658765683,
                0.5584383882332282,
                -3.1271710748212396
            ]
        },
        {
            "positions": [
                -2.712127220215606,
                -0.6544129998008971,
                0.7642251954965728,
                -0.10545099965509355,
                0.42666562638828254,
                -3.13196188705986
            ]
        }
    ]
}