{
    "goal": {
        "global_pose": {
            "orientation": {
                "w": -0.4816463035849501,
                "x": 0.5182115481033762,
                "y": 0.4908360881923453,
                "z": -0.5084816262002911
            },
            "position": {
                "x": -0.8240239810943604,
                "y": -0.300875300988555,
                "z": 0.16403168439865112
            }
        },
        "name": "move_to_storage_C"
    },
    "id": "ProjEST_move_to_storage_C_132",
    "joint_names": [
        "shoulder_pan_joint",
        "shoulder_lift_joint",
        "elbow_joint",
        "wrist_1_joint",
        "wrist_2_joint",
        "wrist_3_joint"
    ],
    "metrics": {
        "cart_traj_len": 0.576616866911917,
        "distance_elbow_joint": 0.254404804076777,
        "distance_shoulder_lift_joint": 0.18856205064407394,
        "distance_shoulder_pan_joint": 0.49551885723630784,
        "distance_wrist_1_joint": 0.06758308804262558,
        "distance_wrist_2_joint": 1.0650373756897213,
        "distance_wrist_3_joint": 0.07296275385611217,
        "smoothness": 2.5376526478085547e-16,
        "time": 0.029883847,
        "traj_len": 1.4642639548748095,
        "weighted_distance": 1.8500310540610363
    },
    "planner": "ProjEST",
    "start": {
        "state": {
            "elbow_joint": 2.010868314990456,
            "shoulder_lift_joint": -1.1634956873337592,
            "shoulder_pan_joint": -2.4736205022346125,
            "wrist_1_joint": -0.8367026794202681,
            "wrist_2_joint": 0.6746043897044499,
            "wrist_3_joint": -3.1496632123970403
        }
    },
    "waypoints": [
        {
            "positions": [
                -2.4736205022346125,
                -1.1634956873337592,
                2.010868314990456,
                -0.8367026794202681,
                0.6746043897044499,
                -3.1496632123970403
            ]
        },
        {
            "positions": [
                -2.556206978440664,
                -1.1320686788930803,
                1.9684675143109929,
                -0.8254388314131639,
                0.8521106189860701,
                -3.1375027534210216
            ]
        },
        {
            "positions": [
                -2.638793454646715,
                -1.1006416704524011,
                1.9260667136315301,
                -0.8141749834060595,
                1.0296168482676904,
                -3.125342294445003
            ]
        },
        {
            "positions": [
                -2.721379930852766,
                -1.0692146620117222,
                1.8836659129520674,
                -0.8029111353989553,
                1.2071230775493107,
                -3.113181835468984
            ]
        },
        {
            "positions": [
                -2.8039664070588177,
                -1.0377876535710433,
                1.8412651122726045,
                -0.7916472873918511,
                1.3846293068309308,
                -3.1010213764929655
            ]
        },
        {
            "positions": [
                -2.8865528832648693,
                -1.0063606451303642,
                1.7988643115931415,
                -0.7803834393847467,
                1.562135536112551,
                -3.088860917516947
            ]
        },
        {
            "positions": [
                -2.9691393594709203,
                -0.9749336366896852,
                1.7564635109136788,
                -0.7691195913776425,
                1.7396417653941714,
                -3.076700458540928
            ]
        }
    ]
}