{
    "goal": {
        "global_pose": {
            "orientation": {
                "w": -0.00223480608172531,
                "x": 0.0024358444001904467,
                "y": 0.7094548369677653,
                "z": -0.704743149386269
            },
            "position": {
                "x": -0.37947507619857795,
                "y": -0.6371506643295288,
                "z": 0.19426114857196808
            }
        },
        "name": "move_to_magneteinheit_C"
    },
    "id": "ProjEST_move_to_magneteinheit_C_21",
    "joint_names": [
        "shoulder_pan_joint",
        "shoulder_lift_joint",
        "elbow_joint",
        "wrist_1_joint",
        "wrist_2_joint",
        "wrist_3_joint"
    ],
    "metrics": {
        "cart_traj_len": 4.9785779395758505,
        "distance_elbow_joint": 0.2517813273359115,
        "distance_shoulder_lift_joint": 3.819542381708696,
        "distance_shoulder_pan_joint": 5.566612901749833,
        "distance_wrist_1_joint": 3.5054388612045204,
        "distance_wrist_2_joint": 2.737701969499904,
        "distance_wrist_3_joint": 1.447862146049263,
        "smoothness": 0.816649903122228,
        "time": 0.9394263970000001,
        "traj_len": 4.162804293688106,
        "weighted_distance": 5.1446870371628135
    },
    "planner": "ProjEST",
    "start": {
        "state": {
            "elbow_joint": 1.9565354010623817,
            "shoulder_lift_joint": -1.4165861575791021,
            "shoulder_pan_joint": -1.6717766225146293,
            "wrist_1_joint": -0.5286633292919765,
            "wrist_2_joint": 1.472756589071564,
            "wrist_3_joint": -3.1238370188695823
        }
    },
    "waypoints": [
        {
            "positions": [
                -1.6717766225146293,
                -1.4165861575791021,
                1.9565354010623817,
                -0.5286633292919765,
                1.472756589071564,
                -3.1238370188695823
            ]
        },
        {
            "positions": [
                -1.6371870363814323,
                -1.4334569074285566,
                1.9674423523728668,
                -0.48661300576757427,
                1.3290966483880484,
                -3.022596517488722
            ]
        },
        {
            "positions": [
                -1.6025974502482352,
                -1.450327657278011,
                1.9783493036833517,
                -0.4445626822431721,
                1.185436707704533,
                -2.9213560161078624
            ]
        },
        {
            "positions": [
                -1.5680078641150381,
                -1.4671984071274655,
                1.9892562549938368,
                -0.4025123587187699,
                1.0417767670210172,
                -2.8201155147270023
            ]
        },
        {
            "positions": [
                -1.5334182779818408,
                -1.4840691569769198,
                2.0001632063043218,
                -0.36046203519436765,
                0.8981168263375017,
                -2.718875013346142
            ]
        },
        {
            "positions": [
                -1.4988286918486438,
                -1.5009399068263742,
                2.0110701576148067,
                -0.3184117116699654,
                0.754456885653986,
                -2.6176345119652824
            ]
        },
        {
            "positions": [
                -1.4642391057154467,
                -1.5178106566758287,
                2.021977108925292,
                -0.27636138814556327,
                0.6107969449704705,
                -2.5163940105844222
            ]
        },
        {
            "positions": [
                -1.4296495195822496,
                -1.5346814065252832,
                2.032884060235777,
                -0.23431106462116102,
                0.4671370042869549,
                -2.415153509203562
            ]
        },
        {
            "positions": [
                -1.3107471591353208,
                -1.6271845948364136,
                2.027315182003258,
                -0.3398916650656705,
                0.4246663647455585,
                -2.4387744229258796
            ]
        },
        {
            "positions": [
                -1.1918447986883922,
                -1.7196877831475441,
                2.021746303770739,
                -0.44547226551017993,
                0.3821957252041621,
                -2.4623953366481977
            ]
        },
        {
            "positions": [
                -1.0729424382414634,
                -1.8121909714586746,
                2.01617742553822,
                -0.5510528659546894,
                0.33972508566276577,
                -2.486016250370515
            ]
        },
        {
            "positions": [
                -0.9540400777945347,
                -1.904694159769805,
                2.010608547305701,
                -0.6566334663991988,
                0.29725444612136936,
                -2.5096371640928328
            ]
        },
        {
            "positions": [
                -0.8351377173476059,
                -1.9971973480809355,
                2.0050396690731827,
                -0.7622140668437083,
                0.25478380657997296,
                -2.5332580778151508
            ]
        },
        {
            "positions": [
                -0.7162353569006772,
                -2.0897005363920655,
                1.9994707908406635,
                -0.8677946672882176,
                0.2123131670385766,
                -2.5568789915374683
            ]
        },
        {
            "positions": [
                -0.5973329964537485,
                -2.1822037247031965,
                1.9939019126081448,
                -0.9733752677327271,
                0.16984252749718015,
                -2.580499905259786
            ]
        },
        {
            "positions": [
                -0.4784306360068198,
                -2.2747069130143265,
                1.9883330343756258,
                -1.0789558681772364,
                0.1273718879557838,
                -2.604120818982104
            ]
        },
        {
            "positions": [
                -0.359528275559891,
                -2.3672101013254574,
                1.9827641561431069,
                -1.1845364686217459,
                0.0849012484143874,
                -2.6277417327044215
            ]
        },
        {
            "positions": [
                -0.24062591511296216,
                -2.4597132896365874,
                1.977195277910588,
                -1.2901170690662556,
                0.042430608872990994,
                -2.651362646426739
            ]
        },
        {
            "positions": [
                -0.12172355466603335,
                -2.5522164779477183,
                1.971626399678069,
                -1.395697669510765,
                -4.003066840541081e-05,
                -2.674983560149057
            ]
        },
        {
            "positions": [
                -0.002821194219104761,
                -2.6447196662588484,
                1.9660575214455502,
                -1.5012782699552742,
                -0.042510670209801704,
                -2.6986044738713746
            ]
        },
        {
            "positions": [
                0.11608116622782405,
                -2.737222854569979,
                1.9604886432130313,
                -1.6068588703997837,
                -0.08498130975119811,
                -2.722225387593692
            ]
        },
        {
            "positions": [
                0.23498352667475264,
                -2.8297260428811093,
                1.9549197649805123,
                -1.7124394708442932,
                -0.12745194929259462,
                -2.74584630131601
            ]
        },
        {
            "positions": [
                0.35388588712168145,
                -2.92222923119224,
                1.9493508867479934,
                -1.8180200712888026,
                -0.16992258883399103,
                -2.7694672150383277
            ]
        },
        {
            "positions": [
                0.47278824756861004,
                -3.0147324195033702,
                1.9437820085154747,
                -1.923600671733312,
                -0.21239322837538732,
                -2.7930881287606453
            ]
        },
        {
            "positions": [
                0.5916906080155391,
                -3.1072356078145007,
                1.9382131302829557,
                -2.0291812721778215,
                -0.2548638679167837,
                -2.8167090424829633
            ]
        },
        {
            "positions": [
                0.7105929684624677,
                -3.199738796125631,
                1.9326442520504368,
                -2.134761872622331,
                -0.29733450745818013,
                -2.840329956205281
            ]
        },
        {
            "positions": [
                0.5513808029238307,
                -3.0979193089675228,
                1.9364038950492957,
                -2.0692300831957042,
                -0.24895396380967214,
                -2.856030065674357
            ]
        },
        {
            "positions": [
                0.3921686373851938,
                -2.9960998218094144,
                1.9401635380481543,
                -2.0036982937690775,
                -0.20057342016116414,
                -2.8717301751434334
            ]
        },
        {
            "positions": [
                0.232956471846557,
                -2.8942803346513064,
                1.9439231810470132,
                -1.9381665043424507,
                -0.15219287651265617,
                -2.8874302846125093
            ]
        },
        {
            "positions": [
                0.07374430630791995,
                -2.792460847493198,
                1.947682824045872,
                -1.872634714915824,
                -0.10381233286414815,
                -2.9031303940815856
            ]
        },
        {
            "positions": [
                -0.08546785923071687,
                -2.6906413603350896,
                1.9514424670447308,
                -1.8071029254891973,
                -0.05543178921564018,
                -2.918830503550662
            ]
        },
        {
            "positions": [
                -0.2446800247693537,
                -2.588821873176981,
                1.9552021100435897,
                -1.7415711360625705,
                -0.007051245567132214,
                -2.934530613019738
            ]
        },
        {
            "positions": [
                -0.4038921903079906,
                -2.4870023860188732,
                1.9589617530424484,
                -1.6760393466359438,
                0.041329298081375754,
                -2.9502307224888145
            ]
        },
        {
            "positions": [
                -0.5631043558466278,
                -2.385182898860765,
                1.9627213960413072,
                -1.610507557209317,
                0.08970984172988383,
                -2.9659308319578903
            ]
        },
        {
            "positions": [
                -0.7223165213852645,
                -2.2833634117026564,
                1.966481039040166,
                -1.5449757677826903,
                0.1380903853783918,
                -2.9816309414269666
            ]
        },
        {
            "positions": [
                -0.8815286869239014,
                -2.181543924544548,
                1.9702406820390248,
                -1.4794439783560636,
                0.18647092902689977,
                -2.997331050896043
            ]
        },
        {
            "positions": [
                -1.0407408524625386,
                -2.0797244373864396,
                1.9740003250378837,
                -1.4139121889294368,
                0.23485147267540785,
                -3.013031160365119
            ]
        },
        {
            "positions": [
                -1.199953018001175,
                -1.9779049502283315,
                1.9777599680367424,
                -1.34838039950281,
                0.2832320163239157,
                -3.0287312698341955
            ]
        },
        {
            "positions": [
                -1.3591651835398122,
                -1.876085463070223,
                1.9815196110356013,
                -1.2828486100761833,
                0.3316125599724238,
                -3.0444313793032713
            ]
        },
        {
            "positions": [
                -1.518377349078449,
                -1.7742659759121149,
                1.98527925403446,
                -1.2173168206495566,
                0.37999310362093164,
                -3.0601314887723476
            ]
        },
        {
            "positions": [
                -1.677589514617086,
                -1.6724464887540065,
                1.9890388970333188,
                -1.1517850312229299,
                0.4283736472694397,
                -3.075831598241424
            ]
        },
        {
            "positions": [
                -1.8368016801557232,
                -1.570627001595898,
                1.9927985400321777,
                -1.0862532417963031,
                0.4767541909179478,
                -3.0915317077105002
            ]
        },
        {
            "positions": [
                -1.9960138456943595,
                -1.46880751443779,
                1.9965581830310364,
                -1.0207214523696764,
                0.5251347345664557,
                -3.1072318171795765
            ]
        },
        {
            "positions": [
                -2.1552260112329966,
                -1.3669880272796815,
                2.000317826029895,
                -0.9551896629430496,
                0.5735152782149637,
                -3.1229319266486524
            ]
        },
        {
            "positions": [
                -2.3144381767716333,
                -1.2651685401215733,
                2.004077469028754,
                -0.8896578735164229,
                0.6218958218634716,
                -3.1386320361177287
            ]
        },
        {
            "positions": [
                -2.4736503423102705,
                -1.163349052963465,
                2.007837112027613,
                -0.8241260840897963,
                0.6702763655119797,
                -3.154332145586805
            ]
        }
    ]
}