{
    "goal": {
        "global_pose": {
            "orientation": {
                "w": 0.7047431468963623,
                "x": -0.7094548344612122,
                "y": 0.0024358443915843964,
                "z": -0.0022348060738295317
            },
            "position": {
                "x": 0.6094750761985779,
                "y": 0.3671506643295288,
                "z": 0.19426114857196808
            }
        },
        "name": "move_to_magneteinheit_A"
    },
    "id": "ProjEST_move_to_magneteinheit_A_147",
    "joint_names": [
        "shoulder_pan_joint",
        "shoulder_lift_joint",
        "elbow_joint",
        "wrist_1_joint",
        "wrist_2_joint",
        "wrist_3_joint"
    ],
    "metrics": {
        "cart_traj_len": 3.129759123169213,
        "distance_elbow_joint": 3.932175222145739,
        "distance_shoulder_lift_joint": 0.6983259582293235,
        "distance_shoulder_pan_joint": 3.198362819304971,
        "distance_wrist_1_joint": 3.5419207633264156,
        "distance_wrist_2_joint": 1.4520787516674094,
        "distance_wrist_3_joint": 1.663448602779784,
        "smoothness": 0.15279457671119412,
        "time": 0.143649906,
        "traj_len": 3.80608882154025,
        "weighted_distance": 4.775689357360571
    },
    "planner": "ProjEST",
    "start": {
        "state": {
            "elbow_joint": -1.9196185241190666,
            "shoulder_lift_joint": -1.2443396400964142,
            "shoulder_pan_joint": 2.6996025414629847,
            "wrist_1_joint": -1.5485510000780065,
            "wrist_2_joint": -1.5709468930060704,
            "wrist_3_joint": 0.4420197071253992
        }
    },
    "waypoints": [
        {
            "positions": [
                2.6996025414629847,
                -1.2443396400964142,
                -1.9196185241190666,
                -1.5485510000780065,
                -1.5709468930060704,
                0.4420197071253992
            ]
        },
        {
            "positions": [
                2.5885198360294526,
                -1.2489611783375867,
                -1.7828569931838425,
                -1.47634939256405,
                -1.5419305114205701,
                0.39990039451667764
            ]
        },
        {
            "positions": [
                2.4774371305959204,
                -1.2535827165787592,
                -1.6460954622486184,
                -1.4041477850500936,
                -1.51291412983507,
                0.35778108190795616
            ]
        },
        {
            "positions": [
                2.3663544251623883,
                -1.2582042548199317,
                -1.5093339313133942,
                -1.3319461775361372,
                -1.4838977482495694,
                0.3156617692992346
            ]
        },
        {
            "positions": [
                2.255271719728856,
                -1.2628257930611042,
                -1.37257240037817,
                -1.2597445700221805,
                -1.4548813666640692,
                0.27354245669051314
            ]
        },
        {
            "positions": [
                2.144189014295324,
                -1.2674473313022767,
                -1.235810869442946,
                -1.1875429625082243,
                -1.425864985078569,
                0.23142314408179157
            ]
        },
        {
            "positions": [
                2.0331063088617918,
                -1.2720688695434492,
                -1.0990493385077218,
                -1.1153413549942677,
                -1.3968486034930687,
                0.18930383147307006
            ]
        },
        {
            "positions": [
                1.9220236034282596,
                -1.2766904077846217,
                -0.9622878075724977,
                -1.0431397474803115,
                -1.3678322219075685,
                0.14718451886434858
            ]
        },
        {
            "positions": [
                1.8109408979947275,
                -1.2813119460257942,
                -0.8255262766372735,
                -0.9709381399663548,
                -1.3388158403220682,
                0.10506520625562704
            ]
        },
        {
            "positions": [
                1.6998581925611953,
                -1.2859334842669667,
                -0.6887647457020494,
                -0.8987365324523985,
                -1.3097994587365678,
                0.06294589364690556
            ]
        },
        {
            "positions": [
                1.5887754871276631,
                -1.2905550225081392,
                -0.5520032147668252,
                -0.8265349249384419,
                -1.2807830771510675,
                0.020826581038183967
            ]
        },
        {
            "positions": [
                1.477692781694131,
                -1.2951765607493118,
                -0.4152416838316011,
                -0.7543333174244855,
                -1.2517666955655673,
                -0.021292731570537515
            ]
        },
        {
            "positions": [
                1.3666100762605988,
                -1.2997980989904843,
                -0.27848015289637695,
                -0.6821317099105291,
                -1.222750313980067,
                -0.06341204417925905
            ]
        },
        {
            "positions": [
                1.2555273708270667,
                -1.3044196372316568,
                -0.1417186219611528,
                -0.6099301023965726,
                -1.1937339323945668,
                -0.10553135678798053
            ]
        },
        {
            "positions": [
                1.1444446653935345,
                -1.3090411754728293,
                -0.004957091025928673,
                -0.5377284948826162,
                -1.1647175508090666,
                -0.14765066939670202
            ]
        },
        {
            "positions": [
                1.0333619599600026,
                -1.3136627137140018,
                0.13180443990929547,
                -0.46552688736865977,
                -1.1357011692235663,
                -0.1897699820054235
            ]
        },
        {
            "positions": [
                0.9222792545264702,
                -1.3182842519551743,
                0.2685659708445196,
                -0.3933252798547031,
                -1.1066847876380659,
                -0.2318892946141451
            ]
        },
        {
            "positions": [
                0.811196549092938,
                -1.3229057901963468,
                0.40532750177974375,
                -0.3211236723407469,
                -1.0776684060525656,
                -0.2740086072228666
            ]
        },
        {
            "positions": [
                0.7001138436594059,
                -1.3275273284375193,
                0.5420890327149679,
                -0.24892206482679047,
                -1.0486520244670654,
                -0.31612791983158806
            ]
        },
        {
            "positions": [
                0.5890311382258737,
                -1.3321488666786918,
                0.678850563650192,
                -0.17672045731283403,
                -1.0196356428815652,
                -0.35824723244030954
            ]
        },
        {
            "positions": [
                0.47794843279234156,
                -1.3367704049198643,
                0.8156120945854162,
                -0.10451884979887738,
                -0.9906192612960648,
                -0.40036654504903124
            ]
        },
        {
            "positions": [
                0.3668657273588094,
                -1.3413919431610368,
                0.9523736255206403,
                -0.032317242284920944,
                -0.9616028797105646,
                -0.4424858576577527
            ]
        },
        {
            "positions": [
                0.25578302192527724,
                -1.3460134814022093,
                1.0891351564558645,
                0.03988436522903549,
                -0.9325864981250642,
                -0.4846051702664742
            ]
        },
        {
            "positions": [
                0.14470031649174508,
                -1.3506350196433818,
                1.2258966873910886,
                0.1120859727429917,
                -0.903570116539564,
                -0.5267244828751957
            ]
        },
        {
            "positions": [
                0.033617611058212926,
                -1.3552565578845543,
                1.3626582183263127,
                0.18428758025694836,
                -0.8745537349540636,
                -0.5688437954839173
            ]
        },
        {
            "positions": [
                -0.07746509437531923,
                -1.3598780961257269,
                1.4994197492615369,
                0.2564891877709048,
                -0.8455373533685634,
                -0.6109631080926387
            ]
        },
        {
            "positions": [
                -0.18854779980885136,
                -1.3644996343668994,
                1.636181280196761,
                0.3286907952848613,
                -0.8165209717830632,
                -0.6530824207013602
            ]
        },
        {
            "positions": [
                -0.16560607306387215,
                -1.3087944915026168,
                1.6773795708351562,
                0.48879236928777486,
                -0.7480003902839898,
                -0.6056067199082223
            ]
        },
        {
            "positions": [
                -0.1426643463188929,
                -1.2530893486383343,
                1.7185778614735514,
                0.6488939432906884,
                -0.6794798087849164,
                -0.5581310191150843
            ]
        },
        {
            "positions": [
                -0.1197226195739137,
                -1.1973842057740516,
                1.7597761521119464,
                0.8089955172936019,
                -0.6109592272858432,
                -0.5106553183219464
            ]
        },
        {
            "positions": [
                -0.09678089282893446,
                -1.141679062909769,
                1.8009744427503416,
                0.9690970912965156,
                -0.5424386457867698,
                -0.46317961752880843
            ]
        },
        {
            "positions": [
                -0.07383916608395524,
                -1.0859739200454865,
                1.8421727333887368,
                1.129198665299429,
                -0.47391806428769645,
                -0.41570391673567053
            ]
        },
        {
            "positions": [
                -0.041255192032582266,
                -1.0360338784392489,
                1.8705700608283928,
                1.273227181624259,
                -0.41474307712952374,
                -0.3605425882377814
            ]
        },
        {
            "positions": [
                -0.00867121798120929,
                -0.9860938368330113,
                1.898967388268049,
                1.417255697949089,
                -0.35556808997135103,
                -0.3053812597398923
            ]
        },
        {
            "positions": [
                0.023912756070163688,
                -0.9361537952267738,
                1.927364715707705,
                1.5612842142739187,
                -0.2963931028131783,
                -0.2502199312420031
            ]
        },
        {
            "positions": [
                0.056496730121536665,
                -0.8862137536205362,
                1.9557620431473612,
                1.7053127305987488,
                -0.23721811565500567,
                -0.19505860274411396
            ]
        },
        {
            "positions": [
                0.08908070417290964,
                -0.8362737120142986,
                1.9841593705870173,
                1.8493412469235788,
                -0.17804312849683296,
                -0.13989727424622478
            ]
        },
        {
            "positions": [
                0.12166467822428263,
                -0.786333670408061,
                2.0125566980266734,
                1.9933697632484086,
                -0.11886814133866025,
                -0.08473594574833566
            ]
        }
    ]
}