{
    "goal": {
        "global_pose": {
            "orientation": {
                "w": 0.5084816262002911,
                "x": -0.4908360881923452,
                "y": 0.5182115481033761,
                "z": -0.48164630358495003
            },
            "position": {
                "x": 0.5540239810943604,
                "y": -0.46912469901144505,
                "z": 0.16403168439865112
            }
        },
        "name": "move_to_storage_B"
    },
    "id": "ProjEST_move_to_storage_B_132",
    "joint_names": [
        "shoulder_pan_joint",
        "shoulder_lift_joint",
        "elbow_joint",
        "wrist_1_joint",
        "wrist_2_joint",
        "wrist_3_joint"
    ],
    "metrics": {
        "cart_traj_len": 1.8205157183938994,
        "distance_elbow_joint": 0.36122025444563777,
        "distance_shoulder_lift_joint": 0.7446312674404305,
        "distance_shoulder_pan_joint": 2.072608166165975,
        "distance_wrist_1_joint": 3.028047694280915,
        "distance_wrist_2_joint": 2.7165049704241615,
        "distance_wrist_3_joint": 3.1124035638407954,
        "smoothness": 0.14755492233975742,
        "time": 0.173592623,
        "traj_len": 3.4692096962561823,
        "weighted_distance": 4.899466880078341
    },
    "planner": "ProjEST",
    "start": {
        "state": {
            "elbow_joint": 1.664937868594044,
            "shoulder_lift_joint": -0.661644460510453,
            "shoulder_pan_joint": -0.9139846352900073,
            "wrist_1_joint": 2.146753192139373,
            "wrist_2_joint": -2.2341966793290973,
            "wrist_3_joint": 0.005466555786416001
        }
    },
    "waypoints": [
        {
            "positions": [
                -0.9139846352900073,
                -0.661644460510453,
                1.664937868594044,
                2.146753192139373,
                -2.2341966793290973,
                0.005466555786416001
            ]
        },
        {
            "positions": [
                -0.8089215267885126,
                -0.7286930873328347,
                1.68331679564376,
                2.0446956057235197,
                -2.16671811928631,
                0.002995545529004494
            ]
        },
        {
            "positions": [
                -0.7038584182870179,
                -0.7957417141552163,
                1.7016957226934764,
                1.9426380193076662,
                -2.0992395592435233,
                0.0005245352715929873
            ]
        },
        {
            "positions": [
                -0.5987953097855232,
                -0.8627903409775979,
                1.7200746497431925,
                1.840580432891813,
                -2.031760999200736,
                -0.0019464749858185198
            ]
        },
        {
            "positions": [
                -0.49373220128402856,
                -0.9298389677999797,
                1.7384535767929088,
                1.7385228464759594,
                -1.9642824391579492,
                -0.004417485243230026
            ]
        },
        {
            "positions": [
                -0.3886690927825338,
                -0.9968875946223612,
                1.756832503842625,
                1.636465260060106,
                -1.8968038791151622,
                -0.006888495500641534
            ]
        },
        {
            "positions": [
                -0.2836059842810392,
                -1.063936221444743,
                1.7752114308923412,
                1.5344076736442527,
                -1.8293253190723753,
                -0.009359505758053041
            ]
        },
        {
            "positions": [
                -0.17854287577954453,
                -1.1309848482671245,
                1.7935903579420573,
                1.4323500872283992,
                -1.7618467590295883,
                -0.011830516015464549
            ]
        },
        {
            "positions": [
                -0.07347976727804983,
                -1.198033475089506,
                1.8119692849917737,
                1.3302925008125457,
                -1.6943681989868011,
                -0.014301526272876054
            ]
        },
        {
            "positions": [
                0.03158334122344486,
                -1.2650821019118879,
                1.8303482120414898,
                1.2282349143966922,
                -1.6268896389440142,
                -0.01677253653028756
            ]
        },
        {
            "positions": [
                -0.017418406152751795,
                -1.2589432486058445,
                1.8388616864327154,
                1.1365162441124212,
                -1.5351853811162282,
                -0.15112751355307416
            ]
        },
        {
            "positions": [
                -0.06642015352894845,
                -1.2528043952998014,
                1.8473751608239413,
                1.04479757382815,
                -1.4434811232884421,
                -0.2854824905758607
            ]
        },
        {
            "positions": [
                -0.11542190090514509,
                -1.246665541993758,
                1.855888635215167,
                0.953078903543879,
                -1.3517768654606561,
                -0.41983746759864726
            ]
        },
        {
            "positions": [
                -0.16442364828134176,
                -1.2405266886877147,
                1.8644021096063927,
                0.861360233259608,
                -1.26007260763287,
                -0.5541924446214339
            ]
        },
        {
            "positions": [
                -0.2134253956575384,
                -1.2343878353816715,
                1.8729155839976184,
                0.7696415629753369,
                -1.168368349805084,
                -0.6885474216442204
            ]
        },
        {
            "positions": [
                -0.26242714303373504,
                -1.2282489820756282,
                1.8814290583888442,
                0.6779228926910659,
                -1.0766640919772983,
                -0.822902398667007
            ]
        },
        {
            "positions": [
                -0.31142889040993177,
                -1.2221101287695848,
                1.8899425327800699,
                0.5862042224067947,
                -0.984959834149512,
                -0.9572573756897937
            ]
        },
        {
            "positions": [
                -0.3604306377861284,
                -1.2159712754635414,
                1.8984560071712957,
                0.49448555212252376,
                -0.8932555763217261,
                -1.0916123527125803
            ]
        },
        {
            "positions": [
                -0.40943238516232505,
                -1.2098324221574983,
                1.9069694815625213,
                0.4027668818382526,
                -0.80155131849394,
                -1.2259673297353668
            ]
        },
        {
            "positions": [
                -0.45843413253852167,
                -1.203693568851455,
                1.9154829559537472,
                0.31104821155398166,
                -0.7098470606661541,
                -1.3603223067581534
            ]
        },
        {
            "positions": [
                -0.5074358799147184,
                -1.1975547155454116,
                1.9239964303449728,
                0.2193295412697105,
                -0.618142802838368,
                -1.4946772837809401
            ]
        },
        {
            "positions": [
                -0.556437627290915,
                -1.1914158622393685,
                1.9325099047361987,
                0.12761087098543955,
                -0.5264385450105822,
                -1.6290322608037264
            ]
        },
        {
            "positions": [
                -0.6054393746671116,
                -1.185277008933325,
                1.9410233791274243,
                0.03589220070116861,
                -0.43473428718279616,
                -1.763387237826513
            ]
        },
        {
            "positions": [
                -0.6544411220433084,
                -1.1791381556272817,
                1.9495368535186501,
                -0.05582646958310278,
                -0.3430300293550099,
                -1.8977422148493
            ]
        },
        {
            "positions": [
                -0.703442869419505,
                -1.1729993023212386,
                1.9580503279098758,
                -0.14754513986737372,
                -0.25132577152722413,
                -2.0320971918720865
            ]
        },
        {
            "positions": [
                -0.7524446167957016,
                -1.1668604490151953,
                1.9665638023011016,
                -0.23926381015164466,
                -0.1596215136994381,
                -2.1664521688948732
            ]
        },
        {
            "positions": [
                -0.8014463641718982,
                -1.160721595709152,
                1.9750772766923272,
                -0.3309824804359156,
                -0.0679172558716521,
                -2.3008071459176596
            ]
        },
        {
            "positions": [
                -0.850448111548095,
                -1.1545827424031085,
                1.983590751083553,
                -0.422701150720187,
                0.023787001956134146,
                -2.4351621229404463
            ]
        },
        {
            "positions": [
                -0.8994498589242916,
                -1.1484438890970654,
                1.9921042254747787,
                -0.5144198210044579,
                0.11549125978391994,
                -2.569517099963233
            ]
        },
        {
            "positions": [
                -0.9484516063004882,
                -1.142305035791022,
                2.0006176998660044,
                -0.6061384912887289,
                0.20719551761170596,
                -2.7038720769860194
            ]
        },
        {
            "positions": [
                -0.9974533536766849,
                -1.1361661824849787,
                2.00913117425723,
                -0.6978571615729998,
                0.298899775439492,
                -2.8382270540088057
            ]
        },
        {
            "positions": [
                -1.0464551010528815,
                -1.1300273291789356,
                2.017644648648456,
                -0.7895758318572712,
                0.3906040332672782,
                -2.972582031031593
            ]
        },
        {
            "positions": [
                -1.0954568484290783,
                -1.1238884758728922,
                2.0261581230396817,
                -0.8812945021415421,
                0.4823082910950641,
                -3.1069370080543792
            ]
        }
    ]
}