{
    "goal": {
        "global_pose": {
            "orientation": {
                "w": 0.005598929693374612,
                "x": 0.007748599140229565,
                "y": 0.7110244013736278,
                "z": -0.7031023480610252
            },
            "position": {
                "x": 0.1141497679147869,
                "y": -0.7141253447532654,
                "z": 0.3711530566215515
            }
        },
        "name": "move_to_auspresseinheit_B"
    },
    "id": "ProjEST_move_to_auspresseinheit_B_90",
    "joint_names": [
        "shoulder_pan_joint",
        "shoulder_lift_joint",
        "elbow_joint",
        "wrist_1_joint",
        "wrist_2_joint",
        "wrist_3_joint"
    ],
    "metrics": {
        "cart_traj_len": 0.5652860062471015,
        "distance_elbow_joint": 0.06308816892480462,
        "distance_shoulder_lift_joint": 0.29389452562023766,
        "distance_shoulder_pan_joint": 0.578954126811118,
        "distance_wrist_1_joint": 0.3246821711223389,
        "distance_wrist_2_joint": 0.9851654803459453,
        "distance_wrist_3_joint": 0.0014185746484107753,
        "smoothness": 0.0,
        "time": 0.07751849,
        "traj_len": 1.4990673925720803,
        "weighted_distance": 1.8867665060197463
    },
    "planner": "ProjEST",
    "start": {
        "state": {
            "elbow_joint": 2.0193083361928714,
            "shoulder_lift_joint": -1.1220246554650708,
            "shoulder_pan_joint": -1.0952077554168747,
            "wrist_1_joint": -0.8559753972642168,
            "wrist_2_joint": 0.4759566250798843,
            "wrist_3_joint": -3.1240929996934557
        }
    },
    "waypoints": [
        {
            "positions": [
                -1.0952077554168747,
                -1.1220246554650708,
                2.0193083361928714,
                -0.8559753972642168,
                0.4759566250798843,
                -3.1240929996934557
            ]
        },
        {
            "positions": [
                -1.1917001098853943,
                -1.171007076401777,
                2.008793641372071,
                -0.8018617020771603,
                0.6401508718042085,
                -3.124329428801524
            ]
        },
        {
            "positions": [
                -1.288192464353914,
                -1.2199894973384833,
                1.9982789465512698,
                -0.7477480068901038,
                0.8043451185285326,
                -3.1245658579095927
            ]
        },
        {
            "positions": [
                -1.3846848188224337,
                -1.2689719182751897,
                1.9877642517304692,
                -0.6936343117030473,
                0.9685393652528569,
                -3.124802287017661
            ]
        },
        {
            "positions": [
                -1.4811771732909533,
                -1.317954339211896,
                1.9772495569096684,
                -0.6395206165159909,
                1.1327336119771811,
                -3.1250387161257294
            ]
        },
        {
            "positions": [
                -1.577669527759473,
                -1.3669367601486022,
                1.9667348620888676,
                -0.5854069213289343,
                1.2969278587015054,
                -3.125275145233798
            ]
        },
        {
            "positions": [
                -1.6741618822279927,
                -1.4159191810853085,
                1.9562201672680668,
                -0.5312932261418779,
                1.4611221054258297,
                -3.1255115743418664
            ]
        }
    ]
}