{
    "goal": {
        "global_pose": {
            "orientation": {
                "w": 0.7031023480610252,
                "x": -0.7110244013736278,
                "y": 0.0077485991402295624,
                "z": 0.005598929693374583
            },
            "position": {
                "x": -0.8841497679147869,
                "y": 0.44412534475326537,
                "z": 0.3711530566215515
            }
        },
        "name": "move_to_auspresseinheit_D"
    },
    "id": "ProjEST_move_to_auspresseinheit_D_116",
    "joint_names": [
        "shoulder_pan_joint",
        "shoulder_lift_joint",
        "elbow_joint",
        "wrist_1_joint",
        "wrist_2_joint",
        "wrist_3_joint"
    ],
    "metrics": {
        "cart_traj_len": 0.34208218399465734,
        "distance_elbow_joint": 0.6332893436108622,
        "distance_shoulder_lift_joint": 0.11922442243671938,
        "distance_shoulder_pan_joint": 0.13337727713169387,
        "distance_wrist_1_joint": 0.5179762629296558,
        "distance_wrist_2_joint": 1.4382228607165362,
        "distance_wrist_3_joint": 0.0036652314053102764,
        "smoothness": 3.947459674368863e-16,
        "time": 0.060069511,
        "traj_len": 1.6869366906409908,
        "weighted_distance": 2.193008204427788
    },
    "planner": "ProjEST",
    "start": {
        "state": {
            "elbow_joint": -1.8275523626775212,
            "shoulder_lift_joint": -2.126789852344167,
            "shoulder_pan_joint": -0.03513704404078235,
            "wrist_1_joint": -2.347782403156801,
            "wrist_2_joint": -1.6058999987535132,
            "wrist_3_joint": -3.0880379163319196
        }
    },
    "waypoints": [
        {
            "positions": [
                -0.03513704404078235,
                -2.126789852344167,
                -1.8275523626775212,
                -2.347782403156801,
                -1.6058999987535132,
                -3.0880379163319196
            ]
        },
        {
            "positions": [
                -0.05180920368224408,
                -2.1416929051487568,
                -1.7483911947261634,
                -2.412529436023008,
                -1.4261221411639462,
                -3.0884960702575834
            ]
        },
        {
            "positions": [
                -0.06848136332370582,
                -2.1565959579533467,
                -1.6692300267748057,
                -2.477276468889215,
                -1.2463442835743792,
                -3.0889542241832473
            ]
        },
        {
            "positions": [
                -0.08515352296516754,
                -2.1714990107579366,
                -1.590068858823448,
                -2.5420235017554216,
                -1.0665664259848122,
                -3.089412378108911
            ]
        },
        {
            "positions": [
                -0.10182568260662928,
                -2.1864020635625265,
                -1.5109076908720902,
                -2.6067705346216288,
                -0.8867885683952451,
                -3.089870532034575
            ]
        },
        {
            "positions": [
                -0.11849784224809101,
                -2.2013051163671165,
                -1.4317465229207325,
                -2.671517567487836,
                -0.7070107108056781,
                -3.0903286859602384
            ]
        },
        {
            "positions": [
                -0.13517000188955275,
                -2.2162081691717064,
                -1.3525853549693745,
                -2.7362646003540427,
                -0.527232853216111,
                -3.090786839885902
            ]
        },
        {
            "positions": [
                -0.15184216153101449,
                -2.2311112219762963,
                -1.2734241870180167,
                -2.8010116332202495,
                -0.347454995626544,
                -3.091244993811566
            ]
        },
        {
            "positions": [
                -0.16851432117247622,
                -2.2460142747808862,
                -1.194263019066659,
                -2.8657586660864567,
                -0.16767713803697704,
                -3.09170314773723
            ]
        }
    ]
}