{
    "goal": {
        "global_pose": {
            "orientation": {
                "w": -0.00223480608172531,
                "x": 0.0024358444001904467,
                "y": 0.7094548369677653,
                "z": -0.704743149386269
            },
            "position": {
                "x": 0.6205249238014221,
                "y": -0.6371506643295288,
                "z": 0.19426114857196808
            }
        },
        "name": "move_to_magneteinheit_B"
    },
    "id": "ProjEST_move_to_magneteinheit_B_7",
    "joint_names": [
        "shoulder_pan_joint",
        "shoulder_lift_joint",
        "elbow_joint",
        "wrist_1_joint",
        "wrist_2_joint",
        "wrist_3_joint"
    ],
    "metrics": {
        "cart_traj_len": 4.252057736919372,
        "distance_elbow_joint": 5.692568354477099,
        "distance_shoulder_lift_joint": 4.616811959846983,
        "distance_shoulder_pan_joint": 3.4637291444950224,
        "distance_wrist_1_joint": 7.925387843239207,
        "distance_wrist_2_joint": 1.8406430644000247,
        "distance_wrist_3_joint": 1.5808725823455958,
        "smoothness": 0.5246311026422461,
        "time": 2.9654282110000003,
        "traj_len": 5.011986926240326,
        "weighted_distance": 6.16828898651274
    },
    "planner": "ProjEST",
    "start": {
        "state": {
            "elbow_joint": 2.6216224122426386,
            "shoulder_lift_joint": -1.4174107377796124,
            "shoulder_pan_joint": 0.7066234856936794,
            "wrist_1_joint": 1.9546482284002225,
            "wrist_2_joint": -0.7096286983471962,
            "wrist_3_joint": 0.005740856962016249
        }
    },
    "waypoints": [
        {
            "positions": [
                0.7066234856936794,
                -1.4174107377796124,
                2.6216224122426386,
                1.9546482284002225,
                -0.7096286983471962,
                0.005740856962016249
            ]
        },
        {
            "positions": [
                0.6543501249833157,
                -1.4820996757327607,
                2.6005873533003236,
                2.026925101907233,
                -0.8573626742235433,
                0.023686515898297837
            ]
        },
        {
            "positions": [
                0.6026593602099009,
                -1.5266985148716061,
                2.4011607785286553,
                2.0157438342878136,
                -0.8929499559846246,
                0.0165465655195872
            ]
        },
        {
            "positions": [
                0.550968595436486,
                -1.5712973540104516,
                2.201734203756987,
                2.004562566668394,
                -0.9285372377457057,
                0.009406615140876562
            ]
        },
        {
            "positions": [
                0.4992778306630712,
                -1.6158961931492968,
                2.0023076289853186,
                1.9933812990489745,
                -0.964124519506787,
                0.0022666647621659257
            ]
        },
        {
            "positions": [
                0.44758706588965635,
                -1.6604950322881422,
                1.8028810542136502,
                1.982200031429555,
                -0.9997118012678683,
                -0.004873285616544713
            ]
        },
        {
            "positions": [
                0.3958963011162415,
                -1.7050938714269877,
                1.6034544794419818,
                1.9710187638101353,
                -1.0352990830289495,
                -0.012013235995255347
            ]
        },
        {
            "positions": [
                0.4691065262089583,
                -1.6570119076485255,
                1.49602481468133,
                1.8522132499593118,
                -1.0183693228695587,
                0.009112251490276883
            ]
        },
        {
            "positions": [
                0.5423167513016751,
                -1.6089299438700633,
                1.3885951499206781,
                1.7334077361084883,
                -1.0014395627101678,
                0.030237738975809114
            ]
        },
        {
            "positions": [
                0.6155269763943919,
                -1.5608479800916013,
                1.2811654851600265,
                1.614602222257665,
                -0.984509802550777,
                0.05136322646134135
            ]
        },
        {
            "positions": [
                0.6887372014871087,
                -1.5127660163131391,
                1.1737358203993746,
                1.4957967084068415,
                -0.9675800423913862,
                0.07248871394687358
            ]
        },
        {
            "positions": [
                0.7619474265798256,
                -1.464684052534677,
                1.0663061556387228,
                1.376991194556018,
                -0.9506502822319953,
                0.09361420143240581
            ]
        },
        {
            "positions": [
                0.8351576516725423,
                -1.4166020887562147,
                0.958876490878071,
                1.2581856807051945,
                -0.9337205220726045,
                0.11473968891793805
            ]
        },
        {
            "positions": [
                0.9083678767652591,
                -1.3685201249777528,
                0.8514468261174193,
                1.1393801668543713,
                -0.9167907619132136,
                0.1358651764034703
            ]
        },
        {
            "positions": [
                0.981578101857976,
                -1.3204381611992906,
                0.7440171613567674,
                1.0205746530035475,
                -0.8998610017538229,
                0.1569906638890025
            ]
        },
        {
            "positions": [
                1.0547883269506928,
                -1.2723561974208284,
                0.6365874965961157,
                0.9017691391527243,
                -0.882931241594432,
                0.17811615137453474
            ]
        },
        {
            "positions": [
                1.1279985520434095,
                -1.2242742336423662,
                0.5291578318354639,
                0.7829636253019008,
                -0.8660014814350412,
                0.19924163886006696
            ]
        },
        {
            "positions": [
                1.2012087771361264,
                -1.176192269863904,
                0.4217281670748121,
                0.6641581114510773,
                -0.8490717212756503,
                0.22036712634559918
            ]
        },
        {
            "positions": [
                1.2744190022288433,
                -1.1281103060854418,
                0.31429850231416023,
                0.545352597600254,
                -0.8321419611162595,
                0.24149261383113146
            ]
        },
        {
            "positions": [
                1.34762922732156,
                -1.0800283423069796,
                0.2068688375535086,
                0.4265470837494305,
                -0.8152122009568686,
                0.2626181013166637
            ]
        },
        {
            "positions": [
                1.4208394524142767,
                -1.0319463785285177,
                0.09943917279285674,
                0.307741569898607,
                -0.7982824407974778,
                0.2837435888021959
            ]
        },
        {
            "positions": [
                1.4940496775069936,
                -0.9838644147500555,
                -0.00799049196779511,
                0.18893605604778352,
                -0.781352680638087,
                0.30486907628772814
            ]
        },
        {
            "positions": [
                1.5672599025997105,
                -0.9357824509715934,
                -0.11542015672844697,
                0.07013054219696002,
                -0.7644229204786962,
                0.32599456377326036
            ]
        },
        {
            "positions": [
                1.6404701276924272,
                -0.8877004871931312,
                -0.2228498214890986,
                -0.048674971653863475,
                -0.7474931603193053,
                0.3471200512587926
            ]
        },
        {
            "positions": [
                1.713680352785144,
                -0.839618523414669,
                -0.33027948624975045,
                -0.16748048550468675,
                -0.7305634001599146,
                0.3682455387443248
            ]
        },
        {
            "positions": [
                1.7868905778778605,
                -0.7915365596362071,
                -0.43770915101040186,
                -0.28628599935551,
                -0.7136336400005237,
                0.38937102622985703
            ]
        },
        {
            "positions": [
                1.8601008029705777,
                -0.7434545958577448,
                -0.5451388157710539,
                -0.40509151320633374,
                -0.6967038798411329,
                0.4104965137153893
            ]
        },
        {
            "positions": [
                1.9333110280632941,
                -0.6953726320792828,
                -0.6525684805317056,
                -0.523897027057157,
                -0.6797741196817421,
                0.4316220012009215
            ]
        },
        {
            "positions": [
                2.006521253156011,
                -0.6472906683008204,
                -0.7599981452923577,
                -0.6427025409079807,
                -0.6628443595223512,
                0.45274748868645376
            ]
        },
        {
            "positions": [
                2.079731478248728,
                -0.5992087045223584,
                -0.8674278100530093,
                -0.7615080547588036,
                -0.6459145993629605,
                0.4738729761719859
            ]
        },
        {
            "positions": [
                2.152941703341445,
                -0.5511267407438962,
                -0.9748574748136614,
                -0.8803135686096273,
                -0.6289848392035695,
                0.49499846365751826
            ]
        },
        {
            "positions": [
                2.2261519284341613,
                -0.5030447769654343,
                -1.082287139574313,
                -0.9991190824604506,
                -0.6120550790441788,
                0.5161239511430503
            ]
        },
        {
            "positions": [
                2.2993621535268787,
                -0.45496281318697185,
                -1.1897168043349646,
                -1.1179245963112743,
                -0.5951253188847878,
                0.5372494386285827
            ]
        },
        {
            "positions": [
                2.372572378619595,
                -0.4068808494085099,
                -1.2971464690956163,
                -1.2367301101620976,
                -0.5781955587253971,
                0.5583749261141148
            ]
        },
        {
            "positions": [
                2.4457826037123116,
                -0.3587988856300477,
                -1.4045761338562683,
                -1.3555356240129213,
                -0.5612657985660062,
                0.5795004135996471
            ]
        },
        {
            "positions": [
                2.518992828805029,
                -0.3107169218515855,
                -1.51200579861692,
                -1.4743411378637445,
                -0.5443360384066154,
                0.6006259010851792
            ]
        },
        {
            "positions": [
                2.5922030538977454,
                -0.2626349580731233,
                -1.619435463377572,
                -1.5931466517145683,
                -0.5274062782472245,
                0.6217513885707115
            ]
        },
        {
            "positions": [
                2.665413278990462,
                -0.21455299429466135,
                -1.7268651281382237,
                -1.7119521655653915,
                -0.5104765180878338,
                0.6428768760562438
            ]
        },
        {
            "positions": [
                2.7386235040831792,
                -0.16647103051619916,
                -1.8342947928988758,
                -1.8307576794162153,
                -0.49354675792844294,
                0.664002363541776
            ]
        },
        {
            "positions": [
                2.8118337291758957,
                -0.11838906673773697,
                -1.9417244576595274,
                -1.949563193267038,
                -0.4766169977690521,
                0.6851278510273082
            ]
        },
        {
            "positions": [
                2.885043954268613,
                -0.07030710295927478,
                -2.049154122420179,
                -2.0683687071178625,
                -0.45968723760966124,
                0.7062533385128404
            ]
        },
        {
            "positions": [
                2.9582541793613295,
                -0.022225139180812814,
                -2.1565837871808307,
                -2.1871742209686857,
                -0.4427574774502705,
                0.7273788259983727
            ]
        },
        {
            "positions": [
                3.031464404454047,
                0.025856824597649597,
                -2.2640134519414827,
                -2.305979734819509,
                -0.42582771729087965,
                0.7485043134839049
            ]
        },
        {
            "positions": [
                3.1046746295467633,
                0.07393878837611156,
                -2.3714431167021344,
                -2.4247852486703323,
                -0.4088979571314888,
                0.7696298009694371
            ]
        },
        {
            "positions": [
                3.085360558612543,
                -0.03693495798895413,
                -2.341029950374642,
                -2.2768982652288265,
                -0.37026441131319265,
                0.7372130994672167
            ]
        },
        {
            "positions": [
                3.066046487678323,
                -0.14780870435401983,
                -2.3106167840471494,
                -2.129011281787321,
                -0.33163086549489657,
                0.7047963979649964
            ]
        },
        {
            "positions": [
                3.0467324167441028,
                -0.2586824507190855,
                -2.2802036177196565,
                -1.9811242983458153,
                -0.2929973196766004,
                0.672379696462776
            ]
        },
        {
            "positions": [
                3.027418345809883,
                -0.3695561970841512,
                -2.249790451392164,
                -1.8332373149043097,
                -0.25436377385830433,
                0.6399629949605556
            ]
        },
        {
            "positions": [
                3.0081042748756626,
                -0.48042994344921697,
                -2.2193772850646716,
                -1.685350331462804,
                -0.21573022804000822,
                0.6075462934583352
            ]
        },
        {
            "positions": [
                2.9887902039414427,
                -0.5913036898142826,
                -2.188964118737179,
                -1.5374633480212982,
                -0.17709668222171207,
                0.5751295919561148
            ]
        },
        {
            "positions": [
                2.9694761330072224,
                -0.7021774361793484,
                -2.1585509524096866,
                -1.3895763645797927,
                -0.13846313640341595,
                0.5427128904538945
            ]
        },
        {
            "positions": [
                2.9501620620730025,
                -0.813051182544414,
                -2.1281377860821937,
                -1.2416893811382872,
                -0.09982959058511987,
                0.5102961889516741
            ]
        },
        {
            "positions": [
                2.930847991138782,
                -0.9239249289094797,
                -2.0977246197547013,
                -1.0938023976967814,
                -0.06119604476682372,
                0.4778794874494537
            ]
        },
        {
            "positions": [
                2.9115339202045623,
                -1.0347986752745455,
                -2.067311453427209,
                -0.9459154142552759,
                -0.02256249894852763,
                0.4454627859472333
            ]
        },
        {
            "positions": [
                2.892219849270342,
                -1.1456724216396112,
                -2.0368982870997163,
                -0.7980284308137702,
                0.016071046869768513,
                0.4130460844450129
            ]
        },
        {
            "positions": [
                2.872905778336122,
                -1.2565461680046768,
                -2.006485120772224,
                -0.6501414473722644,
                0.05470459268806466,
                0.3806293829427926
            ]
        },
        {
            "positions": [
                2.8535917074019017,
                -1.3674199143697425,
                -1.9760719544447312,
                -0.5022544639307589,
                0.09333813850636075,
                0.3482126814405722
            ]
        },
        {
            "positions": [
                2.834277636467682,
                -1.4782936607348083,
                -1.9456587881172385,
                -0.35436748048925315,
                0.1319716843246569,
                0.31579597993835173
            ]
        },
        {
            "positions": [
                2.8149635655334615,
                -1.589167407099874,
                -1.915245621789746,
                -0.2064804970477474,
                0.17060523014295303,
                0.2833792784361314
            ]
        },
        {
            "positions": [
                2.7956494945992416,
                -1.7000411534649396,
                -1.8848324554622535,
                -0.0585935136062421,
                0.20923877596124907,
                0.250962576933911
            ]
        },
        {
            "positions": [
                2.7763354236650213,
                -1.8109148998300053,
                -1.854419289134761,
                0.08929346983526365,
                0.2478723217795452,
                0.21854587543169068
            ]
        },
        {
            "positions": [
                2.7570213527308014,
                -1.921788646195071,
                -1.8240061228072684,
                0.2371804532767694,
                0.28650586759784136,
                0.18612917392947026
            ]
        },
        {
            "positions": [
                2.737707281796581,
                -2.0326623925601366,
                -1.7935929564797757,
                0.38506743671827515,
                0.3251394134161375,
                0.15371247242724984
            ]
        },
        {
            "positions": [
                2.718393210862361,
                -2.1435361389252026,
                -1.7631797901522832,
                0.5329544201597805,
                0.36377295923443353,
                0.12129577092502952
            ]
        },
        {
            "positions": [
                2.699079139928141,
                -2.254409885290268,
                -1.7327666238247907,
                0.6808414036012862,
                0.4024065050527297,
                0.08887906942280921
            ]
        },
        {
            "positions": [
                2.6797650689939205,
                -2.365283631655334,
                -1.7023534574972983,
                0.828728387042792,
                0.4410400508710258,
                0.056462367920588674
            ]
        },
        {
            "positions": [
                2.6604509980597006,
                -2.4761573780203996,
                -1.6719402911698056,
                0.9766153704842977,
                0.4796735966893219,
                0.024045666418368413
            ]
        }
    ]
}