{
    "goal": {
        "global_pose": {
            "orientation": {
                "w": 0.005598929693374612,
                "x": 0.007748599140229565,
                "y": 0.7110244013736278,
                "z": -0.7031023480610252
            },
            "position": {
                "x": 0.1141497679147869,
                "y": -0.7141253447532654,
                "z": 0.3711530566215515
            }
        },
        "name": "move_to_auspresseinheit_B"
    },
    "id": "ProjEST_move_to_auspresseinheit_B_97",
    "joint_names": [
        "shoulder_pan_joint",
        "shoulder_lift_joint",
        "elbow_joint",
        "wrist_1_joint",
        "wrist_2_joint",
        "wrist_3_joint"
    ],
    "metrics": {
        "cart_traj_len": 0.5645902295455014,
        "distance_elbow_joint": 0.05975381164523008,
        "distance_shoulder_lift_joint": 0.2956765455307848,
        "distance_shoulder_pan_joint": 0.5770348692387928,
        "distance_wrist_1_joint": 0.32003292437706354,
        "distance_wrist_2_joint": 0.996767770495057,
        "distance_wrist_3_joint": 0.0014067672361521844,
        "smoothness": 5.075305255429287e-16,
        "time": 0.14745667899999998,
        "traj_len": 1.5002242127505743,
        "weighted_distance": 1.889520287762877
    },
    "planner": "ProjEST",
    "start": {
        "state": {
            "elbow_joint": 2.0193083361928714,
            "shoulder_lift_joint": -1.1220246554650708,
            "shoulder_pan_joint": -1.0952077554168747,
            "wrist_1_joint": -0.8559753972642168,
            "wrist_2_joint": 0.4759566250798843,
            "wrist_3_joint": -3.1240929996934557
        }
    },
    "waypoints": [
        {
            "positions": [
                -1.0952077554168747,
                -1.1220246554650708,
                2.0193083361928714,
                -0.8559753972642168,
                0.4759566250798843,
                -3.1240929996934557
            ]
        },
        {
            "positions": [
                -1.1913802336233401,
                -1.1713040797202017,
                2.009349367585333,
                -0.8026365765347062,
                0.6420845868290604,
                -3.1238585384874304
            ]
        },
        {
            "positions": [
                -1.2875527118298056,
                -1.2205835039753323,
                1.9993903989777948,
                -0.7492977558051956,
                0.8082125485782365,
                -3.123624077281405
            ]
        },
        {
            "positions": [
                -1.383725190036271,
                -1.2698629282304632,
                1.9894314303702565,
                -0.695958935075685,
                0.9743405103274128,
                -3.1233896160753796
            ]
        },
        {
            "positions": [
                -1.4798976682427365,
                -1.319142352485594,
                1.979472461762718,
                -0.6426201143461745,
                1.140468472076589,
                -3.1231551548693544
            ]
        },
        {
            "positions": [
                -1.576070146449202,
                -1.3684217767407247,
                1.9695134931551797,
                -0.5892812936166638,
                1.3065964338257652,
                -3.1229206936633287
            ]
        },
        {
            "positions": [
                -1.6722426246556674,
                -1.4177012009958556,
                1.9595545245476413,
                -0.5359424728871532,
                1.4727243955749414,
                -3.1226862324573035
            ]
        }
    ]
}