{
    "goal": {
        "global_pose": {
            "orientation": {
                "w": 0.005598929693374612,
                "x": 0.007748599140229565,
                "y": 0.7110244013736278,
                "z": -0.7031023480610252
            },
            "position": {
                "x": 0.1141497679147869,
                "y": -0.7141253447532654,
                "z": 0.3711530566215515
            }
        },
        "name": "move_to_auspresseinheit_B"
    },
    "id": "ProjEST_move_to_auspresseinheit_B_119",
    "joint_names": [
        "shoulder_pan_joint",
        "shoulder_lift_joint",
        "elbow_joint",
        "wrist_1_joint",
        "wrist_2_joint",
        "wrist_3_joint"
    ],
    "metrics": {
        "cart_traj_len": 0.5645223822032488,
        "distance_elbow_joint": 0.06446560978705085,
        "distance_shoulder_lift_joint": 0.29498288099920056,
        "distance_shoulder_pan_joint": 0.576215319486542,
        "distance_wrist_1_joint": 0.33454870634686507,
        "distance_wrist_2_joint": 0.9964635070222643,
        "distance_wrist_3_joint": 0.0028029350785612195,
        "smoothness": 0.0,
        "time": 0.136188282,
        "traj_len": 1.5064789937866654,
        "weighted_distance": 1.8989726280930792
    },
    "planner": "ProjEST",
    "start": {
        "state": {
            "elbow_joint": 2.0193083361928714,
            "shoulder_lift_joint": -1.1220246554650708,
            "shoulder_pan_joint": -1.0952077554168747,
            "wrist_1_joint": -0.8559753972642168,
            "wrist_2_joint": 0.4759566250798843,
            "wrist_3_joint": -3.1240929996934557
        }
    },
    "waypoints": [
        {
            "positions": [
                -1.0952077554168747,
                -1.1220246554650708,
                2.0193083361928714,
                -0.8559753972642168,
                0.4759566250798843,
                -3.1240929996934557
            ]
        },
        {
            "positions": [
                -1.191243641997965,
                -1.1711884689649374,
                2.00856406789503,
                -0.8002172795397393,
                0.6420338762502616,
                -3.1245601555398825
            ]
        },
        {
            "positions": [
                -1.2872795285790553,
                -1.2203522824648043,
                1.9978197995971878,
                -0.7444591618152617,
                0.808111127420639,
                -3.1250273113863094
            ]
        },
        {
            "positions": [
                -1.3833154151601457,
                -1.2695160959646712,
                1.987075531299346,
                -0.6887010440907843,
                0.9741883785910164,
                -3.1254944672327363
            ]
        },
        {
            "positions": [
                -1.4793513017412359,
                -1.3186799094645378,
                1.9763312630015042,
                -0.6329429263663068,
                1.1402656297613938,
                -3.125961623079163
            ]
        },
        {
            "positions": [
                -1.5753871883223263,
                -1.3678437229644045,
                1.9655869947036624,
                -0.5771848086418292,
                1.3063428809317712,
                -3.12642877892559
            ]
        },
        {
            "positions": [
                -1.6714230749034167,
                -1.4170075364642714,
                1.9548427264058206,
                -0.5214266909173517,
                1.4724201321021486,
                -3.126895934772017
            ]
        }
    ]
}