{
    "goal": {
        "global_pose": {
            "orientation": {
                "w": 0.7031023480610252,
                "x": -0.7110244013736278,
                "y": 0.0077485991402295624,
                "z": 0.005598929693374583
            },
            "position": {
                "x": -0.8841497679147869,
                "y": 0.44412534475326537,
                "z": 0.3711530566215515
            }
        },
        "name": "move_to_auspresseinheit_D"
    },
    "id": "ProjEST_move_to_auspresseinheit_D_105",
    "joint_names": [
        "shoulder_pan_joint",
        "shoulder_lift_joint",
        "elbow_joint",
        "wrist_1_joint",
        "wrist_2_joint",
        "wrist_3_joint"
    ],
    "metrics": {
        "cart_traj_len": 0.34348007838081673,
        "distance_elbow_joint": 0.6464074235868984,
        "distance_shoulder_lift_joint": 0.12614001905274108,
        "distance_shoulder_pan_joint": 0.1345592808142529,
        "distance_wrist_1_joint": 0.5635485639328839,
        "distance_wrist_2_joint": 1.432054147265619,
        "distance_wrist_3_joint": 0.03372047202122275,
        "smoothness": 1.381610860894979e-15,
        "time": 0.179596923,
        "traj_len": 1.71360144335654,
        "weighted_distance": 2.2359502592666427
    },
    "planner": "ProjEST",
    "start": {
        "state": {
            "elbow_joint": -1.8275523626775212,
            "shoulder_lift_joint": -2.126789852344167,
            "shoulder_pan_joint": -0.03513704404078235,
            "wrist_1_joint": -2.347782403156801,
            "wrist_2_joint": -1.6058999987535132,
            "wrist_3_joint": -3.0880379163319196
        }
    },
    "waypoints": [
        {
            "positions": [
                -0.03513704404078235,
                -2.126789852344167,
                -1.8275523626775212,
                -2.347782403156801,
                -1.6058999987535132,
                -3.0880379163319196
            ]
        },
        {
            "positions": [
                -0.05195695414256396,
                -2.1425573547257595,
                -1.7467514347291588,
                -2.4182259736484113,
                -1.4268932303453108,
                -3.0838228573292668
            ]
        },
        {
            "positions": [
                -0.06877686424434556,
                -2.158324857107352,
                -1.6659505067807965,
                -2.4886695441400217,
                -1.2478864619371084,
                -3.079607798326614
            ]
        },
        {
            "positions": [
                -0.08559677434612718,
                -2.1740923594889447,
                -1.5851495788324343,
                -2.559113114631632,
                -1.0688796935289062,
                -3.075392739323961
            ]
        },
        {
            "positions": [
                -0.1024166844479088,
                -2.1898598618705374,
                -1.504348650884072,
                -2.6295566851232426,
                -0.8898729251207037,
                -3.0711776803213082
            ]
        },
        {
            "positions": [
                -0.1192365945496904,
                -2.20562736425213,
                -1.4235477229357096,
                -2.7000002556148535,
                -0.7108661567125013,
                -3.0669626213186554
            ]
        },
        {
            "positions": [
                -0.136056504651472,
                -2.2213948666337227,
                -1.3427467949873475,
                -2.770443826106464,
                -0.531859388304299,
                -3.0627475623160025
            ]
        },
        {
            "positions": [
                -0.15287641475325364,
                -2.2371623690153153,
                -1.2619458670389851,
                -2.8408873965980743,
                -0.3528526198960966,
                -3.0585325033133497
            ]
        },
        {
            "positions": [
                -0.16969632485503525,
                -2.252929871396908,
                -1.1811449390906228,
                -2.9113309670896848,
                -0.1738458514878942,
                -3.054317444310697
            ]
        }
    ]
}