{
    "goal": {
        "global_pose": {
            "orientation": {
                "w": -0.00223480608172531,
                "x": 0.0024358444001904467,
                "y": 0.7094548369677653,
                "z": -0.704743149386269
            },
            "position": {
                "x": 0.6205249238014221,
                "y": -0.6371506643295288,
                "z": 0.19426114857196808
            }
        },
        "name": "move_to_magneteinheit_B"
    },
    "id": "ProjEST_move_to_magneteinheit_B_70",
    "joint_names": [
        "shoulder_pan_joint",
        "shoulder_lift_joint",
        "elbow_joint",
        "wrist_1_joint",
        "wrist_2_joint",
        "wrist_3_joint"
    ],
    "metrics": {
        "cart_traj_len": 2.3739577208220664,
        "distance_elbow_joint": 2.7285067410395714,
        "distance_shoulder_lift_joint": 1.029286852656785,
        "distance_shoulder_pan_joint": 1.6208823024776016,
        "distance_wrist_1_joint": 4.621075578470366,
        "distance_wrist_2_joint": 2.243373090725557,
        "distance_wrist_3_joint": 1.6464179683489133,
        "smoothness": 0.8999311005257353,
        "time": 0.592709953,
        "traj_len": 3.7268676571242496,
        "weighted_distance": 4.903756431513757
    },
    "planner": "ProjEST",
    "start": {
        "state": {
            "elbow_joint": 2.6216224122426386,
            "shoulder_lift_joint": -1.4174107377796124,
            "shoulder_pan_joint": 0.7066234856936794,
            "wrist_1_joint": 1.9546482284002225,
            "wrist_2_joint": -0.7096286983471962,
            "wrist_3_joint": 0.005740856962016249
        }
    },
    "waypoints": [
        {
            "positions": [
                0.7066234856936794,
                -1.4174107377796124,
                2.6216224122426386,
                1.9546482284002225,
                -0.7096286983471962,
                0.005740856962016249
            ]
        },
        {
            "positions": [
                0.6130256514324256,
                -1.4849177747662419,
                2.6256473755891925,
                2.0157994697018093,
                -0.7962553074416358,
                0.06502755324916704
            ]
        },
        {
            "positions": [
                0.5194278171711718,
                -1.5524248117528714,
                2.6296723389357464,
                2.0769507110033967,
                -0.8828819165360753,
                0.12431424953631781
            ]
        },
        {
            "positions": [
                0.5121810694327957,
                -1.5460103884666476,
                2.474440052352258,
                1.9542950576380753,
                -0.8857708208447932,
                0.20210587488818732
            ]
        },
        {
            "positions": [
                0.5049343216944197,
                -1.5395959651804236,
                2.3192077657687697,
                1.8316394042727537,
                -0.8886597251535111,
                0.27989750024005683
            ]
        },
        {
            "positions": [
                0.4976875739560436,
                -1.5331815418941999,
                2.163975479185282,
                1.7089837509074324,
                -0.8915486294622289,
                0.35768912559192634
            ]
        },
        {
            "positions": [
                0.4904408262176676,
                -1.526767118607976,
                2.0087431926017936,
                1.586328097542111,
                -0.8944375337709468,
                0.43548075094379585
            ]
        },
        {
            "positions": [
                0.4831940784792915,
                -1.520352695321752,
                1.8535109060183053,
                1.4636724441767894,
                -0.8973264380796647,
                0.5132723762956655
            ]
        },
        {
            "positions": [
                0.4759473307409155,
                -1.5139382720355283,
                1.6982786194348172,
                1.341016790811468,
                -0.9002153423883826,
                0.5910640016475348
            ]
        },
        {
            "positions": [
                0.4687005830025394,
                -1.5075238487493046,
                1.5430463328513289,
                1.2183611374461467,
                -0.9031042466971004,
                0.6688556269994044
            ]
        },
        {
            "positions": [
                0.4614538352641634,
                -1.5011094254630806,
                1.3878140462678408,
                1.0957054840808254,
                -0.9059931510058183,
                0.7466472523512739
            ]
        },
        {
            "positions": [
                0.4542070875257873,
                -1.4946950021768568,
                1.2325817596843525,
                0.9730498307155038,
                -0.9088820553145363,
                0.8244388777031435
            ]
        },
        {
            "positions": [
                0.431759991440043,
                -1.4585540984587826,
                1.1828293248616446,
                0.8490061008948092,
                -0.8685665585230411,
                0.7367821502476168
            ]
        },
        {
            "positions": [
                0.4093128953542987,
                -1.4224131947407084,
                1.1330768900389367,
                0.7249623710741147,
                -0.828251061731546,
                0.6491254227920902
            ]
        },
        {
            "positions": [
                0.38686579926855447,
                -1.3862722910226342,
                1.0833244552162289,
                0.6009186412534202,
                -0.7879355649400508,
                0.5614686953365635
            ]
        },
        {
            "positions": [
                0.3644187031828101,
                -1.35013138730456,
                1.033572020393521,
                0.4768749114327256,
                -0.7476200681485556,
                0.4738119678810369
            ]
        },
        {
            "positions": [
                0.34197160709706587,
                -1.3139904835864857,
                0.9838195855708132,
                0.352831181612031,
                -0.7073045713570605,
                0.38615524042551025
            ]
        },
        {
            "positions": [
                0.31952451101132157,
                -1.2778495798684115,
                0.9340671507481053,
                0.22878745179133653,
                -0.6669890745655653,
                0.29849851296998364
            ]
        },
        {
            "positions": [
                0.29707741492557727,
                -1.2417086761503373,
                0.8843147159253975,
                0.10474372197064197,
                -0.6266735777740702,
                0.21084178551445698
            ]
        },
        {
            "positions": [
                0.27463031883983297,
                -1.205567772432263,
                0.8345622811026896,
                -0.019300007850052592,
                -0.586358080982575,
                0.12318505805893032
            ]
        },
        {
            "positions": [
                0.25218322275408867,
                -1.1694268687141889,
                0.7848098462799817,
                -0.14334373767074707,
                -0.5460425841910799,
                0.03552833060340365
            ]
        },
        {
            "positions": [
                0.18356898513420566,
                -1.1393518783821392,
                0.8363153946147287,
                -0.009315581953508845,
                -0.6449414231695952,
                0.033245424691165724
            ]
        },
        {
            "positions": [
                0.11495474751432266,
                -1.1092768880500896,
                0.8878209429494756,
                0.12471257376372938,
                -0.7438402621481106,
                0.0309625187789278
            ]
        },
        {
            "positions": [
                0.046340509894439635,
                -1.07920189771804,
                0.9393264912842225,
                0.2587407294809676,
                -0.8427391011266259,
                0.028679612866689873
            ]
        },
        {
            "positions": [
                -0.022273727725443337,
                -1.0491269073859903,
                0.9908320396189694,
                0.39276888519820585,
                -0.9416379401051412,
                0.026396706954451947
            ]
        },
        {
            "positions": [
                -0.09088796534532634,
                -1.0190519170539407,
                1.0423375879537162,
                0.526797040915444,
                -1.0405367790836566,
                0.02411380104221402
            ]
        },
        {
            "positions": [
                -0.1595022029652094,
                -0.9889769267218911,
                1.0938431362884633,
                0.6608251966326822,
                -1.1394356180621719,
                0.021830895129976092
            ]
        },
        {
            "positions": [
                -0.22811644058509234,
                -0.9589019363898414,
                1.1453486846232102,
                0.7948533523499204,
                -1.2383344570406871,
                0.019547989217738166
            ]
        },
        {
            "positions": [
                -0.29673067820497534,
                -0.9288269460577918,
                1.196854232957957,
                0.9288815080671587,
                -1.3372332960192026,
                0.01726508330550024
            ]
        },
        {
            "positions": [
                -0.3653449158248584,
                -0.8987519557257422,
                1.248359781292704,
                1.0629096637843967,
                -1.4361321349977179,
                0.014982177393262314
            ]
        },
        {
            "positions": [
                -0.43395915344474134,
                -0.8686769653936925,
                1.299865329627451,
                1.196937819501635,
                -1.5350309739762333,
                0.012699271481024389
            ]
        },
        {
            "positions": [
                -0.5025733910646244,
                -0.8386019750616429,
                1.3513708779621978,
                1.3309659752188732,
                -1.6339298129547486,
                0.01041636556878646
            ]
        },
        {
            "positions": [
                -0.5711876286845075,
                -0.8085269847295933,
                1.4028764262969449,
                1.4649941309361114,
                -1.732828651933264,
                0.008133459656548533
            ]
        },
        {
            "positions": [
                -0.6398018663043903,
                -0.7784519943975438,
                1.4543819746316915,
                1.5990222866533494,
                -1.831727490911779,
                0.005850553744310611
            ]
        },
        {
            "positions": [
                -0.7084161039242733,
                -0.7483770040654941,
                1.5058875229664386,
                1.7330504423705877,
                -1.9306263298902946,
                0.0035676478320726818
            ]
        },
        {
            "positions": [
                -0.7770303415441563,
                -0.7183020137334445,
                1.5573930713011856,
                1.867078598087826,
                -2.02952516886881,
                0.001284741919834756
            ]
        },
        {
            "positions": [
                -0.8456445791640393,
                -0.6882270234013949,
                1.6088986196359323,
                2.0011067538050646,
                -2.1284240078473253,
                -0.0009981639924031699
            ]
        },
        {
            "positions": [
                -0.9142588167839224,
                -0.6581520330693452,
                1.6604041679706794,
                2.1351349095223027,
                -2.2273228468258406,
                -0.003281069904641098
            ]
        }
    ]
}