{
    "goal": {
        "global_pose": {
            "orientation": {
                "w": 0.7031023480610252,
                "x": -0.7110244013736278,
                "y": 0.0077485991402295624,
                "z": 0.005598929693374583
            },
            "position": {
                "x": -0.8841497679147869,
                "y": 0.44412534475326537,
                "z": 0.3711530566215515
            }
        },
        "name": "move_to_auspresseinheit_D"
    },
    "id": "ProjEST_move_to_auspresseinheit_D_9",
    "joint_names": [
        "shoulder_pan_joint",
        "shoulder_lift_joint",
        "elbow_joint",
        "wrist_1_joint",
        "wrist_2_joint",
        "wrist_3_joint"
    ],
    "metrics": {
        "cart_traj_len": 0.34471940647667876,
        "distance_elbow_joint": 0.6597053451891952,
        "distance_shoulder_lift_joint": 0.13249171000230753,
        "distance_shoulder_pan_joint": 0.1342001060625393,
        "distance_wrist_1_joint": 0.5997302267683846,
        "distance_wrist_2_joint": 1.4294581571085558,
        "distance_wrist_3_joint": 0.05185035655886194,
        "smoothness": 0.0,
        "time": 0.313167048,
        "traj_len": 1.73419603900189,
        "weighted_distance": 2.267228484005198
    },
    "planner": "ProjEST",
    "start": {
        "state": {
            "elbow_joint": -1.8275523626775212,
            "shoulder_lift_joint": -2.126789852344167,
            "shoulder_pan_joint": -0.03513704404078235,
            "wrist_1_joint": -2.347782403156801,
            "wrist_2_joint": -1.6058999987535132,
            "wrist_3_joint": -3.0880379163319196
        }
    },
    "waypoints": [
        {
            "positions": [
                -0.03513704404078235,
                -2.126789852344167,
                -1.8275523626775212,
                -2.347782403156801,
                -1.6058999987535132,
                -3.0880379163319196
            ]
        },
        {
            "positions": [
                -0.05191205729859976,
                -2.1433513160944555,
                -1.7450891945288718,
                -2.422748681502849,
                -1.4272177291149437,
                -3.081556621762062
            ]
        },
        {
            "positions": [
                -0.06868707055641718,
                -2.1599127798447437,
                -1.6626260263802224,
                -2.497714959848897,
                -1.2485354594763742,
                -3.075075327192204
            ]
        },
        {
            "positions": [
                -0.08546208381423459,
                -2.176474243595032,
                -1.580162858231573,
                -2.572681238194945,
                -1.0698531898378048,
                -3.068594032622346
            ]
        },
        {
            "positions": [
                -0.102237097072052,
                -2.1930357073453206,
                -1.4976996900829236,
                -2.647647516540993,
                -0.8911709201992353,
                -3.0621127380524884
            ]
        },
        {
            "positions": [
                -0.11901211032986941,
                -2.2095971710956093,
                -1.4152365219342742,
                -2.7226137948870415,
                -0.7124886505606658,
                -3.055631443482631
            ]
        },
        {
            "positions": [
                -0.13578712358768683,
                -2.2261586348458975,
                -1.3327733537856248,
                -2.7975800732330893,
                -0.5338063809220963,
                -3.0491501489127733
            ]
        },
        {
            "positions": [
                -0.15256213684550424,
                -2.2427200985961857,
                -1.2503101856369754,
                -2.872546351579137,
                -0.35512411128352683,
                -3.0426688543429155
            ]
        },
        {
            "positions": [
                -0.16933715010332165,
                -2.2592815623464744,
                -1.167847017488326,
                -2.9475126299251855,
                -0.17644184164495735,
                -3.0361875597730577
            ]
        }
    ]
}