{
    "goal": {
        "global_pose": {
            "orientation": {
                "w": 0.7031023502349854,
                "x": -0.7110244035720825,
                "y": 0.007748599164187908,
                "z": 0.005598929710686207
            },
            "position": {
                "x": 0.11585023208521307,
                "y": 0.44412534475326537,
                "z": 0.3711530566215515
            }
        },
        "name": "move_to_auspresseinheit_A"
    },
    "id": "ProjEST_move_to_auspresseinheit_A_135",
    "joint_names": [
        "shoulder_pan_joint",
        "shoulder_lift_joint",
        "elbow_joint",
        "wrist_1_joint",
        "wrist_2_joint",
        "wrist_3_joint"
    ],
    "metrics": {
        "cart_traj_len": 1.750775614548291,
        "distance_elbow_joint": 0.9984659611331872,
        "distance_shoulder_lift_joint": 0.6239325195794725,
        "distance_shoulder_pan_joint": 3.2268585260919527,
        "distance_wrist_1_joint": 3.9416317425974507,
        "distance_wrist_2_joint": 0.5783120009721558,
        "distance_wrist_3_joint": 6.32780494493126,
        "smoothness": 0.734370133702221,
        "time": 0.58712412,
        "traj_len": 3.9619446860481884,
        "weighted_distance": 5.733459629991094
    },
    "planner": "ProjEST",
    "start": {
        "state": {
            "elbow_joint": 2.4225746658250005,
            "shoulder_lift_joint": -1.3736534386056498,
            "shoulder_pan_joint": -0.3378633547517467,
            "wrist_1_joint": -1.0288598680537169,
            "wrist_2_joint": 1.233022673432363,
            "wrist_3_joint": -3.0940220416140027
        }
    },
    "waypoints": [
        {
            "positions": [
                -0.3378633547517467,
                -1.3736534386056498,
                2.4225746658250005,
                -1.0288598680537169,
                1.233022673432363,
                -3.0940220416140027
            ]
        },
        {
            "positions": [
                -0.3925049778374939,
                -1.371359819969456,
                2.396807935625094,
                -0.9159936023906583,
                1.2052287602987697,
                -2.937333342798671
            ]
        },
        {
            "positions": [
                -0.447146600923241,
                -1.3690662013332622,
                2.371041205425188,
                -0.8031273367275998,
                1.1774348471651763,
                -2.7806446439833397
            ]
        },
        {
            "positions": [
                -0.5017882240089881,
                -1.3667725826970685,
                2.3452744752252817,
                -0.6902610710645414,
                1.149640934031583,
                -2.6239559451680083
            ]
        },
        {
            "positions": [
                -0.5564298470947353,
                -1.3644789640608748,
                2.3195077450253754,
                -0.5773948054014828,
                1.1218470208979896,
                -2.4672672463526766
            ]
        },
        {
            "positions": [
                -0.6110714701804825,
                -1.3621853454246808,
                2.293741014825469,
                -0.46452853973842423,
                1.0940531077643962,
                -2.3105785475373453
            ]
        },
        {
            "positions": [
                -0.6657130932662295,
                -1.3598917267884871,
                2.267974284625563,
                -0.35166227407536577,
                1.0662591946308029,
                -2.153889848722014
            ]
        },
        {
            "positions": [
                -0.7203547163519767,
                -1.3575981081522934,
                2.242207554425656,
                -0.2387960084123072,
                1.0384652814972095,
                -1.9972011499066822
            ]
        },
        {
            "positions": [
                -0.7749963394377238,
                -1.3553044895160995,
                2.21644082422575,
                -0.12592974274924862,
                1.0106713683636162,
                -1.8405124510913504
            ]
        },
        {
            "positions": [
                -0.829637962523471,
                -1.3530108708799058,
                2.1906740940258436,
                -0.013063477086190156,
                0.9828774552300228,
                -1.683823752276019
            ]
        },
        {
            "positions": [
                -0.884279585609218,
                -1.350717252243712,
                2.1649073638259373,
                0.09980278857686842,
                0.9550835420964294,
                -1.5271350534606876
            ]
        },
        {
            "positions": [
                -0.9389212086949652,
                -1.3484236336075182,
                2.139140633626031,
                0.212669054239927,
                0.927289628962836,
                -1.3704463546453558
            ]
        },
        {
            "positions": [
                -0.9935628317807124,
                -1.3461300149713245,
                2.1133739034261247,
                0.32553531990298534,
                0.8994957158292427,
                -1.2137576558300247
            ]
        },
        {
            "positions": [
                -1.0482044548664595,
                -1.3438363963351305,
                2.0876071732262185,
                0.43840158556604414,
                0.8717018026956492,
                -1.057068957014693
            ]
        },
        {
            "positions": [
                -1.1028460779522067,
                -1.3415427776989368,
                2.061840443026312,
                0.5512678512291025,
                0.843907889562056,
                -0.9003802581993616
            ]
        },
        {
            "positions": [
                -1.1574877010379538,
                -1.339249159062743,
                2.036073712826406,
                0.6641341168921611,
                0.8161139764284625,
                -0.7436915593840299
            ]
        },
        {
            "positions": [
                -1.212129324123701,
                -1.3369555404265492,
                2.0103069826264997,
                0.7770003825552196,
                0.7883200632948691,
                -0.5870028605686981
            ]
        },
        {
            "positions": [
                -1.266770947209448,
                -1.3346619217903555,
                1.9845402524265934,
                0.889866648218278,
                0.7605261501612759,
                -0.43031416175336723
            ]
        },
        {
            "positions": [
                -1.3214125702951953,
                -1.3323683031541618,
                1.9587735222266869,
                1.0027329138813366,
                0.7327322370276824,
                -0.27362546293803547
            ]
        },
        {
            "positions": [
                -1.3760541933809423,
                -1.3300746845179678,
                1.9330067920267806,
                1.1155991795443951,
                0.7049383238940891,
                -0.11693676412270415
            ]
        },
        {
            "positions": [
                -1.4306958164666894,
                -1.3277810658817741,
                1.9072400618268743,
                1.2284654452074535,
                0.6771444107604957,
                0.03975193469262761
            ]
        },
        {
            "positions": [
                -1.3290755276868318,
                -1.3553077395415645,
                1.930246316928544,
                1.1482603771438211,
                0.6782126840128904,
                -0.11234477809902124
            ]
        },
        {
            "positions": [
                -1.2274552389069742,
                -1.3828344132013548,
                1.9532525720302134,
                1.0680553090801885,
                0.679280957265285,
                -0.2644414908906701
            ]
        },
        {
            "positions": [
                -1.1258349501271165,
                -1.4103610868611451,
                1.976258827131883,
                0.9878502410165562,
                0.6803492305176798,
                -0.4165382036823189
            ]
        },
        {
            "positions": [
                -1.024214661347259,
                -1.4378877605209355,
                1.9992650822335527,
                0.9076451729529238,
                0.6814175037700745,
                -0.5686349164739678
            ]
        },
        {
            "positions": [
                -0.9225943725674012,
                -1.4654144341807258,
                2.0222713373352224,
                0.8274401048892913,
                0.6824857770224692,
                -0.7207316292656166
            ]
        },
        {
            "positions": [
                -0.8209740837875436,
                -1.4929411078405161,
                2.045277592436892,
                0.7472350368256588,
                0.6835540502748638,
                -0.8728283420572654
            ]
        },
        {
            "positions": [
                -0.7193537950076858,
                -1.5204677815003065,
                2.068283847538561,
                0.6670299687620265,
                0.6846223235272585,
                -1.0249250548489144
            ]
        },
        {
            "positions": [
                -0.6177335062278282,
                -1.5479944551600968,
                2.091290102640231,
                0.586824900698394,
                0.6856905967796533,
                -1.1770217676405632
            ]
        },
        {
            "positions": [
                -0.5161132174479706,
                -1.575521128819887,
                2.1142963577419005,
                0.5066198326347615,
                0.6867588700320479,
                -1.329118480432212
            ]
        },
        {
            "positions": [
                -0.41449292866811294,
                -1.6030478024796775,
                2.13730261284357,
                0.42641476457112915,
                0.6878271432844426,
                -1.4812151932238609
            ]
        },
        {
            "positions": [
                -0.3128726398882551,
                -1.6305744761394676,
                2.16030886794524,
                0.34620969650749656,
                0.6888954165368373,
                -1.63331190601551
            ]
        },
        {
            "positions": [
                -0.21125235110839768,
                -1.658101149799258,
                2.183315123046909,
                0.2660046284438642,
                0.689963689789232,
                -1.7854086188071585
            ]
        },
        {
            "positions": [
                -0.10963206232853984,
                -1.6856278234590483,
                2.2063213781485786,
                0.18579956038023182,
                0.6910319630416266,
                -1.9375053315988076
            ]
        },
        {
            "positions": [
                -0.00801177354868221,
                -1.7131544971188386,
                2.2293276332502483,
                0.10559449231659945,
                0.6921002362940214,
                -2.0896020443904564
            ]
        },
        {
            "positions": [
                0.09360851523117542,
                -1.740681170778629,
                2.252333888351918,
                0.025389424252966863,
                0.6931685095464161,
                -2.2416987571821054
            ]
        },
        {
            "positions": [
                0.19522880401103304,
                -1.7682078444384193,
                2.2753401434535876,
                -0.054815643810665504,
                0.6942367827988107,
                -2.393795469973754
            ]
        },
        {
            "positions": [
                0.2968490927908909,
                -1.7957345180982096,
                2.2983463985552572,
                -0.1350207118742981,
                0.6953050560512054,
                -2.545892182765403
            ]
        },
        {
            "positions": [
                0.3984693815707483,
                -1.823261191758,
                2.321352653656927,
                -0.21522577993793046,
                0.6963733293036001,
                -2.6979888955570517
            ]
        },
        {
            "positions": [
                0.5000896703506061,
                -1.8507878654177903,
                2.344358908758596,
                -0.29543084800156283,
                0.6974416025559949,
                -2.8500856083487007
            ]
        },
        {
            "positions": [
                0.6017099591304635,
                -1.8783145390775806,
                2.3673651638602657,
                -0.3756359160651952,
                0.6985098758083895,
                -3.0021823211403493
            ]
        },
        {
            "positions": [
                0.7033302479103215,
                -1.905841212737371,
                2.3903714189619354,
                -0.45584098412882784,
                0.6995781490607842,
                -3.1542790339319984
            ]
        }
    ]
}