{
    "goal": {
        "global_pose": {
            "orientation": {
                "w": 0.5084816217422485,
                "x": -0.49083608388900757,
                "y": 0.5182115435600281,
                "z": -0.4816462993621826
            },
            "position": {
                "x": 0.5540239810943604,
                "y": 0.030875300988554955,
                "z": 0.16403168439865112
            }
        },
        "name": "move_to_storage_A"
    },
    "id": "ProjEST_move_to_storage_A_131",
    "joint_names": [
        "shoulder_pan_joint",
        "shoulder_lift_joint",
        "elbow_joint",
        "wrist_1_joint",
        "wrist_2_joint",
        "wrist_3_joint"
    ],
    "metrics": {
        "cart_traj_len": 0.3524096135236828,
        "distance_elbow_joint": 0.44816265637174246,
        "distance_shoulder_lift_joint": 0.23306798520782213,
        "distance_shoulder_pan_joint": 0.4611453678302143,
        "distance_wrist_1_joint": 0.24023452374036636,
        "distance_wrist_2_joint": 1.0950332356633605,
        "distance_wrist_3_joint": 0.10540807484664771,
        "smoothness": 6.661338165333112e-16,
        "time": 0.095018752,
        "traj_len": 1.6071875570885166,
        "weighted_distance": 2.0320274980317503
    },
    "planner": "ProjEST",
    "start": {
        "state": {
            "elbow_joint": 1.971548259319323,
            "shoulder_lift_joint": -1.1394851275133948,
            "shoulder_pan_joint": 0.1228115487234821,
            "wrist_1_joint": -0.7804723859257726,
            "wrist_2_joint": 0.12958671773740124,
            "wrist_3_joint": -3.192489227718131
        }
    },
    "waypoints": [
        {
            "positions": [
                0.1228115487234821,
                -1.1394851275133948,
                1.971548259319323,
                -0.7804723859257726,
                0.12958671773740124,
                -3.192489227718131
            ]
        },
        {
            "positions": [
                0.056933639033451486,
                -1.1727805539716551,
                2.0355714959438576,
                -0.8147916036029678,
                0.2860200371178813,
                -3.1774309313114673
            ]
        },
        {
            "positions": [
                -0.008944270656579129,
                -1.2060759804299155,
                2.0995947325683924,
                -0.849110821280163,
                0.44245335649836137,
                -3.1623726349048034
            ]
        },
        {
            "positions": [
                -0.07482218034660973,
                -1.2393714068881758,
                2.1636179691929267,
                -0.8834300389573582,
                0.5988866758788415,
                -3.1473143384981395
            ]
        },
        {
            "positions": [
                -0.14070009003664036,
                -1.272666833346436,
                2.2276412058174615,
                -0.9177492566345534,
                0.7553199952593216,
                -3.132256042091475
            ]
        },
        {
            "positions": [
                -0.206577999726671,
                -1.3059622598046963,
                2.2916644424419963,
                -0.9520684743117486,
                0.9117533146398017,
                -3.1171977456848112
            ]
        },
        {
            "positions": [
                -0.27245590941670156,
                -1.3392576862629566,
                2.3556876790665306,
                -0.9863876919889438,
                1.0681866340202817,
                -3.1021394492781473
            ]
        },
        {
            "positions": [
                -0.3383338191067322,
                -1.372553112721217,
                2.4197109156910654,
                -1.020706909666139,
                1.2246199534007618,
                -3.0870811528714834
            ]
        }
    ]
}{
    "goal": {
        "global_pose": {
            "orientation": {
                "w": 0.5084816217422485,
                "x": -0.49083608388900757,
                "y": 0.5182115435600281,
                "z": -0.4816462993621826
            },
            "position": {
                "x": 0.5540239810943604,
                "y": 0.030875300988554955,
                "z": 0.16403168439865112
            }
        },
        "name": "move_to_storage_A"
    },
    "id": "ProjEST_move_to_storage_A_131",
    "joint_names": [
        "shoulder_pan_joint",
        "shoulder_lift_joint",
        "elbow_joint",
        "wrist_1_joint",
        "wrist_2_joint",
        "wrist_3_joint"
    ],
    "metrics": {
        "cart_traj_len": 0.35341504352916187,
        "distance_elbow_joint": 0.4506970963053867,
        "distance_shoulder_lift_joint": 0.2323564413558974,
        "distance_shoulder_pan_joint": 0.4633720387760427,
        "distance_wrist_1_joint": 0.25045365732423996,
        "distance_wrist_2_joint": 1.0930285786863358,
        "distance_wrist_3_joint": 0.09803794941109478,
        "smoothness": 1.1102230263833737e-15,
        "time": 0.09419939499999999,
        "traj_len": 1.6087093466064644,
        "weighted_distance": 2.0316259243994113
    },
    "planner": "ProjEST",
    "start": {
        "state": {
            "elbow_joint": 1.97154746011099,
            "shoulder_lift_joint": -1.13948474672311,
            "shoulder_pan_joint": 0.12281154466712228,
            "wrist_1_joint": -0.7804688027058302,
            "wrist_2_joint": 0.12958655903071145,
            "wrist_3_joint": 3.0906928834467795
        }
    },
    "waypoints": [
        {
            "positions": [
                0.12281154466712228,
                -1.13948474672311,
                1.97154746011099,
                -0.7804688027058302,
                0.12958655903071145,
                3.0906928834467795
            ]
        },
        {
            "positions": [
                0.05661553912768762,
                -1.1726785240596667,
                2.035932759583188,
                -0.8162478966092931,
                0.2857334988430451,
                3.1046983047912216
            ]
        },
        {
            "positions": [
                -0.009580466411747049,
                -1.2058723013962236,
                2.100318059055386,
                -0.8520269905127559,
                0.44188043865537885,
                3.1187037261356636
            ]
        },
        {
            "positions": [
                -0.07577647195118171,
                -1.2390660787327803,
                2.1647033585275843,
                -0.8878060844162188,
                0.5980273784677125,
                3.1327091474801056
            ]
        },
        {
            "positions": [
                -0.14197247749061637,
                -1.272259856069337,
                2.229088657999782,
                -0.9235851783196816,
                0.7541743182800462,
                3.146714568824548
            ]
        },
        {
            "positions": [
                -0.2081684830300511,
                -1.305453633405894,
                2.2934739574719805,
                -0.9593642722231445,
                0.91032125809238,
                3.16071999016899
            ]
        },
        {
            "positions": [
                -0.2743644885694857,
                -1.3386474107424506,
                2.3578592569441783,
                -0.9951433661266073,
                1.0664681979047135,
                3.1747254115134322
            ]
        },
        {
            "positions": [
                -0.3405604941089204,
                -1.3718411880790073,
                2.4222445564163766,
                -1.0309224600300702,
                1.2226151377170473,
                3.1887308328578743
            ]
        }
    ]
}{
    "goal": {
        "global_pose": {
            "orientation": {
                "w": 0.5084816217422485,
                "x": -0.49083608388900757,
                "y": 0.5182115435600281,
                "z": -0.4816462993621826
            },
            "position": {
                "x": 0.5540239810943604,
                "y": 0.030875300988554955,
                "z": 0.16403168439865112
            }
        },
        "name": "move_to_storage_A"
    },
    "id": "ProjEST_move_to_storage_A_131",
    "joint_names": [
        "shoulder_pan_joint",
        "shoulder_lift_joint",
        "elbow_joint",
        "wrist_1_joint",
        "wrist_2_joint",
        "wrist_3_joint"
    ],
    "metrics": {
        "cart_traj_len": 0.3529392385046417,
        "distance_elbow_joint": 0.449113818321206,
        "distance_shoulder_lift_joint": 0.2365342744777179,
        "distance_shoulder_pan_joint": 0.4596063154723652,
        "distance_wrist_1_joint": 0.23586796525470444,
        "distance_wrist_2_joint": 1.1077851406611008,
        "distance_wrist_3_joint": 0.10397221393974387,
        "smoothness": 0.0,
        "time": 0.058462301,
        "traj_len": 1.6102421333845534,
        "weighted_distance": 2.0357989247276196
    },
    "planner": "ProjEST",
    "start": {
        "state": {
            "elbow_joint": 1.9715472970024885,
            "shoulder_lift_joint": -1.1394870060712896,
            "shoulder_pan_joint": 0.12281152778156021,
            "wrist_1_joint": -0.780463741449964,
            "wrist_2_joint": 0.12958659822042276,
            "wrist_3_joint": 3.090690232415272
        }
    },
    "waypoints": [
        {
            "positions": [
                0.12281152778156021,
                -1.1394870060712896,
                1.9715472970024885,
                -0.780463741449964,
                0.12958659822042276,
                3.090690232415272
            ]
        },
        {
            "positions": [
                0.05715348271407947,
                -1.1732776167109635,
                2.035706413905518,
                -0.814159165057779,
                0.2878416183148657,
                3.105543405835235
            ]
        },
        {
            "positions": [
                -0.008504562353401274,
                -1.2070682273506377,
                2.099865530808547,
                -0.8478545886655938,
                0.4460966384093087,
                3.120396579255199
            ]
        },
        {
            "positions": [
                -0.07416260742088202,
                -1.2408588379903116,
                2.1640246477115768,
                -0.8815500122734088,
                0.6043516585037516,
                3.135249752675162
            ]
        },
        {
            "positions": [
                -0.13982065248836276,
                -1.2746494486299855,
                2.2281837646146063,
                -0.9152454358812236,
                0.7626066785981945,
                3.1501029260951254
            ]
        },
        {
            "positions": [
                -0.2054786975558435,
                -1.3084400592696595,
                2.292342881517636,
                -0.9489408594890386,
                0.9208616986926376,
                3.1649560995150887
            ]
        },
        {
            "positions": [
                -0.2711367426233242,
                -1.3422306699093336,
                2.356501998420665,
                -0.9826362830968535,
                1.0791167187870805,
                3.1798092729350524
            ]
        },
        {
            "positions": [
                -0.33679478769080495,
                -1.3760212805490075,
                2.4206611153236945,
                -1.0163317067046684,
                1.2373717388815235,
                3.1946624463550157
            ]
        }
    ]
}