{
    "goal": {
        "global_pose": {
            "orientation": {
                "w": 0.5084816262002911,
                "x": -0.4908360881923452,
                "y": 0.5182115481033761,
                "z": -0.48164630358495003
            },
            "position": {
                "x": 0.5540239810943604,
                "y": -0.46912469901144505,
                "z": 0.16403168439865112
            }
        },
        "name": "move_to_storage_B"
    },
    "id": "ProjEST_move_to_storage_B_54",
    "joint_names": [
        "shoulder_pan_joint",
        "shoulder_lift_joint",
        "elbow_joint",
        "wrist_1_joint",
        "wrist_2_joint",
        "wrist_3_joint"
    ],
    "metrics": {
        "cart_traj_len": 2.127098129178497,
        "distance_elbow_joint": 1.2600536098772888,
        "distance_shoulder_lift_joint": 1.125063363693298,
        "distance_shoulder_pan_joint": 1.8811800719303684,
        "distance_wrist_1_joint": 3.209391627153863,
        "distance_wrist_2_joint": 2.851865754115502,
        "distance_wrist_3_joint": 3.289852633328394,
        "smoothness": 0.6225658003982167,
        "time": 0.091943476,
        "traj_len": 3.69017710416434,
        "weighted_distance": 5.124292117749032
    },
    "planner": "ProjEST",
    "start": {
        "state": {
            "elbow_joint": 1.664937868594044,
            "shoulder_lift_joint": -0.661644460510453,
            "shoulder_pan_joint": -0.9139846352900073,
            "wrist_1_joint": 2.146753192139373,
            "wrist_2_joint": -2.2341966793290973,
            "wrist_3_joint": 0.005466555786416001
        }
    },
    "waypoints": [
        {
            "positions": [
                -0.9139846352900073,
                -0.661644460510453,
                1.664937868594044,
                2.146753192139373,
                -2.2341966793290973,
                0.005466555786416001
            ]
        },
        {
            "positions": [
                -0.9003250088404529,
                -0.7468099383655973,
                1.717815946329249,
                2.1960473890930503,
                -2.269807041773805,
                -0.02882922392090924
            ]
        },
        {
            "positions": [
                -0.8866653823908985,
                -0.8319754162207416,
                1.770694024064454,
                2.245341586046727,
                -2.305417404218513,
                -0.06312500362823448
            ]
        },
        {
            "positions": [
                -0.84747193949889,
                -0.861620923628309,
                1.7491725700000478,
                2.1448872156984113,
                -2.181463144794041,
                0.00513526808686493
            ]
        },
        {
            "positions": [
                -0.8082784966068814,
                -0.8912664310358765,
                1.7276511159356414,
                2.0444328453500957,
                -2.057508885369569,
                0.07339553980196434
            ]
        },
        {
            "positions": [
                -0.769085053714873,
                -0.920911938443444,
                1.7061296618712352,
                1.9439784750017803,
                -1.933554625945097,
                0.14165581151706375
            ]
        },
        {
            "positions": [
                -0.7298916108228645,
                -0.9505574458510115,
                1.684608207806829,
                1.843524104653465,
                -1.809600366520625,
                0.20991608323216315
            ]
        },
        {
            "positions": [
                -0.6906981679308559,
                -0.980202953258579,
                1.6630867537424225,
                1.7430697343051493,
                -1.685646107096153,
                0.27817635494726256
            ]
        },
        {
            "positions": [
                -0.6515047250388475,
                -1.0098484606661464,
                1.6415652996780163,
                1.6426153639568337,
                -1.561691847671681,
                0.34643662666236197
            ]
        },
        {
            "positions": [
                -0.6123112821468389,
                -1.039493968073714,
                1.62004384561361,
                1.5421609936085183,
                -1.437737588247209,
                0.4146968983774614
            ]
        },
        {
            "positions": [
                -0.5731178392548304,
                -1.0691394754812815,
                1.5985223915492037,
                1.4417066232602027,
                -1.313783328822737,
                0.4829571700925608
            ]
        },
        {
            "positions": [
                -0.533924396362822,
                -1.098784982888849,
                1.5770009374847975,
                1.3412522529118873,
                -1.189829069398265,
                0.5512174418076602
            ]
        },
        {
            "positions": [
                -0.49473095347081336,
                -1.1284304902964164,
                1.555479483420391,
                1.2407978825635717,
                -1.065874809973793,
                0.6194777135227596
            ]
        },
        {
            "positions": [
                -0.4555375105788048,
                -1.158075997703984,
                1.533958029355985,
                1.140343512215256,
                -0.9419205505493209,
                0.6877379852378591
            ]
        },
        {
            "positions": [
                -0.4163440676867963,
                -1.1877215051115515,
                1.5124365752915785,
                1.0398891418669407,
                -0.8179662911248489,
                0.7559982569529584
            ]
        },
        {
            "positions": [
                -0.3771506247947878,
                -1.217367012519119,
                1.4909151212271723,
                0.9394347715186251,
                -0.6940120317003768,
                0.8242585286680579
            ]
        },
        {
            "positions": [
                -0.33795718190277935,
                -1.2470125199266864,
                1.469393667162766,
                0.8389804011703097,
                -0.5700577722759048,
                0.8925188003831572
            ]
        },
        {
            "positions": [
                -0.2987637390107707,
                -1.2766580273342538,
                1.4478722130983597,
                0.7385260308219941,
                -0.4461035128514328,
                0.9607790720982567
            ]
        },
        {
            "positions": [
                -0.25957029611876226,
                -1.3063035347418215,
                1.4263507590339535,
                0.6380716604736785,
                -0.32214925342696077,
                1.029039343813356
            ]
        },
        {
            "positions": [
                -0.2203768532267537,
                -1.335949042149389,
                1.4048293049695473,
                0.5376172901253629,
                -0.19819499400248874,
                1.0972996155284556
            ]
        },
        {
            "positions": [
                -0.18118341033474528,
                -1.3655945495569564,
                1.3833078509051409,
                0.43716291977704747,
                -0.07424073457801672,
                1.1655598872435549
            ]
        },
        {
            "positions": [
                -0.14198996744273662,
                -1.395240056964524,
                1.3617863968407347,
                0.33670854942873185,
                0.049713524846455304,
                1.2338201589586544
            ]
        },
        {
            "positions": [
                -0.10279652455072819,
                -1.4248855643720915,
                1.3402649427763285,
                0.23625417908041646,
                0.17366778427092733,
                1.3020804306737537
            ]
        },
        {
            "positions": [
                -0.06360308165871967,
                -1.454531071779659,
                1.318743488711922,
                0.13579980873210074,
                0.29762204369539924,
                1.3703407023888532
            ]
        },
        {
            "positions": [
                -0.14289527537403357,
                -1.4289790139008827,
                1.3727701747930257,
                0.05877969673734054,
                0.3112840114886434,
                1.5078634229962882
            ]
        },
        {
            "positions": [
                -0.2221874690893475,
                -1.4034269560221062,
                1.4267968608741293,
                -0.01824041525741965,
                0.32494597928188756,
                1.6453861436037234
            ]
        },
        {
            "positions": [
                -0.30147966280466143,
                -1.37787489814333,
                1.4808235469552329,
                -0.09526052725217984,
                0.3386079470751317,
                1.7829088642111584
            ]
        },
        {
            "positions": [
                -0.38077185651997536,
                -1.3523228402645535,
                1.5348502330363365,
                -0.17228063924694004,
                0.3522699148683759,
                1.9204315848185933
            ]
        },
        {
            "positions": [
                -0.4600640502352893,
                -1.3267707823857773,
                1.5888769191174401,
                -0.2493007512417002,
                0.36593188266162,
                2.0579543054260285
            ]
        },
        {
            "positions": [
                -0.5393562439506032,
                -1.301218724507001,
                1.6429036051985437,
                -0.3263208632364604,
                0.3795938504548642,
                2.1954770260334637
            ]
        },
        {
            "positions": [
                -0.618648437665917,
                -1.2756666666282246,
                1.6969302912796471,
                -0.4033409752312206,
                0.39325581824810835,
                2.3329997466408985
            ]
        },
        {
            "positions": [
                -0.697940631381231,
                -1.2501146087494484,
                1.750956977360751,
                -0.4803610872259808,
                0.40691778604135254,
                2.4705224672483337
            ]
        },
        {
            "positions": [
                -0.7772328250965448,
                -1.2245625508706721,
                1.8049836634418543,
                -0.5573811992207409,
                0.42057975383459667,
                2.608045187855769
            ]
        },
        {
            "positions": [
                -0.8565250188118588,
                -1.1990104929918957,
                1.8590103495229582,
                -0.6344013112155011,
                0.43424172162784086,
                2.7455679084632036
            ]
        },
        {
            "positions": [
                -0.9358172125271726,
                -1.1734584351131194,
                1.9130370356040616,
                -0.7114214232102614,
                0.447903689421085,
                2.8830906290706384
            ]
        },
        {
            "positions": [
                -1.0151094062424868,
                -1.147906377234343,
                1.9670637216851652,
                -0.7884415352050216,
                0.4615656572143292,
                3.020613349678074
            ]
        },
        {
            "positions": [
                -1.0944015999578005,
                -1.1223543193555667,
                2.021090407766269,
                -0.8654616471997816,
                0.4752276250075733,
                3.158136070285509
            ]
        }
    ]
}