{
    "goal": {
        "global_pose": {
            "orientation": {
                "w": -0.00223480608172531,
                "x": 0.0024358444001904467,
                "y": 0.7094548369677653,
                "z": -0.704743149386269
            },
            "position": {
                "x": 0.6205249238014221,
                "y": -0.6371506643295288,
                "z": 0.19426114857196808
            }
        },
        "name": "move_to_magneteinheit_B"
    },
    "id": "ProjEST_move_to_magneteinheit_B_112",
    "joint_names": [
        "shoulder_pan_joint",
        "shoulder_lift_joint",
        "elbow_joint",
        "wrist_1_joint",
        "wrist_2_joint",
        "wrist_3_joint"
    ],
    "metrics": {
        "cart_traj_len": 1.4983338628144958,
        "distance_elbow_joint": 0.9557306100216088,
        "distance_shoulder_lift_joint": 1.1674318188597899,
        "distance_shoulder_pan_joint": 1.6220775729207868,
        "distance_wrist_1_joint": 1.3176947792434048,
        "distance_wrist_2_joint": 2.9050187126465783,
        "distance_wrist_3_joint": 0.5483757142774095,
        "smoothness": 0.7791797709727404,
        "time": 0.401686791,
        "traj_len": 2.9182750398085475,
        "weighted_distance": 3.7196497319525106
    },
    "planner": "ProjEST",
    "start": {
        "state": {
            "elbow_joint": 2.6216224122426386,
            "shoulder_lift_joint": -1.4174107377796124,
            "shoulder_pan_joint": 0.7066234856936794,
            "wrist_1_joint": 1.9546482284002225,
            "wrist_2_joint": -0.7096286983471962,
            "wrist_3_joint": 0.005740856962016249
        }
    },
    "waypoints": [
        {
            "positions": [
                0.7066234856936794,
                -1.4174107377796124,
                2.6216224122426386,
                1.9546482284002225,
                -0.7096286983471962,
                0.005740856962016249
            ]
        },
        {
            "positions": [
                0.642423936083852,
                -1.4420494454099255,
                2.6077468196091766,
                1.889251105160424,
                -0.6329110848129995,
                0.029922064762336213
            ]
        },
        {
            "positions": [
                0.5782243864740245,
                -1.4666881530402387,
                2.5938712269757147,
                1.8238539819206254,
                -0.5561934712788028,
                0.05410327256265617
            ]
        },
        {
            "positions": [
                0.49623327355036306,
                -1.4979480362635262,
                2.553063103809298,
                1.7369360664573092,
                -0.4480450078207855,
                0.09909562386539975
            ]
        },
        {
            "positions": [
                0.4142421606267016,
                -1.5292079194868138,
                2.5122549806428816,
                1.6500181509939933,
                -0.33989654436276817,
                0.1440879751681433
            ]
        },
        {
            "positions": [
                0.3322510477030402,
                -1.5604678027101013,
                2.4714468574764648,
                1.5631002355306771,
                -0.2317480809047509,
                0.18908032647088685
            ]
        },
        {
            "positions": [
                0.2502599347793787,
                -1.5917276859333889,
                2.4306387343100484,
                1.4761823200673612,
                -0.12359961744673359,
                0.23407267777363044
            ]
        },
        {
            "positions": [
                0.1682688218557173,
                -1.6229875691566764,
                2.3898306111436316,
                1.389264404604045,
                -0.015451153988716326,
                0.279065029076374
            ]
        },
        {
            "positions": [
                0.10053614003804075,
                -1.562871632439006,
                2.344584435585969,
                1.4362838393194968,
                -0.15362872700672253,
                0.26187430769118325
            ]
        },
        {
            "positions": [
                0.03280345822036421,
                -1.5027556957213357,
                2.2993382600283065,
                1.4833032740349483,
                -0.29180630002472874,
                0.2446835863059925
            ]
        },
        {
            "positions": [
                -0.03492922359731232,
                -1.4426397590036653,
                2.254092084470644,
                1.5303227087504,
                -0.42998387304273494,
                0.22749286492080176
            ]
        },
        {
            "positions": [
                -0.10266190541498887,
                -1.3825238222859948,
                2.208845908912981,
                1.5773421434658519,
                -0.5681614460607411,
                0.210302143535611
            ]
        },
        {
            "positions": [
                -0.17039458723266543,
                -1.3224078855683246,
                2.1635997333553187,
                1.6243615781813037,
                -0.7063390190787473,
                0.19311142215042026
            ]
        },
        {
            "positions": [
                -0.23812726905034193,
                -1.262291948850654,
                2.118353557797656,
                1.6713810128967552,
                -0.8445165920967536,
                0.17592070076522953
            ]
        },
        {
            "positions": [
                -0.3058599508680185,
                -1.2021760121329836,
                2.0731073822399932,
                1.718400447612207,
                -0.9826941651147598,
                0.1587299793800388
            ]
        },
        {
            "positions": [
                -0.37359263268569504,
                -1.1420600754153134,
                2.0278612066823305,
                1.7654198823276586,
                -1.120871738132766,
                0.14153925799484804
            ]
        },
        {
            "positions": [
                -0.4413253145033716,
                -1.0819441386976432,
                1.9826150311246682,
                1.8124393170431103,
                -1.2590493111507721,
                0.1243485366096573
            ]
        },
        {
            "positions": [
                -0.5090579963210482,
                -1.0218282019799727,
                1.9373688555670054,
                1.8594587517585621,
                -1.3972268841687783,
                0.10715781522446655
            ]
        },
        {
            "positions": [
                -0.5767906781387246,
                -0.9617122652623022,
                1.892122680009343,
                1.906478186474014,
                -1.5354044571867846,
                0.08996709383927581
            ]
        },
        {
            "positions": [
                -0.6445233599564011,
                -0.9015963285446319,
                1.8468765044516804,
                1.9534976211894655,
                -1.6735820302047908,
                0.07277637245408508
            ]
        },
        {
            "positions": [
                -0.7122560417740778,
                -0.8414803918269615,
                1.8016303288940176,
                2.0005170559049175,
                -1.811759603222797,
                0.05558565106889432
            ]
        },
        {
            "positions": [
                -0.7799887235917542,
                -0.7813644551092911,
                1.7563841533363551,
                2.047536490620369,
                -1.9499371762408033,
                0.03839492968370359
            ]
        },
        {
            "positions": [
                -0.8477214054094309,
                -0.7212485183916207,
                1.7111379777786926,
                2.0945559253358206,
                -2.0881147492588097,
                0.021204208298512828
            ]
        },
        {
            "positions": [
                -0.9154540872271074,
                -0.6611325816739504,
                1.6658918022210298,
                2.1415753600512724,
                -2.226292322276816,
                0.004013486913322093
            ]
        }
    ]
}