{
    "goal": {
        "global_pose": {
            "orientation": {
                "w": -0.4816463035849501,
                "x": 0.5182115481033762,
                "y": 0.4908360881923453,
                "z": -0.5084816262002911
            },
            "position": {
                "x": -0.8240239810943604,
                "y": -0.300875300988555,
                "z": 0.16403168439865112
            }
        },
        "name": "move_to_storage_C"
    },
    "id": "ProjEST_move_to_storage_C_16",
    "joint_names": [
        "shoulder_pan_joint",
        "shoulder_lift_joint",
        "elbow_joint",
        "wrist_1_joint",
        "wrist_2_joint",
        "wrist_3_joint"
    ],
    "metrics": {
        "cart_traj_len": 0.5769840401197355,
        "distance_elbow_joint": 0.2590558806013292,
        "distance_shoulder_lift_joint": 0.18908404381167765,
        "distance_shoulder_pan_joint": 0.49500457613992177,
        "distance_wrist_1_joint": 0.08091564936737616,
        "distance_wrist_2_joint": 1.0674293199582459,
        "distance_wrist_3_joint": 0.06720000938447113,
        "smoothness": 2.5376526478085547e-16,
        "time": 0.11959898,
        "traj_len": 1.4692479298141012,
        "weighted_distance": 1.8551103652768441
    },
    "planner": "ProjEST",
    "start": {
        "state": {
            "elbow_joint": 2.010868314990456,
            "shoulder_lift_joint": -1.1634956873337592,
            "shoulder_pan_joint": -2.4736205022346125,
            "wrist_1_joint": -0.8367026794202681,
            "wrist_2_joint": 0.6746043897044499,
            "wrist_3_joint": -3.1496632123970403
        }
    },
    "waypoints": [
        {
            "positions": [
                -2.4736205022346125,
                -1.1634956873337592,
                2.010868314990456,
                -0.8367026794202681,
                0.6746043897044499,
                -3.1496632123970403
            ]
        },
        {
            "positions": [
                -2.5561212649245997,
                -1.131981680031813,
                1.9676923348902342,
                -0.8232167378590387,
                0.8525092763641575,
                -3.1384632108329615
            ]
        },
        {
            "positions": [
                -2.6386220276145864,
                -1.1004676727298666,
                1.9245163547900128,
                -0.8097307962978094,
                1.0304141630238652,
                -3.1272632092688832
            ]
        },
        {
            "positions": [
                -2.721122790304573,
                -1.0689536654279204,
                1.8813403746897912,
                -0.79624485473658,
                1.2083190496835727,
                -3.116063207704805
            ]
        },
        {
            "positions": [
                -2.8036235529945603,
                -1.0374396581259742,
                1.8381643945895696,
                -0.7827589131753506,
                1.3862239363432804,
                -3.104863206140726
            ]
        },
        {
            "positions": [
                -2.8861243156845475,
                -1.0059256508240277,
                1.7949884144893482,
                -0.7692729716141213,
                1.5641288230029882,
                -3.0936632045766475
            ]
        },
        {
            "positions": [
                -2.9686250783745343,
                -0.9744116435220815,
                1.7518124343891266,
                -0.7557870300528919,
                1.7420337096626959,
                -3.082463203012569
            ]
        }
    ]
}