{
    "goal": {
        "global_pose": {
            "orientation": {
                "w": -0.00223480608172531,
                "x": 0.0024358444001904467,
                "y": 0.7094548369677653,
                "z": -0.704743149386269
            },
            "position": {
                "x": 0.6205249238014221,
                "y": -0.6371506643295288,
                "z": 0.19426114857196808
            }
        },
        "name": "move_to_magneteinheit_B"
    },
    "id": "ProjEST_move_to_magneteinheit_B_86",
    "joint_names": [
        "shoulder_pan_joint",
        "shoulder_lift_joint",
        "elbow_joint",
        "wrist_1_joint",
        "wrist_2_joint",
        "wrist_3_joint"
    ],
    "metrics": {
        "cart_traj_len": 4.971380138844481,
        "distance_elbow_joint": 4.512114453257272,
        "distance_shoulder_lift_joint": 1.8036055037930292,
        "distance_shoulder_pan_joint": 4.9601243489410844,
        "distance_wrist_1_joint": 5.358606953172247,
        "distance_wrist_2_joint": 1.5355914752749213,
        "distance_wrist_3_joint": 1.4181223446217759,
        "smoothness": 0.4745590797879213,
        "time": 1.972206262,
        "traj_len": 4.425851904329869,
        "weighted_distance": 5.414666028182262
    },
    "planner": "ProjEST",
    "start": {
        "state": {
            "elbow_joint": 2.6216224122426386,
            "shoulder_lift_joint": -1.4174107377796124,
            "shoulder_pan_joint": 0.7066234856936794,
            "wrist_1_joint": 1.9546482284002225,
            "wrist_2_joint": -0.7096286983471962,
            "wrist_3_joint": 0.005740856962016249
        }
    },
    "waypoints": [
        {
            "positions": [
                0.7066234856936794,
                -1.4174107377796124,
                2.6216224122426386,
                1.9546482284002225,
                -0.7096286983471962,
                0.005740856962016249
            ]
        },
        {
            "positions": [
                0.5836471341211256,
                -1.380497139216729,
                2.6198388366303016,
                1.8273024383211625,
                -0.6521688826173763,
                -0.022097437602980635
            ]
        },
        {
            "positions": [
                0.4606707825485717,
                -1.3435835406538454,
                2.6180552610179646,
                1.6999566482421022,
                -0.5947090668875563,
                -0.049935732167977524
            ]
        },
        {
            "positions": [
                0.33769443097601787,
                -1.306669942090962,
                2.6162716854056276,
                1.5726108581630422,
                -0.5372492511577365,
                -0.0777740267329744
            ]
        },
        {
            "positions": [
                0.214718079403464,
                -1.2697563435280785,
                2.6144881097932906,
                1.445265068083982,
                -0.4797894354279165,
                -0.1056123212979713
            ]
        },
        {
            "positions": [
                0.09174172783091017,
                -1.232842744965195,
                2.6127045341809536,
                1.317919278004922,
                -0.42232961969809657,
                -0.13345061586296816
            ]
        },
        {
            "positions": [
                -0.031234623741643652,
                -1.1959291464023116,
                2.6109209585686166,
                1.190573487925862,
                -0.3648698039682767,
                -0.16128891042796503
            ]
        },
        {
            "positions": [
                -0.15421097531419747,
                -1.1590155478394282,
                2.6091373829562796,
                1.063227697846802,
                -0.3074099882384567,
                -0.18912720499296193
            ]
        },
        {
            "positions": [
                -0.2771873268867514,
                -1.1221019492765447,
                2.6073538073439426,
                0.9358819077677418,
                -0.24995017250863677,
                -0.21696549955795882
            ]
        },
        {
            "positions": [
                -0.40016367845930534,
                -1.0851883507136613,
                2.6055702317316056,
                0.8085361176886818,
                -0.19249035677881687,
                -0.24480379412295572
            ]
        },
        {
            "positions": [
                -0.523140030031859,
                -1.0482747521507778,
                2.6037866561192686,
                0.6811903276096218,
                -0.13503054104899692,
                -0.2726420886879526
            ]
        },
        {
            "positions": [
                -0.4906248244263844,
                -1.1026940411381367,
                2.526842858544069,
                0.5468400411994403,
                -0.08145777568947142,
                -0.3035694534167523
            ]
        },
        {
            "positions": [
                -0.4581096188209097,
                -1.1571133301254959,
                2.4498990609688693,
                0.4124897547892588,
                -0.02788501032994592,
                -0.334496818145552
            ]
        },
        {
            "positions": [
                -0.42559441321543506,
                -1.2115326191128548,
                2.3729552633936697,
                0.27813946837907727,
                0.025687755029579568,
                -0.3654241828743517
            ]
        },
        {
            "positions": [
                -0.3930792076099604,
                -1.2659519081002137,
                2.2960114658184705,
                0.14378918196889579,
                0.07926052038910508,
                -0.3963515476031514
            ]
        },
        {
            "positions": [
                -0.3605640020044858,
                -1.3203711970875727,
                2.219067668243271,
                0.009438895558714244,
                0.13283328574863063,
                -0.4272789123319511
            ]
        },
        {
            "positions": [
                -0.3280487963990111,
                -1.3747904860749318,
                2.142123870668071,
                -0.1249113908514673,
                0.18640605110815606,
                -0.4582062770607508
            ]
        },
        {
            "positions": [
                -0.29553359079353647,
                -1.4292097750622907,
                2.0651800730928715,
                -0.25926167726164884,
                0.2399788164676816,
                -0.4891336417895505
            ]
        },
        {
            "positions": [
                -0.2630183851880618,
                -1.4836290640496497,
                1.988236275517672,
                -0.39361196367183027,
                0.2935515818272071,
                -0.5200610065183502
            ]
        },
        {
            "positions": [
                -0.2305031795825871,
                -1.5380483530370088,
                1.9112924779424723,
                -0.527962250082012,
                0.34712434718673263,
                -0.5509883712471499
            ]
        },
        {
            "positions": [
                -0.19798797397711249,
                -1.5924676420243677,
                1.8343486803672728,
                -0.6623125364921933,
                0.40069711254625817,
                -0.5819157359759496
            ]
        },
        {
            "positions": [
                -0.16547276837163782,
                -1.6468869310117267,
                1.7574048827920732,
                -0.7966628229023749,
                0.45426987790578355,
                -0.6128431007047492
            ]
        },
        {
            "positions": [
                -0.13295756276616316,
                -1.7013062199990858,
                1.6804610852168738,
                -0.9310131093125564,
                0.507842643265309,
                -0.643770465433549
            ]
        },
        {
            "positions": [
                -0.1004423571606885,
                -1.7557255089864447,
                1.6035172876416741,
                -1.065363395722738,
                0.5614154086248346,
                -0.6746978301623487
            ]
        },
        {
            "positions": [
                -0.06792715155521384,
                -1.8101447979738037,
                1.5265734900664745,
                -1.1997136821329195,
                0.6149881739843601,
                -0.7056251948911484
            ]
        },
        {
            "positions": [
                0.06262551204104391,
                -1.8156729394484554,
                1.3829997672555954,
                -1.105037254338739,
                0.6162703257456329,
                -0.6871123089454207
            ]
        },
        {
            "positions": [
                0.19317817563730166,
                -1.821201080923107,
                1.2394260444447163,
                -1.0103608265445587,
                0.6175524775069058,
                -0.6685994229996931
            ]
        },
        {
            "positions": [
                0.3237308392335594,
                -1.8267292223977587,
                1.0958523216338372,
                -0.9156843987503782,
                0.6188346292681786,
                -0.6500865370539655
            ]
        },
        {
            "positions": [
                0.45428350282981717,
                -1.8322573638724104,
                0.952278598822958,
                -0.8210079709561978,
                0.6201167810294513,
                -0.6315736511082378
            ]
        },
        {
            "positions": [
                0.5848361664260748,
                -1.837785505347062,
                0.8087048760120789,
                -0.7263315431620174,
                0.6213989327907242,
                -0.6130607651625102
            ]
        },
        {
            "positions": [
                0.7153888300223326,
                -1.8433136468217137,
                0.6651311532011998,
                -0.631655115367837,
                0.622681084551997,
                -0.5945478792167825
            ]
        },
        {
            "positions": [
                0.8459414936185905,
                -1.8488417882963655,
                0.5215574303903205,
                -0.5369786875736565,
                0.6239632363132698,
                -0.5760349932710549
            ]
        },
        {
            "positions": [
                0.9764941572148482,
                -1.854369929771017,
                0.37798370757944144,
                -0.4423022597794761,
                0.6252453880745426,
                -0.5575221073253273
            ]
        },
        {
            "positions": [
                1.107046820811106,
                -1.8598980712456687,
                0.23440998476856234,
                -0.34762583198529573,
                0.6265275398358154,
                -0.5390092213795996
            ]
        },
        {
            "positions": [
                1.2375994844073637,
                -1.8654262127203203,
                0.09083626195768324,
                -0.25294940419111533,
                0.6278096915970882,
                -0.520496335433872
            ]
        },
        {
            "positions": [
                1.3681521480036214,
                -1.870954354194972,
                -0.05273746085319586,
                -0.15827297639693483,
                0.629091843358361,
                -0.5019834494881443
            ]
        },
        {
            "positions": [
                1.4987048115998791,
                -1.8764824956696238,
                -0.19631118366407496,
                -0.06359654860275454,
                0.6303739951196339,
                -0.4834705635424167
            ]
        },
        {
            "positions": [
                1.6292574751961368,
                -1.8820106371442753,
                -0.33988490647495384,
                0.03107987919142574,
                0.6316561468809067,
                -0.4649576775966891
            ]
        },
        {
            "positions": [
                1.7598101387923948,
                -1.887538778618927,
                -0.4834586292858334,
                0.12575630698560647,
                0.6329382986421794,
                -0.4464447916509614
            ]
        },
        {
            "positions": [
                1.8903628023886523,
                -1.8930669200935788,
                -0.6270323520967125,
                0.22043273477978675,
                0.6342204504034523,
                -0.4279319057052338
            ]
        },
        {
            "positions": [
                2.0209154659849102,
                -1.8985950615682303,
                -0.7706060749075916,
                0.31510916257396726,
                0.6355026021647251,
                -0.4094190197595062
            ]
        },
        {
            "positions": [
                2.1514681295811675,
                -1.904123203042882,
                -0.9141797977184702,
                0.40978559036814755,
                0.6367847539259979,
                -0.39090613381377853
            ]
        },
        {
            "positions": [
                2.2820207931774257,
                -1.9096513445175338,
                -1.0577535205293498,
                0.504462018162328,
                0.6380669056872708,
                -0.3723932478680509
            ]
        },
        {
            "positions": [
                2.4125734567736834,
                -1.9151794859921853,
                -1.201327243340229,
                0.5991384459565086,
                0.6393490574485435,
                -0.35388036192232325
            ]
        },
        {
            "positions": [
                2.543126120369941,
                -1.920707627466837,
                -1.344900966151108,
                0.6938148737506888,
                0.6406312092098163,
                -0.3353674759765956
            ]
        },
        {
            "positions": [
                2.673678783966199,
                -1.9262357689414888,
                -1.488474688961987,
                0.7884913015448691,
                0.6419133609710891,
                -0.31685459003086797
            ]
        },
        {
            "positions": [
                2.8042314475624566,
                -1.9317639104161404,
                -1.6320484117728662,
                0.8831677293390499,
                0.643195512732362,
                -0.2983417040851403
            ]
        },
        {
            "positions": [
                2.9347841111587143,
                -1.9372920518907921,
                -1.7756221345837453,
                0.9778441571332303,
                0.6444776644936347,
                -0.2798288181394127
            ]
        },
        {
            "positions": [
                2.866674938152471,
                -2.073655106496837,
                -1.7469046579760232,
                0.9845159579764698,
                0.599106386385112,
                -0.209588839135194
            ]
        },
        {
            "positions": [
                2.798565765146228,
                -2.2100181611028824,
                -1.7181871813683014,
                0.9911877588197096,
                0.5537351082765893,
                -0.13934886013097533
            ]
        },
        {
            "positions": [
                2.7304565921399853,
                -2.346381215708927,
                -1.6894697047605796,
                0.9978595596629491,
                0.5083638301680667,
                -0.06910888112675667
            ]
        },
        {
            "positions": [
                2.662347419133742,
                -2.4827442703149725,
                -1.6607522281528575,
                1.0045313605061887,
                0.46299255205954404,
                0.0011310978774620405
            ]
        }
    ]
}