{
    "goal": {
        "global_pose": {
            "orientation": {
                "w": 0.7047431468963623,
                "x": -0.7094548344612122,
                "y": 0.0024358443915843964,
                "z": -0.0022348060738295317
            },
            "position": {
                "x": 0.6094750761985779,
                "y": 0.3671506643295288,
                "z": 0.19426114857196808
            }
        },
        "name": "move_to_magneteinheit_A"
    },
    "id": "ProjEST_move_to_magneteinheit_A_85",
    "joint_names": [
        "shoulder_pan_joint",
        "shoulder_lift_joint",
        "elbow_joint",
        "wrist_1_joint",
        "wrist_2_joint",
        "wrist_3_joint"
    ],
    "metrics": {
        "cart_traj_len": 3.426568196827027,
        "distance_elbow_joint": 3.8997679051289804,
        "distance_shoulder_lift_joint": 0.751689322467479,
        "distance_shoulder_pan_joint": 2.797418259461365,
        "distance_wrist_1_joint": 0.7385476330680616,
        "distance_wrist_2_joint": 3.4977960448063277,
        "distance_wrist_3_joint": 2.671849199563685,
        "smoothness": 0.20425429412091087,
        "time": 0.091664705,
        "traj_len": 3.789072230044697,
        "weighted_distance": 4.8925566365140485
    },
    "planner": "ProjEST",
    "start": {
        "state": {
            "elbow_joint": -1.9196185241190666,
            "shoulder_lift_joint": -1.2443396400964142,
            "shoulder_pan_joint": 2.6996025414629847,
            "wrist_1_joint": -1.5485510000780065,
            "wrist_2_joint": -1.5709468930060704,
            "wrist_3_joint": 0.4420197071253992
        }
    },
    "waypoints": [
        {
            "positions": [
                2.6996025414629847,
                -1.2443396400964142,
                -1.9196185241190666,
                -1.5485510000780065,
                -1.5709468930060704,
                0.4420197071253992
            ]
        },
        {
            "positions": [
                2.6012236412777554,
                -1.2568679104581482,
                -1.7843525357685182,
                -1.5370432626344055,
                -1.4707764534096073,
                0.472371197888871
            ]
        },
        {
            "positions": [
                2.5028447410925265,
                -1.2693961808198821,
                -1.6490865474179697,
                -1.5255355251908047,
                -1.370606013813144,
                0.5027226886523428
            ]
        },
        {
            "positions": [
                2.404465840907297,
                -1.2819244511816161,
                -1.5138205590674214,
                -1.5140277877472037,
                -1.2704355742166809,
                0.5330741794158147
            ]
        },
        {
            "positions": [
                2.306086940722068,
                -1.2944527215433501,
                -1.378554570716873,
                -1.5025200503036027,
                -1.1702651346202175,
                0.5634256701792865
            ]
        },
        {
            "positions": [
                2.207708040536839,
                -1.306980991905084,
                -1.2432885823663247,
                -1.491012312860002,
                -1.0700946950237544,
                0.5937771609427583
            ]
        },
        {
            "positions": [
                2.1093291403516097,
                -1.319509262266818,
                -1.1080225940157762,
                -1.479504575416401,
                -0.9699242554272912,
                0.6241286517062301
            ]
        },
        {
            "positions": [
                2.010950240166381,
                -1.3320375326285518,
                -0.9727566056652278,
                -1.4679968379728,
                -0.8697538158308281,
                0.654480142469702
            ]
        },
        {
            "positions": [
                1.9125713399811515,
                -1.3445658029902858,
                -0.8374906173146792,
                -1.4564891005291989,
                -0.7695833762343648,
                0.6848316332331739
            ]
        },
        {
            "positions": [
                1.8141924397959224,
                -1.3570940733520198,
                -0.702224628964131,
                -1.444981363085598,
                -0.6694129366379017,
                0.7151831239966456
            ]
        },
        {
            "positions": [
                1.7158135396106933,
                -1.3696223437137538,
                -0.5669586406135825,
                -1.433473625641997,
                -0.5692424970414385,
                0.7455346147601175
            ]
        },
        {
            "positions": [
                1.6174346394254642,
                -1.3821506140754878,
                -0.431692652263034,
                -1.421965888198396,
                -0.4690720574449754,
                0.7758861055235893
            ]
        },
        {
            "positions": [
                1.5190557392402348,
                -1.3946788844372218,
                -0.2964266639124855,
                -1.4104581507547953,
                -0.36890161784851205,
                0.8062375962870612
            ]
        },
        {
            "positions": [
                1.4206768390550057,
                -1.4072071547989558,
                -0.16116067556193725,
                -1.3989504133111943,
                -0.26873117825204895,
                0.836589087050533
            ]
        },
        {
            "positions": [
                1.3222979388697766,
                -1.4197354251606897,
                -0.02589468721138899,
                -1.3874426758675933,
                -0.16856073865558585,
                0.8669405778140048
            ]
        },
        {
            "positions": [
                1.2239190386845475,
                -1.4322636955224237,
                0.10937130113915927,
                -1.3759349384239925,
                -0.06839029905912275,
                0.8972920685774766
            ]
        },
        {
            "positions": [
                1.1255401384993182,
                -1.4447919658841577,
                0.2446372894897082,
                -1.3644272009803915,
                0.031780140537340795,
                0.9276435593409484
            ]
        },
        {
            "positions": [
                1.0271612383140891,
                -1.4573202362458917,
                0.37990327784025624,
                -1.3529194635367905,
                0.1319505801338039,
                0.9579950501044203
            ]
        },
        {
            "positions": [
                0.92878233812886,
                -1.4698485066076257,
                0.5151692661908047,
                -1.3414117260931895,
                0.232121019730267,
                0.9883465408678921
            ]
        },
        {
            "positions": [
                0.8304034379436309,
                -1.4823767769693594,
                0.6504352545413532,
                -1.3299039886495887,
                0.3322914593267301,
                1.0186980316313639
            ]
        },
        {
            "positions": [
                0.7320245377584016,
                -1.4949050473310934,
                0.7857012428919017,
                -1.3183962512059877,
                0.4324618989231934,
                1.049049522394836
            ]
        },
        {
            "positions": [
                0.6336456375731725,
                -1.5074333176928274,
                0.9209672312424502,
                -1.3068885137623867,
                0.5326323385196565,
                1.0794010131583076
            ]
        },
        {
            "positions": [
                0.5352667373879436,
                -1.5199615880545614,
                1.0562332195929987,
                -1.295380776318786,
                0.6328027781161196,
                1.1097525039217795
            ]
        },
        {
            "positions": [
                0.4368878372027143,
                -1.5324898584162954,
                1.1914992079435467,
                -1.283873038875185,
                0.7329732177125827,
                1.1401039946852514
            ]
        },
        {
            "positions": [
                0.33850893701748497,
                -1.5450181287780294,
                1.3267651962940956,
                -1.2723653014315839,
                0.8331436573090463,
                1.170455485448723
            ]
        },
        {
            "positions": [
                0.24013003683225564,
                -1.5575463991397633,
                1.4620311846446437,
                -1.260857563987983,
                0.9333140969055094,
                1.2008069762121951
            ]
        },
        {
            "positions": [
                0.1417511366470268,
                -1.5700746695014973,
                1.5972971729951921,
                -1.249349826544382,
                1.0334845365019725,
                1.2311584669756668
            ]
        },
        {
            "positions": [
                0.1203233830521114,
                -1.5351898825026613,
                1.65039763888619,
                -1.2302116773298923,
                0.9774824324350965,
                1.3778124259169928
            ]
        },
        {
            "positions": [
                0.09889562945719602,
                -1.5003050955038253,
                1.7034981047771882,
                -1.2110735281154024,
                0.9214803283682205,
                1.5244663848583189
            ]
        },
        {
            "positions": [
                0.07746787586228063,
                -1.4654203085049893,
                1.7565985706681864,
                -1.1919353789009124,
                0.8654782243013445,
                1.6711203437996451
            ]
        },
        {
            "positions": [
                0.05604012226736524,
                -1.4305355215061533,
                1.8096990365591843,
                -1.1727972296864226,
                0.8094761202344685,
                1.8177743027409712
            ]
        },
        {
            "positions": [
                0.03461236867244985,
                -1.3956507345073172,
                1.8627995024501822,
                -1.1536590804719329,
                0.7534740161675925,
                1.9644282616822974
            ]
        },
        {
            "positions": [
                0.01318461507753447,
                -1.3607659475084812,
                1.9158999683411804,
                -1.134520931257443,
                0.6974719121007165,
                2.1110822206236235
            ]
        },
        {
            "positions": [
                0.030556989734269617,
                -1.3229682083631926,
                1.9286195905157433,
                -1.0797708051076897,
                0.6004240271862993,
                2.28452461448313
            ]
        },
        {
            "positions": [
                0.04792936439100476,
                -1.285170469217904,
                1.9413392126903062,
                -1.0250206789579368,
                0.5033761422718821,
                2.457967008342637
            ]
        },
        {
            "positions": [
                0.06530173904773989,
                -1.2473727300726156,
                1.954058834864869,
                -0.9702705528081836,
                0.40632825735746486,
                2.6314094022021433
            ]
        },
        {
            "positions": [
                0.08267411370447506,
                -1.209574990927327,
                1.966778457039432,
                -0.9155204266584305,
                0.3092803724430476,
                2.8048517960616497
            ]
        },
        {
            "positions": [
                0.10004648836121019,
                -1.1717772517820384,
                1.979498079213995,
                -0.8607703005086774,
                0.21223248752863044,
                2.978294189921156
            ]
        },
        {
            "positions": [
                0.1241849481534482,
                -1.1441203764391015,
                1.9788467774180774,
                -0.8100033670099449,
                0.1401199212036867,
                3.1138689066890843
            ]
        }
    ]
}