{
    "goal": {
        "global_pose": {
            "orientation": {
                "w": 0.7031023502349854,
                "x": -0.7110244035720825,
                "y": 0.007748599164187908,
                "z": 0.005598929710686207
            },
            "position": {
                "x": 0.11585023208521307,
                "y": 0.44412534475326537,
                "z": 0.3711530566215515
            }
        },
        "name": "move_to_auspresseinheit_A"
    },
    "id": "ProjEST_move_to_auspresseinheit_A_103",
    "joint_names": [
        "shoulder_pan_joint",
        "shoulder_lift_joint",
        "elbow_joint",
        "wrist_1_joint",
        "wrist_2_joint",
        "wrist_3_joint"
    ],
    "metrics": {
        "cart_traj_len": 0.8361133745996197,
        "distance_elbow_joint": 0.13722977529164337,
        "distance_shoulder_lift_joint": 1.115691899010488,
        "distance_shoulder_pan_joint": 1.04498509724703,
        "distance_wrist_1_joint": 1.9171204089709832,
        "distance_wrist_2_joint": 0.5247322333238027,
        "distance_wrist_3_joint": 1.2476557629890648,
        "smoothness": 1.297984891935728,
        "time": 0.21302039499999997,
        "traj_len": 2.446919528066465,
        "weighted_distance": 3.3052351421806483
    },
    "planner": "ProjEST",
    "start": {
        "state": {
            "elbow_joint": 2.4225746658250005,
            "shoulder_lift_joint": -1.3736534386056498,
            "shoulder_pan_joint": -0.3378633547517467,
            "wrist_1_joint": -1.0288598680537169,
            "wrist_2_joint": 1.233022673432363,
            "wrist_3_joint": -3.0940220416140027
        }
    },
    "waypoints": [
        {
            "positions": [
                -0.3378633547517467,
                -1.3736534386056498,
                2.4225746658250005,
                -1.0288598680537169,
                1.233022673432363,
                -3.0940220416140027
            ]
        },
        {
            "positions": [
                -0.2546868289232316,
                -1.4486218332607437,
                2.427494519783999,
                -0.9161802562294377,
                1.1927254590427026,
                -3.039021509995802
            ]
        },
        {
            "positions": [
                -0.1715103030947164,
                -1.5235902279158375,
                2.432414373742998,
                -0.8035006444051586,
                1.1524282446530423,
                -2.9840209783776013
            ]
        },
        {
            "positions": [
                -0.08833377726620129,
                -1.5985586225709314,
                2.437334227701997,
                -0.6908210325808795,
                1.1121310302633818,
                -2.9290204467594005
            ]
        },
        {
            "positions": [
                -0.005157251437686083,
                -1.6735270172260253,
                2.442254081660996,
                -0.5781414207566002,
                1.0718338158737215,
                -2.8740199151412
            ]
        },
        {
            "positions": [
                0.07801927439082901,
                -1.7484954118811191,
                2.4471739356199946,
                -0.46546180893232114,
                1.031536601484061,
                -2.819019383522999
            ]
        },
        {
            "positions": [
                0.16119580021934415,
                -1.823463806536213,
                2.4520937895789934,
                -0.35278219710804204,
                0.9912393870944007,
                -2.7640188519047983
            ]
        },
        {
            "positions": [
                0.24437232604785936,
                -1.8984322011913068,
                2.457013643537992,
                -0.24010258528376283,
                0.9509421727047402,
                -2.7090183202865976
            ]
        },
        {
            "positions": [
                0.32754885187637456,
                -1.9734005958464007,
                2.461933497496991,
                -0.1274229734594836,
                0.9106449583150799,
                -2.654017788668397
            ]
        },
        {
            "positions": [
                0.41072537770488965,
                -2.0483689905014946,
                2.46685335145599,
                -0.0147433616352044,
                0.8703477439254195,
                -2.599017257050196
            ]
        },
        {
            "positions": [
                0.49390190353340474,
                -2.1233373851565887,
                2.471773205414989,
                0.09793625018907459,
                0.8300505295357591,
                -2.5440167254319954
            ]
        },
        {
            "positions": [
                0.57707842936192,
                -2.1983057798116823,
                2.4766930593739875,
                0.2106158620133538,
                0.7897533151460987,
                -2.4890161938137947
            ]
        },
        {
            "positions": [
                0.6030870919885927,
                -2.140097868250791,
                2.4600707830254565,
                0.0750869262325713,
                0.773460740138591,
                -2.617546176851566
            ]
        },
        {
            "positions": [
                0.6290957546152653,
                -2.0818899566899,
                2.443448506676925,
                -0.06044200954821122,
                0.7571681651310833,
                -2.7460761598893373
            ]
        },
        {
            "positions": [
                0.655104417241938,
                -2.023682045129009,
                2.426826230328394,
                -0.19597094532899373,
                0.7408755901235757,
                -2.874606142927109
            ]
        },
        {
            "positions": [
                0.6811130798686107,
                -1.9654741335681178,
                2.4102039539798623,
                -0.33149988110977624,
                0.724583015116068,
                -3.00313612596488
            ]
        },
        {
            "positions": [
                0.7071217424952834,
                -1.9072662220072267,
                2.3935816776313312,
                -0.46702881689055875,
                0.7082904401085603,
                -3.1316661090026514
            ]
        }
    ]
}