{
    "goal": {
        "global_pose": {
            "orientation": {
                "w": -0.00223480608172531,
                "x": 0.0024358444001904467,
                "y": 0.7094548369677653,
                "z": -0.704743149386269
            },
            "position": {
                "x": 0.6205249238014221,
                "y": -0.6371506643295288,
                "z": 0.19426114857196808
            }
        },
        "name": "move_to_magneteinheit_B"
    },
    "id": "ProjEST_move_to_magneteinheit_B_4",
    "joint_names": [
        "shoulder_pan_joint",
        "shoulder_lift_joint",
        "elbow_joint",
        "wrist_1_joint",
        "wrist_2_joint",
        "wrist_3_joint"
    ],
    "metrics": {
        "cart_traj_len": 1.490489655935882,
        "distance_elbow_joint": 0.9565715788699813,
        "distance_shoulder_lift_joint": 0.7549954341164608,
        "distance_shoulder_pan_joint": 1.6205369368102893,
        "distance_wrist_1_joint": 0.7479836699408198,
        "distance_wrist_2_joint": 3.420549990982727,
        "distance_wrist_3_joint": 0.3436103291402324,
        "smoothness": 0.7028134847145444,
        "time": 0.379481503,
        "traj_len": 2.8007584579646476,
        "weighted_distance": 3.563706253195474
    },
    "planner": "ProjEST",
    "start": {
        "state": {
            "elbow_joint": 2.6216224122426386,
            "shoulder_lift_joint": -1.4174107377796124,
            "shoulder_pan_joint": 0.7066234856936794,
            "wrist_1_joint": 1.9546482284002225,
            "wrist_2_joint": -0.7096286983471962,
            "wrist_3_joint": 0.005740856962016249
        }
    },
    "waypoints": [
        {
            "positions": [
                0.7066234856936794,
                -1.4174107377796124,
                2.6216224122426386,
                1.9546482284002225,
                -0.7096286983471962,
                0.005740856962016249
            ]
        },
        {
            "positions": [
                0.6063199272410398,
                -1.385994368878747,
                2.5973319535756887,
                2.0220334775926325,
                -0.57425544221774,
                0.030230812241923373
            ]
        },
        {
            "positions": [
                0.5060163687884003,
                -1.354577999977882,
                2.573041494908739,
                2.089418726785042,
                -0.43888218608828394,
                0.05472076752183049
            ]
        },
        {
            "positions": [
                0.4057128103357606,
                -1.3231616310770167,
                2.548751036241789,
                2.156803975977452,
                -0.3035089299588278,
                0.07921072280173762
            ]
        },
        {
            "positions": [
                0.30540925188312107,
                -1.2917452621761516,
                2.524460577574839,
                2.224189225169862,
                -0.16813567382937167,
                0.10370067808164474
            ]
        },
        {
            "positions": [
                0.20510569343048146,
                -1.2603288932752863,
                2.500170118907889,
                2.291574474362272,
                -0.0327624176999155,
                0.12819063336155187
            ]
        },
        {
            "positions": [
                0.10480213497784185,
                -1.2289125243744212,
                2.475879660240939,
                2.3589597235546815,
                0.10261083842954066,
                0.152680588641459
            ]
        },
        {
            "positions": [
                0.004498576525202268,
                -1.197496155473556,
                2.4515892015739893,
                2.4263449727470916,
                0.23798409455899683,
                0.17717054392136614
            ]
        },
        {
            "positions": [
                -0.061102282592070005,
                -1.1592760946299556,
                2.3954078895596083,
                2.406610192347524,
                0.06134572326781593,
                0.16487192662273167
            ]
        },
        {
            "positions": [
                -0.12670314170934227,
                -1.1210560337863553,
                2.3392265775452277,
                2.3868754119479556,
                -0.11529264802336497,
                0.1525733093240972
            ]
        },
        {
            "positions": [
                -0.19230400082661453,
                -1.082835972942755,
                2.2830452655308466,
                2.367140631548388,
                -0.2919310193145459,
                0.14027469202546275
            ]
        },
        {
            "positions": [
                -0.25790485994388684,
                -1.0446159120991547,
                2.226863953516466,
                2.34740585114882,
                -0.4685693906057268,
                0.1279760747268283
            ]
        },
        {
            "positions": [
                -0.32350571906115916,
                -1.0063958512555544,
                2.170682641502085,
                2.3276710707492523,
                -0.6452077618969078,
                0.11567745742819381
            ]
        },
        {
            "positions": [
                -0.38910657817843136,
                -0.9681757904119541,
                2.114501329487704,
                2.307936290349684,
                -0.8218461331880886,
                0.10337884012955935
            ]
        },
        {
            "positions": [
                -0.4547074372957037,
                -0.9299557295683538,
                2.0583200174733234,
                2.2882015099501163,
                -0.9984845044792696,
                0.09108022283092489
            ]
        },
        {
            "positions": [
                -0.5203082964129759,
                -0.8917356687247535,
                2.0021387054589423,
                2.2684667295505485,
                -1.1751228757704504,
                0.07878160553229042
            ]
        },
        {
            "positions": [
                -0.5859091555302482,
                -0.8535156078811531,
                1.9459573934445615,
                2.2487319491509803,
                -1.3517612470616316,
                0.06648298823365595
            ]
        },
        {
            "positions": [
                -0.6515100146475206,
                -0.8152955470375528,
                1.8897760814301807,
                2.2289971687514125,
                -1.5283996183528124,
                0.054184370935021486
            ]
        },
        {
            "positions": [
                -0.7171108737647928,
                -0.7770754861939526,
                1.8335947694157997,
                2.2092623883518447,
                -1.7050379896439933,
                0.041885753636387024
            ]
        },
        {
            "positions": [
                -0.782711732882065,
                -0.7388554253503523,
                1.777413457401419,
                2.189527607952277,
                -1.881676360935174,
                0.029587136337752562
            ]
        },
        {
            "positions": [
                -0.8483125919993374,
                -0.7006353645067519,
                1.721232145387038,
                2.1697928275527087,
                -2.0583147322263553,
                0.0172885190391181
            ]
        },
        {
            "positions": [
                -0.9139134511166096,
                -0.6624153036631516,
                1.6650508333726572,
                2.150058047153141,
                -2.2349531035175363,
                0.0049899017404836325
            ]
        }
    ]
}