{
    "goal": {
        "global_pose": {
            "orientation": {
                "w": 0.7031023480610252,
                "x": -0.7110244013736278,
                "y": 0.0077485991402295624,
                "z": 0.005598929693374583
            },
            "position": {
                "x": -0.8841497679147869,
                "y": 0.44412534475326537,
                "z": 0.3711530566215515
            }
        },
        "name": "move_to_auspresseinheit_D"
    },
    "id": "ProjEST_move_to_auspresseinheit_D_149",
    "joint_names": [
        "shoulder_pan_joint",
        "shoulder_lift_joint",
        "elbow_joint",
        "wrist_1_joint",
        "wrist_2_joint",
        "wrist_3_joint"
    ],
    "metrics": {
        "cart_traj_len": 0.3436410253696662,
        "distance_elbow_joint": 0.648387777205228,
        "distance_shoulder_lift_joint": 0.12643353068153074,
        "distance_shoulder_pan_joint": 0.1333130441432302,
        "distance_wrist_1_joint": 0.5603484395592693,
        "distance_wrist_2_joint": 1.4462349668732466,
        "distance_wrist_3_joint": 0.03034779491126738,
        "smoothness": 0.0,
        "time": 0.06192058,
        "traj_len": 1.7161193295845636,
        "weighted_distance": 2.238826601063339
    },
    "planner": "ProjEST",
    "start": {
        "state": {
            "elbow_joint": -1.8275523626775212,
            "shoulder_lift_joint": -2.126789852344167,
            "shoulder_pan_joint": -0.03513704404078235,
            "wrist_1_joint": -2.347782403156801,
            "wrist_2_joint": -1.6058999987535132,
            "wrist_3_joint": -3.0880379163319196
        }
    },
    "waypoints": [
        {
            "positions": [
                -0.03513704404078235,
                -2.126789852344167,
                -1.8275523626775212,
                -2.347782403156801,
                -1.6058999987535132,
                -3.0880379163319196
            ]
        },
        {
            "positions": [
                -0.051801174558686124,
                -2.1425940436793582,
                -1.7465038905268677,
                -2.4178259581017096,
                -1.4251206278943573,
                -3.084244441968011
            ]
        },
        {
            "positions": [
                -0.0684653050765899,
                -2.1583982350145496,
                -1.6654554183762142,
                -2.4878695130466184,
                -1.2443412570352015,
                -3.0804509676041025
            ]
        },
        {
            "positions": [
                -0.08512943559449368,
                -2.174202426349741,
                -1.5844069462255608,
                -2.5579130679915267,
                -1.0635618861760459,
                -3.0766574932401944
            ]
        },
        {
            "positions": [
                -0.10179356611239745,
                -2.190006617684932,
                -1.5033584740749073,
                -2.6279566229364355,
                -0.8827825153168899,
                -3.072864018876286
            ]
        },
        {
            "positions": [
                -0.11845769663030123,
                -2.2058108090201234,
                -1.4223100019242536,
                -2.6980001778813443,
                -0.702003144457734,
                -3.0690705445123774
            ]
        },
        {
            "positions": [
                -0.135121827148205,
                -2.221615000355315,
                -1.3412615297736001,
                -2.7680437328262526,
                -0.5212237735985783,
                -3.0652770701484693
            ]
        },
        {
            "positions": [
                -0.15178595766610878,
                -2.237419191690506,
                -1.2602130576229467,
                -2.8380872877711614,
                -0.34044440273942245,
                -3.0614835957845608
            ]
        },
        {
            "positions": [
                -0.16845008818401255,
                -2.2532233830256976,
                -1.1791645854722932,
                -2.90813084271607,
                -0.1596650318802665,
                -3.057690121420652
            ]
        }
    ]
}