{
    "goal": {
        "global_pose": {
            "orientation": {
                "w": 0.005598929693374612,
                "x": 0.007748599140229565,
                "y": 0.7110244013736278,
                "z": -0.7031023480610252
            },
            "position": {
                "x": -0.8858502320852131,
                "y": -0.7141253447532654,
                "z": 0.3711530566215515
            }
        },
        "name": "move_to_auspresseinheit_C"
    },
    "id": "ProjEST_move_to_auspresseinheit_C_139",
    "joint_names": [
        "shoulder_pan_joint",
        "shoulder_lift_joint",
        "elbow_joint",
        "wrist_1_joint",
        "wrist_2_joint",
        "wrist_3_joint"
    ],
    "metrics": {
        "cart_traj_len": 0.4935898507825358,
        "distance_elbow_joint": 1.0066317206494917,
        "distance_shoulder_lift_joint": 0.32690774684551194,
        "distance_shoulder_pan_joint": 0.2562681750239797,
        "distance_wrist_1_joint": 0.6969061586909613,
        "distance_wrist_2_joint": 1.3057182168726662,
        "distance_wrist_3_joint": 0.07023172921030474,
        "smoothness": 1.6148698667872622e-16,
        "time": 0.227266748,
        "traj_len": 1.913808701854215,
        "weighted_distance": 2.4095127269381984
    },
    "planner": "ProjEST",
    "start": {
        "state": {
            "elbow_joint": 1.7527959577737207,
            "shoulder_lift_joint": -0.9740617694225068,
            "shoulder_pan_joint": -2.967991417825858,
            "wrist_1_joint": -0.759517768980727,
            "wrist_2_joint": 1.7443932448377408,
            "wrist_3_joint": -3.0840537646736568
        }
    },
    "waypoints": [
        {
            "positions": [
                -2.967991417825858,
                -0.9740617694225068,
                1.7527959577737207,
                -0.759517768980727,
                1.7443932448377408,
                -3.0840537646736568
            ]
        },
        {
            "positions": [
                -2.94236460032346,
                -0.9413709947379556,
                1.6521327857087715,
                -0.6898271531116309,
                1.6138214231504742,
                -3.0910769375946874
            ]
        },
        {
            "positions": [
                -2.916737782821062,
                -0.9086802200534044,
                1.5514696136438224,
                -0.6201365372425347,
                1.4832496014632075,
                -3.0981001105157175
            ]
        },
        {
            "positions": [
                -2.891110965318664,
                -0.8759894453688531,
                1.450806441578873,
                -0.5504459213734386,
                1.352677779775941,
                -3.105123283436748
            ]
        },
        {
            "positions": [
                -2.8654841478162663,
                -0.843298670684302,
                1.350143269513924,
                -0.4807553055043425,
                1.2221059580886742,
                -3.1121464563577788
            ]
        },
        {
            "positions": [
                -2.839857330313868,
                -0.8106078959997508,
                1.2494800974489748,
                -0.41106468963524634,
                1.0915341364014077,
                -3.119169629278809
            ]
        },
        {
            "positions": [
                -2.81423051281147,
                -0.7779171213151996,
                1.1488169253840257,
                -0.3413740737661502,
                0.9609623147141412,
                -3.1261928021998395
            ]
        },
        {
            "positions": [
                -2.7886036953090723,
                -0.7452263466306485,
                1.0481537533190766,
                -0.2716834578970541,
                0.8303904930268745,
                -3.13321597512087
            ]
        },
        {
            "positions": [
                -2.762976877806674,
                -0.7125355719460973,
                0.9474905812541272,
                -0.20199284202795798,
                0.6998186713396077,
                -3.1402391480419007
            ]
        },
        {
            "positions": [
                -2.7373500603042764,
                -0.679844797261546,
                0.8468274091891781,
                -0.13230222615886178,
                0.5692468496523413,
                -3.147262320962931
            ]
        },
        {
            "positions": [
                -2.7117232428018783,
                -0.6471540225769948,
                0.7461642371242289,
                -0.06261161028976564,
                0.4386750279650746,
                -3.1542854938839615
            ]
        }
    ]
}