{
    "goal": {
        "global_pose": {
            "orientation": {
                "w": 0.005598929693374612,
                "x": 0.007748599140229565,
                "y": 0.7110244013736278,
                "z": -0.7031023480610252
            },
            "position": {
                "x": -0.8858502320852131,
                "y": -0.7141253447532654,
                "z": 0.3711530566215515
            }
        },
        "name": "move_to_auspresseinheit_C"
    },
    "id": "ProjEST_move_to_auspresseinheit_C_103",
    "joint_names": [
        "shoulder_pan_joint",
        "shoulder_lift_joint",
        "elbow_joint",
        "wrist_1_joint",
        "wrist_2_joint",
        "wrist_3_joint"
    ],
    "metrics": {
        "cart_traj_len": 0.4926063657384363,
        "distance_elbow_joint": 1.000908878490532,
        "distance_shoulder_lift_joint": 0.32489557001502634,
        "distance_shoulder_pan_joint": 0.2565110802721522,
        "distance_wrist_1_joint": 0.6923298874198784,
        "distance_wrist_2_joint": 1.3039097808618383,
        "distance_wrist_3_joint": 0.06473631613539643,
        "smoothness": 3.2297397335745243e-16,
        "time": 0.070063417,
        "traj_len": 1.9087408187584882,
        "weighted_distance": 2.401875062060334
    },
    "planner": "ProjEST",
    "start": {
        "state": {
            "elbow_joint": 1.7527959577737207,
            "shoulder_lift_joint": -0.9740617694225068,
            "shoulder_pan_joint": -2.967991417825858,
            "wrist_1_joint": -0.759517768980727,
            "wrist_2_joint": 1.7443932448377408,
            "wrist_3_joint": -3.0840537646736568
        }
    },
    "waypoints": [
        {
            "positions": [
                -2.967991417825858,
                -0.9740617694225068,
                1.7527959577737207,
                -0.759517768980727,
                1.7443932448377408,
                -3.0840537646736568
            ]
        },
        {
            "positions": [
                -2.942340309798643,
                -0.9415722124210042,
                1.6527050699246675,
                -0.6902847802387392,
                1.614002266751557,
                -3.0905273962871966
            ]
        },
        {
            "positions": [
                -2.9166892017714274,
                -0.9090826554195015,
                1.5526141820756143,
                -0.6210517914967513,
                1.4836112886653732,
                -3.097001027900736
            ]
        },
        {
            "positions": [
                -2.8910380937442124,
                -0.8765930984179988,
                1.4525232942265611,
                -0.5518188027547635,
                1.3532203105791893,
                -3.1034746595142755
            ]
        },
        {
            "positions": [
                -2.865386985716997,
                -0.8441035414164962,
                1.352432406377508,
                -0.4825858140127756,
                1.2228293324930055,
                -3.1099482911278153
            ]
        },
        {
            "positions": [
                -2.839735877689782,
                -0.8116139844149937,
                1.2523415185284548,
                -0.41335282527078776,
                1.0924383544068217,
                -3.116421922741355
            ]
        },
        {
            "positions": [
                -2.814084769662567,
                -0.779124427413491,
                1.1522506306794016,
                -0.3441198365287999,
                0.9620473763206379,
                -3.1228955543548946
            ]
        },
        {
            "positions": [
                -2.7884336616353513,
                -0.7466348704119884,
                1.0521597428303484,
                -0.2748868477868121,
                0.8316563982344541,
                -3.129369185968434
            ]
        },
        {
            "positions": [
                -2.7627825536081363,
                -0.7141453134104857,
                0.952068854981295,
                -0.20565385904482425,
                0.7012654201482702,
                -3.135842817581974
            ]
        },
        {
            "positions": [
                -2.737131445580921,
                -0.6816557564089831,
                0.8519779671322418,
                -0.13642087030283634,
                0.5708744420620864,
                -3.142316449195514
            ]
        },
        {
            "positions": [
                -2.7114803375537058,
                -0.6491661994074804,
                0.7518870792831887,
                -0.06718788156084853,
                0.4404834639759026,
                -3.148790080809053
            ]
        }
    ]
}