{
    "goal": {
        "global_pose": {
            "orientation": {
                "w": 0.7031023480610252,
                "x": -0.7110244013736278,
                "y": 0.0077485991402295624,
                "z": 0.005598929693374583
            },
            "position": {
                "x": -0.8841497679147869,
                "y": 0.44412534475326537,
                "z": 0.3711530566215515
            }
        },
        "name": "move_to_auspresseinheit_D"
    },
    "id": "ProjEST_move_to_auspresseinheit_D_139",
    "joint_names": [
        "shoulder_pan_joint",
        "shoulder_lift_joint",
        "elbow_joint",
        "wrist_1_joint",
        "wrist_2_joint",
        "wrist_3_joint"
    ],
    "metrics": {
        "cart_traj_len": 0.34219018379261984,
        "distance_elbow_joint": 0.6291540152453847,
        "distance_shoulder_lift_joint": 0.11700171260558534,
        "distance_shoulder_pan_joint": 0.13394097426328228,
        "distance_wrist_1_joint": 0.5050509117149842,
        "distance_wrist_2_joint": 1.4324465025379918,
        "distance_wrist_3_joint": 0.016652680110044837,
        "smoothness": 0.0,
        "time": 0.039758005,
        "traj_len": 1.6835221401803044,
        "weighted_distance": 2.1920423287314366
    },
    "planner": "ProjEST",
    "start": {
        "state": {
            "elbow_joint": -1.8275523626775212,
            "shoulder_lift_joint": -2.126789852344167,
            "shoulder_pan_joint": -0.03513704404078235,
            "wrist_1_joint": -2.347782403156801,
            "wrist_2_joint": -1.6058999987535132,
            "wrist_3_joint": -3.0880379163319196
        }
    },
    "waypoints": [
        {
            "positions": [
                -0.03513704404078235,
                -2.126789852344167,
                -1.8275523626775212,
                -2.347782403156801,
                -1.6058999987535132,
                -3.0880379163319196
            ]
        },
        {
            "positions": [
                -0.05187966582369263,
                -2.141415066419865,
                -1.748908110771848,
                -2.410913767121174,
                -1.4268441859362642,
                -3.0901195013456753
            ]
        },
        {
            "positions": [
                -0.06862228760660291,
                -2.156040280495563,
                -1.670263858866175,
                -2.474045131085547,
                -1.2477883731190151,
                -3.092201086359431
            ]
        },
        {
            "positions": [
                -0.0853649093895132,
                -2.1706654945712613,
                -1.591619606960502,
                -2.53717649504992,
                -1.0687325603017663,
                -3.0942826713731866
            ]
        },
        {
            "positions": [
                -0.1021075311724235,
                -2.1852907086469595,
                -1.5129753550548288,
                -2.600307859014293,
                -0.8896767474845173,
                -3.0963642563869422
            ]
        },
        {
            "positions": [
                -0.11885015295533377,
                -2.1999159227226577,
                -1.4343311031491557,
                -2.663439222978666,
                -0.7106209346672683,
                -3.0984458414006975
            ]
        },
        {
            "positions": [
                -0.13559277473824405,
                -2.214541136798356,
                -1.3556868512434828,
                -2.7265705869430388,
                -0.5315651218500195,
                -3.100527426414453
            ]
        },
        {
            "positions": [
                -0.15233539652115435,
                -2.229166350874054,
                -1.2770425993378096,
                -2.789701950907412,
                -0.35250930903277045,
                -3.1026090114282088
            ]
        },
        {
            "positions": [
                -0.16907801830406463,
                -2.243791564949752,
                -1.1983983474321365,
                -2.852833314871785,
                -0.17345349621552136,
                -3.1046905964419644
            ]
        }
    ]
}