{
    "goal": {
        "global_pose": {
            "orientation": {
                "w": 0.7047431468963623,
                "x": -0.7094548344612122,
                "y": 0.0024358443915843964,
                "z": -0.0022348060738295317
            },
            "position": {
                "x": 0.6094750761985779,
                "y": 0.3671506643295288,
                "z": 0.19426114857196808
            }
        },
        "name": "move_to_magneteinheit_A"
    },
    "id": "ProjEST_move_to_magneteinheit_A_31",
    "joint_names": [
        "shoulder_pan_joint",
        "shoulder_lift_joint",
        "elbow_joint",
        "wrist_1_joint",
        "wrist_2_joint",
        "wrist_3_joint"
    ],
    "metrics": {
        "cart_traj_len": 3.4525779954536935,
        "distance_elbow_joint": 3.876464347021054,
        "distance_shoulder_lift_joint": 0.5801805678517242,
        "distance_shoulder_pan_joint": 3.3463731669654155,
        "distance_wrist_1_joint": 1.3499594453313395,
        "distance_wrist_2_joint": 1.7467680924124953,
        "distance_wrist_3_joint": 3.80440331791433,
        "smoothness": 0.17797273850679535,
        "time": 0.076353371,
        "traj_len": 3.8345989278536496,
        "weighted_distance": 5.040801832156156
    },
    "planner": "ProjEST",
    "start": {
        "state": {
            "elbow_joint": -1.9196185241190666,
            "shoulder_lift_joint": -1.2443396400964142,
            "shoulder_pan_joint": 2.6996025414629847,
            "wrist_1_joint": -1.5485510000780065,
            "wrist_2_joint": -1.5709468930060704,
            "wrist_3_joint": 0.4420197071253992
        }
    },
    "waypoints": [
        {
            "positions": [
                2.6996025414629847,
                -1.2443396400964142,
                -1.9196185241190666,
                -1.5485510000780065,
                -1.5709468930060704,
                0.4420197071253992
            ]
        },
        {
            "positions": [
                2.5649618768244413,
                -1.2549473255929509,
                -1.8322067226129215,
                -1.4986780148935184,
                -1.5026453639738282,
                0.41397854949967744
            ]
        },
        {
            "positions": [
                2.4303212121858975,
                -1.2655550110894873,
                -1.7447949211067764,
                -1.4488050297090302,
                -1.434343834941586,
                0.38593739187395576
            ]
        },
        {
            "positions": [
                2.295680547547354,
                -1.276162696586024,
                -1.657383119600631,
                -1.3989320445245423,
                -1.366042305909344,
                0.357896234248234
            ]
        },
        {
            "positions": [
                2.16103988290881,
                -1.2867703820825607,
                -1.5699713180944859,
                -1.3490590593400542,
                -1.2977407768771019,
                0.32985507662251234
            ]
        },
        {
            "positions": [
                2.026399218270267,
                -1.2973780675790973,
                -1.4825595165883407,
                -1.299186074155566,
                -1.2294392478448597,
                0.3018139189967906
            ]
        },
        {
            "positions": [
                1.8917585536317232,
                -1.3079857530756338,
                -1.3951477150821956,
                -1.249313088971078,
                -1.1611377188126175,
                0.2737727613710689
            ]
        },
        {
            "positions": [
                1.7571178889931796,
                -1.3185934385721705,
                -1.3077359135760505,
                -1.19944010378659,
                -1.0928361897803756,
                0.24573160374534717
            ]
        },
        {
            "positions": [
                1.622477224354636,
                -1.3292011240687072,
                -1.220324112069905,
                -1.149567118602102,
                -1.0245346607481332,
                0.21769044611962546
            ]
        },
        {
            "positions": [
                1.487836559716092,
                -1.3398088095652438,
                -1.13291231056376,
                -1.0996941334176138,
                -0.9562331317158912,
                0.18964928849390372
            ]
        },
        {
            "positions": [
                1.3531958950775487,
                -1.3504164950617803,
                -1.0455005090576148,
                -1.0498211482331257,
                -0.8879316026836491,
                0.16160813086818204
            ]
        },
        {
            "positions": [
                1.218555230439005,
                -1.361024180558317,
                -0.9580887075514697,
                -0.9999481630486377,
                -0.8196300736514069,
                0.1335669732424603
            ]
        },
        {
            "positions": [
                1.0839145658004616,
                -1.3716318660548537,
                -0.8706769060453246,
                -0.9500751778641496,
                -0.7513285446191649,
                0.10552581561673863
            ]
        },
        {
            "positions": [
                0.9492739011619178,
                -1.3822395515513901,
                -0.7832651045391792,
                -0.9002021926796615,
                -0.6830270155869226,
                0.07748465799101684
            ]
        },
        {
            "positions": [
                0.8146332365233742,
                -1.3928472370479268,
                -0.6958533030330343,
                -0.8503292074951734,
                -0.6147254865546806,
                0.04944350036529516
            ]
        },
        {
            "positions": [
                0.679992571884831,
                -1.4034549225444635,
                -0.6084415015268891,
                -0.8004562223106854,
                -0.5464239575224386,
                0.021402342739573477
            ]
        },
        {
            "positions": [
                0.5453519072462871,
                -1.4140626080410001,
                -0.5210297000207438,
                -0.7505832371261972,
                -0.47812242849019615,
                -0.006638814886148259
            ]
        },
        {
            "positions": [
                0.4107112426077433,
                -1.4246702935375366,
                -0.43361789851459864,
                -0.7007102519417092,
                -0.4098208994579542,
                -0.034679972511869994
            ]
        },
        {
            "positions": [
                0.2760705779691994,
                -1.4352779790340733,
                -0.3462060970084533,
                -0.6508372667572211,
                -0.341519370425712,
                -0.06272113013759173
            ]
        },
        {
            "positions": [
                0.14142991333065602,
                -1.44588566453061,
                -0.25879429550230815,
                -0.6009642815727331,
                -0.27321784139346983,
                -0.09076228776331341
            ]
        },
        {
            "positions": [
                0.006789248692112615,
                -1.4564933500271464,
                -0.17138249399616323,
                -0.5510912963882449,
                -0.20491631236122787,
                -0.11880344538903509
            ]
        },
        {
            "positions": [
                -0.12785141594643123,
                -1.467101035523683,
                -0.08397069249001787,
                -0.5012183112037569,
                -0.13661478332898547,
                -0.14684460301475688
            ]
        },
        {
            "positions": [
                -0.26249208058497475,
                -1.4777087210202198,
                0.003441109016127375,
                -0.4513453260192688,
                -0.06831325429674351,
                -0.17488576064047856
            ]
        },
        {
            "positions": [
                -0.24315895185698366,
                -1.456552968638503,
                0.1291312120715743,
                -0.4638427636963062,
                -0.053371354910300345,
                0.02415696609363857
            ]
        },
        {
            "positions": [
                -0.2238258231289926,
                -1.4353972162567865,
                0.2548213151270212,
                -0.47634020137334365,
                -0.03842945552385719,
                0.2231996928277557
            ]
        },
        {
            "positions": [
                -0.2044926944010015,
                -1.4142414638750698,
                0.38051141818246814,
                -0.488837639050381,
                -0.023487556137414024,
                0.4222424195618728
            ]
        },
        {
            "positions": [
                -0.18515956567301045,
                -1.393085711493353,
                0.5062015212379151,
                -0.5013350767274185,
                -0.008545656750970868,
                0.62128514629599
            ]
        },
        {
            "positions": [
                -0.16582643694501936,
                -1.3719299591116363,
                0.631891624293362,
                -0.5138325144044559,
                0.006396242635472282,
                0.820327873030107
            ]
        },
        {
            "positions": [
                -0.14649330821702827,
                -1.3507742067299198,
                0.7575817273488089,
                -0.5263299520814932,
                0.02133814202191546,
                1.0193705997642242
            ]
        },
        {
            "positions": [
                -0.1271601794890372,
                -1.329618454348203,
                0.8832718304042558,
                -0.5388273897585307,
                0.03628004140835861,
                1.2184133264983412
            ]
        },
        {
            "positions": [
                -0.10782705076104612,
                -1.3084627019664863,
                1.0089619334597026,
                -0.5513248274355681,
                0.051221940794801774,
                1.4174560532324585
            ]
        },
        {
            "positions": [
                -0.08849392203305506,
                -1.2873069495847695,
                1.1346520365151496,
                -0.5638222651126056,
                0.06616384018124494,
                1.6164987799665755
            ]
        },
        {
            "positions": [
                -0.06916079330506397,
                -1.266151197203053,
                1.2603421395705965,
                -0.576319702789643,
                0.08110573956768807,
                1.8155415067006926
            ]
        },
        {
            "positions": [
                -0.04982766457707291,
                -1.2449954448213363,
                1.3860322426260434,
                -0.5888171404666803,
                0.09604763895413124,
                2.0145842334348094
            ]
        },
        {
            "positions": [
                -0.030494535849081794,
                -1.2238396924396195,
                1.5117223456814903,
                -0.6013145781437178,
                0.11098953834057443,
                2.213626960168927
            ]
        },
        {
            "positions": [
                -0.011161407121090705,
                -1.202683940057903,
                1.6374124487369373,
                -0.6138120158207552,
                0.1259314377270176,
                2.412669686903044
            ]
        },
        {
            "positions": [
                0.008171721606900328,
                -1.1815281876761863,
                1.7631025517923842,
                -0.6263094534977927,
                0.14087333711346073,
                2.611712413637161
            ]
        },
        {
            "positions": [
                0.027504850334891418,
                -1.1603724352944695,
                1.8887926548478313,
                -0.63880689117483,
                0.1558152364999039,
                2.8107551403712785
            ]
        },
        {
            "positions": [
                0.07464565733368717,
                -1.1456348346933853,
                1.9228192388749092,
                -0.6714529942333499,
                0.14581225504664352,
                2.9116836149396264
            ]
        },
        {
            "positions": [
                0.1217864643324829,
                -1.1308972340923011,
                1.9568458229019872,
                -0.7040990972918698,
                0.13580927359338313,
                3.012612089507974
            ]
        }
    ]
}