{
    "goal": {
        "global_pose": {
            "orientation": {
                "w": 0.5084816217422485,
                "x": -0.49083608388900757,
                "y": 0.5182115435600281,
                "z": -0.4816462993621826
            },
            "position": {
                "x": 0.5540239810943604,
                "y": 0.030875300988554955,
                "z": 0.16403168439865112
            }
        },
        "name": "move_to_storage_A"
    },
    "id": "ProjEST_move_to_storage_A_132",
    "joint_names": [
        "shoulder_pan_joint",
        "shoulder_lift_joint",
        "elbow_joint",
        "wrist_1_joint",
        "wrist_2_joint",
        "wrist_3_joint"
    ],
    "metrics": {
        "cart_traj_len": 0.3522730572764644,
        "distance_elbow_joint": 0.44728030171867306,
        "distance_shoulder_lift_joint": 0.23460864507776358,
        "distance_shoulder_pan_joint": 0.45902605924943,
        "distance_wrist_1_joint": 0.23435337125961853,
        "distance_wrist_2_joint": 1.1038330422268496,
        "distance_wrist_3_joint": 0.10466522068811246,
        "smoothness": 9.992007159366741e-16,
        "time": 0.049619186999999995,
        "traj_len": 1.6074099166735432,
        "weighted_distance": 2.0325559020807127
    },
    "planner": "ProjEST",
    "start": {
        "state": {
            "elbow_joint": 1.971548259319323,
            "shoulder_lift_joint": -1.1394851275133948,
            "shoulder_pan_joint": 0.1228115487234821,
            "wrist_1_joint": -0.7804723859257726,
            "wrist_2_joint": 0.12958671773740124,
            "wrist_3_joint": -3.192489227718131
        }
    },
    "waypoints": [
        {
            "positions": [
                0.1228115487234821,
                -1.1394851275133948,
                1.971548259319323,
                -0.7804723859257726,
                0.12958671773740124,
                -3.192489227718131
            ]
        },
        {
            "positions": [
                0.05723639740213496,
                -1.1730006482387896,
                2.0354454452791333,
                -0.8139514389628609,
                0.2872771523412369,
                -3.177537053334115
            ]
        },
        {
            "positions": [
                -0.008338753919212183,
                -1.2065161689641843,
                2.099342631238944,
                -0.8474304919999494,
                0.44496758694507255,
                -3.162584878950099
            ]
        },
        {
            "positions": [
                -0.07391390524055932,
                -1.240031689689579,
                2.1632398171987544,
                -0.8809095450370377,
                0.6026580215489082,
                -3.147632704566083
            ]
        },
        {
            "positions": [
                -0.13948905656190647,
                -1.273547210414974,
                2.227137003158565,
                -0.9143885980741261,
                0.7603484561527439,
                -3.132680530182067
            ]
        },
        {
            "positions": [
                -0.20506420788325364,
                -1.3070627311403689,
                2.291034189118375,
                -0.9478676511112144,
                0.9180388907565796,
                -3.1177283557980506
            ]
        },
        {
            "positions": [
                -0.27063935920460075,
                -1.3405782518657636,
                2.3549313750781855,
                -0.9813467041483028,
                1.0757293253604152,
                -3.102776181414035
            ]
        },
        {
            "positions": [
                -0.3362145105259479,
                -1.3740937725911584,
                2.418828561037996,
                -1.0148257571853911,
                1.233419759964251,
                -3.0878240070300187
            ]
        }
    ]
}{
    "goal": {
        "global_pose": {
            "orientation": {
                "w": 0.5084816217422485,
                "x": -0.49083608388900757,
                "y": 0.5182115435600281,
                "z": -0.4816462993621826
            },
            "position": {
                "x": 0.5540239810943604,
                "y": 0.030875300988554955,
                "z": 0.16403168439865112
            }
        },
        "name": "move_to_storage_A"
    },
    "id": "ProjEST_move_to_storage_A_132",
    "joint_names": [
        "shoulder_pan_joint",
        "shoulder_lift_joint",
        "elbow_joint",
        "wrist_1_joint",
        "wrist_2_joint",
        "wrist_3_joint"
    ],
    "metrics": {
        "cart_traj_len": 0.3536428656373676,
        "distance_elbow_joint": 0.4512097528906329,
        "distance_shoulder_lift_joint": 0.2365661296791739,
        "distance_shoulder_pan_joint": 0.462696376873114,
        "distance_wrist_1_joint": 0.2434901723736591,
        "distance_wrist_2_joint": 1.1000852451623075,
        "distance_wrist_3_joint": 0.09214697961535956,
        "smoothness": 0.0,
        "time": 0.073875862,
        "traj_len": 1.6081649966947567,
        "weighted_distance": 2.0283155655274485
    },
    "planner": "ProjEST",
    "start": {
        "state": {
            "elbow_joint": 1.97154746011099,
            "shoulder_lift_joint": -1.13948474672311,
            "shoulder_pan_joint": 0.12281154466712228,
            "wrist_1_joint": -0.7804688027058302,
            "wrist_2_joint": 0.12958655903071145,
            "wrist_3_joint": 3.0906928834467795
        }
    },
    "waypoints": [
        {
            "positions": [
                0.12281154466712228,
                -1.13948474672311,
                1.97154746011099,
                -0.7804688027058302,
                0.12958655903071145,
                3.0906928834467795
            ]
        },
        {
            "positions": [
                0.05671206225667744,
                -1.1732799081058491,
                2.0360059962382233,
                -0.8152531130449243,
                0.2867415940538982,
                3.103856737677545
            ]
        },
        {
            "positions": [
                -0.009387420153767409,
                -1.2070750694885881,
                2.1004645323654563,
                -0.8500374233840184,
                0.44389662907708505,
                3.117020591908311
            ]
        },
        {
            "positions": [
                -0.07548690256421227,
                -1.2408702308713273,
                2.1649230684926897,
                -0.8848217337231127,
                0.6010516641002718,
                3.1301844461390766
            ]
        },
        {
            "positions": [
                -0.1415863849746571,
                -1.2746653922540665,
                2.229381604619923,
                -0.9196060440622068,
                0.7582066991234586,
                3.143348300369842
            ]
        },
        {
            "positions": [
                -0.20768586738510197,
                -1.3084605536368057,
                2.2938401407471565,
                -0.954390354401301,
                0.9153617341466455,
                3.1565121546006076
            ]
        },
        {
            "positions": [
                -0.2737853497955468,
                -1.3422557150195447,
                2.3582986768743894,
                -0.9891746647403952,
                1.072516769169832,
                3.1696760088313733
            ]
        },
        {
            "positions": [
                -0.3398848322059917,
                -1.3760508764022839,
                2.422757213001623,
                -1.0239589750794893,
                1.229671804193019,
                3.182839863062139
            ]
        }
    ]
}{
    "goal": {
        "global_pose": {
            "orientation": {
                "w": 0.5084816217422485,
                "x": -0.49083608388900757,
                "y": 0.5182115435600281,
                "z": -0.4816462993621826
            },
            "position": {
                "x": 0.5540239810943604,
                "y": 0.030875300988554955,
                "z": 0.16403168439865112
            }
        },
        "name": "move_to_storage_A"
    },
    "id": "ProjEST_move_to_storage_A_132",
    "joint_names": [
        "shoulder_pan_joint",
        "shoulder_lift_joint",
        "elbow_joint",
        "wrist_1_joint",
        "wrist_2_joint",
        "wrist_3_joint"
    ],
    "metrics": {
        "cart_traj_len": 0.3532542480192291,
        "distance_elbow_joint": 0.4499297443172625,
        "distance_shoulder_lift_joint": 0.2334226556845047,
        "distance_shoulder_pan_joint": 0.46025080750248165,
        "distance_wrist_1_joint": 0.24964040686420708,
        "distance_wrist_2_joint": 1.105365903231732,
        "distance_wrist_3_joint": 0.10469616216136313,
        "smoothness": 6.661338165333112e-16,
        "time": 0.039822336,
        "traj_len": 1.6134762718309654,
        "weighted_distance": 2.0414956071910164
    },
    "planner": "ProjEST",
    "start": {
        "state": {
            "elbow_joint": 1.9715472970024885,
            "shoulder_lift_joint": -1.1394870060712896,
            "shoulder_pan_joint": 0.12281152778156021,
            "wrist_1_joint": -0.780463741449964,
            "wrist_2_joint": 0.12958659822042276,
            "wrist_3_joint": 3.090690232415272
        }
    },
    "waypoints": [
        {
            "positions": [
                0.12281152778156021,
                -1.1394870060712896,
                1.9715472970024885,
                -0.780463741449964,
                0.12958659822042276,
                3.090690232415272
            ]
        },
        {
            "positions": [
                0.057061412424062846,
                -1.1728330997405045,
                2.0358229747620973,
                -0.8161266567162793,
                0.287496012967813,
                3.1056468270097524
            ]
        },
        {
            "positions": [
                -0.008688702933434517,
                -1.2061791934097195,
                2.1000986525217065,
                -0.8517895719825945,
                0.4454054277152033,
                3.120603421604233
            ]
        },
        {
            "positions": [
                -0.07443881829093188,
                -1.2395252870789344,
                2.164374330281315,
                -0.8874524872489099,
                0.6033148424625936,
                3.1355600161987134
            ]
        },
        {
            "positions": [
                -0.14018893364842924,
                -1.2728713807481493,
                2.2286500080409244,
                -0.9231154025152252,
                0.7612242572099839,
                3.1505166107931935
            ]
        },
        {
            "positions": [
                -0.20593904900592666,
                -1.3062174744173645,
                2.292925685800533,
                -0.9587783177815405,
                0.9191336719573742,
                3.165473205387674
            ]
        },
        {
            "positions": [
                -0.27168916436342394,
                -1.3395635680865794,
                2.357201363560142,
                -0.9944412330478558,
                1.0770430867047645,
                3.1804297999821545
            ]
        },
        {
            "positions": [
                -0.3374392797209214,
                -1.3729096617557943,
                2.421477041319751,
                -1.030104148314171,
                1.2349525014521547,
                3.195386394576635
            ]
        }
    ]
}