{
    "goal": {
        "global_pose": {
            "orientation": {
                "w": 0.7047431493862688,
                "x": -0.7094548369677653,
                "y": 0.0024358444001904,
                "z": -0.0022348060817251984
            },
            "position": {
                "x": -0.39052492380142206,
                "y": 0.3671506643295288,
                "z": 0.19426114857196808
            }
        },
        "name": "move_to_magneteinheit_D"
    },
    "id": "ProjEST_move_to_magneteinheit_D_101",
    "joint_names": [
        "shoulder_pan_joint",
        "shoulder_lift_joint",
        "elbow_joint",
        "wrist_1_joint",
        "wrist_2_joint",
        "wrist_3_joint"
    ],
    "metrics": {
        "cart_traj_len": 4.473530260410229,
        "distance_elbow_joint": 5.920663287873255,
        "distance_shoulder_lift_joint": 1.635231828403615,
        "distance_shoulder_pan_joint": 2.870159161381464,
        "distance_wrist_1_joint": 5.322473316159175,
        "distance_wrist_2_joint": 0.6277705143756026,
        "distance_wrist_3_joint": 3.447946398203525,
        "smoothness": 0.28787525537984704,
        "time": 0.27076019399999995,
        "traj_len": 4.452442532632693,
        "weighted_distance": 5.7158010054005945
    },
    "planner": "ProjEST",
    "start": {
        "state": {
            "elbow_joint": 0.749534889911806,
            "shoulder_lift_joint": -0.6476975780787326,
            "shoulder_pan_joint": -2.711696901376241,
            "wrist_1_joint": -0.07506478083263063,
            "wrist_2_joint": 0.43296659715538205,
            "wrist_3_joint": -3.14703540197715
        }
    },
    "waypoints": [
        {
            "positions": [
                -2.711696901376241,
                -0.6476975780787326,
                0.749534889911806,
                -0.07506478083263063,
                0.43296659715538205,
                -3.14703540197715
            ]
        },
        {
            "positions": [
                -2.7075230165767703,
                -0.690260965974501,
                0.823136706781463,
                -0.1706612632118379,
                0.4116454851932446,
                -3.010915080117403
            ]
        },
        {
            "positions": [
                -2.7033491317772995,
                -0.7328243538702695,
                0.8967385236511201,
                -0.2662577455910451,
                0.3903243732311072,
                -2.874794758257656
            ]
        },
        {
            "positions": [
                -2.6991752469778287,
                -0.7753877417660379,
                0.9703403405207772,
                -0.3618542279702524,
                0.36900326126896976,
                -2.738674436397909
            ]
        },
        {
            "positions": [
                -2.695001362178358,
                -0.8179511296618063,
                1.0439421573904344,
                -0.4574507103494596,
                0.3476821493068324,
                -2.6025541145381617
            ]
        },
        {
            "positions": [
                -2.6908274773788876,
                -0.8605145175575747,
                1.1175439742600914,
                -0.5530471927286669,
                0.32636103734469496,
                -2.466433792678415
            ]
        },
        {
            "positions": [
                -2.686653592579417,
                -0.9030779054533431,
                1.1911457911297485,
                -0.6486436751078741,
                0.30503992538255753,
                -2.330313470818668
            ]
        },
        {
            "positions": [
                -2.682479707779946,
                -0.9456412933491114,
                1.2647476079994053,
                -0.7442401574870814,
                0.28371881342042016,
                -2.194193148958921
            ]
        },
        {
            "positions": [
                -2.6783058229804753,
                -0.9882046812448799,
                1.3383494248690626,
                -0.8398366398662886,
                0.2623977014582827,
                -2.0580728270991737
            ]
        },
        {
            "positions": [
                -2.6741319381810045,
                -1.0307680691406482,
                1.4119512417387197,
                -0.9354331222454959,
                0.24107658949614527,
                -1.9219525052394268
            ]
        },
        {
            "positions": [
                -2.6699580533815337,
                -1.0733314570364167,
                1.4855530586083767,
                -1.0310296046247032,
                0.21975547753400784,
                -1.7858321833796797
            ]
        },
        {
            "positions": [
                -2.665784168582063,
                -1.115894844932185,
                1.559154875478034,
                -1.1266260870039104,
                0.1984343655718704,
                -1.6497118615199327
            ]
        },
        {
            "positions": [
                -2.661610283782592,
                -1.1584582328279536,
                1.6327566923476908,
                -1.2222225693831177,
                0.177113253609733,
                -1.5135915396601856
            ]
        },
        {
            "positions": [
                -2.657436398983122,
                -1.2010216207237219,
                1.7063585092173479,
                -1.3178190517623247,
                0.15579214164759564,
                -1.3774712178004387
            ]
        },
        {
            "positions": [
                -2.653262514183651,
                -1.2435850086194904,
                1.779960326087005,
                -1.413415534141532,
                0.1344710296854582,
                -1.2413508959406918
            ]
        },
        {
            "positions": [
                -2.64908862938418,
                -1.2861483965152587,
                1.8535621429566622,
                -1.5090120165207392,
                0.11314991772332078,
                -1.1052305740809447
            ]
        },
        {
            "positions": [
                -2.6449147445847094,
                -1.328711784411027,
                1.9271639598263193,
                -1.6046084988999465,
                0.09182880576118335,
                -0.9691102522211974
            ]
        },
        {
            "positions": [
                -2.6407408597852386,
                -1.3712751723067955,
                2.0007657766959763,
                -1.7002049812791538,
                0.07050769379904592,
                -0.8329899303614503
            ]
        },
        {
            "positions": [
                -2.603573378102975,
                -1.4085583256106429,
                2.050052660991373,
                -1.7802324889813785,
                0.04301774920906028,
                -0.679846378109465
            ]
        },
        {
            "positions": [
                -2.566405896420712,
                -1.44584147891449,
                2.0993395452867696,
                -1.8602599966836035,
                0.015527804619074624,
                -0.5267028258574797
            ]
        },
        {
            "positions": [
                -2.5292384147384483,
                -1.4831246322183373,
                2.1486264295821664,
                -1.9402875043858283,
                -0.011962139970911025,
                -0.3735592736054945
            ]
        },
        {
            "positions": [
                -2.435089443017037,
                -1.5014775338277135,
                1.9977642162957152,
                -1.8339058687791907,
                -0.009589195981239067,
                -0.3568966082178872
            ]
        },
        {
            "positions": [
                -2.3409404712956254,
                -1.5198304354370897,
                1.846902003009264,
                -1.727524233172553,
                -0.00721625199156711,
                -0.34023394283027986
            ]
        },
        {
            "positions": [
                -2.246791499574214,
                -1.538183337046466,
                1.6960397897228128,
                -1.6211425975659153,
                -0.004843308001895152,
                -0.32357127744267256
            ]
        },
        {
            "positions": [
                -2.1526425278528025,
                -1.5565362386558421,
                1.5451775764363616,
                -1.5147609619592777,
                -0.002470364012223194,
                -0.30690861205506526
            ]
        },
        {
            "positions": [
                -2.0584935561313906,
                -1.5748891402652183,
                1.3943153631499103,
                -1.40837932635264,
                -9.742002255123602e-05,
                -0.2902459466674579
            ]
        },
        {
            "positions": [
                -1.9643445844099792,
                -1.5932420418745945,
                1.2434531498634591,
                -1.3019976907460022,
                0.002275523967120722,
                -0.27358328127985054
            ]
        },
        {
            "positions": [
                -1.8701956126885677,
                -1.6115949434839707,
                1.092590936577008,
                -1.1956160551393649,
                0.00464846795679268,
                -0.25692061589224324
            ]
        },
        {
            "positions": [
                -1.7760466409671563,
                -1.629947845093347,
                0.9417287232905565,
                -1.089234419532727,
                0.0070214119464646375,
                -0.24025795050463594
            ]
        },
        {
            "positions": [
                -1.6818976692457448,
                -1.648300746702723,
                0.7908665100041052,
                -0.9828527839260894,
                0.009394355936136595,
                -0.2235952851170286
            ]
        },
        {
            "positions": [
                -1.5877486975243333,
                -1.6666536483120993,
                0.640004296717654,
                -0.8764711483194516,
                0.011767299925808553,
                -0.20693261972942129
            ]
        },
        {
            "positions": [
                -1.4935997258029219,
                -1.6850065499214755,
                0.4891420834312028,
                -0.7700895127128142,
                0.014140243915480511,
                -0.19026995434181398
            ]
        },
        {
            "positions": [
                -1.3994507540815102,
                -1.7033594515308517,
                0.3382798701447516,
                -0.6637078771061764,
                0.01651318790515247,
                -0.17360728895420663
            ]
        },
        {
            "positions": [
                -1.3053017823600988,
                -1.7217123531402279,
                0.18741765685830036,
                -0.5573262414995388,
                0.018886131894824427,
                -0.15694462356659933
            ]
        },
        {
            "positions": [
                -1.2111528106386873,
                -1.740065254749604,
                0.036555443571849366,
                -0.4509446058929012,
                0.021259075884496385,
                -0.14028195817899203
            ]
        },
        {
            "positions": [
                -1.1170038389172758,
                -1.7584181563589802,
                -0.11430676971460185,
                -0.3445629702862636,
                0.023632019874168343,
                -0.1236192927913847
            ]
        },
        {
            "positions": [
                -1.0228548671958642,
                -1.7767710579683564,
                -0.2651689830010535,
                -0.23818133467962577,
                0.0260049638638403,
                -0.10695662740377737
            ]
        },
        {
            "positions": [
                -0.9287058954744527,
                -1.7951239595777326,
                -0.41603119628750473,
                -0.13179969907298816,
                0.028377907853512258,
                -0.09029396201617002
            ]
        },
        {
            "positions": [
                -0.8345569237530412,
                -1.8134768611871088,
                -0.566893409573956,
                -0.02541806346635056,
                0.030750851843184216,
                -0.07363129662856271
            ]
        },
        {
            "positions": [
                -0.7404079520316298,
                -1.831829762796485,
                -0.7177556228604067,
                0.08096357214028682,
                0.03312379583285617,
                -0.056968631240955414
            ]
        },
        {
            "positions": [
                -0.6462589803102181,
                -1.8501826644058612,
                -0.8686178361468584,
                0.1873452077469251,
                0.03549673982252813,
                -0.04030596585334806
            ]
        },
        {
            "positions": [
                -0.5521100085888067,
                -1.8685355660152374,
                -1.0194800494333096,
                0.2937268433535625,
                0.037869683812200086,
                -0.023643300465740757
            ]
        },
        {
            "positions": [
                -0.4579610368673954,
                -1.8868884676246136,
                -1.1703422627197608,
                0.40010847896019985,
                0.040242627801872044,
                -0.006980635078133457
            ]
        },
        {
            "positions": [
                -0.36381206514598396,
                -1.9052413692339898,
                -1.321204476006212,
                0.5064901145668377,
                0.042615571791544,
                0.009682030309473899
            ]
        },
        {
            "positions": [
                -0.26966309342457206,
                -1.923594270843366,
                -1.4720666892926633,
                0.6128717501734755,
                0.04498851578121596,
                0.026344695697081255
            ]
        },
        {
            "positions": [
                -0.1755141217031606,
                -1.9419471724527422,
                -1.6229289025791145,
                0.7192533857801133,
                0.04736145977088792,
                0.043007361084688556
            ]
        },
        {
            "positions": [
                -0.08136514998174921,
                -1.9603000740621184,
                -1.7737911158655657,
                0.8256350213867506,
                0.049734403760559875,
                0.059670026472295884
            ]
        },
        {
            "positions": [
                -0.04742866383755704,
                -1.989340983419797,
                -1.9192551391532369,
                0.9551821478938112,
                0.05958120176292183,
                0.0144205450561751
            ]
        },
        {
            "positions": [
                -0.013492177693364873,
                -2.0183818927774757,
                -2.064719162440908,
                1.0847292744008719,
                0.06942799976528378,
                -0.030828936359945686
            ]
        },
        {
            "positions": [
                -0.01580197924903533,
                -2.0593081667513133,
                -2.1673933397455785,
                1.1940050408004985,
                0.08005330050044611,
                -0.05168160245005933
            ]
        },
        {
            "positions": [
                -0.018111780804705786,
                -2.1002344407251505,
                -2.2700675170502493,
                1.3032808072001254,
                0.09067860123560845,
                -0.07253426854017297
            ]
        },
        {
            "positions": [
                -0.020421582360376243,
                -2.141160714698988,
                -2.3727416943549198,
                1.412556573599752,
                0.10130390197077077,
                -0.09338693463028663
            ]
        },
        {
            "positions": [
                -0.102934098876164,
                -2.212045060590668,
                -2.372843506487823,
                1.4647598309099505,
                0.1360917696245845,
                -0.04929493030453953
            ]
        },
        {
            "positions": [
                -0.18544661539195179,
                -2.2829294064823475,
                -2.3729453186207263,
                1.5169630882201488,
                0.17087963727839822,
                -0.005202925978792432
            ]
        }
    ]
}