{
    "goal": {
        "global_pose": {
            "orientation": {
                "w": -0.00223480608172531,
                "x": 0.0024358444001904467,
                "y": 0.7094548369677653,
                "z": -0.704743149386269
            },
            "position": {
                "x": -0.37947507619857795,
                "y": -0.6371506643295288,
                "z": 0.19426114857196808
            }
        },
        "name": "move_to_magneteinheit_C"
    },
    "id": "ProjEST_move_to_magneteinheit_C_124",
    "joint_names": [
        "shoulder_pan_joint",
        "shoulder_lift_joint",
        "elbow_joint",
        "wrist_1_joint",
        "wrist_2_joint",
        "wrist_3_joint"
    ],
    "metrics": {
        "cart_traj_len": 4.116408122356637,
        "distance_elbow_joint": 0.2335292953344723,
        "distance_shoulder_lift_joint": 3.051759180854492,
        "distance_shoulder_pan_joint": 5.5170057952906255,
        "distance_wrist_1_joint": 1.8647181509058584,
        "distance_wrist_2_joint": 0.8020563748303221,
        "distance_wrist_3_joint": 0.1133848219004241,
        "smoothness": 1.0580495040887126,
        "time": 2.5162921409999996,
        "traj_len": 3.403300400951434,
        "weighted_distance": 3.8047336028496423
    },
    "planner": "ProjEST",
    "start": {
        "state": {
            "elbow_joint": 1.9565354010623817,
            "shoulder_lift_joint": -1.4165861575791021,
            "shoulder_pan_joint": -1.6717766225146293,
            "wrist_1_joint": -0.5286633292919765,
            "wrist_2_joint": 1.472756589071564,
            "wrist_3_joint": -3.1238370188695823
        }
    },
    "waypoints": [
        {
            "positions": [
                -1.6717766225146293,
                -1.4165861575791021,
                1.9565354010623817,
                -0.5286633292919765,
                1.472756589071564,
                -3.1238370188695823
            ]
        },
        {
            "positions": [
                -1.4904189881533825,
                -1.524218084677991,
                1.967670807256959,
                -0.6128511539256217,
                1.4707291322462213,
                -3.1200625598346035
            ]
        },
        {
            "positions": [
                -1.3090613537921354,
                -1.6318500117768797,
                1.9788062134515367,
                -0.6970389785592669,
                1.4687016754208784,
                -3.1162881007996246
            ]
        },
        {
            "positions": [
                -1.1277037194308885,
                -1.7394819388757685,
                1.9899416196461142,
                -0.7812268031929122,
                1.4666742185955357,
                -3.1125136417646457
            ]
        },
        {
            "positions": [
                -0.9463460850696417,
                -1.8471138659746573,
                2.001077025840692,
                -0.8654146278265573,
                1.4646467617701928,
                -3.1087391827296664
            ]
        },
        {
            "positions": [
                -0.7649884507083948,
                -1.954745793073546,
                2.0122124320352692,
                -0.9496024524602027,
                1.4626193049448502,
                -3.1049647236946876
            ]
        },
        {
            "positions": [
                -0.583630816347148,
                -2.0623777201724347,
                2.0233478382298467,
                -1.0337902770938479,
                1.4605918481195075,
                -3.1011902646597087
            ]
        },
        {
            "positions": [
                -0.4022731819859011,
                -2.1700096472713235,
                2.034483244424424,
                -1.117978101727493,
                1.4585643912941646,
                -3.09741580562473
            ]
        },
        {
            "positions": [
                -0.22091554762465404,
                -2.2776415743702123,
                2.0456186506190015,
                -1.2021659263611384,
                1.456536934468822,
                -3.093641346589751
            ]
        },
        {
            "positions": [
                -0.03955791326340741,
                -2.385273501469101,
                2.056754056813579,
                -1.2863537509947833,
                1.4545094776434793,
                -3.089866887554772
            ]
        },
        {
            "positions": [
                0.14179972109783967,
                -2.49290542856799,
                2.067889463008157,
                -1.3705415756284287,
                1.4524820208181364,
                -3.086092428519793
            ]
        },
        {
            "positions": [
                0.3231573554590865,
                -2.6005373556668787,
                2.079024869202734,
                -1.454729400262074,
                1.4504545639927937,
                -3.082317969484814
            ]
        },
        {
            "positions": [
                0.5045149898203334,
                -2.7081692827657675,
                2.0901602753973116,
                -1.5389172248957192,
                1.4484271071674508,
                -3.078543510449835
            ]
        },
        {
            "positions": [
                0.68587262418158,
                -2.8158012098646563,
                2.101295681591889,
                -1.6231050495293644,
                1.4463996503421082,
                -3.0747690514148562
            ]
        },
        {
            "positions": [
                0.5000281213230849,
                -2.7185927317135423,
                2.0960739748386557,
                -1.5777946712547486,
                1.4007702717479396,
                -3.078552395794015
            ]
        },
        {
            "positions": [
                0.3141836184645899,
                -2.6213842535624283,
                2.0908522680854227,
                -1.5324842929801326,
                1.355140893153771,
                -3.0823357401731735
            ]
        },
        {
            "positions": [
                0.1283391156060948,
                -2.5241757754113143,
                2.0856305613321893,
                -1.4871739147055165,
                1.3095115145596024,
                -3.0861190845523323
            ]
        },
        {
            "positions": [
                -0.057505387252400175,
                -2.4269672972602003,
                2.0804088545789563,
                -1.4418635364309007,
                1.2638821359654338,
                -3.089902428931491
            ]
        },
        {
            "positions": [
                -0.24334989011089525,
                -2.3297588191090863,
                2.075187147825723,
                -1.396553158156285,
                1.2182527573712651,
                -3.09368577331065
            ]
        },
        {
            "positions": [
                -0.42919439296939044,
                -2.2325503409579723,
                2.0699654410724895,
                -1.3512427798816689,
                1.1726233787770965,
                -3.0974691176898084
            ]
        },
        {
            "positions": [
                -0.6150388958278854,
                -2.1353418628068583,
                2.0647437343192565,
                -1.305932401607053,
                1.126994000182928,
                -3.101252462068967
            ]
        },
        {
            "positions": [
                -0.8008833986863804,
                -2.0381333846557443,
                2.059522027566023,
                -1.260622023332437,
                1.0813646215887593,
                -3.105035806448126
            ]
        },
        {
            "positions": [
                -0.9867279015448756,
                -1.9409249065046303,
                2.05430032081279,
                -1.2153116450578212,
                1.0357352429945907,
                -3.1088191508272844
            ]
        },
        {
            "positions": [
                -1.1725724044033705,
                -1.8437164283535163,
                2.0490786140595567,
                -1.1700012667832052,
                0.9901058644004221,
                -3.1126024952064433
            ]
        },
        {
            "positions": [
                -1.3584169072618657,
                -1.7465079502024023,
                2.0438569073063237,
                -1.1246908885085893,
                0.9444764858062534,
                -3.116385839585602
            ]
        },
        {
            "positions": [
                -1.5442614101203609,
                -1.6492994720512884,
                2.0386352005530903,
                -1.0793805102339733,
                0.8988471072120848,
                -3.1201691839647605
            ]
        },
        {
            "positions": [
                -1.7301059129788556,
                -1.5520909939001744,
                2.033413493799857,
                -1.0340701319593575,
                0.8532177286179163,
                -3.1239525283439193
            ]
        },
        {
            "positions": [
                -1.9159504158373508,
                -1.4548825157490604,
                2.028191787046624,
                -0.9887597536847416,
                0.8075883500237476,
                -3.127735872723078
            ]
        },
        {
            "positions": [
                -2.1017949186958456,
                -1.3576740375979464,
                2.0229700802933905,
                -0.9434493754101256,
                0.761958971429579,
                -3.131519217102237
            ]
        },
        {
            "positions": [
                -2.2876394215543407,
                -1.2604655594468324,
                2.0177483735401576,
                -0.8981389971355097,
                0.7163295928354104,
                -3.1353025614813954
            ]
        },
        {
            "positions": [
                -2.473483924412836,
                -1.1632570812957184,
                2.012526666786924,
                -0.8528286188608938,
                0.6707002142412418,
                -3.1390859058605542
            ]
        }
    ]
}