{
    "goal": {
        "global_pose": {
            "orientation": {
                "w": 0.005598929693374612,
                "x": 0.007748599140229565,
                "y": 0.7110244013736278,
                "z": -0.7031023480610252
            },
            "position": {
                "x": 0.1141497679147869,
                "y": -0.7141253447532654,
                "z": 0.3711530566215515
            }
        },
        "name": "move_to_auspresseinheit_B"
    },
    "id": "ProjEST_move_to_auspresseinheit_B_45",
    "joint_names": [
        "shoulder_pan_joint",
        "shoulder_lift_joint",
        "elbow_joint",
        "wrist_1_joint",
        "wrist_2_joint",
        "wrist_3_joint"
    ],
    "metrics": {
        "cart_traj_len": 0.5640469843371136,
        "distance_elbow_joint": 0.06525030517040387,
        "distance_shoulder_lift_joint": 0.29365478249857224,
        "distance_shoulder_pan_joint": 0.575487660536375,
        "distance_wrist_1_joint": 0.33595816630596653,
        "distance_wrist_2_joint": 0.9968415423099131,
        "distance_wrist_3_joint": 0.008748957204806285,
        "smoothness": 2.5376526478085547e-16,
        "time": 0.20321426999999997,
        "traj_len": 1.508622356332438,
        "weighted_distance": 1.904268635736967
    },
    "planner": "ProjEST",
    "start": {
        "state": {
            "elbow_joint": 2.0193083361928714,
            "shoulder_lift_joint": -1.1220246554650708,
            "shoulder_pan_joint": -1.0952077554168747,
            "wrist_1_joint": -0.8559753972642168,
            "wrist_2_joint": 0.4759566250798843,
            "wrist_3_joint": -3.1240929996934557
        }
    },
    "waypoints": [
        {
            "positions": [
                -1.0952077554168747,
                -1.1220246554650708,
                2.0193083361928714,
                -0.8559753972642168,
                0.4759566250798843,
                -3.1240929996934557
            ]
        },
        {
            "positions": [
                -1.1911223655062706,
                -1.1709671192148328,
                2.0084332853311375,
                -0.7999823695465557,
                0.6420968821315365,
                -3.1226348401593214
            ]
        },
        {
            "positions": [
                -1.2870369755956663,
                -1.219909582964595,
                1.9975582344694034,
                -0.7439893418288946,
                0.8082371391831886,
                -3.121176680625187
            ]
        },
        {
            "positions": [
                -1.382951585685062,
                -1.268852046714357,
                1.9866831836076695,
                -0.6879963141112335,
                0.9743773962348408,
                -3.1197185210910527
            ]
        },
        {
            "positions": [
                -1.478866195774458,
                -1.3177945104641189,
                1.9758081327459356,
                -0.6320032863935725,
                1.140517653286493,
                -3.118260361556918
            ]
        },
        {
            "positions": [
                -1.574780805863854,
                -1.366736974213881,
                1.9649330818842015,
                -0.5760102586759113,
                1.3066579103381453,
                -3.1168022020227837
            ]
        },
        {
            "positions": [
                -1.6706954159532497,
                -1.415679437963643,
                1.9540580310224676,
                -0.5200172309582503,
                1.4727981673897974,
                -3.1153440424886494
            ]
        }
    ]
}