{
    "goal": {
        "global_pose": {
            "orientation": {
                "w": -0.4816463035849501,
                "x": 0.5182115481033762,
                "y": 0.4908360881923453,
                "z": -0.5084816262002911
            },
            "position": {
                "x": -0.8240239810943604,
                "y": 0.19912469901144506,
                "z": 0.16403168439865112
            }
        },
        "name": "move_to_storage_D"
    },
    "id": "ProjEST_move_to_storage_D_92",
    "joint_names": [
        "shoulder_pan_joint",
        "shoulder_lift_joint",
        "elbow_joint",
        "wrist_1_joint",
        "wrist_2_joint",
        "wrist_3_joint"
    ],
    "metrics": {
        "cart_traj_len": 4.296242875251653,
        "distance_elbow_joint": 4.208180725950154,
        "distance_shoulder_lift_joint": 1.8053140970064354,
        "distance_shoulder_pan_joint": 3.2295368175063834,
        "distance_wrist_1_joint": 2.2623943732846223,
        "distance_wrist_2_joint": 1.4277202294683187,
        "distance_wrist_3_joint": 3.142805166959825,
        "smoothness": 0.21975907008708812,
        "time": 0.214704775,
        "traj_len": 4.009482686104995,
        "weighted_distance": 5.104084280931137
    },
    "planner": "ProjEST",
    "start": {
        "state": {
            "elbow_joint": -2.384821988534728,
            "shoulder_lift_joint": -2.2788054721415256,
            "shoulder_pan_joint": -0.1854694642142757,
            "wrist_1_joint": 1.4845938289331202,
            "wrist_2_joint": 0.17898776772866878,
            "wrist_3_joint": 0.037105688729662994
        }
    },
    "waypoints": [
        {
            "positions": [
                -0.1854694642142757,
                -2.2788054721415256,
                -2.384821988534728,
                1.4845938289331202,
                0.17898776772866878,
                0.037105688729662994
            ]
        },
        {
            "positions": [
                -0.0969216192708828,
                -2.242047510549807,
                -2.2715301054350787,
                1.4007696437982622,
                0.20151998732787416,
                0.0028624199465248426
            ]
        },
        {
            "positions": [
                -0.008373774327489897,
                -2.205289548958089,
                -2.158238222335429,
                1.3169454586634042,
                0.22405220692707953,
                -0.03138084883661331
            ]
        },
        {
            "positions": [
                0.08017407061590301,
                -2.1685315873663704,
                -2.04494633923578,
                1.2331212735285464,
                0.24658442652628493,
                -0.06562411761975145
            ]
        },
        {
            "positions": [
                0.16872191555929592,
                -2.1317736257746525,
                -1.9316544561361306,
                1.1492970883936884,
                0.2691166461254903,
                -0.09986738640288961
            ]
        },
        {
            "positions": [
                0.2572697605026888,
                -2.095015664182934,
                -1.8183625730364814,
                1.0654729032588304,
                0.29164886572469567,
                -0.13411065518602774
            ]
        },
        {
            "positions": [
                0.34581760544608176,
                -2.0582577025912157,
                -1.7050706899368318,
                0.9816487181239725,
                0.31418108532390104,
                -0.1683539239691659
            ]
        },
        {
            "positions": [
                0.4343654503894746,
                -2.0214997409994973,
                -1.5917788068371825,
                0.8978245329891145,
                0.3367133049231064,
                -0.20259719275230406
            ]
        },
        {
            "positions": [
                0.5229132953328676,
                -1.9847417794077788,
                -1.4784869237375333,
                0.8140003478542565,
                0.3592455245223118,
                -0.23684046153544222
            ]
        },
        {
            "positions": [
                0.6114611402762604,
                -1.9479838178160607,
                -1.3651950406378839,
                0.7301761627193986,
                0.38177774412151716,
                -0.27108373031858035
            ]
        },
        {
            "positions": [
                0.7000089852196534,
                -1.9112258562243423,
                -1.2519031575382347,
                0.6463519775845405,
                0.40430996372072253,
                -0.30532699910171845
            ]
        },
        {
            "positions": [
                0.7885568301630463,
                -1.8744678946326239,
                -1.138611274438585,
                0.5625277924496825,
                0.42684218331992796,
                -0.33957026788485667
            ]
        },
        {
            "positions": [
                0.8771046751064392,
                -1.8377099330409057,
                -1.0253193913389358,
                0.47870360731482475,
                0.44937440291913333,
                -0.3738135366679948
            ]
        },
        {
            "positions": [
                0.9656525200498322,
                -1.8009519714491873,
                -0.9120275082392864,
                0.3948794221799665,
                0.4719066225183387,
                -0.408056805451133
            ]
        },
        {
            "positions": [
                1.0542003649932248,
                -1.7641940098574689,
                -0.7987356251396371,
                0.31105523704510873,
                0.4944388421175441,
                -0.4423000742342711
            ]
        },
        {
            "positions": [
                1.142748209936618,
                -1.7274360482657505,
                -0.6854437420399877,
                0.22723105191025073,
                0.5169710617167494,
                -0.4765433430174093
            ]
        },
        {
            "positions": [
                1.2312960548800107,
                -1.690678086674032,
                -0.5721518589403385,
                0.14340686677539272,
                0.5395032813159548,
                -0.5107866118005474
            ]
        },
        {
            "positions": [
                1.3198438998234037,
                -1.653920125082314,
                -0.45885997584068905,
                0.05958268164053471,
                0.5620355009151602,
                -0.5450298805836855
            ]
        },
        {
            "positions": [
                1.4083917447667964,
                -1.6171621634905957,
                -0.34556809274103983,
                -0.02424150349432308,
                0.5845677205143656,
                -0.5792731493668236
            ]
        },
        {
            "positions": [
                1.4969395897101896,
                -1.5804042018988773,
                -0.23227620964139062,
                -0.10806568862918109,
                0.6070999401135709,
                -0.6135164181499618
            ]
        },
        {
            "positions": [
                1.5854874346535823,
                -1.543646240307159,
                -0.1189843265417414,
                -0.1918898737640391,
                0.6296321597127763,
                -0.6477596869330999
            ]
        },
        {
            "positions": [
                1.6740352795969753,
                -1.5068882787154405,
                -0.0056924434420916326,
                -0.27571405889889716,
                0.6521643793119817,
                -0.6820029557162381
            ]
        },
        {
            "positions": [
                1.7569942704109354,
                -1.4523586246736144,
                0.05847113349080853,
                -0.2913023167096963,
                0.7004945084658261,
                -0.8061778459107515
            ]
        },
        {
            "positions": [
                1.8399532612248952,
                -1.3978289706317883,
                0.12263471042370869,
                -0.30689057452049545,
                0.7488246376196703,
                -0.9303527361052647
            ]
        },
        {
            "positions": [
                1.9229122520388553,
                -1.343299316589962,
                0.18679828735660883,
                -0.3224788323312946,
                0.7971547667735147,
                -1.054527626299778
            ]
        },
        {
            "positions": [
                2.005871242852815,
                -1.288769662548136,
                0.250961864289509,
                -0.33806709014209374,
                0.8454848959273591,
                -1.1787025164942913
            ]
        },
        {
            "positions": [
                2.0888302336667754,
                -1.2342400085063099,
                0.3151254412224092,
                -0.3536553479528929,
                0.8938150250812034,
                -1.3028774066888047
            ]
        },
        {
            "positions": [
                2.1717892244807353,
                -1.1797103544644838,
                0.3792890181553093,
                -0.369243605763692,
                0.9421451542350476,
                -1.427052296883318
            ]
        },
        {
            "positions": [
                2.254748215294695,
                -1.1251807004226575,
                0.4434525950882095,
                -0.3848318635744912,
                0.9904752833888921,
                -1.5512271870778314
            ]
        },
        {
            "positions": [
                2.3377072061086555,
                -1.0706510463808314,
                0.5076161720211096,
                -0.40042012138529026,
                1.0388054125427364,
                -1.6754020772723446
            ]
        },
        {
            "positions": [
                2.4206661969226153,
                -1.0161213923390053,
                0.5717797489540098,
                -0.41600837919608946,
                1.0871355416965809,
                -1.799576967466858
            ]
        },
        {
            "positions": [
                2.503625187736575,
                -0.9615917382971793,
                0.63594332588691,
                -0.43159663700688855,
                1.1354656708504252,
                -1.9237518576613712
            ]
        },
        {
            "positions": [
                2.5865841785505355,
                -0.9070620842553531,
                0.7001069028198101,
                -0.4471848948176877,
                1.1837958000042694,
                -2.0479267478558842
            ]
        },
        {
            "positions": [
                2.6695431693644953,
                -0.852532430213527,
                0.7642704797527102,
                -0.46277315262848684,
                1.2321259291581137,
                -2.172101638050398
            ]
        },
        {
            "positions": [
                2.752502160178455,
                -0.7980027761717008,
                0.8284340566856105,
                -0.478361410439286,
                1.2804560583119582,
                -2.296276528244911
            ]
        },
        {
            "positions": [
                2.8354611509924155,
                -0.7434731221298747,
                0.8925976336185106,
                -0.4939496682500851,
                1.3287861874658025,
                -2.4204514184394244
            ]
        },
        {
            "positions": [
                2.8056602649496023,
                -0.7820419431291298,
                1.0255635055894983,
                -0.5344997934074304,
                1.2890830717899189,
                -2.51834399840953
            ]
        },
        {
            "positions": [
                2.775859378906789,
                -0.8206107641283847,
                1.1585293775604861,
                -0.5750499185647756,
                1.2493799561140353,
                -2.616236578379635
            ]
        },
        {
            "positions": [
                2.746058492863976,
                -0.8591795851276398,
                1.2914952495314738,
                -0.6156000437221208,
                1.2096768404381517,
                -2.7141291583497407
            ]
        },
        {
            "positions": [
                2.716257606821163,
                -0.8977484061268948,
                1.4244611215024614,
                -0.6561501688794661,
                1.1699737247622681,
                -2.812021738319846
            ]
        },
        {
            "positions": [
                2.6864567207783496,
                -0.9363172271261498,
                1.5574269934734493,
                -0.6967002940368113,
                1.1302706090863845,
                -2.9099143182899514
            ]
        },
        {
            "positions": [
                2.6566558347355365,
                -0.9748860481254048,
                1.6903928654444367,
                -0.7372504191941566,
                1.090567493410501,
                -3.0078068982600565
            ]
        },
        {
            "positions": [
                2.6268549486927233,
                -1.0134548691246599,
                1.8233587374154245,
                -0.7778005443515018,
                1.0508643777346174,
                -3.105699478230162
            ]
        }
    ]
}