{
    "goal": {
        "global_pose": {
            "orientation": {
                "w": 0.7031023480610252,
                "x": -0.7110244013736278,
                "y": 0.0077485991402295624,
                "z": 0.005598929693374583
            },
            "position": {
                "x": -0.8841497679147869,
                "y": 0.44412534475326537,
                "z": 0.3711530566215515
            }
        },
        "name": "move_to_auspresseinheit_D"
    },
    "id": "ProjEST_move_to_auspresseinheit_D_92",
    "joint_names": [
        "shoulder_pan_joint",
        "shoulder_lift_joint",
        "elbow_joint",
        "wrist_1_joint",
        "wrist_2_joint",
        "wrist_3_joint"
    ],
    "metrics": {
        "cart_traj_len": 0.3435331838805299,
        "distance_elbow_joint": 0.6410314918597635,
        "distance_shoulder_lift_joint": 0.12323665402792283,
        "distance_shoulder_pan_joint": 0.13429859094521746,
        "distance_wrist_1_joint": 0.5306725935671137,
        "distance_wrist_2_joint": 1.445608712001316,
        "distance_wrist_3_joint": 0.0016527511550528118,
        "smoothness": 0.0,
        "time": 0.096343175,
        "traj_len": 1.6960249979161233,
        "weighted_distance": 2.203653239834916
    },
    "planner": "ProjEST",
    "start": {
        "state": {
            "elbow_joint": -1.8275523626775212,
            "shoulder_lift_joint": -2.126789852344167,
            "shoulder_pan_joint": -0.03513704404078235,
            "wrist_1_joint": -2.347782403156801,
            "wrist_2_joint": -1.6058999987535132,
            "wrist_3_joint": -3.0880379163319196
        }
    },
    "waypoints": [
        {
            "positions": [
                -0.03513704404078235,
                -2.126789852344167,
                -1.8275523626775212,
                -2.347782403156801,
                -1.6058999987535132,
                -3.0880379163319196
            ]
        },
        {
            "positions": [
                -0.05192436790893453,
                -2.1421944340976573,
                -1.7474234261950508,
                -2.41411647735269,
                -1.4251989097533486,
                -3.087831322437538
            ]
        },
        {
            "positions": [
                -0.06871169177708672,
                -2.1575990158511473,
                -1.6672944897125803,
                -2.4804505515485795,
                -1.2444978207531843,
                -3.0876247285431564
            ]
        },
        {
            "positions": [
                -0.0854990156452389,
                -2.173003597604638,
                -1.5871655532301099,
                -2.5467846257444684,
                -1.0637967317530197,
                -3.087418134648775
            ]
        },
        {
            "positions": [
                -0.10228633951339108,
                -2.1884081793581283,
                -1.5070366167476394,
                -2.6131186999403577,
                -0.8830956427528552,
                -3.087211540754393
            ]
        },
        {
            "positions": [
                -0.11907366338154327,
                -2.2038127611116187,
                -1.426907680265169,
                -2.679452774136247,
                -0.7023945537526908,
                -3.0870049468600116
            ]
        },
        {
            "positions": [
                -0.13586098724969545,
                -2.219217342865109,
                -1.3467787437826986,
                -2.745786848332136,
                -0.5216934647525262,
                -3.08679835296563
            ]
        },
        {
            "positions": [
                -0.15264831111784763,
                -2.234621924618599,
                -1.2666498073002281,
                -2.8121209225280253,
                -0.34099237575236185,
                -3.0865917590712484
            ]
        },
        {
            "positions": [
                -0.1694356349859998,
                -2.2500265063720897,
                -1.1865208708177577,
                -2.8784549967239146,
                -0.1602912867521973,
                -3.086385165176867
            ]
        }
    ]
}