{
    "goal": {
        "global_pose": {
            "orientation": {
                "w": -0.4816463035849501,
                "x": 0.5182115481033762,
                "y": 0.4908360881923453,
                "z": -0.5084816262002911
            },
            "position": {
                "x": -0.8240239810943604,
                "y": 0.19912469901144506,
                "z": 0.16403168439865112
            }
        },
        "name": "move_to_storage_D"
    },
    "id": "ProjEST_move_to_storage_D_27",
    "joint_names": [
        "shoulder_pan_joint",
        "shoulder_lift_joint",
        "elbow_joint",
        "wrist_1_joint",
        "wrist_2_joint",
        "wrist_3_joint"
    ],
    "metrics": {
        "cart_traj_len": 3.687905401892353,
        "distance_elbow_joint": 4.209147984232869,
        "distance_shoulder_lift_joint": 1.2644024656579673,
        "distance_shoulder_pan_joint": 2.8117798053468777,
        "distance_wrist_1_joint": 2.2617589122451642,
        "distance_wrist_2_joint": 0.8667843283428304,
        "distance_wrist_3_joint": 3.140516374007166,
        "smoothness": 8.88178420076975e-16,
        "time": 0.205081289,
        "traj_len": 3.8150216080427213,
        "weighted_distance": 4.895300384903382
    },
    "planner": "ProjEST",
    "start": {
        "state": {
            "elbow_joint": -2.384821988534728,
            "shoulder_lift_joint": -2.2788054721415256,
            "shoulder_pan_joint": -0.1854694642142757,
            "wrist_1_joint": 1.4845938289331202,
            "wrist_2_joint": 0.17898776772866878,
            "wrist_3_joint": 0.037105688729662994
        }
    },
    "waypoints": [
        {
            "positions": [
                -0.1854694642142757,
                -2.2788054721415256,
                -2.384821988534728,
                1.4845938289331202,
                0.17898776772866878,
                0.037105688729662994
            ]
        },
        {
            "positions": [
                -0.08895503681277392,
                -2.23634276936106,
                -2.2723402766322627,
                1.4363484029346465,
                0.20289188227119892,
                -0.02305168137648038
            ]
        },
        {
            "positions": [
                0.007559390588727871,
                -2.1938800665805944,
                -2.159858564729797,
                1.3881029769361726,
                0.22679599681372908,
                -0.08320905148262375
            ]
        },
        {
            "positions": [
                0.10407381799022966,
                -2.1514173638001286,
                -2.0473768528273317,
                1.3398575509376989,
                0.2507001113562592,
                -0.1433664215887671
            ]
        },
        {
            "positions": [
                0.20058824539173145,
                -2.108954661019663,
                -1.9348951409248665,
                1.291612124939225,
                0.27460422589878936,
                -0.2035237916949105
            ]
        },
        {
            "positions": [
                0.2971026727932332,
                -2.0664919582391974,
                -1.822413429022401,
                1.2433666989407512,
                0.29850834044131946,
                -0.26368116180105394
            ]
        },
        {
            "positions": [
                0.39361710019473506,
                -2.0240292554587316,
                -1.7099317171199357,
                1.1951212729422775,
                0.32241245498384963,
                -0.32383853190719725
            ]
        },
        {
            "positions": [
                0.4901315275962369,
                -1.9815665526782658,
                -1.5974500052174703,
                1.1468758469438036,
                0.3463165695263798,
                -0.38399590201334066
            ]
        },
        {
            "positions": [
                0.5866459549977386,
                -1.9391038498978002,
                -1.484968293315005,
                1.09863042094533,
                0.37022068406890996,
                -0.44415327211948397
            ]
        },
        {
            "positions": [
                0.6831603823992404,
                -1.8966411471173346,
                -1.3724865814125395,
                1.0503849949468562,
                0.39412479861144006,
                -0.5043106422256274
            ]
        },
        {
            "positions": [
                0.7796748098007422,
                -1.8541784443368687,
                -1.260004869510074,
                1.0021395689483823,
                0.41802891315397017,
                -0.5644680123317708
            ]
        },
        {
            "positions": [
                0.8761892372022441,
                -1.811715741556403,
                -1.1475231576076088,
                0.9538941429499086,
                0.44193302769650034,
                -0.6246253824379141
            ]
        },
        {
            "positions": [
                0.9727036646037458,
                -1.7692530387759375,
                -1.0350414457051436,
                0.9056487169514349,
                0.4658371422390305,
                -0.6847827525440574
            ]
        },
        {
            "positions": [
                1.0692180920052474,
                -1.7267903359954717,
                -0.9225597338026779,
                0.857403290952961,
                0.48974125678156066,
                -0.7449401226502009
            ]
        },
        {
            "positions": [
                1.1657325194067494,
                -1.684327633215006,
                -0.8100780219002124,
                0.8091578649544872,
                0.5136453713240908,
                -0.8050974927563443
            ]
        },
        {
            "positions": [
                1.262246946808251,
                -1.6418649304345403,
                -0.6975963099977474,
                0.7609124389560135,
                0.5375494858666209,
                -0.8652548628624875
            ]
        },
        {
            "positions": [
                1.3587613742097528,
                -1.5994022276540747,
                -0.5851145980952819,
                0.7126670129575396,
                0.561453600409151,
                -0.925412232968631
            ]
        },
        {
            "positions": [
                1.4552758016112548,
                -1.5569395248736089,
                -0.4726328861928164,
                0.6644215869590658,
                0.5853577149516812,
                -0.9855696030747745
            ]
        },
        {
            "positions": [
                1.5517902290127563,
                -1.5144768220931433,
                -0.36015117429035115,
                0.6161761609605921,
                0.6092618294942114,
                -1.0457269731809178
            ]
        },
        {
            "positions": [
                1.6483046564142583,
                -1.4720141193126777,
                -0.2476694623878859,
                0.5679307349621183,
                0.6331659440367414,
                -1.105884343287061
            ]
        },
        {
            "positions": [
                1.74481908381576,
                -1.4295514165322118,
                -0.1351877504854202,
                0.5196853089636445,
                0.6570700585792716,
                -1.1660417133932046
            ]
        },
        {
            "positions": [
                1.8413335112172615,
                -1.387088713751746,
                -0.022706038582954946,
                0.4714398829651709,
                0.6809741731218018,
                -1.226199083499348
            ]
        },
        {
            "positions": [
                1.9378479386187637,
                -1.3446260109712804,
                0.08977567331951031,
                0.423194456966697,
                0.7048782876643319,
                -1.2863564536054912
            ]
        },
        {
            "positions": [
                2.0343623660202654,
                -1.3021633081908148,
                0.202257385221976,
                0.3749490309682233,
                0.7287824022068621,
                -1.3465138237116347
            ]
        },
        {
            "positions": [
                2.130876793421767,
                -1.2597006054103492,
                0.3147390971244408,
                0.3267036049697496,
                0.7526865167493921,
                -1.4066711938177778
            ]
        },
        {
            "positions": [
                2.227391220823269,
                -1.2172379026298834,
                0.4272208090269064,
                0.2784581789712758,
                0.7765906312919223,
                -1.4668285639239214
            ]
        },
        {
            "positions": [
                2.2580773070009097,
                -1.2016352183109353,
                0.5346904387708475,
                0.1972563895648666,
                0.7972968978134282,
                -1.5927194963357354
            ]
        },
        {
            "positions": [
                2.288763393178551,
                -1.1860325339919873,
                0.6421600685147887,
                0.11605460015845742,
                0.8180031643349341,
                -1.7186104287475494
            ]
        },
        {
            "positions": [
                2.3194494793561917,
                -1.1704298496730392,
                0.7496296982587298,
                0.03485281075204824,
                0.83870943085644,
                -1.8445013611593633
            ]
        },
        {
            "positions": [
                2.350135565533833,
                -1.1548271653540911,
                0.857099328002671,
                -0.04634897865436094,
                0.859415697377946,
                -1.9703922935711773
            ]
        },
        {
            "positions": [
                2.3808216517114738,
                -1.139224481035143,
                0.9645689577466121,
                -0.1275507680607701,
                0.8801219638994519,
                -2.096283225982991
            ]
        },
        {
            "positions": [
                2.411507737889115,
                -1.1236217967161948,
                1.0720385874905531,
                -0.2087525574671793,
                0.9008282304209577,
                -2.222174158394805
            ]
        },
        {
            "positions": [
                2.442193824066756,
                -1.1080191123972467,
                1.1795082172344942,
                -0.28995434687358845,
                0.9215344969424637,
                -2.348065090806619
            ]
        },
        {
            "positions": [
                2.472879910244397,
                -1.0924164280782986,
                1.2869778469784356,
                -0.37115613627999766,
                0.9422407634639696,
                -2.473956023218433
            ]
        },
        {
            "positions": [
                2.503565996422038,
                -1.0768137437593506,
                1.3944474767223767,
                -0.45235792568640676,
                0.9629470299854754,
                -2.5998469556302473
            ]
        },
        {
            "positions": [
                2.534252082599679,
                -1.0612110594404025,
                1.5019171064663177,
                -0.533559715092816,
                0.9836532965069814,
                -2.725737888042061
            ]
        },
        {
            "positions": [
                2.56493816877732,
                -1.0456083751214544,
                1.6093867362102587,
                -0.6147615044992252,
                1.0043595630284874,
                -2.8516288204538753
            ]
        },
        {
            "positions": [
                2.595624254954961,
                -1.0300056908025064,
                1.7168563659542002,
                -0.6959632939056344,
                1.0250658295499933,
                -2.977519752865689
            ]
        },
        {
            "positions": [
                2.626310341132602,
                -1.0144030064835583,
                1.8243259956981412,
                -0.7771650833120435,
                1.0457720960714991,
                -3.103410685277503
            ]
        }
    ]
}