{
    "goal": {
        "global_pose": {
            "orientation": {
                "w": 0.5084816262002911,
                "x": -0.4908360881923452,
                "y": 0.5182115481033761,
                "z": -0.48164630358495003
            },
            "position": {
                "x": 0.5540239810943604,
                "y": -0.46912469901144505,
                "z": 0.16403168439865112
            }
        },
        "name": "move_to_storage_B"
    },
    "id": "ProjEST_move_to_storage_B_119",
    "joint_names": [
        "shoulder_pan_joint",
        "shoulder_lift_joint",
        "elbow_joint",
        "wrist_1_joint",
        "wrist_2_joint",
        "wrist_3_joint"
    ],
    "metrics": {
        "cart_traj_len": 0.7704869801194957,
        "distance_elbow_joint": 0.3524907179074743,
        "distance_shoulder_lift_joint": 0.46037089903936645,
        "distance_shoulder_pan_joint": 0.4085076828765716,
        "distance_wrist_1_joint": 3.0559979656582517,
        "distance_wrist_2_joint": 2.719309862422681,
        "distance_wrist_3_joint": 3.1362024097330483,
        "smoothness": 0.09822294648614212,
        "time": 0.097842769,
        "traj_len": 3.183218424431065,
        "weighted_distance": 4.709627605786303
    },
    "planner": "ProjEST",
    "start": {
        "state": {
            "elbow_joint": 1.664937868594044,
            "shoulder_lift_joint": -0.661644460510453,
            "shoulder_pan_joint": -0.9139846352900073,
            "wrist_1_joint": 2.146753192139373,
            "wrist_2_joint": -2.2341966793290973,
            "wrist_3_joint": 0.005466555786416001
        }
    },
    "waypoints": [
        {
            "positions": [
                -0.9139846352900073,
                -0.661644460510453,
                1.664937868594044,
                2.146753192139373,
                -2.2341966793290973,
                0.005466555786416001
            ]
        },
        {
            "positions": [
                -0.8566529263166167,
                -0.7451601150560756,
                1.6747338237582872,
                2.1630139926040655,
                -2.1599019835122935,
                -0.04528077068284911
            ]
        },
        {
            "positions": [
                -0.799321217343226,
                -0.8286757696016982,
                1.6845297789225302,
                2.1792747930687577,
                -2.08560728769549,
                -0.09602809715211422
            ]
        },
        {
            "positions": [
                -0.8110749879404177,
                -0.8404093531996231,
                1.6978457312256898,
                2.058335738479603,
                -1.9827784688639272,
                -0.21741640742389493
            ]
        },
        {
            "positions": [
                -0.8228287585376093,
                -0.8521429367975479,
                1.7111616835288492,
                1.9373966838904484,
                -1.8799496500323643,
                -0.33880471769567566
            ]
        },
        {
            "positions": [
                -0.8345825291348009,
                -0.8638765203954728,
                1.7244776358320089,
                1.8164576293012937,
                -1.7771208312008013,
                -0.4601930279674563
            ]
        },
        {
            "positions": [
                -0.8463362997319925,
                -0.8756101039933976,
                1.7377935881351683,
                1.695518574712139,
                -1.6742920123692384,
                -0.5815813382392371
            ]
        },
        {
            "positions": [
                -0.858090070329184,
                -0.8873436875913224,
                1.751109540438328,
                1.5745795201229842,
                -1.5714631935376753,
                -0.7029696485110178
            ]
        },
        {
            "positions": [
                -0.8698438409263757,
                -0.8990772711892473,
                1.7644254927414873,
                1.4536404655338298,
                -1.4686343747061126,
                -0.8243579587827985
            ]
        },
        {
            "positions": [
                -0.8815976115235673,
                -0.9108108547871722,
                1.777741445044647,
                1.3327014109446749,
                -1.3658055558745494,
                -0.9457462690545793
            ]
        },
        {
            "positions": [
                -0.8933513821207589,
                -0.922544438385097,
                1.7910573973478063,
                1.2117623563555202,
                -1.2629767370429865,
                -1.0671345793263598
            ]
        },
        {
            "positions": [
                -0.9051051527179506,
                -0.9342780219830218,
                1.804373349650966,
                1.0908233017663655,
                -1.1601479182114236,
                -1.1885228895981406
            ]
        },
        {
            "positions": [
                -0.9168589233151422,
                -0.9460116055809467,
                1.8176893019541254,
                0.9698842471772107,
                -1.0573190993798607,
                -1.3099111998699213
            ]
        },
        {
            "positions": [
                -0.9286126939123338,
                -0.9577451891788715,
                1.831005254257285,
                0.8489451925880562,
                -0.9544902805482978,
                -1.4312995101417019
            ]
        },
        {
            "positions": [
                -0.9403664645095253,
                -0.9694787727767964,
                1.8443212065604444,
                0.7280061379989016,
                -0.8516614617167348,
                -1.5526878204134826
            ]
        },
        {
            "positions": [
                -0.9521202351067171,
                -0.9812123563747213,
                1.857637158863604,
                0.6070670834097467,
                -0.7488326428851717,
                -1.6740761306852634
            ]
        },
        {
            "positions": [
                -0.9638740057039086,
                -0.9929459399726461,
                1.8709531111667634,
                0.48612802882059203,
                -0.6460038240536088,
                -1.7954644409570442
            ]
        },
        {
            "positions": [
                -0.9756277763011002,
                -1.004679523570571,
                1.884269063469923,
                0.3651889742314376,
                -0.5431750052220459,
                -1.9168527512288247
            ]
        },
        {
            "positions": [
                -0.9873815468982918,
                -1.0164131071684959,
                1.8975850157730825,
                0.2442499196422827,
                -0.44034618639048295,
                -2.0382410615006057
            ]
        },
        {
            "positions": [
                -0.9991353174954835,
                -1.0281466907664207,
                1.910900968076242,
                0.12331086505312783,
                -0.3375173675589198,
                -2.1596293717723865
            ]
        },
        {
            "positions": [
                -1.010889088092675,
                -1.0398802743643456,
                1.9242169203794015,
                0.0023718104639733895,
                -0.23468854872735712,
                -2.281017682044167
            ]
        },
        {
            "positions": [
                -1.0226428586898666,
                -1.0516138579622702,
                1.9375328726825611,
                -0.11856724412518149,
                -0.1318597298957942,
                -2.402405992315948
            ]
        },
        {
            "positions": [
                -1.0343966292870583,
                -1.0633474415601953,
                1.9508488249857208,
                -0.23950629871433637,
                -0.02903091106423128,
                -2.5237943025877287
            ]
        },
        {
            "positions": [
                -1.0461503998842498,
                -1.07508102515812,
                1.9641647772888802,
                -0.3604453533034908,
                0.07379790776733186,
                -2.645182612859509
            ]
        },
        {
            "positions": [
                -1.0579041704814416,
                -1.0868146087560449,
                1.9774807295920396,
                -0.48138440789264525,
                0.17662672659889456,
                -2.76657092313129
            ]
        },
        {
            "positions": [
                -1.069657941078633,
                -1.0985481923539697,
                1.9907966818951992,
                -0.6023234624818001,
                0.2794555454304577,
                -2.887959233403071
            ]
        },
        {
            "positions": [
                -1.0814117116758246,
                -1.1102817759518946,
                2.004112634198359,
                -0.7232625170709546,
                0.3822843642620204,
                -3.0093475436748514
            ]
        },
        {
            "positions": [
                -1.0931654822730164,
                -1.1220153595498195,
                2.0174285865015182,
                -0.8442015716601096,
                0.4851131830935836,
                -3.130735853946632
            ]
        }
    ]
}