{
    "goal": {
        "global_pose": {
            "orientation": {
                "w": -0.00223480608172531,
                "x": 0.0024358444001904467,
                "y": 0.7094548369677653,
                "z": -0.704743149386269
            },
            "position": {
                "x": 0.6205249238014221,
                "y": -0.6371506643295288,
                "z": 0.19426114857196808
            }
        },
        "name": "move_to_magneteinheit_B"
    },
    "id": "ProjEST_move_to_magneteinheit_B_109",
    "joint_names": [
        "shoulder_pan_joint",
        "shoulder_lift_joint",
        "elbow_joint",
        "wrist_1_joint",
        "wrist_2_joint",
        "wrist_3_joint"
    ],
    "metrics": {
        "cart_traj_len": 3.5122465388927337,
        "distance_elbow_joint": 4.282662928942746,
        "distance_shoulder_lift_joint": 1.066167709384498,
        "distance_shoulder_pan_joint": 2.6860571097860446,
        "distance_wrist_1_joint": 1.4335018585804868,
        "distance_wrist_2_joint": 1.2350851868304389,
        "distance_wrist_3_joint": 2.2206884143984786,
        "smoothness": 0.3581620655783737,
        "time": 3.8386491919999997,
        "traj_len": 3.5950192221909876,
        "weighted_distance": 4.475949852504
    },
    "planner": "ProjEST",
    "start": {
        "state": {
            "elbow_joint": 2.6216224122426386,
            "shoulder_lift_joint": -1.4174107377796124,
            "shoulder_pan_joint": 0.7066234856936794,
            "wrist_1_joint": 1.9546482284002225,
            "wrist_2_joint": -0.7096286983471962,
            "wrist_3_joint": 0.005740856962016249
        }
    },
    "waypoints": [
        {
            "positions": [
                0.7066234856936794,
                -1.4174107377796124,
                2.6216224122426386,
                1.9546482284002225,
                -0.7096286983471962,
                0.005740856962016249
            ]
        },
        {
            "positions": [
                0.5526966796169506,
                -1.4431930779488802,
                2.596801503599995,
                1.9233445030780971,
                -0.7235090335105054,
                -0.1084872084997369
            ]
        },
        {
            "positions": [
                0.39876987354022164,
                -1.4689754181181482,
                2.5719805949573518,
                1.8920407777559718,
                -0.7373893686738147,
                -0.22271527396149005
            ]
        },
        {
            "positions": [
                0.4362581238642946,
                -1.497305449909376,
                2.4068154004901996,
                1.8628414902469967,
                -0.6820849812968813,
                -0.29117905071150163
            ]
        },
        {
            "positions": [
                0.4737463741883675,
                -1.525635481700604,
                2.2416502060230474,
                1.8336422027380217,
                -0.6267805939199479,
                -0.3596428274615132
            ]
        },
        {
            "positions": [
                0.5112346245124405,
                -1.5539655134918315,
                2.0764850115558957,
                1.8044429152290467,
                -0.5714762065430146,
                -0.4281066042115248
            ]
        },
        {
            "positions": [
                0.5487228748365134,
                -1.5822955452830594,
                1.9113198170887435,
                1.7752436277200718,
                -0.5161718191660812,
                -0.49657038096153644
            ]
        },
        {
            "positions": [
                0.5862111251605864,
                -1.6106255770742872,
                1.7461546226215914,
                1.7460443402110968,
                -0.46086743178914785,
                -0.5650341577115481
            ]
        },
        {
            "positions": [
                0.6236993754846593,
                -1.638955608865515,
                1.5809894281544392,
                1.7168450527021217,
                -0.40556304441221447,
                -0.6334979344615597
            ]
        },
        {
            "positions": [
                0.6611876258087321,
                -1.6672856406567427,
                1.4158242336872873,
                1.6876457651931467,
                -0.35025865703528114,
                -0.7019617112115712
            ]
        },
        {
            "positions": [
                0.6986758761328051,
                -1.6956156724479705,
                1.250659039220135,
                1.6584464776841716,
                -0.29495426965834776,
                -0.7704254879615828
            ]
        },
        {
            "positions": [
                0.7361641264568781,
                -1.7239457042391984,
                1.0854938447529832,
                1.6292471901751968,
                -0.23964988228141443,
                -0.8388892647115944
            ]
        },
        {
            "positions": [
                0.7736523767809511,
                -1.7522757360304262,
                0.920328650285831,
                1.6000479026662218,
                -0.18434549490448104,
                -0.907353041461606
            ]
        },
        {
            "positions": [
                0.811140627105024,
                -1.7806057678216538,
                0.755163455818679,
                1.5708486151572467,
                -0.12904110752754772,
                -0.9758168182116176
            ]
        },
        {
            "positions": [
                0.8486288774290969,
                -1.8089357996128816,
                0.5899982613515269,
                1.5416493276482717,
                -0.07373672015061428,
                -1.0442805949616292
            ]
        },
        {
            "positions": [
                0.8861171277531699,
                -1.8372658314041095,
                0.42483306688437483,
                1.5124500401392966,
                -0.01843233277368099,
                -1.1127443717116408
            ]
        },
        {
            "positions": [
                1.014188561173224,
                -1.8585083773052513,
                0.2921432419038186,
                1.5299134444544893,
                0.012611163461509915,
                -1.068061555826341
            ]
        },
        {
            "positions": [
                1.142259994593278,
                -1.8797509232063931,
                0.15945341692326231,
                1.5473768487696822,
                0.04365465969670082,
                -1.0233787399410412
            ]
        },
        {
            "positions": [
                1.270331428013332,
                -1.900993469107535,
                0.026763591942706055,
                1.5648402530848748,
                0.07469815593189172,
                -0.9786959240557416
            ]
        },
        {
            "positions": [
                1.3984028614333863,
                -1.922236015008677,
                -0.1059262330378502,
                1.5823036574000675,
                0.10574165216708263,
                -0.9340131081704418
            ]
        },
        {
            "positions": [
                1.5264742948534402,
                -1.9434785609098189,
                -0.23861605801840657,
                1.5997670617152602,
                0.13678514840227357,
                -0.889330292285142
            ]
        },
        {
            "positions": [
                1.6545457282734943,
                -1.9647211068109607,
                -0.3713058829989627,
                1.617230466030453,
                0.16782864463746444,
                -0.8446474763998424
            ]
        },
        {
            "positions": [
                1.7826171616935484,
                -1.9859636527121025,
                -0.5039957079795191,
                1.6346938703456457,
                0.19887214087265537,
                -0.7999646605145425
            ]
        },
        {
            "positions": [
                1.9106885951136026,
                -2.0072061986132446,
                -0.6366855329600752,
                1.6521572746608384,
                0.22991563710784624,
                -0.7552818446292429
            ]
        },
        {
            "positions": [
                2.0387600285336567,
                -2.028448744514386,
                -0.7693753579406318,
                1.6696206789760313,
                0.26095913334303716,
                -0.710599028743943
            ]
        },
        {
            "positions": [
                2.166831461953711,
                -2.0496912904155282,
                -0.902065182921188,
                1.687084083291224,
                0.2920026295782281,
                -0.6659162128586433
            ]
        },
        {
            "positions": [
                2.294902895373765,
                -2.07093383631667,
                -1.0347550079017442,
                1.7045474876064166,
                0.32304612581341896,
                -0.6212333969733437
            ]
        },
        {
            "positions": [
                2.422974328793819,
                -2.092176382217812,
                -1.1674448328823002,
                1.7220108919216093,
                0.35408962204860983,
                -0.5765505810880439
            ]
        },
        {
            "positions": [
                2.5510457622138727,
                -2.1134189281189535,
                -1.300134657862857,
                1.7394742962368022,
                0.3851331182838008,
                -0.5318677652027441
            ]
        },
        {
            "positions": [
                2.679117195633927,
                -2.1346614740200955,
                -1.4328244828434131,
                1.7569377005519948,
                0.4161766145189917,
                -0.4871849493174444
            ]
        },
        {
            "positions": [
                2.6990573350751648,
                -2.1891663959536047,
                -1.490890718517473,
                1.6475623038268006,
                0.4313723782858403,
                -0.4039723888007107
            ]
        },
        {
            "positions": [
                2.718997474516403,
                -2.243671317887114,
                -1.548956954191533,
                1.5381869071016063,
                0.4465681420526889,
                -0.320759828283977
            ]
        },
        {
            "positions": [
                2.7045035003523017,
                -2.303648100206363,
                -1.5769778448186762,
                1.4061706029874879,
                0.45240989349701805,
                -0.24320516770968753
            ]
        },
        {
            "positions": [
                2.6900095261882004,
                -2.3636248825256123,
                -1.6049987354458195,
                1.2741542988733692,
                0.4582516449413472,
                -0.16565050713539808
            ]
        },
        {
            "positions": [
                2.6755155520240987,
                -2.423601664844861,
                -1.6330196260729628,
                1.1421379947592505,
                0.46409339638567637,
                -0.08809584656110864
            ]
        },
        {
            "positions": [
                2.6610215778599975,
                -2.4835784471641102,
                -1.661040516700106,
                1.010121690645132,
                0.4699351478300055,
                -0.010541185986819171
            ]
        }
    ]
}