{
    "goal": {
        "global_pose": {
            "orientation": {
                "w": 0.7047431468963623,
                "x": -0.7094548344612122,
                "y": 0.0024358443915843964,
                "z": -0.0022348060738295317
            },
            "position": {
                "x": 0.6094750761985779,
                "y": 0.3671506643295288,
                "z": 0.19426114857196808
            }
        },
        "name": "move_to_magneteinheit_A"
    },
    "id": "ProjEST_move_to_magneteinheit_A_16",
    "joint_names": [
        "shoulder_pan_joint",
        "shoulder_lift_joint",
        "elbow_joint",
        "wrist_1_joint",
        "wrist_2_joint",
        "wrist_3_joint"
    ],
    "metrics": {
        "cart_traj_len": 4.237817885651423,
        "distance_elbow_joint": 3.9138850796582845,
        "distance_shoulder_lift_joint": 0.46724889671713454,
        "distance_shoulder_pan_joint": 5.467000966117318,
        "distance_wrist_1_joint": 3.4610018224241568,
        "distance_wrist_2_joint": 1.685056032250777,
        "distance_wrist_3_joint": 2.047192993569377,
        "smoothness": 0.22287119553685855,
        "time": 0.10871442299999999,
        "traj_len": 4.128121339148966,
        "weighted_distance": 5.12658069599521
    },
    "planner": "ProjEST",
    "start": {
        "state": {
            "elbow_joint": -1.9196185241190666,
            "shoulder_lift_joint": -1.2443396400964142,
            "shoulder_pan_joint": 2.6996025414629847,
            "wrist_1_joint": -1.5485510000780065,
            "wrist_2_joint": -1.5709468930060704,
            "wrist_3_joint": 0.4420197071253992
        }
    },
    "waypoints": [
        {
            "positions": [
                2.6996025414629847,
                -1.2443396400964142,
                -1.9196185241190666,
                -1.5485510000780065,
                -1.5709468930060704,
                0.4420197071253992
            ]
        },
        {
            "positions": [
                2.5387401189423127,
                -1.2396779090082295,
                -1.846823960423633,
                -1.4899330325127356,
                -1.508612725455422,
                0.47423363486063014
            ]
        },
        {
            "positions": [
                2.3778776964216406,
                -1.2350161779200446,
                -1.7740293967281993,
                -1.4313150649474644,
                -1.4462785579047737,
                0.5064475625958611
            ]
        },
        {
            "positions": [
                2.2170152739009685,
                -1.23035444683186,
                -1.7012348330327653,
                -1.3726970973821935,
                -1.3839443903541253,
                0.538661490331092
            ]
        },
        {
            "positions": [
                2.056152851380296,
                -1.225692715743675,
                -1.6284402693373317,
                -1.3140791298169225,
                -1.3216102228034772,
                0.570875418066323
            ]
        },
        {
            "positions": [
                1.895290428859624,
                -1.2210309846554903,
                -1.555645705641898,
                -1.2554611622516516,
                -1.2592760552528288,
                0.603089345801554
            ]
        },
        {
            "positions": [
                1.7344280063389519,
                -1.2163692535673054,
                -1.4828511419464643,
                -1.1968431946863807,
                -1.1969418877021805,
                0.635303273536785
            ]
        },
        {
            "positions": [
                1.5735655838182796,
                -1.2117075224791207,
                -1.4100565782510306,
                -1.1382252271211095,
                -1.134607720151532,
                0.667517201272016
            ]
        },
        {
            "positions": [
                1.4127031612976075,
                -1.2070457913909358,
                -1.3372620145555967,
                -1.0796072595558386,
                -1.0722735526008838,
                0.6997311290072469
            ]
        },
        {
            "positions": [
                1.2518407387769355,
                -1.2023840603027511,
                -1.2644674508601632,
                -1.0209892919905674,
                -1.0099393850502354,
                0.7319450567424779
            ]
        },
        {
            "positions": [
                1.0909783162562632,
                -1.1977223292145665,
                -1.1916728871647293,
                -0.9623713244252965,
                -0.947605217499587,
                0.7641589844777088
            ]
        },
        {
            "positions": [
                0.9301158937355911,
                -1.1930605981263815,
                -1.1188783234692956,
                -0.9037533568600256,
                -0.8852710499489388,
                0.7963729122129397
            ]
        },
        {
            "positions": [
                0.769253471214919,
                -1.1883988670381969,
                -1.046083759773862,
                -0.8451353892947546,
                -0.8229368823982904,
                0.8285868399481707
            ]
        },
        {
            "positions": [
                0.6083910486942465,
                -1.183737135950012,
                -0.9732891960784282,
                -0.7865174217294835,
                -0.7606027148476421,
                0.8608007676834017
            ]
        },
        {
            "positions": [
                0.4475286261735745,
                -1.1790754048618273,
                -0.9004946323829943,
                -0.7278994541642124,
                -0.6982685472969937,
                0.8930146954186327
            ]
        },
        {
            "positions": [
                0.2866662036529024,
                -1.1744136737736424,
                -0.8277000686875609,
                -0.6692814865989416,
                -0.6359343797463455,
                0.9252286231538636
            ]
        },
        {
            "positions": [
                0.12580378113223034,
                -1.1697519426854577,
                -0.7549055049921269,
                -0.6106635190336706,
                -0.5736002121956971,
                0.9574425508890946
            ]
        },
        {
            "positions": [
                -0.03505864138844217,
                -1.1650902115972728,
                -0.6821109412966933,
                -0.5520455514683995,
                -0.5112660446450488,
                0.9896564786243256
            ]
        },
        {
            "positions": [
                -0.1959210639091138,
                -1.160428480509088,
                -0.6093163776012596,
                -0.4934275839031286,
                -0.4489318770944004,
                1.0218704063595565
            ]
        },
        {
            "positions": [
                -0.3567834864297863,
                -1.1557667494209034,
                -0.5365218139058259,
                -0.43480961633785764,
                -0.38659770954375205,
                1.0540843340947874
            ]
        },
        {
            "positions": [
                -0.5176459089504584,
                -1.1511050183327185,
                -0.46372725021039196,
                -0.3761916487725865,
                -0.3242635419931037,
                1.0862982618300185
            ]
        },
        {
            "positions": [
                -0.6785083314711304,
                -1.1464432872445338,
                -0.3909326865149585,
                -0.31757368120731555,
                -0.26192937444245556,
                1.1185121895652494
            ]
        },
        {
            "positions": [
                -0.8393707539918025,
                -1.141781556156349,
                -0.3181381228195246,
                -0.2589557136420446,
                -0.1995952068918072,
                1.1507261173004804
            ]
        },
        {
            "positions": [
                -1.000233176512475,
                -1.1371198250681642,
                -0.2453435591240909,
                -0.20033774607677346,
                -0.13726103934115863,
                1.1829400450357115
            ]
        },
        {
            "positions": [
                -1.1610955990331466,
                -1.1324580939799793,
                -0.1725489954286572,
                -0.14171977851150275,
                -0.0749268717905105,
                1.2151539727709424
            ]
        },
        {
            "positions": [
                -1.3219580215538194,
                -1.1277963628917946,
                -0.09975443173322346,
                -0.08310181094623159,
                -0.012592704239862189,
                1.2473679005061733
            ]
        },
        {
            "positions": [
                -1.2458822108643188,
                -1.109338172391136,
                0.010457199175852472,
                0.02192727501652536,
                -0.01926122231799746,
                1.182007647864668
            ]
        },
        {
            "positions": [
                -1.169806400174818,
                -1.0908799818904773,
                0.1206688300849284,
                0.1269563609792823,
                -0.02592974039613273,
                1.1166473952231624
            ]
        },
        {
            "positions": [
                -1.0937305894853175,
                -1.0724217913898186,
                0.23088046099400433,
                0.23198544694203926,
                -0.032598258474268005,
                1.051287142581657
            ]
        },
        {
            "positions": [
                -1.0176547787958168,
                -1.05396360088916,
                0.34109209190308026,
                0.3370145329047962,
                -0.03926677655240328,
                0.9859268899401517
            ]
        },
        {
            "positions": [
                -0.9415789681063162,
                -1.0355054103885013,
                0.4513037228121562,
                0.44204361886755317,
                -0.045935294630538547,
                0.9205666372986462
            ]
        },
        {
            "positions": [
                -0.8655031574168155,
                -1.0170472198878426,
                0.5615153537212321,
                0.5470727048303101,
                -0.05260381270867382,
                0.8552063846571407
            ]
        },
        {
            "positions": [
                -0.789427346727315,
                -0.9985890293871839,
                0.671726984630308,
                0.6521017907930671,
                -0.05927233078680909,
                0.7898461320156354
            ]
        },
        {
            "positions": [
                -0.7133515360378143,
                -0.9801308388865252,
                0.7819386155393839,
                0.757130876755824,
                -0.06594084886494436,
                0.7244858793741299
            ]
        },
        {
            "positions": [
                -0.6372757253483137,
                -0.9616726483858665,
                0.8921502464484599,
                0.862159962718581,
                -0.07260936694307964,
                0.6591256267326245
            ]
        },
        {
            "positions": [
                -0.561199914658813,
                -0.9432144578852077,
                1.0023618773575358,
                0.9671890486813379,
                -0.07927788502121491,
                0.5937653740911191
            ]
        },
        {
            "positions": [
                -0.48512410396931227,
                -0.9247562673845491,
                1.112573508266612,
                1.0722181346440949,
                -0.08594640309935017,
                0.5284051214496136
            ]
        },
        {
            "positions": [
                -0.40904829327981174,
                -0.9062980768838904,
                1.2227851391756877,
                1.1772472206068518,
                -0.09261492117748546,
                0.46304486880810825
            ]
        },
        {
            "positions": [
                -0.332972482590311,
                -0.8878398863832317,
                1.3329967700847638,
                1.2822763065696088,
                -0.09928343925562072,
                0.3976846161666028
            ]
        },
        {
            "positions": [
                -0.25689667190081056,
                -0.8693816958825731,
                1.4432084009938395,
                1.3873053925323657,
                -0.10595195733375598,
                0.3323243635250974
            ]
        },
        {
            "positions": [
                -0.1808208612113098,
                -0.8509235053819144,
                1.5534200319029157,
                1.4923344784951227,
                -0.11262047541189127,
                0.26696411088359184
            ]
        },
        {
            "positions": [
                -0.10474505052180927,
                -0.8324653148812557,
                1.6636316628119914,
                1.5973635644578796,
                -0.11928899349002653,
                0.2016038582420865
            ]
        },
        {
            "positions": [
                -0.028669239832308513,
                -0.8140071243805971,
                1.7738432937210675,
                1.7023926504206366,
                -0.12595751156816182,
                0.13624360560058113
            ]
        },
        {
            "positions": [
                0.04740657085719202,
                -0.7955489338799384,
                1.8840549246301432,
                1.8074217363833935,
                -0.13262602964629708,
                0.07088335295907577
            ]
        },
        {
            "positions": [
                0.12348238154669285,
                -0.7770907433792796,
                1.9942665555392194,
                1.9124508223461505,
                -0.13929454772443237,
                0.0055231003175703055
            ]
        }
    ]
}