{
    "goal": {
        "global_pose": {
            "orientation": {
                "w": -0.00223480608172531,
                "x": 0.0024358444001904467,
                "y": 0.7094548369677653,
                "z": -0.704743149386269
            },
            "position": {
                "x": 0.6205249238014221,
                "y": -0.6371506643295288,
                "z": 0.19426114857196808
            }
        },
        "name": "move_to_magneteinheit_B"
    },
    "id": "ProjEST_move_to_magneteinheit_B_92",
    "joint_names": [
        "shoulder_pan_joint",
        "shoulder_lift_joint",
        "elbow_joint",
        "wrist_1_joint",
        "wrist_2_joint",
        "wrist_3_joint"
    ],
    "metrics": {
        "cart_traj_len": 3.4135391986288743,
        "distance_elbow_joint": 5.432414440199709,
        "distance_shoulder_lift_joint": 1.0603340094020077,
        "distance_shoulder_pan_joint": 2.4233694244534956,
        "distance_wrist_1_joint": 2.4025216554675186,
        "distance_wrist_2_joint": 1.2472680357903712,
        "distance_wrist_3_joint": 1.893751523836998,
        "smoothness": 0.7573265671071981,
        "time": 2.6923382,
        "traj_len": 3.8025858424432837,
        "weighted_distance": 4.679417894149014
    },
    "planner": "ProjEST",
    "start": {
        "state": {
            "elbow_joint": 2.6216224122426386,
            "shoulder_lift_joint": -1.4174107377796124,
            "shoulder_pan_joint": 0.7066234856936794,
            "wrist_1_joint": 1.9546482284002225,
            "wrist_2_joint": -0.7096286983471962,
            "wrist_3_joint": 0.005740856962016249
        }
    },
    "waypoints": [
        {
            "positions": [
                0.7066234856936794,
                -1.4174107377796124,
                2.6216224122426386,
                1.9546482284002225,
                -0.7096286983471962,
                0.005740856962016249
            ]
        },
        {
            "positions": [
                0.5892542878484813,
                -1.4328257467774161,
                2.594303118759847,
                1.9980620360223007,
                -0.7267508627578434,
                0.09311090854057154
            ]
        },
        {
            "positions": [
                0.4718850900032832,
                -1.44824075577522,
                2.566983825277055,
                2.041475843644379,
                -0.7438730271684905,
                0.18048096011912684
            ]
        },
        {
            "positions": [
                0.48716390619622985,
                -1.6066312554375193,
                2.6050160038636343,
                1.987193019137611,
                -0.713239362782655,
                0.14550680872074334
            ]
        },
        {
            "positions": [
                0.5024427223891765,
                -1.7650217550998184,
                2.6430481824502134,
                1.932910194630843,
                -0.6826056983968196,
                0.11053265732235984
            ]
        },
        {
            "positions": [
                0.5622482520363729,
                -1.7708707282936287,
                2.4466624554165817,
                1.860935610368091,
                -0.67624933600018,
                0.07101547323178342
            ]
        },
        {
            "positions": [
                0.6220537816835692,
                -1.776719701487439,
                2.2502767283829503,
                1.7889610261053388,
                -0.6698929736035405,
                0.031498289141207
            ]
        },
        {
            "positions": [
                0.6818593113307655,
                -1.7825686746812492,
                2.0538910013493186,
                1.7169864418425869,
                -0.6635366112069009,
                -0.008018894949369401
            ]
        },
        {
            "positions": [
                0.7416648409779618,
                -1.7884176478750593,
                1.857505274315687,
                1.645011857579835,
                -0.6571802488102614,
                -0.04753607903994583
            ]
        },
        {
            "positions": [
                0.8014703706251582,
                -1.7942666210688696,
                1.6611195472820555,
                1.5730372733170828,
                -0.6508238864136218,
                -0.08705326313052225
            ]
        },
        {
            "positions": [
                0.8612759002723545,
                -1.8001155942626799,
                1.464733820248424,
                1.5010626890543308,
                -0.6444675240169823,
                -0.12657044722109864
            ]
        },
        {
            "positions": [
                0.9210814299195509,
                -1.8059645674564901,
                1.2683480932147921,
                1.4290881047915787,
                -0.6381111616203426,
                -0.1660876313116751
            ]
        },
        {
            "positions": [
                0.9808869595667472,
                -1.8118135406503004,
                1.0719623661811606,
                1.3571135205288267,
                -0.6317547992237031,
                -0.2056048154022515
            ]
        },
        {
            "positions": [
                1.0406924892139435,
                -1.8176625138441107,
                0.8755766391475288,
                1.2851389362660748,
                -0.6253984368270635,
                -0.24512199949282792
            ]
        },
        {
            "positions": [
                1.1004980188611397,
                -1.823511487037921,
                0.6791909121138975,
                1.2131643520033228,
                -0.619042074430424,
                -0.28463918358340434
            ]
        },
        {
            "positions": [
                1.1603035485083362,
                -1.8293604602317313,
                0.4828051850802657,
                1.1411897677405707,
                -0.6126857120337844,
                -0.32415636767398076
            ]
        },
        {
            "positions": [
                1.2201090781555326,
                -1.8352094334255413,
                0.2864194580466344,
                1.0692151834778187,
                -0.6063293496371449,
                -0.3636735517645571
            ]
        },
        {
            "positions": [
                1.2799146078027288,
                -1.8410584066193516,
                0.09003373101300216,
                0.9972405992150666,
                -0.5999729872405053,
                -0.40319073585513365
            ]
        },
        {
            "positions": [
                1.339720137449925,
                -1.8469073798131619,
                -0.10635199602062917,
                0.9252660149523146,
                -0.5936166248438657,
                -0.44270791994571
            ]
        },
        {
            "positions": [
                1.3995256670971215,
                -1.8527563530069722,
                -0.3027377230542605,
                0.8532914306895627,
                -0.5872602624472262,
                -0.4822251040362864
            ]
        },
        {
            "positions": [
                1.4593311967443179,
                -1.8586053262007824,
                -0.4991234500878923,
                0.7813168464268105,
                -0.5809039000505866,
                -0.5217422881268629
            ]
        },
        {
            "positions": [
                1.519136726391514,
                -1.8644542993945927,
                -0.695509177121524,
                0.7093422621640586,
                -0.5745475376539471,
                -0.5612594722174392
            ]
        },
        {
            "positions": [
                1.5789422560387105,
                -1.870303272588403,
                -0.8918949041551558,
                0.6373676779013064,
                -0.5681911752573074,
                -0.6007766563080157
            ]
        },
        {
            "positions": [
                1.6387477856859067,
                -1.876152245782213,
                -1.0882806311887872,
                0.5653930936385545,
                -0.5618348128606679,
                -0.6402938403985922
            ]
        },
        {
            "positions": [
                1.6985533153331032,
                -1.8820012189760233,
                -1.2846663582224185,
                0.49341850937580256,
                -0.5554784504640283,
                -0.6798110244891685
            ]
        },
        {
            "positions": [
                1.7583588449802996,
                -1.8878501921698336,
                -1.4810520852560503,
                0.4214439251130504,
                -0.5491220880673888,
                -0.719328208579745
            ]
        },
        {
            "positions": [
                1.8181643746274958,
                -1.893699165363644,
                -1.6774378122896816,
                0.34946934085029846,
                -0.5427657256707492,
                -0.7588453926703214
            ]
        },
        {
            "positions": [
                1.9339490066206235,
                -1.9543416659385684,
                -1.7469259182779109,
                0.3844272352386725,
                -0.4969804661898499,
                -0.7311685238802755
            ]
        },
        {
            "positions": [
                2.0497336386137515,
                -2.014984166513493,
                -1.8164140242661402,
                0.41938512962704655,
                -0.45119520670895064,
                -0.7034916550902298
            ]
        },
        {
            "positions": [
                2.165518270606879,
                -2.0756266670884176,
                -1.8859021302543695,
                0.45434302401542065,
                -0.40540994722805135,
                -0.675814786300184
            ]
        },
        {
            "positions": [
                2.281302902600007,
                -2.1362691676633423,
                -1.9553902362425988,
                0.4893009184037947,
                -0.359624687747152,
                -0.6481379175101383
            ]
        },
        {
            "positions": [
                2.397087534593135,
                -2.196911668238267,
                -2.0248783422308283,
                0.5242588127921688,
                -0.31383942826625266,
                -0.6204610487200924
            ]
        },
        {
            "positions": [
                2.512872166586263,
                -2.2575541688131913,
                -2.0943664482190574,
                0.5592167071805428,
                -0.26805416878535343,
                -0.5927841799300467
            ]
        },
        {
            "positions": [
                2.6286567985793905,
                -2.318196669388116,
                -2.163854554207287,
                0.5941746015689169,
                -0.22226890930445406,
                -0.5651073111400009
            ]
        },
        {
            "positions": [
                2.6339666852772226,
                -2.3447880156870333,
                -2.0813864276400427,
                0.6573383143540275,
                -0.10703231112028061,
                -0.467449480079981
            ]
        },
        {
            "positions": [
                2.6392765719750546,
                -2.3713793619859507,
                -1.9989183010727984,
                0.720502027139138,
                0.00820428706389284,
                -0.36979164901996114
            ]
        },
        {
            "positions": [
                2.6445864586728867,
                -2.397970708284868,
                -1.9164501745055542,
                0.7836657399242486,
                0.12344088524806632,
                -0.27213381795994124
            ]
        },
        {
            "positions": [
                2.6498963453707183,
                -2.4245620545837854,
                -1.83398204793831,
                0.8468294527093592,
                0.23867748343223974,
                -0.1744759868999214
            ]
        },
        {
            "positions": [
                2.6552062320685503,
                -2.4511534008827027,
                -1.7515139213710658,
                0.9099931654944698,
                0.35391408161641325,
                -0.07681815583990143
            ]
        },
        {
            "positions": [
                2.6605161187663824,
                -2.47774474718162,
                -1.6690457948038215,
                0.9731568782795804,
                0.4691506798005867,
                0.020839675220118467
            ]
        }
    ]
}