{
    "goal": {
        "global_pose": {
            "orientation": {
                "w": 0.7047431493862688,
                "x": -0.7094548369677653,
                "y": 0.0024358444001904,
                "z": -0.0022348060817251984
            },
            "position": {
                "x": -0.39052492380142206,
                "y": 0.3671506643295288,
                "z": 0.19426114857196808
            }
        },
        "name": "move_to_magneteinheit_D"
    },
    "id": "ProjEST_move_to_magneteinheit_D_29",
    "joint_names": [
        "shoulder_pan_joint",
        "shoulder_lift_joint",
        "elbow_joint",
        "wrist_1_joint",
        "wrist_2_joint",
        "wrist_3_joint"
    ],
    "metrics": {
        "cart_traj_len": 4.771522111280045,
        "distance_elbow_joint": 3.5213502321769155,
        "distance_shoulder_lift_joint": 1.583908595738964,
        "distance_shoulder_pan_joint": 2.9060272705576375,
        "distance_wrist_1_joint": 2.954640843586831,
        "distance_wrist_2_joint": 1.1592770598183795,
        "distance_wrist_3_joint": 4.352598941649248,
        "smoothness": 0.4988959505625843,
        "time": 0.24894621899999997,
        "traj_len": 4.059286014008865,
        "weighted_distance": 5.412662813277001
    },
    "planner": "ProjEST",
    "start": {
        "state": {
            "elbow_joint": 0.749534889911806,
            "shoulder_lift_joint": -0.6476975780787326,
            "shoulder_pan_joint": -2.711696901376241,
            "wrist_1_joint": -0.07506478083263063,
            "wrist_2_joint": 0.43296659715538205,
            "wrist_3_joint": -3.14703540197715
        }
    },
    "waypoints": [
        {
            "positions": [
                -2.711696901376241,
                -0.6476975780787326,
                0.749534889911806,
                -0.07506478083263063,
                0.43296659715538205,
                -3.14703540197715
            ]
        },
        {
            "positions": [
                -2.7182357330349185,
                -0.7004029232251469,
                0.776257533844259,
                -0.0189764428855752,
                0.45219736060635407,
                -3.0312987091539805
            ]
        },
        {
            "positions": [
                -2.724774564693596,
                -0.7531082683715612,
                0.802980177776712,
                0.03711189506148023,
                0.47142812405732615,
                -2.915562016330811
            ]
        },
        {
            "positions": [
                -2.7313133963522733,
                -0.8058136135179754,
                0.8297028217091651,
                0.09320023300853567,
                0.49065888750829817,
                -2.7998253235076414
            ]
        },
        {
            "positions": [
                -2.713894960358443,
                -0.8740052744424915,
                0.8613774963941494,
                0.15574096353551173,
                0.49834160538877753,
                -2.624209718598566
            ]
        },
        {
            "positions": [
                -2.6964765243646127,
                -0.9421969353670077,
                0.8930521710791337,
                0.2182816940624878,
                0.5060243232692568,
                -2.4485941136894906
            ]
        },
        {
            "positions": [
                -2.679058088370782,
                -1.0103885962915238,
                0.924726845764118,
                0.2808224245894638,
                0.5137070411497362,
                -2.272978508780415
            ]
        },
        {
            "positions": [
                -2.6616396523769517,
                -1.07858025721604,
                0.9564015204491023,
                0.3433631551164399,
                0.5213897590302156,
                -2.0973629038713395
            ]
        },
        {
            "positions": [
                -2.5472033383564203,
                -1.0989221462597563,
                0.8790869979095494,
                0.2596946887639846,
                0.4916975232017842,
                -2.0430036903845346
            ]
        },
        {
            "positions": [
                -2.432767024335889,
                -1.1192640353034724,
                0.8017724753699964,
                0.1760262224115293,
                0.4620052873733529,
                -1.9886444768977292
            ]
        },
        {
            "positions": [
                -2.3183307103153576,
                -1.1396059243471888,
                0.7244579528304436,
                0.09235775605907398,
                0.43231305154492156,
                -1.9342852634109242
            ]
        },
        {
            "positions": [
                -2.2038943962948263,
                -1.1599478133909051,
                0.6471434302908906,
                0.008689289706618697,
                0.4026208157164902,
                -1.879926049924119
            ]
        },
        {
            "positions": [
                -2.089458082274295,
                -1.1802897024346215,
                0.5698289077513377,
                -0.07497917664583659,
                0.37292857988805883,
                -1.8255668364373139
            ]
        },
        {
            "positions": [
                -1.9750217682537636,
                -1.2006315914783376,
                0.49251438521178476,
                -0.15864764299829193,
                0.34323634405962755,
                -1.7712076229505087
            ]
        },
        {
            "positions": [
                -1.8605854542332323,
                -1.220973480522054,
                0.41519986267223186,
                -0.2423161093507472,
                0.31354410823119616,
                -1.7168484094637035
            ]
        },
        {
            "positions": [
                -1.746149140212701,
                -1.2413153695657704,
                0.3378853401326789,
                -0.3259845757032025,
                0.2838518724027648,
                -1.6624891959768984
            ]
        },
        {
            "positions": [
                -1.6317128261921694,
                -1.2616572586094865,
                0.26057081759312595,
                -0.4096530420556578,
                0.2541596365743335,
                -1.6081299824900932
            ]
        },
        {
            "positions": [
                -1.517276512171638,
                -1.2819991476532029,
                0.1832562950535731,
                -0.49332150840811306,
                0.22446740074590216,
                -1.5537707690032883
            ]
        },
        {
            "positions": [
                -1.4028401981511067,
                -1.3023410366969193,
                0.10594177251402004,
                -0.5769899747605685,
                0.19477516491747077,
                -1.4994115555164829
            ]
        },
        {
            "positions": [
                -1.2884038841305754,
                -1.3226829257406356,
                0.028627249974467195,
                -0.6606584411130237,
                0.1650829290890395,
                -1.445052342029678
            ]
        },
        {
            "positions": [
                -1.173967570110044,
                -1.3430248147843518,
                -0.04868727256508576,
                -0.7443269074654791,
                0.1353906932606081,
                -1.3906931285428725
            ]
        },
        {
            "positions": [
                -1.0595312560895127,
                -1.3633667038280681,
                -0.1260017951046386,
                -0.8279953738179343,
                0.10569845743217676,
                -1.3363339150560676
            ]
        },
        {
            "positions": [
                -0.9450949420689811,
                -1.3837085928717845,
                -0.20331631764419167,
                -0.9116638401703897,
                0.07600622160374543,
                -1.2819747015692624
            ]
        },
        {
            "positions": [
                -0.83065862804845,
                -1.4040504819155006,
                -0.2806308401837445,
                -0.9953323065228449,
                0.04631398577531409,
                -1.2276154880824572
            ]
        },
        {
            "positions": [
                -0.7162223140279185,
                -1.424392370959217,
                -0.3579453627232976,
                -1.0790007728753004,
                0.016621749946882702,
                -1.1732562745956523
            ]
        },
        {
            "positions": [
                -0.6017860000073871,
                -1.4447342600029334,
                -0.4352598852628504,
                -1.1626692392277556,
                -0.013070485881548577,
                -1.1188970611088471
            ]
        },
        {
            "positions": [
                -0.4873496859868558,
                -1.4650761490466495,
                -0.5125744078024033,
                -1.2463377055802107,
                -0.04276272170997997,
                -1.064537847622042
            ]
        },
        {
            "positions": [
                -0.37291337196632446,
                -1.4854180380903659,
                -0.5898889303419561,
                -1.330006171932666,
                -0.07245495753841125,
                -1.0101786341352368
            ]
        },
        {
            "positions": [
                -0.2584770579457929,
                -1.5057599271340822,
                -0.6672034528815093,
                -1.4136746382851213,
                -0.10214719336684264,
                -0.9558194206484317
            ]
        },
        {
            "positions": [
                -0.2381605290885077,
                -1.546087707908307,
                -0.8065723841722952,
                -1.4641125777940576,
                -0.08632078813992172,
                -1.0798603174948094
            ]
        },
        {
            "positions": [
                -0.21784400023122252,
                -1.586415488682532,
                -0.9459413154630811,
                -1.5145505173029936,
                -0.0704943829130008,
                -1.2039012143411871
            ]
        },
        {
            "positions": [
                -0.1975274713739373,
                -1.626743269456757,
                -1.0853102467538671,
                -1.5649884568119299,
                -0.054667977686079866,
                -1.3279421111875647
            ]
        },
        {
            "positions": [
                -0.17721094251665212,
                -1.6670710502309818,
                -1.2246791780446529,
                -1.6154263963208662,
                -0.03884157245915895,
                -1.4519830080339422
            ]
        },
        {
            "positions": [
                -0.1568944136593669,
                -1.7073988310052066,
                -1.364048109335439,
                -1.6658643358298024,
                -0.02301516723223801,
                -1.57602390488032
            ]
        },
        {
            "positions": [
                -0.13657788480208172,
                -1.7477266117794317,
                -1.5034170406262248,
                -1.7163022753387387,
                -0.007188762005317095,
                -1.7000648017266977
            ]
        },
        {
            "positions": [
                -0.1162613559447965,
                -1.7880543925536565,
                -1.6427859719170108,
                -1.7667402148476747,
                0.008637643221603833,
                -1.8241056985730753
            ]
        },
        {
            "positions": [
                -0.09594482708751134,
                -1.8283821733278813,
                -1.7821549032077968,
                -1.817178154356611,
                0.024464048448524733,
                -1.9481465954194528
            ]
        },
        {
            "positions": [
                -0.07562829823022613,
                -1.8687099541021062,
                -1.9215238344985828,
                -1.8676160938655473,
                0.040290453675445675,
                -2.0721874922658303
            ]
        },
        {
            "positions": [
                -0.05531176937294091,
                -1.909037734876331,
                -2.0608927657893688,
                -1.9180540333744833,
                0.05611685890236662,
                -2.1962283891122083
            ]
        },
        {
            "positions": [
                -0.03499524051565575,
                -1.949365515650556,
                -2.2002616970801547,
                -1.9684919728834196,
                0.0719432641292875,
                -2.320269285958586
            ]
        },
        {
            "positions": [
                -0.014678711658370536,
                -1.9896932964247809,
                -2.3396306283709407,
                -2.018929912392356,
                0.08776966935620845,
                -2.4443101828049634
            ]
        },
        {
            "positions": [
                -0.057122734380296095,
                -1.929215077076552,
                -2.344243491575835,
                -2.0624098724245976,
                0.023419648650349192,
                -2.612533232345963
            ]
        },
        {
            "positions": [
                -0.09956675710222165,
                -1.868736857728323,
                -2.348856354780729,
                -2.1058898324568394,
                -0.04093037205551006,
                -2.7807562818869624
            ]
        },
        {
            "positions": [
                -0.14201077982414723,
                -1.808258638380094,
                -2.3534692179856225,
                -2.149369792489081,
                -0.1052803927613693,
                -2.948979331427962
            ]
        },
        {
            "positions": [
                -0.18445480254607277,
                -1.747780419031865,
                -2.3580820811905165,
                -2.192849752521323,
                -0.16963041346722857,
                -3.1172023809689615
            ]
        }
    ]
}