{
    "goal": {
        "global_pose": {
            "orientation": {
                "w": 0.5084816217422485,
                "x": -0.49083608388900757,
                "y": 0.5182115435600281,
                "z": -0.4816462993621826
            },
            "position": {
                "x": 0.5540239810943604,
                "y": 0.030875300988554955,
                "z": 0.16403168439865112
            }
        },
        "name": "move_to_storage_A"
    },
    "id": "ProjEST_move_to_storage_A_87",
    "joint_names": [
        "shoulder_pan_joint",
        "shoulder_lift_joint",
        "elbow_joint",
        "wrist_1_joint",
        "wrist_2_joint",
        "wrist_3_joint"
    ],
    "metrics": {
        "cart_traj_len": 0.3534847603430422,
        "distance_elbow_joint": 0.45034538918692335,
        "distance_shoulder_lift_joint": 0.234368334440072,
        "distance_shoulder_pan_joint": 0.4636248228068365,
        "distance_wrist_1_joint": 0.2445151563065665,
        "distance_wrist_2_joint": 1.0935740689309597,
        "distance_wrist_3_joint": 0.08903031619253055,
        "smoothness": 4.440892098500626e-16,
        "time": 0.037484776,
        "traj_len": 1.6048233821401932,
        "weighted_distance": 2.022772341487414
    },
    "planner": "ProjEST",
    "start": {
        "state": {
            "elbow_joint": 1.971548259319323,
            "shoulder_lift_joint": -1.1394851275133948,
            "shoulder_pan_joint": 0.1228115487234821,
            "wrist_1_joint": -0.7804723859257726,
            "wrist_2_joint": 0.12958671773740124,
            "wrist_3_joint": -3.192489227718131
        }
    },
    "waypoints": [
        {
            "positions": [
                0.1228115487234821,
                -1.1394851275133948,
                1.971548259319323,
                -0.7804723859257726,
                0.12958671773740124,
                -3.192489227718131
            ]
        },
        {
            "positions": [
                0.056579431179648323,
                -1.1729663181476908,
                2.035883314917455,
                -0.8154031225409965,
                0.2858115847275383,
                -3.1797706111191983
            ]
        },
        {
            "positions": [
                -0.009652686364185453,
                -1.2064475087819868,
                2.100218370515587,
                -0.8503338591562202,
                0.44203645171767536,
                -3.167051994520265
            ]
        },
        {
            "positions": [
                -0.07588480390801924,
                -1.2399286994162828,
                2.1645534261137187,
                -0.885264595771444,
                0.5982613187078125,
                -3.1543333779213323
            ]
        },
        {
            "positions": [
                -0.142116921451853,
                -1.2734098900505788,
                2.2288884817118504,
                -0.9201953323866677,
                0.7544861856979496,
                -3.1416147613223995
            ]
        },
        {
            "positions": [
                -0.2083490389956868,
                -1.3068910806848748,
                2.2932235373099825,
                -0.9551260690018916,
                0.9107110526880867,
                -3.1288961447234667
            ]
        },
        {
            "positions": [
                -0.2745811565395206,
                -1.3403722713191708,
                2.3575585929081146,
                -0.9900568056171153,
                1.0669359196782238,
                -3.1161775281245334
            ]
        },
        {
            "positions": [
                -0.3408132740833544,
                -1.3738534619534668,
                2.4218936485062463,
                -1.0249875422323391,
                1.223160786668361,
                -3.1034589115256006
            ]
        }
    ]
}{
    "goal": {
        "global_pose": {
            "orientation": {
                "w": 0.5084816217422485,
                "x": -0.49083608388900757,
                "y": 0.5182115435600281,
                "z": -0.4816462993621826
            },
            "position": {
                "x": 0.5540239810943604,
                "y": 0.030875300988554955,
                "z": 0.16403168439865112
            }
        },
        "name": "move_to_storage_A"
    },
    "id": "ProjEST_move_to_storage_A_87",
    "joint_names": [
        "shoulder_pan_joint",
        "shoulder_lift_joint",
        "elbow_joint",
        "wrist_1_joint",
        "wrist_2_joint",
        "wrist_3_joint"
    ],
    "metrics": {
        "cart_traj_len": 0.3534207065892707,
        "distance_elbow_joint": 0.4502154281926809,
        "distance_shoulder_lift_joint": 0.23286898388170107,
        "distance_shoulder_pan_joint": 0.45961641724941127,
        "distance_wrist_1_joint": 0.2525267423779878,
        "distance_wrist_2_joint": 1.109024282864877,
        "distance_wrist_3_joint": 0.09748878263757765,
        "smoothness": 6.661338165333112e-16,
        "time": 0.066728972,
        "traj_len": 1.6129912080368682,
        "weighted_distance": 2.039183470833916
    },
    "planner": "ProjEST",
    "start": {
        "state": {
            "elbow_joint": 1.97154746011099,
            "shoulder_lift_joint": -1.13948474672311,
            "shoulder_pan_joint": 0.12281154466712228,
            "wrist_1_joint": -0.7804688027058302,
            "wrist_2_joint": 0.12958655903071145,
            "wrist_3_joint": 3.0906928834467795
        }
    },
    "waypoints": [
        {
            "positions": [
                0.12281154466712228,
                -1.13948474672311,
                1.97154746011099,
                -0.7804688027058302,
                0.12958655903071145,
                3.0906928834467795
            ]
        },
        {
            "positions": [
                0.05715205648863496,
                -1.1727517444204958,
                2.0358639498528013,
                -0.8165440516169713,
                0.2880185994399796,
                3.104619852395005
            ]
        },
        {
            "positions": [
                -0.008507431689852366,
                -1.2060187421178816,
                2.100180439594613,
                -0.8526193005281124,
                0.4464506398492477,
                3.11854682134323
            ]
        },
        {
            "positions": [
                -0.07416691986833969,
                -1.2392857398152675,
                2.1644969293364245,
                -0.8886945494392535,
                0.6048826802585159,
                3.1324737902914555
            ]
        },
        {
            "positions": [
                -0.139826408046827,
                -1.2725527375126533,
                2.2288134190782363,
                -0.9247697983503946,
                0.763314720667784,
                3.146400759239681
            ]
        },
        {
            "positions": [
                -0.20548589622531432,
                -1.3058197352100394,
                2.2931299088200476,
                -0.9608450472615357,
                0.9217467610770522,
                3.1603277281879065
            ]
        },
        {
            "positions": [
                -0.27114538440380165,
                -1.3390867329074252,
                2.3574463985618594,
                -0.9969202961726769,
                1.0801788014863203,
                3.174254697136132
            ]
        },
        {
            "positions": [
                -0.33680487258228897,
                -1.372353730604811,
                2.421762888303671,
                -1.032995545083818,
                1.2386108418955886,
                3.188181666084357
            ]
        }
    ]
}{
    "goal": {
        "global_pose": {
            "orientation": {
                "w": 0.5084816217422485,
                "x": -0.49083608388900757,
                "y": 0.5182115435600281,
                "z": -0.4816462993621826
            },
            "position": {
                "x": 0.5540239810943604,
                "y": 0.030875300988554955,
                "z": 0.16403168439865112
            }
        },
        "name": "move_to_storage_A"
    },
    "id": "ProjEST_move_to_storage_A_87",
    "joint_names": [
        "shoulder_pan_joint",
        "shoulder_lift_joint",
        "elbow_joint",
        "wrist_1_joint",
        "wrist_2_joint",
        "wrist_3_joint"
    ],
    "metrics": {
        "cart_traj_len": 0.35288112092076435,
        "distance_elbow_joint": 0.4480205574481815,
        "distance_shoulder_lift_joint": 0.23683395222306958,
        "distance_shoulder_pan_joint": 0.46334707675553627,
        "distance_wrist_1_joint": 0.23352492758625676,
        "distance_wrist_2_joint": 1.0909388884140179,
        "distance_wrist_3_joint": 0.09488353479788492,
        "smoothness": 0.0,
        "time": 0.043787402,
        "traj_len": 1.602357306353657,
        "weighted_distance": 2.020341511433399
    },
    "planner": "ProjEST",
    "start": {
        "state": {
            "elbow_joint": 1.9715472970024885,
            "shoulder_lift_joint": -1.1394870060712896,
            "shoulder_pan_joint": 0.12281152778156021,
            "wrist_1_joint": -0.780463741449964,
            "wrist_2_joint": 0.12958659822042276,
            "wrist_3_joint": 3.090690232415272
        }
    },
    "waypoints": [
        {
            "positions": [
                0.12281152778156021,
                -1.1394870060712896,
                1.9715472970024885,
                -0.780463741449964,
                0.12958659822042276,
                3.090690232415272
            ]
        },
        {
            "positions": [
                0.056619088245055044,
                -1.1733204278174425,
                2.0355502337808002,
                -0.8138244453908579,
                0.28543501085099676,
                3.104245023100684
            ]
        },
        {
            "positions": [
                -0.009573351291450122,
                -1.2071538495635952,
                2.099553170559112,
                -0.8471851493317516,
                0.4412834234815707,
                3.117799813786096
            ]
        },
        {
            "positions": [
                -0.07576579082795529,
                -1.240987271309748,
                2.1635561073374237,
                -0.8805458532726455,
                0.5971318361121447,
                3.1313546044715084
            ]
        },
        {
            "positions": [
                -0.14195823036446045,
                -1.2748206930559007,
                2.227559044115735,
                -0.9139065572135393,
                0.7529802487427186,
                3.1449093951569203
            ]
        },
        {
            "positions": [
                -0.20815066990096567,
                -1.3086541148020536,
                2.2915619808940466,
                -0.947267261154433,
                0.9088286613732927,
                3.1584641858423326
            ]
        },
        {
            "positions": [
                -0.27434310943747076,
                -1.3424875365482063,
                2.3555649176723583,
                -0.9806279650953269,
                1.0646770740038667,
                3.1720189765277444
            ]
        },
        {
            "positions": [
                -0.34053554897397603,
                -1.3763209582943592,
                2.41956785445067,
                -1.0139886690362208,
                1.2205254866344406,
                3.1855737672131568
            ]
        }
    ]
}