{
    "goal": {
        "global_pose": {
            "orientation": {
                "w": 0.5084816217422485,
                "x": -0.49083608388900757,
                "y": 0.5182115435600281,
                "z": -0.4816462993621826
            },
            "position": {
                "x": 0.5540239810943604,
                "y": 0.030875300988554955,
                "z": 0.16403168439865112
            }
        },
        "name": "move_to_storage_A"
    },
    "id": "ProjEST_move_to_storage_A_33",
    "joint_names": [
        "shoulder_pan_joint",
        "shoulder_lift_joint",
        "elbow_joint",
        "wrist_1_joint",
        "wrist_2_joint",
        "wrist_3_joint"
    ],
    "metrics": {
        "cart_traj_len": 0.35322422736011533,
        "distance_elbow_joint": 0.45350079050910863,
        "distance_shoulder_lift_joint": 0.2348608368632863,
        "distance_shoulder_pan_joint": 0.4619514852690101,
        "distance_wrist_1_joint": 0.26000962385112214,
        "distance_wrist_2_joint": 1.099116269154469,
        "distance_wrist_3_joint": 0.10427567203015942,
        "smoothness": 2.2204460668324854e-16,
        "time": 0.033407384,
        "traj_len": 1.6166986972460746,
        "weighted_distance": 2.0448452055701103
    },
    "planner": "ProjEST",
    "start": {
        "state": {
            "elbow_joint": 1.971548259319323,
            "shoulder_lift_joint": -1.1394851275133948,
            "shoulder_pan_joint": 0.1228115487234821,
            "wrist_1_joint": -0.7804723859257726,
            "wrist_2_joint": 0.12958671773740124,
            "wrist_3_joint": -3.192489227718131
        }
    },
    "waypoints": [
        {
            "positions": [
                0.1228115487234821,
                -1.1394851275133948,
                1.971548259319323,
                -0.7804723859257726,
                0.12958671773740124,
                -3.192489227718131
            ]
        },
        {
            "positions": [
                0.056818479399337804,
                -1.1730366756367214,
                2.03633408653491,
                -0.8176166179045044,
                0.2866033276166111,
                -3.1775927031423943
            ]
        },
        {
            "positions": [
                -0.009174589924806492,
                -1.206588223760048,
                2.101119913750497,
                -0.8547608498832361,
                0.44361993749582096,
                -3.162696178566657
            ]
        },
        {
            "positions": [
                -0.07516765924895077,
                -1.2401397718833747,
                2.165905740966084,
                -0.8919050818619678,
                0.6006365473750308,
                -3.14779965399092
            ]
        },
        {
            "positions": [
                -0.14116072857309508,
                -1.2736913200067013,
                2.230691568181671,
                -0.9290493138406996,
                0.7576531572542407,
                -3.132903129415183
            ]
        },
        {
            "positions": [
                -0.20715379789723942,
                -1.3072428681300279,
                2.2954773953972576,
                -0.9661935458194313,
                0.9146697671334505,
                -3.118006604839446
            ]
        },
        {
            "positions": [
                -0.27314686722138365,
                -1.3407944162533545,
                2.360263222612845,
                -1.003337777798163,
                1.0716863770126603,
                -3.1031100802637086
            ]
        },
        {
            "positions": [
                -0.339139936545528,
                -1.374345964376681,
                2.4250490498284316,
                -1.0404820097768948,
                1.2287029868918702,
                -3.0882135556879717
            ]
        }
    ]
}{
    "goal": {
        "global_pose": {
            "orientation": {
                "w": 0.5084816217422485,
                "x": -0.49083608388900757,
                "y": 0.5182115435600281,
                "z": -0.4816462993621826
            },
            "position": {
                "x": 0.5540239810943604,
                "y": 0.030875300988554955,
                "z": 0.16403168439865112
            }
        },
        "name": "move_to_storage_A"
    },
    "id": "ProjEST_move_to_storage_A_33",
    "joint_names": [
        "shoulder_pan_joint",
        "shoulder_lift_joint",
        "elbow_joint",
        "wrist_1_joint",
        "wrist_2_joint",
        "wrist_3_joint"
    ],
    "metrics": {
        "cart_traj_len": 0.35233545823171486,
        "distance_elbow_joint": 0.4490779823463775,
        "distance_shoulder_lift_joint": 0.23395121526445006,
        "distance_shoulder_pan_joint": 0.4603826338342725,
        "distance_wrist_1_joint": 0.24338247874743923,
        "distance_wrist_2_joint": 1.0982463893660577,
        "distance_wrist_3_joint": 0.08797847763832589,
        "smoothness": 0.0,
        "time": 0.075293672,
        "traj_len": 1.6040633332873495,
        "weighted_distance": 2.0225244128531727
    },
    "planner": "ProjEST",
    "start": {
        "state": {
            "elbow_joint": 1.97154746011099,
            "shoulder_lift_joint": -1.13948474672311,
            "shoulder_pan_joint": 0.12281154466712228,
            "wrist_1_joint": -0.7804688027058302,
            "wrist_2_joint": 0.12958655903071145,
            "wrist_3_joint": 3.0906928834467795
        }
    },
    "waypoints": [
        {
            "positions": [
                0.12281154466712228,
                -1.13948474672311,
                1.97154746011099,
                -0.7804688027058302,
                0.12958655903071145,
                3.0906928834467795
            ]
        },
        {
            "positions": [
                0.05704259697651193,
                -1.1729063489037457,
                2.035701457589044,
                -0.8152377282411787,
                0.2864789003687197,
                3.103261237395112
            ]
        },
        {
            "positions": [
                -0.008726350714098427,
                -1.2063279510843814,
                2.0998554550670976,
                -0.8500066537765271,
                0.4433712417067279,
                3.115829591343444
            ]
        },
        {
            "positions": [
                -0.0744952984047088,
                -1.2397495532650171,
                2.1640094525451516,
                -0.8847755793118756,
                0.6002635830447361,
                3.1283979452917765
            ]
        },
        {
            "positions": [
                -0.14026424609531912,
                -1.2731711554456528,
                2.2281634500232057,
                -0.919544504847224,
                0.7571559243827444,
                3.1409662992401084
            ]
        },
        {
            "positions": [
                -0.2060331937859295,
                -1.3065927576262886,
                2.2923174475012598,
                -0.9543134303825724,
                0.9140482657207527,
                3.1535346531884407
            ]
        },
        {
            "positions": [
                -0.27180214147653986,
                -1.3400143598069243,
                2.3564714449793134,
                -0.9890823559179209,
                1.0709406070587608,
                3.166103007136773
            ]
        },
        {
            "positions": [
                -0.33757108916715023,
                -1.37343596198756,
                2.4206254424573674,
                -1.0238512814532694,
                1.2278329483967692,
                3.1786713610851054
            ]
        }
    ]
}{
    "goal": {
        "global_pose": {
            "orientation": {
                "w": 0.5084816217422485,
                "x": -0.49083608388900757,
                "y": 0.5182115435600281,
                "z": -0.4816462993621826
            },
            "position": {
                "x": 0.5540239810943604,
                "y": 0.030875300988554955,
                "z": 0.16403168439865112
            }
        },
        "name": "move_to_storage_A"
    },
    "id": "ProjEST_move_to_storage_A_33",
    "joint_names": [
        "shoulder_pan_joint",
        "shoulder_lift_joint",
        "elbow_joint",
        "wrist_1_joint",
        "wrist_2_joint",
        "wrist_3_joint"
    ],
    "metrics": {
        "cart_traj_len": 0.3533432508766255,
        "distance_elbow_joint": 0.4499397610299778,
        "distance_shoulder_lift_joint": 0.23374325179400368,
        "distance_shoulder_pan_joint": 0.4634667166917206,
        "distance_wrist_1_joint": 0.24153626088695979,
        "distance_wrist_2_joint": 1.0930644463385961,
        "distance_wrist_3_joint": 0.0898943749864114,
        "smoothness": 0.0,
        "time": 0.050664638,
        "traj_len": 1.6036348748164806,
        "weighted_distance": 2.0213941399257216
    },
    "planner": "ProjEST",
    "start": {
        "state": {
            "elbow_joint": 1.9715472970024885,
            "shoulder_lift_joint": -1.1394870060712896,
            "shoulder_pan_joint": 0.12281152778156021,
            "wrist_1_joint": -0.780463741449964,
            "wrist_2_joint": 0.12958659822042276,
            "wrist_3_joint": 3.090690232415272
        }
    },
    "waypoints": [
        {
            "positions": [
                0.12281152778156021,
                -1.1394870060712896,
                1.9715472970024885,
                -0.780463741449964,
                0.12958659822042276,
                3.090690232415272
            ]
        },
        {
            "positions": [
                0.05660199682560013,
                -1.1728788991847188,
                2.0358244057210566,
                -0.8149689215766726,
                0.28573866198307935,
                3.1035322859847594
            ]
        },
        {
            "positions": [
                -0.009607534130359946,
                -1.2062707922981477,
                2.100101514439625,
                -0.8494741017033811,
                0.44189072574573596,
                3.1163743395542465
            ]
        },
        {
            "positions": [
                -0.07581706508632002,
                -1.2396626854115769,
                2.164378623158193,
                -0.8839792818300896,
                0.5980427895083925,
                3.129216393123734
            ]
        },
        {
            "positions": [
                -0.1420265960422801,
                -1.273054578525006,
                2.2286557318767617,
                -0.9184844619567981,
                0.7541948532710491,
                3.142058446693221
            ]
        },
        {
            "positions": [
                -0.2082361269982402,
                -1.3064464716384352,
                2.2929328405953298,
                -0.9529896420835067,
                0.9103469170337057,
                3.1549005002627086
            ]
        },
        {
            "positions": [
                -0.2744456579542003,
                -1.3398383647518641,
                2.357209949313898,
                -0.9874948222102152,
                1.0664989807963623,
                3.1677425538321957
            ]
        },
        {
            "positions": [
                -0.3406551889101604,
                -1.3732302578652933,
                2.4214870580324663,
                -1.0220000023369238,
                1.2226510445590189,
                3.1805846074016833
            ]
        }
    ]
}