{
    "goal": {
        "global_pose": {
            "orientation": {
                "w": 0.5084816262002911,
                "x": -0.4908360881923452,
                "y": 0.5182115481033761,
                "z": -0.48164630358495003
            },
            "position": {
                "x": 0.5540239810943604,
                "y": -0.46912469901144505,
                "z": 0.16403168439865112
            }
        },
        "name": "move_to_storage_B"
    },
    "id": "ProjEST_move_to_storage_B_17",
    "joint_names": [
        "shoulder_pan_joint",
        "shoulder_lift_joint",
        "elbow_joint",
        "wrist_1_joint",
        "wrist_2_joint",
        "wrist_3_joint"
    ],
    "metrics": {
        "cart_traj_len": 1.2372492681327887,
        "distance_elbow_joint": 0.42660898637423106,
        "distance_shoulder_lift_joint": 0.5235635101668057,
        "distance_shoulder_pan_joint": 0.8756751487267446,
        "distance_wrist_1_joint": 3.0265225427140647,
        "distance_wrist_2_joint": 2.711997314563754,
        "distance_wrist_3_joint": 3.1229270784253127,
        "smoothness": 0.094207155988905,
        "time": 0.25588995999999997,
        "traj_len": 3.2691427899329986,
        "weighted_distance": 4.761477564275542
    },
    "planner": "ProjEST",
    "start": {
        "state": {
            "elbow_joint": 1.664937868594044,
            "shoulder_lift_joint": -0.661644460510453,
            "shoulder_pan_joint": -0.9139846352900073,
            "wrist_1_joint": 2.146753192139373,
            "wrist_2_joint": -2.2341966793290973,
            "wrist_3_joint": 0.005466555786416001
        }
    },
    "waypoints": [
        {
            "positions": [
                -0.9139846352900073,
                -0.661644460510453,
                1.664937868594044,
                2.146753192139373,
                -2.2341966793290973,
                0.005466555786416001
            ]
        },
        {
            "positions": [
                -0.8445472480798025,
                -0.7601906807618667,
                1.6582663145284844,
                2.046626565244952,
                -2.147793587359737,
                0.005906516601882205
            ]
        },
        {
            "positions": [
                -0.7751098608695977,
                -0.8587369010132804,
                1.6515947604629246,
                1.9464999383505308,
                -2.0613904953903766,
                0.00634647741734841
            ]
        },
        {
            "positions": [
                -0.7056724736593929,
                -0.957283121264694,
                1.6449232063973651,
                1.8463733114561098,
                -1.9749874034210164,
                0.006786438232814614
            ]
        },
        {
            "positions": [
                -0.6362350864491881,
                -1.0558293415161077,
                1.6382516523318054,
                1.7462466845616886,
                -1.8885843114516563,
                0.007226399048280818
            ]
        },
        {
            "positions": [
                -0.5667976992389834,
                -1.1543755617675213,
                1.6315800982662458,
                1.6461200576672674,
                -1.802181219482296,
                0.007666359863747023
            ]
        },
        {
            "positions": [
                -0.5897754476161886,
                -1.1530350222497066,
                1.6486779772247864,
                1.5362987790480518,
                -1.7030515736250371,
                -0.12801743467312177
            ]
        },
        {
            "positions": [
                -0.6127531959933938,
                -1.151694482731892,
                1.665775856183327,
                1.4264775004288361,
                -1.6039219277677783,
                -0.26370122920999056
            ]
        },
        {
            "positions": [
                -0.6357309443705991,
                -1.1503539432140772,
                1.6828737351418674,
                1.3166562218096205,
                -1.5047922819105195,
                -0.3993850237468593
            ]
        },
        {
            "positions": [
                -0.6587086927478043,
                -1.1490134036962627,
                1.699971614100408,
                1.206834943190405,
                -1.4056626360532607,
                -0.5350688182837282
            ]
        },
        {
            "positions": [
                -0.6816864411250096,
                -1.147672864178448,
                1.7170694930589487,
                1.0970136645711892,
                -1.3065329901960019,
                -0.670752612820597
            ]
        },
        {
            "positions": [
                -0.7046641895022149,
                -1.1463323246606334,
                1.7341673720174893,
                0.9871923859519738,
                -1.207403344338743,
                -0.8064364073574657
            ]
        },
        {
            "positions": [
                -0.7276419378794201,
                -1.1449917851428186,
                1.7512652509760298,
                0.877371107332758,
                -1.1082736984814843,
                -0.9421202018943347
            ]
        },
        {
            "positions": [
                -0.7506196862566253,
                -1.1436512456250039,
                1.7683631299345703,
                0.7675498287135425,
                -1.0091440526242255,
                -1.0778039964312034
            ]
        },
        {
            "positions": [
                -0.7735974346338306,
                -1.1423107061071893,
                1.7854610088931109,
                0.6577285500943268,
                -0.9100144067669667,
                -1.2134877909680721
            ]
        },
        {
            "positions": [
                -0.7965751830110358,
                -1.1409701665893746,
                1.8025588878516514,
                0.5479072714751112,
                -0.8108847609097078,
                -1.3491715855049409
            ]
        },
        {
            "positions": [
                -0.819552931388241,
                -1.13962962707156,
                1.819656766810192,
                0.43808599285589556,
                -0.711755115052449,
                -1.4848553800418098
            ]
        },
        {
            "positions": [
                -0.8425306797654464,
                -1.1382890875537452,
                1.8367546457687327,
                0.32826471423668013,
                -0.6126254691951902,
                -1.6205391745786784
            ]
        },
        {
            "positions": [
                -0.8655084281426515,
                -1.1369485480359307,
                1.8538525247272732,
                0.2184434356174645,
                -0.5134958233379314,
                -1.756222969115547
            ]
        },
        {
            "positions": [
                -0.8884861765198568,
                -1.135608008518116,
                1.8709504036858138,
                0.10862215699824862,
                -0.4143661774806726,
                -1.8919067636524163
            ]
        },
        {
            "positions": [
                -0.9114639248970621,
                -1.1342674690003014,
                1.8880482826443543,
                -0.0011991216209668032,
                -0.3152365316234138,
                -2.0275905581892846
            ]
        },
        {
            "positions": [
                -0.9344416732742673,
                -1.1329269294824866,
                1.9051461616028948,
                -0.11102040024018245,
                -0.216106885766155,
                -2.1632743527261535
            ]
        },
        {
            "positions": [
                -0.9574194216514725,
                -1.1315863899646719,
                1.9222440405614354,
                -0.22084167885939787,
                -0.11697723990889619,
                -2.298958147263022
            ]
        },
        {
            "positions": [
                -0.9803971700286778,
                -1.1302458504468573,
                1.939341919519976,
                -0.33066295747861374,
                -0.017847594051637383,
                -2.434641941799891
            ]
        },
        {
            "positions": [
                -1.003374918405883,
                -1.1289053109290426,
                1.9564397984785167,
                -0.44048423609782916,
                0.08128205180562142,
                -2.57032573633676
            ]
        },
        {
            "positions": [
                -1.0263526667830882,
                -1.127564771411228,
                1.973537677437057,
                -0.550305514717045,
                0.18041169766288023,
                -2.7060095308736285
            ]
        },
        {
            "positions": [
                -1.0493304151602936,
                -1.1262242318934133,
                1.9906355563955977,
                -0.6601267933362605,
                0.27954134352013904,
                -2.841693325410497
            ]
        },
        {
            "positions": [
                -1.0723081635374987,
                -1.1248836923755987,
                2.0077334353541385,
                -0.7699480719554763,
                0.37867098937739785,
                -2.9773771199473664
            ]
        },
        {
            "positions": [
                -1.095285911914704,
                -1.123543152857784,
                2.024831314312679,
                -0.8797693505746917,
                0.47780063523465643,
                -3.113060914484235
            ]
        }
    ]
}