{
    "goal": {
        "global_pose": {
            "orientation": {
                "w": 0.7047431493862688,
                "x": -0.7094548369677653,
                "y": 0.0024358444001904,
                "z": -0.0022348060817251984
            },
            "position": {
                "x": -0.39052492380142206,
                "y": 0.3671506643295288,
                "z": 0.19426114857196808
            }
        },
        "name": "move_to_magneteinheit_D"
    },
    "id": "ProjEST_move_to_magneteinheit_D_19",
    "joint_names": [
        "shoulder_pan_joint",
        "shoulder_lift_joint",
        "elbow_joint",
        "wrist_1_joint",
        "wrist_2_joint",
        "wrist_3_joint"
    ],
    "metrics": {
        "cart_traj_len": 4.574727102897378,
        "distance_elbow_joint": 5.085891522234634,
        "distance_shoulder_lift_joint": 1.1055810003449271,
        "distance_shoulder_pan_joint": 3.3822281698088412,
        "distance_wrist_1_joint": 2.194074735781145,
        "distance_wrist_2_joint": 1.0349373743671928,
        "distance_wrist_3_joint": 1.5691605877894,
        "smoothness": 0.8064320373949055,
        "time": 0.123103493,
        "traj_len": 3.791025374529448,
        "weighted_distance": 4.554031914255025
    },
    "planner": "ProjEST",
    "start": {
        "state": {
            "elbow_joint": 0.749534889911806,
            "shoulder_lift_joint": -0.6476975780787326,
            "shoulder_pan_joint": -2.711696901376241,
            "wrist_1_joint": -0.07506478083263063,
            "wrist_2_joint": 0.43296659715538205,
            "wrist_3_joint": -3.14703540197715
        }
    },
    "waypoints": [
        {
            "positions": [
                -2.711696901376241,
                -0.6476975780787326,
                0.749534889911806,
                -0.07506478083263063,
                0.43296659715538205,
                -3.14703540197715
            ]
        },
        {
            "positions": [
                -2.72139382248849,
                -0.7440065341056716,
                0.8739291595891318,
                -0.15176828001860238,
                0.4269776871505178,
                -3.0722769540756567
            ]
        },
        {
            "positions": [
                -2.7310907436007392,
                -0.8403154901326105,
                0.9983234292664576,
                -0.22847177920457412,
                0.4209887771456535,
                -2.997518506174163
            ]
        },
        {
            "positions": [
                -2.740787664712988,
                -0.9366244461595494,
                1.1227176989437833,
                -0.30517527839054587,
                0.4149998671407893,
                -2.9227600582726696
            ]
        },
        {
            "positions": [
                -2.750484585825237,
                -1.0329334021864884,
                1.247111968621109,
                -0.3818787775765176,
                0.40901095713592506,
                -2.848001610371176
            ]
        },
        {
            "positions": [
                -2.760181506937486,
                -1.1292423582134274,
                1.3715062382984349,
                -0.45858227676248936,
                0.4030220471310608,
                -2.7732431624696825
            ]
        },
        {
            "positions": [
                -2.7698784280497346,
                -1.2255513142403665,
                1.4959005079757606,
                -0.535285775948461,
                0.3970331371261966,
                -2.698484714568189
            ]
        },
        {
            "positions": [
                -2.7795753491619837,
                -1.3218602702673052,
                1.6202947776530863,
                -0.6119892751344329,
                0.3910442271213323,
                -2.6237262666666954
            ]
        },
        {
            "positions": [
                -2.7892722702742327,
                -1.4181692262942442,
                1.7446890473304122,
                -0.6886927743204047,
                0.38505531711646807,
                -2.548967818765202
            ]
        },
        {
            "positions": [
                -2.6756819868839314,
                -1.4273948749019976,
                1.591143670080329,
                -0.7475177946638871,
                0.355035608812638,
                -2.57725946159622
            ]
        },
        {
            "positions": [
                -2.56209170349363,
                -1.436620523509751,
                1.4375982928302458,
                -0.8063428150073696,
                0.325015900508808,
                -2.605551104427238
            ]
        },
        {
            "positions": [
                -2.448501420103329,
                -1.4458461721175042,
                1.2840529155801625,
                -0.8651678353508521,
                0.29499619220497797,
                -2.633842747258256
            ]
        },
        {
            "positions": [
                -2.3349111367130275,
                -1.4550718207252575,
                1.1305075383300793,
                -0.9239928556943346,
                0.2649764839011479,
                -2.662134390089274
            ]
        },
        {
            "positions": [
                -2.221320853322726,
                -1.4642974693330109,
                0.9769621610799961,
                -0.982817876037817,
                0.2349567755973179,
                -2.6904260329202927
            ]
        },
        {
            "positions": [
                -2.107730569932425,
                -1.4735231179407642,
                0.8234167838299129,
                -1.0416428963812996,
                0.20493706729348785,
                -2.7187176757513107
            ]
        },
        {
            "positions": [
                -1.9941402865421236,
                -1.4827487665485175,
                0.6698714065798297,
                -1.100467916724782,
                0.17491735898965785,
                -2.7470093185823288
            ]
        },
        {
            "positions": [
                -1.880550003151822,
                -1.4919744151562708,
                0.5163260293297465,
                -1.1592929370682645,
                0.14489765068582777,
                -2.775300961413347
            ]
        },
        {
            "positions": [
                -1.7669597197615208,
                -1.5012000637640242,
                0.36278065207966326,
                -1.218117957411747,
                0.11487794238199778,
                -2.803592604244365
            ]
        },
        {
            "positions": [
                -1.6533694363712195,
                -1.5104257123717775,
                0.20923527482958004,
                -1.2769429777552295,
                0.08485823407816773,
                -2.831884247075383
            ]
        },
        {
            "positions": [
                -1.5397791529809182,
                -1.5196513609795308,
                0.05568989757949683,
                -1.3357679980987118,
                0.054838525774337676,
                -2.860175889906401
            ]
        },
        {
            "positions": [
                -1.4261888695906169,
                -1.5288770095872843,
                -0.09785547967058639,
                -1.3945930184421944,
                0.024818817470507626,
                -2.888467532737419
            ]
        },
        {
            "positions": [
                -1.3125985862003156,
                -1.5381026581950374,
                -0.2514008569206696,
                -1.453418038785677,
                -0.005200890833322369,
                -2.916759175568437
            ]
        },
        {
            "positions": [
                -1.1990083028100142,
                -1.547328306802791,
                -0.4049462341707528,
                -1.5122430591291594,
                -0.035220599137152364,
                -2.9450508183994555
            ]
        },
        {
            "positions": [
                -1.0854180194197132,
                -1.556553955410544,
                -0.5584916114208358,
                -1.5710680794726417,
                -0.06524030744098241,
                -2.9733424612304735
            ]
        },
        {
            "positions": [
                -0.9718277360294114,
                -1.5657796040182976,
                -0.7120369886709192,
                -1.6298930998161243,
                -0.09526001574481252,
                -3.0016341040614916
            ]
        },
        {
            "positions": [
                -0.8582374526391103,
                -1.575005252626051,
                -0.8655823659210027,
                -1.6887181201596069,
                -0.12527972404864246,
                -3.0299257468925096
            ]
        },
        {
            "positions": [
                -0.7446471692488088,
                -1.5842309012338043,
                -1.0191277431710857,
                -1.7475431405030895,
                -0.1552994323524725,
                -3.0582173897235276
            ]
        },
        {
            "positions": [
                -0.6310568858585079,
                -1.5934565498415576,
                -1.1726731204211687,
                -1.8063681608465716,
                -0.18531914065630256,
                -3.0865090325545457
            ]
        },
        {
            "positions": [
                -0.5174666024682062,
                -1.602682198449311,
                -1.326218497671252,
                -1.8651931811900542,
                -0.2153388489601326,
                -3.114800675385564
            ]
        },
        {
            "positions": [
                -0.4038763190779049,
                -1.6119078470570642,
                -1.4797638749213355,
                -1.9240182015335368,
                -0.24535855726396266,
                -3.143092318216582
            ]
        },
        {
            "positions": [
                -0.2902860356876036,
                -1.6211334956648176,
                -1.6333092521714185,
                -1.9828432218770193,
                -0.2753782655677927,
                -3.1713839610476002
            ]
        },
        {
            "positions": [
                -0.17669575229730228,
                -1.630359144272571,
                -1.7868546294215015,
                -2.0416682422205015,
                -0.30539797387162265,
                -3.1996756038786183
            ]
        },
        {
            "positions": [
                -0.06310546890700097,
                -1.6395847928803242,
                -1.940400006671585,
                -2.100493262563984,
                -0.3354176821754528,
                -3.2279672467096363
            ]
        },
        {
            "positions": [
                0.05048481448330033,
                -1.6488104414880775,
                -2.0939453839216684,
                -2.1593182829074666,
                -0.36543739047928275,
                -3.2562588895406543
            ]
        },
        {
            "positions": [
                0.16407509787360147,
                -1.6580360900958309,
                -2.2474907611717514,
                -2.218143303250949,
                -0.39545709878311275,
                -3.2845505323716724
            ]
        },
        {
            "positions": [
                0.046973286952596505,
                -1.6897835862051072,
                -2.28034327994304,
                -2.235142041038558,
                -0.32661920597354677,
                -3.2060471020480117
            ]
        },
        {
            "positions": [
                -0.07012852396840846,
                -1.7215310823143835,
                -2.3131957987143292,
                -2.252140778826167,
                -0.2577813131639808,
                -3.1275436717243514
            ]
        },
        {
            "positions": [
                -0.18723033488941343,
                -1.7532785784236598,
                -2.346048317485618,
                -2.2691395166137758,
                -0.18894342035441475,
                -3.0490402414006907
            ]
        }
    ]
}