{
    "goal": {
        "global_pose": {
            "orientation": {
                "w": 0.5084816217422485,
                "x": -0.49083608388900757,
                "y": 0.5182115435600281,
                "z": -0.4816462993621826
            },
            "position": {
                "x": 0.5540239810943604,
                "y": 0.030875300988554955,
                "z": 0.16403168439865112
            }
        },
        "name": "move_to_storage_A"
    },
    "id": "ProjEST_move_to_storage_A_93",
    "joint_names": [
        "shoulder_pan_joint",
        "shoulder_lift_joint",
        "elbow_joint",
        "wrist_1_joint",
        "wrist_2_joint",
        "wrist_3_joint"
    ],
    "metrics": {
        "cart_traj_len": 0.3523812872458256,
        "distance_elbow_joint": 0.44734601923385564,
        "distance_shoulder_lift_joint": 0.23325100865683512,
        "distance_shoulder_pan_joint": 0.45890980195793507,
        "distance_wrist_1_joint": 0.2356898809780804,
        "distance_wrist_2_joint": 1.104584631344194,
        "distance_wrist_3_joint": 0.09720608206987125,
        "smoothness": 2.2204460668324854e-16,
        "time": 0.068655276,
        "traj_len": 1.6052997926371173,
        "weighted_distance": 2.02772633772479
    },
    "planner": "ProjEST",
    "start": {
        "state": {
            "elbow_joint": 1.971548259319323,
            "shoulder_lift_joint": -1.1394851275133948,
            "shoulder_pan_joint": 0.1228115487234821,
            "wrist_1_joint": -0.7804723859257726,
            "wrist_2_joint": 0.12958671773740124,
            "wrist_3_joint": -3.192489227718131
        }
    },
    "waypoints": [
        {
            "positions": [
                0.1228115487234821,
                -1.1394851275133948,
                1.971548259319323,
                -0.7804723859257726,
                0.12958671773740124,
                -3.192489227718131
            ]
        },
        {
            "positions": [
                0.05725300558663424,
                -1.172806700178657,
                2.035454833495588,
                -0.8141423689226412,
                0.2873845222151432,
                -3.1786026445652924
            ]
        },
        {
            "positions": [
                -0.008305537550213626,
                -1.206128272843919,
                2.099361407671853,
                -0.8478123519195099,
                0.44518232669288527,
                -3.1647160614124537
            ]
        },
        {
            "positions": [
                -0.07386408068706149,
                -1.2394498455091814,
                2.163267981848118,
                -0.8814823349163785,
                0.6029801311706272,
                -3.150829478259615
            ]
        },
        {
            "positions": [
                -0.13942262382390935,
                -1.2727714181744434,
                2.227174556024383,
                -0.9151523179132471,
                0.7607779356483693,
                -3.136942895106776
            ]
        },
        {
            "positions": [
                -0.20498116696075724,
                -1.3060929908397056,
                2.2910811302006486,
                -0.9488223009101158,
                0.9185757401261113,
                -3.1230563119539374
            ]
        },
        {
            "positions": [
                -0.2705397100976051,
                -1.3394145635049677,
                2.3549877043769136,
                -0.9824922839069844,
                1.0763735446038531,
                -3.1091697288010987
            ]
        },
        {
            "positions": [
                -0.33609825323445297,
                -1.37273613617023,
                2.4188942785531786,
                -1.016162266903853,
                1.2341713490815953,
                -3.09528314564826
            ]
        }
    ]
}{
    "goal": {
        "global_pose": {
            "orientation": {
                "w": 0.5084816217422485,
                "x": -0.49083608388900757,
                "y": 0.5182115435600281,
                "z": -0.4816462993621826
            },
            "position": {
                "x": 0.5540239810943604,
                "y": 0.030875300988554955,
                "z": 0.16403168439865112
            }
        },
        "name": "move_to_storage_A"
    },
    "id": "ProjEST_move_to_storage_A_93",
    "joint_names": [
        "shoulder_pan_joint",
        "shoulder_lift_joint",
        "elbow_joint",
        "wrist_1_joint",
        "wrist_2_joint",
        "wrist_3_joint"
    ],
    "metrics": {
        "cart_traj_len": 0.3531928428826788,
        "distance_elbow_joint": 0.44919094177736296,
        "distance_shoulder_lift_joint": 0.23624153043872553,
        "distance_shoulder_pan_joint": 0.46065513245555023,
        "distance_wrist_1_joint": 0.23525058149782563,
        "distance_wrist_2_joint": 1.1051700601792636,
        "distance_wrist_3_joint": 0.09100782296194065,
        "smoothness": 0.0,
        "time": 0.044579237,
        "traj_len": 1.6054644403756406,
        "weighted_distance": 2.0248339084753693
    },
    "planner": "ProjEST",
    "start": {
        "state": {
            "elbow_joint": 1.97154746011099,
            "shoulder_lift_joint": -1.13948474672311,
            "shoulder_pan_joint": 0.12281154466712228,
            "wrist_1_joint": -0.7804688027058302,
            "wrist_2_joint": 0.12958655903071145,
            "wrist_3_joint": 3.0906928834467795
        }
    },
    "waypoints": [
        {
            "positions": [
                0.12281154466712228,
                -1.13948474672311,
                1.97154746011099,
                -0.7804688027058302,
                0.12958655903071145,
                3.0906928834467795
            ]
        },
        {
            "positions": [
                0.057003668602043686,
                -1.1732335367857851,
                2.035717594650613,
                -0.814076028634091,
                0.2874679961991777,
                3.103694001012771
            ]
        },
        {
            "positions": [
                -0.00880420746303491,
                -1.20698232684846,
                2.0998877291902365,
                -0.8476832545623518,
                0.4453494333676439,
                3.1166951185787624
            ]
        },
        {
            "positions": [
                -0.07461208352811351,
                -1.2407311169111352,
                2.1640578637298598,
                -0.8812904804906125,
                0.6032308705361101,
                3.129696236144754
            ]
        },
        {
            "positions": [
                -0.1404199595931921,
                -1.2744799069738102,
                2.228227998269483,
                -0.9148977064188734,
                0.7611123077045764,
                3.1426973537107457
            ]
        },
        {
            "positions": [
                -0.20622783565827074,
                -1.3082286970364854,
                2.2923981328091063,
                -0.9485049323471342,
                0.9189937448730426,
                3.1556984712767373
            ]
        },
        {
            "positions": [
                -0.2720357117233493,
                -1.3419774870991603,
                2.3565682673487296,
                -0.982112158275395,
                1.0768751820415088,
                3.1686995888427285
            ]
        },
        {
            "positions": [
                -0.33784358778842793,
                -1.3757262771618355,
                2.420738401888353,
                -1.0157193842036558,
                1.234756619209975,
                3.18170070640872
            ]
        }
    ]
}{
    "goal": {
        "global_pose": {
            "orientation": {
                "w": 0.5084816217422485,
                "x": -0.49083608388900757,
                "y": 0.5182115435600281,
                "z": -0.4816462993621826
            },
            "position": {
                "x": 0.5540239810943604,
                "y": 0.030875300988554955,
                "z": 0.16403168439865112
            }
        },
        "name": "move_to_storage_A"
    },
    "id": "ProjEST_move_to_storage_A_93",
    "joint_names": [
        "shoulder_pan_joint",
        "shoulder_lift_joint",
        "elbow_joint",
        "wrist_1_joint",
        "wrist_2_joint",
        "wrist_3_joint"
    ],
    "metrics": {
        "cart_traj_len": 0.35393091023200923,
        "distance_elbow_joint": 0.4526768230244591,
        "distance_shoulder_lift_joint": 0.23390849260701785,
        "distance_shoulder_pan_joint": 0.46465404343587563,
        "distance_wrist_1_joint": 0.2554412674934994,
        "distance_wrist_2_joint": 1.0924553946376654,
        "distance_wrist_3_joint": 0.09192636996045644,
        "smoothness": 8.881784232165597e-16,
        "time": 0.11961681700000001,
        "traj_len": 1.6096777289752673,
        "weighted_distance": 2.0304708304260495
    },
    "planner": "ProjEST",
    "start": {
        "state": {
            "elbow_joint": 1.9715472970024885,
            "shoulder_lift_joint": -1.1394870060712896,
            "shoulder_pan_joint": 0.12281152778156021,
            "wrist_1_joint": -0.780463741449964,
            "wrist_2_joint": 0.12958659822042276,
            "wrist_3_joint": 3.090690232415272
        }
    },
    "waypoints": [
        {
            "positions": [
                0.12281152778156021,
                -1.1394870060712896,
                1.9715472970024885,
                -0.780463741449964,
                0.12958659822042276,
                3.090690232415272
            ]
        },
        {
            "positions": [
                0.05643237871929227,
                -1.1729025050151494,
                2.0362154145774114,
                -0.8169553510918924,
                0.2856516545972321,
                3.1038225709810514
            ]
        },
        {
            "positions": [
                -0.00994677034297567,
                -1.206318003959009,
                2.100883532152334,
                -0.853446960733821,
                0.4417167109740414,
                3.116954909546831
            ]
        },
        {
            "positions": [
                -0.07632591940524361,
                -1.2397335029028687,
                2.1655516497272567,
                -0.8899385703757494,
                0.5977817673508508,
                3.1300872481126105
            ]
        },
        {
            "positions": [
                -0.14270506846751155,
                -1.2731490018467284,
                2.2302197673021795,
                -0.926430180017678,
                0.7538468237276601,
                3.1432195866783896
            ]
        },
        {
            "positions": [
                -0.2090842175297795,
                -1.3065645007905882,
                2.2948878848771024,
                -0.9629217896596064,
                0.9099118801044694,
                3.156351925244169
            ]
        },
        {
            "positions": [
                -0.2754633665920474,
                -1.3399799997344477,
                2.359556002452025,
                -0.9994133993015348,
                1.0659769364812788,
                3.1694842638099487
            ]
        },
        {
            "positions": [
                -0.3418425156543154,
                -1.3733954986783075,
                2.4242241200269476,
                -1.0359050089434634,
                1.2220419928580881,
                3.1826166023757283
            ]
        }
    ]
}