{
    "goal": {
        "global_pose": {
            "orientation": {
                "w": 0.005598929693374612,
                "x": 0.007748599140229565,
                "y": 0.7110244013736278,
                "z": -0.7031023480610252
            },
            "position": {
                "x": -0.8858502320852131,
                "y": -0.7141253447532654,
                "z": 0.3711530566215515
            }
        },
        "name": "move_to_auspresseinheit_C"
    },
    "id": "ProjEST_move_to_auspresseinheit_C_112",
    "joint_names": [
        "shoulder_pan_joint",
        "shoulder_lift_joint",
        "elbow_joint",
        "wrist_1_joint",
        "wrist_2_joint",
        "wrist_3_joint"
    ],
    "metrics": {
        "cart_traj_len": 0.4937619902045571,
        "distance_elbow_joint": 0.9989503019018566,
        "distance_shoulder_lift_joint": 0.32394141623953876,
        "distance_shoulder_pan_joint": 0.2567826618036748,
        "distance_wrist_1_joint": 0.6733611360829294,
        "distance_wrist_2_joint": 1.3080644922101263,
        "distance_wrist_3_joint": 0.05526623164200428,
        "smoothness": 1.1304088990788627e-15,
        "time": 1.86783714,
        "traj_len": 1.9016745883247559,
        "weighted_distance": 2.3892099806122515
    },
    "planner": "ProjEST",
    "start": {
        "state": {
            "elbow_joint": 1.7527959577737207,
            "shoulder_lift_joint": -0.9740617694225068,
            "shoulder_pan_joint": -2.967991417825858,
            "wrist_1_joint": -0.759517768980727,
            "wrist_2_joint": 1.7443932448377408,
            "wrist_3_joint": -3.0840537646736568
        }
    },
    "waypoints": [
        {
            "positions": [
                -2.967991417825858,
                -0.9740617694225068,
                1.7527959577737207,
                -0.759517768980727,
                1.7443932448377408,
                -3.0840537646736568
            ]
        },
        {
            "positions": [
                -2.9423131516454903,
                -0.941667627798553,
                1.652900927583535,
                -0.692181655372434,
                1.6135867956167282,
                -3.089580387837857
            ]
        },
        {
            "positions": [
                -2.916634885465123,
                -0.909273486174599,
                1.5530058973933494,
                -0.6248455417641411,
                1.4827803463957157,
                -3.0951070110020575
            ]
        },
        {
            "positions": [
                -2.8909566192847556,
                -0.8768793445506451,
                1.4531108672031636,
                -0.5575094281558481,
                1.351973897174703,
                -3.100633634166258
            ]
        },
        {
            "positions": [
                -2.865278353104388,
                -0.8444852029266913,
                1.353215837012978,
                -0.49017331454755525,
                1.2211674479536903,
                -3.1061602573304583
            ]
        },
        {
            "positions": [
                -2.8396000869240208,
                -0.8120910613027374,
                1.2533208068227923,
                -0.4228372009392623,
                1.0903609987326777,
                -3.111686880494659
            ]
        },
        {
            "positions": [
                -2.813921820743653,
                -0.7796969196787835,
                1.1534257766326066,
                -0.35550108733096936,
                0.9595545495116651,
                -3.1172135036588595
            ]
        },
        {
            "positions": [
                -2.7882435545632855,
                -0.7473027780548297,
                1.053530746442421,
                -0.28816497372267647,
                0.8287481002906525,
                -3.12274012682306
            ]
        },
        {
            "positions": [
                -2.762565288382918,
                -0.7149086364308758,
                0.9536357162522353,
                -0.22082886011438352,
                0.6979416510696397,
                -3.1282667499872603
            ]
        },
        {
            "positions": [
                -2.7368870222025508,
                -0.682514494806922,
                0.8537406860620497,
                -0.15349274650609057,
                0.5671352018486271,
                -3.1337933731514607
            ]
        },
        {
            "positions": [
                -2.711208756022183,
                -0.650120353182968,
                0.753845655871864,
                -0.08615663289779765,
                0.43632875262761456,
                -3.139319996315661
            ]
        }
    ]
}