{
    "goal": {
        "global_pose": {
            "orientation": {
                "w": 0.005598929693374612,
                "x": 0.007748599140229565,
                "y": 0.7110244013736278,
                "z": -0.7031023480610252
            },
            "position": {
                "x": 0.1141497679147869,
                "y": -0.7141253447532654,
                "z": 0.3711530566215515
            }
        },
        "name": "move_to_auspresseinheit_B"
    },
    "id": "ProjEST_move_to_auspresseinheit_B_24",
    "joint_names": [
        "shoulder_pan_joint",
        "shoulder_lift_joint",
        "elbow_joint",
        "wrist_1_joint",
        "wrist_2_joint",
        "wrist_3_joint"
    ],
    "metrics": {
        "cart_traj_len": 0.5642989712509137,
        "distance_elbow_joint": 0.06381324681614964,
        "distance_shoulder_lift_joint": 0.29520926125228386,
        "distance_shoulder_pan_joint": 0.5768862874931111,
        "distance_wrist_1_joint": 0.33288841954691917,
        "distance_wrist_2_joint": 0.9914198390207722,
        "distance_wrist_3_joint": 0.005707809142474485,
        "smoothness": 0.0,
        "time": 0.351880187,
        "traj_len": 1.5052989282105103,
        "weighted_distance": 1.8978010275380164
    },
    "planner": "ProjEST",
    "start": {
        "state": {
            "elbow_joint": 2.0193083361928714,
            "shoulder_lift_joint": -1.1220246554650708,
            "shoulder_pan_joint": -1.0952077554168747,
            "wrist_1_joint": -0.8559753972642168,
            "wrist_2_joint": 0.4759566250798843,
            "wrist_3_joint": -3.1240929996934557
        }
    },
    "waypoints": [
        {
            "positions": [
                -1.0952077554168747,
                -1.1220246554650708,
                2.0193083361928714,
                -0.8559753972642168,
                0.4759566250798843,
                -3.1240929996934557
            ]
        },
        {
            "positions": [
                -1.1913554699990598,
                -1.1712261990071182,
                2.0086727950568464,
                -0.8004939940063969,
                0.6411932649166796,
                -3.12314169816971
            ]
        },
        {
            "positions": [
                -1.287503184581245,
                -1.2204277425491654,
                1.9980372539208215,
                -0.7450125907485771,
                0.8064299047534751,
                -3.1221903966459643
            ]
        },
        {
            "positions": [
                -1.3836508991634302,
                -1.2696292860912126,
                1.9874017127847967,
                -0.6895311874907573,
                0.9716665445902704,
                -3.1212390951222186
            ]
        },
        {
            "positions": [
                -1.4797986137456154,
                -1.31883082963326,
                1.9767661716487717,
                -0.6340497842329373,
                1.1369031844270658,
                -3.1202877935984725
            ]
        },
        {
            "positions": [
                -1.5759463283278006,
                -1.3680323731753075,
                1.9661306305127466,
                -0.5785683809751174,
                1.302139824263861,
                -3.119336492074727
            ]
        },
        {
            "positions": [
                -1.6720940429099858,
                -1.4172339167173547,
                1.9554950893767218,
                -0.5230869777172976,
                1.4673764641006566,
                -3.118385190550981
            ]
        }
    ]
}