{
    "goal": {
        "global_pose": {
            "orientation": {
                "w": -0.00223480608172531,
                "x": 0.0024358444001904467,
                "y": 0.7094548369677653,
                "z": -0.704743149386269
            },
            "position": {
                "x": 0.6205249238014221,
                "y": -0.6371506643295288,
                "z": 0.19426114857196808
            }
        },
        "name": "move_to_magneteinheit_B"
    },
    "id": "ProjEST_move_to_magneteinheit_B_48",
    "joint_names": [
        "shoulder_pan_joint",
        "shoulder_lift_joint",
        "elbow_joint",
        "wrist_1_joint",
        "wrist_2_joint",
        "wrist_3_joint"
    ],
    "metrics": {
        "cart_traj_len": 1.8907580302797409,
        "distance_elbow_joint": 0.9553384176585666,
        "distance_shoulder_lift_joint": 0.7562731202575455,
        "distance_shoulder_pan_joint": 2.2270971377875366,
        "distance_wrist_1_joint": 2.704851367331513,
        "distance_wrist_2_joint": 6.171733165014992,
        "distance_wrist_3_joint": 2.6618461295336777,
        "smoothness": 0.8072591392468712,
        "time": 0.7252021740000001,
        "traj_len": 3.9340995586771617,
        "weighted_distance": 5.447698241367422
    },
    "planner": "ProjEST",
    "start": {
        "state": {
            "elbow_joint": 2.6216224122426386,
            "shoulder_lift_joint": -1.4174107377796124,
            "shoulder_pan_joint": 0.7066234856936794,
            "wrist_1_joint": 1.9546482284002225,
            "wrist_2_joint": -0.7096286983471962,
            "wrist_3_joint": 0.005740856962016249
        }
    },
    "waypoints": [
        {
            "positions": [
                0.7066234856936794,
                -1.4174107377796124,
                2.6216224122426386,
                1.9546482284002225,
                -0.7096286983471962,
                0.005740856962016249
            ]
        },
        {
            "positions": [
                0.608690170767374,
                -1.4151680219349747,
                2.579046711817331,
                1.884594667357697,
                -0.5802986723521661,
                -0.04649898884208947
            ]
        },
        {
            "positions": [
                0.5107568558410684,
                -1.4129253060903368,
                2.5364710113920235,
                1.8145411063151715,
                -0.45096864635713596,
                -0.09873883464619519
            ]
        },
        {
            "positions": [
                0.412823540914763,
                -1.4106825902456992,
                2.4938953109667157,
                1.7444875452726458,
                -0.3216386203621059,
                -0.15097868045030088
            ]
        },
        {
            "positions": [
                0.3148902259884575,
                -1.4084398744010616,
                2.451319610541408,
                1.6744339842301204,
                -0.1923085943670757,
                -0.20321852625440662
            ]
        },
        {
            "positions": [
                0.21695691106215198,
                -1.4061971585564237,
                2.4087439101161,
                1.6043804231875949,
                -0.06297856837204563,
                -0.25545837205851235
            ]
        },
        {
            "positions": [
                0.11902359613584657,
                -1.403954442711786,
                2.366168209690793,
                1.5343268621450694,
                0.06635145762298444,
                -0.30769821786261803
            ]
        },
        {
            "positions": [
                0.02109028120954104,
                -1.4017117268671484,
                2.323592509265485,
                1.4642733011025437,
                0.19568148361801463,
                -0.3599380636667238
            ]
        },
        {
            "positions": [
                -0.07684303371676438,
                -1.3994690110225105,
                2.281016808840177,
                1.3942197400600183,
                0.3250115096130448,
                -0.4121779094708295
            ]
        },
        {
            "positions": [
                -0.1747763486430699,
                -1.397226295177873,
                2.23844110841487,
                1.3241661790174928,
                0.4543415356080749,
                -0.46441775527493523
            ]
        },
        {
            "positions": [
                -0.2727096635693754,
                -1.3949835793332352,
                2.195865407989562,
                1.2541126179749673,
                0.583671561603105,
                -0.516657601079041
            ]
        },
        {
            "positions": [
                -0.37064297849568095,
                -1.3927408634885974,
                2.1532897075642543,
                1.1840590569324418,
                0.7130015875981353,
                -0.5688974468831468
            ]
        },
        {
            "positions": [
                -0.46857629342198626,
                -1.3904981476439597,
                2.110714007138947,
                1.1140054958899164,
                0.8423316135931651,
                -0.6211372926872524
            ]
        },
        {
            "positions": [
                -0.5665096083482918,
                -1.388255431799322,
                2.068138306713639,
                1.0439519348473907,
                0.9716616395881954,
                -0.6733771384913582
            ]
        },
        {
            "positions": [
                -0.6644429232745973,
                -1.3860127159546842,
                2.0255626062883314,
                0.9738983738048652,
                1.1009916655832255,
                -0.725616984295464
            ]
        },
        {
            "positions": [
                -0.7623762382009028,
                -1.3837700001100466,
                1.9829869058630236,
                0.9038448127623395,
                1.2303216915782558,
                -0.7778568300995696
            ]
        },
        {
            "positions": [
                -0.8603095531272081,
                -1.381527284265409,
                1.940411205437716,
                0.8337912517198143,
                1.3596517175732858,
                -0.8300966759036753
            ]
        },
        {
            "positions": [
                -0.9582428680535137,
                -1.379284568420771,
                1.8978355050124085,
                0.7637376906772886,
                1.488981743568316,
                -0.882336521707781
            ]
        },
        {
            "positions": [
                -1.056176182979819,
                -1.3770418525761334,
                1.8552598045871007,
                0.693684129634763,
                1.6183117695633462,
                -0.9345763675118868
            ]
        },
        {
            "positions": [
                -1.0393728296620264,
                -1.359508778679247,
                1.849892384911037,
                0.7606141502365661,
                1.404777813789386,
                -0.8606981604468809
            ]
        },
        {
            "positions": [
                -1.0225694763442335,
                -1.3419757047823606,
                1.8445249652349731,
                0.8275441708383693,
                1.1912438580154259,
                -0.786819953381875
            ]
        },
        {
            "positions": [
                -1.0057661230264408,
                -1.3244426308854742,
                1.8391575455589095,
                0.8944741914401724,
                0.9777099022414659,
                -0.7129417463168692
            ]
        },
        {
            "positions": [
                -0.9889627697086479,
                -1.3069095569885878,
                1.8337901258828457,
                0.9614042120419755,
                0.7641759464675058,
                -0.6390635392518633
            ]
        },
        {
            "positions": [
                -0.9721594163908552,
                -1.2893764830917014,
                1.828422706206782,
                1.0283342326437785,
                0.5506419906935456,
                -0.5651853321868574
            ]
        },
        {
            "positions": [
                -0.9553560630730624,
                -1.271843409194815,
                1.8230552865307181,
                1.0952642532455816,
                0.33710803491958563,
                -0.4913071251218516
            ]
        },
        {
            "positions": [
                -0.9385527097552696,
                -1.2543103352979286,
                1.8176878668546546,
                1.1621942738473847,
                0.12357407914562524,
                -0.4174289180568457
            ]
        },
        {
            "positions": [
                -0.9217493564374769,
                -1.2367772614010422,
                1.8123204471785908,
                1.2291242944491878,
                -0.08995987662833471,
                -0.34355071099183987
            ]
        },
        {
            "positions": [
                -0.9049460031196841,
                -1.2192441875041555,
                1.806953027502527,
                1.296054315050991,
                -0.3034938324022949,
                -0.26967250392683395
            ]
        },
        {
            "positions": [
                -0.8881426498018913,
                -1.2017111136072691,
                1.8015856078264632,
                1.362984335652794,
                -0.517027788176255,
                -0.19579429686182803
            ]
        },
        {
            "positions": [
                -0.8713392964840985,
                -1.1841780397103827,
                1.7962181881503994,
                1.4299143562545973,
                -0.7305617439502154,
                -0.12191608979682211
            ]
        },
        {
            "positions": [
                -0.8545359431663058,
                -1.1666449658134963,
                1.7908507684743358,
                1.4968443768564001,
                -0.944095699724175,
                -0.04803788273181642
            ]
        },
        {
            "positions": [
                -0.837732589848513,
                -1.14911189191661,
                1.785483348798272,
                1.5637743974582035,
                -1.1576296554981353,
                0.0258403243331895
            ]
        },
        {
            "positions": [
                -0.8209292365307203,
                -1.1315788180197235,
                1.7801159291222082,
                1.6307044180600065,
                -1.3711636112720957,
                0.09971853139819542
            ]
        },
        {
            "positions": [
                -0.8041258832129274,
                -1.114045744122837,
                1.7747485094461444,
                1.6976344386618099,
                -1.5846975670460557,
                0.17359673846320134
            ]
        },
        {
            "positions": [
                -0.7873225298951347,
                -1.0965126702259507,
                1.7693810897700808,
                1.764564459263613,
                -1.7982315228200156,
                0.24747494552820704
            ]
        },
        {
            "positions": [
                -0.7705191765773418,
                -1.0789795963290643,
                1.764013670094017,
                1.831494479865416,
                -2.0117654785939756,
                0.32135315259321295
            ]
        },
        {
            "positions": [
                -0.7537158232595491,
                -1.0614465224321779,
                1.7586462504179532,
                1.8984245004672191,
                -2.225299434367936,
                0.3952313596582189
            ]
        },
        {
            "positions": [
                -0.7941751006079912,
                -0.9613692962046501,
                1.7355556864594828,
                1.9582112249006187,
                -2.2253448076612274,
                0.2973010651858014
            ]
        },
        {
            "positions": [
                -0.8346343779564334,
                -0.8612920699771224,
                1.7124651225010126,
                2.0179979493340183,
                -2.2253901809545193,
                0.19937077071338394
            ]
        },
        {
            "positions": [
                -0.8750936553048754,
                -0.7612148437495947,
                1.6893745585425424,
                2.077784673767418,
                -2.2254355542478113,
                0.10144047624096647
            ]
        },
        {
            "positions": [
                -0.9155529326533175,
                -0.6611376175220669,
                1.666283994584072,
                2.1375713982008175,
                -2.2254809275411027,
                0.0035101817685490263
            ]
        }
    ]
}