{
    "goal": {
        "global_pose": {
            "orientation": {
                "w": -0.4816463035849501,
                "x": 0.5182115481033762,
                "y": 0.4908360881923453,
                "z": -0.5084816262002911
            },
            "position": {
                "x": -0.8240239810943604,
                "y": 0.19912469901144506,
                "z": 0.16403168439865112
            }
        },
        "name": "move_to_storage_D"
    },
    "id": "ProjEST_move_to_storage_D_101",
    "joint_names": [
        "shoulder_pan_joint",
        "shoulder_lift_joint",
        "elbow_joint",
        "wrist_1_joint",
        "wrist_2_joint",
        "wrist_3_joint"
    ],
    "metrics": {
        "cart_traj_len": 3.5115271833482296,
        "distance_elbow_joint": 4.2086781060353875,
        "distance_shoulder_lift_joint": 1.2647143547475568,
        "distance_shoulder_pan_joint": 2.813027695209205,
        "distance_wrist_1_joint": 2.2630373920611024,
        "distance_wrist_2_joint": 0.8701890617954994,
        "distance_wrist_3_joint": 4.797456229947818,
        "smoothness": 0.0740207132266239,
        "time": 0.300049719,
        "traj_len": 4.027046416394598,
        "weighted_distance": 5.38007822931496
    },
    "planner": "ProjEST",
    "start": {
        "state": {
            "elbow_joint": -2.384821988534728,
            "shoulder_lift_joint": -2.2788054721415256,
            "shoulder_pan_joint": -0.1854694642142757,
            "wrist_1_joint": 1.4845938289331202,
            "wrist_2_joint": 0.17898776772866878,
            "wrist_3_joint": 0.037105688729662994
        }
    },
    "waypoints": [
        {
            "positions": [
                -0.1854694642142757,
                -2.2788054721415256,
                -2.384821988534728,
                1.4845938289331202,
                0.17898776772866878,
                0.037105688729662994
            ]
        },
        {
            "positions": [
                -0.09241002280972356,
                -2.2713740248287357,
                -2.2128040011435584,
                1.4288834122144574,
                0.19427083041918378,
                -0.0006843069511903721
            ]
        },
        {
            "positions": [
                0.000649418594828588,
                -2.263942577515946,
                -2.0407860137523883,
                1.3731729954957943,
                0.20955389310969877,
                -0.03847430263204374
            ]
        },
        {
            "positions": [
                0.0937088599993807,
                -2.2565111302031564,
                -1.8687680263612185,
                1.3174625787771315,
                0.22483695580021376,
                -0.07626429831289709
            ]
        },
        {
            "positions": [
                0.18676830140393288,
                -2.2490796828903665,
                -1.6967500389700487,
                1.2617521620584686,
                0.24012001849072875,
                -0.11405429399375047
            ]
        },
        {
            "positions": [
                0.279827742808485,
                -2.2416482355775766,
                -1.524732051578879,
                1.2060417453398058,
                0.2554030811812438,
                -0.1518442896746038
            ]
        },
        {
            "positions": [
                0.3728871842130371,
                -2.2342167882647868,
                -1.3527140641877091,
                1.1503313286211427,
                0.2706861438717587,
                -0.18963428535545718
            ]
        },
        {
            "positions": [
                0.46594662561758937,
                -2.2267853409519973,
                -1.1806960767965393,
                1.09462091190248,
                0.28596920656227376,
                -0.22742428103631054
            ]
        },
        {
            "positions": [
                0.5590060670221415,
                -2.2193538936392074,
                -1.0086780894053695,
                1.038910495183817,
                0.3012522692527887,
                -0.2652142767171639
            ]
        },
        {
            "positions": [
                0.6520655084266936,
                -2.2119224463264175,
                -0.8366601020141997,
                0.9832000784651541,
                0.31653533194330374,
                -0.3030042723980173
            ]
        },
        {
            "positions": [
                0.7451249498312458,
                -2.2044909990136277,
                -0.6646421146230299,
                0.9274896617464913,
                0.3318183946338187,
                -0.3407942680788706
            ]
        },
        {
            "positions": [
                0.8381843912357979,
                -2.197059551700838,
                -0.4926241272318601,
                0.8717792450278283,
                0.34710145732433373,
                -0.378584263759724
            ]
        },
        {
            "positions": [
                0.9312438326403499,
                -2.1896281043880483,
                -0.3206061398406903,
                0.8160688283091655,
                0.36238452001484867,
                -0.4163742594405774
            ]
        },
        {
            "positions": [
                1.024303274044902,
                -2.1821966570752585,
                -0.14858815244952028,
                0.7603584115905025,
                0.3776675827053637,
                -0.45416425512143077
            ]
        },
        {
            "positions": [
                1.1173627154494543,
                -2.1747652097624686,
                0.023429834941649297,
                0.7046479948718396,
                0.39295064539587865,
                -0.49195425080228405
            ]
        },
        {
            "positions": [
                1.2104221568540063,
                -2.1673337624496787,
                0.19544782233281888,
                0.6489375781531768,
                0.40823370808639364,
                -0.5297442464831374
            ]
        },
        {
            "positions": [
                1.3034815982585586,
                -2.1599023151368892,
                0.3674658097239889,
                0.5932271614345138,
                0.42351677077690864,
                -0.5675342421639908
            ]
        },
        {
            "positions": [
                1.3965410396631106,
                -2.1524708678240994,
                0.5394837971151585,
                0.537516744715851,
                0.4387998334674237,
                -0.6053242378448441
            ]
        },
        {
            "positions": [
                1.4896004810676629,
                -2.1450394205113095,
                0.7115017845063285,
                0.48180632799718803,
                0.4540828961579386,
                -0.6431142335256975
            ]
        },
        {
            "positions": [
                1.5826599224722149,
                -2.1376079731985196,
                0.8835197718974985,
                0.4260959112785252,
                0.46936595884845367,
                -0.6809042292065509
            ]
        },
        {
            "positions": [
                1.6757193638767671,
                -2.13017652588573,
                1.055537759288668,
                0.37038549455986236,
                0.4846490215389686,
                -0.7186942248874042
            ]
        },
        {
            "positions": [
                1.7687788052813194,
                -2.1227450785729403,
                1.2275557466798381,
                0.3146750778411993,
                0.49993208422948365,
                -0.7564842205682577
            ]
        },
        {
            "positions": [
                1.8618382466858714,
                -2.1153136312601504,
                1.3995737340710077,
                0.2589646611225366,
                0.5152151469199986,
                -0.794274216249111
            ]
        },
        {
            "positions": [
                1.9001242459013243,
                -2.0602525055668415,
                1.4207878532424902,
                0.2070942499100106,
                0.5419132310502071,
                -0.5959704000006588
            ]
        },
        {
            "positions": [
                1.938410245116777,
                -2.005191379873532,
                1.442001972413973,
                0.15522383869748463,
                0.5686113151804155,
                -0.39766658375220665
            ]
        },
        {
            "positions": [
                1.97669624433223,
                -1.9501302541802232,
                1.4632160915854555,
                0.10335342748495865,
                0.595309399310624,
                -0.1993627675037546
            ]
        },
        {
            "positions": [
                2.0149822435476827,
                -1.8950691284869141,
                1.484430210756938,
                0.05148301627243265,
                0.6220074834408325,
                -0.0010589512553023095
            ]
        },
        {
            "positions": [
                2.053268242763136,
                -1.840008002793605,
                1.5056443299284208,
                -0.00038739494009332187,
                0.6487055675710409,
                0.19724486499314975
            ]
        },
        {
            "positions": [
                2.0915542419785886,
                -1.7849468771002959,
                1.5268584490999033,
                -0.05225780615261927,
                0.6754036517012494,
                0.3955486812416018
            ]
        },
        {
            "positions": [
                2.1298402411940414,
                -1.7298857514069867,
                1.5480725682713858,
                -0.10412821736514527,
                0.7021017358314579,
                0.5938524974900539
            ]
        },
        {
            "positions": [
                2.1681262404094945,
                -1.6748246257136779,
                1.5692866874428684,
                -0.15599862857767127,
                0.7287998199616664,
                0.7921563137385064
            ]
        },
        {
            "positions": [
                2.2064122396249473,
                -1.6197635000203687,
                1.5905008066143511,
                -0.20786903979019727,
                0.7554979040918749,
                0.9904601299869584
            ]
        },
        {
            "positions": [
                2.2446982388404004,
                -1.5647023743270596,
                1.6117149257858336,
                -0.2597394510027232,
                0.7821959882220834,
                1.1887639462354105
            ]
        },
        {
            "positions": [
                2.282984238055853,
                -1.5096412486337505,
                1.6329290449573162,
                -0.3116098622152492,
                0.8088940723522919,
                1.387067762483863
            ]
        },
        {
            "positions": [
                2.321270237271306,
                -1.4545801229404414,
                1.654143164128799,
                -0.3634802734277751,
                0.8355921564825003,
                1.5853715787323146
            ]
        },
        {
            "positions": [
                2.359556236486759,
                -1.3995189972471325,
                1.6753572833002814,
                -0.4153506846403012,
                0.8622902406127089,
                1.783675394980767
            ]
        },
        {
            "positions": [
                2.3978422357022118,
                -1.3444578715538233,
                1.696571402471764,
                -0.4672210958528271,
                0.8889883247429172,
                1.9819792112292187
            ]
        },
        {
            "positions": [
                2.4361282349176645,
                -1.2893967458605142,
                1.7177855216432465,
                -0.5190915070653531,
                0.9156864088731258,
                2.180283027477671
            ]
        },
        {
            "positions": [
                2.4744142341331177,
                -1.234335620167205,
                1.7389996408147292,
                -0.5709619182778791,
                0.9423844930033343,
                2.378586843726124
            ]
        },
        {
            "positions": [
                2.5127002333485704,
                -1.179274494473896,
                1.7602137599862118,
                -0.622832329490405,
                0.9690825771335427,
                2.576890659974575
            ]
        },
        {
            "positions": [
                2.550986232564023,
                -1.124213368780587,
                1.7814278791576945,
                -0.6747027407029311,
                0.9957806612637512,
                2.775194476223028
            ]
        },
        {
            "positions": [
                2.589272231779476,
                -1.069152243087278,
                1.802641998329177,
                -0.726573151915457,
                1.0224787453939597,
                2.9734982924714792
            ]
        },
        {
            "positions": [
                2.627558230994929,
                -1.0140911173939688,
                1.8238561175006596,
                -0.778443563127983,
                1.0491768295241681,
                3.171802108719932
            ]
        }
    ]
}