{
    "goal": {
        "global_pose": {
            "orientation": {
                "w": 0.7047431493862688,
                "x": -0.7094548369677653,
                "y": 0.0024358444001904,
                "z": -0.0022348060817251984
            },
            "position": {
                "x": -0.39052492380142206,
                "y": 0.3671506643295288,
                "z": 0.19426114857196808
            }
        },
        "name": "move_to_magneteinheit_D"
    },
    "id": "ProjEST_move_to_magneteinheit_D_64",
    "joint_names": [
        "shoulder_pan_joint",
        "shoulder_lift_joint",
        "elbow_joint",
        "wrist_1_joint",
        "wrist_2_joint",
        "wrist_3_joint"
    ],
    "metrics": {
        "cart_traj_len": 5.407486597967408,
        "distance_elbow_joint": 3.403531296939346,
        "distance_shoulder_lift_joint": 1.6333696593772487,
        "distance_shoulder_pan_joint": 5.310267380497929,
        "distance_wrist_1_joint": 4.29684827357179,
        "distance_wrist_2_joint": 4.066448080736846,
        "distance_wrist_3_joint": 3.1949874103495244,
        "smoothness": 0.4502541994748543,
        "time": 0.363503244,
        "traj_len": 4.680326067858168,
        "weighted_distance": 6.054644768810172
    },
    "planner": "ProjEST",
    "start": {
        "state": {
            "elbow_joint": 0.749534889911806,
            "shoulder_lift_joint": -0.6476975780787326,
            "shoulder_pan_joint": -2.711696901376241,
            "wrist_1_joint": -0.07506478083263063,
            "wrist_2_joint": 0.43296659715538205,
            "wrist_3_joint": -3.14703540197715
        }
    },
    "waypoints": [
        {
            "positions": [
                -2.711696901376241,
                -0.6476975780787326,
                0.749534889911806,
                -0.07506478083263063,
                0.43296659715538205,
                -3.14703540197715
            ]
        },
        {
            "positions": [
                -2.7903776280136063,
                -0.7533997392063965,
                0.7324472040074725,
                -0.033073422494683716,
                0.4054029552180275,
                -3.089752008269226
            ]
        },
        {
            "positions": [
                -2.8690583546509716,
                -0.8591019003340603,
                0.7153595181031391,
                0.008917935843263197,
                0.3778393132806729,
                -3.0324686145613016
            ]
        },
        {
            "positions": [
                -2.947739081288337,
                -0.9648040614617241,
                0.6982718321988057,
                0.050909294181210096,
                0.35027567134331833,
                -2.975185220853377
            ]
        },
        {
            "positions": [
                -3.026419807925702,
                -1.070506222589388,
                0.6811841462944723,
                0.09290065251915702,
                0.3227120294059638,
                -2.917901827145453
            ]
        },
        {
            "positions": [
                -2.9175514224650687,
                -1.0921053685772417,
                0.5924300000358478,
                0.055467686037268114,
                0.26568280814074496,
                -2.836339067436761
            ]
        },
        {
            "positions": [
                -2.808683037004435,
                -1.1137045145650957,
                0.5036758537772231,
                0.018034719555379206,
                0.20865358687552615,
                -2.7547763077280685
            ]
        },
        {
            "positions": [
                -2.6998146515438015,
                -1.1353036605529494,
                0.4149217075185986,
                -0.01939824692650971,
                0.15162436561030734,
                -2.673213548019376
            ]
        },
        {
            "positions": [
                -2.5909462660831677,
                -1.1569028065408031,
                0.326167561259974,
                -0.05683121340839861,
                0.09459514434508853,
                -2.591650788310684
            ]
        },
        {
            "positions": [
                -2.4820778806225343,
                -1.178501952528657,
                0.23741341500134933,
                -0.09426417989028754,
                0.03756592307986972,
                -2.5100880286019915
            ]
        },
        {
            "positions": [
                -2.373209495161901,
                -1.2001010985165108,
                0.14865926874272484,
                -0.13169714637217644,
                -0.019463298185349087,
                -2.4285252688932992
            ]
        },
        {
            "positions": [
                -2.264341109701267,
                -1.2217002445043645,
                0.05990512248410018,
                -0.16913011285406537,
                -0.0764925194505679,
                -2.346962509184607
            ]
        },
        {
            "positions": [
                -2.1554727242406337,
                -1.2432993904922183,
                -0.028849023774524363,
                -0.20656307933595425,
                -0.1335217407157867,
                -2.265399749475915
            ]
        },
        {
            "positions": [
                -2.04660433878,
                -1.2648985364800722,
                -0.11760317003314902,
                -0.24399604581784318,
                -0.19055096198100552,
                -2.1838369897672227
            ]
        },
        {
            "positions": [
                -1.9377359533193665,
                -1.286497682467926,
                -0.20635731629177367,
                -0.2814290122997321,
                -0.24758018324622433,
                -2.1022742300585304
            ]
        },
        {
            "positions": [
                -1.828867567858733,
                -1.30809682845578,
                -0.29511146255039833,
                -0.31886197878162104,
                -0.30460940451144314,
                -2.020711470349838
            ]
        },
        {
            "positions": [
                -1.7199991823980996,
                -1.3296959744436334,
                -0.38386560880902265,
                -0.3562949452635099,
                -0.36163862577666195,
                -1.9391487106411458
            ]
        },
        {
            "positions": [
                -1.611130796937466,
                -1.3512951204314874,
                -0.4726197550676474,
                -0.39372791174539884,
                -0.41866784704188076,
                -1.8575859509324535
            ]
        },
        {
            "positions": [
                -1.5022624114768324,
                -1.372894266419341,
                -0.561373901326272,
                -0.43116087822728777,
                -0.47569706830709957,
                -1.7760231912237612
            ]
        },
        {
            "positions": [
                -1.3933940260161988,
                -1.394493412407195,
                -0.6501280475848967,
                -0.46859384470917664,
                -0.5327262895723184,
                -1.6944604315150689
            ]
        },
        {
            "positions": [
                -1.2845256405555654,
                -1.4160925583950488,
                -0.738882193843521,
                -0.5060268111910655,
                -0.5897555108375372,
                -1.6128976718063768
            ]
        },
        {
            "positions": [
                -1.1756572550949318,
                -1.4376917043829025,
                -0.8276363401021458,
                -0.5434597776729545,
                -0.646784732102756,
                -1.5313349120976845
            ]
        },
        {
            "positions": [
                -1.0667888696342982,
                -1.4592908503707562,
                -0.9163904863607704,
                -0.5808927441548434,
                -0.7038139533679748,
                -1.4497721523889922
            ]
        },
        {
            "positions": [
                -0.9579204841736648,
                -1.4808899963586102,
                -1.005144632619395,
                -0.6183257106367323,
                -0.7608431746331936,
                -1.3682093926802998
            ]
        },
        {
            "positions": [
                -0.849052098713031,
                -1.502489142346464,
                -1.0938987788780197,
                -0.6557586771186212,
                -0.8178723958984124,
                -1.2866466329716075
            ]
        },
        {
            "positions": [
                -0.7401837132523976,
                -1.5240882883343176,
                -1.1826529251366442,
                -0.6931916436005101,
                -0.8749016171636312,
                -1.2050838732629152
            ]
        },
        {
            "positions": [
                -0.6313153277917638,
                -1.5456874343221716,
                -1.271407071395269,
                -0.7306246100823991,
                -0.93193083842885,
                -1.123521113554223
            ]
        },
        {
            "positions": [
                -0.5224469423311304,
                -1.5672865803100253,
                -1.360161217653893,
                -0.7680575765642879,
                -0.9889600596940689,
                -1.0419583538455308
            ]
        },
        {
            "positions": [
                -0.41357855687049705,
                -1.588885726297879,
                -1.4489153639125176,
                -0.8054905430461768,
                -1.0459892809592877,
                -0.9603955941368385
            ]
        },
        {
            "positions": [
                -0.30471017140986323,
                -1.610484872285733,
                -1.5376695101711426,
                -0.8429235095280657,
                -1.1030185022245065,
                -0.8788328344281462
            ]
        },
        {
            "positions": [
                -0.19584178594922985,
                -1.6320840182735867,
                -1.6264236564297672,
                -0.8803564760099547,
                -1.1600477234897253,
                -0.7972700747194539
            ]
        },
        {
            "positions": [
                -0.08697340048859648,
                -1.6536831642614405,
                -1.7151778026883917,
                -0.9177894424918437,
                -1.217076944754944,
                -0.7157073150107616
            ]
        },
        {
            "positions": [
                0.021894984972037346,
                -1.6752823102492944,
                -1.8039319489470163,
                -0.9552224089737326,
                -1.274106166020163,
                -0.6341445553020693
            ]
        },
        {
            "positions": [
                0.13076337043267072,
                -1.6968814562371481,
                -1.8926860952056408,
                -0.9926553754556214,
                -1.3311353872853817,
                -0.552581795593377
            ]
        },
        {
            "positions": [
                0.23963175589330454,
                -1.7184806022250019,
                -1.9814402414642658,
                -1.0300883419375104,
                -1.3881646085506005,
                -0.47101903588468463
            ]
        },
        {
            "positions": [
                0.3485001413539379,
                -1.7400797482128558,
                -2.07019438772289,
                -1.067521308419399,
                -1.4451938298158193,
                -0.3894562761759923
            ]
        },
        {
            "positions": [
                0.4573685268145713,
                -1.7616788942007093,
                -2.1589485339815147,
                -1.1049542749012882,
                -1.5022230510810382,
                -0.30789351646730045
            ]
        },
        {
            "positions": [
                0.5662369122752051,
                -1.7832780401885633,
                -2.247702680240139,
                -1.1423872413831768,
                -1.559252272346257,
                -0.22633075675860814
            ]
        },
        {
            "positions": [
                0.6751052977358385,
                -1.8048771861764172,
                -2.3364568264987637,
                -1.179820207865066,
                -1.6162814936114758,
                -0.14476799704991583
            ]
        },
        {
            "positions": [
                0.7839736831964723,
                -1.8264763321642707,
                -2.4252109727573883,
                -1.217253174346955,
                -1.6733107148766946,
                -0.06320523734122352
            ]
        },
        {
            "positions": [
                0.8928420686571057,
                -1.8480754781521247,
                -2.513965119016013,
                -1.2546861408288439,
                -1.7303399361419134,
                0.018357522367468793
            ]
        },
        {
            "positions": [
                0.829531327635596,
                -1.8735455816405868,
                -2.5057279844270997,
                -1.091080491012844,
                -1.6183904333513515,
                0.016616670249533096
            ]
        },
        {
            "positions": [
                0.7662205866140862,
                -1.899015685129049,
                -2.497490849838186,
                -0.9274748411968439,
                -1.5064409305607898,
                0.014875818131597395
            ]
        },
        {
            "positions": [
                0.7029098455925765,
                -1.924485788617511,
                -2.489253715249273,
                -0.7638691913808437,
                -1.3944914277702278,
                0.013134966013661696
            ]
        },
        {
            "positions": [
                0.6395991045710667,
                -1.9499558921059732,
                -2.4810165806603592,
                -0.6002635415648438,
                -1.282541924979666,
                0.011394113895725998
            ]
        },
        {
            "positions": [
                0.576288363549557,
                -1.9754259955944355,
                -2.472779446071446,
                -0.43665789174884373,
                -1.1705924221891042,
                0.009653261777790299
            ]
        },
        {
            "positions": [
                0.5129776225280474,
                -2.0008960990828975,
                -2.464542311482533,
                -0.2730522419328437,
                -1.0586429193985423,
                0.0079124096598546
            ]
        },
        {
            "positions": [
                0.4496668815065376,
                -2.0263662025713596,
                -2.4563051768936193,
                -0.10944659211684393,
                -0.9466934166079805,
                0.006171557541918903
            ]
        },
        {
            "positions": [
                0.38635614048502787,
                -2.0518363060598217,
                -2.448068042304706,
                0.05415905769915619,
                -0.8347439138174186,
                0.0044307054239832045
            ]
        },
        {
            "positions": [
                0.3230453994635182,
                -2.0773064095482843,
                -2.4398309077157925,
                0.2177647075151563,
                -0.7227944110268567,
                0.0026898533060475058
            ]
        },
        {
            "positions": [
                0.2597346584420084,
                -2.1027765130367464,
                -2.4315937731268793,
                0.38137035733115643,
                -0.6108449082362948,
                0.0009490011881118053
            ]
        },
        {
            "positions": [
                0.1964239174204987,
                -2.1282466165252085,
                -2.4233566385379657,
                0.5449760071471563,
                -0.4988954054457331,
                -0.0007918509298238917
            ]
        },
        {
            "positions": [
                0.1331131763989889,
                -2.1537167200136706,
                -2.4151195039490525,
                0.7085816569631564,
                -0.38694590265517115,
                -0.002532703047759592
            ]
        },
        {
            "positions": [
                0.06980243537747932,
                -2.1791868235021328,
                -2.4068823693601393,
                0.8721873067791563,
                -0.27499639986460944,
                -0.004273555165695289
            ]
        },
        {
            "positions": [
                0.006491694355969524,
                -2.204656926990595,
                -2.3986452347712257,
                1.035792956595156,
                -0.16304689707404751,
                -0.006014407283630986
            ]
        },
        {
            "positions": [
                -0.05681904666554016,
                -2.230127030479057,
                -2.3904081001823125,
                1.1993986064111561,
                -0.05109739428348581,
                -0.007755259401566687
            ]
        },
        {
            "positions": [
                -0.12012978768704996,
                -2.255597133967519,
                -2.382170965593399,
                1.3630042562271563,
                0.06085210850707612,
                -0.009496111519502384
            ]
        },
        {
            "positions": [
                -0.1834405287085597,
                -2.2810672374559813,
                -2.3739338310044857,
                1.5266099060431564,
                0.17280161129763807,
                -0.011236963637438084
            ]
        }
    ]
}