{
    "goal": {
        "global_pose": {
            "orientation": {
                "w": 0.005598929693374612,
                "x": 0.007748599140229565,
                "y": 0.7110244013736278,
                "z": -0.7031023480610252
            },
            "position": {
                "x": 0.1141497679147869,
                "y": -0.7141253447532654,
                "z": 0.3711530566215515
            }
        },
        "name": "move_to_auspresseinheit_B"
    },
    "id": "ProjEST_move_to_auspresseinheit_B_19",
    "joint_names": [
        "shoulder_pan_joint",
        "shoulder_lift_joint",
        "elbow_joint",
        "wrist_1_joint",
        "wrist_2_joint",
        "wrist_3_joint"
    ],
    "metrics": {
        "cart_traj_len": 0.5644490321981711,
        "distance_elbow_joint": 0.05864734594590715,
        "distance_shoulder_lift_joint": 0.2955367352569376,
        "distance_shoulder_pan_joint": 0.5751785209854732,
        "distance_wrist_1_joint": 0.314318117494072,
        "distance_wrist_2_joint": 1.0057200443260863,
        "distance_wrist_3_joint": 0.007427349410031869,
        "smoothness": 0.0,
        "time": 0.329005255,
        "traj_len": 1.5022743136386603,
        "weighted_distance": 1.89518362541964
    },
    "planner": "ProjEST",
    "start": {
        "state": {
            "elbow_joint": 2.0193083361928714,
            "shoulder_lift_joint": -1.1220246554650708,
            "shoulder_pan_joint": -1.0952077554168747,
            "wrist_1_joint": -0.8559753972642168,
            "wrist_2_joint": 0.4759566250798843,
            "wrist_3_joint": -3.1240929996934557
        }
    },
    "waypoints": [
        {
            "positions": [
                -1.0952077554168747,
                -1.1220246554650708,
                2.0193083361928714,
                -0.8559753972642168,
                0.4759566250798843,
                -3.1240929996934557
            ]
        },
        {
            "positions": [
                -1.191070842247787,
                -1.1712807780078938,
                2.00953377853522,
                -0.8035890443485381,
                0.6435766324675654,
                -3.125330891261794
            ]
        },
        {
            "positions": [
                -1.286933929078699,
                -1.2205369005507167,
                1.999759220877569,
                -0.7512026914328594,
                0.8111966398552464,
                -3.126568782830133
            ]
        },
        {
            "positions": [
                -1.3827970159096112,
                -1.2697930230935395,
                1.9899846632199178,
                -0.6988163385171808,
                0.9788166472429274,
                -3.127806674398472
            ]
        },
        {
            "positions": [
                -1.4786601027405233,
                -1.3190491456363624,
                1.9802101055622667,
                -0.6464299856015021,
                1.1464366546306084,
                -3.1290445659668102
            ]
        },
        {
            "positions": [
                -1.5745231895714356,
                -1.3683052681791854,
                1.9704355479046154,
                -0.5940436326858234,
                1.3140566620182896,
                -3.1302824575351487
            ]
        },
        {
            "positions": [
                -1.6703862764023478,
                -1.4175613907220084,
                1.9606609902469643,
                -0.5416572797701448,
                1.4816766694059706,
                -3.1315203491034875
            ]
        }
    ]
}