{
    "goal": {
        "global_pose": {
            "orientation": {
                "w": 0.7031023480610252,
                "x": -0.7110244013736278,
                "y": 0.0077485991402295624,
                "z": 0.005598929693374583
            },
            "position": {
                "x": -0.8841497679147869,
                "y": 0.44412534475326537,
                "z": 0.3711530566215515
            }
        },
        "name": "move_to_auspresseinheit_D"
    },
    "id": "ProjEST_move_to_auspresseinheit_D_69",
    "joint_names": [
        "shoulder_pan_joint",
        "shoulder_lift_joint",
        "elbow_joint",
        "wrist_1_joint",
        "wrist_2_joint",
        "wrist_3_joint"
    ],
    "metrics": {
        "cart_traj_len": 0.34525713657567253,
        "distance_elbow_joint": 0.6661972347855443,
        "distance_shoulder_lift_joint": 0.13680192290733073,
        "distance_shoulder_pan_joint": 0.1345869021552518,
        "distance_wrist_1_joint": 0.6112743258044357,
        "distance_wrist_2_joint": 1.4416527047604033,
        "distance_wrist_3_joint": 0.07024221082771298,
        "smoothness": 2.9605947279411004e-16,
        "time": 0.066351156,
        "traj_len": 1.7495014436234908,
        "weighted_distance": 2.292196927286341
    },
    "planner": "ProjEST",
    "start": {
        "state": {
            "elbow_joint": -1.8275523626775212,
            "shoulder_lift_joint": -2.126789852344167,
            "shoulder_pan_joint": -0.03513704404078235,
            "wrist_1_joint": -2.347782403156801,
            "wrist_2_joint": -1.6058999987535132,
            "wrist_3_joint": -3.0880379163319196
        }
    },
    "waypoints": [
        {
            "positions": [
                -0.03513704404078235,
                -2.126789852344167,
                -1.8275523626775212,
                -2.347782403156801,
                -1.6058999987535132,
                -3.0880379163319196
            ]
        },
        {
            "positions": [
                -0.05196040681018882,
                -2.1438900927075832,
                -1.7442777083293282,
                -2.4241916938823556,
                -1.4256934106584627,
                -3.0792576399784553
            ]
        },
        {
            "positions": [
                -0.0687837695795953,
                -2.1609903330709996,
                -1.6610030539811351,
                -2.50060098460791,
                -1.2454868225634124,
                -3.0704773636249914
            ]
        },
        {
            "positions": [
                -0.08560713234900177,
                -2.178090573434416,
                -1.577728399632942,
                -2.577010275333464,
                -1.065280234468362,
                -3.0616970872715275
            ]
        },
        {
            "positions": [
                -0.10243049511840824,
                -2.195190813797832,
                -1.494453745284749,
                -2.6534195660590187,
                -0.8850736463733115,
                -3.052916810918063
            ]
        },
        {
            "positions": [
                -0.11925385788781473,
                -2.2122910541612484,
                -1.411179090936556,
                -2.7298288567845734,
                -0.7048670582782611,
                -3.0441365345645988
            ]
        },
        {
            "positions": [
                -0.1360772206572212,
                -2.229391294524665,
                -1.327904436588363,
                -2.8062381475101277,
                -0.5246604701832107,
                -3.035356258211135
            ]
        },
        {
            "positions": [
                -0.15290058342662766,
                -2.246491534888081,
                -1.24462978224017,
                -2.882647438235682,
                -0.3444538820881604,
                -3.026575981857671
            ]
        },
        {
            "positions": [
                -0.16972394619603415,
                -2.2635917752514976,
                -1.161355127891977,
                -2.9590567289612366,
                -0.16424729399310992,
                -3.0177957055042066
            ]
        }
    ]
}