{
    "goal": {
        "global_pose": {
            "orientation": {
                "w": -0.00223480608172531,
                "x": 0.0024358444001904467,
                "y": 0.7094548369677653,
                "z": -0.704743149386269
            },
            "position": {
                "x": -0.37947507619857795,
                "y": -0.6371506643295288,
                "z": 0.19426114857196808
            }
        },
        "name": "move_to_magneteinheit_C"
    },
    "id": "ProjEST_move_to_magneteinheit_C_97",
    "joint_names": [
        "shoulder_pan_joint",
        "shoulder_lift_joint",
        "elbow_joint",
        "wrist_1_joint",
        "wrist_2_joint",
        "wrist_3_joint"
    ],
    "metrics": {
        "cart_traj_len": 2.0426409661895577,
        "distance_elbow_joint": 0.8372879334062069,
        "distance_shoulder_lift_joint": 0.7297360017838459,
        "distance_shoulder_pan_joint": 2.5323453853097697,
        "distance_wrist_1_joint": 1.4681735732970325,
        "distance_wrist_2_joint": 1.8743064792707689,
        "distance_wrist_3_joint": 1.578310784842592,
        "smoothness": 1.2419248758379682,
        "time": 1.8324479870000001,
        "traj_len": 3.003358146793388,
        "weighted_distance": 3.9394494260192245
    },
    "planner": "ProjEST",
    "start": {
        "state": {
            "elbow_joint": 1.9565354010623817,
            "shoulder_lift_joint": -1.4165861575791021,
            "shoulder_pan_joint": -1.6717766225146293,
            "wrist_1_joint": -0.5286633292919765,
            "wrist_2_joint": 1.472756589071564,
            "wrist_3_joint": -3.1238370188695823
        }
    },
    "waypoints": [
        {
            "positions": [
                -1.6717766225146293,
                -1.4165861575791021,
                1.9565354010623817,
                -0.5286633292919765,
                1.472756589071564,
                -3.1238370188695823
            ]
        },
        {
            "positions": [
                -1.5875466494809674,
                -1.4461154718888758,
                1.9626487653036908,
                -0.43669282739462406,
                1.4367745732095587,
                -3.099601408267019
            ]
        },
        {
            "positions": [
                -1.4981331261298394,
                -1.4722644183480469,
                1.913598960897044,
                -0.37516322319602835,
                1.3783385506767227,
                -3.006088987675656
            ]
        },
        {
            "positions": [
                -1.4087196027787114,
                -1.498413364807218,
                1.864549156490397,
                -0.3136336189974327,
                1.3199025281438868,
                -2.912576567084293
            ]
        },
        {
            "positions": [
                -1.3193060794275835,
                -1.524562311266389,
                1.8154993520837501,
                -0.252104014798837,
                1.2614665056110508,
                -2.81906414649293
            ]
        },
        {
            "positions": [
                -1.2298925560764555,
                -1.5507112577255602,
                1.7664495476771034,
                -0.19057441060024127,
                1.2030304830782148,
                -2.7255517259015667
            ]
        },
        {
            "positions": [
                -1.1404790327253276,
                -1.5768602041847315,
                1.7173997432704566,
                -0.12904480640164556,
                1.1445944605453788,
                -2.6320393053102036
            ]
        },
        {
            "positions": [
                -1.0510655093741996,
                -1.6030091506439026,
                1.6683499388638097,
                -0.0675152022030499,
                1.0861584380125429,
                -2.5385268847188405
            ]
        },
        {
            "positions": [
                -0.9616519860230717,
                -1.6291580971030737,
                1.6193001344571627,
                -0.005985598004454196,
                1.0277224154797069,
                -2.4450144641274774
            ]
        },
        {
            "positions": [
                -0.8722384626719437,
                -1.6553070435622448,
                1.570250330050516,
                0.0555440061941415,
                0.9692863929468708,
                -2.3515020435361143
            ]
        },
        {
            "positions": [
                -1.023744088837404,
                -1.6255635192119078,
                1.607936011879677,
                0.026265636340635536,
                0.8940305421615452,
                -2.4044642546957533
            ]
        },
        {
            "positions": [
                -1.1752497150028645,
                -1.5958199948615708,
                1.645621693708838,
                -0.0030127335128704302,
                0.8187746913762196,
                -2.457426465855393
            ]
        },
        {
            "positions": [
                -1.3267553411683246,
                -1.5660764705112338,
                1.683307375537999,
                -0.03229110336637639,
                0.7435188405908941,
                -2.510388677015032
            ]
        },
        {
            "positions": [
                -1.478260967333785,
                -1.5363329461608968,
                1.72099305736716,
                -0.06156947321988236,
                0.6682629898055685,
                -2.563350888174671
            ]
        },
        {
            "positions": [
                -1.6297665934992454,
                -1.5065894218105598,
                1.758678739196321,
                -0.09084784307338832,
                0.5930071390202429,
                -2.61631309933431
            ]
        },
        {
            "positions": [
                -1.7812722196647055,
                -1.4768458974602228,
                1.7963644210254819,
                -0.12012621292689428,
                0.5177512882349173,
                -2.6692753104939495
            ]
        },
        {
            "positions": [
                -1.9327778458301659,
                -1.4471023731098858,
                1.834050102854643,
                -0.14940458278040025,
                0.44249543744959174,
                -2.7222375216535886
            ]
        },
        {
            "positions": [
                -2.0842834719956262,
                -1.4173588487595488,
                1.8717357846838039,
                -0.1786829526339062,
                0.36723958666426615,
                -2.7751997328132276
            ]
        },
        {
            "positions": [
                -2.235789098161087,
                -1.3876153244092118,
                1.909421466512965,
                -0.20796132248741217,
                0.29198373587894055,
                -2.8281619439728667
            ]
        },
        {
            "positions": [
                -2.387294724326547,
                -1.3578718000588748,
                1.947107148342126,
                -0.23723969234091813,
                0.21672788509361507,
                -2.881124155132506
            ]
        },
        {
            "positions": [
                -2.538800350492007,
                -1.3281282757085378,
                1.984792830171287,
                -0.2665180621944241,
                0.14147203430828953,
                -2.9340863662921453
            ]
        },
        {
            "positions": [
                -2.5222390160802517,
                -1.2871691887217886,
                1.990851238619025,
                -0.4069941045500114,
                0.27722751543516316,
                -2.9899342379804184
            ]
        },
        {
            "positions": [
                -2.5056776816684967,
                -1.2462101017350395,
                1.9969096470667629,
                -0.5474701469055987,
                0.4129829965620368,
                -3.045782109668692
            ]
        },
        {
            "positions": [
                -2.4891163472567417,
                -1.2052510147482907,
                2.0029680555145006,
                -0.6879461892611859,
                0.5487384776889104,
                -3.101629981356965
            ]
        },
        {
            "positions": [
                -2.4725550128449862,
                -1.1642919277615416,
                2.009026463962239,
                -0.8284222316167732,
                0.6844939588157841,
                -3.157477853045238
            ]
        }
    ]
}