{
    "goal": {
        "global_pose": {
            "orientation": {
                "w": -0.00223480608172531,
                "x": 0.0024358444001904467,
                "y": 0.7094548369677653,
                "z": -0.704743149386269
            },
            "position": {
                "x": -0.37947507619857795,
                "y": -0.6371506643295288,
                "z": 0.19426114857196808
            }
        },
        "name": "move_to_magneteinheit_C"
    },
    "id": "ProjEST_move_to_magneteinheit_C_80",
    "joint_names": [
        "shoulder_pan_joint",
        "shoulder_lift_joint",
        "elbow_joint",
        "wrist_1_joint",
        "wrist_2_joint",
        "wrist_3_joint"
    ],
    "metrics": {
        "cart_traj_len": 0.5421631256486029,
        "distance_elbow_joint": 0.05174287234282193,
        "distance_shoulder_lift_joint": 0.2537054378366461,
        "distance_shoulder_pan_joint": 0.8007359171626194,
        "distance_wrist_1_joint": 0.3003965286273135,
        "distance_wrist_2_joint": 0.7899048237229952,
        "distance_wrist_3_joint": 0.2502999340024554,
        "smoothness": 0.33086191403398074,
        "time": 0.8477485619999999,
        "traj_len": 1.5642204172350045,
        "weighted_distance": 2.009399595414031
    },
    "planner": "ProjEST",
    "start": {
        "state": {
            "elbow_joint": 1.9565354010623817,
            "shoulder_lift_joint": -1.4165861575791021,
            "shoulder_pan_joint": -1.6717766225146293,
            "wrist_1_joint": -0.5286633292919765,
            "wrist_2_joint": 1.472756589071564,
            "wrist_3_joint": -3.1238370188695823
        }
    },
    "waypoints": [
        {
            "positions": [
                -1.6717766225146293,
                -1.4165861575791021,
                1.9565354010623817,
                -0.5286633292919765,
                1.472756589071564,
                -3.1238370188695823
            ]
        },
        {
            "positions": [
                -1.7400981117469203,
                -1.4113171738148733,
                1.96040680577471,
                -0.5468971004466967,
                1.282439297105982,
                -3.095244022783617
            ]
        },
        {
            "positions": [
                -1.808419600979211,
                -1.4060481900506443,
                1.9642782104870384,
                -0.565130871601417,
                1.0921220051404,
                -3.066651026697652
            ]
        },
        {
            "positions": [
                -1.876741090211502,
                -1.4007792062864155,
                1.968149615199367,
                -0.5833646427561373,
                0.9018047131748181,
                -3.038058030611687
            ]
        },
        {
            "positions": [
                -1.945062579443793,
                -1.3955102225221867,
                1.9720210199116952,
                -0.6015984139108576,
                0.7114874212092361,
                -3.0094650345257214
            ]
        },
        {
            "positions": [
                -2.120879232854945,
                -1.317967054928943,
                1.984106771076198,
                -0.6774188952470017,
                0.7019422025890136,
                -3.0547743510785863
            ]
        },
        {
            "positions": [
                -2.2966958862660967,
                -1.2404238873356996,
                1.9961925222407009,
                -0.7532393765831458,
                0.6923969839687912,
                -3.100083667631451
            ]
        },
        {
            "positions": [
                -2.4725125396772487,
                -1.162880719742456,
                2.0082782734052036,
                -0.8290598579192899,
                0.6828517653485687,
                -3.145392984184316
            ]
        }
    ]
}