{
    "goal": {
        "global_pose": {
            "orientation": {
                "w": 0.5084816262002911,
                "x": -0.4908360881923452,
                "y": 0.5182115481033761,
                "z": -0.48164630358495003
            },
            "position": {
                "x": 0.5540239810943604,
                "y": -0.46912469901144505,
                "z": 0.16403168439865112
            }
        },
        "name": "move_to_storage_B"
    },
    "id": "ProjEST_move_to_storage_B_66",
    "joint_names": [
        "shoulder_pan_joint",
        "shoulder_lift_joint",
        "elbow_joint",
        "wrist_1_joint",
        "wrist_2_joint",
        "wrist_3_joint"
    ],
    "metrics": {
        "cart_traj_len": 0.8113782982067852,
        "distance_elbow_joint": 0.3500094587005851,
        "distance_shoulder_lift_joint": 0.4584361650458213,
        "distance_shoulder_pan_joint": 0.18067899807724996,
        "distance_wrist_1_joint": 2.9866227194087425,
        "distance_wrist_2_joint": 2.702680019246513,
        "distance_wrist_3_joint": 3.769775053842583,
        "smoothness": 0.2367854748545341,
        "time": 0.133543942,
        "traj_len": 3.232367926817969,
        "weighted_distance": 4.865907444728261
    },
    "planner": "ProjEST",
    "start": {
        "state": {
            "elbow_joint": 1.664937868594044,
            "shoulder_lift_joint": -0.661644460510453,
            "shoulder_pan_joint": -0.9139846352900073,
            "wrist_1_joint": 2.146753192139373,
            "wrist_2_joint": -2.2341966793290973,
            "wrist_3_joint": 0.005466555786416001
        }
    },
    "waypoints": [
        {
            "positions": [
                -0.9139846352900073,
                -0.661644460510453,
                1.664937868594044,
                2.146753192139373,
                -2.2341966793290973,
                0.005466555786416001
            ]
        },
        {
            "positions": [
                -0.9424719491672273,
                -0.7478223524357986,
                1.7204829504793615,
                2.107731412278512,
                -2.1269501904652888,
                -0.07259233334010037
            ]
        },
        {
            "positions": [
                -0.9709592630444475,
                -0.8340002443611443,
                1.776028032364679,
                2.068709632417651,
                -2.0197037016014803,
                -0.15065122246661675
            ]
        },
        {
            "positions": [
                -0.9994465769216675,
                -0.9201781362864899,
                1.831573114249997,
                2.0296878525567896,
                -1.9124572127376718,
                -0.22871011159313312
            ]
        },
        {
            "positions": [
                -1.0279338907988875,
                -1.0063560282118356,
                1.8871181961353145,
                1.9906660726959284,
                -1.8052107238738633,
                -0.30676900071964947
            ]
        },
        {
            "positions": [
                -1.030835183954034,
                -1.0113005759224634,
                1.892675984446589,
                1.8675993074800459,
                -1.7063544602307643,
                -0.156441196487627
            ]
        },
        {
            "positions": [
                -1.0337364771091806,
                -1.0162451236330912,
                1.8982337727578635,
                1.7445325422641633,
                -1.6074981965876651,
                -0.006113392255604533
            ]
        },
        {
            "positions": [
                -1.036637770264327,
                -1.021189671343719,
                1.903791561069138,
                1.621465777048281,
                -1.508641932944566,
                0.14421441197641788
            ]
        },
        {
            "positions": [
                -1.0395390634194737,
                -1.0261342190543465,
                1.9093493493804128,
                1.4983990118323984,
                -1.409785669301467,
                0.2945422162084404
            ]
        },
        {
            "positions": [
                -1.04244035657462,
                -1.0310787667649743,
                1.9149071376916873,
                1.3753322466165159,
                -1.310929405658368,
                0.4448700204404628
            ]
        },
        {
            "positions": [
                -1.0453416497297665,
                -1.0360233144756021,
                1.9204649260029618,
                1.2522654814006335,
                -1.2120731420152688,
                0.5951978246724852
            ]
        },
        {
            "positions": [
                -1.0482429428849132,
                -1.04096786218623,
                1.9260227143142363,
                1.1291987161847508,
                -1.1132168783721696,
                0.7455256289045078
            ]
        },
        {
            "positions": [
                -1.0511442360400596,
                -1.0459124098968577,
                1.9315805026255108,
                1.0061319509688684,
                -1.0143606147290707,
                0.8958534331365302
            ]
        },
        {
            "positions": [
                -1.0540455291952062,
                -1.0508569576074855,
                1.9371382909367854,
                0.8830651857529859,
                -0.9155043510859715,
                1.0461812373685526
            ]
        },
        {
            "positions": [
                -1.0569468223503526,
                -1.0558015053181133,
                1.9426960792480599,
                0.7599984205371033,
                -0.8166480874428725,
                1.196509041600575
            ]
        },
        {
            "positions": [
                -1.059848115505499,
                -1.0607460530287411,
                1.9482538675593344,
                0.6369316553212208,
                -0.7177918237997734,
                1.3468368458325977
            ]
        },
        {
            "positions": [
                -1.0627494086606457,
                -1.0656906007393687,
                1.9538116558706091,
                0.5138648901053384,
                -0.6189355601566744,
                1.4971646500646199
            ]
        },
        {
            "positions": [
                -1.0656507018157921,
                -1.0706351484499965,
                1.9593694441818836,
                0.39079812488945587,
                -0.5200792965135754,
                1.6474924542966423
            ]
        },
        {
            "positions": [
                -1.0685519949709388,
                -1.0755796961606243,
                1.9649272324931581,
                0.2677313596735733,
                -0.421223032870476,
                1.7978202585286651
            ]
        },
        {
            "positions": [
                -1.0714532881260852,
                -1.0805242438712521,
                1.9704850208044327,
                0.14466459445769075,
                -0.32236676922737706,
                1.9481480627606873
            ]
        },
        {
            "positions": [
                -1.0743545812812316,
                -1.08546879158188,
                1.9760428091157072,
                0.02159782924180842,
                -0.2235105055842781,
                2.09847586699271
            ]
        },
        {
            "positions": [
                -1.0772558744363783,
                -1.0904133392925077,
                1.9816005974269817,
                -0.10146893597407391,
                -0.12465424194117913,
                2.2488036712247323
            ]
        },
        {
            "positions": [
                -1.0801571675915247,
                -1.0953578870031355,
                1.9871583857382562,
                -0.2245357011899567,
                -0.025797978298079727,
                2.399131475456755
            ]
        },
        {
            "positions": [
                -1.0830584607466711,
                -1.1003024347137633,
                1.992716174049531,
                -0.34760246640583903,
                0.07305828534501924,
                2.5494592796887776
            ]
        },
        {
            "positions": [
                -1.0859597539018178,
                -1.105246982424391,
                1.9982739623608055,
                -0.4706692316217218,
                0.1719145489881182,
                2.6997870839208
            ]
        },
        {
            "positions": [
                -1.0888610470569642,
                -1.1101915301350187,
                2.00383175067208,
                -0.5937359968376041,
                0.27077081263121716,
                2.850114888152822
            ]
        },
        {
            "positions": [
                -1.0917623402121108,
                -1.1151360778456465,
                2.0093895389833545,
                -0.7168027620534869,
                0.36962707627431657,
                3.000442692384845
            ]
        },
        {
            "positions": [
                -1.0946636333672572,
                -1.1200806255562743,
                2.014947327294629,
                -0.8398695272693693,
                0.4684833399174156,
                3.1507704966168673
            ]
        }
    ]
}