{
    "goal": {
        "global_pose": {
            "orientation": {
                "w": 0.7047431468963623,
                "x": -0.7094548344612122,
                "y": 0.0024358443915843964,
                "z": -0.0022348060738295317
            },
            "position": {
                "x": 0.6094750761985779,
                "y": 0.3671506643295288,
                "z": 0.19426114857196808
            }
        },
        "name": "move_to_magneteinheit_A"
    },
    "id": "ProjEST_move_to_magneteinheit_A_41",
    "joint_names": [
        "shoulder_pan_joint",
        "shoulder_lift_joint",
        "elbow_joint",
        "wrist_1_joint",
        "wrist_2_joint",
        "wrist_3_joint"
    ],
    "metrics": {
        "cart_traj_len": 3.9943112085639436,
        "distance_elbow_joint": 4.157803751873239,
        "distance_shoulder_lift_joint": 1.6232894762139687,
        "distance_shoulder_pan_joint": 4.769944782717632,
        "distance_wrist_1_joint": 3.4157038828788298,
        "distance_wrist_2_joint": 3.887919691421257,
        "distance_wrist_3_joint": 3.709809770272967,
        "smoothness": 0.23620423682547953,
        "time": 0.10292425799999999,
        "traj_len": 4.643756168811824,
        "weighted_distance": 6.023928491460029
    },
    "planner": "ProjEST",
    "start": {
        "state": {
            "elbow_joint": -1.9196185241190666,
            "shoulder_lift_joint": -1.2443396400964142,
            "shoulder_pan_joint": 2.6996025414629847,
            "wrist_1_joint": -1.5485510000780065,
            "wrist_2_joint": -1.5709468930060704,
            "wrist_3_joint": 0.4420197071253992
        }
    },
    "waypoints": [
        {
            "positions": [
                2.6996025414629847,
                -1.2443396400964142,
                -1.9196185241190666,
                -1.5485510000780065,
                -1.5709468930060704,
                0.4420197071253992
            ]
        },
        {
            "positions": [
                2.5583270291142073,
                -1.2109118844957583,
                -1.9250533699265422,
                -1.4665609630267458,
                -1.4634254594535105,
                0.41981115115662976
            ]
        },
        {
            "positions": [
                2.41705151676543,
                -1.1774841288951023,
                -1.9304882157340175,
                -1.3845709259754848,
                -1.3559040259009507,
                0.3976025951878603
            ]
        },
        {
            "positions": [
                2.2757760044166524,
                -1.1440563732944462,
                -1.935923061541493,
                -1.302580888924224,
                -1.248382592348391,
                0.37539403921909087
            ]
        },
        {
            "positions": [
                2.134500492067875,
                -1.1106286176937903,
                -1.9413579073489684,
                -1.2205908518729633,
                -1.1408611587958313,
                0.35318548325032145
            ]
        },
        {
            "positions": [
                1.9932249797190975,
                -1.0772008620931344,
                -1.946792753156444,
                -1.1386008148217024,
                -1.0333397252432714,
                0.330976927281552
            ]
        },
        {
            "positions": [
                1.85194946737032,
                -1.0437731064924785,
                -1.9522275989639193,
                -1.0566107777704414,
                -0.9258182916907116,
                0.30876837131278256
            ]
        },
        {
            "positions": [
                1.7106739550215428,
                -1.0103453508918223,
                -1.9576624447713948,
                -0.9746207407191808,
                -0.8182968581381518,
                0.28655981534401315
            ]
        },
        {
            "positions": [
                1.5693984426727652,
                -0.9769175952911664,
                -1.9630972905788702,
                -0.89263070366792,
                -0.710775424585592,
                0.26435125937524373
            ]
        },
        {
            "positions": [
                1.428122930323988,
                -0.9434898396905105,
                -1.9685321363863457,
                -0.8106406666166591,
                -0.6032539910330322,
                0.24214270340647429
            ]
        },
        {
            "positions": [
                1.2868474179752103,
                -0.9100620840898545,
                -1.973966982193821,
                -0.7286506295653983,
                -0.4957325574804723,
                0.2199341474377048
            ]
        },
        {
            "positions": [
                1.145571905626433,
                -0.8766343284891985,
                -1.9794018280012966,
                -0.6466605925141375,
                -0.3882111239279127,
                0.1977255914689354
            ]
        },
        {
            "positions": [
                1.0042963932776554,
                -0.8432065728885425,
                -1.984836673808772,
                -0.5646705554628766,
                -0.28068969037535285,
                0.17551703550016595
            ]
        },
        {
            "positions": [
                0.8630208809288782,
                -0.8097788172878866,
                -1.9902715196162475,
                -0.48268051841161586,
                -0.17316825682279302,
                0.15330847953139654
            ]
        },
        {
            "positions": [
                0.721745368580101,
                -0.7763510616872307,
                -1.995706365423723,
                -0.4006904813603551,
                -0.06564682327023319,
                0.13109992356262712
            ]
        },
        {
            "positions": [
                0.5804698562313235,
                -0.7429233060865746,
                -2.0011412112311984,
                -0.3187004443090944,
                0.04187461028232642,
                0.1088913675938577
            ]
        },
        {
            "positions": [
                0.43919434388254563,
                -0.7094955504859186,
                -2.0065760570386737,
                -0.23671040725783343,
                0.14939604383488647,
                0.08668281162508823
            ]
        },
        {
            "positions": [
                0.29791883153376864,
                -0.6760677948852627,
                -2.0120109028461495,
                -0.15472037020657248,
                0.2569174773874461,
                0.06447425565631881
            ]
        },
        {
            "positions": [
                0.1566433191849912,
                -0.6426400392846068,
                -2.017445748653625,
                -0.07273033315531174,
                0.3644389109400059,
                0.042265699687549396
            ]
        },
        {
            "positions": [
                0.015367806836213749,
                -0.6092122836839509,
                -2.0228805944611,
                0.00925970389594899,
                0.4719603444925655,
                0.02005714371877998
            ]
        },
        {
            "positions": [
                -0.12590770551256414,
                -0.5757845280832947,
                -2.0283154402685755,
                0.09124974094720995,
                0.5794817780451258,
                -0.0021514122499895483
            ]
        },
        {
            "positions": [
                -0.26718321786134114,
                -0.5423567724826388,
                -2.0337502860760512,
                0.17323977799847068,
                0.6870032115976852,
                -0.024359968218758965
            ]
        },
        {
            "positions": [
                -0.4084587302101186,
                -0.5089290168819829,
                -2.0391851318835266,
                0.2552298150497314,
                0.794524645150245,
                -0.04656852418752838
            ]
        },
        {
            "positions": [
                -0.549734242558896,
                -0.47550126128132697,
                -2.044619977691002,
                0.33721985210099237,
                0.9020460787028048,
                -0.0687770801562978
            ]
        },
        {
            "positions": [
                -0.6910097549076739,
                -0.44207350568067094,
                -2.0500548234984777,
                0.4192098891522533,
                1.0095675122553647,
                -0.09098563612506727
            ]
        },
        {
            "positions": [
                -0.8322852672564509,
                -0.4086457500800149,
                -2.055489669305953,
                0.5011999262035138,
                1.1170889458079245,
                -0.11319419209383663
            ]
        },
        {
            "positions": [
                -0.9735607796052284,
                -0.375217994479359,
                -2.0609245151134283,
                0.583189963254775,
                1.2246103793604841,
                -0.13540274806260608
            ]
        },
        {
            "positions": [
                -0.9357407292035244,
                -0.4012237817413215,
                -1.9224245923245016,
                0.5389153798221527,
                1.1869427097379084,
                -0.24341610375519096
            ]
        },
        {
            "positions": [
                -0.8979206788018205,
                -0.42722956900328407,
                -1.7839246695355748,
                0.49464079638953024,
                1.1492750401153324,
                -0.3514294594477758
            ]
        },
        {
            "positions": [
                -0.8601006284001165,
                -0.4532353562652466,
                -1.6454247467466478,
                0.4503662129569078,
                1.1116073704927567,
                -0.4594428151403608
            ]
        },
        {
            "positions": [
                -0.8222805779984126,
                -0.47924114352720915,
                -1.506924823957721,
                0.40609162952428546,
                1.0739397008701808,
                -0.5674561708329456
            ]
        },
        {
            "positions": [
                -0.7844605275967086,
                -0.5052469307891717,
                -1.3684249011687943,
                0.36181704609166304,
                1.036272031247605,
                -0.6754695265255306
            ]
        },
        {
            "positions": [
                -0.7466404771950046,
                -0.5312527180511342,
                -1.2299249783798674,
                0.3175424626590407,
                0.9986043616250292,
                -0.7834828822181155
            ]
        },
        {
            "positions": [
                -0.7088204267933007,
                -0.5572585053130967,
                -1.0914250555909406,
                0.27326787922641826,
                0.9609366920024534,
                -0.8914962379107003
            ]
        },
        {
            "positions": [
                -0.6710003763915967,
                -0.5832642925750593,
                -0.9529251328020139,
                0.2289932957937959,
                0.9232690223798775,
                -0.9995095936032852
            ]
        },
        {
            "positions": [
                -0.6331803259898927,
                -0.6092700798370219,
                -0.8144252100130871,
                0.1847187123611735,
                0.8856013527573017,
                -1.10752294929587
            ]
        },
        {
            "positions": [
                -0.5953602755881888,
                -0.6352758670989844,
                -0.6759252872241601,
                0.14044412892855107,
                0.8479336831347258,
                -1.215536304988455
            ]
        },
        {
            "positions": [
                -0.5575402251864849,
                -0.6612816543609469,
                -0.5374253644352336,
                0.09616954549592871,
                0.81026601351215,
                -1.3235496606810397
            ]
        },
        {
            "positions": [
                -0.5197201747847808,
                -0.6872874416229093,
                -0.3989254416463066,
                0.05189496206330635,
                0.7725983438895743,
                -1.4315630163736248
            ]
        },
        {
            "positions": [
                -0.48190012438307694,
                -0.7132932288848719,
                -0.26042551885737986,
                0.007620378630683877,
                0.7349306742669983,
                -1.5395763720662097
            ]
        },
        {
            "positions": [
                -0.44408007398137295,
                -0.7392990161468345,
                -0.12192559606845288,
                -0.036654204801938484,
                0.6972630046444225,
                -1.6475897277587945
            ]
        },
        {
            "positions": [
                -0.40626002357966895,
                -0.765304803408797,
                0.016574326720474097,
                -0.08092878823456096,
                0.6595953350218466,
                -1.7556030834513796
            ]
        },
        {
            "positions": [
                -0.36843997317796506,
                -0.7913105906707596,
                0.15507424950940063,
                -0.1252033716671832,
                0.6219276653992709,
                -1.8636164391439642
            ]
        },
        {
            "positions": [
                -0.3306199227762612,
                -0.817316377932722,
                0.29357417229832716,
                -0.16947795509980557,
                0.5842599957766951,
                -1.971629794836549
            ]
        },
        {
            "positions": [
                -0.2927998723745572,
                -0.8433221651946846,
                0.43207409508725414,
                -0.21375253853242804,
                0.5465923261541192,
                -2.079643150529134
            ]
        },
        {
            "positions": [
                -0.2549798219728532,
                -0.8693279524566471,
                0.5705740178761811,
                -0.2580271219650504,
                0.5089246565315434,
                -2.187656506221719
            ]
        },
        {
            "positions": [
                -0.21715977157114918,
                -0.8953337397186097,
                0.7090739406651081,
                -0.30230170539767287,
                0.47125698690896756,
                -2.295669861914304
            ]
        },
        {
            "positions": [
                -0.1793397211694453,
                -0.9213395269805722,
                0.8475738634540346,
                -0.34657628883029523,
                0.4335893172863917,
                -2.4036832176068885
            ]
        },
        {
            "positions": [
                -0.1415196707677414,
                -0.9473453142425348,
                0.9860737862429612,
                -0.3908508722629176,
                0.395921647663816,
                -2.5116965732994734
            ]
        },
        {
            "positions": [
                -0.1036996203660373,
                -0.9733511015044973,
                1.1245737090318886,
                -0.43512545569553995,
                0.35825397804124004,
                -2.6197099289920587
            ]
        },
        {
            "positions": [
                -0.06587956996433342,
                -0.9993568887664598,
                1.2630736318208151,
                -0.4794000391281623,
                0.3205863084186643,
                -2.7277232846846435
            ]
        },
        {
            "positions": [
                -0.02805951956262953,
                -1.0253626760284225,
                1.4015735546097416,
                -0.5236746225607847,
                0.2829186387960885,
                -2.835736640377228
            ]
        },
        {
            "positions": [
                0.009760530839074466,
                -1.0513684632903848,
                1.5400734773986686,
                -0.5679492059934073,
                0.24525096917351263,
                -2.9437499960698132
            ]
        },
        {
            "positions": [
                0.04758058124077835,
                -1.0773742505523474,
                1.6785734001875956,
                -0.6122237894260296,
                0.2075832995509368,
                -3.051763351762398
            ]
        },
        {
            "positions": [
                0.08540063164248246,
                -1.10338003781431,
                1.8170733229765226,
                -0.656498372858652,
                0.16991562992836085,
                -3.159776707454983
            ]
        },
        {
            "positions": [
                0.12322068204418626,
                -1.1293858250762725,
                1.9555732457654487,
                -0.7007729562912745,
                0.1322479603057852,
                -3.267790063147568
            ]
        }
    ]
}