{
    "goal": {
        "global_pose": {
            "orientation": {
                "w": 0.005598929693374612,
                "x": 0.007748599140229565,
                "y": 0.7110244013736278,
                "z": -0.7031023480610252
            },
            "position": {
                "x": -0.8858502320852131,
                "y": -0.7141253447532654,
                "z": 0.3711530566215515
            }
        },
        "name": "move_to_auspresseinheit_C"
    },
    "id": "ProjEST_move_to_auspresseinheit_C_97",
    "joint_names": [
        "shoulder_pan_joint",
        "shoulder_lift_joint",
        "elbow_joint",
        "wrist_1_joint",
        "wrist_2_joint",
        "wrist_3_joint"
    ],
    "metrics": {
        "cart_traj_len": 0.493893045500102,
        "distance_elbow_joint": 1.0097950411004384,
        "distance_shoulder_lift_joint": 0.3294677695177256,
        "distance_shoulder_pan_joint": 0.25677468477548926,
        "distance_wrist_1_joint": 0.7002831057300543,
        "distance_wrist_2_joint": 1.301027531487691,
        "distance_wrist_3_joint": 0.06678030854514283,
        "smoothness": 1.6148698667872622e-16,
        "time": 0.315775978,
        "traj_len": 1.914191328252362,
        "weighted_distance": 2.408111229878008
    },
    "planner": "ProjEST",
    "start": {
        "state": {
            "elbow_joint": 1.7527959577737207,
            "shoulder_lift_joint": -0.9740617694225068,
            "shoulder_pan_joint": -2.967991417825858,
            "wrist_1_joint": -0.759517768980727,
            "wrist_2_joint": 1.7443932448377408,
            "wrist_3_joint": -3.0840537646736568
        }
    },
    "waypoints": [
        {
            "positions": [
                -2.967991417825858,
                -0.9740617694225068,
                1.7527959577737207,
                -0.759517768980727,
                1.7443932448377408,
                -3.0840537646736568
            ]
        },
        {
            "positions": [
                -2.942313949348309,
                -0.9411149924707343,
                1.6518164536636768,
                -0.6894894584077216,
                1.6142904916889718,
                -3.0907317955281712
            ]
        },
        {
            "positions": [
                -2.91663648087076,
                -0.9081682155189617,
                1.550836949553633,
                -0.6194611478347161,
                1.4841877385402027,
                -3.0974098263826852
            ]
        },
        {
            "positions": [
                -2.8909590123932114,
                -0.875221438567189,
                1.449857445443589,
                -0.5494328372617108,
                1.3540849853914336,
                -3.1040878572371997
            ]
        },
        {
            "positions": [
                -2.8652815439156623,
                -0.8422746616154165,
                1.3488779413335452,
                -0.47940452668870526,
                1.2239822322426646,
                -3.1107658880917137
            ]
        },
        {
            "positions": [
                -2.839604075438113,
                -0.809327884663644,
                1.2478984372235016,
                -0.40937621611569985,
                1.0938794790938955,
                -3.117443918946228
            ]
        },
        {
            "positions": [
                -2.8139266069605644,
                -0.7763811077118714,
                1.1469189331134575,
                -0.33934790554269445,
                0.9637767259451263,
                -3.1241219498007426
            ]
        },
        {
            "positions": [
                -2.7882491384830157,
                -0.7434343307600989,
                1.0459394290034139,
                -0.26931959496968905,
                0.8336739727963572,
                -3.1307999806552567
            ]
        },
        {
            "positions": [
                -2.7625716700054666,
                -0.7104875538083263,
                0.9449599248933699,
                -0.19929128439668353,
                0.7035712196475881,
                -3.137478011509771
            ]
        },
        {
            "positions": [
                -2.7368942015279174,
                -0.6775407768565538,
                0.8439804207833261,
                -0.12926297382367813,
                0.573468466498819,
                -3.144156042364285
            ]
        },
        {
            "positions": [
                -2.7112167330503687,
                -0.6445939999047812,
                0.7430009166732823,
                -0.059234663250672705,
                0.44336571335004993,
                -3.1508340732187996
            ]
        }
    ]
}