{
    "goal": {
        "global_pose": {
            "orientation": {
                "w": 0.7031023480610252,
                "x": -0.7110244013736278,
                "y": 0.0077485991402295624,
                "z": 0.005598929693374583
            },
            "position": {
                "x": -0.8841497679147869,
                "y": 0.44412534475326537,
                "z": 0.3711530566215515
            }
        },
        "name": "move_to_auspresseinheit_D"
    },
    "id": "ProjEST_move_to_auspresseinheit_D_2",
    "joint_names": [
        "shoulder_pan_joint",
        "shoulder_lift_joint",
        "elbow_joint",
        "wrist_1_joint",
        "wrist_2_joint",
        "wrist_3_joint"
    ],
    "metrics": {
        "cart_traj_len": 0.3452598322678874,
        "distance_elbow_joint": 0.664766581495343,
        "distance_shoulder_lift_joint": 0.13532988704400672,
        "distance_shoulder_pan_joint": 0.13425474726361405,
        "distance_wrist_1_joint": 0.610360547834409,
        "distance_wrist_2_joint": 1.4405732956170345,
        "distance_wrist_3_joint": 0.07172562711689912,
        "smoothness": 0.0,
        "time": 0.030759271,
        "traj_len": 1.7484309212466207,
        "weighted_distance": 2.291592412288134
    },
    "planner": "ProjEST",
    "start": {
        "state": {
            "elbow_joint": -1.8275523626775212,
            "shoulder_lift_joint": -2.126789852344167,
            "shoulder_pan_joint": -0.03513704404078235,
            "wrist_1_joint": -2.347782403156801,
            "wrist_2_joint": -1.6058999987535132,
            "wrist_3_joint": -3.0880379163319196
        }
    },
    "waypoints": [
        {
            "positions": [
                -0.03513704404078235,
                -2.126789852344167,
                -1.8275523626775212,
                -2.347782403156801,
                -1.6058999987535132,
                -3.0880379163319196
            ]
        },
        {
            "positions": [
                -0.0519188874487341,
                -2.1437060882246675,
                -1.7444565399906033,
                -2.424077471636102,
                -1.4258283368013838,
                -3.0790722129423074
            ]
        },
        {
            "positions": [
                -0.06870073085668586,
                -2.1606223241051685,
                -1.6613607173036855,
                -2.500372540115403,
                -1.2457566748492546,
                -3.0701065095526947
            ]
        },
        {
            "positions": [
                -0.08548257426463762,
                -2.1775385599856696,
                -1.5782648946167677,
                -2.576667608594704,
                -1.0656850128971254,
                -3.0611408061630825
            ]
        },
        {
            "positions": [
                -0.10226441767258937,
                -2.19445479586617,
                -1.4951690719298498,
                -2.6529626770740053,
                -0.8856133509449959,
                -3.05217510277347
            ]
        },
        {
            "positions": [
                -0.11904626108054114,
                -2.211371031746671,
                -1.412073249242932,
                -2.7292577455533067,
                -0.7055416889928666,
                -3.0432093993838576
            ]
        },
        {
            "positions": [
                -0.1358281044884929,
                -2.228287267627172,
                -1.328977426556014,
                -2.8055528140326076,
                -0.5254700270407373,
                -3.0342436959942454
            ]
        },
        {
            "positions": [
                -0.15260994789644464,
                -2.245203503507673,
                -1.245881603869096,
                -2.8818478825119085,
                -0.3453983650886081,
                -3.0252779926046327
            ]
        },
        {
            "positions": [
                -0.1693917913043964,
                -2.2621197393881736,
                -1.1627857811821782,
                -2.95814295099121,
                -0.1653267031364787,
                -3.0163122892150205
            ]
        }
    ]
}