{
    "goal": {
        "global_pose": {
            "orientation": {
                "w": 0.7031023502349854,
                "x": -0.7110244035720825,
                "y": 0.007748599164187908,
                "z": 0.005598929710686207
            },
            "position": {
                "x": 0.11585023208521307,
                "y": 0.44412534475326537,
                "z": 0.3711530566215515
            }
        },
        "name": "move_to_auspresseinheit_A"
    },
    "id": "ProjEST_move_to_auspresseinheit_A_20",
    "joint_names": [
        "shoulder_pan_joint",
        "shoulder_lift_joint",
        "elbow_joint",
        "wrist_1_joint",
        "wrist_2_joint",
        "wrist_3_joint"
    ],
    "metrics": {
        "cart_traj_len": 2.5007725169689055,
        "distance_elbow_joint": 4.557185297691117,
        "distance_shoulder_lift_joint": 0.9296221347271663,
        "distance_shoulder_pan_joint": 1.4153137225766126,
        "distance_wrist_1_joint": 3.5678597180403835,
        "distance_wrist_2_joint": 2.877129888136808,
        "distance_wrist_3_joint": 4.506997696646614,
        "smoothness": 0.6989464980746138,
        "time": 0.390737795,
        "traj_len": 4.225412223419,
        "weighted_distance": 5.771749601055916
    },
    "planner": "ProjEST",
    "start": {
        "state": {
            "elbow_joint": 2.4225746658250005,
            "shoulder_lift_joint": -1.3736534386056498,
            "shoulder_pan_joint": -0.3378633547517467,
            "wrist_1_joint": -1.0288598680537169,
            "wrist_2_joint": 1.233022673432363,
            "wrist_3_joint": -3.0940220416140027
        }
    },
    "waypoints": [
        {
            "positions": [
                -0.3378633547517467,
                -1.3736534386056498,
                2.4225746658250005,
                -1.0288598680537169,
                1.233022673432363,
                -3.0940220416140027
            ]
        },
        {
            "positions": [
                -0.28782793813427593,
                -1.3646846255550136,
                2.307897331956814,
                -0.9644311674939208,
                1.1951060542524117,
                -2.9822750311003885
            ]
        },
        {
            "positions": [
                -0.2377925215168052,
                -1.3557158125043771,
                2.1932199980886278,
                -0.9000024669341247,
                1.1571894350724603,
                -2.870528020586774
            ]
        },
        {
            "positions": [
                -0.18775710489933442,
                -1.3467469994537409,
                2.0785426642204414,
                -0.8355737663743287,
                1.1192728158925092,
                -2.758781010073159
            ]
        },
        {
            "positions": [
                -0.13772168828186362,
                -1.3377781864031046,
                1.9638653303522553,
                -0.7711450658145325,
                1.0813561967125578,
                -2.647033999559545
            ]
        },
        {
            "positions": [
                -0.08768627166439286,
                -1.3288093733524684,
                1.849187996484069,
                -0.7067163652547365,
                1.0434395775326064,
                -2.5352869890459306
            ]
        },
        {
            "positions": [
                -0.037650855046922116,
                -1.3198405603018322,
                1.7345106626158828,
                -0.6422876646949405,
                1.005522958352655,
                -2.423539978532316
            ]
        },
        {
            "positions": [
                0.01238456157054868,
                -1.3108717472511957,
                1.6198333287476965,
                -0.5778589641351444,
                0.9676063391727037,
                -2.3117929680187013
            ]
        },
        {
            "positions": [
                0.062419978188019476,
                -1.3019029342005595,
                1.5051559948795101,
                -0.5134302635753482,
                0.9296897199927523,
                -2.200045957505087
            ]
        },
        {
            "positions": [
                0.11245539480549027,
                -1.2929341211499232,
                1.3904786610113238,
                -0.44900156301555216,
                0.891773100812801,
                -2.088298946991473
            ]
        },
        {
            "positions": [
                0.162490811422961,
                -1.2839653080992868,
                1.2758013271431374,
                -0.38457286245575606,
                0.8538564816328498,
                -1.976551936477858
            ]
        },
        {
            "positions": [
                0.2125262280404318,
                -1.2749964950486505,
                1.161123993274951,
                -0.32014416189595996,
                0.8159398624528984,
                -1.8648049259642436
            ]
        },
        {
            "positions": [
                0.2625616446579025,
                -1.2660276819980143,
                1.046446659406765,
                -0.25571546133616396,
                0.778023243272947,
                -1.7530579154506292
            ]
        },
        {
            "positions": [
                0.3125970612753734,
                -1.257058868947378,
                0.9317693255385784,
                -0.19128676077636775,
                0.7401066240929957,
                -1.6413109049370147
            ]
        },
        {
            "positions": [
                0.3626324778928441,
                -1.2480900558967418,
                0.8170919916703923,
                -0.12685806021657176,
                0.7021900049130444,
                -1.5295638944234002
            ]
        },
        {
            "positions": [
                0.4126678945103149,
                -1.2391212428461054,
                0.7024146578022059,
                -0.06242935965677565,
                0.664273385733093,
                -1.4178168839097858
            ]
        },
        {
            "positions": [
                0.4627033111277857,
                -1.2301524297954691,
                0.5877373239340196,
                0.0019993409030205633,
                0.6263567665531417,
                -1.3060698733961713
            ]
        },
        {
            "positions": [
                0.5127387277452564,
                -1.221183616744833,
                0.47305999006583344,
                0.06642804146281645,
                0.5884401473731904,
                -1.1943228628825568
            ]
        },
        {
            "positions": [
                0.5627741443627272,
                -1.2122148036941964,
                0.3583826561976471,
                0.13085674202261255,
                0.550523528193239,
                -1.0825758523689424
            ]
        },
        {
            "positions": [
                0.612809560980198,
                -1.2032459906435602,
                0.24370532232946074,
                0.19528544258240865,
                0.5126069090132878,
                -0.9708288418553281
            ]
        },
        {
            "positions": [
                0.6628449775976687,
                -1.194277177592924,
                0.1290279884612743,
                0.25971414314220487,
                0.4746902898333364,
                -0.8590818313417132
            ]
        },
        {
            "positions": [
                0.6494843041728938,
                -1.2397628853662257,
                0.23742240337100348,
                0.3152556721730516,
                0.4069473470550289,
                -0.9515989800254543
            ]
        },
        {
            "positions": [
                0.636123630748119,
                -1.2852485931395277,
                0.34581681828073263,
                0.3707972012038983,
                0.3392044042767214,
                -1.0441161287091953
            ]
        },
        {
            "positions": [
                0.6227629573233442,
                -1.3307343009128294,
                0.45421123319046186,
                0.426338730234745,
                0.27146146149841394,
                -1.1366332773929364
            ]
        },
        {
            "positions": [
                0.6094022838985693,
                -1.3762200086861314,
                0.562605648100191,
                0.48188025926559175,
                0.20371851872010643,
                -1.2291504260766777
            ]
        },
        {
            "positions": [
                0.5960416104737944,
                -1.4217057164594331,
                0.6710000630099202,
                0.5374217882964385,
                0.13597557594179893,
                -1.3216675747604187
            ]
        },
        {
            "positions": [
                0.5826809370490196,
                -1.4671914242327349,
                0.7793944779196493,
                0.5929633173272852,
                0.06823263316349149,
                -1.4141847234441598
            ]
        },
        {
            "positions": [
                0.5693202636242447,
                -1.5126771320060368,
                0.8877888928293786,
                0.648504846358132,
                0.0004896903851839829,
                -1.506701872127901
            ]
        },
        {
            "positions": [
                0.5559595901994699,
                -1.5581628397793386,
                0.9961833077391077,
                0.7040463753889786,
                -0.06725325239312352,
                -1.599219020811642
            ]
        },
        {
            "positions": [
                0.5425989167746951,
                -1.6036485475526405,
                1.1045777226488371,
                0.7595879044198255,
                -0.13499619517143102,
                -1.6917361694953832
            ]
        },
        {
            "positions": [
                0.5292382433499202,
                -1.6491342553259423,
                1.2129721375585663,
                0.8151294334506721,
                -0.20273913794973852,
                -1.7842533181791242
            ]
        },
        {
            "positions": [
                0.5158775699251454,
                -1.6946199630992442,
                1.3213665524682954,
                0.8706709624815189,
                -0.2704820807280459,
                -1.8767704668628653
            ]
        },
        {
            "positions": [
                0.5025168965003706,
                -1.740105670872546,
                1.4297609673780245,
                0.9262124915123655,
                -0.3382250235063534,
                -1.9692876155466064
            ]
        },
        {
            "positions": [
                0.4891562230755957,
                -1.7855913786458477,
                1.5381553822877538,
                0.9817540205432123,
                -0.4059679662846609,
                -2.061804764230348
            ]
        },
        {
            "positions": [
                0.4757955496508208,
                -1.8310770864191497,
                1.646549797197483,
                1.037295549574059,
                -0.4737109090629685,
                -2.1543219129140887
            ]
        },
        {
            "positions": [
                0.48861352164814414,
                -1.8430604058345947,
                1.7178928164013825,
                0.9319506735112939,
                -0.3965220290201359,
                -2.2336563285956954
            ]
        },
        {
            "positions": [
                0.5014314936454675,
                -1.8550437252500396,
                1.789235835605282,
                0.8266057974485288,
                -0.3193331489773033,
                -2.312990744277302
            ]
        },
        {
            "positions": [
                0.5142494656427907,
                -1.8670270446654846,
                1.8605788548091815,
                0.7212609213857638,
                -0.24214426893447072,
                -2.392325159958909
            ]
        },
        {
            "positions": [
                0.5270674376401141,
                -1.8790103640809295,
                1.931921874013081,
                0.6159160453229987,
                -0.16495538889163813,
                -2.4716595756405155
            ]
        },
        {
            "positions": [
                0.5398854096374374,
                -1.8909936834963745,
                2.0032648932169805,
                0.5105711692602336,
                -0.08776650884880555,
                -2.550993991322122
            ]
        },
        {
            "positions": [
                0.5527033816347606,
                -1.9029770029118196,
                2.07460791242088,
                0.4052262931974686,
                -0.01057762880597296,
                -2.6303284070037285
            ]
        },
        {
            "positions": [
                0.565521353632084,
                -1.9149603223272644,
                2.1459509316247796,
                0.2998814171347035,
                0.06661125123685957,
                -2.709662822685335
            ]
        },
        {
            "positions": [
                0.5783393256294073,
                -1.9269436417427095,
                2.217293950828679,
                0.1945365410719384,
                0.14380013127969216,
                -2.788997238366942
            ]
        },
        {
            "positions": [
                0.6033417628897598,
                -1.9234277598297784,
                2.252368482420676,
                0.06274748268984101,
                0.2543771843394557,
                -2.8574256542367613
            ]
        },
        {
            "positions": [
                0.6283442001501124,
                -1.9199118779168476,
                2.287443014012673,
                -0.06904157569225639,
                0.3649542373992193,
                -2.9258540701065807
            ]
        },
        {
            "positions": [
                0.6533466374104648,
                -1.9163959960039165,
                2.3225175456046694,
                -0.2008306340743538,
                0.4755312904589828,
                -2.9942824859764006
            ]
        },
        {
            "positions": [
                0.6783490746708174,
                -1.9128801140909857,
                2.3575920771966663,
                -0.3326196924564512,
                0.5861083435187464,
                -3.06271090184622
            ]
        },
        {
            "positions": [
                0.70335151193117,
                -1.9093642321780546,
                2.392666608788663,
                -0.46440875083854855,
                0.6966853965785099,
                -3.1311393177160394
            ]
        }
    ]
}