{
    "goal": {
        "global_pose": {
            "orientation": {
                "w": 0.7031023480610252,
                "x": -0.7110244013736278,
                "y": 0.0077485991402295624,
                "z": 0.005598929693374583
            },
            "position": {
                "x": -0.8841497679147869,
                "y": 0.44412534475326537,
                "z": 0.3711530566215515
            }
        },
        "name": "move_to_auspresseinheit_D"
    },
    "id": "ProjEST_move_to_auspresseinheit_D_93",
    "joint_names": [
        "shoulder_pan_joint",
        "shoulder_lift_joint",
        "elbow_joint",
        "wrist_1_joint",
        "wrist_2_joint",
        "wrist_3_joint"
    ],
    "metrics": {
        "cart_traj_len": 0.342672295277049,
        "distance_elbow_joint": 0.6428453814759487,
        "distance_shoulder_lift_joint": 0.1241991783953682,
        "distance_shoulder_pan_joint": 0.13369813093993435,
        "distance_wrist_1_joint": 0.5555891125744536,
        "distance_wrist_2_joint": 1.4329979520077731,
        "distance_wrist_3_joint": 0.01888367940116975,
        "smoothness": 0.0,
        "time": 0.11003106600000001,
        "traj_len": 1.7053484789903346,
        "weighted_distance": 2.2213887228891784
    },
    "planner": "ProjEST",
    "start": {
        "state": {
            "elbow_joint": -1.8275523626775212,
            "shoulder_lift_joint": -2.126789852344167,
            "shoulder_pan_joint": -0.03513704404078235,
            "wrist_1_joint": -2.347782403156801,
            "wrist_2_joint": -1.6058999987535132,
            "wrist_3_joint": -3.0880379163319196
        }
    },
    "waypoints": [
        {
            "positions": [
                -0.03513704404078235,
                -2.126789852344167,
                -1.8275523626775212,
                -2.347782403156801,
                -1.6058999987535132,
                -3.0880379163319196
            ]
        },
        {
            "positions": [
                -0.051849310408274146,
                -2.142314749643588,
                -1.7471966899930276,
                -2.4172310422286074,
                -1.4267752547525416,
                -3.0856774564067733
            ]
        },
        {
            "positions": [
                -0.06856157677576594,
                -2.157839646943009,
                -1.666841017308534,
                -2.4866796813004144,
                -1.2476505107515699,
                -3.083316996481627
            ]
        },
        {
            "positions": [
                -0.08527384314325773,
                -2.17336454424243,
                -1.5864853446240403,
                -2.556128320372221,
                -1.0685257667505983,
                -3.080956536556481
            ]
        },
        {
            "positions": [
                -0.10198610951074952,
                -2.1888894415418507,
                -1.5061296719395467,
                -2.625576959444028,
                -0.8894010227496266,
                -3.0785960766313347
            ]
        },
        {
            "positions": [
                -0.11869837587824131,
                -2.204414338841272,
                -1.4257739992550533,
                -2.6950255985158345,
                -0.710276278748655,
                -3.0762356167061884
            ]
        },
        {
            "positions": [
                -0.13541064224573313,
                -2.219939236140693,
                -1.3454183265705597,
                -2.764474237587641,
                -0.5311515347476834,
                -3.0738751567810425
            ]
        },
        {
            "positions": [
                -0.15212290861322492,
                -2.235464133440114,
                -1.265062653886066,
                -2.833922876659448,
                -0.3520267907467116,
                -3.071514696855896
            ]
        },
        {
            "positions": [
                -0.1688351749807167,
                -2.250989030739535,
                -1.1847069812015725,
                -2.9033715157312545,
                -0.17290204674574008,
                -3.06915423693075
            ]
        }
    ]
}