{
    "goal": {
        "global_pose": {
            "orientation": {
                "w": 0.005598929693374612,
                "x": 0.007748599140229565,
                "y": 0.7110244013736278,
                "z": -0.7031023480610252
            },
            "position": {
                "x": 0.1141497679147869,
                "y": -0.7141253447532654,
                "z": 0.3711530566215515
            }
        },
        "name": "move_to_auspresseinheit_B"
    },
    "id": "ProjEST_move_to_auspresseinheit_B_135",
    "joint_names": [
        "shoulder_pan_joint",
        "shoulder_lift_joint",
        "elbow_joint",
        "wrist_1_joint",
        "wrist_2_joint",
        "wrist_3_joint"
    ],
    "metrics": {
        "cart_traj_len": 0.5648616510693207,
        "distance_elbow_joint": 0.06173845971174541,
        "distance_shoulder_lift_joint": 0.29466505936378584,
        "distance_shoulder_pan_joint": 0.5753592124519329,
        "distance_wrist_1_joint": 0.3176773108028407,
        "distance_wrist_2_joint": 1.0001693245940446,
        "distance_wrist_3_joint": 0.0057839504884062976,
        "smoothness": 5.075305255429287e-16,
        "time": 0.016505738,
        "traj_len": 1.5017966964315628,
        "weighted_distance": 1.893358881402692
    },
    "planner": "ProjEST",
    "start": {
        "state": {
            "elbow_joint": 2.0193083361928714,
            "shoulder_lift_joint": -1.1220246554650708,
            "shoulder_pan_joint": -1.0952077554168747,
            "wrist_1_joint": -0.8559753972642168,
            "wrist_2_joint": 0.4759566250798843,
            "wrist_3_joint": -3.1240929996934557
        }
    },
    "waypoints": [
        {
            "positions": [
                -1.0952077554168747,
                -1.1220246554650708,
                2.0193083361928714,
                -0.8559753972642168,
                0.4759566250798843,
                -3.1240929996934557
            ]
        },
        {
            "positions": [
                -1.1911009574921967,
                -1.1711354986923683,
                2.0090185929075806,
                -0.8030291787970767,
                0.6426515125122251,
                -3.1250569914415234
            ]
        },
        {
            "positions": [
                -1.286994159567519,
                -1.220246341919666,
                1.9987288496222897,
                -0.7500829603299366,
                0.8093463999445658,
                -3.126020983189591
            ]
        },
        {
            "positions": [
                -1.3828873616428412,
                -1.2693571851469638,
                1.9884391063369988,
                -0.6971367418627965,
                0.9760412873769067,
                -3.126984974937659
            ]
        },
        {
            "positions": [
                -1.4787805637181632,
                -1.3184680283742614,
                1.9781493630517077,
                -0.6441905233956564,
                1.1427361748092473,
                -3.1279489666857265
            ]
        },
        {
            "positions": [
                -1.5746737657934853,
                -1.3675788716015589,
                1.9678596197664169,
                -0.5912443049285162,
                1.3094310622415881,
                -3.1289129584337942
            ]
        },
        {
            "positions": [
                -1.6705669678688075,
                -1.4166897148288566,
                1.957569876481126,
                -0.5382980864613761,
                1.476125949673929,
                -3.129876950181862
            ]
        }
    ]
}