{
    "goal": {
        "global_pose": {
            "orientation": {
                "w": 0.5084816262002911,
                "x": -0.4908360881923452,
                "y": 0.5182115481033761,
                "z": -0.48164630358495003
            },
            "position": {
                "x": 0.5540239810943604,
                "y": -0.46912469901144505,
                "z": 0.16403168439865112
            }
        },
        "name": "move_to_storage_B"
    },
    "id": "ProjEST_move_to_storage_B_110",
    "joint_names": [
        "shoulder_pan_joint",
        "shoulder_lift_joint",
        "elbow_joint",
        "wrist_1_joint",
        "wrist_2_joint",
        "wrist_3_joint"
    ],
    "metrics": {
        "cart_traj_len": 1.494051734702869,
        "distance_elbow_joint": 0.4545635165814286,
        "distance_shoulder_lift_joint": 0.4608936172621818,
        "distance_shoulder_pan_joint": 1.470375804509198,
        "distance_wrist_1_joint": 3.0088458540972547,
        "distance_wrist_2_joint": 2.708681757812786,
        "distance_wrist_3_joint": 3.1557485403092693,
        "smoothness": 0.12442037368044306,
        "time": 0.119001322,
        "traj_len": 3.3554595945372547,
        "weighted_distance": 4.825778049506701
    },
    "planner": "ProjEST",
    "start": {
        "state": {
            "elbow_joint": 1.664937868594044,
            "shoulder_lift_joint": -0.661644460510453,
            "shoulder_pan_joint": -0.9139846352900073,
            "wrist_1_joint": 2.146753192139373,
            "wrist_2_joint": -2.2341966793290973,
            "wrist_3_joint": 0.005466555786416001
        }
    },
    "waypoints": [
        {
            "positions": [
                -0.9139846352900073,
                -0.661644460510453,
                1.664937868594044,
                2.146753192139373,
                -2.2341966793290973,
                0.005466555786416001
            ]
        },
        {
            "positions": [
                -0.8065512744402024,
                -0.7255988880184707,
                1.6566356571424268,
                2.137869485021746,
                -2.1257344203576403,
                0.09183866928760184
            ]
        },
        {
            "positions": [
                -0.6991179135903974,
                -0.7895533155264884,
                1.6483334456908099,
                2.128985777904119,
                -2.0172721613861833,
                0.17821078278878769
            ]
        },
        {
            "positions": [
                -0.5916845527405925,
                -0.8535077430345063,
                1.6400312342391927,
                2.1201020707864924,
                -1.9088099024147265,
                0.26458289628997356
            ]
        },
        {
            "positions": [
                -0.4842511918907876,
                -0.917462170542524,
                1.6317290227875756,
                2.1112183636688653,
                -1.8003476434432697,
                0.3509550097911594
            ]
        },
        {
            "positions": [
                -0.37681783104098265,
                -0.9814165980505418,
                1.6234268113359587,
                2.102334656551238,
                -1.6918853844718127,
                0.43732712329234524
            ]
        },
        {
            "positions": [
                -0.2693844701911777,
                -1.0453710255585595,
                1.6151245998843415,
                2.093450949433611,
                -1.5834231255003557,
                0.523699236793531
            ]
        },
        {
            "positions": [
                -0.30528775886119375,
                -1.0487261147852585,
                1.6327224367483297,
                1.9649490532861549,
                -1.493948855761919,
                0.6383738393718855
            ]
        },
        {
            "positions": [
                -0.34119104753120977,
                -1.0520812040119574,
                1.6503202736123177,
                1.8364471571386987,
                -1.4044745860234822,
                0.7530484419502401
            ]
        },
        {
            "positions": [
                -0.3770943362012258,
                -1.0554362932386563,
                1.667918110476306,
                1.7079452609912424,
                -1.3150003162850457,
                0.8677230445285946
            ]
        },
        {
            "positions": [
                -0.41299762487124175,
                -1.0587913824653552,
                1.6855159473402939,
                1.5794433648437862,
                -1.2255260465466087,
                0.9823976471069491
            ]
        },
        {
            "positions": [
                -0.4489009135412578,
                -1.0621464716920541,
                1.703113784204282,
                1.45094146869633,
                -1.1360517768081722,
                1.0970722496853036
            ]
        },
        {
            "positions": [
                -0.4848042022112738,
                -1.065501560918753,
                1.72071162106827,
                1.3224395725488738,
                -1.0465775070697354,
                1.211746852263658
            ]
        },
        {
            "positions": [
                -0.5207074908812899,
                -1.068856650145452,
                1.7383094579322582,
                1.1939376764014176,
                -0.9571032373312985,
                1.3264214548420128
            ]
        },
        {
            "positions": [
                -0.5566107795513058,
                -1.0722117393721509,
                1.7559072947962462,
                1.0654357802539616,
                -0.8676289675928619,
                1.441096057420367
            ]
        },
        {
            "positions": [
                -0.5925140682213219,
                -1.0755668285988498,
                1.7735051316602344,
                0.9369338841065054,
                -0.7781546978544251,
                1.5557706599987218
            ]
        },
        {
            "positions": [
                -0.6284173568913378,
                -1.0789219178255487,
                1.7911029685242226,
                0.8084319879590491,
                -0.6886804281159885,
                1.670445262577076
            ]
        },
        {
            "positions": [
                -0.6643206455613538,
                -1.0822770070522476,
                1.8087008053882105,
                0.6799300918115929,
                -0.5992061583775518,
                1.7851198651554308
            ]
        },
        {
            "positions": [
                -0.7002239342313699,
                -1.0856320962789467,
                1.8262986422521987,
                0.5514281956641367,
                -0.5097318886391151,
                1.899794467733785
            ]
        },
        {
            "positions": [
                -0.7361272229013858,
                -1.0889871855056457,
                1.8438964791161867,
                0.4229262995166807,
                -0.42025761890067836,
                2.0144690703121397
            ]
        },
        {
            "positions": [
                -0.7720305115714019,
                -1.0923422747323446,
                1.861494315980175,
                0.29442440336922426,
                -0.3307833491622414,
                2.1291436728904944
            ]
        },
        {
            "positions": [
                -0.8079338002414179,
                -1.0956973639590435,
                1.879092152844163,
                0.16592250722176805,
                -0.24130907942380486,
                2.2438182754688487
            ]
        },
        {
            "positions": [
                -0.8438370889114338,
                -1.0990524531857424,
                1.896689989708151,
                0.03742061107431205,
                -0.1518348096853681,
                2.3584928780472034
            ]
        },
        {
            "positions": [
                -0.8797403775814499,
                -1.1024075424124413,
                1.914287826572139,
                -0.09108128507314417,
                -0.06236053994693158,
                2.4731674806255577
            ]
        },
        {
            "positions": [
                -0.915643666251466,
                -1.1057626316391402,
                1.9318856634361272,
                -0.2195831812206004,
                0.027113729791505392,
                2.5878420832039124
            ]
        },
        {
            "positions": [
                -0.9515469549214819,
                -1.1091177208658392,
                1.9494835003001154,
                -0.3480850773680566,
                0.11658799952994214,
                2.702516685782267
            ]
        },
        {
            "positions": [
                -0.9874502435914979,
                -1.112472810092538,
                1.9670813371641034,
                -0.4765869735155128,
                0.20606226926837867,
                2.8171912883606214
            ]
        },
        {
            "positions": [
                -1.023353532261514,
                -1.115827899319237,
                1.9846791740280916,
                -0.605088869662969,
                0.2955365390068154,
                2.931865890938976
            ]
        },
        {
            "positions": [
                -1.0592568209315298,
                -1.119182988545936,
                2.0022770108920795,
                -0.7335907658104253,
                0.3850108087452522,
                3.046540493517331
            ]
        },
        {
            "positions": [
                -1.095160109601546,
                -1.1225380777726348,
                2.0198748477560677,
                -0.8620926619578815,
                0.474485078483689,
                3.161215096095685
            ]
        }
    ]
}