{
    "goal": {
        "global_pose": {
            "orientation": {
                "w": -0.4816463035849501,
                "x": 0.5182115481033762,
                "y": 0.4908360881923453,
                "z": -0.5084816262002911
            },
            "position": {
                "x": -0.8240239810943604,
                "y": -0.300875300988555,
                "z": 0.16403168439865112
            }
        },
        "name": "move_to_storage_C"
    },
    "id": "ProjEST_move_to_storage_C_117",
    "joint_names": [
        "shoulder_pan_joint",
        "shoulder_lift_joint",
        "elbow_joint",
        "wrist_1_joint",
        "wrist_2_joint",
        "wrist_3_joint"
    ],
    "metrics": {
        "cart_traj_len": 0.5767071716639065,
        "distance_elbow_joint": 0.25655645800711935,
        "distance_shoulder_lift_joint": 0.18781356881422984,
        "distance_shoulder_pan_joint": 0.49647609415624405,
        "distance_wrist_1_joint": 0.07941487190739738,
        "distance_wrist_2_joint": 1.060182081387115,
        "distance_wrist_3_joint": 0.05901675846606924,
        "smoothness": 0.0,
        "time": 0.161600126,
        "traj_len": 1.4626892468115622,
        "weighted_distance": 1.8431197201931366
    },
    "planner": "ProjEST",
    "start": {
        "state": {
            "elbow_joint": 2.010868314990456,
            "shoulder_lift_joint": -1.1634956873337592,
            "shoulder_pan_joint": -2.4736205022346125,
            "wrist_1_joint": -0.8367026794202681,
            "wrist_2_joint": 0.6746043897044499,
            "wrist_3_joint": -3.1496632123970403
        }
    },
    "waypoints": [
        {
            "positions": [
                -2.4736205022346125,
                -1.1634956873337592,
                2.010868314990456,
                -0.8367026794202681,
                0.6746043897044499,
                -3.1496632123970403
            ]
        },
        {
            "positions": [
                -2.55636651792732,
                -1.1321934258647208,
                1.9681089053226026,
                -0.8234668674357019,
                0.8513014032689691,
                -3.139827085986029
            ]
        },
        {
            "positions": [
                -2.639112533620027,
                -1.1008911643956827,
                1.9253494956547494,
                -0.8102310554511356,
                1.0279984168334884,
                -3.129990959575017
            ]
        },
        {
            "positions": [
                -2.7218585493127345,
                -1.0695889029266443,
                1.8825900859868963,
                -0.7969952434665695,
                1.2046954303980075,
                -3.1201548331640057
            ]
        },
        {
            "positions": [
                -2.804604565005442,
                -1.038286641457606,
                1.8398306763190428,
                -0.7837594314820032,
                1.3813924439625267,
                -3.1103187067529943
            ]
        },
        {
            "positions": [
                -2.887350580698149,
                -1.0069843799885676,
                1.7970712666511897,
                -0.770523619497437,
                1.5580894575270459,
                -3.1004825803419824
            ]
        },
        {
            "positions": [
                -2.9700965963908565,
                -0.9756821185195294,
                1.7543118569833365,
                -0.7572878075128707,
                1.734786471091565,
                -3.090646453930971
            ]
        }
    ]
}