{
    "goal": {
        "global_pose": {
            "orientation": {
                "w": 0.005598929693374612,
                "x": 0.007748599140229565,
                "y": 0.7110244013736278,
                "z": -0.7031023480610252
            },
            "position": {
                "x": 0.1141497679147869,
                "y": -0.7141253447532654,
                "z": 0.3711530566215515
            }
        },
        "name": "move_to_auspresseinheit_B"
    },
    "id": "ProjEST_move_to_auspresseinheit_B_83",
    "joint_names": [
        "shoulder_pan_joint",
        "shoulder_lift_joint",
        "elbow_joint",
        "wrist_1_joint",
        "wrist_2_joint",
        "wrist_3_joint"
    ],
    "metrics": {
        "cart_traj_len": 0.5639360675715619,
        "distance_elbow_joint": 0.06117685494762348,
        "distance_shoulder_lift_joint": 0.29397539678009665,
        "distance_shoulder_pan_joint": 0.5770933068211672,
        "distance_wrist_1_joint": 0.3210556792622853,
        "distance_wrist_2_joint": 0.9887104072485711,
        "distance_wrist_3_joint": 0.004498717174721278,
        "smoothness": 2.5376526478085547e-16,
        "time": 0.024733553,
        "traj_len": 1.498836336040218,
        "weighted_distance": 1.8881932854172434
    },
    "planner": "ProjEST",
    "start": {
        "state": {
            "elbow_joint": 2.0193083361928714,
            "shoulder_lift_joint": -1.1220246554650708,
            "shoulder_pan_joint": -1.0952077554168747,
            "wrist_1_joint": -0.8559753972642168,
            "wrist_2_joint": 0.4759566250798843,
            "wrist_3_joint": -3.1240929996934557
        }
    },
    "waypoints": [
        {
            "positions": [
                -1.0952077554168747,
                -1.1220246554650708,
                2.0193083361928714,
                -0.8559753972642168,
                0.4759566250798843,
                -3.1240929996934557
            ]
        },
        {
            "positions": [
                -1.1913899732204025,
                -1.1710205549284203,
                2.009112193701601,
                -0.8024661173871692,
                0.6407416929546461,
                -3.1248427858892427
            ]
        },
        {
            "positions": [
                -1.2875721910239304,
                -1.2200164543917698,
                1.9989160512103303,
                -0.7489568375101217,
                0.8055267608294079,
                -3.1255925720850293
            ]
        },
        {
            "positions": [
                -1.3837544088274583,
                -1.269012353855119,
                1.9887199087190597,
                -0.6954475576330741,
                0.9703118287041699,
                -3.1263423582808163
            ]
        },
        {
            "positions": [
                -1.4799366266309861,
                -1.3180082533184685,
                1.978523766227789,
                -0.6419382777560266,
                1.1350968965789316,
                -3.1270921444766033
            ]
        },
        {
            "positions": [
                -1.576118844434514,
                -1.367004152781818,
                1.9683276237365186,
                -0.588428997878979,
                1.2998819644536936,
                -3.12784193067239
            ]
        },
        {
            "positions": [
                -1.6723010622380419,
                -1.4160000522451675,
                1.958131481245248,
                -0.5349197180019315,
                1.4646670323284554,
                -3.128591716868177
            ]
        }
    ]
}