{
    "goal": {
        "global_pose": {
            "orientation": {
                "w": 0.5084816262002911,
                "x": -0.4908360881923452,
                "y": 0.5182115481033761,
                "z": -0.48164630358495003
            },
            "position": {
                "x": 0.5540239810943604,
                "y": -0.46912469901144505,
                "z": 0.16403168439865112
            }
        },
        "name": "move_to_storage_B"
    },
    "id": "ProjEST_move_to_storage_B_55",
    "joint_names": [
        "shoulder_pan_joint",
        "shoulder_lift_joint",
        "elbow_joint",
        "wrist_1_joint",
        "wrist_2_joint",
        "wrist_3_joint"
    ],
    "metrics": {
        "cart_traj_len": 3.522820225458971,
        "distance_elbow_joint": 1.79641734300669,
        "distance_shoulder_lift_joint": 1.0802932986752585,
        "distance_shoulder_pan_joint": 3.528921462655588,
        "distance_wrist_1_joint": 2.984426088563434,
        "distance_wrist_2_joint": 3.0021901111605835,
        "distance_wrist_3_joint": 3.1392575830059783,
        "smoothness": 0.2819791437049959,
        "time": 0.092753571,
        "traj_len": 3.9410031574546514,
        "weighted_distance": 5.272251630262303
    },
    "planner": "ProjEST",
    "start": {
        "state": {
            "elbow_joint": 1.664937868594044,
            "shoulder_lift_joint": -0.661644460510453,
            "shoulder_pan_joint": -0.9139846352900073,
            "wrist_1_joint": 2.146753192139373,
            "wrist_2_joint": -2.2341966793290973,
            "wrist_3_joint": 0.005466555786416001
        }
    },
    "waypoints": [
        {
            "positions": [
                -0.9139846352900073,
                -0.661644460510453,
                1.664937868594044,
                2.146753192139373,
                -2.2341966793290973,
                0.005466555786416001
            ]
        },
        {
            "positions": [
                -0.8774034007909256,
                -0.6870663006338462,
                1.6590359519228082,
                2.1483083975469786,
                -2.22826508527974,
                0.007142946790021195
            ]
        },
        {
            "positions": [
                -0.802992537378417,
                -0.7209148306650951,
                1.626410716797232,
                2.0654724272198566,
                -2.107986882124744,
                -0.02799531915383786
            ]
        },
        {
            "positions": [
                -0.7285816739659084,
                -0.7547633606963441,
                1.593785481671656,
                1.9826364568927342,
                -1.9877086789697473,
                -0.06313358509769691
            ]
        },
        {
            "positions": [
                -0.6541708105533999,
                -0.788611890727593,
                1.5611602465460797,
                1.8998004865656122,
                -1.867430475814751,
                -0.09827185104155596
            ]
        },
        {
            "positions": [
                -0.5797599471408914,
                -0.822460420758842,
                1.5285350114205034,
                1.8169645162384898,
                -1.7471522726597546,
                -0.13341011698541502
            ]
        },
        {
            "positions": [
                -0.5053490837283827,
                -0.8563089507900908,
                1.4959097762949274,
                1.7341285459113678,
                -1.6268740695047583,
                -0.16854838292927407
            ]
        },
        {
            "positions": [
                -0.43093822031587425,
                -0.8901574808213397,
                1.4632845411693511,
                1.6512925755842456,
                -1.506595866349762,
                -0.20368664887313312
            ]
        },
        {
            "positions": [
                -0.3565273569033657,
                -0.9240060108525887,
                1.4306593060437751,
                1.5684566052571234,
                -1.3863176631947658,
                -0.23882491481699217
            ]
        },
        {
            "positions": [
                -0.2821164934908571,
                -0.9578545408838376,
                1.3980340709181989,
                1.4856206349300012,
                -1.2660394600397693,
                -0.27396318076085124
            ]
        },
        {
            "positions": [
                -0.2077056300783484,
                -0.9917030709150865,
                1.3654088357926226,
                1.402784664602879,
                -1.1457612568847728,
                -0.3091014467047103
            ]
        },
        {
            "positions": [
                -0.13329476666583995,
                -1.0255516009463355,
                1.3327836006670466,
                1.319948694275757,
                -1.0254830537297768,
                -0.34423971264856934
            ]
        },
        {
            "positions": [
                -0.05888390325333137,
                -1.0594001309775845,
                1.3001583655414704,
                1.2371127239486346,
                -0.9052048505747803,
                -0.3793779785924284
            ]
        },
        {
            "positions": [
                0.015526960159177094,
                -1.0932486610088332,
                1.2675331304158943,
                1.1542767536215126,
                -0.784926647419784,
                -0.41451624453628744
            ]
        },
        {
            "positions": [
                0.08993782357168578,
                -1.1270971910400822,
                1.234907895290318,
                1.0714407832943904,
                -0.6646484442647875,
                -0.44965451048014654
            ]
        },
        {
            "positions": [
                0.16434868698419425,
                -1.160945721071331,
                1.2022826601647418,
                0.9886048129672682,
                -0.5443702411097913,
                -0.48479277642400553
            ]
        },
        {
            "positions": [
                0.2387595503967027,
                -1.19479425110258,
                1.1696574250391656,
                0.905768842640146,
                -0.424092037954795,
                -0.5199310423678646
            ]
        },
        {
            "positions": [
                0.3131704138092114,
                -1.228642781133829,
                1.1370321899135896,
                0.8229328723130238,
                -0.3038138347997985,
                -0.5550693083117237
            ]
        },
        {
            "positions": [
                0.3875812772217201,
                -1.262491311165078,
                1.1044069547880133,
                0.7400969019859016,
                -0.18353563164480224,
                -0.5902075742555828
            ]
        },
        {
            "positions": [
                0.4619921406342288,
                -1.296339841196327,
                1.0717817196624373,
                0.6572609316587794,
                -0.06325742848980553,
                -0.6253458401994418
            ]
        },
        {
            "positions": [
                0.5364030040467372,
                -1.3301883712275757,
                1.039156484536861,
                0.5744249613316574,
                0.05702077466519073,
                -0.6604841061433009
            ]
        },
        {
            "positions": [
                0.6108138674592457,
                -1.3640369012588245,
                1.0065312494112848,
                0.49158899100453524,
                0.17729897782018655,
                -0.6956223720871599
            ]
        },
        {
            "positions": [
                0.6852247308717544,
                -1.3978854312900735,
                0.9739060142857087,
                0.40875302067741304,
                0.29757718097518326,
                -0.730760638031019
            ]
        },
        {
            "positions": [
                0.7596355942842629,
                -1.4317339613213225,
                0.9412807791601325,
                0.32591705035029084,
                0.41785538413017964,
                -0.765898903974878
            ]
        },
        {
            "positions": [
                0.681081366194988,
                -1.4231101440366827,
                0.9803581172444655,
                0.23662220220555502,
                0.45800286497958925,
                -0.8832480397197964
            ]
        },
        {
            "positions": [
                0.6025271381057132,
                -1.4144863267520429,
                1.0194354553287985,
                0.14732735406081918,
                0.49815034582899886,
                -1.0005971754647147
            ]
        },
        {
            "positions": [
                0.5239729100164385,
                -1.4058625094674033,
                1.0585127934131315,
                0.05803250591608339,
                0.5382978266784085,
                -1.117946311209633
            ]
        },
        {
            "positions": [
                0.4454186819271636,
                -1.3972386921827635,
                1.0975901314974645,
                -0.031262342228652484,
                0.5784453075278182,
                -1.2352954469545514
            ]
        },
        {
            "positions": [
                0.36686445383788885,
                -1.3886148748981237,
                1.1366674695817975,
                -0.12055719037338827,
                0.6185927883772278,
                -1.3526445826994697
            ]
        },
        {
            "positions": [
                0.26239801864967865,
                -1.3695373955094672,
                1.1993370098068772,
                -0.1715575686044925,
                0.6079213138447807,
                -1.4796298443075329
            ]
        },
        {
            "positions": [
                0.15793158346146843,
                -1.3504599161208108,
                1.2620065500319566,
                -0.2225579468355967,
                0.5972498393123337,
                -1.6066151059155958
            ]
        },
        {
            "positions": [
                0.05346514827325821,
                -1.3313824367321545,
                1.3246760902570363,
                -0.27355832506670097,
                0.5865783647798866,
                -1.7336003675236586
            ]
        },
        {
            "positions": [
                -0.05100128691495198,
                -1.312304957343498,
                1.3873456304821157,
                -0.3245587032978052,
                0.5759068902474396,
                -1.8605856291317218
            ]
        },
        {
            "positions": [
                -0.15546772210316223,
                -1.2932274779548414,
                1.4500151707071953,
                -0.3755590815289094,
                0.5652354157149925,
                -1.9875708907397849
            ]
        },
        {
            "positions": [
                -0.2599341572913724,
                -1.274149998566185,
                1.5126847109322747,
                -0.42655945976001364,
                0.5545639411825454,
                -2.1145561523478476
            ]
        },
        {
            "positions": [
                -0.3644005924795826,
                -1.2550725191775287,
                1.5753542511573544,
                -0.4775598379911179,
                0.5438924666500984,
                -2.241541413955911
            ]
        },
        {
            "positions": [
                -0.4688670276677928,
                -1.2359950397888722,
                1.6380237913824338,
                -0.528560216222222,
                0.5332209921176513,
                -2.368526675563974
            ]
        },
        {
            "positions": [
                -0.5733334628560032,
                -1.2169175604002156,
                1.7006933316075137,
                -0.5795605944533263,
                0.5225495175852042,
                -2.4955119371720373
            ]
        },
        {
            "positions": [
                -0.6777998980442133,
                -1.1978400810115593,
                1.763362871832593,
                -0.6305609726844306,
                0.5118780430527572,
                -2.6224971987801
            ]
        },
        {
            "positions": [
                -0.7822663332324233,
                -1.178762601622903,
                1.8260324120576725,
                -0.6815613509155348,
                0.5012065685203101,
                -2.7494824603881627
            ]
        },
        {
            "positions": [
                -0.8867327684206336,
                -1.1596851222342464,
                1.888701952282752,
                -0.732561729146639,
                0.4905350939878631,
                -2.876467721996226
            ]
        },
        {
            "positions": [
                -0.991199203608844,
                -1.1406076428455898,
                1.9513714925078318,
                -0.7835621073777432,
                0.479863619455416,
                -3.003452983604289
            ]
        },
        {
            "positions": [
                -1.095665638797054,
                -1.1215301634569335,
                2.0140410327329112,
                -0.8345624856088475,
                0.46919214492296896,
                -3.130438245212352
            ]
        }
    ]
}