{
    "goal": {
        "global_pose": {
            "orientation": {
                "w": 0.5084816262002911,
                "x": -0.4908360881923452,
                "y": 0.5182115481033761,
                "z": -0.48164630358495003
            },
            "position": {
                "x": 0.5540239810943604,
                "y": -0.46912469901144505,
                "z": 0.16403168439865112
            }
        },
        "name": "move_to_storage_B"
    },
    "id": "ProjEST_move_to_storage_B_146",
    "joint_names": [
        "shoulder_pan_joint",
        "shoulder_lift_joint",
        "elbow_joint",
        "wrist_1_joint",
        "wrist_2_joint",
        "wrist_3_joint"
    ],
    "metrics": {
        "cart_traj_len": 2.3422393287693843,
        "distance_elbow_joint": 0.4787381891367044,
        "distance_shoulder_lift_joint": 1.6212465348655034,
        "distance_shoulder_pan_joint": 2.305943619119698,
        "distance_wrist_1_joint": 2.9818344303653195,
        "distance_wrist_2_joint": 3.520982976001041,
        "distance_wrist_3_joint": 3.140270154030616,
        "smoothness": 0.28501594514868667,
        "time": 0.177342023,
        "traj_len": 3.7482016892796577,
        "weighted_distance": 5.17999745346911
    },
    "planner": "ProjEST",
    "start": {
        "state": {
            "elbow_joint": 1.664937868594044,
            "shoulder_lift_joint": -0.661644460510453,
            "shoulder_pan_joint": -0.9139846352900073,
            "wrist_1_joint": 2.146753192139373,
            "wrist_2_joint": -2.2341966793290973,
            "wrist_3_joint": 0.005466555786416001
        }
    },
    "waypoints": [
        {
            "positions": [
                -0.9139846352900073,
                -0.661644460510453,
                1.664937868594044,
                2.146753192139373,
                -2.2341966793290973,
                0.005466555786416001
            ]
        },
        {
            "positions": [
                -0.8656839829217008,
                -0.7089205971225673,
                1.6620103104390669,
                2.0378102669361824,
                -2.092527950862436,
                0.047480334073317754
            ]
        },
        {
            "positions": [
                -0.8173833305533943,
                -0.7561967337346815,
                1.6590827522840896,
                1.9288673417329911,
                -1.9508592223957748,
                0.08949411236021951
            ]
        },
        {
            "positions": [
                -0.7690826781850878,
                -0.8034728703467957,
                1.6561551941291124,
                1.8199244165298003,
                -1.8091904939291135,
                0.13150789064712123
            ]
        },
        {
            "positions": [
                -0.7207820258167813,
                -0.85074900695891,
                1.6532276359741354,
                1.710981491326609,
                -1.6675217654624523,
                0.17352166893402302
            ]
        },
        {
            "positions": [
                -0.6724813734484748,
                -0.8980251435710243,
                1.6503000778191583,
                1.6020385661234182,
                -1.525853036995791,
                0.21553544722092474
            ]
        },
        {
            "positions": [
                -0.6241807210801683,
                -0.9453012801831384,
                1.647372519664181,
                1.4930956409202272,
                -1.3841843085291297,
                0.2575492255078265
            ]
        },
        {
            "positions": [
                -0.5758800687118618,
                -0.9925774167952527,
                1.6444449615092038,
                1.3841527157170361,
                -1.2425155800624683,
                0.2995630037947283
            ]
        },
        {
            "positions": [
                -0.5275794163435553,
                -1.039853553407367,
                1.6415174033542268,
                1.2752097905138449,
                -1.1008468515958072,
                0.34157678208163006
            ]
        },
        {
            "positions": [
                -0.4792787639752488,
                -1.0871296900194811,
                1.6385898451992498,
                1.166266865310654,
                -0.9591781231291459,
                0.38359056036853184
            ]
        },
        {
            "positions": [
                -0.4309781116069423,
                -1.1344058266315953,
                1.6356622870442725,
                1.057323940107463,
                -0.8175093946624847,
                0.4256043386554335
            ]
        },
        {
            "positions": [
                -0.38267745923863583,
                -1.1816819632437097,
                1.6327347288892953,
                0.948381014904272,
                -0.6758406661958234,
                0.4676181169423353
            ]
        },
        {
            "positions": [
                -0.33437680687032934,
                -1.2289580998558238,
                1.6298071707343182,
                0.8394380897010811,
                -0.5341719377291623,
                0.5096318952292369
            ]
        },
        {
            "positions": [
                -0.28607615450202284,
                -1.2762342364679382,
                1.6268796125793412,
                0.7304951644978899,
                -0.3925032092625007,
                0.5516456735161388
            ]
        },
        {
            "positions": [
                -0.23777550213371634,
                -1.3235103730800524,
                1.623952054424364,
                0.6215522392946988,
                -0.2508344807958396,
                0.5936594518030405
            ]
        },
        {
            "positions": [
                -0.18947484976540985,
                -1.3707865096921665,
                1.6210244962693867,
                0.512609314091508,
                -0.10916575232917847,
                0.6356732300899421
            ]
        },
        {
            "positions": [
                -0.14117419739710335,
                -1.418062646304281,
                1.6180969381144097,
                0.40366638888831674,
                0.032502976137482875,
                0.677687008376844
            ]
        },
        {
            "positions": [
                -0.09287354502879686,
                -1.465338782916395,
                1.6151693799594327,
                0.2947234636851259,
                0.17417170460414422,
                0.7197007866637457
            ]
        },
        {
            "positions": [
                -0.04457289266049036,
                -1.5126149195285095,
                1.6122418218044554,
                0.18578053848193465,
                0.31584043307080556,
                0.7617145649506476
            ]
        },
        {
            "positions": [
                0.003727759707816136,
                -1.5598910561406236,
                1.6093142636494782,
                0.07683761327874361,
                0.4575091615374669,
                0.8037283432375493
            ]
        },
        {
            "positions": [
                0.05202841207612263,
                -1.6071671927527378,
                1.6063867054945011,
                -0.03210531192444721,
                0.5991778900041278,
                0.8457421215244509
            ]
        },
        {
            "positions": [
                0.10032906444442913,
                -1.6544433293648522,
                1.603459147339524,
                -0.14104823712763848,
                0.7408466184707891,
                0.8877558998113528
            ]
        },
        {
            "positions": [
                0.14862971681273562,
                -1.7017194659769663,
                1.6005315891845469,
                -0.24999116233082913,
                0.8825153469374507,
                0.9297696780982545
            ]
        },
        {
            "positions": [
                0.05982048345438171,
                -1.6602072138770385,
                1.6301267255936331,
                -0.2917833106090516,
                0.8536388505278442,
                1.0880530375067385
            ]
        },
        {
            "positions": [
                -0.02898874990397221,
                -1.6186949617771107,
                1.6597218620027194,
                -0.33357545888727413,
                0.8247623541182375,
                1.2463363969152228
            ]
        },
        {
            "positions": [
                -0.1177979832623261,
                -1.5771827096771827,
                1.6893169984118055,
                -0.3753676071654966,
                0.795885857708631,
                1.4046197563237068
            ]
        },
        {
            "positions": [
                -0.20660721662068005,
                -1.5356704575772548,
                1.7189121348208918,
                -0.4171597554437191,
                0.7670093612990244,
                1.5629031157321909
            ]
        },
        {
            "positions": [
                -0.295416449979034,
                -1.494158205477327,
                1.748507271229978,
                -0.4589519037219416,
                0.7381328648894178,
                1.7211864751406751
            ]
        },
        {
            "positions": [
                -0.3842256833373878,
                -1.4526459533773992,
                1.7781024076390644,
                -0.500744052000164,
                0.7092563684798112,
                1.8794698345491594
            ]
        },
        {
            "positions": [
                -0.4730349166957418,
                -1.4111337012774712,
                1.8076975440481506,
                -0.5425362002783867,
                0.6803798720702046,
                2.037753193957643
            ]
        },
        {
            "positions": [
                -0.5618441500540957,
                -1.3696214491775434,
                1.8372926804572367,
                -0.5843283485566091,
                0.651503375660598,
                2.1960365533661275
            ]
        },
        {
            "positions": [
                -0.6506533834124497,
                -1.3281091970776155,
                1.866887816866323,
                -0.6261204968348316,
                0.6226268792509915,
                2.3543199127746117
            ]
        },
        {
            "positions": [
                -0.7394626167708036,
                -1.2865969449776877,
                1.8964829532754093,
                -0.6679126451130541,
                0.5937503828413848,
                2.512603272183096
            ]
        },
        {
            "positions": [
                -0.8282718501291575,
                -1.24508469287776,
                1.9260780896844953,
                -0.7097047933912766,
                0.5648738864317783,
                2.6708866315915802
            ]
        },
        {
            "positions": [
                -0.9170810834875113,
                -1.2035724407778319,
                1.9556732260935816,
                -0.751496941669499,
                0.5359973900221717,
                2.829169991000064
            ]
        },
        {
            "positions": [
                -1.0058903168458655,
                -1.162060188677904,
                1.985268362502668,
                -0.7932890899477216,
                0.5071208936125651,
                2.987453350408548
            ]
        },
        {
            "positions": [
                -1.0946995502042192,
                -1.1205479365779762,
                2.014863498911754,
                -0.835081238225944,
                0.4782443972029585,
                3.145736709817032
            ]
        }
    ]
}