{
    "goal": {
        "global_pose": {
            "orientation": {
                "w": -0.4816463035849501,
                "x": 0.5182115481033762,
                "y": 0.4908360881923453,
                "z": -0.5084816262002911
            },
            "position": {
                "x": -0.8240239810943604,
                "y": -0.300875300988555,
                "z": 0.16403168439865112
            }
        },
        "name": "move_to_storage_C"
    },
    "id": "ProjEST_move_to_storage_C_36",
    "joint_names": [
        "shoulder_pan_joint",
        "shoulder_lift_joint",
        "elbow_joint",
        "wrist_1_joint",
        "wrist_2_joint",
        "wrist_3_joint"
    ],
    "metrics": {
        "cart_traj_len": 0.5762388965192301,
        "distance_elbow_joint": 0.25866679521210556,
        "distance_shoulder_lift_joint": 0.18942374973037268,
        "distance_shoulder_pan_joint": 0.49403624299850657,
        "distance_wrist_1_joint": 0.08503550714312458,
        "distance_wrist_2_joint": 1.0726817264843889,
        "distance_wrist_3_joint": 0.05752828680049582,
        "smoothness": 2.5376526478085547e-16,
        "time": 0.019094643,
        "traj_len": 1.4687996147769764,
        "weighted_distance": 1.852065364828547
    },
    "planner": "ProjEST",
    "start": {
        "state": {
            "elbow_joint": 2.010868314990456,
            "shoulder_lift_joint": -1.1634956873337592,
            "shoulder_pan_joint": -2.4736205022346125,
            "wrist_1_joint": -0.8367026794202681,
            "wrist_2_joint": 0.6746043897044499,
            "wrist_3_joint": -3.1496632123970403
        }
    },
    "waypoints": [
        {
            "positions": [
                -2.4736205022346125,
                -1.1634956873337592,
                2.010868314990456,
                -0.8367026794202681,
                0.6746043897044499,
                -3.1496632123970403
            ]
        },
        {
            "positions": [
                -2.555959876067697,
                -1.1319250623786972,
                1.967757182455105,
                -0.822530094896414,
                0.8533846774518481,
                -3.140075164596958
            ]
        },
        {
            "positions": [
                -2.6382992499007814,
                -1.100354437423635,
                1.924646049919754,
                -0.8083575103725599,
                1.0321649651992462,
                -3.130487116796875
            ]
        },
        {
            "positions": [
                -2.7206386237338656,
                -1.068783812468573,
                1.881534917384403,
                -0.7941849258487058,
                1.2109452529466442,
                -3.1208990689967924
            ]
        },
        {
            "positions": [
                -2.80297799756695,
                -1.0372131875135107,
                1.8384237848490521,
                -0.7800123413248518,
                1.3897255406940423,
                -3.11131102119671
            ]
        },
        {
            "positions": [
                -2.885317371400035,
                -1.0056425625584486,
                1.7953126523137013,
                -0.7658397568009976,
                1.5685058284414408,
                -3.101722973396627
            ]
        },
        {
            "positions": [
                -2.967656745233119,
                -0.9740719376033865,
                1.7522015197783503,
                -0.7516671722771435,
                1.747286116188839,
                -3.0921349255965445
            ]
        }
    ]
}