{
    "goal": {
        "global_pose": {
            "orientation": {
                "w": -0.4816463035849501,
                "x": 0.5182115481033762,
                "y": 0.4908360881923453,
                "z": -0.5084816262002911
            },
            "position": {
                "x": -0.8240239810943604,
                "y": 0.19912469901144506,
                "z": 0.16403168439865112
            }
        },
        "name": "move_to_storage_D"
    },
    "id": "ProjEST_move_to_storage_D_68",
    "joint_names": [
        "shoulder_pan_joint",
        "shoulder_lift_joint",
        "elbow_joint",
        "wrist_1_joint",
        "wrist_2_joint",
        "wrist_3_joint"
    ],
    "metrics": {
        "cart_traj_len": 0.6542438736192265,
        "distance_elbow_joint": 0.8867680274062899,
        "distance_shoulder_lift_joint": 0.15177692952252908,
        "distance_shoulder_pan_joint": 0.15118416066361062,
        "distance_wrist_1_joint": 3.8307001998501544,
        "distance_wrist_2_joint": 1.774358102270945,
        "distance_wrist_3_joint": 3.2037237999621015,
        "smoothness": 0.16450559547299134,
        "time": 0.079100686,
        "traj_len": 3.16204225456834,
        "weighted_distance": 4.691590041949629
    },
    "planner": "ProjEST",
    "start": {
        "state": {
            "elbow_joint": -2.384821988534728,
            "shoulder_lift_joint": -2.2788054721415256,
            "shoulder_pan_joint": -0.1854694642142757,
            "wrist_1_joint": 1.4845938289331202,
            "wrist_2_joint": 0.17898776772866878,
            "wrist_3_joint": 0.037105688729662994
        }
    },
    "waypoints": [
        {
            "positions": [
                -0.1854694642142757,
                -2.2788054721415256,
                -2.384821988534728,
                1.4845938289331202,
                0.17898776772866878,
                0.037105688729662994
            ]
        },
        {
            "positions": [
                -0.15370734803787184,
                -2.24393176097508,
                -2.4671831159413493,
                1.429939249683215,
                0.021000216672386107,
                0.059117826572869306
            ]
        },
        {
            "positions": [
                -0.121945231861468,
                -2.2090580498086343,
                -2.5495442433479707,
                1.37528467043331,
                -0.13698733438389657,
                0.08112996441607562
            ]
        },
        {
            "positions": [
                -0.11829273484851788,
                -2.205640153675733,
                -2.51945900282326,
                1.2202267103770457,
                -0.19775329272382905,
                -0.050524182428744735
            ]
        },
        {
            "positions": [
                -0.11464023783556775,
                -2.202222257542831,
                -2.48937376229855,
                1.0651687503207814,
                -0.2585192510637615,
                -0.1821783292735651
            ]
        },
        {
            "positions": [
                -0.11098774082261763,
                -2.1988043614099295,
                -2.4592885217738396,
                0.9101107902645169,
                -0.319285209403694,
                -0.3138324761183855
            ]
        },
        {
            "positions": [
                -0.10733524380966751,
                -2.195386465277028,
                -2.4292032812491295,
                0.7550528302082526,
                -0.38005116774362646,
                -0.4454866229632058
            ]
        },
        {
            "positions": [
                -0.10368274679671738,
                -2.1919685691441266,
                -2.399118040724419,
                0.5999948701519882,
                -0.44081712608355894,
                -0.5771407698080262
            ]
        },
        {
            "positions": [
                -0.10003024978376726,
                -2.1885506730112247,
                -2.369032800199709,
                0.4449369100957239,
                -0.5015830844234914,
                -0.7087949166528467
            ]
        },
        {
            "positions": [
                -0.09637775277081714,
                -2.1851327768783233,
                -2.3389475596749985,
                0.2898789500394594,
                -0.5623490427634239,
                -0.8404490634976671
            ]
        },
        {
            "positions": [
                -0.09272525575786703,
                -2.181714880745422,
                -2.3088623191502884,
                0.13482098998319536,
                -0.6231150011033564,
                -0.9721032103424871
            ]
        },
        {
            "positions": [
                -0.0890727587449169,
                -2.17829698461252,
                -2.278777078625578,
                -0.020236970073069127,
                -0.6838809594432889,
                -1.1037573571873076
            ]
        },
        {
            "positions": [
                -0.08542026173196676,
                -2.1748790884796185,
                -2.248691838100868,
                -0.17529493012933361,
                -0.7446469177832213,
                -1.235411504032128
            ]
        },
        {
            "positions": [
                -0.08176776471901664,
                -2.171461192346717,
                -2.2186065975761573,
                -0.33035289018559766,
                -0.8054128761231538,
                -1.3670656508769483
            ]
        },
        {
            "positions": [
                -0.07811526770606653,
                -2.168043296213815,
                -2.1885213570514472,
                -0.48541085024186215,
                -0.8661788344630863,
                -1.4987197977217688
            ]
        },
        {
            "positions": [
                -0.07446277069311641,
                -2.1646254000809138,
                -2.1584361165267367,
                -0.6404688102981262,
                -0.9269447928030188,
                -1.630373944566589
            ]
        },
        {
            "positions": [
                -0.07081027368016628,
                -2.1612075039480123,
                -2.1283508760020267,
                -0.7955267703543911,
                -0.9877107511429513,
                -1.7620280914114097
            ]
        },
        {
            "positions": [
                -0.06715777666721616,
                -2.157789607815111,
                -2.098265635477316,
                -0.9505847304106552,
                -1.0484767094828837,
                -1.89368223825623
            ]
        },
        {
            "positions": [
                -0.06350527965426604,
                -2.154371711682209,
                -2.068180394952606,
                -1.1056426904669192,
                -1.1092426678228162,
                -2.02533638510105
            ]
        },
        {
            "positions": [
                -0.05985278264131591,
                -2.1509538155493075,
                -2.0380951544278956,
                -1.2607006505231841,
                -1.1700086261627487,
                -2.156990531945871
            ]
        },
        {
            "positions": [
                -0.05620028562836579,
                -2.147535919416406,
                -2.0080099139031855,
                -1.4157586105794482,
                -1.2307745845026812,
                -2.288644678790691
            ]
        },
        {
            "positions": [
                -0.052547788615415675,
                -2.144118023283504,
                -1.977924673378475,
                -1.5708165706357122,
                -1.2915405428426137,
                -2.4202988256355114
            ]
        },
        {
            "positions": [
                -0.04889529160246554,
                -2.1407001271506028,
                -1.9478394328537647,
                -1.7258745306919772,
                -1.3523065011825461,
                -2.551952972480332
            ]
        },
        {
            "positions": [
                -0.045242794589515425,
                -2.1372822310177013,
                -1.9177541923290544,
                -1.8809324907482412,
                -1.4130724595224786,
                -2.6836071193251523
            ]
        },
        {
            "positions": [
                -0.04159029757656531,
                -2.1338643348848,
                -1.8876689518043441,
                -2.0359904508045052,
                -1.473838417862411,
                -2.8152612661699723
            ]
        },
        {
            "positions": [
                -0.037937800563615176,
                -2.130446438751898,
                -1.8575837112796338,
                -2.19104841086077,
                -1.5346043762023436,
                -2.9469154130147928
            ]
        },
        {
            "positions": [
                -0.03428530355066505,
                -2.1270285426189965,
                -1.8274984707549236,
                -2.3461063709170342,
                -1.595370334542276,
                -3.0785695598596132
            ]
        }
    ]
}