{
    "goal": {
        "global_pose": {
            "orientation": {
                "w": 0.5084816262002911,
                "x": -0.4908360881923452,
                "y": 0.5182115481033761,
                "z": -0.48164630358495003
            },
            "position": {
                "x": 0.5540239810943604,
                "y": -0.46912469901144505,
                "z": 0.16403168439865112
            }
        },
        "name": "move_to_storage_B"
    },
    "id": "ProjEST_move_to_storage_B_95",
    "joint_names": [
        "shoulder_pan_joint",
        "shoulder_lift_joint",
        "elbow_joint",
        "wrist_1_joint",
        "wrist_2_joint",
        "wrist_3_joint"
    ],
    "metrics": {
        "cart_traj_len": 1.5843807596963586,
        "distance_elbow_joint": 0.4026097579119905,
        "distance_shoulder_lift_joint": 1.7033382956505623,
        "distance_shoulder_pan_joint": 0.8749193717517493,
        "distance_wrist_1_joint": 2.9766570085053345,
        "distance_wrist_2_joint": 2.7056016471123767,
        "distance_wrist_3_joint": 3.296582024147124,
        "smoothness": 0.3061456710318155,
        "time": 0.065417368,
        "traj_len": 3.458281091102795,
        "weighted_distance": 4.922918931791494
    },
    "planner": "ProjEST",
    "start": {
        "state": {
            "elbow_joint": 1.664937868594044,
            "shoulder_lift_joint": -0.661644460510453,
            "shoulder_pan_joint": -0.9139846352900073,
            "wrist_1_joint": 2.146753192139373,
            "wrist_2_joint": -2.2341966793290973,
            "wrist_3_joint": 0.005466555786416001
        }
    },
    "waypoints": [
        {
            "positions": [
                -0.9139846352900073,
                -0.661644460510453,
                1.664937868594044,
                2.146753192139373,
                -2.2341966793290973,
                0.005466555786416001
            ]
        },
        {
            "positions": [
                -0.8990924177656224,
                -0.7359275510062937,
                1.686207621117639,
                2.0347145337326915,
                -2.1077199225386947,
                -0.035653242088374955
            ]
        },
        {
            "positions": [
                -0.8842002002412376,
                -0.8102106415021344,
                1.7074773736412345,
                1.9226758753260096,
                -1.981243165748292,
                -0.07677303996316591
            ]
        },
        {
            "positions": [
                -0.8655472844807396,
                -0.8650103755617892,
                1.7058281636453803,
                1.7633200952023296,
                -1.889048163016675,
                -0.022196146476042684
            ]
        },
        {
            "positions": [
                -0.8468943687202416,
                -0.9198101096214438,
                1.7041789536495262,
                1.6039643150786498,
                -1.7968531602850581,
                0.03238074701108054
            ]
        },
        {
            "positions": [
                -0.8282414529597435,
                -0.9746098436810986,
                1.702529743653672,
                1.4446085349549698,
                -1.704658157553441,
                0.08695764049820377
            ]
        },
        {
            "positions": [
                -0.8095885371992455,
                -1.0294095777407533,
                1.7008805336578177,
                1.2852527548312898,
                -1.612463154821824,
                0.141534533985327
            ]
        },
        {
            "positions": [
                -0.7909356214387475,
                -1.0842093118004081,
                1.6992313236619636,
                1.1258969747076097,
                -1.520268152090207,
                0.1961114274724502
            ]
        },
        {
            "positions": [
                -0.7722827056782495,
                -1.1390090458600628,
                1.6975821136661093,
                0.9665411945839297,
                -1.4280731493585899,
                0.25068832095957344
            ]
        },
        {
            "positions": [
                -0.7536297899177515,
                -1.1938087799197175,
                1.695932903670255,
                0.8071854144602499,
                -1.335878146626973,
                0.30526521444669663
            ]
        },
        {
            "positions": [
                -0.7349768741572535,
                -1.2486085139793723,
                1.694283693674401,
                0.6478296343365699,
                -1.243683143895356,
                0.3598421079338199
            ]
        },
        {
            "positions": [
                -0.7163239583967556,
                -1.303408248039027,
                1.6926344836785467,
                0.4884738542128899,
                -1.151488141163739,
                0.4144190014209431
            ]
        },
        {
            "positions": [
                -0.6976710426362575,
                -1.3582079820986817,
                1.6909852736826927,
                0.3291180740892099,
                -1.059293138432122,
                0.4689958949080663
            ]
        },
        {
            "positions": [
                -0.6790181268757595,
                -1.4130077161583365,
                1.6893360636868384,
                0.1697622939655299,
                -0.9670981357005048,
                0.5235727883951896
            ]
        },
        {
            "positions": [
                -0.6603652111152615,
                -1.4678074502179914,
                1.6876868536909841,
                0.010406513841849874,
                -0.8749031329688879,
                0.5781496818823129
            ]
        },
        {
            "positions": [
                -0.6417122953547635,
                -1.5226071842776459,
                1.68603764369513,
                -0.1489492662818297,
                -0.7827081302372709,
                0.632726575369436
            ]
        },
        {
            "positions": [
                -0.6230593795942654,
                -1.5774069183373007,
                1.6843884336992758,
                -0.3083050464055097,
                -0.690513127505654,
                0.6873034688565592
            ]
        },
        {
            "positions": [
                -0.6044064638337674,
                -1.6322066523969554,
                1.6827392237034215,
                -0.4676608265291897,
                -0.598318124774037,
                0.7418803623436825
            ]
        },
        {
            "positions": [
                -0.5857535480732694,
                -1.68700638645661,
                1.6810900137075675,
                -0.6270166066528697,
                -0.5061231220424198,
                0.7964572558308057
            ]
        },
        {
            "positions": [
                -0.5671006323127714,
                -1.741806120516265,
                1.6794408037117132,
                -0.7863723867765497,
                -0.413928119310803,
                0.851034149317929
            ]
        },
        {
            "positions": [
                -0.6111035797106475,
                -1.6898747342125358,
                1.7071102772896531,
                -0.7900000059090008,
                -0.34015036205296284,
                1.041578752577633
            ]
        },
        {
            "positions": [
                -0.6551065271085237,
                -1.6379433479088066,
                1.734779750867593,
                -0.7936276250414519,
                -0.2663726047951227,
                1.2321233558373368
            ]
        },
        {
            "positions": [
                -0.6991094745063997,
                -1.5860119616050774,
                1.762449224445533,
                -0.7972552441739029,
                -0.1925948475372825,
                1.4226679590970408
            ]
        },
        {
            "positions": [
                -0.7431124219042758,
                -1.5340805753013482,
                1.7901186980234727,
                -0.800882863306354,
                -0.11881709027944237,
                1.6132125623567446
            ]
        },
        {
            "positions": [
                -0.787115369302152,
                -1.482149188997619,
                1.8177881716014126,
                -0.8045104824388051,
                -0.04503933302160218,
                1.8037571656164486
            ]
        },
        {
            "positions": [
                -0.8311183167000281,
                -1.4302178026938899,
                1.8454576451793525,
                -0.8081381015712561,
                0.02873842423623796,
                1.9943017688761526
            ]
        },
        {
            "positions": [
                -0.8751212640979043,
                -1.3782864163901605,
                1.8731271187572924,
                -0.8117657207037072,
                0.10251618149407815,
                2.1848463721358566
            ]
        },
        {
            "positions": [
                -0.9191242114957803,
                -1.3263550300864315,
                1.9007965923352323,
                -0.8153933398361582,
                0.17629393875191823,
                2.37539097539556
            ]
        },
        {
            "positions": [
                -0.9631271588936565,
                -1.2744236437827021,
                1.928466065913172,
                -0.8190209589686094,
                0.2500716960097584,
                2.5659355786552647
            ]
        },
        {
            "positions": [
                -1.0071301062915325,
                -1.222492257478973,
                1.956135539491112,
                -0.8226485781010604,
                0.3238494532675986,
                2.7564801819149682
            ]
        },
        {
            "positions": [
                -1.0511330536894086,
                -1.1705608711752438,
                1.9838050130690519,
                -0.8262761972335115,
                0.3976272105254387,
                2.9470247851746723
            ]
        },
        {
            "positions": [
                -1.0951360010872848,
                -1.1186294848715146,
                2.011474486646992,
                -0.8299038163659626,
                0.4714049677832789,
                3.1375693884343763
            ]
        }
    ]
}