{
    "goal": {
        "global_pose": {
            "orientation": {
                "w": 0.7047431468963623,
                "x": -0.7094548344612122,
                "y": 0.0024358443915843964,
                "z": -0.0022348060738295317
            },
            "position": {
                "x": 0.6094750761985779,
                "y": 0.3671506643295288,
                "z": 0.19426114857196808
            }
        },
        "name": "move_to_magneteinheit_A"
    },
    "id": "ProjEST_move_to_magneteinheit_A_49",
    "joint_names": [
        "shoulder_pan_joint",
        "shoulder_lift_joint",
        "elbow_joint",
        "wrist_1_joint",
        "wrist_2_joint",
        "wrist_3_joint"
    ],
    "metrics": {
        "cart_traj_len": 3.233565011581618,
        "distance_elbow_joint": 3.9105183312252354,
        "distance_shoulder_lift_joint": 0.4676275055363788,
        "distance_shoulder_pan_joint": 2.9798987908607653,
        "distance_wrist_1_joint": 3.4647401700157956,
        "distance_wrist_2_joint": 1.439422407834085,
        "distance_wrist_3_joint": 0.6693583307906873,
        "smoothness": 0.03890236141858941,
        "time": 0.228921421,
        "traj_len": 3.596048600375549,
        "weighted_distance": 4.378863411399607
    },
    "planner": "ProjEST",
    "start": {
        "state": {
            "elbow_joint": -1.9196185241190666,
            "shoulder_lift_joint": -1.2443396400964142,
            "shoulder_pan_joint": 2.6996025414629847,
            "wrist_1_joint": -1.5485510000780065,
            "wrist_2_joint": -1.5709468930060704,
            "wrist_3_joint": 0.4420197071253992
        }
    },
    "waypoints": [
        {
            "positions": [
                2.6996025414629847,
                -1.2443396400964142,
                -1.9196185241190666,
                -1.5485510000780065,
                -1.5709468930060704,
                0.4420197071253992
            ]
        },
        {
            "positions": [
                2.5606692928459984,
                -1.2334534476069705,
                -1.8161682530980365,
                -1.4767637992855116,
                -1.5431767124078466,
                0.41443230183009994
            ]
        },
        {
            "positions": [
                2.4217360442290117,
                -1.2225672551175266,
                -1.7127179820770067,
                -1.4049765984930165,
                -1.5154065318096228,
                0.38684489653480064
            ]
        },
        {
            "positions": [
                2.2828027956120254,
                -1.211681062628083,
                -1.6092677110559765,
                -1.3331893977005216,
                -1.487636351211399,
                0.3592574912395014
            ]
        },
        {
            "positions": [
                2.143869546995039,
                -1.200794870138639,
                -1.5058174400349467,
                -1.2614021969080265,
                -1.4598661706131753,
                0.3316700859442021
            ]
        },
        {
            "positions": [
                2.0049362983780523,
                -1.1899086776491954,
                -1.4023671690139166,
                -1.1896149961155316,
                -1.4320959900149517,
                0.30408268064890287
            ]
        },
        {
            "positions": [
                1.866003049761066,
                -1.1790224851597515,
                -1.2989168979928865,
                -1.1178277953230367,
                -1.404325809416728,
                0.27649527535360363
            ]
        },
        {
            "positions": [
                1.7270698011440797,
                -1.1681362926703078,
                -1.1954666269718566,
                -1.0460405945305418,
                -1.3765556288185041,
                0.24890787005830436
            ]
        },
        {
            "positions": [
                1.588136552527093,
                -1.157250100180864,
                -1.0920163559508265,
                -0.9742533937380465,
                -1.3487854482202803,
                0.22132046476300507
            ]
        },
        {
            "positions": [
                1.4492033039101067,
                -1.1463639076914203,
                -0.9885660849297965,
                -0.9024661929455516,
                -1.3210152676220566,
                0.19373305946770583
            ]
        },
        {
            "positions": [
                1.3102700552931201,
                -1.1354777152019766,
                -0.8851158139087665,
                -0.8306789921530566,
                -1.2932450870238328,
                0.16614565417240656
            ]
        },
        {
            "positions": [
                1.1713368066761336,
                -1.1245915227125327,
                -0.7816655428877364,
                -0.7588917913605616,
                -1.265474906425609,
                0.13855824887710727
            ]
        },
        {
            "positions": [
                1.0324035580591473,
                -1.113705330223089,
                -0.6782152718667065,
                -0.6871045905680667,
                -1.2377047258273852,
                0.11097084358180803
            ]
        },
        {
            "positions": [
                0.8934703094421608,
                -1.1028191377336451,
                -0.5747650008456764,
                -0.6153173897755716,
                -1.2099345452291614,
                0.0833834382865088
            ]
        },
        {
            "positions": [
                0.7545370608251745,
                -1.0919329452442015,
                -0.4713147298246465,
                -0.5435301889830768,
                -1.1821643646309377,
                0.055796032991209554
            ]
        },
        {
            "positions": [
                0.6156038122081879,
                -1.0810467527547576,
                -0.3678644588036164,
                -0.4717429881905817,
                -1.1543941840327139,
                0.02820862769591026
            ]
        },
        {
            "positions": [
                0.4766705635912012,
                -1.070160560265314,
                -0.2644141877825863,
                -0.39995578739808657,
                -1.12662400343449,
                0.0006212224006109657
            ]
        },
        {
            "positions": [
                0.3377373149742149,
                -1.05927436777587,
                -0.1609639167615564,
                -0.32816858660559167,
                -1.0988538228362665,
                -0.026966182894688273
            ]
        },
        {
            "positions": [
                0.19880406635722858,
                -1.0483881752864264,
                -0.05751364574052631,
                -0.2563813858130968,
                -1.0710836422380428,
                -0.05455358818998751
            ]
        },
        {
            "positions": [
                0.05987081774024228,
                -1.0375019827969827,
                0.045936625280503574,
                -0.18459418502060188,
                -1.043313461639819,
                -0.0821409934852868
            ]
        },
        {
            "positions": [
                -0.07906243087674447,
                -1.0266157903075388,
                0.14938689630153357,
                -0.11280698422810664,
                -1.0155432810415952,
                -0.1097283987805861
            ]
        },
        {
            "positions": [
                -0.06866552962585071,
                -1.009061687450153,
                0.28484896708907237,
                0.03407336374881595,
                -0.951723232524351,
                -0.10406685174032049
            ]
        },
        {
            "positions": [
                -0.05826862837495693,
                -0.9915075845927671,
                0.4203110378766112,
                0.18095371172573854,
                -0.8879031840071068,
                -0.09840530470005486
            ]
        },
        {
            "positions": [
                -0.047871727124063165,
                -0.9739534817353813,
                0.55577310866415,
                0.32783405970266116,
                -0.8240831354898626,
                -0.09274375765978923
            ]
        },
        {
            "positions": [
                -0.037474825873169394,
                -0.9563993788779954,
                0.6912351794516889,
                0.4747144076795837,
                -0.7602630869726184,
                -0.08708221061952362
            ]
        },
        {
            "positions": [
                -0.02707792462227563,
                -0.9388452760206096,
                0.8266972502392277,
                0.6215947556565063,
                -0.6964430384553741,
                -0.081420663579258
            ]
        },
        {
            "positions": [
                -0.01668102337138186,
                -0.9212911731632237,
                0.9621593210267665,
                0.768475103633429,
                -0.6326229899381299,
                -0.07575911653899238
            ]
        },
        {
            "positions": [
                -0.006284122120488095,
                -0.9037370703058379,
                1.0976213918143052,
                0.9153554516103514,
                -0.5688029414208857,
                -0.07009756949872677
            ]
        },
        {
            "positions": [
                0.004112779130405683,
                -0.886182967448452,
                1.233083462601844,
                1.062235799587274,
                -0.5049828929036415,
                -0.06443602245846114
            ]
        },
        {
            "positions": [
                0.014509680381299447,
                -0.8686288645910663,
                1.368545533389383,
                1.2091161475641967,
                -0.4411628443863973,
                -0.058774475418195526
            ]
        },
        {
            "positions": [
                0.02490658163219321,
                -0.8510747617336804,
                1.504007604176922,
                1.3559964955411195,
                -0.3773427958691531,
                -0.0531129283779299
            ]
        },
        {
            "positions": [
                0.035303482883086976,
                -0.8335206588762946,
                1.6394696749644604,
                1.5028768435180417,
                -0.3135227473519089,
                -0.047451381337664286
            ]
        },
        {
            "positions": [
                0.045700384133980754,
                -0.8159665560189087,
                1.7749317457519993,
                1.6497571914949645,
                -0.24970269883466467,
                -0.04178983429739866
            ]
        },
        {
            "positions": [
                0.056097285384874504,
                -0.7984124531615229,
                1.9103938165395382,
                1.7966375394718872,
                -0.1858826503174205,
                -0.03612828725713305
            ]
        },
        {
            "positions": [
                0.12217138764429011,
                -0.7767121345600354,
                1.9908998071061679,
                1.9161891699377889,
                -0.13152448517198556,
                0.00788182610411545
            ]
        }
    ]
}