{
    "goal": {
        "global_pose": {
            "orientation": {
                "w": 0.5084816217422485,
                "x": -0.49083608388900757,
                "y": 0.5182115435600281,
                "z": -0.4816462993621826
            },
            "position": {
                "x": 0.5540239810943604,
                "y": 0.030875300988554955,
                "z": 0.16403168439865112
            }
        },
        "name": "move_to_storage_A"
    },
    "id": "ProjEST_move_to_storage_A_134",
    "joint_names": [
        "shoulder_pan_joint",
        "shoulder_lift_joint",
        "elbow_joint",
        "wrist_1_joint",
        "wrist_2_joint",
        "wrist_3_joint"
    ],
    "metrics": {
        "cart_traj_len": 0.35321204183864763,
        "distance_elbow_joint": 0.4527467025113465,
        "distance_shoulder_lift_joint": 0.23407990172087523,
        "distance_shoulder_pan_joint": 0.4638349430210668,
        "distance_wrist_1_joint": 0.2499088291028716,
        "distance_wrist_2_joint": 1.0912321131082627,
        "distance_wrist_3_joint": 0.09765246925593507,
        "smoothness": 8.881784197001252e-16,
        "time": 0.04933235699999999,
        "traj_len": 1.6091783489471756,
        "weighted_distance": 2.0312313603928436
    },
    "planner": "ProjEST",
    "start": {
        "state": {
            "elbow_joint": 1.971548259319323,
            "shoulder_lift_joint": -1.1394851275133948,
            "shoulder_pan_joint": 0.1228115487234821,
            "wrist_1_joint": -0.7804723859257726,
            "wrist_2_joint": 0.12958671773740124,
            "wrist_3_joint": -3.192489227718131
        }
    },
    "waypoints": [
        {
            "positions": [
                0.1228115487234821,
                -1.1394851275133948,
                1.971548259319323,
                -0.7804723859257726,
                0.12958671773740124,
                -3.192489227718131
            ]
        },
        {
            "positions": [
                0.05654941400618685,
                -1.17292511347352,
                2.036226359678087,
                -0.8161736472261828,
                0.2854770196100102,
                -3.178538874967283
            ]
        },
        {
            "positions": [
                -0.009712720711108402,
                -1.2063650994336448,
                2.1009044600368507,
                -0.8518749085265931,
                0.44136732148261915,
                -3.1645885222164356
            ]
        },
        {
            "positions": [
                -0.07597485542840365,
                -1.2398050853937699,
                2.1655825603956145,
                -0.8875761698270033,
                0.5972576233552281,
                -3.1506381694655876
            ]
        },
        {
            "positions": [
                -0.1422369901456989,
                -1.273245071353895,
                2.2302606607543782,
                -0.9232774311274136,
                0.7531479252278371,
                -3.1366878167147396
            ]
        },
        {
            "positions": [
                -0.2084991248629942,
                -1.30668505731402,
                2.294938761113142,
                -0.9589786924278237,
                0.9090382271004461,
                -3.1227374639638916
            ]
        },
        {
            "positions": [
                -0.2747612595802894,
                -1.340125043274145,
                2.3596168614719057,
                -0.994679953728234,
                1.064928528973055,
                -3.108787111213044
            ]
        },
        {
            "positions": [
                -0.3410233942975847,
                -1.37356502923427,
                2.4242949618306695,
                -1.0303812150286442,
                1.220818830845664,
                -3.094836758462196
            ]
        }
    ]
}{
    "goal": {
        "global_pose": {
            "orientation": {
                "w": 0.5084816217422485,
                "x": -0.49083608388900757,
                "y": 0.5182115435600281,
                "z": -0.4816462993621826
            },
            "position": {
                "x": 0.5540239810943604,
                "y": 0.030875300988554955,
                "z": 0.16403168439865112
            }
        },
        "name": "move_to_storage_A"
    },
    "id": "ProjEST_move_to_storage_A_134",
    "joint_names": [
        "shoulder_pan_joint",
        "shoulder_lift_joint",
        "elbow_joint",
        "wrist_1_joint",
        "wrist_2_joint",
        "wrist_3_joint"
    ],
    "metrics": {
        "cart_traj_len": 0.3528622965515474,
        "distance_elbow_joint": 0.44771834668358634,
        "distance_shoulder_lift_joint": 0.2329404737512697,
        "distance_shoulder_pan_joint": 0.45726563894066796,
        "distance_wrist_1_joint": 0.2354667461177058,
        "distance_wrist_2_joint": 1.1153915195595914,
        "distance_wrist_3_joint": 0.08514312761551812,
        "smoothness": 8.881784197001252e-16,
        "time": 0.047244260999999996,
        "traj_len": 1.604345926746579,
        "weighted_distance": 2.0236280225319754
    },
    "planner": "ProjEST",
    "start": {
        "state": {
            "elbow_joint": 1.97154746011099,
            "shoulder_lift_joint": -1.13948474672311,
            "shoulder_pan_joint": 0.12281154466712228,
            "wrist_1_joint": -0.7804688027058302,
            "wrist_2_joint": 0.12958655903071145,
            "wrist_3_joint": 3.0906928834467795
        }
    },
    "waypoints": [
        {
            "positions": [
                0.12281154466712228,
                -1.13948474672311,
                1.97154746011099,
                -0.7804688027058302,
                0.12958655903071145,
                3.0906928834467795
            ]
        },
        {
            "positions": [
                0.057487881961312576,
                -1.1727619572590056,
                2.035507223922931,
                -0.8141069092940739,
                0.28892820468208164,
                3.1028561873918536
            ]
        },
        {
            "positions": [
                -0.007835780744497131,
                -1.2060391677949014,
                2.0994669877348717,
                -0.8477450158823175,
                0.4482698503334518,
                3.1150194913369273
            ]
        },
        {
            "positions": [
                -0.07315944345030682,
                -1.239316378330797,
                2.1634267515468126,
                -0.8813831224705613,
                0.607611495984822,
                3.1271827952820015
            ]
        },
        {
            "positions": [
                -0.13848310615611653,
                -1.2725935888666926,
                2.2273865153587535,
                -0.9150212290588049,
                0.7669531416361922,
                3.1393460992270756
            ]
        },
        {
            "positions": [
                -0.20380676886192628,
                -1.3058707994025882,
                2.2913462791706944,
                -0.9486593356470486,
                0.9262947872875624,
                3.15150940317215
            ]
        },
        {
            "positions": [
                -0.2691304315677359,
                -1.339148009938484,
                2.3553060429826354,
                -0.9822974422352923,
                1.0856364329389325,
                3.1636727071172235
            ]
        },
        {
            "positions": [
                -0.33445409427354567,
                -1.3724252204743796,
                2.4192658067945763,
                -1.015935548823536,
                1.2449780785903029,
                3.1758360110622976
            ]
        }
    ]
}{
    "goal": {
        "global_pose": {
            "orientation": {
                "w": 0.5084816217422485,
                "x": -0.49083608388900757,
                "y": 0.5182115435600281,
                "z": -0.4816462993621826
            },
            "position": {
                "x": 0.5540239810943604,
                "y": 0.030875300988554955,
                "z": 0.16403168439865112
            }
        },
        "name": "move_to_storage_A"
    },
    "id": "ProjEST_move_to_storage_A_134",
    "joint_names": [
        "shoulder_pan_joint",
        "shoulder_lift_joint",
        "elbow_joint",
        "wrist_1_joint",
        "wrist_2_joint",
        "wrist_3_joint"
    ],
    "metrics": {
        "cart_traj_len": 0.35334075211110555,
        "distance_elbow_joint": 0.4536868461979813,
        "distance_shoulder_lift_joint": 0.23352004301916418,
        "distance_shoulder_pan_joint": 0.46181826528783776,
        "distance_wrist_1_joint": 0.2576794690219879,
        "distance_wrist_2_joint": 1.1004434590447898,
        "distance_wrist_3_joint": 0.10895187213443647,
        "smoothness": 0.0,
        "time": 0.04737695,
        "traj_len": 1.617436228945734,
        "weighted_distance": 2.0474683457972795
    },
    "planner": "ProjEST",
    "start": {
        "state": {
            "elbow_joint": 1.9715472970024885,
            "shoulder_lift_joint": -1.1394870060712896,
            "shoulder_pan_joint": 0.12281152778156021,
            "wrist_1_joint": -0.780463741449964,
            "wrist_2_joint": 0.12958659822042276,
            "wrist_3_joint": 3.090690232415272
        }
    },
    "waypoints": [
        {
            "positions": [
                0.12281152778156021,
                -1.1394870060712896,
                1.9715472970024885,
                -0.780463741449964,
                0.12958659822042276,
                3.090690232415272
            ]
        },
        {
            "positions": [
                0.056837489883297676,
                -1.1728470122168846,
                2.0363597036022,
                -0.8172750941673909,
                0.28679280665539275,
                3.106254785577334
            ]
        },
        {
            "positions": [
                -0.009136548014964857,
                -1.2062070183624793,
                2.1011721102019116,
                -0.8540864468848177,
                0.44399901509036266,
                3.1218193387393964
            ]
        },
        {
            "positions": [
                -0.07511058591322739,
                -1.2395670245080743,
                2.165984516801623,
                -0.8908977996022445,
                0.6012052235253327,
                3.1373838919014587
            ]
        },
        {
            "positions": [
                -0.14108462381148992,
                -1.272927030653669,
                2.2307969234013347,
                -0.9277091523196713,
                0.7584114319603026,
                3.1529484450635215
            ]
        },
        {
            "positions": [
                -0.20705866170975248,
                -1.306287036799264,
                2.2956093300010467,
                -0.9645205050370982,
                0.9156176403952726,
                3.1685129982255837
            ]
        },
        {
            "positions": [
                -0.273032699608015,
                -1.3396470429448588,
                2.3604217366007583,
                -1.0013318577545252,
                1.0728238488302426,
                3.184077551387646
            ]
        },
        {
            "positions": [
                -0.3390067375062775,
                -1.3730070490904538,
                2.42523414320047,
                -1.038143210471952,
                1.2300300572652125,
                3.1996421045497083
            ]
        }
    ]
}