{
    "goal": {
        "global_pose": {
            "orientation": {
                "w": -0.4816463035849501,
                "x": 0.5182115481033762,
                "y": 0.4908360881923453,
                "z": -0.5084816262002911
            },
            "position": {
                "x": -0.8240239810943604,
                "y": -0.300875300988555,
                "z": 0.16403168439865112
            }
        },
        "name": "move_to_storage_C"
    },
    "id": "ProjEST_move_to_storage_C_78",
    "joint_names": [
        "shoulder_pan_joint",
        "shoulder_lift_joint",
        "elbow_joint",
        "wrist_1_joint",
        "wrist_2_joint",
        "wrist_3_joint"
    ],
    "metrics": {
        "cart_traj_len": 0.5765369055317844,
        "distance_elbow_joint": 0.25983085326352806,
        "distance_shoulder_lift_joint": 0.18987705126653476,
        "distance_shoulder_pan_joint": 0.4925817553378562,
        "distance_wrist_1_joint": 0.08002204014769021,
        "distance_wrist_2_joint": 1.0797723224581355,
        "distance_wrist_3_joint": 0.065769222121971,
        "smoothness": 0.0,
        "time": 0.171097283,
        "traj_len": 1.4723631497004115,
        "weighted_distance": 1.8598887201780336
    },
    "planner": "ProjEST",
    "start": {
        "state": {
            "elbow_joint": 2.010868314990456,
            "shoulder_lift_joint": -1.1634956873337592,
            "shoulder_pan_joint": -2.4736205022346125,
            "wrist_1_joint": -0.8367026794202681,
            "wrist_2_joint": 0.6746043897044499,
            "wrist_3_joint": -3.1496632123970403
        }
    },
    "waypoints": [
        {
            "positions": [
                -2.4736205022346125,
                -1.1634956873337592,
                2.010868314990456,
                -0.8367026794202681,
                0.6746043897044499,
                -3.1496632123970403
            ]
        },
        {
            "positions": [
                -2.5557174614575886,
                -1.1318495121226702,
                1.967563172779868,
                -0.8233656727289864,
                0.8545664434474725,
                -3.1387016753767116
            ]
        },
        {
            "positions": [
                -2.6378144206805647,
                -1.100203336911581,
                1.9242580305692798,
                -0.8100286660377047,
                1.0345284971904951,
                -3.1277401383563834
            ]
        },
        {
            "positions": [
                -2.7199113799035404,
                -1.0685571617004919,
                1.8809528883586917,
                -0.796691659346423,
                1.2144905509335175,
                -3.1167786013360548
            ]
        },
        {
            "positions": [
                -2.8020083391265165,
                -1.0369109864894026,
                1.8376477461481038,
                -0.7833546526551413,
                1.3944526046765402,
                -3.105817064315726
            ]
        },
        {
            "positions": [
                -2.8841052983494926,
                -1.0052648112783136,
                1.7943426039375159,
                -0.7700176459638596,
                1.5744146584195629,
                -3.094855527295398
            ]
        },
        {
            "positions": [
                -2.9662022575724687,
                -0.9736186360672244,
                1.7510374617269278,
                -0.7566806392725779,
                1.7543767121625855,
                -3.0838939902750693
            ]
        }
    ]
}