{
    "goal": {
        "global_pose": {
            "orientation": {
                "w": 0.5084816217422485,
                "x": -0.49083608388900757,
                "y": 0.5182115435600281,
                "z": -0.4816462993621826
            },
            "position": {
                "x": 0.5540239810943604,
                "y": 0.030875300988554955,
                "z": 0.16403168439865112
            }
        },
        "name": "move_to_storage_A"
    },
    "id": "ProjEST_move_to_storage_A_23",
    "joint_names": [
        "shoulder_pan_joint",
        "shoulder_lift_joint",
        "elbow_joint",
        "wrist_1_joint",
        "wrist_2_joint",
        "wrist_3_joint"
    ],
    "metrics": {
        "cart_traj_len": 0.3525459620856427,
        "distance_elbow_joint": 0.45473404092588443,
        "distance_shoulder_lift_joint": 0.23290906045326132,
        "distance_shoulder_pan_joint": 0.46203272078447627,
        "distance_wrist_1_joint": 0.26389714465662795,
        "distance_wrist_2_joint": 1.0932408977675399,
        "distance_wrist_3_joint": 0.1034910679574037,
        "smoothness": 2.3314683467355775e-15,
        "time": 0.0432338,
        "traj_len": 1.6156438136375213,
        "weighted_distance": 2.043140991435532
    },
    "planner": "ProjEST",
    "start": {
        "state": {
            "elbow_joint": 1.971548259319323,
            "shoulder_lift_joint": -1.1394851275133948,
            "shoulder_pan_joint": 0.1228115487234821,
            "wrist_1_joint": -0.7804723859257726,
            "wrist_2_joint": 0.12958671773740124,
            "wrist_3_joint": -3.192489227718131
        }
    },
    "waypoints": [
        {
            "positions": [
                0.1228115487234821,
                -1.1394851275133948,
                1.971548259319323,
                -0.7804723859257726,
                0.12958671773740124,
                -3.192489227718131
            ]
        },
        {
            "positions": [
                0.05680687432569978,
                -1.1727578504352894,
                2.036510265165878,
                -0.8181719780195766,
                0.2857639888470498,
                -3.177704789438502
            ]
        },
        {
            "positions": [
                -0.00919780007208254,
                -1.2060305733571837,
                2.1014722710124327,
                -0.8558715701133806,
                0.4419412599566983,
                -3.162920351158873
            ]
        },
        {
            "positions": [
                -0.07520247446986486,
                -1.2393032962790782,
                2.166434276858988,
                -0.8935711622071846,
                0.5981185310663468,
                -3.1481359128792437
            ]
        },
        {
            "positions": [
                -0.14120714886764718,
                -1.2725760192009727,
                2.2313962827055427,
                -0.9312707543009886,
                0.7542958021759955,
                -3.133351474599615
            ]
        },
        {
            "positions": [
                -0.20721182326542953,
                -1.3058487421228673,
                2.2963582885520974,
                -0.9689703463947925,
                0.9104730732856441,
                -3.1185670363199858
            ]
        },
        {
            "positions": [
                -0.2732164976632118,
                -1.3391214650447616,
                2.3613202943986527,
                -1.0066699384885966,
                1.0666503443952924,
                -3.1037825980403566
            ]
        },
        {
            "positions": [
                -0.33922117206099417,
                -1.3723941879666561,
                2.4262823002452074,
                -1.0443695305824006,
                1.2228276155049411,
                -3.0889981597607274
            ]
        }
    ]
}{
    "goal": {
        "global_pose": {
            "orientation": {
                "w": 0.5084816217422485,
                "x": -0.49083608388900757,
                "y": 0.5182115435600281,
                "z": -0.4816462993621826
            },
            "position": {
                "x": 0.5540239810943604,
                "y": 0.030875300988554955,
                "z": 0.16403168439865112
            }
        },
        "name": "move_to_storage_A"
    },
    "id": "ProjEST_move_to_storage_A_23",
    "joint_names": [
        "shoulder_pan_joint",
        "shoulder_lift_joint",
        "elbow_joint",
        "wrist_1_joint",
        "wrist_2_joint",
        "wrist_3_joint"
    ],
    "metrics": {
        "cart_traj_len": 0.3540247521689071,
        "distance_elbow_joint": 0.4512948925438427,
        "distance_shoulder_lift_joint": 0.23417855671452226,
        "distance_shoulder_pan_joint": 0.46232482493338495,
        "distance_wrist_1_joint": 0.24649546915518972,
        "distance_wrist_2_joint": 1.1034940069350276,
        "distance_wrist_3_joint": 0.10383622680356686,
        "smoothness": 3.1086244559890032e-15,
        "time": 0.065312127,
        "traj_len": 1.6129550449673213,
        "weighted_distance": 2.0394327414217135
    },
    "planner": "ProjEST",
    "start": {
        "state": {
            "elbow_joint": 1.97154746011099,
            "shoulder_lift_joint": -1.13948474672311,
            "shoulder_pan_joint": 0.12281154466712228,
            "wrist_1_joint": -0.7804688027058302,
            "wrist_2_joint": 0.12958655903071145,
            "wrist_3_joint": 3.0906928834467795
        }
    },
    "waypoints": [
        {
            "positions": [
                0.12281154466712228,
                -1.13948474672311,
                1.97154746011099,
                -0.7804688027058302,
                0.12958655903071145,
                3.0906928834467795
            ]
        },
        {
            "positions": [
                0.05676514110521015,
                -1.172938826253756,
                2.0360181590458244,
                -0.8156824411565716,
                0.2872285600214297,
                3.1055266301330033
            ]
        },
        {
            "positions": [
                -0.00928126245670198,
                -1.206392905784402,
                2.1004888579806593,
                -0.850896079607313,
                0.44487056101214795,
                3.120360376819227
            ]
        },
        {
            "positions": [
                -0.07532766601861411,
                -1.239846985315048,
                2.164959556915494,
                -0.8861097180580544,
                0.6025125620028662,
                3.135194123505451
            ]
        },
        {
            "positions": [
                -0.14137406958052623,
                -1.2733010648456942,
                2.2294302558503287,
                -0.9213233565087957,
                0.7601545629935844,
                3.150027870191675
            ]
        },
        {
            "positions": [
                -0.2074204731424384,
                -1.30675514437634,
                2.293900954785163,
                -0.9565369949595371,
                0.9177965639843026,
                3.1648616168778987
            ]
        },
        {
            "positions": [
                -0.2734668767043505,
                -1.340209223906986,
                2.358371653719998,
                -0.9917506334102785,
                1.0754385649750209,
                3.1796953635641225
            ]
        },
        {
            "positions": [
                -0.33951328026626265,
                -1.3736633034376322,
                2.4228423526548326,
                -1.02696427186102,
                1.2330805659657391,
                3.1945291102503464
            ]
        }
    ]
}{
    "goal": {
        "global_pose": {
            "orientation": {
                "w": 0.5084816217422485,
                "x": -0.49083608388900757,
                "y": 0.5182115435600281,
                "z": -0.4816462993621826
            },
            "position": {
                "x": 0.5540239810943604,
                "y": 0.030875300988554955,
                "z": 0.16403168439865112
            }
        },
        "name": "move_to_storage_A"
    },
    "id": "ProjEST_move_to_storage_A_23",
    "joint_names": [
        "shoulder_pan_joint",
        "shoulder_lift_joint",
        "elbow_joint",
        "wrist_1_joint",
        "wrist_2_joint",
        "wrist_3_joint"
    ],
    "metrics": {
        "cart_traj_len": 0.35314900345440775,
        "distance_elbow_joint": 0.45305345215557313,
        "distance_shoulder_lift_joint": 0.23434987029856202,
        "distance_shoulder_pan_joint": 0.46265502764035005,
        "distance_wrist_1_joint": 0.25977005307630985,
        "distance_wrist_2_joint": 1.0951211576735387,
        "distance_wrist_3_joint": 0.10019727644433774,
        "smoothness": 1.1102230263833737e-15,
        "time": 0.056157867,
        "traj_len": 1.6140467271081935,
        "weighted_distance": 2.039713852707579
    },
    "planner": "ProjEST",
    "start": {
        "state": {
            "elbow_joint": 1.9715472970024885,
            "shoulder_lift_joint": -1.1394870060712896,
            "shoulder_pan_joint": 0.12281152778156021,
            "wrist_1_joint": -0.780463741449964,
            "wrist_2_joint": 0.12958659822042276,
            "wrist_3_joint": 3.090690232415272
        }
    },
    "waypoints": [
        {
            "positions": [
                0.12281152778156021,
                -1.1394870060712896,
                1.9715472970024885,
                -0.780463741449964,
                0.12958659822042276,
                3.090690232415272
            ]
        },
        {
            "positions": [
                0.05671795240436735,
                -1.1729655589710841,
                2.036269218738999,
                -0.817573749032294,
                0.2860324778880711,
                3.1050041290501773
            ]
        },
        {
            "positions": [
                -0.009375622972825515,
                -1.2064441118708789,
                2.1009911404755095,
                -0.8546837566146239,
                0.4424783575557195,
                3.1193180256850828
            ]
        },
        {
            "positions": [
                -0.07546919835001836,
                -1.2399226647706734,
                2.1657130622120198,
                -0.8917937641969539,
                0.5989242372233679,
                3.133631922319988
            ]
        },
        {
            "positions": [
                -0.14156277372721124,
                -1.2734012176704679,
                2.2304349839485305,
                -0.9289037717792838,
                0.7553701168910162,
                3.1479458189548932
            ]
        },
        {
            "positions": [
                -0.20765634910440414,
                -1.3068797705702626,
                2.2951569056850407,
                -0.9660137793616139,
                0.9118159965586646,
                3.1622597155897987
            ]
        },
        {
            "positions": [
                -0.27374992448159696,
                -1.3403583234700571,
                2.359878827421551,
                -1.0031237869439438,
                1.068261876226313,
                3.176573612224704
            ]
        },
        {
            "positions": [
                -0.3398434998587898,
                -1.3738368763698516,
                2.4246007491580617,
                -1.0402337945262738,
                1.2247077558939614,
                3.1908875088596096
            ]
        }
    ]
}