{
    "goal": {
        "global_pose": {
            "orientation": {
                "w": -0.00223480608172531,
                "x": 0.0024358444001904467,
                "y": 0.7094548369677653,
                "z": -0.704743149386269
            },
            "position": {
                "x": -0.37947507619857795,
                "y": -0.6371506643295288,
                "z": 0.19426114857196808
            }
        },
        "name": "move_to_magneteinheit_C"
    },
    "id": "ProjEST_move_to_magneteinheit_C_143",
    "joint_names": [
        "shoulder_pan_joint",
        "shoulder_lift_joint",
        "elbow_joint",
        "wrist_1_joint",
        "wrist_2_joint",
        "wrist_3_joint"
    ],
    "metrics": {
        "cart_traj_len": 1.1334630810928013,
        "distance_elbow_joint": 0.7477137029666752,
        "distance_shoulder_lift_joint": 1.0617554963463325,
        "distance_shoulder_pan_joint": 1.633350892232236,
        "distance_wrist_1_joint": 5.041202902381501,
        "distance_wrist_2_joint": 0.8040393298573605,
        "distance_wrist_3_joint": 9.500315683311669,
        "smoothness": 0.660324245219176,
        "time": 2.00718777,
        "traj_len": 4.334556264151588,
        "weighted_distance": 6.605622726583615
    },
    "planner": "ProjEST",
    "start": {
        "state": {
            "elbow_joint": 1.9565354010623817,
            "shoulder_lift_joint": -1.4165861575791021,
            "shoulder_pan_joint": -1.6717766225146293,
            "wrist_1_joint": -0.5286633292919765,
            "wrist_2_joint": 1.472756589071564,
            "wrist_3_joint": -3.1238370188695823
        }
    },
    "waypoints": [
        {
            "positions": [
                -1.6717766225146293,
                -1.4165861575791021,
                1.9565354010623817,
                -0.5286633292919765,
                1.472756589071564,
                -3.1238370188695823
            ]
        },
        {
            "positions": [
                -1.7204938153504563,
                -1.4327809942970129,
                1.972658263885532,
                -0.4342796107203571,
                1.4466392388572828,
                -2.9340401512836554
            ]
        },
        {
            "positions": [
                -1.7692110081862833,
                -1.4489758310149234,
                1.988781126708682,
                -0.3398958921487377,
                1.4205218886430016,
                -2.744243283697729
            ]
        },
        {
            "positions": [
                -1.8179282010221103,
                -1.4651706677328342,
                2.004903989531832,
                -0.2455121735771184,
                1.3944045384287205,
                -2.554446416111802
            ]
        },
        {
            "positions": [
                -1.8666453938579375,
                -1.4813655044507448,
                2.021026852354982,
                -0.15112845500549899,
                1.3682871882144394,
                -2.3646495485258754
            ]
        },
        {
            "positions": [
                -1.9153625866937645,
                -1.4975603411686556,
                2.0371497151781326,
                -0.05674473643387962,
                1.3421698380001583,
                -2.1748526809399484
            ]
        },
        {
            "positions": [
                -1.9640797795295915,
                -1.5137551778865663,
                2.0532725780012826,
                0.03763898213773964,
                1.316052487785877,
                -1.9850558133540217
            ]
        },
        {
            "positions": [
                -2.0127969723654187,
                -1.5299500146044769,
                2.069395440824433,
                0.13202270070935918,
                1.289935137571596,
                -1.7952589457680947
            ]
        },
        {
            "positions": [
                -2.0615141652012454,
                -1.5461448513223877,
                2.085518303647583,
                0.2264064192809785,
                1.2638177873573149,
                -1.605462078182168
            ]
        },
        {
            "positions": [
                -2.1102313580370726,
                -1.5623396880402982,
                2.101641166470733,
                0.3207901378525978,
                1.2377004371430336,
                -1.4156652105962413
            ]
        },
        {
            "positions": [
                -2.1589485508728994,
                -1.578534524758209,
                2.1177640292938835,
                0.4151738564242172,
                1.2115830869287525,
                -1.2258683430103146
            ]
        },
        {
            "positions": [
                -2.2076657437087266,
                -1.5947293614761198,
                2.1338868921170335,
                0.5095575749958365,
                1.1854657367144714,
                -1.0360714754243876
            ]
        },
        {
            "positions": [
                -2.2563829365445534,
                -1.6109241981940303,
                2.1500097549401835,
                0.6039412935674557,
                1.1593483865001903,
                -0.8462746078384611
            ]
        },
        {
            "positions": [
                -2.3051001293803806,
                -1.627119034911941,
                2.166132617763334,
                0.6983250121390754,
                1.133231036285909,
                -0.6564777402525341
            ]
        },
        {
            "positions": [
                -2.3538173222162078,
                -1.6433138716298519,
                2.182255480586484,
                0.7927087307106948,
                1.107113686071628,
                -0.4666808726666072
            ]
        },
        {
            "positions": [
                -2.4025345150520345,
                -1.6595087083477624,
                2.198378343409634,
                0.887092449282314,
                1.080996335857347,
                -0.2768840050806807
            ]
        },
        {
            "positions": [
                -2.4512517078878617,
                -1.675703545065673,
                2.2145012062327845,
                0.9814761678539334,
                1.0548789856430658,
                -0.08708713749475372
            ]
        },
        {
            "positions": [
                -2.4999689007236885,
                -1.6918983817835838,
                2.2306240690559345,
                1.0758598864255529,
                1.0287616354287845,
                0.10270973009117323
            ]
        },
        {
            "positions": [
                -2.5486860935595157,
                -1.7080932185014945,
                2.246746931879085,
                1.170243604997172,
                1.0026442852145034,
                0.29250659767709974
            ]
        },
        {
            "positions": [
                -2.597403286395343,
                -1.724288055219405,
                2.262869794702235,
                1.2646273235687915,
                0.9765269350002224,
                0.48230346526302625
            ]
        },
        {
            "positions": [
                -2.6461204792311697,
                -1.7404828919373159,
                2.278992657525385,
                1.359011042140411,
                0.9504095847859412,
                0.6721003328489532
            ]
        },
        {
            "positions": [
                -2.6948376720669964,
                -1.7566777286552266,
                2.295115520348535,
                1.45339476071203,
                0.92429223457166,
                0.8618972004348797
            ]
        },
        {
            "positions": [
                -2.7435548649028236,
                -1.7728725653731372,
                2.3112383831716854,
                1.5477784792836495,
                0.8981748843573789,
                1.0516940680208071
            ]
        },
        {
            "positions": [
                -2.792272057738651,
                -1.789067402091048,
                2.3273612459948354,
                1.6421621978552687,
                0.8720575341430977,
                1.241490935606734
            ]
        },
        {
            "positions": [
                -2.840989250574478,
                -1.8052622388089585,
                2.343484108817986,
                1.736545916426888,
                0.8459401839288166,
                1.4312878031926601
            ]
        },
        {
            "positions": [
                -2.889706443410305,
                -1.8214570755268693,
                2.359606971641136,
                1.8309296349985078,
                0.8198228337145355,
                1.6210846707785866
            ]
        },
        {
            "positions": [
                -2.8716446577000196,
                -1.7928968764660622,
                2.3446225311025306,
                1.7143378985597681,
                0.8132530261275644,
                1.4143284101845215
            ]
        },
        {
            "positions": [
                -2.8535828719897345,
                -1.764336677405255,
                2.3296380905639253,
                1.5977461621210283,
                0.8066832185405935,
                1.2075721495904563
            ]
        },
        {
            "positions": [
                -2.835521086279449,
                -1.7357764783444478,
                2.31465365002532,
                1.4811544256822886,
                0.8001134109536225,
                1.000815888996391
            ]
        },
        {
            "positions": [
                -2.8174593005691637,
                -1.7072162792836405,
                2.299669209486715,
                1.3645626892435487,
                0.7935436033666516,
                0.7940596284023258
            ]
        },
        {
            "positions": [
                -2.7993975148588786,
                -1.6786560802228334,
                2.2846847689481096,
                1.2479709528048089,
                0.7869737957796806,
                0.5873033678082606
            ]
        },
        {
            "positions": [
                -2.7813357291485934,
                -1.650095881162026,
                2.2697003284095043,
                1.1313792163660692,
                0.7804039881927097,
                0.3805471072141955
            ]
        },
        {
            "positions": [
                -2.7632739434383082,
                -1.621535682101219,
                2.254715887870899,
                1.0147874799273295,
                0.7738341806057387,
                0.1737908466201301
            ]
        },
        {
            "positions": [
                -2.745212157728023,
                -1.5929754830404117,
                2.239731447332294,
                0.8981957434885898,
                0.7672643730187678,
                -0.03296541397393504
            ]
        },
        {
            "positions": [
                -2.7271503720177375,
                -1.5644152839796046,
                2.2247470067936885,
                0.7816040070498498,
                0.7606945654317968,
                -0.2397216745680002
            ]
        },
        {
            "positions": [
                -2.7090885863074523,
                -1.5358550849187975,
                2.2097625662550833,
                0.6650122706111101,
                0.7541247578448259,
                -0.44647793516206535
            ]
        },
        {
            "positions": [
                -2.691026800597167,
                -1.5072948858579902,
                2.194778125716478,
                0.5484205341723705,
                0.7475549502578549,
                -0.6532341957561307
            ]
        },
        {
            "positions": [
                -2.672965014886882,
                -1.4787346867971831,
                2.1797936851778728,
                0.4318287977336306,
                0.740985142670884,
                -0.8599904563501957
            ]
        },
        {
            "positions": [
                -2.654903229176597,
                -1.4501744877363758,
                2.1648092446392675,
                0.31523706129489093,
                0.734415335083913,
                -1.0667467169442606
            ]
        },
        {
            "positions": [
                -2.636841443466311,
                -1.4216142886755687,
                2.1498248041006622,
                0.19864532485615105,
                0.7278455274969421,
                -1.2735029775383264
            ]
        },
        {
            "positions": [
                -2.618779657756026,
                -1.3930540896147616,
                2.134840363562057,
                0.0820535884174114,
                0.7212757199099711,
                -1.4802592381323914
            ]
        },
        {
            "positions": [
                -2.600717872045741,
                -1.3644938905539543,
                2.1198559230234517,
                -0.03453814802132826,
                0.7147059123230002,
                -1.6870154987264567
            ]
        },
        {
            "positions": [
                -2.5826560863354557,
                -1.3359336914931472,
                2.1048714824848465,
                -0.15112988446006814,
                0.7081361047360292,
                -1.8937717593205217
            ]
        },
        {
            "positions": [
                -2.5645943006251706,
                -1.30737349243234,
                2.089887041946241,
                -0.26772162089880824,
                0.7015662971490583,
                -2.100528019914587
            ]
        },
        {
            "positions": [
                -2.5465325149148854,
                -1.2788132933715328,
                2.074902601407636,
                -0.3843133573375477,
                0.6949964895620873,
                -2.3072842805086524
            ]
        },
        {
            "positions": [
                -2.5284707292046003,
                -1.2502530943107257,
                2.0599181608690307,
                -0.5009050937762876,
                0.6884266819751164,
                -2.5140405411027174
            ]
        },
        {
            "positions": [
                -2.5104089434943146,
                -1.2216928952499184,
                2.0449337203304254,
                -0.617496830215027,
                0.6818568743881454,
                -2.7207968016967823
            ]
        },
        {
            "positions": [
                -2.4923471577840295,
                -1.193132696189111,
                2.02994927979182,
                -0.7340885666537669,
                0.6752870668011743,
                -2.927553062290848
            ]
        },
        {
            "positions": [
                -2.4742853720737443,
                -1.164572497128304,
                2.014964839253215,
                -0.8506803030925066,
                0.6687172592142034,
                -3.1343093228849135
            ]
        }
    ]
}