{
    "goal": {
        "global_pose": {
            "orientation": {
                "w": 0.7047431493862688,
                "x": -0.7094548369677653,
                "y": 0.0024358444001904,
                "z": -0.0022348060817251984
            },
            "position": {
                "x": -0.39052492380142206,
                "y": 0.3671506643295288,
                "z": 0.19426114857196808
            }
        },
        "name": "move_to_magneteinheit_D"
    },
    "id": "ProjEST_move_to_magneteinheit_D_33",
    "joint_names": [
        "shoulder_pan_joint",
        "shoulder_lift_joint",
        "elbow_joint",
        "wrist_1_joint",
        "wrist_2_joint",
        "wrist_3_joint"
    ],
    "metrics": {
        "cart_traj_len": 4.242609985001428,
        "distance_elbow_joint": 3.856151210601639,
        "distance_shoulder_lift_joint": 1.6244563820033056,
        "distance_shoulder_pan_joint": 4.861774498299851,
        "distance_wrist_1_joint": 1.9663804799413123,
        "distance_wrist_2_joint": 1.6471401008041495,
        "distance_wrist_3_joint": 3.2502538656632827,
        "smoothness": 0.6225901993921092,
        "time": 0.255526549,
        "traj_len": 4.148030440740947,
        "weighted_distance": 5.226871420781801
    },
    "planner": "ProjEST",
    "start": {
        "state": {
            "elbow_joint": 0.749534889911806,
            "shoulder_lift_joint": -0.6476975780787326,
            "shoulder_pan_joint": -2.711696901376241,
            "wrist_1_joint": -0.07506478083263063,
            "wrist_2_joint": 0.43296659715538205,
            "wrist_3_joint": -3.14703540197715
        }
    },
    "waypoints": [
        {
            "positions": [
                -2.711696901376241,
                -0.6476975780787326,
                0.749534889911806,
                -0.07506478083263063,
                0.43296659715538205,
                -3.14703540197715
            ]
        },
        {
            "positions": [
                -2.7174241022938723,
                -0.6939606982702233,
                0.6403460917694211,
                -0.06655096256274454,
                0.3835364196569721,
                -3.1007140677692293
            ]
        },
        {
            "positions": [
                -2.758844134832485,
                -0.7478555206725758,
                0.5417279179814951,
                -0.10747938952360375,
                0.40956840041800957,
                -3.0522418198268424
            ]
        },
        {
            "positions": [
                -2.800264167371098,
                -0.8017503430749283,
                0.443109744193569,
                -0.148407816484463,
                0.4356003811790471,
                -3.0037695718844555
            ]
        },
        {
            "positions": [
                -2.841684199909711,
                -0.8556451654772808,
                0.34449157040564293,
                -0.1893362434453222,
                0.46163236194008456,
                -2.9552973239420686
            ]
        },
        {
            "positions": [
                -2.726248893906715,
                -0.8714331470013517,
                0.24773518263114416,
                -0.13532053261348248,
                0.480867990600621,
                -2.864105198696259
            ]
        },
        {
            "positions": [
                -2.610813587903719,
                -0.8872211285254226,
                0.1509787948566454,
                -0.08130482178164272,
                0.5001036192611574,
                -2.7729130734504497
            ]
        },
        {
            "positions": [
                -2.495378281900723,
                -0.9030091100494934,
                0.05422240708214665,
                -0.02728911094980299,
                0.5193392479216938,
                -2.68172094820464
            ]
        },
        {
            "positions": [
                -2.379942975897727,
                -0.9187970915735643,
                -0.04253398069235215,
                0.026726599882036767,
                0.5385748765822302,
                -2.590528822958831
            ]
        },
        {
            "positions": [
                -2.264507669894731,
                -0.9345850730976352,
                -0.13929036846685094,
                0.08074231071387653,
                0.5578105052427668,
                -2.499336697713021
            ]
        },
        {
            "positions": [
                -2.149072363891735,
                -0.9503730546217061,
                -0.23604675624134963,
                0.13475802154571623,
                0.5770461339033032,
                -2.408144572467212
            ]
        },
        {
            "positions": [
                -2.033637057888739,
                -0.966161036145777,
                -0.33280314401584843,
                0.18877373237755599,
                0.5962817625638396,
                -2.3169524472214023
            ]
        },
        {
            "positions": [
                -1.918201751885743,
                -0.9819490176698478,
                -0.4295595317903472,
                0.24278944320939574,
                0.6155173912243761,
                -2.225760321975593
            ]
        },
        {
            "positions": [
                -1.802766445882747,
                -0.9977369991939187,
                -0.526315919564846,
                0.29680515404123553,
                0.6347530198849125,
                -2.1345681967297834
            ]
        },
        {
            "positions": [
                -1.687331139879751,
                -1.0135249807179896,
                -0.6230723073393448,
                0.3508208648730753,
                0.6539886485454489,
                -2.043376071483974
            ]
        },
        {
            "positions": [
                -1.571895833876755,
                -1.0293129622420605,
                -0.7198286951138436,
                0.40483657570491505,
                0.6732242772059853,
                -1.9521839462381645
            ]
        },
        {
            "positions": [
                -1.4564605278737592,
                -1.0451009437661314,
                -0.8165850828883422,
                0.4588522865367547,
                0.6924599058665217,
                -1.860991820992355
            ]
        },
        {
            "positions": [
                -1.3410252218707632,
                -1.0608889252902023,
                -0.913341470662841,
                0.5128679973685945,
                0.7116955345270581,
                -1.7697996957465456
            ]
        },
        {
            "positions": [
                -1.2255899158677672,
                -1.0766769068142732,
                -1.01009785843734,
                0.5668837082004342,
                0.7309311631875947,
                -1.6786075705007362
            ]
        },
        {
            "positions": [
                -1.1101546098647712,
                -1.092464888338344,
                -1.1068542462118387,
                0.620899419032274,
                0.7501667918481312,
                -1.5874154452549267
            ]
        },
        {
            "positions": [
                -0.9947193038617752,
                -1.1082528698624148,
                -1.2036106339863375,
                0.6749151298641137,
                0.7694024205086676,
                -1.4962233200091173
            ]
        },
        {
            "positions": [
                -0.8792839978587792,
                -1.1240408513864857,
                -1.3003670217608363,
                0.7289308406959535,
                0.788638049169204,
                -1.4050311947633078
            ]
        },
        {
            "positions": [
                -0.7638486918557832,
                -1.1398288329105566,
                -1.397123409535335,
                0.7829465515277932,
                0.8078736778297404,
                -1.3138390695174984
            ]
        },
        {
            "positions": [
                -0.6484133858527872,
                -1.1556168144346275,
                -1.493879797309834,
                0.836962262359633,
                0.8271093064902768,
                -1.222646944271689
            ]
        },
        {
            "positions": [
                -0.5329780798497912,
                -1.1714047959586984,
                -1.5906361850843327,
                0.8909779731914728,
                0.8463449351508132,
                -1.1314548190258795
            ]
        },
        {
            "positions": [
                -0.41754277384679517,
                -1.1871927774827693,
                -1.6873925728588315,
                0.9449936840233125,
                0.8655805638113496,
                -1.04026269378007
            ]
        },
        {
            "positions": [
                -0.30210746784379916,
                -1.2029807590068402,
                -1.7841489606333303,
                0.9990093948551523,
                0.8848161924718861,
                -0.9490705685342604
            ]
        },
        {
            "positions": [
                -0.18667216184080315,
                -1.218768740530911,
                -1.880905348407829,
                1.053025105686992,
                0.9040518211324227,
                -0.8578784432884512
            ]
        },
        {
            "positions": [
                -0.07123685583780759,
                -1.234556722054982,
                -1.9776617361823274,
                1.1070408165188315,
                0.9232874497929591,
                -0.7666863180426415
            ]
        },
        {
            "positions": [
                0.04419845016518842,
                -1.250344703579053,
                -2.0744181239568262,
                1.1610565273506712,
                0.9425230784534955,
                -0.6754941927968323
            ]
        },
        {
            "positions": [
                0.15963375616818443,
                -1.2661326851031238,
                -2.171174511731325,
                1.215072238182511,
                0.9617587071140319,
                -0.5843020675510227
            ]
        },
        {
            "positions": [
                0.27506906217118043,
                -1.2819206666271947,
                -2.267930899505824,
                1.2690879490143507,
                0.9809943357745683,
                -0.49310994230521343
            ]
        },
        {
            "positions": [
                0.39050436817417644,
                -1.2977086481512656,
                -2.3646872872803226,
                1.3231036598461905,
                1.0002299644351047,
                -0.40191781705940377
            ]
        },
        {
            "positions": [
                0.5059396741771724,
                -1.3134966296753363,
                -2.4614436750548214,
                1.3771193706780303,
                1.019465593095641,
                -0.31072569181359455
            ]
        },
        {
            "positions": [
                0.6213749801801685,
                -1.3292846111994072,
                -2.55820006282932,
                1.43113508150987,
                1.0387012217561777,
                -0.2195335665677849
            ]
        },
        {
            "positions": [
                0.7368102861831645,
                -1.3450725927234781,
                -2.654956450603819,
                1.4851507923417098,
                1.0579368504167141,
                -0.12834144132197567
            ]
        },
        {
            "positions": [
                0.8522455921861607,
                -1.360860574247549,
                -2.751712838378318,
                1.5391665031735495,
                1.0771724790772506,
                -0.03714931607616612
            ]
        },
        {
            "positions": [
                0.7369281024449931,
                -1.4621153948958256,
                -2.712279118121483,
                1.5273244327102187,
                0.9767198275344215,
                -0.021552896102577324
            ]
        },
        {
            "positions": [
                0.6216106127038254,
                -1.563370215544102,
                -2.672845397864648,
                1.515482362246888,
                0.8762671759915925,
                -0.005956476128988527
            ]
        },
        {
            "positions": [
                0.5062931229626579,
                -1.6646250361923787,
                -2.6334116776078127,
                1.5036402917835572,
                0.7758145244487635,
                0.00963994384460027
            ]
        },
        {
            "positions": [
                0.39097563322149026,
                -1.7658798568406553,
                -2.593977957350978,
                1.4917982213202265,
                0.6753618729059345,
                0.025236363818189063
            ]
        },
        {
            "positions": [
                0.2756581434803226,
                -1.867134677488932,
                -2.554544237094143,
                1.4799561508568957,
                0.5749092213631055,
                0.04083278379177786
            ]
        },
        {
            "positions": [
                0.16034065373915507,
                -1.9683894981372085,
                -2.515110516837308,
                1.468114080393565,
                0.4744565698202765,
                0.056429203765366656
            ]
        },
        {
            "positions": [
                0.04502316399798745,
                -2.069644318785485,
                -2.4756767965804727,
                1.4562720099302342,
                0.3740039182774475,
                0.07202562373895546
            ]
        },
        {
            "positions": [
                -0.07029432574318017,
                -2.170899139433762,
                -2.436243076323638,
                1.4444299394669036,
                0.2735512667346185,
                0.08762204371254424
            ]
        },
        {
            "positions": [
                -0.18561181548434788,
                -2.272153960082038,
                -2.396809356066803,
                1.4325878690035727,
                0.17309861519178954,
                0.10321846368613305
            ]
        }
    ]
}