{
    "goal": {
        "global_pose": {
            "orientation": {
                "w": -0.4816463035849501,
                "x": 0.5182115481033762,
                "y": 0.4908360881923453,
                "z": -0.5084816262002911
            },
            "position": {
                "x": -0.8240239810943604,
                "y": 0.19912469901144506,
                "z": 0.16403168439865112
            }
        },
        "name": "move_to_storage_D"
    },
    "id": "ProjEST_move_to_storage_D_15",
    "joint_names": [
        "shoulder_pan_joint",
        "shoulder_lift_joint",
        "elbow_joint",
        "wrist_1_joint",
        "wrist_2_joint",
        "wrist_3_joint"
    ],
    "metrics": {
        "cart_traj_len": 3.629463108303594,
        "distance_elbow_joint": 4.209526465403874,
        "distance_shoulder_lift_joint": 1.2658655605122553,
        "distance_shoulder_pan_joint": 2.812269190472803,
        "distance_wrist_1_joint": 2.2679842308777753,
        "distance_wrist_2_joint": 0.870670700050174,
        "distance_wrist_3_joint": 3.1363350022279355,
        "smoothness": 0.009287597781262586,
        "time": 0.189192079,
        "traj_len": 3.8161041848388813,
        "weighted_distance": 4.896322710456148
    },
    "planner": "ProjEST",
    "start": {
        "state": {
            "elbow_joint": -2.384821988534728,
            "shoulder_lift_joint": -2.2788054721415256,
            "shoulder_pan_joint": -0.1854694642142757,
            "wrist_1_joint": 1.4845938289331202,
            "wrist_2_joint": 0.17898776772866878,
            "wrist_3_joint": 0.037105688729662994
        }
    },
    "waypoints": [
        {
            "positions": [
                -0.1854694642142757,
                -2.2788054721415256,
                -2.384821988534728,
                1.4845938289331202,
                0.17898776772866878,
                0.037105688729662994
            ]
        },
        {
            "positions": [
                -0.1425394210900882,
                -2.2544948563694733,
                -2.381772012039203,
                1.416503886355546,
                0.18276610835324192,
                0.03953867599082725
            ]
        },
        {
            "positions": [
                -0.06045933921477624,
                -2.226001510575912,
                -2.251639558590385,
                1.3462222115498417,
                0.18394778216470914,
                -0.0332828013927466
            ]
        },
        {
            "positions": [
                0.021620742660535708,
                -2.1975081647823504,
                -2.121507105141567,
                1.2759405367441377,
                0.1851294559761764,
                -0.10610427877632045
            ]
        },
        {
            "positions": [
                0.10370082453584767,
                -2.169014818988789,
                -1.9913746516927484,
                1.2056588619384334,
                0.1863111297876436,
                -0.17892575615989428
            ]
        },
        {
            "positions": [
                0.1857809064111596,
                -2.140521473195228,
                -1.8612421982439302,
                1.1353771871327292,
                0.18749280359911083,
                -0.2517472335434682
            ]
        },
        {
            "positions": [
                0.26786098828647154,
                -2.1120281274016666,
                -1.7311097447951118,
                1.0650955123270252,
                0.18867447741057808,
                -0.324568710927042
            ]
        },
        {
            "positions": [
                0.34994107016178355,
                -2.083534781608105,
                -1.6009772913462936,
                0.9948138375213209,
                0.1898561512220453,
                -0.3973901883106158
            ]
        },
        {
            "positions": [
                0.43202115203709546,
                -2.0550414358145437,
                -1.4708448378974754,
                0.9245321627156167,
                0.19103782503351252,
                -0.4702116656941897
            ]
        },
        {
            "positions": [
                0.5141012339124074,
                -2.0265480900209822,
                -1.3407123844486573,
                0.8542504879099125,
                0.19221949884497977,
                -0.5430331430777635
            ]
        },
        {
            "positions": [
                0.5961813157877194,
                -1.9980547442274208,
                -1.2105799309998388,
                0.7839688131042083,
                0.193401172656447,
                -0.6158546204613374
            ]
        },
        {
            "positions": [
                0.6782613976630313,
                -1.9695613984338594,
                -1.0804474775510207,
                0.7136871382985043,
                0.19458284646791424,
                -0.6886760978449112
            ]
        },
        {
            "positions": [
                0.7603414795383433,
                -1.9410680526402981,
                -0.9503150241022023,
                0.6434054634928,
                0.19576452027938146,
                -0.7614975752284852
            ]
        },
        {
            "positions": [
                0.8424215614136552,
                -1.9125747068467367,
                -0.8201825706533841,
                0.5731237886870959,
                0.19694619409084868,
                -0.8343190526120589
            ]
        },
        {
            "positions": [
                0.9245016432889671,
                -1.8840813610531753,
                -0.6900501172045659,
                0.5028421138813917,
                0.19812786790231593,
                -0.9071405299956328
            ]
        },
        {
            "positions": [
                1.0065817251642792,
                -1.855588015259614,
                -0.5599176637557477,
                0.43256043907568753,
                0.19930954171378315,
                -0.9799620073792067
            ]
        },
        {
            "positions": [
                1.0886618070395913,
                -1.8270946694660526,
                -0.4297852103069293,
                0.3622787642699834,
                0.20049121552525037,
                -1.0527834847627806
            ]
        },
        {
            "positions": [
                1.170741888914903,
                -1.7986013236724911,
                -0.2996527568581113,
                0.29199708946427916,
                0.20167288933671762,
                -1.1256049621463544
            ]
        },
        {
            "positions": [
                1.252821970790215,
                -1.7701079778789297,
                -0.16952030340929314,
                0.22171541465857514,
                0.20285456314818484,
                -1.1984264395299282
            ]
        },
        {
            "positions": [
                1.334902052665527,
                -1.7416146320853683,
                -0.03938784996047451,
                0.15143373985287067,
                0.20403623695965206,
                -1.2712479169135023
            ]
        },
        {
            "positions": [
                1.416982134540839,
                -1.713121286291807,
                0.09074460348834368,
                0.08115206504716665,
                0.2052179107711193,
                -1.344069394297076
            ]
        },
        {
            "positions": [
                1.499062216416151,
                -1.6846279404982456,
                0.22087705693716186,
                0.010870390241462635,
                0.20639958458258653,
                -1.4168908716806499
            ]
        },
        {
            "positions": [
                1.5811422982914627,
                -1.6561345947046844,
                0.35100951038598005,
                -0.059411284564241607,
                0.20758125839405375,
                -1.4897123490642237
            ]
        },
        {
            "positions": [
                1.663222380166775,
                -1.627641248911123,
                0.4811419638347987,
                -0.12969295936994585,
                0.208762932205521,
                -1.5625338264477977
            ]
        },
        {
            "positions": [
                1.7453024620420867,
                -1.5991479031175615,
                0.6112744172836169,
                -0.1999746341756501,
                0.20994460601698822,
                -1.6353553038313715
            ]
        },
        {
            "positions": [
                1.8273825439173987,
                -1.570654557324,
                0.741406870732435,
                -0.2702563089813541,
                0.21112627982845544,
                -1.708176781214945
            ]
        },
        {
            "positions": [
                1.9094626257927108,
                -1.5421612115304386,
                0.8715393241812532,
                -0.34053798378705813,
                0.2123079536399227,
                -1.780998258598519
            ]
        },
        {
            "positions": [
                1.9915427076680225,
                -1.5136678657368772,
                1.0016717776300714,
                -0.4108196585927626,
                0.2134896274513899,
                -1.853819735982093
            ]
        },
        {
            "positions": [
                2.0736227895433346,
                -1.485174519943316,
                1.1318042310788896,
                -0.4811013333984666,
                0.21467130126285716,
                -1.9266412133656667
            ]
        },
        {
            "positions": [
                2.1557028714186464,
                -1.4566811741497547,
                1.2619366845277078,
                -0.5513830082041709,
                0.21585297507432438,
                -1.9994626907492408
            ]
        },
        {
            "positions": [
                2.237782953293958,
                -1.4281878283561933,
                1.392069137976526,
                -0.6216646830098749,
                0.2170346488857916,
                -2.0722841681328146
            ]
        },
        {
            "positions": [
                2.3198630351692704,
                -1.3996944825626318,
                1.5222015914253446,
                -0.6919463578155791,
                0.21821632269725885,
                -2.1451056455163884
            ]
        },
        {
            "positions": [
                2.401943117044582,
                -1.3712011367690704,
                1.6523340448741632,
                -0.7622280326212834,
                0.21939799650872607,
                -2.217927122899962
            ]
        },
        {
            "positions": [
                2.4340654897894316,
                -1.320020961749099,
                1.6769583923020184,
                -0.765251228238908,
                0.3380066352615999,
                -2.3431322966251025
            ]
        },
        {
            "positions": [
                2.4661878625342806,
                -1.2688407867291276,
                1.7015827397298735,
                -0.7682744238565327,
                0.45661527401447366,
                -2.4683374703502428
            ]
        },
        {
            "positions": [
                2.49831023527913,
                -1.2176606117091562,
                1.7262070871577286,
                -0.7712976194741573,
                0.5752239127673475,
                -2.5935426440753826
            ]
        },
        {
            "positions": [
                2.5304326080239794,
                -1.1664804366891848,
                1.7508314345855835,
                -0.7743208150917821,
                0.6938325515202213,
                -2.718747817800523
            ]
        },
        {
            "positions": [
                2.562554980768829,
                -1.1153002616692131,
                1.7754557820134387,
                -0.7773440107094067,
                0.8124411902730951,
                -2.843952991525663
            ]
        },
        {
            "positions": [
                2.594677353513678,
                -1.0641200866492417,
                1.8000801294412938,
                -0.7803672063270314,
                0.9310498290259689,
                -2.9691581652508034
            ]
        },
        {
            "positions": [
                2.626799726258527,
                -1.0129399116292703,
                1.824704476869149,
                -0.783390401944656,
                1.0496584677788428,
                -3.0943633389759437
            ]
        }
    ]
}