{
    "goal": {
        "global_pose": {
            "orientation": {
                "w": 0.7031023480610252,
                "x": -0.7110244013736278,
                "y": 0.0077485991402295624,
                "z": 0.005598929693374583
            },
            "position": {
                "x": -0.8841497679147869,
                "y": 0.44412534475326537,
                "z": 0.3711530566215515
            }
        },
        "name": "move_to_auspresseinheit_D"
    },
    "id": "ProjEST_move_to_auspresseinheit_D_121",
    "joint_names": [
        "shoulder_pan_joint",
        "shoulder_lift_joint",
        "elbow_joint",
        "wrist_1_joint",
        "wrist_2_joint",
        "wrist_3_joint"
    ],
    "metrics": {
        "cart_traj_len": 0.34312847995570056,
        "distance_elbow_joint": 0.6564739440862366,
        "distance_shoulder_lift_joint": 0.13190627878341576,
        "distance_shoulder_pan_joint": 0.1334045661090483,
        "distance_wrist_1_joint": 0.5993905170759257,
        "distance_wrist_2_joint": 1.432731030162726,
        "distance_wrist_3_joint": 0.05825585033319891,
        "smoothness": 3.9474596431116675e-16,
        "time": 0.024657724000000002,
        "traj_len": 1.7355581772301818,
        "weighted_distance": 2.2717384168199475
    },
    "planner": "ProjEST",
    "start": {
        "state": {
            "elbow_joint": -1.8275523626775212,
            "shoulder_lift_joint": -2.126789852344167,
            "shoulder_pan_joint": -0.03513704404078235,
            "wrist_1_joint": -2.347782403156801,
            "wrist_2_joint": -1.6058999987535132,
            "wrist_3_joint": -3.0880379163319196
        }
    },
    "waypoints": [
        {
            "positions": [
                -0.03513704404078235,
                -2.126789852344167,
                -1.8275523626775212,
                -2.347782403156801,
                -1.6058999987535132,
                -3.0880379163319196
            ]
        },
        {
            "positions": [
                -0.05181261480441339,
                -2.1432781371920937,
                -1.7454931196667416,
                -2.4227062177912915,
                -1.4268086199831724,
                -3.0807559350402696
            ]
        },
        {
            "positions": [
                -0.06848818556804442,
                -2.159766422040021,
                -1.663433876655962,
                -2.497630032425782,
                -1.2477172412128317,
                -3.07347395374862
            ]
        },
        {
            "positions": [
                -0.08516375633167547,
                -2.176254706887948,
                -1.5813746336451824,
                -2.572553847060273,
                -1.068625862442491,
                -3.06619197245697
            ]
        },
        {
            "positions": [
                -0.10183932709530649,
                -2.1927429917358747,
                -1.4993153906344028,
                -2.6474776616947637,
                -0.8895344836721502,
                -3.0589099911653204
            ]
        },
        {
            "positions": [
                -0.11851489785893754,
                -2.2092312765838016,
                -1.4172561476236232,
                -2.7224014763292543,
                -0.7104431049018094,
                -3.0516280098736703
            ]
        },
        {
            "positions": [
                -0.1351904686225686,
                -2.2257195614317284,
                -1.3351969046128438,
                -2.7973252909637454,
                -0.5313517261314686,
                -3.0443460285820203
            ]
        },
        {
            "positions": [
                -0.1518660393861996,
                -2.2422078462796557,
                -1.2531376616020642,
                -2.872249105598236,
                -0.3522603473611279,
                -3.0370640472903707
            ]
        },
        {
            "positions": [
                -0.16854161014983066,
                -2.2586961311275826,
                -1.1710784185912846,
                -2.9471729202327266,
                -0.1731689685907872,
                -3.0297820659987207
            ]
        }
    ]
}