{
    "goal": {
        "global_pose": {
            "orientation": {
                "w": -0.4816463035849501,
                "x": 0.5182115481033762,
                "y": 0.4908360881923453,
                "z": -0.5084816262002911
            },
            "position": {
                "x": -0.8240239810943604,
                "y": -0.300875300988555,
                "z": 0.16403168439865112
            }
        },
        "name": "move_to_storage_C"
    },
    "id": "ProjEST_move_to_storage_C_124",
    "joint_names": [
        "shoulder_pan_joint",
        "shoulder_lift_joint",
        "elbow_joint",
        "wrist_1_joint",
        "wrist_2_joint",
        "wrist_3_joint"
    ],
    "metrics": {
        "cart_traj_len": 0.5774133969763239,
        "distance_elbow_joint": 0.2577888475437913,
        "distance_shoulder_lift_joint": 0.1909237273819573,
        "distance_shoulder_pan_joint": 0.4944537323433966,
        "distance_wrist_1_joint": 0.06991978252550768,
        "distance_wrist_2_joint": 1.0713930780784064,
        "distance_wrist_3_joint": 0.06287557762453444,
        "smoothness": 0.0,
        "time": 0.018570643,
        "traj_len": 1.4653855279405463,
        "weighted_distance": 1.8478145906314782
    },
    "planner": "ProjEST",
    "start": {
        "state": {
            "elbow_joint": 2.010868314990456,
            "shoulder_lift_joint": -1.1634956873337592,
            "shoulder_pan_joint": -2.4736205022346125,
            "wrist_1_joint": -0.8367026794202681,
            "wrist_2_joint": 0.6746043897044499,
            "wrist_3_joint": -3.1496632123970403
        }
    },
    "waypoints": [
        {
            "positions": [
                -2.4736205022346125,
                -1.1634956873337592,
                2.010868314990456,
                -0.8367026794202681,
                0.6746043897044499,
                -3.1496632123970403
            ]
        },
        {
            "positions": [
                -2.5560294576251787,
                -1.131675066103433,
                1.9679035070664905,
                -0.8250493823326834,
                0.8531699027175177,
                -3.1391839494596177
            ]
        },
        {
            "positions": [
                -2.6384384130157446,
                -1.0998544448731067,
                1.9249386991425255,
                -0.8133960852450989,
                1.0317354157305854,
                -3.1287046865221955
            ]
        },
        {
            "positions": [
                -2.720847368406311,
                -1.0680338236427804,
                1.8819738912185602,
                -0.8017427881575143,
                1.2103009287436532,
                -3.1182254235847733
            ]
        },
        {
            "positions": [
                -2.803256323796877,
                -1.0362132024124544,
                1.839009083294595,
                -0.7900894910699297,
                1.3888664417567207,
                -3.1077461606473507
            ]
        },
        {
            "positions": [
                -2.885665279187443,
                -1.0043925811821282,
                1.7960442753706298,
                -0.778436193982345,
                1.5674319547697886,
                -3.097266897709928
            ]
        },
        {
            "positions": [
                -2.968074234578009,
                -0.9725719599518019,
                1.7530794674466645,
                -0.7667828968947604,
                1.7459974677828565,
                -3.086787634772506
            ]
        }
    ]
}