{
    "goal": {
        "global_pose": {
            "orientation": {
                "w": 0.7047431468963623,
                "x": -0.7094548344612122,
                "y": 0.0024358443915843964,
                "z": -0.0022348060738295317
            },
            "position": {
                "x": 0.6094750761985779,
                "y": 0.3671506643295288,
                "z": 0.19426114857196808
            }
        },
        "name": "move_to_magneteinheit_A"
    },
    "id": "ProjEST_move_to_magneteinheit_A_92",
    "joint_names": [
        "shoulder_pan_joint",
        "shoulder_lift_joint",
        "elbow_joint",
        "wrist_1_joint",
        "wrist_2_joint",
        "wrist_3_joint"
    ],
    "metrics": {
        "cart_traj_len": 3.246690355076243,
        "distance_elbow_joint": 3.922753849306808,
        "distance_shoulder_lift_joint": 0.4622576008764976,
        "distance_shoulder_pan_joint": 3.1137619690955027,
        "distance_wrist_1_joint": 3.5034813662770676,
        "distance_wrist_2_joint": 1.8134592576807627,
        "distance_wrist_3_joint": 1.5040835452997547,
        "smoothness": 0.2094376837333576,
        "time": 0.091211236,
        "traj_len": 3.784150841144733,
        "weighted_distance": 4.758666336600386
    },
    "planner": "ProjEST",
    "start": {
        "state": {
            "elbow_joint": -1.9196185241190666,
            "shoulder_lift_joint": -1.2443396400964142,
            "shoulder_pan_joint": 2.6996025414629847,
            "wrist_1_joint": -1.5485510000780065,
            "wrist_2_joint": -1.5709468930060704,
            "wrist_3_joint": 0.4420197071253992
        }
    },
    "waypoints": [
        {
            "positions": [
                2.6996025414629847,
                -1.2443396400964142,
                -1.9196185241190666,
                -1.5485510000780065,
                -1.5709468930060704,
                0.4420197071253992
            ]
        },
        {
            "positions": [
                2.6014914686460417,
                -1.24141082155633,
                -1.813330171357643,
                -1.4549585028645307,
                -1.5147820698207797,
                0.4077656879432275
            ]
        },
        {
            "positions": [
                2.5033803958290988,
                -1.2384820030162456,
                -1.7070418185962195,
                -1.3613660056510548,
                -1.458617246635489,
                0.3735116687610558
            ]
        },
        {
            "positions": [
                2.405269323012156,
                -1.2355531844761614,
                -1.6007534658347957,
                -1.267773508437579,
                -1.4024524234501985,
                0.3392576495788841
            ]
        },
        {
            "positions": [
                2.3071582501952133,
                -1.232624365936077,
                -1.4944651130733722,
                -1.1741810112241031,
                -1.3462876002649078,
                0.3050036303967124
            ]
        },
        {
            "positions": [
                2.2090471773782703,
                -1.2296955473959927,
                -1.3881767603119486,
                -1.0805885140106273,
                -1.290122777079617,
                0.2707496112145408
            ]
        },
        {
            "positions": [
                2.1109361045613273,
                -1.2267667288559085,
                -1.2818884075505248,
                -0.9869960167971514,
                -1.2339579538943264,
                0.23649559203236906
            ]
        },
        {
            "positions": [
                2.0128250317443843,
                -1.2238379103158241,
                -1.1756000547891012,
                -0.8934035195836756,
                -1.1777931307090357,
                0.20224157285019737
            ]
        },
        {
            "positions": [
                1.9147139589274413,
                -1.22090909177574,
                -1.0693117020276777,
                -0.7998110223701997,
                -1.1216283075237452,
                0.1679875536680257
            ]
        },
        {
            "positions": [
                1.8166028861104984,
                -1.2179802732356557,
                -0.963023349266254,
                -0.7062185251567239,
                -1.0654634843384545,
                0.133733534485854
            ]
        },
        {
            "positions": [
                1.7184918132935554,
                -1.2150514546955713,
                -0.8567349965048303,
                -0.6126260279432479,
                -1.0092986611531638,
                0.09947951530368232
            ]
        },
        {
            "positions": [
                1.6203807404766126,
                -1.212122636155487,
                -0.750446643743407,
                -0.5190335307297722,
                -0.9531338379678732,
                0.06522549612151063
            ]
        },
        {
            "positions": [
                1.5222696676596696,
                -1.2091938176154027,
                -0.6441582909819832,
                -0.42544103351629636,
                -0.8969690147825825,
                0.030971476939338938
            ]
        },
        {
            "positions": [
                1.4241585948427267,
                -1.2062649990753185,
                -0.5378699382205596,
                -0.3318485363028205,
                -0.8408041915972918,
                -0.0032825422428327533
            ]
        },
        {
            "positions": [
                1.326047522025784,
                -1.2033361805352343,
                -0.43158158545913583,
                -0.23825603908934467,
                -0.7846393684120011,
                -0.037536561425004444
            ]
        },
        {
            "positions": [
                1.227936449208841,
                -1.2004073619951499,
                -0.32529323269771226,
                -0.14466354187586883,
                -0.7284745452267105,
                -0.07179058060717614
            ]
        },
        {
            "positions": [
                1.1298253763918982,
                -1.1974785434550657,
                -0.2190048799362887,
                -0.051071044662392984,
                -0.6723097220414199,
                -0.10604459978934777
            ]
        },
        {
            "positions": [
                1.0317143035749552,
                -1.1945497249149815,
                -0.11271652717486536,
                0.04252145255108264,
                -0.6161448988561293,
                -0.1402986189715194
            ]
        },
        {
            "positions": [
                0.9336032307580122,
                -1.191620906374897,
                -0.0064281744134413454,
                0.1361139497645587,
                -0.5599800756708386,
                -0.17455263815369115
            ]
        },
        {
            "positions": [
                0.8354921579410695,
                -1.1886920878348128,
                0.09986017834798222,
                0.22970644697803455,
                -0.5038152524855479,
                -0.2088066573358628
            ]
        },
        {
            "positions": [
                0.7373810851241263,
                -1.1857632692947284,
                0.206148531109406,
                0.3232989441915106,
                -0.4476504293002572,
                -0.24306067651803454
            ]
        },
        {
            "positions": [
                0.6392700123071835,
                -1.1828344507546442,
                0.31243688387082935,
                0.41689144140498624,
                -0.3914856061149665,
                -0.27731469570020617
            ]
        },
        {
            "positions": [
                0.5411589394902405,
                -1.17990563221456,
                0.4187252366322527,
                0.5104839386184621,
                -0.33532078292967604,
                -0.3115687148823779
            ]
        },
        {
            "positions": [
                0.44304786667329754,
                -1.1769768136744756,
                0.5250135893936765,
                0.6040764358319379,
                -0.27915595974438534,
                -0.34582273406454966
            ]
        },
        {
            "positions": [
                0.34493679385635456,
                -1.1740479951343914,
                0.6313019421551003,
                0.6976689330454138,
                -0.22299113655909464,
                -0.3800767532467213
            ]
        },
        {
            "positions": [
                0.24682572103941203,
                -1.1711191765943072,
                0.7375902949165236,
                0.7912614302588896,
                -0.16682631337380416,
                -0.41433077242889294
            ]
        },
        {
            "positions": [
                0.1487146482224686,
                -1.1681903580542228,
                0.8438786476779474,
                0.8848539274723655,
                -0.11066149018851323,
                -0.4485847916110647
            ]
        },
        {
            "positions": [
                0.05060357540552607,
                -1.1652615395141386,
                0.9501670004393712,
                0.9784464246858413,
                -0.054496667003222754,
                -0.4828388107932363
            ]
        },
        {
            "positions": [
                -0.04750749741141691,
                -1.1623327209740542,
                1.056455353200795,
                1.0720389218993172,
                0.00166815618206817,
                -0.5170928299754081
            ]
        },
        {
            "positions": [
                -0.1456185702283598,
                -1.15940390243397,
                1.1627437059622183,
                1.1656314191127928,
                0.05783297936735859,
                -0.5513468491575797
            ]
        },
        {
            "positions": [
                -0.11205096305284021,
                -1.1122386695322133,
                1.2677926583654087,
                1.2642937874985765,
                0.03474805620394182,
                -0.4875072255304827
            ]
        },
        {
            "positions": [
                -0.0784833558773206,
                -1.0650734366304566,
                1.372841610768599,
                1.36295615588436,
                0.011663133040525048,
                -0.4236676019033857
            ]
        },
        {
            "positions": [
                -0.044915748701800984,
                -1.0179082037287,
                1.4778905631717896,
                1.4616185242701434,
                -0.011421790122891719,
                -0.35982797827628876
            ]
        },
        {
            "positions": [
                -0.011348141526281386,
                -0.9707429708269433,
                1.58293951557498,
                1.560280892655927,
                -0.03450671328630849,
                -0.29598835464919176
            ]
        },
        {
            "positions": [
                0.022219465649238213,
                -0.9235777379251866,
                1.6879884679781703,
                1.6589432610417107,
                -0.057591636449725266,
                -0.23214873102209477
            ]
        },
        {
            "positions": [
                0.05578707282475784,
                -0.8764125050234299,
                1.7930374203813608,
                1.7576056294274942,
                -0.08067655961314202,
                -0.16830910739499783
            ]
        },
        {
            "positions": [
                0.08935468000027744,
                -0.8292472721216733,
                1.8980863727845512,
                1.8562679978132777,
                -0.1037614827765588,
                -0.10446948376790083
            ]
        },
        {
            "positions": [
                0.12292228717579702,
                -0.7820820392199166,
                2.0031353251877415,
                1.9549303661990614,
                -0.12684640593997557,
                -0.04062986014080388
            ]
        }
    ]
}