{
    "goal": {
        "global_pose": {
            "orientation": {
                "w": 0.5084816217422485,
                "x": -0.49083608388900757,
                "y": 0.5182115435600281,
                "z": -0.4816462993621826
            },
            "position": {
                "x": 0.5540239810943604,
                "y": 0.030875300988554955,
                "z": 0.16403168439865112
            }
        },
        "name": "move_to_storage_A"
    },
    "id": "ProjEST_move_to_storage_A_86",
    "joint_names": [
        "shoulder_pan_joint",
        "shoulder_lift_joint",
        "elbow_joint",
        "wrist_1_joint",
        "wrist_2_joint",
        "wrist_3_joint"
    ],
    "metrics": {
        "cart_traj_len": 0.3529792214669803,
        "distance_elbow_joint": 0.4519150393919886,
        "distance_shoulder_lift_joint": 0.23408834345105856,
        "distance_shoulder_pan_joint": 0.46016578411835396,
        "distance_wrist_1_joint": 0.25640828794679027,
        "distance_wrist_2_joint": 1.104255334157945,
        "distance_wrist_3_joint": 0.09910107663757195,
        "smoothness": 8.881784197001252e-16,
        "time": 0.157455288,
        "traj_len": 1.6142905146545676,
        "weighted_distance": 2.040784075075947
    },
    "planner": "ProjEST",
    "start": {
        "state": {
            "elbow_joint": 1.971548259319323,
            "shoulder_lift_joint": -1.1394851275133948,
            "shoulder_pan_joint": 0.1228115487234821,
            "wrist_1_joint": -0.7804723859257726,
            "wrist_2_joint": 0.12958671773740124,
            "wrist_3_joint": -3.192489227718131
        }
    },
    "waypoints": [
        {
            "positions": [
                0.1228115487234821,
                -1.1394851275133948,
                1.971548259319323,
                -0.7804723859257726,
                0.12958671773740124,
                -3.192489227718131
            ]
        },
        {
            "positions": [
                0.05707357956371725,
                -1.1729263194349746,
                2.0361075506610358,
                -0.8171021413467426,
                0.2873374797599648,
                -3.178331931055621
            ]
        },
        {
            "positions": [
                -0.008664389596047595,
                -1.2063675113565544,
                2.1006668420027483,
                -0.8537318967677127,
                0.44508824178252837,
                -3.1641746343931105
            ]
        },
        {
            "positions": [
                -0.07440235875581244,
                -1.2398087032781342,
                2.165226133344461,
                -0.8903616521886827,
                0.6028390038050919,
                -3.1500173377306004
            ]
        },
        {
            "positions": [
                -0.1401403279155773,
                -1.273249895199714,
                2.2297854246861735,
                -0.9269914076096528,
                0.7605897658276556,
                -3.13586004106809
            ]
        },
        {
            "positions": [
                -0.20587829707534216,
                -1.3066910871212938,
                2.2943447160278865,
                -0.9636211630306228,
                0.9183405278502192,
                -3.12170274440558
            ]
        },
        {
            "positions": [
                -0.271616266235107,
                -1.3401322790428736,
                2.358904007369599,
                -1.0002509184515929,
                1.0760912898727826,
                -3.1075454477430693
            ]
        },
        {
            "positions": [
                -0.33735423539487186,
                -1.3735734709644534,
                2.4234632987113116,
                -1.0368806738725629,
                1.2338420518953463,
                -3.093388151080559
            ]
        }
    ]
}{
    "goal": {
        "global_pose": {
            "orientation": {
                "w": 0.5084816217422485,
                "x": -0.49083608388900757,
                "y": 0.5182115435600281,
                "z": -0.4816462993621826
            },
            "position": {
                "x": 0.5540239810943604,
                "y": 0.030875300988554955,
                "z": 0.16403168439865112
            }
        },
        "name": "move_to_storage_A"
    },
    "id": "ProjEST_move_to_storage_A_86",
    "joint_names": [
        "shoulder_pan_joint",
        "shoulder_lift_joint",
        "elbow_joint",
        "wrist_1_joint",
        "wrist_2_joint",
        "wrist_3_joint"
    ],
    "metrics": {
        "cart_traj_len": 0.3533846429589245,
        "distance_elbow_joint": 0.4501585465611857,
        "distance_shoulder_lift_joint": 0.23427764765563142,
        "distance_shoulder_pan_joint": 0.4640516867896305,
        "distance_wrist_1_joint": 0.23862393835065387,
        "distance_wrist_2_joint": 1.0914379382354018,
        "distance_wrist_3_joint": 0.09171422171872923,
        "smoothness": 4.440892098500626e-16,
        "time": 0.049490181,
        "traj_len": 1.6032042849591042,
        "weighted_distance": 2.0208301015510304
    },
    "planner": "ProjEST",
    "start": {
        "state": {
            "elbow_joint": 1.97154746011099,
            "shoulder_lift_joint": -1.13948474672311,
            "shoulder_pan_joint": 0.12281154466712228,
            "wrist_1_joint": -0.7804688027058302,
            "wrist_2_joint": 0.12958655903071145,
            "wrist_3_joint": 3.0906928834467795
        }
    },
    "waypoints": [
        {
            "positions": [
                0.12281154466712228,
                -1.13948474672311,
                1.97154746011099,
                -0.7804688027058302,
                0.12958655903071145,
                3.0906928834467795
            ]
        },
        {
            "positions": [
                0.056518446554317925,
                -1.1729529821024858,
                2.035855823905445,
                -0.8145579367559236,
                0.2855062644929117,
                3.1037949151208837
            ]
        },
        {
            "positions": [
                -0.009774651558486433,
                -1.2064212174818618,
                2.1001641876999,
                -0.848647070806017,
                0.44142596995511196,
                3.116896946794988
            ]
        },
        {
            "positions": [
                -0.07606774967129078,
                -1.2398894528612376,
                2.164472551494355,
                -0.8827362048561104,
                0.5973456754173122,
                3.129998978469092
            ]
        },
        {
            "positions": [
                -0.14236084778409513,
                -1.2733576882406137,
                2.2287809152888105,
                -0.9168253389062038,
                0.7532653808795124,
                3.143101010143196
            ]
        },
        {
            "positions": [
                -0.2086539458968995,
                -1.3068259236199895,
                2.2930892790832655,
                -0.9509144729562973,
                0.9091850863417128,
                3.1562030418173004
            ]
        },
        {
            "positions": [
                -0.2749470440097038,
                -1.3402941589993653,
                2.3573976428777206,
                -0.9850036070063907,
                1.065104791803913,
                3.1693050734914046
            ]
        },
        {
            "positions": [
                -0.3412401421225082,
                -1.3737623943787414,
                2.4217060066721756,
                -1.019092741056484,
                1.2210244972661133,
                3.1824071051655087
            ]
        }
    ]
}{
    "goal": {
        "global_pose": {
            "orientation": {
                "w": 0.5084816217422485,
                "x": -0.49083608388900757,
                "y": 0.5182115435600281,
                "z": -0.4816462993621826
            },
            "position": {
                "x": 0.5540239810943604,
                "y": 0.030875300988554955,
                "z": 0.16403168439865112
            }
        },
        "name": "move_to_storage_A"
    },
    "id": "ProjEST_move_to_storage_A_86",
    "joint_names": [
        "shoulder_pan_joint",
        "shoulder_lift_joint",
        "elbow_joint",
        "wrist_1_joint",
        "wrist_2_joint",
        "wrist_3_joint"
    ],
    "metrics": {
        "cart_traj_len": 0.3525338657588436,
        "distance_elbow_joint": 0.4478083026533408,
        "distance_shoulder_lift_joint": 0.23295429841614124,
        "distance_shoulder_pan_joint": 0.4612098168114645,
        "distance_wrist_1_joint": 0.23821202875153302,
        "distance_wrist_2_joint": 1.0956696633167309,
        "distance_wrist_3_joint": 0.09439815936493456,
        "smoothness": 0.0,
        "time": 0.06746091200000001,
        "traj_len": 1.6032006328947555,
        "weighted_distance": 2.023099177033167
    },
    "planner": "ProjEST",
    "start": {
        "state": {
            "elbow_joint": 1.9715472970024885,
            "shoulder_lift_joint": -1.1394870060712896,
            "shoulder_pan_joint": 0.12281152778156021,
            "wrist_1_joint": -0.780463741449964,
            "wrist_2_joint": 0.12958659822042276,
            "wrist_3_joint": 3.090690232415272
        }
    },
    "waypoints": [
        {
            "positions": [
                0.12281152778156021,
                -1.1394870060712896,
                1.9715472970024885,
                -0.780463741449964,
                0.12958659822042276,
                3.090690232415272
            ]
        },
        {
            "positions": [
                0.05692441109420815,
                -1.1727661915593097,
                2.0355199116672513,
                -0.8144940312716116,
                0.2861108358370986,
                3.1041756837531196
            ]
        },
        {
            "positions": [
                -0.00896270559314391,
                -1.20604537704733,
                2.0994925263320146,
                -0.8485243210932591,
                0.4426350734537744,
                3.1176611350909673
            ]
        },
        {
            "positions": [
                -0.07484982228049597,
                -1.2393245625353502,
                2.1634651409967773,
                -0.8825546109149067,
                0.5991593110704503,
                3.131146586428815
            ]
        },
        {
            "positions": [
                -0.14073693896784803,
                -1.2726037480233703,
                2.2274377556615406,
                -0.9165849007365543,
                0.7556835486871261,
                3.1446320377666632
            ]
        },
        {
            "positions": [
                -0.20662405565520012,
                -1.3058829335113904,
                2.2914103703263033,
                -0.9506151905582019,
                0.912207786303802,
                3.158117489104511
            ]
        },
        {
            "positions": [
                -0.2725111723425522,
                -1.3391621189994107,
                2.355382984991066,
                -0.9846454803798494,
                1.0687320239204778,
                3.1716029404423587
            ]
        },
        {
            "positions": [
                -0.33839828902990426,
                -1.3724413044874308,
                2.4193555996558294,
                -1.018675770201497,
                1.2252562615371536,
                3.1850883917802064
            ]
        }
    ]
}