{
    "goal": {
        "global_pose": {
            "orientation": {
                "w": 0.7047431493862688,
                "x": -0.7094548369677653,
                "y": 0.0024358444001904,
                "z": -0.0022348060817251984
            },
            "position": {
                "x": -0.39052492380142206,
                "y": 0.3671506643295288,
                "z": 0.19426114857196808
            }
        },
        "name": "move_to_magneteinheit_D"
    },
    "id": "ProjEST_move_to_magneteinheit_D_71",
    "joint_names": [
        "shoulder_pan_joint",
        "shoulder_lift_joint",
        "elbow_joint",
        "wrist_1_joint",
        "wrist_2_joint",
        "wrist_3_joint"
    ],
    "metrics": {
        "cart_traj_len": 5.007749747911089,
        "distance_elbow_joint": 3.5525518265847262,
        "distance_shoulder_lift_joint": 1.854556630185255,
        "distance_shoulder_pan_joint": 6.072272401453903,
        "distance_wrist_1_joint": 7.279606403487953,
        "distance_wrist_2_joint": 3.5319539845972168,
        "distance_wrist_3_joint": 5.257706546891178,
        "smoothness": 0.4033165953560573,
        "time": 0.29863684199999996,
        "traj_len": 5.2486805764115845,
        "weighted_distance": 6.991110160415709
    },
    "planner": "ProjEST",
    "start": {
        "state": {
            "elbow_joint": 0.749534889911806,
            "shoulder_lift_joint": -0.6476975780787326,
            "shoulder_pan_joint": -2.711696901376241,
            "wrist_1_joint": -0.07506478083263063,
            "wrist_2_joint": 0.43296659715538205,
            "wrist_3_joint": -3.14703540197715
        }
    },
    "waypoints": [
        {
            "positions": [
                -2.711696901376241,
                -0.6476975780787326,
                0.749534889911806,
                -0.07506478083263063,
                0.43296659715538205,
                -3.14703540197715
            ]
        },
        {
            "positions": [
                -2.7130122798130802,
                -0.6924583456836315,
                0.7788225861333774,
                0.008914186938102656,
                0.3891500268830842,
                -3.059607363412055
            ]
        },
        {
            "positions": [
                -2.7143276582499194,
                -0.7372191132885305,
                0.8081102823549488,
                0.09289315470883594,
                0.3453334566107863,
                -2.9721793248469597
            ]
        },
        {
            "positions": [
                -2.7156430366867585,
                -0.7819798808934294,
                0.8373979785765202,
                0.17687212247956924,
                0.30151688633848844,
                -2.8847512862818645
            ]
        },
        {
            "positions": [
                -2.7081806543216813,
                -0.8226977115336359,
                0.8489252181945358,
                0.28184648529226436,
                0.2395419393398246,
                -2.75606696159429
            ]
        },
        {
            "positions": [
                -2.7007182719566045,
                -0.8634155421738425,
                0.8604524578125513,
                0.3868208481049595,
                0.17756699234116075,
                -2.627382636906716
            ]
        },
        {
            "positions": [
                -2.6932558895915273,
                -0.904133372814049,
                0.8719796974305669,
                0.4917952109176546,
                0.1155920453424969,
                -2.4986983122191417
            ]
        },
        {
            "positions": [
                -2.6857935072264505,
                -0.9448512034542557,
                0.8835069370485824,
                0.5967695737303498,
                0.05361709834383302,
                -2.3700139875315673
            ]
        },
        {
            "positions": [
                -2.6783311248613733,
                -0.9855690340944622,
                0.895034176666598,
                0.7017439365430449,
                -0.008357848654830857,
                -2.2413296628439934
            ]
        },
        {
            "positions": [
                -2.6708687424962965,
                -1.0262868647346688,
                0.9065614162846135,
                0.80671829935574,
                -0.07033279565349465,
                -2.112645338156419
            ]
        },
        {
            "positions": [
                -2.6634063601312192,
                -1.0670046953748753,
                0.9180886559026291,
                0.9116926621684351,
                -0.13230774265215856,
                -1.9839610134688446
            ]
        },
        {
            "positions": [
                -2.551639098534966,
                -1.0641276689937418,
                0.8302317274924284,
                0.8370094395299861,
                -0.16721537477752557,
                -1.9040336690382451
            ]
        },
        {
            "positions": [
                -2.439871836938713,
                -1.0612506426126083,
                0.7423747990822277,
                0.762326216891537,
                -0.2021230069028926,
                -1.8241063246076457
            ]
        },
        {
            "positions": [
                -2.32810457534246,
                -1.0583736162314747,
                0.6545178706720269,
                0.687642994253088,
                -0.2370306390282596,
                -1.7441789801770464
            ]
        },
        {
            "positions": [
                -2.216337313746207,
                -1.0554965898503414,
                0.5666609422618263,
                0.6129597716146389,
                -0.2719382711536267,
                -1.664251635746447
            ]
        },
        {
            "positions": [
                -2.104570052149954,
                -1.052619563469208,
                0.4788040138516255,
                0.5382765489761898,
                -0.30684590327899364,
                -1.5843242913158475
            ]
        },
        {
            "positions": [
                -1.992802790553701,
                -1.0497425370880744,
                0.39094708544142476,
                0.46359332633774086,
                -0.3417535354043607,
                -1.5043969468852483
            ]
        },
        {
            "positions": [
                -1.8810355289574479,
                -1.046865510706941,
                0.3030901570312241,
                0.3889101036992918,
                -0.3766611675297277,
                -1.4244696024546486
            ]
        },
        {
            "positions": [
                -1.7692682673611948,
                -1.0439884843258074,
                0.21523322862102334,
                0.31422688106084273,
                -0.41156879965509474,
                -1.3445422580240494
            ]
        },
        {
            "positions": [
                -1.6575010057649415,
                -1.0411114579446739,
                0.1273763002108227,
                0.23954365842239367,
                -0.44647643178046176,
                -1.26461491359345
            ]
        },
        {
            "positions": [
                -1.5457337441686885,
                -1.0382344315635406,
                0.03951937180062193,
                0.1648604357839446,
                -0.4813840639058288,
                -1.1846875691628505
            ]
        },
        {
            "positions": [
                -1.4339664825724354,
                -1.035357405182407,
                -0.048337556609578836,
                0.09017721314549554,
                -0.5162916960311958,
                -1.104760224732251
            ]
        },
        {
            "positions": [
                -1.3221992209761824,
                -1.0324803788012735,
                -0.1361944850197796,
                0.015493990507046584,
                -0.5511993281565628,
                -1.0248328803016518
            ]
        },
        {
            "positions": [
                -1.210431959379929,
                -1.02960335242014,
                -0.22405141342998025,
                -0.05918923213140259,
                -0.5861069602819299,
                -0.9449055358710523
            ]
        },
        {
            "positions": [
                -1.0986646977836763,
                -1.0267263260390065,
                -0.3119083418401809,
                -0.13387245476985155,
                -0.621014592407297,
                -0.8649781914404528
            ]
        },
        {
            "positions": [
                -0.986897436187423,
                -1.023849299657873,
                -0.3997652702503818,
                -0.2085556774083006,
                -0.6559222245326639,
                -0.7850508470098534
            ]
        },
        {
            "positions": [
                -0.8751301745911702,
                -1.0209722732767397,
                -0.48762219866058243,
                -0.2832389000467497,
                -0.6908298566580309,
                -0.7051235025792542
            ]
        },
        {
            "positions": [
                -0.7633629129949169,
                -1.0180952468956062,
                -0.5754791270707831,
                -0.35792212268519874,
                -0.725737488783398,
                -0.6251961581486547
            ]
        },
        {
            "positions": [
                -0.6515956513986638,
                -1.0152182205144726,
                -0.6633360554809837,
                -0.4326053453236478,
                -0.760645120908765,
                -0.5452688137180552
            ]
        },
        {
            "positions": [
                -0.5398283898024108,
                -1.0123411941333391,
                -0.7511929838911846,
                -0.5072885679620969,
                -0.795552753034132,
                -0.4653414692874558
            ]
        },
        {
            "positions": [
                -0.4280611282061577,
                -1.0094641677522056,
                -0.8390499123013853,
                -0.5819717906005459,
                -0.8304603851594989,
                -0.38541412485685655
            ]
        },
        {
            "positions": [
                -0.3162938666099042,
                -1.006587141371072,
                -0.9269068407115861,
                -0.6566550132389952,
                -0.8653680172848661,
                -0.3054867804262569
            ]
        },
        {
            "positions": [
                -0.2045266050136516,
                -1.0037101149899386,
                -1.0147637691217868,
                -0.7313382358774441,
                -0.9002756494102331,
                -0.22555943599565742
            ]
        },
        {
            "positions": [
                -0.09275934341739855,
                -1.0008330886088053,
                -1.1026206975319877,
                -0.8060214585158931,
                -0.9351832815356,
                -0.14563209156505819
            ]
        },
        {
            "positions": [
                0.0190079181788545,
                -0.9979560622276717,
                -1.1904776259421883,
                -0.880704681154342,
                -0.970090913660967,
                -0.06570474713445895
            ]
        },
        {
            "positions": [
                0.130775179775108,
                -0.9950790358465382,
                -1.278334554352389,
                -0.9553879037927913,
                -1.0049985457863342,
                0.014222597296140727
            ]
        },
        {
            "positions": [
                0.24254244137136105,
                -0.9922020094654047,
                -1.3661914827625896,
                -1.0300711264312403,
                -1.0399061779117011,
                0.09414994172673996
            ]
        },
        {
            "positions": [
                0.35430970296761366,
                -0.9893249830842712,
                -1.4540484111727903,
                -1.1047543490696894,
                -1.074813810037068,
                0.17407728615733964
            ]
        },
        {
            "positions": [
                0.4660769645638667,
                -0.9864479567031378,
                -1.541905339582991,
                -1.1794375717081382,
                -1.1097214421624353,
                0.2540046305879389
            ]
        },
        {
            "positions": [
                0.5778442261601202,
                -0.9835709303220043,
                -1.629762267993192,
                -1.2541207943465875,
                -1.1446290742878025,
                0.33393197501853855
            ]
        },
        {
            "positions": [
                0.6896114877563733,
                -0.9806939039408709,
                -1.7176191964033927,
                -1.3288040169850364,
                -1.1795367064131694,
                0.4138593194491378
            ]
        },
        {
            "positions": [
                0.8013787493526259,
                -0.9778168775597373,
                -1.8054761248135933,
                -1.4034872396234856,
                -1.2144443385385364,
                0.493786663879737
            ]
        },
        {
            "positions": [
                0.9131460109488789,
                -0.9749398511786038,
                -1.893333053223794,
                -1.4781704622619345,
                -1.2493519706639034,
                0.5737140083103363
            ]
        },
        {
            "positions": [
                1.0249132725451324,
                -0.9720628247974703,
                -1.9811899816339946,
                -1.5528536849003838,
                -1.2842596027892705,
                0.6536413527409359
            ]
        },
        {
            "positions": [
                1.1366805341413855,
                -0.9691857984163369,
                -2.0690469100441953,
                -1.6275369075388326,
                -1.3191672349146375,
                0.7335686971715352
            ]
        },
        {
            "positions": [
                1.2484477957376385,
                -0.9663087720352034,
                -2.156903838454396,
                -1.7022201301772815,
                -1.3540748670400045,
                0.8134960416021348
            ]
        },
        {
            "positions": [
                1.3602150573338916,
                -0.9634317456540699,
                -2.2447607668645966,
                -1.7769033528157308,
                -1.3889824991653714,
                0.8934233860327341
            ]
        },
        {
            "positions": [
                1.471982318930145,
                -0.9605547192729365,
                -2.3326176952747977,
                -1.85158657545418,
                -1.4238901312907386,
                0.9733507304633338
            ]
        },
        {
            "positions": [
                1.5837495805263977,
                -0.9576776928918029,
                -2.4204746236849983,
                -1.926269798092629,
                -1.4587977634161056,
                1.053278074893933
            ]
        },
        {
            "positions": [
                1.5100440118209715,
                -1.0129244641587212,
                -2.418581507809737,
                -1.7823161939165535,
                -1.3904565290817001,
                1.0092200303097623
            ]
        },
        {
            "positions": [
                1.4363384431155453,
                -1.0681712354256396,
                -2.4166883919344753,
                -1.6383625897404779,
                -1.322115294747295,
                0.9651619857255915
            ]
        },
        {
            "positions": [
                1.362632874410119,
                -1.1234180066925579,
                -2.414795276059214,
                -1.4944089855644023,
                -1.2537740604128895,
                0.9211039411414208
            ]
        },
        {
            "positions": [
                1.2889273057046928,
                -1.1786647779594763,
                -2.412902160183952,
                -1.3504553813883267,
                -1.1854328260784843,
                0.8770458965572501
            ]
        },
        {
            "positions": [
                1.2152217369992666,
                -1.2339115492263946,
                -2.411009044308691,
                -1.206501777212251,
                -1.117091591744079,
                0.8329878519730793
            ]
        },
        {
            "positions": [
                1.1415161682938404,
                -1.2891583204933128,
                -2.4091159284334296,
                -1.0625481730361754,
                -1.0487503574096735,
                0.7889298073889086
            ]
        },
        {
            "positions": [
                1.0678105995884142,
                -1.3444050917602313,
                -2.407222812558168,
                -0.9185945688600998,
                -0.9804091230752681,
                0.7448717628047379
            ]
        },
        {
            "positions": [
                0.9941050308829882,
                -1.3996518630271495,
                -2.4053296966829065,
                -0.7746409646840242,
                -0.9120678887408629,
                0.7008137182205673
            ]
        },
        {
            "positions": [
                0.920399462177562,
                -1.454898634294068,
                -2.4034365808076448,
                -0.6306873605079486,
                -0.8437266544064574,
                0.6567556736363965
            ]
        },
        {
            "positions": [
                0.8466938934721356,
                -1.5101454055609862,
                -2.4015434649323835,
                -0.486733756331873,
                -0.775385420072052,
                0.6126976290522257
            ]
        },
        {
            "positions": [
                0.7729883247667095,
                -1.5653921768279044,
                -2.3996503490571217,
                -0.3427801521557974,
                -0.7070441857376468,
                0.5686395844680551
            ]
        },
        {
            "positions": [
                0.6992827560612833,
                -1.620638948094823,
                -2.3977572331818604,
                -0.19882654797972177,
                -0.6387029514032414,
                0.5245815398838843
            ]
        },
        {
            "positions": [
                0.6255771873558572,
                -1.6758857193617411,
                -2.395864117306599,
                -0.05487294380364638,
                -0.5703617170688361,
                0.4805234952997136
            ]
        },
        {
            "positions": [
                0.5518716186504309,
                -1.7311324906286596,
                -2.3939710014313373,
                0.08908066037242945,
                -0.5020204827344307,
                0.4364654507155429
            ]
        },
        {
            "positions": [
                0.47816604994500467,
                -1.7863792618955778,
                -2.392077885556076,
                0.23303426454850507,
                -0.43367924840002536,
                0.39240740613137215
            ]
        },
        {
            "positions": [
                0.4044604812395787,
                -1.841626033162496,
                -2.3901847696808143,
                0.3769878687245807,
                -0.36533801406562016,
                0.34834936154720153
            ]
        },
        {
            "positions": [
                0.33075491253415223,
                -1.8968728044294147,
                -2.388291653805553,
                0.5209414729006563,
                -0.2969967797312145,
                0.3042913169630307
            ]
        },
        {
            "positions": [
                0.25704934382872624,
                -1.952119575696333,
                -2.386398537930291,
                0.6648950770767319,
                -0.22865554539680932,
                0.26023327237886007
            ]
        },
        {
            "positions": [
                0.18334377512330002,
                -2.0073663469632512,
                -2.38450542205503,
                0.8088486812528075,
                -0.16031431106240412,
                0.21617522779468934
            ]
        },
        {
            "positions": [
                0.10963820641787358,
                -2.0626131182301695,
                -2.3826123061797686,
                0.9528022854288831,
                -0.09197307672799848,
                0.1721171832105185
            ]
        },
        {
            "positions": [
                0.03593263771244759,
                -2.1178598894970877,
                -2.380719190304507,
                1.0967558896049587,
                -0.023631842393593283,
                0.12805913862634788
            ]
        },
        {
            "positions": [
                -0.037772930992978626,
                -2.173106660764006,
                -2.3788260744292455,
                1.2407094937810343,
                0.044709391940811916,
                0.08400109404217715
            ]
        },
        {
            "positions": [
                -0.11147849969840484,
                -2.2283534320309246,
                -2.376932958553984,
                1.38466309795711,
                0.11305062627521756,
                0.03994304945800642
            ]
        },
        {
            "positions": [
                -0.18518406840383114,
                -2.283600203297843,
                -2.3750398426787225,
                1.5286167021331853,
                0.18139186060962284,
                -0.0041149951261643496
            ]
        }
    ]
}