{
    "goal": {
        "global_pose": {
            "orientation": {
                "w": -0.4816463035849501,
                "x": 0.5182115481033762,
                "y": 0.4908360881923453,
                "z": -0.5084816262002911
            },
            "position": {
                "x": -0.8240239810943604,
                "y": 0.19912469901144506,
                "z": 0.16403168439865112
            }
        },
        "name": "move_to_storage_D"
    },
    "id": "ProjEST_move_to_storage_D_19",
    "joint_names": [
        "shoulder_pan_joint",
        "shoulder_lift_joint",
        "elbow_joint",
        "wrist_1_joint",
        "wrist_2_joint",
        "wrist_3_joint"
    ],
    "metrics": {
        "cart_traj_len": 3.2821553891052795,
        "distance_elbow_joint": 4.211946885077177,
        "distance_shoulder_lift_joint": 1.2694504064009207,
        "distance_shoulder_pan_joint": 2.8130633232829454,
        "distance_wrist_1_joint": 2.310353979884883,
        "distance_wrist_2_joint": 2.0848063541074278,
        "distance_wrist_3_joint": 3.1439403915351227,
        "smoothness": 0.09366885993601817,
        "time": 0.11997453599999999,
        "traj_len": 3.979140779149248,
        "weighted_distance": 5.1494273912107
    },
    "planner": "ProjEST",
    "start": {
        "state": {
            "elbow_joint": -2.384821988534728,
            "shoulder_lift_joint": -2.2788054721415256,
            "shoulder_pan_joint": -0.1854694642142757,
            "wrist_1_joint": 1.4845938289331202,
            "wrist_2_joint": 0.17898776772866878,
            "wrist_3_joint": 0.037105688729662994
        }
    },
    "waypoints": [
        {
            "positions": [
                -0.1854694642142757,
                -2.2788054721415256,
                -2.384821988534728,
                1.4845938289331202,
                0.17898776772866878,
                0.037105688729662994
            ]
        },
        {
            "positions": [
                -0.11759146223830652,
                -2.2304686089825387,
                -2.3657619880184564,
                1.5014475371895848,
                0.13362580793831885,
                -0.024950019016984952
            ]
        },
        {
            "positions": [
                -0.014369004822201464,
                -2.163912122029515,
                -2.304584073589604,
                1.4991503276544103,
                0.09056159332208535,
                -0.12460725794071237
            ]
        },
        {
            "positions": [
                0.08885345259390359,
                -2.097355635076492,
                -2.2434061591607515,
                1.4968531181192355,
                0.047497378705851856,
                -0.22426449686443978
            ]
        },
        {
            "positions": [
                0.19207591001000868,
                -2.0307991481234686,
                -2.1822282447318995,
                1.494555908584061,
                0.004433164089618358,
                -0.3239217357881672
            ]
        },
        {
            "positions": [
                0.2952983674261137,
                -1.9642426611704453,
                -2.121050330303047,
                1.4922586990488862,
                -0.03863105052661514,
                -0.4235789747118946
            ]
        },
        {
            "positions": [
                0.39852082484221873,
                -1.897686174217422,
                -2.0598724158741946,
                1.4899614895137117,
                -0.08169526514284864,
                -0.523236213635622
            ]
        },
        {
            "positions": [
                0.5017432822583239,
                -1.8311296872643985,
                -1.9986945014453423,
                1.4876642799785371,
                -0.12475947975908214,
                -0.6228934525593494
            ]
        },
        {
            "positions": [
                0.6049657396744288,
                -1.7645732003113754,
                -1.9375165870164899,
                1.4853670704433624,
                -0.16782369437531558,
                -0.7225506914830767
            ]
        },
        {
            "positions": [
                0.7081881970905339,
                -1.698016713358352,
                -1.8763386725876376,
                1.4830698609081878,
                -0.21088790899154913,
                -0.8222079304068042
            ]
        },
        {
            "positions": [
                0.811410654506639,
                -1.6314602264053286,
                -1.8151607581587852,
                1.4807726513730133,
                -0.2539521236077826,
                -0.9218651693305315
            ]
        },
        {
            "positions": [
                0.914633111922744,
                -1.5649037394523053,
                -1.7539828437299327,
                1.4784754418378385,
                -0.29701633822401613,
                -1.021522408254259
            ]
        },
        {
            "positions": [
                1.0178555693388491,
                -1.4983472524992818,
                -1.6928049293010805,
                1.476178232302664,
                -0.3400805528402496,
                -1.1211796471779862
            ]
        },
        {
            "positions": [
                1.1210780267549543,
                -1.4317907655462585,
                -1.6316270148722283,
                1.4738810227674892,
                -0.3831447674564831,
                -1.2208368861017138
            ]
        },
        {
            "positions": [
                1.2243004841710592,
                -1.3652342785932352,
                -1.5704491004433758,
                1.4715838132323147,
                -0.4262089820727165,
                -1.3204941250254412
            ]
        },
        {
            "positions": [
                1.2760628276751813,
                -1.3516318703832118,
                -1.448097588234912,
                1.3906916496923862,
                -0.3740164657261199,
                -1.3858749262953993
            ]
        },
        {
            "positions": [
                1.3278251711793032,
                -1.3380294621731883,
                -1.3257460760264483,
                1.3097994861524578,
                -0.32182394937952324,
                -1.4512557275653575
            ]
        },
        {
            "positions": [
                1.3795875146834253,
                -1.3244270539631648,
                -1.2033945638179848,
                1.2289073226125296,
                -0.2696314330329266,
                -1.5166365288353154
            ]
        },
        {
            "positions": [
                1.4313498581875472,
                -1.3108246457531414,
                -1.081043051609521,
                1.148015159072601,
                -0.21743891668632997,
                -1.5820173301052736
            ]
        },
        {
            "positions": [
                1.4831122016916694,
                -1.297222237543118,
                -0.9586915394010574,
                1.0671229955326726,
                -0.1652464003397333,
                -1.6473981313752317
            ]
        },
        {
            "positions": [
                1.5348745451957913,
                -1.2836198293330945,
                -0.8363400271925937,
                0.9862308319927442,
                -0.1130538839931367,
                -1.7127789326451899
            ]
        },
        {
            "positions": [
                1.5866368886999134,
                -1.270017421123071,
                -0.7139885149841302,
                0.9053386684528159,
                -0.0608613676465401,
                -1.7781597339151478
            ]
        },
        {
            "positions": [
                1.6383992322040353,
                -1.2564150129130476,
                -0.5916370027756663,
                0.8244465049128874,
                -0.008668851299943436,
                -1.843540535185106
            ]
        },
        {
            "positions": [
                1.6901615757081574,
                -1.2428126047030241,
                -0.4692854905672028,
                0.7435543413729591,
                0.04352366504665317,
                -1.9089213364550641
            ]
        },
        {
            "positions": [
                1.7419239192122795,
                -1.2292101964930007,
                -0.34693397835873907,
                0.6626621778330306,
                0.09571618139324989,
                -1.9743021377250223
            ]
        },
        {
            "positions": [
                1.7936862627164014,
                -1.2156077882829772,
                -0.22458246615027533,
                0.5817700142931023,
                0.14790869773984638,
                -2.0396829389949804
            ]
        },
        {
            "positions": [
                1.8454486062205233,
                -1.2020053800729538,
                -0.10223095394181159,
                0.5008778507531738,
                0.2001012140864431,
                -2.1050637402649386
            ]
        },
        {
            "positions": [
                1.8972109497246454,
                -1.1884029718629303,
                0.020120558266651933,
                0.4199856872132455,
                0.2522937304330397,
                -2.1704445415348967
            ]
        },
        {
            "positions": [
                1.9489732932287676,
                -1.1748005636529069,
                0.14247207047511545,
                0.339093523673317,
                0.3044862467796363,
                -2.2358253428048545
            ]
        },
        {
            "positions": [
                2.0007356367328892,
                -1.1611981554428834,
                0.2648235826835792,
                0.2582013601333888,
                0.3566787631262329,
                -2.3012061440748126
            ]
        },
        {
            "positions": [
                2.0524979802370114,
                -1.14759574723286,
                0.38717509489204316,
                0.17730919659346012,
                0.40887127947282964,
                -2.366586945344771
            ]
        },
        {
            "positions": [
                2.1042603237411335,
                -1.1339933390228365,
                0.5095266071005065,
                0.09641703305353189,
                0.46106379581942625,
                -2.431967746614729
            ]
        },
        {
            "positions": [
                2.1560226672452556,
                -1.120390930812813,
                0.6318781193089702,
                0.015524869513603434,
                0.5132563121660229,
                -2.497348547884687
            ]
        },
        {
            "positions": [
                2.2077850107493777,
                -1.1067885226027896,
                0.7542296315174339,
                -0.0653672940263248,
                0.5654488285126195,
                -2.562729349154645
            ]
        },
        {
            "positions": [
                2.2595473542535,
                -1.0931861143927661,
                0.8765811437258977,
                -0.14625945756625347,
                0.6176413448592163,
                -2.6281101504246034
            ]
        },
        {
            "positions": [
                2.3113096977576215,
                -1.0795837061827427,
                0.9989326559343614,
                -0.2271516211061817,
                0.6698338612058129,
                -2.693490951694561
            ]
        },
        {
            "positions": [
                2.3630720412617436,
                -1.0659812979727192,
                1.1212841681428252,
                -0.30804378464611015,
                0.7220263775524093,
                -2.7588717529645193
            ]
        },
        {
            "positions": [
                2.4148343847658653,
                -1.0523788897626958,
                1.2436356803512885,
                -0.3889359481860384,
                0.7742188938990059,
                -2.8242525542344774
            ]
        },
        {
            "positions": [
                2.4665967282699874,
                -1.0387764815526723,
                1.3659871925597526,
                -0.46982811172596706,
                0.8264114102456027,
                -2.8896333555044356
            ]
        },
        {
            "positions": [
                2.5183590717741096,
                -1.0251740733426489,
                1.488338704768216,
                -0.5507202752658955,
                0.8786039265921993,
                -2.9550141567743937
            ]
        },
        {
            "positions": [
                2.5701214152782317,
                -1.0115716651326254,
                1.6106902169766797,
                -0.6316124388058237,
                0.9307964429387959,
                -3.020394958044352
            ]
        },
        {
            "positions": [
                2.5988576371734506,
                -1.0126799648286355,
                1.7189075567595649,
                -0.711832586622329,
                0.9920985325860612,
                -3.063614830424906
            ]
        },
        {
            "positions": [
                2.6275938590686696,
                -1.0137882645246459,
                1.8271248965424502,
                -0.7920527344388341,
                1.0534006222333263,
                -3.1068347028054597
            ]
        }
    ]
}