{
    "goal": {
        "global_pose": {
            "orientation": {
                "w": 0.7031023480610252,
                "x": -0.7110244013736278,
                "y": 0.0077485991402295624,
                "z": 0.005598929693374583
            },
            "position": {
                "x": -0.8841497679147869,
                "y": 0.44412534475326537,
                "z": 0.3711530566215515
            }
        },
        "name": "move_to_auspresseinheit_D"
    },
    "id": "ProjEST_move_to_auspresseinheit_D_46",
    "joint_names": [
        "shoulder_pan_joint",
        "shoulder_lift_joint",
        "elbow_joint",
        "wrist_1_joint",
        "wrist_2_joint",
        "wrist_3_joint"
    ],
    "metrics": {
        "cart_traj_len": 0.34573001381559754,
        "distance_elbow_joint": 0.67482428180007,
        "distance_shoulder_lift_joint": 0.1412073230681341,
        "distance_shoulder_pan_joint": 0.13424410513068885,
        "distance_wrist_1_joint": 0.6415875967137707,
        "distance_wrist_2_joint": 1.4403098607207196,
        "distance_wrist_3_joint": 0.1000836722159133,
        "smoothness": 2.9605947279411004e-16,
        "time": 0.095284107,
        "traj_len": 1.7698183069595865,
        "weighted_distance": 2.326869493872747
    },
    "planner": "ProjEST",
    "start": {
        "state": {
            "elbow_joint": -1.8275523626775212,
            "shoulder_lift_joint": -2.126789852344167,
            "shoulder_pan_joint": -0.03513704404078235,
            "wrist_1_joint": -2.347782403156801,
            "wrist_2_joint": -1.6058999987535132,
            "wrist_3_joint": -3.0880379163319196
        }
    },
    "waypoints": [
        {
            "positions": [
                -0.03513704404078235,
                -2.126789852344167,
                -1.8275523626775212,
                -2.347782403156801,
                -1.6058999987535132,
                -3.0880379163319196
            ]
        },
        {
            "positions": [
                -0.051917557182118455,
                -2.1444407677276835,
                -1.7431993274525124,
                -2.427980852746022,
                -1.4258612661634231,
                -3.0755274573049305
            ]
        },
        {
            "positions": [
                -0.06869807032345457,
                -2.1620916831112003,
                -1.6588462922275036,
                -2.5081793023352437,
                -1.2458225335733333,
                -3.0630169982779414
            ]
        },
        {
            "positions": [
                -0.08547858346479068,
                -2.179742598494717,
                -1.574493257002495,
                -2.588377751924465,
                -1.0657838009832434,
                -3.0505065392509523
            ]
        },
        {
            "positions": [
                -0.10225909660612678,
                -2.197393513878234,
                -1.4901402217774862,
                -2.6685762015136865,
                -0.8857450683931534,
                -3.037996080223963
            ]
        },
        {
            "positions": [
                -0.11903960974746289,
                -2.215044429261751,
                -1.4057871865524774,
                -2.7487746511029076,
                -0.7057063358030634,
                -3.0254856211969736
            ]
        },
        {
            "positions": [
                -0.135820122888799,
                -2.2326953446452675,
                -1.3214341513274688,
                -2.828973100692129,
                -0.5256676032129735,
                -3.0129751621699845
            ]
        },
        {
            "positions": [
                -0.1526006360301351,
                -2.2503462600287842,
                -1.23708111610246,
                -2.90917155028135,
                -0.3456288706228836,
                -3.0004647031429954
            ]
        },
        {
            "positions": [
                -0.1693811491714712,
                -2.267997175412301,
                -1.1527280808774512,
                -2.9893699998705716,
                -0.1655901380327935,
                -2.9879542441160063
            ]
        }
    ]
}