{
    "goal": {
        "global_pose": {
            "orientation": {
                "w": -0.4816463035849501,
                "x": 0.5182115481033762,
                "y": 0.4908360881923453,
                "z": -0.5084816262002911
            },
            "position": {
                "x": -0.8240239810943604,
                "y": 0.19912469901144506,
                "z": 0.16403168439865112
            }
        },
        "name": "move_to_storage_D"
    },
    "id": "ProjEST_move_to_storage_D_94",
    "joint_names": [
        "shoulder_pan_joint",
        "shoulder_lift_joint",
        "elbow_joint",
        "wrist_1_joint",
        "wrist_2_joint",
        "wrist_3_joint"
    ],
    "metrics": {
        "cart_traj_len": 3.994490120251164,
        "distance_elbow_joint": 4.382518137859882,
        "distance_shoulder_lift_joint": 1.2824524211933164,
        "distance_shoulder_pan_joint": 2.8134719822510728,
        "distance_wrist_1_joint": 3.5151679437260563,
        "distance_wrist_2_joint": 1.1849812658988843,
        "distance_wrist_3_joint": 3.152507433557528,
        "smoothness": 0.41769436913703467,
        "time": 0.097841641,
        "traj_len": 4.041175470638058,
        "weighted_distance": 5.228409247680094
    },
    "planner": "ProjEST",
    "start": {
        "state": {
            "elbow_joint": -2.384821988534728,
            "shoulder_lift_joint": -2.2788054721415256,
            "shoulder_pan_joint": -0.1854694642142757,
            "wrist_1_joint": 1.4845938289331202,
            "wrist_2_joint": 0.17898776772866878,
            "wrist_3_joint": 0.037105688729662994
        }
    },
    "waypoints": [
        {
            "positions": [
                -0.1854694642142757,
                -2.2788054721415256,
                -2.384821988534728,
                1.4845938289331202,
                0.17898776772866878,
                0.037105688729662994
            ]
        },
        {
            "positions": [
                -0.10564834355386922,
                -2.2833152458194315,
                -2.426899771636791,
                1.5560907542734732,
                0.10014592940917803,
                0.1092386166108842
            ]
        },
        {
            "positions": [
                -0.02582722289346273,
                -2.2878250194973377,
                -2.468977554738854,
                1.6275876796138262,
                0.021304091089687276,
                0.1813715444921054
            ]
        },
        {
            "positions": [
                0.054526267142954166,
                -2.2529168608505556,
                -2.35175748792891,
                1.5369261483309122,
                0.04289171492553803,
                0.232176096535743
            ]
        },
        {
            "positions": [
                0.13487975717937106,
                -2.2180087022037736,
                -2.2345374211189655,
                1.4462646170479985,
                0.06447933876138878,
                0.2829806485793806
            ]
        },
        {
            "positions": [
                0.21523324721578796,
                -2.1831005435569915,
                -2.117317354309021,
                1.3556030857650845,
                0.08606696259723953,
                0.3337852006230182
            ]
        },
        {
            "positions": [
                0.29558673725220486,
                -2.1481923849102094,
                -2.0000972874990772,
                1.2649415544821705,
                0.10765458643309028,
                0.38458975266665574
            ]
        },
        {
            "positions": [
                0.37594022728862175,
                -2.1132842262634277,
                -1.8828772206891329,
                1.1742800231992567,
                0.12924221026894103,
                0.43539430471029333
            ]
        },
        {
            "positions": [
                0.45629371732503865,
                -2.0783760676166456,
                -1.7656571538791885,
                1.0836184919163427,
                0.1508298341047918,
                0.48619885675393093
            ]
        },
        {
            "positions": [
                0.5366472073614555,
                -2.0434679089698635,
                -1.6484370870692442,
                0.9929569606334288,
                0.17241745794064256,
                0.5370034087975686
            ]
        },
        {
            "positions": [
                0.6170006973978724,
                -2.0085597503230814,
                -1.5312170202593,
                0.9022954293505149,
                0.1940050817764933,
                0.5878079608412061
            ]
        },
        {
            "positions": [
                0.6973541874342893,
                -1.9736515916762993,
                -1.4139969534493557,
                0.811633898067601,
                0.21559270561234406,
                0.6386125128848437
            ]
        },
        {
            "positions": [
                0.7777076774707062,
                -1.9387434330295172,
                -1.2967768866394116,
                0.720972366784687,
                0.2371803294481948,
                0.6894170649284812
            ]
        },
        {
            "positions": [
                0.8580611675071231,
                -1.9038352743827351,
                -1.1795568198294673,
                0.6303108355017731,
                0.25876795328404556,
                0.740221616972119
            ]
        },
        {
            "positions": [
                0.93841465754354,
                -1.868927115735953,
                -1.062336753019523,
                0.5396493042188593,
                0.28035557711989634,
                0.7910261690157565
            ]
        },
        {
            "positions": [
                1.0187681475799568,
                -1.834018957089171,
                -0.9451166862095788,
                0.4489877729359453,
                0.30194320095574706,
                0.841830721059394
            ]
        },
        {
            "positions": [
                1.0991216376163737,
                -1.7991107984423889,
                -0.8278966193996344,
                0.3583262416530313,
                0.32353082479159784,
                0.8926352731030316
            ]
        },
        {
            "positions": [
                1.1794751276527906,
                -1.764202639795607,
                -0.7106765525896903,
                0.2676647103701175,
                0.34511844862744856,
                0.9434398251466694
            ]
        },
        {
            "positions": [
                1.2598286176892075,
                -1.729294481148825,
                -0.593456485779746,
                0.17700317908720353,
                0.36670607246329934,
                0.9942443771903069
            ]
        },
        {
            "positions": [
                1.3401821077256244,
                -1.6943863225020428,
                -0.4762364189698016,
                0.08634164780428955,
                0.3882936962991501,
                1.0450489292339444
            ]
        },
        {
            "positions": [
                1.4205355977620413,
                -1.659478163855261,
                -0.3590163521598573,
                -0.00431988347862422,
                0.40988132013500084,
                1.095853481277582
            ]
        },
        {
            "positions": [
                1.5008890877984582,
                -1.6245700052084788,
                -0.24179628534991338,
                -0.09498141476153821,
                0.4314689439708516,
                1.1466580333212195
            ]
        },
        {
            "positions": [
                1.581242577834875,
                -1.5896618465616967,
                -0.12457621853996903,
                -0.1856429460444522,
                0.45305656780670234,
                1.197462585364857
            ]
        },
        {
            "positions": [
                1.661596067871292,
                -1.5547536879149146,
                -0.007356151730024685,
                -0.27630447732736596,
                0.4746441916425531,
                1.2482671374084948
            ]
        },
        {
            "positions": [
                1.741949557907709,
                -1.5198455292681325,
                0.10986391507991966,
                -0.36696600861027995,
                0.49623181547840384,
                1.2990716894521324
            ]
        },
        {
            "positions": [
                1.8223030479441258,
                -1.4849373706213504,
                0.227083981889864,
                -0.4576275398931937,
                0.5178194393142546,
                1.34987624149577
            ]
        },
        {
            "positions": [
                1.9026565379805427,
                -1.4500292119745684,
                0.34430404869980835,
                -0.5482890711761077,
                0.5394070631501053,
                1.4006807935394074
            ]
        },
        {
            "positions": [
                1.9830100280169596,
                -1.4151210533277863,
                0.46152411550975225,
                -0.6389506024590217,
                0.5609946869859561,
                1.451485345583045
            ]
        },
        {
            "positions": [
                2.0633635180533765,
                -1.3802128946810044,
                0.5787441823196966,
                -0.7296121337419357,
                0.5825823108218068,
                1.5022898976266827
            ]
        },
        {
            "positions": [
                2.1437170080897934,
                -1.3453047360342223,
                0.6959642491296409,
                -0.8202736650248497,
                0.6041699346576576,
                1.5530944496703203
            ]
        },
        {
            "positions": [
                2.2240704981262103,
                -1.3103965773874402,
                0.8131843159395853,
                -0.9109351963077637,
                0.6257575584935083,
                1.6038990017139578
            ]
        },
        {
            "positions": [
                2.304423988162627,
                -1.275488418740658,
                0.9304043827495296,
                -1.0015967275906772,
                0.6473451823293591,
                1.6547035537575954
            ]
        },
        {
            "positions": [
                2.384777478199044,
                -1.2405802600938762,
                1.0476244495594735,
                -1.0922582588735912,
                0.6689328061652098,
                1.7055081058012331
            ]
        },
        {
            "positions": [
                2.465130968235461,
                -1.2056721014470941,
                1.1648445163694179,
                -1.1829197901565052,
                0.6905204300010606,
                1.7563126578448707
            ]
        },
        {
            "positions": [
                2.545484458271878,
                -1.170763942800312,
                1.2820645831793624,
                -1.2735813214394192,
                0.7121080538369113,
                1.8071172098885082
            ]
        },
        {
            "positions": [
                2.5557992157424927,
                -1.1512174681577523,
                1.3504796373965549,
                -1.2147056849404059,
                0.7541697571509961,
                1.9799291989383436
            ]
        },
        {
            "positions": [
                2.5661139732131075,
                -1.1316709935151925,
                1.418894691613747,
                -1.1558300484413926,
                0.7962314604650809,
                2.152741187988179
            ]
        },
        {
            "positions": [
                2.5764287306837224,
                -1.1121245188726325,
                1.4873097458309394,
                -1.0969544119423795,
                0.8382931637791657,
                2.3255531770380142
            ]
        },
        {
            "positions": [
                2.5867434881543376,
                -1.0925780442300728,
                1.5557248000481319,
                -1.0380787754433662,
                0.8803548670932505,
                2.49836516608785
            ]
        },
        {
            "positions": [
                2.5970582456249525,
                -1.073031569587513,
                1.624139854265324,
                -0.979203138944353,
                0.9224165704073353,
                2.671177155137685
            ]
        },
        {
            "positions": [
                2.6073730030955673,
                -1.053485094944953,
                1.6925549084825164,
                -0.9203275024453397,
                0.9644782737214201,
                2.8439891441875202
            ]
        },
        {
            "positions": [
                2.617687760566182,
                -1.0339386203023933,
                1.7609699626997086,
                -0.8614518659463264,
                1.006539977035505,
                3.0168011332373554
            ]
        },
        {
            "positions": [
                2.628002518036797,
                -1.0143921456598335,
                1.829385016916901,
                -0.8025762294473132,
                1.0486016803495897,
                3.189613122287191
            ]
        }
    ]
}