{
    "goal": {
        "global_pose": {
            "orientation": {
                "w": -0.00223480608172531,
                "x": 0.0024358444001904467,
                "y": 0.7094548369677653,
                "z": -0.704743149386269
            },
            "position": {
                "x": 0.6205249238014221,
                "y": -0.6371506643295288,
                "z": 0.19426114857196808
            }
        },
        "name": "move_to_magneteinheit_B"
    },
    "id": "ProjEST_move_to_magneteinheit_B_137",
    "joint_names": [
        "shoulder_pan_joint",
        "shoulder_lift_joint",
        "elbow_joint",
        "wrist_1_joint",
        "wrist_2_joint",
        "wrist_3_joint"
    ],
    "metrics": {
        "cart_traj_len": 3.573755772460762,
        "distance_elbow_joint": 5.230410544412519,
        "distance_shoulder_lift_joint": 1.0596423368752532,
        "distance_shoulder_pan_joint": 2.3894385714521627,
        "distance_wrist_1_joint": 1.9368917001739185,
        "distance_wrist_2_joint": 2.4650227555444824,
        "distance_wrist_3_joint": 2.581361836561705,
        "smoothness": 0.4531641150033371,
        "time": 1.269186303,
        "traj_len": 3.957621475712406,
        "weighted_distance": 5.022689107824798
    },
    "planner": "ProjEST",
    "start": {
        "state": {
            "elbow_joint": 2.6216224122426386,
            "shoulder_lift_joint": -1.4174107377796124,
            "shoulder_pan_joint": 0.7066234856936794,
            "wrist_1_joint": 1.9546482284002225,
            "wrist_2_joint": -0.7096286983471962,
            "wrist_3_joint": 0.005740856962016249
        }
    },
    "waypoints": [
        {
            "positions": [
                0.7066234856936794,
                -1.4174107377796124,
                2.6216224122426386,
                1.9546482284002225,
                -0.7096286983471962,
                0.005740856962016249
            ]
        },
        {
            "positions": [
                0.5979929116372263,
                -1.4436841311265804,
                2.597382166297659,
                1.9641010865654664,
                -0.7612628547242687,
                -0.11755439415280539
            ]
        },
        {
            "positions": [
                0.48936233758077335,
                -1.4699575244735488,
                2.5731419203526786,
                1.9735539447307104,
                -0.8128970111013412,
                -0.240849645267627
            ]
        },
        {
            "positions": [
                0.5240179539301668,
                -1.477994039134152,
                2.378846210302045,
                1.9305630666530038,
                -0.7368447074936454,
                -0.2699597187298419
            ]
        },
        {
            "positions": [
                0.5586735702795603,
                -1.4860305537947551,
                2.184550500251411,
                1.887572188575297,
                -0.6607924038859496,
                -0.29906979219205687
            ]
        },
        {
            "positions": [
                0.5933291866289538,
                -1.4940670684553583,
                1.9902547902007774,
                1.84458131049759,
                -0.5847401002782537,
                -0.3281798656542718
            ]
        },
        {
            "positions": [
                0.6279848029783474,
                -1.5021035831159613,
                1.7959590801501437,
                1.8015904324198835,
                -0.508687796670558,
                -0.35728993911648677
            ]
        },
        {
            "positions": [
                0.6626404193277409,
                -1.5101400977765644,
                1.60166337009951,
                1.7585995543421769,
                -0.4326354930628621,
                -0.3864000125787017
            ]
        },
        {
            "positions": [
                0.6972960356771343,
                -1.5181766124371676,
                1.4073676600488763,
                1.71560867626447,
                -0.3565831894551663,
                -0.41551008604091666
            ]
        },
        {
            "positions": [
                0.7319516520265279,
                -1.5262131270977708,
                1.2130719499982425,
                1.6726177981867631,
                -0.28053088584747043,
                -0.4446201595031316
            ]
        },
        {
            "positions": [
                0.7666072683759213,
                -1.534249641758374,
                1.0187762399476088,
                1.6296269201090565,
                -0.20447858223977478,
                -0.4737302329653465
            ]
        },
        {
            "positions": [
                0.8012628847253148,
                -1.5422861564189771,
                0.8244805298969751,
                1.58663604203135,
                -0.1284262786320789,
                -0.5028403064275614
            ]
        },
        {
            "positions": [
                0.8359185010747083,
                -1.5503226710795803,
                0.6301848198463413,
                1.543645163953643,
                -0.05237397502438301,
                -0.5319503798897764
            ]
        },
        {
            "positions": [
                0.8705741174241017,
                -1.5583591857401835,
                0.4358891097957076,
                1.5006542858759362,
                0.023678328583312647,
                -0.5610604533519913
            ]
        },
        {
            "positions": [
                0.9052297337734954,
                -1.5663957004007867,
                0.24159339974507388,
                1.4576634077982296,
                0.09973063219100853,
                -0.5901705268142062
            ]
        },
        {
            "positions": [
                0.9398853501228888,
                -1.5744322150613896,
                0.04729768969444015,
                1.414672529720523,
                0.1757829357987043,
                -0.6192806002764212
            ]
        },
        {
            "positions": [
                0.9745409664722824,
                -1.5824687297219928,
                -0.14699802035619358,
                1.371681651642816,
                0.2518352394064003,
                -0.6483906737386361
            ]
        },
        {
            "positions": [
                1.0091965828216758,
                -1.590505244382596,
                -0.3412937304068273,
                1.3286907735651092,
                0.32788754301409595,
                -0.6775007472008511
            ]
        },
        {
            "positions": [
                1.0438521991710692,
                -1.5985417590431992,
                -0.535589440457461,
                1.2856998954874026,
                0.4039398466217916,
                -0.706610820663066
            ]
        },
        {
            "positions": [
                1.0785078155204628,
                -1.6065782737038024,
                -0.7298851505080948,
                1.242709017409696,
                0.4799921502294877,
                -0.735720894125281
            ]
        },
        {
            "positions": [
                1.1131634318698562,
                -1.6146147883644055,
                -0.9241808605587285,
                1.1997181393319891,
                0.5560444538371834,
                -0.7648309675874958
            ]
        },
        {
            "positions": [
                1.1478190482192498,
                -1.6226513030250087,
                -1.1184765706093622,
                1.1567272612542823,
                0.632096757444879,
                -0.7939410410497107
            ]
        },
        {
            "positions": [
                1.1824746645686433,
                -1.6306878176856117,
                -1.312772280659996,
                1.1137363831765756,
                0.7081490610525751,
                -0.8230511145119258
            ]
        },
        {
            "positions": [
                1.2171302809180369,
                -1.6387243323462148,
                -1.5070679907106297,
                1.070745505098869,
                0.7842013646602708,
                -0.8521611879741406
            ]
        },
        {
            "positions": [
                1.2517858972674303,
                -1.646760847006818,
                -1.7013637007612634,
                1.0277546270211622,
                0.8602536682679665,
                -0.8812712614363556
            ]
        },
        {
            "positions": [
                1.2864415136168237,
                -1.6547973616674212,
                -1.8956594108118971,
                0.9847637489434554,
                0.9363059718756626,
                -0.9103813348985705
            ]
        },
        {
            "positions": [
                1.3210971299662173,
                -1.6628338763280244,
                -2.0899551208625313,
                0.9417728708657486,
                1.0123582754833582,
                -0.9394914083607855
            ]
        },
        {
            "positions": [
                1.4335732812157462,
                -1.7079134686060566,
                -2.098227728538976,
                0.9962437881227997,
                1.0065322931039409,
                -0.8250609344813621
            ]
        },
        {
            "positions": [
                1.5460494324652754,
                -1.7529930608840891,
                -2.106500336215421,
                1.050714705379851,
                1.0007063107245238,
                -0.7106304606019387
            ]
        },
        {
            "positions": [
                1.6585255837148045,
                -1.7980726531621216,
                -2.1147729438918654,
                1.1051856226369021,
                0.9948803283451064,
                -0.5961999867225153
            ]
        },
        {
            "positions": [
                1.7710017349643334,
                -1.8431522454401539,
                -2.12304555156831,
                1.1596565398939531,
                0.9890543459656892,
                -0.4817695128430919
            ]
        },
        {
            "positions": [
                1.8834778862138624,
                -1.8882318377181861,
                -2.131318159244755,
                1.2141274571510043,
                0.983228363586272,
                -0.3673390389636685
            ]
        },
        {
            "positions": [
                1.9959540374633915,
                -1.9333114299962186,
                -2.1395907669211995,
                1.2685983744080556,
                0.9774023812068547,
                -0.25290856508424503
            ]
        },
        {
            "positions": [
                2.099475942359941,
                -1.990366896658354,
                -2.1021201807191425,
                1.295630923788727,
                0.9381773334105474,
                -0.1297750305801159
            ]
        },
        {
            "positions": [
                2.202997847256491,
                -2.0474223633204893,
                -2.064649594517085,
                1.3226634731693983,
                0.8989522856142401,
                -0.006641496075986797
            ]
        },
        {
            "positions": [
                2.306519752153041,
                -2.1044778299826246,
                -2.027179008315028,
                1.3496960225500696,
                0.8597272378179328,
                0.11649203842814232
            ]
        },
        {
            "positions": [
                2.410041657049591,
                -2.1615332966447602,
                -1.9897084221129708,
                1.376728571930741,
                0.8205021900216255,
                0.23962557293227144
            ]
        },
        {
            "positions": [
                2.5135635619461407,
                -2.2185887633068955,
                -1.9522378359109136,
                1.4037611213114123,
                0.7812771422253182,
                0.3627591074364005
            ]
        },
        {
            "positions": [
                2.5736130118607727,
                -2.277421892985753,
                -1.8963021606104093,
                1.3524002832975783,
                0.7205187168815479,
                0.36188057334350443
            ]
        },
        {
            "positions": [
                2.633662461775405,
                -2.33625502266461,
                -1.840366485309905,
                1.3010394452837444,
                0.6597602915377777,
                0.3610020392506083
            ]
        },
        {
            "positions": [
                2.6429548948236135,
                -2.383187706661362,
                -1.7837087907641096,
                1.193874450782032,
                0.5984599007844255,
                0.2502947101652999
            ]
        },
        {
            "positions": [
                2.6522473278718217,
                -2.430120390658114,
                -1.7270510962183139,
                1.0867094562803197,
                0.5371595100310732,
                0.13958738107999147
            ]
        },
        {
            "positions": [
                2.66153976092003,
                -2.4770530746548656,
                -1.6703934016725184,
                0.9795444617786074,
                0.4758591192777209,
                0.02888005199468303
            ]
        }
    ]
}