{
    "goal": {
        "global_pose": {
            "orientation": {
                "w": -0.4816463035849501,
                "x": 0.5182115481033762,
                "y": 0.4908360881923453,
                "z": -0.5084816262002911
            },
            "position": {
                "x": -0.8240239810943604,
                "y": -0.300875300988555,
                "z": 0.16403168439865112
            }
        },
        "name": "move_to_storage_C"
    },
    "id": "ProjEST_move_to_storage_C_2",
    "joint_names": [
        "shoulder_pan_joint",
        "shoulder_lift_joint",
        "elbow_joint",
        "wrist_1_joint",
        "wrist_2_joint",
        "wrist_3_joint"
    ],
    "metrics": {
        "cart_traj_len": 0.5764564278935856,
        "distance_elbow_joint": 0.25921811365655123,
        "distance_shoulder_lift_joint": 0.18936522861047766,
        "distance_shoulder_pan_joint": 0.4927778049527687,
        "distance_wrist_1_joint": 0.07708369029085704,
        "distance_wrist_2_joint": 1.0770796871816213,
        "distance_wrist_3_joint": 0.057361405062170245,
        "smoothness": 0.0,
        "time": 0.011148739000000001,
        "traj_len": 1.4672715937257308,
        "weighted_distance": 1.8498032644990292
    },
    "planner": "ProjEST",
    "start": {
        "state": {
            "elbow_joint": 2.010868314990456,
            "shoulder_lift_joint": -1.1634956873337592,
            "shoulder_pan_joint": -2.4736205022346125,
            "wrist_1_joint": -0.8367026794202681,
            "wrist_2_joint": 0.6746043897044499,
            "wrist_3_joint": -3.1496632123970403
        }
    },
    "waypoints": [
        {
            "positions": [
                -2.4736205022346125,
                -1.1634956873337592,
                2.010868314990456,
                -0.8367026794202681,
                0.6746043897044499,
                -3.1496632123970403
            ]
        },
        {
            "positions": [
                -2.5557501363934074,
                -1.1319348158986795,
                1.9676652960476972,
                -0.8238553977051253,
                0.8541176709013868,
                -3.140102978220012
            ]
        },
        {
            "positions": [
                -2.637879770552202,
                -1.1003739444636,
                1.9244622771049387,
                -0.8110081159899825,
                1.0336309520983238,
                -3.1305427440429834
            ]
        },
        {
            "positions": [
                -2.720009404710997,
                -1.0688130730285204,
                1.88125925816218,
                -0.7981608342748396,
                1.2131442332952607,
                -3.1209825098659554
            ]
        },
        {
            "positions": [
                -2.8021390388697918,
                -1.0372522015934407,
                1.8380562392194217,
                -0.7853135525596967,
                1.3926575144921975,
                -3.111422275688927
            ]
        },
        {
            "positions": [
                -2.8842686730285862,
                -1.0056913301583612,
                1.7948532202766632,
                -0.7724662708445539,
                1.5721707956891344,
                -3.1018620415118985
            ]
        },
        {
            "positions": [
                -2.966398307187381,
                -0.9741304587232815,
                1.7516502013339046,
                -0.7596189891294111,
                1.7516840768860713,
                -3.09230180733487
            ]
        }
    ]
}