{
    "goal": {
        "global_pose": {
            "orientation": {
                "w": 0.7031023480610252,
                "x": -0.7110244013736278,
                "y": 0.0077485991402295624,
                "z": 0.005598929693374583
            },
            "position": {
                "x": -0.8841497679147869,
                "y": 0.44412534475326537,
                "z": 0.3711530566215515
            }
        },
        "name": "move_to_auspresseinheit_D"
    },
    "id": "ProjEST_move_to_auspresseinheit_D_35",
    "joint_names": [
        "shoulder_pan_joint",
        "shoulder_lift_joint",
        "elbow_joint",
        "wrist_1_joint",
        "wrist_2_joint",
        "wrist_3_joint"
    ],
    "metrics": {
        "cart_traj_len": 0.34257501374930244,
        "distance_elbow_joint": 0.629159160151054,
        "distance_shoulder_lift_joint": 0.11570896153033905,
        "distance_shoulder_pan_joint": 0.13338067903410467,
        "distance_wrist_1_joint": 0.5058085971906938,
        "distance_wrist_2_joint": 1.437200529544469,
        "distance_wrist_3_joint": 0.014229657634444504,
        "smoothness": 1.9737298371844314e-16,
        "time": 0.039855335,
        "traj_len": 1.6838906095958563,
        "weighted_distance": 2.192477144028908
    },
    "planner": "ProjEST",
    "start": {
        "state": {
            "elbow_joint": -1.8275523626775212,
            "shoulder_lift_joint": -2.126789852344167,
            "shoulder_pan_joint": -0.03513704404078235,
            "wrist_1_joint": -2.347782403156801,
            "wrist_2_joint": -1.6058999987535132,
            "wrist_3_joint": -3.0880379163319196
        }
    },
    "waypoints": [
        {
            "positions": [
                -0.03513704404078235,
                -2.126789852344167,
                -1.8275523626775212,
                -2.347782403156801,
                -1.6058999987535132,
                -3.0880379163319196
            ]
        },
        {
            "positions": [
                -0.05180962892004543,
                -2.141253472535459,
                -1.7489074676586394,
                -2.4110084778056375,
                -1.4262499325604545,
                -3.089816623536225
            ]
        },
        {
            "positions": [
                -0.06848221379930852,
                -2.1557170927267517,
                -1.6702625726397577,
                -2.474234552454474,
                -1.2465998663673958,
                -3.091595330740531
            ]
        },
        {
            "positions": [
                -0.08515479867857159,
                -2.170180712918044,
                -1.591617677620876,
                -2.537460627103311,
                -1.0669498001743374,
                -3.0933740379448365
            ]
        },
        {
            "positions": [
                -0.10182738355783469,
                -2.184644333109336,
                -1.5129727826019943,
                -2.6006867017521476,
                -0.8872997339812787,
                -3.095152745149142
            ]
        },
        {
            "positions": [
                -0.11849996843709776,
                -2.199107953300629,
                -1.4343278875831125,
                -2.6639127764009847,
                -0.70764966778822,
                -3.0969314523534472
            ]
        },
        {
            "positions": [
                -0.13517255331636086,
                -2.213571573491921,
                -1.3556829925642306,
                -2.7271388510498213,
                -0.5279996015951616,
                -3.098710159557753
            ]
        },
        {
            "positions": [
                -0.15184513819562392,
                -2.2280351936832137,
                -1.2770380975453488,
                -2.790364925698658,
                -0.3483495354021029,
                -3.1004888667620585
            ]
        },
        {
            "positions": [
                -0.16851772307488702,
                -2.242498813874506,
                -1.1983932025264672,
                -2.8535910003474947,
                -0.16869946920904427,
                -3.102267573966364
            ]
        }
    ]
}