{
    "goal": {
        "global_pose": {
            "orientation": {
                "w": 0.7031023480610252,
                "x": -0.7110244013736278,
                "y": 0.0077485991402295624,
                "z": 0.005598929693374583
            },
            "position": {
                "x": -0.8841497679147869,
                "y": 0.44412534475326537,
                "z": 0.3711530566215515
            }
        },
        "name": "move_to_auspresseinheit_D"
    },
    "id": "ProjEST_move_to_auspresseinheit_D_127",
    "joint_names": [
        "shoulder_pan_joint",
        "shoulder_lift_joint",
        "elbow_joint",
        "wrist_1_joint",
        "wrist_2_joint",
        "wrist_3_joint"
    ],
    "metrics": {
        "cart_traj_len": 0.34451240673020744,
        "distance_elbow_joint": 0.6646309024779091,
        "distance_shoulder_lift_joint": 0.13535529714620642,
        "distance_shoulder_pan_joint": 0.13345714860482263,
        "distance_wrist_1_joint": 0.6153116003002772,
        "distance_wrist_2_joint": 1.4322296036638653,
        "distance_wrist_3_joint": 0.07702654704374634,
        "smoothness": 4.934324565125532e-16,
        "time": 0.083896742,
        "traj_len": 1.7487169866038437,
        "weighted_distance": 2.293382959143209
    },
    "planner": "ProjEST",
    "start": {
        "state": {
            "elbow_joint": -1.8275523626775212,
            "shoulder_lift_joint": -2.126789852344167,
            "shoulder_pan_joint": -0.03513704404078235,
            "wrist_1_joint": -2.347782403156801,
            "wrist_2_joint": -1.6058999987535132,
            "wrist_3_joint": -3.0880379163319196
        }
    },
    "waypoints": [
        {
            "positions": [
                -0.03513704404078235,
                -2.126789852344167,
                -1.8275523626775212,
                -2.347782403156801,
                -1.6058999987535132,
                -3.0880379163319196
            ]
        },
        {
            "positions": [
                -0.05181918761638518,
                -2.1437092644874425,
                -1.7444734998677824,
                -2.4246963531943355,
                -1.42687129829553,
                -3.078409597951451
            ]
        },
        {
            "positions": [
                -0.06850133119198801,
                -2.1606286766307186,
                -1.661394637058044,
                -2.50161030323187,
                -1.247842597837547,
                -3.068781279570983
            ]
        },
        {
            "positions": [
                -0.08518347476759083,
                -2.177548088773994,
                -1.5783157742483054,
                -2.578524253269405,
                -1.0688138973795636,
                -3.059152961190515
            ]
        },
        {
            "positions": [
                -0.10186561834319366,
                -2.19446750091727,
                -1.4952369114385666,
                -2.6554382033069395,
                -0.8897851969215805,
                -3.0495246428100464
            ]
        },
        {
            "positions": [
                -0.11854776191879648,
                -2.211386913060546,
                -1.4121580486288279,
                -2.732352153344474,
                -0.7107564964635974,
                -3.039896324429578
            ]
        },
        {
            "positions": [
                -0.13522990549439934,
                -2.2283063252038215,
                -1.3290791858190893,
                -2.8092661033820088,
                -0.5317277960056142,
                -3.03026800604911
            ]
        },
        {
            "positions": [
                -0.15191204907000216,
                -2.2452257373470976,
                -1.2460003230093508,
                -2.8861800534195434,
                -0.352699095547631,
                -3.0206396876686417
            ]
        },
        {
            "positions": [
                -0.168594192645605,
                -2.2621451494903733,
                -1.162921460199612,
                -2.963094003457078,
                -0.17367039508964782,
                -3.0110113692881733
            ]
        }
    ]
}