{
    "goal": {
        "global_pose": {
            "orientation": {
                "w": 0.005598929693374612,
                "x": 0.007748599140229565,
                "y": 0.7110244013736278,
                "z": -0.7031023480610252
            },
            "position": {
                "x": -0.8858502320852131,
                "y": -0.7141253447532654,
                "z": 0.3711530566215515
            }
        },
        "name": "move_to_auspresseinheit_C"
    },
    "id": "ProjEST_move_to_auspresseinheit_C_46",
    "joint_names": [
        "shoulder_pan_joint",
        "shoulder_lift_joint",
        "elbow_joint",
        "wrist_1_joint",
        "wrist_2_joint",
        "wrist_3_joint"
    ],
    "metrics": {
        "cart_traj_len": 0.4936462032158099,
        "distance_elbow_joint": 1.0048256081542635,
        "distance_shoulder_lift_joint": 0.3278678619456854,
        "distance_shoulder_pan_joint": 0.2557399437601524,
        "distance_wrist_1_joint": 0.6746614340571164,
        "distance_wrist_2_joint": 1.3217239924235957,
        "distance_wrist_3_joint": 0.04882130859689893,
        "smoothness": 8.074349282788172e-16,
        "time": 0.122648067,
        "traj_len": 1.9062109403048006,
        "weighted_distance": 2.393254727899273
    },
    "planner": "ProjEST",
    "start": {
        "state": {
            "elbow_joint": 1.7527959577737207,
            "shoulder_lift_joint": -0.9740617694225068,
            "shoulder_pan_joint": -2.967991417825858,
            "wrist_1_joint": -0.759517768980727,
            "wrist_2_joint": 1.7443932448377408,
            "wrist_3_joint": -3.0840537646736568
        }
    },
    "waypoints": [
        {
            "positions": [
                -2.967991417825858,
                -0.9740617694225068,
                1.7527959577737207,
                -0.759517768980727,
                1.7443932448377408,
                -3.0840537646736568
            ]
        },
        {
            "positions": [
                -2.9424174234498426,
                -0.9412749832279382,
                1.6523133969582944,
                -0.6920516255750153,
                1.6122208455953813,
                -3.088935895533347
            ]
        },
        {
            "positions": [
                -2.9168434290738277,
                -0.9084881970333697,
                1.5518308361428679,
                -0.6245854821693037,
                1.4800484463530217,
                -3.0938180263930364
            ]
        },
        {
            "positions": [
                -2.8912694346978123,
                -0.8757014108388012,
                1.4513482753274416,
                -0.5571193387635921,
                1.3478760471106621,
                -3.0987001572527264
            ]
        },
        {
            "positions": [
                -2.865695440321797,
                -0.8429146246442326,
                1.3508657145120153,
                -0.4896531953578804,
                1.2157036478683025,
                -3.1035822881124164
            ]
        },
        {
            "positions": [
                -2.8401214459457815,
                -0.8101278384496641,
                1.250383153696589,
                -0.42218705195216877,
                1.083531248625943,
                -3.1084644189721065
            ]
        },
        {
            "positions": [
                -2.8145474515697666,
                -0.7773410522550955,
                1.1499005928811625,
                -0.35472090854645716,
                0.9513588493835834,
                -3.113346549831796
            ]
        },
        {
            "positions": [
                -2.7889734571937512,
                -0.744554266060527,
                1.0494180320657363,
                -0.2872547651407455,
                0.8191864501412239,
                -3.118228680691486
            ]
        },
        {
            "positions": [
                -2.763399462817736,
                -0.7117674798659585,
                0.9489354712503099,
                -0.21978862173503377,
                0.6870140508988642,
                -3.123110811551176
            ]
        },
        {
            "positions": [
                -2.737825468441721,
                -0.6789806936713899,
                0.8484529104348835,
                -0.15232247832932222,
                0.5548416516565047,
                -3.1279929424108657
            ]
        },
        {
            "positions": [
                -2.7122514740657055,
                -0.6461939074768214,
                0.7479703496194572,
                -0.08485633492361053,
                0.422669252414145,
                -3.1328750732705557
            ]
        }
    ]
}