{
    "goal": {
        "global_pose": {
            "orientation": {
                "w": 0.7031023480610252,
                "x": -0.7110244013736278,
                "y": 0.0077485991402295624,
                "z": 0.005598929693374583
            },
            "position": {
                "x": -0.8841497679147869,
                "y": 0.44412534475326537,
                "z": 0.3711530566215515
            }
        },
        "name": "move_to_auspresseinheit_D"
    },
    "id": "ProjEST_move_to_auspresseinheit_D_108",
    "joint_names": [
        "shoulder_pan_joint",
        "shoulder_lift_joint",
        "elbow_joint",
        "wrist_1_joint",
        "wrist_2_joint",
        "wrist_3_joint"
    ],
    "metrics": {
        "cart_traj_len": 0.34356516518743035,
        "distance_elbow_joint": 0.6498996123905589,
        "distance_shoulder_lift_joint": 0.12739689181912084,
        "distance_shoulder_pan_joint": 0.13381480988275893,
        "distance_wrist_1_joint": 0.576905442121344,
        "distance_wrist_2_joint": 1.4358959402639548,
        "distance_wrist_3_joint": 0.04408694273369784,
        "smoothness": 6.908054404438162e-16,
        "time": 0.014800443,
        "traj_len": 1.7227883326779978,
        "weighted_distance": 2.2514384084545
    },
    "planner": "ProjEST",
    "start": {
        "state": {
            "elbow_joint": -1.8275523626775212,
            "shoulder_lift_joint": -2.126789852344167,
            "shoulder_pan_joint": -0.03513704404078235,
            "wrist_1_joint": -2.347782403156801,
            "wrist_2_joint": -1.6058999987535132,
            "wrist_3_joint": -3.0880379163319196
        }
    },
    "waypoints": [
        {
            "positions": [
                -0.03513704404078235,
                -2.126789852344167,
                -1.8275523626775212,
                -2.347782403156801,
                -1.6058999987535132,
                -3.0880379163319196
            ]
        },
        {
            "positions": [
                -0.05186389527612721,
                -2.142714463821557,
                -1.7463149111287013,
                -2.419895583421969,
                -1.426413006220519,
                -3.082527048490207
            ]
        },
        {
            "positions": [
                -0.06859074651147208,
                -2.158639075298947,
                -1.6650774595798814,
                -2.492008763687137,
                -1.2469260136875244,
                -3.0770161806484952
            ]
        },
        {
            "positions": [
                -0.08531759774681694,
                -2.174563686776337,
                -1.5838400080310615,
                -2.564121943952305,
                -1.0674390211545302,
                -3.071505312806783
            ]
        },
        {
            "positions": [
                -0.1020444489821618,
                -2.1904882982537273,
                -1.5026025564822416,
                -2.636235124217473,
                -0.8879520286215358,
                -3.065994444965071
            ]
        },
        {
            "positions": [
                -0.11877130021750668,
                -2.2064129097311174,
                -1.4213651049334217,
                -2.708348304482641,
                -0.7084650360885414,
                -3.0604835771233585
            ]
        },
        {
            "positions": [
                -0.13549815145285155,
                -2.2223375212085075,
                -1.340127653384602,
                -2.780461484747809,
                -0.5289780435555471,
                -3.054972709281646
            ]
        },
        {
            "positions": [
                -0.15222500268819641,
                -2.2382621326858976,
                -1.2588902018357822,
                -2.852574665012977,
                -0.3494910510225526,
                -3.049461841439934
            ]
        },
        {
            "positions": [
                -0.16895185392354128,
                -2.2541867441632877,
                -1.1776527502869623,
                -2.924687845278145,
                -0.17000405848955832,
                -3.0439509735982218
            ]
        }
    ]
}