{
    "goal": {
        "global_pose": {
            "orientation": {
                "w": -0.00223480608172531,
                "x": 0.0024358444001904467,
                "y": 0.7094548369677653,
                "z": -0.704743149386269
            },
            "position": {
                "x": 0.6205249238014221,
                "y": -0.6371506643295288,
                "z": 0.19426114857196808
            }
        },
        "name": "move_to_magneteinheit_B"
    },
    "id": "ProjEST_move_to_magneteinheit_B_88",
    "joint_names": [
        "shoulder_pan_joint",
        "shoulder_lift_joint",
        "elbow_joint",
        "wrist_1_joint",
        "wrist_2_joint",
        "wrist_3_joint"
    ],
    "metrics": {
        "cart_traj_len": 1.8893009170991175,
        "distance_elbow_joint": 0.9542647756614167,
        "distance_shoulder_lift_joint": 1.3331051099282576,
        "distance_shoulder_pan_joint": 1.7502395184199506,
        "distance_wrist_1_joint": 0.428567896688957,
        "distance_wrist_2_joint": 1.5138052083278637,
        "distance_wrist_3_joint": 0.48736793362836284,
        "smoothness": 0.9385579848645674,
        "time": 0.33024200800000003,
        "traj_len": 2.5430985908247457,
        "weighted_distance": 3.0634065050084938
    },
    "planner": "ProjEST",
    "start": {
        "state": {
            "elbow_joint": 2.6216224122426386,
            "shoulder_lift_joint": -1.4174107377796124,
            "shoulder_pan_joint": 0.7066234856936794,
            "wrist_1_joint": 1.9546482284002225,
            "wrist_2_joint": -0.7096286983471962,
            "wrist_3_joint": 0.005740856962016249
        }
    },
    "waypoints": [
        {
            "positions": [
                0.7066234856936794,
                -1.4174107377796124,
                2.6216224122426386,
                1.9546482284002225,
                -0.7096286983471962,
                0.005740856962016249
            ]
        },
        {
            "positions": [
                0.6650770925793918,
                -1.4562364340489815,
                2.6200827599402388,
                1.9564337280705422,
                -0.7647770836418513,
                -0.065608796141133
            ]
        },
        {
            "positions": [
                0.6235306994651044,
                -1.4950621303183507,
                2.618543107637839,
                1.9582192277408617,
                -0.8199254689365064,
                -0.13695844924428224
            ]
        },
        {
            "positions": [
                0.5768812956956647,
                -1.5546966880003203,
                2.5642709511134,
                1.9608896207026518,
                -0.8502063367579977,
                -0.1891207378055126
            ]
        },
        {
            "positions": [
                0.530231891926225,
                -1.61433124568229,
                2.509998794588961,
                1.963560013664442,
                -0.8804872045794889,
                -0.24128302636674298
            ]
        },
        {
            "positions": [
                0.5622740614483299,
                -1.6602501939312622,
                2.3286468619288945,
                1.9027617303099023,
                -0.882788891327879,
                -0.174657267119102
            ]
        },
        {
            "positions": [
                0.5943162309704348,
                -1.7061691421802345,
                2.1472949292688277,
                1.8419634469553623,
                -0.8850905780762691,
                -0.10803150787146101
            ]
        },
        {
            "positions": [
                0.4781805705390282,
                -1.6258347802165702,
                2.1103766759851657,
                1.8648911042411822,
                -0.9880400648915607,
                -0.09979362080959012
            ]
        },
        {
            "positions": [
                0.3620449101076215,
                -1.545500418252906,
                2.0734584227015036,
                1.887818761527002,
                -1.0909895517068524,
                -0.09155573374771922
            ]
        },
        {
            "positions": [
                0.2459092496762149,
                -1.4651660562892417,
                2.0365401694178416,
                1.9107464188128218,
                -1.193939038522144,
                -0.08331784668584832
            ]
        },
        {
            "positions": [
                0.12977358924480825,
                -1.3848316943255774,
                1.9996219161341797,
                1.9336740760986415,
                -1.2968885253374356,
                -0.07507995962397743
            ]
        },
        {
            "positions": [
                0.013637928813401645,
                -1.3044973323619131,
                1.962703662850518,
                1.9566017333844614,
                -1.3998380121527272,
                -0.06684207256210653
            ]
        },
        {
            "positions": [
                -0.10249773161800502,
                -1.2241629703982488,
                1.9257854095668558,
                1.9795293906702813,
                -1.5027874989680188,
                -0.05860418550023563
            ]
        },
        {
            "positions": [
                -0.21863339204941157,
                -1.1438286084345846,
                1.8888671562831938,
                2.002457047956101,
                -1.6057369857833104,
                -0.05036629843836473
            ]
        },
        {
            "positions": [
                -0.33476905248081834,
                -1.0634942464709205,
                1.8519489029995317,
                2.0253847052419207,
                -1.7086864725986022,
                -0.04212841137649383
            ]
        },
        {
            "positions": [
                -0.4509047129122248,
                -0.9831598845072562,
                1.81503064971587,
                2.048312362527741,
                -1.8116359594138935,
                -0.03389052431462293
            ]
        },
        {
            "positions": [
                -0.5670403733436316,
                -0.9028255225435918,
                1.7781123964322079,
                2.0712400198135605,
                -1.9145854462291854,
                -0.025652637252752034
            ]
        },
        {
            "positions": [
                -0.6831760337750381,
                -0.8224911605799277,
                1.741194143148546,
                2.0941676770993802,
                -2.0175349330444767,
                -0.017414750190881137
            ]
        },
        {
            "positions": [
                -0.7993116942064449,
                -0.7421567986162633,
                1.704275889864884,
                2.1170953343852004,
                -2.1204844198597685,
                -0.00917686312901024
            ]
        },
        {
            "positions": [
                -0.9154473546378514,
                -0.661822436652599,
                1.667357636581222,
                2.14002299167102,
                -2.22343390667506,
                -0.0009389760671393431
            ]
        }
    ]
}