{
    "goal": {
        "global_pose": {
            "orientation": {
                "w": 0.7047431493862688,
                "x": -0.7094548369677653,
                "y": 0.0024358444001904,
                "z": -0.0022348060817251984
            },
            "position": {
                "x": -0.39052492380142206,
                "y": 0.3671506643295288,
                "z": 0.19426114857196808
            }
        },
        "name": "move_to_magneteinheit_D"
    },
    "id": "ProjEST_move_to_magneteinheit_D_14",
    "joint_names": [
        "shoulder_pan_joint",
        "shoulder_lift_joint",
        "elbow_joint",
        "wrist_1_joint",
        "wrist_2_joint",
        "wrist_3_joint"
    ],
    "metrics": {
        "cart_traj_len": 4.754622362757623,
        "distance_elbow_joint": 3.123664055635789,
        "distance_shoulder_lift_joint": 1.6344742252899744,
        "distance_shoulder_pan_joint": 4.50549384730962,
        "distance_wrist_1_joint": 3.7199807903324222,
        "distance_wrist_2_joint": 4.859391046977727,
        "distance_wrist_3_joint": 10.080495828873488,
        "smoothness": 0.44973987874383126,
        "time": 0.20072292200000003,
        "traj_len": 5.284269088002524,
        "weighted_distance": 7.5275403213450875
    },
    "planner": "ProjEST",
    "start": {
        "state": {
            "elbow_joint": 0.749534889911806,
            "shoulder_lift_joint": -0.6476975780787326,
            "shoulder_pan_joint": -2.711696901376241,
            "wrist_1_joint": -0.07506478083263063,
            "wrist_2_joint": 0.43296659715538205,
            "wrist_3_joint": -3.14703540197715
        }
    },
    "waypoints": [
        {
            "positions": [
                -2.711696901376241,
                -0.6476975780787326,
                0.749534889911806,
                -0.07506478083263063,
                0.43296659715538205,
                -3.14703540197715
            ]
        },
        {
            "positions": [
                -2.7263163056786555,
                -0.763434292303083,
                0.7293610387579847,
                -0.005834338902384981,
                0.4797446977585854,
                -3.1098374223745027
            ]
        },
        {
            "positions": [
                -2.7409357099810703,
                -0.8791710065274334,
                0.7091871876041637,
                0.06339610302786067,
                0.5265227983617888,
                -3.0726394427718557
            ]
        },
        {
            "positions": [
                -2.7555551142834847,
                -0.9949077207517838,
                0.6890133364503425,
                0.13262654495810633,
                0.5733008989649921,
                -3.0354414631692084
            ]
        },
        {
            "positions": [
                -2.6774064265694424,
                -1.0088235816188824,
                0.6434129267280154,
                0.1870464880730978,
                0.5163965792797267,
                -2.8910844065024017
            ]
        },
        {
            "positions": [
                -2.5992577388554,
                -1.0227394424859808,
                0.5978125170056884,
                0.24146643118808925,
                0.45949225959446127,
                -2.746727349835595
            ]
        },
        {
            "positions": [
                -2.521109051141358,
                -1.0366553033530794,
                0.5522121072833613,
                0.29588637430308073,
                0.40258793990919584,
                -2.602370293168789
            ]
        },
        {
            "positions": [
                -2.442960363427315,
                -1.0505711642201778,
                0.5066116975610343,
                0.35030631741807217,
                0.3456836202239304,
                -2.4580132365019822
            ]
        },
        {
            "positions": [
                -2.364811675713273,
                -1.0644870250872764,
                0.4610112878387073,
                0.40472626053306365,
                0.288779300538665,
                -2.3136561798351756
            ]
        },
        {
            "positions": [
                -2.2866629879992306,
                -1.0784028859543748,
                0.4154108781163803,
                0.45914620364805514,
                0.23187498085339958,
                -2.169299123168369
            ]
        },
        {
            "positions": [
                -2.2085143002851884,
                -1.0923187468214735,
                0.36981046839405324,
                0.5135661467630466,
                0.17497066116813415,
                -2.0249420665015627
            ]
        },
        {
            "positions": [
                -2.130365612571146,
                -1.106234607688572,
                0.3242100586717262,
                0.567986089878038,
                0.11806634148286865,
                -1.8805850098347558
            ]
        },
        {
            "positions": [
                -2.0522169248571034,
                -1.1201504685556705,
                0.27860964894939916,
                0.6224060329930295,
                0.06116202179760322,
                -1.7362279531679494
            ]
        },
        {
            "positions": [
                -1.9740682371430611,
                -1.134066329422769,
                0.23300923922707217,
                0.676825976108021,
                0.004257702112337891,
                -1.591870896501143
            ]
        },
        {
            "positions": [
                -1.8959195494290189,
                -1.1479821902898675,
                0.18740882950474513,
                0.7312459192230124,
                -0.052646617572927545,
                -1.4475138398343363
            ]
        },
        {
            "positions": [
                -1.8177708617149766,
                -1.161898051156966,
                0.1418084197824181,
                0.785665862338004,
                -0.10955093725819298,
                -1.3031567831675297
            ]
        },
        {
            "positions": [
                -1.7396221740009343,
                -1.1758139120240645,
                0.09620801006009116,
                0.8400858054529953,
                -0.16645525694345842,
                -1.1587997265007235
            ]
        },
        {
            "positions": [
                -1.6614734862868918,
                -1.189729772891163,
                0.050607600337764014,
                0.8945057485679868,
                -0.22335957662872385,
                -1.0144426698339166
            ]
        },
        {
            "positions": [
                -1.5833247985728496,
                -1.2036456337582617,
                0.005007190615437085,
                0.9489256916829782,
                -0.2802638963139893,
                -0.8700856131671104
            ]
        },
        {
            "positions": [
                -1.505176110858807,
                -1.2175614946253601,
                -0.040593219106890066,
                1.0033456347979697,
                -0.33716821599925484,
                -0.7257285565003033
            ]
        },
        {
            "positions": [
                -1.4270274231447648,
                -1.2314773554924587,
                -0.086193628829217,
                1.0577655779129613,
                -0.39407253568452016,
                -0.5813714998334971
            ]
        },
        {
            "positions": [
                -1.3488787354307223,
                -1.2453932163595574,
                -0.13179403855154415,
                1.1121855210279528,
                -0.4509768553697857,
                -0.43701444316669047
            ]
        },
        {
            "positions": [
                -1.27073004771668,
                -1.2593090772266557,
                -0.17739444827387107,
                1.1666054641429442,
                -0.5078811750550511,
                -0.2926573864998838
            ]
        },
        {
            "positions": [
                -1.1925813600026378,
                -1.2732249380937541,
                -0.22299485799619811,
                1.2210254072579356,
                -0.5647854947403164,
                -0.14830032983307762
            ]
        },
        {
            "positions": [
                -1.1144326722885953,
                -1.2871407989608528,
                -0.26859526771852515,
                1.275445350372927,
                -0.621689814425582,
                -0.003943273166270966
            ]
        },
        {
            "positions": [
                -1.036283984574553,
                -1.3010566598279514,
                -0.3141956774408522,
                1.3298652934879185,
                -0.6785941341108472,
                0.14041378350053568
            ]
        },
        {
            "positions": [
                -0.9581352968605108,
                -1.3149725206950498,
                -0.35979608716317923,
                1.38428523660291,
                -0.7354984537961127,
                0.2847708401673419
            ]
        },
        {
            "positions": [
                -0.8799866091464685,
                -1.3288883815621484,
                -0.4053964968855063,
                1.4387051797179016,
                -0.7924027734813781,
                0.429127896834149
            ]
        },
        {
            "positions": [
                -0.801837921432426,
                -1.342804242429247,
                -0.4509969066078333,
                1.493125122832893,
                -0.8493070931666438,
                0.5734849535009556
            ]
        },
        {
            "positions": [
                -0.723689233718384,
                -1.3567201032963454,
                -0.49659731633016013,
                1.5475450659478842,
                -0.906211412851909,
                0.7178420101677614
            ]
        },
        {
            "positions": [
                -0.6455405460043413,
                -1.3706359641634438,
                -0.5421977260524874,
                1.6019650090628759,
                -0.9631157325371744,
                0.8621990668345685
            ]
        },
        {
            "positions": [
                -0.567391858290299,
                -1.3845518250305424,
                -0.5877981357748144,
                1.6563849521778673,
                -1.0200200522224399,
                1.0065561235013751
            ]
        },
        {
            "positions": [
                -0.48924317057625677,
                -1.398467685897641,
                -0.6333985454971415,
                1.710804895292859,
                -1.0769243719077055,
                1.1509131801681818
            ]
        },
        {
            "positions": [
                -0.4110944828622145,
                -1.4123835467647394,
                -0.6789989552194683,
                1.7652248384078502,
                -1.1338286915929707,
                1.2952702368349875
            ]
        },
        {
            "positions": [
                -0.33294579514817224,
                -1.426299407631838,
                -0.7245993649417956,
                1.8196447815228418,
                -1.1907330112782362,
                1.439627293501795
            ]
        },
        {
            "positions": [
                -0.25479710743412953,
                -1.4402152684989367,
                -0.7701997746641226,
                1.8740647246378332,
                -1.2476373309635018,
                1.5839843501686017
            ]
        },
        {
            "positions": [
                -0.1766484197200877,
                -1.454131129366035,
                -0.8158001843864494,
                1.9284846677528247,
                -1.304541650648767,
                1.7283414068354075
            ]
        },
        {
            "positions": [
                -0.098499732006045,
                -1.4680469902331335,
                -0.8614005941087765,
                1.982904610867816,
                -1.3614459703340325,
                1.8726984635022141
            ]
        },
        {
            "positions": [
                -0.02035104429200274,
                -1.481962851100232,
                -0.9070010038311037,
                2.037324553982808,
                -1.418350290019298,
                2.017055520169021
            ]
        },
        {
            "positions": [
                0.05779764342203997,
                -1.4958787119673307,
                -0.9526014135534308,
                2.091744497097799,
                -1.4752546097045636,
                2.1614125768358274
            ]
        },
        {
            "positions": [
                0.1359463311360818,
                -1.509794572834429,
                -0.9982018232757576,
                2.1461644402127904,
                -1.5321589293898288,
                2.305769633502634
            ]
        },
        {
            "positions": [
                0.2140950188501245,
                -1.5237104337015277,
                -1.0438022329980847,
                2.200584383327782,
                -1.5890632490750944,
                2.4501266901694407
            ]
        },
        {
            "positions": [
                0.29224370656416676,
                -1.5376262945686263,
                -1.0894026427204118,
                2.2550043264427737,
                -1.6459675687603597,
                2.5944837468362474
            ]
        },
        {
            "positions": [
                0.370392394278209,
                -1.5515421554357247,
                -1.1350030524427388,
                2.309424269557765,
                -1.7028718884456249,
                2.738840803503053
            ]
        },
        {
            "positions": [
                0.4485410819922513,
                -1.565458016302823,
                -1.1806034621650658,
                2.3638442126727566,
                -1.7597762081308905,
                2.88319786016986
            ]
        },
        {
            "positions": [
                0.526689769706294,
                -1.579373877169922,
                -1.2262038718873929,
                2.418264155787748,
                -1.8166805278161562,
                3.0275549168366664
            ]
        },
        {
            "positions": [
                0.6048384574203363,
                -1.5932897380370203,
                -1.27180428160972,
                2.4726840989027394,
                -1.8735848475014214,
                3.171911973503474
            ]
        },
        {
            "positions": [
                0.6829871451343785,
                -1.6072055989041187,
                -1.317404691332047,
                2.5271040420177306,
                -1.9304891671866866,
                3.3162690301702797
            ]
        },
        {
            "positions": [
                0.7611358328484208,
                -1.6211214597712174,
                -1.3630051010543738,
                2.5815239851327223,
                -1.987393486871952,
                3.460626086837087
            ]
        },
        {
            "positions": [
                0.7217631375454846,
                -1.6486652240877795,
                -1.4051352704156075,
                2.5372159841174278,
                -1.8974617218998198,
                3.3159246560012847
            ]
        },
        {
            "positions": [
                0.6823904422425485,
                -1.6762089884043414,
                -1.4472654397768412,
                2.4929079831021332,
                -1.8075299569276875,
                3.1712232251654826
            ]
        },
        {
            "positions": [
                0.6430177469396123,
                -1.7037527527209035,
                -1.489395609138075,
                2.4485999820868387,
                -1.7175981919555552,
                3.026521794329681
            ]
        },
        {
            "positions": [
                0.6036450516366763,
                -1.7312965170374657,
                -1.5315257784993086,
                2.404291981071544,
                -1.627666426983423,
                2.881820363493879
            ]
        },
        {
            "positions": [
                0.5642723563337401,
                -1.7588402813540278,
                -1.5736559478605423,
                2.3599839800562497,
                -1.5377346620112906,
                2.7371189326580767
            ]
        },
        {
            "positions": [
                0.5248996610308039,
                -1.7863840456705897,
                -1.615786117221776,
                2.315675979040955,
                -1.4478028970391583,
                2.5924175018222746
            ]
        },
        {
            "positions": [
                0.48552696572786774,
                -1.8139278099871519,
                -1.65791628658301,
                2.2713679780256606,
                -1.357871132067026,
                2.4477160709864725
            ]
        },
        {
            "positions": [
                0.4461542704249316,
                -1.841471574303714,
                -1.7000464559442434,
                2.227059977010366,
                -1.267939367094894,
                2.3030146401506704
            ]
        },
        {
            "positions": [
                0.4067815751219955,
                -1.869015338620276,
                -1.7421766253054773,
                2.1827519759950715,
                -1.1780076021227617,
                2.1583132093148683
            ]
        },
        {
            "positions": [
                0.3674088798190593,
                -1.896559102936838,
                -1.784306794666711,
                2.138443974979777,
                -1.0880758371506292,
                2.013611778479066
            ]
        },
        {
            "positions": [
                0.3280361845161232,
                -1.9241028672534002,
                -1.8264369640279445,
                2.0941359739644825,
                -0.9981440721784971,
                1.8689103476432645
            ]
        },
        {
            "positions": [
                0.288663489213187,
                -1.9516466315699623,
                -1.8685671333891785,
                2.049827972949188,
                -0.9082123072063648,
                1.7242089168074624
            ]
        },
        {
            "positions": [
                0.24929079391025089,
                -1.9791903958865242,
                -1.9106973027504122,
                2.0055199719338934,
                -0.8182805422342325,
                1.5795074859716605
            ]
        },
        {
            "positions": [
                0.2099180986073147,
                -2.006734160203086,
                -1.9528274721116459,
                1.9612119709185987,
                -0.7283487772621002,
                1.4348060551358581
            ]
        },
        {
            "positions": [
                0.17054540330437862,
                -2.0342779245196483,
                -1.9949576414728796,
                1.9169039699033044,
                -0.6384170122899679,
                1.290104624300056
            ]
        },
        {
            "positions": [
                0.13117270800144243,
                -2.0618216888362104,
                -2.0370878108341133,
                1.8725959688880098,
                -0.5484852473178359,
                1.1454031934642543
            ]
        },
        {
            "positions": [
                0.09180001269850624,
                -2.0893654531527726,
                -2.079217980195347,
                1.828287967872715,
                -0.45855348234570337,
                1.0007017626284522
            ]
        },
        {
            "positions": [
                0.05242731739557016,
                -2.1169092174693347,
                -2.1213481495565807,
                1.7839799668574206,
                -0.3686217173735713,
                0.8560003317926501
            ]
        },
        {
            "positions": [
                0.013054622092633972,
                -2.144452981785897,
                -2.1634783189178144,
                1.7396719658421262,
                -0.278689952401439,
                0.711298900956848
            ]
        },
        {
            "positions": [
                -0.026318073210302217,
                -2.171996746102459,
                -2.205608488279048,
                1.6953639648268315,
                -0.1887581874293065,
                0.5665974701210459
            ]
        },
        {
            "positions": [
                -0.0656907685132383,
                -2.1995405104190207,
                -2.247738657640282,
                1.651055963811537,
                -0.09882642245717443,
                0.4218960392852442
            ]
        },
        {
            "positions": [
                -0.10506346381617437,
                -2.227084274735583,
                -2.2898688270015155,
                1.6067479627962427,
                -0.008894657485042146,
                0.2771946084494421
            ]
        },
        {
            "positions": [
                -0.14443615911911067,
                -2.254628039052145,
                -2.331998996362749,
                1.562439961780948,
                0.08103710748709014,
                0.13249317761364
            ]
        },
        {
            "positions": [
                -0.18380885442204678,
                -2.282171803368707,
                -2.374129165723983,
                1.5181319607656534,
                0.17096887245922227,
                -0.012208253222162308
            ]
        }
    ]
}