{
    "goal": {
        "global_pose": {
            "orientation": {
                "w": 0.7047431493862688,
                "x": -0.7094548369677653,
                "y": 0.0024358444001904,
                "z": -0.0022348060817251984
            },
            "position": {
                "x": -0.39052492380142206,
                "y": 0.3671506643295288,
                "z": 0.19426114857196808
            }
        },
        "name": "move_to_magneteinheit_D"
    },
    "id": "ProjEST_move_to_magneteinheit_D_80",
    "joint_names": [
        "shoulder_pan_joint",
        "shoulder_lift_joint",
        "elbow_joint",
        "wrist_1_joint",
        "wrist_2_joint",
        "wrist_3_joint"
    ],
    "metrics": {
        "cart_traj_len": 4.968848427325207,
        "distance_elbow_joint": 4.028059587000744,
        "distance_shoulder_lift_joint": 1.7373315627618384,
        "distance_shoulder_pan_joint": 3.4416957352802613,
        "distance_wrist_1_joint": 1.6040354357824138,
        "distance_wrist_2_joint": 0.5239542317116355,
        "distance_wrist_3_joint": 3.135764719491003,
        "smoothness": 0.4697403213191881,
        "time": 1.102393486,
        "traj_len": 3.804055897595078,
        "weighted_distance": 4.782296559029349
    },
    "planner": "ProjEST",
    "start": {
        "state": {
            "elbow_joint": 0.749534889911806,
            "shoulder_lift_joint": -0.6476975780787326,
            "shoulder_pan_joint": -2.711696901376241,
            "wrist_1_joint": -0.07506478083263063,
            "wrist_2_joint": 0.43296659715538205,
            "wrist_3_joint": -3.14703540197715
        }
    },
    "waypoints": [
        {
            "positions": [
                -2.711696901376241,
                -0.6476975780787326,
                0.749534889911806,
                -0.07506478083263063,
                0.43296659715538205,
                -3.14703540197715
            ]
        },
        {
            "positions": [
                -2.7654126438503868,
                -0.6717273305505593,
                0.8070295291172267,
                -0.024340362417277675,
                0.3909141556210874,
                -3.047164504593863
            ]
        },
        {
            "positions": [
                -2.8191283863245324,
                -0.6957570830223859,
                0.8645241683226473,
                0.02638405599807528,
                0.3488617140867928,
                -2.9472936072105766
            ]
        },
        {
            "positions": [
                -2.8728441287986786,
                -0.7197868354942125,
                0.922018807528068,
                0.07710847441342822,
                0.3068092725524981,
                -2.84742270982729
            ]
        },
        {
            "positions": [
                -2.9265598712728242,
                -0.7438165879660392,
                0.9795134467334887,
                0.12783289282878119,
                0.26475683101820346,
                -2.7475518124440033
            ]
        },
        {
            "positions": [
                -2.8022633490504343,
                -0.7995169188618105,
                0.8851626602961598,
                0.1404517800397053,
                0.25567843717906624,
                -2.659038647905234
            ]
        },
        {
            "positions": [
                -2.6779668268280448,
                -0.855217249757582,
                0.7908118738588307,
                0.15307066725062937,
                0.24660004333992905,
                -2.5705254833664646
            ]
        },
        {
            "positions": [
                -2.553670304605655,
                -0.9109175806533533,
                0.6964610874215016,
                0.16568955446155348,
                0.23752164950079185,
                -2.4820123188276955
            ]
        },
        {
            "positions": [
                -2.429373782383265,
                -0.9666179115491246,
                0.6021103009841726,
                0.17830844167247756,
                0.22844325566165466,
                -2.393499154288926
            ]
        },
        {
            "positions": [
                -2.3050772601608753,
                -1.022318242444896,
                0.5077595145468436,
                0.19092732888340166,
                0.21936486182251744,
                -2.304985989750157
            ]
        },
        {
            "positions": [
                -2.1807807379384854,
                -1.0780185733406673,
                0.41340872810951457,
                0.20354621609432577,
                0.21028646798338024,
                -2.2164728252113877
            ]
        },
        {
            "positions": [
                -2.056484215716096,
                -1.1337189042364386,
                0.3190579416721855,
                0.21616510330524985,
                0.20120807414424302,
                -2.127959660672618
            ]
        },
        {
            "positions": [
                -1.932187693493706,
                -1.18941923513221,
                0.22470715523485651,
                0.22878399051617393,
                0.19212968030510585,
                -2.039446496133849
            ]
        },
        {
            "positions": [
                -1.8078911712713162,
                -1.2451195660279812,
                0.13035636879752754,
                0.24140287772709804,
                0.18305128646596863,
                -1.9509333315950794
            ]
        },
        {
            "positions": [
                -1.6835946490489262,
                -1.3008198969237528,
                0.03600558236019846,
                0.25402176493802214,
                0.1739728926268314,
                -1.8624201670563103
            ]
        },
        {
            "positions": [
                -1.5592981268265365,
                -1.3565202278195239,
                -0.05834520407713062,
                0.2666406521489462,
                0.16489449878769424,
                -1.773907002517541
            ]
        },
        {
            "positions": [
                -1.4350016046041467,
                -1.4122205587152954,
                -0.1526959905144596,
                0.27925953935987036,
                0.15581610494855702,
                -1.6853938379787716
            ]
        },
        {
            "positions": [
                -1.310705082381757,
                -1.4679208896110667,
                -0.24704677695178856,
                0.29187842657079444,
                0.14673771110941983,
                -1.5968806734400025
            ]
        },
        {
            "positions": [
                -1.186408560159367,
                -1.523621220506838,
                -0.34139756338911775,
                0.3044973137817185,
                0.1376593172702826,
                -1.508367508901233
            ]
        },
        {
            "positions": [
                -1.0621120379369773,
                -1.5793215514026095,
                -0.4357483498264467,
                0.3171162009926426,
                0.1285809234311454,
                -1.4198543443624638
            ]
        },
        {
            "positions": [
                -0.9378155157145875,
                -1.6350218822983806,
                -0.5300991362637757,
                0.3297350882035667,
                0.11950252959200822,
                -1.3313411798236945
            ]
        },
        {
            "positions": [
                -0.8135189934921976,
                -1.6907222131941522,
                -0.6244499227011049,
                0.3423539754144908,
                0.110424135752871,
                -1.242828015284925
            ]
        },
        {
            "positions": [
                -0.6892224712698081,
                -1.7464225440899235,
                -0.7188007091384336,
                0.3549728626254149,
                0.1013457419137338,
                -1.1543148507461558
            ]
        },
        {
            "positions": [
                -0.5649259490474181,
                -1.8021228749856948,
                -0.8131514955757626,
                0.367591749836339,
                0.0922673480745966,
                -1.0658016862073867
            ]
        },
        {
            "positions": [
                -0.44062942682502815,
                -1.8578232058814663,
                -0.9075022820130918,
                0.3802106370472631,
                0.08318895423545938,
                -0.9772885216686171
            ]
        },
        {
            "positions": [
                -0.31633290460263863,
                -1.9135235367772374,
                -1.0018530684504208,
                0.3928295242581872,
                0.07411056039632219,
                -0.8887753571298478
            ]
        },
        {
            "positions": [
                -0.19203638238024867,
                -1.9692238676730087,
                -1.09620385488775,
                0.40544841146911126,
                0.065032166557185,
                -0.8002621925910787
            ]
        },
        {
            "positions": [
                -0.06773986015785871,
                -2.0249241985687805,
                -1.190554641325079,
                0.4180672986800354,
                0.05595377271804777,
                -0.7117490280523091
            ]
        },
        {
            "positions": [
                0.056556662064530736,
                -2.0806245294645516,
                -1.284905427762408,
                0.43068618589095947,
                0.04687537887891059,
                -0.6232358635135398
            ]
        },
        {
            "positions": [
                0.0472266814583805,
                -2.073298372122916,
                -1.4721631122559529,
                0.5647253478257732,
                0.05477082690788605,
                -0.5846159562021777
            ]
        },
        {
            "positions": [
                0.037896700852230264,
                -2.0659722147812802,
                -1.659420796749498,
                0.698764509760587,
                0.06266627493686151,
                -0.5459960488908157
            ]
        },
        {
            "positions": [
                0.02856672024608002,
                -2.0586460574396446,
                -1.846678481243043,
                0.8328036716954008,
                0.07056172296583697,
                -0.5073761415794535
            ]
        },
        {
            "positions": [
                0.019236739639929785,
                -2.0513199000980085,
                -2.033936165736588,
                0.9668428336302146,
                0.07845717099481245,
                -0.4687562342680915
            ]
        },
        {
            "positions": [
                0.009906759033779543,
                -2.043993742756373,
                -2.221193850230133,
                1.1008819955650284,
                0.08635261902378791,
                -0.43013632695672943
            ]
        },
        {
            "positions": [
                0.000576778427629307,
                -2.036667585414737,
                -2.408451534723678,
                1.2349211574998422,
                0.09424806705276337,
                -0.3915164196453673
            ]
        },
        {
            "positions": [
                -0.008753202178520936,
                -2.0293414280731015,
                -2.5957092192172233,
                1.368960319434656,
                0.10214351508173883,
                -0.35289651233400526
            ]
        },
        {
            "positions": [
                -0.05335479412933871,
                -2.0926218055692436,
                -2.539994628160136,
                1.4089629033134379,
                0.12279223438982273,
                -0.267490054872041
            ]
        },
        {
            "positions": [
                -0.09795638608015649,
                -2.155902183065386,
                -2.4842800371030487,
                1.4489654871922197,
                0.14344095369790666,
                -0.18208359741007682
            ]
        },
        {
            "positions": [
                -0.14255797803097425,
                -2.2191825605615287,
                -2.428565446045962,
                1.4889680710710014,
                0.16408967300599056,
                -0.09667713994811261
            ]
        },
        {
            "positions": [
                -0.18715956998179203,
                -2.282462938057671,
                -2.3728508549888745,
                1.5289706549497832,
                0.18473839231407446,
                -0.0112706824861484
            ]
        }
    ]
}