{
    "goal": {
        "global_pose": {
            "orientation": {
                "w": 0.7031023480610252,
                "x": -0.7110244013736278,
                "y": 0.0077485991402295624,
                "z": 0.005598929693374583
            },
            "position": {
                "x": -0.8841497679147869,
                "y": 0.44412534475326537,
                "z": 0.3711530566215515
            }
        },
        "name": "move_to_auspresseinheit_D"
    },
    "id": "ProjEST_move_to_auspresseinheit_D_103",
    "joint_names": [
        "shoulder_pan_joint",
        "shoulder_lift_joint",
        "elbow_joint",
        "wrist_1_joint",
        "wrist_2_joint",
        "wrist_3_joint"
    ],
    "metrics": {
        "cart_traj_len": 0.3449423851350234,
        "distance_elbow_joint": 0.6699417806306678,
        "distance_shoulder_lift_joint": 0.1384702873141146,
        "distance_shoulder_pan_joint": 0.13317753133191643,
        "distance_wrist_1_joint": 0.6224142300317381,
        "distance_wrist_2_joint": 1.446001943117809,
        "distance_wrist_3_joint": 0.07758448611328239,
        "smoothness": 4.934324567253731e-16,
        "time": 0.022956484,
        "traj_len": 1.757154022429317,
        "weighted_distance": 2.304598751174625
    },
    "planner": "ProjEST",
    "start": {
        "state": {
            "elbow_joint": -1.8275523626775212,
            "shoulder_lift_joint": -2.126789852344167,
            "shoulder_pan_joint": -0.03513704404078235,
            "wrist_1_joint": -2.347782403156801,
            "wrist_2_joint": -1.6058999987535132,
            "wrist_3_joint": -3.0880379163319196
        }
    },
    "waypoints": [
        {
            "positions": [
                -0.03513704404078235,
                -2.126789852344167,
                -1.8275523626775212,
                -2.347782403156801,
                -1.6058999987535132,
                -3.0880379163319196
            ]
        },
        {
            "positions": [
                -0.0517842354572719,
                -2.144098638258431,
                -1.7438096400986878,
                -2.425584181910768,
                -1.4251497558637871,
                -3.0783398555677595
            ]
        },
        {
            "positions": [
                -0.06843142687376146,
                -2.1614074241726957,
                -1.6600669175198544,
                -2.5033859606647355,
                -1.244399512974061,
                -3.068641794803599
            ]
        },
        {
            "positions": [
                -0.08507861829025101,
                -2.17871621008696,
                -1.5763241949410207,
                -2.5811877394187026,
                -1.0636492700843347,
                -3.0589437340394388
            ]
        },
        {
            "positions": [
                -0.10172580970674056,
                -2.196024996001224,
                -1.4925814723621873,
                -2.65898951817267,
                -0.8828990271946087,
                -3.049245673275278
            ]
        },
        {
            "positions": [
                -0.11837300112323013,
                -2.2133337819154884,
                -1.4088387497833539,
                -2.7367912969266373,
                -0.7021487843048826,
                -3.039547612511118
            ]
        },
        {
            "positions": [
                -0.13502019253971967,
                -2.2306425678297526,
                -1.3250960272045202,
                -2.8145930756806044,
                -0.5213985414151563,
                -3.029849551746958
            ]
        },
        {
            "positions": [
                -0.1516673839562092,
                -2.2479513537440172,
                -1.2413533046256868,
                -2.8923948544345714,
                -0.3406482985254302,
                -3.0201514909827973
            ]
        },
        {
            "positions": [
                -0.16831457537269878,
                -2.2652601396582814,
                -1.1576105820468534,
                -2.970196633188539,
                -0.15989805563570408,
                -3.010453430218637
            ]
        }
    ]
}