{
    "goal": {
        "global_pose": {
            "orientation": {
                "w": 0.5084816217422485,
                "x": -0.49083608388900757,
                "y": 0.5182115435600281,
                "z": -0.4816462993621826
            },
            "position": {
                "x": 0.5540239810943604,
                "y": 0.030875300988554955,
                "z": 0.16403168439865112
            }
        },
        "name": "move_to_storage_A"
    },
    "id": "ProjEST_move_to_storage_A_117",
    "joint_names": [
        "shoulder_pan_joint",
        "shoulder_lift_joint",
        "elbow_joint",
        "wrist_1_joint",
        "wrist_2_joint",
        "wrist_3_joint"
    ],
    "metrics": {
        "cart_traj_len": 0.35317096982228485,
        "distance_elbow_joint": 0.4482714831623571,
        "distance_shoulder_lift_joint": 0.23503265240532567,
        "distance_shoulder_pan_joint": 0.4586183623050721,
        "distance_wrist_1_joint": 0.240004372725228,
        "distance_wrist_2_joint": 1.1124303252790688,
        "distance_wrist_3_joint": 0.10240342104270983,
        "smoothness": 0.0,
        "time": 0.030879726,
        "traj_len": 1.6114467465354732,
        "weighted_distance": 2.0381369328407444
    },
    "planner": "ProjEST",
    "start": {
        "state": {
            "elbow_joint": 1.971548259319323,
            "shoulder_lift_joint": -1.1394851275133948,
            "shoulder_pan_joint": 0.1228115487234821,
            "wrist_1_joint": -0.7804723859257726,
            "wrist_2_joint": 0.12958671773740124,
            "wrist_3_joint": -3.192489227718131
        }
    },
    "waypoints": [
        {
            "positions": [
                0.1228115487234821,
                -1.1394851275133948,
                1.971548259319323,
                -0.7804723859257726,
                0.12958671773740124,
                -3.192489227718131
            ]
        },
        {
            "positions": [
                0.05729463982275752,
                -1.1730612207141555,
                2.035587042628231,
                -0.8147587248865195,
                0.28850533563441105,
                -3.1778601675691727
            ]
        },
        {
            "positions": [
                -0.008222269077967054,
                -1.2066373139149165,
                2.099625825937139,
                -0.8490450638472663,
                0.44742395353142084,
                -3.163231107420214
            ]
        },
        {
            "positions": [
                -0.07373917797869164,
                -1.2402134071156772,
                2.1636646092460476,
                -0.8833314028080131,
                0.6063425714284307,
                -3.1486020472712557
            ]
        },
        {
            "positions": [
                -0.1392560868794162,
                -1.2737895003164381,
                2.2277033925549556,
                -0.9176177417687601,
                0.7652611893254405,
                -3.1339729871222968
            ]
        },
        {
            "positions": [
                -0.2047729957801408,
                -1.3073655935171988,
                2.2917421758638636,
                -0.9519040807295069,
                0.9241798072224504,
                -3.1193439269733383
            ]
        },
        {
            "positions": [
                -0.2702899046808654,
                -1.3409416867179598,
                2.355780959172772,
                -0.9861904196902538,
                1.0830984251194602,
                -3.10471486682438
            ]
        },
        {
            "positions": [
                -0.33580681358159,
                -1.3745177799187205,
                2.41981974248168,
                -1.0204767586510006,
                1.24201704301647,
                -3.0900858066754213
            ]
        }
    ]
}{
    "goal": {
        "global_pose": {
            "orientation": {
                "w": 0.5084816217422485,
                "x": -0.49083608388900757,
                "y": 0.5182115435600281,
                "z": -0.4816462993621826
            },
            "position": {
                "x": 0.5540239810943604,
                "y": 0.030875300988554955,
                "z": 0.16403168439865112
            }
        },
        "name": "move_to_storage_A"
    },
    "id": "ProjEST_move_to_storage_A_117",
    "joint_names": [
        "shoulder_pan_joint",
        "shoulder_lift_joint",
        "elbow_joint",
        "wrist_1_joint",
        "wrist_2_joint",
        "wrist_3_joint"
    ],
    "metrics": {
        "cart_traj_len": 0.3537501578826061,
        "distance_elbow_joint": 0.4528444053568852,
        "distance_shoulder_lift_joint": 0.2317701015125484,
        "distance_shoulder_pan_joint": 0.4598619450752189,
        "distance_wrist_1_joint": 0.259519470064016,
        "distance_wrist_2_joint": 1.1107316119678785,
        "distance_wrist_3_joint": 0.10542370232713871,
        "smoothness": 6.661338200497456e-16,
        "time": 0.099086095,
        "traj_len": 1.6186881219999378,
        "weighted_distance": 2.0496950317034623
    },
    "planner": "ProjEST",
    "start": {
        "state": {
            "elbow_joint": 1.97154746011099,
            "shoulder_lift_joint": -1.13948474672311,
            "shoulder_pan_joint": 0.12281154466712228,
            "wrist_1_joint": -0.7804688027058302,
            "wrist_2_joint": 0.12958655903071145,
            "wrist_3_joint": 3.0906928834467795
        }
    },
    "waypoints": [
        {
            "positions": [
                0.12281154466712228,
                -1.13948474672311,
                1.97154746011099,
                -0.7804688027058302,
                0.12958655903071145,
                3.0906928834467795
            ]
        },
        {
            "positions": [
                0.05711698108494816,
                -1.1725947612249026,
                2.036239518019116,
                -0.8175430127149753,
                0.28826250359755123,
                3.1057534123506563
            ]
        },
        {
            "positions": [
                -0.008577582497225969,
                -1.2057047757266952,
                2.100931575927243,
                -0.8546172227241204,
                0.446938448164391,
                3.1208139412545335
            ]
        },
        {
            "positions": [
                -0.0742721460794001,
                -1.2388147902284878,
                2.165623633835369,
                -0.8916914327332656,
                0.6056143927312307,
                3.1358744701584103
            ]
        },
        {
            "positions": [
                -0.1399667096615742,
                -1.2719248047302805,
                2.230315691743496,
                -0.9287656427424107,
                0.7642903372980706,
                3.1509349990622875
            ]
        },
        {
            "positions": [
                -0.20566127324374833,
                -1.305034819232073,
                2.295007749651622,
                -0.9658398527515559,
                0.9229662818649105,
                3.1659955279661642
            ]
        },
        {
            "positions": [
                -0.27135583682592246,
                -1.3381448337338657,
                2.359699807559749,
                -1.002914062760701,
                1.08164222643175,
                3.1810560568700414
            ]
        },
        {
            "positions": [
                -0.3370504004080966,
                -1.3712548482356584,
                2.424391865467875,
                -1.0399882727698462,
                1.24031817099859,
                3.196116585773918
            ]
        }
    ]
}{
    "goal": {
        "global_pose": {
            "orientation": {
                "w": 0.5084816217422485,
                "x": -0.49083608388900757,
                "y": 0.5182115435600281,
                "z": -0.4816462993621826
            },
            "position": {
                "x": 0.5540239810943604,
                "y": 0.030875300988554955,
                "z": 0.16403168439865112
            }
        },
        "name": "move_to_storage_A"
    },
    "id": "ProjEST_move_to_storage_A_117",
    "joint_names": [
        "shoulder_pan_joint",
        "shoulder_lift_joint",
        "elbow_joint",
        "wrist_1_joint",
        "wrist_2_joint",
        "wrist_3_joint"
    ],
    "metrics": {
        "cart_traj_len": 0.35294456557204046,
        "distance_elbow_joint": 0.4521486877177163,
        "distance_shoulder_lift_joint": 0.23443530398870904,
        "distance_shoulder_pan_joint": 0.46213377960350915,
        "distance_wrist_1_joint": 0.2553521270519614,
        "distance_wrist_2_joint": 1.0958344195430758,
        "distance_wrist_3_joint": 0.10241042089584784,
        "smoothness": 0.0,
        "time": 0.031429325,
        "traj_len": 1.61316916000797,
        "weighted_distance": 2.039196441539547
    },
    "planner": "ProjEST",
    "start": {
        "state": {
            "elbow_joint": 1.9715472970024885,
            "shoulder_lift_joint": -1.1394870060712896,
            "shoulder_pan_joint": 0.12281152778156021,
            "wrist_1_joint": -0.780463741449964,
            "wrist_2_joint": 0.12958659822042276,
            "wrist_3_joint": 3.090690232415272
        }
    },
    "waypoints": [
        {
            "positions": [
                0.12281152778156021,
                -1.1394870060712896,
                1.9715472970024885,
                -0.780463741449964,
                0.12958659822042276,
                3.090690232415272
            ]
        },
        {
            "positions": [
                0.05679241640963034,
                -1.1729777637839622,
                2.036139966676448,
                -0.8169426167431013,
                0.28613437244086215,
                3.10532029254325
            ]
        },
        {
            "positions": [
                -0.009226694962299525,
                -1.206468521496635,
                2.1007326363504073,
                -0.8534214920362386,
                0.44268214666130157,
                3.1199503526712284
            ]
        },
        {
            "positions": [
                -0.07524580633422939,
                -1.2399592792093077,
                2.165325306024367,
                -0.889900367329376,
                0.599229920881741,
                3.1345804127992065
            ]
        },
        {
            "positions": [
                -0.14126491770615926,
                -1.2734500369219806,
                2.2299179756983265,
                -0.9263792426225134,
                0.7557776951021803,
                3.149210472927185
            ]
        },
        {
            "positions": [
                -0.20728402907808915,
                -1.3069407946346532,
                2.294510645372286,
                -0.9628581179156508,
                0.9123254693226197,
                3.163840533055163
            ]
        },
        {
            "positions": [
                -0.273303140450019,
                -1.3404315523473258,
                2.3591033150462453,
                -0.9993369932087881,
                1.0688732435430592,
                3.1784705931831416
            ]
        },
        {
            "positions": [
                -0.3393222518219489,
                -1.3739223100599987,
                2.423695984720205,
                -1.0358158685019254,
                1.2254210177634985,
                3.1931006533111197
            ]
        }
    ]
}