{
    "goal": {
        "global_pose": {
            "orientation": {
                "w": 0.5084816262002911,
                "x": -0.4908360881923452,
                "y": 0.5182115481033761,
                "z": -0.48164630358495003
            },
            "position": {
                "x": 0.5540239810943604,
                "y": -0.46912469901144505,
                "z": 0.16403168439865112
            }
        },
        "name": "move_to_storage_B"
    },
    "id": "ProjEST_move_to_storage_B_79",
    "joint_names": [
        "shoulder_pan_joint",
        "shoulder_lift_joint",
        "elbow_joint",
        "wrist_1_joint",
        "wrist_2_joint",
        "wrist_3_joint"
    ],
    "metrics": {
        "cart_traj_len": 3.4348156273185033,
        "distance_elbow_joint": 2.1574374706633623,
        "distance_shoulder_lift_joint": 1.2463576703306078,
        "distance_shoulder_pan_joint": 3.2024204554932316,
        "distance_wrist_1_joint": 3.010140196072149,
        "distance_wrist_2_joint": 3.170642347002517,
        "distance_wrist_3_joint": 3.150486279521394,
        "smoothness": 0.2914706132506328,
        "time": 0.08128376100000001,
        "traj_len": 3.9921779042376437,
        "weighted_distance": 5.330969848085872
    },
    "planner": "ProjEST",
    "start": {
        "state": {
            "elbow_joint": 1.664937868594044,
            "shoulder_lift_joint": -0.661644460510453,
            "shoulder_pan_joint": -0.9139846352900073,
            "wrist_1_joint": 2.146753192139373,
            "wrist_2_joint": -2.2341966793290973,
            "wrist_3_joint": 0.005466555786416001
        }
    },
    "waypoints": [
        {
            "positions": [
                -0.9139846352900073,
                -0.661644460510453,
                1.664937868594044,
                2.146753192139373,
                -2.2341966793290973,
                0.005466555786416001
            ]
        },
        {
            "positions": [
                -0.8483190624841611,
                -0.6987471703308943,
                1.6257549613055828,
                2.0801208638787343,
                -2.106508952971193,
                0.052993813490853026
            ]
        },
        {
            "positions": [
                -0.7826534896783148,
                -0.7358498801513356,
                1.586572054017122,
                2.013488535618096,
                -1.9788212266132885,
                0.10052107119529005
            ]
        },
        {
            "positions": [
                -0.7169879168724687,
                -0.7729525899717768,
                1.547389146728661,
                1.946856207357457,
                -1.8511335002553841,
                0.14804832889972708
            ]
        },
        {
            "positions": [
                -0.6513223440666225,
                -0.8100552997922181,
                1.5082062394401998,
                1.880223879096818,
                -1.7234457738974798,
                0.1955755866041641
            ]
        },
        {
            "positions": [
                -0.5856567712607763,
                -0.8471580096126594,
                1.469023332151739,
                1.8135915508361793,
                -1.5957580475395754,
                0.24310284430860113
            ]
        },
        {
            "positions": [
                -0.5199911984549301,
                -0.8842607194331007,
                1.429840424863278,
                1.7469592225755406,
                -1.468070321181671,
                0.2906301020130382
            ]
        },
        {
            "positions": [
                -0.45432562564908385,
                -0.921363429253542,
                1.3906575175748168,
                1.6803268943149017,
                -1.3403825948237666,
                0.33815735971747524
            ]
        },
        {
            "positions": [
                -0.3886600528432377,
                -0.9584661390739833,
                1.3514746102863557,
                1.613694566054263,
                -1.2126948684658625,
                0.38568461742191223
            ]
        },
        {
            "positions": [
                -0.3229944800373914,
                -0.9955688488944245,
                1.3122917029978949,
                1.5470622377936243,
                -1.0850071421079581,
                0.4332118751263493
            ]
        },
        {
            "positions": [
                -0.25732890723154533,
                -1.0326715587148658,
                1.2731087957094338,
                1.4804299095329854,
                -0.9573194157500537,
                0.4807391328307863
            ]
        },
        {
            "positions": [
                -0.19166333442569905,
                -1.069774268535307,
                1.2339258884209727,
                1.4137975812723464,
                -0.8296316893921494,
                0.5282663905352233
            ]
        },
        {
            "positions": [
                -0.12599776161985288,
                -1.1068769783557484,
                1.1947429811325119,
                1.347165253011708,
                -0.701943963034245,
                0.5757936482396603
            ]
        },
        {
            "positions": [
                -0.060332188814006704,
                -1.1439796881761897,
                1.1555600738440508,
                1.280532924751069,
                -0.5742562366763408,
                0.6233209059440973
            ]
        },
        {
            "positions": [
                0.00533338399183958,
                -1.181082397996631,
                1.1163771665555897,
                1.2139005964904301,
                -0.44656851031843625,
                0.6708481636485344
            ]
        },
        {
            "positions": [
                0.07099895679768575,
                -1.2181851078170722,
                1.0771942592671286,
                1.1472682682297914,
                -0.3188807839605319,
                0.7183754213529714
            ]
        },
        {
            "positions": [
                0.13666452960353193,
                -1.2552878176375135,
                1.0380113519786678,
                1.0806359399691527,
                -0.19119305760262773,
                0.7659026790574084
            ]
        },
        {
            "positions": [
                0.2023301024093781,
                -1.2923905274579548,
                0.9988284446902068,
                1.014003611708514,
                -0.06350533124472335,
                0.8134299367618454
            ]
        },
        {
            "positions": [
                0.2679956752152245,
                -1.329493237278396,
                0.9596455374017457,
                0.9473712834478751,
                0.06418239511318102,
                0.8609571944662825
            ]
        },
        {
            "positions": [
                0.33366124802107067,
                -1.3665959470988374,
                0.9204626301132848,
                0.8807389551872364,
                0.1918701214710854,
                0.9084844521707195
            ]
        },
        {
            "positions": [
                0.3993268208269166,
                -1.4036986569192786,
                0.8812797228248237,
                0.8141066269265975,
                0.31955784782898977,
                0.9560117098751565
            ]
        },
        {
            "positions": [
                0.4649923936327628,
                -1.44080136673972,
                0.8420968155363627,
                0.7474742986659588,
                0.44724557418689415,
                1.0035389675795936
            ]
        },
        {
            "positions": [
                0.5306579664386092,
                -1.4779040765601612,
                0.8029139082479017,
                0.6808419704053199,
                0.5749333005447985,
                1.0510662252840306
            ]
        },
        {
            "positions": [
                0.5963235392444552,
                -1.5150067863806025,
                0.7637310009594407,
                0.6142096421446813,
                0.7026210269027028,
                1.0985934829884676
            ]
        },
        {
            "positions": [
                0.5023173014134125,
                -1.4931737116883548,
                0.833521590016594,
                0.5321209395848226,
                0.6896307690821073,
                1.2128912247839865
            ]
        },
        {
            "positions": [
                0.40831106358236974,
                -1.471340636996107,
                0.9033121790737472,
                0.450032237024964,
                0.6766405112615118,
                1.3271889665795056
            ]
        },
        {
            "positions": [
                0.314304825751327,
                -1.4495075623038594,
                0.9731027681309005,
                0.3679435344651053,
                0.6636502534409164,
                1.4414867083750247
            ]
        },
        {
            "positions": [
                0.22029858792028423,
                -1.4276744876116116,
                1.0428933571880536,
                0.28585483190524663,
                0.650659995620321,
                1.5557844501705436
            ]
        },
        {
            "positions": [
                0.12629235008924145,
                -1.4058414129193642,
                1.112683946245207,
                0.20376612934538796,
                0.6376697377997255,
                1.6700821919660627
            ]
        },
        {
            "positions": [
                0.032286112258198774,
                -1.3840083382271164,
                1.1824745353023602,
                0.12167742678552929,
                0.62467947997913,
                1.7843799337615815
            ]
        },
        {
            "positions": [
                -0.06172012557284412,
                -1.3621752635348687,
                1.2522651243595135,
                0.03958872422567061,
                0.6116892221585346,
                1.8986776755571007
            ]
        },
        {
            "positions": [
                -0.1557263634038868,
                -1.340342188842621,
                1.3220557134166668,
                -0.04249997833418806,
                0.5986989643379391,
                2.0129754173526195
            ]
        },
        {
            "positions": [
                -0.24973260123492957,
                -1.3185091141503733,
                1.39184630247382,
                -0.12458868089404673,
                0.5857087065173436,
                2.127273159148139
            ]
        },
        {
            "positions": [
                -0.34373883906597236,
                -1.2966760394581256,
                1.4616368915309734,
                -0.2066773834539054,
                0.5727184486967482,
                2.2415709009436577
            ]
        },
        {
            "positions": [
                -0.43774507689701525,
                -1.2748429647658779,
                1.5314274805881265,
                -0.2887660860137642,
                0.5597281908761527,
                2.3558686427391766
            ]
        },
        {
            "positions": [
                -0.5317513147280577,
                -1.2530098900736304,
                1.6012180696452798,
                -0.37085478857362275,
                0.5467379330555573,
                2.4701663845346955
            ]
        },
        {
            "positions": [
                -0.6257575525591006,
                -1.2311768153813825,
                1.671008658702433,
                -0.4529434911334814,
                0.5337476752349618,
                2.5844641263302144
            ]
        },
        {
            "positions": [
                -0.7197637903901435,
                -1.209343740689135,
                1.7407992477595862,
                -0.5350321936933401,
                0.5207574174143663,
                2.6987618681257337
            ]
        },
        {
            "positions": [
                -0.8137700282211862,
                -1.187510665996887,
                1.8105898368167397,
                -0.6171208962531988,
                0.5077671595937708,
                2.813059609921253
            ]
        },
        {
            "positions": [
                -0.9077762660522288,
                -1.1656775913046395,
                1.8803804258738928,
                -0.6992095988130574,
                0.49477690177317546,
                2.9273573517167715
            ]
        },
        {
            "positions": [
                -1.0017825038832715,
                -1.1438445166123918,
                1.950171014931046,
                -0.7812983013729161,
                0.48178664395258,
                3.041655093512291
            ]
        },
        {
            "positions": [
                -1.0957887417143144,
                -1.1220114419201441,
                2.0199616039881994,
                -0.8633870039327747,
                0.4687963861319845,
                3.1559528353078097
            ]
        }
    ]
}