{
    "goal": {
        "global_pose": {
            "orientation": {
                "w": -0.4816463035849501,
                "x": 0.5182115481033762,
                "y": 0.4908360881923453,
                "z": -0.5084816262002911
            },
            "position": {
                "x": -0.8240239810943604,
                "y": 0.19912469901144506,
                "z": 0.16403168439865112
            }
        },
        "name": "move_to_storage_D"
    },
    "id": "ProjEST_move_to_storage_D_11",
    "joint_names": [
        "shoulder_pan_joint",
        "shoulder_lift_joint",
        "elbow_joint",
        "wrist_1_joint",
        "wrist_2_joint",
        "wrist_3_joint"
    ],
    "metrics": {
        "cart_traj_len": 3.975785486283769,
        "distance_elbow_joint": 4.437890772635865,
        "distance_shoulder_lift_joint": 1.2647903859203355,
        "distance_shoulder_pan_joint": 2.814329549290347,
        "distance_wrist_1_joint": 3.497842333899322,
        "distance_wrist_2_joint": 1.9937823154336372,
        "distance_wrist_3_joint": 3.150350699638963,
        "smoothness": 0.5041314164392368,
        "time": 0.254669434,
        "traj_len": 4.14234064953843,
        "weighted_distance": 5.380642350633367
    },
    "planner": "ProjEST",
    "start": {
        "state": {
            "elbow_joint": -2.384821988534728,
            "shoulder_lift_joint": -2.2788054721415256,
            "shoulder_pan_joint": -0.1854694642142757,
            "wrist_1_joint": 1.4845938289331202,
            "wrist_2_joint": 0.17898776772866878,
            "wrist_3_joint": 0.037105688729662994
        }
    },
    "waypoints": [
        {
            "positions": [
                -0.1854694642142757,
                -2.2788054721415256,
                -2.384821988534728,
                1.4845938289331202,
                0.17898776772866878,
                0.037105688729662994
            ]
        },
        {
            "positions": [
                -0.1279290361747268,
                -2.180550988639851,
                -2.4410345435511016,
                1.584839323148099,
                0.1484099851580381,
                0.0847218174434341
            ]
        },
        {
            "positions": [
                -0.07038860813517792,
                -2.0822965051381765,
                -2.4972470985674753,
                1.685084817363078,
                0.11783220258740743,
                0.1323379461572052
            ]
        },
        {
            "positions": [
                -0.008337590987837575,
                -2.0689470108421144,
                -2.3755428168292583,
                1.600014251110913,
                0.16017422561433026,
                0.1963586933526722
            ]
        },
        {
            "positions": [
                0.05371342615950277,
                -2.0555975165460523,
                -2.253838535091041,
                1.5149436848587479,
                0.20251624864125306,
                0.2603794405481392
            ]
        },
        {
            "positions": [
                0.11576444330684313,
                -2.04224802224999,
                -2.132134253352824,
                1.429873118606583,
                0.2448582716681759,
                0.32440018774360624
            ]
        },
        {
            "positions": [
                0.17781546045418345,
                -2.028898527953928,
                -2.010429971614607,
                1.3448025523544178,
                0.2872002946950987,
                0.38842093493907326
            ]
        },
        {
            "positions": [
                0.23986647760152383,
                -2.015549033657866,
                -1.8887256898763893,
                1.259731986102253,
                0.3295423177220216,
                0.4524416821345403
            ]
        },
        {
            "positions": [
                0.3019174947488642,
                -2.0021995393618037,
                -1.7670214081381723,
                1.174661419850088,
                0.3718843407489444,
                0.5164624293300073
            ]
        },
        {
            "positions": [
                0.3639685118962045,
                -1.9888500450657414,
                -1.645317126399955,
                1.0895908535979228,
                0.4142263637758672,
                0.5804831765254742
            ]
        },
        {
            "positions": [
                0.4260195290435448,
                -1.9755005507696792,
                -1.5236128446617379,
                1.004520287345758,
                0.45656838680279,
                0.6445039237209412
            ]
        },
        {
            "positions": [
                0.4880705461908852,
                -1.962151056473617,
                -1.4019085629235208,
                0.919449721093593,
                0.4989104098297128,
                0.7085246709164083
            ]
        },
        {
            "positions": [
                0.5501215633382256,
                -1.948801562177555,
                -1.2802042811853036,
                0.834379154841428,
                0.5412524328566357,
                0.7725454181118753
            ]
        },
        {
            "positions": [
                0.6121725804855659,
                -1.9354520678814928,
                -1.1584999994470864,
                0.749308588589263,
                0.5835944558835585,
                0.8365661653073423
            ]
        },
        {
            "positions": [
                0.6742235976329063,
                -1.9221025735854305,
                -1.0367957177088691,
                0.6642380223370978,
                0.6259364789104813,
                0.9005869125028093
            ]
        },
        {
            "positions": [
                0.7362746147802466,
                -1.9087530792893683,
                -0.9150914359706521,
                0.5791674560849331,
                0.6682785019374041,
                0.9646076596982762
            ]
        },
        {
            "positions": [
                0.7983256319275869,
                -1.8954035849933062,
                -0.7933871542324349,
                0.494096889832768,
                0.7106205249643269,
                1.0286284068937432
            ]
        },
        {
            "positions": [
                0.8603766490749273,
                -1.882054090697244,
                -0.6716828724942179,
                0.4090263235806031,
                0.7529625479912497,
                1.0926491540892103
            ]
        },
        {
            "positions": [
                0.9224276662222676,
                -1.868704596401182,
                -0.5499785907560006,
                0.32395575732843795,
                0.7953045710181726,
                1.1566699012846773
            ]
        },
        {
            "positions": [
                0.984478683369608,
                -1.8553551021051198,
                -0.4282743090177834,
                0.23888519107627304,
                0.8376465940450954,
                1.2206906484801443
            ]
        },
        {
            "positions": [
                1.0465297005169483,
                -1.8420056078090576,
                -0.3065700272795664,
                0.15381462482410813,
                0.8799886170720183,
                1.2847113956756113
            ]
        },
        {
            "positions": [
                1.1085807176642888,
                -1.8286561135129955,
                -0.18486574554134894,
                0.06874405857194299,
                0.9223306400989412,
                1.3487321428710783
            ]
        },
        {
            "positions": [
                1.170631734811629,
                -1.8153066192169334,
                -0.06316146380313192,
                -0.016326507680221924,
                0.964672663125864,
                1.4127528900665454
            ]
        },
        {
            "positions": [
                1.2326827519589694,
                -1.8019571249208712,
                0.058542817935085534,
                -0.10139707393238706,
                1.0070146861527867,
                1.4767736372620124
            ]
        },
        {
            "positions": [
                1.2947337691063097,
                -1.7886076306248089,
                0.18024709967330255,
                -0.18646764018455197,
                1.0493567091797096,
                1.5407943844574794
            ]
        },
        {
            "positions": [
                1.3567847862536502,
                -1.7752581363287467,
                0.30195138141151956,
                -0.2715382064367171,
                1.0916987322066325,
                1.6048151316529464
            ]
        },
        {
            "positions": [
                1.4188358034009905,
                -1.7619086420326846,
                0.423655663149737,
                -0.35660877268888225,
                1.1340407552335552,
                1.6688358788484134
            ]
        },
        {
            "positions": [
                1.4808868205483308,
                -1.7485591477366225,
                0.545359944887954,
                -0.44167933894104694,
                1.176382778260478,
                1.7328566260438805
            ]
        },
        {
            "positions": [
                1.542937837695671,
                -1.7352096534405603,
                0.667064226626171,
                -0.5267499051932116,
                1.2187248012874008,
                1.7968773732393473
            ]
        },
        {
            "positions": [
                1.6049888548430113,
                -1.7218601591444982,
                0.788768508364388,
                -0.6118204714453768,
                1.2610668243143237,
                1.8608981204348143
            ]
        },
        {
            "positions": [
                1.6670398719903516,
                -1.708510664848436,
                0.9104727901026055,
                -0.6968910376975419,
                1.3034088473412464,
                1.9249188676302813
            ]
        },
        {
            "positions": [
                1.7290908891376922,
                -1.695161170552374,
                1.0321770718408225,
                -0.7819616039497066,
                1.3457508703681693,
                1.9889396148257483
            ]
        },
        {
            "positions": [
                1.7911419062850324,
                -1.6818116762563116,
                1.1538813535790395,
                -0.8670321702018717,
                1.388092893395092,
                2.0529603620212153
            ]
        },
        {
            "positions": [
                1.8531929234323727,
                -1.6684621819602494,
                1.275585635317257,
                -0.9521027364540369,
                1.430434916422015,
                2.1169811092166824
            ]
        },
        {
            "positions": [
                1.915243940579713,
                -1.6551126876641873,
                1.397289917055474,
                -1.037173302706202,
                1.4727769394489378,
                2.1810018564121494
            ]
        },
        {
            "positions": [
                1.9772949577270535,
                -1.6417631933681252,
                1.5189941987936915,
                -1.1222438689583667,
                1.5151189624758605,
                2.2450226036076164
            ]
        },
        {
            "positions": [
                2.0393459748743936,
                -1.628413699072063,
                1.640698480531909,
                -1.2073144352105318,
                1.5574609855027834,
                2.3090433508030834
            ]
        },
        {
            "positions": [
                2.106022849294982,
                -1.5595679064734034,
                1.6619868928645505,
                -1.161681378163333,
                1.5023488633175504,
                2.4082785912181524
            ]
        },
        {
            "positions": [
                2.172699723715571,
                -1.490722113874744,
                1.6832753051971918,
                -1.1160483211161345,
                1.447236741132317,
                2.5075138316332213
            ]
        },
        {
            "positions": [
                2.2393765981361597,
                -1.4218763212760843,
                1.7045637175298334,
                -1.0704152640689357,
                1.392124618947084,
                2.60674907204829
            ]
        },
        {
            "positions": [
                2.3060534725567483,
                -1.3530305286774247,
                1.725852129862475,
                -1.024782207021737,
                1.3370124967618509,
                2.705984312463359
            ]
        },
        {
            "positions": [
                2.3727303469773373,
                -1.2841847360787653,
                1.7471405421951165,
                -0.9791491499745383,
                1.2819003745766175,
                2.8052195528784285
            ]
        },
        {
            "positions": [
                2.439407221397926,
                -1.2153389434801056,
                1.7684289545277578,
                -0.9335160929273396,
                1.2267882523913844,
                2.9044547932934974
            ]
        },
        {
            "positions": [
                2.5060840958185144,
                -1.146493150881446,
                1.7897173668603994,
                -0.8878830358801408,
                1.1716761302061514,
                3.0036900337085664
            ]
        },
        {
            "positions": [
                2.5674720904472927,
                -1.0802541185513181,
                1.8089679654480215,
                -0.8451226890974586,
                1.1180695741659674,
                3.0955732110385963
            ]
        },
        {
            "positions": [
                2.6288600850760715,
                -1.01401508622119,
                1.8282185640356439,
                -0.8023623423147763,
                1.0644630181257837,
                3.187456388368626
            ]
        }
    ]
}