{
    "goal": {
        "global_pose": {
            "orientation": {
                "w": 0.7047431493862688,
                "x": -0.7094548369677653,
                "y": 0.0024358444001904,
                "z": -0.0022348060817251984
            },
            "position": {
                "x": -0.39052492380142206,
                "y": 0.3671506643295288,
                "z": 0.19426114857196808
            }
        },
        "name": "move_to_magneteinheit_D"
    },
    "id": "ProjEST_move_to_magneteinheit_D_50",
    "joint_names": [
        "shoulder_pan_joint",
        "shoulder_lift_joint",
        "elbow_joint",
        "wrist_1_joint",
        "wrist_2_joint",
        "wrist_3_joint"
    ],
    "metrics": {
        "cart_traj_len": 4.553925318981504,
        "distance_elbow_joint": 3.4377268265638223,
        "distance_shoulder_lift_joint": 1.6271906537121763,
        "distance_shoulder_pan_joint": 3.4371674498060756,
        "distance_wrist_1_joint": 1.911409539917811,
        "distance_wrist_2_joint": 1.4820428057851671,
        "distance_wrist_3_joint": 4.0667882370523865,
        "smoothness": 0.5283637179561846,
        "time": 0.5006669619999999,
        "traj_len": 3.99528791363494,
        "weighted_distance": 5.24302911804285
    },
    "planner": "ProjEST",
    "start": {
        "state": {
            "elbow_joint": 0.749534889911806,
            "shoulder_lift_joint": -0.6476975780787326,
            "shoulder_pan_joint": -2.711696901376241,
            "wrist_1_joint": -0.07506478083263063,
            "wrist_2_joint": 0.43296659715538205,
            "wrist_3_joint": -3.14703540197715
        }
    },
    "waypoints": [
        {
            "positions": [
                -2.711696901376241,
                -0.6476975780787326,
                0.749534889911806,
                -0.07506478083263063,
                0.43296659715538205,
                -3.14703540197715
            ]
        },
        {
            "positions": [
                -2.7190960694996433,
                -0.7107713254772015,
                0.7997343714501667,
                -0.13053192457041762,
                0.42066226693021447,
                -3.1161064815893105
            ]
        },
        {
            "positions": [
                -2.7367996613197776,
                -0.8100652597406707,
                0.8317973063301234,
                -0.17726595232126732,
                0.49144012443609253,
                -3.118997559672634
            ]
        },
        {
            "positions": [
                -2.7545032531399123,
                -0.9093591940041399,
                0.8638602412100801,
                -0.22399998007211702,
                0.5622179819419706,
                -3.121888637755957
            ]
        },
        {
            "positions": [
                -2.7722068449600465,
                -1.0086531282676092,
                0.8959231760900368,
                -0.27073400782296675,
                0.6329958394478487,
                -3.1247797158392805
            ]
        },
        {
            "positions": [
                -2.6728093832963964,
                -1.0399032826554642,
                0.8131450893065655,
                -0.2405944907910287,
                0.6044003514331507,
                -3.0043618440673487
            ]
        },
        {
            "positions": [
                -2.5734119216327462,
                -1.0711534370433191,
                0.7303670025230942,
                -0.21045497375909067,
                0.5758048634184529,
                -2.8839439722954174
            ]
        },
        {
            "positions": [
                -2.474014459969096,
                -1.102403591431174,
                0.6475889157396229,
                -0.18031545672715263,
                0.547209375403755,
                -2.7635261005234857
            ]
        },
        {
            "positions": [
                -2.374616998305446,
                -1.133653745819029,
                0.5648108289561515,
                -0.1501759396952146,
                0.5186138873890571,
                -2.6431082287515544
            ]
        },
        {
            "positions": [
                -2.2752195366417958,
                -1.1649039002068837,
                0.48203274217268033,
                -0.12003642266327658,
                0.49001839937435926,
                -2.5226903569796226
            ]
        },
        {
            "positions": [
                -2.175822074978145,
                -1.1961540545947387,
                0.39925465538920896,
                -0.08989690563133851,
                0.46142291135966135,
                -2.4022724852076913
            ]
        },
        {
            "positions": [
                -2.076424613314495,
                -1.2274042089825936,
                0.3164765686057377,
                -0.05975738859940047,
                0.4328274233449635,
                -2.2818546134357596
            ]
        },
        {
            "positions": [
                -1.9770271516508449,
                -1.2586543633704486,
                0.23369848182226638,
                -0.029617871567462456,
                0.4042319353302656,
                -2.1614367416638283
            ]
        },
        {
            "positions": [
                -1.8776296899871947,
                -1.2899045177583035,
                0.15092039503879506,
                0.0005216454644755841,
                0.3756364473155677,
                -2.0410188698918965
            ]
        },
        {
            "positions": [
                -1.7782322283235446,
                -1.3211546721461582,
                0.06814230825532386,
                0.030661162496413596,
                0.34704095930086987,
                -1.9206009981199652
            ]
        },
        {
            "positions": [
                -1.6788347666598944,
                -1.3524048265340132,
                -0.014635778528147458,
                0.060800679528351664,
                0.31844547128617195,
                -1.8001831263480337
            ]
        },
        {
            "positions": [
                -1.579437304996244,
                -1.3836549809218681,
                -0.09741386531161889,
                0.09094019656028973,
                0.28984998327147404,
                -1.679765254576102
            ]
        },
        {
            "positions": [
                -1.4800398433325939,
                -1.414905135309723,
                -0.1801919520950901,
                0.12107971359222774,
                0.2612544952567762,
                -1.5593473828041704
            ]
        },
        {
            "positions": [
                -1.3806423816689437,
                -1.446155289697578,
                -0.2629700388785614,
                0.1512192306241658,
                0.23265900724207828,
                -1.4389295110322389
            ]
        },
        {
            "positions": [
                -1.2812449200052936,
                -1.477405444085433,
                -0.3457481256620327,
                0.18135874765610382,
                0.20406351922738042,
                -1.3185116392603073
            ]
        },
        {
            "positions": [
                -1.1818474583416434,
                -1.508655598473288,
                -0.42852621244550404,
                0.21149826468804184,
                0.17546803121268256,
                -1.1980937674883758
            ]
        },
        {
            "positions": [
                -1.0824499966779932,
                -1.5399057528611428,
                -0.5113042992289754,
                0.24163778171997985,
                0.14687254319798465,
                -1.0776758957164443
            ]
        },
        {
            "positions": [
                -0.9830525350143431,
                -1.5711559072489978,
                -0.5940823860124467,
                0.2717772987519179,
                0.1182770551832868,
                -0.957258023944513
            ]
        },
        {
            "positions": [
                -0.8836550733506929,
                -1.6024060616368527,
                -0.6768604727959178,
                0.301916815783856,
                0.08968156716858888,
                -0.8368401521725812
            ]
        },
        {
            "positions": [
                -0.7842576116870426,
                -1.6336562160247075,
                -0.7596385595793891,
                0.33205633281579394,
                0.06108607915389108,
                -0.7164222804006499
            ]
        },
        {
            "positions": [
                -0.6848601500233924,
                -1.6649063704125624,
                -0.8424166463628604,
                0.362195849847732,
                0.03249059113919317,
                -0.5960044086287182
            ]
        },
        {
            "positions": [
                -0.5854626883597422,
                -1.6961565248004173,
                -0.9251947331463317,
                0.3923353668796701,
                0.0038951031244952583,
                -0.47558653685678687
            ]
        },
        {
            "positions": [
                -0.48606522669609165,
                -1.7274066791882723,
                -1.0079728199298033,
                0.42247488391160815,
                -0.024700384890202653,
                -0.3551686650848547
            ]
        },
        {
            "positions": [
                -0.3866677650324415,
                -1.7586568335761272,
                -1.0907509067132746,
                0.4526144009435462,
                -0.053295872904900565,
                -0.23475079331292337
            ]
        },
        {
            "positions": [
                -0.28727030336879134,
                -1.7899069879639822,
                -1.1735289934967457,
                0.4827539179754843,
                -0.08189136091959848,
                -0.11433292154099162
            ]
        },
        {
            "positions": [
                -0.18787284170514118,
                -1.821157142351837,
                -1.256307080280217,
                0.5128934350074222,
                -0.11048684893429628,
                0.00608495023093969
            ]
        },
        {
            "positions": [
                -0.08847538004149103,
                -1.8524072967396918,
                -1.3390851670636883,
                0.5430329520393603,
                -0.1390823369489942,
                0.12650282200287144
            ]
        },
        {
            "positions": [
                0.01092208162215913,
                -1.8836574511275468,
                -1.4218632538471596,
                0.5731724690712984,
                -0.1676778249636921,
                0.24692069377480275
            ]
        },
        {
            "positions": [
                0.11031954328580929,
                -1.9149076055154017,
                -1.504641340630631,
                0.6033119861032363,
                -0.1962733129783899,
                0.3673385655467345
            ]
        },
        {
            "positions": [
                0.2097170049494596,
                -1.9461577599032567,
                -1.5874194274141022,
                0.6334515031351744,
                -0.22486880099308776,
                0.48775643731866586
            ]
        },
        {
            "positions": [
                0.17718577282849143,
                -1.984802055692973,
                -1.6851920180817868,
                0.7309761995215859,
                -0.1827007404925212,
                0.4474230798621401
            ]
        },
        {
            "positions": [
                0.14465454070752326,
                -2.0234463514826895,
                -1.7829646087494713,
                0.8285008959079974,
                -0.14053267999195462,
                0.40708972240561425
            ]
        },
        {
            "positions": [
                0.11212330858655506,
                -2.062090647272406,
                -1.8807371994171556,
                0.9260255922944087,
                -0.09836461949138806,
                0.3667563649490885
            ]
        },
        {
            "positions": [
                0.07959207646558689,
                -2.1007349430621223,
                -1.97850979008484,
                1.0235502886808203,
                -0.05619655899082149,
                0.3264230074925627
            ]
        },
        {
            "positions": [
                0.04706084434461871,
                -2.1393792388518387,
                -2.0762823807525246,
                1.1210749850672317,
                -0.01402849849025492,
                0.28608965003603687
            ]
        },
        {
            "positions": [
                0.014529612223650512,
                -2.178023534641555,
                -2.174054971420209,
                1.218599681453643,
                0.028139562010311647,
                0.2457562925795111
            ]
        },
        {
            "positions": [
                -0.01800161989731766,
                -2.2166678304312715,
                -2.2718275620878936,
                1.3161243778400546,
                0.07030762251087824,
                0.20542293512298526
            ]
        },
        {
            "positions": [
                -0.050532852018285834,
                -2.255312126220988,
                -2.369600152755578,
                1.413649074226466,
                0.11247568301144481,
                0.16508957766645949
            ]
        },
        {
            "positions": [
                -0.18501665136330367,
                -2.274888231790909,
                -2.3954153642955545,
                1.4450063051045081,
                0.17467146160834104,
                0.07310650806203463
            ]
        }
    ]
}