{
    "goal": {
        "global_pose": {
            "orientation": {
                "w": -0.4816463035849501,
                "x": 0.5182115481033762,
                "y": 0.4908360881923453,
                "z": -0.5084816262002911
            },
            "position": {
                "x": -0.8240239810943604,
                "y": 0.19912469901144506,
                "z": 0.16403168439865112
            }
        },
        "name": "move_to_storage_D"
    },
    "id": "ProjEST_move_to_storage_D_28",
    "joint_names": [
        "shoulder_pan_joint",
        "shoulder_lift_joint",
        "elbow_joint",
        "wrist_1_joint",
        "wrist_2_joint",
        "wrist_3_joint"
    ],
    "metrics": {
        "cart_traj_len": 3.2854920640565948,
        "distance_elbow_joint": 4.208479562732851,
        "distance_shoulder_lift_joint": 1.2647013690324496,
        "distance_shoulder_pan_joint": 2.812207472229879,
        "distance_wrist_1_joint": 2.262708636478763,
        "distance_wrist_2_joint": 1.4906568699807485,
        "distance_wrist_3_joint": 3.26537166877741,
        "smoothness": 0.19291532283231733,
        "time": 0.17235239600000002,
        "traj_len": 3.912048770047749,
        "weighted_distance": 5.058481434506452
    },
    "planner": "ProjEST",
    "start": {
        "state": {
            "elbow_joint": -2.384821988534728,
            "shoulder_lift_joint": -2.2788054721415256,
            "shoulder_pan_joint": -0.1854694642142757,
            "wrist_1_joint": 1.4845938289331202,
            "wrist_2_joint": 0.17898776772866878,
            "wrist_3_joint": 0.037105688729662994
        }
    },
    "waypoints": [
        {
            "positions": [
                -0.1854694642142757,
                -2.2788054721415256,
                -2.384821988534728,
                1.4845938289331202,
                0.17898776772866878,
                0.037105688729662994
            ]
        },
        {
            "positions": [
                -0.07029904541492438,
                -2.2310911444512795,
                -2.340068349661414,
                1.4413276856374968,
                0.20644197043810503,
                0.10336141743023614
            ]
        },
        {
            "positions": [
                0.008781318060781015,
                -2.2037482094961613,
                -2.206363091194624,
                1.4056964189440992,
                0.19582874218568752,
                0.004373358744556813
            ]
        },
        {
            "positions": [
                0.08786168153648641,
                -2.1764052745410427,
                -2.0726578327278338,
                1.370065152250702,
                0.18521551393327002,
                -0.09461469994112251
            ]
        },
        {
            "positions": [
                0.16694204501219181,
                -2.1490623395859245,
                -1.9389525742610438,
                1.3344338855573044,
                0.1746022856808525,
                -0.19360275862680182
            ]
        },
        {
            "positions": [
                0.2460224084878972,
                -2.1217194046308063,
                -1.805247315794254,
                1.298802618863907,
                0.163989057428435,
                -0.29259081731248116
            ]
        },
        {
            "positions": [
                0.32510277196360265,
                -2.094376469675688,
                -1.6715420573274637,
                1.2631713521705095,
                0.15337582917601747,
                -0.39157887599816055
            ]
        },
        {
            "positions": [
                0.404183135439308,
                -2.0670335347205695,
                -1.5378367988606736,
                1.227540085477112,
                0.14276260092359996,
                -0.4905669346838398
            ]
        },
        {
            "positions": [
                0.4832634989150134,
                -2.0396905997654513,
                -1.4041315403938834,
                1.1919088187837146,
                0.13214937267118246,
                -0.5895549933695192
            ]
        },
        {
            "positions": [
                0.5623438623907188,
                -2.012347664810333,
                -1.2704262819270935,
                1.156277552090317,
                0.12153614441876495,
                -0.6885430520551985
            ]
        },
        {
            "positions": [
                0.6414242258664242,
                -1.9850047298552147,
                -1.1367210234603033,
                1.1206462853969197,
                0.11092291616634743,
                -0.7875311107408778
            ]
        },
        {
            "positions": [
                0.7205045893421297,
                -1.9576617949000963,
                -1.0030157649935132,
                1.0850150187035221,
                0.10030968791392993,
                -0.8865191694265573
            ]
        },
        {
            "positions": [
                0.7995849528178349,
                -1.930318859944978,
                -0.8693105065267233,
                1.0493837520101248,
                0.08969645966151242,
                -0.9855072281122363
            ]
        },
        {
            "positions": [
                0.8786653162935404,
                -1.9029759249898597,
                -0.7356052480599331,
                1.0137524853167272,
                0.0790832314090949,
                -1.0844952867979156
            ]
        },
        {
            "positions": [
                0.9577456797692459,
                -1.8756329900347413,
                -0.601899989593143,
                0.9781212186233297,
                0.0684700031566774,
                -1.1834833454835951
            ]
        },
        {
            "positions": [
                1.0368260432449512,
                -1.848290055079623,
                -0.4681947311263528,
                0.9424899519299323,
                0.05785677490425989,
                -1.2824714041692744
            ]
        },
        {
            "positions": [
                1.1159064067206566,
                -1.8209471201245047,
                -0.33448947265956264,
                0.9068586852365348,
                0.04724354665184238,
                -1.381459462854954
            ]
        },
        {
            "positions": [
                1.194986770196362,
                -1.7936041851693865,
                -0.20078421419277293,
                0.8712274185431373,
                0.03663031839942488,
                -1.480447521540633
            ]
        },
        {
            "positions": [
                1.2740671336720673,
                -1.766261250214268,
                -0.06707895572598277,
                0.83559615184974,
                0.02601709014700737,
                -1.5794355802263123
            ]
        },
        {
            "positions": [
                1.3531474971477728,
                -1.7389183152591499,
                0.06662630274080739,
                0.7999648851563425,
                0.015403861894589838,
                -1.6784236389119918
            ]
        },
        {
            "positions": [
                1.4322278606234782,
                -1.7115753803040314,
                0.20033156120759754,
                0.764333618462945,
                0.004790633642172359,
                -1.777411697597671
            ]
        },
        {
            "positions": [
                1.5113082240991838,
                -1.684232445348913,
                0.3340368196743877,
                0.7287023517695475,
                -0.005822594610245174,
                -1.8763997562833505
            ]
        },
        {
            "positions": [
                1.5903885875748889,
                -1.6568895103937948,
                0.4677420781411774,
                0.69307108507615,
                -0.01643582286266268,
                -1.9753878149690296
            ]
        },
        {
            "positions": [
                1.6694689510505942,
                -1.6295465754386764,
                0.6014473366079676,
                0.6574398183827527,
                -0.027049051115080186,
                -2.074375873654709
            ]
        },
        {
            "positions": [
                1.7485493145262998,
                -1.602203640483558,
                0.7351525950747577,
                0.6218085516893551,
                -0.03766227936749772,
                -2.1733639323403886
            ]
        },
        {
            "positions": [
                1.8276296780020052,
                -1.5748607055284398,
                0.8688578535415479,
                0.5861772849959577,
                -0.048275507619915226,
                -2.2723519910260674
            ]
        },
        {
            "positions": [
                1.9067100414777105,
                -1.5475177705733216,
                1.0025631120083376,
                0.5505460183025602,
                -0.058888735872332676,
                -2.3713400497117467
            ]
        },
        {
            "positions": [
                1.985790404953416,
                -1.520174835618203,
                1.1362683704751282,
                0.5149147516091627,
                -0.06950196412475024,
                -2.4703281083974264
            ]
        },
        {
            "positions": [
                2.064870768429121,
                -1.4928319006630848,
                1.269973628941918,
                0.47928348491576533,
                -0.08011519237716774,
                -2.5693161670831057
            ]
        },
        {
            "positions": [
                2.143951131904827,
                -1.4654889657079666,
                1.4036788874087085,
                0.4436522182223678,
                -0.09072842062958525,
                -2.668304225768785
            ]
        },
        {
            "positions": [
                2.2230314953805324,
                -1.4381460307528482,
                1.5373841458754982,
                0.40802095152897033,
                -0.10134164888200276,
                -2.7672922844544643
            ]
        },
        {
            "positions": [
                2.2634021466440393,
                -1.395741837988471,
                1.5660114887077607,
                0.2894073756215089,
                0.014200255913117701,
                -2.800138508273678
            ]
        },
        {
            "positions": [
                2.3037727979075466,
                -1.3533376452240937,
                1.5946388315400235,
                0.1707937997140475,
                0.12974216070823816,
                -2.8329847320928914
            ]
        },
        {
            "positions": [
                2.344143449171054,
                -1.3109334524597165,
                1.623266174372286,
                0.05218022380658616,
                0.24528406550335857,
                -2.8658309559121053
            ]
        },
        {
            "positions": [
                2.384514100434561,
                -1.2685292596953393,
                1.6518935172045486,
                -0.06643335210087531,
                0.36082597029847907,
                -2.898677179731319
            ]
        },
        {
            "positions": [
                2.424884751698068,
                -1.2261250669309622,
                1.6805208600368111,
                -0.18504692800833666,
                0.4763678750935995,
                -2.9315234035505324
            ]
        },
        {
            "positions": [
                2.465255402961575,
                -1.183720874166585,
                1.7091482028690739,
                -0.303660503915798,
                0.5919097798887198,
                -2.964369627369746
            ]
        },
        {
            "positions": [
                2.5056260542250826,
                -1.1413166814022078,
                1.7377755457013364,
                -0.4222740798232594,
                0.7074516846838403,
                -2.9972158511889595
            ]
        },
        {
            "positions": [
                2.5459967054885895,
                -1.0989124886378305,
                1.766402888533599,
                -0.540887655730721,
                0.8229935894789608,
                -3.0300620750081735
            ]
        },
        {
            "positions": [
                2.5863673567520964,
                -1.0565082958734533,
                1.7950302313658617,
                -0.6595012316381823,
                0.9385354942740813,
                -3.062908298827387
            ]
        },
        {
            "positions": [
                2.6267380080156038,
                -1.014104103109076,
                1.8236575741981242,
                -0.7781148075456437,
                1.0540773990692018,
                -3.0957545226466006
            ]
        }
    ]
}