{
    "goal": {
        "global_pose": {
            "orientation": {
                "w": 0.7031023502349854,
                "x": -0.7110244035720825,
                "y": 0.007748599164187908,
                "z": 0.005598929710686207
            },
            "position": {
                "x": 0.11585023208521307,
                "y": 0.44412534475326537,
                "z": 0.3711530566215515
            }
        },
        "name": "move_to_auspresseinheit_A"
    },
    "id": "ProjEST_move_to_auspresseinheit_A_116",
    "joint_names": [
        "shoulder_pan_joint",
        "shoulder_lift_joint",
        "elbow_joint",
        "wrist_1_joint",
        "wrist_2_joint",
        "wrist_3_joint"
    ],
    "metrics": {
        "cart_traj_len": 0.7099288965358838,
        "distance_elbow_joint": 0.35506566094061087,
        "distance_shoulder_lift_joint": 1.5443440942061137,
        "distance_shoulder_pan_joint": 1.0418532214487448,
        "distance_wrist_1_joint": 0.5512259732409497,
        "distance_wrist_2_joint": 1.7748676330464552,
        "distance_wrist_3_joint": 1.9335909910076357,
        "smoothness": 1.130499851027725,
        "time": 0.5252234029999999,
        "traj_len": 2.6834581371600543,
        "weighted_distance": 3.6598119025700195
    },
    "planner": "ProjEST",
    "start": {
        "state": {
            "elbow_joint": 2.4225746658250005,
            "shoulder_lift_joint": -1.3736534386056498,
            "shoulder_pan_joint": -0.3378633547517467,
            "wrist_1_joint": -1.0288598680537169,
            "wrist_2_joint": 1.233022673432363,
            "wrist_3_joint": -3.0940220416140027
        }
    },
    "waypoints": [
        {
            "positions": [
                -0.3378633547517467,
                -1.3736534386056498,
                2.4225746658250005,
                -1.0288598680537169,
                1.233022673432363,
                -3.0940220416140027
            ]
        },
        {
            "positions": [
                -0.3275814201053298,
                -1.477682377074395,
                2.439017293363527,
                -0.9794414991653118,
                1.117878696678603,
                -2.998885887561702
            ]
        },
        {
            "positions": [
                -0.3172994854589129,
                -1.5817113155431404,
                2.455459920902054,
                -0.9300231302769065,
                1.002734719924843,
                -2.903749733509401
            ]
        },
        {
            "positions": [
                -0.307017550812496,
                -1.6857402540118855,
                2.4719025484405805,
                -0.8806047613885013,
                0.8875907431710831,
                -2.8086135794571003
            ]
        },
        {
            "positions": [
                -0.2967356161660791,
                -1.7897691924806307,
                2.4883451759791075,
                -0.8311863925000962,
                0.7724467664173231,
                -2.7134774254047995
            ]
        },
        {
            "positions": [
                -0.28645368151966216,
                -1.893798130949376,
                2.504787803517634,
                -0.7817680236116911,
                0.6573027896635631,
                -2.6183412713524987
            ]
        },
        {
            "positions": [
                -0.27617174687324525,
                -1.997827069418121,
                2.5212304310561606,
                -0.7323496547232858,
                0.5421588129098032,
                -2.523205117300198
            ]
        },
        {
            "positions": [
                -0.26588981222682834,
                -2.1018560078868664,
                2.5376730585946876,
                -0.6829312858348806,
                0.4270148361560432,
                -2.428068963247897
            ]
        },
        {
            "positions": [
                -0.25560787758041137,
                -2.205884946355612,
                2.554115686133214,
                -0.6335129169464755,
                0.3118708594022832,
                -2.332932809195596
            ]
        },
        {
            "positions": [
                -0.24532594293399448,
                -2.3099138848243568,
                2.570558313671741,
                -0.5840945480580704,
                0.19672688264852312,
                -2.237796655143295
            ]
        },
        {
            "positions": [
                -0.23504400828757757,
                -2.413942823293102,
                2.5870009412102677,
                -0.5346761791696651,
                0.08158290589476325,
                -2.1426605010909943
            ]
        },
        {
            "positions": [
                -0.13070691106706916,
                -2.3579367444576955,
                2.565818787259674,
                -0.5283381475744543,
                0.15085266872908049,
                -2.2517971067003972
            ]
        },
        {
            "positions": [
                -0.026369813846560786,
                -2.3019306656222884,
                2.5446366333090804,
                -0.5220001159792433,
                0.22012243156339772,
                -2.3609337123098
            ]
        },
        {
            "positions": [
                0.07796728337394762,
                -2.245924586786882,
                2.5234544793584863,
                -0.5156620843840325,
                0.28939219439771496,
                -2.470070317919203
            ]
        },
        {
            "positions": [
                0.182304380594456,
                -2.189918507951475,
                2.5022723254078927,
                -0.5093240527888216,
                0.3586619572320322,
                -2.579206923528606
            ]
        },
        {
            "positions": [
                0.2866414778149645,
                -2.133912429116068,
                2.481090171457299,
                -0.5029860211936107,
                0.4279317200663495,
                -2.6883435291380096
            ]
        },
        {
            "positions": [
                0.39097857503547284,
                -2.0779063502806614,
                2.4599080175067054,
                -0.49664798959839984,
                0.4972014829006667,
                -2.7974801347474125
            ]
        },
        {
            "positions": [
                0.4953156722559813,
                -2.0219002714452543,
                2.4387258635561113,
                -0.49030995800318894,
                0.566471245734984,
                -2.9066167403568155
            ]
        },
        {
            "positions": [
                0.5996527694764896,
                -1.9658941926098477,
                2.4175437096055177,
                -0.4839719264079781,
                0.6357410085693012,
                -3.0157533459662185
            ]
        },
        {
            "positions": [
                0.703989866696998,
                -1.9098881137744408,
                2.396361555654924,
                -0.4776338948127672,
                0.7050107714036185,
                -3.1248899515756214
            ]
        }
    ]
}