{
    "goal": {
        "global_pose": {
            "orientation": {
                "w": 0.7031023480610252,
                "x": -0.7110244013736278,
                "y": 0.0077485991402295624,
                "z": 0.005598929693374583
            },
            "position": {
                "x": -0.8841497679147869,
                "y": 0.44412534475326537,
                "z": 0.3711530566215515
            }
        },
        "name": "move_to_auspresseinheit_D"
    },
    "id": "ProjEST_move_to_auspresseinheit_D_140",
    "joint_names": [
        "shoulder_pan_joint",
        "shoulder_lift_joint",
        "elbow_joint",
        "wrist_1_joint",
        "wrist_2_joint",
        "wrist_3_joint"
    ],
    "metrics": {
        "cart_traj_len": 0.3428175644429815,
        "distance_elbow_joint": 0.6287537515212323,
        "distance_shoulder_lift_joint": 0.11603767069013626,
        "distance_shoulder_pan_joint": 0.13439891261804107,
        "distance_wrist_1_joint": 0.5054157492376943,
        "distance_wrist_2_joint": 1.4379320407938128,
        "distance_wrist_3_joint": 0.020391999939733285,
        "smoothness": 0.0,
        "time": 0.15550651799999998,
        "traj_len": 1.6860990851075894,
        "weighted_distance": 2.1970575583519936
    },
    "planner": "ProjEST",
    "start": {
        "state": {
            "elbow_joint": -1.8275523626775212,
            "shoulder_lift_joint": -2.126789852344167,
            "shoulder_pan_joint": -0.03513704404078235,
            "wrist_1_joint": -2.347782403156801,
            "wrist_2_joint": -1.6058999987535132,
            "wrist_3_joint": -3.0880379163319196
        }
    },
    "waypoints": [
        {
            "positions": [
                -0.03513704404078235,
                -2.126789852344167,
                -1.8275523626775212,
                -2.347782403156801,
                -1.6058999987535132,
                -3.0880379163319196
            ]
        },
        {
            "positions": [
                -0.051936908118037486,
                -2.141294561180434,
                -1.7489581437373671,
                -2.4109593718115128,
                -1.4261584936542866,
                -3.090586916324386
            ]
        },
        {
            "positions": [
                -0.06873677219529262,
                -2.155799270016701,
                -1.670363924797213,
                -2.4741363404662247,
                -1.24641698855506,
                -3.093135916316853
            ]
        },
        {
            "positions": [
                -0.08553663627254776,
                -2.170303978852968,
                -1.591769705857059,
                -2.537313309120936,
                -1.0666754834558334,
                -3.0956849163093194
            ]
        },
        {
            "positions": [
                -0.10233650034980288,
                -2.1848086876892348,
                -1.513175486916905,
                -2.600490277775648,
                -0.8869339783566068,
                -3.098233916301786
            ]
        },
        {
            "positions": [
                -0.11913636442705802,
                -2.199313396525502,
                -1.4345812679767511,
                -2.66366724643036,
                -0.7071924732573802,
                -3.100782916294253
            ]
        },
        {
            "positions": [
                -0.13593622850431317,
                -2.213818105361769,
                -1.355987049036597,
                -2.7268442150850714,
                -0.5274509681581536,
                -3.1033319162867197
            ]
        },
        {
            "positions": [
                -0.15273609258156828,
                -2.228322814198036,
                -1.277392830096443,
                -2.7900211837397833,
                -0.347709463058927,
                -3.1058809162791863
            ]
        },
        {
            "positions": [
                -0.16953595665882343,
                -2.242827523034303,
                -1.198798611156289,
                -2.853198152394495,
                -0.16796795795970032,
                -3.108429916271653
            ]
        }
    ]
}