{
    "goal": {
        "global_pose": {
            "orientation": {
                "w": -0.00223480608172531,
                "x": 0.0024358444001904467,
                "y": 0.7094548369677653,
                "z": -0.704743149386269
            },
            "position": {
                "x": 0.6205249238014221,
                "y": -0.6371506643295288,
                "z": 0.19426114857196808
            }
        },
        "name": "move_to_magneteinheit_B"
    },
    "id": "ProjEST_move_to_magneteinheit_B_98",
    "joint_names": [
        "shoulder_pan_joint",
        "shoulder_lift_joint",
        "elbow_joint",
        "wrist_1_joint",
        "wrist_2_joint",
        "wrist_3_joint"
    ],
    "metrics": {
        "cart_traj_len": 3.272848243862032,
        "distance_elbow_joint": 5.777036039837432,
        "distance_shoulder_lift_joint": 2.179675600746518,
        "distance_shoulder_pan_joint": 3.28036445852642,
        "distance_wrist_1_joint": 5.549722698752518,
        "distance_wrist_2_joint": 5.900811312609097,
        "distance_wrist_3_joint": 0.8763600665410357,
        "smoothness": 0.8987561897593523,
        "time": 0.203995212,
        "traj_len": 4.854273393311612,
        "weighted_distance": 6.063598298160647
    },
    "planner": "ProjEST",
    "start": {
        "state": {
            "elbow_joint": 2.6216224122426386,
            "shoulder_lift_joint": -1.4174107377796124,
            "shoulder_pan_joint": 0.7066234856936794,
            "wrist_1_joint": 1.9546482284002225,
            "wrist_2_joint": -0.7096286983471962,
            "wrist_3_joint": 0.005740856962016249
        }
    },
    "waypoints": [
        {
            "positions": [
                0.7066234856936794,
                -1.4174107377796124,
                2.6216224122426386,
                1.9546482284002225,
                -0.7096286983471962,
                0.005740856962016249
            ]
        },
        {
            "positions": [
                0.66180151544258,
                -1.4444140077793237,
                2.6072330741381027,
                1.7459098840464398,
                -0.6592527214299126,
                0.02867364491923735
            ]
        },
        {
            "positions": [
                0.6169795451914808,
                -1.471417277779035,
                2.5928437360335668,
                1.5371715396926569,
                -0.608876744512629,
                0.051606432876458455
            ]
        },
        {
            "positions": [
                0.6722973973016851,
                -1.4960809146517702,
                2.5214460039152247,
                1.4142483570293953,
                -0.5121404283136859,
                0.041218672243151164
            ]
        },
        {
            "positions": [
                0.7276152494118895,
                -1.5207445515245055,
                2.450048271796883,
                1.2913251743661336,
                -0.4154041121147428,
                0.03083091160984387
            ]
        },
        {
            "positions": [
                0.7829331015220938,
                -1.5454081883972406,
                2.378650539678541,
                1.168401991702872,
                -0.31866779591579975,
                0.020443150976536574
            ]
        },
        {
            "positions": [
                0.8382509536322982,
                -1.5700718252699757,
                2.307252807560199,
                1.0454788090396105,
                -0.22193147971685673,
                0.010055390343229283
            ]
        },
        {
            "positions": [
                0.8935688057425024,
                -1.594735462142711,
                2.235855075441857,
                0.9225556263763488,
                -0.12519516351791365,
                -0.0003323702900780087
            ]
        },
        {
            "positions": [
                0.9488866578527069,
                -1.619399099015446,
                2.164457343323515,
                0.7996324437130872,
                -0.028458847318970526,
                -0.010720130923385307
            ]
        },
        {
            "positions": [
                1.004204509962911,
                -1.6440627358881812,
                2.093059611205173,
                0.6767092610498255,
                0.06827746887997255,
                -0.0211078915566926
            ]
        },
        {
            "positions": [
                1.0595223620731156,
                -1.6687263727609165,
                2.0216618790868313,
                0.553786078386564,
                0.1650137850789155,
                -0.03149565218999989
            ]
        },
        {
            "positions": [
                1.1148402141833198,
                -1.6933900096336516,
                1.9502641469684892,
                0.4308628957233025,
                0.2617501012778586,
                -0.04188341282330718
            ]
        },
        {
            "positions": [
                1.1701580662935243,
                -1.7180536465063867,
                1.8788664148501473,
                0.30793971306004075,
                0.35848641747680166,
                -0.05227117345661447
            ]
        },
        {
            "positions": [
                1.2254759184037285,
                -1.7427172833791218,
                1.8074686827318054,
                0.18501653039677923,
                0.45522273367574473,
                -0.06265893408992176
            ]
        },
        {
            "positions": [
                1.280793770513933,
                -1.7673809202518571,
                1.7360709506134633,
                0.06209334773351749,
                0.5519590498746879,
                -0.07304669472322907
            ]
        },
        {
            "positions": [
                1.3361116226241372,
                -1.7920445571245924,
                1.6646732184951212,
                -0.06082983492974403,
                0.6486953660736309,
                -0.08343445535653636
            ]
        },
        {
            "positions": [
                1.3914294747343416,
                -1.8167081939973275,
                1.5932754863767795,
                -0.18375301759300577,
                0.7454316822725741,
                -0.09382221598984365
            ]
        },
        {
            "positions": [
                1.4467473268445459,
                -1.8413718308700626,
                1.5218777542584374,
                -0.3066762002562673,
                0.842167998471517,
                -0.10420997662315093
            ]
        },
        {
            "positions": [
                1.433160447230391,
                -1.785594499714053,
                1.427358757759767,
                -0.2149300144765842,
                0.7214619293754226,
                -0.10808098972063444
            ]
        },
        {
            "positions": [
                1.4195735676162358,
                -1.7298171685580432,
                1.3328397612610967,
                -0.12318382869690109,
                0.6007558602793283,
                -0.11195200281811796
            ]
        },
        {
            "positions": [
                1.4059866880020808,
                -1.6740398374020335,
                1.2383207647624266,
                -0.031437642917217956,
                0.4800497911832339,
                -0.11582301591560147
            ]
        },
        {
            "positions": [
                1.3923998083879257,
                -1.6182625062460236,
                1.1438017682637562,
                0.06030854286246512,
                0.3593437220871395,
                -0.11969402901308498
            ]
        },
        {
            "positions": [
                1.3788129287737707,
                -1.562485175090014,
                1.0492827717650859,
                0.1520547286421483,
                0.2386376529910451,
                -0.1235650421105685
            ]
        },
        {
            "positions": [
                1.3652260491596158,
                -1.5067078439340043,
                0.9547637752664155,
                0.24380091442183138,
                0.11793158389495073,
                -0.127436055208052
            ]
        },
        {
            "positions": [
                1.3516391695454606,
                -1.4509305127779946,
                0.8602447787677452,
                0.33554710020151457,
                -0.0027744852011436505,
                -0.1313070683055355
            ]
        },
        {
            "positions": [
                1.3380522899313056,
                -1.3951531816219849,
                0.765725782269075,
                0.42729328598119753,
                -0.12348055429723803,
                -0.13517808140301904
            ]
        },
        {
            "positions": [
                1.3244654103171507,
                -1.339375850465975,
                0.6712067857704046,
                0.5190394717608807,
                -0.2441866233933324,
                -0.13904909450050254
            ]
        },
        {
            "positions": [
                1.3108785307029955,
                -1.2835985193099653,
                0.5766877892717343,
                0.6107856575405639,
                -0.3648926924894268,
                -0.14292010759798607
            ]
        },
        {
            "positions": [
                1.2972916510888406,
                -1.2278211881539556,
                0.482168792773064,
                0.702531843320247,
                -0.4855987615855212,
                -0.14679112069546957
            ]
        },
        {
            "positions": [
                1.2837047714746856,
                -1.1720438569979459,
                0.38764979627439367,
                0.7942780290999301,
                -0.6063048306816156,
                -0.15066213379295307
            ]
        },
        {
            "positions": [
                1.2701178918605305,
                -1.1162665258419362,
                0.29313079977572354,
                0.8860242148796131,
                -0.7270108997777099,
                -0.1545331468904366
            ]
        },
        {
            "positions": [
                1.2565310122463755,
                -1.0604891946859265,
                0.19861180327705297,
                0.9777704006592964,
                -0.8477169688738043,
                -0.15840415998792012
            ]
        },
        {
            "positions": [
                1.2429441326322204,
                -1.0047118635299168,
                0.10409280677838284,
                1.0695165864389795,
                -0.9684230379698987,
                -0.16227517308540362
            ]
        },
        {
            "positions": [
                1.2293572530180654,
                -0.948934532373907,
                0.009573810279712491,
                1.1612627722186624,
                -1.0891291070659932,
                -0.16614618618288712
            ]
        },
        {
            "positions": [
                1.2157703734039105,
                -0.8931572012178972,
                -0.08494518621895808,
                1.2530089579983457,
                -1.2098351761620876,
                -0.17001719928037065
            ]
        },
        {
            "positions": [
                1.2021834937897553,
                -0.8373798700618875,
                -0.1794641827176282,
                1.3447551437780287,
                -1.330541245258182,
                -0.17388821237785415
            ]
        },
        {
            "positions": [
                1.1885966141756004,
                -0.7816025389058778,
                -0.27398317921629833,
                1.4365013295577118,
                -1.4512473143542763,
                -0.17775922547533768
            ]
        },
        {
            "positions": [
                1.1750097345614452,
                -0.7258252077498679,
                -0.3685021757149689,
                1.5282475153373951,
                -1.5719533834503707,
                -0.18163023857282118
            ]
        },
        {
            "positions": [
                1.1614228549472903,
                -0.6700478765938582,
                -0.46302117221363925,
                1.619993701117078,
                -1.692659452546465,
                -0.18550125167030468
            ]
        },
        {
            "positions": [
                1.1478359753331353,
                -0.6142705454378488,
                -0.5575401687123094,
                1.7117398868967613,
                -1.8133655216425595,
                -0.1893722647677882
            ]
        },
        {
            "positions": [
                1.1342490957189801,
                -0.5584932142818388,
                -0.65205916521098,
                1.8034860726764446,
                -1.9340715907386539,
                -0.19324327786527173
            ]
        },
        {
            "positions": [
                1.1206622161048252,
                -0.5027158831258292,
                -0.7465781617096502,
                1.8952322584561274,
                -2.0547776598347482,
                -0.19711429096275523
            ]
        },
        {
            "positions": [
                1.0192593706543225,
                -0.5266513595676618,
                -0.6022971642579191,
                1.8602754389822378,
                -2.001564397226925,
                -0.1644931112549264
            ]
        },
        {
            "positions": [
                0.91785652520382,
                -0.5505868360094944,
                -0.45801616680618795,
                1.8253186195083484,
                -1.9483511346191016,
                -0.1318719315470976
            ]
        },
        {
            "positions": [
                0.8164536797533173,
                -0.5745223124513271,
                -0.3137351693544568,
                1.7903618000344588,
                -1.8951378720112781,
                -0.09925075183926874
            ]
        },
        {
            "positions": [
                0.7150508343028147,
                -0.5984577888931598,
                -0.16945417190272571,
                1.7554049805605694,
                -1.8419246094034547,
                -0.06662957213143991
            ]
        },
        {
            "positions": [
                0.613647988852312,
                -0.6223932653349924,
                -0.02517317445099443,
                1.7204481610866798,
                -1.7887113467956315,
                -0.03400839242361106
            ]
        },
        {
            "positions": [
                0.5122451434018094,
                -0.6463287417768251,
                0.11910782300073663,
                1.6854913416127904,
                -1.735498084187808,
                -0.0013872127157822378
            ]
        },
        {
            "positions": [
                0.41084229795130667,
                -0.6702642182186578,
                0.2633888204524678,
                1.6505345221389007,
                -1.6822848215799846,
                0.031233966992046613
            ]
        },
        {
            "positions": [
                0.3094394525008042,
                -0.6941996946604904,
                0.40766981790419876,
                1.615577702665011,
                -1.6290715589721614,
                0.06385514669987541
            ]
        },
        {
            "positions": [
                0.20803660705030147,
                -0.7181351711023231,
                0.5519508153559299,
                1.5806208831911217,
                -1.575858296364338,
                0.09647632640770426
            ]
        },
        {
            "positions": [
                0.10663376159979876,
                -0.7420706475441557,
                0.6962318128076613,
                1.545664063717232,
                -1.5226450337565145,
                0.1290975061155331
            ]
        },
        {
            "positions": [
                0.005230916149296272,
                -0.7660061239859883,
                0.8405128102593923,
                1.5107072442433427,
                -1.4694317711486913,
                0.1617186858233619
            ]
        },
        {
            "positions": [
                -0.09617192930120633,
                -0.789941600427821,
                0.9847938077111236,
                1.475750424769453,
                -1.4162185085408678,
                0.19433986553119073
            ]
        },
        {
            "positions": [
                -0.18706453821514019,
                -0.7755157290267273,
                1.0600675295404982,
                1.5498624222913369,
                -1.50660848700645,
                0.17319324216525367
            ]
        },
        {
            "positions": [
                -0.27795714712907404,
                -0.7610898576256336,
                1.1353412513698726,
                1.6239744198132207,
                -1.5969984654720322,
                0.1520466187993166
            ]
        },
        {
            "positions": [
                -0.3688497560430079,
                -0.7466639862245399,
                1.2106149731992473,
                1.6980864173351045,
                -1.6873884439376143,
                0.13089999543337955
            ]
        },
        {
            "positions": [
                -0.45974236495694176,
                -0.7322381148234463,
                1.2858886950286217,
                1.7721984148569883,
                -1.7777784224031965,
                0.1097533720674425
            ]
        },
        {
            "positions": [
                -0.5506349738708757,
                -0.7178122434223525,
                1.3611624168579963,
                1.8463104123788718,
                -1.8681684008687789,
                0.08860674870150544
            ]
        },
        {
            "positions": [
                -0.6415275827848095,
                -0.7033863720212589,
                1.4364361386873707,
                1.9204224099007556,
                -1.9585583793343608,
                0.06746012533556839
            ]
        },
        {
            "positions": [
                -0.7324201916987434,
                -0.6889605006201651,
                1.5117098605167454,
                1.9945344074226394,
                -2.048948357799943,
                0.04631350196963133
            ]
        },
        {
            "positions": [
                -0.8233128006126772,
                -0.6745346292190715,
                1.5869835823461198,
                2.0686464049445235,
                -2.139338336265525,
                0.025166878603694265
            ]
        },
        {
            "positions": [
                -0.9142054095266111,
                -0.6601087578179777,
                1.6622573041754944,
                2.142758402466407,
                -2.2297283147311076,
                0.0040202552377572075
            ]
        }
    ]
}