{
    "goal": {
        "global_pose": {
            "orientation": {
                "w": -0.4816463035849501,
                "x": 0.5182115481033762,
                "y": 0.4908360881923453,
                "z": -0.5084816262002911
            },
            "position": {
                "x": -0.8240239810943604,
                "y": 0.19912469901144506,
                "z": 0.16403168439865112
            }
        },
        "name": "move_to_storage_D"
    },
    "id": "ProjEST_move_to_storage_D_140",
    "joint_names": [
        "shoulder_pan_joint",
        "shoulder_lift_joint",
        "elbow_joint",
        "wrist_1_joint",
        "wrist_2_joint",
        "wrist_3_joint"
    ],
    "metrics": {
        "cart_traj_len": 2.0222544241083797,
        "distance_elbow_joint": 1.54733506616774,
        "distance_shoulder_lift_joint": 0.34949088104251524,
        "distance_shoulder_pan_joint": 2.2523087359101495,
        "distance_wrist_1_joint": 3.8728317151049163,
        "distance_wrist_2_joint": 1.7731222867998344,
        "distance_wrist_3_joint": 3.3109027106720954,
        "smoothness": 0.211157581722525,
        "time": 0.063645316,
        "traj_len": 3.620219799362637,
        "weighted_distance": 5.037236426746931
    },
    "planner": "ProjEST",
    "start": {
        "state": {
            "elbow_joint": -2.384821988534728,
            "shoulder_lift_joint": -2.2788054721415256,
            "shoulder_pan_joint": -0.1854694642142757,
            "wrist_1_joint": 1.4845938289331202,
            "wrist_2_joint": 0.17898776772866878,
            "wrist_3_joint": 0.037105688729662994
        }
    },
    "waypoints": [
        {
            "positions": [
                -0.1854694642142757,
                -2.2788054721415256,
                -2.384821988534728,
                1.4845938289331202,
                0.17898776772866878,
                0.037105688729662994
            ]
        },
        {
            "positions": [
                -0.051858453902394436,
                -2.289789765681527,
                -2.2681147538507567,
                1.487519676619961,
                0.09477098268023786,
                0.028554140805769037
            ]
        },
        {
            "positions": [
                0.08175255640948684,
                -2.3007740592215282,
                -2.151407519166786,
                1.4904455243068016,
                0.010554197631806927,
                0.02000259288187508
            ]
        },
        {
            "positions": [
                0.2153635667213681,
                -2.3117583527615295,
                -2.0347002844828146,
                1.4933713719936423,
                -0.07366258741662399,
                0.011451044957981125
            ]
        },
        {
            "positions": [
                0.3489745770332494,
                -2.322742646301531,
                -1.9179930497988436,
                1.4962972196804831,
                -0.15787937246505493,
                0.0028994970340871645
            ]
        },
        {
            "positions": [
                0.4825855873451307,
                -2.3337269398415317,
                -1.8012858151148723,
                1.4992230673673237,
                -0.24209615751348593,
                -0.0056520508898067895
            ]
        },
        {
            "positions": [
                0.616196597657012,
                -2.344711233381533,
                -1.6845785804309013,
                1.5021489150541645,
                -0.3263129425619168,
                -0.014203598813700744
            ]
        },
        {
            "positions": [
                0.7498076079688932,
                -2.3556955269215343,
                -1.56787134574693,
                1.5050747627410053,
                -0.4105297276103478,
                -0.022755146737594704
            ]
        },
        {
            "positions": [
                0.8834186182807745,
                -2.3666798204615356,
                -1.4511641110629592,
                1.5080006104278458,
                -0.49474651265877867,
                -0.031306694661488665
            ]
        },
        {
            "positions": [
                1.0170296285926557,
                -2.377664114001537,
                -1.334456876378988,
                1.5109264581146866,
                -0.5789632977072097,
                -0.03985824258538262
            ]
        },
        {
            "positions": [
                0.9750372428685269,
                -2.367638824434237,
                -1.354335674539468,
                1.3570664946777526,
                -0.6195701465617679,
                0.08949930858889937
            ]
        },
        {
            "positions": [
                0.9330448571443981,
                -2.3576135348669367,
                -1.374214472699948,
                1.2032065312408187,
                -0.6601769954163261,
                0.21885685976318137
            ]
        },
        {
            "positions": [
                0.8910524714202694,
                -2.3475882452996366,
                -1.394093270860428,
                1.0493465678038847,
                -0.7007838442708844,
                0.34821441093746336
            ]
        },
        {
            "positions": [
                0.8490600856961407,
                -2.337562955732336,
                -1.4139720690209079,
                0.8954866043669506,
                -0.7413906931254426,
                0.47757196211174535
            ]
        },
        {
            "positions": [
                0.8070676999720119,
                -2.327537666165036,
                -1.4338508671813879,
                0.7416266409300166,
                -0.7819975419800008,
                0.6069295132860274
            ]
        },
        {
            "positions": [
                0.7650753142478832,
                -2.317512376597736,
                -1.4537296653418679,
                0.5877666774930826,
                -0.822604390834559,
                0.7362870644603093
            ]
        },
        {
            "positions": [
                0.7230829285237543,
                -2.307487087030436,
                -1.4736084635023479,
                0.43390671405614856,
                -0.8632112396891174,
                0.8656446156345914
            ]
        },
        {
            "positions": [
                0.6810905427996257,
                -2.2974617974631357,
                -1.4934872616628279,
                0.2800467506192146,
                -0.9038180885436755,
                0.9950021668088733
            ]
        },
        {
            "positions": [
                0.6390981570754969,
                -2.2874365078958356,
                -1.5133660598233079,
                0.12618678718228082,
                -0.9444249373982337,
                1.1243597179831553
            ]
        },
        {
            "positions": [
                0.5971057713513681,
                -2.277411218328535,
                -1.5332448579837878,
                -0.027673176254653375,
                -0.985031786252792,
                1.2537172691574374
            ]
        },
        {
            "positions": [
                0.5551133856272393,
                -2.267385928761235,
                -1.553123656144268,
                -0.18153313969158735,
                -1.0256386351073503,
                1.3830748203317194
            ]
        },
        {
            "positions": [
                0.5131209999031107,
                -2.257360639193935,
                -1.5730024543047478,
                -0.33539310312852133,
                -1.0662454839619084,
                1.5124323715060013
            ]
        },
        {
            "positions": [
                0.4711286141789818,
                -2.247335349626635,
                -1.592881252465228,
                -0.48925306656545553,
                -1.1068523328164668,
                1.6417899226802832
            ]
        },
        {
            "positions": [
                0.429136228454853,
                -2.2373100600593347,
                -1.612760050625708,
                -0.6431130300023895,
                -1.147459181671025,
                1.7711474738545654
            ]
        },
        {
            "positions": [
                0.38714384273072433,
                -2.2272847704920347,
                -1.632638848786188,
                -0.796972993439323,
                -1.188066030525583,
                1.900505025028847
            ]
        },
        {
            "positions": [
                0.34515145700659555,
                -2.217259480924734,
                -1.652517646946668,
                -0.9508329568762575,
                -1.2286728793801416,
                2.0298625762031293
            ]
        },
        {
            "positions": [
                0.3031590712824668,
                -2.207234191357434,
                -1.672396445107148,
                -1.1046929203131914,
                -1.2692797282346997,
                2.159220127377411
            ]
        },
        {
            "positions": [
                0.2611666855583381,
                -2.197208901790134,
                -1.692275243267628,
                -1.258552883750125,
                -1.3098865770892578,
                2.288577678551693
            ]
        },
        {
            "positions": [
                0.21917429983420933,
                -2.187183612222834,
                -1.712154041428108,
                -1.4124128471870594,
                -1.3504934259438162,
                2.417935229725975
            ]
        },
        {
            "positions": [
                0.17718191411008055,
                -2.1771583226555338,
                -1.732032839588588,
                -1.5662728106239934,
                -1.3911002747983745,
                2.5472927809002575
            ]
        },
        {
            "positions": [
                0.13518952838595177,
                -2.1671330330882337,
                -1.751911637749068,
                -1.7201327740609273,
                -1.4317071236529326,
                2.676650332074539
            ]
        },
        {
            "positions": [
                0.093197142661823,
                -2.1571077435209336,
                -1.771790435909548,
                -1.8739927374978613,
                -1.4723139725074907,
                2.8060078832488213
            ]
        },
        {
            "positions": [
                0.05120475693769422,
                -2.147082453953633,
                -1.791669234070028,
                -2.0278527009347953,
                -1.512920821362049,
                2.9353654344231033
            ]
        },
        {
            "positions": [
                0.009212371213565662,
                -2.137057164386333,
                -1.811548032230508,
                -2.1817126643717293,
                -1.5535276702166074,
                3.064722985597385
            ]
        },
        {
            "positions": [
                -0.0327800145105633,
                -2.127031874819033,
                -1.831426830390988,
                -2.3355726278086633,
                -1.5941345190711655,
                3.194080536771667
            ]
        }
    ]
}