{
    "goal": {
        "global_pose": {
            "orientation": {
                "w": 0.5084816262002911,
                "x": -0.4908360881923452,
                "y": 0.5182115481033761,
                "z": -0.48164630358495003
            },
            "position": {
                "x": 0.5540239810943604,
                "y": -0.46912469901144505,
                "z": 0.16403168439865112
            }
        },
        "name": "move_to_storage_B"
    },
    "id": "ProjEST_move_to_storage_B_33",
    "joint_names": [
        "shoulder_pan_joint",
        "shoulder_lift_joint",
        "elbow_joint",
        "wrist_1_joint",
        "wrist_2_joint",
        "wrist_3_joint"
    ],
    "metrics": {
        "cart_traj_len": 2.1114419820154207,
        "distance_elbow_joint": 1.0813669170059321,
        "distance_shoulder_lift_joint": 1.1940092841444458,
        "distance_shoulder_pan_joint": 1.99122344148095,
        "distance_wrist_1_joint": 3.0046106306560683,
        "distance_wrist_2_joint": 2.7089734064313373,
        "distance_wrist_3_joint": 4.052745066853076,
        "smoothness": 0.2895920506171109,
        "time": 0.182173703,
        "traj_len": 3.746055091235553,
        "weighted_distance": 5.277499684260091
    },
    "planner": "ProjEST",
    "start": {
        "state": {
            "elbow_joint": 1.664937868594044,
            "shoulder_lift_joint": -0.661644460510453,
            "shoulder_pan_joint": -0.9139846352900073,
            "wrist_1_joint": 2.146753192139373,
            "wrist_2_joint": -2.2341966793290973,
            "wrist_3_joint": 0.005466555786416001
        }
    },
    "waypoints": [
        {
            "positions": [
                -0.9139846352900073,
                -0.661644460510453,
                1.664937868594044,
                2.146753192139373,
                -2.2341966793290973,
                0.005466555786416001
            ]
        },
        {
            "positions": [
                -0.8536349074483718,
                -0.7168201773725451,
                1.6407324505670395,
                2.0090111877164474,
                -2.159294579731118,
                -0.02417012229988981
            ]
        },
        {
            "positions": [
                -0.7932851796067363,
                -0.7719958942346372,
                1.6165270325400354,
                1.8712691832935213,
                -2.084392480133139,
                -0.05380680038619562
            ]
        },
        {
            "positions": [
                -0.7329354517651008,
                -0.8271716110967293,
                1.592321614513031,
                1.7335271788705955,
                -2.0094903805351594,
                -0.08344347847250143
            ]
        },
        {
            "positions": [
                -0.6725857239234654,
                -0.8823473279588214,
                1.5681161964860266,
                1.5957851744476694,
                -1.9345882809371802,
                -0.11308015655880724
            ]
        },
        {
            "positions": [
                -0.6122359960818299,
                -0.9375230448209135,
                1.5439107784590222,
                1.4580431700247436,
                -1.859686181339201,
                -0.14271683464511303
            ]
        },
        {
            "positions": [
                -0.5518862682401944,
                -0.9926987616830057,
                1.519705360432018,
                1.3203011656018178,
                -1.7847840817412215,
                -0.17235351273141886
            ]
        },
        {
            "positions": [
                -0.49153654039855893,
                -1.047874478545098,
                1.4954999424050137,
                1.1825591611788917,
                -1.7098819821432423,
                -0.20199019081772465
            ]
        },
        {
            "positions": [
                -0.4311868125569234,
                -1.10305019540719,
                1.4712945243780093,
                1.0448171567559659,
                -1.634979882545263,
                -0.23162686890403048
            ]
        },
        {
            "positions": [
                -0.370837084715288,
                -1.1582259122692822,
                1.447089106351005,
                0.90707515233304,
                -1.5600777829472836,
                -0.2612635469903362
            ]
        },
        {
            "positions": [
                -0.3104873568736525,
                -1.2134016291313743,
                1.4228836883240008,
                0.769333147910114,
                -1.4851756833493046,
                -0.29090022507664204
            ]
        },
        {
            "positions": [
                -0.2501376290320171,
                -1.2685773459934664,
                1.3986782702969964,
                0.6315911434871881,
                -1.4102735837513252,
                -0.32053690316294786
            ]
        },
        {
            "positions": [
                -0.18978790119038147,
                -1.3237530628555585,
                1.374472852269992,
                0.4938491390642621,
                -1.3353714841533457,
                -0.3501735812492537
            ]
        },
        {
            "positions": [
                -0.12943817334874597,
                -1.3789287797176506,
                1.350267434242988,
                0.35610713464133625,
                -1.2604693845553667,
                -0.3798102593355595
            ]
        },
        {
            "positions": [
                -0.06908844550711057,
                -1.4341044965797427,
                1.3260620162159835,
                0.2183651302184102,
                -1.1855672849573873,
                -0.4094469374218653
            ]
        },
        {
            "positions": [
                -0.008738717665475099,
                -1.4892802134418348,
                1.3018565981889791,
                0.08062312579548439,
                -1.110665185359408,
                -0.4390836155081711
            ]
        },
        {
            "positions": [
                -0.060451933087209295,
                -1.4718338548126413,
                1.3360606765985443,
                0.03593357511395207,
                -1.0351679514326628,
                -0.2672648109577669
            ]
        },
        {
            "positions": [
                -0.11216514850894349,
                -1.4543874961834478,
                1.3702647550081093,
                -0.008755975567580246,
                -0.9596707175059177,
                -0.09544600640736267
            ]
        },
        {
            "positions": [
                -0.1638783639306777,
                -1.4369411375542542,
                1.4044688334176745,
                -0.05344552624911256,
                -0.8841734835791726,
                0.07637279814304154
            ]
        },
        {
            "positions": [
                -0.21559157935241188,
                -1.4194947789250607,
                1.4386729118272397,
                -0.09813507693064488,
                -0.8086762496524273,
                0.24819160269344576
            ]
        },
        {
            "positions": [
                -0.26730479477414604,
                -1.4020484202958672,
                1.4728769902368046,
                -0.1428246276121772,
                -0.7331790157256821,
                0.42001040724384997
            ]
        },
        {
            "positions": [
                -0.3190180101958803,
                -1.3846020616666737,
                1.5070810686463698,
                -0.1875141782937095,
                -0.657681781798937,
                0.5918292117942542
            ]
        },
        {
            "positions": [
                -0.3707312256176145,
                -1.3671557030374801,
                1.541285147055935,
                -0.23220372897524186,
                -0.5821845478721919,
                0.7636480163446585
            ]
        },
        {
            "positions": [
                -0.42244444103934864,
                -1.3497093444082866,
                1.5754892254655,
                -0.2768932796567741,
                -0.5066873139454466,
                0.9354668208950626
            ]
        },
        {
            "positions": [
                -0.4741576564610829,
                -1.332262985779093,
                1.6096933038750652,
                -0.3215828303383065,
                -0.4311900800187015,
                1.107285625445467
            ]
        },
        {
            "positions": [
                -0.525870871882817,
                -1.3148166271498996,
                1.6438973822846301,
                -0.36627238101983883,
                -0.3556928460919563,
                1.2791044299958712
            ]
        },
        {
            "positions": [
                -0.5775840873045514,
                -1.297370268520706,
                1.6781014606941955,
                -0.4109619317013712,
                -0.28019561216521105,
                1.4509232345462757
            ]
        },
        {
            "positions": [
                -0.6292973027262855,
                -1.2799239098915125,
                1.7123055391037605,
                -0.45565148238290343,
                -0.20469837823846593,
                1.6227420390966794
            ]
        },
        {
            "positions": [
                -0.6810105181480197,
                -1.262477551262319,
                1.7465096175133257,
                -0.5003410330644358,
                -0.1292011443117207,
                1.794560843647084
            ]
        },
        {
            "positions": [
                -0.7327237335697538,
                -1.2450311926331254,
                1.7807136959228906,
                -0.5450305837459681,
                -0.053703910384975684,
                1.966379648197488
            ]
        },
        {
            "positions": [
                -0.7844369489914881,
                -1.227584834003932,
                1.8149177743324558,
                -0.5897201344275005,
                0.02179332354176977,
                2.138198452747892
            ]
        },
        {
            "positions": [
                -0.8361501644132222,
                -1.2101384753747384,
                1.8491218527420208,
                -0.6344096851090327,
                0.09729055746851478,
                2.310017257298296
            ]
        },
        {
            "positions": [
                -0.8878633798349564,
                -1.1926921167455449,
                1.8833259311515862,
                -0.6790992357905651,
                0.17278779139526002,
                2.4818360618487008
            ]
        },
        {
            "positions": [
                -0.9395765952566907,
                -1.1752457581163513,
                1.9175300095611512,
                -0.7237887864720973,
                0.24828502532200503,
                2.653654866399105
            ]
        },
        {
            "positions": [
                -0.9912898106784249,
                -1.1577993994871578,
                1.9517340879707161,
                -0.7684783371536298,
                0.3237822592487505,
                2.825473670949509
            ]
        },
        {
            "positions": [
                -1.043003026100159,
                -1.1403530408579643,
                1.9859381663802813,
                -0.813167887835162,
                0.3992794931754955,
                2.997292475499913
            ]
        },
        {
            "positions": [
                -1.0947162415218934,
                -1.1229066822287708,
                2.0201422447898465,
                -0.8578574385166944,
                0.47477672710224067,
                3.1691112800503176
            ]
        }
    ]
}