{
    "goal": {
        "global_pose": {
            "orientation": {
                "w": 0.7047431493862688,
                "x": -0.7094548369677653,
                "y": 0.0024358444001904,
                "z": -0.0022348060817251984
            },
            "position": {
                "x": -0.39052492380142206,
                "y": 0.3671506643295288,
                "z": 0.19426114857196808
            }
        },
        "name": "move_to_magneteinheit_D"
    },
    "id": "ProjEST_move_to_magneteinheit_D_54",
    "joint_names": [
        "shoulder_pan_joint",
        "shoulder_lift_joint",
        "elbow_joint",
        "wrist_1_joint",
        "wrist_2_joint",
        "wrist_3_joint"
    ],
    "metrics": {
        "cart_traj_len": 3.634682840554916,
        "distance_elbow_joint": 3.7305027506787845,
        "distance_shoulder_lift_joint": 1.6354464509276558,
        "distance_shoulder_pan_joint": 3.422822534007341,
        "distance_wrist_1_joint": 2.1808198124015625,
        "distance_wrist_2_joint": 1.3619549428796613,
        "distance_wrist_3_joint": 5.708249529507231,
        "smoothness": 0.3432499965240727,
        "time": 0.22070643299999998,
        "traj_len": 4.247328103690866,
        "weighted_distance": 5.744481685469798
    },
    "planner": "ProjEST",
    "start": {
        "state": {
            "elbow_joint": 0.749534889911806,
            "shoulder_lift_joint": -0.6476975780787326,
            "shoulder_pan_joint": -2.711696901376241,
            "wrist_1_joint": -0.07506478083263063,
            "wrist_2_joint": 0.43296659715538205,
            "wrist_3_joint": -3.14703540197715
        }
    },
    "waypoints": [
        {
            "positions": [
                -2.711696901376241,
                -0.6476975780787326,
                0.749534889911806,
                -0.07506478083263063,
                0.43296659715538205,
                -3.14703540197715
            ]
        },
        {
            "positions": [
                -2.7173933969362625,
                -0.6719750838689221,
                0.7673840046506185,
                -0.013064170398656212,
                0.39810057181869096,
                -2.8986385880213326
            ]
        },
        {
            "positions": [
                -2.7230898924962843,
                -0.6962525896591116,
                0.7852331193894311,
                0.048936440035318204,
                0.36323454648199993,
                -2.650241774065515
            ]
        },
        {
            "positions": [
                -2.7287863880563057,
                -0.720530095449301,
                0.8030822341282436,
                0.11093705046929264,
                0.3283685211453089,
                -2.401844960109698
            ]
        },
        {
            "positions": [
                -2.7344828836163275,
                -0.7448076012394905,
                0.8209313488670562,
                0.17293766090326704,
                0.2935024958086178,
                -2.1534481461538806
            ]
        },
        {
            "positions": [
                -2.740179379176349,
                -0.76908510702968,
                0.8387804636058688,
                0.2349382713372415,
                0.2586364704719267,
                -1.905051332198063
            ]
        },
        {
            "positions": [
                -2.7458758747363703,
                -0.7933626128198695,
                0.8566295783446813,
                0.2969388817712159,
                0.2237704451352357,
                -1.6566545182422456
            ]
        },
        {
            "positions": [
                -2.751572370296392,
                -0.817640118610059,
                0.8744786930834938,
                0.3589394922051903,
                0.18890441979854466,
                -1.4082577042864284
            ]
        },
        {
            "positions": [
                -2.7572688658564135,
                -0.8419176244002484,
                0.8923278078223065,
                0.4209401026391647,
                0.15403839446185358,
                -1.159860890330611
            ]
        },
        {
            "positions": [
                -2.7629653614164353,
                -0.866195130190438,
                0.9101769225611189,
                0.4829407130731392,
                0.11917236912516255,
                -0.9114640763747937
            ]
        },
        {
            "positions": [
                -2.7686618569764567,
                -0.8904726359806274,
                0.9280260372999316,
                0.5449413235071137,
                0.08430634378847146,
                -0.6630672624189762
            ]
        },
        {
            "positions": [
                -2.7743583525364786,
                -0.9147501417708169,
                0.9458751520387441,
                0.606941933941088,
                0.049440318451780374,
                -0.4146704484631587
            ]
        },
        {
            "positions": [
                -2.7800548480965,
                -0.9390276475610064,
                0.9637242667775567,
                0.6689425443750625,
                0.014574293115089343,
                -0.16627363450734123
            ]
        },
        {
            "positions": [
                -2.7857513436565213,
                -0.9633051533511958,
                0.9815733815163692,
                0.7309431548090368,
                -0.020291732221601688,
                0.0821231794484758
            ]
        },
        {
            "positions": [
                -2.791447839216543,
                -0.9875826591413854,
                0.9994224962551818,
                0.7929437652430111,
                -0.05515775755829272,
                0.3305199934042933
            ]
        },
        {
            "positions": [
                -2.7971443347765645,
                -1.0118601649315748,
                1.0172716109939943,
                0.8549443756769857,
                -0.09002378289498375,
                0.5789168073601108
            ]
        },
        {
            "positions": [
                -2.8028408303365864,
                -1.0361376707217644,
                1.0351207257328068,
                0.91694498611096,
                -0.12488980823167489,
                0.8273136213159282
            ]
        },
        {
            "positions": [
                -2.8085373258966078,
                -1.0604151765119538,
                1.0529698404716195,
                0.9789455965449345,
                -0.1597558335683659,
                1.0757104352717457
            ]
        },
        {
            "positions": [
                -2.673341028920346,
                -1.0777092673035746,
                0.9022925767400235,
                0.9657004222966546,
                -0.16963329904662577,
                1.0175633734477803
            ]
        },
        {
            "positions": [
                -2.5381447319440844,
                -1.0950033580951954,
                0.7516153130084275,
                0.9524552480483749,
                -0.17951076452488565,
                0.9594163116238148
            ]
        },
        {
            "positions": [
                -2.4029484349678225,
                -1.1122974488868163,
                0.6009380492768315,
                0.939210073800095,
                -0.18938823000314553,
                0.9012692497998493
            ]
        },
        {
            "positions": [
                -2.2677521379915606,
                -1.1295915396784373,
                0.4502607855452355,
                0.9259648995518152,
                -0.19926569548140544,
                0.8431221879758839
            ]
        },
        {
            "positions": [
                -2.132555841015299,
                -1.146885630470058,
                0.29958352181363956,
                0.9127197253035354,
                -0.2091431609596653,
                0.7849751261519184
            ]
        },
        {
            "positions": [
                -1.9973595440390373,
                -1.164179721261679,
                0.1489062580820436,
                0.8994745510552555,
                -0.2190206264379252,
                0.7268280643279531
            ]
        },
        {
            "positions": [
                -1.8621632470627754,
                -1.1814738120532997,
                -0.0017710056495523485,
                0.8862293768069757,
                -0.22889809191618507,
                0.6686810025039875
            ]
        },
        {
            "positions": [
                -1.7269669500865137,
                -1.1987679028449205,
                -0.15244826938114842,
                0.8729842025586958,
                -0.23877555739444495,
                0.6105339406800221
            ]
        },
        {
            "positions": [
                -1.5917706531102518,
                -1.2160619936365413,
                -0.3031255331127445,
                0.859739028310416,
                -0.24865302287270485,
                0.5523868788560568
            ]
        },
        {
            "positions": [
                -1.4565743561339903,
                -1.2333560844281621,
                -0.45380279684434033,
                0.8464938540621362,
                -0.2585304883509647,
                0.4942398170320913
            ]
        },
        {
            "positions": [
                -1.3213780591577284,
                -1.250650175219783,
                -0.6044800605759364,
                0.8332486798138563,
                -0.2684079538292246,
                0.43609275520812585
            ]
        },
        {
            "positions": [
                -1.1861817621814668,
                -1.267944266011404,
                -0.7551573243075322,
                0.8200035055655766,
                -0.27828541930748446,
                0.3779456933841605
            ]
        },
        {
            "positions": [
                -1.0509854652052049,
                -1.2852383568030248,
                -0.9058345880391285,
                0.8067583313172967,
                -0.28816288478574437,
                0.31979863156019495
            ]
        },
        {
            "positions": [
                -0.9157891682289432,
                -1.3025324475946456,
                -1.0565118517707242,
                0.7935131570690168,
                -0.2980403502640042,
                0.2616515697362295
            ]
        },
        {
            "positions": [
                -0.7805928712526815,
                -1.3198265383862664,
                -1.2071891155023202,
                0.7802679828207371,
                -0.3079178157422641,
                0.20350450791226415
            ]
        },
        {
            "positions": [
                -0.6453965742764196,
                -1.3371206291778872,
                -1.3578663792339163,
                0.7670228085724572,
                -0.31779528122052403,
                0.1453574460882986
            ]
        },
        {
            "positions": [
                -0.5102002773001582,
                -1.354414719969508,
                -1.5085436429655124,
                0.7537776343241773,
                -0.3276727466987839,
                0.08721038426433325
            ]
        },
        {
            "positions": [
                -0.3750039803238958,
                -1.3717088107611288,
                -1.6592209066971084,
                0.7405324600758976,
                -0.3375502121770438,
                0.0290633224403678
            ]
        },
        {
            "positions": [
                -0.23980768334763436,
                -1.3890029015527499,
                -1.8098981704287045,
                0.7272872858276177,
                -0.3474276776553037,
                -0.02908373938359765
            ]
        },
        {
            "positions": [
                -0.1046113863713729,
                -1.4062969923443707,
                -1.9605754341603001,
                0.7140421115793378,
                -0.35730514313356354,
                -0.0872308012075631
            ]
        },
        {
            "positions": [
                0.030584910604889437,
                -1.4235910831359915,
                -2.111252697891896,
                0.7007969373310581,
                -0.3671826086118234,
                -0.14537786303152855
            ]
        },
        {
            "positions": [
                0.1657812075811508,
                -1.4408851739276123,
                -2.2619299616234922,
                0.6875517630827782,
                -0.3770600740900833,
                -0.20352492485549403
            ]
        },
        {
            "positions": [
                0.12182326057999872,
                -1.5461675308124594,
                -2.275950961376475,
                0.7919787132780085,
                -0.30806904013580866,
                -0.1777413833391073
            ]
        },
        {
            "positions": [
                0.07786531357884663,
                -1.6514498876973063,
                -2.289971961129457,
                0.8964056634732389,
                -0.23907800618153402,
                -0.15195784182272057
            ]
        },
        {
            "positions": [
                0.033907366577694525,
                -1.7567322445821534,
                -2.3039929608824394,
                1.0008326136684693,
                -0.17008697222725938,
                -0.12617430030633386
            ]
        },
        {
            "positions": [
                -0.01005058042345755,
                -1.8620146014670005,
                -2.3180139606354215,
                1.1052595638636995,
                -0.10109593827298474,
                -0.10039075878994712
            ]
        },
        {
            "positions": [
                -0.054008527424609626,
                -1.9672969583518474,
                -2.332034960388404,
                1.20968651405893,
                -0.032104904318710104,
                -0.0746072172735604
            ]
        },
        {
            "positions": [
                -0.09796647442576176,
                -2.0725793152366947,
                -2.3460559601413866,
                1.3141134642541603,
                0.036886129635564535,
                -0.04882367575717367
            ]
        },
        {
            "positions": [
                -0.14192442142691383,
                -2.1778616721215416,
                -2.3600769598943687,
                1.4185404144493905,
                0.10587716358983917,
                -0.023040134240786936
            ]
        },
        {
            "positions": [
                -0.18588236842806588,
                -2.2831440290063885,
                -2.3740979596473513,
                1.522967364644621,
                0.1748681975441138,
                0.0027434072755998075
            ]
        }
    ]
}