{
    "goal": {
        "global_pose": {
            "orientation": {
                "w": 0.7031023502349854,
                "x": -0.7110244035720825,
                "y": 0.007748599164187908,
                "z": 0.005598929710686207
            },
            "position": {
                "x": 0.11585023208521307,
                "y": 0.44412534475326537,
                "z": 0.3711530566215515
            }
        },
        "name": "move_to_auspresseinheit_A"
    },
    "id": "ProjEST_move_to_auspresseinheit_A_51",
    "joint_names": [
        "shoulder_pan_joint",
        "shoulder_lift_joint",
        "elbow_joint",
        "wrist_1_joint",
        "wrist_2_joint",
        "wrist_3_joint"
    ],
    "metrics": {
        "cart_traj_len": 1.815706074833113,
        "distance_elbow_joint": 3.0263703565441196,
        "distance_shoulder_lift_joint": 0.8789040153774552,
        "distance_shoulder_pan_joint": 1.610370034011017,
        "distance_wrist_1_joint": 2.9820576976171616,
        "distance_wrist_2_joint": 2.1524377545837603,
        "distance_wrist_3_joint": 6.1146279198417215,
        "smoothness": 0.5561649859122813,
        "time": 1.09394344,
        "traj_len": 4.094480159675368,
        "weighted_distance": 5.841961919583146
    },
    "planner": "ProjEST",
    "start": {
        "state": {
            "elbow_joint": 2.4225746658250005,
            "shoulder_lift_joint": -1.3736534386056498,
            "shoulder_pan_joint": -0.3378633547517467,
            "wrist_1_joint": -1.0288598680537169,
            "wrist_2_joint": 1.233022673432363,
            "wrist_3_joint": -3.0940220416140027
        }
    },
    "waypoints": [
        {
            "positions": [
                -0.3378633547517467,
                -1.3736534386056498,
                2.4225746658250005,
                -1.0288598680537169,
                1.233022673432363,
                -3.0940220416140027
            ]
        },
        {
            "positions": [
                -0.30368733769928485,
                -1.3721031233422318,
                2.338561659234098,
                -0.9711560945809004,
                1.1883668052829799,
                -2.9452401292455277
            ]
        },
        {
            "positions": [
                -0.269511320646823,
                -1.3705528080788139,
                2.2545486526431953,
                -0.9134523211080838,
                1.1437109371335965,
                -2.796458216877053
            ]
        },
        {
            "positions": [
                -0.2353353035943611,
                -1.3690024928153957,
                2.170535646052292,
                -0.8557485476352673,
                1.0990550689842133,
                -2.647676304508578
            ]
        },
        {
            "positions": [
                -0.20115928654189927,
                -1.3674521775519777,
                2.0865226394613896,
                -0.7980447741624508,
                1.0543992008348302,
                -2.498894392140103
            ]
        },
        {
            "positions": [
                -0.16698326948943742,
                -1.3659018622885597,
                2.002509632870487,
                -0.7403410006896343,
                1.009743332685447,
                -2.3501124797716284
            ]
        },
        {
            "positions": [
                -0.13280725243697553,
                -1.3643515470251417,
                1.9184966262795842,
                -0.6826372272168177,
                0.9650874645360636,
                -2.2013305674031534
            ]
        },
        {
            "positions": [
                -0.09863123538451368,
                -1.3628012317617237,
                1.8344836196886813,
                -0.6249334537440012,
                0.9204315963866805,
                -2.0525486550346788
            ]
        },
        {
            "positions": [
                -0.06445521833205181,
                -1.3612509164983055,
                1.7504706130977787,
                -0.5672296802711847,
                0.8757757282372972,
                -1.9037667426662035
            ]
        },
        {
            "positions": [
                -0.03027920127958994,
                -1.3597006012348876,
                1.6664576065068761,
                -0.5095259067983683,
                0.8311198600879139,
                -1.7549848302977287
            ]
        },
        {
            "positions": [
                0.0038968157728718755,
                -1.3581502859714696,
                1.5824445999159735,
                -0.45182213332555177,
                0.7864639919385308,
                -1.6062029179292538
            ]
        },
        {
            "positions": [
                0.03807283282533375,
                -1.3565999707080516,
                1.4984315933250707,
                -0.39411835985273524,
                0.7418081237891476,
                -1.457421005560779
            ]
        },
        {
            "positions": [
                0.07224884987779567,
                -1.3550496554446336,
                1.4144185867341679,
                -0.3364145863799186,
                0.6971522556397644,
                -1.308639093192304
            ]
        },
        {
            "positions": [
                0.10642486693025754,
                -1.3534993401812154,
                1.3304055801432653,
                -0.2787108129071022,
                0.6524963874903811,
                -1.159857180823829
            ]
        },
        {
            "positions": [
                0.14060088398271936,
                -1.3519490249177974,
                1.2463925735523624,
                -0.22100703943428568,
                0.6078405193409979,
                -1.0110752684553543
            ]
        },
        {
            "positions": [
                0.17477690103518123,
                -1.3503987096543795,
                1.1623795669614598,
                -0.16330326596146913,
                0.5631846511916146,
                -0.8622933560868791
            ]
        },
        {
            "positions": [
                0.18233070216054925,
                -1.3292749516792566,
                1.1241579912264448,
                -0.03371492784924124,
                0.5015464272976913,
                -0.7466507587244966
            ]
        },
        {
            "positions": [
                0.1898845032859173,
                -1.308151193704134,
                1.0859364154914297,
                0.09587341026298665,
                0.43990820340376785,
                -0.6310081613621141
            ]
        },
        {
            "positions": [
                0.19743830441128532,
                -1.287027435729011,
                1.0477148397564147,
                0.22546174837521452,
                0.3782699795098444,
                -0.5153655639997317
            ]
        },
        {
            "positions": [
                0.20499210553665337,
                -1.2659036777538883,
                1.0094932640213994,
                0.3550500864874424,
                0.31663175561592105,
                -0.3997229666373491
            ]
        },
        {
            "positions": [
                0.2125459066620214,
                -1.2447799197787655,
                0.9712716882863843,
                0.4846384245996703,
                0.2549935317219976,
                -0.2840803692749665
            ]
        },
        {
            "positions": [
                0.2200997077873894,
                -1.2236561618036428,
                0.9330501125513693,
                0.6142267627118981,
                0.19335530782807425,
                -0.16843777191258413
            ]
        },
        {
            "positions": [
                0.22765350891275746,
                -1.20253240382852,
                0.8948285368163542,
                0.743815100824126,
                0.1317170839341508,
                -0.052795174550201524
            ]
        },
        {
            "positions": [
                0.19615191346000976,
                -1.2258712614410732,
                1.0022256432419676,
                0.7169210849821873,
                0.10547796863938007,
                -0.19434576252469724
            ]
        },
        {
            "positions": [
                0.1646503180072621,
                -1.2492101190536264,
                1.109622749667581,
                0.6900270691402486,
                0.07923885334460934,
                -0.335896350499193
            ]
        },
        {
            "positions": [
                0.1331487225545144,
                -1.2725489766661797,
                1.2170198560931942,
                0.6631330532983098,
                0.05299973804983861,
                -0.4774469384736887
            ]
        },
        {
            "positions": [
                0.10164712710176674,
                -1.295887834278733,
                1.3244169625188076,
                0.6362390374563711,
                0.02676062275506788,
                -0.6189975264481844
            ]
        },
        {
            "positions": [
                0.07014553164901902,
                -1.319226691891286,
                1.431814068944421,
                0.6093450216144323,
                0.0005215074602971381,
                -0.7605481144226802
            ]
        },
        {
            "positions": [
                0.03864393619627135,
                -1.3425655495038393,
                1.5392111753700344,
                0.5824510057724936,
                -0.025717607834473577,
                -0.9020987023971758
            ]
        },
        {
            "positions": [
                0.007142340743523656,
                -1.3659044071163926,
                1.6466082817956478,
                0.5555569899305548,
                -0.05195672312924432,
                -1.0436492903716716
            ]
        },
        {
            "positions": [
                -0.024359254709223982,
                -1.3892432647289459,
                1.7540053882212612,
                0.5286629740886161,
                -0.07819583842401504,
                -1.1851998783461672
            ]
        },
        {
            "positions": [
                -0.05586085016197172,
                -1.4125821223414992,
                1.8614024946468746,
                0.5017689582466773,
                -0.10443495371878576,
                -1.326750466320663
            ]
        },
        {
            "positions": [
                -0.02548776524571842,
                -1.4465648726823537,
                1.9241486217837014,
                0.43896669156934587,
                -0.06872299291295571,
                -1.4689911874810588
            ]
        },
        {
            "positions": [
                0.004885319670534877,
                -1.4805476230232082,
                1.9868947489205282,
                0.37616442489201435,
                -0.03301103210712566,
                -1.6112319086414546
            ]
        },
        {
            "positions": [
                0.06327756807369109,
                -1.5172298780544815,
                2.0233167417966516,
                0.30452727351554676,
                0.029155275487234282,
                -1.741803651336954
            ]
        },
        {
            "positions": [
                0.12166981647684731,
                -1.5539121330857548,
                2.059738734672775,
                0.23289012213907923,
                0.09132158308159422,
                -1.8723753940324532
            ]
        },
        {
            "positions": [
                0.1800620648800035,
                -1.590594388117028,
                2.0961607275488983,
                0.1612529707626117,
                0.15348789067595414,
                -2.0029471367279528
            ]
        },
        {
            "positions": [
                0.23845431328315975,
                -1.6272766431483012,
                2.1325827204250216,
                0.0896158193861441,
                0.2156541982703141,
                -2.133518879423452
            ]
        },
        {
            "positions": [
                0.29684656168631596,
                -1.6639588981795745,
                2.169004713301145,
                0.01797866800967657,
                0.27782050586467405,
                -2.2640906221189514
            ]
        },
        {
            "positions": [
                0.3552388100894721,
                -1.7006411532108479,
                2.2054267061772688,
                -0.053658483366790966,
                0.339986813459034,
                -2.394662364814451
            ]
        },
        {
            "positions": [
                0.4136310584926284,
                -1.7373234082421212,
                2.241848699053392,
                -0.1252956347432585,
                0.4021531210533939,
                -2.5252341075099505
            ]
        },
        {
            "positions": [
                0.47202330689578464,
                -1.7740056632733943,
                2.2782706919295155,
                -0.19693278611972614,
                0.4643194286477539,
                -2.6558058502054496
            ]
        },
        {
            "positions": [
                0.5304155552989408,
                -1.8106879183046676,
                2.314692684805639,
                -0.2685699374961937,
                0.5264857362421138,
                -2.786377592900949
            ]
        },
        {
            "positions": [
                0.588807803702097,
                -1.847370173335941,
                2.351114677681762,
                -0.3402070888726612,
                0.5886520438364737,
                -2.916949335596448
            ]
        },
        {
            "positions": [
                0.6472000521052532,
                -1.8840524283672142,
                2.3875366705578855,
                -0.4118442402491287,
                0.6508183514308337,
                -3.0475210782919477
            ]
        },
        {
            "positions": [
                0.7054779611098112,
                -1.9103153844288452,
                2.3934527643518275,
                -0.46556762791519063,
                0.7105451737138254,
                -3.1261962273281223
            ]
        }
    ]
}