{
    "goal": {
        "global_pose": {
            "orientation": {
                "w": 0.7047431468963623,
                "x": -0.7094548344612122,
                "y": 0.0024358443915843964,
                "z": -0.0022348060738295317
            },
            "position": {
                "x": 0.6094750761985779,
                "y": 0.3671506643295288,
                "z": 0.19426114857196808
            }
        },
        "name": "move_to_magneteinheit_A"
    },
    "id": "ProjEST_move_to_magneteinheit_A_34",
    "joint_names": [
        "shoulder_pan_joint",
        "shoulder_lift_joint",
        "elbow_joint",
        "wrist_1_joint",
        "wrist_2_joint",
        "wrist_3_joint"
    ],
    "metrics": {
        "cart_traj_len": 4.07612045375376,
        "distance_elbow_joint": 3.8733858224820796,
        "distance_shoulder_lift_joint": 1.1410756159568536,
        "distance_shoulder_pan_joint": 5.07747110717678,
        "distance_wrist_1_joint": 0.8407858969240657,
        "distance_wrist_2_joint": 2.9530654601213957,
        "distance_wrist_3_joint": 2.590890278461382,
        "smoothness": 0.35772024164890676,
        "time": 0.254017102,
        "traj_len": 4.059146977028863,
        "weighted_distance": 5.045027858703139
    },
    "planner": "ProjEST",
    "start": {
        "state": {
            "elbow_joint": -1.9196185241190666,
            "shoulder_lift_joint": -1.2443396400964142,
            "shoulder_pan_joint": 2.6996025414629847,
            "wrist_1_joint": -1.5485510000780065,
            "wrist_2_joint": -1.5709468930060704,
            "wrist_3_joint": 0.4420197071253992
        }
    },
    "waypoints": [
        {
            "positions": [
                2.6996025414629847,
                -1.2443396400964142,
                -1.9196185241190666,
                -1.5485510000780065,
                -1.5709468930060704,
                0.4420197071253992
            ]
        },
        {
            "positions": [
                2.576134184760678,
                -1.2608883179543755,
                -1.8193525400507613,
                -1.5428765301973204,
                -1.4960107180360662,
                0.5051434213479399
            ]
        },
        {
            "positions": [
                2.4526658280583717,
                -1.277436995812337,
                -1.719086555982456,
                -1.5372020603166343,
                -1.421074543066062,
                0.5682671355704806
            ]
        },
        {
            "positions": [
                2.329197471356065,
                -1.2939856736702984,
                -1.6188205719141506,
                -1.5315275904359482,
                -1.346138368096058,
                0.6313908497930213
            ]
        },
        {
            "positions": [
                2.2057291146537583,
                -1.31053435152826,
                -1.5185545878458453,
                -1.5258531205552621,
                -1.2712021931260538,
                0.694514564015562
            ]
        },
        {
            "positions": [
                2.082260757951452,
                -1.3270830293862212,
                -1.41828860377754,
                -1.520178650674576,
                -1.1962660181560496,
                0.7576382782381027
            ]
        },
        {
            "positions": [
                1.9587924012491453,
                -1.3436317072441826,
                -1.3180226197092348,
                -1.5145041807938902,
                -1.1213298431860454,
                0.8207619924606434
            ]
        },
        {
            "positions": [
                1.8353240445468386,
                -1.3601803851021441,
                -1.2177566356409295,
                -1.508829710913204,
                -1.0463936682160413,
                0.8838857066831841
            ]
        },
        {
            "positions": [
                1.7118556878445323,
                -1.3767290629601054,
                -1.1174906515726242,
                -1.503155241032518,
                -0.9714574932460371,
                0.9470094209057248
            ]
        },
        {
            "positions": [
                1.5883873311422254,
                -1.393277740818067,
                -1.0172246675043188,
                -1.4974807711518319,
                -0.8965213182760329,
                1.0101331351282656
            ]
        },
        {
            "positions": [
                1.4649189744399191,
                -1.4098264186760283,
                -0.9169586834360135,
                -1.4918063012711458,
                -0.8215851433060288,
                1.0732568493508063
            ]
        },
        {
            "positions": [
                1.3414506177376124,
                -1.4263750965339899,
                -0.8166926993677082,
                -1.4861318313904597,
                -0.7466489683360246,
                1.136380563573347
            ]
        },
        {
            "positions": [
                1.217982261035306,
                -1.4429237743919512,
                -0.716426715299403,
                -1.4804573615097736,
                -0.6717127933660204,
                1.1995042777958878
            ]
        },
        {
            "positions": [
                1.0945139043329992,
                -1.4594724522499125,
                -0.6161607312310975,
                -1.4747828916290875,
                -0.5967766183960163,
                1.2626279920184285
            ]
        },
        {
            "positions": [
                0.9710455476306927,
                -1.476021130107874,
                -0.5158947471627924,
                -1.4691084217484014,
                -0.5218404434260122,
                1.3257517062409692
            ]
        },
        {
            "positions": [
                0.847577190928386,
                -1.4925698079658354,
                -0.41562876309448704,
                -1.4634339518677153,
                -0.44690426845600784,
                1.3888754204635099
            ]
        },
        {
            "positions": [
                0.7241088342260797,
                -1.509118485823797,
                -0.3153627790261817,
                -1.4577594819870294,
                -0.3719680934860039,
                1.4519991346860506
            ]
        },
        {
            "positions": [
                0.6006404775237733,
                -1.5256671636817583,
                -0.2150967949578766,
                -1.4520850121063433,
                -0.29703191851599975,
                1.5151228489085913
            ]
        },
        {
            "positions": [
                0.4771721208214661,
                -1.5422158415397198,
                -0.11483081088957103,
                -1.4464105422256572,
                -0.22209574354599537,
                1.578246563131132
            ]
        },
        {
            "positions": [
                0.3537037641191598,
                -1.5587645193976811,
                -0.014564826821265697,
                -1.4407360723449711,
                -0.14715956857599122,
                1.6413702773536727
            ]
        },
        {
            "positions": [
                0.23023540741685355,
                -1.5753131972556425,
                0.08570115724703964,
                -1.435061602464285,
                -0.07222339360598728,
                1.7044939915762134
            ]
        },
        {
            "positions": [
                0.10676705071454684,
                -1.591861875113604,
                0.18596714131534453,
                -1.429387132583599,
                0.0027127813640168696,
                1.767617705798754
            ]
        },
        {
            "positions": [
                -0.016701305987759874,
                -1.6084105529715653,
                0.2862331253836503,
                -1.4237126627029129,
                0.07764895633402125,
                1.8307414200212948
            ]
        },
        {
            "positions": [
                -0.1401696626900666,
                -1.6249592308295269,
                0.38649910945195565,
                -1.4180381928222268,
                0.1525851313040254,
                1.8938651342438355
            ]
        },
        {
            "positions": [
                -0.26363801939237286,
                -1.6415079086874882,
                0.48676509352026054,
                -1.4123637229415407,
                0.22752130627402956,
                1.9569888484663762
            ]
        },
        {
            "positions": [
                -0.38710637609467957,
                -1.6580565865454495,
                0.5870310775885659,
                -1.4066892530608546,
                0.3024574812440335,
                2.020112562688917
            ]
        },
        {
            "positions": [
                -0.5105747327969863,
                -1.674605264403411,
                0.6872970616568717,
                -1.4010147831801687,
                0.37739365621403786,
                2.0832362769114576
            ]
        },
        {
            "positions": [
                -0.6340430894992926,
                -1.6911539422613724,
                0.7875630457251765,
                -1.3953403132994826,
                0.452329831184042,
                2.1463599911339983
            ]
        },
        {
            "positions": [
                -0.7575114462015993,
                -1.707702620119334,
                0.8878290297934819,
                -1.3896658434187965,
                0.527266006154046,
                2.209483705356539
            ]
        },
        {
            "positions": [
                -0.8809798029039055,
                -1.7242512979772953,
                0.9880950138617872,
                -1.3839913735381104,
                0.6022021811240503,
                2.2726074195790797
            ]
        },
        {
            "positions": [
                -1.0044481596062127,
                -1.7407999758352568,
                1.0883609979300926,
                -1.3783169036574243,
                0.6771383560940547,
                2.3357311338016205
            ]
        },
        {
            "positions": [
                -1.1279165163085187,
                -1.7573486536932181,
                1.1886269819983977,
                -1.3726424337767382,
                0.7520745310640586,
                2.398854848024161
            ]
        },
        {
            "positions": [
                -1.0237538455247457,
                -1.705009770163214,
                1.2523886750287823,
                -1.3172359895581718,
                0.6995708613931197,
                2.4516927761543794
            ]
        },
        {
            "positions": [
                -0.9195911747409725,
                -1.6526708866332098,
                1.3161503680591669,
                -1.2618295453396053,
                0.6470671917221809,
                2.5045307042845977
            ]
        },
        {
            "positions": [
                -0.8154285039571993,
                -1.6003320031032058,
                1.3799120610895514,
                -1.206423101121039,
                0.594563522051242,
                2.557368632414816
            ]
        },
        {
            "positions": [
                -0.7112658331734263,
                -1.5479931195732015,
                1.4436737541199358,
                -1.1510166569024725,
                0.5420598523803031,
                2.6102065605450346
            ]
        },
        {
            "positions": [
                -0.6071031623896531,
                -1.4956542360431975,
                1.5074354471503206,
                -1.095610212683906,
                0.4895561827093641,
                2.663044488675253
            ]
        },
        {
            "positions": [
                -0.5029404916058801,
                -1.4433153525131934,
                1.571197140180705,
                -1.0402037684653396,
                0.4370525130384252,
                2.715882416805471
            ]
        },
        {
            "positions": [
                -0.3987778208221069,
                -1.3909764689831892,
                1.6349588332110896,
                -0.984797324246773,
                0.38454884336748624,
                2.7687203449356894
            ]
        },
        {
            "positions": [
                -0.29461515003833383,
                -1.3386375854531851,
                1.6987205262414742,
                -0.9293908800282067,
                0.3320451736965474,
                2.8215582730659077
            ]
        },
        {
            "positions": [
                -0.19045247925456077,
                -1.2862987019231809,
                1.7624822192718588,
                -0.8739844358096401,
                0.27954150402560846,
                2.8743962011961264
            ]
        },
        {
            "positions": [
                -0.08628980847078749,
                -1.2339598183931768,
                1.8262439123022434,
                -0.8185779915910737,
                0.2270378343546695,
                2.9272341293263446
            ]
        },
        {
            "positions": [
                0.01787286231298557,
                -1.1816209348631728,
                1.890005605332628,
                -0.7631715473725073,
                0.17453416468373062,
                2.980072057456563
            ]
        },
        {
            "positions": [
                0.12203553309675873,
                -1.1292820513331685,
                1.9537672983630126,
                -0.7077651031539408,
                0.12203049501279177,
                3.032909985586781
            ]
        }
    ]
}