{
    "goal": {
        "global_pose": {
            "orientation": {
                "w": 0.7047431468963623,
                "x": -0.7094548344612122,
                "y": 0.0024358443915843964,
                "z": -0.0022348060738295317
            },
            "position": {
                "x": 0.6094750761985779,
                "y": 0.3671506643295288,
                "z": 0.19426114857196808
            }
        },
        "name": "move_to_magneteinheit_A"
    },
    "id": "ProjEST_move_to_magneteinheit_A_150",
    "joint_names": [
        "shoulder_pan_joint",
        "shoulder_lift_joint",
        "elbow_joint",
        "wrist_1_joint",
        "wrist_2_joint",
        "wrist_3_joint"
    ],
    "metrics": {
        "cart_traj_len": 3.6137206413449614,
        "distance_elbow_joint": 4.255485861363285,
        "distance_shoulder_lift_joint": 0.6740427077613189,
        "distance_shoulder_pan_joint": 3.2276863111194483,
        "distance_wrist_1_joint": 0.8351704334500677,
        "distance_wrist_2_joint": 3.0218652917321847,
        "distance_wrist_3_joint": 2.579216474629167,
        "smoothness": 0.4052874213125585,
        "time": 0.110733389,
        "traj_len": 3.8201396676110506,
        "weighted_distance": 4.858902731532712
    },
    "planner": "ProjEST",
    "start": {
        "state": {
            "elbow_joint": -1.9196185241190666,
            "shoulder_lift_joint": -1.2443396400964142,
            "shoulder_pan_joint": 2.6996025414629847,
            "wrist_1_joint": -1.5485510000780065,
            "wrist_2_joint": -1.5709468930060704,
            "wrist_3_joint": 0.4420197071253992
        }
    },
    "waypoints": [
        {
            "positions": [
                2.6996025414629847,
                -1.2443396400964142,
                -1.9196185241190666,
                -1.5485510000780065,
                -1.5709468930060704,
                0.4420197071253992
            ]
        },
        {
            "positions": [
                2.595947867548691,
                -1.2544008134652855,
                -1.7971939631595433,
                -1.5218820048154909,
                -1.4864827333197574,
                0.4887807479330765
            ]
        },
        {
            "positions": [
                2.4922931936343966,
                -1.264461986834157,
                -1.67476940220002,
                -1.4952130095529752,
                -1.4020185736334443,
                0.5355417887407539
            ]
        },
        {
            "positions": [
                2.3886385197201028,
                -1.2745231602030282,
                -1.5523448412404965,
                -1.4685440142904596,
                -1.3175544139471314,
                0.5823028295484313
            ]
        },
        {
            "positions": [
                2.2849838458058085,
                -1.2845843335718998,
                -1.4299202802809732,
                -1.4418750190279441,
                -1.2330902542608182,
                0.6290638703561086
            ]
        },
        {
            "positions": [
                2.1813291718915147,
                -1.2946455069407712,
                -1.3074957193214496,
                -1.4152060237654285,
                -1.1486260945745053,
                0.675824911163786
            ]
        },
        {
            "positions": [
                2.0776744979772204,
                -1.3047066803096425,
                -1.1850711583619264,
                -1.3885370285029128,
                -1.064161934888192,
                0.7225859519714632
            ]
        },
        {
            "positions": [
                1.9740198240629265,
                -1.314767853678514,
                -1.0626465974024029,
                -1.3618680332403972,
                -0.9796977752018792,
                0.7693469927791406
            ]
        },
        {
            "positions": [
                1.8703651501486327,
                -1.3248290270473853,
                -0.9402220364428795,
                -1.3351990379778815,
                -0.8952336155155661,
                0.816108033586818
            ]
        },
        {
            "positions": [
                1.7667104762343384,
                -1.3348902004162566,
                -0.8177974754833559,
                -1.3085300427153659,
                -0.8107694558292531,
                0.8628690743944953
            ]
        },
        {
            "positions": [
                1.6630558023200444,
                -1.344951373785128,
                -0.6953729145238325,
                -1.2818610474528502,
                -0.72630529614294,
                0.9096301152021727
            ]
        },
        {
            "positions": [
                1.5594011284057505,
                -1.3550125471539995,
                -0.5729483535643094,
                -1.2551920521903348,
                -0.6418411364566271,
                0.95639115600985
            ]
        },
        {
            "positions": [
                1.4557464544914565,
                -1.365073720522871,
                -0.45052379260478603,
                -1.2285230569278192,
                -0.5573769767703141,
                1.0031521968175274
            ]
        },
        {
            "positions": [
                1.3520917805771624,
                -1.3751348938917423,
                -0.32809923164526245,
                -1.2018540616653035,
                -0.4729128170840009,
                1.049913237625205
            ]
        },
        {
            "positions": [
                1.2484371066628683,
                -1.3851960672606136,
                -0.20567467068573908,
                -1.1751850664027879,
                -0.38844865739768797,
                1.0966742784328822
            ]
        },
        {
            "positions": [
                1.1447824327485743,
                -1.395257240629485,
                -0.08325010972621572,
                -1.1485160711402722,
                -0.30398449771137503,
                1.1434353192405595
            ]
        },
        {
            "positions": [
                1.0411277588342804,
                -1.4053184139983563,
                0.03917445123330765,
                -1.1218470758777568,
                -0.21952033802506188,
                1.1901963600482368
            ]
        },
        {
            "positions": [
                0.9374730849199864,
                -1.4153795873672277,
                0.16159901219283102,
                -1.0951780806152411,
                -0.13505617833874894,
                1.236957400855914
            ]
        },
        {
            "positions": [
                0.8338184110056921,
                -1.4254407607360993,
                0.2840235731523548,
                -1.0685090853527255,
                -0.05059201865243579,
                1.2837184416635916
            ]
        },
        {
            "positions": [
                0.730163737091398,
                -1.4355019341049706,
                0.4064481341118782,
                -1.0418400900902098,
                0.033872141033877146,
                1.330479482471269
            ]
        },
        {
            "positions": [
                0.626509063177104,
                -1.445563107473842,
                0.5288726950714016,
                -1.0151710948276942,
                0.1183363007201903,
                1.3772405232789464
            ]
        },
        {
            "positions": [
                0.5228543892628101,
                -1.4556242808427133,
                0.6512972560309245,
                -0.9885020995651786,
                0.20280046040650324,
                1.4240015640866237
            ]
        },
        {
            "positions": [
                0.4191997153485163,
                -1.4656854542115847,
                0.7737218169904478,
                -0.961833104302663,
                0.28726462009281617,
                1.470762604894301
            ]
        },
        {
            "positions": [
                0.315545041434222,
                -1.475746627580456,
                0.8961463779499712,
                -0.9351641090401475,
                0.3717287797791293,
                1.5175236457019783
            ]
        },
        {
            "positions": [
                0.21189036751992818,
                -1.4858078009493274,
                1.0185709389094946,
                -0.9084951137776318,
                0.45619293946544226,
                1.5642846865096556
            ]
        },
        {
            "positions": [
                0.1082356936056339,
                -1.495868974318199,
                1.1409954998690184,
                -0.8818261185151162,
                0.5406570991517554,
                1.6110457273173329
            ]
        },
        {
            "positions": [
                0.00458101969134006,
                -1.5059301476870703,
                1.2634200608285417,
                -0.8551571232526005,
                0.6251212588380686,
                1.6578067681250106
            ]
        },
        {
            "positions": [
                -0.09907365422295422,
                -1.5159913210559417,
                1.3858446217880651,
                -0.828488127990085,
                0.7095854185243813,
                1.7045678089326879
            ]
        },
        {
            "positions": [
                -0.20272832813724784,
                -1.526052494424813,
                1.5082691827475885,
                -0.8018191327275693,
                0.7940495782106947,
                1.7513288497403652
            ]
        },
        {
            "positions": [
                -0.1797510920508998,
                -1.5034044678196739,
                1.599624810357949,
                -0.8015390656763396,
                0.7166061544605778,
                1.886759494162666
            ]
        },
        {
            "positions": [
                -0.15677385596455176,
                -1.4807564412145344,
                1.6909804379683093,
                -0.8012589986251099,
                0.6391627307104611,
                2.0221901385849668
            ]
        },
        {
            "positions": [
                -0.13379661987820374,
                -1.4581084146093952,
                1.7823360655786697,
                -0.8009789315738801,
                0.5617193069603443,
                2.1576207830072676
            ]
        },
        {
            "positions": [
                -0.1108193837918557,
                -1.4354603880042558,
                1.8736916931890302,
                -0.8006988645226505,
                0.4842758832102276,
                2.2930514274295684
            ]
        },
        {
            "positions": [
                -0.08784214770550766,
                -1.4128123613991166,
                1.9650473207993908,
                -0.8004187974714208,
                0.40683245946011076,
                2.428482071851869
            ]
        },
        {
            "positions": [
                -0.06486491161915964,
                -1.3901643347939774,
                2.056402948409751,
                -0.800138730420191,
                0.329389035709994,
                2.56391271627417
            ]
        },
        {
            "positions": [
                -0.041887675532811586,
                -1.367516308188838,
                2.1477585760201117,
                -0.7998586633689613,
                0.2519456119598772,
                2.6993433606964707
            ]
        },
        {
            "positions": [
                0.012950587438781774,
                -1.2895850857898563,
                2.0850556556120763,
                -0.7710326311219537,
                0.2136906605383434,
                2.8066409677158357
            ]
        },
        {
            "positions": [
                0.06778885041037513,
                -1.2116538633908747,
                2.0223527352040405,
                -0.7422065988749463,
                0.1754357091168096,
                2.913938574735201
            ]
        },
        {
            "positions": [
                0.1226271133819685,
                -1.133722640991893,
                1.9596498147960049,
                -0.7133805666279388,
                0.13718075769527582,
                3.021236181754566
            ]
        }
    ]
}