{
    "goal": {
        "global_pose": {
            "orientation": {
                "w": 0.7047431493862688,
                "x": -0.7094548369677653,
                "y": 0.0024358444001904,
                "z": -0.0022348060817251984
            },
            "position": {
                "x": -0.39052492380142206,
                "y": 0.3671506643295288,
                "z": 0.19426114857196808
            }
        },
        "name": "move_to_magneteinheit_D"
    },
    "id": "ProjEST_move_to_magneteinheit_D_118",
    "joint_names": [
        "shoulder_pan_joint",
        "shoulder_lift_joint",
        "elbow_joint",
        "wrist_1_joint",
        "wrist_2_joint",
        "wrist_3_joint"
    ],
    "metrics": {
        "cart_traj_len": 4.454011649787519,
        "distance_elbow_joint": 3.1715820780795063,
        "distance_shoulder_lift_joint": 2.1440406325525543,
        "distance_shoulder_pan_joint": 3.3102654660760567,
        "distance_wrist_1_joint": 1.9752539261356634,
        "distance_wrist_2_joint": 1.1104501770873134,
        "distance_wrist_3_joint": 4.339655796636059,
        "smoothness": 1.3096151817254773,
        "time": 0.098821454,
        "traj_len": 4.006400888149755,
        "weighted_distance": 5.274112605269463
    },
    "planner": "ProjEST",
    "start": {
        "state": {
            "elbow_joint": 0.749534889911806,
            "shoulder_lift_joint": -0.6476975780787326,
            "shoulder_pan_joint": -2.711696901376241,
            "wrist_1_joint": -0.07506478083263063,
            "wrist_2_joint": 0.43296659715538205,
            "wrist_3_joint": -3.14703540197715
        }
    },
    "waypoints": [
        {
            "positions": [
                -2.711696901376241,
                -0.6476975780787326,
                0.749534889911806,
                -0.07506478083263063,
                0.43296659715538205,
                -3.14703540197715
            ]
        },
        {
            "positions": [
                -2.755871894140333,
                -0.603343745257866,
                0.6974454284599018,
                0.018567978622087575,
                0.37073782687887363,
                -3.0841143958564645
            ]
        },
        {
            "positions": [
                -2.8000468869044246,
                -0.5589899124369996,
                0.6453559670079976,
                0.11220073807680578,
                0.3085090566023652,
                -3.0211933897357794
            ]
        },
        {
            "positions": [
                -2.844221879668516,
                -0.5146360796161331,
                0.5932665055560934,
                0.20583349753152397,
                0.24628028632585677,
                -2.9582723836150944
            ]
        },
        {
            "positions": [
                -2.8883968724326077,
                -0.47028224679526653,
                0.5411770441041892,
                0.2994662569862422,
                0.18405151604934836,
                -2.895351377494409
            ]
        },
        {
            "positions": [
                -2.825095799020235,
                -0.5544567341650556,
                0.5143585952240954,
                0.35068604538169,
                0.16821917452946908,
                -2.9520114082513778
            ]
        },
        {
            "positions": [
                -2.7617947256078623,
                -0.6386312215348445,
                0.48754014634400167,
                0.40190583377713784,
                0.1523868330095898,
                -3.008671439008346
            ]
        },
        {
            "positions": [
                -2.6984936521954896,
                -0.7228057089046336,
                0.4607216974639079,
                0.45312562217258573,
                0.13655449148971052,
                -3.065331469765315
            ]
        },
        {
            "positions": [
                -2.6014595929463553,
                -0.7703263369124973,
                0.3799487411681954,
                0.4816606347463077,
                0.14603215671256428,
                -2.9346447544127585
            ]
        },
        {
            "positions": [
                -2.5044255336972214,
                -0.817846964920361,
                0.29917578487248286,
                0.5101956473200298,
                0.15550982193541807,
                -2.8039580390602015
            ]
        },
        {
            "positions": [
                -2.4073914744480875,
                -0.8653675929282247,
                0.21840282857677037,
                0.5387306598937518,
                0.16498748715827183,
                -2.673271323707645
            ]
        },
        {
            "positions": [
                -2.310357415198953,
                -0.9128882209360885,
                0.13762987228105783,
                0.5672656724674737,
                0.1744651523811256,
                -2.542584608355088
            ]
        },
        {
            "positions": [
                -2.213323355949819,
                -0.9604088489439521,
                0.05685691598534531,
                0.5958006850411958,
                0.18394281760397937,
                -2.411897893002531
            ]
        },
        {
            "positions": [
                -2.116289296700685,
                -1.0079294769518157,
                -0.023916040310367148,
                0.6243356976149177,
                0.19342048282683313,
                -2.2812111776499746
            ]
        },
        {
            "positions": [
                -2.019255237451551,
                -1.0554501049596796,
                -0.10468899660607978,
                0.6528707101886397,
                0.20289814804968692,
                -2.1505244622974176
            ]
        },
        {
            "positions": [
                -1.9222211782024168,
                -1.102970732967543,
                -0.18546195290179224,
                0.6814057227623618,
                0.21237581327254068,
                -2.019837746944861
            ]
        },
        {
            "positions": [
                -1.825187118953283,
                -1.1504913609754068,
                -0.2662349091975047,
                0.7099407353360838,
                0.22185347849539444,
                -1.8891510315923044
            ]
        },
        {
            "positions": [
                -1.7281530597041486,
                -1.1980119889832705,
                -0.34700786549321727,
                0.7384757479098059,
                0.23133114371824823,
                -1.7584643162397473
            ]
        },
        {
            "positions": [
                -1.6311190004550145,
                -1.2455326169911343,
                -0.42778082178892973,
                0.7670107604835278,
                0.240808808941102,
                -1.6277776008871907
            ]
        },
        {
            "positions": [
                -1.5340849412058806,
                -1.293053244998998,
                -0.5085537780846422,
                0.7955457730572497,
                0.2502864741639558,
                -1.497090885534634
            ]
        },
        {
            "positions": [
                -1.4370508819567462,
                -1.3405738730068617,
                -0.5893267343803548,
                0.8240807856309718,
                0.25976413938680953,
                -1.366404170182077
            ]
        },
        {
            "positions": [
                -1.3400168227076121,
                -1.3880945010147254,
                -0.6700996906760674,
                0.8526157982046938,
                0.2692418046096633,
                -1.2357174548295202
            ]
        },
        {
            "positions": [
                -1.2429827634584782,
                -1.435615129022589,
                -0.7508726469717797,
                0.8811508107784158,
                0.27871946983251705,
                -1.1050307394769638
            ]
        },
        {
            "positions": [
                -1.145948704209344,
                -1.4831357570304529,
                -0.8316456032674924,
                0.9096858233521379,
                0.2881971350553708,
                -0.9743440241244068
            ]
        },
        {
            "positions": [
                -1.0489146449602098,
                -1.5306563850383166,
                -0.9124185595632051,
                0.9382208359258599,
                0.2976748002782246,
                -0.8436573087718502
            ]
        },
        {
            "positions": [
                -0.9518805857110759,
                -1.5781770130461803,
                -0.9931915158589173,
                0.9667558484995817,
                0.30715246550107833,
                -0.7129705934192936
            ]
        },
        {
            "positions": [
                -0.8548465264619418,
                -1.6256976410540438,
                -1.07396447215463,
                0.9952908610733038,
                0.31663013072393215,
                -0.5822838780667365
            ]
        },
        {
            "positions": [
                -0.7578124672128075,
                -1.6732182690619077,
                -1.1547374284503424,
                1.0238258736470258,
                0.32610779594678596,
                -0.4515971627141795
            ]
        },
        {
            "positions": [
                -0.6607784079636736,
                -1.7207388970697712,
                -1.235510384746055,
                1.0523608862207479,
                0.33558546116963966,
                -0.32091044736162333
            ]
        },
        {
            "positions": [
                -0.5637443487145393,
                -1.768259525077635,
                -1.3162833410417674,
                1.08089589879447,
                0.3450631263924935,
                -0.19022373200906628
            ]
        },
        {
            "positions": [
                -0.4667102894654054,
                -1.8157801530854987,
                -1.39705629733748,
                1.109430911368192,
                0.35454079161534724,
                -0.059537016656509234
            ]
        },
        {
            "positions": [
                -0.3696762302162715,
                -1.8633007810933624,
                -1.4778292536331923,
                1.1379659239419138,
                0.364018456838201,
                0.07114969869604693
            ]
        },
        {
            "positions": [
                -0.27264217096713705,
                -1.910821409101226,
                -1.558602209928905,
                1.1665009365156358,
                0.37349612206105476,
                0.201836414048604
            ]
        },
        {
            "positions": [
                -0.20221317359965968,
                -1.9266075073608913,
                -1.6289453255786892,
                1.2096891779860068,
                0.3320555053442526,
                0.18366560564719242
            ]
        },
        {
            "positions": [
                -0.1317841762321823,
                -1.9423936056205564,
                -1.6992884412284734,
                1.2528774194563779,
                0.29061488862745044,
                0.1654947972457808
            ]
        },
        {
            "positions": [
                -0.09161627979315878,
                -1.9790868374716117,
                -1.8055612462240012,
                1.3024085121222808,
                0.2576750566600464,
                0.1323591801267876
            ]
        },
        {
            "positions": [
                -0.05144838335413526,
                -2.015780069322667,
                -1.911834051219529,
                1.3519396047881835,
                0.22473522469264234,
                0.09922356300779438
            ]
        },
        {
            "positions": [
                -0.011280486915111743,
                -2.052473301173723,
                -2.018106856215057,
                1.4014706974540863,
                0.1917953927252383,
                0.06608794588880115
            ]
        },
        {
            "positions": [
                0.028887409523911778,
                -2.089166533024778,
                -2.1243796612105847,
                1.4510017901199892,
                0.15885556075783425,
                0.03295232876980794
            ]
        },
        {
            "positions": [
                0.01080134448677833,
                -2.0627682042691533,
                -2.217105827216599,
                1.382225071397087,
                0.10241662701849738,
                -0.048137018474671445
            ]
        },
        {
            "positions": [
                -0.007284720550355117,
                -2.036369875513528,
                -2.3098319932226126,
                1.3134483526741845,
                0.0459776932791605,
                -0.12922636571915083
            ]
        },
        {
            "positions": [
                -0.025370785587488565,
                -2.009971546757903,
                -2.4025581592286267,
                1.2446716339512822,
                -0.01046124046017638,
                -0.21031571296363025
            ]
        },
        {
            "positions": [
                -0.07937845823807893,
                -2.099486889682137,
                -2.3960618162489355,
                1.3256240336227278,
                0.0539184523161792,
                -0.1307584899448783
            ]
        },
        {
            "positions": [
                -0.1333861308886693,
                -2.1890022326063705,
                -2.389565473269244,
                1.4065764332941733,
                0.11829814509253478,
                -0.05120126692612634
            ]
        },
        {
            "positions": [
                -0.1873938035392597,
                -2.2785175755306044,
                -2.383069130289553,
                1.4875288329656189,
                0.18267783786889036,
                0.028355956092625617
            ]
        }
    ]
}