{
    "goal": {
        "global_pose": {
            "orientation": {
                "w": 0.005598929693374612,
                "x": 0.007748599140229565,
                "y": 0.7110244013736278,
                "z": -0.7031023480610252
            },
            "position": {
                "x": -0.8858502320852131,
                "y": -0.7141253447532654,
                "z": 0.3711530566215515
            }
        },
        "name": "move_to_auspresseinheit_C"
    },
    "id": "ProjEST_move_to_auspresseinheit_C_49",
    "joint_names": [
        "shoulder_pan_joint",
        "shoulder_lift_joint",
        "elbow_joint",
        "wrist_1_joint",
        "wrist_2_joint",
        "wrist_3_joint"
    ],
    "metrics": {
        "cart_traj_len": 0.49254759987920926,
        "distance_elbow_joint": 0.9988495771183687,
        "distance_shoulder_lift_joint": 0.3241617822972336,
        "distance_shoulder_pan_joint": 0.25534236284997247,
        "distance_wrist_1_joint": 0.6740993451473717,
        "distance_wrist_2_joint": 1.3219653448008346,
        "distance_wrist_3_joint": 0.053603225633034324,
        "smoothness": 3.2297397080004555e-16,
        "time": 1.077889014,
        "traj_len": 1.9047366321480814,
        "weighted_distance": 2.394011858588234
    },
    "planner": "ProjEST",
    "start": {
        "state": {
            "elbow_joint": 1.7527959577737207,
            "shoulder_lift_joint": -0.9740617694225068,
            "shoulder_pan_joint": -2.967991417825858,
            "wrist_1_joint": -0.759517768980727,
            "wrist_2_joint": 1.7443932448377408,
            "wrist_3_joint": -3.0840537646736568
        }
    },
    "waypoints": [
        {
            "positions": [
                -2.967991417825858,
                -0.9740617694225068,
                1.7527959577737207,
                -0.759517768980727,
                1.7443932448377408,
                -3.0840537646736568
            ]
        },
        {
            "positions": [
                -2.9424571815408607,
                -0.9416455911927835,
                1.6529110000618839,
                -0.6921078344659898,
                1.6121967103576573,
                -3.0894140872369604
            ]
        },
        {
            "positions": [
                -2.9169229452558634,
                -0.90922941296306,
                1.5530260423500468,
                -0.6246978999512527,
                1.4800001758775738,
                -3.0947744098002636
            ]
        },
        {
            "positions": [
                -2.891388708970866,
                -0.8768132347333367,
                1.45314108463821,
                -0.5572879654365155,
                1.3478036413974905,
                -3.100134732363567
            ]
        },
        {
            "positions": [
                -2.865854472685869,
                -0.8443970565036133,
                1.3532561269263732,
                -0.4898780309217783,
                1.2156071069174068,
                -3.1054950549268705
            ]
        },
        {
            "positions": [
                -2.8403202364008715,
                -0.81198087827389,
                1.2533711692145362,
                -0.42246809640704114,
                1.0834105724373235,
                -3.110855377490174
            ]
        },
        {
            "positions": [
                -2.8147860001158747,
                -0.7795647000441667,
                1.1534862115026994,
                -0.355058161892304,
                0.9512140379572401,
                -3.1162157000534774
            ]
        },
        {
            "positions": [
                -2.7892517638308774,
                -0.7471485218144432,
                1.0536012537908626,
                -0.28764822737756685,
                0.8190175034771566,
                -3.1215760226167806
            ]
        },
        {
            "positions": [
                -2.76371752754588,
                -0.7147323435847199,
                0.9537162960790256,
                -0.2202382928628296,
                0.686820968997073,
                -3.1269363451800842
            ]
        },
        {
            "positions": [
                -2.738183291260883,
                -0.6823161653549965,
                0.8538313383671887,
                -0.1528283583480925,
                0.5546244345169897,
                -3.132296667743388
            ]
        },
        {
            "positions": [
                -2.7126490549758855,
                -0.6498999871252732,
                0.7539463806553519,
                -0.08541842383335532,
                0.4224279000369062,
                -3.137656990306691
            ]
        }
    ]
}