{
    "goal": {
        "global_pose": {
            "orientation": {
                "w": 0.5084816262002911,
                "x": -0.4908360881923452,
                "y": 0.5182115481033761,
                "z": -0.48164630358495003
            },
            "position": {
                "x": 0.5540239810943604,
                "y": -0.46912469901144505,
                "z": 0.16403168439865112
            }
        },
        "name": "move_to_storage_B"
    },
    "id": "ProjEST_move_to_storage_B_88",
    "joint_names": [
        "shoulder_pan_joint",
        "shoulder_lift_joint",
        "elbow_joint",
        "wrist_1_joint",
        "wrist_2_joint",
        "wrist_3_joint"
    ],
    "metrics": {
        "cart_traj_len": 3.2608975810835164,
        "distance_elbow_joint": 3.0386552911440714,
        "distance_shoulder_lift_joint": 0.4611371602726908,
        "distance_shoulder_pan_joint": 2.9123753821500418,
        "distance_wrist_1_joint": 3.004313640963808,
        "distance_wrist_2_joint": 2.699234871155506,
        "distance_wrist_3_joint": 3.129758782414778,
        "smoothness": 0.30948927179625096,
        "time": 0.103731288,
        "traj_len": 3.9045454444917023,
        "weighted_distance": 5.216180710543853
    },
    "planner": "ProjEST",
    "start": {
        "state": {
            "elbow_joint": 1.664937868594044,
            "shoulder_lift_joint": -0.661644460510453,
            "shoulder_pan_joint": -0.9139846352900073,
            "wrist_1_joint": 2.146753192139373,
            "wrist_2_joint": -2.2341966793290973,
            "wrist_3_joint": 0.005466555786416001
        }
    },
    "waypoints": [
        {
            "positions": [
                -0.9139846352900073,
                -0.661644460510453,
                1.664937868594044,
                2.146753192139373,
                -2.2341966793290973,
                0.005466555786416001
            ]
        },
        {
            "positions": [
                -0.8336855226263333,
                -0.6887573696727332,
                1.5859838989467532,
                2.0668100708840065,
                -2.1363282748262677,
                -0.004683061261077274
            ]
        },
        {
            "positions": [
                -0.7533864099626594,
                -0.7158702788350133,
                1.5070299292994624,
                1.9868669496286393,
                -2.0384598703234382,
                -0.01483267830857055
            ]
        },
        {
            "positions": [
                -0.6730872972989854,
                -0.7429831879972935,
                1.4280759596521715,
                1.9069238283732726,
                -1.9405914658206087,
                -0.02498229535606383
            ]
        },
        {
            "positions": [
                -0.5927881846353116,
                -0.7700960971595736,
                1.3491219900048808,
                1.8269807071179056,
                -1.8427230613177792,
                -0.0351319124035571
            ]
        },
        {
            "positions": [
                -0.5124890719716375,
                -0.7972090063218539,
                1.27016802035759,
                1.7470375858625387,
                -1.7448546568149494,
                -0.04528152945105038
            ]
        },
        {
            "positions": [
                -0.43218995930796356,
                -0.824321915484134,
                1.1912140507102993,
                1.6670944646071717,
                -1.64698625231212,
                -0.05543114649854366
            ]
        },
        {
            "positions": [
                -0.3518908466442897,
                -0.8514348246464142,
                1.1122600810630086,
                1.5871513433518047,
                -1.5491178478092906,
                -0.06558076354603692
            ]
        },
        {
            "positions": [
                -0.27159173398061576,
                -0.8785477338086943,
                1.0333061114157176,
                1.507208222096438,
                -1.4512494433064609,
                -0.0757303805935302
            ]
        },
        {
            "positions": [
                -0.1912926213169417,
                -0.9056606429709745,
                0.954352141768427,
                1.4272651008410708,
                -1.3533810388036314,
                -0.08587999764102348
            ]
        },
        {
            "positions": [
                -0.11099350865326774,
                -0.9327735521332547,
                0.8753981721211361,
                1.347321979585704,
                -1.2555126343008016,
                -0.09602961468851676
            ]
        },
        {
            "positions": [
                -0.03069439598959378,
                -0.9598864612955349,
                0.7964442024738454,
                1.267378858330337,
                -1.157644229797972,
                -0.10617923173601003
            ]
        },
        {
            "positions": [
                0.049604716674080174,
                -0.986999370457815,
                0.7174902328265546,
                1.1874357370749702,
                -1.0597758252951426,
                -0.11632884878350332
            ]
        },
        {
            "positions": [
                0.12990382933775402,
                -1.0141122796200952,
                0.6385362631792639,
                1.1074926158196035,
                -0.9619074207923133,
                -0.12647846583099656
            ]
        },
        {
            "positions": [
                0.21020294200142786,
                -1.0412251887823754,
                0.5595822935319732,
                1.0275494945642365,
                -0.8640390162894838,
                -0.13662808287848985
            ]
        },
        {
            "positions": [
                0.2905020546651019,
                -1.0683380979446555,
                0.48062832388468246,
                0.9476063733088695,
                -0.766170611786654,
                -0.14677769992598313
            ]
        },
        {
            "positions": [
                0.37080116732877577,
                -1.0954510071069357,
                0.4016743542373915,
                0.8676632520535026,
                -0.6683022072838245,
                -0.1569273169734764
            ]
        },
        {
            "positions": [
                0.4511002799924498,
                -1.1225639162692158,
                0.3227203845901007,
                0.7877201307981357,
                -0.570433802780995,
                -0.16707693402096968
            ]
        },
        {
            "positions": [
                0.3838267814329896,
                -1.122573381682865,
                0.39647855011793237,
                0.7161861925536761,
                -0.5254132812763253,
                -0.2956515119604215
            ]
        },
        {
            "positions": [
                0.3165532828735294,
                -1.1225828470965138,
                0.4702367156457641,
                0.6446522543092165,
                -0.4803927597716554,
                -0.42422608989987337
            ]
        },
        {
            "positions": [
                0.24927978431406922,
                -1.122592312510163,
                0.5439948811735957,
                0.5731183160647568,
                -0.4353722382669857,
                -0.5528006678393251
            ]
        },
        {
            "positions": [
                0.18200628575460903,
                -1.122601777923812,
                0.6177530467014274,
                0.5015843778202972,
                -0.39035171676231584,
                -0.6813752457787771
            ]
        },
        {
            "positions": [
                0.11473278719514884,
                -1.122611243337461,
                0.691511212229259,
                0.43005043957583755,
                -0.3453311952576461,
                -0.8099498237182289
            ]
        },
        {
            "positions": [
                0.04745928863568866,
                -1.12262070875111,
                0.7652693777570907,
                0.3585165013313779,
                -0.3003106737529763,
                -0.9385244016576807
            ]
        },
        {
            "positions": [
                -0.019814209923771586,
                -1.122630174164759,
                0.8390275432849224,
                0.28698256308691816,
                -0.25529015224830653,
                -1.0670989795971326
            ]
        },
        {
            "positions": [
                -0.08708770848323172,
                -1.1226396395784082,
                0.912785708812754,
                0.21544862484245864,
                -0.21026963074363675,
                -1.1956735575365844
            ]
        },
        {
            "positions": [
                -0.15436120704269202,
                -1.1226491049920573,
                0.9865438743405857,
                0.1439146865979989,
                -0.16524910923896696,
                -1.3242481354760363
            ]
        },
        {
            "positions": [
                -0.2216347056021521,
                -1.1226585704057062,
                1.0603020398684173,
                0.07238074835353936,
                -0.12022858773429723,
                -1.452822713415488
            ]
        },
        {
            "positions": [
                -0.2889082041616124,
                -1.1226680358193553,
                1.134060205396249,
                0.0008468101090796099,
                -0.07520806622962739,
                -1.58139729135494
            ]
        },
        {
            "positions": [
                -0.35618170272107247,
                -1.1226775012330044,
                1.2078183709240806,
                -0.07068712813537992,
                -0.03018754472495766,
                -1.7099718692943917
            ]
        },
        {
            "positions": [
                -0.42345520128053266,
                -1.1226869666466535,
                1.2815765364519123,
                -0.14222106637983956,
                0.01483297677971207,
                -1.8385464472338435
            ]
        },
        {
            "positions": [
                -0.49072869983999295,
                -1.1226964320603023,
                1.3553347019797441,
                -0.21375500462429942,
                0.05985349828438191,
                -1.9671210251732956
            ]
        },
        {
            "positions": [
                -0.5580021983994532,
                -1.1227058974739514,
                1.4290928675075758,
                -0.28528894286875894,
                0.10487401978905175,
                -2.0956956031127474
            ]
        },
        {
            "positions": [
                -0.6252756969589133,
                -1.1227153628876005,
                1.5028510330354075,
                -0.35682288111321847,
                0.14989454129372148,
                -2.224270181052199
            ]
        },
        {
            "positions": [
                -0.6925491955183736,
                -1.1227248283012496,
                1.576609198563239,
                -0.4283568193576782,
                0.19491506279839121,
                -2.3528447589916506
            ]
        },
        {
            "positions": [
                -0.7598226940778339,
                -1.1227342937148985,
                1.6503673640910708,
                -0.49989075760213797,
                0.23993558430306106,
                -2.481419336931103
            ]
        },
        {
            "positions": [
                -0.827096192637294,
                -1.1227437591285476,
                1.7241255296189024,
                -0.5714246958465975,
                0.2849561058077308,
                -2.6099939148705547
            ]
        },
        {
            "positions": [
                -0.894369691196754,
                -1.1227532245421967,
                1.797883695146734,
                -0.642958634091057,
                0.3299766273124005,
                -2.7385684928100065
            ]
        },
        {
            "positions": [
                -0.9616431897562143,
                -1.1227626899558458,
                1.8716418606745657,
                -0.7144925723355168,
                0.37499714881707036,
                -2.8671430707494583
            ]
        },
        {
            "positions": [
                -1.0289166883156746,
                -1.1227721553694947,
                1.9454000262023974,
                -0.7860265105799765,
                0.4200176703217402,
                -2.99571764868891
            ]
        },
        {
            "positions": [
                -1.0961901868751347,
                -1.1227816207831438,
                2.019158191730229,
                -0.8575604488244362,
                0.4650381918264099,
                -3.124292226628362
            ]
        }
    ]
}