{
    "goal": {
        "global_pose": {
            "orientation": {
                "w": 0.7047431468963623,
                "x": -0.7094548344612122,
                "y": 0.0024358443915843964,
                "z": -0.0022348060738295317
            },
            "position": {
                "x": 0.6094750761985779,
                "y": 0.3671506643295288,
                "z": 0.19426114857196808
            }
        },
        "name": "move_to_magneteinheit_A"
    },
    "id": "ProjEST_move_to_magneteinheit_A_11",
    "joint_names": [
        "shoulder_pan_joint",
        "shoulder_lift_joint",
        "elbow_joint",
        "wrist_1_joint",
        "wrist_2_joint",
        "wrist_3_joint"
    ],
    "metrics": {
        "cart_traj_len": 3.8607361927468786,
        "distance_elbow_joint": 3.9100785894214596,
        "distance_shoulder_lift_joint": 1.497809122425894,
        "distance_shoulder_pan_joint": 3.030245807400681,
        "distance_wrist_1_joint": 3.462325335893474,
        "distance_wrist_2_joint": 1.4446332549913274,
        "distance_wrist_3_joint": 0.5955926893049512,
        "smoothness": 0.14485617362714517,
        "time": 0.114137813,
        "traj_len": 3.733722646292543,
        "weighted_distance": 4.476475038345739
    },
    "planner": "ProjEST",
    "start": {
        "state": {
            "elbow_joint": -1.9196185241190666,
            "shoulder_lift_joint": -1.2443396400964142,
            "shoulder_pan_joint": 2.6996025414629847,
            "wrist_1_joint": -1.5485510000780065,
            "wrist_2_joint": -1.5709468930060704,
            "wrist_3_joint": 0.4420197071253992
        }
    },
    "waypoints": [
        {
            "positions": [
                2.6996025414629847,
                -1.2443396400964142,
                -1.9196185241190666,
                -1.5485510000780065,
                -1.5709468930060704,
                0.4420197071253992
            ]
        },
        {
            "positions": [
                2.529026781167927,
                -1.2786985673967515,
                -1.8660882188923484,
                -1.474444229664208,
                -1.5231626843071855,
                0.4262063844213036
            ]
        },
        {
            "positions": [
                2.358451020872869,
                -1.3130574946970888,
                -1.8125579136656305,
                -1.4003374592504094,
                -1.4753784756083004,
                0.410393061717208
            ]
        },
        {
            "positions": [
                2.187875260577811,
                -1.347416421997426,
                -1.7590276084389123,
                -1.3262306888366109,
                -1.4275942669094155,
                0.3945797390131125
            ]
        },
        {
            "positions": [
                2.017299500282753,
                -1.3817753492977634,
                -1.705497303212194,
                -1.2521239184228123,
                -1.3798100582105306,
                0.3787664163090169
            ]
        },
        {
            "positions": [
                1.8467237399876952,
                -1.4161342765981009,
                -1.6519669979854759,
                -1.1780171480090138,
                -1.3320258495116455,
                0.36295309360492134
            ]
        },
        {
            "positions": [
                1.6761479796926373,
                -1.4504932038984382,
                -1.5984366927587579,
                -1.1039103775952153,
                -1.2842416408127606,
                0.34713977090082576
            ]
        },
        {
            "positions": [
                1.5055722193975793,
                -1.4848521311987755,
                -1.5449063875320397,
                -1.0298036071814167,
                -1.2364574321138757,
                0.3313264481967302
            ]
        },
        {
            "positions": [
                1.3349964591025214,
                -1.5192110584991128,
                -1.4913760823053215,
                -0.9556968367676182,
                -1.1886732234149906,
                0.31551312549263466
            ]
        },
        {
            "positions": [
                1.1644206988074635,
                -1.55356998579945,
                -1.4378457770786035,
                -0.8815900663538196,
                -1.1408890147161057,
                0.2996998027885391
            ]
        },
        {
            "positions": [
                0.9938449385124057,
                -1.5879289130997873,
                -1.3843154718518853,
                -0.8074832959400211,
                -1.0931048060172208,
                0.2838864800844435
            ]
        },
        {
            "positions": [
                0.8232691782173478,
                -1.6222878404001246,
                -1.330785166625167,
                -0.7333765255262227,
                -1.045320597318336,
                0.268073157380348
            ]
        },
        {
            "positions": [
                0.6526934179222899,
                -1.6566467677004622,
                -1.277254861398449,
                -0.659269755112424,
                -0.9975363886194508,
                0.25225983467625235
            ]
        },
        {
            "positions": [
                0.4821176576272319,
                -1.6910056950007994,
                -1.2237245561717307,
                -0.5851629846986255,
                -0.9497521799205658,
                0.2364465119721568
            ]
        },
        {
            "positions": [
                0.31154189733217397,
                -1.7253646223011367,
                -1.1701942509450127,
                -0.511056214284827,
                -0.9019679712216809,
                0.22063318926806122
            ]
        },
        {
            "positions": [
                0.1409661370371162,
                -1.759723549601474,
                -1.1166639457182945,
                -0.4369494438710283,
                -0.8541837625227959,
                0.20481986656396567
            ]
        },
        {
            "positions": [
                0.12735487363093623,
                -1.714772083847536,
                -0.9655797458329684,
                -0.31646650786785085,
                -0.8166147634673427,
                0.18954783203280198
            ]
        },
        {
            "positions": [
                0.11374361022475624,
                -1.6698206180935977,
                -0.8144955459476422,
                -0.19598357186467338,
                -0.7790457644118896,
                0.17427579750163832
            ]
        },
        {
            "positions": [
                0.10013234681857626,
                -1.6248691523396597,
                -0.6634113460623161,
                -0.07550063586149591,
                -0.7414767653564364,
                0.15900376297047464
            ]
        },
        {
            "positions": [
                0.08652108341239628,
                -1.5799176865857214,
                -0.5123271461769899,
                0.04498230014168153,
                -0.7039077663009832,
                0.14373172843931098
            ]
        },
        {
            "positions": [
                0.0729098200062163,
                -1.5349662208317834,
                -0.36124294629166365,
                0.16546523614485908,
                -0.66633876724553,
                0.12845969390814727
            ]
        },
        {
            "positions": [
                0.05929855660003633,
                -1.490014755077845,
                -0.21015874640633758,
                0.2859481721480365,
                -0.6287697681900768,
                0.11318765937698361
            ]
        },
        {
            "positions": [
                0.04568729319385635,
                -1.445063289323907,
                -0.059074546521011406,
                0.40643110815121397,
                -0.5912007691346236,
                0.09791562484581993
            ]
        },
        {
            "positions": [
                0.032076029787676374,
                -1.400111823569969,
                0.09200965336431466,
                0.5269140441543914,
                -0.5536317700791704,
                0.08264359031465626
            ]
        },
        {
            "positions": [
                0.018464766381496397,
                -1.3551603578160307,
                0.24309385324964095,
                0.6473969801575689,
                -0.5160627710237172,
                0.06737155578349258
            ]
        },
        {
            "positions": [
                0.0048535029753164205,
                -1.3102088920620925,
                0.39417805313496723,
                0.7678799161607465,
                -0.47849377196826404,
                0.05209952125232889
            ]
        },
        {
            "positions": [
                -0.00875776043086357,
                -1.2652574263081544,
                0.5452622530202933,
                0.8883628521639239,
                -0.4409247729128108,
                0.036827486721165203
            ]
        },
        {
            "positions": [
                -0.022369023837043533,
                -1.2203059605542164,
                0.6963464529056194,
                1.0088457881671014,
                -0.40335577385735766,
                0.021555452190001545
            ]
        },
        {
            "positions": [
                -0.0359802872432235,
                -1.175354494800278,
                0.8474306527909456,
                1.1293287241702785,
                -0.36578677480190447,
                0.006283417658837859
            ]
        },
        {
            "positions": [
                -0.04959155064940349,
                -1.1304030290463398,
                0.9985148526762717,
                1.2498116601734561,
                -0.3282177757464513,
                -0.0089886168723258
            ]
        },
        {
            "positions": [
                -0.06320281405558348,
                -1.0854515632924018,
                1.1495990525615982,
                1.3702945961766337,
                -0.2906487766909981,
                -0.024260651403489486
            ]
        },
        {
            "positions": [
                -0.07681407746176344,
                -1.0405000975384637,
                1.3006832524469238,
                1.490777532179811,
                -0.2530797776355449,
                -0.039532685934653145
            ]
        },
        {
            "positions": [
                -0.0904253408679434,
                -0.9955486317845256,
                1.4517674523322504,
                1.6112604681829885,
                -0.2155107785800917,
                -0.05480472046581686
            ]
        },
        {
            "positions": [
                -0.1040366042741234,
                -0.9505971660305874,
                1.6028516522175762,
                1.7317434041861661,
                -0.17794177952463858,
                -0.07007675499698054
            ]
        },
        {
            "positions": [
                -0.02850105038626631,
                -0.892830889580605,
                1.7320544565791818,
                1.7924203813959334,
                -0.16073239902134007,
                -0.0422446792694567
            ]
        },
        {
            "positions": [
                0.047034503501590774,
                -0.8350646131306226,
                1.8612572609407874,
                1.8530973586057005,
                -0.14352301851804158,
                -0.014412603541932849
            ]
        },
        {
            "positions": [
                0.12257005738944787,
                -0.7772983366806402,
                1.9904600653023932,
                1.9137743358154677,
                -0.12631363801474307,
                0.013419472185590997
            ]
        }
    ]
}