{
    "goal": {
        "global_pose": {
            "orientation": {
                "w": -0.00223480608172531,
                "x": 0.0024358444001904467,
                "y": 0.7094548369677653,
                "z": -0.704743149386269
            },
            "position": {
                "x": 0.6205249238014221,
                "y": -0.6371506643295288,
                "z": 0.19426114857196808
            }
        },
        "name": "move_to_magneteinheit_B"
    },
    "id": "ProjEST_move_to_magneteinheit_B_134",
    "joint_names": [
        "shoulder_pan_joint",
        "shoulder_lift_joint",
        "elbow_joint",
        "wrist_1_joint",
        "wrist_2_joint",
        "wrist_3_joint"
    ],
    "metrics": {
        "cart_traj_len": 1.5008021351959169,
        "distance_elbow_joint": 0.9763288739018665,
        "distance_shoulder_lift_joint": 0.9115127892258263,
        "distance_shoulder_pan_joint": 1.6214894547871075,
        "distance_wrist_1_joint": 0.3184586991562153,
        "distance_wrist_2_joint": 1.513746951553378,
        "distance_wrist_3_joint": 0.5679041778546365,
        "smoothness": 0.4216636889174026,
        "time": 0.04869915,
        "traj_len": 2.4309341715643042,
        "weighted_distance": 2.9795058236052996
    },
    "planner": "ProjEST",
    "start": {
        "state": {
            "elbow_joint": 2.6216224122426386,
            "shoulder_lift_joint": -1.4174107377796124,
            "shoulder_pan_joint": 0.7066234856936794,
            "wrist_1_joint": 1.9546482284002225,
            "wrist_2_joint": -0.7096286983471962,
            "wrist_3_joint": 0.005740856962016249
        }
    },
    "waypoints": [
        {
            "positions": [
                0.7066234856936794,
                -1.4174107377796124,
                2.6216224122426386,
                1.9546482284002225,
                -0.7096286983471962,
                0.005740856962016249
            ]
        },
        {
            "positions": [
                0.6598511313161417,
                -1.4566928548304983,
                2.627513924613753,
                1.9821006286143803,
                -0.766692063651087,
                -0.06844695838026159
            ]
        },
        {
            "positions": [
                0.6130787769386041,
                -1.4959749718813842,
                2.6334054369848676,
                2.009553028828538,
                -0.8237554289549778,
                -0.1426347737225394
            ]
        },
        {
            "positions": [
                0.49457226534271426,
                -1.449469849682426,
                2.5683168129737863,
                2.026383860930669,
                -0.9365149769264832,
                -0.15347603625251655
            ]
        },
        {
            "positions": [
                0.3760657537468243,
                -1.402964727483468,
                2.5032281889627046,
                2.0432146930327995,
                -1.0492745248979887,
                -0.16431729878249368
            ]
        },
        {
            "positions": [
                0.2575592421509344,
                -1.35645960528451,
                2.4381395649516233,
                2.06004552513493,
                -1.1620340728694942,
                -0.17515856131247082
            ]
        },
        {
            "positions": [
                0.13905273055504452,
                -1.3099544830855518,
                2.373050940940542,
                2.0768763572370608,
                -1.2747936208409996,
                -0.18599982384244795
            ]
        },
        {
            "positions": [
                0.02054621895915454,
                -1.2634493608865938,
                2.3079623169294603,
                2.0937071893391916,
                -1.3875531688125051,
                -0.1968410863724251
            ]
        },
        {
            "positions": [
                -0.09796029263673534,
                -1.2169442386876357,
                2.242873692918379,
                2.110538021441322,
                -1.5003127167840105,
                -0.20768234890240223
            ]
        },
        {
            "positions": [
                -0.21646680423262532,
                -1.1704391164886776,
                2.1777850689072977,
                2.127368853543453,
                -1.613072264755516,
                -0.21852361143237936
            ]
        },
        {
            "positions": [
                -0.3349733158285151,
                -1.1239339942897195,
                2.1126964448962164,
                2.1441996856455834,
                -1.7258318127270216,
                -0.2293648739623565
            ]
        },
        {
            "positions": [
                -0.45347982742440496,
                -1.0774288720907614,
                2.047607820885135,
                2.1610305177477143,
                -1.838591360698527,
                -0.24020613649233363
            ]
        },
        {
            "positions": [
                -0.571986339020295,
                -1.0309237498918034,
                1.9825191968740534,
                2.1778613498498447,
                -1.9513509086700325,
                -0.25104739902231077
            ]
        },
        {
            "positions": [
                -0.6904928506161849,
                -0.9844186276928453,
                1.9174305728629721,
                2.194692181951975,
                -2.064110456641538,
                -0.2618886615522879
            ]
        },
        {
            "positions": [
                -0.8089993622120747,
                -0.9379135054938872,
                1.8523419488518906,
                2.211523014054106,
                -2.1768700046130434,
                -0.27272992408226504
            ]
        },
        {
            "positions": [
                -0.8442882311725258,
                -0.8462844759150346,
                1.7911811618430038,
                2.1909950428866622,
                -2.1923718863755535,
                -0.17625212514547994
            ]
        },
        {
            "positions": [
                -0.879577100132977,
                -0.7546554463361822,
                1.730020374834117,
                2.170467071719218,
                -2.207873768138064,
                -0.07977432620869485
            ]
        },
        {
            "positions": [
                -0.9148659690934281,
                -0.6630264167573297,
                1.6688595878252301,
                2.1499391005517743,
                -2.223375649900574,
                0.016703472728090238
            ]
        }
    ]
}