{
    "goal": {
        "global_pose": {
            "orientation": {
                "w": 0.7031023480610252,
                "x": -0.7110244013736278,
                "y": 0.0077485991402295624,
                "z": 0.005598929693374583
            },
            "position": {
                "x": -0.8841497679147869,
                "y": 0.44412534475326537,
                "z": 0.3711530566215515
            }
        },
        "name": "move_to_auspresseinheit_D"
    },
    "id": "ProjEST_move_to_auspresseinheit_D_75",
    "joint_names": [
        "shoulder_pan_joint",
        "shoulder_lift_joint",
        "elbow_joint",
        "wrist_1_joint",
        "wrist_2_joint",
        "wrist_3_joint"
    ],
    "metrics": {
        "cart_traj_len": 0.34446413445346735,
        "distance_elbow_joint": 0.6553816658575096,
        "distance_shoulder_lift_joint": 0.13117296294155434,
        "distance_shoulder_pan_joint": 0.1346225513562641,
        "distance_wrist_1_joint": 0.5767617767022575,
        "distance_wrist_2_joint": 1.4447870371818596,
        "distance_wrist_3_joint": 0.0409629456216547,
        "smoothness": 0.0,
        "time": 0.074888427,
        "traj_len": 1.7273357923869637,
        "weighted_distance": 2.2554741507693072
    },
    "planner": "ProjEST",
    "start": {
        "state": {
            "elbow_joint": -1.8275523626775212,
            "shoulder_lift_joint": -2.126789852344167,
            "shoulder_pan_joint": -0.03513704404078235,
            "wrist_1_joint": -2.347782403156801,
            "wrist_2_joint": -1.6058999987535132,
            "wrist_3_joint": -3.0880379163319196
        }
    },
    "waypoints": [
        {
            "positions": [
                -0.03513704404078235,
                -2.126789852344167,
                -1.8275523626775212,
                -2.347782403156801,
                -1.6058999987535132,
                -3.0880379163319196
            ]
        },
        {
            "positions": [
                -0.05196486296031536,
                -2.1431864727118612,
                -1.7456296544453325,
                -2.419877625244583,
                -1.4253016191057808,
                -3.082917548129213
            ]
        },
        {
            "positions": [
                -0.06879268187984838,
                -2.159583093079555,
                -1.6637069462131437,
                -2.4919728473323652,
                -1.2447032394580484,
                -3.077797179926506
            ]
        },
        {
            "positions": [
                -0.08562050079938138,
                -2.1759797134472496,
                -1.581784237980955,
                -2.5640680694201476,
                -1.0641048598103158,
                -3.0726768117237993
            ]
        },
        {
            "positions": [
                -0.10244831971891441,
                -2.192376333814944,
                -1.4998615297487663,
                -2.6361632915079296,
                -0.8835064801625834,
                -3.0675564435210925
            ]
        },
        {
            "positions": [
                -0.11927613863844741,
                -2.2087729541826384,
                -1.4179388215165778,
                -2.7082585135957116,
                -0.702908100514851,
                -3.0624360753183852
            ]
        },
        {
            "positions": [
                -0.13610395755798044,
                -2.225169574550333,
                -1.336016113284389,
                -2.780353735683494,
                -0.5223097208671184,
                -3.0573157071156785
            ]
        },
        {
            "positions": [
                -0.15293177647751344,
                -2.2415661949180268,
                -1.2540934050522003,
                -2.8524489577712764,
                -0.34171134121938596,
                -3.0521953389129717
            ]
        },
        {
            "positions": [
                -0.16975959539704646,
                -2.257962815285721,
                -1.1721706968200116,
                -2.9245441798590583,
                -0.16111296157165356,
                -3.047074970710265
            ]
        }
    ]
}