{
    "goal": {
        "global_pose": {
            "orientation": {
                "w": 0.5084816217422485,
                "x": -0.49083608388900757,
                "y": 0.5182115435600281,
                "z": -0.4816462993621826
            },
            "position": {
                "x": 0.5540239810943604,
                "y": 0.030875300988554955,
                "z": 0.16403168439865112
            }
        },
        "name": "move_to_storage_A"
    },
    "id": "ProjEST_move_to_storage_A_124",
    "joint_names": [
        "shoulder_pan_joint",
        "shoulder_lift_joint",
        "elbow_joint",
        "wrist_1_joint",
        "wrist_2_joint",
        "wrist_3_joint"
    ],
    "metrics": {
        "cart_traj_len": 0.3526733715205185,
        "distance_elbow_joint": 0.4542042117343026,
        "distance_shoulder_lift_joint": 0.2349249124284447,
        "distance_shoulder_pan_joint": 0.4610243234826504,
        "distance_wrist_1_joint": 0.2594397762929782,
        "distance_wrist_2_joint": 1.099420982714104,
        "distance_wrist_3_joint": 0.1092834975945216,
        "smoothness": 1.4432899335161698e-15,
        "time": 0.104501194,
        "traj_len": 1.6181154792680903,
        "weighted_distance": 2.048347006354911
    },
    "planner": "ProjEST",
    "start": {
        "state": {
            "elbow_joint": 1.971548259319323,
            "shoulder_lift_joint": -1.1394851275133948,
            "shoulder_pan_joint": 0.1228115487234821,
            "wrist_1_joint": -0.7804723859257726,
            "wrist_2_joint": 0.12958671773740124,
            "wrist_3_joint": -3.192489227718131
        }
    },
    "waypoints": [
        {
            "positions": [
                0.1228115487234821,
                -1.1394851275133948,
                1.971548259319323,
                -0.7804723859257726,
                0.12958671773740124,
                -3.192489227718131
            ]
        },
        {
            "positions": [
                0.05695093108310348,
                -1.173045829288887,
                2.0364345752813664,
                -0.8175352111104838,
                0.28664685812513035,
                -3.1768772994903425
            ]
        },
        {
            "positions": [
                -0.008909686557275143,
                -1.206606531064379,
                2.1013208912434096,
                -0.8545980362951949,
                0.44370699851285944,
                -3.1612653712625534
            ]
        },
        {
            "positions": [
                -0.07477030419765376,
                -1.2401672328398712,
                2.166207207205453,
                -0.8916608614799061,
                0.6007671389005886,
                -3.1456534430347647
            ]
        },
        {
            "positions": [
                -0.14063092183803239,
                -1.2737279346153632,
                2.231093523167496,
                -0.9287236866646174,
                0.7578272792883177,
                -3.130041514806976
            ]
        },
        {
            "positions": [
                -0.20649153947841103,
                -1.3072886363908554,
                2.295979839129539,
                -0.9657865118493285,
                0.9148874196760469,
                -3.1144295865791873
            ]
        },
        {
            "positions": [
                -0.27235215711878963,
                -1.3408493381663473,
                2.3608661550915824,
                -1.0028493370340397,
                1.071947560063776,
                -3.098817658351398
            ]
        },
        {
            "positions": [
                -0.3382127747591683,
                -1.3744100399418395,
                2.4257524710536256,
                -1.0399121622187508,
                1.2290077004515052,
                -3.0832057301236095
            ]
        }
    ]
}{
    "goal": {
        "global_pose": {
            "orientation": {
                "w": 0.5084816217422485,
                "x": -0.49083608388900757,
                "y": 0.5182115435600281,
                "z": -0.4816462993621826
            },
            "position": {
                "x": 0.5540239810943604,
                "y": 0.030875300988554955,
                "z": 0.16403168439865112
            }
        },
        "name": "move_to_storage_A"
    },
    "id": "ProjEST_move_to_storage_A_124",
    "joint_names": [
        "shoulder_pan_joint",
        "shoulder_lift_joint",
        "elbow_joint",
        "wrist_1_joint",
        "wrist_2_joint",
        "wrist_3_joint"
    ],
    "metrics": {
        "cart_traj_len": 0.3523532781152684,
        "distance_elbow_joint": 0.4499470389095692,
        "distance_shoulder_lift_joint": 0.23396900572930468,
        "distance_shoulder_pan_joint": 0.4563895253800841,
        "distance_wrist_1_joint": 0.24638706663488352,
        "distance_wrist_2_joint": 1.1157776739460608,
        "distance_wrist_3_joint": 0.10031079231378337,
        "smoothness": 0.0,
        "time": 0.015590198999999999,
        "traj_len": 1.6133137025742035,
        "weighted_distance": 2.0409721772043334
    },
    "planner": "ProjEST",
    "start": {
        "state": {
            "elbow_joint": 1.97154746011099,
            "shoulder_lift_joint": -1.13948474672311,
            "shoulder_pan_joint": 0.12281154466712228,
            "wrist_1_joint": -0.7804688027058302,
            "wrist_2_joint": 0.12958655903071145,
            "wrist_3_joint": 3.0906928834467795
        }
    },
    "waypoints": [
        {
            "positions": [
                0.12281154466712228,
                -1.13948474672311,
                1.97154746011099,
                -0.7804688027058302,
                0.12958655903071145,
                3.0906928834467795
            ]
        },
        {
            "positions": [
                0.05761304104139599,
                -1.1729088903987248,
                2.035825608526643,
                -0.8156669550822421,
                0.2889833695944344,
                3.105022996634463
            ]
        },
        {
            "positions": [
                -0.0075854625843303075,
                -1.20633303407434,
                2.1001037569422953,
                -0.8508651074586541,
                0.4483801801581574,
                3.1193531098221463
            ]
        },
        {
            "positions": [
                -0.0727839662100566,
                -1.2397571777499548,
                2.1643819053579483,
                -0.886063259835066,
                0.6077769907218803,
                3.1336832230098297
            ]
        },
        {
            "positions": [
                -0.13798246983578288,
                -1.2731813214255698,
                2.2286600537736008,
                -0.921261412211478,
                0.7671738012856033,
                3.1480133361975127
            ]
        },
        {
            "positions": [
                -0.2031809734615092,
                -1.3066054651011847,
                2.2929382021892537,
                -0.9564595645878898,
                0.9265706118493263,
                3.162343449385196
            ]
        },
        {
            "positions": [
                -0.2683794770872355,
                -1.3400296087767996,
                2.357216350604906,
                -0.9916577169643017,
                1.085967422413049,
                3.1766735625728795
            ]
        },
        {
            "positions": [
                -0.3335779807129618,
                -1.3734537524524146,
                2.421494499020559,
                -1.0268558693407137,
                1.2453642329767722,
                3.191003675760563
            ]
        }
    ]
}{
    "goal": {
        "global_pose": {
            "orientation": {
                "w": 0.5084816217422485,
                "x": -0.49083608388900757,
                "y": 0.5182115435600281,
                "z": -0.4816462993621826
            },
            "position": {
                "x": 0.5540239810943604,
                "y": 0.030875300988554955,
                "z": 0.16403168439865112
            }
        },
        "name": "move_to_storage_A"
    },
    "id": "ProjEST_move_to_storage_A_124",
    "joint_names": [
        "shoulder_pan_joint",
        "shoulder_lift_joint",
        "elbow_joint",
        "wrist_1_joint",
        "wrist_2_joint",
        "wrist_3_joint"
    ],
    "metrics": {
        "cart_traj_len": 0.3531747766171561,
        "distance_elbow_joint": 0.4480299482847303,
        "distance_shoulder_lift_joint": 0.23572302095286513,
        "distance_shoulder_pan_joint": 0.4634979227944018,
        "distance_wrist_1_joint": 0.2346004678067546,
        "distance_wrist_2_joint": 1.0920237627781144,
        "distance_wrist_3_joint": 0.10010509986374982,
        "smoothness": 8.881784232165597e-16,
        "time": 0.096272837,
        "traj_len": 1.6043628711986,
        "weighted_distance": 2.0250468273086883
    },
    "planner": "ProjEST",
    "start": {
        "state": {
            "elbow_joint": 1.9715472970024885,
            "shoulder_lift_joint": -1.1394870060712896,
            "shoulder_pan_joint": 0.12281152778156021,
            "wrist_1_joint": -0.780463741449964,
            "wrist_2_joint": 0.12958659822042276,
            "wrist_3_joint": 3.090690232415272
        }
    },
    "waypoints": [
        {
            "positions": [
                0.12281152778156021,
                -1.1394870060712896,
                1.9715472970024885,
                -0.780463741449964,
                0.12958659822042276,
                3.090690232415272
            ]
        },
        {
            "positions": [
                0.056597538810931394,
                -1.1731617233502702,
                2.0355515753288786,
                -0.8139780939937861,
                0.2855899929030105,
                3.104990960967236
            ]
        },
        {
            "positions": [
                -0.00961645015969742,
                -1.206836440629251,
                2.0995558536552688,
                -0.8474924465376081,
                0.4415933875855983,
                3.1192916895192004
            ]
        },
        {
            "positions": [
                -0.07583043913032622,
                -1.2405111579082317,
                2.163560131981659,
                -0.8810067990814302,
                0.597596782268186,
                3.1335924180711645
            ]
        },
        {
            "positions": [
                -0.14204442810095505,
                -1.2741858751872126,
                2.2275644103080485,
                -0.9145211516252523,
                0.7536001769507737,
                3.147893146623129
            ]
        },
        {
            "positions": [
                -0.2082584170715839,
                -1.3078605924661932,
                2.2915686886344386,
                -0.9480355041690744,
                0.9096035716333616,
                3.162193875175093
            ]
        },
        {
            "positions": [
                -0.2744724060422127,
                -1.3415353097451739,
                2.3555729669608287,
                -0.9815498567128965,
                1.0656069663159493,
                3.1764946037270576
            ]
        },
        {
            "positions": [
                -0.34068639501284154,
                -1.3752100270241547,
                2.419577245287219,
                -1.0150642092567186,
                1.2216103609985371,
                3.1907953322790217
            ]
        }
    ]
}