{
    "goal": {
        "global_pose": {
            "orientation": {
                "w": -0.00223480608172531,
                "x": 0.0024358444001904467,
                "y": 0.7094548369677653,
                "z": -0.704743149386269
            },
            "position": {
                "x": -0.37947507619857795,
                "y": -0.6371506643295288,
                "z": 0.19426114857196808
            }
        },
        "name": "move_to_magneteinheit_C"
    },
    "id": "ProjEST_move_to_magneteinheit_C_94",
    "joint_names": [
        "shoulder_pan_joint",
        "shoulder_lift_joint",
        "elbow_joint",
        "wrist_1_joint",
        "wrist_2_joint",
        "wrist_3_joint"
    ],
    "metrics": {
        "cart_traj_len": 2.8630764511895763,
        "distance_elbow_joint": 2.809164376580776,
        "distance_shoulder_lift_joint": 1.0294679484952858,
        "distance_shoulder_pan_joint": 3.188873819401498,
        "distance_wrist_1_joint": 2.8619259546730853,
        "distance_wrist_2_joint": 2.3589338680150274,
        "distance_wrist_3_joint": 5.2702961963502375,
        "smoothness": 0.9826846754391295,
        "time": 1.164628507,
        "traj_len": 4.185530093490659,
        "weighted_distance": 5.768891954171487
    },
    "planner": "ProjEST",
    "start": {
        "state": {
            "elbow_joint": 1.9565354010623817,
            "shoulder_lift_joint": -1.4165861575791021,
            "shoulder_pan_joint": -1.6717766225146293,
            "wrist_1_joint": -0.5286633292919765,
            "wrist_2_joint": 1.472756589071564,
            "wrist_3_joint": -3.1238370188695823
        }
    },
    "waypoints": [
        {
            "positions": [
                -1.6717766225146293,
                -1.4165861575791021,
                1.9565354010623817,
                -0.5286633292919765,
                1.472756589071564,
                -3.1238370188695823
            ]
        },
        {
            "positions": [
                -1.5360955134821896,
                -1.3759319765612052,
                1.9085110643646996,
                -0.496160549196215,
                1.4951846885701976,
                -3.191126939827999
            ]
        },
        {
            "positions": [
                -1.4004144044497497,
                -1.3352777955433084,
                1.8604867276670178,
                -0.46365776910045353,
                1.5176127880688313,
                -3.258416860786416
            ]
        },
        {
            "positions": [
                -1.3809467938869453,
                -1.384947069163452,
                1.8610734319774678,
                -0.4992862932904096,
                1.5123470737095208,
                -3.1047555881550517
            ]
        },
        {
            "positions": [
                -1.3614791833241406,
                -1.4346163427835954,
                1.8616601362879177,
                -0.5349148174803656,
                1.5070813593502104,
                -2.951094315523687
            ]
        },
        {
            "positions": [
                -1.3420115727613362,
                -1.484285616403739,
                1.8622468405983676,
                -0.5705433416703217,
                1.5018156449909,
                -2.797433042892323
            ]
        },
        {
            "positions": [
                -1.2454927768485546,
                -1.4761926091221211,
                1.7796728101740154,
                -0.5576986924882572,
                1.4785377670072402,
                -2.634185527260617
            ]
        },
        {
            "positions": [
                -1.1489739809357729,
                -1.4680996018405033,
                1.697098779749663,
                -0.5448540433061928,
                1.4552598890235802,
                -2.4709380116289115
            ]
        },
        {
            "positions": [
                -1.0524551850229913,
                -1.4600065945588854,
                1.6145247493253108,
                -0.5320093941241283,
                1.4319820110399204,
                -2.307690495997206
            ]
        },
        {
            "positions": [
                -0.9559363891102097,
                -1.4519135872772673,
                1.5319507189009585,
                -0.5191647449420638,
                1.4087041330562604,
                -2.1444429803655
            ]
        },
        {
            "positions": [
                -0.859417593197428,
                -1.4438205799956494,
                1.4493766884766062,
                -0.5063200957599993,
                1.3854262550726006,
                -1.9811954647337944
            ]
        },
        {
            "positions": [
                -0.7628987972846465,
                -1.4357275727140315,
                1.3668026580522539,
                -0.49347544657793485,
                1.3621483770889409,
                -1.8179479491020887
            ]
        },
        {
            "positions": [
                -0.6663800013718648,
                -1.4276345654324136,
                1.2842286276279016,
                -0.48063079739587034,
                1.3388704991052809,
                -1.654700433470383
            ]
        },
        {
            "positions": [
                -0.7423050847932727,
                -1.407702853261998,
                1.2372752870641446,
                -0.4058184565453275,
                1.249884124671947,
                -1.5869846367954437
            ]
        },
        {
            "positions": [
                -0.8182301682146806,
                -1.3877711410915823,
                1.1903219465003876,
                -0.33100611569478466,
                1.1608977502386129,
                -1.5192688401205046
            ]
        },
        {
            "positions": [
                -0.8941552516360887,
                -1.3678394289211666,
                1.1433686059366304,
                -0.2561937748442419,
                1.071911375805279,
                -1.4515530434455652
            ]
        },
        {
            "positions": [
                -0.9700803350574966,
                -1.347907716750751,
                1.0964152653728734,
                -0.18138143399369905,
                0.982925001371945,
                -1.3838372467706261
            ]
        },
        {
            "positions": [
                -1.0460054184789045,
                -1.327976004580335,
                1.0494619248091164,
                -0.10656909314315621,
                0.8939386269386111,
                -1.3161214500956868
            ]
        },
        {
            "positions": [
                -1.1219305019003125,
                -1.3080442924099194,
                1.0025085842453594,
                -0.03175675229261338,
                0.8049522525052771,
                -1.2484056534207477
            ]
        },
        {
            "positions": [
                -1.1978555853217203,
                -1.2881125802395037,
                0.9555552436816024,
                0.04305558855792946,
                0.7159658780719431,
                -1.1806898567458084
            ]
        },
        {
            "positions": [
                -1.2737806687431283,
                -1.268180868069088,
                0.9086019031178454,
                0.11786792940847224,
                0.6269795036386092,
                -1.1129740600708693
            ]
        },
        {
            "positions": [
                -1.3497057521645361,
                -1.2482491558986724,
                0.8616485625540883,
                0.19268027025901502,
                0.5379931292052752,
                -1.04525826339593
            ]
        },
        {
            "positions": [
                -1.4256308355859442,
                -1.2283174437282567,
                0.8146952219903313,
                0.2674926111095579,
                0.4490067547719413,
                -0.9775424667209909
            ]
        },
        {
            "positions": [
                -1.5015559190073522,
                -1.208385731557841,
                0.7677418814265743,
                0.3423049519601007,
                0.3600203803386074,
                -0.9098266700460517
            ]
        },
        {
            "positions": [
                -1.57748100242876,
                -1.1884540193874251,
                0.7207885408628172,
                0.4171172928106436,
                0.2710340059052734,
                -0.8421108733711123
            ]
        },
        {
            "positions": [
                -1.653406085850168,
                -1.1685223072170094,
                0.6738352002990601,
                0.49192963366118636,
                0.18204763147193925,
                -0.7743950766961731
            ]
        },
        {
            "positions": [
                -1.7293311692715758,
                -1.1485905950465938,
                0.6268818597353031,
                0.5667419745117293,
                0.09306125703860535,
                -0.7066792800212339
            ]
        },
        {
            "positions": [
                -1.8052562526929838,
                -1.128658882876178,
                0.5799285191715461,
                0.6415543153622721,
                0.004074882605271418,
                -0.6389634833462946
            ]
        },
        {
            "positions": [
                -1.868112987969437,
                -1.1574615887974682,
                0.6938430909634494,
                0.5608817343367957,
                -0.003915764970118717,
                -0.7163392011387761
            ]
        },
        {
            "positions": [
                -1.93096972324589,
                -1.1862642947187583,
                0.8077576627553527,
                0.4802091533113193,
                -0.011906412545508852,
                -0.7937149189312578
            ]
        },
        {
            "positions": [
                -1.993826458522343,
                -1.2150670006400484,
                0.921672234547256,
                0.39953657228584283,
                -0.019897060120898986,
                -0.8710906367237394
            ]
        },
        {
            "positions": [
                -2.056683193798796,
                -1.2438697065613382,
                1.0355868063391593,
                0.3188639912603664,
                -0.02788770769628912,
                -0.948466354516221
            ]
        },
        {
            "positions": [
                -2.1195399290752492,
                -1.2726724124826283,
                1.1495013781310628,
                0.23819141023488993,
                -0.03587835527167926,
                -1.0258420723087025
            ]
        },
        {
            "positions": [
                -2.1823966643517023,
                -1.3014751184039184,
                1.2634159499229658,
                0.1575188292094135,
                -0.04386900284706939,
                -1.1032177901011841
            ]
        },
        {
            "positions": [
                -2.2452533996281554,
                -1.3302778243252085,
                1.3773305217148692,
                0.076846248183937,
                -0.05185965042245953,
                -1.1805935078936658
            ]
        },
        {
            "positions": [
                -2.2916472719733285,
                -1.3431816148156042,
                1.4438678579643704,
                0.02361077615972517,
                -0.05881899492384159,
                -1.2342586258740162
            ]
        },
        {
            "positions": [
                -2.3380411443185016,
                -1.356085405306,
                1.5104051942138716,
                -0.029624695864486655,
                -0.06577833942522365,
                -1.2879237438543667
            ]
        },
        {
            "positions": [
                -2.402769881592364,
                -1.3583295657595542,
                1.593061013330007,
                -0.11421269741801661,
                -0.05428013241789343,
                -1.4100919752357577
            ]
        },
        {
            "positions": [
                -2.4674986188662267,
                -1.3605737262131081,
                1.675716832446142,
                -0.19880069897154656,
                -0.04278192541056321,
                -1.5322602066171487
            ]
        },
        {
            "positions": [
                -2.5322273561400896,
                -1.3628178866666623,
                1.7583726515622773,
                -0.2833887005250765,
                -0.03128371840323299,
                -1.6544284379985394
            ]
        },
        {
            "positions": [
                -2.596956093413952,
                -1.3650620471202162,
                1.8410284706784124,
                -0.36797670207860644,
                -0.01978551139590276,
                -1.7765966693799304
            ]
        },
        {
            "positions": [
                -2.6616848306878147,
                -1.3673062075737703,
                1.9236842897945476,
                -0.45256470363213636,
                -0.008287304388572544,
                -1.8987649007613214
            ]
        },
        {
            "positions": [
                -2.6381632845699667,
                -1.3416964941520317,
                1.9343444770700775,
                -0.5005419718677229,
                0.07586213392230919,
                -2.055822595708604
            ]
        },
        {
            "positions": [
                -2.614641738452119,
                -1.3160867807302932,
                1.9450046643456074,
                -0.5485192401033093,
                0.1600115722331909,
                -2.212880290655886
            ]
        },
        {
            "positions": [
                -2.591120192334271,
                -1.2904770673085546,
                1.9556648516211372,
                -0.5964965083388958,
                0.24416101054407263,
                -2.369937985603169
            ]
        },
        {
            "positions": [
                -2.567598646216423,
                -1.264867353886816,
                1.966325038896667,
                -0.6444737765744822,
                0.32831044885495436,
                -2.5269956805504514
            ]
        },
        {
            "positions": [
                -2.544077100098575,
                -1.2392576404650777,
                1.976985226172197,
                -0.6924510448100687,
                0.4124598871658361,
                -2.684053375497734
            ]
        },
        {
            "positions": [
                -2.520555553980727,
                -1.2136479270433391,
                1.9876454134477268,
                -0.7404283130456552,
                0.4966093254767178,
                -2.8411110704450167
            ]
        },
        {
            "positions": [
                -2.497034007862879,
                -1.1880382136216006,
                1.9983056007232567,
                -0.7884055812812416,
                0.5807587637875996,
                -2.998168765392299
            ]
        },
        {
            "positions": [
                -2.473512461745031,
                -1.162428500199862,
                2.0089657879987866,
                -0.8363828495168281,
                0.6649082020984813,
                -3.1552264603395814
            ]
        }
    ]
}