{
    "goal": {
        "global_pose": {
            "orientation": {
                "w": 0.5084816262002911,
                "x": -0.4908360881923452,
                "y": 0.5182115481033761,
                "z": -0.48164630358495003
            },
            "position": {
                "x": 0.5540239810943604,
                "y": -0.46912469901144505,
                "z": 0.16403168439865112
            }
        },
        "name": "move_to_storage_B"
    },
    "id": "ProjEST_move_to_storage_B_41",
    "joint_names": [
        "shoulder_pan_joint",
        "shoulder_lift_joint",
        "elbow_joint",
        "wrist_1_joint",
        "wrist_2_joint",
        "wrist_3_joint"
    ],
    "metrics": {
        "cart_traj_len": 3.116355503848117,
        "distance_elbow_joint": 2.96535749540507,
        "distance_shoulder_lift_joint": 0.8225047598882234,
        "distance_shoulder_pan_joint": 2.0808563040795054,
        "distance_wrist_1_joint": 2.981869554131049,
        "distance_wrist_2_joint": 2.7078155687491456,
        "distance_wrist_3_joint": 3.5471456240748482,
        "smoothness": 0.37433417161930876,
        "time": 0.131676558,
        "traj_len": 3.8865858161537927,
        "weighted_distance": 5.281053462838427
    },
    "planner": "ProjEST",
    "start": {
        "state": {
            "elbow_joint": 1.664937868594044,
            "shoulder_lift_joint": -0.661644460510453,
            "shoulder_pan_joint": -0.9139846352900073,
            "wrist_1_joint": 2.146753192139373,
            "wrist_2_joint": -2.2341966793290973,
            "wrist_3_joint": 0.005466555786416001
        }
    },
    "waypoints": [
        {
            "positions": [
                -0.9139846352900073,
                -0.661644460510453,
                1.664937868594044,
                2.146753192139373,
                -2.2341966793290973,
                0.005466555786416001
            ]
        },
        {
            "positions": [
                -0.8330804844857922,
                -0.6950796021013177,
                1.6319288664173306,
                2.0982616082788845,
                -2.1932492989829,
                -0.062056152797814845
            ]
        },
        {
            "positions": [
                -0.7521763336815772,
                -0.7285147436921824,
                1.5989198642406173,
                2.049770024418396,
                -2.1523019186367027,
                -0.1295788613820457
            ]
        },
        {
            "positions": [
                -0.6712721828773621,
                -0.7619498852830471,
                1.565910862063904,
                2.001278440557907,
                -2.1113545382905055,
                -0.19710156996627656
            ]
        },
        {
            "positions": [
                -0.6391178364367512,
                -0.7865371930566424,
                1.5109601924810687,
                1.8850591784290804,
                -2.012500210277174,
                -0.12996659981819692
            ]
        },
        {
            "positions": [
                -0.6069634899961402,
                -0.8111245008302378,
                1.4560095228982333,
                1.768839916300254,
                -1.9136458822638425,
                -0.06283162967011727
            ]
        },
        {
            "positions": [
                -0.5748091435555294,
                -0.8357118086038331,
                1.401058853315398,
                1.6526206541714275,
                -1.814791554250511,
                0.004303340477962353
            ]
        },
        {
            "positions": [
                -0.5426547971149184,
                -0.8602991163774284,
                1.3461081837325628,
                1.5364013920426007,
                -1.7159372262371795,
                0.07143831062604203
            ]
        },
        {
            "positions": [
                -0.5105004506743075,
                -0.8848864241510237,
                1.2911575141497273,
                1.4201821299137742,
                -1.617082898223848,
                0.13857328077412165
            ]
        },
        {
            "positions": [
                -0.47834610423369656,
                -0.9094737319246191,
                1.2362068445668921,
                1.3039628677849477,
                -1.5182285702105167,
                0.20570825092220127
            ]
        },
        {
            "positions": [
                -0.4461917577930856,
                -0.9340610396982144,
                1.1812561749840569,
                1.187743605656121,
                -1.419374242197185,
                0.2728432210702809
            ]
        },
        {
            "positions": [
                -0.4140374113524747,
                -0.9586483474718097,
                1.1263055054012217,
                1.0715243435272943,
                -1.3205199141838535,
                0.3399781912183606
            ]
        },
        {
            "positions": [
                -0.3818830649118637,
                -0.9832356552454051,
                1.0713548358183862,
                0.9553050813984678,
                -1.2216655861705221,
                0.40711316136644027
            ]
        },
        {
            "positions": [
                -0.3497287184712528,
                -1.0078229630190003,
                1.016404166235551,
                0.8390858192696413,
                -1.1228112581571907,
                0.47424813151451983
            ]
        },
        {
            "positions": [
                -0.31757437203064187,
                -1.0324102707925957,
                0.9614534966527156,
                0.7228665571408146,
                -1.0239569301438591,
                0.5413831016625995
            ]
        },
        {
            "positions": [
                -0.285420025590031,
                -1.056997578566191,
                0.9065028270698804,
                0.6066472950119881,
                -0.9251026021305278,
                0.6085180718106791
            ]
        },
        {
            "positions": [
                -0.25326567914942,
                -1.0815848863397863,
                0.8515521574870449,
                0.4904280328831614,
                -0.8262482741171961,
                0.6756530419587589
            ]
        },
        {
            "positions": [
                -0.22111133270880906,
                -1.1061721941133817,
                0.7966014879042097,
                0.3742087707543349,
                -0.7273939461038648,
                0.7427880121068384
            ]
        },
        {
            "positions": [
                -0.18895698626819818,
                -1.1307595018869772,
                0.7416508183213745,
                0.2579895086255084,
                -0.6285396180905334,
                0.8099229822549181
            ]
        },
        {
            "positions": [
                -0.15680263982758724,
                -1.1553468096605723,
                0.6867001487385391,
                0.14177024649668146,
                -0.5296852900772018,
                0.8770579524029978
            ]
        },
        {
            "positions": [
                -0.12464829338697625,
                -1.1799341174341678,
                0.6317494791557038,
                0.02555098436785519,
                -0.43083096206387017,
                0.9441929225510775
            ]
        },
        {
            "positions": [
                -0.09249394694636526,
                -1.204521425207763,
                0.5767988095728684,
                -0.09066827776097153,
                -0.33197663405053857,
                1.0113278926991571
            ]
        },
        {
            "positions": [
                -0.060339600505754376,
                -1.2291087329813584,
                0.5218481399900332,
                -0.20688753988979824,
                -0.23312230603720718,
                1.0784628628472366
            ]
        },
        {
            "positions": [
                -0.028185254065143495,
                -1.2536960407549538,
                0.466897470407198,
                -0.3231068020186245,
                -0.1342679780238758,
                1.1455978329953163
            ]
        },
        {
            "positions": [
                0.003969092375467498,
                -1.2782833485285492,
                0.4119468008243625,
                -0.4393260641474517,
                -0.035413650010544195,
                1.212732803143396
            ]
        },
        {
            "positions": [
                0.036123438816078324,
                -1.3028706563021444,
                0.3569961312415273,
                -0.5555453262762782,
                0.06344067800278722,
                1.2798677732914756
            ]
        },
        {
            "positions": [
                -0.044644291896308794,
                -1.2899221874381064,
                0.475382971102424,
                -0.5755146859702353,
                0.09273912167544868,
                1.413268355796076
            ]
        },
        {
            "positions": [
                -0.1254120226086959,
                -1.2769737185740684,
                0.5937698109633207,
                -0.5954840456641922,
                0.12203756534811012,
                1.5466689383006762
            ]
        },
        {
            "positions": [
                -0.20617975332108304,
                -1.2640252497100304,
                0.7121566508242174,
                -0.6154534053581493,
                0.1513360090207716,
                1.6800695208052765
            ]
        },
        {
            "positions": [
                -0.28694748403347015,
                -1.2510767808459924,
                0.830543490685114,
                -0.6354227650521063,
                0.18063445269343303,
                1.8134701033098768
            ]
        },
        {
            "positions": [
                -0.3677152147458573,
                -1.2381283119819544,
                0.9489303305460107,
                -0.6553921247460633,
                0.2099328963660945,
                1.946870685814477
            ]
        },
        {
            "positions": [
                -0.4484829454582444,
                -1.2251798431179164,
                1.0673171704069073,
                -0.6753614844400203,
                0.23923134003875596,
                2.0802712683190774
            ]
        },
        {
            "positions": [
                -0.5292506761706315,
                -1.2122313742538784,
                1.1857040102678043,
                -0.6953308441339774,
                0.26852978371141745,
                2.213671850823678
            ]
        },
        {
            "positions": [
                -0.6100184068830186,
                -1.1992829053898404,
                1.3040908501287007,
                -0.7153002038279344,
                0.2978282273840789,
                2.347072433328278
            ]
        },
        {
            "positions": [
                -0.6907861375954059,
                -1.1863344365258024,
                1.4224776899895977,
                -0.7352695635218914,
                0.3271266710567403,
                2.480473015832878
            ]
        },
        {
            "positions": [
                -0.7715538683077929,
                -1.1733859676617644,
                1.5408645298504942,
                -0.7552389232158485,
                0.35642511472940175,
                2.6138735983374786
            ]
        },
        {
            "positions": [
                -0.85232159902018,
                -1.1604374987977264,
                1.6592513697113909,
                -0.7752082829098055,
                0.3857235584020633,
                2.747274180842079
            ]
        },
        {
            "positions": [
                -0.9330893297325671,
                -1.1474890299336884,
                1.7776382095722876,
                -0.7951776426037626,
                0.4150220020747247,
                2.880674763346679
            ]
        },
        {
            "positions": [
                -1.0138570604449544,
                -1.1345405610696504,
                1.8960250494331843,
                -0.8151470022977196,
                0.44432044574738616,
                3.0140753458512792
            ]
        },
        {
            "positions": [
                -1.0946247911573415,
                -1.1215920922056124,
                2.014411889294081,
                -0.8351163619916766,
                0.47361888942004765,
                3.1474759283558797
            ]
        }
    ]
}