{
    "goal": {
        "global_pose": {
            "orientation": {
                "w": 0.7047431468963623,
                "x": -0.7094548344612122,
                "y": 0.0024358443915843964,
                "z": -0.0022348060738295317
            },
            "position": {
                "x": 0.6094750761985779,
                "y": 0.3671506643295288,
                "z": 0.19426114857196808
            }
        },
        "name": "move_to_magneteinheit_A"
    },
    "id": "ProjEST_move_to_magneteinheit_A_17",
    "joint_names": [
        "shoulder_pan_joint",
        "shoulder_lift_joint",
        "elbow_joint",
        "wrist_1_joint",
        "wrist_2_joint",
        "wrist_3_joint"
    ],
    "metrics": {
        "cart_traj_len": 3.3118537224175526,
        "distance_elbow_joint": 3.9088980973387413,
        "distance_shoulder_lift_joint": 0.5120976480872566,
        "distance_shoulder_pan_joint": 2.8773285279800795,
        "distance_wrist_1_joint": 0.7066257637234831,
        "distance_wrist_2_joint": 1.7093557209723147,
        "distance_wrist_3_joint": 3.5784513481857543,
        "smoothness": 0.06389516748020614,
        "time": 0.129040181,
        "traj_len": 3.6459233544175924,
        "weighted_distance": 4.781803141844605
    },
    "planner": "ProjEST",
    "start": {
        "state": {
            "elbow_joint": -1.9196185241190666,
            "shoulder_lift_joint": -1.2443396400964142,
            "shoulder_pan_joint": 2.6996025414629847,
            "wrist_1_joint": -1.5485510000780065,
            "wrist_2_joint": -1.5709468930060704,
            "wrist_3_joint": 0.4420197071253992
        }
    },
    "waypoints": [
        {
            "positions": [
                2.6996025414629847,
                -1.2443396400964142,
                -1.9196185241190666,
                -1.5485510000780065,
                -1.5709468930060704,
                0.4420197071253992
            ]
        },
        {
            "positions": [
                2.6022230941418827,
                -1.251770763254551,
                -1.8010626612916238,
                -1.5239718699599454,
                -1.525245601797315,
                0.3504677338511842
            ]
        },
        {
            "positions": [
                2.50484364682078,
                -1.2592018864126875,
                -1.682506798464181,
                -1.4993927398418843,
                -1.47954431058856,
                0.2589157605769692
            ]
        },
        {
            "positions": [
                2.407464199499678,
                -1.2666330095708243,
                -1.5639509356367383,
                -1.4748136097238231,
                -1.4338430193798046,
                0.16736378730275425
            ]
        },
        {
            "positions": [
                2.310084752178576,
                -1.2740641327289608,
                -1.4453950728092955,
                -1.450234479605762,
                -1.3881417281710493,
                0.07581181402853926
            ]
        },
        {
            "positions": [
                2.2127053048574736,
                -1.2814952558870976,
                -1.3268392099818527,
                -1.425655349487701,
                -1.342440436962294,
                -0.015740159245675733
            ]
        },
        {
            "positions": [
                2.1153258575363716,
                -1.288926379045234,
                -1.2082833471544099,
                -1.4010762193696398,
                -1.2967391457535389,
                -0.10729213251989067
            ]
        },
        {
            "positions": [
                2.0179464102152695,
                -1.2963575022033709,
                -1.089727484326967,
                -1.3764970892515787,
                -1.2510378545447836,
                -0.19884410579410572
            ]
        },
        {
            "positions": [
                1.9205669628941673,
                -1.3037886253615076,
                -0.9711716214995243,
                -1.3519179591335175,
                -1.2053365633360285,
                -0.29039607906832066
            ]
        },
        {
            "positions": [
                1.823187515573065,
                -1.3112197485196442,
                -0.8526157586720815,
                -1.3273388290154564,
                -1.159635272127273,
                -0.3819480523425357
            ]
        },
        {
            "positions": [
                1.725808068251963,
                -1.318650871677781,
                -0.7340598958446387,
                -1.3027596988973953,
                -1.1139339809185178,
                -0.47350002561675064
            ]
        },
        {
            "positions": [
                1.6284286209308607,
                -1.3260819948359175,
                -0.6155040330171959,
                -1.2781805687793342,
                -1.0682326897097625,
                -0.5650519988909656
            ]
        },
        {
            "positions": [
                1.5310491736097587,
                -1.3335131179940543,
                -0.4969481701897531,
                -1.253601438661273,
                -1.0225313985010072,
                -0.6566039721651805
            ]
        },
        {
            "positions": [
                1.4336697262886562,
                -1.3409442411521908,
                -0.37839230736231033,
                -1.229022308543212,
                -0.976830107292252,
                -0.7481559454393957
            ]
        },
        {
            "positions": [
                1.3362902789675541,
                -1.3483753643103276,
                -0.25983644453486754,
                -1.2044431784251508,
                -0.9311288160834967,
                -0.8397079187136106
            ]
        },
        {
            "positions": [
                1.238910831646452,
                -1.3558064874684643,
                -0.14128058170742475,
                -1.1798640483070897,
                -0.8854275248747415,
                -0.9312598919878255
            ]
        },
        {
            "positions": [
                1.1415313843253498,
                -1.3632376106266009,
                -0.022724718879981953,
                -1.1552849181890288,
                -0.8397262336659863,
                -1.0228118652620406
            ]
        },
        {
            "positions": [
                1.0441519370042478,
                -1.3706687337847376,
                0.09583114394746062,
                -1.1307057880709674,
                -0.794024942457231,
                -1.1143638385362555
            ]
        },
        {
            "positions": [
                0.9467724896831453,
                -1.3780998569428742,
                0.21438700677490363,
                -1.1061266579529063,
                -0.7483236512484757,
                -1.2059158118104705
            ]
        },
        {
            "positions": [
                0.849393042362043,
                -1.385530980101011,
                0.33294286960234665,
                -1.0815475278348452,
                -0.7026223600397203,
                -1.2974677850846854
            ]
        },
        {
            "positions": [
                0.752013595040941,
                -1.3929621032591477,
                0.4514987324297892,
                -1.056968397716784,
                -0.6569210688309651,
                -1.3890197583589003
            ]
        },
        {
            "positions": [
                0.6546341477198387,
                -1.4003932264172843,
                0.5700545952572322,
                -1.032389267598723,
                -0.6112197776222099,
                -1.4805717316331153
            ]
        },
        {
            "positions": [
                0.5572547003987367,
                -1.4078243495754208,
                0.6886104580846748,
                -1.007810137480662,
                -0.5655184864134546,
                -1.5721237049073302
            ]
        },
        {
            "positions": [
                0.45987525307763466,
                -1.4152554727335576,
                0.8071663209121174,
                -0.9832310073626008,
                -0.5198171952046995,
                -1.6636756781815452
            ]
        },
        {
            "positions": [
                0.3624958057565326,
                -1.4226865958916943,
                0.9257221837395604,
                -0.9586518772445397,
                -0.47411590399594417,
                -1.75522765145576
            ]
        },
        {
            "positions": [
                0.26511635843543013,
                -1.4301177190498309,
                1.0442780465670034,
                -0.9340727471264786,
                -0.42841461278718884,
                -1.8467796247299755
            ]
        },
        {
            "positions": [
                0.16773691111432765,
                -1.4375488422079676,
                1.162833909394446,
                -0.9094936170084175,
                -0.3827133215784335,
                -1.9383315980041904
            ]
        },
        {
            "positions": [
                0.0703574637932256,
                -1.4449799653661044,
                1.281389772221889,
                -0.8849144868903563,
                -0.3370120303696784,
                -2.0298835712784054
            ]
        },
        {
            "positions": [
                -0.027021983527876436,
                -1.452411088524241,
                1.3999456350493316,
                -0.8603353567722952,
                -0.2913107391609231,
                -2.1214355445526203
            ]
        },
        {
            "positions": [
                -0.009163407253525643,
                -1.4067003530220872,
                1.4953514361929965,
                -0.8574045184865695,
                -0.22382690135840438,
                -2.2800054735940205
            ]
        },
        {
            "positions": [
                0.00869516902082515,
                -1.3609896175199334,
                1.5907572373366614,
                -0.8544736802008437,
                -0.1563430635558857,
                -2.4385754026354207
            ]
        },
        {
            "positions": [
                0.026553745295175943,
                -1.3152788820177799,
                1.6861630384803261,
                -0.851542841915118,
                -0.088859225753367,
                -2.597145331676821
            ]
        },
        {
            "positions": [
                0.044412321569526736,
                -1.269568146515626,
                1.781568839623991,
                -0.8486120036293922,
                -0.021375387950848312,
                -2.755715260718221
            ]
        },
        {
            "positions": [
                0.06227089784387753,
                -1.2238574110134723,
                1.876974640767656,
                -0.8456811653436664,
                0.0461084498516704,
                -2.9142851897596214
            ]
        },
        {
            "positions": [
                0.09297645865260962,
                -1.1861211499391418,
                1.9331271069936657,
                -0.8475591298382379,
                0.09225863890895744,
                -3.025358415409988
            ]
        },
        {
            "positions": [
                0.1236820194613417,
                -1.1483848888648112,
                1.9892795732196755,
                -0.8494370943328095,
                0.13840882796624449,
                -3.136431641060355
            ]
        }
    ]
}