{
    "goal": {
        "global_pose": {
            "orientation": {
                "w": 0.7031023480610252,
                "x": -0.7110244013736278,
                "y": 0.0077485991402295624,
                "z": 0.005598929693374583
            },
            "position": {
                "x": -0.8841497679147869,
                "y": 0.44412534475326537,
                "z": 0.3711530566215515
            }
        },
        "name": "move_to_auspresseinheit_D"
    },
    "id": "ProjEST_move_to_auspresseinheit_D_16",
    "joint_names": [
        "shoulder_pan_joint",
        "shoulder_lift_joint",
        "elbow_joint",
        "wrist_1_joint",
        "wrist_2_joint",
        "wrist_3_joint"
    ],
    "metrics": {
        "cart_traj_len": 0.3432531202046448,
        "distance_elbow_joint": 0.6343515812574587,
        "distance_shoulder_lift_joint": 0.11890020880490004,
        "distance_shoulder_pan_joint": 0.13405511745711643,
        "distance_wrist_1_joint": 0.5151594190976625,
        "distance_wrist_2_joint": 1.4321619401523278,
        "distance_wrist_3_joint": 0.012485042992105733,
        "smoothness": 1.9737298371844314e-16,
        "time": 0.045509179,
        "traj_len": 1.6873391211495012,
        "weighted_distance": 2.1953142724894246
    },
    "planner": "ProjEST",
    "start": {
        "state": {
            "elbow_joint": -1.8275523626775212,
            "shoulder_lift_joint": -2.126789852344167,
            "shoulder_pan_joint": -0.03513704404078235,
            "wrist_1_joint": -2.347782403156801,
            "wrist_2_joint": -1.6058999987535132,
            "wrist_3_joint": -3.0880379163319196
        }
    },
    "waypoints": [
        {
            "positions": [
                -0.03513704404078235,
                -2.126789852344167,
                -1.8275523626775212,
                -2.347782403156801,
                -1.6058999987535132,
                -3.0880379163319196
            ]
        },
        {
            "positions": [
                -0.051893933722921906,
                -2.141652378444779,
                -1.7482584150203389,
                -2.412177330544009,
                -1.4268797562344722,
                -3.0895985467059326
            ]
        },
        {
            "positions": [
                -0.06865082340506146,
                -2.156514904545392,
                -1.6689644673631565,
                -2.4765722579312164,
                -1.2478595137154311,
                -3.091159177079946
            ]
        },
        {
            "positions": [
                -0.08540771308720102,
                -2.1713774306460043,
                -1.5896705197059742,
                -2.5409671853184244,
                -1.0688392711963903,
                -3.0927198074539595
            ]
        },
        {
            "positions": [
                -0.10216460276934056,
                -2.1862399567466166,
                -1.5103765720487918,
                -2.605362112705632,
                -0.8898190286773493,
                -3.0942804378279725
            ]
        },
        {
            "positions": [
                -0.11892149245148012,
                -2.2011024828472294,
                -1.4310826243916095,
                -2.66975704009284,
                -0.7107987861583083,
                -3.0958410682019855
            ]
        },
        {
            "positions": [
                -0.13567838213361968,
                -2.2159650089478418,
                -1.3517886767344272,
                -2.734151967480048,
                -0.5317785436392675,
                -3.097401698575999
            ]
        },
        {
            "positions": [
                -0.15243527181575922,
                -2.2308275350484545,
                -1.2724947290772448,
                -2.7985468948672554,
                -0.35275830112022644,
                -3.0989623289500123
            ]
        },
        {
            "positions": [
                -0.16919216149789879,
                -2.245690061149067,
                -1.1932007814200625,
                -2.8629418222544634,
                -0.1737380586011855,
                -3.1005229593240253
            ]
        }
    ]
}