{
    "goal": {
        "global_pose": {
            "orientation": {
                "w": 0.7047431468963623,
                "x": -0.7094548344612122,
                "y": 0.0024358443915843964,
                "z": -0.0022348060738295317
            },
            "position": {
                "x": 0.6094750761985779,
                "y": 0.3671506643295288,
                "z": 0.19426114857196808
            }
        },
        "name": "move_to_magneteinheit_A"
    },
    "id": "ProjEST_move_to_magneteinheit_A_47",
    "joint_names": [
        "shoulder_pan_joint",
        "shoulder_lift_joint",
        "elbow_joint",
        "wrist_1_joint",
        "wrist_2_joint",
        "wrist_3_joint"
    ],
    "metrics": {
        "cart_traj_len": 3.435712762915859,
        "distance_elbow_joint": 3.898131191324696,
        "distance_shoulder_lift_joint": 0.2055938411713527,
        "distance_shoulder_pan_joint": 2.686782933954486,
        "distance_wrist_1_joint": 1.2208630604576147,
        "distance_wrist_2_joint": 2.2250661663382214,
        "distance_wrist_3_joint": 3.617478971727535,
        "smoothness": 0.23442536977188172,
        "time": 0.139912077,
        "traj_len": 3.722084921784283,
        "weighted_distance": 4.953261888415028
    },
    "planner": "ProjEST",
    "start": {
        "state": {
            "elbow_joint": -1.9196185241190666,
            "shoulder_lift_joint": -1.2443396400964142,
            "shoulder_pan_joint": 2.6996025414629847,
            "wrist_1_joint": -1.5485510000780065,
            "wrist_2_joint": -1.5709468930060704,
            "wrist_3_joint": 0.4420197071253992
        }
    },
    "waypoints": [
        {
            "positions": [
                2.6996025414629847,
                -1.2443396400964142,
                -1.9196185241190666,
                -1.5485510000780065,
                -1.5709468930060704,
                0.4420197071253992
            ]
        },
        {
            "positions": [
                2.614706249775125,
                -1.2460114922705194,
                -1.8101438590490146,
                -1.5169455647161907,
                -1.5077039255569913,
                0.344562867627606
            ]
        },
        {
            "positions": [
                2.5298099580872653,
                -1.247683344444625,
                -1.7006691939789627,
                -1.4853401293543749,
                -1.4444609581079124,
                0.2471060281298128
            ]
        },
        {
            "positions": [
                2.4449136663994055,
                -1.2493551966187302,
                -1.5911945289089107,
                -1.4537346939925593,
                -1.3812179906588335,
                0.14964918863201965
            ]
        },
        {
            "positions": [
                2.3600173747115454,
                -1.2510270487928354,
                -1.4817198638388587,
                -1.4221292586307435,
                -1.3179750232097545,
                0.052192349134226435
            ]
        },
        {
            "positions": [
                2.2751210830236857,
                -1.252698900966941,
                -1.3722451987688067,
                -1.3905238232689277,
                -1.2547320557606754,
                -0.04526449036356672
            ]
        },
        {
            "positions": [
                2.190224791335826,
                -1.2543707531410462,
                -1.2627705336987547,
                -1.3589183879071118,
                -1.1914890883115965,
                -0.14272132986135988
            ]
        },
        {
            "positions": [
                2.105328499647966,
                -1.2560426053151514,
                -1.1532958686287027,
                -1.327312952545296,
                -1.1282461208625176,
                -0.24017816935915304
            ]
        },
        {
            "positions": [
                2.0204322079601065,
                -1.257714457489257,
                -1.0438212035586507,
                -1.2957075171834802,
                -1.0650031534134385,
                -0.3376350088569463
            ]
        },
        {
            "positions": [
                1.9355359162722465,
                -1.2593863096633622,
                -0.9343465384885985,
                -1.2641020818216644,
                -1.0017601859643595,
                -0.4350918483547396
            ]
        },
        {
            "positions": [
                1.8506396245843868,
                -1.2610581618374677,
                -0.8248718734185465,
                -1.2324966464598488,
                -0.9385172185152806,
                -0.5325486878525326
            ]
        },
        {
            "positions": [
                1.7657433328965269,
                -1.262730014011573,
                -0.7153972083484945,
                -1.200891211098033,
                -0.8752742510662015,
                -0.6300055273503259
            ]
        },
        {
            "positions": [
                1.6808470412086671,
                -1.2644018661856782,
                -0.6059225432784425,
                -1.1692857757362172,
                -0.8120312836171226,
                -0.7274623668481189
            ]
        },
        {
            "positions": [
                1.5959507495208074,
                -1.2660737183597837,
                -0.49644787820839054,
                -1.1376803403744014,
                -0.7487883161680435,
                -0.8249192063459122
            ]
        },
        {
            "positions": [
                1.5110544578329477,
                -1.267745570533889,
                -0.38697321313833855,
                -1.1060749050125855,
                -0.6855453487189647,
                -0.9223760458437053
            ]
        },
        {
            "positions": [
                1.4261581661450877,
                -1.2694174227079942,
                -0.27749854806828655,
                -1.0744694696507697,
                -0.6223023812698856,
                -1.0198328853414984
            ]
        },
        {
            "positions": [
                1.341261874457228,
                -1.2710892748820997,
                -0.16802388299823456,
                -1.0428640342889541,
                -0.5590594138208067,
                -1.1172897248392917
            ]
        },
        {
            "positions": [
                1.2563655827693683,
                -1.272761127056205,
                -0.058549217928182795,
                -1.0112585989271383,
                -0.49581644637172784,
                -1.214746564337085
            ]
        },
        {
            "positions": [
                1.1714692910815083,
                -1.2744329792303102,
                0.05092544714186964,
                -0.9796531635653224,
                -0.4325734789226485,
                -1.3122034038348782
            ]
        },
        {
            "positions": [
                1.0865729993936486,
                -1.2761048314044157,
                0.16040011221192163,
                -0.9480477282035067,
                -0.36933051147356966,
                -1.4096602433326715
            ]
        },
        {
            "positions": [
                1.0016767077057889,
                -1.277776683578521,
                0.2698747772819736,
                -0.916442292841691,
                -0.3060875440244908,
                -1.5071170828304643
            ]
        },
        {
            "positions": [
                0.9167804160179291,
                -1.2794485357526262,
                0.37934944235202517,
                -0.8848368574798752,
                -0.24284457657541192,
                -1.6045739223282576
            ]
        },
        {
            "positions": [
                0.831884124330069,
                -1.2811203879267317,
                0.4888241074220776,
                -0.8532314221180594,
                -0.1796016091263326,
                -1.7020307618260508
            ]
        },
        {
            "positions": [
                0.7469878326422092,
                -1.282792240100837,
                0.5982987724921296,
                -0.8216259867562435,
                -0.11635864167725374,
                -1.799487601323844
            ]
        },
        {
            "positions": [
                0.6620915409543495,
                -1.2844640922749422,
                0.7077734375621816,
                -0.7900205513944278,
                -0.05311567422817487,
                -1.896944440821637
            ]
        },
        {
            "positions": [
                0.5771952492664898,
                -1.2861359444490477,
                0.8172481026322331,
                -0.7584151160326121,
                0.010127293220903999,
                -1.9944012803194302
            ]
        },
        {
            "positions": [
                0.49229895757863007,
                -1.287807796623153,
                0.9267227677022856,
                -0.7268096806707962,
                0.07337026066998331,
                -2.0918581198172235
            ]
        },
        {
            "positions": [
                0.40740266589077034,
                -1.2894796487972584,
                1.0361974327723376,
                -0.6952042453089805,
                0.13661322811906218,
                -2.1893149593150167
            ]
        },
        {
            "positions": [
                0.3225063742029106,
                -1.2911515009713637,
                1.1456720978423895,
                -0.6635988099471647,
                0.19985619556814105,
                -2.2867717988128096
            ]
        },
        {
            "positions": [
                0.2376100825150509,
                -1.292823353145469,
                1.2551467629124415,
                -0.631993374585349,
                0.2630991630172199,
                -2.384228638310603
            ]
        },
        {
            "positions": [
                0.15271379082719072,
                -1.2944952053195744,
                1.3646214279824935,
                -0.6003879392235331,
                0.32634213046629923,
                -2.481685477808396
            ]
        },
        {
            "positions": [
                0.06781749913933108,
                -1.2961670574936797,
                1.4740960930525455,
                -0.5687825038617174,
                0.389585097915378,
                -2.5791423173061894
            ]
        },
        {
            "positions": [
                0.07881707746549771,
                -1.2654137727388621,
                1.574979407883162,
                -0.6170014167099824,
                0.3366782628320233,
                -2.698405706765379
            ]
        },
        {
            "positions": [
                0.08981665579166434,
                -1.2346604879840448,
                1.6758627227137788,
                -0.6652203295582476,
                0.28377142774866854,
                -2.817669096224568
            ]
        },
        {
            "positions": [
                0.10081623411783097,
                -1.2039072032292273,
                1.7767460375443953,
                -0.7134392424065127,
                0.23086459266531384,
                -2.9369324856837573
            ]
        },
        {
            "positions": [
                0.1118158124439976,
                -1.17315391847441,
                1.877629352375012,
                -0.7616581552547779,
                0.1779577575819591,
                -3.0561958751429463
            ]
        },
        {
            "positions": [
                0.12281539077016423,
                -1.1424006337195924,
                1.9785126672056286,
                -0.8098770681030429,
                0.12505092249860442,
                -3.175459264602136
            ]
        }
    ]
}