{
    "goal": {
        "global_pose": {
            "orientation": {
                "w": -0.4816463035849501,
                "x": 0.5182115481033762,
                "y": 0.4908360881923453,
                "z": -0.5084816262002911
            },
            "position": {
                "x": -0.8240239810943604,
                "y": 0.19912469901144506,
                "z": 0.16403168439865112
            }
        },
        "name": "move_to_storage_D"
    },
    "id": "ProjEST_move_to_storage_D_146",
    "joint_names": [
        "shoulder_pan_joint",
        "shoulder_lift_joint",
        "elbow_joint",
        "wrist_1_joint",
        "wrist_2_joint",
        "wrist_3_joint"
    ],
    "metrics": {
        "cart_traj_len": 3.7246528651007664,
        "distance_elbow_joint": 4.211621917056714,
        "distance_shoulder_lift_joint": 1.4000468735260525,
        "distance_shoulder_pan_joint": 2.813449952994195,
        "distance_wrist_1_joint": 2.274147413932319,
        "distance_wrist_2_joint": 0.8736308030102725,
        "distance_wrist_3_joint": 3.157547606512288,
        "smoothness": 0.009478466367378665,
        "time": 0.095126929,
        "traj_len": 3.838026129018905,
        "weighted_distance": 4.918670348478235
    },
    "planner": "ProjEST",
    "start": {
        "state": {
            "elbow_joint": -2.384821988534728,
            "shoulder_lift_joint": -2.2788054721415256,
            "shoulder_pan_joint": -0.1854694642142757,
            "wrist_1_joint": 1.4845938289331202,
            "wrist_2_joint": 0.17898776772866878,
            "wrist_3_joint": 0.037105688729662994
        }
    },
    "waypoints": [
        {
            "positions": [
                -0.1854694642142757,
                -2.2788054721415256,
                -2.384821988534728,
                1.4845938289331202,
                0.17898776772866878,
                0.037105688729662994
            ]
        },
        {
            "positions": [
                -0.15088326069424968,
                -2.2555553266483663,
                -2.3831187108366807,
                1.4560885271052697,
                0.18001366059514703,
                0.0613483890379053
            ]
        },
        {
            "positions": [
                -0.05443621027589035,
                -2.1986618895957646,
                -2.3267939285758517,
                1.3771171987730457,
                0.19301290232059437,
                0.14394668289125437
            ]
        },
        {
            "positions": [
                0.042010840142468975,
                -2.1417684525431633,
                -2.2704691463150226,
                1.298145870440822,
                0.20601214404604168,
                0.22654497674460344
            ]
        },
        {
            "positions": [
                0.1384578905608283,
                -2.0848750154905615,
                -2.2141443640541936,
                1.219174542108598,
                0.21901138577148901,
                0.3091432705979525
            ]
        },
        {
            "positions": [
                0.23490494097918763,
                -2.0279815784379602,
                -2.1578195817933645,
                1.140203213776374,
                0.23201062749693635,
                0.3917415644513016
            ]
        },
        {
            "positions": [
                0.33135199139754695,
                -1.9710881413853587,
                -2.1014947995325355,
                1.0612318854441503,
                0.24500986922238366,
                0.47433985830465064
            ]
        },
        {
            "positions": [
                0.4277990418159063,
                -1.9141947043327572,
                -2.0451700172717064,
                0.9822605571119264,
                0.25800911094783097,
                0.5569381521579997
            ]
        },
        {
            "positions": [
                0.5242460922342658,
                -1.8573012672801554,
                -1.9888452350108774,
                0.9032892287797024,
                0.27100835267327833,
                0.6395364460113488
            ]
        },
        {
            "positions": [
                0.620693142652625,
                -1.8004078302275541,
                -1.9325204527500484,
                0.8243179004474785,
                0.28400759439872564,
                0.7221347398646979
            ]
        },
        {
            "positions": [
                0.7171401930709844,
                -1.7435143931749524,
                -1.8761956704892193,
                0.7453465721152547,
                0.297006836124173,
                0.8047330337180469
            ]
        },
        {
            "positions": [
                0.8135872434893436,
                -1.686620956122351,
                -1.8198708882283903,
                0.6663752437830308,
                0.3100060778496203,
                0.887331327571396
            ]
        },
        {
            "positions": [
                0.9100342939077031,
                -1.6297275190697493,
                -1.7635461059675612,
                0.5874039154508068,
                0.3230053195750676,
                0.9699296214247451
            ]
        },
        {
            "positions": [
                1.0064813443260623,
                -1.572834082017148,
                -1.7072213237067322,
                0.5084325871185831,
                0.3360045613005149,
                1.0525279152780942
            ]
        },
        {
            "positions": [
                1.1029283947444215,
                -1.5159406449645463,
                -1.6508965414459031,
                0.4294612587863591,
                0.3490038030259623,
                1.1351262091314434
            ]
        },
        {
            "positions": [
                1.1993754451627812,
                -1.4590472079119448,
                -1.594571759185074,
                0.3504899304541351,
                0.36200304475140965,
                1.2177245029847925
            ]
        },
        {
            "positions": [
                1.2958224955811404,
                -1.4021537708593432,
                -1.538246976924245,
                0.27151860212191137,
                0.37500228647685696,
                1.3003227968381414
            ]
        },
        {
            "positions": [
                1.3922695459994996,
                -1.345260333806742,
                -1.481922194663416,
                0.1925472737896874,
                0.38800152820230427,
                1.3829210906914906
            ]
        },
        {
            "positions": [
                1.4887165964178588,
                -1.2883668967541402,
                -1.425597412402587,
                0.11357594545746363,
                0.4010007699277516,
                1.4655193845448395
            ]
        },
        {
            "positions": [
                1.5851636468362185,
                -1.2314734597015387,
                -1.369272630141758,
                0.034604617125239656,
                0.41400001165319894,
                1.5481176783981887
            ]
        },
        {
            "positions": [
                1.6816106972545777,
                -1.1745800226489371,
                -1.3129478478809289,
                -0.04436671120698432,
                0.42699925337864625,
                1.6307159722515379
            ]
        },
        {
            "positions": [
                1.778057747672937,
                -1.1176865855963356,
                -1.2566230656200998,
                -0.12333803953920808,
                0.4399984951040936,
                1.7133142661048868
            ]
        },
        {
            "positions": [
                1.874504798091296,
                -1.060793148543734,
                -1.2002982833592708,
                -0.20230936787143183,
                0.4529977368295409,
                1.7959125599582357
            ]
        },
        {
            "positions": [
                1.9709518485096558,
                -1.0038997114911326,
                -1.1439735010984418,
                -0.28128069620365603,
                0.46599697855498823,
                1.8785108538115851
            ]
        },
        {
            "positions": [
                2.067398898928015,
                -0.947006274438531,
                -1.0876487188376127,
                -0.3602520245358797,
                0.47899622028043554,
                1.961109147664934
            ]
        },
        {
            "positions": [
                2.104771004918142,
                -0.9515561194934016,
                -0.8933521423469728,
                -0.38887212856676756,
                0.5172377103110026,
                2.0433454241700684
            ]
        },
        {
            "positions": [
                2.1421431109082687,
                -0.9561059645482721,
                -0.6990555658563329,
                -0.41749223259765544,
                0.5554792003415696,
                2.125581700675203
            ]
        },
        {
            "positions": [
                2.179515216898396,
                -0.9606558096031428,
                -0.5047589893656929,
                -0.44611233662854327,
                0.5937206903721367,
                2.2078179771803375
            ]
        },
        {
            "positions": [
                2.216887322888523,
                -0.9652056546580133,
                -0.31046241287505305,
                -0.47473244065943115,
                0.6319621804027038,
                2.2900542536854718
            ]
        },
        {
            "positions": [
                2.2542594288786497,
                -0.9697554997128839,
                -0.11616583638441313,
                -0.503352544690319,
                0.6702036704332708,
                2.3722905301906065
            ]
        },
        {
            "positions": [
                2.2916315348687766,
                -0.9743053447677544,
                0.078130740106227,
                -0.5319726487212069,
                0.7084451604638379,
                2.454526806695741
            ]
        },
        {
            "positions": [
                2.3290036408589034,
                -0.978855189822625,
                0.2724273165968669,
                -0.5605927527520947,
                0.7466866504944049,
                2.536763083200875
            ]
        },
        {
            "positions": [
                2.3663757468490307,
                -0.9834050348774956,
                0.4667238930875066,
                -0.5892128567829826,
                0.784928140524972,
                2.61899935970601
            ]
        },
        {
            "positions": [
                2.4037478528391576,
                -0.9879548799323662,
                0.6610204695781465,
                -0.6178329608138704,
                0.8231696305555389,
                2.7012356362111443
            ]
        },
        {
            "positions": [
                2.4411199588292845,
                -0.9925047249872367,
                0.8553170460687864,
                -0.6464530648447584,
                0.861411120586106,
                2.7834719127162786
            ]
        },
        {
            "positions": [
                2.4784920648194113,
                -0.9970545700421073,
                1.0496136225594266,
                -0.6750731688756462,
                0.8996526106166731,
                2.8657081892214133
            ]
        },
        {
            "positions": [
                2.5158641708095386,
                -1.0016044150969778,
                1.2439101990500667,
                -0.7036932729065342,
                0.9378941006472401,
                2.9479444657265477
            ]
        },
        {
            "positions": [
                2.5532362767996655,
                -1.0061542601518485,
                1.4382067755407064,
                -0.7323133769374219,
                0.9761355906778072,
                3.030180742231682
            ]
        },
        {
            "positions": [
                2.5906083827897923,
                -1.010704105206719,
                1.6325033520313466,
                -0.7609334809683098,
                1.0143770807083743,
                3.1124170187368163
            ]
        },
        {
            "positions": [
                2.627980488779919,
                -1.0152539502615896,
                1.826799928521986,
                -0.7895535849991977,
                1.0526185707389413,
                3.194653295241951
            ]
        }
    ]
}