{
    "goal": {
        "global_pose": {
            "orientation": {
                "w": 0.7031023502349854,
                "x": -0.7110244035720825,
                "y": 0.007748599164187908,
                "z": 0.005598929710686207
            },
            "position": {
                "x": 0.11585023208521307,
                "y": 0.44412534475326537,
                "z": 0.3711530566215515
            }
        },
        "name": "move_to_auspresseinheit_A"
    },
    "id": "ProjEST_move_to_auspresseinheit_A_123",
    "joint_names": [
        "shoulder_pan_joint",
        "shoulder_lift_joint",
        "elbow_joint",
        "wrist_1_joint",
        "wrist_2_joint",
        "wrist_3_joint"
    ],
    "metrics": {
        "cart_traj_len": 0.7715890000783086,
        "distance_elbow_joint": 0.059807834508569524,
        "distance_shoulder_lift_joint": 0.9411732171371512,
        "distance_shoulder_pan_joint": 1.044215062992309,
        "distance_wrist_1_joint": 0.5541171509174478,
        "distance_wrist_2_joint": 0.8952381883022332,
        "distance_wrist_3_joint": 2.0901239829436515,
        "smoothness": 1.0652692761225138,
        "time": 0.197054319,
        "traj_len": 2.3631917901011255,
        "weighted_distance": 3.3487727217457364
    },
    "planner": "ProjEST",
    "start": {
        "state": {
            "elbow_joint": 2.4225746658250005,
            "shoulder_lift_joint": -1.3736534386056498,
            "shoulder_pan_joint": -0.3378633547517467,
            "wrist_1_joint": -1.0288598680537169,
            "wrist_2_joint": 1.233022673432363,
            "wrist_3_joint": -3.0940220416140027
        }
    },
    "waypoints": [
        {
            "positions": [
                -0.3378633547517467,
                -1.3736534386056498,
                2.4225746658250005,
                -1.0288598680537169,
                1.233022673432363,
                -3.0940220416140027
            ]
        },
        {
            "positions": [
                -0.2504011250268018,
                -1.4475072871867063,
                2.4198137303458704,
                -0.987913456195731,
                1.1616419580884807,
                -2.991478648537565
            ]
        },
        {
            "positions": [
                -0.16293889530185685,
                -1.5213611357677628,
                2.417052794866741,
                -0.9469670443377451,
                1.0902612427445983,
                -2.888935255461127
            ]
        },
        {
            "positions": [
                -0.07547666557691196,
                -1.5952149843488193,
                2.414291859387611,
                -0.9060206324797593,
                1.018880527400716,
                -2.7863918623846895
            ]
        },
        {
            "positions": [
                0.011985564148033034,
                -1.669068832929876,
                2.4115309239084812,
                -0.8650742206217733,
                0.9474998120568336,
                -2.6838484693082516
            ]
        },
        {
            "positions": [
                0.09944779387297792,
                -1.7429226815109322,
                2.408769988429351,
                -0.8241278087637874,
                0.8761190967129513,
                -2.5813050762318137
            ]
        },
        {
            "positions": [
                0.1869100235979228,
                -1.816776530091989,
                2.406009052950221,
                -0.7831813969058016,
                0.804738381369069,
                -2.478761683155376
            ]
        },
        {
            "positions": [
                0.2743722533228677,
                -1.8906303786730452,
                2.4032481174710916,
                -0.7422349850478157,
                0.7333576660251866,
                -2.3762182900789384
            ]
        },
        {
            "positions": [
                0.3618344830478128,
                -1.9644842272541019,
                2.4004871819919615,
                -0.7012885731898297,
                0.6619769506813042,
                -2.2736748970025005
            ]
        },
        {
            "positions": [
                0.4492967127727577,
                -2.038338075835158,
                2.397726246512832,
                -0.6603421613318439,
                0.5905962353374219,
                -2.1711315039260626
            ]
        },
        {
            "positions": [
                0.5367589424977026,
                -2.112191924416215,
                2.394965311033702,
                -0.619395749473858,
                0.5192155199935395,
                -2.0685881108496247
            ]
        },
        {
            "positions": [
                0.5645238976731844,
                -2.08531208604861,
                2.4029938345709354,
                -0.5935956301271961,
                0.5492995099933722,
                -2.235499132763898
            ]
        },
        {
            "positions": [
                0.5922888528486663,
                -2.0584322476810057,
                2.4110223581081693,
                -0.5677955107805341,
                0.5793834999932048,
                -2.4024101546781713
            ]
        },
        {
            "positions": [
                0.6208045666966403,
                -2.0212134840331615,
                2.4069869999474687,
                -0.5445323123694679,
                0.609699263709141,
                -2.585127156765853
            ]
        },
        {
            "positions": [
                0.6493202805446143,
                -1.9839947203853172,
                2.4029516417867676,
                -0.5212691139584016,
                0.6400150274250771,
                -2.767844158853535
            ]
        },
        {
            "positions": [
                0.6778359943925885,
                -1.946775956737473,
                2.3989162836260665,
                -0.49800591554733536,
                0.6703307911410131,
                -2.9505611609412163
            ]
        },
        {
            "positions": [
                0.7063517082405625,
                -1.9095571930896287,
                2.394880925465366,
                -0.4747427171362691,
                0.7006465548569493,
                -3.133278163028898
            ]
        }
    ]
}