{
    "goal": {
        "global_pose": {
            "orientation": {
                "w": 0.7031023502349854,
                "x": -0.7110244035720825,
                "y": 0.007748599164187908,
                "z": 0.005598929710686207
            },
            "position": {
                "x": 0.11585023208521307,
                "y": 0.44412534475326537,
                "z": 0.3711530566215515
            }
        },
        "name": "move_to_auspresseinheit_A"
    },
    "id": "ProjEST_move_to_auspresseinheit_A_45",
    "joint_names": [
        "shoulder_pan_joint",
        "shoulder_lift_joint",
        "elbow_joint",
        "wrist_1_joint",
        "wrist_2_joint",
        "wrist_3_joint"
    ],
    "metrics": {
        "cart_traj_len": 1.2668160094045409,
        "distance_elbow_joint": 0.6441534659471366,
        "distance_shoulder_lift_joint": 2.232860038114133,
        "distance_shoulder_pan_joint": 1.3140803618589454,
        "distance_wrist_1_joint": 0.568830608583418,
        "distance_wrist_2_joint": 1.6154007112442685,
        "distance_wrist_3_joint": 2.9628784898296523,
        "smoothness": 1.0872469046111768,
        "time": 0.280908858,
        "traj_len": 3.055847456202216,
        "weighted_distance": 4.17710329954438
    },
    "planner": "ProjEST",
    "start": {
        "state": {
            "elbow_joint": 2.4225746658250005,
            "shoulder_lift_joint": -1.3736534386056498,
            "shoulder_pan_joint": -0.3378633547517467,
            "wrist_1_joint": -1.0288598680537169,
            "wrist_2_joint": 1.233022673432363,
            "wrist_3_joint": -3.0940220416140027
        }
    },
    "waypoints": [
        {
            "positions": [
                -0.3378633547517467,
                -1.3736534386056498,
                2.4225746658250005,
                -1.0288598680537169,
                1.233022673432363,
                -3.0940220416140027
            ]
        },
        {
            "positions": [
                -0.2592769845503168,
                -1.4657902214041643,
                2.442980471439516,
                -0.9966011488796718,
                1.1615864636751,
                -2.99659784409555
            ]
        },
        {
            "positions": [
                -0.18069061434888686,
                -1.5579270042026787,
                2.4633862770540316,
                -0.9643424297056267,
                1.0901502539178372,
                -2.899173646577097
            ]
        },
        {
            "positions": [
                -0.10210424414745695,
                -1.6500637870011932,
                2.483792082668547,
                -0.9320837105315816,
                1.018714044160574,
                -2.801749449058644
            ]
        },
        {
            "positions": [
                -0.023517873946027,
                -1.7422005697997076,
                2.5041978882830622,
                -0.8998249913575365,
                0.9472778344033111,
                -2.704325251540191
            ]
        },
        {
            "positions": [
                0.05506849625540289,
                -1.834337352598222,
                2.5246036938975775,
                -0.8675662721834915,
                0.8758416246460482,
                -2.6069010540217388
            ]
        },
        {
            "positions": [
                0.13365486645683283,
                -1.9264741353967367,
                2.5450094995120933,
                -0.8353075530094464,
                0.8044054148887851,
                -2.5094768565032854
            ]
        },
        {
            "positions": [
                0.21224123665826272,
                -2.018610918195251,
                2.5654153051266086,
                -0.8030488338354013,
                0.7329692051315222,
                -2.412052658984833
            ]
        },
        {
            "positions": [
                0.2908276068596927,
                -2.1107477009937656,
                2.585821110741124,
                -0.7707901146613562,
                0.6615329953742592,
                -2.31462846146638
            ]
        },
        {
            "positions": [
                0.3694139770611226,
                -2.20288448379228,
                2.6062269163556393,
                -0.7385313954873112,
                0.5900967856169963,
                -2.2172042639479272
            ]
        },
        {
            "positions": [
                0.4480003472625525,
                -2.2950212665907945,
                2.626632721970155,
                -0.7062726763132661,
                0.5186605758597334,
                -2.1197800664294744
            ]
        },
        {
            "positions": [
                0.5265867174639824,
                -2.387158049389309,
                2.6470385275846704,
                -0.674013957139221,
                0.4472243661024704,
                -2.0223558689110215
            ]
        },
        {
            "positions": [
                0.6051730876654124,
                -2.4792948321878234,
                2.6674443331991857,
                -0.6417552379651759,
                0.37578815634520724,
                -1.9249316713925686
            ]
        },
        {
            "positions": [
                0.6837594578668424,
                -2.571431614986338,
                2.687850138813701,
                -0.6094965187911308,
                0.3043519465879443,
                -1.8275074738741157
            ]
        },
        {
            "positions": [
                0.7623458280682722,
                -2.6635683977848523,
                2.708255944428217,
                -0.5772377996170857,
                0.23291573683068134,
                -1.730083276355663
            ]
        },
        {
            "positions": [
                0.8409321982697021,
                -2.7557051805833668,
                2.728661750042732,
                -0.5449790804430406,
                0.1614795270734184,
                -1.6326590788372102
            ]
        },
        {
            "positions": [
                0.8259005528433135,
                -2.6611709254570983,
                2.691098818739465,
                -0.5355402114460692,
                0.22190814539400996,
                -1.799494137398639
            ]
        },
        {
            "positions": [
                0.810868907416925,
                -2.56663667033083,
                2.6535358874361976,
                -0.526101342449098,
                0.28233676371460154,
                -1.966329195960068
            ]
        },
        {
            "positions": [
                0.7958372619905365,
                -2.4721024152045614,
                2.6159729561329303,
                -0.5166624734521267,
                0.3427653820351931,
                -2.1331642545214966
            ]
        },
        {
            "positions": [
                0.7808056165641479,
                -2.377568160078293,
                2.578410024829663,
                -0.5072236044551555,
                0.4031940003557847,
                -2.2999993130829255
            ]
        },
        {
            "positions": [
                0.7657739711377594,
                -2.2830339049520245,
                2.5408470935263963,
                -0.49778473545818414,
                0.4636226186763762,
                -2.4668343716443544
            ]
        },
        {
            "positions": [
                0.7507423257113708,
                -2.188499649825756,
                2.503284162223129,
                -0.48834586646121286,
                0.5240512369969678,
                -2.6336694302057833
            ]
        },
        {
            "positions": [
                0.7357106802849822,
                -2.0939653946994876,
                2.4657212309198617,
                -0.4789069974642416,
                0.5844798553175594,
                -2.800504488767212
            ]
        },
        {
            "positions": [
                0.7206790348585937,
                -1.9994311395732192,
                2.4281582996165945,
                -0.46946812846727026,
                0.644908473638151,
                -2.967339547328641
            ]
        },
        {
            "positions": [
                0.7056473894322052,
                -1.9048968844469507,
                2.390595368313327,
                -0.460029259470299,
                0.7053370919587425,
                -3.13417460589007
            ]
        }
    ]
}