{
    "goal": {
        "global_pose": {
            "orientation": {
                "w": 0.7031023480610252,
                "x": -0.7110244013736278,
                "y": 0.0077485991402295624,
                "z": 0.005598929693374583
            },
            "position": {
                "x": -0.8841497679147869,
                "y": 0.44412534475326537,
                "z": 0.3711530566215515
            }
        },
        "name": "move_to_auspresseinheit_D"
    },
    "id": "ProjEST_move_to_auspresseinheit_D_12",
    "joint_names": [
        "shoulder_pan_joint",
        "shoulder_lift_joint",
        "elbow_joint",
        "wrist_1_joint",
        "wrist_2_joint",
        "wrist_3_joint"
    ],
    "metrics": {
        "cart_traj_len": 0.34262196943707135,
        "distance_elbow_joint": 0.6323247937033016,
        "distance_shoulder_lift_joint": 0.11809922632411318,
        "distance_shoulder_pan_joint": 0.13336005228574682,
        "distance_wrist_1_joint": 0.5071282665151471,
        "distance_wrist_2_joint": 1.4398240357502978,
        "distance_wrist_3_joint": 0.02469624953951577,
        "smoothness": 7.894919300567339e-16,
        "time": 0.043446781000000004,
        "traj_len": 1.6898025399785983,
        "weighted_distance": 2.202675061252249
    },
    "planner": "ProjEST",
    "start": {
        "state": {
            "elbow_joint": -1.8275523626775212,
            "shoulder_lift_joint": -2.126789852344167,
            "shoulder_pan_joint": -0.03513704404078235,
            "wrist_1_joint": -2.347782403156801,
            "wrist_2_joint": -1.6058999987535132,
            "wrist_3_joint": -3.0880379163319196
        }
    },
    "waypoints": [
        {
            "positions": [
                -0.03513704404078235,
                -2.126789852344167,
                -1.8275523626775212,
                -2.347782403156801,
                -1.6058999987535132,
                -3.0880379163319196
            ]
        },
        {
            "positions": [
                -0.0518070505765007,
                -2.141552255634681,
                -1.7485117634646086,
                -2.411173436471194,
                -1.4259219942847259,
                -3.091124947524359
            ]
        },
        {
            "positions": [
                -0.06847705711221905,
                -2.1563146589251954,
                -1.6694711642516957,
                -2.4745644697855878,
                -1.2459439898159388,
                -3.0942119787167988
            ]
        },
        {
            "positions": [
                -0.08514706364793741,
                -2.1710770622157094,
                -1.590430565038783,
                -2.537955503099981,
                -1.0659659853471515,
                -3.097299009909238
            ]
        },
        {
            "positions": [
                -0.10181707018365577,
                -2.1858394655062234,
                -1.5113899658258703,
                -2.6013465364143746,
                -0.8859879808783643,
                -3.1003860411016775
            ]
        },
        {
            "positions": [
                -0.11848707671937411,
                -2.2006018687967375,
                -1.4323493666129576,
                -2.664737569728768,
                -0.7060099764095771,
                -3.103473072294117
            ]
        },
        {
            "positions": [
                -0.13515708325509246,
                -2.2153642720872515,
                -1.353308767400045,
                -2.728128603043161,
                -0.5260319719407898,
                -3.106560103486556
            ]
        },
        {
            "positions": [
                -0.15182708979081083,
                -2.230126675377766,
                -1.2742681681871324,
                -2.7915196363575547,
                -0.3460539674720027,
                -3.109647134678996
            ]
        },
        {
            "positions": [
                -0.16849709632652918,
                -2.24488907866828,
                -1.1952275689742196,
                -2.854910669671948,
                -0.1660759630032153,
                -3.1127341658714354
            ]
        }
    ]
}