{
    "goal": {
        "global_pose": {
            "orientation": {
                "w": 0.005598929693374612,
                "x": 0.007748599140229565,
                "y": 0.7110244013736278,
                "z": -0.7031023480610252
            },
            "position": {
                "x": 0.1141497679147869,
                "y": -0.7141253447532654,
                "z": 0.3711530566215515
            }
        },
        "name": "move_to_auspresseinheit_B"
    },
    "id": "ProjEST_move_to_auspresseinheit_B_88",
    "joint_names": [
        "shoulder_pan_joint",
        "shoulder_lift_joint",
        "elbow_joint",
        "wrist_1_joint",
        "wrist_2_joint",
        "wrist_3_joint"
    ],
    "metrics": {
        "cart_traj_len": 0.5657427679701726,
        "distance_elbow_joint": 0.06777480905705424,
        "distance_shoulder_lift_joint": 0.29361204093130944,
        "distance_shoulder_pan_joint": 0.575228339749301,
        "distance_wrist_1_joint": 0.34065736164019156,
        "distance_wrist_2_joint": 1.007015448183109,
        "distance_wrist_3_joint": 0.007883424747573642,
        "smoothness": 3.806478935924272e-16,
        "time": 0.23749237900000003,
        "traj_len": 1.5139918838317923,
        "weighted_distance": 1.9119652412183092
    },
    "planner": "ProjEST",
    "start": {
        "state": {
            "elbow_joint": 2.0193083361928714,
            "shoulder_lift_joint": -1.1220246554650708,
            "shoulder_pan_joint": -1.0952077554168747,
            "wrist_1_joint": -0.8559753972642168,
            "wrist_2_joint": 0.4759566250798843,
            "wrist_3_joint": -3.1240929996934557
        }
    },
    "waypoints": [
        {
            "positions": [
                -1.0952077554168747,
                -1.1220246554650708,
                2.0193083361928714,
                -0.8559753972642168,
                0.4759566250798843,
                -3.1240929996934557
            ]
        },
        {
            "positions": [
                -1.1910791453750915,
                -1.170959995620289,
                2.0080125346833624,
                -0.7991991703241849,
                0.6437925331104024,
                -3.12277909556886
            ]
        },
        {
            "positions": [
                -1.2869505353333084,
                -1.2198953357755074,
                1.9967167331738533,
                -0.7424229433841529,
                0.8116284411409207,
                -3.1214651914442646
            ]
        },
        {
            "positions": [
                -1.382821925291525,
                -1.2688306759307255,
                1.9854209316643443,
                -0.685646716444121,
                0.9794643491714388,
                -3.120151287319669
            ]
        },
        {
            "positions": [
                -1.478693315249742,
                -1.3177660160859437,
                1.9741251301548353,
                -0.6288704895040891,
                1.147300257201957,
                -3.118837383195073
            ]
        },
        {
            "positions": [
                -1.5745647052079588,
                -1.366701356241162,
                1.9628293286453262,
                -0.5720942625640572,
                1.3151361652324751,
                -3.1175234790704778
            ]
        },
        {
            "positions": [
                -1.6704360951661756,
                -1.4156366963963802,
                1.9515335271358172,
                -0.5153180356240252,
                1.4829720732629934,
                -3.116209574945882
            ]
        }
    ]
}