{
    "goal": {
        "global_pose": {
            "orientation": {
                "w": 0.5084816262002911,
                "x": -0.4908360881923452,
                "y": 0.5182115481033761,
                "z": -0.48164630358495003
            },
            "position": {
                "x": 0.5540239810943604,
                "y": -0.46912469901144505,
                "z": 0.16403168439865112
            }
        },
        "name": "move_to_storage_B"
    },
    "id": "ProjEST_move_to_storage_B_49",
    "joint_names": [
        "shoulder_pan_joint",
        "shoulder_lift_joint",
        "elbow_joint",
        "wrist_1_joint",
        "wrist_2_joint",
        "wrist_3_joint"
    ],
    "metrics": {
        "cart_traj_len": 3.843953736539425,
        "distance_elbow_joint": 0.348716105620956,
        "distance_shoulder_lift_joint": 2.7350436394090902,
        "distance_shoulder_pan_joint": 3.8369538215973273,
        "distance_wrist_1_joint": 2.9775245185574866,
        "distance_wrist_2_joint": 2.708216044645026,
        "distance_wrist_3_joint": 3.3748876509222416,
        "smoothness": 0.26816154134125725,
        "time": 0.110021003,
        "traj_len": 3.9976670422575373,
        "weighted_distance": 5.330746443585468
    },
    "planner": "ProjEST",
    "start": {
        "state": {
            "elbow_joint": 1.664937868594044,
            "shoulder_lift_joint": -0.661644460510453,
            "shoulder_pan_joint": -0.9139846352900073,
            "wrist_1_joint": 2.146753192139373,
            "wrist_2_joint": -2.2341966793290973,
            "wrist_3_joint": 0.005466555786416001
        }
    },
    "waypoints": [
        {
            "positions": [
                -0.9139846352900073,
                -0.661644460510453,
                1.664937868594044,
                2.146753192139373,
                -2.2341966793290973,
                0.005466555786416001
            ]
        },
        {
            "positions": [
                -0.7921597657121009,
                -0.768116079571203,
                1.6711949459243687,
                2.135883417562094,
                -2.0998728568914893,
                -0.0026671818997851373
            ]
        },
        {
            "positions": [
                -0.6703348961341946,
                -0.874587698631953,
                1.6774520232546937,
                2.1250136429848148,
                -1.9655490344538813,
                -0.010800919585986276
            ]
        },
        {
            "positions": [
                -0.5485100265562881,
                -0.9810593176927029,
                1.6837091005850184,
                2.1141438684075355,
                -1.8312252120162733,
                -0.01893465727218742
            ]
        },
        {
            "positions": [
                -0.42668515697838183,
                -1.087530936753453,
                1.6899661779153434,
                2.1032740938302563,
                -1.6969013895786653,
                -0.02706839495838855
            ]
        },
        {
            "positions": [
                -0.30486028740047544,
                -1.194002555814203,
                1.6962232552456682,
                2.092404319252977,
                -1.5625775671410576,
                -0.03520213264458969
            ]
        },
        {
            "positions": [
                -0.18303541782256905,
                -1.3004741748749529,
                1.702480332575993,
                2.081534544675698,
                -1.4282537447034493,
                -0.04333587033079084
            ]
        },
        {
            "positions": [
                -0.061210548244662655,
                -1.4069457939357028,
                1.708737409906318,
                2.0706647700984186,
                -1.2939299222658416,
                -0.05146960801699197
            ]
        },
        {
            "positions": [
                0.060614321333243626,
                -1.5134174129964528,
                1.7149944872366427,
                2.0597949955211394,
                -1.1596060998282336,
                -0.0596033457031931
            ]
        },
        {
            "positions": [
                0.1824391909111499,
                -1.6198890320572028,
                1.7212515645669677,
                2.04892522094386,
                -1.0252822773906256,
                -0.06773708338939424
            ]
        },
        {
            "positions": [
                0.3042640604890564,
                -1.7263606511179528,
                1.7275086418972925,
                2.038055446366581,
                -0.8909584549530178,
                -0.07587082107559538
            ]
        },
        {
            "positions": [
                0.4260889300669627,
                -1.8328322701787028,
                1.7337657192276172,
                2.0271856717893018,
                -0.7566346325154099,
                -0.08400455876179652
            ]
        },
        {
            "positions": [
                0.5479137996448692,
                -1.9393038892394527,
                1.7400227965579422,
                2.0163158972120225,
                -0.6223108100778016,
                -0.09213829644799768
            ]
        },
        {
            "positions": [
                0.6697386692227755,
                -2.0457755083002027,
                1.746279873888267,
                2.0054461226347433,
                -0.48798698764019366,
                -0.1002720341341988
            ]
        },
        {
            "positions": [
                0.791563538800682,
                -2.152247127360953,
                1.752536951218592,
                1.9945763480574639,
                -0.3536631652025859,
                -0.10840577182039994
            ]
        },
        {
            "positions": [
                0.9133884083785881,
                -2.2587187464217027,
                1.7587940285489168,
                1.9837065734801846,
                -0.21933934276497802,
                -0.11653950950660108
            ]
        },
        {
            "positions": [
                0.8360968399967138,
                -2.2149506943640933,
                1.7685963341514583,
                1.8754574234840962,
                -0.19267170014648166,
                0.008571320709907543
            ]
        },
        {
            "positions": [
                0.7588052716148395,
                -2.171182642306484,
                1.7783986397540001,
                1.767208273488008,
                -0.1660040575279853,
                0.13368215092641617
            ]
        },
        {
            "positions": [
                0.6815137032329652,
                -2.127414590248875,
                1.7882009453565417,
                1.6589591234919194,
                -0.13933641490948895,
                0.25879298114292476
            ]
        },
        {
            "positions": [
                0.6042221348510909,
                -2.0836465381912657,
                1.7980032509590833,
                1.550709973495831,
                -0.11266877229099256,
                0.3839038113594334
            ]
        },
        {
            "positions": [
                0.5269305664692165,
                -2.0398784861336563,
                1.8078055565616251,
                1.4424608234997427,
                -0.08600112967249621,
                0.509014641575942
            ]
        },
        {
            "positions": [
                0.4496389980873422,
                -1.996110434076047,
                1.8176078621641667,
                1.3342116735036542,
                -0.05933348705399985,
                0.6341254717924506
            ]
        },
        {
            "positions": [
                0.37234742970546797,
                -1.9523423820184378,
                1.8274101677667083,
                1.225962523507566,
                -0.032665844435503494,
                0.7592363020089591
            ]
        },
        {
            "positions": [
                0.2950558613235936,
                -1.9085743299608284,
                1.83721247336925,
                1.1177133735114775,
                -0.005998201817007109,
                0.8843471322254679
            ]
        },
        {
            "positions": [
                0.21776429294171928,
                -1.8648062779032193,
                1.8470147789717917,
                1.0094642235153892,
                0.02066944080148922,
                1.0094579624419764
            ]
        },
        {
            "positions": [
                0.14047272455984494,
                -1.82103822584561,
                1.8568170845743333,
                0.9012150735193007,
                0.047337083419985604,
                1.134568792658485
            ]
        },
        {
            "positions": [
                0.06318115617797071,
                -1.7772701737880008,
                1.866619390176875,
                0.7929659235232123,
                0.07400472603848196,
                1.2596796228749936
            ]
        },
        {
            "positions": [
                -0.014110412203903744,
                -1.7335021217303914,
                1.8764216957794166,
                0.6847167735271238,
                0.10067236865697832,
                1.3847904530915023
            ]
        },
        {
            "positions": [
                -0.09140198058577798,
                -1.6897340696727823,
                1.8862240013819584,
                0.5764676235310355,
                0.12734001127547467,
                1.5099012833080108
            ]
        },
        {
            "positions": [
                -0.1686935489676522,
                -1.645966017615173,
                1.8960263069845,
                0.4682184735349473,
                0.15400765389397103,
                1.6350121135245193
            ]
        },
        {
            "positions": [
                -0.24598511734952644,
                -1.6021979655575636,
                1.9058286125870416,
                0.3599693235388588,
                0.1806752965124674,
                1.7601229437410277
            ]
        },
        {
            "positions": [
                -0.3232766857314009,
                -1.5584299134999542,
                1.9156309181895834,
                0.2517201735427703,
                0.2073429391309638,
                1.8852337739575369
            ]
        },
        {
            "positions": [
                -0.40056825411327535,
                -1.514661861442345,
                1.925433223792125,
                0.14347102354668184,
                0.2340105817494601,
                2.010344604174045
            ]
        },
        {
            "positions": [
                -0.4778598224951496,
                -1.470893809384736,
                1.9352355293946666,
                0.035221873550593585,
                0.26067822436795646,
                2.135455434390554
            ]
        },
        {
            "positions": [
                -0.5551513908770238,
                -1.4271257573271265,
                1.9450378349972084,
                -0.07302727644549489,
                0.2873458669864528,
                2.2605662646070623
            ]
        },
        {
            "positions": [
                -0.6324429592588983,
                -1.3833577052695172,
                1.95484014059975,
                -0.18127642644158315,
                0.3140135096049492,
                2.3856770948235715
            ]
        },
        {
            "positions": [
                -0.7097345276407725,
                -1.339589653211908,
                1.9646424462022916,
                -0.28952557643767185,
                0.3406811522234455,
                2.5107879250400797
            ]
        },
        {
            "positions": [
                -0.7870260960226467,
                -1.295821601154299,
                1.9744447518048334,
                -0.3977747264337601,
                0.36734879484194194,
                2.635898755256588
            ]
        },
        {
            "positions": [
                -0.8643176644045212,
                -1.2520535490966895,
                1.984247057407375,
                -0.5060238764298484,
                0.39401643746043824,
                2.7610095854730963
            ]
        },
        {
            "positions": [
                -0.9416092327863956,
                -1.2082854970390802,
                1.9940493630099165,
                -0.6142730264259371,
                0.42068408007893465,
                2.8861204156896054
            ]
        },
        {
            "positions": [
                -1.0189008011682699,
                -1.1645174449814708,
                2.0038516686124583,
                -0.7225221764220253,
                0.44735172269743106,
                3.0112312459061137
            ]
        },
        {
            "positions": [
                -1.096192369550144,
                -1.1207493929238617,
                2.013653974215,
                -0.8307713264181134,
                0.4740193653159274,
                3.136342076122623
            ]
        }
    ]
}