{
    "goal": {
        "global_pose": {
            "orientation": {
                "w": -0.4816463035849501,
                "x": 0.5182115481033762,
                "y": 0.4908360881923453,
                "z": -0.5084816262002911
            },
            "position": {
                "x": -0.8240239810943604,
                "y": -0.300875300988555,
                "z": 0.16403168439865112
            }
        },
        "name": "move_to_storage_C"
    },
    "id": "ProjEST_move_to_storage_C_109",
    "joint_names": [
        "shoulder_pan_joint",
        "shoulder_lift_joint",
        "elbow_joint",
        "wrist_1_joint",
        "wrist_2_joint",
        "wrist_3_joint"
    ],
    "metrics": {
        "cart_traj_len": 0.5766380094114928,
        "distance_elbow_joint": 0.25742083280082184,
        "distance_shoulder_lift_joint": 0.18925345291825446,
        "distance_shoulder_pan_joint": 0.49522927860841115,
        "distance_wrist_1_joint": 0.07645713421015798,
        "distance_wrist_2_joint": 1.0638315391702182,
        "distance_wrist_3_joint": 0.06955877020420909,
        "smoothness": 0.0,
        "time": 0.254034219,
        "traj_len": 1.4668847970826042,
        "weighted_distance": 1.85233831189145
    },
    "planner": "ProjEST",
    "start": {
        "state": {
            "elbow_joint": 2.010868314990456,
            "shoulder_lift_joint": -1.1634956873337592,
            "shoulder_pan_joint": -2.4736205022346125,
            "wrist_1_joint": -0.8367026794202681,
            "wrist_2_joint": 0.6746043897044499,
            "wrist_3_joint": -3.1496632123970403
        }
    },
    "waypoints": [
        {
            "positions": [
                -2.4736205022346125,
                -1.1634956873337592,
                2.010868314990456,
                -0.8367026794202681,
                0.6746043897044499,
                -3.1496632123970403
            ]
        },
        {
            "positions": [
                -2.5561587153360144,
                -1.1319534451807167,
                1.9679648428569856,
                -0.8239598237185751,
                0.8519096462328196,
                -3.138070084029672
            ]
        },
        {
            "positions": [
                -2.638696928437416,
                -1.1004112030276745,
                1.9250613707235151,
                -0.8112169680168821,
                1.0292149027611894,
                -3.1264769556623038
            ]
        },
        {
            "positions": [
                -2.721235141538818,
                -1.068868960874632,
                1.882157898590045,
                -0.798474112315189,
                1.2065201592895591,
                -3.1148838272949355
            ]
        },
        {
            "positions": [
                -2.80377335464022,
                -1.0373267187215895,
                1.8392544264565747,
                -0.7857312566134961,
                1.3838254158179288,
                -3.1032906989275677
            ]
        },
        {
            "positions": [
                -2.886311567741622,
                -1.005784476568547,
                1.7963509543231042,
                -0.7729884009118031,
                1.5611306723462985,
                -3.0916975705601994
            ]
        },
        {
            "positions": [
                -2.9688497808430236,
                -0.9742422344155047,
                1.753447482189634,
                -0.7602455452101101,
                1.738435928874668,
                -3.080104442192831
            ]
        }
    ]
}