{
    "goal": {
        "global_pose": {
            "orientation": {
                "w": 0.7047431493862688,
                "x": -0.7094548369677653,
                "y": 0.0024358444001904,
                "z": -0.0022348060817251984
            },
            "position": {
                "x": -0.39052492380142206,
                "y": 0.3671506643295288,
                "z": 0.19426114857196808
            }
        },
        "name": "move_to_magneteinheit_D"
    },
    "id": "ProjEST_move_to_magneteinheit_D_65",
    "joint_names": [
        "shoulder_pan_joint",
        "shoulder_lift_joint",
        "elbow_joint",
        "wrist_1_joint",
        "wrist_2_joint",
        "wrist_3_joint"
    ],
    "metrics": {
        "cart_traj_len": 4.616632112779869,
        "distance_elbow_joint": 3.6635407094559667,
        "distance_shoulder_lift_joint": 1.6288130910415435,
        "distance_shoulder_pan_joint": 4.963387905361229,
        "distance_wrist_1_joint": 2.328742649077589,
        "distance_wrist_2_joint": 0.2573894186408817,
        "distance_wrist_3_joint": 4.319678247598293,
        "smoothness": 0.5674715432937767,
        "time": 0.969211732,
        "traj_len": 4.142650361927193,
        "weighted_distance": 5.327949003518199
    },
    "planner": "ProjEST",
    "start": {
        "state": {
            "elbow_joint": 0.749534889911806,
            "shoulder_lift_joint": -0.6476975780787326,
            "shoulder_pan_joint": -2.711696901376241,
            "wrist_1_joint": -0.07506478083263063,
            "wrist_2_joint": 0.43296659715538205,
            "wrist_3_joint": -3.14703540197715
        }
    },
    "waypoints": [
        {
            "positions": [
                -2.711696901376241,
                -0.6476975780787326,
                0.749534889911806,
                -0.07506478083263063,
                0.43296659715538205,
                -3.14703540197715
            ]
        },
        {
            "positions": [
                -2.731168096544901,
                -0.653104544052303,
                0.7356070255623083,
                -0.12486060453076477,
                0.41290846853610363,
                -3.1369026068165327
            ]
        },
        {
            "positions": [
                -2.771519953245011,
                -0.6687177616085672,
                0.7000172030108894,
                -0.2431356256422342,
                0.35544396968006264,
                -3.1091099327718323
            ]
        },
        {
            "positions": [
                -2.8118718099451216,
                -0.6843309791648313,
                0.6644273804594707,
                -0.36141064675370366,
                0.2979794708240217,
                -3.0813172587271316
            ]
        },
        {
            "positions": [
                -2.852223666645232,
                -0.6999441967210955,
                0.6288375579080518,
                -0.4796856678651731,
                0.24051497196798075,
                -3.0535245846824313
            ]
        },
        {
            "positions": [
                -2.738724160991357,
                -0.7238169436852842,
                0.5293188721774802,
                -0.441227081927686,
                0.24060136217927647,
                -2.942001669981378
            ]
        },
        {
            "positions": [
                -2.6252246553374823,
                -0.7476896906494728,
                0.4298001864469086,
                -0.4027684959901989,
                0.24068775239057222,
                -2.8304787552803243
            ]
        },
        {
            "positions": [
                -2.5117251496836075,
                -0.7715624376136615,
                0.33028150071633694,
                -0.36430991005271185,
                0.24077414260186794,
                -2.718955840579271
            ]
        },
        {
            "positions": [
                -2.3982256440297327,
                -0.7954351845778501,
                0.23076281498576534,
                -0.32585132411522477,
                0.2408605328131637,
                -2.607432925878217
            ]
        },
        {
            "positions": [
                -2.2847261383758575,
                -0.8193079315420387,
                0.1312441292551937,
                -0.2873927381777377,
                0.24094692302445941,
                -2.4959100111771635
            ]
        },
        {
            "positions": [
                -2.171226632721983,
                -0.8431806785062275,
                0.03172544352462203,
                -0.24893415224025064,
                0.24103331323575516,
                -2.38438709647611
            ]
        },
        {
            "positions": [
                -2.057727127068108,
                -0.8670534254704161,
                -0.06779324220594951,
                -0.2104755663027636,
                0.2411197034470509,
                -2.2728641817750566
            ]
        },
        {
            "positions": [
                -1.944227621414233,
                -0.8909261724346047,
                -0.16731192793652117,
                -0.17201698036527652,
                0.2412060936583466,
                -2.161341267074003
            ]
        },
        {
            "positions": [
                -1.8307281157603585,
                -0.9147989193987933,
                -0.2668306136670927,
                -0.1335583944277895,
                0.24129248386964236,
                -2.0498183523729496
            ]
        },
        {
            "positions": [
                -1.7172286101064835,
                -0.9386716663629819,
                -0.3663492993976645,
                -0.09509980849030236,
                0.24137887408093808,
                -1.938295437671896
            ]
        },
        {
            "positions": [
                -1.6037291044526087,
                -0.9625444133271706,
                -0.4658679851282359,
                -0.05664122255281534,
                0.24146526429223383,
                -1.8267725229708427
            ]
        },
        {
            "positions": [
                -1.490229598798734,
                -0.9864171602913593,
                -0.5653866708588078,
                -0.018182636615328207,
                0.24155165450352956,
                -1.715249608269789
            ]
        },
        {
            "positions": [
                -1.3767300931448592,
                -1.0102899072555478,
                -0.6649053565893792,
                0.020275949322158815,
                0.2416380447148253,
                -1.6037266935687355
            ]
        },
        {
            "positions": [
                -1.2632305874909842,
                -1.0341626542197366,
                -0.7644240423199509,
                0.05873453525964589,
                0.24172443492612103,
                -1.4922037788676819
            ]
        },
        {
            "positions": [
                -1.1497310818371096,
                -1.0580354011839253,
                -0.8639427280505225,
                0.09719312119713297,
                0.24181082513741675,
                -1.3806808641666286
            ]
        },
        {
            "positions": [
                -1.0362315761832346,
                -1.0819081481481139,
                -0.9634614137810942,
                0.13565170713462005,
                0.2418972153487125,
                -1.269157949465575
            ]
        },
        {
            "positions": [
                -0.9227320705293598,
                -1.1057808951123025,
                -1.0629800995116658,
                0.17411029307210713,
                0.24198360556000822,
                -1.1576350347645215
            ]
        },
        {
            "positions": [
                -0.8092325648754852,
                -1.129653642076491,
                -1.1624987852422373,
                0.2125688790095941,
                0.24206999577130398,
                -1.046112120063468
            ]
        },
        {
            "positions": [
                -0.69573305922161,
                -1.15352638904068,
                -1.2620174709728091,
                0.2510274649470813,
                0.2421563859825997,
                -0.9345892053624141
            ]
        },
        {
            "positions": [
                -0.5822335535677352,
                -1.1773991360048686,
                -1.3615361567033808,
                0.28948605088456836,
                0.24224277619389542,
                -0.8230662906613606
            ]
        },
        {
            "positions": [
                -0.4687340479138604,
                -1.2012718829690572,
                -1.4610548424339524,
                0.32794463682205544,
                0.24232916640519117,
                -0.7115433759603076
            ]
        },
        {
            "positions": [
                -0.35523454225998563,
                -1.2251446299332458,
                -1.5605735281645237,
                0.3664032227595424,
                0.2424155566164869,
                -0.6000204612592541
            ]
        },
        {
            "positions": [
                -0.24173503660611084,
                -1.2490173768974344,
                -1.6600922138950958,
                0.4048618086970296,
                0.24250194682778264,
                -0.4884975465582002
            ]
        },
        {
            "positions": [
                -0.12823553095223605,
                -1.272890123861623,
                -1.7596108996256674,
                0.44332039463451667,
                0.24258833703907837,
                -0.37697463185714675
            ]
        },
        {
            "positions": [
                -0.014736025298361266,
                -1.2967628708258117,
                -1.8591295853562386,
                0.48177898057200363,
                0.24267472725037412,
                -0.2654517171560933
            ]
        },
        {
            "positions": [
                0.09876348035551352,
                -1.3206356177900003,
                -1.9586482710868103,
                0.5202375665094907,
                0.24276111746166984,
                -0.15392880245503981
            ]
        },
        {
            "positions": [
                0.21226298600938875,
                -1.344508364754189,
                -2.0581669568173826,
                0.5586961524469778,
                0.24284750767296556,
                -0.042405887753985905
            ]
        },
        {
            "positions": [
                0.32576249166326354,
                -1.3683811117183775,
                -2.1576856425479534,
                0.5971547383844649,
                0.2429338978842613,
                0.06911702694706756
            ]
        },
        {
            "positions": [
                0.43926199731713833,
                -1.3922538586825661,
                -2.257204328278525,
                0.635613324321952,
                0.24302028809555704,
                0.18063994164812058
            ]
        },
        {
            "positions": [
                0.5527615029710127,
                -1.4161266056467547,
                -2.3567230140090967,
                0.674071910259439,
                0.24310667830685279,
                0.29216285634917405
            ]
        },
        {
            "positions": [
                0.6662610086248879,
                -1.4399993526109436,
                -2.456241699739669,
                0.7125304961969261,
                0.2431930685181485,
                0.40368577105022796
            ]
        },
        {
            "positions": [
                0.7797605142787627,
                -1.4638720995751322,
                -2.55576038547024,
                0.7509890821344132,
                0.24327945872944426,
                0.5152086857512814
            ]
        },
        {
            "positions": [
                0.8932600199326375,
                -1.4877448465393208,
                -2.6552790712008116,
                0.7894476680719004,
                0.24336584894073998,
                0.6267316004523349
            ]
        },
        {
            "positions": [
                0.7735514139865964,
                -1.5753854934927602,
                -2.6265316547182174,
                0.8622241598616751,
                0.2364673026651043,
                0.5660747954335785
            ]
        },
        {
            "positions": [
                0.6538428080405553,
                -1.6630261404461997,
                -2.5977842382356227,
                0.9350006516514499,
                0.2295687563894686,
                0.5054179904148222
            ]
        },
        {
            "positions": [
                0.5341342020945142,
                -1.750666787399639,
                -2.5690368217530284,
                1.0077771434412246,
                0.22267021011383292,
                0.44476118539606574
            ]
        },
        {
            "positions": [
                0.41442559614847313,
                -1.8383074343530788,
                -2.540289405270434,
                1.0805536352309995,
                0.21577166383819724,
                0.3841043803773093
            ]
        },
        {
            "positions": [
                0.294716990202432,
                -1.9259480813065182,
                -2.5115419887878394,
                1.153330127020774,
                0.20887311756256155,
                0.32344757535855295
            ]
        },
        {
            "positions": [
                0.17500838425639098,
                -2.0135887282599576,
                -2.482794572305245,
                1.2261066188105487,
                0.20197457128692586,
                0.2627907703397966
            ]
        },
        {
            "positions": [
                0.05529977831034982,
                -2.1012293752133973,
                -2.454047155822651,
                1.2988831106003236,
                0.19507602501129015,
                0.20213396532104017
            ]
        },
        {
            "positions": [
                -0.06440882763569122,
                -2.1888700221668365,
                -2.425299739340056,
                1.3716596023900984,
                0.18817747873565446,
                0.1414771603022838
            ]
        },
        {
            "positions": [
                -0.18411743358173246,
                -2.276510669120276,
                -2.396552322857462,
                1.444436094179873,
                0.18127893246001878,
                0.0808203552835274
            ]
        }
    ]
}