{
    "goal": {
        "global_pose": {
            "orientation": {
                "w": 0.7047431468963623,
                "x": -0.7094548344612122,
                "y": 0.0024358443915843964,
                "z": -0.0022348060738295317
            },
            "position": {
                "x": 0.6094750761985779,
                "y": 0.3671506643295288,
                "z": 0.19426114857196808
            }
        },
        "name": "move_to_magneteinheit_A"
    },
    "id": "ProjEST_move_to_magneteinheit_A_35",
    "joint_names": [
        "shoulder_pan_joint",
        "shoulder_lift_joint",
        "elbow_joint",
        "wrist_1_joint",
        "wrist_2_joint",
        "wrist_3_joint"
    ],
    "metrics": {
        "cart_traj_len": 4.020346215432267,
        "distance_elbow_joint": 4.279219801036797,
        "distance_shoulder_lift_joint": 0.22474948607784673,
        "distance_shoulder_pan_joint": 4.097479903302811,
        "distance_wrist_1_joint": 0.6997896994279698,
        "distance_wrist_2_joint": 1.837214137651215,
        "distance_wrist_3_joint": 3.5757804583271198,
        "smoothness": 0.21155861303186915,
        "time": 0.217643437,
        "traj_len": 3.8359136442083472,
        "weighted_distance": 4.939918849491071
    },
    "planner": "ProjEST",
    "start": {
        "state": {
            "elbow_joint": -1.9196185241190666,
            "shoulder_lift_joint": -1.2443396400964142,
            "shoulder_pan_joint": 2.6996025414629847,
            "wrist_1_joint": -1.5485510000780065,
            "wrist_2_joint": -1.5709468930060704,
            "wrist_3_joint": 0.4420197071253992
        }
    },
    "waypoints": [
        {
            "positions": [
                2.6996025414629847,
                -1.2443396400964142,
                -1.9196185241190666,
                -1.5485510000780065,
                -1.5709468930060704,
                0.4420197071253992
            ]
        },
        {
            "positions": [
                2.5479097769356565,
                -1.2472698603771954,
                -1.7944121672670852,
                -1.5346294312525837,
                -1.5136589466918549,
                0.39780770415404176
            ]
        },
        {
            "positions": [
                2.3962170124083277,
                -1.2502000806579767,
                -1.6692058104151037,
                -1.520707862427161,
                -1.4563710003776396,
                0.35359570118268435
            ]
        },
        {
            "positions": [
                2.2445242478809995,
                -1.253130300938758,
                -1.5439994535631225,
                -1.5067862936017384,
                -1.399083054063424,
                0.30938369821132694
            ]
        },
        {
            "positions": [
                2.092831483353671,
                -1.2560605212195393,
                -1.418793096711141,
                -1.4928647247763156,
                -1.3417951077492087,
                0.26517169523996953
            ]
        },
        {
            "positions": [
                1.9411387188263425,
                -1.2589907415003205,
                -1.2935867398591596,
                -1.4789431559508928,
                -1.2845071614349932,
                0.22095969226861215
            ]
        },
        {
            "positions": [
                1.7894459542990142,
                -1.2619209617811018,
                -1.1683803830071784,
                -1.4650215871254701,
                -1.227219215120778,
                0.17674768929725476
            ]
        },
        {
            "positions": [
                1.6377531897716857,
                -1.264851182061883,
                -1.043174026155197,
                -1.4511000183000475,
                -1.1699312688065624,
                0.13253568632589735
            ]
        },
        {
            "positions": [
                1.4860604252443572,
                -1.2677814023426643,
                -0.9179676693032155,
                -1.4371784494746247,
                -1.1126433224923469,
                0.08832368335453994
            ]
        },
        {
            "positions": [
                1.3343676607170287,
                -1.2707116226234456,
                -0.792761312451234,
                -1.4232568806492019,
                -1.0553553761781316,
                0.04411168038318247
            ]
        },
        {
            "positions": [
                1.1826748961897005,
                -1.2736418429042269,
                -0.6675549555992528,
                -1.4093353118237792,
                -0.9980674298639162,
                -0.00010032258817488371
            ]
        },
        {
            "positions": [
                1.030982131662372,
                -1.2765720631850082,
                -0.5423485987472714,
                -1.3954137429983566,
                -0.9407794835497008,
                -0.044312325559532295
            ]
        },
        {
            "positions": [
                0.8792893671350437,
                -1.2795022834657896,
                -0.41714224189529014,
                -1.3814921741729338,
                -0.8834915372354853,
                -0.08852432853088965
            ]
        },
        {
            "positions": [
                0.727596602607715,
                -1.282432503746571,
                -0.2919358850433085,
                -1.367570605347511,
                -0.8262035909212698,
                -0.13273633150224717
            ]
        },
        {
            "positions": [
                0.5759038380803867,
                -1.2853627240273522,
                -0.16672952819132725,
                -1.3536490365220883,
                -0.7689156446070545,
                -0.17694833447360447
            ]
        },
        {
            "positions": [
                0.4242110735530584,
                -1.2882929443081335,
                -0.04152317133934602,
                -1.3397274676966657,
                -0.7116276982928391,
                -0.22116033744496189
            ]
        },
        {
            "positions": [
                0.2725183090257297,
                -1.2912231645889147,
                0.08368318551263565,
                -1.325805898871243,
                -0.6543397519786236,
                -0.2653723404163193
            ]
        },
        {
            "positions": [
                0.12082554449840144,
                -1.294153384869696,
                0.20888954236461688,
                -1.31188433004582,
                -0.5970518056644083,
                -0.3095843433876767
            ]
        },
        {
            "positions": [
                -0.030867220028927278,
                -1.2970836051504773,
                0.33409589921659855,
                -1.2979627612203974,
                -0.5397638593501928,
                -0.35379634635903423
            ]
        },
        {
            "positions": [
                -0.18255998455625555,
                -1.3000138254312585,
                0.4593022560685798,
                -1.2840411923949748,
                -0.4824759130359775,
                -0.39800834933039153
            ]
        },
        {
            "positions": [
                -0.3342527490835838,
                -1.3029440457120398,
                0.584508612920561,
                -1.270119623569552,
                -0.42518796672176196,
                -0.44222035230174894
            ]
        },
        {
            "positions": [
                -0.48594551361091254,
                -1.305874265992821,
                0.7097149697725427,
                -1.2561980547441292,
                -0.36790002040754644,
                -0.48643235527310635
            ]
        },
        {
            "positions": [
                -0.637638278138241,
                -1.3088044862736024,
                0.8349213266245237,
                -1.2422764859187065,
                -0.31061207409333114,
                -0.5306443582444638
            ]
        },
        {
            "positions": [
                -0.5946274721189446,
                -1.303186346364671,
                0.9566210199567755,
                -1.2341853165267225,
                -0.2639832808057094,
                -0.6857305361623282
            ]
        },
        {
            "positions": [
                -0.5516166660996482,
                -1.2975682064557394,
                1.0783207132890273,
                -1.2260941471347386,
                -0.2173544875180876,
                -0.8408167140801925
            ]
        },
        {
            "positions": [
                -0.5086058600803518,
                -1.291950066546808,
                1.200020406621279,
                -1.2180029777427546,
                -0.17072569423046585,
                -0.9959028919980568
            ]
        },
        {
            "positions": [
                -0.46559505406105534,
                -1.2863319266378765,
                1.3217200999535308,
                -1.2099118083507707,
                -0.12409690094284406,
                -1.1509890699159213
            ]
        },
        {
            "positions": [
                -0.4225842480417589,
                -1.280713786728945,
                1.4434197932857826,
                -1.2018206389587867,
                -0.0774681076552223,
                -1.3060752478337856
            ]
        },
        {
            "positions": [
                -0.3795734420224625,
                -1.2750956468200136,
                1.5651194866180345,
                -1.1937294695668028,
                -0.030839314367600568,
                -1.46116142575165
            ]
        },
        {
            "positions": [
                -0.3365626360031661,
                -1.2694775069110822,
                1.686819179950286,
                -1.1856383001748187,
                0.01578947892002125,
                -1.6162476036695144
            ]
        },
        {
            "positions": [
                -0.29355182998386964,
                -1.2638593670021507,
                1.8085188732825381,
                -1.177547130782835,
                0.06241827220764301,
                -1.7713337815873789
            ]
        },
        {
            "positions": [
                -0.25054102396457323,
                -1.2582412270932193,
                1.93021856661479,
                -1.1694559613908508,
                0.10904706549526477,
                -1.9264199595052431
            ]
        },
        {
            "positions": [
                -0.20753021794527682,
                -1.2526230871842878,
                2.0519182599470414,
                -1.161364791998867,
                0.15567585878288653,
                -2.0815061374231076
            ]
        },
        {
            "positions": [
                -0.1645194119259804,
                -1.2470049472753564,
                2.1736179532792934,
                -1.153273622606883,
                0.2023046520705083,
                -2.236592315340972
            ]
        },
        {
            "positions": [
                -0.10709536842811535,
                -1.227307927094874,
                2.136421288551606,
                -1.0923711582155138,
                0.189512133555581,
                -2.4160260025131217
            ]
        },
        {
            "positions": [
                -0.049671324930250296,
                -1.2076109069143914,
                2.0992246238239187,
                -1.0314686938241444,
                0.1767196150406537,
                -2.5954596896852715
            ]
        },
        {
            "positions": [
                0.0077527185676147525,
                -1.1879138867339087,
                2.062027959096232,
                -0.9705662294327753,
                0.1639270965257264,
                -2.774893376857421
            ]
        },
        {
            "positions": [
                0.06517676206547982,
                -1.1682168665534263,
                2.0248312943685445,
                -0.909663765041406,
                0.15113457801079908,
                -2.9543270640295707
            ]
        },
        {
            "positions": [
                0.12260080556334486,
                -1.1485198463729438,
                1.9876346296408571,
                -0.8487613006500367,
                0.13834205949587178,
                -3.1337607512017205
            ]
        }
    ]
}