{
    "goal": {
        "global_pose": {
            "orientation": {
                "w": -0.00223480608172531,
                "x": 0.0024358444001904467,
                "y": 0.7094548369677653,
                "z": -0.704743149386269
            },
            "position": {
                "x": -0.37947507619857795,
                "y": -0.6371506643295288,
                "z": 0.19426114857196808
            }
        },
        "name": "move_to_magneteinheit_C"
    },
    "id": "ProjEST_move_to_magneteinheit_C_93",
    "joint_names": [
        "shoulder_pan_joint",
        "shoulder_lift_joint",
        "elbow_joint",
        "wrist_1_joint",
        "wrist_2_joint",
        "wrist_3_joint"
    ],
    "metrics": {
        "cart_traj_len": 0.9675634225388664,
        "distance_elbow_joint": 0.9212192047582,
        "distance_shoulder_lift_joint": 1.024701536294586,
        "distance_shoulder_pan_joint": 1.7139449405295963,
        "distance_wrist_1_joint": 0.6191234713735755,
        "distance_wrist_2_joint": 0.8097780127833727,
        "distance_wrist_3_joint": 2.3167373082356884,
        "smoothness": 1.1645878383706605,
        "time": 0.769311988,
        "traj_len": 2.721305656109769,
        "weighted_distance": 3.6698611110780943
    },
    "planner": "ProjEST",
    "start": {
        "state": {
            "elbow_joint": 1.9565354010623817,
            "shoulder_lift_joint": -1.4165861575791021,
            "shoulder_pan_joint": -1.6717766225146293,
            "wrist_1_joint": -0.5286633292919765,
            "wrist_2_joint": 1.472756589071564,
            "wrist_3_joint": -3.1238370188695823
        }
    },
    "waypoints": [
        {
            "positions": [
                -1.6717766225146293,
                -1.4165861575791021,
                1.9565354010623817,
                -0.5286633292919765,
                1.472756589071564,
                -3.1238370188695823
            ]
        },
        {
            "positions": [
                -1.7862202590565364,
                -1.4516406452684893,
                2.000742820623292,
                -0.5140277447102686,
                1.4144721710458699,
                -3.0196134558462515
            ]
        },
        {
            "positions": [
                -1.9006638955984434,
                -1.4866951329578766,
                2.044950240184202,
                -0.4993921601285606,
                1.3561877530201758,
                -2.915389892822921
            ]
        },
        {
            "positions": [
                -2.0151075321403504,
                -1.5217496206472638,
                2.089157659745112,
                -0.48475657554685264,
                1.2979033349944817,
                -2.8111663297995904
            ]
        },
        {
            "positions": [
                -2.1295511686822572,
                -1.556804108336651,
                2.1333650793060226,
                -0.4701209909651447,
                1.2396189169687877,
                -2.70694276677626
            ]
        },
        {
            "positions": [
                -2.2439948052241645,
                -1.5918585960260383,
                2.1775724988669327,
                -0.4554854063834368,
                1.1813344989430936,
                -2.602719203752929
            ]
        },
        {
            "positions": [
                -2.3584384417660713,
                -1.6269130837154255,
                2.221779918427843,
                -0.4408498218017289,
                1.1230500809173996,
                -2.498495640729599
            ]
        },
        {
            "positions": [
                -2.472882078307978,
                -1.6619675714048128,
                2.265987337988753,
                -0.42621423722002094,
                1.0647656628917055,
                -2.394272077706268
            ]
        },
        {
            "positions": [
                -2.5873257148498854,
                -1.6970220590942,
                2.310194757549663,
                -0.411578652638313,
                1.0064812448660114,
                -2.2900485146829377
            ]
        },
        {
            "positions": [
                -2.7017693513917926,
                -1.7320765467835872,
                2.3544021771105736,
                -0.39694306805660506,
                0.9481968268403173,
                -2.185824951659607
            ]
        },
        {
            "positions": [
                -2.8162129879336995,
                -1.7671310344729745,
                2.3986095966714838,
                -0.3823074834748971,
                0.8899124088146232,
                -2.081601388636276
            ]
        },
        {
            "positions": [
                -2.9306566244756063,
                -1.8021855221623617,
                2.442817016232394,
                -0.3676718988931892,
                0.8316279907889291,
                -1.9773778256129457
            ]
        },
        {
            "positions": [
                -2.8800938535235376,
                -1.731174169749992,
                2.3944906173892617,
                -0.418575459001499,
                0.8128891669555138,
                -2.107408727277285
            ]
        },
        {
            "positions": [
                -2.8295310825714686,
                -1.6601628173376226,
                2.34616421854613,
                -0.46947901910980877,
                0.7941503431220985,
                -2.237439628941624
            ]
        },
        {
            "positions": [
                -2.7789683116194,
                -1.589151464925253,
                2.297837819702998,
                -0.5203825792181186,
                0.7754115192886831,
                -2.367470530605963
            ]
        },
        {
            "positions": [
                -2.728405540667331,
                -1.5181401125128833,
                2.249511420859866,
                -0.5712861393264284,
                0.7566726954552678,
                -2.497501432270302
            ]
        },
        {
            "positions": [
                -2.6778427697152622,
                -1.4471287601005138,
                2.201185022016734,
                -0.6221896994347382,
                0.7379338716218525,
                -2.6275323339346413
            ]
        },
        {
            "positions": [
                -2.627279998763193,
                -1.3761174076881442,
                2.152858623173602,
                -0.673093259543048,
                0.7191950477884372,
                -2.75756323559898
            ]
        },
        {
            "positions": [
                -2.5767172278111246,
                -1.3051060552757745,
                2.10453222433047,
                -0.7239968196513578,
                0.7004562239550218,
                -2.8875941372633194
            ]
        },
        {
            "positions": [
                -2.5261544568590555,
                -1.234094702863405,
                2.0562058254873383,
                -0.7749003797596676,
                0.6817174001216065,
                -3.017625038927658
            ]
        },
        {
            "positions": [
                -2.475591685906987,
                -1.1630833504510354,
                2.007879426644206,
                -0.8258039398679774,
                0.6629785762881912,
                -3.1476559405919975
            ]
        }
    ]
}