{
    "goal": {
        "global_pose": {
            "orientation": {
                "w": -0.4816463035849501,
                "x": 0.5182115481033762,
                "y": 0.4908360881923453,
                "z": -0.5084816262002911
            },
            "position": {
                "x": -0.8240239810943604,
                "y": 0.19912469901144506,
                "z": 0.16403168439865112
            }
        },
        "name": "move_to_storage_D"
    },
    "id": "ProjEST_move_to_storage_D_46",
    "joint_names": [
        "shoulder_pan_joint",
        "shoulder_lift_joint",
        "elbow_joint",
        "wrist_1_joint",
        "wrist_2_joint",
        "wrist_3_joint"
    ],
    "metrics": {
        "cart_traj_len": 0.6526344570967145,
        "distance_elbow_joint": 0.589764511820287,
        "distance_shoulder_lift_joint": 0.27745725671218757,
        "distance_shoulder_pan_joint": 0.15137203463881502,
        "distance_wrist_1_joint": 4.0138394793839005,
        "distance_wrist_2_joint": 1.7825246499649559,
        "distance_wrist_3_joint": 3.236053787900536,
        "smoothness": 0.29492578790438123,
        "time": 0.104057875,
        "traj_len": 3.1703330614338743,
        "weighted_distance": 4.72435005324231
    },
    "planner": "ProjEST",
    "start": {
        "state": {
            "elbow_joint": -2.384821988534728,
            "shoulder_lift_joint": -2.2788054721415256,
            "shoulder_pan_joint": -0.1854694642142757,
            "wrist_1_joint": 1.4845938289331202,
            "wrist_2_joint": 0.17898776772866878,
            "wrist_3_joint": 0.037105688729662994
        }
    },
    "waypoints": [
        {
            "positions": [
                -0.1854694642142757,
                -2.2788054721415256,
                -2.384821988534728,
                1.4845938289331202,
                0.17898776772866878,
                0.037105688729662994
            ]
        },
        {
            "positions": [
                -0.11699330833223011,
                -2.1712434891769616,
                -2.393548604538945,
                1.532128820351745,
                0.09491513787920229,
                0.06556973528095217
            ]
        },
        {
            "positions": [
                -0.04851715245018451,
                -2.0636815062123977,
                -2.402275220543163,
                1.5796638117703696,
                0.01084250802973581,
                0.09403378183224134
            ]
        },
        {
            "positions": [
                -0.04791633066373768,
                -2.0662787266616918,
                -2.378428917217669,
                1.4163817494142592,
                -0.05642329989801513,
                -0.038429788784340196
            ]
        },
        {
            "positions": [
                -0.04731550887729085,
                -2.068875947110986,
                -2.354582613892175,
                1.2530996870581488,
                -0.12368910782576607,
                -0.17089335940092173
            ]
        },
        {
            "positions": [
                -0.046714687090844025,
                -2.07147316756028,
                -2.330736310566681,
                1.0898176247020381,
                -0.19095491575351706,
                -0.3033569300175033
            ]
        },
        {
            "positions": [
                -0.04611386530439719,
                -2.074070388009574,
                -2.3068900072411873,
                0.9265355623459277,
                -0.25822072368126797,
                -0.43582050063408484
            ]
        },
        {
            "positions": [
                -0.045513043517950366,
                -2.076667608458868,
                -2.2830437039156934,
                0.7632534999898172,
                -0.32548653160901897,
                -0.5682840712506665
            ]
        },
        {
            "positions": [
                -0.044912221731503534,
                -2.0792648289081628,
                -2.2591974005901996,
                0.5999714376337068,
                -0.3927523395367699,
                -0.700747641867248
            ]
        },
        {
            "positions": [
                -0.04431139994505671,
                -2.081862049357457,
                -2.2353510972647057,
                0.4366893752775962,
                -0.4600181474645209,
                -0.8332112124838297
            ]
        },
        {
            "positions": [
                -0.043710578158609875,
                -2.084459269806751,
                -2.211504793939212,
                0.2734073129214858,
                -0.5272839553922717,
                -0.965674783100411
            ]
        },
        {
            "positions": [
                -0.04310975637216305,
                -2.087056490256045,
                -2.1876584906137184,
                0.11012525056537537,
                -0.5945497633200227,
                -1.0981383537169926
            ]
        },
        {
            "positions": [
                -0.04250893458571622,
                -2.0896537107053392,
                -2.1638121872882246,
                -0.05315681179073528,
                -0.6618155712477737,
                -1.2306019243335742
            ]
        },
        {
            "positions": [
                -0.04190811279926939,
                -2.0922509311546333,
                -2.1399658839627307,
                -0.21643887414684548,
                -0.7290813791755246,
                -1.3630654949501557
            ]
        },
        {
            "positions": [
                -0.04130729101282256,
                -2.0948481516039275,
                -2.116119580637237,
                -0.37972093650295613,
                -0.7963471871032756,
                -1.4955290655667373
            ]
        },
        {
            "positions": [
                -0.04070646922637573,
                -2.0974453720532216,
                -2.092273277311743,
                -0.5430029988590666,
                -0.8636129950310265,
                -1.6279926361833188
            ]
        },
        {
            "positions": [
                -0.04010564743992891,
                -2.1000425925025157,
                -2.068426973986249,
                -0.7062850612151772,
                -0.9308788029587776,
                -1.7604562067999006
            ]
        },
        {
            "positions": [
                -0.039504825653482074,
                -2.10263981295181,
                -2.044580670660755,
                -0.8695671235712874,
                -0.9981446108865284,
                -1.8929197774164819
            ]
        },
        {
            "positions": [
                -0.03890400386703525,
                -2.105237033401104,
                -2.0207343673352614,
                -1.032849185927398,
                -1.0654104188142792,
                -2.0253833480330634
            ]
        },
        {
            "positions": [
                -0.038303182080588416,
                -2.107834253850398,
                -1.9968880640097675,
                -1.1961312482835087,
                -1.1326762267420303,
                -2.1578469186496454
            ]
        },
        {
            "positions": [
                -0.03770236029414159,
                -2.110431474299692,
                -1.9730417606842736,
                -1.359413310639619,
                -1.1999420346697813,
                -2.290310489266227
            ]
        },
        {
            "positions": [
                -0.03710153850769476,
                -2.1130286947489867,
                -1.9491954573587797,
                -1.5226953729957295,
                -1.2672078425975322,
                -2.4227740598828085
            ]
        },
        {
            "positions": [
                -0.03650071672124793,
                -2.115625915198281,
                -1.9253491540332859,
                -1.6859774353518402,
                -1.3344736505252832,
                -2.55523763049939
            ]
        },
        {
            "positions": [
                -0.0358998949348011,
                -2.118223135647575,
                -1.901502850707792,
                -1.8492594977079504,
                -1.401739458453034,
                -2.6877012011159715
            ]
        },
        {
            "positions": [
                -0.035299073148354274,
                -2.120820356096869,
                -1.8776565473822984,
                -2.0125415600640606,
                -1.469005266380785,
                -2.820164771732553
            ]
        },
        {
            "positions": [
                -0.03469825136190745,
                -2.123417576546163,
                -1.8538102440568045,
                -2.1758236224201717,
                -1.5362710743085362,
                -2.9526283423491346
            ]
        },
        {
            "positions": [
                -0.034097429575460615,
                -2.1260147969954573,
                -1.8299639407313106,
                -2.339105684776282,
                -1.603536882236287,
                -3.085091912965716
            ]
        }
    ]
}