{
    "goal": {
        "global_pose": {
            "orientation": {
                "w": 0.7031023502349854,
                "x": -0.7110244035720825,
                "y": 0.007748599164187908,
                "z": 0.005598929710686207
            },
            "position": {
                "x": 0.11585023208521307,
                "y": 0.44412534475326537,
                "z": 0.3711530566215515
            }
        },
        "name": "move_to_auspresseinheit_A"
    },
    "id": "ProjEST_move_to_auspresseinheit_A_150",
    "joint_names": [
        "shoulder_pan_joint",
        "shoulder_lift_joint",
        "elbow_joint",
        "wrist_1_joint",
        "wrist_2_joint",
        "wrist_3_joint"
    ],
    "metrics": {
        "cart_traj_len": 0.9722590064982234,
        "distance_elbow_joint": 0.7332936491997297,
        "distance_shoulder_lift_joint": 0.6471194287148916,
        "distance_shoulder_pan_joint": 1.0418663846672793,
        "distance_wrist_1_joint": 0.5562681044704054,
        "distance_wrist_2_joint": 0.8424108145834239,
        "distance_wrist_3_joint": 0.7673863642488832,
        "smoothness": 0.797268825855759,
        "time": 0.136851806,
        "traj_len": 2.142042190500601,
        "weighted_distance": 2.742589359243598
    },
    "planner": "ProjEST",
    "start": {
        "state": {
            "elbow_joint": 2.4225746658250005,
            "shoulder_lift_joint": -1.3736534386056498,
            "shoulder_pan_joint": -0.3378633547517467,
            "wrist_1_joint": -1.0288598680537169,
            "wrist_2_joint": 1.233022673432363,
            "wrist_3_joint": -3.0940220416140027
        }
    },
    "waypoints": [
        {
            "positions": [
                -0.3378633547517467,
                -1.3736534386056498,
                2.4225746658250005,
                -1.0288598680537169,
                1.233022673432363,
                -3.0940220416140027
            ]
        },
        {
            "positions": [
                -0.31772956489852255,
                -1.3599097290640132,
                2.3275322114081574,
                -0.9773387926278643,
                1.149914939161546,
                -3.001741721275355
            ]
        },
        {
            "positions": [
                -0.29759577504529844,
                -1.3461660195223768,
                2.2324897569913142,
                -0.9258177172020116,
                1.0668072048907289,
                -2.9094614009367077
            ]
        },
        {
            "positions": [
                -0.2774619851920743,
                -1.3324223099807402,
                2.1374473025744716,
                -0.8742966417761588,
                0.9836994706199118,
                -2.8171810805980604
            ]
        },
        {
            "positions": [
                -0.25732819533885015,
                -1.3186786004391036,
                2.0424048481576285,
                -0.8227755663503062,
                0.9005917363490947,
                -2.7249007602594126
            ]
        },
        {
            "positions": [
                -0.15261898083265446,
                -1.4012795806095286,
                2.089196928614315,
                -0.773835650587263,
                0.8498758441851489,
                -2.7335863722929
            ]
        },
        {
            "positions": [
                -0.04790976632645877,
                -1.4838805607799537,
                2.135989009071002,
                -0.7248957348242198,
                0.7991599520212032,
                -2.7422719843263867
            ]
        },
        {
            "positions": [
                0.05679944817973692,
                -1.5664815409503787,
                2.1827810895276887,
                -0.6759558190611765,
                0.7484440598572575,
                -2.750957596359874
            ]
        },
        {
            "positions": [
                0.1615086626859326,
                -1.6490825211208038,
                2.2295731699843753,
                -0.6270159032981333,
                0.6977281676933117,
                -2.759643208393361
            ]
        },
        {
            "positions": [
                0.26621787719212836,
                -1.731683501291229,
                2.276365250441062,
                -0.57807598753509,
                0.6470122755293659,
                -2.768328820426848
            ]
        },
        {
            "positions": [
                0.370927091698324,
                -1.814284481461654,
                2.323157330897749,
                -0.5291360717720468,
                0.5962963833654201,
                -2.777014432460335
            ]
        },
        {
            "positions": [
                0.4756363062045198,
                -1.8968854616320792,
                2.3699494113544355,
                -0.48019615600900356,
                0.5455804912014743,
                -2.7857000444938222
            ]
        },
        {
            "positions": [
                0.5898196680600262,
                -1.903854326309764,
                2.382739045522211,
                -0.4763939597961575,
                0.623064807377742,
                -2.9544329438237638
            ]
        },
        {
            "positions": [
                0.7040030299155325,
                -1.910823190987449,
                2.395528679689986,
                -0.4725917635833115,
                0.7005491235540096,
                -3.1231658431537057
            ]
        }
    ]
}