{
    "goal": {
        "global_pose": {
            "orientation": {
                "w": -0.4816463035849501,
                "x": 0.5182115481033762,
                "y": 0.4908360881923453,
                "z": -0.5084816262002911
            },
            "position": {
                "x": -0.8240239810943604,
                "y": 0.19912469901144506,
                "z": 0.16403168439865112
            }
        },
        "name": "move_to_storage_D"
    },
    "id": "ProjEST_move_to_storage_D_83",
    "joint_names": [
        "shoulder_pan_joint",
        "shoulder_lift_joint",
        "elbow_joint",
        "wrist_1_joint",
        "wrist_2_joint",
        "wrist_3_joint"
    ],
    "metrics": {
        "cart_traj_len": 0.5651905580007169,
        "distance_elbow_joint": 0.5566549276893031,
        "distance_shoulder_lift_joint": 0.15081495275098478,
        "distance_shoulder_pan_joint": 0.1552678552054947,
        "distance_wrist_1_joint": 3.8263586505714895,
        "distance_wrist_2_joint": 1.7747828507292527,
        "distance_wrist_3_joint": 3.7947850207541896,
        "smoothness": 0.3601109085259697,
        "time": 0.159290432,
        "traj_len": 3.202914962608391,
        "weighted_distance": 4.842455554830609
    },
    "planner": "ProjEST",
    "start": {
        "state": {
            "elbow_joint": -2.384821988534728,
            "shoulder_lift_joint": -2.2788054721415256,
            "shoulder_pan_joint": -0.1854694642142757,
            "wrist_1_joint": 1.4845938289331202,
            "wrist_2_joint": 0.17898776772866878,
            "wrist_3_joint": 0.037105688729662994
        }
    },
    "waypoints": [
        {
            "positions": [
                -0.1854694642142757,
                -2.2788054721415256,
                -2.384821988534728,
                1.4845938289331202,
                0.17898776772866878,
                0.037105688729662994
            ]
        },
        {
            "positions": [
                -0.13426215865336916,
                -2.2532479343973897,
                -2.3568452443030172,
                1.4469769489958184,
                0.09010851841383545,
                -0.07047610886666916
            ]
        },
        {
            "positions": [
                -0.08305485309246258,
                -2.2276903966532537,
                -2.328868500071306,
                1.4093600690585169,
                0.0012292690990021171,
                -0.17805790646300132
            ]
        },
        {
            "positions": [
                -0.031847547531556004,
                -2.202132858909118,
                -2.3008917558395954,
                1.371743189121215,
                -0.08764998021583123,
                -0.2856397040593335
            ]
        },
        {
            "positions": [
                -0.03191612830333831,
                -2.1990435947625104,
                -2.2811948935481716,
                1.217013688672899,
                -0.15048935949852926,
                -0.14097138622745042
            ]
        },
        {
            "positions": [
                -0.031984709075120604,
                -2.195954330615903,
                -2.261498031256748,
                1.062284188224583,
                -0.21332873878122727,
                0.0036969316044326295
            ]
        },
        {
            "positions": [
                -0.03205328984690291,
                -2.1928650664692957,
                -2.241801168965324,
                0.907554687776267,
                -0.27616811806392527,
                0.14836524943631568
            ]
        },
        {
            "positions": [
                -0.03212187061868521,
                -2.1897758023226883,
                -2.2221043066739004,
                0.752825187327951,
                -0.3390074973466233,
                0.29303356726819874
            ]
        },
        {
            "positions": [
                -0.032190451390467514,
                -2.186686538176081,
                -2.2024074443824766,
                0.598095686879635,
                -0.4018468766293214,
                0.4377018851000818
            ]
        },
        {
            "positions": [
                -0.03225903216224982,
                -2.1835972740294736,
                -2.182710582091053,
                0.443366186431319,
                -0.4646862559120194,
                0.5823702029319648
            ]
        },
        {
            "positions": [
                -0.032327612934032114,
                -2.180508009882866,
                -2.163013719799629,
                0.28863668598300296,
                -0.5275256351947174,
                0.7270385207638479
            ]
        },
        {
            "positions": [
                -0.03239619370581442,
                -2.177418745736259,
                -2.1433168575082053,
                0.13390718553468695,
                -0.5903650144774154,
                0.871706838595731
            ]
        },
        {
            "positions": [
                -0.03246477447759672,
                -2.1743294815896514,
                -2.1236199952167816,
                -0.02082231491362907,
                -0.6532043937601135,
                1.016375156427614
            ]
        },
        {
            "positions": [
                -0.03253335524937902,
                -2.171240217443044,
                -2.103923132925358,
                -0.17555181536194508,
                -0.7160437730428115,
                1.161043474259497
            ]
        },
        {
            "positions": [
                -0.03260193602116132,
                -2.1681509532964367,
                -2.084226270633934,
                -0.3302813158102611,
                -0.7788831523255095,
                1.30571179209138
            ]
        },
        {
            "positions": [
                -0.032670516792943624,
                -2.1650616891498293,
                -2.0645294083425103,
                -0.4850108162585771,
                -0.8417225316082075,
                1.4503801099232632
            ]
        },
        {
            "positions": [
                -0.03273909756472593,
                -2.161972425003222,
                -2.0448325460510866,
                -0.6397403167068929,
                -0.9045619108909055,
                1.595048427755146
            ]
        },
        {
            "positions": [
                -0.03280767833650823,
                -2.1588831608566146,
                -2.0251356837596624,
                -0.7944698171552091,
                -0.9674012901736037,
                1.7397167455870293
            ]
        },
        {
            "positions": [
                -0.03287625910829053,
                -2.155793896710007,
                -2.0054388214682386,
                -0.9491993176035249,
                -1.0302406694563015,
                1.8843850634189125
            ]
        },
        {
            "positions": [
                -0.03294483988007283,
                -2.1527046325634,
                -1.985741959176815,
                -1.1039288180518412,
                -1.0930800487389996,
                2.0290533812507956
            ]
        },
        {
            "positions": [
                -0.033013420651855134,
                -2.1496153684167925,
                -1.966045096885391,
                -1.2586583185001574,
                -1.1559194280216978,
                2.1737216990826784
            ]
        },
        {
            "positions": [
                -0.03308200142363743,
                -2.146526104270185,
                -1.9463482345939673,
                -1.4133878189484732,
                -1.2187588073043958,
                2.3183900169145613
            ]
        },
        {
            "positions": [
                -0.033150582195419734,
                -2.1434368401235777,
                -1.9266513723025436,
                -1.568117319396789,
                -1.2815981865870936,
                2.463058334746444
            ]
        },
        {
            "positions": [
                -0.03321916296720204,
                -2.1403475759769703,
                -1.9069545100111198,
                -1.7228468198451052,
                -1.3444375658697918,
                2.607726652578328
            ]
        },
        {
            "positions": [
                -0.03328774373898434,
                -2.137258311830363,
                -1.887257647719696,
                -1.8775763202934215,
                -1.4072769451524898,
                2.7523949704102106
            ]
        },
        {
            "positions": [
                -0.033356324510766644,
                -2.1341690476837556,
                -1.8675607854282723,
                -2.0323058207417373,
                -1.4701163244351878,
                2.8970632882420935
            ]
        },
        {
            "positions": [
                -0.03342490528254894,
                -2.131079783537148,
                -1.8478639231368486,
                -2.1870353211900535,
                -1.5329557037178858,
                3.041731606073977
            ]
        },
        {
            "positions": [
                -0.033493486054331244,
                -2.127990519390541,
                -1.8281670608454248,
                -2.3417648216383693,
                -1.5957950830005838,
                3.18639992390586
            ]
        }
    ]
}