{
    "goal": {
        "global_pose": {
            "orientation": {
                "w": -0.4816463035849501,
                "x": 0.5182115481033762,
                "y": 0.4908360881923453,
                "z": -0.5084816262002911
            },
            "position": {
                "x": -0.8240239810943604,
                "y": 0.19912469901144506,
                "z": 0.16403168439865112
            }
        },
        "name": "move_to_storage_D"
    },
    "id": "ProjEST_move_to_storage_D_79",
    "joint_names": [
        "shoulder_pan_joint",
        "shoulder_lift_joint",
        "elbow_joint",
        "wrist_1_joint",
        "wrist_2_joint",
        "wrist_3_joint"
    ],
    "metrics": {
        "cart_traj_len": 3.793620572366801,
        "distance_elbow_joint": 4.215295217666727,
        "distance_shoulder_lift_joint": 1.264338435565533,
        "distance_shoulder_pan_joint": 2.813946111768003,
        "distance_wrist_1_joint": 3.0798959958914285,
        "distance_wrist_2_joint": 1.7991022851841896,
        "distance_wrist_3_joint": 3.2378840683924937,
        "smoothness": 0.35781417727126075,
        "time": 0.24159228300000002,
        "traj_len": 4.050982857834426,
        "weighted_distance": 5.269272106499054
    },
    "planner": "ProjEST",
    "start": {
        "state": {
            "elbow_joint": -2.384821988534728,
            "shoulder_lift_joint": -2.2788054721415256,
            "shoulder_pan_joint": -0.1854694642142757,
            "wrist_1_joint": 1.4845938289331202,
            "wrist_2_joint": 0.17898776772866878,
            "wrist_3_joint": 0.037105688729662994
        }
    },
    "waypoints": [
        {
            "positions": [
                -0.1854694642142757,
                -2.2788054721415256,
                -2.384821988534728,
                1.4845938289331202,
                0.17898776772866878,
                0.037105688729662994
            ]
        },
        {
            "positions": [
                -0.0684288998785347,
                -2.186863713889532,
                -2.3491205003771816,
                1.5384357337157168,
                0.13272254833913266,
                0.05109204794384179
            ]
        },
        {
            "positions": [
                0.0486116644572063,
                -2.0949219556375387,
                -2.3134190122196348,
                1.5922776384983135,
                0.08645732894959653,
                0.06507840715802059
            ]
        },
        {
            "positions": [
                0.1656522287929473,
                -2.0029801973855452,
                -2.2777175240620884,
                1.6461195432809104,
                0.04019210956006039,
                0.07906476637219939
            ]
        },
        {
            "positions": [
                0.2826927931286883,
                -1.9110384391335515,
                -2.242016035904542,
                1.699961448063507,
                -0.006073109829475731,
                0.09305112558637818
            ]
        },
        {
            "positions": [
                0.34848464577401794,
                -1.8833949148168987,
                -2.142075833777172,
                1.6160671458821283,
                0.03571607979612969,
                0.018671199556826834
            ]
        },
        {
            "positions": [
                0.41427649841934766,
                -1.8557513905002458,
                -2.0421356316498014,
                1.5321728437007496,
                0.0775052694217351,
                -0.05570872647272451
            ]
        },
        {
            "positions": [
                0.4800683510646773,
                -1.828107866183593,
                -1.9421954295224313,
                1.4482785415193709,
                0.11929445904734054,
                -0.13008865250227586
            ]
        },
        {
            "positions": [
                0.545860203710007,
                -1.8004643418669402,
                -1.842255227395061,
                1.364384239337992,
                0.16108364867294594,
                -0.2044685785318272
            ]
        },
        {
            "positions": [
                0.6116520563553367,
                -1.7728208175502873,
                -1.7423150252676907,
                1.2804899371566134,
                0.20287283829855135,
                -0.27884850456137855
            ]
        },
        {
            "positions": [
                0.6774439090006663,
                -1.7451772932336345,
                -1.6423748231403204,
                1.1965956349752345,
                0.2446620279241568,
                -0.3532284305909299
            ]
        },
        {
            "positions": [
                0.743235761645996,
                -1.7175337689169816,
                -1.54243462101295,
                1.1127013327938557,
                0.2864512175497622,
                -0.42760835662048124
            ]
        },
        {
            "positions": [
                0.8090276142913257,
                -1.6898902446003288,
                -1.44249441888558,
                1.028807030612477,
                0.3282404071753676,
                -0.5019882826500326
            ]
        },
        {
            "positions": [
                0.8748194669366554,
                -1.662246720283676,
                -1.3425542167582094,
                0.9449127284310983,
                0.370029596800973,
                -0.5763682086795839
            ]
        },
        {
            "positions": [
                0.940611319581985,
                -1.634603195967023,
                -1.2426140146308393,
                0.8610184262497196,
                0.41181878642657843,
                -0.6507481347091353
            ]
        },
        {
            "positions": [
                1.0064031722273148,
                -1.6069596716503702,
                -1.142673812503469,
                0.7771241240683407,
                0.4536079760521839,
                -0.7251280607386866
            ]
        },
        {
            "positions": [
                1.0721950248726444,
                -1.5793161473337176,
                -1.0427336103760987,
                0.6932298218869619,
                0.49539716567778935,
                -0.799507986768238
            ]
        },
        {
            "positions": [
                1.137986877517974,
                -1.5516726230170645,
                -0.9427934082487284,
                0.6093355197055832,
                0.5371863553033948,
                -0.8738879127977893
            ]
        },
        {
            "positions": [
                1.2037787301633038,
                -1.524029098700412,
                -0.8428532061213583,
                0.5254412175242045,
                0.5789755449290002,
                -0.9482678388273407
            ]
        },
        {
            "positions": [
                1.2695705828086334,
                -1.4963855743837589,
                -0.742913003993988,
                0.44154691534282575,
                0.6207647345546056,
                -1.0226477648568921
            ]
        },
        {
            "positions": [
                1.335362435453963,
                -1.4687420500671062,
                -0.6429728018666176,
                0.35765261316144703,
                0.662553924180211,
                -1.0970276908864434
            ]
        },
        {
            "positions": [
                1.4011542880992927,
                -1.4410985257504532,
                -0.5430325997392473,
                0.2737583109800683,
                0.7043431138058164,
                -1.1714076169159946
            ]
        },
        {
            "positions": [
                1.4669461407446225,
                -1.4134550014338005,
                -0.443092397611877,
                0.1898640087986896,
                0.7461323034314218,
                -1.245787542945546
            ]
        },
        {
            "positions": [
                1.532737993389952,
                -1.3858114771171475,
                -0.34315219548450693,
                0.10596970661731087,
                0.7879214930570272,
                -1.3201674689750975
            ]
        },
        {
            "positions": [
                1.5985298460352817,
                -1.3581679528004948,
                -0.2432119933571366,
                0.022075404435932144,
                0.8297106826826326,
                -1.3945473950046487
            ]
        },
        {
            "positions": [
                1.6643216986806115,
                -1.3305244284838418,
                -0.14327179122976608,
                -0.0618188977454468,
                0.8714998723082381,
                -1.4689273210342
            ]
        },
        {
            "positions": [
                1.7301135513259411,
                -1.3028809041671892,
                -0.043331589102395984,
                -0.14571319992682552,
                0.9132890619338435,
                -1.5433072470637514
            ]
        },
        {
            "positions": [
                1.7959054039712707,
                -1.275237379850536,
                0.05660861302497411,
                -0.22960750210820424,
                0.9550782515594489,
                -1.617687173093303
            ]
        },
        {
            "positions": [
                1.8616972566166006,
                -1.2475938555338835,
                0.15654881515234464,
                -0.3135018042895832,
                0.9968674411850544,
                -1.6920670991228541
            ]
        },
        {
            "positions": [
                1.9274891092619302,
                -1.2199503312172306,
                0.25648901727971474,
                -0.3973961064709617,
                1.0386566308106597,
                -1.7664470251524054
            ]
        },
        {
            "positions": [
                1.9932809619072598,
                -1.1923068069005778,
                0.3564292194070853,
                -0.48129040865234063,
                1.0804458204362652,
                -1.8408269511819568
            ]
        },
        {
            "positions": [
                2.0590728145525894,
                -1.164663282583925,
                0.45636942153445537,
                -0.5651847108337191,
                1.1222350100618705,
                -1.9152068772115083
            ]
        },
        {
            "positions": [
                2.124864667197919,
                -1.137019758267272,
                0.5563096236618255,
                -0.6490790130150981,
                1.164024199687476,
                -1.9895868032410595
            ]
        },
        {
            "positions": [
                2.190656519843249,
                -1.1093762339506192,
                0.656249825789196,
                -0.7329733151964766,
                1.2058133893130814,
                -2.0639667292706108
            ]
        },
        {
            "positions": [
                2.2564483724885784,
                -1.0817327096339664,
                0.7561900279165661,
                -0.8168676173778555,
                1.2476025789386869,
                -2.1383466553001624
            ]
        },
        {
            "positions": [
                2.3222402251339083,
                -1.0540891853173135,
                0.8561302300439366,
                -0.900761919559234,
                1.2893917685642922,
                -2.2127265813297137
            ]
        },
        {
            "positions": [
                2.388032077779238,
                -1.0264456610006607,
                0.9560704321713067,
                -0.9846562217406128,
                1.3311809581898977,
                -2.287106507359265
            ]
        },
        {
            "positions": [
                2.4223813020327367,
                -1.0247344289399938,
                1.0809851174514058,
                -0.9589546921753386,
                1.291639909674659,
                -2.4016466500149987
            ]
        },
        {
            "positions": [
                2.456730526286235,
                -1.023023196879327,
                1.2058998027315047,
                -0.9332531626100642,
                1.2520988611594202,
                -2.516186792670732
            ]
        },
        {
            "positions": [
                2.4910797505397335,
                -1.0213119648186602,
                1.3308144880116037,
                -0.9075516330447899,
                1.2125578126441814,
                -2.6307269353264657
            ]
        },
        {
            "positions": [
                2.525428974793232,
                -1.0196007327579932,
                1.4557291732917026,
                -0.8818501034795155,
                1.1730167641289426,
                -2.7452670779821995
            ]
        },
        {
            "positions": [
                2.5597781990467308,
                -1.0178895006973263,
                1.5806438585718017,
                -0.8561485739142413,
                1.1334757156137039,
                -2.859807220637933
            ]
        },
        {
            "positions": [
                2.594127423300229,
                -1.0161782686366596,
                1.7055585438519005,
                -0.8304470443489669,
                1.093934667098465,
                -2.9743473632936666
            ]
        },
        {
            "positions": [
                2.6284766475537276,
                -1.0144670365759927,
                1.8304732291319996,
                -0.8047455147836926,
                1.0543936185832263,
                -3.0888875059494003
            ]
        }
    ]
}