{
    "goal": {
        "global_pose": {
            "orientation": {
                "w": 0.7047431493862688,
                "x": -0.7094548369677653,
                "y": 0.0024358444001904,
                "z": -0.0022348060817251984
            },
            "position": {
                "x": -0.39052492380142206,
                "y": 0.3671506643295288,
                "z": 0.19426114857196808
            }
        },
        "name": "move_to_magneteinheit_D"
    },
    "id": "ProjEST_move_to_magneteinheit_D_60",
    "joint_names": [
        "shoulder_pan_joint",
        "shoulder_lift_joint",
        "elbow_joint",
        "wrist_1_joint",
        "wrist_2_joint",
        "wrist_3_joint"
    ],
    "metrics": {
        "cart_traj_len": 4.383825935286221,
        "distance_elbow_joint": 3.5067943638208074,
        "distance_shoulder_lift_joint": 1.6313269437842244,
        "distance_shoulder_pan_joint": 3.109105954905818,
        "distance_wrist_1_joint": 1.5655415469147114,
        "distance_wrist_2_joint": 0.6806697993639497,
        "distance_wrist_3_joint": 4.123150339422457,
        "smoothness": 0.4916569513994483,
        "time": 0.5408767369999999,
        "traj_len": 3.8231647817236394,
        "weighted_distance": 5.010898220213173
    },
    "planner": "ProjEST",
    "start": {
        "state": {
            "elbow_joint": 0.749534889911806,
            "shoulder_lift_joint": -0.6476975780787326,
            "shoulder_pan_joint": -2.711696901376241,
            "wrist_1_joint": -0.07506478083263063,
            "wrist_2_joint": 0.43296659715538205,
            "wrist_3_joint": -3.14703540197715
        }
    },
    "waypoints": [
        {
            "positions": [
                -2.711696901376241,
                -0.6476975780787326,
                0.749534889911806,
                -0.07506478083263063,
                0.43296659715538205,
                -3.14703540197715
            ]
        },
        {
            "positions": [
                -2.7232229052211547,
                -0.707973523749978,
                0.795787061589811,
                -0.058506014626242636,
                0.46570739495753877,
                -2.9427712036828706
            ]
        },
        {
            "positions": [
                -2.734748909066069,
                -0.7682494694212235,
                0.842039233267816,
                -0.041947248419854644,
                0.49844819275969543,
                -2.738507005388591
            ]
        },
        {
            "positions": [
                -2.746274912910983,
                -0.828525415092469,
                0.888291404945821,
                -0.02538848221346665,
                0.5311889905618522,
                -2.534242807094312
            ]
        },
        {
            "positions": [
                -2.7578009167558966,
                -0.8888013607637144,
                0.9345435766238261,
                -0.008829716007078658,
                0.5639297883640089,
                -2.3299786088000327
            ]
        },
        {
            "positions": [
                -2.66059895847627,
                -0.9323942724883698,
                0.842739943275811,
                0.03360109543128804,
                0.5476462350754145,
                -2.2317614958597507
            ]
        },
        {
            "positions": [
                -2.5633970001966437,
                -0.9759871842130252,
                0.7509363099277959,
                0.07603190686965473,
                0.5313626817868202,
                -2.1335443829194687
            ]
        },
        {
            "positions": [
                -2.4661950419170173,
                -1.0195800959376806,
                0.6591326765797809,
                0.11846271830802144,
                0.515079128498226,
                -2.0353272699791867
            ]
        },
        {
            "positions": [
                -2.368993083637391,
                -1.063173007662336,
                0.5673290432317657,
                0.16089352974638813,
                0.4987955752096317,
                -1.9371101570389044
            ]
        },
        {
            "positions": [
                -2.2717911253577645,
                -1.1067659193869914,
                0.47552540988375064,
                0.20332434118475484,
                0.48251202192103737,
                -1.8388930440986222
            ]
        },
        {
            "positions": [
                -2.1745891670781385,
                -1.1503588311116468,
                0.3837217765357356,
                0.24575515262312153,
                0.46622846863244305,
                -1.7406759311583402
            ]
        },
        {
            "positions": [
                -2.077387208798512,
                -1.1939517428363022,
                0.29191814318772047,
                0.2881859640614882,
                0.4499449153438488,
                -1.6424588182180582
            ]
        },
        {
            "positions": [
                -1.9801852505188857,
                -1.2375446545609576,
                0.20011450983970536,
                0.3306167754998549,
                0.4336613620552545,
                -1.5442417052777762
            ]
        },
        {
            "positions": [
                -1.8829832922392593,
                -1.281137566285613,
                0.10831087649169024,
                0.3730475869382216,
                0.4173778087666602,
                -1.4460245923374941
            ]
        },
        {
            "positions": [
                -1.785781333959633,
                -1.3247304780102684,
                0.016507243143675132,
                0.41547839837658834,
                0.4010942554780659,
                -1.347807479397212
            ]
        },
        {
            "positions": [
                -1.6885793756800067,
                -1.3683233897349236,
                -0.07529639020433976,
                0.457909209814955,
                0.38481070218947155,
                -1.24959036645693
            ]
        },
        {
            "positions": [
                -1.5913774174003803,
                -1.4119163014595792,
                -0.16710002355235498,
                0.5003400212533218,
                0.3685271489008773,
                -1.1513732535166479
            ]
        },
        {
            "positions": [
                -1.494175459120754,
                -1.4555092131842344,
                -0.25890365690037,
                0.5427708326916885,
                0.352243595612283,
                -1.0531561405763656
            ]
        },
        {
            "positions": [
                -1.3969735008411275,
                -1.49910212490889,
                -0.3507072902483852,
                0.5852016441300552,
                0.3359600423236887,
                -0.9549390276360836
            ]
        },
        {
            "positions": [
                -1.299771542561501,
                -1.5426950366335452,
                -0.44251092359640043,
                0.6276324555684218,
                0.3196764890350944,
                -0.8567219146958014
            ]
        },
        {
            "positions": [
                -1.2025695842818747,
                -1.5862879483582009,
                -0.5343145569444154,
                0.6700632670067885,
                0.3033929357465001,
                -0.7585048017555196
            ]
        },
        {
            "positions": [
                -1.1053676260022485,
                -1.629880860082856,
                -0.6261181902924302,
                0.7124940784451552,
                0.2871093824579058,
                -0.6602876888152376
            ]
        },
        {
            "positions": [
                -1.0081656677226218,
                -1.6734737718075117,
                -0.7179218236404457,
                0.7549248898835219,
                0.27082582916931147,
                -0.5620705758749553
            ]
        },
        {
            "positions": [
                -0.9109637094429957,
                -1.7170666835321668,
                -0.8097254569884607,
                0.7973557013218886,
                0.2545422758807172,
                -0.46385346293467333
            ]
        },
        {
            "positions": [
                -0.8137617511633692,
                -1.7606595952568225,
                -0.9015290903364759,
                0.8397865127602553,
                0.23825872259212288,
                -0.3656363499943911
            ]
        },
        {
            "positions": [
                -0.7165597928837428,
                -1.8042525069814777,
                -0.9933327236844909,
                0.882217324198622,
                0.22197516930352862,
                -0.2674192370541091
            ]
        },
        {
            "positions": [
                -0.6193578346041169,
                -1.847845418706133,
                -1.0851363570325057,
                0.9246481356369887,
                0.2056916160149343,
                -0.16920212411382707
            ]
        },
        {
            "positions": [
                -0.52215587632449,
                -1.8914383304307885,
                -1.176939990380521,
                0.9670789470753554,
                0.18940806272633998,
                -0.07098501117354505
            ]
        },
        {
            "positions": [
                -0.42495391804486404,
                -1.9350312421554439,
                -1.268743623728536,
                1.009509758513722,
                0.1731245094377457,
                0.02723210176673696
            ]
        },
        {
            "positions": [
                -0.32775195976523763,
                -1.9786241538800993,
                -1.360547257076551,
                1.0519405699520887,
                0.15684095614915144,
                0.12544921470701897
            ]
        },
        {
            "positions": [
                -0.23055000148561122,
                -2.022217065604755,
                -1.452350890424566,
                1.0943713813904554,
                0.14055740286055712,
                0.22366632764730143
            ]
        },
        {
            "positions": [
                -0.1333480432059848,
                -2.06580997732941,
                -1.5441545237725811,
                1.1368021928288221,
                0.1242738495719628,
                0.32188344058758345
            ]
        },
        {
            "positions": [
                -0.0361460849263584,
                -2.1094028890540653,
                -1.6359581571205966,
                1.1792330042671888,
                0.10799029628336848,
                0.42010055352786546
            ]
        },
        {
            "positions": [
                0.06105587335326786,
                -2.152995800778721,
                -1.7277617904686116,
                1.2216638157055555,
                0.09170674299477419,
                0.5183176664681474
            ]
        },
        {
            "positions": [
                0.030505361499859343,
                -2.1726662049692846,
                -1.8770668590284765,
                1.286492347578633,
                0.11080240712942713,
                0.4340819257258667
            ]
        },
        {
            "positions": [
                -4.515035354917679e-05,
                -2.1923366091598484,
                -2.0263719275883414,
                1.3513208794517102,
                0.1298980712640801,
                0.34984618498358605
            ]
        },
        {
            "positions": [
                -0.030595662206957704,
                -2.212007013350412,
                -2.1756769961482063,
                1.4161494113247874,
                0.14899373539873303,
                0.2656104442413054
            ]
        },
        {
            "positions": [
                -0.061146174060366223,
                -2.231677417540976,
                -2.3249820647080712,
                1.480977943197865,
                0.16808939953338597,
                0.1813747034990247
            ]
        },
        {
            "positions": [
                -0.18308927606373065,
                -2.279024521862957,
                -2.387242100484961,
                1.471479120313649,
                0.16698849328590945,
                0.06052039549098717
            ]
        }
    ]
}