{
    "goal": {
        "global_pose": {
            "orientation": {
                "w": 0.7047431493862688,
                "x": -0.7094548369677653,
                "y": 0.0024358444001904,
                "z": -0.0022348060817251984
            },
            "position": {
                "x": -0.39052492380142206,
                "y": 0.3671506643295288,
                "z": 0.19426114857196808
            }
        },
        "name": "move_to_magneteinheit_D"
    },
    "id": "ProjEST_move_to_magneteinheit_D_99",
    "joint_names": [
        "shoulder_pan_joint",
        "shoulder_lift_joint",
        "elbow_joint",
        "wrist_1_joint",
        "wrist_2_joint",
        "wrist_3_joint"
    ],
    "metrics": {
        "cart_traj_len": 5.241702570400858,
        "distance_elbow_joint": 3.244412170593895,
        "distance_shoulder_lift_joint": 1.182961173786981,
        "distance_shoulder_pan_joint": 4.318696117888131,
        "distance_wrist_1_joint": 2.696344182033687,
        "distance_wrist_2_joint": 0.6105402796153176,
        "distance_wrist_3_joint": 3.4252630999366898,
        "smoothness": 0.542518241483489,
        "time": 0.16385707700000002,
        "traj_len": 3.9342365236287837,
        "weighted_distance": 5.06316380195003
    },
    "planner": "ProjEST",
    "start": {
        "state": {
            "elbow_joint": 0.749534889911806,
            "shoulder_lift_joint": -0.6476975780787326,
            "shoulder_pan_joint": -2.711696901376241,
            "wrist_1_joint": -0.07506478083263063,
            "wrist_2_joint": 0.43296659715538205,
            "wrist_3_joint": -3.14703540197715
        }
    },
    "waypoints": [
        {
            "positions": [
                -2.711696901376241,
                -0.6476975780787326,
                0.749534889911806,
                -0.07506478083263063,
                0.43296659715538205,
                -3.14703540197715
            ]
        },
        {
            "positions": [
                -2.723903703317099,
                -0.6753761354366675,
                0.7647390024868871,
                -0.11426765667543612,
                0.4061899943239278,
                -2.9519618186277072
            ]
        },
        {
            "positions": [
                -2.7361105052579577,
                -0.7030546927946023,
                0.7799431150619683,
                -0.1534705325182416,
                0.37941339149247355,
                -2.756888235278265
            ]
        },
        {
            "positions": [
                -2.748317307198816,
                -0.7307332501525372,
                0.7951472276370495,
                -0.19267340836104713,
                0.35263678866101933,
                -2.561814651928822
            ]
        },
        {
            "positions": [
                -2.7586620247545945,
                -0.7702852437498289,
                0.8008431227867152,
                -0.22699169668744223,
                0.3254285228135126,
                -2.327901559640033
            ]
        },
        {
            "positions": [
                -2.7690067423103737,
                -0.8098372373471204,
                0.806539017936381,
                -0.2613099850138374,
                0.29822025696600585,
                -2.093988467351244
            ]
        },
        {
            "positions": [
                -2.7793514598661524,
                -0.8493892309444121,
                0.8122349130860468,
                -0.29562827334023245,
                0.2710119911184991,
                -1.860075375062455
            ]
        },
        {
            "positions": [
                -2.7896961774219315,
                -0.8889412245417037,
                0.8179308082357126,
                -0.3299465616666276,
                0.24380372527099234,
                -1.6261622827736657
            ]
        },
        {
            "positions": [
                -2.8000408949777102,
                -0.9284932181389953,
                0.8236267033853784,
                -0.3642648499930227,
                0.2165954594234856,
                -1.3922491904848768
            ]
        },
        {
            "positions": [
                -2.6732637910930768,
                -0.9604728459248973,
                0.7398267437355288,
                -0.4439465957203503,
                0.20868818804593928,
                -1.4517486533906168
            ]
        },
        {
            "positions": [
                -2.546486687208443,
                -0.9924524737107995,
                0.6560267840856793,
                -0.5236283414476779,
                0.20078091666839298,
                -1.511248116296357
            ]
        },
        {
            "positions": [
                -2.4197095833238094,
                -1.0244321014967015,
                0.5722268244358297,
                -0.6033100871750054,
                0.19287364529084666,
                -1.5707475792020968
            ]
        },
        {
            "positions": [
                -2.292932479439176,
                -1.0564117292826036,
                0.4884268647859802,
                -0.682991832902333,
                0.18496637391330037,
                -1.630247042107837
            ]
        },
        {
            "positions": [
                -2.166155375554542,
                -1.0883913570685055,
                0.40462690513613064,
                -0.7626735786296606,
                0.17705910253575405,
                -1.689746505013577
            ]
        },
        {
            "positions": [
                -2.0393782716699085,
                -1.1203709848544077,
                0.3208269454862811,
                -0.8423553243569881,
                0.16915183115820775,
                -1.749245967919317
            ]
        },
        {
            "positions": [
                -1.912601167785275,
                -1.1523506126403098,
                0.23702698583643156,
                -0.9220370700843157,
                0.16124455978066143,
                -1.808745430825057
            ]
        },
        {
            "positions": [
                -1.7858240639006413,
                -1.1843302404262117,
                0.15322702618658202,
                -1.0017188158116432,
                0.1533372884031151,
                -1.8682448937307972
            ]
        },
        {
            "positions": [
                -1.6590469600160076,
                -1.2163098682121138,
                0.06942706653673247,
                -1.081400561538971,
                0.14543001702556882,
                -1.927744356636537
            ]
        },
        {
            "positions": [
                -1.5322698561313741,
                -1.2482894959980158,
                -0.014372893113117069,
                -1.1610823072662986,
                0.1375227456480225,
                -1.987243819542277
            ]
        },
        {
            "positions": [
                -1.4054927522467404,
                -1.2802691237839179,
                -0.09817285276296661,
                -1.2407640529936261,
                0.1296154742704762,
                -2.046743282448017
            ]
        },
        {
            "positions": [
                -1.2787156483621067,
                -1.31224875156982,
                -0.18197281241281615,
                -1.3204457987209537,
                0.12170820289292988,
                -2.1062427453537573
            ]
        },
        {
            "positions": [
                -1.1519385444774732,
                -1.3442283793557221,
                -0.2657727720626657,
                -1.4001275444482812,
                0.11380093151538358,
                -2.1657422082594975
            ]
        },
        {
            "positions": [
                -1.0251614405928395,
                -1.376208007141624,
                -0.34957273171251524,
                -1.4798092901756088,
                0.10589366013783727,
                -2.225241671165237
            ]
        },
        {
            "positions": [
                -0.8983843367082058,
                -1.4081876349275262,
                -0.433372691362365,
                -1.5594910359029366,
                0.09798638876029095,
                -2.2847411340709773
            ]
        },
        {
            "positions": [
                -0.7716072328235724,
                -1.440167262713428,
                -0.5171726510122143,
                -1.639172781630264,
                0.09007911738274466,
                -2.3442405969767175
            ]
        },
        {
            "positions": [
                -0.6448301289389384,
                -1.4721468904993302,
                -0.6009726106620641,
                -1.7188545273575917,
                0.08217184600519833,
                -2.403740059882457
            ]
        },
        {
            "positions": [
                -0.518053025054305,
                -1.5041265182852324,
                -0.6847725703119134,
                -1.7985362730849193,
                0.07426457462765204,
                -2.4632395227881974
            ]
        },
        {
            "positions": [
                -0.39127592116967147,
                -1.5361061460711345,
                -0.7685725299617632,
                -1.8782180188122468,
                0.06635730325010572,
                -2.5227389856939375
            ]
        },
        {
            "positions": [
                -0.264498817285038,
                -1.5680857738570364,
                -0.8523724896116125,
                -1.9578997645395744,
                0.0584500318725594,
                -2.5822384485996777
            ]
        },
        {
            "positions": [
                -0.13772171340040407,
                -1.6000654016429385,
                -0.9361724492614623,
                -2.037581510266902,
                0.05054276049501308,
                -2.641737911505418
            ]
        },
        {
            "positions": [
                -0.010944609515770587,
                -1.6320450294288404,
                -1.0199724089113116,
                -2.1172632559942293,
                0.042635489117466785,
                -2.7012373744111575
            ]
        },
        {
            "positions": [
                0.11583249436886334,
                -1.6640246572147426,
                -1.1037723685611613,
                -2.196945001721557,
                0.034728217739920464,
                -2.7607368373168977
            ]
        },
        {
            "positions": [
                0.24260959825349682,
                -1.6960042850006447,
                -1.1875723282110107,
                -2.2766267474488844,
                0.02682094636237417,
                -2.8202363002226374
            ]
        },
        {
            "positions": [
                0.3693867021381303,
                -1.7279839127865468,
                -1.2713722878608604,
                -2.356308493176212,
                0.01891367498482785,
                -2.8797357631283775
            ]
        },
        {
            "positions": [
                0.4961638060227638,
                -1.7599635405724487,
                -1.3551722475107097,
                -2.4359902389035395,
                0.011006403607281556,
                -2.9392352260341177
            ]
        },
        {
            "positions": [
                0.6229409099073975,
                -1.7919431683583509,
                -1.4389722071605593,
                -2.5156719846308673,
                0.0030991322297352353,
                -2.998734688939858
            ]
        },
        {
            "positions": [
                0.4883791900071383,
                -1.7854905711071238,
                -1.5902591149229568,
                -2.4730491549249587,
                -0.027013003551876552,
                -3.0093999206047637
            ]
        },
        {
            "positions": [
                0.35381747010687914,
                -1.7790379738558966,
                -1.741546022685354,
                -2.4304263252190506,
                -0.05712513933348834,
                -3.0200651522696695
            ]
        },
        {
            "positions": [
                0.21925575020661991,
                -1.7725853766046695,
                -1.8928329304477516,
                -2.3878034955131424,
                -0.08723727511510013,
                -3.030730383934575
            ]
        },
        {
            "positions": [
                0.0846940303063608,
                -1.7661327793534425,
                -2.044119838210149,
                -2.345180665807234,
                -0.11734941089671191,
                -3.041395615599481
            ]
        },
        {
            "positions": [
                -0.049867689593898534,
                -1.7596801821022152,
                -2.1954067459725466,
                -2.3025578361013253,
                -0.1474615466783237,
                -3.0520608472643866
            ]
        },
        {
            "positions": [
                -0.18442940949415768,
                -1.7532275848509882,
                -2.346693653734944,
                -2.259935006395417,
                -0.1775736824599355,
                -3.0627260789292925
            ]
        }
    ]
}