{
    "goal": {
        "global_pose": {
            "orientation": {
                "w": 0.7031023502349854,
                "x": -0.7110244035720825,
                "y": 0.007748599164187908,
                "z": 0.005598929710686207
            },
            "position": {
                "x": 0.11585023208521307,
                "y": 0.44412534475326537,
                "z": 0.3711530566215515
            }
        },
        "name": "move_to_auspresseinheit_A"
    },
    "id": "ProjEST_move_to_auspresseinheit_A_30",
    "joint_names": [
        "shoulder_pan_joint",
        "shoulder_lift_joint",
        "elbow_joint",
        "wrist_1_joint",
        "wrist_2_joint",
        "wrist_3_joint"
    ],
    "metrics": {
        "cart_traj_len": 1.0635551749437242,
        "distance_elbow_joint": 0.41900624673794873,
        "distance_shoulder_lift_joint": 1.6878643091212586,
        "distance_shoulder_pan_joint": 1.0430648816203147,
        "distance_wrist_1_joint": 0.95579096366737,
        "distance_wrist_2_joint": 1.8709538051234293,
        "distance_wrist_3_joint": 0.17399486198070546,
        "smoothness": 1.5582229659200952,
        "time": 0.22279025000000002,
        "traj_len": 2.4800554566886253,
        "weighted_distance": 3.0537533562819443
    },
    "planner": "ProjEST",
    "start": {
        "state": {
            "elbow_joint": 2.4225746658250005,
            "shoulder_lift_joint": -1.3736534386056498,
            "shoulder_pan_joint": -0.3378633547517467,
            "wrist_1_joint": -1.0288598680537169,
            "wrist_2_joint": 1.233022673432363,
            "wrist_3_joint": -3.0940220416140027
        }
    },
    "waypoints": [
        {
            "positions": [
                -0.3378633547517467,
                -1.3736534386056498,
                2.4225746658250005,
                -1.0288598680537169,
                1.233022673432363,
                -3.0940220416140027
            ]
        },
        {
            "positions": [
                -0.2527213007777287,
                -1.47484213682928,
                2.4403905034116224,
                -0.9602603647220527,
                1.1242229024740407,
                -3.0872477060187626
            ]
        },
        {
            "positions": [
                -0.1675792468037107,
                -1.5760308350529102,
                2.458206340998245,
                -0.8916608613903886,
                1.0154231315157183,
                -3.0804733704235225
            ]
        },
        {
            "positions": [
                -0.0824371928296927,
                -1.6772195332765403,
                2.476022178584867,
                -0.8230613580587245,
                0.9066233605573958,
                -3.073699034828283
            ]
        },
        {
            "positions": [
                0.0027048611443253323,
                -1.7784082315001704,
                2.493838016171489,
                -0.7544618547270603,
                0.7978235895990733,
                -3.066924699233043
            ]
        },
        {
            "positions": [
                0.0878469151183433,
                -1.8795969297238004,
                2.5116538537581112,
                -0.6858623513953962,
                0.6890238186407509,
                -3.0601503636378027
            ]
        },
        {
            "positions": [
                0.17298896909236133,
                -1.9807856279474305,
                2.529469691344733,
                -0.6172628480637321,
                0.5802240476824285,
                -3.0533760280425626
            ]
        },
        {
            "positions": [
                0.2581310230663793,
                -2.0819743261710606,
                2.5472855289313556,
                -0.5486633447320679,
                0.47142427672410614,
                -3.0466016924473225
            ]
        },
        {
            "positions": [
                0.3432730770403974,
                -2.183163024394691,
                2.5651013665179776,
                -0.4800638414004037,
                0.36262450576578364,
                -3.0398273568520824
            ]
        },
        {
            "positions": [
                0.4284151310144155,
                -2.284351722618321,
                2.5829172041045996,
                -0.4114643380687396,
                0.25382473480746115,
                -3.0330530212568427
            ]
        },
        {
            "positions": [
                0.5135571849884333,
                -2.3855404208419513,
                2.600733041691222,
                -0.3428648347370755,
                0.14502496384913877,
                -3.0262786856616026
            ]
        },
        {
            "positions": [
                0.5986992389624515,
                -2.4867291190655814,
                2.618548879277844,
                -0.2742653314054113,
                0.03622519289081649,
                -3.0195043500663625
            ]
        },
        {
            "positions": [
                0.6199996965436748,
                -2.371771393333316,
                2.573942472620823,
                -0.3145046168092242,
                0.17105645780719306,
                -3.0393997841529754
            ]
        },
        {
            "positions": [
                0.6413001541248982,
                -2.2568136676010506,
                2.529336065963802,
                -0.3547439022130371,
                0.3058877227235696,
                -3.0592952182395887
            ]
        },
        {
            "positions": [
                0.6626006117061215,
                -2.1418559418687853,
                2.484729659306781,
                -0.3949831876168499,
                0.44071898763994616,
                -3.0791906523262016
            ]
        },
        {
            "positions": [
                0.6839010692873448,
                -2.0268982161365194,
                2.4401232526497596,
                -0.43522247302066286,
                0.5755502525563228,
                -3.099086086412815
            ]
        },
        {
            "positions": [
                0.7052015268685682,
                -1.9119404904042543,
                2.3955168459927387,
                -0.4754617584244757,
                0.7103815174726993,
                -3.118981520499428
            ]
        }
    ]
}