{
    "goal": {
        "global_pose": {
            "orientation": {
                "w": 0.7031023502349854,
                "x": -0.7110244035720825,
                "y": 0.007748599164187908,
                "z": 0.005598929710686207
            },
            "position": {
                "x": 0.11585023208521307,
                "y": 0.44412534475326537,
                "z": 0.3711530566215515
            }
        },
        "name": "move_to_auspresseinheit_A"
    },
    "id": "ProjEST_move_to_auspresseinheit_A_31",
    "joint_names": [
        "shoulder_pan_joint",
        "shoulder_lift_joint",
        "elbow_joint",
        "wrist_1_joint",
        "wrist_2_joint",
        "wrist_3_joint"
    ],
    "metrics": {
        "cart_traj_len": 0.6857755870526907,
        "distance_elbow_joint": 0.13229349672302781,
        "distance_shoulder_lift_joint": 0.6863507192888629,
        "distance_shoulder_pan_joint": 1.0438976310388708,
        "distance_wrist_1_joint": 0.5545521314921146,
        "distance_wrist_2_joint": 1.1239240002662165,
        "distance_wrist_3_joint": 0.3283740689828929,
        "smoothness": 0.9040502011547368,
        "time": 0.42328828,
        "traj_len": 1.9670770314840202,
        "weighted_distance": 2.490906725976728
    },
    "planner": "ProjEST",
    "start": {
        "state": {
            "elbow_joint": 2.4225746658250005,
            "shoulder_lift_joint": -1.3736534386056498,
            "shoulder_pan_joint": -0.3378633547517467,
            "wrist_1_joint": -1.0288598680537169,
            "wrist_2_joint": 1.233022673432363,
            "wrist_3_joint": -3.0940220416140027
        }
    },
    "waypoints": [
        {
            "positions": [
                -0.3378633547517467,
                -1.3736534386056498,
                2.4225746658250005,
                -1.0288598680537169,
                1.233022673432363,
                -3.0940220416140027
            ]
        },
        {
            "positions": [
                -0.2808431606869417,
                -1.4753479568170915,
                2.4312226802845274,
                -0.9933855375255245,
                1.0949013002429695,
                -3.1249652910923573
            ]
        },
        {
            "positions": [
                -0.2238229666221367,
                -1.577042475028533,
                2.4398706947440547,
                -0.957911206997332,
                0.956779927053576,
                -3.155908540570712
            ]
        },
        {
            "positions": [
                -0.16680277255733167,
                -1.6787369932399745,
                2.448518709203582,
                -0.9224368764691396,
                0.8186585538641823,
                -3.1868517900490665
            ]
        },
        {
            "positions": [
                -0.10978257849252665,
                -1.7804315114514162,
                2.457166723663109,
                -0.8869625459409473,
                0.6805371806747887,
                -3.217795039527421
            ]
        },
        {
            "positions": [
                -0.05276238442772163,
                -1.882126029662858,
                2.465814738122636,
                -0.8514882154127548,
                0.5424158074853951,
                -3.2487382890057757
            ]
        },
        {
            "positions": [
                0.004257809637083401,
                -1.9838205478742994,
                2.474462752582163,
                -0.8160138848845624,
                0.4042944342960016,
                -3.2796815384841302
            ]
        },
        {
            "positions": [
                0.1446131029670915,
                -1.9685838258702568,
                2.4583816705889903,
                -0.7476726552199704,
                0.4633335865219726,
                -3.251138624061577
            ]
        },
        {
            "positions": [
                0.2849683962970996,
                -1.953347103866214,
                2.4423005885958173,
                -0.6793314255553784,
                0.5223727387479437,
                -3.222595709639024
            ]
        },
        {
            "positions": [
                0.42532368962710765,
                -1.9381103818621714,
                2.426219506602644,
                -0.6109901958907864,
                0.5814118909739147,
                -3.194052795216471
            ]
        },
        {
            "positions": [
                0.5656789829571158,
                -1.9228736598581286,
                2.410138424609471,
                -0.5426489662261943,
                0.6404510431998857,
                -3.165509880793918
            ]
        },
        {
            "positions": [
                0.7060342762871239,
                -1.907636937854086,
                2.394057342616298,
                -0.4743077365616023,
                0.6994901954258567,
                -3.136966966371365
            ]
        }
    ]
}