{
    "goal": {
        "global_pose": {
            "orientation": {
                "w": 0.7047431468963623,
                "x": -0.7094548344612122,
                "y": 0.0024358443915843964,
                "z": -0.0022348060738295317
            },
            "position": {
                "x": 0.6094750761985779,
                "y": 0.3671506643295288,
                "z": 0.19426114857196808
            }
        },
        "name": "move_to_magneteinheit_A"
    },
    "id": "ProjEST_move_to_magneteinheit_A_93",
    "joint_names": [
        "shoulder_pan_joint",
        "shoulder_lift_joint",
        "elbow_joint",
        "wrist_1_joint",
        "wrist_2_joint",
        "wrist_3_joint"
    ],
    "metrics": {
        "cart_traj_len": 3.4105996741398084,
        "distance_elbow_joint": 3.913269759292996,
        "distance_shoulder_lift_joint": 0.5452152279275908,
        "distance_shoulder_pan_joint": 2.6460634486459775,
        "distance_wrist_1_joint": 3.484444197899486,
        "distance_wrist_2_joint": 2.3951052417142833,
        "distance_wrist_3_joint": 0.663033583054708,
        "smoothness": 0.19458594963392015,
        "time": 0.101994441,
        "traj_len": 3.6942024116898415,
        "weighted_distance": 4.566480927832528
    },
    "planner": "ProjEST",
    "start": {
        "state": {
            "elbow_joint": -1.9196185241190666,
            "shoulder_lift_joint": -1.2443396400964142,
            "shoulder_pan_joint": 2.6996025414629847,
            "wrist_1_joint": -1.5485510000780065,
            "wrist_2_joint": -1.5709468930060704,
            "wrist_3_joint": 0.4420197071253992
        }
    },
    "waypoints": [
        {
            "positions": [
                2.6996025414629847,
                -1.2443396400964142,
                -1.9196185241190666,
                -1.5485510000780065,
                -1.5709468930060704,
                0.4420197071253992
            ]
        },
        {
            "positions": [
                2.5996687725381946,
                -1.2401691388445975,
                -1.823995324165141,
                -1.4648285542325614,
                -1.4719967447737112,
                0.4428224012940915
            ]
        },
        {
            "positions": [
                2.499735003613405,
                -1.2359986375927805,
                -1.7283721242112153,
                -1.3811061083871161,
                -1.3730465965413523,
                0.44362509546278384
            ]
        },
        {
            "positions": [
                2.399801234688615,
                -1.2318281363409638,
                -1.63274892425729,
                -1.297383662541671,
                -1.2740964483089932,
                0.44442778963147617
            ]
        },
        {
            "positions": [
                2.2998674657638247,
                -1.227657635089147,
                -1.5371257243033642,
                -1.2136612166962257,
                -1.175146300076634,
                0.44523048380016844
            ]
        },
        {
            "positions": [
                2.199933696839035,
                -1.2234871338373303,
                -1.4415025243494386,
                -1.1299387708507806,
                -1.0761961518442749,
                0.4460331779688608
            ]
        },
        {
            "positions": [
                2.099999927914245,
                -1.2193166325855134,
                -1.3458793243955132,
                -1.0462163250053353,
                -0.9772460036119159,
                0.4468358721375531
            ]
        },
        {
            "positions": [
                2.000066158989455,
                -1.2151461313336966,
                -1.2502561244415875,
                -0.9624938791598903,
                -0.8782958553795568,
                0.44763856630624543
            ]
        },
        {
            "positions": [
                1.9001323900646652,
                -1.21097563008188,
                -1.1546329244876619,
                -0.8787714333144451,
                -0.7793457071471978,
                0.44844126047493776
            ]
        },
        {
            "positions": [
                1.800198621139875,
                -1.206805128830063,
                -1.0590097245337362,
                -0.7950489874689999,
                -0.6803955589148386,
                0.4492439546436301
            ]
        },
        {
            "positions": [
                1.7002648522150852,
                -1.2026346275782462,
                -0.9633865245798106,
                -0.7113265416235547,
                -0.5814454106824796,
                0.4500466488123224
            ]
        },
        {
            "positions": [
                1.6003310832902953,
                -1.1984641263264295,
                -0.8677633246258849,
                -0.6276040957781096,
                -0.4824952624501204,
                0.4508493429810147
            ]
        },
        {
            "positions": [
                1.5003973143655054,
                -1.1942936250746128,
                -0.7721401246719595,
                -0.5438816499326644,
                -0.3835451142177615,
                0.45165203714970703
            ]
        },
        {
            "positions": [
                1.4004635454407153,
                -1.1901231238227958,
                -0.6765169247180338,
                -0.4601592040872191,
                -0.28459496598540235,
                0.45245473131839936
            ]
        },
        {
            "positions": [
                1.3005297765159254,
                -1.185952622570979,
                -0.5808937247641082,
                -0.3764367582417739,
                -0.1856448177530432,
                0.4532574254870917
            ]
        },
        {
            "positions": [
                1.214145219282249,
                -1.15540224991917,
                -0.489181781937024,
                -0.2678548087624443,
                -0.14433529576304827,
                0.4183301377313373
            ]
        },
        {
            "positions": [
                1.1277606620485727,
                -1.124851877267361,
                -0.39746983910993977,
                -0.15927285928311466,
                -0.1030257737730533,
                0.3834028499755829
            ]
        },
        {
            "positions": [
                1.0413761048148962,
                -1.094301504615552,
                -0.30575789628285555,
                -0.050690909803785045,
                -0.06171625178305837,
                0.3484755622198285
            ]
        },
        {
            "positions": [
                0.9549915475812198,
                -1.063751131963743,
                -0.21404595345577138,
                0.0578910396755446,
                -0.020406729793063405,
                0.3135482744640741
            ]
        },
        {
            "positions": [
                0.8686069903475435,
                -1.033200759311934,
                -0.12233401062868715,
                0.1664729891548743,
                0.02090279219693153,
                0.2786209867083197
            ]
        },
        {
            "positions": [
                0.7822224331138671,
                -1.0026503866601248,
                -0.030622067801602926,
                0.2750549386342038,
                0.062212314186926465,
                0.24369369895256532
            ]
        },
        {
            "positions": [
                0.6958378758801907,
                -0.9721000140083159,
                0.06108987502548113,
                0.38363688811353347,
                0.1035218361769214,
                0.20876641119681094
            ]
        },
        {
            "positions": [
                0.6094533186465143,
                -0.9415496413565069,
                0.1528018178525654,
                0.4922188375928631,
                0.1448313581669164,
                0.1738391234410565
            ]
        },
        {
            "positions": [
                0.523068761412838,
                -0.9109992687046979,
                0.24451376067964958,
                0.6008007870721926,
                0.18614088015691127,
                0.13891183568530213
            ]
        },
        {
            "positions": [
                0.43668420417916154,
                -0.8804488960528889,
                0.33622570350673386,
                0.7093827365515225,
                0.22745040214690626,
                0.10398454792954775
            ]
        },
        {
            "positions": [
                0.3502996469454852,
                -0.8498985234010799,
                0.42793764633381803,
                0.8179646860308519,
                0.2687599241369012,
                0.06905726017379338
            ]
        },
        {
            "positions": [
                0.26391508971180877,
                -0.8193481507492708,
                0.5196495891609023,
                0.9265466355101816,
                0.31006944612689613,
                0.034129972418038945
            ]
        },
        {
            "positions": [
                0.1775305324781324,
                -0.7887977780974618,
                0.6113615319879864,
                1.0351285849895113,
                0.35137896811689107,
                -0.0007973153377154232
            ]
        },
        {
            "positions": [
                0.16273023324819452,
                -0.7804377433563404,
                0.7656253190015818,
                1.1410819814466653,
                0.30764916010393784,
                -0.01828962368875859
            ]
        },
        {
            "positions": [
                0.14792993401825666,
                -0.772077708615219,
                0.9198891060151774,
                1.2470353779038192,
                0.2639193520909846,
                -0.035781932039801755
            ]
        },
        {
            "positions": [
                0.13312963478831877,
                -0.7637176738740976,
                1.074152893028773,
                1.3529887743609732,
                0.22018954407803137,
                -0.053274240390844926
            ]
        },
        {
            "positions": [
                0.11832933555838089,
                -0.7553576391329763,
                1.2284166800423684,
                1.4589421708181272,
                0.17645973606507814,
                -0.07076654874188808
            ]
        },
        {
            "positions": [
                0.103529036328443,
                -0.7469976043918548,
                1.382680467055964,
                1.5648955672752811,
                0.1327299280521249,
                -0.08825885709293126
            ]
        },
        {
            "positions": [
                0.08872873709850512,
                -0.7386375696507335,
                1.5369442540695595,
                1.670848963732435,
                0.08900012003917167,
                -0.10575116544397442
            ]
        },
        {
            "positions": [
                0.0950420329843987,
                -0.7462053299002045,
                1.6367323954035942,
                1.7298062821733735,
                0.04434385687417199,
                -0.08837709281935435
            ]
        },
        {
            "positions": [
                0.10135532887029229,
                -0.7537730901496754,
                1.736520536737629,
                1.788763600614312,
                -0.00031240629082768256,
                -0.07100302019473427
            ]
        },
        {
            "positions": [
                0.11263685512514793,
                -0.7659619086411595,
                1.865085885955779,
                1.8623283992178963,
                -0.060856409382628776,
                -0.04198345593837977
            ]
        },
        {
            "positions": [
                0.12391838138000356,
                -0.7781507271326435,
                1.9936512351739293,
                1.9358931978214804,
                -0.12140041247442987,
                -0.012963891682025275
            ]
        }
    ]
}