{
    "goal": {
        "global_pose": {
            "orientation": {
                "w": 0.005598929693374612,
                "x": 0.007748599140229565,
                "y": 0.7110244013736278,
                "z": -0.7031023480610252
            },
            "position": {
                "x": 0.1141497679147869,
                "y": -0.7141253447532654,
                "z": 0.3711530566215515
            }
        },
        "name": "move_to_auspresseinheit_B"
    },
    "id": "ProjEST_move_to_auspresseinheit_B_106",
    "joint_names": [
        "shoulder_pan_joint",
        "shoulder_lift_joint",
        "elbow_joint",
        "wrist_1_joint",
        "wrist_2_joint",
        "wrist_3_joint"
    ],
    "metrics": {
        "cart_traj_len": 0.5642962655519489,
        "distance_elbow_joint": 0.06415201982331964,
        "distance_shoulder_lift_joint": 0.2942863636915034,
        "distance_shoulder_pan_joint": 0.5773004974450109,
        "distance_wrist_1_joint": 0.33394509500132374,
        "distance_wrist_2_joint": 0.9900364044095635,
        "distance_wrist_3_joint": 0.0024792216241120713,
        "smoothness": 5.075305255429287e-16,
        "time": 0.053236721,
        "traj_len": 1.5040610366586966,
        "weighted_distance": 1.8950302226228333
    },
    "planner": "ProjEST",
    "start": {
        "state": {
            "elbow_joint": 2.0193083361928714,
            "shoulder_lift_joint": -1.1220246554650708,
            "shoulder_pan_joint": -1.0952077554168747,
            "wrist_1_joint": -0.8559753972642168,
            "wrist_2_joint": 0.4759566250798843,
            "wrist_3_joint": -3.1240929996934557
        }
    },
    "waypoints": [
        {
            "positions": [
                -1.0952077554168747,
                -1.1220246554650708,
                2.0193083361928714,
                -0.8559753972642168,
                0.4759566250798843,
                -3.1240929996934557
            ]
        },
        {
            "positions": [
                -1.1914245049910432,
                -1.171072382746988,
                2.008616332888985,
                -0.8003178814306628,
                0.6409626924814782,
                -3.124506203297474
            ]
        },
        {
            "positions": [
                -1.2876412545652116,
                -1.2201201100289052,
                1.9979243295850981,
                -0.7446603655971089,
                0.805968759883072,
                -3.124919406901493
            ]
        },
        {
            "positions": [
                -1.38385800413938,
                -1.2691678373108224,
                1.9872323262812115,
                -0.689002849763555,
                0.9709748272846661,
                -3.1253326105055117
            ]
        },
        {
            "positions": [
                -1.4800747537135486,
                -1.3182155645927398,
                1.976540322977325,
                -0.633345333930001,
                1.13598089468626,
                -3.1257458141095302
            ]
        },
        {
            "positions": [
                -1.5762915032877172,
                -1.367263291874657,
                1.9658483196734384,
                -0.577687818096447,
                1.300986962087854,
                -3.126159017713549
            ]
        },
        {
            "positions": [
                -1.6725082528618855,
                -1.4163110191565742,
                1.9551563163695518,
                -0.522030302262893,
                1.4659930294894479,
                -3.1265722213175677
            ]
        }
    ]
}