{
    "goal": {
        "global_pose": {
            "orientation": {
                "w": 0.7047431468963623,
                "x": -0.7094548344612122,
                "y": 0.0024358443915843964,
                "z": -0.0022348060738295317
            },
            "position": {
                "x": 0.6094750761985779,
                "y": 0.3671506643295288,
                "z": 0.19426114857196808
            }
        },
        "name": "move_to_magneteinheit_A"
    },
    "id": "ProjEST_move_to_magneteinheit_A_102",
    "joint_names": [
        "shoulder_pan_joint",
        "shoulder_lift_joint",
        "elbow_joint",
        "wrist_1_joint",
        "wrist_2_joint",
        "wrist_3_joint"
    ],
    "metrics": {
        "cart_traj_len": 4.45719915627304,
        "distance_elbow_joint": 3.94135183875363,
        "distance_shoulder_lift_joint": 0.4549190569479912,
        "distance_shoulder_pan_joint": 5.2352883901489395,
        "distance_wrist_1_joint": 3.5631501409462287,
        "distance_wrist_2_joint": 1.4383167583616339,
        "distance_wrist_3_joint": 1.2073287238129393,
        "smoothness": 0.32045134219294147,
        "time": 0.161054455,
        "traj_len": 3.9799943352938785,
        "weighted_distance": 4.822497201233517
    },
    "planner": "ProjEST",
    "start": {
        "state": {
            "elbow_joint": -1.9196185241190666,
            "shoulder_lift_joint": -1.2443396400964142,
            "shoulder_pan_joint": 2.6996025414629847,
            "wrist_1_joint": -1.5485510000780065,
            "wrist_2_joint": -1.5709468930060704,
            "wrist_3_joint": 0.4420197071253992
        }
    },
    "waypoints": [
        {
            "positions": [
                2.6996025414629847,
                -1.2443396400964142,
                -1.9196185241190666,
                -1.5485510000780065,
                -1.5709468930060704,
                0.4420197071253992
            ]
        },
        {
            "positions": [
                2.5693917019214325,
                -1.2389169891052332,
                -1.8184326408850302,
                -1.4723337770504075,
                -1.5232937041372911,
                0.4127118419101634
            ]
        },
        {
            "positions": [
                2.43918086237988,
                -1.2334943381140522,
                -1.717246757650994,
                -1.3961165540228087,
                -1.475640515268512,
                0.38340397669492765
            ]
        },
        {
            "positions": [
                2.308970022838327,
                -1.2280716871228712,
                -1.6160608744169576,
                -1.3198993309952096,
                -1.4279873263997327,
                0.3540961114796919
            ]
        },
        {
            "positions": [
                2.178759183296775,
                -1.2226490361316902,
                -1.5148749911829211,
                -1.2436821079676106,
                -1.3803341375309532,
                0.3247882462644562
            ]
        },
        {
            "positions": [
                2.0485483437552228,
                -1.2172263851405094,
                -1.413689107948885,
                -1.1674648849400118,
                -1.332680948662174,
                0.2954803810492204
            ]
        },
        {
            "positions": [
                1.91833750421367,
                -1.2118037341493284,
                -1.3125032247148485,
                -1.0912476619124127,
                -1.2850277597933948,
                0.26617251583398466
            ]
        },
        {
            "positions": [
                1.788126664672118,
                -1.2063810831581474,
                -1.2113173414808123,
                -1.0150304388848137,
                -1.2373745709246156,
                0.23686465061874892
            ]
        },
        {
            "positions": [
                1.6579158251305655,
                -1.2009584321669664,
                -1.1101314582467756,
                -0.9388132158572148,
                -1.1897213820558363,
                0.20755678540351316
            ]
        },
        {
            "positions": [
                1.527704985589013,
                -1.1955357811757854,
                -1.0089455750127394,
                -0.8625959928296159,
                -1.142068193187057,
                0.17824892018827743
            ]
        },
        {
            "positions": [
                1.3974941460474606,
                -1.1901131301846044,
                -0.9077596917787032,
                -0.7863787698020169,
                -1.0944150043182779,
                0.14894105497304166
            ]
        },
        {
            "positions": [
                1.2672833065059081,
                -1.1846904791934234,
                -0.8065738085446668,
                -0.710161546774418,
                -1.0467618154494986,
                0.11963318975780596
            ]
        },
        {
            "positions": [
                1.1370724669643555,
                -1.1792678282022424,
                -0.7053879253106303,
                -0.633944323746819,
                -0.9991086265807193,
                0.09032532454257014
            ]
        },
        {
            "positions": [
                1.0068616274228033,
                -1.1738451772110614,
                -0.6042020420765939,
                -0.5577271007192199,
                -0.95145543771194,
                0.06101745932733438
            ]
        },
        {
            "positions": [
                0.8766507878812508,
                -1.1684225262198804,
                -0.5030161588425577,
                -0.4815098776916211,
                -0.9038022488431607,
                0.03170959411209867
            ]
        },
        {
            "positions": [
                0.7464399483396984,
                -1.1629998752286994,
                -0.40183027560852125,
                -0.4052926546640221,
                -0.8561490599743815,
                0.002401728896862909
            ]
        },
        {
            "positions": [
                0.6162291087981462,
                -1.1575772242375186,
                -0.3006443923744848,
                -0.32907543163642305,
                -0.8084958711056023,
                -0.026906136318372853
            ]
        },
        {
            "positions": [
                0.4860182692565935,
                -1.1521545732463376,
                -0.1994585091404486,
                -0.25285820860882424,
                -0.760842682236823,
                -0.05621400153360856
            ]
        },
        {
            "positions": [
                0.3558074297150413,
                -1.1467319222551566,
                -0.09827262590641217,
                -0.1766409855812252,
                -0.7131894933680437,
                -0.08552186674884432
            ]
        },
        {
            "positions": [
                0.22559659017348865,
                -1.1413092712639756,
                0.0029132573276240414,
                -0.1004237625536264,
                -0.6655363044992645,
                -0.11482973196408008
            ]
        },
        {
            "positions": [
                0.09538575063193644,
                -1.1358866202727946,
                0.10409914056166025,
                -0.02420653952602736,
                -0.6178831156304853,
                -0.14413759717931585
            ]
        },
        {
            "positions": [
                -0.034825088909615776,
                -1.1304639692816136,
                0.2052850237956969,
                0.052010683501571675,
                -0.5702299267617059,
                -0.1734454623945516
            ]
        },
        {
            "positions": [
                -0.16503592845116843,
                -1.1250413182904326,
                0.3064709070297331,
                0.1282279065291705,
                -0.5225767378929267,
                -0.20275332760978726
            ]
        },
        {
            "positions": [
                -0.2952467679927211,
                -1.1196186672992516,
                0.4076567902637698,
                0.20444512955676974,
                -0.47492354902414746,
                -0.23206119282502313
            ]
        },
        {
            "positions": [
                -0.42545760753427375,
                -1.1141960163080706,
                0.508842673497806,
                0.28066235258436856,
                -0.42727036015536823,
                -0.2613690580402589
            ]
        },
        {
            "positions": [
                -0.555668447075826,
                -1.1087733653168899,
                0.6100285567318426,
                0.3568795756119676,
                -0.3796171712865888,
                -0.29067692325549466
            ]
        },
        {
            "positions": [
                -0.6858792866173782,
                -1.1033507143257089,
                0.7112144399658789,
                0.4330967986395666,
                -0.33196398241780956,
                -0.3199847884707304
            ]
        },
        {
            "positions": [
                -0.8160901261589308,
                -1.0979280633345279,
                0.8124003231999151,
                0.5093140216671654,
                -0.2843107935490303,
                -0.34929265368596607
            ]
        },
        {
            "positions": [
                -0.946300965700483,
                -1.0925054123433469,
                0.9135862064339513,
                0.5855312446947643,
                -0.2366576046802511,
                -0.37860051890120183
            ]
        },
        {
            "positions": [
                -1.0765118052420357,
                -1.0870827613521659,
                1.014772089667988,
                0.6617484677223635,
                -0.18900441581147187,
                -0.4079083841164376
            ]
        },
        {
            "positions": [
                -1.206722644783588,
                -1.0816601103609849,
                1.1159579729020241,
                0.7379656907499623,
                -0.1413512269426927,
                -0.43721624933167336
            ]
        },
        {
            "positions": [
                -1.0859078080651907,
                -1.0550928806143882,
                1.1983011857868007,
                0.8540232771243496,
                -0.140558400370124,
                -0.4073896341175037
            ]
        },
        {
            "positions": [
                -0.9650929713467935,
                -1.0285256508677918,
                1.280644398671577,
                0.9700808634987368,
                -0.13976557379755528,
                -0.377563018903334
            ]
        },
        {
            "positions": [
                -0.8442781346283964,
                -1.0019584211211954,
                1.3629876115563535,
                1.0861384498731241,
                -0.13897274722498654,
                -0.34773640368916436
            ]
        },
        {
            "positions": [
                -0.7234632979099991,
                -0.9753911913745987,
                1.4453308244411298,
                1.2021960362475113,
                -0.13817992065241783,
                -0.3179097884749946
            ]
        },
        {
            "positions": [
                -0.602648461191602,
                -0.9488239616280022,
                1.5276740373259063,
                1.3182536226218984,
                -0.13738709407984911,
                -0.288083173260825
            ]
        },
        {
            "positions": [
                -0.4818336244732049,
                -0.9222567318814057,
                1.6100172502106826,
                1.4343112089962857,
                -0.1365942675072804,
                -0.2582565580466553
            ]
        },
        {
            "positions": [
                -0.36101878775480756,
                -0.8956895021348091,
                1.6923604630954592,
                1.550368795370673,
                -0.1358014409347117,
                -0.2284299428324856
            ]
        },
        {
            "positions": [
                -0.24020395103641035,
                -0.8691222723882126,
                1.7747036759802355,
                1.6664263817450604,
                -0.13500861436214298,
                -0.19860332761831592
            ]
        },
        {
            "positions": [
                -0.11938911431801325,
                -0.8425550426416161,
                1.857046888865012,
                1.7824839681194475,
                -0.13421578778957424,
                -0.16877671240414627
            ]
        },
        {
            "positions": [
                0.0014257224003839664,
                -0.8159878128950195,
                1.9393901017497885,
                1.8985415544938347,
                -0.13342296121700553,
                -0.13895009718997658
            ]
        },
        {
            "positions": [
                0.12224055911878112,
                -0.789420583148423,
                2.021733314634565,
                2.014599140868222,
                -0.13263013464443682,
                -0.10912348197580693
            ]
        }
    ]
}