{
    "goal": {
        "global_pose": {
            "orientation": {
                "w": 0.5084816262002911,
                "x": -0.4908360881923452,
                "y": 0.5182115481033761,
                "z": -0.48164630358495003
            },
            "position": {
                "x": 0.5540239810943604,
                "y": -0.46912469901144505,
                "z": 0.16403168439865112
            }
        },
        "name": "move_to_storage_B"
    },
    "id": "ProjEST_move_to_storage_B_37",
    "joint_names": [
        "shoulder_pan_joint",
        "shoulder_lift_joint",
        "elbow_joint",
        "wrist_1_joint",
        "wrist_2_joint",
        "wrist_3_joint"
    ],
    "metrics": {
        "cart_traj_len": 2.1154340288847857,
        "distance_elbow_joint": 0.525281676773063,
        "distance_shoulder_lift_joint": 0.9419211057156838,
        "distance_shoulder_pan_joint": 2.101938998598915,
        "distance_wrist_1_joint": 2.97999372372642,
        "distance_wrist_2_joint": 2.698986185549184,
        "distance_wrist_3_joint": 5.151794764837554,
        "smoothness": 0.33914765094244703,
        "time": 0.13107950899999998,
        "traj_len": 3.794722184192253,
        "weighted_distance": 5.512031013533173
    },
    "planner": "ProjEST",
    "start": {
        "state": {
            "elbow_joint": 1.664937868594044,
            "shoulder_lift_joint": -0.661644460510453,
            "shoulder_pan_joint": -0.9139846352900073,
            "wrist_1_joint": 2.146753192139373,
            "wrist_2_joint": -2.2341966793290973,
            "wrist_3_joint": 0.005466555786416001
        }
    },
    "waypoints": [
        {
            "positions": [
                -0.9139846352900073,
                -0.661644460510453,
                1.664937868594044,
                2.146753192139373,
                -2.2341966793290973,
                0.005466555786416001
            ]
        },
        {
            "positions": [
                -0.8340079992768153,
                -0.7199581336276968,
                1.6575538827905638,
                2.072229184863998,
                -2.1493559736573,
                0.08916085363265973
            ]
        },
        {
            "positions": [
                -0.7540313632636234,
                -0.7782718067449406,
                1.6501698969870837,
                1.9977051775886225,
                -2.0645152679855032,
                0.17285515147890346
            ]
        },
        {
            "positions": [
                -0.6740547272504315,
                -0.8365854798621843,
                1.6427859111836036,
                1.923181170313247,
                -1.979674562313706,
                0.2565494493251472
            ]
        },
        {
            "positions": [
                -0.5940780912372395,
                -0.894899152979428,
                1.6354019253801237,
                1.8486571630378719,
                -1.894833856641909,
                0.34024374717139094
            ]
        },
        {
            "positions": [
                -0.5141014552240475,
                -0.9532128260966719,
                1.6280179395766436,
                1.7741331557624962,
                -1.809993150970112,
                0.4239380450176347
            ]
        },
        {
            "positions": [
                -0.4341248192108556,
                -1.0115264992139155,
                1.6206339537731635,
                1.699609148487121,
                -1.7251524452983147,
                0.5076323428638784
            ]
        },
        {
            "positions": [
                -0.3541481831976636,
                -1.0698401723311592,
                1.6132499679696835,
                1.6250851412117455,
                -1.6403117396265177,
                0.5913266407101222
            ]
        },
        {
            "positions": [
                -0.2741715471844718,
                -1.128153845448403,
                1.6058659821662034,
                1.5505611339363703,
                -1.5554710339547206,
                0.6750209385563658
            ]
        },
        {
            "positions": [
                -0.19419491117127974,
                -1.1864675185656468,
                1.5984819963627235,
                1.4760371266609948,
                -1.4706303282829236,
                0.7587152364026095
            ]
        },
        {
            "positions": [
                -0.1142182751580878,
                -1.2447811916828906,
                1.5910980105592434,
                1.4015131193856194,
                -1.3857896226111266,
                0.8424095342488533
            ]
        },
        {
            "positions": [
                -0.034241639144895863,
                -1.3030948648001344,
                1.5837140247557633,
                1.3269891121102442,
                -1.3009489169393293,
                0.926103832095097
            ]
        },
        {
            "positions": [
                0.0457349968682961,
                -1.3614085379173781,
                1.5763300389522832,
                1.2524651048348687,
                -1.2161082112675323,
                1.0097981299413408
            ]
        },
        {
            "positions": [
                4.622221067161064e-05,
                -1.3517222567850278,
                1.5937969928375353,
                1.1690368793779922,
                -1.1488723025680276,
                0.8438996023140355
            ]
        },
        {
            "positions": [
                -0.04564255244695288,
                -1.3420359756526774,
                1.6112639467227874,
                1.0856086539211156,
                -1.0816363938685227,
                0.6780010746867303
            ]
        },
        {
            "positions": [
                -0.09133132710457736,
                -1.332349694520327,
                1.6287309006080395,
                1.002180428464239,
                -1.014400485169018,
                0.5121025470594252
            ]
        },
        {
            "positions": [
                -0.13702010176220186,
                -1.3226634133879767,
                1.6461978544932916,
                0.9187522030073624,
                -0.9471645764695131,
                0.34620401943211987
            ]
        },
        {
            "positions": [
                -0.18270887641982633,
                -1.3129771322556265,
                1.6636648083785437,
                0.8353239775504857,
                -0.8799286677700084,
                0.1803054918048146
            ]
        },
        {
            "positions": [
                -0.22839765107745083,
                -1.3032908511232761,
                1.6811317622637958,
                0.7518957520936093,
                -0.8126927590705036,
                0.014406964177509418
            ]
        },
        {
            "positions": [
                -0.27408642573507536,
                -1.2936045699909258,
                1.698598716149048,
                0.6684675266367326,
                -0.7454568503709988,
                -0.15149156344979597
            ]
        },
        {
            "positions": [
                -0.3197752003926998,
                -1.2839182888585754,
                1.7160656700343,
                0.585039301179856,
                -0.678220941671494,
                -0.31739009107710103
            ]
        },
        {
            "positions": [
                -0.36546397505032424,
                -1.274232007726225,
                1.733532623919552,
                0.5016110757229795,
                -0.6109850329719893,
                -0.4832886187044063
            ]
        },
        {
            "positions": [
                -0.4111527497079488,
                -1.2645457265938747,
                1.7509995778048042,
                0.4181828502661028,
                -0.5437491242724845,
                -0.6491871463317116
            ]
        },
        {
            "positions": [
                -0.45684152436557324,
                -1.2548594454615243,
                1.7684665316900563,
                0.33475462480922624,
                -0.47651321557297965,
                -0.8150856739590167
            ]
        },
        {
            "positions": [
                -0.5025302990231978,
                -1.245173164329174,
                1.7859334855753084,
                0.2513263993523498,
                -0.40927730687347497,
                -0.9809842015863219
            ]
        },
        {
            "positions": [
                -0.5482190736808222,
                -1.2354868831968235,
                1.8034004394605603,
                0.167898173895473,
                -0.34204139817397006,
                -1.1468827292136274
            ]
        },
        {
            "positions": [
                -0.5939078483384468,
                -1.2258006020644734,
                1.8208673933458126,
                0.08446994843859645,
                -0.27480548947446526,
                -1.3127812568409327
            ]
        },
        {
            "positions": [
                -0.6395966229960712,
                -1.216114320932123,
                1.8383343472310645,
                0.0010417229817198947,
                -0.20756958077496068,
                -1.4786797844682376
            ]
        },
        {
            "positions": [
                -0.6852853976536958,
                -1.2064280397997726,
                1.8558013011163168,
                -0.08238650247515666,
                -0.14033367207545577,
                -1.6445783120955428
            ]
        },
        {
            "positions": [
                -0.7309741723113202,
                -1.1967417586674223,
                1.8732682550015687,
                -0.16581472793203322,
                -0.07309776337595086,
                -1.8104768397228481
            ]
        },
        {
            "positions": [
                -0.7766629469689447,
                -1.187055477535072,
                1.8907352088868208,
                -0.24924295338890978,
                -0.0058618546764461765,
                -1.9763753673501534
            ]
        },
        {
            "positions": [
                -0.8223517216265692,
                -1.1773691964027215,
                1.9082021627720729,
                -0.33267117884578634,
                0.06137405402305851,
                -2.1422738949774587
            ]
        },
        {
            "positions": [
                -0.8680404962841937,
                -1.1676829152703712,
                1.925669116657325,
                -0.4160994043026631,
                0.12860996272256342,
                -2.308172422604764
            ]
        },
        {
            "positions": [
                -0.9137292709418181,
                -1.157996634138021,
                1.943136070542577,
                -0.49952762975953946,
                0.1958458714220681,
                -2.474070950232069
            ]
        },
        {
            "positions": [
                -0.9594180455994425,
                -1.1483103530056706,
                1.9606030244278292,
                -0.5829558552164162,
                0.263081780121573,
                -2.639969477859374
            ]
        },
        {
            "positions": [
                -1.0051068202570672,
                -1.1386240718733203,
                1.9780699783130813,
                -0.6663840806732928,
                0.3303176888210777,
                -2.80586800548668
            ]
        },
        {
            "positions": [
                -1.0507955949146917,
                -1.12893779074097,
                1.9955369321983334,
                -0.7498123061301691,
                0.3975535975205824,
                -2.9717665331139846
            ]
        },
        {
            "positions": [
                -1.096484369572316,
                -1.1192515096086195,
                2.0130038860835855,
                -0.8332405315870459,
                0.46478950622008725,
                -3.1376650607412895
            ]
        }
    ]
}