{
    "goal": {
        "global_pose": {
            "orientation": {
                "w": 0.7031023502349854,
                "x": -0.7110244035720825,
                "y": 0.007748599164187908,
                "z": 0.005598929710686207
            },
            "position": {
                "x": 0.11585023208521307,
                "y": 0.44412534475326537,
                "z": 0.3711530566215515
            }
        },
        "name": "move_to_auspresseinheit_A"
    },
    "id": "ProjEST_move_to_auspresseinheit_A_82",
    "joint_names": [
        "shoulder_pan_joint",
        "shoulder_lift_joint",
        "elbow_joint",
        "wrist_1_joint",
        "wrist_2_joint",
        "wrist_3_joint"
    ],
    "metrics": {
        "cart_traj_len": 1.816518533655598,
        "distance_elbow_joint": 2.9282198644171893,
        "distance_shoulder_lift_joint": 0.5327760724849331,
        "distance_shoulder_pan_joint": 1.0629127087945789,
        "distance_wrist_1_joint": 3.0511054179018386,
        "distance_wrist_2_joint": 2.572968764732964,
        "distance_wrist_3_joint": 4.9956577074698565,
        "smoothness": 0.46549780890473474,
        "time": 0.21191459199999998,
        "traj_len": 3.89148307664332,
        "weighted_distance": 5.546082413143162
    },
    "planner": "ProjEST",
    "start": {
        "state": {
            "elbow_joint": 2.4225746658250005,
            "shoulder_lift_joint": -1.3736534386056498,
            "shoulder_pan_joint": -0.3378633547517467,
            "wrist_1_joint": -1.0288598680537169,
            "wrist_2_joint": 1.233022673432363,
            "wrist_3_joint": -3.0940220416140027
        }
    },
    "waypoints": [
        {
            "positions": [
                -0.3378633547517467,
                -1.3736534386056498,
                2.4225746658250005,
                -1.0288598680537169,
                1.233022673432363,
                -3.0940220416140027
            ]
        },
        {
            "positions": [
                -0.2976047970060579,
                -1.3741980962652418,
                2.3354769179644044,
                -0.9458077398955256,
                1.1957818994321174,
                -2.9483652648119207
            ]
        },
        {
            "positions": [
                -0.25734623926036915,
                -1.3747427539248338,
                2.2483791701038083,
                -0.8627556117373344,
                1.1585411254318716,
                -2.8027084880098383
            ]
        },
        {
            "positions": [
                -0.21708768151468033,
                -1.375287411584426,
                2.161281422243212,
                -0.7797034835791431,
                1.121300351431626,
                -2.657051711207756
            ]
        },
        {
            "positions": [
                -0.17682912376899154,
                -1.375832069244018,
                2.074183674382616,
                -0.6966513554209519,
                1.0840595774313802,
                -2.511394934405674
            ]
        },
        {
            "positions": [
                -0.13657056602330275,
                -1.37637672690361,
                1.98708592652202,
                -0.6135992272627606,
                1.0468188034311345,
                -2.365738157603592
            ]
        },
        {
            "positions": [
                -0.09631200827761394,
                -1.376921384563202,
                1.8999881786614239,
                -0.5305470991045693,
                1.0095780294308887,
                -2.2200813808015094
            ]
        },
        {
            "positions": [
                -0.056053450531925175,
                -1.3774660422227942,
                1.812890430800828,
                -0.44749497094637825,
                0.9723372554306431,
                -2.0744246039994274
            ]
        },
        {
            "positions": [
                -0.01579489278623636,
                -1.3780106998823862,
                1.725792682940232,
                -0.36444284278818695,
                0.9350964814303975,
                -1.9287678271973452
            ]
        },
        {
            "positions": [
                0.024463664959452402,
                -1.3785553575419782,
                1.6386949350796358,
                -0.28139071462999565,
                0.8978557074301516,
                -1.7831110503952627
            ]
        },
        {
            "positions": [
                0.06472222270514122,
                -1.3791000152015702,
                1.5515971872190397,
                -0.19833858647180436,
                0.860614933429906,
                -1.6374542735931805
            ]
        },
        {
            "positions": [
                0.10498078045083004,
                -1.3796446728611624,
                1.4644994393584436,
                -0.11528645831361317,
                0.8233741594296603,
                -1.4917974967910983
            ]
        },
        {
            "positions": [
                0.14523933819651885,
                -1.3801893305207544,
                1.3774016914978475,
                -0.032234330155421875,
                0.7861333854294146,
                -1.346140719989016
            ]
        },
        {
            "positions": [
                0.1854978959422076,
                -1.3807339881803464,
                1.2903039436372516,
                0.05081779800276931,
                0.748892611429169,
                -1.200483943186934
            ]
        },
        {
            "positions": [
                0.22575645368789637,
                -1.3812786458399384,
                1.2032061957766556,
                0.13386992616096038,
                0.7116518374289232,
                -1.054827166384852
            ]
        },
        {
            "positions": [
                0.26601501143358514,
                -1.3818233034995306,
                1.1161084479160595,
                0.21692205431915168,
                0.6744110634286775,
                -0.9091703895827696
            ]
        },
        {
            "positions": [
                0.306273569179274,
                -1.3823679611591226,
                1.0290107000554634,
                0.299974182477343,
                0.6371702894284318,
                -0.7635136127806876
            ]
        },
        {
            "positions": [
                0.3465321269249628,
                -1.3829126188187146,
                0.9419129521948673,
                0.3830263106355343,
                0.5999295154281861,
                -0.6178568359786054
            ]
        },
        {
            "positions": [
                0.3721895254468812,
                -1.4244573597252055,
                1.0336712972031648,
                0.4333648824836427,
                0.4944135541376794,
                -0.6785913101271766
            ]
        },
        {
            "positions": [
                0.3978469239687996,
                -1.4660021006316961,
                1.1254296422114622,
                0.4837034543317511,
                0.38889759284717274,
                -0.7393257842757477
            ]
        },
        {
            "positions": [
                0.42350432249071795,
                -1.5075468415381867,
                1.2171879872197597,
                0.5340420261798595,
                0.2833816315566661,
                -0.8000602584243189
            ]
        },
        {
            "positions": [
                0.44916172101263635,
                -1.5490915824446776,
                1.3089463322280572,
                0.5843805980279679,
                0.17786567026615946,
                -0.8607947325728901
            ]
        },
        {
            "positions": [
                0.47481911953455475,
                -1.5906363233511684,
                1.4007046772363547,
                0.6347191698760764,
                0.07234970897565285,
                -0.9215292067214612
            ]
        },
        {
            "positions": [
                0.5004765180564731,
                -1.632181064257659,
                1.4924630222446522,
                0.6850577417241848,
                -0.03316625231485382,
                -0.9822636808700325
            ]
        },
        {
            "positions": [
                0.5261339165783915,
                -1.6737258051641497,
                1.5842213672529497,
                0.7353963135722932,
                -0.13868221360536048,
                -1.0429981550186036
            ]
        },
        {
            "positions": [
                0.5517913151003099,
                -1.7152705460706406,
                1.6759797122612472,
                0.7857348854204016,
                -0.24419817489586715,
                -1.1037326291671747
            ]
        },
        {
            "positions": [
                0.5476721806560069,
                -1.7362214482356113,
                1.7586262468295484,
                0.7758405924305632,
                -0.27956017115516085,
                -1.194177618449857
            ]
        },
        {
            "positions": [
                0.5435530462117039,
                -1.7571723504005818,
                1.8412727813978498,
                0.7659462994407249,
                -0.3149221674144546,
                -1.284622607732539
            ]
        },
        {
            "positions": [
                0.5562468746773898,
                -1.7686536704536588,
                1.8834418830581632,
                0.67235229340626,
                -0.2360741732693664,
                -1.4271400485079642
            ]
        },
        {
            "positions": [
                0.5689407031430755,
                -1.7801349905067358,
                1.9256109847184766,
                0.578758287371795,
                -0.15722617912427816,
                -1.5696574892833894
            ]
        },
        {
            "positions": [
                0.5816345316087614,
                -1.7916163105598129,
                1.9677800863787898,
                0.48516428133733014,
                -0.07837818497918991,
                -1.7121749300588147
            ]
        },
        {
            "positions": [
                0.5943283600744473,
                -1.8030976306128899,
                2.009949188039103,
                0.3915702753028652,
                0.0004698091658982828,
                -1.8546923708342402
            ]
        },
        {
            "positions": [
                0.6070221885401331,
                -1.8145789506659669,
                2.0521182896994166,
                0.29797626926840026,
                0.07931780331098653,
                -1.9972098116096655
            ]
        },
        {
            "positions": [
                0.619716017005819,
                -1.8260602707190439,
                2.09428739135973,
                0.20438226323393538,
                0.15816579745607479,
                -2.1397272523850908
            ]
        },
        {
            "positions": [
                0.6324098454715048,
                -1.8375415907721209,
                2.1364564930200434,
                0.1107882571994705,
                0.23701379160116293,
                -2.282244693160516
            ]
        },
        {
            "positions": [
                0.6451036739371907,
                -1.8490229108251979,
                2.1786255946803568,
                0.017194251165005503,
                0.3158617857462512,
                -2.4247621339359413
            ]
        },
        {
            "positions": [
                0.6577975024028766,
                -1.8605042308782749,
                2.22079469634067,
                -0.07639975486945938,
                0.39470977989133943,
                -2.5672795747113666
            ]
        },
        {
            "positions": [
                0.6704913308685624,
                -1.8719855509313519,
                2.262963798000983,
                -0.16999376090392437,
                0.4735577740364277,
                -2.709797015486792
            ]
        },
        {
            "positions": [
                0.6831851593342483,
                -1.8834668709844289,
                2.3051328996612965,
                -0.26358776693838926,
                0.5524057681815158,
                -2.852314456262217
            ]
        },
        {
            "positions": [
                0.6958789877999341,
                -1.894948191037506,
                2.34730200132161,
                -0.35718177297285414,
                0.6312537623266041,
                -2.9948318970376424
            ]
        },
        {
            "positions": [
                0.70857281626562,
                -1.906429511090583,
                2.3894711029819233,
                -0.450775779007319,
                0.7101017564716923,
                -3.1373493378130677
            ]
        }
    ]
}