{
    "goal": {
        "global_pose": {
            "orientation": {
                "w": -0.00223480608172531,
                "x": 0.0024358444001904467,
                "y": 0.7094548369677653,
                "z": -0.704743149386269
            },
            "position": {
                "x": -0.37947507619857795,
                "y": -0.6371506643295288,
                "z": 0.19426114857196808
            }
        },
        "name": "move_to_magneteinheit_C"
    },
    "id": "ProjEST_move_to_magneteinheit_C_133",
    "joint_names": [
        "shoulder_pan_joint",
        "shoulder_lift_joint",
        "elbow_joint",
        "wrist_1_joint",
        "wrist_2_joint",
        "wrist_3_joint"
    ],
    "metrics": {
        "cart_traj_len": 1.0133502413850026,
        "distance_elbow_joint": 1.0251186278710094,
        "distance_shoulder_lift_joint": 0.2526785003614367,
        "distance_shoulder_pan_joint": 1.190603359775322,
        "distance_wrist_1_joint": 2.7984288491090115,
        "distance_wrist_2_joint": 2.7203441640458186,
        "distance_wrist_3_joint": 0.5359141216738124,
        "smoothness": 1.1228003083964246,
        "time": 1.916671269,
        "traj_len": 2.919432757032847,
        "weighted_distance": 3.887632811794199
    },
    "planner": "ProjEST",
    "start": {
        "state": {
            "elbow_joint": 1.9565354010623817,
            "shoulder_lift_joint": -1.4165861575791021,
            "shoulder_pan_joint": -1.6717766225146293,
            "wrist_1_joint": -0.5286633292919765,
            "wrist_2_joint": 1.472756589071564,
            "wrist_3_joint": -3.1238370188695823
        }
    },
    "waypoints": [
        {
            "positions": [
                -1.6717766225146293,
                -1.4165861575791021,
                1.9565354010623817,
                -0.5286633292919765,
                1.472756589071564,
                -3.1238370188695823
            ]
        },
        {
            "positions": [
                -1.7394940423716934,
                -1.4048442302478772,
                1.9159486614999743,
                -0.42418933638880235,
                1.3262513329078787,
                -3.102701829362293
            ]
        },
        {
            "positions": [
                -1.8072114622287576,
                -1.3931023029166523,
                1.875361921937567,
                -0.31971534348562825,
                1.1797460767441934,
                -3.081566639855004
            ]
        },
        {
            "positions": [
                -1.8749288820858216,
                -1.3813603755854273,
                1.83477518237516,
                -0.21524135058245408,
                1.0332408205805081,
                -3.0604314503477146
            ]
        },
        {
            "positions": [
                -1.9426463019428857,
                -1.3696184482542024,
                1.7941884428127526,
                -0.11076735767927998,
                0.8867355644168229,
                -3.0392962608404255
            ]
        },
        {
            "positions": [
                -2.01036372179995,
                -1.3578765209229775,
                1.7536017032503453,
                -0.006293364776105759,
                0.7402303082531376,
                -3.0181610713331364
            ]
        },
        {
            "positions": [
                -2.078081141657014,
                -1.3461345935917524,
                1.7130149636879382,
                0.09818062812706829,
                0.5937250520894524,
                -2.997025881825847
            ]
        },
        {
            "positions": [
                -2.145798561514078,
                -1.3343926662605274,
                1.6724282241255308,
                0.20265462103024245,
                0.4472197959257671,
                -2.9758906923185577
            ]
        },
        {
            "positions": [
                -2.2135159813711422,
                -1.3226507389293025,
                1.6318414845631235,
                0.3071286139334165,
                0.30071453976208184,
                -2.9547555028112686
            ]
        },
        {
            "positions": [
                -2.2812334012282065,
                -1.3109088115980776,
                1.5912547450007162,
                0.41160260683659067,
                0.15420928359839658,
                -2.9336203133039795
            ]
        },
        {
            "positions": [
                -2.3489508210852708,
                -1.2991668842668527,
                1.5506680054383088,
                0.5160765997397649,
                0.007704027434711325,
                -2.9124851237966904
            ]
        },
        {
            "positions": [
                -2.4166682409423346,
                -1.2874249569356278,
                1.5100812658759017,
                0.6205505926429389,
                -0.13880122872897394,
                -2.891349934289401
            ]
        },
        {
            "positions": [
                -2.484385660799399,
                -1.2756830296044028,
                1.4694945263134944,
                0.725024585546113,
                -0.28530648489265914,
                -2.870214744782112
            ]
        },
        {
            "positions": [
                -2.5301973545250203,
                -1.2662173282387983,
                1.5245482920501077,
                0.5921464445632423,
                -0.20182045355083567,
                -2.900563632452008
            ]
        },
        {
            "positions": [
                -2.5760090482506413,
                -1.2567516268731938,
                1.5796020577867207,
                0.4592683035803715,
                -0.11833442220901219,
                -2.9309125201219044
            ]
        },
        {
            "positions": [
                -2.6218207419762622,
                -1.2472859255075892,
                1.634655823523334,
                0.32639016259750075,
                -0.03484839086718872,
                -2.9612614077918007
            ]
        },
        {
            "positions": [
                -2.6676324357018837,
                -1.2378202241419847,
                1.6897095892599472,
                0.19351202161463,
                0.04863764047463476,
                -2.991610295461697
            ]
        },
        {
            "positions": [
                -2.639811357617874,
                -1.227261286009939,
                1.7351185449993285,
                0.04876511156613872,
                0.1384000640052494,
                -3.0145954807340907
            ]
        },
        {
            "positions": [
                -2.6119902795338645,
                -1.2167023478778936,
                1.7805275007387098,
                -0.09598179848235255,
                0.22816248753586402,
                -3.037580666006485
            ]
        },
        {
            "positions": [
                -2.5841692014498547,
                -1.2061434097458479,
                1.825936456478091,
                -0.24072870853084383,
                0.31792491106647863,
                -3.0605658512788785
            ]
        },
        {
            "positions": [
                -2.556348123365845,
                -1.1955844716138022,
                1.8713454122174724,
                -0.3854756185793351,
                0.4076873345970933,
                -3.083551036551272
            ]
        },
        {
            "positions": [
                -2.528527045281835,
                -1.1850255334817565,
                1.916754367956854,
                -0.5302225286278264,
                0.4974497581277079,
                -3.106536221823666
            ]
        },
        {
            "positions": [
                -2.500705967197826,
                -1.174466595349711,
                1.9621633236962353,
                -0.6749694386763176,
                0.5872121816583225,
                -3.12952140709606
            ]
        },
        {
            "positions": [
                -2.472884889113816,
                -1.1639076572176654,
                2.0075722794356166,
                -0.819716348724809,
                0.6769746051889372,
                -3.1525065923684537
            ]
        }
    ]
}