{
    "goal": {
        "global_pose": {
            "orientation": {
                "w": 0.7047431468963623,
                "x": -0.7094548344612122,
                "y": 0.0024358443915843964,
                "z": -0.0022348060738295317
            },
            "position": {
                "x": 0.6094750761985779,
                "y": 0.3671506643295288,
                "z": 0.19426114857196808
            }
        },
        "name": "move_to_magneteinheit_A"
    },
    "id": "ProjEST_move_to_magneteinheit_A_4",
    "joint_names": [
        "shoulder_pan_joint",
        "shoulder_lift_joint",
        "elbow_joint",
        "wrist_1_joint",
        "wrist_2_joint",
        "wrist_3_joint"
    ],
    "metrics": {
        "cart_traj_len": 3.5012338661399833,
        "distance_elbow_joint": 3.8850942862483357,
        "distance_shoulder_lift_joint": 0.15871716676039527,
        "distance_shoulder_pan_joint": 3.10596596443637,
        "distance_wrist_1_joint": 1.1315231893993865,
        "distance_wrist_2_joint": 1.6917005068033535,
        "distance_wrist_3_joint": 2.6193220830083335,
        "smoothness": 0.16094438321288726,
        "time": 0.072871242,
        "traj_len": 3.548566357933324,
        "weighted_distance": 4.544688224606345
    },
    "planner": "ProjEST",
    "start": {
        "state": {
            "elbow_joint": -1.9196185241190666,
            "shoulder_lift_joint": -1.2443396400964142,
            "shoulder_pan_joint": 2.6996025414629847,
            "wrist_1_joint": -1.5485510000780065,
            "wrist_2_joint": -1.5709468930060704,
            "wrist_3_joint": 0.4420197071253992
        }
    },
    "waypoints": [
        {
            "positions": [
                2.6996025414629847,
                -1.2443396400964142,
                -1.9196185241190666,
                -1.5485510000780065,
                -1.5709468930060704,
                0.4420197071253992
            ]
        },
        {
            "positions": [
                2.5859401258492825,
                -1.2453303272975125,
                -1.7854085437310394,
                -1.5100891952870594,
                -1.512611394744803,
                0.49212448508679063
            ]
        },
        {
            "positions": [
                2.4722777102355806,
                -1.2463210144986105,
                -1.6511985633430122,
                -1.4716273904961126,
                -1.4542758964835354,
                0.5422292630481821
            ]
        },
        {
            "positions": [
                2.3586152946218784,
                -1.2473117016997088,
                -1.516988582954985,
                -1.4331655857051655,
                -1.395940398222268,
                0.5923340410095734
            ]
        },
        {
            "positions": [
                2.244952879008176,
                -1.248302388900807,
                -1.3827786025669577,
                -1.3947037809142186,
                -1.3376048999610004,
                0.6424388189709649
            ]
        },
        {
            "positions": [
                2.131290463394474,
                -1.2492930761019052,
                -1.2485686221789303,
                -1.3562419761232716,
                -1.279269401699733,
                0.6925435969323563
            ]
        },
        {
            "positions": [
                2.017628047780772,
                -1.2502837633030035,
                -1.1143586417909033,
                -1.3177801713323247,
                -1.2209339034384656,
                0.7426483748937478
            ]
        },
        {
            "positions": [
                1.9039656321670697,
                -1.2512744505041016,
                -0.9801486614028759,
                -1.2793183665413776,
                -1.162598405177198,
                0.7927531528551393
            ]
        },
        {
            "positions": [
                1.7903032165533674,
                -1.2522651377051999,
                -0.8459386810148488,
                -1.2408565617504306,
                -1.1042629069159307,
                0.8428579308165307
            ]
        },
        {
            "positions": [
                1.6766408009396654,
                -1.253255824906298,
                -0.7117287006268216,
                -1.2023947569594837,
                -1.0459274086546633,
                0.8929627087779222
            ]
        },
        {
            "positions": [
                1.5629783853259631,
                -1.2542465121073962,
                -0.5775187202387941,
                -1.1639329521685366,
                -0.9875919103933957,
                0.9430674867393136
            ]
        },
        {
            "positions": [
                1.449315969712261,
                -1.2552371993084945,
                -0.44330873985076713,
                -1.1254711473775898,
                -0.9292564121321282,
                0.993172264700705
            ]
        },
        {
            "positions": [
                1.335653554098559,
                -1.2562278865095926,
                -0.3090987594627399,
                -1.0870093425866427,
                -0.8709209138708608,
                1.0432770426620963
            ]
        },
        {
            "positions": [
                1.2219911384848567,
                -1.257218573710691,
                -0.17488877907471245,
                -1.0485475377956956,
                -0.8125854156095932,
                1.0933818206234878
            ]
        },
        {
            "positions": [
                1.1083287228711545,
                -1.258209260911789,
                -0.040678798686685225,
                -1.0100857330047486,
                -0.7542499173483257,
                1.1434865985848792
            ]
        },
        {
            "positions": [
                0.9946663072574526,
                -1.2591999481128873,
                0.093531181701342,
                -0.9716239282138018,
                -0.6959144190870583,
                1.1935913765462707
            ]
        },
        {
            "positions": [
                0.8810038916437504,
                -1.2601906353139856,
                0.227741162089369,
                -0.9331621234228548,
                -0.6375789208257908,
                1.2436961545076621
            ]
        },
        {
            "positions": [
                0.7673414760300481,
                -1.2611813225150836,
                0.36195114247739646,
                -0.8947003186319078,
                -0.5792434225645233,
                1.2938009324690536
            ]
        },
        {
            "positions": [
                0.653679060416346,
                -1.262172009716182,
                0.49616112286542347,
                -0.8562385138409608,
                -0.5209079243032559,
                1.343905710430445
            ]
        },
        {
            "positions": [
                0.5400166448026438,
                -1.26316269691728,
                0.6303711032534509,
                -0.8177767090500139,
                -0.46257242604198834,
                1.3940104883918365
            ]
        },
        {
            "positions": [
                0.4263542291889415,
                -1.2641533841183783,
                0.7645810836414784,
                -0.7793149042590668,
                -0.40423692778072096,
                1.444115266353228
            ]
        },
        {
            "positions": [
                0.3126918135752397,
                -1.2651440713194766,
                0.8987910640295054,
                -0.74085309946812,
                -0.3459014295194536,
                1.4942200443146194
            ]
        },
        {
            "positions": [
                0.1990293979615374,
                -1.2661347585205747,
                1.0330010444175324,
                -0.7023912946771729,
                -0.28756593125818597,
                1.5443248222760109
            ]
        },
        {
            "positions": [
                0.08536698234783513,
                -1.267125445721673,
                1.1672110248055598,
                -0.6639294898862259,
                -0.2292304329969186,
                1.5944296002374023
            ]
        },
        {
            "positions": [
                -0.0282954332658667,
                -1.268116132922771,
                1.3014210051935868,
                -0.625467685095279,
                -0.1708949347356512,
                1.6445343781987938
            ]
        },
        {
            "positions": [
                -0.14195784887956897,
                -1.2691068201238693,
                1.4356309855816143,
                -0.587005880304332,
                -0.1125594364743837,
                1.6946391561601852
            ]
        },
        {
            "positions": [
                -0.10418562400902392,
                -1.2499711077334492,
                1.5113230965169935,
                -0.6112884616794336,
                -0.07922900072128855,
                1.8898823895849777
            ]
        },
        {
            "positions": [
                -0.06641339913847887,
                -1.2308353953430293,
                1.5870152074523727,
                -0.6355710430545353,
                -0.0458985649681934,
                2.08512562300977
            ]
        },
        {
            "positions": [
                -0.02864117426793382,
                -1.2116996829526092,
                1.662707318387752,
                -0.6598536244296369,
                -0.012568129215098256,
                2.2803688564345626
            ]
        },
        {
            "positions": [
                0.00913105060261124,
                -1.1925639705621893,
                1.7383994293231313,
                -0.6841362058047387,
                0.02076230653799689,
                2.4756120898593554
            ]
        },
        {
            "positions": [
                0.046903275473156314,
                -1.1734282581717692,
                1.8140915402585107,
                -0.7084187871798403,
                0.05409274229109205,
                2.670855323284148
            ]
        },
        {
            "positions": [
                0.08467550034370133,
                -1.1542925457813493,
                1.88978365119389,
                -0.732701368554942,
                0.08742317804418719,
                2.8660985567089403
            ]
        },
        {
            "positions": [
                0.12244772521424643,
                -1.1351568333909292,
                1.965475762129269,
                -0.7569839499300436,
                0.12075361379728233,
                3.0613417901337328
            ]
        }
    ]
}