{
    "goal": {
        "global_pose": {
            "orientation": {
                "w": -0.00223480608172531,
                "x": 0.0024358444001904467,
                "y": 0.7094548369677653,
                "z": -0.704743149386269
            },
            "position": {
                "x": -0.37947507619857795,
                "y": -0.6371506643295288,
                "z": 0.19426114857196808
            }
        },
        "name": "move_to_magneteinheit_C"
    },
    "id": "ProjEST_move_to_magneteinheit_C_88",
    "joint_names": [
        "shoulder_pan_joint",
        "shoulder_lift_joint",
        "elbow_joint",
        "wrist_1_joint",
        "wrist_2_joint",
        "wrist_3_joint"
    ],
    "metrics": {
        "cart_traj_len": 1.3413604295594947,
        "distance_elbow_joint": 0.9369954929789235,
        "distance_shoulder_lift_joint": 0.7359833998600545,
        "distance_shoulder_pan_joint": 1.2698322742659476,
        "distance_wrist_1_joint": 1.525751775205035,
        "distance_wrist_2_joint": 1.9189700020251832,
        "distance_wrist_3_joint": 3.5260006245591713,
        "smoothness": 0.9468223061440877,
        "time": 1.852651547,
        "traj_len": 3.1485764352948964,
        "weighted_distance": 4.517771197752592
    },
    "planner": "ProjEST",
    "start": {
        "state": {
            "elbow_joint": 1.9565354010623817,
            "shoulder_lift_joint": -1.4165861575791021,
            "shoulder_pan_joint": -1.6717766225146293,
            "wrist_1_joint": -0.5286633292919765,
            "wrist_2_joint": 1.472756589071564,
            "wrist_3_joint": -3.1238370188695823
        }
    },
    "waypoints": [
        {
            "positions": [
                -1.6717766225146293,
                -1.4165861575791021,
                1.9565354010623817,
                -0.5286633292919765,
                1.472756589071564,
                -3.1238370188695823
            ]
        },
        {
            "positions": [
                -1.5789546561884367,
                -1.4413069897233493,
                1.9168381984899237,
                -0.4289497860641267,
                1.4212709548854787,
                -3.0857246132128004
            ]
        },
        {
            "positions": [
                -1.5445545169351893,
                -1.4619550981043479,
                1.8426959189845717,
                -0.33885580948842,
                1.3815582504049524,
                -2.9519346815908394
            ]
        },
        {
            "positions": [
                -1.5101543776819422,
                -1.4826032064853467,
                1.7685536394792198,
                -0.2487618329127133,
                1.3418455459244263,
                -2.8181447499688788
            ]
        },
        {
            "positions": [
                -1.4757542384286948,
                -1.5032513148663453,
                1.694411359973868,
                -0.15866785633700659,
                1.3021328414439,
                -2.6843548183469177
            ]
        },
        {
            "positions": [
                -1.5460041846685033,
                -1.5186833572745524,
                1.676188104559335,
                -0.13377532696952857,
                1.1828564990532455,
                -2.554366372250158
            ]
        },
        {
            "positions": [
                -1.6162541309083118,
                -1.5341153996827595,
                1.6579648491448018,
                -0.10888279760205054,
                1.0635801566625913,
                -2.4243779261533986
            ]
        },
        {
            "positions": [
                -1.6865040771481206,
                -1.5495474420909665,
                1.6397415937302688,
                -0.08399026823457252,
                0.944303814271937,
                -2.2943894800566396
            ]
        },
        {
            "positions": [
                -1.756754023387929,
                -1.5649794844991736,
                1.6215183383157357,
                -0.05909773886709449,
                0.8250274718812827,
                -2.16440103395988
            ]
        },
        {
            "positions": [
                -1.8270039696277376,
                -1.5804115269073806,
                1.6032950829012027,
                -0.034205209499616474,
                0.7057511294906283,
                -2.0344125878631205
            ]
        },
        {
            "positions": [
                -1.897253915867546,
                -1.5958435693155875,
                1.5850718274866697,
                -0.009312680132138457,
                0.586474787099974,
                -1.904424141766361
            ]
        },
        {
            "positions": [
                -1.9675038621073546,
                -1.6112756117237945,
                1.5668485720721366,
                0.01557984923533956,
                0.4671984447093197,
                -1.7744356956696017
            ]
        },
        {
            "positions": [
                -2.0377538083471634,
                -1.6267076541320016,
                1.5486253166576036,
                0.040472378602817605,
                0.3479221023186654,
                -1.6444472495728422
            ]
        },
        {
            "positions": [
                -2.1080037545869716,
                -1.6421396965402086,
                1.5304020612430704,
                0.06536490797029562,
                0.22864575992801095,
                -1.5144588034760826
            ]
        },
        {
            "positions": [
                -2.1782537008267804,
                -1.6575717389484157,
                1.5121788058285375,
                0.09025743733777365,
                0.10936941753735668,
                -1.3844703573793233
            ]
        },
        {
            "positions": [
                -2.2338143814559612,
                -1.61937617502109,
                1.5777859050640746,
                0.07533248628714634,
                0.17772463024202056,
                -1.5040798861386218
            ]
        },
        {
            "positions": [
                -2.2893750620851425,
                -1.5811806110937645,
                1.6433930042996117,
                0.06040753523651901,
                0.24607984294668445,
                -1.6236894148979202
            ]
        },
        {
            "positions": [
                -2.3449357427143234,
                -1.5429850471664388,
                1.7090001035351485,
                0.04548258418589169,
                0.3144350556513483,
                -1.7432989436572186
            ]
        },
        {
            "positions": [
                -2.400496423343504,
                -1.504789483239113,
                1.7746072027706856,
                0.03055763313526437,
                0.3827902683560122,
                -1.862908472416517
            ]
        },
        {
            "positions": [
                -2.4560571039726855,
                -1.4665939193117876,
                1.8402143020062227,
                0.015632682084637042,
                0.45114548106067615,
                -1.9825180011758154
            ]
        },
        {
            "positions": [
                -2.5116177846018664,
                -1.428398355384462,
                1.9058214012417598,
                0.0007077310340097287,
                0.51950069376534,
                -2.102127529935114
            ]
        },
        {
            "positions": [
                -2.506196878315175,
                -1.3904234361092067,
                1.9199637301463108,
                -0.11604674071906468,
                0.5402794872314819,
                -2.2548385000084172
            ]
        },
        {
            "positions": [
                -2.500775972028483,
                -1.3524485168339513,
                1.9341060590508619,
                -0.23280121247213909,
                0.5610582806976239,
                -2.40754947008172
            ]
        },
        {
            "positions": [
                -2.4953550657417916,
                -1.314473597558696,
                1.9482483879554129,
                -0.3495556842252135,
                0.5818370741637657,
                -2.5602604401550235
            ]
        },
        {
            "positions": [
                -2.4899341594550997,
                -1.2764986782834407,
                1.9623907168599637,
                -0.4663101559782879,
                0.6026158676299077,
                -2.712971410228327
            ]
        },
        {
            "positions": [
                -2.484513253168408,
                -1.2385237590081855,
                1.9765330457645147,
                -0.5830646277313623,
                0.6233946610960496,
                -2.86568238030163
            ]
        },
        {
            "positions": [
                -2.4790923468817163,
                -1.2005488397329303,
                1.9906753746690657,
                -0.6998190994844367,
                0.6441734545621915,
                -3.018393350374933
            ]
        },
        {
            "positions": [
                -2.473671440595025,
                -1.1625739204576748,
                2.0048177035736168,
                -0.8165735712375112,
                0.6649522480283334,
                -3.1711043204482365
            ]
        }
    ]
}