{
    "goal": {
        "global_pose": {
            "orientation": {
                "w": 0.7047431468963623,
                "x": -0.7094548344612122,
                "y": 0.0024358443915843964,
                "z": -0.0022348060738295317
            },
            "position": {
                "x": 0.6094750761985779,
                "y": 0.3671506643295288,
                "z": 0.19426114857196808
            }
        },
        "name": "move_to_magneteinheit_A"
    },
    "id": "ProjEST_move_to_magneteinheit_A_82",
    "joint_names": [
        "shoulder_pan_joint",
        "shoulder_lift_joint",
        "elbow_joint",
        "wrist_1_joint",
        "wrist_2_joint",
        "wrist_3_joint"
    ],
    "metrics": {
        "cart_traj_len": 4.273519053478966,
        "distance_elbow_joint": 3.884861639473991,
        "distance_shoulder_lift_joint": 0.1768305638699783,
        "distance_shoulder_pan_joint": 4.0535715507321495,
        "distance_wrist_1_joint": 0.7893585353060729,
        "distance_wrist_2_joint": 3.743770241790105,
        "distance_wrist_3_joint": 3.6538388683696583,
        "smoothness": 0.24340129575671032,
        "time": 0.195782126,
        "traj_len": 4.037602184408706,
        "weighted_distance": 5.305001217094813
    },
    "planner": "ProjEST",
    "start": {
        "state": {
            "elbow_joint": -1.9196185241190666,
            "shoulder_lift_joint": -1.2443396400964142,
            "shoulder_pan_joint": 2.6996025414629847,
            "wrist_1_joint": -1.5485510000780065,
            "wrist_2_joint": -1.5709468930060704,
            "wrist_3_joint": 0.4420197071253992
        }
    },
    "waypoints": [
        {
            "positions": [
                2.6996025414629847,
                -1.2443396400964142,
                -1.9196185241190666,
                -1.5485510000780065,
                -1.5709468930060704,
                0.4420197071253992
            ]
        },
        {
            "positions": [
                2.5768408817170334,
                -1.2390623442975546,
                -1.8319244762631468,
                -1.5198776375558347,
                -1.4702177600068238,
                0.39628199636561323
            ]
        },
        {
            "positions": [
                2.454079221971082,
                -1.233785048498695,
                -1.7442304284072272,
                -1.491204275033663,
                -1.369488627007577,
                0.3505442856058273
            ]
        },
        {
            "positions": [
                2.3313175622251308,
                -1.2285077526998356,
                -1.6565363805513074,
                -1.4625309125114911,
                -1.2687594940083304,
                0.30480657484604134
            ]
        },
        {
            "positions": [
                2.2085559024791794,
                -1.223230456900976,
                -1.5688423326953878,
                -1.4338575499893194,
                -1.1680303610090839,
                0.2590688640862554
            ]
        },
        {
            "positions": [
                2.085794242733228,
                -1.2179531611021164,
                -1.481148284839468,
                -1.4051841874671476,
                -1.0673012280098373,
                0.21333115332646949
            ]
        },
        {
            "positions": [
                1.9630325829872768,
                -1.2126758653032568,
                -1.393454236983548,
                -1.3765108249449758,
                -0.9665720950105906,
                0.16759344256668357
            ]
        },
        {
            "positions": [
                1.8402709232413255,
                -1.2073985695043972,
                -1.3057601891276285,
                -1.347837462422804,
                -0.8658429620113439,
                0.12185573180689763
            ]
        },
        {
            "positions": [
                1.7175092634953741,
                -1.2021212737055378,
                -1.2180661412717086,
                -1.3191640999006322,
                -0.7651138290120973,
                0.07611802104711168
            ]
        },
        {
            "positions": [
                1.5947476037494228,
                -1.1968439779066782,
                -1.1303720934157888,
                -1.2904907373784607,
                -0.6643846960128507,
                0.03038031028732574
            ]
        },
        {
            "positions": [
                1.4719859440034715,
                -1.1915666821078186,
                -1.0426780455598692,
                -1.2618173748562889,
                -0.563655563013604,
                -0.015357400472460203
            ]
        },
        {
            "positions": [
                1.3492242842575202,
                -1.186289386308959,
                -0.9549839977039494,
                -1.233144012334117,
                -0.4629264300143574,
                -0.06109511123224609
            ]
        },
        {
            "positions": [
                1.2264626245115686,
                -1.1810120905100994,
                -0.8672899498480295,
                -1.2044706498119453,
                -0.36219729701511083,
                -0.10683282199203203
            ]
        },
        {
            "positions": [
                1.1037009647656173,
                -1.1757347947112398,
                -0.7795959019921099,
                -1.1757972872897735,
                -0.26146816401586404,
                -0.15257053275181798
            ]
        },
        {
            "positions": [
                0.980939305019666,
                -1.1704574989123804,
                -0.6919018541361901,
                -1.1471239247676017,
                -0.16073903101661746,
                -0.19830824351160392
            ]
        },
        {
            "positions": [
                0.8581776452737147,
                -1.1651802031135208,
                -0.6042078062802703,
                -1.11845056224543,
                -0.060009898017370666,
                -0.24404595427138998
            ]
        },
        {
            "positions": [
                0.7354159855277633,
                -1.1599029073146612,
                -0.5165137584243507,
                -1.0897771997232581,
                0.040719234981875685,
                -0.2897836650311758
            ]
        },
        {
            "positions": [
                0.6126543257818118,
                -1.1546256115158016,
                -0.4288197105684306,
                -1.0611038372010864,
                0.14144836798112248,
                -0.33552137579096186
            ]
        },
        {
            "positions": [
                0.4898926660358609,
                -1.149348315716942,
                -0.341125662712511,
                -1.0324304746789146,
                0.24217750098036905,
                -0.3812590865507477
            ]
        },
        {
            "positions": [
                0.36713100628990913,
                -1.1440710199180826,
                -0.25343161485659116,
                -1.0037571121567428,
                0.34290663397961585,
                -0.42699679731053364
            ]
        },
        {
            "positions": [
                0.24436934654395825,
                -1.138793724119223,
                -0.16573756700067155,
                -0.975083749634571,
                0.4436357669788624,
                -0.4727345080703196
            ]
        },
        {
            "positions": [
                0.12160768679800649,
                -1.1335164283203634,
                -0.07804351914475172,
                -0.9464103871123991,
                0.544364899978109,
                -0.5184722188301055
            ]
        },
        {
            "positions": [
                -0.0011539729479443928,
                -1.1282391325215038,
                0.009650528711167894,
                -0.9177370245902274,
                0.6450940329773556,
                -0.5642099295898914
            ]
        },
        {
            "positions": [
                -0.12391563269389616,
                -1.1229618367226442,
                0.09734457656708795,
                -0.8890636620680556,
                0.7458231659766021,
                -0.6099476403496774
            ]
        },
        {
            "positions": [
                -0.24667729243984748,
                -1.1176845409237846,
                0.18503862442300756,
                -0.8603902995458839,
                0.8465522989758487,
                -0.6556853511094632
            ]
        },
        {
            "positions": [
                -0.3694389521857988,
                -1.1124072451249252,
                0.27273267227892717,
                -0.8317169370237121,
                0.9472814319750957,
                -0.7014230618692493
            ]
        },
        {
            "positions": [
                -0.49220061193175013,
                -1.1071299493260656,
                0.3604267201348468,
                -0.8030435745015403,
                1.0480105649743423,
                -0.7471607726290351
            ]
        },
        {
            "positions": [
                -0.6149622716777016,
                -1.101852653527206,
                0.4481207679907667,
                -0.7743702119793685,
                1.1487396979735887,
                -0.7928984833888212
            ]
        },
        {
            "positions": [
                -0.5656951558382709,
                -1.1041422253472573,
                0.5492622578150438,
                -0.7733583621655395,
                1.0804674545862254,
                -0.9541598619125171
            ]
        },
        {
            "positions": [
                -0.5164280399988401,
                -1.1064317971673086,
                0.6504037476393209,
                -0.7723465123517105,
                1.0121952111988624,
                -1.115421240436213
            ]
        },
        {
            "positions": [
                -0.46716092415940946,
                -1.10872136898736,
                0.751545237463598,
                -0.7713346625378815,
                0.9439229678114991,
                -1.2766826189599088
            ]
        },
        {
            "positions": [
                -0.41789380831997874,
                -1.1110109408074114,
                0.8526867272878751,
                -0.7703228127240526,
                0.8756507244241358,
                -1.4379439974836048
            ]
        },
        {
            "positions": [
                -0.368626692480548,
                -1.1133005126274627,
                0.953828217112152,
                -0.7693109629102235,
                0.8073784810367728,
                -1.5992053760073004
            ]
        },
        {
            "positions": [
                -0.3193595766411173,
                -1.115590084447514,
                1.0549697069364292,
                -0.7682991130963945,
                0.7391062376494095,
                -1.7604667545309964
            ]
        },
        {
            "positions": [
                -0.2700924608016866,
                -1.1178796562675652,
                1.1561111967607063,
                -0.7672872632825656,
                0.6708339942620463,
                -1.921728133054692
            ]
        },
        {
            "positions": [
                -0.22082534496225592,
                -1.1201692280876168,
                1.2572526865849833,
                -0.7662754134687365,
                0.6025617508746831,
                -2.082989511578388
            ]
        },
        {
            "positions": [
                -0.1715582291228252,
                -1.122458799907668,
                1.3583941764092604,
                -0.7652635636549076,
                0.53428950748732,
                -2.244250890102084
            ]
        },
        {
            "positions": [
                -0.12229111328339448,
                -1.1247483717277194,
                1.4595356662335375,
                -0.7642517138410786,
                0.4660172640999568,
                -2.4055122686257797
            ]
        },
        {
            "positions": [
                -0.07302399744396382,
                -1.1270379435477706,
                1.5606771560578143,
                -0.7632398640272495,
                0.39774502071259366,
                -2.5667736471494758
            ]
        },
        {
            "positions": [
                -0.023756881604533042,
                -1.129327515367822,
                1.6618186458820916,
                -0.7622280142134206,
                0.3294727773252304,
                -2.728035025673172
            ]
        },
        {
            "positions": [
                0.025510234234897622,
                -1.1316170871878735,
                1.762960135706369,
                -0.7612161643995916,
                0.26120053393786713,
                -2.8892964041968674
            ]
        },
        {
            "positions": [
                0.0747773500743284,
                -1.1339066590079248,
                1.8641016255306457,
                -0.7602043145857625,
                0.19292829055050398,
                -3.050557782720563
            ]
        },
        {
            "positions": [
                0.12404446591375905,
                -1.136196230827976,
                1.965243115354923,
                -0.7591924647719336,
                0.12465604716314084,
                -3.211819161244259
            ]
        }
    ]
}