{
    "goal": {
        "global_pose": {
            "orientation": {
                "w": 0.005598929693374612,
                "x": 0.007748599140229565,
                "y": 0.7110244013736278,
                "z": -0.7031023480610252
            },
            "position": {
                "x": 0.1141497679147869,
                "y": -0.7141253447532654,
                "z": 0.3711530566215515
            }
        },
        "name": "move_to_auspresseinheit_B"
    },
    "id": "ProjEST_move_to_auspresseinheit_B_47",
    "joint_names": [
        "shoulder_pan_joint",
        "shoulder_lift_joint",
        "elbow_joint",
        "wrist_1_joint",
        "wrist_2_joint",
        "wrist_3_joint"
    ],
    "metrics": {
        "cart_traj_len": 0.5643009299093483,
        "distance_elbow_joint": 0.06434451895613136,
        "distance_shoulder_lift_joint": 0.29333868207307945,
        "distance_shoulder_pan_joint": 0.5742220459515279,
        "distance_wrist_1_joint": 0.33383211374204347,
        "distance_wrist_2_joint": 1.0085248891861762,
        "distance_wrist_3_joint": 6.972949788641714e-05,
        "smoothness": 3.806478935924272e-16,
        "time": 0.066219896,
        "traj_len": 1.508088849970997,
        "weighted_distance": 1.9017961092953253
    },
    "planner": "ProjEST",
    "start": {
        "state": {
            "elbow_joint": 2.0193083361928714,
            "shoulder_lift_joint": -1.1220246554650708,
            "shoulder_pan_joint": -1.0952077554168747,
            "wrist_1_joint": -0.8559753972642168,
            "wrist_2_joint": 0.4759566250798843,
            "wrist_3_joint": -3.1240929996934557
        }
    },
    "waypoints": [
        {
            "positions": [
                -1.0952077554168747,
                -1.1220246554650708,
                2.0193083361928714,
                -0.8559753972642168,
                0.4759566250798843,
                -3.1240929996934557
            ]
        },
        {
            "positions": [
                -1.1909114297421293,
                -1.170914435810584,
                2.0085842497001827,
                -0.8003367116405429,
                0.6440441066109137,
                -3.1241046212764365
            ]
        },
        {
            "positions": [
                -1.2866151040673839,
                -1.2198042161560974,
                1.9978601632074944,
                -0.744698026016869,
                0.8121315881419431,
                -3.124116242859418
            ]
        },
        {
            "positions": [
                -1.3823187783926385,
                -1.2686939965016104,
                1.9871360767148056,
                -0.689059340393195,
                0.9802190696729725,
                -3.124127864442399
            ]
        },
        {
            "positions": [
                -1.4780224527178931,
                -1.3175837768471237,
                1.976411990222117,
                -0.6334206547695211,
                1.1483065512040018,
                -3.12413948602538
            ]
        },
        {
            "positions": [
                -1.573726127043148,
                -1.366473557192637,
                1.9656879037294286,
                -0.5777819691458472,
                1.3163940327350312,
                -3.124151107608361
            ]
        },
        {
            "positions": [
                -1.6694298013684026,
                -1.4153633375381502,
                1.95496381723674,
                -0.5221432835221733,
                1.4844815142660606,
                -3.124162729191342
            ]
        }
    ]
}