{
    "goal": {
        "global_pose": {
            "orientation": {
                "w": 0.7047431493862688,
                "x": -0.7094548369677653,
                "y": 0.0024358444001904,
                "z": -0.0022348060817251984
            },
            "position": {
                "x": -0.39052492380142206,
                "y": 0.3671506643295288,
                "z": 0.19426114857196808
            }
        },
        "name": "move_to_magneteinheit_D"
    },
    "id": "ProjEST_move_to_magneteinheit_D_57",
    "joint_names": [
        "shoulder_pan_joint",
        "shoulder_lift_joint",
        "elbow_joint",
        "wrist_1_joint",
        "wrist_2_joint",
        "wrist_3_joint"
    ],
    "metrics": {
        "cart_traj_len": 3.663809140854337,
        "distance_elbow_joint": 3.1286664182951016,
        "distance_shoulder_lift_joint": 1.6347108733105207,
        "distance_shoulder_pan_joint": 2.767053337662728,
        "distance_wrist_1_joint": 1.7031367023394468,
        "distance_wrist_2_joint": 3.5551538784710415,
        "distance_wrist_3_joint": 5.839659229535773,
        "smoothness": 0.7210979645115512,
        "time": 0.484994989,
        "traj_len": 4.31606075485675,
        "weighted_distance": 5.9637227869424505
    },
    "planner": "ProjEST",
    "start": {
        "state": {
            "elbow_joint": 0.749534889911806,
            "shoulder_lift_joint": -0.6476975780787326,
            "shoulder_pan_joint": -2.711696901376241,
            "wrist_1_joint": -0.07506478083263063,
            "wrist_2_joint": 0.43296659715538205,
            "wrist_3_joint": -3.14703540197715
        }
    },
    "waypoints": [
        {
            "positions": [
                -2.711696901376241,
                -0.6476975780787326,
                0.749534889911806,
                -0.07506478083263063,
                0.43296659715538205,
                -3.14703540197715
            ]
        },
        {
            "positions": [
                -2.701854215636661,
                -0.7903777057804577,
                0.6884452651086828,
                -0.06251576121443206,
                0.5322601625335612,
                -3.1633437083963116
            ]
        },
        {
            "positions": [
                -2.692011529897081,
                -0.9330578334821829,
                0.6273556403055596,
                -0.049966741596233495,
                0.6315537279117404,
                -3.1796520148154728
            ]
        },
        {
            "positions": [
                -2.606705483908235,
                -0.9356176367912521,
                0.5336865581773778,
                -0.04112650540249787,
                0.5635589108391146,
                -3.047570104588854
            ]
        },
        {
            "positions": [
                -2.5213994379193894,
                -0.9381774401003213,
                0.4400174760491959,
                -0.03228626920876225,
                0.49556409376648874,
                -2.9154881943622346
            ]
        },
        {
            "positions": [
                -2.4360933919305436,
                -0.9407372434093906,
                0.3463483939210141,
                -0.02344603301502662,
                0.4275692766938629,
                -2.7834062841356157
            ]
        },
        {
            "positions": [
                -2.350787345941698,
                -0.9432970467184598,
                0.2526793117928322,
                -0.014605796821290998,
                0.35957445962123713,
                -2.6513243739089964
            ]
        },
        {
            "positions": [
                -2.265481299952852,
                -0.9458568500275291,
                0.15901022966465034,
                -0.005765560627555372,
                0.2915796425486113,
                -2.5192424636823776
            ]
        },
        {
            "positions": [
                -2.1801752539640065,
                -0.9484166533365983,
                0.06534114753646858,
                0.0030746755661802544,
                0.22358482547598552,
                -2.3871605534557583
            ]
        },
        {
            "positions": [
                -2.0948692079751607,
                -0.9509764566456675,
                -0.028327934591713344,
                0.01191491175991588,
                0.15559000840335968,
                -2.2550786432291394
            ]
        },
        {
            "positions": [
                -2.0095631619863155,
                -0.9535362599547368,
                -0.12199701671989516,
                0.0207551479536515,
                0.0875951913307339,
                -2.1229967330025206
            ]
        },
        {
            "positions": [
                -1.9242571159974695,
                -0.956096063263806,
                -0.21566609884807708,
                0.02959538414738714,
                0.01960037425810801,
                -1.9909148227759013
            ]
        },
        {
            "positions": [
                -1.838951070008624,
                -0.9586558665728753,
                -0.3093351809762589,
                0.03843562034112275,
                -0.04839444281451777,
                -1.8588329125492822
            ]
        },
        {
            "positions": [
                -1.7536450240197783,
                -0.9612156698819445,
                -0.4030042631044406,
                0.04727585653485838,
                -0.11638925988714355,
                -1.7267510023226633
            ]
        },
        {
            "positions": [
                -1.6683389780309326,
                -0.9637754731910138,
                -0.4966733452326224,
                0.056116092728594004,
                -0.18438407695976933,
                -1.5946690920960442
            ]
        },
        {
            "positions": [
                -1.5830329320420868,
                -0.966335276500083,
                -0.5903424273608044,
                0.06495632892232964,
                -0.2523788940323952,
                -1.4625871818694252
            ]
        },
        {
            "positions": [
                -1.4977268860532411,
                -0.9688950798091522,
                -0.6840115094889863,
                0.07379656511606525,
                -0.320373711105021,
                -1.330505271642806
            ]
        },
        {
            "positions": [
                -1.4124208400643954,
                -0.9714548831182215,
                -0.7776805916171681,
                0.08263680130980089,
                -0.3883685281776469,
                -1.198423361416187
            ]
        },
        {
            "positions": [
                -1.3271147940755499,
                -0.9740146864272907,
                -0.8713496737453499,
                0.0914770375035365,
                -0.45636334525027256,
                -1.066341451189568
            ]
        },
        {
            "positions": [
                -1.2418087480867042,
                -0.97657448973636,
                -0.9650187558735317,
                0.10031727369727211,
                -0.5243581623228984,
                -0.934259540962949
            ]
        },
        {
            "positions": [
                -1.1565027020978582,
                -0.9791342930454292,
                -1.0586878380017137,
                0.10915750989100778,
                -0.5923529793955243,
                -0.8021776307363297
            ]
        },
        {
            "positions": [
                -1.0711966561090125,
                -0.9816940963544984,
                -1.1523569201298955,
                0.1179977460847434,
                -0.66034779646815,
                -0.6700957205097109
            ]
        },
        {
            "positions": [
                -0.985890610120167,
                -0.9842538996635677,
                -1.2460260022580774,
                0.126837982278479,
                -0.7283426135407759,
                -0.5380138102830916
            ]
        },
        {
            "positions": [
                -0.9005845641313213,
                -0.9868137029726369,
                -1.3396950843862592,
                0.13567821847221465,
                -0.7963374306134018,
                -0.4059319000564727
            ]
        },
        {
            "positions": [
                -0.8152785181424755,
                -0.9893735062817062,
                -1.4333641665144408,
                0.14451845466595026,
                -0.8643322476860275,
                -0.27384998982985387
            ]
        },
        {
            "positions": [
                -0.72997247215363,
                -0.9919333095907754,
                -1.5270332486426226,
                0.15335869085968587,
                -0.9323270647586533,
                -0.14176807960323456
            ]
        },
        {
            "positions": [
                -0.6446664261647843,
                -0.9944931128998447,
                -1.6207023307708044,
                0.1621989270534215,
                -1.0003218818312791,
                -0.009686169376615705
            ]
        },
        {
            "positions": [
                -0.5593603801759386,
                -0.9970529162089139,
                -1.7143714128989866,
                0.17103916324715715,
                -1.0683166989039048,
                0.1223957408500036
            ]
        },
        {
            "positions": [
                -0.47405433418709286,
                -0.9996127195179831,
                -1.8080404950271685,
                0.17987939944089276,
                -1.136311515976531,
                0.25447765107662246
            ]
        },
        {
            "positions": [
                -0.38874828819824714,
                -1.0021725228270524,
                -1.9017095771553503,
                0.1887196356346284,
                -1.2043063330491566,
                0.38655956130324176
            ]
        },
        {
            "positions": [
                -0.30344224220940147,
                -1.0047323261361216,
                -1.995378659283532,
                0.19755987182836401,
                -1.2723011501217822,
                0.5186414715298604
            ]
        },
        {
            "positions": [
                -0.28358712095174254,
                -1.0785095743124709,
                -1.9976297388956763,
                0.311602401744972,
                -1.206405473003089,
                0.41019121084218535
            ]
        },
        {
            "positions": [
                -0.2637319996940836,
                -1.1522868224888199,
                -1.9998808185078205,
                0.4256449316615799,
                -1.140509795884396,
                0.30174095015451025
            ]
        },
        {
            "positions": [
                -0.24387687843642472,
                -1.226064070665169,
                -2.002131898119965,
                0.5396874615781879,
                -1.074614118765703,
                0.19329068946683514
            ]
        },
        {
            "positions": [
                -0.2240217571787658,
                -1.2998413188415183,
                -2.004382977732109,
                0.6537299914947958,
                -1.0087184416470099,
                0.08484042877916009
            ]
        },
        {
            "positions": [
                -0.20416663592110687,
                -1.3736185670178673,
                -2.0066340573442534,
                0.7677725214114038,
                -0.9428227645283167,
                -0.023609831908515067
            ]
        },
        {
            "positions": [
                -0.18431151466344797,
                -1.4473958151942166,
                -2.0088851369563976,
                0.8818150513280117,
                -0.8769270874096236,
                -0.13206009259619012
            ]
        },
        {
            "positions": [
                -0.16445639340578902,
                -1.5211730633705658,
                -2.011136216568542,
                0.9958575812446198,
                -0.8110314102909304,
                -0.24051035328386527
            ]
        },
        {
            "positions": [
                -0.14460127214813012,
                -1.5949503115469148,
                -2.013387296180686,
                1.1099001111612277,
                -0.7451357331722374,
                -0.3489606139715402
            ]
        },
        {
            "positions": [
                -0.1247461508904712,
                -1.668727559723264,
                -2.0156383757928302,
                1.2239426410778356,
                -0.6792400560535442,
                -0.45741087465921537
            ]
        },
        {
            "positions": [
                -0.10489102963281227,
                -1.7425048078996133,
                -2.0178894554049744,
                1.3379851709944437,
                -0.613344378934851,
                -0.5658611353468905
            ]
        },
        {
            "positions": [
                -0.08503590837515337,
                -1.8162820560759623,
                -2.0201405350171187,
                1.4520277009110516,
                -0.547448701816158,
                -0.6743113960345655
            ]
        },
        {
            "positions": [
                -0.06518078711749445,
                -1.8900593042523115,
                -2.022391614629263,
                1.5660702308276595,
                -0.4815530246974648,
                -0.7827616567222406
            ]
        },
        {
            "positions": [
                -0.08240039046092065,
                -1.9461091824147319,
                -2.0733544594512674,
                1.5572128464449229,
                -0.3869867755179156,
                -0.6674265135650962
            ]
        },
        {
            "positions": [
                -0.09961999380434687,
                -2.002159060577152,
                -2.1243173042732724,
                1.5483554620621862,
                -0.29242052633836646,
                -0.5520913704079518
            ]
        },
        {
            "positions": [
                -0.11683959714777309,
                -2.0582089387395723,
                -2.175280149095277,
                1.5394980776794496,
                -0.19785427715881726,
                -0.43675622725080726
            ]
        },
        {
            "positions": [
                -0.1340592004911993,
                -2.1142588169019927,
                -2.226242993917282,
                1.5306406932967127,
                -0.10328802797926806,
                -0.32142108409366277
            ]
        },
        {
            "positions": [
                -0.1512788038346255,
                -2.1703086950644126,
                -2.2772058387392864,
                1.521783308913976,
                -0.00872177879971886,
                -0.20608594093651822
            ]
        },
        {
            "positions": [
                -0.1684984071780517,
                -2.226358573226833,
                -2.328168683561291,
                1.5129259245312394,
                0.08584447037983028,
                -0.09075079777937389
            ]
        },
        {
            "positions": [
                -0.18571801052147793,
                -2.2824084513892533,
                -2.379131528383296,
                1.5040685401485028,
                0.18041071955937954,
                0.024584345377770683
            ]
        }
    ]
}