{
    "goal": {
        "global_pose": {
            "orientation": {
                "w": 0.005598929693374612,
                "x": 0.007748599140229565,
                "y": 0.7110244013736278,
                "z": -0.7031023480610252
            },
            "position": {
                "x": -0.8858502320852131,
                "y": -0.7141253447532654,
                "z": 0.3711530566215515
            }
        },
        "name": "move_to_auspresseinheit_C"
    },
    "id": "ProjEST_move_to_auspresseinheit_C_16",
    "joint_names": [
        "shoulder_pan_joint",
        "shoulder_lift_joint",
        "elbow_joint",
        "wrist_1_joint",
        "wrist_2_joint",
        "wrist_3_joint"
    ],
    "metrics": {
        "cart_traj_len": 0.4920961281121926,
        "distance_elbow_joint": 0.9912104180626086,
        "distance_shoulder_lift_joint": 0.32100100905236284,
        "distance_shoulder_pan_joint": 0.2556352396453767,
        "distance_wrist_1_joint": 0.658160506359478,
        "distance_wrist_2_joint": 1.3165467363296284,
        "distance_wrist_3_joint": 0.05078859607491548,
        "smoothness": 1.2918958832001822e-15,
        "time": 0.428724504,
        "traj_len": 1.895611380405902,
        "weighted_distance": 2.3810978435090204
    },
    "planner": "ProjEST",
    "start": {
        "state": {
            "elbow_joint": 1.7527959577737207,
            "shoulder_lift_joint": -0.9740617694225068,
            "shoulder_pan_joint": -2.967991417825858,
            "wrist_1_joint": -0.759517768980727,
            "wrist_2_joint": 1.7443932448377408,
            "wrist_3_joint": -3.0840537646736568
        }
    },
    "waypoints": [
        {
            "positions": [
                -2.967991417825858,
                -0.9740617694225068,
                1.7527959577737207,
                -0.759517768980727,
                1.7443932448377408,
                -3.0840537646736568
            ]
        },
        {
            "positions": [
                -2.9424278938613204,
                -0.9419616685172705,
                1.6536749159674597,
                -0.6937017183447792,
                1.612738571204778,
                -3.0891326242811483
            ]
        },
        {
            "positions": [
                -2.9168643698967824,
                -0.9098615676120342,
                1.5545538741611988,
                -0.6278856677088314,
                1.481083897571815,
                -3.09421148388864
            ]
        },
        {
            "positions": [
                -2.891300845932245,
                -0.8777614667067979,
                1.4554328323549381,
                -0.5620696170728836,
                1.3494292239388523,
                -3.0992903434961314
            ]
        },
        {
            "positions": [
                -2.8657373219677074,
                -0.8456613658015616,
                1.3563117905486772,
                -0.4962535664369358,
                1.2177745503058894,
                -3.104369203103623
            ]
        },
        {
            "positions": [
                -2.8401737980031694,
                -0.8135612648963253,
                1.2571907487424163,
                -0.430437515800988,
                1.0861198766729268,
                -3.1094480627111145
            ]
        },
        {
            "positions": [
                -2.814610274038632,
                -0.7814611639910891,
                1.1580697069361556,
                -0.3646214651650402,
                0.9544652030399638,
                -3.114526922318606
            ]
        },
        {
            "positions": [
                -2.7890467500740943,
                -0.7493610630858528,
                1.0589486651298947,
                -0.29880541452909243,
                0.8228105294070011,
                -3.1196057819260976
            ]
        },
        {
            "positions": [
                -2.7634832261095568,
                -0.7172609621806165,
                0.9598276233236338,
                -0.23298936389314462,
                0.691155855774038,
                -3.124684641533589
            ]
        },
        {
            "positions": [
                -2.737919702145019,
                -0.6851608612753802,
                0.8607065815173729,
                -0.16717331325719675,
                0.5595011821410754,
                -3.1297635011410807
            ]
        },
        {
            "positions": [
                -2.7123561781804812,
                -0.6530607603701439,
                0.7615855397111121,
                -0.10135726262124896,
                0.4278465085081125,
                -3.1348423607485723
            ]
        }
    ]
}