{
    "goal": {
        "global_pose": {
            "orientation": {
                "w": 0.7047431468963623,
                "x": -0.7094548344612122,
                "y": 0.0024358443915843964,
                "z": -0.0022348060738295317
            },
            "position": {
                "x": 0.6094750761985779,
                "y": 0.3671506643295288,
                "z": 0.19426114857196808
            }
        },
        "name": "move_to_magneteinheit_A"
    },
    "id": "ProjEST_move_to_magneteinheit_A_101",
    "joint_names": [
        "shoulder_pan_joint",
        "shoulder_lift_joint",
        "elbow_joint",
        "wrist_1_joint",
        "wrist_2_joint",
        "wrist_3_joint"
    ],
    "metrics": {
        "cart_traj_len": 3.455101340380847,
        "distance_elbow_joint": 3.9082989731625215,
        "distance_shoulder_lift_joint": 0.6750468346601156,
        "distance_shoulder_pan_joint": 3.03905822872291,
        "distance_wrist_1_joint": 3.479976934942883,
        "distance_wrist_2_joint": 2.689344379412086,
        "distance_wrist_3_joint": 1.041418071112041,
        "smoothness": 0.2889760708723875,
        "time": 0.220189641,
        "traj_len": 3.851382014551733,
        "weighted_distance": 4.8047165242698355
    },
    "planner": "ProjEST",
    "start": {
        "state": {
            "elbow_joint": -1.9196185241190666,
            "shoulder_lift_joint": -1.2443396400964142,
            "shoulder_pan_joint": 2.6996025414629847,
            "wrist_1_joint": -1.5485510000780065,
            "wrist_2_joint": -1.5709468930060704,
            "wrist_3_joint": 0.4420197071253992
        }
    },
    "waypoints": [
        {
            "positions": [
                2.6996025414629847,
                -1.2443396400964142,
                -1.9196185241190666,
                -1.5485510000780065,
                -1.5709468930060704,
                0.4420197071253992
            ]
        },
        {
            "positions": [
                2.5554658776126797,
                -1.2551916296722134,
                -1.8381839374872566,
                -1.517069239699257,
                -1.5037910525724263,
                0.4803960538912022
            ]
        },
        {
            "positions": [
                2.4113292137623747,
                -1.266043619248013,
                -1.7567493508554464,
                -1.485587479320508,
                -1.4366352121387824,
                0.5187724006570053
            ]
        },
        {
            "positions": [
                2.2671925499120698,
                -1.2768956088238124,
                -1.6753147642236361,
                -1.4541057189417588,
                -1.3694793717051383,
                0.5571487474228083
            ]
        },
        {
            "positions": [
                2.1230558860617648,
                -1.2877475983996116,
                -1.593880177591826,
                -1.4226239585630094,
                -1.3023235312714943,
                0.5955250941886113
            ]
        },
        {
            "positions": [
                1.9789192222114598,
                -1.2985995879754109,
                -1.512445590960016,
                -1.39114219818426,
                -1.2351676908378504,
                0.6339014409544144
            ]
        },
        {
            "positions": [
                1.8347825583611548,
                -1.3094515775512103,
                -1.4310110043282058,
                -1.3596604378055108,
                -1.1680118504042063,
                0.6722777877202174
            ]
        },
        {
            "positions": [
                1.6906458945108498,
                -1.3203035671270098,
                -1.3495764176963956,
                -1.3281786774267617,
                -1.1008560099705624,
                0.7106541344860204
            ]
        },
        {
            "positions": [
                1.5465092306605448,
                -1.331155556702809,
                -1.2681418310645856,
                -1.2966969170480123,
                -1.0337001695369183,
                0.7490304812518235
            ]
        },
        {
            "positions": [
                1.475677904683718,
                -1.3198419230492484,
                -1.1650580750353132,
                -1.1610832743512527,
                -0.9618775805587051,
                0.7488355136367193
            ]
        },
        {
            "positions": [
                1.4048465787068913,
                -1.3085282893956878,
                -1.061974319006041,
                -1.0254696316544931,
                -0.8900549915804918,
                0.7486405460216151
            ]
        },
        {
            "positions": [
                1.3340152527300646,
                -1.2972146557421274,
                -0.9588905629767686,
                -0.8898559889577335,
                -0.8182324026022785,
                0.748445578406511
            ]
        },
        {
            "positions": [
                1.2631839267532379,
                -1.2859010220885667,
                -0.8558068069474963,
                -0.754242346260974,
                -0.7464098136240652,
                0.7482506107914069
            ]
        },
        {
            "positions": [
                1.192352600776411,
                -1.274587388435006,
                -0.752723050918224,
                -0.6186287035642143,
                -0.674587224645852,
                0.7480556431763027
            ]
        },
        {
            "positions": [
                1.1215212747995842,
                -1.2632737547814454,
                -0.6496392948889517,
                -0.4830150608674547,
                -0.6027646356676387,
                0.7478606755611985
            ]
        },
        {
            "positions": [
                1.0506899488227575,
                -1.2519601211278848,
                -0.5465555388596794,
                -0.34740141817069514,
                -0.5309420466894255,
                0.7476657079460943
            ]
        },
        {
            "positions": [
                0.9798586228459307,
                -1.2406464874743244,
                -0.4434717828304071,
                -0.21178777547393568,
                -0.4591194577112121,
                0.7474707403309903
            ]
        },
        {
            "positions": [
                0.909027296869104,
                -1.2293328538207637,
                -0.3403880268011348,
                -0.07617413277717588,
                -0.38729686873299884,
                0.7472757727158861
            ]
        },
        {
            "positions": [
                0.8381959708922772,
                -1.218019220167203,
                -0.23730427077186245,
                0.05943950991958369,
                -0.3154742797547856,
                0.7470808051007819
            ]
        },
        {
            "positions": [
                0.7673646449154504,
                -1.2067055865136425,
                -0.1342205147425901,
                0.19505315261634326,
                -0.24365169077657223,
                0.7468858374856777
            ]
        },
        {
            "positions": [
                0.6965333189386237,
                -1.1953919528600818,
                -0.03113675871331778,
                0.33066679531310283,
                -0.17182910179835909,
                0.7466908698705735
            ]
        },
        {
            "positions": [
                0.6257019929617968,
                -1.1840783192065212,
                0.07194699731595455,
                0.46628043800986263,
                -0.10000651282014572,
                0.7464959022554694
            ]
        },
        {
            "positions": [
                0.5548706669849701,
                -1.1727646855529608,
                0.17503075334522666,
                0.601894080706622,
                -0.02818392384193258,
                0.7463009346403653
            ]
        },
        {
            "positions": [
                0.4840393410081434,
                -1.1614510518994001,
                0.2781145093744992,
                0.7375077234033818,
                0.043638665136280785,
                0.7461059670252611
            ]
        },
        {
            "positions": [
                0.41320801503131666,
                -1.1501374182458395,
                0.38119826540377133,
                0.8731213661001409,
                0.11546125411449415,
                0.7459109994101569
            ]
        },
        {
            "positions": [
                0.3423766890544899,
                -1.1388237845922788,
                0.48428202143304366,
                1.008735008796901,
                0.1872838430927075,
                0.7457160317950527
            ]
        },
        {
            "positions": [
                0.2715453630776632,
                -1.1275101509387184,
                0.587365777462316,
                1.1443486514936605,
                0.25910643207092066,
                0.7455210641799486
            ]
        },
        {
            "positions": [
                0.20071403710083624,
                -1.1161965172851578,
                0.6904495334915883,
                1.27996229419042,
                0.330929021049134,
                0.7453260965648445
            ]
        },
        {
            "positions": [
                0.1298827111240095,
                -1.1048828836315971,
                0.7935332895208607,
                1.4155759368871796,
                0.40275161002734716,
                0.7451311289497403
            ]
        },
        {
            "positions": [
                0.05905138514718289,
                -1.0935692499780365,
                0.8966170455501329,
                1.551189579583939,
                0.4745741990055604,
                0.7449361613346361
            ]
        },
        {
            "positions": [
                0.03812221523976836,
                -1.051771215149943,
                1.0153770950136136,
                1.5972158038520998,
                0.3967522713985534,
                0.6789235529458137
            ]
        },
        {
            "positions": [
                0.017193045332353822,
                -1.0099731803218495,
                1.1341371444770942,
                1.6432420281202609,
                0.31893034379154633,
                0.6129109445569914
            ]
        },
        {
            "positions": [
                -0.0037361245750607147,
                -0.9681751454937562,
                1.2528971939405749,
                1.6892682523884217,
                0.2411084161845393,
                0.5468983361681689
            ]
        },
        {
            "positions": [
                -0.024665294482475245,
                -0.9263771106656626,
                1.3716572434040555,
                1.7352944766565828,
                0.16328648857753225,
                0.48088572777934646
            ]
        },
        {
            "positions": [
                -0.045594464389889774,
                -0.8845790758375691,
                1.4904172928675363,
                1.7813207009247436,
                0.08546456097052524,
                0.41487311939052407
            ]
        },
        {
            "positions": [
                -0.06652363429730432,
                -0.8427810410094757,
                1.6091773423310167,
                1.8273469251929044,
                0.00764263336351817,
                0.3488605110017016
            ]
        },
        {
            "positions": [
                -0.08745280420471885,
                -0.8009830061813823,
                1.7279373917944976,
                1.8733731494610653,
                -0.0701792942434889,
                0.2828479026128792
            ]
        },
        {
            "positions": [
                -0.10838197411213338,
                -0.7591849713532888,
                1.8466974412579782,
                1.9193993737292263,
                -0.1480012218504959,
                0.21683529422405684
            ]
        },
        {
            "positions": [
                0.00715488246176213,
                -0.7673151377053891,
                1.9176889451507169,
                1.9133860931614008,
                -0.13737728857829593,
                0.11572923924513173
            ]
        },
        {
            "positions": [
                0.12269173903565765,
                -0.7754453040574892,
                1.9886804490434555,
                1.9073728125935756,
                -0.12675335530609594,
                0.014623184266206632
            ]
        }
    ]
}