{
    "goal": {
        "global_pose": {
            "orientation": {
                "w": -0.4816463035849501,
                "x": 0.5182115481033762,
                "y": 0.4908360881923453,
                "z": -0.5084816262002911
            },
            "position": {
                "x": -0.8240239810943604,
                "y": -0.300875300988555,
                "z": 0.16403168439865112
            }
        },
        "name": "move_to_storage_C"
    },
    "id": "ProjEST_move_to_storage_C_75",
    "joint_names": [
        "shoulder_pan_joint",
        "shoulder_lift_joint",
        "elbow_joint",
        "wrist_1_joint",
        "wrist_2_joint",
        "wrist_3_joint"
    ],
    "metrics": {
        "cart_traj_len": 0.5755549156491353,
        "distance_elbow_joint": 0.25465394216208215,
        "distance_shoulder_lift_joint": 0.18821962907245848,
        "distance_shoulder_pan_joint": 0.49465691982360616,
        "distance_wrist_1_joint": 0.06781126151673933,
        "distance_wrist_2_joint": 1.0602280110688271,
        "distance_wrist_3_joint": 0.07215407287593001,
        "smoothness": 0.0,
        "time": 0.011778914,
        "traj_len": 1.4620957001919004,
        "weighted_distance": 1.846637824495391
    },
    "planner": "ProjEST",
    "start": {
        "state": {
            "elbow_joint": 2.010868314990456,
            "shoulder_lift_joint": -1.1634956873337592,
            "shoulder_pan_joint": -2.4736205022346125,
            "wrist_1_joint": -0.8367026794202681,
            "wrist_2_joint": 0.6746043897044499,
            "wrist_3_joint": -3.1496632123970403
        }
    },
    "waypoints": [
        {
            "positions": [
                -2.4736205022346125,
                -1.1634956873337592,
                2.010868314990456,
                -0.8367026794202681,
                0.6746043897044499,
                -3.1496632123970403
            ]
        },
        {
            "positions": [
                -2.5560633222052136,
                -1.132125749155016,
                1.9684259912967754,
                -0.8254008025008115,
                0.8513090582159211,
                -3.1376375335843854
            ]
        },
        {
            "positions": [
                -2.6385061421758147,
                -1.100755810976273,
                1.925983667603095,
                -0.814098925581355,
                1.0280137267273923,
                -3.1256118547717304
            ]
        },
        {
            "positions": [
                -2.720948962146416,
                -1.0693858727975298,
                1.8835413439094149,
                -0.8027970486618985,
                1.2047183952388636,
                -3.1135861759590755
            ]
        },
        {
            "positions": [
                -2.8033917821170165,
                -1.038015934618787,
                1.8410990202157345,
                -0.7914951717424419,
                1.3814230637503346,
                -3.10156049714642
            ]
        },
        {
            "positions": [
                -2.8858346020876176,
                -1.0066459964400438,
                1.798656696522054,
                -0.7801932948229853,
                1.558127732261806,
                -3.089534818333765
            ]
        },
        {
            "positions": [
                -2.9682774220582187,
                -0.9752760582613007,
                1.7562143728283737,
                -0.7688914179035288,
                1.7348324007732772,
                -3.0775091395211103
            ]
        }
    ]
}