{
    "goal": {
        "global_pose": {
            "orientation": {
                "w": 0.7031023502349854,
                "x": -0.7110244035720825,
                "y": 0.007748599164187908,
                "z": 0.005598929710686207
            },
            "position": {
                "x": 0.11585023208521307,
                "y": 0.44412534475326537,
                "z": 0.3711530566215515
            }
        },
        "name": "move_to_auspresseinheit_A"
    },
    "id": "ProjEST_move_to_auspresseinheit_A_119",
    "joint_names": [
        "shoulder_pan_joint",
        "shoulder_lift_joint",
        "elbow_joint",
        "wrist_1_joint",
        "wrist_2_joint",
        "wrist_3_joint"
    ],
    "metrics": {
        "cart_traj_len": 0.9700691873825511,
        "distance_elbow_joint": 0.4916239913220348,
        "distance_shoulder_lift_joint": 1.0112164833414605,
        "distance_shoulder_pan_joint": 1.0437502869028592,
        "distance_wrist_1_joint": 1.5501220036495615,
        "distance_wrist_2_joint": 1.9066493079683198,
        "distance_wrist_3_joint": 4.300246723630893,
        "smoothness": 0.9134244225865458,
        "time": 0.90453119,
        "traj_len": 3.2099234876886293,
        "weighted_distance": 4.72872853478552
    },
    "planner": "ProjEST",
    "start": {
        "state": {
            "elbow_joint": 2.4225746658250005,
            "shoulder_lift_joint": -1.3736534386056498,
            "shoulder_pan_joint": -0.3378633547517467,
            "wrist_1_joint": -1.0288598680537169,
            "wrist_2_joint": 1.233022673432363,
            "wrist_3_joint": -3.0940220416140027
        }
    },
    "waypoints": [
        {
            "positions": [
                -0.3378633547517467,
                -1.3736534386056498,
                2.4225746658250005,
                -1.0288598680537169,
                1.233022673432363,
                -3.0940220416140027
            ]
        },
        {
            "positions": [
                -0.2917663840339901,
                -1.422000657360517,
                2.406311091836191,
                -0.9630716700943698,
                1.1570257153606314,
                -2.9605230347065814
            ]
        },
        {
            "positions": [
                -0.2456694133162334,
                -1.4703478761153843,
                2.3900475178473815,
                -0.8972834721350228,
                1.0810287572888997,
                -2.8270240277991596
            ]
        },
        {
            "positions": [
                -0.19957244259847673,
                -1.5186950948702516,
                2.373783943858572,
                -0.8314952741756758,
                1.005031799217168,
                -2.6935250208917383
            ]
        },
        {
            "positions": [
                -0.15347547188072008,
                -1.5670423136251188,
                2.3575203698697624,
                -0.7657070762163287,
                0.9290348411454363,
                -2.5600260139843165
            ]
        },
        {
            "positions": [
                -0.10737850116296344,
                -1.615389532379986,
                2.341256795880953,
                -0.6999188782569816,
                0.8530378830737047,
                -2.426527007076895
            ]
        },
        {
            "positions": [
                -0.06128153044520673,
                -1.663736751134853,
                2.3249932218921434,
                -0.6341306802976346,
                0.7770409250019731,
                -2.293028000169474
            ]
        },
        {
            "positions": [
                -0.015184559727450087,
                -1.7120839698897203,
                2.308729647903334,
                -0.5683424823382877,
                0.7010439669302414,
                -2.159528993262052
            ]
        },
        {
            "positions": [
                0.03091241099030656,
                -1.7604311886445876,
                2.2924660739145244,
                -0.5025542843789406,
                0.6250470088585097,
                -2.0260299863546303
            ]
        },
        {
            "positions": [
                0.07700938170806321,
                -1.8087784073994548,
                2.276202499925715,
                -0.43676608641959347,
                0.549050050786778,
                -1.892530979447209
            ]
        },
        {
            "positions": [
                0.12310635242581985,
                -1.857125626154322,
                2.259938925936906,
                -0.3709778884602465,
                0.47305309271504636,
                -1.7590319725397874
            ]
        },
        {
            "positions": [
                0.1692033231435765,
                -1.9054728449091893,
                2.243675351948096,
                -0.3051896905008995,
                0.3970561346433147,
                -1.6255329656323658
            ]
        },
        {
            "positions": [
                0.21530029386133326,
                -1.9538200636640566,
                2.227411777959287,
                -0.2394014925415524,
                0.3210591765715831,
                -1.4920339587249445
            ]
        },
        {
            "positions": [
                0.2613972645790899,
                -2.002167282418924,
                2.211148203970477,
                -0.1736132945822053,
                0.24506221849985144,
                -1.358534951817523
            ]
        },
        {
            "positions": [
                0.30749423529684655,
                -2.050514501173791,
                2.194884629981668,
                -0.10782509662285833,
                0.16906526042811976,
                -1.2250359449101014
            ]
        },
        {
            "positions": [
                0.3535912060146032,
                -2.0988617199286583,
                2.178621055992858,
                -0.042036898663511346,
                0.09306830235638808,
                -1.0915369380026796
            ]
        },
        {
            "positions": [
                0.3996881767323599,
                -2.1472089386835256,
                2.1623574820040488,
                0.023751299295835852,
                0.017071344284656443,
                -0.9580379310952584
            ]
        },
        {
            "positions": [
                0.42904889783302447,
                -2.1291155497260155,
                2.1872393856448107,
                -0.020017308158291412,
                0.07351068398777666,
                -1.1463549488952072
            ]
        },
        {
            "positions": [
                0.458409618933689,
                -2.111022160768506,
                2.212121289285572,
                -0.06378591561241867,
                0.12995002369089687,
                -1.334671966695156
            ]
        },
        {
            "positions": [
                0.48777034003435354,
                -2.0929287718109957,
                2.237003192926334,
                -0.10755452306654592,
                0.1863893633940171,
                -1.522988984495105
            ]
        },
        {
            "positions": [
                0.517131061135018,
                -2.0748353828534856,
                2.261885096567096,
                -0.1513231305206732,
                0.2428287030971373,
                -1.711306002295054
            ]
        },
        {
            "positions": [
                0.5464917822356826,
                -2.0567419938959755,
                2.286767000207858,
                -0.19509173797480048,
                0.29926804280025754,
                -1.8996230200950028
            ]
        },
        {
            "positions": [
                0.5758525033363472,
                -2.038648604938466,
                2.3116489038486194,
                -0.2388603454289277,
                0.35570738250337774,
                -2.0879400378949518
            ]
        },
        {
            "positions": [
                0.6052132244370118,
                -2.0205552159809557,
                2.3365308074893814,
                -0.282628952883055,
                0.41214672220649795,
                -2.2762570556949004
            ]
        },
        {
            "positions": [
                0.6253479659798319,
                -1.9983537638687527,
                2.3479775038925315,
                -0.3208550697072786,
                0.4712712423862523,
                -2.445465753397402
            ]
        },
        {
            "positions": [
                0.645482707522652,
                -1.9761523117565498,
                2.3594242002956816,
                -0.35908118653150223,
                0.5303957625660067,
                -2.614674451099903
            ]
        },
        {
            "positions": [
                0.6656174490654722,
                -1.9539508596443467,
                2.3708708966988317,
                -0.39730730335572584,
                0.5895202827457611,
                -2.7838831488024045
            ]
        },
        {
            "positions": [
                0.6857521906082923,
                -1.9317494075321437,
                2.3823175931019818,
                -0.4355334201799495,
                0.6486448029255154,
                -2.9530918465049063
            ]
        },
        {
            "positions": [
                0.7058869321511124,
                -1.9095479554199408,
                2.393764289505132,
                -0.4737595370041731,
                0.7077693231052697,
                -3.1223005442074077
            ]
        }
    ]
}