{
    "goal": {
        "global_pose": {
            "orientation": {
                "w": 0.5084816262002911,
                "x": -0.4908360881923452,
                "y": 0.5182115481033761,
                "z": -0.48164630358495003
            },
            "position": {
                "x": 0.5540239810943604,
                "y": -0.46912469901144505,
                "z": 0.16403168439865112
            }
        },
        "name": "move_to_storage_B"
    },
    "id": "ProjEST_move_to_storage_B_35",
    "joint_names": [
        "shoulder_pan_joint",
        "shoulder_lift_joint",
        "elbow_joint",
        "wrist_1_joint",
        "wrist_2_joint",
        "wrist_3_joint"
    ],
    "metrics": {
        "cart_traj_len": 3.52729996576826,
        "distance_elbow_joint": 3.9831538158422592,
        "distance_shoulder_lift_joint": 0.5772043976619112,
        "distance_shoulder_pan_joint": 1.5892115025625373,
        "distance_wrist_1_joint": 3.027794134861903,
        "distance_wrist_2_joint": 3.940999929235983,
        "distance_wrist_3_joint": 4.470152944125118,
        "smoothness": 0.30881370186260376,
        "time": 0.07164472899999999,
        "traj_len": 4.193866560143482,
        "weighted_distance": 5.787712559953011
    },
    "planner": "ProjEST",
    "start": {
        "state": {
            "elbow_joint": 1.664937868594044,
            "shoulder_lift_joint": -0.661644460510453,
            "shoulder_pan_joint": -0.9139846352900073,
            "wrist_1_joint": 2.146753192139373,
            "wrist_2_joint": -2.2341966793290973,
            "wrist_3_joint": 0.005466555786416001
        }
    },
    "waypoints": [
        {
            "positions": [
                -0.9139846352900073,
                -0.661644460510453,
                1.664937868594044,
                2.146753192139373,
                -2.2341966793290973,
                0.005466555786416001
            ]
        },
        {
            "positions": [
                -0.8580053091027882,
                -0.6978753565221791,
                1.6160244454530435,
                2.0551751053177254,
                -2.098263649616502,
                -0.006465021692695443
            ]
        },
        {
            "positions": [
                -0.8020259829155689,
                -0.7341062525339053,
                1.567111022312043,
                1.9635970184960774,
                -1.9623306199039074,
                -0.018396599171806888
            ]
        },
        {
            "positions": [
                -0.7762729145090869,
                -0.753553046581974,
                1.4926135852295939,
                1.8480094931002227,
                -1.8294714118780269,
                -0.045692081420836764
            ]
        },
        {
            "positions": [
                -0.7505198461026048,
                -0.7729998406300427,
                1.4181161481471447,
                1.732421967704368,
                -1.696612203852146,
                -0.07298756366986664
            ]
        },
        {
            "positions": [
                -0.7247667776961227,
                -0.7924466346781114,
                1.3436187110646955,
                1.6168344423085133,
                -1.5637529958262655,
                -0.10028304591889653
            ]
        },
        {
            "positions": [
                -0.6990137092896407,
                -0.8118934287261801,
                1.2691212739822464,
                1.5012469169126585,
                -1.4308937878003847,
                -0.12757852816792642
            ]
        },
        {
            "positions": [
                -0.6732606408831586,
                -0.8313402227742488,
                1.1946238368997972,
                1.3856593915168038,
                -1.298034579774504,
                -0.15487401041695628
            ]
        },
        {
            "positions": [
                -0.6475075724766766,
                -0.8507870168223175,
                1.120126399817348,
                1.2700718661209491,
                -1.1651753717486235,
                -0.18216949266598617
            ]
        },
        {
            "positions": [
                -0.6217545040701945,
                -0.8702338108703863,
                1.045628962734899,
                1.1544843407250944,
                -1.0323161637227427,
                -0.20946497491501606
            ]
        },
        {
            "positions": [
                -0.5960014356637124,
                -0.889680604918455,
                0.9711315256524498,
                1.0388968153292397,
                -0.8994569556968621,
                -0.23676045716404592
            ]
        },
        {
            "positions": [
                -0.5702483672572304,
                -0.9091273989665237,
                0.8966340885700006,
                0.9233092899333848,
                -0.7665977476709813,
                -0.2640559394130758
            ]
        },
        {
            "positions": [
                -0.5444952988507483,
                -0.9285741930145924,
                0.8221366514875514,
                0.8077217645375303,
                -0.6337385396451007,
                -0.2913514216621057
            ]
        },
        {
            "positions": [
                -0.5187422304442664,
                -0.9480209870626611,
                0.7476392144051023,
                0.6921342391416754,
                -0.5008793316192199,
                -0.3186469039111356
            ]
        },
        {
            "positions": [
                -0.49298916203778426,
                -0.9674677811107298,
                0.6731417773226531,
                0.5765467137458209,
                -0.3680201235933396,
                -0.3459423861601655
            ]
        },
        {
            "positions": [
                -0.46723609363130225,
                -0.9869145751587985,
                0.5986443402402041,
                0.4609591883499662,
                -0.235160915567459,
                -0.37323786840919526
            ]
        },
        {
            "positions": [
                -0.44148302522482014,
                -1.0063613692068674,
                0.5241469031577548,
                0.34537166295411126,
                -0.10230170754157797,
                -0.40053335065822526
            ]
        },
        {
            "positions": [
                -0.4157299568183381,
                -1.025808163254936,
                0.44964946607530565,
                0.22978413755825655,
                0.030557500484302613,
                -0.42782883290725515
            ]
        },
        {
            "positions": [
                -0.38997688841185607,
                -1.0452549573030048,
                0.3751520289928565,
                0.11419661216240207,
                0.1634167085101832,
                -0.45512431515628493
            ]
        },
        {
            "positions": [
                -0.364223820005374,
                -1.0647017513510735,
                0.30065459191040733,
                -0.0013909132334526397,
                0.29627591653606355,
                -0.4824197974053148
            ]
        },
        {
            "positions": [
                -0.3384707515988919,
                -1.0841485453991422,
                0.22615715482795817,
                -0.11697843862930779,
                0.4291351245619448,
                -0.5097152796543447
            ]
        },
        {
            "positions": [
                -0.3127176831924099,
                -1.1035953394472109,
                0.15165971774550902,
                -0.23256596402516228,
                0.5619943325878252,
                -0.5370107619033746
            ]
        },
        {
            "positions": [
                -0.28696461478592783,
                -1.1230421334952796,
                0.07716228066305986,
                -0.34815348942101676,
                0.694853540613706,
                -0.5643062441524045
            ]
        },
        {
            "positions": [
                -0.26121154637944577,
                -1.1424889275433483,
                0.0026648435806106985,
                -0.4637410148168717,
                0.8277127486395863,
                -0.5916017264014344
            ]
        },
        {
            "positions": [
                -0.2354584779729637,
                -1.161935721591417,
                -0.07183259350183846,
                -0.5793285402127266,
                0.9605719566654676,
                -0.6188972086504643
            ]
        },
        {
            "positions": [
                -0.20970540956648165,
                -1.1813825156394857,
                -0.14633003058428756,
                -0.694916065608581,
                1.093431164691348,
                -0.6461926908994942
            ]
        },
        {
            "positions": [
                -0.25395202340843226,
                -1.1785091985128417,
                -0.03773573475109111,
                -0.7042223094642784,
                1.062762560430571,
                -0.4552680060275338
            ]
        },
        {
            "positions": [
                -0.29819863725038287,
                -1.1756358813861978,
                0.07085856108210534,
                -0.7135285533199759,
                1.0320939561697942,
                -0.2643433211555734
            ]
        },
        {
            "positions": [
                -0.3424452510923335,
                -1.1727625642595538,
                0.17945285691530177,
                -0.7228347971756733,
                1.0014253519090173,
                -0.07341863628361311
            ]
        },
        {
            "positions": [
                -0.3866918649342841,
                -1.16988924713291,
                0.28804715274849824,
                -0.7321410410313708,
                0.9707567476482403,
                0.11750604858834734
            ]
        },
        {
            "positions": [
                -0.43093847877623465,
                -1.1670159300062661,
                0.39664144858169464,
                -0.7414472848870683,
                0.9400881433874633,
                0.3084307334603077
            ]
        },
        {
            "positions": [
                -0.47518509261818526,
                -1.1641426128796222,
                0.5052357444148912,
                -0.7507535287427658,
                0.9094195391266864,
                0.49935541833226793
            ]
        },
        {
            "positions": [
                -0.5194317064601358,
                -1.1612692957529782,
                0.6138300402480874,
                -0.7600597725984632,
                0.8787509348659095,
                0.6902801032042283
            ]
        },
        {
            "positions": [
                -0.5636783203020865,
                -1.1583959786263343,
                0.7224243360812841,
                -0.7693660164541607,
                0.8480823306051326,
                0.8812047880761888
            ]
        },
        {
            "positions": [
                -0.607924934144037,
                -1.1555226614996903,
                0.8310186319144803,
                -0.7786722603098581,
                0.8174137263443556,
                1.0721294729481492
            ]
        },
        {
            "positions": [
                -0.6521715479859876,
                -1.1526493443730463,
                0.9396129277476768,
                -0.7879785041655556,
                0.7867451220835787,
                1.2630541578201095
            ]
        },
        {
            "positions": [
                -0.6964181618279384,
                -1.1497760272464026,
                1.0482072235808733,
                -0.797284748021253,
                0.7560765178228017,
                1.4539788426920701
            ]
        },
        {
            "positions": [
                -0.7406647756698889,
                -1.1469027101197586,
                1.1568015194140697,
                -0.8065909918769505,
                0.7254079135620248,
                1.64490352756403
            ]
        },
        {
            "positions": [
                -0.7849113895118395,
                -1.1440293929931147,
                1.2653958152472662,
                -0.8158972357326479,
                0.6947393093012479,
                1.8358282124359908
            ]
        },
        {
            "positions": [
                -0.82915800335379,
                -1.1411560758664707,
                1.3739901110804624,
                -0.8252034795883454,
                0.664070705040471,
                2.0267528973079507
            ]
        },
        {
            "positions": [
                -0.8734046171957406,
                -1.1382827587398268,
                1.4825844069136591,
                -0.8345097234440428,
                0.6334021007796942,
                2.2176775821799115
            ]
        },
        {
            "positions": [
                -0.9176512310376913,
                -1.1354094416131828,
                1.5911787027468556,
                -0.8438159672997404,
                0.6027334965189172,
                2.408602267051872
            ]
        },
        {
            "positions": [
                -0.9618978448796418,
                -1.132536124486539,
                1.6997729985800518,
                -0.8531222111554378,
                0.5720648922581403,
                2.599526951923832
            ]
        },
        {
            "positions": [
                -1.0061444587215924,
                -1.129662807359895,
                1.8083672944132483,
                -0.8624284550111353,
                0.5413962879973633,
                2.7904516367957926
            ]
        },
        {
            "positions": [
                -1.050391072563543,
                -1.1267894902332511,
                1.9169615902464445,
                -0.8717346988668327,
                0.5107276837365865,
                2.981376321667753
            ]
        },
        {
            "positions": [
                -1.0946376864054936,
                -1.1239161731066072,
                2.0255558860796414,
                -0.8810409427225302,
                0.4800590794758095,
                3.1723010065397133
            ]
        }
    ]
}