{
    "goal": {
        "global_pose": {
            "orientation": {
                "w": 0.5084816217422485,
                "x": -0.49083608388900757,
                "y": 0.5182115435600281,
                "z": -0.4816462993621826
            },
            "position": {
                "x": 0.5540239810943604,
                "y": 0.030875300988554955,
                "z": 0.16403168439865112
            }
        },
        "name": "move_to_storage_A"
    },
    "id": "ProjEST_move_to_storage_A_126",
    "joint_names": [
        "shoulder_pan_joint",
        "shoulder_lift_joint",
        "elbow_joint",
        "wrist_1_joint",
        "wrist_2_joint",
        "wrist_3_joint"
    ],
    "metrics": {
        "cart_traj_len": 0.3528731146714518,
        "distance_elbow_joint": 0.4539776554379935,
        "distance_shoulder_lift_joint": 0.23521974180997285,
        "distance_shoulder_pan_joint": 0.46102737952777334,
        "distance_wrist_1_joint": 0.26086885646464253,
        "distance_wrist_2_joint": 1.1007512700258522,
        "distance_wrist_3_joint": 0.10789494797939181,
        "smoothness": 4.440892098500626e-16,
        "time": 0.052837231,
        "traj_len": 1.6185610434103577,
        "weighted_distance": 2.0486946755665922
    },
    "planner": "ProjEST",
    "start": {
        "state": {
            "elbow_joint": 1.971548259319323,
            "shoulder_lift_joint": -1.1394851275133948,
            "shoulder_pan_joint": 0.1228115487234821,
            "wrist_1_joint": -0.7804723859257726,
            "wrist_2_joint": 0.12958671773740124,
            "wrist_3_joint": -3.192489227718131
        }
    },
    "waypoints": [
        {
            "positions": [
                0.1228115487234821,
                -1.1394851275133948,
                1.971548259319323,
                -0.7804723859257726,
                0.12958671773740124,
                -3.192489227718131
            ]
        },
        {
            "positions": [
                0.056950494505228766,
                -1.1730879477719625,
                2.0364022100961794,
                -0.8177393654207216,
                0.2868368991696658,
                -3.1770756637210753
            ]
        },
        {
            "positions": [
                -0.008910559713024568,
                -1.2066907680305299,
                2.1012561608730356,
                -0.8550063449156705,
                0.44408708060193036,
                -3.161662099724019
            ]
        },
        {
            "positions": [
                -0.0747716139312779,
                -1.2402935882890975,
                2.1661101116498918,
                -0.8922733244106194,
                0.601337262034195,
                -3.146248535726963
            ]
        },
        {
            "positions": [
                -0.14063266814953124,
                -1.273896408547665,
                2.230964062426748,
                -0.9295403039055683,
                0.7585874434664596,
                -3.1308349717299073
            ]
        },
        {
            "positions": [
                -0.20649372236778457,
                -1.3074992288062326,
                2.295818013203604,
                -0.9668072834005172,
                0.9158376248987242,
                -3.1154214077328515
            ]
        },
        {
            "positions": [
                -0.2723547765860379,
                -1.3411020490648,
                2.3606719639804603,
                -1.0040742628954662,
                1.0730878063309888,
                -3.100007843735795
            ]
        },
        {
            "positions": [
                -0.33821583080429124,
                -1.3747048693233677,
                2.4255259147573165,
                -1.0413412423904151,
                1.2303379877632534,
                -3.0845942797387393
            ]
        }
    ]
}{
    "goal": {
        "global_pose": {
            "orientation": {
                "w": 0.5084816217422485,
                "x": -0.49083608388900757,
                "y": 0.5182115435600281,
                "z": -0.4816462993621826
            },
            "position": {
                "x": 0.5540239810943604,
                "y": 0.030875300988554955,
                "z": 0.16403168439865112
            }
        },
        "name": "move_to_storage_A"
    },
    "id": "ProjEST_move_to_storage_A_126",
    "joint_names": [
        "shoulder_pan_joint",
        "shoulder_lift_joint",
        "elbow_joint",
        "wrist_1_joint",
        "wrist_2_joint",
        "wrist_3_joint"
    ],
    "metrics": {
        "cart_traj_len": 0.3530277113376271,
        "distance_elbow_joint": 0.45063322423202656,
        "distance_shoulder_lift_joint": 0.23429712297083305,
        "distance_shoulder_pan_joint": 0.46022831747103965,
        "distance_wrist_1_joint": 0.24467788734444595,
        "distance_wrist_2_joint": 1.1049216497394228,
        "distance_wrist_3_joint": 0.09103003872822191,
        "smoothness": 2.2204460668324854e-16,
        "time": 0.163748915,
        "traj_len": 1.608038631527859,
        "weighted_distance": 2.0291495398383783
    },
    "planner": "ProjEST",
    "start": {
        "state": {
            "elbow_joint": 1.97154746011099,
            "shoulder_lift_joint": -1.13948474672311,
            "shoulder_pan_joint": 0.12281154466712228,
            "wrist_1_joint": -0.7804688027058302,
            "wrist_2_joint": 0.12958655903071145,
            "wrist_3_joint": 3.0906928834467795
        }
    },
    "waypoints": [
        {
            "positions": [
                0.12281154466712228,
                -1.13948474672311,
                1.97154746011099,
                -0.7804688027058302,
                0.12958655903071145,
                3.0906928834467795
            ]
        },
        {
            "positions": [
                0.05706464217125948,
                -1.1729557642903718,
                2.0359236350012795,
                -0.8154227866121796,
                0.28743250899348616,
                3.1036971746936683
            ]
        },
        {
            "positions": [
                -0.008682260324603328,
                -1.2064267818576337,
                2.100299809891569,
                -0.850376770518529,
                0.44527845895626084,
                3.116701465940557
            ]
        },
        {
            "positions": [
                -0.07442916282046612,
                -1.2398977994248956,
                2.1646759847818586,
                -0.8853307544248784,
                0.6031244089190355,
                3.129705757187446
            ]
        },
        {
            "positions": [
                -0.14017606531632892,
                -1.2733688169921573,
                2.2290521596721478,
                -0.9202847383312278,
                0.7609703588818102,
                3.142710048434335
            ]
        },
        {
            "positions": [
                -0.20592296781219177,
                -1.3068398345594192,
                2.2934283345624373,
                -0.9552387222375773,
                0.9188163088445849,
                3.1557143396812237
            ]
        },
        {
            "positions": [
                -0.2716698703080545,
                -1.340310852126681,
                2.357804509452727,
                -0.9901927061439267,
                1.0766622588073596,
                3.1687186309281126
            ]
        },
        {
            "positions": [
                -0.33741677280391735,
                -1.373781869693943,
                2.4221806843430165,
                -1.0251466900502761,
                1.2345082087701342,
                3.1817229221750014
            ]
        }
    ]
}{
    "goal": {
        "global_pose": {
            "orientation": {
                "w": 0.5084816217422485,
                "x": -0.49083608388900757,
                "y": 0.5182115435600281,
                "z": -0.4816462993621826
            },
            "position": {
                "x": 0.5540239810943604,
                "y": 0.030875300988554955,
                "z": 0.16403168439865112
            }
        },
        "name": "move_to_storage_A"
    },
    "id": "ProjEST_move_to_storage_A_126",
    "joint_names": [
        "shoulder_pan_joint",
        "shoulder_lift_joint",
        "elbow_joint",
        "wrist_1_joint",
        "wrist_2_joint",
        "wrist_3_joint"
    ],
    "metrics": {
        "cart_traj_len": 0.35393478351830554,
        "distance_elbow_joint": 0.4533276241297588,
        "distance_shoulder_lift_joint": 0.23185375425564247,
        "distance_shoulder_pan_joint": 0.46031234620962147,
        "distance_wrist_1_joint": 0.2610985223316553,
        "distance_wrist_2_joint": 1.1103001315143737,
        "distance_wrist_3_joint": 0.09244921150922414,
        "smoothness": 5.551115138160447e-16,
        "time": 0.038564253,
        "traj_len": 1.6153456564928375,
        "weighted_distance": 2.040989629276629
    },
    "planner": "ProjEST",
    "start": {
        "state": {
            "elbow_joint": 1.9715472970024885,
            "shoulder_lift_joint": -1.1394870060712896,
            "shoulder_pan_joint": 0.12281152778156021,
            "wrist_1_joint": -0.780463741449964,
            "wrist_2_joint": 0.12958659822042276,
            "wrist_3_joint": 3.090690232415272
        }
    },
    "waypoints": [
        {
            "positions": [
                0.12281152778156021,
                -1.1394870060712896,
                1.9715472970024885,
                -0.780463741449964,
                0.12958659822042276,
                3.090690232415272
            ]
        },
        {
            "positions": [
                0.05705262118018571,
                -1.1726089709649528,
                2.0363083861638827,
                -0.8177635303544862,
                0.2882009027224761,
                3.103897262630875
            ]
        },
        {
            "positions": [
                -0.008706285421188786,
                -1.2057309358586161,
                2.1010694753252768,
                -0.8550633192590084,
                0.4468152072245295,
                3.117104292846479
            ]
        },
        {
            "positions": [
                -0.07446519202256327,
                -1.2388529007522793,
                2.165830564486671,
                -0.8923631081635306,
                0.6054295117265829,
                3.1303113230620823
            ]
        },
        {
            "positions": [
                -0.14022409862393778,
                -1.2719748656459424,
                2.230591653648065,
                -0.9296628970680527,
                0.7640438162286363,
                3.1435183532776856
            ]
        },
        {
            "positions": [
                -0.2059830052253123,
                -1.3050968305396058,
                2.295352742809459,
                -0.966962685972575,
                0.9226581207306896,
                3.156725383493289
            ]
        },
        {
            "positions": [
                -0.2717419118266867,
                -1.338218795433269,
                2.3601138319708532,
                -1.0042624748770972,
                1.081272425232743,
                3.1699324137088927
            ]
        },
        {
            "positions": [
                -0.33750081842806123,
                -1.371340760326932,
                2.4248749211322473,
                -1.0415622637816193,
                1.2398867297347964,
                3.183139443924496
            ]
        }
    ]
}