{
    "goal": {
        "global_pose": {
            "orientation": {
                "w": 0.7047431493862688,
                "x": -0.7094548369677653,
                "y": 0.0024358444001904,
                "z": -0.0022348060817251984
            },
            "position": {
                "x": -0.39052492380142206,
                "y": 0.3671506643295288,
                "z": 0.19426114857196808
            }
        },
        "name": "move_to_magneteinheit_D"
    },
    "id": "ProjEST_move_to_magneteinheit_D_28",
    "joint_names": [
        "shoulder_pan_joint",
        "shoulder_lift_joint",
        "elbow_joint",
        "wrist_1_joint",
        "wrist_2_joint",
        "wrist_3_joint"
    ],
    "metrics": {
        "cart_traj_len": 4.28972167317097,
        "distance_elbow_joint": 4.277852327080361,
        "distance_shoulder_lift_joint": 1.6289913214799652,
        "distance_shoulder_pan_joint": 3.2600662907104665,
        "distance_wrist_1_joint": 3.9062082042448605,
        "distance_wrist_2_joint": 1.7726620247978482,
        "distance_wrist_3_joint": 3.6900130563604967,
        "smoothness": 0.5233204382371985,
        "time": 0.370001789,
        "traj_len": 4.305321500733017,
        "weighted_distance": 5.620915367307864
    },
    "planner": "ProjEST",
    "start": {
        "state": {
            "elbow_joint": 0.749534889911806,
            "shoulder_lift_joint": -0.6476975780787326,
            "shoulder_pan_joint": -2.711696901376241,
            "wrist_1_joint": -0.07506478083263063,
            "wrist_2_joint": 0.43296659715538205,
            "wrist_3_joint": -3.14703540197715
        }
    },
    "waypoints": [
        {
            "positions": [
                -2.711696901376241,
                -0.6476975780787326,
                0.749534889911806,
                -0.07506478083263063,
                0.43296659715538205,
                -3.14703540197715
            ]
        },
        {
            "positions": [
                -2.7111005353910436,
                -0.7121463747899737,
                0.8227252379275212,
                0.033342290961828516,
                0.3185719480063737,
                -3.1497884475128775
            ]
        },
        {
            "positions": [
                -2.7105041694058456,
                -0.7765951715012146,
                0.8959155859432364,
                0.14174936275628766,
                0.20417729885736527,
                -3.1525414930486044
            ]
        },
        {
            "positions": [
                -2.7099078034206476,
                -0.8410439682124556,
                0.9691059339589517,
                0.2501564345507468,
                0.08978264970835687,
                -3.155294538584332
            ]
        },
        {
            "positions": [
                -2.70931143743545,
                -0.9054927649236966,
                1.042296281974667,
                0.35856350634520595,
                -0.02461199944065151,
                -3.1580475841200593
            ]
        },
        {
            "positions": [
                -2.7087150714502526,
                -0.9699415616349376,
                1.1154866299903823,
                0.4669705781396652,
                -0.13900664858966,
                -3.1608006296557862
            ]
        },
        {
            "positions": [
                -2.7081187054650546,
                -1.0343903583461787,
                1.1886769780060975,
                0.5753776499341243,
                -0.2534012977386683,
                -3.1635536751915136
            ]
        },
        {
            "positions": [
                -2.6666261586472246,
                -1.096041438065423,
                1.2204764868050297,
                0.6123579411738465,
                -0.32507874689029315,
                -3.080399708886793
            ]
        },
        {
            "positions": [
                -2.625133611829394,
                -1.1576925177846675,
                1.252275995603962,
                0.6493382324135685,
                -0.3967561960419179,
                -2.9972457425820727
            ]
        },
        {
            "positions": [
                -2.583641065011564,
                -1.2193435975039117,
                1.2840755044028944,
                0.6863185236532905,
                -0.46843364519354275,
                -2.914091776277352
            ]
        },
        {
            "positions": [
                -2.542148518193734,
                -1.2809946772231562,
                1.3158750132018266,
                0.7232988148930126,
                -0.5401110943451676,
                -2.8309378099726317
            ]
        },
        {
            "positions": [
                -2.469620135382577,
                -1.3080423868176403,
                1.2788431509869518,
                0.6485412193441595,
                -0.5204136829941733,
                -2.6752435987173104
            ]
        },
        {
            "positions": [
                -2.39709175257142,
                -1.3350900964121242,
                1.2418112887720771,
                0.5737836237953065,
                -0.5007162716431791,
                -2.519549387461989
            ]
        },
        {
            "positions": [
                -2.324563369760263,
                -1.3621378060066083,
                1.2047794265572023,
                0.49902602824645326,
                -0.4810188602921848,
                -2.3638551762066675
            ]
        },
        {
            "positions": [
                -2.2520349869491056,
                -1.3891855156010924,
                1.1677475643423274,
                0.4242684326976002,
                -0.46132144894119054,
                -2.2081609649513463
            ]
        },
        {
            "positions": [
                -2.1795066041379485,
                -1.4162332251955765,
                1.1307157021274525,
                0.3495108371487471,
                -0.4416240375901963,
                -2.052466753696025
            ]
        },
        {
            "positions": [
                -2.1069782213267914,
                -1.4432809347900606,
                1.0936838399125777,
                0.27475324159989395,
                -0.4219266262392021,
                -1.8967725424407036
            ]
        },
        {
            "positions": [
                -2.034449838515634,
                -1.4703286443845445,
                1.056651977697703,
                0.1999956460510408,
                -0.40222921488820784,
                -1.7410783311853821
            ]
        },
        {
            "positions": [
                -1.961921455704477,
                -1.4973763539790286,
                1.0196201154828282,
                0.12523805050218773,
                -0.38253180353721355,
                -1.585384119930061
            ]
        },
        {
            "positions": [
                -1.88939307289332,
                -1.5244240635735127,
                0.9825882532679533,
                0.05048045495333464,
                -0.36283439218621927,
                -1.4296899086747397
            ]
        },
        {
            "positions": [
                -1.8168646900821628,
                -1.5514717731679966,
                0.9455563910530785,
                -0.024277140595518443,
                -0.34313698083522504,
                -1.2739956974194182
            ]
        },
        {
            "positions": [
                -1.7443363072710056,
                -1.5785194827624807,
                0.9085245288382038,
                -0.09903473614437164,
                -0.3234395694842308,
                -1.1183014861640967
            ]
        },
        {
            "positions": [
                -1.6718079244598483,
                -1.6055671923569648,
                0.8714926666233289,
                -0.17379233169322472,
                -0.3037421581332366,
                -0.9626072749087755
            ]
        },
        {
            "positions": [
                -1.5992795416486911,
                -1.6326149019514489,
                0.834460804408454,
                -0.2485499272420778,
                -0.2840447467822423,
                -0.8069130636534543
            ]
        },
        {
            "positions": [
                -1.526751158837534,
                -1.659662611545933,
                0.7974289421935793,
                -0.323307522790931,
                -0.26434733543124805,
                -0.6512188523981326
            ]
        },
        {
            "positions": [
                -1.4542227760263768,
                -1.6867103211404169,
                0.7603970799787045,
                -0.3980651183397841,
                -0.24464992408025377,
                -0.49552464114281136
            ]
        },
        {
            "positions": [
                -1.3816943932152197,
                -1.713758030734901,
                0.7233652177638297,
                -0.47282271388863717,
                -0.22495251272925954,
                -0.33983042988749024
            ]
        },
        {
            "positions": [
                -1.303551071443199,
                -1.7322590080044982,
                0.5793265570729228,
                -0.37946604102635595,
                -0.20277284086660105,
                -0.3078471953412954
            ]
        },
        {
            "positions": [
                -1.2254077496711784,
                -1.7507599852740954,
                0.435287896382016,
                -0.28610936816407473,
                -0.18059316900394257,
                -0.27586396079510056
            ]
        },
        {
            "positions": [
                -1.1472644278991577,
                -1.7692609625436926,
                0.2912492356911091,
                -0.19275269530179356,
                -0.1584134971412841,
                -0.24388072624890578
            ]
        },
        {
            "positions": [
                -1.069121106127137,
                -1.7877619398132896,
                0.1472105750002023,
                -0.09939602243951229,
                -0.1362338252786256,
                -0.2118974917027109
            ]
        },
        {
            "positions": [
                -0.9909777843551164,
                -1.8062629170828868,
                0.0031719143092954205,
                -0.006039349577231123,
                -0.11405415341596714,
                -0.1799142571565161
            ]
        },
        {
            "positions": [
                -0.9128344625830959,
                -1.824763894352484,
                -0.14086674638161145,
                0.08731732328505004,
                -0.09187448155330866,
                -0.1479310226103213
            ]
        },
        {
            "positions": [
                -0.8346911408110752,
                -1.8432648716220812,
                -0.2849054070725183,
                0.18067399614733126,
                -0.0696948096906502,
                -0.11594778806412645
            ]
        },
        {
            "positions": [
                -0.7565478190390544,
                -1.8617658488916784,
                -0.4289440677634251,
                0.2740306690096126,
                -0.04751513782799169,
                -0.08396455351793158
            ]
        },
        {
            "positions": [
                -0.6784044972670339,
                -1.8802668261612756,
                -0.5729827284543321,
                0.3673873418718937,
                -0.02533546596533323,
                -0.0519813189717368
            ]
        },
        {
            "positions": [
                -0.6002611754950132,
                -1.8987678034308728,
                -0.7170213891452388,
                0.4607440147341749,
                -0.003155794102674747,
                -0.019998084425541962
            ]
        },
        {
            "positions": [
                -0.5221178537229925,
                -1.9172687807004698,
                -0.8610600498361458,
                0.5541006875964563,
                0.019023877759983765,
                0.011985150120652877
            ]
        },
        {
            "positions": [
                -0.44397453195097203,
                -1.935769757970067,
                -1.0050987105270526,
                0.6474573604587373,
                0.04120354962264222,
                0.04396838466684766
            ]
        },
        {
            "positions": [
                -0.36583121017895115,
                -1.9542707352396642,
                -1.1491373712179593,
                0.7408140333210187,
                0.06338322148530068,
                0.07595161921304255
            ]
        },
        {
            "positions": [
                -0.2876878884069307,
                -1.9727717125092614,
                -1.2931760319088663,
                0.8341707061832997,
                0.08556289334795913,
                0.10793485375923734
            ]
        },
        {
            "positions": [
                -0.20954456663491006,
                -1.9912726897788586,
                -1.4372146925997729,
                0.9275273790455809,
                0.10774256521061765,
                0.13991808830543218
            ]
        },
        {
            "positions": [
                -0.13140124486288918,
                -2.0097736670484556,
                -1.5812533532906798,
                1.0208840519078624,
                0.12992223707327616,
                0.17190132285162707
            ]
        },
        {
            "positions": [
                -0.05325792309086874,
                -2.028274644318053,
                -1.7252920139815868,
                1.1142407247701434,
                0.15210190893593462,
                0.20388455739782185
            ]
        },
        {
            "positions": [
                0.024885398681151916,
                -2.04677562158765,
                -1.8693306746724938,
                1.2075973976324246,
                0.17428158079859307,
                0.23586779194401664
            ]
        },
        {
            "positions": [
                0.10302872045317257,
                -2.0652765988572472,
                -2.0133693353634,
                1.3009540704947058,
                0.19646125266125153,
                0.2678510264902114
            ]
        },
        {
            "positions": [
                0.18117204222519329,
                -2.0837775761268444,
                -2.1574079960543076,
                1.394310743356987,
                0.21864092452391004,
                0.29983426103640637
            ]
        },
        {
            "positions": [
                0.0587729265221823,
                -2.1480813506041287,
                -2.2368177275657093,
                1.4091739508543015,
                0.20503015304783637,
                0.22979864539700162
            ]
        },
        {
            "positions": [
                -0.06362618918082869,
                -2.2123851250814135,
                -2.3162274590771115,
                1.4240371583516158,
                0.19141938157176266,
                0.15976302975759687
            ]
        },
        {
            "positions": [
                -0.18602530488383967,
                -2.276688899558698,
                -2.395637190588513,
                1.4389003658489303,
                0.177808610095689,
                0.0897274141181921
            ]
        }
    ]
}