{
    "goal": {
        "global_pose": {
            "orientation": {
                "w": -0.00223480608172531,
                "x": 0.0024358444001904467,
                "y": 0.7094548369677653,
                "z": -0.704743149386269
            },
            "position": {
                "x": -0.37947507619857795,
                "y": -0.6371506643295288,
                "z": 0.19426114857196808
            }
        },
        "name": "move_to_magneteinheit_C"
    },
    "id": "ProjEST_move_to_magneteinheit_C_75",
    "joint_names": [
        "shoulder_pan_joint",
        "shoulder_lift_joint",
        "elbow_joint",
        "wrist_1_joint",
        "wrist_2_joint",
        "wrist_3_joint"
    ],
    "metrics": {
        "cart_traj_len": 2.7594760942040764,
        "distance_elbow_joint": 2.319252766031825,
        "distance_shoulder_lift_joint": 0.5664553250536362,
        "distance_shoulder_pan_joint": 2.3683335656435185,
        "distance_wrist_1_joint": 1.5357777416345904,
        "distance_wrist_2_joint": 1.6798924727644153,
        "distance_wrist_3_joint": 0.751746905937162,
        "smoothness": 1.2555780212246932,
        "time": 1.00161345,
        "traj_len": 3.036685491957497,
        "weighted_distance": 3.733714344100051
    },
    "planner": "ProjEST",
    "start": {
        "state": {
            "elbow_joint": 1.9565354010623817,
            "shoulder_lift_joint": -1.4165861575791021,
            "shoulder_pan_joint": -1.6717766225146293,
            "wrist_1_joint": -0.5286633292919765,
            "wrist_2_joint": 1.472756589071564,
            "wrist_3_joint": -3.1238370188695823
        }
    },
    "waypoints": [
        {
            "positions": [
                -1.6717766225146293,
                -1.4165861575791021,
                1.9565354010623817,
                -0.5286633292919765,
                1.472756589071564,
                -3.1238370188695823
            ]
        },
        {
            "positions": [
                -1.6675019392294976,
                -1.4385398192689707,
                1.9679759415243394,
                -0.44852903572488084,
                1.4449410442200934,
                -2.980191872716954
            ]
        },
        {
            "positions": [
                -1.663227255944366,
                -1.4604934809588392,
                1.9794164819862972,
                -0.3683947421577852,
                1.4171254993686226,
                -2.8365467265643254
            ]
        },
        {
            "positions": [
                -1.5880078343395645,
                -1.4725508815034694,
                1.8536546670145897,
                -0.4011992920185603,
                1.2857710222338226,
                -2.834792494890016
            ]
        },
        {
            "positions": [
                -1.5127884127347633,
                -1.4846082820480997,
                1.7278928520428825,
                -0.4340038418793354,
                1.1544165450990223,
                -2.8330382632157067
            ]
        },
        {
            "positions": [
                -1.4375689911299618,
                -1.4966656825927298,
                1.602131037071175,
                -0.4668083917401104,
                1.0230620679642222,
                -2.831284031541397
            ]
        },
        {
            "positions": [
                -1.3623495695251604,
                -1.5087230831373601,
                1.4763692220994677,
                -0.4996129416008855,
                0.8917075908294221,
                -2.8295297998670876
            ]
        },
        {
            "positions": [
                -1.287130147920359,
                -1.5207804836819903,
                1.35060740712776,
                -0.5324174914616606,
                0.7603531136946218,
                -2.8277755681927785
            ]
        },
        {
            "positions": [
                -1.2119107263155575,
                -1.5328378842266206,
                1.2248455921560528,
                -0.5652220413224356,
                0.6289986365598217,
                -2.826021336518469
            ]
        },
        {
            "positions": [
                -1.136691304710756,
                -1.5448952847712507,
                1.0990837771843456,
                -0.5980265911832107,
                0.4976441594250215,
                -2.8242671048441594
            ]
        },
        {
            "positions": [
                -1.0614718831059549,
                -1.556952685315881,
                0.9733219622126381,
                -0.6308311410439857,
                0.3662896822902215,
                -2.8225128731698503
            ]
        },
        {
            "positions": [
                -0.9862524615011534,
                -1.5690100858605112,
                0.8475601472409307,
                -0.6636356909047608,
                0.2349352051554212,
                -2.820758641495541
            ]
        },
        {
            "positions": [
                -1.0904876973080397,
                -1.5712879459157787,
                0.9047857942208017,
                -0.6227052473697114,
                0.24424982047890623,
                -2.8547081123810214
            ]
        },
        {
            "positions": [
                -1.1947229331149263,
                -1.5735658059710462,
                0.9620114412006727,
                -0.5817748038346622,
                0.25356443580239124,
                -2.888657583266502
            ]
        },
        {
            "positions": [
                -1.34770593309887,
                -1.5671291519936101,
                1.0667575282315,
                -0.5403733200288992,
                0.2793179259017601,
                -2.9241187460843596
            ]
        },
        {
            "positions": [
                -1.500688933082814,
                -1.560692498016174,
                1.1715036152623275,
                -0.49897183622313623,
                0.3050714160011289,
                -2.9595799089022177
            ]
        },
        {
            "positions": [
                -1.6536719330667577,
                -1.5542558440387382,
                1.2762497022931547,
                -0.45757035241737326,
                0.33082490610049775,
                -2.9950410717200753
            ]
        },
        {
            "positions": [
                -1.8066549330507016,
                -1.547819190061302,
                1.3809957893239821,
                -0.4161688686116103,
                0.35657839619986664,
                -3.0305022345379333
            ]
        },
        {
            "positions": [
                -1.9596379330346458,
                -1.541382536083866,
                1.4857418763548096,
                -0.37476738480584726,
                0.3823318862992355,
                -3.065963397355791
            ]
        },
        {
            "positions": [
                -2.112620933018589,
                -1.53494588210643,
                1.590487963385637,
                -0.33336590100008434,
                0.4080853763986043,
                -3.101424560173649
            ]
        },
        {
            "positions": [
                -2.2656039330025335,
                -1.528509228128994,
                1.6952340504164645,
                -0.2919644171943213,
                0.4338388664979732,
                -3.1368857229915066
            ]
        },
        {
            "positions": [
                -2.418586932986477,
                -1.522072574151558,
                1.7999801374472917,
                -0.25056293338855834,
                0.459592356597342,
                -3.1723468858093646
            ]
        },
        {
            "positions": [
                -2.571569932970421,
                -1.5156359201741219,
                1.9047262244781191,
                -0.20916144958279537,
                0.4853458466967109,
                -3.2078080486272222
            ]
        },
        {
            "positions": [
                -2.5471969496802274,
                -1.42774947245793,
                1.9315635427594575,
                -0.3656099406906599,
                0.5332609585234567,
                -3.1924032682693624
            ]
        },
        {
            "positions": [
                -2.5228239663900336,
                -1.339863024741738,
                1.9584008610407961,
                -0.5220584317985244,
                0.5811760703502025,
                -3.1769984879115025
            ]
        },
        {
            "positions": [
                -2.49845098309984,
                -1.251976577025546,
                1.9852381793221345,
                -0.678506922906389,
                0.6290911821769483,
                -3.161593707553643
            ]
        },
        {
            "positions": [
                -2.474077999809646,
                -1.1640901293093542,
                2.012075497603473,
                -0.8349554140142535,
                0.677006294003694,
                -3.1461889271957832
            ]
        }
    ]
}