{
    "goal": {
        "global_pose": {
            "orientation": {
                "w": 0.7031023480610252,
                "x": -0.7110244013736278,
                "y": 0.0077485991402295624,
                "z": 0.005598929693374583
            },
            "position": {
                "x": -0.8841497679147869,
                "y": 0.44412534475326537,
                "z": 0.3711530566215515
            }
        },
        "name": "move_to_auspresseinheit_D"
    },
    "id": "ProjEST_move_to_auspresseinheit_D_136",
    "joint_names": [
        "shoulder_pan_joint",
        "shoulder_lift_joint",
        "elbow_joint",
        "wrist_1_joint",
        "wrist_2_joint",
        "wrist_3_joint"
    ],
    "metrics": {
        "cart_traj_len": 0.3427625207378311,
        "distance_elbow_joint": 0.6462424770066677,
        "distance_shoulder_lift_joint": 0.1258121200575002,
        "distance_shoulder_pan_joint": 0.13300064978610457,
        "distance_wrist_1_joint": 0.5609354234955455,
        "distance_wrist_2_joint": 1.4364632440111071,
        "distance_wrist_3_joint": 0.02495283812667104,
        "smoothness": 1.1842378960592198e-15,
        "time": 0.061969424999999995,
        "traj_len": 1.7109666134917991,
        "weighted_distance": 2.2304060384251994
    },
    "planner": "ProjEST",
    "start": {
        "state": {
            "elbow_joint": -1.8275523626775212,
            "shoulder_lift_joint": -2.126789852344167,
            "shoulder_pan_joint": -0.03513704404078235,
            "wrist_1_joint": -2.347782403156801,
            "wrist_2_joint": -1.6058999987535132,
            "wrist_3_joint": -3.0880379163319196
        }
    },
    "waypoints": [
        {
            "positions": [
                -0.03513704404078235,
                -2.126789852344167,
                -1.8275523626775212,
                -2.347782403156801,
                -1.6058999987535132,
                -3.0880379163319196
            ]
        },
        {
            "positions": [
                -0.05176212526404542,
                -2.1425163673513543,
                -1.7467720530516877,
                -2.417899331093744,
                -1.4263420932521247,
                -3.0849188115660855
            ]
        },
        {
            "positions": [
                -0.06838720648730849,
                -2.158242882358542,
                -1.6659917434258542,
                -2.488016259030687,
                -1.2467841877507364,
                -3.081799706800252
            ]
        },
        {
            "positions": [
                -0.08501228771057157,
                -2.1739693973657293,
                -1.5852114338000207,
                -2.5581331869676305,
                -1.0672262822493481,
                -3.078680602034418
            ]
        },
        {
            "positions": [
                -0.10163736893383463,
                -2.189695912372917,
                -1.5044311241741872,
                -2.6282501149045734,
                -0.8876683767479596,
                -3.075561497268584
            ]
        },
        {
            "positions": [
                -0.11826245015709771,
                -2.2054224273801046,
                -1.423650814548354,
                -2.6983670428415167,
                -0.7081104712465712,
                -3.07244239250275
            ]
        },
        {
            "positions": [
                -0.13488753138036078,
                -2.221148942387292,
                -1.3428705049225205,
                -2.76848397077846,
                -0.5285525657451828,
                -3.0693232877369163
            ]
        },
        {
            "positions": [
                -0.15151261260362384,
                -2.2368754573944796,
                -1.262090195296687,
                -2.838600898715403,
                -0.34899466024379455,
                -3.0662041829710827
            ]
        },
        {
            "positions": [
                -0.16813769382688692,
                -2.252601972401667,
                -1.1813098856708535,
                -2.9087178266523463,
                -0.16943675474240613,
                -3.0630850782052486
            ]
        }
    ]
}