{
    "goal": {
        "global_pose": {
            "orientation": {
                "w": -0.00223480608172531,
                "x": 0.0024358444001904467,
                "y": 0.7094548369677653,
                "z": -0.704743149386269
            },
            "position": {
                "x": 0.6205249238014221,
                "y": -0.6371506643295288,
                "z": 0.19426114857196808
            }
        },
        "name": "move_to_magneteinheit_B"
    },
    "id": "ProjEST_move_to_magneteinheit_B_60",
    "joint_names": [
        "shoulder_pan_joint",
        "shoulder_lift_joint",
        "elbow_joint",
        "wrist_1_joint",
        "wrist_2_joint",
        "wrist_3_joint"
    ],
    "metrics": {
        "cart_traj_len": 1.824230202872523,
        "distance_elbow_joint": 0.9549854379582243,
        "distance_shoulder_lift_joint": 0.8109852265837075,
        "distance_shoulder_pan_joint": 1.6215831084715293,
        "distance_wrist_1_joint": 1.2370531912797231,
        "distance_wrist_2_joint": 1.7138919300832043,
        "distance_wrist_3_joint": 1.2461358482246083,
        "smoothness": 0.6916753053540012,
        "time": 0.30375355699999995,
        "traj_len": 2.754021558122049,
        "weighted_distance": 3.609411525500125
    },
    "planner": "ProjEST",
    "start": {
        "state": {
            "elbow_joint": 2.6216224122426386,
            "shoulder_lift_joint": -1.4174107377796124,
            "shoulder_pan_joint": 0.7066234856936794,
            "wrist_1_joint": 1.9546482284002225,
            "wrist_2_joint": -0.7096286983471962,
            "wrist_3_joint": 0.005740856962016249
        }
    },
    "waypoints": [
        {
            "positions": [
                0.7066234856936794,
                -1.4174107377796124,
                2.6216224122426386,
                1.9546482284002225,
                -0.7096286983471962,
                0.005740856962016249
            ]
        },
        {
            "positions": [
                0.6328876537839367,
                -1.4312862051657116,
                2.594790625865821,
                1.9627127849900003,
                -0.6607186635309541,
                -0.11305247285712251
            ]
        },
        {
            "positions": [
                0.5591518218741942,
                -1.445161672551811,
                2.567958839489003,
                1.9707773415797782,
                -0.611808628714712,
                -0.23184580267626126
            ]
        },
        {
            "positions": [
                0.5406488368550628,
                -1.4424243243928605,
                2.4486846309036188,
                1.8832538640453595,
                -0.655107923996345,
                -0.2969494182151853
            ]
        },
        {
            "positions": [
                0.5221458518359313,
                -1.4396869762339102,
                2.3294104223182344,
                1.7957303865109409,
                -0.6984072192779779,
                -0.36205303375410924
            ]
        },
        {
            "positions": [
                0.5036428668167998,
                -1.4369496280749599,
                2.21013621373285,
                1.7082069089765222,
                -0.7417065145596109,
                -0.4271566492930333
            ]
        },
        {
            "positions": [
                0.4851398817976684,
                -1.4342122799160093,
                2.0908620051474656,
                1.6206834314421035,
                -0.7850058098412438,
                -0.4922602648319573
            ]
        },
        {
            "positions": [
                0.466636896778537,
                -1.4314749317570588,
                1.9715877965620812,
                1.5331599539076848,
                -0.8283051051228769,
                -0.5573638803708814
            ]
        },
        {
            "positions": [
                0.44813391175940553,
                -1.4287375835981084,
                1.8523135879766968,
                1.445636476373266,
                -0.8716044004045098,
                -0.6224674959098053
            ]
        },
        {
            "positions": [
                0.3432805629488474,
                -1.369752183378277,
                1.8380307715388289,
                1.4991582619804704,
                -0.9759333303091962,
                -0.5749346116518986
            ]
        },
        {
            "positions": [
                0.2384272141382893,
                -1.310766783158446,
                1.823747955100961,
                1.5526800475876745,
                -1.0802622602138825,
                -0.527401727393992
            ]
        },
        {
            "positions": [
                0.1335738653277312,
                -1.2517813829386146,
                1.809465138663093,
                1.6062018331948789,
                -1.1845911901185688,
                -0.47986884313608535
            ]
        },
        {
            "positions": [
                0.028720516517173056,
                -1.1927959827187835,
                1.7951823222252252,
                1.659723618802083,
                -1.2889201200232552,
                -0.43233595887817866
            ]
        },
        {
            "positions": [
                -0.07613283229338508,
                -1.1338105824989522,
                1.7808995057873573,
                1.7132454044092873,
                -1.3932490499279413,
                -0.384803074620272
            ]
        },
        {
            "positions": [
                -0.18098618110394316,
                -1.0748251822791208,
                1.7666166893494895,
                1.7667671900164916,
                -1.4975779798326276,
                -0.33727019036236533
            ]
        },
        {
            "positions": [
                -0.28583952991450123,
                -1.0158397820592897,
                1.7523338729116216,
                1.8202889756236957,
                -1.601906909737314,
                -0.28973730610445875
            ]
        },
        {
            "positions": [
                -0.3906928787250594,
                -0.9568543818394584,
                1.7380510564737537,
                1.8738107612309,
                -1.7062358396420003,
                -0.24220442184655205
            ]
        },
        {
            "positions": [
                -0.4955462275356175,
                -0.8978689816196272,
                1.7237682400358858,
                1.9273325468381044,
                -1.8105647695466867,
                -0.19467153758864542
            ]
        },
        {
            "positions": [
                -0.6003995763461757,
                -0.8388835813997959,
                1.709485423598018,
                1.9808543324453085,
                -1.914893699451373,
                -0.14713865333073872
            ]
        },
        {
            "positions": [
                -0.7052529251567338,
                -0.7798981811799647,
                1.69520260716015,
                2.0343761180525126,
                -2.0192226293560593,
                -0.09960576907283203
            ]
        },
        {
            "positions": [
                -0.8101062739672918,
                -0.7209127809601334,
                1.6809197907222821,
                2.087897903659717,
                -2.1235515592607457,
                -0.052072884814925335
            ]
        },
        {
            "positions": [
                -0.9149596227778499,
                -0.6619273807403022,
                1.6666369742844143,
                2.1414196892669213,
                -2.227880489165432,
                -0.004540000557018698
            ]
        }
    ]
}