{
    "goal": {
        "global_pose": {
            "orientation": {
                "w": 0.7047431468963623,
                "x": -0.7094548344612122,
                "y": 0.0024358443915843964,
                "z": -0.0022348060738295317
            },
            "position": {
                "x": 0.6094750761985779,
                "y": 0.3671506643295288,
                "z": 0.19426114857196808
            }
        },
        "name": "move_to_magneteinheit_A"
    },
    "id": "ProjEST_move_to_magneteinheit_A_144",
    "joint_names": [
        "shoulder_pan_joint",
        "shoulder_lift_joint",
        "elbow_joint",
        "wrist_1_joint",
        "wrist_2_joint",
        "wrist_3_joint"
    ],
    "metrics": {
        "cart_traj_len": 3.7578388318196914,
        "distance_elbow_joint": 3.893956716279205,
        "distance_shoulder_lift_joint": 0.10229384000683428,
        "distance_shoulder_pan_joint": 3.220961013669728,
        "distance_wrist_1_joint": 0.7616362236634476,
        "distance_wrist_2_joint": 2.4435888265609726,
        "distance_wrist_3_joint": 2.6518817262189254,
        "smoothness": 0.34831460246492957,
        "time": 0.109173915,
        "traj_len": 3.6158426882815453,
        "weighted_distance": 4.645783771234019
    },
    "planner": "ProjEST",
    "start": {
        "state": {
            "elbow_joint": -1.9196185241190666,
            "shoulder_lift_joint": -1.2443396400964142,
            "shoulder_pan_joint": 2.6996025414629847,
            "wrist_1_joint": -1.5485510000780065,
            "wrist_2_joint": -1.5709468930060704,
            "wrist_3_joint": 0.4420197071253992
        }
    },
    "waypoints": [
        {
            "positions": [
                2.6996025414629847,
                -1.2443396400964142,
                -1.9196185241190666,
                -1.5485510000780065,
                -1.5709468930060704,
                0.4420197071253992
            ]
        },
        {
            "positions": [
                2.5996618918365275,
                -1.244323934415435,
                -1.7954049633250309,
                -1.5252395052798067,
                -1.4993359145171412,
                0.5119888180767912
            ]
        },
        {
            "positions": [
                2.49972124221007,
                -1.2443082287344562,
                -1.6711914025309953,
                -1.501928010481607,
                -1.427724936028212,
                0.5819579290281833
            ]
        },
        {
            "positions": [
                2.399780592583612,
                -1.2442925230534772,
                -1.5469778417369595,
                -1.4786165156834072,
                -1.3561139575392829,
                0.6519270399795754
            ]
        },
        {
            "positions": [
                2.299839942957155,
                -1.244276817372498,
                -1.4227642809429237,
                -1.4553050208852076,
                -1.2845029790503537,
                0.7218961509309674
            ]
        },
        {
            "positions": [
                2.1998992933306973,
                -1.244261111691519,
                -1.298550720148888,
                -1.4319935260870078,
                -1.2128920005614245,
                0.7918652618823596
            ]
        },
        {
            "positions": [
                2.09995864370424,
                -1.2442454060105401,
                -1.1743371593548524,
                -1.408682031288808,
                -1.1412810220724956,
                0.8618343728337516
            ]
        },
        {
            "positions": [
                2.0000179940777825,
                -1.244229700329561,
                -1.0501235985608166,
                -1.3853705364906084,
                -1.0696700435835664,
                0.9318034837851437
            ]
        },
        {
            "positions": [
                1.9000773444513253,
                -1.244213994648582,
                -0.9259100377667809,
                -1.3620590416924085,
                -0.9980590650946372,
                1.0017725947365357
            ]
        },
        {
            "positions": [
                1.8001366948248676,
                -1.2441982889676029,
                -0.801696476972745,
                -1.3387475468942087,
                -0.926448086605708,
                1.071741705687928
            ]
        },
        {
            "positions": [
                1.7001960451984104,
                -1.244182583286624,
                -0.6774829161787093,
                -1.3154360520960091,
                -0.8548371081167788,
                1.14171081663932
            ]
        },
        {
            "positions": [
                1.600255395571953,
                -1.244166877605645,
                -0.5532693553846737,
                -1.2921245572978095,
                -0.7832261296278498,
                1.211679927590712
            ]
        },
        {
            "positions": [
                1.5003147459454955,
                -1.2441511719246658,
                -0.4290557945906379,
                -1.2688130624996097,
                -0.7116151511389206,
                1.281649038542104
            ]
        },
        {
            "positions": [
                1.4003740963190379,
                -1.244135466243687,
                -0.30484223379660214,
                -1.2455015677014099,
                -0.6400041726499914,
                1.351618149493496
            ]
        },
        {
            "positions": [
                1.3004334466925804,
                -1.244119760562708,
                -0.18062867300256658,
                -1.22219007290321,
                -0.5683931941610623,
                1.421587260444888
            ]
        },
        {
            "positions": [
                1.200492797066123,
                -1.2441040548817288,
                -0.05641511220853079,
                -1.1988785781050104,
                -0.4967822156721331,
                1.49155637139628
            ]
        },
        {
            "positions": [
                1.1005521474396658,
                -1.2440883492007497,
                0.06779844858550477,
                -1.1755670833068106,
                -0.42517123718320393,
                1.561525482347672
            ]
        },
        {
            "positions": [
                1.0006114978132084,
                -1.2440726435197709,
                0.19201200937954033,
                -1.152255588508611,
                -0.353560258694275,
                1.631494593299064
            ]
        },
        {
            "positions": [
                0.9006708481867507,
                -1.2440569378387918,
                0.31622557017357655,
                -1.1289440937104112,
                -0.2819492802053456,
                1.7014637042504566
            ]
        },
        {
            "positions": [
                0.8007301985602935,
                -1.2440412321578127,
                0.4404391309676119,
                -1.1056325989122113,
                -0.21033830171641665,
                1.7714328152018486
            ]
        },
        {
            "positions": [
                0.7007895489338358,
                -1.2440255264768338,
                0.5646526917616481,
                -1.0823211041140117,
                -0.13872732322748726,
                1.8414019261532406
            ]
        },
        {
            "positions": [
                0.6008488993073784,
                -1.2440098207958548,
                0.6888662525556835,
                -1.059009609315812,
                -0.0671163447385581,
                1.9113710371046326
            ]
        },
        {
            "positions": [
                0.5009082496809212,
                -1.2439941151148757,
                0.8130798133497192,
                -1.0356981145176123,
                0.004494633750370847,
                1.9813401480560247
            ]
        },
        {
            "positions": [
                0.4009676000544635,
                -1.2439784094338966,
                0.937293374143755,
                -1.0123866197194125,
                0.07610561223930024,
                2.0513092590074167
            ]
        },
        {
            "positions": [
                0.3010269504280063,
                -1.2439627037529177,
                1.0615069349377908,
                -0.9890751249212127,
                0.14771659072822918,
                2.1212783699588087
            ]
        },
        {
            "positions": [
                0.20108630080154866,
                -1.2439469980719386,
                1.1857204957318261,
                -0.965763630123013,
                0.21932756921715835,
                2.1912474809102007
            ]
        },
        {
            "positions": [
                0.101145651175091,
                -1.2439312923909596,
                1.3099340565258624,
                -0.9424521353248133,
                0.2909385477060875,
                2.261216591861593
            ]
        },
        {
            "positions": [
                0.0012050015486337884,
                -1.2439155867099805,
                1.4341476173198977,
                -0.9191406405266136,
                0.3625495261950167,
                2.3311857028129848
            ]
        },
        {
            "positions": [
                -0.09873564807782387,
                -1.2438998810290016,
                1.5583611781139335,
                -0.8958291457284138,
                0.43416050468394585,
                2.4011548137643772
            ]
        },
        {
            "positions": [
                -0.19867629770428094,
                -1.2438841753480225,
                1.6825747389079693,
                -0.872517650930214,
                0.5057714831728752,
                2.4711239247157692
            ]
        },
        {
            "positions": [
                -0.1361211983978104,
                -1.2231244274687612,
                1.7423823126956854,
                -0.8553953141426739,
                0.4313180437382155,
                2.5993449913826234
            ]
        },
        {
            "positions": [
                -0.07356609909133985,
                -1.2023646795895,
                1.8021898864834014,
                -0.8382729773551336,
                0.35686460430355565,
                2.727566058049477
            ]
        },
        {
            "positions": [
                -0.011010999784869302,
                -1.1816049317102386,
                1.8619974602711173,
                -0.8211506405675935,
                0.28241116486889584,
                2.855787124716331
            ]
        },
        {
            "positions": [
                0.051544099521601244,
                -1.1608451838309772,
                1.9218050340588335,
                -0.8040283037800533,
                0.20795772543423607,
                2.984008191383185
            ]
        },
        {
            "positions": [
                0.12400587679818063,
                -1.14204580008958,
                1.9743381921601384,
                -0.7869147764145589,
                0.13890103279084812,
                3.0939014333443247
            ]
        }
    ]
}