{
    "goal": {
        "global_pose": {
            "orientation": {
                "w": 0.005598929693374612,
                "x": 0.007748599140229565,
                "y": 0.7110244013736278,
                "z": -0.7031023480610252
            },
            "position": {
                "x": -0.8858502320852131,
                "y": -0.7141253447532654,
                "z": 0.3711530566215515
            }
        },
        "name": "move_to_auspresseinheit_C"
    },
    "id": "ProjEST_move_to_auspresseinheit_C_126",
    "joint_names": [
        "shoulder_pan_joint",
        "shoulder_lift_joint",
        "elbow_joint",
        "wrist_1_joint",
        "wrist_2_joint",
        "wrist_3_joint"
    ],
    "metrics": {
        "cart_traj_len": 0.4946395549960011,
        "distance_elbow_joint": 1.014752354785999,
        "distance_shoulder_lift_joint": 0.33167802826674486,
        "distance_shoulder_pan_joint": 0.25710499998627157,
        "distance_wrist_1_joint": 0.7090714564604524,
        "distance_wrist_2_joint": 1.3081743234384189,
        "distance_wrist_3_joint": 0.07384332275170546,
        "smoothness": 3.2297397080004555e-16,
        "time": 0.042607642999999994,
        "traj_len": 1.9221405998754597,
        "weighted_distance": 2.420652166481561
    },
    "planner": "ProjEST",
    "start": {
        "state": {
            "elbow_joint": 1.7527959577737207,
            "shoulder_lift_joint": -0.9740617694225068,
            "shoulder_pan_joint": -2.967991417825858,
            "wrist_1_joint": -0.759517768980727,
            "wrist_2_joint": 1.7443932448377408,
            "wrist_3_joint": -3.0840537646736568
        }
    },
    "waypoints": [
        {
            "positions": [
                -2.967991417825858,
                -0.9740617694225068,
                1.7527959577737207,
                -0.759517768980727,
                1.7443932448377408,
                -3.0840537646736568
            ]
        },
        {
            "positions": [
                -2.942280917827231,
                -0.9408939665958322,
                1.6513207222951207,
                -0.6886106233346817,
                1.613575812493899,
                -3.0914380969488273
            ]
        },
        {
            "positions": [
                -2.916570417828604,
                -0.9077261637691578,
                1.5498454868165208,
                -0.6177034776886365,
                1.482758380150057,
                -3.098822429223998
            ]
        },
        {
            "positions": [
                -2.8908599178299763,
                -0.8745583609424833,
                1.448370251337921,
                -0.5467963320425913,
                1.3519409478062152,
                -3.1062067614991684
            ]
        },
        {
            "positions": [
                -2.8651494178313492,
                -0.8413905581158088,
                1.3468950158593211,
                -0.475889186396546,
                1.2211235154623732,
                -3.113591093774339
            ]
        },
        {
            "positions": [
                -2.839438917832722,
                -0.8082227552891343,
                1.2454197803807212,
                -0.40498204075050076,
                1.0903060831185314,
                -3.1209754260495095
            ]
        },
        {
            "positions": [
                -2.813728417834095,
                -0.7750549524624599,
                1.1439445449021215,
                -0.33407489510445554,
                0.9594886507746895,
                -3.12835975832468
            ]
        },
        {
            "positions": [
                -2.788017917835468,
                -0.7418871496357854,
                1.0424693094235216,
                -0.2631677494584103,
                0.8286712184308477,
                -3.1357440905998506
            ]
        },
        {
            "positions": [
                -2.7623074178368405,
                -0.7087193468091109,
                0.9409940739449215,
                -0.19226060381236498,
                0.6978537860870058,
                -3.143128422875021
            ]
        },
        {
            "positions": [
                -2.7365969178382135,
                -0.6755515439824364,
                0.8395188384663216,
                -0.12135345816631982,
                0.5670363537431637,
                -3.1505127551501917
            ]
        },
        {
            "positions": [
                -2.7108864178395864,
                -0.6423837411557619,
                0.7380436029877219,
                -0.0504463125202745,
                0.43621892139932206,
                -3.1578970874253622
            ]
        }
    ]
}