{
    "goal": {
        "global_pose": {
            "orientation": {
                "w": 0.7031023502349854,
                "x": -0.7110244035720825,
                "y": 0.007748599164187908,
                "z": 0.005598929710686207
            },
            "position": {
                "x": 0.11585023208521307,
                "y": 0.44412534475326537,
                "z": 0.3711530566215515
            }
        },
        "name": "move_to_auspresseinheit_A"
    },
    "id": "ProjEST_move_to_auspresseinheit_A_67",
    "joint_names": [
        "shoulder_pan_joint",
        "shoulder_lift_joint",
        "elbow_joint",
        "wrist_1_joint",
        "wrist_2_joint",
        "wrist_3_joint"
    ],
    "metrics": {
        "cart_traj_len": 1.9032459686320045,
        "distance_elbow_joint": 0.07164972373318967,
        "distance_shoulder_lift_joint": 0.5313190665481293,
        "distance_shoulder_pan_joint": 4.323847998716275,
        "distance_wrist_1_joint": 0.5750572776551819,
        "distance_wrist_2_joint": 2.526174948249332,
        "distance_wrist_3_joint": 11.503409833326165,
        "smoothness": 0.6236465677225698,
        "time": 0.411614284,
        "traj_len": 4.419441010832509,
        "weighted_distance": 6.755702090884789
    },
    "planner": "ProjEST",
    "start": {
        "state": {
            "elbow_joint": 2.4225746658250005,
            "shoulder_lift_joint": -1.3736534386056498,
            "shoulder_pan_joint": -0.3378633547517467,
            "wrist_1_joint": -1.0288598680537169,
            "wrist_2_joint": 1.233022673432363,
            "wrist_3_joint": -3.0940220416140027
        }
    },
    "waypoints": [
        {
            "positions": [
                -0.3378633547517467,
                -1.3736534386056498,
                2.4225746658250005,
                -1.0288598680537169,
                1.233022673432363,
                -3.0940220416140027
            ]
        },
        {
            "positions": [
                -0.40352106525592857,
                -1.391165869716212,
                2.420483735791457,
                -1.019655447217134,
                1.17183714787228,
                -2.86487020198992
            ]
        },
        {
            "positions": [
                -0.4691787757601104,
                -1.4086783008267738,
                2.418392805757914,
                -1.0104510263805508,
                1.1106516223121972,
                -2.635718362365837
            ]
        },
        {
            "positions": [
                -0.5348364862642923,
                -1.426190731937336,
                2.4163018757243706,
                -1.001246605543968,
                1.049466096752114,
                -2.4065665227417545
            ]
        },
        {
            "positions": [
                -0.600494196768474,
                -1.4437031630478978,
                2.4142109456908276,
                -0.9920421847073849,
                0.9882805711920312,
                -2.177414683117672
            ]
        },
        {
            "positions": [
                -0.6661519072726559,
                -1.46121559415846,
                2.412120015657284,
                -0.9828377638708019,
                0.9270950456319482,
                -1.9482628434935891
            ]
        },
        {
            "positions": [
                -0.7318096177768377,
                -1.478728025269022,
                2.4100290856237407,
                -0.973633343034219,
                0.8659095200718652,
                -1.7191110038695065
            ]
        },
        {
            "positions": [
                -0.7974673282810196,
                -1.496240456379584,
                2.4079381555901977,
                -0.964428922197636,
                0.8047239945117821,
                -1.4899591642454235
            ]
        },
        {
            "positions": [
                -0.8631250387852014,
                -1.513752887490146,
                2.4058472255566543,
                -0.955224501361053,
                0.7435384689516993,
                -1.260807324621341
            ]
        },
        {
            "positions": [
                -0.9287827492893832,
                -1.531265318600708,
                2.4037562955231113,
                -0.9460200805244701,
                0.6823529433916163,
                -1.0316554849972586
            ]
        },
        {
            "positions": [
                -0.9944404597935652,
                -1.54877774971127,
                2.401665365489568,
                -0.936815659687887,
                0.6211674178315333,
                -0.8025036453731755
            ]
        },
        {
            "positions": [
                -1.060098170297747,
                -1.5662901808218321,
                2.3995744354560244,
                -0.927611238851304,
                0.5599818922714503,
                -0.573351805749093
            ]
        },
        {
            "positions": [
                -1.1257558808019288,
                -1.583802611932394,
                2.3974835054224815,
                -0.918406818014721,
                0.4987963667113674,
                -0.34419996612501036
            ]
        },
        {
            "positions": [
                -1.1914135913061108,
                -1.6013150430429561,
                2.395392575388938,
                -0.9092023971781381,
                0.43761084115128435,
                -0.11504812650092733
            ]
        },
        {
            "positions": [
                -1.2570713018102926,
                -1.6188274741535182,
                2.393301645355395,
                -0.8999979763415551,
                0.3764253155912013,
                0.1141037131231557
            ]
        },
        {
            "positions": [
                -1.3227290123144744,
                -1.6363399052640801,
                2.3912107153218516,
                -0.8907935555049721,
                0.31523979003111846,
                0.34325555274723785
            ]
        },
        {
            "positions": [
                -1.3883867228186562,
                -1.6538523363746422,
                2.389119785288308,
                -0.8815891346683891,
                0.2540542644710354,
                0.5724073923713209
            ]
        },
        {
            "positions": [
                -1.454044433322838,
                -1.6713647674852041,
                2.387028855254765,
                -0.8723847138318062,
                0.19286873891095246,
                0.8015592319954035
            ]
        },
        {
            "positions": [
                -1.5197021438270197,
                -1.6888771985957662,
                2.3849379252212217,
                -0.8631802929952231,
                0.13168321335086963,
                1.0307110716194856
            ]
        },
        {
            "positions": [
                -1.5853598543312017,
                -1.7063896297063281,
                2.3828469951876787,
                -0.8539758721586401,
                0.07049768779078658,
                1.2598629112435686
            ]
        },
        {
            "positions": [
                -1.6510175648353835,
                -1.7239020608168902,
                2.3807560651541353,
                -0.8447714513220572,
                0.009312162230703525,
                1.4890147508676517
            ]
        },
        {
            "positions": [
                -1.7166752753395653,
                -1.7414144919274523,
                2.378665135120592,
                -0.8355670304854742,
                -0.05187336332937931,
                1.7181665904917338
            ]
        },
        {
            "positions": [
                -1.782332985843747,
                -1.7589269230380142,
                2.376574205087049,
                -0.8263626096488912,
                -0.11305888888946236,
                1.9473184301158168
            ]
        },
        {
            "positions": [
                -1.8479906963479291,
                -1.7764393541485763,
                2.3744832750535054,
                -0.8171581888123082,
                -0.17424441444954542,
                2.1764702697399
            ]
        },
        {
            "positions": [
                -1.9136484068521107,
                -1.7939517852591382,
                2.3723923450199624,
                -0.8079537679757253,
                -0.23542994000962825,
                2.405622109363982
            ]
        },
        {
            "positions": [
                -1.9793061173562927,
                -1.8114642163697003,
                2.370301414986419,
                -0.7987493471391423,
                -0.2966154655697113,
                2.6347739489880655
            ]
        },
        {
            "positions": [
                -1.8761366851981491,
                -1.8150606890152419,
                2.371046663943904,
                -0.7854821641875804,
                -0.2582871267525091,
                2.4126734165756005
            ]
        },
        {
            "positions": [
                -1.7729672530400058,
                -1.8186571616607834,
                2.3717919129013887,
                -0.7722149812360186,
                -0.21995878793530688,
                2.1905728841631356
            ]
        },
        {
            "positions": [
                -1.6697978208818625,
                -1.822253634306325,
                2.3725371618588738,
                -0.7589477982844568,
                -0.18163044911810466,
                1.9684723517506706
            ]
        },
        {
            "positions": [
                -1.566628388723719,
                -1.8258501069518662,
                2.373282410816359,
                -0.745680615332895,
                -0.14330211030090245,
                1.7463718193382054
            ]
        },
        {
            "positions": [
                -1.4634589565655753,
                -1.8294465795974078,
                2.3740276597738434,
                -0.7324134323813332,
                -0.10497377148370024,
                1.5242712869257404
            ]
        },
        {
            "positions": [
                -1.360289524407432,
                -1.8330430522429493,
                2.3747729087313285,
                -0.7191462494297713,
                -0.06664543266649803,
                1.3021707545132755
            ]
        },
        {
            "positions": [
                -1.2571200922492887,
                -1.8366395248884908,
                2.3755181576888136,
                -0.7058790664782095,
                -0.028317093849295816,
                1.0800702221008105
            ]
        },
        {
            "positions": [
                -1.153950660091145,
                -1.8402359975340323,
                2.3762634066462986,
                -0.6926118835266477,
                0.010011244967906396,
                0.8579696896883453
            ]
        },
        {
            "positions": [
                -1.0507812279330018,
                -1.8438324701795739,
                2.3770086556037833,
                -0.6793447005750859,
                0.04833958378510861,
                0.6358691572758806
            ]
        },
        {
            "positions": [
                -0.9476117957748582,
                -1.8474289428251152,
                2.3777539045612683,
                -0.6660775176235241,
                0.08666792260231082,
                0.41376862486341537
            ]
        },
        {
            "positions": [
                -0.8444423636167149,
                -1.8510254154706567,
                2.3784991535187534,
                -0.6528103346719623,
                0.12499626141951303,
                0.1916680924509504
            ]
        },
        {
            "positions": [
                -0.7412729314585713,
                -1.8546218881161982,
                2.379244402476238,
                -0.6395431517204004,
                0.16332460023671524,
                -0.030432439961514568
            ]
        },
        {
            "positions": [
                -0.638103499300428,
                -1.8582183607617397,
                2.379989651433723,
                -0.6262759687688386,
                0.20165293905391746,
                -0.25253297237397954
            ]
        },
        {
            "positions": [
                -0.5349340671422846,
                -1.8618148334072813,
                2.380734900391208,
                -0.6130087858172768,
                0.23998127787111967,
                -0.4746335047864445
            ]
        },
        {
            "positions": [
                -0.4317646349841413,
                -1.8654113060528228,
                2.381480149348693,
                -0.599741602865715,
                0.2783096166883219,
                -0.696734037198909
            ]
        },
        {
            "positions": [
                -0.3285952028259975,
                -1.8690077786983643,
                2.382225398306178,
                -0.5864744199141532,
                0.3166379555055241,
                -0.9188345696113749
            ]
        },
        {
            "positions": [
                -0.2254257706678542,
                -1.8726042513439056,
                2.382970647263663,
                -0.5732072369625913,
                0.3549662943227263,
                -1.1409351020238394
            ]
        },
        {
            "positions": [
                -0.12225633850971085,
                -1.8762007239894471,
                2.3837158962211475,
                -0.5599400540110295,
                0.3932946331399285,
                -1.3630356344363044
            ]
        },
        {
            "positions": [
                -0.019086906351567512,
                -1.8797971966349887,
                2.3844611451786326,
                -0.5466728710594677,
                0.43162297195713073,
                -1.5851361668487693
            ]
        },
        {
            "positions": [
                0.08408252580657627,
                -1.8833936692805302,
                2.3852063941361177,
                -0.5334056881079059,
                0.46995131077433294,
                -1.8072366992612348
            ]
        },
        {
            "positions": [
                0.1872519579647196,
                -1.8869901419260717,
                2.3859516430936027,
                -0.5201385051563441,
                0.5082796495915352,
                -2.0293372316736993
            ]
        },
        {
            "positions": [
                0.29042139012286294,
                -1.8905866145716133,
                2.3866968920510874,
                -0.5068713222047823,
                0.5466079884087374,
                -2.2514377640861647
            ]
        },
        {
            "positions": [
                0.3935908222810063,
                -1.8941830872171546,
                2.3874421410085724,
                -0.4936041392532205,
                0.5849363272259396,
                -2.473538296498629
            ]
        },
        {
            "positions": [
                0.49676025443915006,
                -1.897779559862696,
                2.3881873899660575,
                -0.4803369563016587,
                0.6232646660431418,
                -2.6956388289110946
            ]
        },
        {
            "positions": [
                0.5999296865972934,
                -1.9013760325082376,
                2.388932638923542,
                -0.46706977335009686,
                0.661593004860344,
                -2.91773936132356
            ]
        },
        {
            "positions": [
                0.703099118755437,
                -1.9049725051537791,
                2.389677887881027,
                -0.45380259039853504,
                0.6999213436775462,
                -3.139839893736024
            ]
        }
    ]
}