{
    "goal": {
        "global_pose": {
            "orientation": {
                "w": 0.7031023480610252,
                "x": -0.7110244013736278,
                "y": 0.0077485991402295624,
                "z": 0.005598929693374583
            },
            "position": {
                "x": -0.8841497679147869,
                "y": 0.44412534475326537,
                "z": 0.3711530566215515
            }
        },
        "name": "move_to_auspresseinheit_D"
    },
    "id": "ProjEST_move_to_auspresseinheit_D_1",
    "joint_names": [
        "shoulder_pan_joint",
        "shoulder_lift_joint",
        "elbow_joint",
        "wrist_1_joint",
        "wrist_2_joint",
        "wrist_3_joint"
    ],
    "metrics": {
        "cart_traj_len": 0.34393414084087987,
        "distance_elbow_joint": 0.6494669293409303,
        "distance_shoulder_lift_joint": 0.1275736204631306,
        "distance_shoulder_pan_joint": 0.13368994924242972,
        "distance_wrist_1_joint": 0.5525100575553714,
        "distance_wrist_2_joint": 1.4452280870810927,
        "distance_wrist_3_joint": 0.01873220259214481,
        "smoothness": 3.9474596431116675e-16,
        "time": 0.142943409,
        "traj_len": 1.7109064399537164,
        "weighted_distance": 2.2276452581360107
    },
    "planner": "ProjEST",
    "start": {
        "state": {
            "elbow_joint": -1.8275523626775212,
            "shoulder_lift_joint": -2.126789852344167,
            "shoulder_pan_joint": -0.03513704404078235,
            "wrist_1_joint": -2.347782403156801,
            "wrist_2_joint": -1.6058999987535132,
            "wrist_3_joint": -3.0880379163319196
        }
    },
    "waypoints": [
        {
            "positions": [
                -0.03513704404078235,
                -2.126789852344167,
                -1.8275523626775212,
                -2.347782403156801,
                -1.6058999987535132,
                -3.0880379163319196
            ]
        },
        {
            "positions": [
                -0.051848287696086064,
                -2.1427365549020583,
                -1.746368996509905,
                -2.416846160351222,
                -1.4252464878683766,
                -3.0856963910079016
            ]
        },
        {
            "positions": [
                -0.06855953135138979,
                -2.1586832574599493,
                -1.6651856303422887,
                -2.485909917545644,
                -1.24459297698324,
                -3.0833548656838836
            ]
        },
        {
            "positions": [
                -0.0852707750066935,
                -2.1746299600178407,
                -1.5840022641746723,
                -2.554973674740065,
                -1.0639394660981034,
                -3.081013340359865
            ]
        },
        {
            "positions": [
                -0.10198201866199721,
                -2.190576662575732,
                -1.502818898007056,
                -2.624037431934487,
                -0.8832859552129668,
                -3.078671815035847
            ]
        },
        {
            "positions": [
                -0.11869326231730093,
                -2.2065233651336236,
                -1.4216355318394398,
                -2.693101189128908,
                -0.7026324443278302,
                -3.076330289711829
            ]
        },
        {
            "positions": [
                -0.13540450597260464,
                -2.222470067691515,
                -1.3404521656718233,
                -2.7621649463233293,
                -0.5219789334426936,
                -3.0739887643878108
            ]
        },
        {
            "positions": [
                -0.15211574962790836,
                -2.238416770249406,
                -1.2592687995042071,
                -2.831228703517751,
                -0.34132542255755705,
                -3.0716472390637928
            ]
        },
        {
            "positions": [
                -0.16882699328321207,
                -2.2543634728072974,
                -1.1780854333365909,
                -2.9002924607121723,
                -0.16067191167242056,
                -3.069305713739775
            ]
        }
    ]
}