{
    "goal": {
        "global_pose": {
            "orientation": {
                "w": 0.005598929693374612,
                "x": 0.007748599140229565,
                "y": 0.7110244013736278,
                "z": -0.7031023480610252
            },
            "position": {
                "x": -0.8858502320852131,
                "y": -0.7141253447532654,
                "z": 0.3711530566215515
            }
        },
        "name": "move_to_auspresseinheit_C"
    },
    "id": "ProjEST_move_to_auspresseinheit_C_51",
    "joint_names": [
        "shoulder_pan_joint",
        "shoulder_lift_joint",
        "elbow_joint",
        "wrist_1_joint",
        "wrist_2_joint",
        "wrist_3_joint"
    ],
    "metrics": {
        "cart_traj_len": 0.4935542547368804,
        "distance_elbow_joint": 1.009295427125714,
        "distance_shoulder_lift_joint": 0.3287161590874077,
        "distance_shoulder_pan_joint": 0.2553583977628513,
        "distance_wrist_1_joint": 0.6929866855366325,
        "distance_wrist_2_joint": 1.320036861691457,
        "distance_wrist_3_joint": 0.06270792572269146,
        "smoothness": 1.6148698667872622e-16,
        "time": 0.094591639,
        "traj_len": 1.915489873877373,
        "weighted_distance": 2.409883992145727
    },
    "planner": "ProjEST",
    "start": {
        "state": {
            "elbow_joint": 1.7527959577737207,
            "shoulder_lift_joint": -0.9740617694225068,
            "shoulder_pan_joint": -2.967991417825858,
            "wrist_1_joint": -0.759517768980727,
            "wrist_2_joint": 1.7443932448377408,
            "wrist_3_joint": -3.0840537646736568
        }
    },
    "waypoints": [
        {
            "positions": [
                -2.967991417825858,
                -0.9740617694225068,
                1.7527959577737207,
                -0.759517768980727,
                1.7443932448377408,
                -3.0840537646736568
            ]
        },
        {
            "positions": [
                -2.942455578049573,
                -0.941190153513766,
                1.6518664150611493,
                -0.6902191004270637,
                1.6123895586685952,
                -3.0903245572459257
            ]
        },
        {
            "positions": [
                -2.916919738273288,
                -0.9083185376050252,
                1.550936872348578,
                -0.6209204318734005,
                1.4803858724994494,
                -3.096595349818195
            ]
        },
        {
            "positions": [
                -2.8913838984970024,
                -0.8754469216962845,
                1.4500073296360065,
                -0.5516217633197372,
                1.3483821863303036,
                -3.1028661423904644
            ]
        },
        {
            "positions": [
                -2.8658480587207174,
                -0.8425753057875437,
                1.3490777869234352,
                -0.482323094766074,
                1.216378500161158,
                -3.1091369349627334
            ]
        },
        {
            "positions": [
                -2.8403122189444323,
                -0.8097036898788029,
                1.2481482442108636,
                -0.41302442621241076,
                1.0843748139920124,
                -3.1154077275350023
            ]
        },
        {
            "positions": [
                -2.8147763791681473,
                -0.7768320739700622,
                1.1472187014982924,
                -0.3437257576587475,
                0.9523711278228666,
                -3.1216785201072716
            ]
        },
        {
            "positions": [
                -2.7892405393918622,
                -0.7439604580613214,
                1.0462891587857208,
                -0.2744270891050843,
                0.820367441653721,
                -3.127949312679541
            ]
        },
        {
            "positions": [
                -2.7637046996155767,
                -0.7110888421525806,
                0.9453596160731494,
                -0.205128420551421,
                0.6883637554845752,
                -3.13422010525181
            ]
        },
        {
            "positions": [
                -2.7381688598392917,
                -0.6782172262438398,
                0.8444300733605781,
                -0.1358297519977577,
                0.5563600693154294,
                -3.140490897824079
            ]
        },
        {
            "positions": [
                -2.7126330200630067,
                -0.6453456103350991,
                0.7435005306480067,
                -0.06653108344409447,
                0.4243563831462837,
                -3.1467616903963482
            ]
        }
    ]
}