{
    "goal": {
        "global_pose": {
            "orientation": {
                "w": 0.005598929693374612,
                "x": 0.007748599140229565,
                "y": 0.7110244013736278,
                "z": -0.7031023480610252
            },
            "position": {
                "x": 0.1141497679147869,
                "y": -0.7141253447532654,
                "z": 0.3711530566215515
            }
        },
        "name": "move_to_auspresseinheit_B"
    },
    "id": "ProjEST_move_to_auspresseinheit_B_60",
    "joint_names": [
        "shoulder_pan_joint",
        "shoulder_lift_joint",
        "elbow_joint",
        "wrist_1_joint",
        "wrist_2_joint",
        "wrist_3_joint"
    ],
    "metrics": {
        "cart_traj_len": 0.5647701233703971,
        "distance_elbow_joint": 0.06450852342070723,
        "distance_shoulder_lift_joint": 0.29550199714074643,
        "distance_shoulder_pan_joint": 0.5780139825096633,
        "distance_wrist_1_joint": 0.3387210869538212,
        "distance_wrist_2_joint": 0.9910376515801598,
        "distance_wrist_3_joint": 0.008892214208878979,
        "smoothness": 3.806478935924272e-16,
        "time": 0.089005826,
        "traj_len": 1.5088656188719978,
        "weighted_distance": 1.9037380656922622
    },
    "planner": "ProjEST",
    "start": {
        "state": {
            "elbow_joint": 2.0193083361928714,
            "shoulder_lift_joint": -1.1220246554650708,
            "shoulder_pan_joint": -1.0952077554168747,
            "wrist_1_joint": -0.8559753972642168,
            "wrist_2_joint": 0.4759566250798843,
            "wrist_3_joint": -3.1240929996934557
        }
    },
    "waypoints": [
        {
            "positions": [
                -1.0952077554168747,
                -1.1220246554650708,
                2.0193083361928714,
                -0.8559753972642168,
                0.4759566250798843,
                -3.1240929996934557
            ]
        },
        {
            "positions": [
                -1.1915434191684853,
                -1.1712749883218618,
                2.0085569156227536,
                -0.7995218827719133,
                0.6411295670099109,
                -3.122610963991976
            ]
        },
        {
            "positions": [
                -1.2878790829200957,
                -1.2205253211786529,
                1.9978054950526356,
                -0.7430683682796098,
                0.8063025089399376,
                -3.121128928290496
            ]
        },
        {
            "positions": [
                -1.3842147466717063,
                -1.2697756540354441,
                1.9870540744825178,
                -0.6866148537873062,
                0.9714754508699641,
                -3.1196468925890164
            ]
        },
        {
            "positions": [
                -1.4805504104233167,
                -1.3190259868922352,
                1.9763026539124,
                -0.6301613392950027,
                1.1366483927999909,
                -3.118164856887536
            ]
        },
        {
            "positions": [
                -1.5768860741749275,
                -1.3682763197490262,
                1.965551233342282,
                -0.5737078248026991,
                1.3018213347300174,
                -3.1166828211860564
            ]
        },
        {
            "positions": [
                -1.673221737926538,
                -1.4175266526058172,
                1.9547998127721642,
                -0.5172543103103956,
                1.4669942766600441,
                -3.1152007854845767
            ]
        }
    ]
}