{
    "goal": {
        "global_pose": {
            "orientation": {
                "w": 0.7047431493862688,
                "x": -0.7094548369677653,
                "y": 0.0024358444001904,
                "z": -0.0022348060817251984
            },
            "position": {
                "x": -0.39052492380142206,
                "y": 0.3671506643295288,
                "z": 0.19426114857196808
            }
        },
        "name": "move_to_magneteinheit_D"
    },
    "id": "ProjEST_move_to_magneteinheit_D_70",
    "joint_names": [
        "shoulder_pan_joint",
        "shoulder_lift_joint",
        "elbow_joint",
        "wrist_1_joint",
        "wrist_2_joint",
        "wrist_3_joint"
    ],
    "metrics": {
        "cart_traj_len": 5.063507486323918,
        "distance_elbow_joint": 3.090091080205487,
        "distance_shoulder_lift_joint": 1.2256760797977277,
        "distance_shoulder_pan_joint": 3.863443990658629,
        "distance_wrist_1_joint": 2.8501656674617037,
        "distance_wrist_2_joint": 0.9541220109110837,
        "distance_wrist_3_joint": 1.3254685183806285,
        "smoothness": 0.5272552302358857,
        "time": 0.973190648,
        "traj_len": 3.6481457409779092,
        "weighted_distance": 4.445693653700095
    },
    "planner": "ProjEST",
    "start": {
        "state": {
            "elbow_joint": 0.749534889911806,
            "shoulder_lift_joint": -0.6476975780787326,
            "shoulder_pan_joint": -2.711696901376241,
            "wrist_1_joint": -0.07506478083263063,
            "wrist_2_joint": 0.43296659715538205,
            "wrist_3_joint": -3.14703540197715
        }
    },
    "waypoints": [
        {
            "positions": [
                -2.711696901376241,
                -0.6476975780787326,
                0.749534889911806,
                -0.07506478083263063,
                0.43296659715538205,
                -3.14703540197715
            ]
        },
        {
            "positions": [
                -2.7179668197950018,
                -0.6815816456661814,
                0.7245456469655105,
                -0.040380934294646176,
                0.4394720373936494,
                -3.1440824102073215
            ]
        },
        {
            "positions": [
                -2.7367765750512834,
                -0.7832338484285276,
                0.6495779181266241,
                0.06367060531930718,
                0.45898835810845123,
                -3.1352234348978363
            ]
        },
        {
            "positions": [
                -2.5371027643474537,
                -0.847766207045668,
                0.5780268657886329,
                0.07355527460528934,
                0.4630085471454196,
                -3.095282561178886
            ]
        },
        {
            "positions": [
                -2.337428953643624,
                -0.9122985656628084,
                0.5064758134506419,
                0.08343994389127149,
                0.46702873618238794,
                -3.0553416874599355
            ]
        },
        {
            "positions": [
                -2.1377551429397945,
                -0.9768309242799489,
                0.43492476111265066,
                0.09332461317725366,
                0.4710489252193563,
                -3.0154008137409853
            ]
        },
        {
            "positions": [
                -1.938081332235965,
                -1.0413632828970893,
                0.3633737087746595,
                0.10320928246323581,
                0.47506911425632464,
                -2.975459940022035
            ]
        },
        {
            "positions": [
                -1.7384075215321353,
                -1.1058956415142296,
                0.2918226564366684,
                0.11309395174921796,
                0.479089303293293,
                -2.9355190663030846
            ]
        },
        {
            "positions": [
                -1.5387337108283057,
                -1.17042800013137,
                0.2202716040986772,
                0.12297862103520013,
                0.48310949233026135,
                -2.8955781925841344
            ]
        },
        {
            "positions": [
                -1.339059900124476,
                -1.2349603587485105,
                0.1487205517606861,
                0.13286329032118227,
                0.4871296813672297,
                -2.8556373188651842
            ]
        },
        {
            "positions": [
                -1.1393860894206465,
                -1.2994927173656508,
                0.07716949942269491,
                0.14274795960716444,
                0.4911498704041981,
                -2.8156964451462336
            ]
        },
        {
            "positions": [
                -0.9397122787168168,
                -1.3640250759827914,
                0.005618447084703715,
                0.1526326288931466,
                0.49517005944116643,
                -2.7757555714272835
            ]
        },
        {
            "positions": [
                -0.7400384680129872,
                -1.4285574345999317,
                -0.06593260525328737,
                0.16251729817912874,
                0.4991902484781348,
                -2.7358146977083333
            ]
        },
        {
            "positions": [
                -0.5403646573091576,
                -1.493089793217072,
                -0.13748365759127856,
                0.1724019674651109,
                0.5032104375151032,
                -2.695873823989383
            ]
        },
        {
            "positions": [
                -0.340690846605328,
                -1.5576221518342126,
                -0.20903470992926976,
                0.18228663675109308,
                0.5072306265520715,
                -2.6559329502704325
            ]
        },
        {
            "positions": [
                -0.1410170359014984,
                -1.6221545104513528,
                -0.28058576226726084,
                0.19217130603707522,
                0.5112508155890398,
                -2.6159920765514824
            ]
        },
        {
            "positions": [
                0.058656774802331224,
                -1.6866868690684933,
                -0.3521368146052519,
                0.20205597532305739,
                0.5152710046260082,
                -2.5760512028325318
            ]
        },
        {
            "positions": [
                0.25833058550616084,
                -1.7512192276856338,
                -0.4236878669432431,
                0.21194064460903952,
                0.5192911936629766,
                -2.5361103291135816
            ]
        },
        {
            "positions": [
                0.45800439620999056,
                -1.8157515863027742,
                -0.49523891928123426,
                0.2218253138950217,
                0.5233113826999449,
                -2.4961694553946314
            ]
        },
        {
            "positions": [
                0.42635548543906826,
                -1.8136203530591237,
                -0.6068302092576892,
                0.06398522781494981,
                0.4745840695145954,
                -2.5346775120257403
            ]
        },
        {
            "positions": [
                0.39470657466814596,
                -1.811489119815473,
                -0.718421499234144,
                -0.09385485826512208,
                0.42585675632924597,
                -2.573185568656849
            ]
        },
        {
            "positions": [
                0.3630576638972237,
                -1.8093578865718225,
                -0.8300127892105988,
                -0.25169494434519396,
                0.3771294431438965,
                -2.611693625287958
            ]
        },
        {
            "positions": [
                0.33140875312630136,
                -1.8072266533281718,
                -0.9416040791870537,
                -0.40953503042526584,
                0.328402129958547,
                -2.650201681919067
            ]
        },
        {
            "positions": [
                0.2997598423553791,
                -1.8050954200845213,
                -1.0531953691635085,
                -0.5673751165053378,
                0.2796748167731975,
                -2.688709738550176
            ]
        },
        {
            "positions": [
                0.2681109315844568,
                -1.8029641868408706,
                -1.1647866591399634,
                -0.7252152025854096,
                0.23094750358784805,
                -2.727217795181285
            ]
        },
        {
            "positions": [
                0.2364620208135345,
                -1.80083295359722,
                -1.2763779491164182,
                -0.8830552886654814,
                0.1822201904024986,
                -2.7657258518123937
            ]
        },
        {
            "positions": [
                0.2048131100426122,
                -1.7987017203535696,
                -1.387969239092873,
                -1.0408953747455534,
                0.1334928772171491,
                -2.8042339084435026
            ]
        },
        {
            "positions": [
                0.1731641992716899,
                -1.7965704871099188,
                -1.499560529069328,
                -1.1987354608256253,
                0.08476556403179958,
                -2.8427419650746115
            ]
        },
        {
            "positions": [
                0.1415152885007676,
                -1.7944392538662683,
                -1.6111518190457828,
                -1.3565755469056973,
                0.036038250846450126,
                -2.881250021705721
            ]
        },
        {
            "positions": [
                0.10986637772984531,
                -1.7923080206226176,
                -1.7227431090222376,
                -1.514415632985769,
                -0.012689062338899326,
                -2.9197580783368298
            ]
        },
        {
            "positions": [
                0.07821746695892307,
                -1.7901767873789671,
                -1.8343343989986924,
                -1.672255719065841,
                -0.061416375524248834,
                -2.9582661349679387
            ]
        },
        {
            "positions": [
                0.046568556188000765,
                -1.7880455541353164,
                -1.9459256889751473,
                -1.8300958051459129,
                -0.11014368870959834,
                -2.9967741915990476
            ]
        },
        {
            "positions": [
                0.014919645417078464,
                -1.785914320891666,
                -2.057516978951602,
                -1.9879358912259846,
                -0.15887100189494774,
                -3.0352822482301565
            ]
        },
        {
            "positions": [
                -0.016729265353843836,
                -1.7837830876480152,
                -2.1691082689280567,
                -2.145775977306057,
                -0.20759831508029725,
                -3.0737903048612654
            ]
        },
        {
            "positions": [
                -0.04837817612476611,
                -1.7816518544043647,
                -2.280699558904512,
                -2.3036160633861287,
                -0.2563256282656468,
                -3.1122983614923743
            ]
        },
        {
            "positions": [
                -0.1855789495123216,
                -1.758129514729088,
                -2.340556190293679,
                -2.2757818679332282,
                -0.17218541386471747,
                -3.053824695792007
            ]
        }
    ]
}