{
    "goal": {
        "global_pose": {
            "orientation": {
                "w": -0.4816463035849501,
                "x": 0.5182115481033762,
                "y": 0.4908360881923453,
                "z": -0.5084816262002911
            },
            "position": {
                "x": -0.8240239810943604,
                "y": -0.300875300988555,
                "z": 0.16403168439865112
            }
        },
        "name": "move_to_storage_C"
    },
    "id": "ProjEST_move_to_storage_C_64",
    "joint_names": [
        "shoulder_pan_joint",
        "shoulder_lift_joint",
        "elbow_joint",
        "wrist_1_joint",
        "wrist_2_joint",
        "wrist_3_joint"
    ],
    "metrics": {
        "cart_traj_len": 0.5763443327859807,
        "distance_elbow_joint": 0.2550770389656636,
        "distance_shoulder_lift_joint": 0.18873587429572447,
        "distance_shoulder_pan_joint": 0.49594433528141435,
        "distance_wrist_1_joint": 0.07204927628874047,
        "distance_wrist_2_joint": 1.0595757900951281,
        "distance_wrist_3_joint": 0.07426856009833571,
        "smoothness": 2.5376526478085547e-16,
        "time": 0.012986734,
        "traj_len": 1.4648040398036206,
        "weighted_distance": 1.8508952054628989
    },
    "planner": "ProjEST",
    "start": {
        "state": {
            "elbow_joint": 2.010868314990456,
            "shoulder_lift_joint": -1.1634956873337592,
            "shoulder_pan_joint": -2.4736205022346125,
            "wrist_1_joint": -0.8367026794202681,
            "wrist_2_joint": 0.6746043897044499,
            "wrist_3_joint": -3.1496632123970403
        }
    },
    "waypoints": [
        {
            "positions": [
                -2.4736205022346125,
                -1.1634956873337592,
                2.010868314990456,
                -0.8367026794202681,
                0.6746043897044499,
                -3.1496632123970403
            ]
        },
        {
            "positions": [
                -2.5562778914481816,
                -1.1320397082844718,
                1.9683554751628451,
                -0.8246944667054781,
                0.8512003547203046,
                -3.1372851190473177
            ]
        },
        {
            "positions": [
                -2.6389352806617508,
                -1.1005837292351843,
                1.9258426353352347,
                -0.812686253990688,
                1.0277963197361593,
                -3.124907025697595
            ]
        },
        {
            "positions": [
                -2.72159266987532,
                -1.069127750185897,
                1.883329795507624,
                -0.8006780412758978,
                1.2043922847520139,
                -3.1125289323478724
            ]
        },
        {
            "positions": [
                -2.8042500590888886,
                -1.0376717711366095,
                1.8408169556800134,
                -0.7886698285611078,
                1.3809882497678685,
                -3.10015083899815
            ]
        },
        {
            "positions": [
                -2.8869074483024577,
                -1.006215792087322,
                1.798304115852403,
                -0.7766616158463178,
                1.5575842147837236,
                -3.087772745648427
            ]
        },
        {
            "positions": [
                -2.969564837516027,
                -0.9747598130380347,
                1.7557912760247922,
                -0.7646534031315276,
                1.7341801797995782,
                -3.0753946522987046
            ]
        }
    ]
}