{
    "goal": {
        "global_pose": {
            "orientation": {
                "w": 0.5084816217422485,
                "x": -0.49083608388900757,
                "y": 0.5182115435600281,
                "z": -0.4816462993621826
            },
            "position": {
                "x": 0.5540239810943604,
                "y": 0.030875300988554955,
                "z": 0.16403168439865112
            }
        },
        "name": "move_to_storage_A"
    },
    "id": "ProjEST_move_to_storage_A_25",
    "joint_names": [
        "shoulder_pan_joint",
        "shoulder_lift_joint",
        "elbow_joint",
        "wrist_1_joint",
        "wrist_2_joint",
        "wrist_3_joint"
    ],
    "metrics": {
        "cart_traj_len": 0.3521441821214603,
        "distance_elbow_joint": 0.450616577639267,
        "distance_shoulder_lift_joint": 0.23563528594989736,
        "distance_shoulder_pan_joint": 0.46148279105071655,
        "distance_wrist_1_joint": 0.24545687683302397,
        "distance_wrist_2_joint": 1.0932132406093333,
        "distance_wrist_3_joint": 0.08929680020165254,
        "smoothness": 2.2204460668324854e-16,
        "time": 0.024047153,
        "traj_len": 1.6048992405393836,
        "weighted_distance": 2.023107829585352
    },
    "planner": "ProjEST",
    "start": {
        "state": {
            "elbow_joint": 1.971548259319323,
            "shoulder_lift_joint": -1.1394851275133948,
            "shoulder_pan_joint": 0.1228115487234821,
            "wrist_1_joint": -0.7804723859257726,
            "wrist_2_joint": 0.12958671773740124,
            "wrist_3_joint": -3.192489227718131
        }
    },
    "waypoints": [
        {
            "positions": [
                0.1228115487234821,
                -1.1394851275133948,
                1.971548259319323,
                -0.7804723859257726,
                0.12958671773740124,
                -3.192489227718131
            ]
        },
        {
            "positions": [
                0.05688543571623689,
                -1.173147311220523,
                2.0359220561249325,
                -0.8155376540447761,
                0.28576003782444886,
                -3.1797325419750377
            ]
        },
        {
            "positions": [
                -0.009040677291008326,
                -1.206809494927651,
                2.100295852930542,
                -0.8506029221637794,
                0.44193335791149646,
                -3.1669758562319448
            ]
        },
        {
            "positions": [
                -0.07496679029825354,
                -1.2404716786347794,
                2.1646696497361515,
                -0.8856681902827829,
                0.5981066779985441,
                -3.1542191704888514
            ]
        },
        {
            "positions": [
                -0.14089290330549875,
                -1.2741338623419076,
                2.2290434465417612,
                -0.9207334584017863,
                0.7542799980855918,
                -3.1414624847457584
            ]
        },
        {
            "positions": [
                -0.20681901631274402,
                -1.3077960460490359,
                2.293417243347371,
                -0.9557987265207897,
                0.9104533181726394,
                -3.128705799002665
            ]
        },
        {
            "positions": [
                -0.2727451293199892,
                -1.341458229756164,
                2.3577910401529802,
                -0.9908639946397931,
                1.066626638259687,
                -3.115949113259572
            ]
        },
        {
            "positions": [
                -0.33867124232723445,
                -1.3751204134632922,
                2.42216483695859,
                -1.0259292627587966,
                1.2227999583467346,
                -3.1031924275164786
            ]
        }
    ]
}{
    "goal": {
        "global_pose": {
            "orientation": {
                "w": 0.5084816217422485,
                "x": -0.49083608388900757,
                "y": 0.5182115435600281,
                "z": -0.4816462993621826
            },
            "position": {
                "x": 0.5540239810943604,
                "y": 0.030875300988554955,
                "z": 0.16403168439865112
            }
        },
        "name": "move_to_storage_A"
    },
    "id": "ProjEST_move_to_storage_A_25",
    "joint_names": [
        "shoulder_pan_joint",
        "shoulder_lift_joint",
        "elbow_joint",
        "wrist_1_joint",
        "wrist_2_joint",
        "wrist_3_joint"
    ],
    "metrics": {
        "cart_traj_len": 0.35366072589852404,
        "distance_elbow_joint": 0.45242514315641724,
        "distance_shoulder_lift_joint": 0.23425703927928065,
        "distance_shoulder_pan_joint": 0.46447706387089865,
        "distance_wrist_1_joint": 0.25787854941321386,
        "distance_wrist_2_joint": 1.0909100207202116,
        "distance_wrist_3_joint": 0.10651436085588539,
        "smoothness": 0.0,
        "time": 0.062733839,
        "traj_len": 1.614454142209034,
        "weighted_distance": 2.0416364684098647
    },
    "planner": "ProjEST",
    "start": {
        "state": {
            "elbow_joint": 1.97154746011099,
            "shoulder_lift_joint": -1.13948474672311,
            "shoulder_pan_joint": 0.12281154466712228,
            "wrist_1_joint": -0.7804688027058302,
            "wrist_2_joint": 0.12958655903071145,
            "wrist_3_joint": 3.0906928834467795
        }
    },
    "waypoints": [
        {
            "positions": [
                0.12281154466712228,
                -1.13948474672311,
                1.97154746011099,
                -0.7804688027058302,
                0.12958655903071145,
                3.0906928834467795
            ]
        },
        {
            "positions": [
                0.05645767839985105,
                -1.1729500380487214,
                2.0361796234190495,
                -0.8173085954791465,
                0.28543084770502736,
                3.105909220711906
            ]
        },
        {
            "positions": [
                -0.009896187867420178,
                -1.206415329374333,
                2.100811786727109,
                -0.8541483882524628,
                0.44127513637934335,
                3.1211255579770323
            ]
        },
        {
            "positions": [
                -0.07625005413469142,
                -1.2398806206999444,
                2.1654439500351685,
                -0.8909881810257789,
                0.5971194250536592,
                3.136341895242159
            ]
        },
        {
            "positions": [
                -0.14260392040196262,
                -1.273345912025556,
                2.2300761133432285,
                -0.9278279737990952,
                0.7529637137279752,
                3.1515582325072855
            ]
        },
        {
            "positions": [
                -0.20895778666923387,
                -1.3068112033511676,
                2.294708276651288,
                -0.9646677665724115,
                0.9088080024022912,
                3.166774569772412
            ]
        },
        {
            "positions": [
                -0.2753116529365051,
                -1.3402764946767791,
                2.3593404399593476,
                -1.0015075593457277,
                1.064652291076607,
                3.1819909070375383
            ]
        },
        {
            "positions": [
                -0.34166551920377636,
                -1.3737417860023906,
                2.423972603267407,
                -1.038347352119044,
                1.220496579750923,
                3.197207244302665
            ]
        }
    ]
}{
    "goal": {
        "global_pose": {
            "orientation": {
                "w": 0.5084816217422485,
                "x": -0.49083608388900757,
                "y": 0.5182115435600281,
                "z": -0.4816462993621826
            },
            "position": {
                "x": 0.5540239810943604,
                "y": 0.030875300988554955,
                "z": 0.16403168439865112
            }
        },
        "name": "move_to_storage_A"
    },
    "id": "ProjEST_move_to_storage_A_25",
    "joint_names": [
        "shoulder_pan_joint",
        "shoulder_lift_joint",
        "elbow_joint",
        "wrist_1_joint",
        "wrist_2_joint",
        "wrist_3_joint"
    ],
    "metrics": {
        "cart_traj_len": 0.3531202280031898,
        "distance_elbow_joint": 0.44817990416441944,
        "distance_shoulder_lift_joint": 0.23285746611117597,
        "distance_shoulder_pan_joint": 0.46115369374168363,
        "distance_wrist_1_joint": 0.2417448513795013,
        "distance_wrist_2_joint": 1.1001337542156606,
        "distance_wrist_3_joint": 0.09738025948234075,
        "smoothness": 8.881784232165597e-16,
        "time": 0.032358192,
        "traj_len": 1.6066891202391276,
        "weighted_distance": 2.0293075305765327
    },
    "planner": "ProjEST",
    "start": {
        "state": {
            "elbow_joint": 1.9715472970024885,
            "shoulder_lift_joint": -1.1394870060712896,
            "shoulder_pan_joint": 0.12281152778156021,
            "wrist_1_joint": -0.780463741449964,
            "wrist_2_joint": 0.12958659822042276,
            "wrist_3_joint": 3.090690232415272
        }
    },
    "waypoints": [
        {
            "positions": [
                0.12281152778156021,
                -1.1394870060712896,
                1.9715472970024885,
                -0.780463741449964,
                0.12958659822042276,
                3.090690232415272
            ]
        },
        {
            "positions": [
                0.05693242867560541,
                -1.1727523583728863,
                2.0355729975974057,
                -0.8149987202184642,
                0.28674856310837427,
                3.1046016980556064
            ]
        },
        {
            "positions": [
                -0.008946670430349385,
                -1.2060177106744827,
                2.0995986981923225,
                -0.8495336989869644,
                0.4439105279963258,
                3.1185131636959404
            ]
        },
        {
            "positions": [
                -0.07482576953630418,
                -1.2392830629760794,
                2.1636243987872397,
                -0.8840686777554645,
                0.6010724928842773,
                3.132424629336275
            ]
        },
        {
            "positions": [
                -0.14070486864225898,
                -1.2725484152776758,
                2.227650099382157,
                -0.9186036565239647,
                0.7582344577722288,
                3.1463360949766095
            ]
        },
        {
            "positions": [
                -0.20658396774821378,
                -1.3058137675792725,
                2.291675799977074,
                -0.9531386352924649,
                0.9153964226601803,
                3.160247560616944
            ]
        },
        {
            "positions": [
                -0.27246306685416855,
                -1.339079119880869,
                2.355701500571991,
                -0.9876736140609651,
                1.072558387548132,
                3.174159026257278
            ]
        },
        {
            "positions": [
                -0.3383421659601234,
                -1.3723444721824656,
                2.419727201166908,
                -1.0222085928294653,
                1.2297203524360834,
                3.1880704918976126
            ]
        }
    ]
}