{
    "goal": {
        "global_pose": {
            "orientation": {
                "w": -0.4816463035849501,
                "x": 0.5182115481033762,
                "y": 0.4908360881923453,
                "z": -0.5084816262002911
            },
            "position": {
                "x": -0.8240239810943604,
                "y": 0.19912469901144506,
                "z": 0.16403168439865112
            }
        },
        "name": "move_to_storage_D"
    },
    "id": "ProjEST_move_to_storage_D_115",
    "joint_names": [
        "shoulder_pan_joint",
        "shoulder_lift_joint",
        "elbow_joint",
        "wrist_1_joint",
        "wrist_2_joint",
        "wrist_3_joint"
    ],
    "metrics": {
        "cart_traj_len": 5.369879334800689,
        "distance_elbow_joint": 4.2149696770823875,
        "distance_shoulder_lift_joint": 2.0322881103161983,
        "distance_shoulder_pan_joint": 3.705815109264534,
        "distance_wrist_1_joint": 3.1751835477826154,
        "distance_wrist_2_joint": 0.8705389381071719,
        "distance_wrist_3_joint": 3.1290002739840004,
        "smoothness": 0.3383227640562213,
        "time": 0.463563213,
        "traj_len": 4.1385741091029065,
        "weighted_distance": 5.237510734155559
    },
    "planner": "ProjEST",
    "start": {
        "state": {
            "elbow_joint": -2.384821988534728,
            "shoulder_lift_joint": -2.2788054721415256,
            "shoulder_pan_joint": -0.1854694642142757,
            "wrist_1_joint": 1.4845938289331202,
            "wrist_2_joint": 0.17898776772866878,
            "wrist_3_joint": 0.037105688729662994
        }
    },
    "waypoints": [
        {
            "positions": [
                -0.1854694642142757,
                -2.2788054721415256,
                -2.384821988534728,
                1.4845938289331202,
                0.17898776772866878,
                0.037105688729662994
            ]
        },
        {
            "positions": [
                -0.09884393677949554,
                -2.243814176217819,
                -2.245135469000875,
                1.397719925654671,
                0.21540319685940076,
                0.026459783210111894
            ]
        },
        {
            "positions": [
                -0.01221840934471538,
                -2.2088228802941123,
                -2.105448949467022,
                1.3108460223762217,
                0.25181862599013277,
                0.015813877690560797
            ]
        },
        {
            "positions": [
                0.07440711809006481,
                -2.1738315843704052,
                -1.965762429933169,
                1.2239721190977726,
                0.28823405512086475,
                0.005167972171009699
            ]
        },
        {
            "positions": [
                0.16103264552484495,
                -2.1388402884466986,
                -1.8260759103993163,
                1.1370982158193232,
                0.32464948425159673,
                -0.005477933348541401
            ]
        },
        {
            "positions": [
                0.24765817295962508,
                -2.103848992522992,
                -1.6863893908654632,
                1.0502243125408741,
                0.3610649133823287,
                -0.016123838868092502
            ]
        },
        {
            "positions": [
                0.33428370039440536,
                -2.0688576965992853,
                -1.5467028713316102,
                0.9633504092624249,
                0.39748034251306075,
                -0.026769744387643596
            ]
        },
        {
            "positions": [
                0.4209092278291855,
                -2.0338664006755787,
                -1.4070163517977572,
                0.8764765059839756,
                0.43389577164379267,
                -0.037415649907194704
            ]
        },
        {
            "positions": [
                0.5075347552639656,
                -1.9988751047518716,
                -1.2673298322639044,
                0.7896026027055264,
                0.4703112007745247,
                -0.0480615554267458
            ]
        },
        {
            "positions": [
                0.5941602826987458,
                -1.963883808828165,
                -1.1276433127300514,
                0.7027286994270772,
                0.5067266299052566,
                -0.05870746094629689
            ]
        },
        {
            "positions": [
                0.6807858101335259,
                -1.9288925129044583,
                -0.9879567931961986,
                0.6158547961486279,
                0.5431420590359887,
                -0.069353366465848
            ]
        },
        {
            "positions": [
                0.7674113375683062,
                -1.8939012169807514,
                -0.8482702736623455,
                0.5289808928701787,
                0.5795574881667206,
                -0.07999927198539909
            ]
        },
        {
            "positions": [
                0.8540368650030864,
                -1.8589099210570448,
                -0.7085837541284925,
                0.44210698959172956,
                0.6159729172974526,
                -0.09064517750495019
            ]
        },
        {
            "positions": [
                0.9406623924378664,
                -1.823918625133338,
                -0.5688972345946397,
                0.3552330863132802,
                0.6523883464281847,
                -0.1012910830245013
            ]
        },
        {
            "positions": [
                1.0272879198726466,
                -1.7889273292096313,
                -0.4292107150607867,
                0.2683591830348311,
                0.6888037755589166,
                -0.1119369885440524
            ]
        },
        {
            "positions": [
                1.1139134473074266,
                -1.7539360332859246,
                -0.28952419552693387,
                0.18148527975638173,
                0.7252192046896485,
                -0.12258289406360348
            ]
        },
        {
            "positions": [
                1.2005389747422068,
                -1.7189447373622178,
                -0.14983767599308073,
                0.09461137647793257,
                0.7616346338203805,
                -0.1332287995831546
            ]
        },
        {
            "positions": [
                1.3708319945603085,
                -1.7538277351189406,
                -0.14216601328442635,
                0.13483101277027904,
                0.7704062874004945,
                -0.23818029985883932
            ]
        },
        {
            "positions": [
                1.5411250143784099,
                -1.7887107328756633,
                -0.134494350575772,
                0.17505064906262552,
                0.7791779409806087,
                -0.34313180013452405
            ]
        },
        {
            "positions": [
                1.7114180341965115,
                -1.8235937306323862,
                -0.12682268786711762,
                0.215270285354972,
                0.7879495945607227,
                -0.4480833004102087
            ]
        },
        {
            "positions": [
                1.881711054014613,
                -1.858476728389109,
                -0.11915102515846325,
                0.2554899216473185,
                0.7967212481408368,
                -0.5530348006858934
            ]
        },
        {
            "positions": [
                2.0520040738327143,
                -1.8933597261458317,
                -0.11147936244980888,
                0.29570955793966497,
                0.8054929017209508,
                -0.6579863009615782
            ]
        },
        {
            "positions": [
                2.222297093650816,
                -1.9282427239025546,
                -0.1038076997411545,
                0.3359291942320114,
                0.8142645553010649,
                -0.7629378012372628
            ]
        },
        {
            "positions": [
                2.3925901134689176,
                -1.9631257216592772,
                -0.09613603703250014,
                0.3761488305243579,
                0.8230362088811789,
                -0.8678893015129475
            ]
        },
        {
            "positions": [
                2.562883133287019,
                -1.9980087194160001,
                -0.08846437432384577,
                0.41636846681670436,
                0.831807862461293,
                -0.9728408017886323
            ]
        },
        {
            "positions": [
                2.733176153105121,
                -2.0328917171727228,
                -0.08079271161519139,
                0.4565881031090509,
                0.840579516041407,
                -1.0777923020643172
            ]
        },
        {
            "positions": [
                2.903469172923222,
                -2.067774714929446,
                -0.07312104890653702,
                0.49680773940139733,
                0.849351169621521,
                -1.1827438023400019
            ]
        },
        {
            "positions": [
                3.0737621927413237,
                -2.1026577126861685,
                -0.06544938619788265,
                0.5370273756937438,
                0.8581228232016351,
                -1.2876953026156865
            ]
        },
        {
            "positions": [
                3.048952000946383,
                -2.0421735793410054,
                0.0398615623990919,
                0.4624282036875428,
                0.8687563722368687,
                -1.3879285960956116
            ]
        },
        {
            "positions": [
                3.024141809151442,
                -1.9816894459958418,
                0.14517251099606646,
                0.38782903168134175,
                0.8793899212721024,
                -1.4881618895755366
            ]
        },
        {
            "positions": [
                2.9993316173565012,
                -1.9212053126506785,
                0.250483459593041,
                0.3132298596751408,
                0.8900234703073361,
                -1.5883951830554617
            ]
        },
        {
            "positions": [
                2.9745214255615604,
                -1.8607211793055152,
                0.35579440819001557,
                0.23863068766893974,
                0.9006570193425697,
                -1.6886284765353867
            ]
        },
        {
            "positions": [
                2.9497112337666196,
                -1.800237045960352,
                0.46110535678699016,
                0.16403151566273871,
                0.9112905683778033,
                -1.7888617700153118
            ]
        },
        {
            "positions": [
                2.9249010419716788,
                -1.7397529126151887,
                0.5664163053839647,
                0.08943234365653774,
                0.9219241174130369,
                -1.8890950634952368
            ]
        },
        {
            "positions": [
                2.900090850176738,
                -1.6792687792700254,
                0.6717272539809394,
                0.014833171650336707,
                0.9325576664482707,
                -1.9893283569751619
            ]
        },
        {
            "positions": [
                2.875280658381797,
                -1.618784645924862,
                0.7770382025779138,
                -0.059766000355864324,
                0.9431912154835043,
                -2.089561650455087
            ]
        },
        {
            "positions": [
                2.8504704665868563,
                -1.5583005125796987,
                0.8823491511748884,
                -0.13436517236206535,
                0.9538247645187379,
                -2.189794943935012
            ]
        },
        {
            "positions": [
                2.8256602747919155,
                -1.4978163792345354,
                0.987660099771863,
                -0.20896434436826639,
                0.9644583135539715,
                -2.290028237414937
            ]
        },
        {
            "positions": [
                2.8008500829969747,
                -1.437332245889372,
                1.0929710483688377,
                -0.2835635163744674,
                0.9750918625892051,
                -2.390261530894862
            ]
        },
        {
            "positions": [
                2.776039891202034,
                -1.376848112544209,
                1.198281996965812,
                -0.35816268838066834,
                0.9857254116244387,
                -2.490494824374787
            ]
        },
        {
            "positions": [
                2.751229699407093,
                -1.3163639791990454,
                1.3035929455627866,
                -0.43276186038686937,
                0.9963589606596724,
                -2.590728117854712
            ]
        },
        {
            "positions": [
                2.7264195076121522,
                -1.2558798458538822,
                1.4089038941597614,
                -0.5073610323930704,
                1.0069925096949062,
                -2.690961411334637
            ]
        },
        {
            "positions": [
                2.7016093158172114,
                -1.1953957125087187,
                1.514214842756736,
                -0.5819602043992715,
                1.0176260587301398,
                -2.7911947048145622
            ]
        },
        {
            "positions": [
                2.6767991240222706,
                -1.1349115791635556,
                1.6195257913537102,
                -0.6565593764054725,
                1.0282596077653734,
                -2.8914279982944873
            ]
        },
        {
            "positions": [
                2.65198893222733,
                -1.0744274458183922,
                1.724836739950685,
                -0.7311585484116734,
                1.038893156800607,
                -2.9916612917744123
            ]
        },
        {
            "positions": [
                2.627178740432389,
                -1.0139433124732289,
                1.8301476885476595,
                -0.8057577204178745,
                1.0495267058358406,
                -3.0918945852543374
            ]
        }
    ]
}