{
    "goal": {
        "global_pose": {
            "orientation": {
                "w": 0.7031023480610252,
                "x": -0.7110244013736278,
                "y": 0.0077485991402295624,
                "z": 0.005598929693374583
            },
            "position": {
                "x": -0.8841497679147869,
                "y": 0.44412534475326537,
                "z": 0.3711530566215515
            }
        },
        "name": "move_to_auspresseinheit_D"
    },
    "id": "ProjEST_move_to_auspresseinheit_D_27",
    "joint_names": [
        "shoulder_pan_joint",
        "shoulder_lift_joint",
        "elbow_joint",
        "wrist_1_joint",
        "wrist_2_joint",
        "wrist_3_joint"
    ],
    "metrics": {
        "cart_traj_len": 0.34383020651081087,
        "distance_elbow_joint": 0.6562238634599824,
        "distance_shoulder_lift_joint": 0.13215102496148168,
        "distance_shoulder_pan_joint": 0.13418676808634303,
        "distance_wrist_1_joint": 0.5836813769652451,
        "distance_wrist_2_joint": 1.442282739681417,
        "distance_wrist_3_joint": 0.04838101068539569,
        "smoothness": 0.0,
        "time": 0.210482564,
        "traj_len": 1.7311576426888065,
        "weighted_distance": 2.262660584766818
    },
    "planner": "ProjEST",
    "start": {
        "state": {
            "elbow_joint": -1.8275523626775212,
            "shoulder_lift_joint": -2.126789852344167,
            "shoulder_pan_joint": -0.03513704404078235,
            "wrist_1_joint": -2.347782403156801,
            "wrist_2_joint": -1.6058999987535132,
            "wrist_3_joint": -3.0880379163319196
        }
    },
    "waypoints": [
        {
            "positions": [
                -0.03513704404078235,
                -2.126789852344167,
                -1.8275523626775212,
                -2.347782403156801,
                -1.6058999987535132,
                -3.0880379163319196
            ]
        },
        {
            "positions": [
                -0.05191039005157523,
                -2.143308730464352,
                -1.7455243797450235,
                -2.4207425752774565,
                -1.425614656293336,
                -3.081990289996245
            ]
        },
        {
            "positions": [
                -0.0686837360623681,
                -2.1598276085845374,
                -1.6634963968125256,
                -2.493702747398112,
                -1.245329313833159,
                -3.0759426636605705
            ]
        },
        {
            "positions": [
                -0.085457082073161,
                -2.1763464867047224,
                -1.5814684138800277,
                -2.566662919518768,
                -1.0650439713729818,
                -3.0698950373248963
            ]
        },
        {
            "positions": [
                -0.10223042808395386,
                -2.1928653648249075,
                -1.49944043094753,
                -2.6396230916394234,
                -0.8847586289128047,
                -3.0638474109892218
            ]
        },
        {
            "positions": [
                -0.11900377409474674,
                -2.209384242945093,
                -1.4174124480150323,
                -2.712583263760079,
                -0.7044732864526275,
                -3.057799784653547
            ]
        },
        {
            "positions": [
                -0.13577712010553963,
                -2.225903121065278,
                -1.3353844650825344,
                -2.7855434358807347,
                -0.5241879439924504,
                -3.051752158317873
            ]
        },
        {
            "positions": [
                -0.1525504661163325,
                -2.2424219991854635,
                -1.2533564821500365,
                -2.8585036080013904,
                -0.34390260153227326,
                -3.0457045319821985
            ]
        },
        {
            "positions": [
                -0.16932381212712538,
                -2.2589408773056485,
                -1.1713284992175388,
                -2.931463780122046,
                -0.16361725907209615,
                -3.039656905646524
            ]
        }
    ]
}