{
    "goal": {
        "global_pose": {
            "orientation": {
                "w": 0.7047431468963623,
                "x": -0.7094548344612122,
                "y": 0.0024358443915843964,
                "z": -0.0022348060738295317
            },
            "position": {
                "x": 0.6094750761985779,
                "y": 0.3671506643295288,
                "z": 0.19426114857196808
            }
        },
        "name": "move_to_magneteinheit_A"
    },
    "id": "ProjEST_move_to_magneteinheit_A_148",
    "joint_names": [
        "shoulder_pan_joint",
        "shoulder_lift_joint",
        "elbow_joint",
        "wrist_1_joint",
        "wrist_2_joint",
        "wrist_3_joint"
    ],
    "metrics": {
        "cart_traj_len": 3.4728788343230286,
        "distance_elbow_joint": 3.909256304535992,
        "distance_shoulder_lift_joint": 0.7887757839542641,
        "distance_shoulder_pan_joint": 2.946383475799138,
        "distance_wrist_1_joint": 3.4675175653794374,
        "distance_wrist_2_joint": 1.9006124813583234,
        "distance_wrist_3_joint": 2.484054106650057,
        "smoothness": 0.2971790785084433,
        "time": 0.21254549,
        "traj_len": 3.936572077033165,
        "weighted_distance": 5.082601497040181
    },
    "planner": "ProjEST",
    "start": {
        "state": {
            "elbow_joint": -1.9196185241190666,
            "shoulder_lift_joint": -1.2443396400964142,
            "shoulder_pan_joint": 2.6996025414629847,
            "wrist_1_joint": -1.5485510000780065,
            "wrist_2_joint": -1.5709468930060704,
            "wrist_3_joint": 0.4420197071253992
        }
    },
    "waypoints": [
        {
            "positions": [
                2.6996025414629847,
                -1.2443396400964142,
                -1.9196185241190666,
                -1.5485510000780065,
                -1.5709468930060704,
                0.4420197071253992
            ]
        },
        {
            "positions": [
                2.594257411894744,
                -1.2329361476522087,
                -1.8222410055436804,
                -1.4651697846258263,
                -1.5165367380840624,
                0.48291413631237395
            ]
        },
        {
            "positions": [
                2.4889122823265035,
                -1.2215326552080032,
                -1.7248634869682942,
                -1.381788569173646,
                -1.4621265831620542,
                0.5238085654993487
            ]
        },
        {
            "positions": [
                2.3835671527582627,
                -1.2101291627637978,
                -1.6274859683929077,
                -1.2984073537214658,
                -1.4077164282400463,
                0.5647029946863236
            ]
        },
        {
            "positions": [
                2.278222023190022,
                -1.198725670319592,
                -1.5301084498175215,
                -1.2150261382692855,
                -1.3533062733180383,
                0.6055974238732984
            ]
        },
        {
            "positions": [
                2.172876893621781,
                -1.1873221778753866,
                -1.4327309312421352,
                -1.1316449228171053,
                -1.2988961183960301,
                0.6464918530602731
            ]
        },
        {
            "positions": [
                2.0675317640535402,
                -1.1759186854311812,
                -1.335353412666749,
                -1.048263707364925,
                -1.2444859634740222,
                0.6873862822472478
            ]
        },
        {
            "positions": [
                1.9621866344852996,
                -1.1645151929869757,
                -1.2379758940913628,
                -0.9648824919127447,
                -1.190075808552014,
                0.7282807114342227
            ]
        },
        {
            "positions": [
                1.856841504917059,
                -1.1531117005427702,
                -1.1405983755159763,
                -0.8815012764605645,
                -1.135665653630006,
                0.7691751406211975
            ]
        },
        {
            "positions": [
                1.7514963753488182,
                -1.1417082080985648,
                -1.0432208569405903,
                -0.7981200610083843,
                -1.081255498707998,
                0.8100695698081724
            ]
        },
        {
            "positions": [
                1.6461512457805776,
                -1.130304715654359,
                -0.9458433383652038,
                -0.714738845556204,
                -1.0268453437859901,
                0.8509639989951471
            ]
        },
        {
            "positions": [
                1.5408061162123368,
                -1.1189012232101536,
                -0.8484658197898176,
                -0.6313576301040238,
                -0.972435188863982,
                0.8918584281821218
            ]
        },
        {
            "positions": [
                1.4354609866440962,
                -1.1074977307659482,
                -0.7510883012144314,
                -0.5479764146518435,
                -0.918025033941974,
                0.9327528573690966
            ]
        },
        {
            "positions": [
                1.3301158570758553,
                -1.0960942383217427,
                -0.6537107826390449,
                -0.4645951991996633,
                -0.8636148790199658,
                0.9736472865560715
            ]
        },
        {
            "positions": [
                1.2247707275076145,
                -1.0846907458775372,
                -0.5563332640636587,
                -0.38121398374748283,
                -0.8092047240979577,
                1.0145417157430463
            ]
        },
        {
            "positions": [
                1.119425597939374,
                -1.0732872534333318,
                -0.45895574548827245,
                -0.2978327682953028,
                -0.7547945691759498,
                1.0554361449300211
            ]
        },
        {
            "positions": [
                1.0140804683711333,
                -1.061883760989126,
                -0.3615782269128862,
                -0.21445155284312256,
                -0.7003844142539417,
                1.0963305741169957
            ]
        },
        {
            "positions": [
                0.9087353388028925,
                -1.0504802685449206,
                -0.26420070833749976,
                -0.13107033739094232,
                -0.6459742593319336,
                1.1372250033039708
            ]
        },
        {
            "positions": [
                0.8033902092346519,
                -1.0390767761007151,
                -0.16682318976211374,
                -0.04768912193876207,
                -0.5915641044099257,
                1.1781194324909454
            ]
        },
        {
            "positions": [
                0.6980450796664113,
                -1.0276732836565097,
                -0.06944567118672729,
                0.03569209351341818,
                -0.5371539494879176,
                1.21901386167792
            ]
        },
        {
            "positions": [
                0.5926999500981704,
                -1.0162697912123042,
                0.027931847388658948,
                0.11907330896559842,
                -0.48274379456590966,
                1.259908290864895
            ]
        },
        {
            "positions": [
                0.4873548205299296,
                -1.0048662987680987,
                0.12530936596404496,
                0.20245452441777867,
                -0.4283336396439017,
                1.3008027200518697
            ]
        },
        {
            "positions": [
                0.3820096909616888,
                -0.9934628063238932,
                0.22268688453943142,
                0.2858357398699589,
                -0.3739234847218935,
                1.3416971492388445
            ]
        },
        {
            "positions": [
                0.27666456139344797,
                -0.9820593138796876,
                0.3200644031148179,
                0.36921695532213916,
                -0.31951332979988534,
                1.3825915784258194
            ]
        },
        {
            "positions": [
                0.1713194318252076,
                -0.9706558214354821,
                0.4174419216902039,
                0.4525981707743194,
                -0.2651031748778776,
                1.423486007612794
            ]
        },
        {
            "positions": [
                0.06597430225696682,
                -0.9592523289912767,
                0.5148194402655903,
                0.5359793862264998,
                -0.21069301995586945,
                1.464380436799769
            ]
        },
        {
            "positions": [
                0.0477504161329083,
                -0.9101523962370819,
                0.573310564070717,
                0.6465510698490377,
                -0.24292012922302678,
                1.3489128012318783
            ]
        },
        {
            "positions": [
                0.029526530008849784,
                -0.8610524634828872,
                0.6318016878758437,
                0.7571227534715754,
                -0.27514723849018413,
                1.2334451656639878
            ]
        },
        {
            "positions": [
                0.011302643884791262,
                -0.8119525307286924,
                0.6902928116809703,
                0.8676944370941133,
                -0.30737434775734146,
                1.117977530096097
            ]
        },
        {
            "positions": [
                -0.006921242239267253,
                -0.7628525979744978,
                0.748783935486097,
                0.9782661207166512,
                -0.3396014570244988,
                1.0025098945282065
            ]
        },
        {
            "positions": [
                -0.025145128363325775,
                -0.713752665220303,
                0.8072750592912237,
                1.088837804339189,
                -0.37182856629165617,
                0.8870422589603157
            ]
        },
        {
            "positions": [
                -0.0433690144873843,
                -0.6646527324661082,
                0.8657661830963503,
                1.199409487961727,
                -0.4040556755588135,
                0.7715746233924251
            ]
        },
        {
            "positions": [
                -0.06159290061144281,
                -0.6155527997119136,
                0.924257306901477,
                1.3099811715842649,
                -0.4362827848259708,
                0.6561069878245345
            ]
        },
        {
            "positions": [
                -0.04057764510206424,
                -0.634384042334863,
                1.0471506869683533,
                1.3829898592784722,
                -0.40060650088556793,
                0.5777112562430761
            ]
        },
        {
            "positions": [
                -0.01956238959268567,
                -0.6532152849578126,
                1.1700440670352297,
                1.4559985469726795,
                -0.3649302169451651,
                0.49931552466161755
            ]
        },
        {
            "positions": [
                0.0014528659166928928,
                -0.672046527580762,
                1.2929374471021062,
                1.5290072346668868,
                -0.3292539330047622,
                0.42091979308015914
            ]
        },
        {
            "positions": [
                0.02246812142607147,
                -0.6908777702037114,
                1.4158308271689826,
                1.6020159223610944,
                -0.29357764906435935,
                0.3425240614987007
            ]
        },
        {
            "positions": [
                0.04348337693545005,
                -0.709709012826661,
                1.538724207235859,
                1.6750246100553015,
                -0.25790136512395645,
                0.2641283299172422
            ]
        },
        {
            "positions": [
                0.06449863244482859,
                -0.7285402554496104,
                1.6616175873027355,
                1.748033297749509,
                -0.22222508118355355,
                0.18573259833578382
            ]
        },
        {
            "positions": [
                0.08551388795420717,
                -0.7473714980725599,
                1.7845109673696118,
                1.8210419854437163,
                -0.18654879724315068,
                0.1073368667543253
            ]
        },
        {
            "positions": [
                0.10652914346358575,
                -0.7662027406955094,
                1.9074043474364881,
                1.8940506731379236,
                -0.1508725133027478,
                0.028941135172866887
            ]
        },
        {
            "positions": [
                0.12359513311326678,
                -0.775541743281677,
                1.9896377804169256,
                1.9189665653014323,
                -0.12151394138794919,
                0.002687059824082251
            ]
        }
    ]
}