{
    "goal": {
        "global_pose": {
            "orientation": {
                "w": 0.005598929693374612,
                "x": 0.007748599140229565,
                "y": 0.7110244013736278,
                "z": -0.7031023480610252
            },
            "position": {
                "x": -0.8858502320852131,
                "y": -0.7141253447532654,
                "z": 0.3711530566215515
            }
        },
        "name": "move_to_auspresseinheit_C"
    },
    "id": "ProjEST_move_to_auspresseinheit_C_78",
    "joint_names": [
        "shoulder_pan_joint",
        "shoulder_lift_joint",
        "elbow_joint",
        "wrist_1_joint",
        "wrist_2_joint",
        "wrist_3_joint"
    ],
    "metrics": {
        "cart_traj_len": 0.4919893392162043,
        "distance_elbow_joint": 0.9875855570349481,
        "distance_shoulder_lift_joint": 0.31919247150574337,
        "distance_shoulder_pan_joint": 0.2563900509264041,
        "distance_wrist_1_joint": 0.6572899279179127,
        "distance_wrist_2_joint": 1.3081934930768835,
        "distance_wrist_3_joint": 0.044918439713400815,
        "smoothness": 6.45947944157498e-16,
        "time": 2.619265817,
        "traj_len": 1.890388833064587,
        "weighted_distance": 2.372528238103161
    },
    "planner": "ProjEST",
    "start": {
        "state": {
            "elbow_joint": 1.7527959577737207,
            "shoulder_lift_joint": -0.9740617694225068,
            "shoulder_pan_joint": -2.967991417825858,
            "wrist_1_joint": -0.759517768980727,
            "wrist_2_joint": 1.7443932448377408,
            "wrist_3_joint": -3.0840537646736568
        }
    },
    "waypoints": [
        {
            "positions": [
                -2.967991417825858,
                -0.9740617694225068,
                1.7527959577737207,
                -0.759517768980727,
                1.7443932448377408,
                -3.0840537646736568
            ]
        },
        {
            "positions": [
                -2.9423524127332175,
                -0.9421425222719324,
                1.6540374020702258,
                -0.6937887761889358,
                1.6135738955300525,
                -3.088545608644997
            ]
        },
        {
            "positions": [
                -2.916713407640577,
                -0.9102232751213581,
                1.555278846366731,
                -0.6280597833971444,
                1.4827545462223641,
                -3.093037452616337
            ]
        },
        {
            "positions": [
                -2.891074402547937,
                -0.8783040279707838,
                1.4565202906632362,
                -0.5623307906053532,
                1.3519351969146758,
                -3.097529296587677
            ]
        },
        {
            "positions": [
                -2.8654353974552964,
                -0.8463847808202094,
                1.3577617349597415,
                -0.4966017978135619,
                1.2211158476069874,
                -3.102021140559017
            ]
        },
        {
            "positions": [
                -2.839796392362656,
                -0.8144655336696351,
                1.2590031792562466,
                -0.4308728050217706,
                1.090296498299299,
                -3.106512984530357
            ]
        },
        {
            "positions": [
                -2.8141573872700154,
                -0.7825462865190608,
                1.1602446235527517,
                -0.3651438122299793,
                0.9594771489916107,
                -3.1110048285016974
            ]
        },
        {
            "positions": [
                -2.788518382177375,
                -0.7506270393684864,
                1.061486067849257,
                -0.2994148194381881,
                0.8286577996839225,
                -3.1154966724730375
            ]
        },
        {
            "positions": [
                -2.762879377084735,
                -0.7187077922179121,
                0.9627275121457621,
                -0.2336858266463968,
                0.697838450376234,
                -3.1199885164443772
            ]
        },
        {
            "positions": [
                -2.7372403719920944,
                -0.6867885450673377,
                0.8639689564422673,
                -0.16795683385460547,
                0.5670191010685457,
                -3.1244803604157174
            ]
        },
        {
            "positions": [
                -2.711601366899454,
                -0.6548692979167634,
                0.7652104007387726,
                -0.10222784106281424,
                0.43619975176085746,
                -3.1289722043870576
            ]
        }
    ]
}