{
    "goal": {
        "global_pose": {
            "orientation": {
                "w": 0.7047431493862688,
                "x": -0.7094548369677653,
                "y": 0.0024358444001904,
                "z": -0.0022348060817251984
            },
            "position": {
                "x": -0.39052492380142206,
                "y": 0.3671506643295288,
                "z": 0.19426114857196808
            }
        },
        "name": "move_to_magneteinheit_D"
    },
    "id": "ProjEST_move_to_magneteinheit_D_81",
    "joint_names": [
        "shoulder_pan_joint",
        "shoulder_lift_joint",
        "elbow_joint",
        "wrist_1_joint",
        "wrist_2_joint",
        "wrist_3_joint"
    ],
    "metrics": {
        "cart_traj_len": 4.609769586913198,
        "distance_elbow_joint": 3.159850317214655,
        "distance_shoulder_lift_joint": 1.0979840129080056,
        "distance_shoulder_pan_joint": 3.197363022310159,
        "distance_wrist_1_joint": 2.573195987888332,
        "distance_wrist_2_joint": 2.41685680268711,
        "distance_wrist_3_joint": 6.275750053401229,
        "smoothness": 0.1141943778683128,
        "time": 0.523822098,
        "traj_len": 4.326777114251378,
        "weighted_distance": 6.021839676858506
    },
    "planner": "ProjEST",
    "start": {
        "state": {
            "elbow_joint": 0.749534889911806,
            "shoulder_lift_joint": -0.6476975780787326,
            "shoulder_pan_joint": -2.711696901376241,
            "wrist_1_joint": -0.07506478083263063,
            "wrist_2_joint": 0.43296659715538205,
            "wrist_3_joint": -3.14703540197715
        }
    },
    "waypoints": [
        {
            "positions": [
                -2.711696901376241,
                -0.6476975780787326,
                0.749534889911806,
                -0.07506478083263063,
                0.43296659715538205,
                -3.14703540197715
            ]
        },
        {
            "positions": [
                -2.713402928565798,
                -0.7091264154363954,
                0.7553571540260606,
                -0.022181486043202525,
                0.4790321533748038,
                -2.9850056568829815
            ]
        },
        {
            "positions": [
                -2.7151089557553547,
                -0.7705552527940583,
                0.7611794181403152,
                0.03070180874622558,
                0.5250977095942255,
                -2.822975911788813
            ]
        },
        {
            "positions": [
                -2.7168149829449115,
                -0.8319840901517213,
                0.7670016822545698,
                0.08358510353565368,
                0.5711632658136473,
                -2.6609461666946443
            ]
        },
        {
            "positions": [
                -2.7185210101344683,
                -0.8934129275093841,
                0.7728239463688245,
                0.13646839832508179,
                0.6172288220330691,
                -2.498916421600476
            ]
        },
        {
            "positions": [
                -2.6898341317701053,
                -0.9325574551055054,
                0.7642033332191286,
                0.1512747196394428,
                0.6501546885614105,
                -2.3758607526509596
            ]
        },
        {
            "positions": [
                -2.6611472534057423,
                -0.9717019827016267,
                0.7555827200694327,
                0.16608104095380383,
                0.6830805550897519,
                -2.2528050837014435
            ]
        },
        {
            "positions": [
                -2.573038484611759,
                -0.9935406167464449,
                0.6889993755527724,
                0.13057719757353242,
                0.704986527807904,
                -2.0980045325074985
            ]
        },
        {
            "positions": [
                -2.484929715817776,
                -1.0153792507912631,
                0.6224160310361121,
                0.09507335419326103,
                0.7268925005260561,
                -1.943203981313553
            ]
        },
        {
            "positions": [
                -2.3968209470237927,
                -1.0372178848360813,
                0.5558326865194517,
                0.05956951081298961,
                0.7487984732442083,
                -1.7884034301196081
            ]
        },
        {
            "positions": [
                -2.3087121782298095,
                -1.0590565188808996,
                0.48924934200279147,
                0.024065667432718235,
                0.7707044459623605,
                -1.633602878925663
            ]
        },
        {
            "positions": [
                -2.220603409435826,
                -1.0808951529257178,
                0.42266599748613115,
                -0.01143817594755317,
                0.7926104186805126,
                -1.4788023277317177
            ]
        },
        {
            "positions": [
                -2.1324946406418426,
                -1.102733786970536,
                0.3560826529694708,
                -0.0469420193278246,
                0.8145163913986648,
                -1.3240017765377725
            ]
        },
        {
            "positions": [
                -2.0443858718478594,
                -1.1245724210153543,
                0.28949930845281047,
                -0.08244586270809598,
                0.836422364116817,
                -1.1692012253438273
            ]
        },
        {
            "positions": [
                -1.9562771030538761,
                -1.1464110550601725,
                0.2229159639361502,
                -0.11794970608836736,
                0.8583283368349691,
                -1.0144006741498823
            ]
        },
        {
            "positions": [
                -1.868168334259893,
                -1.1682496891049905,
                0.15633261941948984,
                -0.15345354946863876,
                0.8802343095531213,
                -0.8596001229559371
            ]
        },
        {
            "positions": [
                -1.7800595654659097,
                -1.1900883231498087,
                0.08974927490282958,
                -0.18895739284891017,
                0.9021402822712734,
                -0.7047995717619919
            ]
        },
        {
            "positions": [
                -1.6919507966719265,
                -1.211926957194627,
                0.02316593038616932,
                -0.22446123622918157,
                0.9240462549894256,
                -0.549999020568047
            ]
        },
        {
            "positions": [
                -1.603842027877943,
                -1.2337655912394452,
                -0.04341741413049116,
                -0.25996507960945303,
                0.9459522277075778,
                -0.3951984693741015
            ]
        },
        {
            "positions": [
                -1.5157332590839596,
                -1.2556042252842634,
                -0.11000075864715142,
                -0.2954689229897244,
                0.96785820042573,
                -0.24039791818015654
            ]
        },
        {
            "positions": [
                -1.4276244902899764,
                -1.2774428593290816,
                -0.1765841031638118,
                -0.3309727663699958,
                0.9897641731438822,
                -0.08559736698621112
            ]
        },
        {
            "positions": [
                -1.3395157214959932,
                -1.2992814933738999,
                -0.24316744768047205,
                -0.3664766097502672,
                1.0116701458620343,
                0.06920318420773386
            ]
        },
        {
            "positions": [
                -1.25140695270201,
                -1.321120127418718,
                -0.3097507921971323,
                -0.40198045313053854,
                1.0335761185801864,
                0.22400373540167884
            ]
        },
        {
            "positions": [
                -1.1632981839080268,
                -1.3429587614635363,
                -0.3763341367137927,
                -0.43748429651081,
                1.0554820912983387,
                0.37880428659562426
            ]
        },
        {
            "positions": [
                -1.0751894151140433,
                -1.3647973955083545,
                -0.44291748123045305,
                -0.47298813989108135,
                1.0773880640164908,
                0.5336048377895692
            ]
        },
        {
            "positions": [
                -0.9870806463200601,
                -1.3866360295531728,
                -0.5095008257471132,
                -0.5084919832713528,
                1.0992940367346429,
                0.6884053889835142
            ]
        },
        {
            "positions": [
                -0.8989718775260769,
                -1.4084746635979908,
                -0.5760841702637736,
                -0.5439958266516242,
                1.121200009452795,
                0.8432059401774596
            ]
        },
        {
            "positions": [
                -0.8108631087320937,
                -1.430313297642809,
                -0.6426675147804339,
                -0.5794996700318955,
                1.1431059821709473,
                0.9980064913714046
            ]
        },
        {
            "positions": [
                -0.7227543399381104,
                -1.4521519316876272,
                -0.7092508592970941,
                -0.615003513412167,
                1.1650119548890994,
                1.1528070425653496
            ]
        },
        {
            "positions": [
                -0.634645571144127,
                -1.4739905657324455,
                -0.7758342038137547,
                -0.6505073567924384,
                1.1869179276072517,
                1.3076075937592955
            ]
        },
        {
            "positions": [
                -0.5465368023501438,
                -1.4958291997772637,
                -0.842417548330415,
                -0.6860112001727099,
                1.2088239003254038,
                1.4624081449532405
            ]
        },
        {
            "positions": [
                -0.45842803355616013,
                -1.517667833822082,
                -0.9090008928470752,
                -0.7215150435529812,
                1.2307298730435559,
                1.6172086961471854
            ]
        },
        {
            "positions": [
                -0.3703192647621769,
                -1.5395064678669002,
                -0.9755842373637356,
                -0.7570188869332526,
                1.2526358457617082,
                1.7720092473411304
            ]
        },
        {
            "positions": [
                -0.2822104959681937,
                -1.5613451019117184,
                -1.042167581880396,
                -0.792522730313524,
                1.2745418184798603,
                1.9268097985350758
            ]
        },
        {
            "positions": [
                -0.19410172717421048,
                -1.5831837359565366,
                -1.1087509263970563,
                -0.8280265736937954,
                1.2964477911980126,
                2.0816103497290213
            ]
        },
        {
            "positions": [
                -0.10599295838022726,
                -1.6050223700013548,
                -1.1753342709137165,
                -0.8635304170740667,
                1.3183537639161647,
                2.236410900922966
            ]
        },
        {
            "positions": [
                -0.01788418958624393,
                -1.626861004046173,
                -1.2419176154303768,
                -0.8990342604543382,
                1.3402597366343167,
                2.391211452116911
            ]
        },
        {
            "positions": [
                9.069466926740766e-07,
                -1.6267146871882086,
                -1.3446252469239848,
                -0.9826740217382995,
                1.243960638313442,
                2.450436407688671
            ]
        },
        {
            "positions": [
                0.01788600347962928,
                -1.626568370330244,
                -1.447332878417593,
                -1.0663137830222609,
                1.1476615399925674,
                2.509661363260431
            ]
        },
        {
            "positions": [
                0.03577110001256588,
                -1.6264220534722795,
                -1.550040509911201,
                -1.1499535443062223,
                1.0513624416716927,
                2.5688863188321904
            ]
        },
        {
            "positions": [
                0.05365619654550249,
                -1.626275736614315,
                -1.6527481414048089,
                -1.2335933055901838,
                0.955063343350818,
                2.6281112744039503
            ]
        },
        {
            "positions": [
                0.0715412930784391,
                -1.6261294197563507,
                -1.755455772898417,
                -1.3172330668741452,
                0.8587642450299431,
                2.68733622997571
            ]
        },
        {
            "positions": [
                0.0894263896113757,
                -1.6259831028983862,
                -1.858163404392025,
                -1.4008728281581064,
                0.7624651467090685,
                2.74656118554747
            ]
        },
        {
            "positions": [
                0.1073114861443123,
                -1.6258367860404217,
                -1.9608710358856332,
                -1.4845125894420677,
                0.6661660483881937,
                2.8057861411192295
            ]
        },
        {
            "positions": [
                0.1251965826772489,
                -1.6256904691824572,
                -2.063578667379241,
                -1.568152350726029,
                0.5698669500673191,
                2.8650110966909894
            ]
        },
        {
            "positions": [
                0.1430816792101855,
                -1.6255441523244927,
                -2.166286298872849,
                -1.6517921120099905,
                0.47356785174644433,
                2.9242360522627493
            ]
        },
        {
            "positions": [
                0.08344766524828304,
                -1.6469833602306756,
                -2.2039109056547956,
                -1.74703001330548,
                0.3548402762069237,
                2.96265788421239
            ]
        },
        {
            "positions": [
                0.023813651286380563,
                -1.6684225681368585,
                -2.2415355124367418,
                -1.8422679146009695,
                0.23611270066740309,
                3.001079716162031
            ]
        },
        {
            "positions": [
                -0.03582036267552188,
                -1.6898617760430414,
                -2.2791601192186883,
                -1.9375058158964589,
                0.11738512512788246,
                3.039501548111672
            ]
        },
        {
            "positions": [
                -0.09545437663742437,
                -1.7113009839492244,
                -2.3167847260006345,
                -2.0327437171919485,
                -0.001342450411638163,
                3.077923380061313
            ]
        },
        {
            "positions": [
                -0.15508839059932683,
                -1.7327401918554073,
                -2.354409332782581,
                -2.127981618487438,
                -0.12007002595115876,
                3.1163452120109536
            ]
        },
        {
            "positions": [
                -0.1858545449970952,
                -1.7430478875433775,
                -2.3637373143888114,
                -2.165969125148094,
                -0.169303926573858,
                3.128714651424074
            ]
        }
    ]
}