{
    "goal": {
        "global_pose": {
            "orientation": {
                "w": 0.5084816217422485,
                "x": -0.49083608388900757,
                "y": 0.5182115435600281,
                "z": -0.4816462993621826
            },
            "position": {
                "x": 0.5540239810943604,
                "y": 0.030875300988554955,
                "z": 0.16403168439865112
            }
        },
        "name": "move_to_storage_A"
    },
    "id": "ProjEST_move_to_storage_A_68",
    "joint_names": [
        "shoulder_pan_joint",
        "shoulder_lift_joint",
        "elbow_joint",
        "wrist_1_joint",
        "wrist_2_joint",
        "wrist_3_joint"
    ],
    "metrics": {
        "cart_traj_len": 0.3539386401655318,
        "distance_elbow_joint": 0.45092488131135977,
        "distance_shoulder_lift_joint": 0.23503485868865082,
        "distance_shoulder_pan_joint": 0.46578822470286535,
        "distance_wrist_1_joint": 0.2428294825801146,
        "distance_wrist_2_joint": 1.0883438832735495,
        "distance_wrist_3_joint": 0.10476023550470837,
        "smoothness": 2.2204460668324854e-16,
        "time": 0.037535184,
        "traj_len": 1.6086272302995646,
        "weighted_distance": 2.031840397994963
    },
    "planner": "ProjEST",
    "start": {
        "state": {
            "elbow_joint": 1.971548259319323,
            "shoulder_lift_joint": -1.1394851275133948,
            "shoulder_pan_joint": 0.1228115487234821,
            "wrist_1_joint": -0.7804723859257726,
            "wrist_2_joint": 0.12958671773740124,
            "wrist_3_joint": -3.192489227718131
        }
    },
    "waypoints": [
        {
            "positions": [
                0.1228115487234821,
                -1.1394851275133948,
                1.971548259319323,
                -0.7804723859257726,
                0.12958671773740124,
                -3.192489227718131
            ]
        },
        {
            "positions": [
                0.056270373765929915,
                -1.1730615358974879,
                2.03596609950666,
                -0.8151623120086461,
                0.2850644153479083,
                -3.177523479788887
            ]
        },
        {
            "positions": [
                -0.01027080119162227,
                -1.2066379442815807,
                2.100383939693997,
                -0.8498522380915197,
                0.4405421129584154,
                -3.162557731859643
            ]
        },
        {
            "positions": [
                -0.07681197614917445,
                -1.2402143526656737,
                2.1648017798813344,
                -0.8845421641743931,
                0.5960198105689224,
                -3.147591983930399
            ]
        },
        {
            "positions": [
                -0.14335315110672664,
                -1.2737907610497667,
                2.2292196200686716,
                -0.9192320902572667,
                0.7514975081794295,
                -3.1326262360011548
            ]
        },
        {
            "positions": [
                -0.20989432606427888,
                -1.3073671694338598,
                2.293637460256009,
                -0.9539220163401402,
                0.9069752057899366,
                -3.1176604880719108
            ]
        },
        {
            "positions": [
                -0.276435501021831,
                -1.3409435778179526,
                2.3580553004433455,
                -0.9886119424230138,
                1.0624529034004435,
                -3.1026947401426668
            ]
        },
        {
            "positions": [
                -0.34297667597938325,
                -1.3745199862020456,
                2.4224731406306828,
                -1.0233018685058872,
                1.2179306010109507,
                -3.087728992213423
            ]
        }
    ]
}{
    "goal": {
        "global_pose": {
            "orientation": {
                "w": 0.5084816217422485,
                "x": -0.49083608388900757,
                "y": 0.5182115435600281,
                "z": -0.4816462993621826
            },
            "position": {
                "x": 0.5540239810943604,
                "y": 0.030875300988554955,
                "z": 0.16403168439865112
            }
        },
        "name": "move_to_storage_A"
    },
    "id": "ProjEST_move_to_storage_A_68",
    "joint_names": [
        "shoulder_pan_joint",
        "shoulder_lift_joint",
        "elbow_joint",
        "wrist_1_joint",
        "wrist_2_joint",
        "wrist_3_joint"
    ],
    "metrics": {
        "cart_traj_len": 0.3523341389892693,
        "distance_elbow_joint": 0.4476058832008629,
        "distance_shoulder_lift_joint": 0.23585518408634587,
        "distance_shoulder_pan_joint": 0.46182535500705446,
        "distance_wrist_1_joint": 0.23315849237704867,
        "distance_wrist_2_joint": 1.0928927672930178,
        "distance_wrist_3_joint": 0.09743105258321627,
        "smoothness": 1.3322676295501878e-15,
        "time": 0.087258105,
        "traj_len": 1.6027378870381601,
        "weighted_distance": 2.022296244219438
    },
    "planner": "ProjEST",
    "start": {
        "state": {
            "elbow_joint": 1.97154746011099,
            "shoulder_lift_joint": -1.13948474672311,
            "shoulder_pan_joint": 0.12281154466712228,
            "wrist_1_joint": -0.7804688027058302,
            "wrist_2_joint": 0.12958655903071145,
            "wrist_3_joint": 3.0906928834467795
        }
    },
    "waypoints": [
        {
            "positions": [
                0.12281154466712228,
                -1.13948474672311,
                1.97154746011099,
                -0.7804688027058302,
                0.12958655903071145,
                3.0906928834467795
            ]
        },
        {
            "positions": [
                0.0568364939518288,
                -1.1731783444497308,
                2.035491157711113,
                -0.8137771587596943,
                0.2857140972154283,
                3.104611605244382
            ]
        },
        {
            "positions": [
                -0.009138556763464686,
                -1.2068719421763516,
                2.0994348553112365,
                -0.8470855148135583,
                0.4418416354001451,
                3.118530327041984
            ]
        },
        {
            "positions": [
                -0.07511360747875818,
                -1.2405655399029725,
                2.1633785529113596,
                -0.8803938708674225,
                0.5979691735848619,
                3.1324490488395864
            ]
        },
        {
            "positions": [
                -0.14108865819405164,
                -1.2742591376295933,
                2.227322250511483,
                -0.9137022269212866,
                0.7540967117695787,
                3.146367770637189
            ]
        },
        {
            "positions": [
                -0.20706370890934517,
                -1.3079527353562141,
                2.291265948111606,
                -0.9470105829751507,
                0.9102242499542956,
                3.1602864924347913
            ]
        },
        {
            "positions": [
                -0.27303875962463864,
                -1.341646333082835,
                2.3552096457117297,
                -0.9803189390290148,
                1.0663517881390123,
                3.1742052142323933
            ]
        },
        {
            "positions": [
                -0.33901381033993216,
                -1.3753399308094558,
                2.419153343311853,
                -1.0136272950828789,
                1.2224793263237292,
                3.1881239360299958
            ]
        }
    ]
}{
    "goal": {
        "global_pose": {
            "orientation": {
                "w": 0.5084816217422485,
                "x": -0.49083608388900757,
                "y": 0.5182115435600281,
                "z": -0.4816462993621826
            },
            "position": {
                "x": 0.5540239810943604,
                "y": 0.030875300988554955,
                "z": 0.16403168439865112
            }
        },
        "name": "move_to_storage_A"
    },
    "id": "ProjEST_move_to_storage_A_68",
    "joint_names": [
        "shoulder_pan_joint",
        "shoulder_lift_joint",
        "elbow_joint",
        "wrist_1_joint",
        "wrist_2_joint",
        "wrist_3_joint"
    ],
    "metrics": {
        "cart_traj_len": 0.35344039823569984,
        "distance_elbow_joint": 0.45462277173915,
        "distance_shoulder_lift_joint": 0.23422550114227292,
        "distance_shoulder_pan_joint": 0.4632539942041603,
        "distance_wrist_1_joint": 0.2589382706292811,
        "distance_wrist_2_joint": 1.0955990045594057,
        "distance_wrist_3_joint": 0.09168859280800046,
        "smoothness": 6.661338165333112e-16,
        "time": 0.151774302,
        "traj_len": 1.6119330429897734,
        "weighted_distance": 2.03377545365435
    },
    "planner": "ProjEST",
    "start": {
        "state": {
            "elbow_joint": 1.9715472970024885,
            "shoulder_lift_joint": -1.1394870060712896,
            "shoulder_pan_joint": 0.12281152778156021,
            "wrist_1_joint": -0.780463741449964,
            "wrist_2_joint": 0.12958659822042276,
            "wrist_3_joint": 3.090690232415272
        }
    },
    "waypoints": [
        {
            "positions": [
                0.12281152778156021,
                -1.1394870060712896,
                1.9715472970024885,
                -0.780463741449964,
                0.12958659822042276,
                3.090690232415272
            ]
        },
        {
            "positions": [
                0.05663238575239446,
                -1.1729477919487572,
                2.0364934072509384,
                -0.8174549229684327,
                0.2861007417289093,
                3.1037886028164148
            ]
        },
        {
            "positions": [
                -0.00954675627677129,
                -1.2064085778262248,
                2.1014395174993887,
                -0.8544461044869014,
                0.4426148852373958,
                3.1168869732175577
            ]
        },
        {
            "positions": [
                -0.07572589830593704,
                -1.2398693637036924,
                2.1663856277478386,
                -0.8914372860053702,
                0.5991290287458824,
                3.1299853436187006
            ]
        },
        {
            "positions": [
                -0.1419050403351028,
                -1.2733301495811598,
                2.2313317379962885,
                -0.9284284675238389,
                0.7556431722543688,
                3.1430837140198435
            ]
        },
        {
            "positions": [
                -0.20808418236426854,
                -1.3067909354586273,
                2.2962778482447384,
                -0.9654196490423077,
                0.9121573157628554,
                3.1561820844209865
            ]
        },
        {
            "positions": [
                -0.27426332439343426,
                -1.340251721336095,
                2.3612239584931887,
                -1.0024108305607764,
                1.068671459271342,
                3.1692804548221294
            ]
        },
        {
            "positions": [
                -0.34044246642260007,
                -1.3737125072135625,
                2.4261700687416385,
                -1.039402012079245,
                1.2251856027798285,
                3.1823788252232723
            ]
        }
    ]
}