{
    "goal": {
        "global_pose": {
            "orientation": {
                "w": -0.00223480608172531,
                "x": 0.0024358444001904467,
                "y": 0.7094548369677653,
                "z": -0.704743149386269
            },
            "position": {
                "x": -0.37947507619857795,
                "y": -0.6371506643295288,
                "z": 0.19426114857196808
            }
        },
        "name": "move_to_magneteinheit_C"
    },
    "id": "ProjEST_move_to_magneteinheit_C_86",
    "joint_names": [
        "shoulder_pan_joint",
        "shoulder_lift_joint",
        "elbow_joint",
        "wrist_1_joint",
        "wrist_2_joint",
        "wrist_3_joint"
    ],
    "metrics": {
        "cart_traj_len": 0.9680390831110808,
        "distance_elbow_joint": 1.684291318396074,
        "distance_shoulder_lift_joint": 0.9621669766495244,
        "distance_shoulder_pan_joint": 1.7215818639577865,
        "distance_wrist_1_joint": 1.5005305860694056,
        "distance_wrist_2_joint": 1.744906320739531,
        "distance_wrist_3_joint": 0.06672728793113603,
        "smoothness": 1.365968117776301,
        "time": 3.323464926,
        "traj_len": 2.7713181617676916,
        "weighted_distance": 3.325521889330254
    },
    "planner": "ProjEST",
    "start": {
        "state": {
            "elbow_joint": 1.9565354010623817,
            "shoulder_lift_joint": -1.4165861575791021,
            "shoulder_pan_joint": -1.6717766225146293,
            "wrist_1_joint": -0.5286633292919765,
            "wrist_2_joint": 1.472756589071564,
            "wrist_3_joint": -3.1238370188695823
        }
    },
    "waypoints": [
        {
            "positions": [
                -1.6717766225146293,
                -1.4165861575791021,
                1.9565354010623817,
                -0.5286633292919765,
                1.472756589071564,
                -3.1238370188695823
            ]
        },
        {
            "positions": [
                -1.7769198959884531,
                -1.4461077177238915,
                2.0287669023506836,
                -0.6032994965241024,
                1.3667288294988633,
                -3.1222194790319637
            ]
        },
        {
            "positions": [
                -1.8820631694622771,
                -1.4756292778686808,
                2.1009984036389855,
                -0.6779356637562284,
                1.2607010699261625,
                -3.120601939194345
            ]
        },
        {
            "positions": [
                -1.987206442936101,
                -1.5051508380134702,
                2.1732299049272874,
                -0.7525718309883543,
                1.1546733103534619,
                -3.1189843993567266
            ]
        },
        {
            "positions": [
                -2.0923497164099247,
                -1.5346723981582595,
                2.2454614062155893,
                -0.8272079982204803,
                1.0486455507807613,
                -3.1173668595191084
            ]
        },
        {
            "positions": [
                -2.1974929898837487,
                -1.5641939583030489,
                2.3176929075038912,
                -0.9018441654526063,
                0.9426177912080604,
                -3.11574931968149
            ]
        },
        {
            "positions": [
                -2.3026362633575728,
                -1.5937155184478384,
                2.3899244087921927,
                -0.9764803326847322,
                0.8365900316353598,
                -3.1141317798438712
            ]
        },
        {
            "positions": [
                -2.407779536831397,
                -1.6232370785926278,
                2.4621559100804946,
                -1.051116499916858,
                0.7305622720626591,
                -3.1125142400062527
            ]
        },
        {
            "positions": [
                -2.5129228103052204,
                -1.6527586387374171,
                2.5343874113687965,
                -1.1257526671489841,
                0.6245345124899585,
                -3.110896700168634
            ]
        },
        {
            "positions": [
                -2.6180660837790444,
                -1.6822801988822065,
                2.6066189126570984,
                -1.2003888343811102,
                0.5185067529172578,
                -3.109279160331016
            ]
        },
        {
            "positions": [
                -2.723209357252868,
                -1.7118017590269958,
                2.6788504139454004,
                -1.275025001613236,
                0.41247899334455695,
                -3.1076616204933973
            ]
        },
        {
            "positions": [
                -2.828352630726692,
                -1.7413233191717852,
                2.7510819152337023,
                -1.349661168845362,
                0.30645123377185657,
                -3.1060440806557787
            ]
        },
        {
            "positions": [
                -2.933495904200516,
                -1.7708448793165745,
                2.823313416522004,
                -1.424297336077488,
                0.20042347419915574,
                -3.10442654081816
            ]
        },
        {
            "positions": [
                -2.8760130814165286,
                -1.694856347452568,
                2.721124253654948,
                -1.3486852636670013,
                0.25949512493254606,
                -3.1103411420531244
            ]
        },
        {
            "positions": [
                -2.818530258632541,
                -1.6188678155885614,
                2.6189350907878914,
                -1.2730731912565145,
                0.3185667756659364,
                -3.1162557432880886
            ]
        },
        {
            "positions": [
                -2.7610474358485537,
                -1.542879283724555,
                2.516745927920835,
                -1.1974611188460278,
                0.3776384263993267,
                -3.122170344523053
            ]
        },
        {
            "positions": [
                -2.7035646130645663,
                -1.4668907518605485,
                2.4145567650537787,
                -1.1218490464355408,
                0.43671007713271703,
                -3.128084945758017
            ]
        },
        {
            "positions": [
                -2.6460817902805784,
                -1.390902219996542,
                2.312367602186722,
                -1.0462369740250543,
                0.49578172786610736,
                -3.1339995469929813
            ]
        },
        {
            "positions": [
                -2.588598967496591,
                -1.3149136881325356,
                2.2101784393196655,
                -0.9706249016145674,
                0.5548533785994977,
                -3.1399141482279456
            ]
        },
        {
            "positions": [
                -2.5311161447126036,
                -1.238925156268529,
                2.107989276452609,
                -0.8950128292040807,
                0.613925029332888,
                -3.14582874946291
            ]
        },
        {
            "positions": [
                -2.473633321928616,
                -1.1629366244045225,
                2.0058001135855528,
                -0.8194007567935939,
                0.6729966800662783,
                -3.151743350697874
            ]
        }
    ]
}