{
    "goal": {
        "global_pose": {
            "orientation": {
                "w": 0.7047431493862688,
                "x": -0.7094548369677653,
                "y": 0.0024358444001904,
                "z": -0.0022348060817251984
            },
            "position": {
                "x": -0.39052492380142206,
                "y": 0.3671506643295288,
                "z": 0.19426114857196808
            }
        },
        "name": "move_to_magneteinheit_D"
    },
    "id": "ProjEST_move_to_magneteinheit_D_39",
    "joint_names": [
        "shoulder_pan_joint",
        "shoulder_lift_joint",
        "elbow_joint",
        "wrist_1_joint",
        "wrist_2_joint",
        "wrist_3_joint"
    ],
    "metrics": {
        "cart_traj_len": 5.204136163463183,
        "distance_elbow_joint": 4.370541455493745,
        "distance_shoulder_lift_joint": 1.744849162559006,
        "distance_shoulder_pan_joint": 3.638641871324647,
        "distance_wrist_1_joint": 4.571421828047946,
        "distance_wrist_2_joint": 2.2620393062776842,
        "distance_wrist_3_joint": 3.1318625579019,
        "smoothness": 0.28201879695099474,
        "time": 0.32247198099999996,
        "traj_len": 4.440648171337708,
        "weighted_distance": 5.728572460197597
    },
    "planner": "ProjEST",
    "start": {
        "state": {
            "elbow_joint": 0.749534889911806,
            "shoulder_lift_joint": -0.6476975780787326,
            "shoulder_pan_joint": -2.711696901376241,
            "wrist_1_joint": -0.07506478083263063,
            "wrist_2_joint": 0.43296659715538205,
            "wrist_3_joint": -3.14703540197715
        }
    },
    "waypoints": [
        {
            "positions": [
                -2.711696901376241,
                -0.6476975780787326,
                0.749534889911806,
                -0.07506478083263063,
                0.43296659715538205,
                -3.14703540197715
            ]
        },
        {
            "positions": [
                -2.778578094482413,
                -0.6290575189004483,
                0.8216802031764417,
                -0.1389067536334482,
                0.4317834116908134,
                -3.096399404591764
            ]
        },
        {
            "positions": [
                -2.8454592875885845,
                -0.6104174597221638,
                0.8938255164410775,
                -0.20274872643426578,
                0.43060022622624483,
                -3.0457634072063784
            ]
        },
        {
            "positions": [
                -2.9123404806947564,
                -0.5917774005438794,
                0.9659708297057135,
                -0.2665906992350834,
                0.4294170407616762,
                -2.9951274098209923
            ]
        },
        {
            "positions": [
                -2.884631765123128,
                -0.6776847842237174,
                1.0067058987366617,
                -0.39633632672659436,
                0.32408989044924297,
                -2.9903183424232114
            ]
        },
        {
            "positions": [
                -2.8569230495515,
                -0.7635921679035553,
                1.04744096776761,
                -0.5260819542181053,
                0.21876274013680977,
                -2.9855092750254304
            ]
        },
        {
            "positions": [
                -2.829214333979872,
                -0.8494995515833934,
                1.088176036798558,
                -0.6558275817096163,
                0.11343558982437657,
                -2.980700207627649
            ]
        },
        {
            "positions": [
                -2.801505618408244,
                -0.9354069352632314,
                1.1289111058295063,
                -0.7855732092011273,
                0.008108439511943344,
                -2.975891140229868
            ]
        },
        {
            "positions": [
                -2.7737969028366156,
                -1.0213143189430693,
                1.1696461748604545,
                -0.9153188366926382,
                -0.09721871080048983,
                -2.971082072832087
            ]
        },
        {
            "positions": [
                -2.7460881872649874,
                -1.1072217026229074,
                1.2103812438914028,
                -1.0450644641841493,
                -0.20254586111292305,
                -2.966273005434306
            ]
        },
        {
            "positions": [
                -2.718379471693359,
                -1.1931290863027453,
                1.2511163129223508,
                -1.17481009167566,
                -0.30787301142535617,
                -2.961463938036525
            ]
        },
        {
            "positions": [
                -2.6906707561217313,
                -1.2790364699825834,
                1.291851381953299,
                -1.3045557191671713,
                -0.4132001617377895,
                -2.9566548706387437
            ]
        },
        {
            "positions": [
                -2.662962040550103,
                -1.3649438536624214,
                1.3325864509842473,
                -1.4343013466586823,
                -0.5185273120502226,
                -2.9518458032409627
            ]
        },
        {
            "positions": [
                -2.635253324978475,
                -1.4508512373422593,
                1.3733215200151956,
                -1.564046974150193,
                -0.6238544623626558,
                -2.9470367358431817
            ]
        },
        {
            "positions": [
                -2.430904875442117,
                -1.462584273948003,
                1.3473530996307992,
                -1.5475715085336366,
                -0.6528243158360267,
                -2.8710734247644685
            ]
        },
        {
            "positions": [
                -2.2265564259057595,
                -1.4743173105537468,
                1.321384679246403,
                -1.5310960429170803,
                -0.6817941693093976,
                -2.7951101136857557
            ]
        },
        {
            "positions": [
                -2.0222079763694016,
                -1.4860503471594906,
                1.2954162588620066,
                -1.514620577300524,
                -0.7107640227827685,
                -2.7191468026070424
            ]
        },
        {
            "positions": [
                -1.8178595268330442,
                -1.4977833837652341,
                1.2694478384776102,
                -1.4981451116839677,
                -0.7397338762561393,
                -2.6431834915283297
            ]
        },
        {
            "positions": [
                -1.6135110772966863,
                -1.5095164203709779,
                1.2434794180932138,
                -1.4816696460674113,
                -0.7687037297295102,
                -2.5672201804496164
            ]
        },
        {
            "positions": [
                -1.4091626277603286,
                -1.5212494569767216,
                1.2175109977088177,
                -1.465194180450855,
                -0.7976735832028811,
                -2.4912568693709036
            ]
        },
        {
            "positions": [
                -1.204814178223971,
                -1.5329824935824654,
                1.1915425773244213,
                -1.4487187148342986,
                -0.826643436676252,
                -2.4152935582921904
            ]
        },
        {
            "positions": [
                -1.1574125156039534,
                -1.552944692065379,
                1.0784919159862285,
                -1.350856087500533,
                -0.7938008087281846,
                -2.336966366817546
            ]
        },
        {
            "positions": [
                -1.1100108529839359,
                -1.5729068905482926,
                0.9654412546480358,
                -1.2529934601667676,
                -0.7609581807801173,
                -2.258639175342901
            ]
        },
        {
            "positions": [
                -1.062609190363918,
                -1.5928690890312063,
                0.852390593309843,
                -1.1551308328330019,
                -0.72811555283205,
                -2.1803119838682568
            ]
        },
        {
            "positions": [
                -1.0152075277439006,
                -1.61283128751412,
                0.7393399319716503,
                -1.0572682054992364,
                -0.6952729248839826,
                -2.101984792393612
            ]
        },
        {
            "positions": [
                -0.967805865123883,
                -1.6327934859970337,
                0.6262892706334574,
                -0.9594055781654709,
                -0.6624302969359153,
                -2.023657600918967
            ]
        },
        {
            "positions": [
                -0.9204042025038653,
                -1.6527556844799471,
                0.5132386092952648,
                -0.8615429508317054,
                -0.629587668987848,
                -1.9453304094443227
            ]
        },
        {
            "positions": [
                -0.8730025398838477,
                -1.6727178829628608,
                0.4001879479570719,
                -0.7636803234979398,
                -0.5967450410397807,
                -1.867003217969678
            ]
        },
        {
            "positions": [
                -0.8256008772638301,
                -1.6926800814457743,
                0.2871372866188793,
                -0.6658176961641743,
                -0.5639024130917133,
                -1.7886760264950334
            ]
        },
        {
            "positions": [
                -0.7781992146438126,
                -1.712642279928688,
                0.17408662528068652,
                -0.5679550688304087,
                -0.531059785143646,
                -1.7103488350203888
            ]
        },
        {
            "positions": [
                -0.7307975520237949,
                -1.7326044784116017,
                0.061035963942493554,
                -0.4700924414966431,
                -0.49821715719557863,
                -1.6320216435457442
            ]
        },
        {
            "positions": [
                -0.6833958894037774,
                -1.7525666768945154,
                -0.05201469739569897,
                -0.3722298141628777,
                -0.4653745292475113,
                -1.5536944520710998
            ]
        },
        {
            "positions": [
                -0.6359942267837597,
                -1.7725288753774289,
                -0.16506535873389172,
                -0.2743671868291122,
                -0.432531901299444,
                -1.475367260596455
            ]
        },
        {
            "positions": [
                -0.5885925641637422,
                -1.7924910738603426,
                -0.2781160200720847,
                -0.1765045594953465,
                -0.39968927335137666,
                -1.3970400691218103
            ]
        },
        {
            "positions": [
                -0.5411909015437245,
                -1.8124532723432563,
                -0.39116668141027744,
                -0.078641932161581,
                -0.3668466454033093,
                -1.3187128776471657
            ]
        },
        {
            "positions": [
                -0.49378923892370685,
                -1.8324154708261697,
                -0.5042173427484702,
                0.01922069517218472,
                -0.334004017455242,
                -1.240385686172521
            ]
        },
        {
            "positions": [
                -0.4463875763036893,
                -1.8523776693090834,
                -0.6172680040866627,
                0.11708332250595,
                -0.30116138950717464,
                -1.1620584946978767
            ]
        },
        {
            "positions": [
                -0.39898591368367176,
                -1.8723398677919971,
                -0.7303186654248555,
                0.2149459498397155,
                -0.2683187615591074,
                -1.083731303223232
            ]
        },
        {
            "positions": [
                -0.3515842510636541,
                -1.8923020662749108,
                -0.8433693267630482,
                0.3128085771734812,
                -0.23547613361104003,
                -1.0054041117485872
            ]
        },
        {
            "positions": [
                -0.30418258844363655,
                -1.9122642647578243,
                -0.9564199881012412,
                0.4106712045072467,
                -0.20263350566297267,
                -0.9270769202739428
            ]
        },
        {
            "positions": [
                -0.2567809258236189,
                -1.932226463240738,
                -1.0694706494394342,
                0.5085338318410124,
                -0.1697908777149053,
                -0.848749728799298
            ]
        },
        {
            "positions": [
                -0.20937926320360134,
                -1.9521886617236515,
                -1.1825213107776267,
                0.6063964591747777,
                -0.13694824976683806,
                -0.7704225373246536
            ]
        },
        {
            "positions": [
                -0.1619776005835838,
                -1.9721508602065652,
                -1.2955719721158192,
                0.7042590865085432,
                -0.1041056218187707,
                -0.692095345850009
            ]
        },
        {
            "positions": [
                -0.11457593796356602,
                -1.9921130586894789,
                -1.4086226334540122,
                0.8021217138423091,
                -0.07126299387070334,
                -0.6137681543753641
            ]
        },
        {
            "positions": [
                -0.06717427534354847,
                -2.0120752571723926,
                -1.5216732947922047,
                0.8999843411760742,
                -0.03842036592263609,
                -0.5354409629007197
            ]
        },
        {
            "positions": [
                -0.019772612723530925,
                -2.0320374556553062,
                -1.6347239561303977,
                0.9978469685098397,
                -0.0055777379745687306,
                -0.4571137714260751
            ]
        },
        {
            "positions": [
                0.027629049896486624,
                -2.0519996541382195,
                -1.7477746174685906,
                1.0957095958436056,
                0.02726488997349863,
                -0.3787865799514303
            ]
        },
        {
            "positions": [
                0.07503071251650417,
                -2.071961852621133,
                -1.8608252788067832,
                1.193572223177371,
                0.06010751792156588,
                -0.3004593884767859
            ]
        },
        {
            "positions": [
                0.12243237513652194,
                -2.091924051104047,
                -1.9738759401449761,
                1.2914348505111366,
                0.09295014586963335,
                -0.22213219700214104
            ]
        },
        {
            "positions": [
                0.1698340377565396,
                -2.1118862495869606,
                -2.0869266014831687,
                1.389297477844902,
                0.12579277381770054,
                -0.1438050055274967
            ]
        },
        {
            "positions": [
                0.05122611323826114,
                -2.168159628247318,
                -2.182428836113833,
                1.4323292054233312,
                0.14245712780173275,
                -0.10092761837674774
            ]
        },
        {
            "positions": [
                -0.06738181128001733,
                -2.2244330069076748,
                -2.277931070744497,
                1.4753609330017605,
                0.15912148178576493,
                -0.05805023122599878
            ]
        },
        {
            "positions": [
                -0.18598973579829584,
                -2.280706385568032,
                -2.3734333053751615,
                1.5183926605801896,
                0.17578583576979714,
                -0.015172844075249818
            ]
        }
    ]
}