{
    "goal": {
        "global_pose": {
            "orientation": {
                "w": -0.00223480608172531,
                "x": 0.0024358444001904467,
                "y": 0.7094548369677653,
                "z": -0.704743149386269
            },
            "position": {
                "x": -0.37947507619857795,
                "y": -0.6371506643295288,
                "z": 0.19426114857196808
            }
        },
        "name": "move_to_magneteinheit_C"
    },
    "id": "ProjEST_move_to_magneteinheit_C_87",
    "joint_names": [
        "shoulder_pan_joint",
        "shoulder_lift_joint",
        "elbow_joint",
        "wrist_1_joint",
        "wrist_2_joint",
        "wrist_3_joint"
    ],
    "metrics": {
        "cart_traj_len": 0.8409780712951259,
        "distance_elbow_joint": 0.47230075669275573,
        "distance_shoulder_lift_joint": 0.6902369565409758,
        "distance_shoulder_pan_joint": 0.8798712008388361,
        "distance_wrist_1_joint": 1.2362862824283658,
        "distance_wrist_2_joint": 1.1843965106944239,
        "distance_wrist_3_joint": 2.1032187789734436,
        "smoothness": 0.6947575944267937,
        "time": 1.625702154,
        "traj_len": 2.562481314306272,
        "weighted_distance": 3.6322762611396286
    },
    "planner": "ProjEST",
    "start": {
        "state": {
            "elbow_joint": 1.9565354010623817,
            "shoulder_lift_joint": -1.4165861575791021,
            "shoulder_pan_joint": -1.6717766225146293,
            "wrist_1_joint": -0.5286633292919765,
            "wrist_2_joint": 1.472756589071564,
            "wrist_3_joint": -3.1238370188695823
        }
    },
    "waypoints": [
        {
            "positions": [
                -1.6717766225146293,
                -1.4165861575791021,
                1.9565354010623817,
                -0.5286633292919765,
                1.472756589071564,
                -3.1238370188695823
            ]
        },
        {
            "positions": [
                -1.677644744897069,
                -1.4382925673065212,
                1.931823561952536,
                -0.4509391463035581,
                1.419881698123463,
                -2.9682626958108376
            ]
        },
        {
            "positions": [
                -1.6835128672795088,
                -1.4599989770339405,
                1.9071117228426901,
                -0.3732149633151397,
                1.367006807175362,
                -2.812688372752093
            ]
        },
        {
            "positions": [
                -1.6893809896619487,
                -1.4817053867613597,
                1.8823998837328444,
                -0.2954907803267214,
                1.3141319162272613,
                -2.657114049693348
            ]
        },
        {
            "positions": [
                -1.6952491120443884,
                -1.5034117964887788,
                1.8576880446229986,
                -0.217766597338303,
                1.2612570252791604,
                -2.5015397266346038
            ]
        },
        {
            "positions": [
                -1.7011172344268282,
                -1.525118206216198,
                1.8329762055131529,
                -0.14004241434988463,
                1.2083821343310595,
                -2.345965403575859
            ]
        },
        {
            "positions": [
                -1.7069853568092679,
                -1.5468246159436172,
                1.8082643664033071,
                -0.06231823136146627,
                1.1555072433829585,
                -2.1903910805171143
            ]
        },
        {
            "positions": [
                -1.8277572832715958,
                -1.5614868516804836,
                1.8474305427015123,
                -0.1092064627601664,
                1.0434451143225856,
                -2.1728110347766996
            ]
        },
        {
            "positions": [
                -1.9485292097339237,
                -1.57614908741735,
                1.8865967189997175,
                -0.15609469415886656,
                0.9313829852622124,
                -2.1552309890362844
            ]
        },
        {
            "positions": [
                -2.069301136196252,
                -1.5908113231542167,
                1.9257628952979227,
                -0.20298292555756672,
                0.8193208562018395,
                -2.1376509432958697
            ]
        },
        {
            "positions": [
                -2.1900730626585796,
                -1.6054735588910831,
                1.9649290715961278,
                -0.24987115695626685,
                0.7072587271414664,
                -2.120070897555455
            ]
        },
        {
            "positions": [
                -2.3108449891209073,
                -1.6201357946279495,
                2.004095247894333,
                -0.296759388354967,
                0.5951965980810934,
                -2.10249085181504
            ]
        },
        {
            "positions": [
                -2.4316169155832354,
                -1.634798030364816,
                2.043261424192538,
                -0.34364761975366714,
                0.4831344690207203,
                -2.084910806074625
            ]
        },
        {
            "positions": [
                -2.4517466987418297,
                -1.567359227667446,
                2.0502865578642546,
                -0.41650955217543406,
                0.5061771313340216,
                -2.255134418259579
            ]
        },
        {
            "positions": [
                -2.4718764819004235,
                -1.4999204249700762,
                2.057311691535971,
                -0.4893714845972009,
                0.529219793647323,
                -2.4253580304445324
            ]
        },
        {
            "positions": [
                -2.492006265059018,
                -1.4324816222727064,
                2.0643368252076875,
                -0.5622334170189678,
                0.5522624559606243,
                -2.595581642629486
            ]
        },
        {
            "positions": [
                -2.512136048217612,
                -1.3650428195753364,
                2.071361958879404,
                -0.6350953494407348,
                0.5753051182739256,
                -2.76580525481444
            ]
        },
        {
            "positions": [
                -2.498965456505661,
                -1.2976195285867422,
                2.0510512490268757,
                -0.7008167049135972,
                0.6095063654040506,
                -2.893604627293997
            ]
        },
        {
            "positions": [
                -2.48579486479371,
                -1.2301962375981481,
                2.0307405391743476,
                -0.7665380603864596,
                0.6437076125341754,
                -3.0214039997735544
            ]
        },
        {
            "positions": [
                -2.4726242730817587,
                -1.162772946609554,
                2.0104298293218195,
                -0.832259415859322,
                0.6779088596643004,
                -3.1492033722531114
            ]
        }
    ]
}