{
    "goal": {
        "global_pose": {
            "orientation": {
                "w": -0.4816463035849501,
                "x": 0.5182115481033762,
                "y": 0.4908360881923453,
                "z": -0.5084816262002911
            },
            "position": {
                "x": -0.8240239810943604,
                "y": 0.19912469901144506,
                "z": 0.16403168439865112
            }
        },
        "name": "move_to_storage_D"
    },
    "id": "ProjEST_move_to_storage_D_85",
    "joint_names": [
        "shoulder_pan_joint",
        "shoulder_lift_joint",
        "elbow_joint",
        "wrist_1_joint",
        "wrist_2_joint",
        "wrist_3_joint"
    ],
    "metrics": {
        "cart_traj_len": 3.374029043378486,
        "distance_elbow_joint": 4.21551205132107,
        "distance_shoulder_lift_joint": 2.2226218907614257,
        "distance_shoulder_pan_joint": 2.812706636971597,
        "distance_wrist_1_joint": 3.336461522969186,
        "distance_wrist_2_joint": 4.862156618135391,
        "distance_wrist_3_joint": 3.8892429191135265,
        "smoothness": 0.26127666434935376,
        "time": 0.08723246800000001,
        "traj_len": 4.619383253127219,
        "weighted_distance": 6.1086664353690034
    },
    "planner": "ProjEST",
    "start": {
        "state": {
            "elbow_joint": -2.384821988534728,
            "shoulder_lift_joint": -2.2788054721415256,
            "shoulder_pan_joint": -0.1854694642142757,
            "wrist_1_joint": 1.4845938289331202,
            "wrist_2_joint": 0.17898776772866878,
            "wrist_3_joint": 0.037105688729662994
        }
    },
    "waypoints": [
        {
            "positions": [
                -0.1854694642142757,
                -2.2788054721415256,
                -2.384821988534728,
                1.4845938289331202,
                0.17898776772866878,
                0.037105688729662994
            ]
        },
        {
            "positions": [
                -0.17653748629551677,
                -2.231161004342498,
                -2.3770830950964195,
                1.3303656561842412,
                0.11018880701311574,
                0.11330371944710786
            ]
        },
        {
            "positions": [
                -0.16760550837675786,
                -2.1835165365434706,
                -2.369344201658111,
                1.1761374834353624,
                0.041389846297562705,
                0.18950175016455273
            ]
        },
        {
            "positions": [
                -0.15867353045799892,
                -2.135872068744443,
                -2.3616053082198025,
                1.0219093106864834,
                -0.02740911441799032,
                0.2656997808819976
            ]
        },
        {
            "positions": [
                -0.14974155253923999,
                -2.0882276009454155,
                -2.353866414781494,
                0.8676811379376045,
                -0.09620807513354337,
                0.34189781159944244
            ]
        },
        {
            "positions": [
                -0.14080957462048108,
                -2.040583133146388,
                -2.3461275213431856,
                0.7134529651887256,
                -0.1650070358490964,
                0.41809584231688735
            ]
        },
        {
            "positions": [
                -0.06389309187302078,
                -1.9673457187348933,
                -2.287884253899453,
                0.6445010559837963,
                -0.26204139614679733,
                0.39635948676776545
            ]
        },
        {
            "positions": [
                0.013023390874439517,
                -1.8941083043233986,
                -2.2296409864557205,
                0.5755491467788669,
                -0.3590757564444982,
                0.37462313121864355
            ]
        },
        {
            "positions": [
                0.08993987362189981,
                -1.8208708899119037,
                -2.171397719011988,
                0.5065972375739375,
                -0.45611011674219915,
                0.35288677566952165
            ]
        },
        {
            "positions": [
                0.1668563563693601,
                -1.747633475500409,
                -2.1131544515682554,
                0.43764532836900816,
                -0.5531444770399,
                0.33115042012039975
            ]
        },
        {
            "positions": [
                0.24377283911682038,
                -1.6743960610889144,
                -2.0549111841245224,
                0.3686934191640788,
                -0.650178837337601,
                0.30941406457127785
            ]
        },
        {
            "positions": [
                0.3206893218642807,
                -1.6011586466774195,
                -1.9966679166807901,
                0.29974150995914944,
                -0.7472131976353018,
                0.28767770902215595
            ]
        },
        {
            "positions": [
                0.397605804611741,
                -1.5279212322659248,
                -1.9384246492370576,
                0.23078960075422011,
                -0.8442475579330027,
                0.2659413534730341
            ]
        },
        {
            "positions": [
                0.4745222873592013,
                -1.4546838178544301,
                -1.8801813817933248,
                0.16183769154929073,
                -0.9412819182307036,
                0.2442049979239122
            ]
        },
        {
            "positions": [
                0.5514387701066615,
                -1.3814464034429355,
                -1.8219381143495923,
                0.0928857823443614,
                -1.0383162785284046,
                0.2224686423747903
            ]
        },
        {
            "positions": [
                0.6283552528541219,
                -1.3082089890314408,
                -1.7636948469058598,
                0.02393387313943196,
                -1.1353506388261054,
                0.2007322868256684
            ]
        },
        {
            "positions": [
                0.7052717356015822,
                -1.2349715746199459,
                -1.7054515794621272,
                -0.04501803606549737,
                -1.2323849991238065,
                0.1789959312765465
            ]
        },
        {
            "positions": [
                0.7821882183490425,
                -1.1617341602084512,
                -1.6472083120183947,
                -0.1139699452704267,
                -1.3294193594215074,
                0.1572595757274246
            ]
        },
        {
            "positions": [
                0.8591047010965027,
                -1.0884967457969565,
                -1.5889650445746621,
                -0.18292185447535603,
                -1.4264537197192082,
                0.13552322017830276
            ]
        },
        {
            "positions": [
                0.936021183843963,
                -1.0152593313854619,
                -1.5307217771309296,
                -0.25187376368028536,
                -1.523488080016909,
                0.11378686462918086
            ]
        },
        {
            "positions": [
                1.0129376665914231,
                -0.9420219169739672,
                -1.472478509687197,
                -0.3208256728852148,
                -1.62052244031461,
                0.09205050908005896
            ]
        },
        {
            "positions": [
                1.0898541493388836,
                -0.8687845025624723,
                -1.4142352422434643,
                -0.3897775820901441,
                -1.717556800612311,
                0.07031415353093706
            ]
        },
        {
            "positions": [
                1.1667706320863438,
                -0.7955470881509776,
                -1.3559919747997318,
                -0.45872949129507345,
                -1.8145911609100118,
                0.04857779798181516
            ]
        },
        {
            "positions": [
                1.2150581405933112,
                -0.8147198783666921,
                -1.2477009859128523,
                -0.4934768282633423,
                -1.7375835214816788,
                -0.05749458276529748
            ]
        },
        {
            "positions": [
                1.2633456491002786,
                -0.8338926685824066,
                -1.1394099970259728,
                -0.5282241652316112,
                -1.6605758820533458,
                -0.16356696351241012
            ]
        },
        {
            "positions": [
                1.311633157607246,
                -0.8530654587981211,
                -1.0311190081390933,
                -0.56297150219988,
                -1.5835682426250128,
                -0.26963934425952274
            ]
        },
        {
            "positions": [
                1.3599206661142134,
                -0.8722382490138356,
                -0.9228280192522137,
                -0.5977188391681489,
                -1.50656060319668,
                -0.3757117250066354
            ]
        },
        {
            "positions": [
                1.4082081746211808,
                -0.8914110392295502,
                -0.8145370303653342,
                -0.6324661761364178,
                -1.429552963768347,
                -0.4817841057537481
            ]
        },
        {
            "positions": [
                1.4564956831281481,
                -0.9105838294452647,
                -0.7062460414784547,
                -0.6672135131046866,
                -1.352545324340014,
                -0.5878564865008606
            ]
        },
        {
            "positions": [
                1.5047831916351158,
                -0.9297566196609792,
                -0.5979550525915751,
                -0.7019608500729555,
                -1.275537684911681,
                -0.6939288672479733
            ]
        },
        {
            "positions": [
                1.5530707001420831,
                -0.9489294098766937,
                -0.4896640637046956,
                -0.7367081870412244,
                -1.198530045483348,
                -0.800001247995086
            ]
        },
        {
            "positions": [
                1.6013582086490505,
                -0.9681022000924082,
                -0.3813730748178161,
                -0.7714555240094932,
                -1.121522406055015,
                -0.9060736287421985
            ]
        },
        {
            "positions": [
                1.649645717156018,
                -0.9872749903081227,
                -0.27308208593093664,
                -0.8062028609777621,
                -1.044514766626682,
                -1.0121460094893113
            ]
        },
        {
            "positions": [
                1.6979332256629853,
                -1.0064477805238372,
                -0.16479109704405714,
                -0.840950197946031,
                -0.9675071271983492,
                -1.1182183902364238
            ]
        },
        {
            "positions": [
                1.7462207341699527,
                -1.0256205707395518,
                -0.05650010815717765,
                -0.8756975349142998,
                -0.8904994877700162,
                -1.2242907709835364
            ]
        },
        {
            "positions": [
                1.79450824267692,
                -1.0447933609552662,
                0.05179088072970206,
                -0.9104448718825687,
                -0.8134918483416831,
                -1.3303631517306491
            ]
        },
        {
            "positions": [
                1.8427957511838877,
                -1.0639661511709808,
                0.16008186961658155,
                -0.9451922088508375,
                -0.7364842089133501,
                -1.4364355324777618
            ]
        },
        {
            "positions": [
                1.891083259690855,
                -1.0831389413866952,
                0.26837285850346104,
                -0.9799395458191064,
                -0.6594765694850173,
                -1.5425079132248742
            ]
        },
        {
            "positions": [
                1.9393707681978225,
                -1.1023117316024098,
                0.37666384739034053,
                -1.0146868827873754,
                -0.5824689300566843,
                -1.6485802939719871
            ]
        },
        {
            "positions": [
                1.98765827670479,
                -1.1214845218181244,
                0.48495483627722025,
                -1.049434219755644,
                -0.5054612906283513,
                -1.7546526747190998
            ]
        },
        {
            "positions": [
                2.0359457852117573,
                -1.1406573120338388,
                0.5932458251640995,
                -1.084181556723913,
                -0.4284536512000183,
                -1.8607250554662123
            ]
        },
        {
            "positions": [
                2.0842332937187247,
                -1.1598301022495534,
                0.7015368140509792,
                -1.118928893692182,
                -0.35144601177168533,
                -1.9667974362133251
            ]
        },
        {
            "positions": [
                2.132520802225692,
                -1.1790028924652678,
                0.8098278029378585,
                -1.1536762306604507,
                -0.27443837234335233,
                -2.072869816960438
            ]
        },
        {
            "positions": [
                2.1808083107326595,
                -1.1981756826809824,
                0.9181187918247382,
                -1.1884235676287196,
                -0.19743073291501956,
                -2.17894219770755
            ]
        },
        {
            "positions": [
                2.229095819239627,
                -1.2173484728966968,
                1.0264097807116175,
                -1.2231709045969885,
                -0.12042309348668656,
                -2.2850145784546627
            ]
        },
        {
            "positions": [
                2.2773833277465942,
                -1.2365212631124114,
                1.1347007695984972,
                -1.2579182415652572,
                -0.04341545405835334,
                -2.3910869592017754
            ]
        },
        {
            "positions": [
                2.3256708362535616,
                -1.2556940533281258,
                1.2429917584853765,
                -1.2926655785335261,
                0.03359218536997943,
                -2.497159339948888
            ]
        },
        {
            "positions": [
                2.373958344760529,
                -1.2748668435438404,
                1.3512827473722564,
                -1.327412915501795,
                0.11059982479831239,
                -2.6032317206960007
            ]
        },
        {
            "positions": [
                2.405618198260128,
                -1.2423613746215885,
                1.4112086617990172,
                -1.2618560681850108,
                0.22852316277186085,
                -2.664097371010177
            ]
        },
        {
            "positions": [
                2.4372780517597272,
                -1.2098559056993365,
                1.471134576225778,
                -1.1962992208682266,
                0.3464465007454093,
                -2.724963021324354
            ]
        },
        {
            "positions": [
                2.468937905259326,
                -1.1773504367770844,
                1.5310604906525387,
                -1.1307423735514424,
                0.4643698387189577,
                -2.785828671638531
            ]
        },
        {
            "positions": [
                2.500597758758925,
                -1.1448449678548325,
                1.5909864050792994,
                -1.0651855262346581,
                0.5822931766925062,
                -2.8466943219527074
            ]
        },
        {
            "positions": [
                2.5322576122585243,
                -1.1123394989325806,
                1.6509123195060602,
                -0.9996286789178739,
                0.7002165146660547,
                -2.907559972266884
            ]
        },
        {
            "positions": [
                2.563917465758123,
                -1.0798340300103284,
                1.710838233932821,
                -0.9340718316010896,
                0.8181398526396031,
                -2.968425622581061
            ]
        },
        {
            "positions": [
                2.5955773192577225,
                -1.0473285610880765,
                1.7707641483595817,
                -0.8685149842843054,
                0.9360631906131516,
                -3.0292912728952377
            ]
        },
        {
            "positions": [
                2.6272371727573214,
                -1.0148230921658246,
                1.8306900627863425,
                -0.8029581369675212,
                1.0539865285867,
                -3.090156923209414
            ]
        }
    ]
}