{
    "goal": {
        "global_pose": {
            "orientation": {
                "w": 0.5084816217422485,
                "x": -0.49083608388900757,
                "y": 0.5182115435600281,
                "z": -0.4816462993621826
            },
            "position": {
                "x": 0.5540239810943604,
                "y": 0.030875300988554955,
                "z": 0.16403168439865112
            }
        },
        "name": "move_to_storage_A"
    },
    "id": "ProjEST_move_to_storage_A_63",
    "joint_names": [
        "shoulder_pan_joint",
        "shoulder_lift_joint",
        "elbow_joint",
        "wrist_1_joint",
        "wrist_2_joint",
        "wrist_3_joint"
    ],
    "metrics": {
        "cart_traj_len": 0.3531503465877877,
        "distance_elbow_joint": 0.4510557545067473,
        "distance_shoulder_lift_joint": 0.23281184921289455,
        "distance_shoulder_pan_joint": 0.459847467239444,
        "distance_wrist_1_joint": 0.25365069192735656,
        "distance_wrist_2_joint": 1.1063064612988338,
        "distance_wrist_3_joint": 0.10672964585384737,
        "smoothness": 2.2204460668324854e-16,
        "time": 0.113290613,
        "traj_len": 1.6156738130077877,
        "weighted_distance": 2.0454384163237496
    },
    "planner": "ProjEST",
    "start": {
        "state": {
            "elbow_joint": 1.971548259319323,
            "shoulder_lift_joint": -1.1394851275133948,
            "shoulder_pan_joint": 0.1228115487234821,
            "wrist_1_joint": -0.7804723859257726,
            "wrist_2_joint": 0.12958671773740124,
            "wrist_3_joint": -3.192489227718131
        }
    },
    "waypoints": [
        {
            "positions": [
                0.1228115487234821,
                -1.1394851275133948,
                1.971548259319323,
                -0.7804723859257726,
                0.12958671773740124,
                -3.192489227718131
            ]
        },
        {
            "positions": [
                0.057119053403561534,
                -1.172743963115237,
                2.0359847956774297,
                -0.8167081990582521,
                0.2876304979229489,
                -3.177242135453296
            ]
        },
        {
            "positions": [
                -0.008573441916359031,
                -1.206002798717079,
                2.1004213320355367,
                -0.8529440121907317,
                0.4456742781084966,
                -3.1619950431884605
            ]
        },
        {
            "positions": [
                -0.07426593723627958,
                -1.2392616343189211,
                2.1648578683936432,
                -0.8891798253232112,
                0.6037180582940442,
                -3.146747950923625
            ]
        },
        {
            "positions": [
                -0.13995843255620016,
                -1.272520469920763,
                2.22929440475175,
                -0.9254156384556906,
                0.761761838479592,
                -3.13150085865879
            ]
        },
        {
            "positions": [
                -0.20565092787612077,
                -1.3057793055226052,
                2.2937309411098568,
                -0.9616514515881702,
                0.9198056186651398,
                -3.1162537663939545
            ]
        },
        {
            "positions": [
                -0.27134342319604127,
                -1.3390381411244472,
                2.3581674774679637,
                -0.9978872647206496,
                1.0778493988506872,
                -3.101006674129119
            ]
        },
        {
            "positions": [
                -0.3370359185159619,
                -1.3722969767262894,
                2.4226040138260703,
                -1.0341230778531292,
                1.235893179036235,
                -3.085759581864284
            ]
        }
    ]
}{
    "goal": {
        "global_pose": {
            "orientation": {
                "w": 0.5084816217422485,
                "x": -0.49083608388900757,
                "y": 0.5182115435600281,
                "z": -0.4816462993621826
            },
            "position": {
                "x": 0.5540239810943604,
                "y": 0.030875300988554955,
                "z": 0.16403168439865112
            }
        },
        "name": "move_to_storage_A"
    },
    "id": "ProjEST_move_to_storage_A_63",
    "joint_names": [
        "shoulder_pan_joint",
        "shoulder_lift_joint",
        "elbow_joint",
        "wrist_1_joint",
        "wrist_2_joint",
        "wrist_3_joint"
    ],
    "metrics": {
        "cart_traj_len": 0.35302122199371627,
        "distance_elbow_joint": 0.45264383774023953,
        "distance_shoulder_lift_joint": 0.23336960514122818,
        "distance_shoulder_pan_joint": 0.45848887831616014,
        "distance_wrist_1_joint": 0.2527891851463113,
        "distance_wrist_2_joint": 1.1122822411731577,
        "distance_wrist_3_joint": 0.08998691268116588,
        "smoothness": 1.3322676295501878e-15,
        "time": 0.10450076900000001,
        "traj_len": 1.6123153104148897,
        "weighted_distance": 2.0358305214039953
    },
    "planner": "ProjEST",
    "start": {
        "state": {
            "elbow_joint": 1.97154746011099,
            "shoulder_lift_joint": -1.13948474672311,
            "shoulder_pan_joint": 0.12281154466712228,
            "wrist_1_joint": -0.7804688027058302,
            "wrist_2_joint": 0.12958655903071145,
            "wrist_3_joint": 3.0906928834467795
        }
    },
    "waypoints": [
        {
            "positions": [
                0.12281154466712228,
                -1.13948474672311,
                1.97154746011099,
                -0.7804688027058302,
                0.12958655903071145,
                3.0906928834467795
            ]
        },
        {
            "positions": [
                0.057313133479099415,
                -1.1728232617432854,
                2.036210865502453,
                -0.8165815434410175,
                0.28848402205544826,
                3.103548156686946
            ]
        },
        {
            "positions": [
                -0.008185277708923452,
                -1.206161776763461,
                2.1008742708939154,
                -0.8526942841762049,
                0.44738148508018505,
                3.1164034299271126
            ]
        },
        {
            "positions": [
                -0.07368368889694633,
                -1.2395002917836364,
                2.1655376762853784,
                -0.8888070249113922,
                0.6062789481049219,
                3.129258703167279
            ]
        },
        {
            "positions": [
                -0.13918210008496917,
                -1.2728388068038117,
                2.230201081676841,
                -0.9249197656465795,
                0.7651764111296587,
                3.1421139764074457
            ]
        },
        {
            "positions": [
                -0.20468051127299208,
                -1.3061773218239872,
                2.294864487068304,
                -0.9610325063817668,
                0.9240738741543956,
                3.1549692496476123
            ]
        },
        {
            "positions": [
                -0.27017892246101494,
                -1.3395158368441626,
                2.3595278924597665,
                -0.9971452471169542,
                1.0829713371791323,
                3.167824522887779
            ]
        },
        {
            "positions": [
                -0.33567733364903785,
                -1.3728543518643381,
                2.4241912978512294,
                -1.0332579878521415,
                1.2418688002038691,
                3.1806797961279454
            ]
        }
    ]
}{
    "goal": {
        "global_pose": {
            "orientation": {
                "w": 0.5084816217422485,
                "x": -0.49083608388900757,
                "y": 0.5182115435600281,
                "z": -0.4816462993621826
            },
            "position": {
                "x": 0.5540239810943604,
                "y": 0.030875300988554955,
                "z": 0.16403168439865112
            }
        },
        "name": "move_to_storage_A"
    },
    "id": "ProjEST_move_to_storage_A_63",
    "joint_names": [
        "shoulder_pan_joint",
        "shoulder_lift_joint",
        "elbow_joint",
        "wrist_1_joint",
        "wrist_2_joint",
        "wrist_3_joint"
    ],
    "metrics": {
        "cart_traj_len": 0.3534270934353857,
        "distance_elbow_joint": 0.45100097561467,
        "distance_shoulder_lift_joint": 0.23626599072111687,
        "distance_shoulder_pan_joint": 0.463284989580189,
        "distance_wrist_1_joint": 0.2421204192709696,
        "distance_wrist_2_joint": 1.0958468885294912,
        "distance_wrist_3_joint": 0.10298256300583741,
        "smoothness": 8.881784197001252e-16,
        "time": 0.064800405,
        "traj_len": 1.6098142211827655,
        "weighted_distance": 2.0335767161664715
    },
    "planner": "ProjEST",
    "start": {
        "state": {
            "elbow_joint": 1.9715472970024885,
            "shoulder_lift_joint": -1.1394870060712896,
            "shoulder_pan_joint": 0.12281152778156021,
            "wrist_1_joint": -0.780463741449964,
            "wrist_2_joint": 0.12958659822042276,
            "wrist_3_joint": 3.090690232415272
        }
    },
    "waypoints": [
        {
            "positions": [
                0.12281152778156021,
                -1.1394870060712896,
                1.9715472970024885,
                -0.780463741449964,
                0.12958659822042276,
                3.090690232415272
            ]
        },
        {
            "positions": [
                0.056627957841533225,
                -1.1732392904600206,
                2.0359760078045843,
                -0.8150523727743882,
                0.28613615372463574,
                3.1054020271303915
            ]
        },
        {
            "positions": [
                -0.00955561209849376,
                -1.2069915748487516,
                2.10040471860668,
                -0.8496410040988125,
                0.44268570922884876,
                3.120113821845511
            ]
        },
        {
            "positions": [
                -0.07573918203852076,
                -1.2407438592374826,
                2.164833429408776,
                -0.8842296354232366,
                0.5992352647330618,
                3.1348256165606307
            ]
        },
        {
            "positions": [
                -0.14192275197854773,
                -1.2744961436262134,
                2.229262140210871,
                -0.9188182667476609,
                0.7557848202372748,
                3.1495374112757504
            ]
        },
        {
            "positions": [
                -0.20810632191857473,
                -1.3082484280149445,
                2.293690851012967,
                -0.9534068980720851,
                0.9123343757414879,
                3.16424920599087
            ]
        },
        {
            "positions": [
                -0.27428989185860175,
                -1.3420007124036755,
                2.3581195618150628,
                -0.9879955293965094,
                1.0688839312457008,
                3.1789610007059896
            ]
        },
        {
            "positions": [
                -0.34047346179862875,
                -1.3757529967924065,
                2.4225482726171585,
                -1.0225841607209336,
                1.225433486749914,
                3.1936727954211093
            ]
        }
    ]
}