{
    "goal": {
        "global_pose": {
            "orientation": {
                "w": 0.5084816217422485,
                "x": -0.49083608388900757,
                "y": 0.5182115435600281,
                "z": -0.4816462993621826
            },
            "position": {
                "x": 0.5540239810943604,
                "y": 0.030875300988554955,
                "z": 0.16403168439865112
            }
        },
        "name": "move_to_storage_A"
    },
    "id": "ProjEST_move_to_storage_A_36",
    "joint_names": [
        "shoulder_pan_joint",
        "shoulder_lift_joint",
        "elbow_joint",
        "wrist_1_joint",
        "wrist_2_joint",
        "wrist_3_joint"
    ],
    "metrics": {
        "cart_traj_len": 0.35340724346259256,
        "distance_elbow_joint": 0.44791027683102835,
        "distance_shoulder_lift_joint": 0.2336168568839545,
        "distance_shoulder_pan_joint": 0.46357804626183247,
        "distance_wrist_1_joint": 0.2364751264216277,
        "distance_wrist_2_joint": 1.0924533422872102,
        "distance_wrist_3_joint": 0.10481105838014404,
        "smoothness": 8.881784197001252e-16,
        "time": 0.062566169,
        "traj_len": 1.6058781731706169,
        "weighted_distance": 2.0291365879444694
    },
    "planner": "ProjEST",
    "start": {
        "state": {
            "elbow_joint": 1.971548259319323,
            "shoulder_lift_joint": -1.1394851275133948,
            "shoulder_pan_joint": 0.1228115487234821,
            "wrist_1_joint": -0.7804723859257726,
            "wrist_2_joint": 0.12958671773740124,
            "wrist_3_joint": -3.192489227718131
        }
    },
    "waypoints": [
        {
            "positions": [
                0.1228115487234821,
                -1.1394851275133948,
                1.971548259319323,
                -0.7804723859257726,
                0.12958671773740124,
                -3.192489227718131
            ]
        },
        {
            "positions": [
                0.05658611354322032,
                -1.1728589642111027,
                2.0355354417237557,
                -0.814254546843148,
                0.28565148092128845,
                -3.1775162193781106
            ]
        },
        {
            "positions": [
                -0.009639321637041454,
                -1.2062328009088104,
                2.099522624128188,
                -0.8480367077605234,
                0.4417162441051756,
                -3.16254321103809
            ]
        },
        {
            "positions": [
                -0.07586475681730323,
                -1.2396066376065182,
                2.163509806532621,
                -0.8818188686778987,
                0.5977810072890628,
                -3.1475702026980694
            ]
        },
        {
            "positions": [
                -0.142090191997565,
                -1.272980474304226,
                2.2274969889370535,
                -0.9156010295952741,
                0.75384577047295,
                -3.132597194358049
            ]
        },
        {
            "positions": [
                -0.2083156271778268,
                -1.3063543110019338,
                2.291484171341486,
                -0.9493831905126495,
                0.9099105336568372,
                -3.1176241860180283
            ]
        },
        {
            "positions": [
                -0.27454106235808856,
                -1.3397281476996414,
                2.355471353745919,
                -0.9831653514300249,
                1.0659752968407243,
                -3.1026511776780077
            ]
        },
        {
            "positions": [
                -0.34076649753835037,
                -1.3731019843973493,
                2.4194585361503513,
                -1.0169475123474003,
                1.2220400600246115,
                -3.087678169337987
            ]
        }
    ]
}{
    "goal": {
        "global_pose": {
            "orientation": {
                "w": 0.5084816217422485,
                "x": -0.49083608388900757,
                "y": 0.5182115435600281,
                "z": -0.4816462993621826
            },
            "position": {
                "x": 0.5540239810943604,
                "y": 0.030875300988554955,
                "z": 0.16403168439865112
            }
        },
        "name": "move_to_storage_A"
    },
    "id": "ProjEST_move_to_storage_A_36",
    "joint_names": [
        "shoulder_pan_joint",
        "shoulder_lift_joint",
        "elbow_joint",
        "wrist_1_joint",
        "wrist_2_joint",
        "wrist_3_joint"
    ],
    "metrics": {
        "cart_traj_len": 0.35248041484691134,
        "distance_elbow_joint": 0.45147981712967056,
        "distance_shoulder_lift_joint": 0.23287291909276853,
        "distance_shoulder_pan_joint": 0.4568854922264253,
        "distance_wrist_1_joint": 0.25165316152473394,
        "distance_wrist_2_joint": 1.1144812485948294,
        "distance_wrist_3_joint": 0.0949363314048064,
        "smoothness": 4.440892098500626e-16,
        "time": 0.043139575,
        "traj_len": 1.6131673719652386,
        "weighted_distance": 2.0391949497050077
    },
    "planner": "ProjEST",
    "start": {
        "state": {
            "elbow_joint": 1.97154746011099,
            "shoulder_lift_joint": -1.13948474672311,
            "shoulder_pan_joint": 0.12281154466712228,
            "wrist_1_joint": -0.7804688027058302,
            "wrist_2_joint": 0.12958655903071145,
            "wrist_3_joint": 3.0906928834467795
        }
    },
    "waypoints": [
        {
            "positions": [
                0.12281154466712228,
                -1.13948474672311,
                1.97154746011099,
                -0.7804688027058302,
                0.12958655903071145,
                3.0906928834467795
            ]
        },
        {
            "positions": [
                0.05754218863477581,
                -1.1727523065935055,
                2.0360445768438,
                -0.8164192543522207,
                0.2887981659728299,
                3.104255216504609
            ]
        },
        {
            "positions": [
                -0.007727167397570664,
                -1.206019866463901,
                2.10054169357661,
                -0.8523697059986113,
                0.44800977291494837,
                3.1178175495624383
            ]
        },
        {
            "positions": [
                -0.07299652342991712,
                -1.2392874263342966,
                2.16503881030942,
                -0.8883201576450018,
                0.6072213798570669,
                3.131379882620268
            ]
        },
        {
            "positions": [
                -0.1382658794622636,
                -1.2725549862046919,
                2.2295359270422304,
                -0.9242706092913924,
                0.7664329867991854,
                3.1449422156780975
            ]
        },
        {
            "positions": [
                -0.2035352354946101,
                -1.3058225460750874,
                2.2940330437750402,
                -0.960221060937783,
                0.9256445937413039,
                3.158504548735927
            ]
        },
        {
            "positions": [
                -0.2688045915269565,
                -1.339090105945483,
                2.3585301605078506,
                -0.9961715125841736,
                1.0848562006834224,
                3.1720668817937563
            ]
        },
        {
            "positions": [
                -0.33407394755930303,
                -1.3723576658158785,
                2.4230272772406605,
                -1.0321219642305641,
                1.244067807625541,
                3.185629214851586
            ]
        }
    ]
}{
    "goal": {
        "global_pose": {
            "orientation": {
                "w": 0.5084816217422485,
                "x": -0.49083608388900757,
                "y": 0.5182115435600281,
                "z": -0.4816462993621826
            },
            "position": {
                "x": 0.5540239810943604,
                "y": 0.030875300988554955,
                "z": 0.16403168439865112
            }
        },
        "name": "move_to_storage_A"
    },
    "id": "ProjEST_move_to_storage_A_36",
    "joint_names": [
        "shoulder_pan_joint",
        "shoulder_lift_joint",
        "elbow_joint",
        "wrist_1_joint",
        "wrist_2_joint",
        "wrist_3_joint"
    ],
    "metrics": {
        "cart_traj_len": 0.3530394777108301,
        "distance_elbow_joint": 0.44719945275392714,
        "distance_shoulder_lift_joint": 0.23356016531827706,
        "distance_shoulder_pan_joint": 0.4600354236308166,
        "distance_wrist_1_joint": 0.23493576570777663,
        "distance_wrist_2_joint": 1.104775330362502,
        "distance_wrist_3_joint": 0.10098858668444555,
        "smoothness": 0.0,
        "time": 0.053989247,
        "traj_len": 1.606703060449486,
        "weighted_distance": 2.0305622359083
    },
    "planner": "ProjEST",
    "start": {
        "state": {
            "elbow_joint": 1.9715472970024885,
            "shoulder_lift_joint": -1.1394870060712896,
            "shoulder_pan_joint": 0.12281152778156021,
            "wrist_1_joint": -0.780463741449964,
            "wrist_2_joint": 0.12958659822042276,
            "wrist_3_joint": 3.090690232415272
        }
    },
    "waypoints": [
        {
            "positions": [
                0.12281152778156021,
                -1.1394870060712896,
                1.9715472970024885,
                -0.780463741449964,
                0.12958659822042276,
                3.090690232415272
            ]
        },
        {
            "positions": [
                0.057092181548586404,
                -1.1728527439739007,
                2.0354329331101924,
                -0.8140259936939321,
                0.2874116454150659,
                3.1051171733701928
            ]
        },
        {
            "positions": [
                -0.0086271646843874,
                -1.2062184818765116,
                2.099318569217896,
                -0.8475882459379002,
                0.4452366926097091,
                3.1195441143251132
            ]
        },
        {
            "positions": [
                -0.07434651091736119,
                -1.2395842197791227,
                2.1632042053256,
                -0.8811504981818683,
                0.6030617398043522,
                3.133971055280034
            ]
        },
        {
            "positions": [
                -0.140065857150335,
                -1.2729499576817336,
                2.227089841433304,
                -0.9147127504258363,
                0.7608867869989954,
                3.148397996234955
            ]
        },
        {
            "positions": [
                -0.20578520338330883,
                -1.3063156955843447,
                2.290975477541008,
                -0.9482750026698045,
                0.9187118341936386,
                3.162824937189876
            ]
        },
        {
            "positions": [
                -0.27150454961628256,
                -1.3396814334869556,
                2.354861113648712,
                -0.9818372549137725,
                1.0765368813882816,
                3.1772518781447965
            ]
        },
        {
            "positions": [
                -0.3372238958492564,
                -1.3730471713895667,
                2.4187467497564157,
                -1.0153995071577406,
                1.2343619285829248,
                3.1916788190997174
            ]
        }
    ]
}