{
    "goal": {
        "global_pose": {
            "orientation": {
                "w": 0.7047431468963623,
                "x": -0.7094548344612122,
                "y": 0.0024358443915843964,
                "z": -0.0022348060738295317
            },
            "position": {
                "x": 0.6094750761985779,
                "y": 0.3671506643295288,
                "z": 0.19426114857196808
            }
        },
        "name": "move_to_magneteinheit_A"
    },
    "id": "ProjEST_move_to_magneteinheit_A_145",
    "joint_names": [
        "shoulder_pan_joint",
        "shoulder_lift_joint",
        "elbow_joint",
        "wrist_1_joint",
        "wrist_2_joint",
        "wrist_3_joint"
    ],
    "metrics": {
        "cart_traj_len": 4.2039873955944005,
        "distance_elbow_joint": 3.9423245551482107,
        "distance_shoulder_lift_joint": 0.4958029622295397,
        "distance_shoulder_pan_joint": 4.740801608287357,
        "distance_wrist_1_joint": 3.576282038508556,
        "distance_wrist_2_joint": 2.9301020225368553,
        "distance_wrist_3_joint": 0.6470826795666914,
        "smoothness": 0.36057168787236066,
        "time": 0.16835264600000002,
        "traj_len": 4.041335901193714,
        "weighted_distance": 4.912529418380718
    },
    "planner": "ProjEST",
    "start": {
        "state": {
            "elbow_joint": -1.9196185241190666,
            "shoulder_lift_joint": -1.2443396400964142,
            "shoulder_pan_joint": 2.6996025414629847,
            "wrist_1_joint": -1.5485510000780065,
            "wrist_2_joint": -1.5709468930060704,
            "wrist_3_joint": 0.4420197071253992
        }
    },
    "waypoints": [
        {
            "positions": [
                2.6996025414629847,
                -1.2443396400964142,
                -1.9196185241190666,
                -1.5485510000780065,
                -1.5709468930060704,
                0.4420197071253992
            ]
        },
        {
            "positions": [
                2.5852697073469324,
                -1.245003215968352,
                -1.8046758693669864,
                -1.479885734001293,
                -1.5025971277176744,
                0.4231061859049893
            ]
        },
        {
            "positions": [
                2.4709368732308796,
                -1.2456667918402897,
                -1.6897332146149064,
                -1.4112204679245794,
                -1.4342473624292784,
                0.4041926646845793
            ]
        },
        {
            "positions": [
                2.3566040391148273,
                -1.2463303677122277,
                -1.5747905598628265,
                -1.342555201847866,
                -1.3658975971408824,
                0.3852791434641694
            ]
        },
        {
            "positions": [
                2.2422712049987745,
                -1.2469939435841655,
                -1.4598479051107462,
                -1.2738899357711526,
                -1.2975478318524862,
                0.36636562224375946
            ]
        },
        {
            "positions": [
                2.127938370882722,
                -1.2476575194561033,
                -1.344905250358666,
                -1.205224669694439,
                -1.2291980665640905,
                0.34745210102334956
            ]
        },
        {
            "positions": [
                2.0136055367666694,
                -1.2483210953280413,
                -1.229962595606586,
                -1.1365594036177256,
                -1.1608483012756943,
                0.32853857980293966
            ]
        },
        {
            "positions": [
                1.899272702650617,
                -1.248984671199979,
                -1.115019940854506,
                -1.067894137541012,
                -1.0924985359872983,
                0.30962505858252976
            ]
        },
        {
            "positions": [
                1.7849398685345645,
                -1.2496482470719168,
                -1.0000772861024259,
                -0.9992288714642986,
                -1.0241487706989023,
                0.2907115373621198
            ]
        },
        {
            "positions": [
                1.670607034418512,
                -1.2503118229438546,
                -0.8851346313503456,
                -0.9305636053875851,
                -0.9557990054105063,
                0.27179801614170984
            ]
        },
        {
            "positions": [
                1.5562742003024594,
                -1.2509753988157923,
                -0.7701919765982657,
                -0.8618983393108717,
                -0.8874492401221103,
                0.25288449492129994
            ]
        },
        {
            "positions": [
                1.441941366186407,
                -1.2516389746877303,
                -0.6552493218461857,
                -0.7932330732341581,
                -0.8190994748337143,
                0.23397097370089004
            ]
        },
        {
            "positions": [
                1.3276085320703546,
                -1.252302550559668,
                -0.5403066670941055,
                -0.7245678071574446,
                -0.7507497095453183,
                0.2150574524804801
            ]
        },
        {
            "positions": [
                1.213275697954302,
                -1.2529661264316059,
                -0.42536401234202526,
                -0.6559025410807312,
                -0.6823999442569223,
                0.19614393126007018
            ]
        },
        {
            "positions": [
                1.0989428638382495,
                -1.2536297023035439,
                -0.31042135758994527,
                -0.5872372750040177,
                -0.6140501789685262,
                0.17723041003966028
            ]
        },
        {
            "positions": [
                0.9846100297221969,
                -1.2542932781754816,
                -0.19547870283786528,
                -0.5185720089273043,
                -0.5457004136801302,
                0.15831688881925032
            ]
        },
        {
            "positions": [
                0.8702771956061444,
                -1.2549568540474194,
                -0.08053604808578507,
                -0.44990674285059074,
                -0.47735064839173424,
                0.13940336759884042
            ]
        },
        {
            "positions": [
                0.7559443614900918,
                -1.2556204299193572,
                0.034406606666295136,
                -0.3812414767738772,
                -0.40900088310333826,
                0.12048984637843052
            ]
        },
        {
            "positions": [
                0.6416115273740393,
                -1.256284005791295,
                0.14934926141837535,
                -0.3125762106971637,
                -0.3406511178149423,
                0.10157632515802056
            ]
        },
        {
            "positions": [
                0.5272786932579869,
                -1.256947581663233,
                0.2642919161704551,
                -0.24391094462045038,
                -0.2723013525265463,
                0.08266280393761066
            ]
        },
        {
            "positions": [
                0.41294585914193416,
                -1.2576111575351707,
                0.3792345709225353,
                -0.17524567854373685,
                -0.20395158723815032,
                0.0637492827172007
            ]
        },
        {
            "positions": [
                0.29861302502588183,
                -1.2582747334071085,
                0.49417722567461553,
                -0.10658041246702332,
                -0.13560182194975412,
                0.044835761496790805
            ]
        },
        {
            "positions": [
                0.18428019090982906,
                -1.2589383092790465,
                0.6091198804266953,
                -0.037915146390309795,
                -0.06725205666135814,
                0.025922240276380903
            ]
        },
        {
            "positions": [
                0.06994735679377673,
                -1.2596018851509843,
                0.7240625351787755,
                0.030750119686403732,
                0.0010977086270378411,
                0.007008719055970947
            ]
        },
        {
            "positions": [
                -0.0443854773222756,
                -1.260265461022922,
                0.8390051899308557,
                0.09941538576311726,
                0.06944747391543382,
                -0.011904802164438955
            ]
        },
        {
            "positions": [
                -0.15871831143832837,
                -1.2609290368948598,
                0.9539478446829359,
                0.16808065183983056,
                0.1377972392038298,
                -0.030818323384848856
            ]
        },
        {
            "positions": [
                -0.2730511455543807,
                -1.2615926127667976,
                1.0688904994350161,
                0.2367459179165441,
                0.20614700449222578,
                -0.04973184460525881
            ]
        },
        {
            "positions": [
                -0.3873839796704335,
                -1.2622561886387356,
                1.183833154187096,
                0.3054111839932576,
                0.27449676978062176,
                -0.06864536582566871
            ]
        },
        {
            "positions": [
                -0.5017168137864858,
                -1.2629197645106733,
                1.298775808939176,
                0.37407645006997114,
                0.34284653506901797,
                -0.08755888704607862
            ]
        },
        {
            "positions": [
                -0.6160496479025386,
                -1.263583340382611,
                1.4137184636912563,
                0.44274171614668467,
                0.41119630035741395,
                -0.10647240826648852
            ]
        },
        {
            "positions": [
                -0.7303824820185909,
                -1.264246916254549,
                1.528661118443336,
                0.511406982223398,
                0.4795460656458099,
                -0.12538592948689853
            ]
        },
        {
            "positions": [
                -0.8447153161346437,
                -1.2649104921264869,
                1.6436037731954163,
                0.5800722483001117,
                0.5478958309342057,
                -0.14429945070730843
            ]
        },
        {
            "positions": [
                -0.9590481502506961,
                -1.2655740679984246,
                1.7585464279474965,
                0.6487375143768249,
                0.6162455962226017,
                -0.16321297192771828
            ]
        },
        {
            "positions": [
                -0.8606707941985436,
                -1.2224314739686493,
                1.7825609373185554,
                0.7741005620180725,
                0.5487083659218578,
                -0.15940842642648428
            ]
        },
        {
            "positions": [
                -0.7622934381463911,
                -1.1792888799388739,
                1.8065754466896142,
                0.8994636096593203,
                0.4811711356211139,
                -0.1556038809252503
            ]
        },
        {
            "positions": [
                -0.6639160820942387,
                -1.1361462859090985,
                1.830589956060673,
                1.0248266573005678,
                0.41363390532037014,
                -0.1517993354240163
            ]
        },
        {
            "positions": [
                -0.5655387260420861,
                -1.0930036918793231,
                1.8546044654317322,
                1.1501897049418157,
                0.3460966750196262,
                -0.1479947899227823
            ]
        },
        {
            "positions": [
                -0.46716136998993363,
                -1.0498610978495477,
                1.878618974802791,
                1.2755527525830632,
                0.2785594447188824,
                -0.14419024442154832
            ]
        },
        {
            "positions": [
                -0.36878401393778115,
                -1.0067185038197723,
                1.90263348417385,
                1.4009158002243107,
                0.21102221441813857,
                -0.14038569892031436
            ]
        },
        {
            "positions": [
                -0.27040665788562857,
                -0.963575909789997,
                1.9266479935449088,
                1.5262788478655587,
                0.1434849841173947,
                -0.13658115341908036
            ]
        },
        {
            "positions": [
                -0.1720293018334761,
                -0.9204333157602216,
                1.9506625029159679,
                1.6516418955068062,
                0.07594775381665075,
                -0.13277660791784637
            ]
        },
        {
            "positions": [
                -0.0736519457813235,
                -0.8772907217304462,
                1.9746770122870267,
                1.7770049431480541,
                0.008410523515906876,
                -0.12897206241661238
            ]
        },
        {
            "positions": [
                0.024725410270828863,
                -0.8341481277006708,
                1.9986915216580856,
                1.9023679907893016,
                -0.05912670678483689,
                -0.1251675169153784
            ]
        },
        {
            "positions": [
                0.12310276632298135,
                -0.7910055336708954,
                2.0227060310291445,
                2.027731038430549,
                -0.12666393708558077,
                -0.1213629714141444
            ]
        }
    ]
}