{
    "goal": {
        "global_pose": {
            "orientation": {
                "w": -0.00223480608172531,
                "x": 0.0024358444001904467,
                "y": 0.7094548369677653,
                "z": -0.704743149386269
            },
            "position": {
                "x": -0.37947507619857795,
                "y": -0.6371506643295288,
                "z": 0.19426114857196808
            }
        },
        "name": "move_to_magneteinheit_C"
    },
    "id": "ProjEST_move_to_magneteinheit_C_9",
    "joint_names": [
        "shoulder_pan_joint",
        "shoulder_lift_joint",
        "elbow_joint",
        "wrist_1_joint",
        "wrist_2_joint",
        "wrist_3_joint"
    ],
    "metrics": {
        "cart_traj_len": 7.582519744667034,
        "distance_elbow_joint": 2.7651726803032313,
        "distance_shoulder_lift_joint": 3.731568028586799,
        "distance_shoulder_pan_joint": 10.631078276664109,
        "distance_wrist_1_joint": 5.2820327651561865,
        "distance_wrist_2_joint": 6.927082967872369,
        "distance_wrist_3_joint": 4.299451959393206,
        "smoothness": 0.6622344802347514,
        "time": 1.0048746469999998,
        "traj_len": 5.799688498357125,
        "weighted_distance": 7.378645290958961
    },
    "planner": "ProjEST",
    "start": {
        "state": {
            "elbow_joint": 1.9565354010623817,
            "shoulder_lift_joint": -1.4165861575791021,
            "shoulder_pan_joint": -1.6717766225146293,
            "wrist_1_joint": -0.5286633292919765,
            "wrist_2_joint": 1.472756589071564,
            "wrist_3_joint": -3.1238370188695823
        }
    },
    "waypoints": [
        {
            "positions": [
                -1.6717766225146293,
                -1.4165861575791021,
                1.9565354010623817,
                -0.5286633292919765,
                1.472756589071564,
                -3.1238370188695823
            ]
        },
        {
            "positions": [
                -1.6618961967855208,
                -1.4401992409806694,
                1.971840654817565,
                -0.5597536394239293,
                1.4881877517994517,
                -3.08761922744665
            ]
        },
        {
            "positions": [
                -1.6690743132875128,
                -1.4387594676785087,
                1.9700706188601869,
                -0.6061138896723751,
                1.2712681313592413,
                -3.013835846772095
            ]
        },
        {
            "positions": [
                -1.6762524297895045,
                -1.4373196943763478,
                1.9683005829028086,
                -0.6524741399208209,
                1.0543485109190311,
                -2.94005246609754
            ]
        },
        {
            "positions": [
                -1.6834305462914965,
                -1.435879921074187,
                1.9665305469454304,
                -0.6988343901692666,
                0.8374288904788209,
                -2.8662690854229846
            ]
        },
        {
            "positions": [
                -1.6906086627934882,
                -1.434440147772026,
                1.964760510988052,
                -0.7451946404177124,
                0.6205092700386106,
                -2.7924857047484295
            ]
        },
        {
            "positions": [
                -1.6977867792954802,
                -1.4330003744698654,
                1.9629904750306737,
                -0.7915548906661583,
                0.40358964959840016,
                -2.7187023240738744
            ]
        },
        {
            "positions": [
                -1.704964895797472,
                -1.4315606011677044,
                1.9612204390732955,
                -0.8379151409146041,
                0.18667002915818998,
                -2.644918943399319
            ]
        },
        {
            "positions": [
                -1.7121430122994639,
                -1.4301208278655437,
                1.9594504031159172,
                -0.8842753911630499,
                -0.030249591282020427,
                -2.571135562724764
            ]
        },
        {
            "positions": [
                -1.664635851049586,
                -1.4594553893086273,
                1.8562419118617677,
                -0.7985618405955468,
                -0.07217965643985469,
                -2.6397721844122044
            ]
        },
        {
            "positions": [
                -1.6171286897997084,
                -1.4887899507517108,
                1.7530334206076184,
                -0.7128482900280437,
                -0.11410972159768894,
                -2.7084088060996447
            ]
        },
        {
            "positions": [
                -1.5696215285498305,
                -1.5181245121947944,
                1.6498249293534688,
                -0.6271347394605408,
                -0.15603978675552319,
                -2.777045427787085
            ]
        },
        {
            "positions": [
                -1.5221143672999526,
                -1.5474590736378777,
                1.5466164380993193,
                -0.5414211888930377,
                -0.19796985191335745,
                -2.8456820494745254
            ]
        },
        {
            "positions": [
                -1.474607206050075,
                -1.5767936350809613,
                1.44340794684517,
                -0.4557076383255347,
                -0.2398999170711917,
                -2.9143186711619657
            ]
        },
        {
            "positions": [
                -1.4271000448001971,
                -1.6061281965240448,
                1.3401994555910204,
                -0.36999408775803166,
                -0.28182998222902594,
                -2.9829552928494065
            ]
        },
        {
            "positions": [
                -1.3795928835503193,
                -1.6354627579671284,
                1.236990964336871,
                -0.2842805371905286,
                -0.3237600473868602,
                -3.0515919145368464
            ]
        },
        {
            "positions": [
                -1.3320857223004414,
                -1.664797319410212,
                1.1337824730827215,
                -0.19856698662302552,
                -0.36569011254469447,
                -3.120228536224287
            ]
        },
        {
            "positions": [
                -1.2845785610505638,
                -1.6941318808532952,
                1.0305739818285722,
                -0.11285343605552256,
                -0.4076201777025287,
                -3.1888651579117275
            ]
        },
        {
            "positions": [
                -1.237071399800686,
                -1.7234664422963788,
                0.9273654905744226,
                -0.02713988548801949,
                -0.449550242860363,
                -3.257501779599168
            ]
        },
        {
            "positions": [
                -1.1895642385508083,
                -1.7528010037394623,
                0.8241569993202731,
                0.05857366507948358,
                -0.4914803080181972,
                -3.326138401286608
            ]
        },
        {
            "positions": [
                -1.1420570773009304,
                -1.782135565182546,
                0.7209485080661235,
                0.14428721564698654,
                -0.5334103731760315,
                -3.3947750229740485
            ]
        },
        {
            "positions": [
                -1.0945499160510526,
                -1.8114701266256295,
                0.6177400168119742,
                0.23000076621448962,
                -0.5753404383338657,
                -3.463411644661489
            ]
        },
        {
            "positions": [
                -0.9605769268983777,
                -1.8531911022938363,
                0.6440266084754164,
                0.15354956835478256,
                -0.6316275959117728,
                -3.4138436734529107
            ]
        },
        {
            "positions": [
                -0.8266039377457027,
                -1.8949120779620432,
                0.6703132001388585,
                0.07709837049507551,
                -0.6879147534896799,
                -3.3642757022443326
            ]
        },
        {
            "positions": [
                -0.6926309485930278,
                -1.93663305363025,
                0.6965997918023007,
                0.0006471726353684537,
                -0.7442019110675869,
                -3.3147077310357544
            ]
        },
        {
            "positions": [
                -0.5586579594403529,
                -1.978354029298457,
                0.7228863834657429,
                -0.0758040252243386,
                -0.800489068645494,
                -3.2651397598271763
            ]
        },
        {
            "positions": [
                -0.42468497028767804,
                -2.020075004966664,
                0.749172975129185,
                -0.15225522308404565,
                -0.856776226223401,
                -3.215571788618598
            ]
        },
        {
            "positions": [
                -0.2907119811350031,
                -2.0617959806348707,
                0.7754595667926272,
                -0.2287064209437527,
                -0.913063383801308,
                -3.1660038174100196
            ]
        },
        {
            "positions": [
                -0.1567389919823281,
                -2.1035169563030776,
                0.8017461584560694,
                -0.3051576188034597,
                -0.9693505413792152,
                -3.1164358462014414
            ]
        },
        {
            "positions": [
                -0.022766002829653242,
                -2.1452379319712844,
                0.8280327501195115,
                -0.3816088166631668,
                -1.025637698957122,
                -3.0668678749928633
            ]
        },
        {
            "positions": [
                0.11120698632302162,
                -2.1869589076394913,
                0.8543193417829538,
                -0.4580600145228739,
                -1.0819248565350292,
                -3.017299903784285
            ]
        },
        {
            "positions": [
                0.24517997547569648,
                -2.228679883307698,
                0.8806059334463958,
                -0.5345112123825809,
                -1.1382120141129364,
                -2.967731932575707
            ]
        },
        {
            "positions": [
                0.37915296462837156,
                -2.270400858975905,
                0.9068925251098381,
                -0.6109624102422879,
                -1.1944991716908433,
                -2.918163961367129
            ]
        },
        {
            "positions": [
                0.5131259537810464,
                -2.3121218346441115,
                0.9331791167732802,
                -0.687413608101995,
                -1.2507863292687504,
                -2.8685959901585507
            ]
        },
        {
            "positions": [
                0.6470989429337213,
                -2.353842810312319,
                0.9594657084367224,
                -0.7638648059617021,
                -1.3070734868466576,
                -2.8190280189499726
            ]
        },
        {
            "positions": [
                0.7810719320863964,
                -2.395563785980525,
                0.9857523001001646,
                -0.840316003821409,
                -1.3633606444245645,
                -2.7694600477413944
            ]
        },
        {
            "positions": [
                0.9150449212390712,
                -2.4372847616487325,
                1.0120388917636067,
                -0.9167672016811161,
                -1.4196478020024716,
                -2.7198920765328163
            ]
        },
        {
            "positions": [
                1.049017910391746,
                -2.479005737316939,
                1.038325483427049,
                -0.9932183995408232,
                -1.4759349595803788,
                -2.670324105324238
            ]
        },
        {
            "positions": [
                1.182990899544421,
                -2.5207267129851463,
                1.064612075090491,
                -1.0696695974005304,
                -1.5322221171582857,
                -2.62075613411566
            ]
        },
        {
            "positions": [
                1.3169638886970958,
                -2.5624476886533527,
                1.090898666753933,
                -1.1461207952602375,
                -1.5885092747361926,
                -2.571188162907082
            ]
        },
        {
            "positions": [
                1.4509368778497707,
                -2.60416866432156,
                1.1171852584173754,
                -1.2225719931199444,
                -1.6447964323141,
                -2.5216201916985037
            ]
        },
        {
            "positions": [
                1.5849098670024455,
                -2.6458896399897665,
                1.1434718500808176,
                -1.2990231909796515,
                -1.701083589892007,
                -2.4720522204899256
            ]
        },
        {
            "positions": [
                1.7188828561551208,
                -2.6876106156579733,
                1.1697584417442597,
                -1.3754743888393586,
                -1.7573707474699138,
                -2.4224842492813474
            ]
        },
        {
            "positions": [
                1.8528558453077957,
                -2.72933159132618,
                1.1960450334077017,
                -1.4519255866990655,
                -1.8136579050478212,
                -2.3729162780727693
            ]
        },
        {
            "positions": [
                1.9868288344604705,
                -2.771052566994387,
                1.222331625071144,
                -1.5283767845587726,
                -1.8699450626257281,
                -2.3233483068641907
            ]
        },
        {
            "positions": [
                2.1208018236131454,
                -2.812773542662594,
                1.2486182167345863,
                -1.6048279824184797,
                -1.926232220203635,
                -2.2737803356556126
            ]
        },
        {
            "positions": [
                2.2547748127658203,
                -2.854494518330801,
                1.2749048083980283,
                -1.6812791802781868,
                -1.9825193777815424,
                -2.2242123644470344
            ]
        },
        {
            "positions": [
                2.388747801918495,
                -2.8962154939990077,
                1.3011914000614706,
                -1.757730378137894,
                -2.0388065353594493,
                -2.1746443932384563
            ]
        },
        {
            "positions": [
                2.52272079107117,
                -2.9379364696672146,
                1.3274779917249129,
                -1.8341815759976008,
                -2.0950936929373563,
                -2.125076422029878
            ]
        },
        {
            "positions": [
                2.6566937802238453,
                -2.9796574453354214,
                1.353764583388355,
                -1.9106327738573077,
                -2.1513808505152636,
                -2.0755084508213
            ]
        },
        {
            "positions": [
                2.79066676937652,
                -3.0213784210036283,
                1.380051175051797,
                -1.987083971717015,
                -2.2076680080931705,
                -2.0259404796127214
            ]
        },
        {
            "positions": [
                2.924639758529195,
                -3.063099396671835,
                1.4063377667152392,
                -2.063535169576722,
                -2.2639551656710775,
                -1.9763725084041435
            ]
        },
        {
            "positions": [
                3.0586127476818694,
                -3.104820372340042,
                1.4326243583786815,
                -2.1399863674364292,
                -2.3202423232489844,
                -1.9268045371955653
            ]
        },
        {
            "positions": [
                3.1925857368345447,
                -3.146541348008249,
                1.4589109500421236,
                -2.216437565296136,
                -2.3765294808268917,
                -1.8772365659869872
            ]
        },
        {
            "positions": [
                3.035190673326571,
                -3.091500903232488,
                1.4743163904674654,
                -2.1785012815628875,
                -2.2918924093680544,
                -1.9124671032824638
            ]
        },
        {
            "positions": [
                2.877795609818597,
                -3.0364604584567267,
                1.4897218308928073,
                -2.1405649978296393,
                -2.2072553379092175,
                -1.9476976405779407
            ]
        },
        {
            "positions": [
                2.720400546310623,
                -2.9814200136809657,
                1.5051272713181492,
                -2.1026287140963906,
                -2.12261826645038,
                -1.9829281778734174
            ]
        },
        {
            "positions": [
                2.5630054828026494,
                -2.926379568905204,
                1.520532711743491,
                -2.064692430363142,
                -2.0379811949915427,
                -2.018158715168894
            ]
        },
        {
            "positions": [
                2.4056104192946752,
                -2.871339124129443,
                1.535938152168833,
                -2.026756146629894,
                -1.9533441235327056,
                -2.053389252464371
            ]
        },
        {
            "positions": [
                2.2482153557867015,
                -2.816298679353682,
                1.5513435925941748,
                -1.9888198628966451,
                -1.8687070520738684,
                -2.0886197897598473
            ]
        },
        {
            "positions": [
                2.0908202922787273,
                -2.761258234577921,
                1.5667490330195166,
                -1.9508835791633967,
                -1.784069980615031,
                -2.123850327055324
            ]
        },
        {
            "positions": [
                1.9334252287707538,
                -2.7062177898021598,
                1.5821544734448585,
                -1.9129472954301483,
                -1.6994329091561942,
                -2.159080864350801
            ]
        },
        {
            "positions": [
                1.77603016526278,
                -2.6511773450263987,
                1.5975599138702004,
                -1.8750110116968997,
                -1.6147958376973568,
                -2.1943114016462775
            ]
        },
        {
            "positions": [
                1.618635101754806,
                -2.596136900250637,
                1.6129653542955424,
                -1.8370747279636512,
                -1.5301587662385194,
                -2.2295419389417543
            ]
        },
        {
            "positions": [
                1.461240038246832,
                -2.541096455474876,
                1.6283707947208843,
                -1.7991384442304028,
                -1.4455216947796823,
                -2.2647724762372308
            ]
        },
        {
            "positions": [
                1.3038449747388583,
                -2.486056010699115,
                1.6437762351462262,
                -1.7612021604971544,
                -1.3608846233208451,
                -2.3000030135327076
            ]
        },
        {
            "positions": [
                1.1464499112308846,
                -2.431015565923354,
                1.659181675571568,
                -1.723265876763906,
                -1.276247551862008,
                -2.3352335508281845
            ]
        },
        {
            "positions": [
                0.9890548477229104,
                -2.375975121147593,
                1.67458711599691,
                -1.6853295930306573,
                -1.1916104804031706,
                -2.370464088123661
            ]
        },
        {
            "positions": [
                0.8316597842149367,
                -2.3209346763718317,
                1.6899925564222518,
                -1.6473933092974087,
                -1.1069734089443335,
                -2.405694625419138
            ]
        },
        {
            "positions": [
                0.674264720706963,
                -2.2658942315960706,
                1.7053979968475936,
                -1.6094570255641605,
                -1.0223363374854963,
                -2.4409251627146142
            ]
        },
        {
            "positions": [
                0.5168696571989888,
                -2.2108537868203095,
                1.7208034372729355,
                -1.5715207418309118,
                -0.9376992660266592,
                -2.476155700010091
            ]
        },
        {
            "positions": [
                0.3594745936910151,
                -2.155813342044548,
                1.7362088776982774,
                -1.5335844580976634,
                -0.8530621945678218,
                -2.511386237305568
            ]
        },
        {
            "positions": [
                0.20207953018304137,
                -2.100772897268787,
                1.7516143181236192,
                -1.495648174364415,
                -0.7684251231089845,
                -2.546616774601045
            ]
        },
        {
            "positions": [
                0.0446844666750672,
                -2.045732452493026,
                1.767019758548961,
                -1.4577118906311664,
                -0.6837880516501473,
                -2.5818473118965213
            ]
        },
        {
            "positions": [
                -0.11271059683290652,
                -1.9906920077172645,
                1.782425198974303,
                -1.419775606897918,
                -0.59915098019131,
                -2.617077849191998
            ]
        },
        {
            "positions": [
                -0.2701056603408807,
                -1.9356515629415034,
                1.7978306393996448,
                -1.3818393231646695,
                -0.5145139087324728,
                -2.6523083864874746
            ]
        },
        {
            "positions": [
                -0.42750072384885396,
                -1.8806111181657423,
                1.8132360798249867,
                -1.343903039431421,
                -0.4298768372736359,
                -2.6875389237829514
            ]
        },
        {
            "positions": [
                -0.5848957873568281,
                -1.8255706733899812,
                1.8286415202503286,
                -1.3059667556981727,
                -0.34523976581479854,
                -2.7227694610784283
            ]
        },
        {
            "positions": [
                -0.7422908508648018,
                -1.7705302286142202,
                1.8440469606756704,
                -1.268030471964924,
                -0.2606026943559616,
                -2.7579999983739047
            ]
        },
        {
            "positions": [
                -0.8996859143727756,
                -1.7154897838384588,
                1.8594524011010125,
                -1.2300941882316756,
                -0.17596562289712425,
                -2.7932305356693816
            ]
        },
        {
            "positions": [
                -1.0570809778807497,
                -1.6604493390626978,
                1.8748578415263544,
                -1.1921579044984272,
                -0.09132855143828689,
                -2.828461072964858
            ]
        },
        {
            "positions": [
                -1.214476041388724,
                -1.6054088942869364,
                1.8902632819516962,
                -1.1542216207651785,
                -0.006691479979449522,
                -2.863691610260335
            ]
        },
        {
            "positions": [
                -1.3718711048966972,
                -1.5503684495111754,
                1.905668722377038,
                -1.1162853370319301,
                0.07794559147938784,
                -2.898922147555812
            ]
        },
        {
            "positions": [
                -1.5292661684046713,
                -1.4953280047354143,
                1.92107416280238,
                -1.0783490532986815,
                0.16258266293822476,
                -2.9341526848512887
            ]
        },
        {
            "positions": [
                -1.6866612319126455,
                -1.440287559959653,
                1.9364796032277218,
                -1.040412769565433,
                0.24721973439706213,
                -2.969383222146765
            ]
        },
        {
            "positions": [
                -1.8440562954206188,
                -1.385247115183892,
                1.9518850436530637,
                -1.0024764858321846,
                0.33185680585589905,
                -3.0046137594422415
            ]
        },
        {
            "positions": [
                -2.001451358928593,
                -1.3302066704081308,
                1.9672904840784056,
                -0.9645402020989362,
                0.4164938773147364,
                -3.0398442967377184
            ]
        },
        {
            "positions": [
                -2.158846422436567,
                -1.2751662256323697,
                1.9826959245037474,
                -0.9266039183656878,
                0.5011309487735733,
                -3.0750748340331953
            ]
        },
        {
            "positions": [
                -2.3162414859445404,
                -1.2201257808566084,
                1.9981013649290893,
                -0.8886676346324391,
                0.5857680202324107,
                -3.110305371328672
            ]
        },
        {
            "positions": [
                -2.473636549452514,
                -1.1650853360808473,
                2.013506805354431,
                -0.8507313508991906,
                0.6704050916912481,
                -3.1455359086241486
            ]
        }
    ]
}