{
    "goal": {
        "global_pose": {
            "orientation": {
                "w": -0.4816463035849501,
                "x": 0.5182115481033762,
                "y": 0.4908360881923453,
                "z": -0.5084816262002911
            },
            "position": {
                "x": -0.8240239810943604,
                "y": 0.19912469901144506,
                "z": 0.16403168439865112
            }
        },
        "name": "move_to_storage_D"
    },
    "id": "ProjEST_move_to_storage_D_113",
    "joint_names": [
        "shoulder_pan_joint",
        "shoulder_lift_joint",
        "elbow_joint",
        "wrist_1_joint",
        "wrist_2_joint",
        "wrist_3_joint"
    ],
    "metrics": {
        "cart_traj_len": 0.5527731833509301,
        "distance_elbow_joint": 0.5570191441664667,
        "distance_shoulder_lift_joint": 0.15189049075915984,
        "distance_shoulder_pan_joint": 0.1503764069785625,
        "distance_wrist_1_joint": 3.8262086910320514,
        "distance_wrist_2_joint": 1.7833902452639954,
        "distance_wrist_3_joint": 3.180487223488945,
        "smoothness": 0.02567583926022237,
        "time": 0.06413661699999999,
        "traj_len": 3.106343864044865,
        "weighted_distance": 4.649725323603871
    },
    "planner": "ProjEST",
    "start": {
        "state": {
            "elbow_joint": -2.384821988534728,
            "shoulder_lift_joint": -2.2788054721415256,
            "shoulder_pan_joint": -0.1854694642142757,
            "wrist_1_joint": 1.4845938289331202,
            "wrist_2_joint": 0.17898776772866878,
            "wrist_3_joint": 0.037105688729662994
        }
    },
    "waypoints": [
        {
            "positions": [
                -0.1854694642142757,
                -2.2788054721415256,
                -2.384821988534728,
                1.4845938289331202,
                0.17898776772866878,
                0.037105688729662994
            ]
        },
        {
            "positions": [
                -0.05005147945736016,
                -2.2156362357448423,
                -2.29261477602918,
                1.4134506784686274,
                0.163769052040502,
                0.029089588607406
            ]
        },
        {
            "positions": [
                -0.04942821186479154,
                -2.2119395168130724,
                -2.273247612209975,
                1.2569896142783126,
                0.09009523830817581,
                0.16127588541435134
            ]
        },
        {
            "positions": [
                -0.04880494427222291,
                -2.2082427978813026,
                -2.25388044839077,
                1.1005285500879975,
                0.016421424575849636,
                0.29346218222129666
            ]
        },
        {
            "positions": [
                -0.048181676679654284,
                -2.204546078949533,
                -2.234513284571565,
                0.9440674858976826,
                -0.05725238915647657,
                0.42564847902824204
            ]
        },
        {
            "positions": [
                -0.047558409087085654,
                -2.200849360017763,
                -2.21514612075236,
                0.7876064217073677,
                -0.13092620288880272,
                0.5578347758351873
            ]
        },
        {
            "positions": [
                -0.04693514149451703,
                -2.197152641085993,
                -2.195778956933155,
                0.6311453575170528,
                -0.20460001662112895,
                0.6900210726421327
            ]
        },
        {
            "positions": [
                -0.04631187390194841,
                -2.1934559221542234,
                -2.1764117931139504,
                0.4746842933267379,
                -0.2782738303534551,
                0.822207369449078
            ]
        },
        {
            "positions": [
                -0.04568860630937978,
                -2.189759203222453,
                -2.157044629294745,
                0.31822322913642287,
                -0.3519476440857814,
                0.9543936662560234
            ]
        },
        {
            "positions": [
                -0.045065338716811155,
                -2.1860624842906833,
                -2.1376774654755404,
                0.16176216494610807,
                -0.42562145781810745,
                1.0865799630629687
            ]
        },
        {
            "positions": [
                -0.044442071124242526,
                -2.1823657653589135,
                -2.1183103016563356,
                0.005301100755793042,
                -0.49929527155043374,
                1.2187662598699143
            ]
        },
        {
            "positions": [
                -0.0438188035316739,
                -2.1786690464271437,
                -2.0989431378371304,
                -0.15115996343452176,
                -0.5729690852827599,
                1.3509525566768597
            ]
        },
        {
            "positions": [
                -0.04319553593910527,
                -2.174972327495374,
                -2.0795759740179256,
                -0.30762102762483656,
                -0.6466428990150861,
                1.4831388534838048
            ]
        },
        {
            "positions": [
                -0.04257226834653665,
                -2.171275608563604,
                -2.060208810198721,
                -0.4640820918151516,
                -0.7203167127474123,
                1.6153251502907502
            ]
        },
        {
            "positions": [
                -0.04194900075396803,
                -2.167578889631834,
                -2.0408416463795156,
                -0.6205431560054662,
                -0.7939905264797383,
                1.7475114470976953
            ]
        },
        {
            "positions": [
                -0.0413257331613994,
                -2.1638821707000644,
                -2.021474482560311,
                -0.7770042201957816,
                -0.8676643402120647,
                1.879697743904641
            ]
        },
        {
            "positions": [
                -0.040702465568830774,
                -2.1601854517682946,
                -2.0021073187411056,
                -0.9334652843860962,
                -0.9413381539443908,
                2.011884040711586
            ]
        },
        {
            "positions": [
                -0.04007919797626215,
                -2.1564887328365248,
                -1.9827401549219008,
                -1.0899263485764112,
                -1.0150119676767169,
                2.144070337518531
            ]
        },
        {
            "positions": [
                -0.03945593038369352,
                -2.152792013904755,
                -1.9633729911026958,
                -1.2463874127667263,
                -1.0886857814090434,
                2.2762566343254766
            ]
        },
        {
            "positions": [
                -0.03883266279112489,
                -2.1490952949729847,
                -1.9440058272834908,
                -1.4028484769570413,
                -1.1623595951413694,
                2.4084429311324222
            ]
        },
        {
            "positions": [
                -0.03820939519855627,
                -2.145398576041215,
                -1.924638663464286,
                -1.5593095411473559,
                -1.2360334088736955,
                2.5406292279393674
            ]
        },
        {
            "positions": [
                -0.037586127605987646,
                -2.141701857109445,
                -1.905271499645081,
                -1.715770605337671,
                -1.3097072226060218,
                2.672815524746313
            ]
        },
        {
            "positions": [
                -0.036962860013419016,
                -2.1380051381776752,
                -1.885904335825876,
                -1.872231669527986,
                -1.3833810363383479,
                2.805001821553258
            ]
        },
        {
            "positions": [
                -0.03633959242085039,
                -2.1343084192459054,
                -1.8665371720066712,
                -2.0286927337183007,
                -1.4570548500706741,
                2.9371881183602033
            ]
        },
        {
            "positions": [
                -0.03571632482828176,
                -2.1306117003141356,
                -1.8471700081874662,
                -2.185153797908616,
                -1.5307286638030004,
                3.069374415167149
            ]
        },
        {
            "positions": [
                -0.03509305723571314,
                -2.126914981382366,
                -1.8278028443682612,
                -2.3416148620989308,
                -1.6044024775353265,
                3.201560711974094
            ]
        }
    ]
}