{
    "goal": {
        "global_pose": {
            "orientation": {
                "w": 0.005598929693374612,
                "x": 0.007748599140229565,
                "y": 0.7110244013736278,
                "z": -0.7031023480610252
            },
            "position": {
                "x": -0.8858502320852131,
                "y": -0.7141253447532654,
                "z": 0.3711530566215515
            }
        },
        "name": "move_to_auspresseinheit_C"
    },
    "id": "ProjEST_move_to_auspresseinheit_C_4",
    "joint_names": [
        "shoulder_pan_joint",
        "shoulder_lift_joint",
        "elbow_joint",
        "wrist_1_joint",
        "wrist_2_joint",
        "wrist_3_joint"
    ],
    "metrics": {
        "cart_traj_len": 0.49443270256575905,
        "distance_elbow_joint": 1.019814862991578,
        "distance_shoulder_lift_joint": 0.3337756922141657,
        "distance_shoulder_pan_joint": 0.25580030956249455,
        "distance_wrist_1_joint": 0.7157209905650056,
        "distance_wrist_2_joint": 1.3199632987531917,
        "distance_wrist_3_joint": 0.0803302801331296,
        "smoothness": 4.844609600361787e-16,
        "time": 3.377779439,
        "traj_len": 1.930130937066075,
        "weighted_distance": 2.4334646666438413
    },
    "planner": "ProjEST",
    "start": {
        "state": {
            "elbow_joint": 1.7527959577737207,
            "shoulder_lift_joint": -0.9740617694225068,
            "shoulder_pan_joint": -2.967991417825858,
            "wrist_1_joint": -0.759517768980727,
            "wrist_2_joint": 1.7443932448377408,
            "wrist_3_joint": -3.0840537646736568
        }
    },
    "waypoints": [
        {
            "positions": [
                -2.967991417825858,
                -0.9740617694225068,
                1.7527959577737207,
                -0.759517768980727,
                1.7443932448377408,
                -3.0840537646736568
            ]
        },
        {
            "positions": [
                -2.9424113868696087,
                -0.9406842002010902,
                1.650814471474563,
                -0.6879456699242265,
                1.6123969149624218,
                -3.0920867926869695
            ]
        },
        {
            "positions": [
                -2.916831355913359,
                -0.9073066309796737,
                1.548832985175405,
                -0.6163735708677258,
                1.4804005850871025,
                -3.1001198207002827
            ]
        },
        {
            "positions": [
                -2.8912513249571097,
                -0.873929061758257,
                1.4468514988762473,
                -0.5448014718112253,
                1.3484042552117832,
                -3.108152848713596
            ]
        },
        {
            "positions": [
                -2.86567129400086,
                -0.8405514925368405,
                1.3448700125770894,
                -0.4732293727547247,
                1.2164079253364641,
                -3.1161858767269086
            ]
        },
        {
            "positions": [
                -2.8400912630446107,
                -0.8071739233154239,
                1.2428885262779317,
                -0.4016572736982242,
                1.084411595461145,
                -3.1242189047402213
            ]
        },
        {
            "positions": [
                -2.8145112320883614,
                -0.7737963540940074,
                1.140907039978774,
                -0.33008517464172366,
                0.9524152655858258,
                -3.1322519327535345
            ]
        },
        {
            "positions": [
                -2.7889312011321117,
                -0.7404187848725908,
                1.0389255536796163,
                -0.2585130755852231,
                0.8204189357105067,
                -3.1402849607668473
            ]
        },
        {
            "positions": [
                -2.7633511701758624,
                -0.7070412156511743,
                0.9369440673804582,
                -0.18694097652872244,
                0.6884226058351874,
                -3.1483179887801604
            ]
        },
        {
            "positions": [
                -2.7377711392196127,
                -0.6736636464297576,
                0.8349625810813005,
                -0.11536887747222191,
                0.5564262759598682,
                -3.156351016793473
            ]
        },
        {
            "positions": [
                -2.7121911082633634,
                -0.6402860772083411,
                0.7329810947821426,
                -0.04379677841572142,
                0.42442994608454915,
                -3.1643840448067864
            ]
        }
    ]
}