{
    "goal": {
        "global_pose": {
            "orientation": {
                "w": 0.5084816217422485,
                "x": -0.49083608388900757,
                "y": 0.5182115435600281,
                "z": -0.4816462993621826
            },
            "position": {
                "x": 0.5540239810943604,
                "y": 0.030875300988554955,
                "z": 0.16403168439865112
            }
        },
        "name": "move_to_storage_A"
    },
    "id": "ProjEST_move_to_storage_A_89",
    "joint_names": [
        "shoulder_pan_joint",
        "shoulder_lift_joint",
        "elbow_joint",
        "wrist_1_joint",
        "wrist_2_joint",
        "wrist_3_joint"
    ],
    "metrics": {
        "cart_traj_len": 0.35318553737500546,
        "distance_elbow_joint": 0.4503705881834208,
        "distance_shoulder_lift_joint": 0.2324381141493379,
        "distance_shoulder_pan_joint": 0.46334640760134194,
        "distance_wrist_1_joint": 0.24938052594388227,
        "distance_wrist_2_joint": 1.0913719508977098,
        "distance_wrist_3_joint": 0.10468204680118953,
        "smoothness": 0.0,
        "time": 0.05414684,
        "traj_len": 1.6098414933082332,
        "weighted_distance": 2.035118228511762
    },
    "planner": "ProjEST",
    "start": {
        "state": {
            "elbow_joint": 1.971548259319323,
            "shoulder_lift_joint": -1.1394851275133948,
            "shoulder_pan_joint": 0.1228115487234821,
            "wrist_1_joint": -0.7804723859257726,
            "wrist_2_joint": 0.12958671773740124,
            "wrist_3_joint": -3.192489227718131
        }
    },
    "waypoints": [
        {
            "positions": [
                0.1228115487234821,
                -1.1394851275133948,
                1.971548259319323,
                -0.7804723859257726,
                0.12958671773740124,
                -3.192489227718131
            ]
        },
        {
            "positions": [
                0.05661920478043325,
                -1.1726905723918717,
                2.0358869147740974,
                -0.8160981753463272,
                0.28549699643707405,
                -3.1775346496036754
            ]
        },
        {
            "positions": [
                -0.009573139162615596,
                -1.2058960172703486,
                2.1002255702288717,
                -0.8517239647668818,
                0.4414072751367468,
                -3.16258007148922
            ]
        },
        {
            "positions": [
                -0.07576548310566444,
                -1.2391014621488254,
                2.1645642256836464,
                -0.8873497541874364,
                0.5973175538364197,
                -3.1476254933747643
            ]
        },
        {
            "positions": [
                -0.1419578270487133,
                -1.272306907027302,
                2.2289028811384206,
                -0.9229755436079911,
                0.7532278325360925,
                -3.1326709152603085
            ]
        },
        {
            "positions": [
                -0.20815017099176214,
                -1.305512351905779,
                2.293241536593195,
                -0.9586013330285457,
                0.9091381112357654,
                -3.1177163371458527
            ]
        },
        {
            "positions": [
                -0.274342514934811,
                -1.3387177967842558,
                2.3575801920479695,
                -0.9942271224491003,
                1.0650483899354382,
                -3.1027617590313974
            ]
        },
        {
            "positions": [
                -0.34053485887785984,
                -1.3719232416627327,
                2.4219188475027438,
                -1.0298529118696549,
                1.220958668635111,
                -3.0878071809169416
            ]
        }
    ]
}{
    "goal": {
        "global_pose": {
            "orientation": {
                "w": 0.5084816217422485,
                "x": -0.49083608388900757,
                "y": 0.5182115435600281,
                "z": -0.4816462993621826
            },
            "position": {
                "x": 0.5540239810943604,
                "y": 0.030875300988554955,
                "z": 0.16403168439865112
            }
        },
        "name": "move_to_storage_A"
    },
    "id": "ProjEST_move_to_storage_A_89",
    "joint_names": [
        "shoulder_pan_joint",
        "shoulder_lift_joint",
        "elbow_joint",
        "wrist_1_joint",
        "wrist_2_joint",
        "wrist_3_joint"
    ],
    "metrics": {
        "cart_traj_len": 0.35317555573130377,
        "distance_elbow_joint": 0.44880430405241034,
        "distance_shoulder_lift_joint": 0.23294864715476482,
        "distance_shoulder_pan_joint": 0.4636817658637917,
        "distance_wrist_1_joint": 0.2393057946988164,
        "distance_wrist_2_joint": 1.0902126909524579,
        "distance_wrist_3_joint": 0.08975812867686317,
        "smoothness": 4.440892133664971e-16,
        "time": 0.056953362,
        "traj_len": 1.6014716142970202,
        "weighted_distance": 2.0183523167187896
    },
    "planner": "ProjEST",
    "start": {
        "state": {
            "elbow_joint": 1.97154746011099,
            "shoulder_lift_joint": -1.13948474672311,
            "shoulder_pan_joint": 0.12281154466712228,
            "wrist_1_joint": -0.7804688027058302,
            "wrist_2_joint": 0.12958655903071145,
            "wrist_3_joint": 3.0906928834467795
        }
    },
    "waypoints": [
        {
            "positions": [
                0.12281154466712228,
                -1.13948474672311,
                1.97154746011099,
                -0.7804688027058302,
                0.12958655903071145,
                3.0906928834467795
            ]
        },
        {
            "positions": [
                0.056571292400866335,
                -1.1727631248880763,
                2.035662360689906,
                -0.8146553448056612,
                0.2853312291667769,
                3.10351547325776
            ]
        },
        {
            "positions": [
                -0.009668959865389612,
                -1.2060415030530427,
                2.0997772612688212,
                -0.848841886905492,
                0.4410758993028423,
                3.1163380630687403
            ]
        },
        {
            "positions": [
                -0.07590921213164557,
                -1.239319881218009,
                2.163892161847737,
                -0.883028429005323,
                0.5968205694389077,
                3.1291606528797207
            ]
        },
        {
            "positions": [
                -0.1421494643979015,
                -1.2725982593829754,
                2.228007062426653,
                -0.9172149711051538,
                0.7525652395749731,
                3.1419832426907015
            ]
        },
        {
            "positions": [
                -0.20838971666415745,
                -1.305876637547942,
                2.292121963005569,
                -0.9514015132049848,
                0.9083099097110385,
                3.154805832501682
            ]
        },
        {
            "positions": [
                -0.2746299689304134,
                -1.3391550157129084,
                2.3562368635844844,
                -0.9855880553048156,
                1.064054579847104,
                3.1676284223126623
            ]
        },
        {
            "positions": [
                -0.3408702211966694,
                -1.3724333938778748,
                2.4203517641634003,
                -1.0197745974046466,
                1.2197992499831694,
                3.1804510121236427
            ]
        }
    ]
}{
    "goal": {
        "global_pose": {
            "orientation": {
                "w": 0.5084816217422485,
                "x": -0.49083608388900757,
                "y": 0.5182115435600281,
                "z": -0.4816462993621826
            },
            "position": {
                "x": 0.5540239810943604,
                "y": 0.030875300988554955,
                "z": 0.16403168439865112
            }
        },
        "name": "move_to_storage_A"
    },
    "id": "ProjEST_move_to_storage_A_89",
    "joint_names": [
        "shoulder_pan_joint",
        "shoulder_lift_joint",
        "elbow_joint",
        "wrist_1_joint",
        "wrist_2_joint",
        "wrist_3_joint"
    ],
    "metrics": {
        "cart_traj_len": 0.35251105074141204,
        "distance_elbow_joint": 0.4533844746417319,
        "distance_shoulder_lift_joint": 0.2322458838894006,
        "distance_shoulder_pan_joint": 0.46146042811000926,
        "distance_wrist_1_joint": 0.26225726832809837,
        "distance_wrist_2_joint": 1.0946840648198384,
        "distance_wrist_3_joint": 0.10504371682067459,
        "smoothness": 2.2204460668324854e-16,
        "time": 0.032587134000000004,
        "traj_len": 1.61526339542805,
        "weighted_distance": 2.043551957597124
    },
    "planner": "ProjEST",
    "start": {
        "state": {
            "elbow_joint": 1.9715472970024885,
            "shoulder_lift_joint": -1.1394870060712896,
            "shoulder_pan_joint": 0.12281152778156021,
            "wrist_1_joint": -0.780463741449964,
            "wrist_2_joint": 0.12958659822042276,
            "wrist_3_joint": 3.090690232415272
        }
    },
    "waypoints": [
        {
            "positions": [
                0.12281152778156021,
                -1.1394870060712896,
                1.9715472970024885,
                -0.780463741449964,
                0.12958659822042276,
                3.090690232415272
            ]
        },
        {
            "positions": [
                0.05688860948013033,
                -1.172664989484061,
                2.036316507665593,
                -0.8179290654968352,
                0.28597003605182825,
                3.105696477675368
            ]
        },
        {
            "positions": [
                -0.009034308821299547,
                -1.2058429728968327,
                2.1010857183286977,
                -0.8553943895437064,
                0.44235347388323376,
                3.1207027229354645
            ]
        },
        {
            "positions": [
                -0.07495722712272943,
                -1.2390209563096042,
                2.165854928991802,
                -0.8928597135905776,
                0.5987369117146392,
                3.1357089681955608
            ]
        },
        {
            "positions": [
                -0.1408801454241593,
                -1.2721989397223756,
                2.230624139654907,
                -0.9303250376374488,
                0.7551203495460447,
                3.1507152134556575
            ]
        },
        {
            "positions": [
                -0.20680306372558924,
                -1.3053769231351473,
                2.2953933503180113,
                -0.96779036168432,
                0.9115037873774502,
                3.165721458715754
            ]
        },
        {
            "positions": [
                -0.27272598202701903,
                -1.3385549065479188,
                2.3601625609811157,
                -1.0052556857311912,
                1.0678872252088556,
                3.18072770397585
            ]
        },
        {
            "positions": [
                -0.338648900328449,
                -1.3717328899606902,
                2.4249317716442205,
                -1.0427210097780624,
                1.224270663040261,
                3.1957339492359464
            ]
        }
    ]
}