{
    "goal": {
        "global_pose": {
            "orientation": {
                "w": -0.00223480608172531,
                "x": 0.0024358444001904467,
                "y": 0.7094548369677653,
                "z": -0.704743149386269
            },
            "position": {
                "x": 0.6205249238014221,
                "y": -0.6371506643295288,
                "z": 0.19426114857196808
            }
        },
        "name": "move_to_magneteinheit_B"
    },
    "id": "ProjEST_move_to_magneteinheit_B_89",
    "joint_names": [
        "shoulder_pan_joint",
        "shoulder_lift_joint",
        "elbow_joint",
        "wrist_1_joint",
        "wrist_2_joint",
        "wrist_3_joint"
    ],
    "metrics": {
        "cart_traj_len": 1.5100442332762334,
        "distance_elbow_joint": 0.9523281725647006,
        "distance_shoulder_lift_joint": 1.0546815413622803,
        "distance_shoulder_pan_joint": 1.6218517540958919,
        "distance_wrist_1_joint": 2.232357471414254,
        "distance_wrist_2_joint": 2.8928488862936876,
        "distance_wrist_3_joint": 0.6741363968722007,
        "smoothness": 0.7129833451311215,
        "time": 0.266748063,
        "traj_len": 3.070538099845533,
        "weighted_distance": 3.9876914843121147
    },
    "planner": "ProjEST",
    "start": {
        "state": {
            "elbow_joint": 2.6216224122426386,
            "shoulder_lift_joint": -1.4174107377796124,
            "shoulder_pan_joint": 0.7066234856936794,
            "wrist_1_joint": 1.9546482284002225,
            "wrist_2_joint": -0.7096286983471962,
            "wrist_3_joint": 0.005740856962016249
        }
    },
    "waypoints": [
        {
            "positions": [
                0.7066234856936794,
                -1.4174107377796124,
                2.6216224122426386,
                1.9546482284002225,
                -0.7096286983471962,
                0.005740856962016249
            ]
        },
        {
            "positions": [
                0.6527518311007728,
                -1.4362469787305328,
                2.582353479543597,
                1.8277769810648885,
                -0.6238930438740936,
                -0.03546675311631794
            ]
        },
        {
            "positions": [
                0.5988801765078662,
                -1.455083219681453,
                2.5430845468445558,
                1.7009057337295548,
                -0.538157389400991,
                -0.07667436319465212
            ]
        },
        {
            "positions": [
                0.5450085219149596,
                -1.4739194606323731,
                2.5038156141455143,
                1.574034486394221,
                -0.45242173492788845,
                -0.11788197327298632
            ]
        },
        {
            "positions": [
                0.49113686732205303,
                -1.4927557015832935,
                2.464546681446473,
                1.447163239058887,
                -0.36668608045478585,
                -0.15908958335132048
            ]
        },
        {
            "positions": [
                0.4372652127291464,
                -1.511591942534214,
                2.4252777487474315,
                1.3202919917235532,
                -0.28095042598168324,
                -0.20029719342965466
            ]
        },
        {
            "positions": [
                0.3833935581362399,
                -1.530428183485134,
                2.38600881604839,
                1.1934207443882194,
                -0.1952147715085807,
                -0.24150480350798886
            ]
        },
        {
            "positions": [
                0.32952190354333327,
                -1.5492644244360543,
                2.3467398833493487,
                1.0665494970528857,
                -0.10947911703547808,
                -0.28271241358632304
            ]
        },
        {
            "positions": [
                0.27565024895042667,
                -1.5681006653869747,
                2.3074709506503073,
                0.9396782497175518,
                -0.023743462562375472,
                -0.3239200236646572
            ]
        },
        {
            "positions": [
                0.205598571459095,
                -1.5149246881072735,
                2.2699311441225207,
                1.0112892787017627,
                -0.15356485376877943,
                -0.3036567580031556
            ]
        },
        {
            "positions": [
                0.13554689396776332,
                -1.4617487108275726,
                2.2323913375947346,
                1.0829003076859733,
                -0.2833862449751834,
                -0.283393492341654
            ]
        },
        {
            "positions": [
                0.06549521647643161,
                -1.4085727335478715,
                2.194851531066948,
                1.1545113366701842,
                -0.41320763618158735,
                -0.2631302266801524
            ]
        },
        {
            "positions": [
                -0.004556461014900037,
                -1.3553967562681706,
                2.1573117245391615,
                1.226122365654395,
                -0.5430290273879913,
                -0.2428669610186508
            ]
        },
        {
            "positions": [
                -0.07460813850623177,
                -1.3022207789884694,
                2.119771918011375,
                1.2977333946386058,
                -0.6728504185943953,
                -0.2226036953571492
            ]
        },
        {
            "positions": [
                -0.14465981599756345,
                -1.2490448017087683,
                2.082232111483589,
                1.3693444236228165,
                -0.8026718098007992,
                -0.20234042969564758
            ]
        },
        {
            "positions": [
                -0.21471149348889507,
                -1.1958688244290674,
                2.0446923049558023,
                1.4409554526070272,
                -0.9324932010072031,
                -0.18207716403414598
            ]
        },
        {
            "positions": [
                -0.28476317098022674,
                -1.1426928471493663,
                2.007152498428016,
                1.512566481591238,
                -1.0623145922136072,
                -0.16181389837264437
            ]
        },
        {
            "positions": [
                -0.35481484847155853,
                -1.0895168698696653,
                1.9696126919002295,
                1.584177510575449,
                -1.1921359834200111,
                -0.14155063271114277
            ]
        },
        {
            "positions": [
                -0.4248665259628902,
                -1.0363408925899642,
                1.932072885372443,
                1.6557885395596599,
                -1.321957374626415,
                -0.12128736704964116
            ]
        },
        {
            "positions": [
                -0.4949182034542219,
                -0.9831649153102632,
                1.8945330788446566,
                1.7273995685438706,
                -1.451778765832819,
                -0.10102410138813955
            ]
        },
        {
            "positions": [
                -0.5649698809455536,
                -0.9299889380305622,
                1.85699327231687,
                1.7990105975280812,
                -1.5816001570392229,
                -0.08076083572663792
            ]
        },
        {
            "positions": [
                -0.6350215584368851,
                -0.8768129607508611,
                1.8194534657890837,
                1.8706216265122921,
                -1.7114215482456268,
                -0.06049757006513634
            ]
        },
        {
            "positions": [
                -0.7050732359282168,
                -0.8236369834711601,
                1.7819136592612974,
                1.9422326554965028,
                -1.8412429394520307,
                -0.040234304403634735
            ]
        },
        {
            "positions": [
                -0.7751249134195486,
                -0.7704610061914591,
                1.7443738527335109,
                2.0138436844807135,
                -1.9710643306584346,
                -0.01997103874213313
            ]
        },
        {
            "positions": [
                -0.8451765909108802,
                -0.7172850289117579,
                1.7068340462057243,
                2.0854547134649244,
                -2.100885721864839,
                0.0002922269193684768
            ]
        },
        {
            "positions": [
                -0.915228268402212,
                -0.6641090516320569,
                1.669294239677938,
                2.1570657424491353,
                -2.230707113071243,
                0.020555492580870093
            ]
        }
    ]
}