{
    "goal": {
        "global_pose": {
            "orientation": {
                "w": 0.7031023502349854,
                "x": -0.7110244035720825,
                "y": 0.007748599164187908,
                "z": 0.005598929710686207
            },
            "position": {
                "x": 0.11585023208521307,
                "y": 0.44412534475326537,
                "z": 0.3711530566215515
            }
        },
        "name": "move_to_auspresseinheit_A"
    },
    "id": "ProjEST_move_to_auspresseinheit_A_35",
    "joint_names": [
        "shoulder_pan_joint",
        "shoulder_lift_joint",
        "elbow_joint",
        "wrist_1_joint",
        "wrist_2_joint",
        "wrist_3_joint"
    ],
    "metrics": {
        "cart_traj_len": 0.8170595186281809,
        "distance_elbow_joint": 0.24665979204139754,
        "distance_shoulder_lift_joint": 0.8288370967069048,
        "distance_shoulder_pan_joint": 1.0441381255485478,
        "distance_wrist_1_joint": 1.1200388376760613,
        "distance_wrist_2_joint": 0.5244296647745145,
        "distance_wrist_3_joint": 2.0936730946727033,
        "smoothness": 1.1124705347511348,
        "time": 0.15429414,
        "traj_len": 2.4202844071348575,
        "weighted_distance": 3.419004431587668
    },
    "planner": "ProjEST",
    "start": {
        "state": {
            "elbow_joint": 2.4225746658250005,
            "shoulder_lift_joint": -1.3736534386056498,
            "shoulder_pan_joint": -0.3378633547517467,
            "wrist_1_joint": -1.0288598680537169,
            "wrist_2_joint": 1.233022673432363,
            "wrist_3_joint": -3.0940220416140027
        }
    },
    "waypoints": [
        {
            "positions": [
                -0.3378633547517467,
                -1.3736534386056498,
                2.4225746658250005,
                -1.0288598680537169,
                1.233022673432363,
                -3.0940220416140027
            ]
        },
        {
            "positions": [
                -0.31486018632080837,
                -1.4873434952052418,
                2.440892099668567,
                -1.0763665229534796,
                1.222306611590936,
                -2.922498820900546
            ]
        },
        {
            "positions": [
                -0.29185701788987006,
                -1.6010335518048335,
                2.459209533512133,
                -1.123873177853242,
                1.211590549749509,
                -2.750975600187089
            ]
        },
        {
            "positions": [
                -0.2688538494589317,
                -1.7147236084044253,
                2.4775269673556997,
                -1.1713798327530047,
                1.2008744879080817,
                -2.579452379473632
            ]
        },
        {
            "positions": [
                -0.24585068102799337,
                -1.8284136650040173,
                2.495844401199266,
                -1.2188864876527674,
                1.1901584260666547,
                -2.407929158760175
            ]
        },
        {
            "positions": [
                -0.22284751259705501,
                -1.9421037216036092,
                2.5141618350428323,
                -1.2663931425525299,
                1.1794423642252276,
                -2.236405938046718
            ]
        },
        {
            "positions": [
                -0.19984434416611668,
                -2.055793778203201,
                2.532479268886399,
                -1.3138997974522926,
                1.1687263023838006,
                -2.064882717333261
            ]
        },
        {
            "positions": [
                -0.09916444250357025,
                -2.039494138524384,
                2.5172842478886213,
                -1.2211221409770163,
                1.1176003808586947,
                -2.1831642473768125
            ]
        },
        {
            "positions": [
                0.00151545915897619,
                -2.023194498845567,
                2.5020892268908437,
                -1.1283444845017403,
                1.066474459333589,
                -2.301445777420364
            ]
        },
        {
            "positions": [
                0.10219536082152264,
                -2.0068948591667497,
                2.4868942058930656,
                -1.035566828026464,
                1.0153485378084832,
                -2.419727307463915
            ]
        },
        {
            "positions": [
                0.20287526248406906,
                -1.9905952194879326,
                2.471699184895288,
                -0.9427891715511879,
                0.9642226162833775,
                -2.5380088375074665
            ]
        },
        {
            "positions": [
                0.3035551641466156,
                -1.9742955798091157,
                2.4565041638975105,
                -0.8500115150759117,
                0.9130966947582717,
                -2.6562903675510174
            ]
        },
        {
            "positions": [
                0.40423506580916196,
                -1.9579959401302987,
                2.441309142899733,
                -0.7572338586006355,
                0.861970773233166,
                -2.774571897594569
            ]
        },
        {
            "positions": [
                0.5049149674717084,
                -1.9416963004514816,
                2.426114121901955,
                -0.6644562021253594,
                0.8108448517080602,
                -2.89285342763812
            ]
        },
        {
            "positions": [
                0.6055948691342548,
                -1.9253966607726645,
                2.4109191009041773,
                -0.5716785456500832,
                0.7597189301829543,
                -3.0111349576816715
            ]
        },
        {
            "positions": [
                0.7062747707968012,
                -1.9090970210938474,
                2.3957240799063997,
                -0.47890088917480694,
                0.7085930086578486,
                -3.129416487725223
            ]
        }
    ]
}