{
    "goal": {
        "global_pose": {
            "orientation": {
                "w": -0.4816463035849501,
                "x": 0.5182115481033762,
                "y": 0.4908360881923453,
                "z": -0.5084816262002911
            },
            "position": {
                "x": -0.8240239810943604,
                "y": -0.300875300988555,
                "z": 0.16403168439865112
            }
        },
        "name": "move_to_storage_C"
    },
    "id": "ProjEST_move_to_storage_C_15",
    "joint_names": [
        "shoulder_pan_joint",
        "shoulder_lift_joint",
        "elbow_joint",
        "wrist_1_joint",
        "wrist_2_joint",
        "wrist_3_joint"
    ],
    "metrics": {
        "cart_traj_len": 0.5759829385642398,
        "distance_elbow_joint": 0.2551860976379645,
        "distance_shoulder_lift_joint": 0.18778522584460744,
        "distance_shoulder_pan_joint": 0.4954488559292578,
        "distance_wrist_1_joint": 0.07364288453129697,
        "distance_wrist_2_joint": 1.0613060698890848,
        "distance_wrist_3_joint": 0.06059460149885876,
        "smoothness": 0.0,
        "time": 0.014325217,
        "traj_len": 1.460809274111809,
        "weighted_distance": 1.8412229340167283
    },
    "planner": "ProjEST",
    "start": {
        "state": {
            "elbow_joint": 2.010868314990456,
            "shoulder_lift_joint": -1.1634956873337592,
            "shoulder_pan_joint": -2.4736205022346125,
            "wrist_1_joint": -0.8367026794202681,
            "wrist_2_joint": 0.6746043897044499,
            "wrist_3_joint": -3.1496632123970403
        }
    },
    "waypoints": [
        {
            "positions": [
                -2.4736205022346125,
                -1.1634956873337592,
                2.010868314990456,
                -0.8367026794202681,
                0.6746043897044499,
                -3.1496632123970403
            ]
        },
        {
            "positions": [
                -2.5561953115561553,
                -1.1321981496929914,
                1.9683372987174617,
                -0.8244288653317187,
                0.8514887346859641,
                -3.1395641121472306
            ]
        },
        {
            "positions": [
                -2.6387701208776986,
                -1.1009006120522233,
                1.9258062824444677,
                -0.8121550512431691,
                1.0283730796674782,
                -3.1294650118974205
            ]
        },
        {
            "positions": [
                -2.7213449301992414,
                -1.0696030744114555,
                1.8832752661714736,
                -0.7998812371546196,
                1.2052574246489924,
                -3.119365911647611
            ]
        },
        {
            "positions": [
                -2.803919739520784,
                -1.0383055367706875,
                1.8407442498984794,
                -0.7876074230660701,
                1.3821417696305063,
                -3.1092668113978013
            ]
        },
        {
            "positions": [
                -2.8864945488423275,
                -1.0070079991299197,
                1.7982132336254855,
                -0.7753336089775207,
                1.5590261146120206,
                -3.099167711147991
            ]
        },
        {
            "positions": [
                -2.9690693581638703,
                -0.9757104614891517,
                1.7556822173524913,
                -0.7630597948889711,
                1.7359104595935348,
                -3.0890686108981815
            ]
        }
    ]
}