{
    "goal": {
        "global_pose": {
            "orientation": {
                "w": 0.7031023502349854,
                "x": -0.7110244035720825,
                "y": 0.007748599164187908,
                "z": 0.005598929710686207
            },
            "position": {
                "x": 0.11585023208521307,
                "y": 0.44412534475326537,
                "z": 0.3711530566215515
            }
        },
        "name": "move_to_auspresseinheit_A"
    },
    "id": "ProjEST_move_to_auspresseinheit_A_94",
    "joint_names": [
        "shoulder_pan_joint",
        "shoulder_lift_joint",
        "elbow_joint",
        "wrist_1_joint",
        "wrist_2_joint",
        "wrist_3_joint"
    ],
    "metrics": {
        "cart_traj_len": 1.0310385832446336,
        "distance_elbow_joint": 0.2216531449744461,
        "distance_shoulder_lift_joint": 0.53501397916957,
        "distance_shoulder_pan_joint": 1.7878462984385062,
        "distance_wrist_1_joint": 0.5580463522936996,
        "distance_wrist_2_joint": 0.52714100778601,
        "distance_wrist_3_joint": 0.22272311200190575,
        "smoothness": 1.0252254145892983,
        "time": 0.114511416,
        "traj_len": 1.9627592554014712,
        "weighted_distance": 2.320141693679
    },
    "planner": "ProjEST",
    "start": {
        "state": {
            "elbow_joint": 2.4225746658250005,
            "shoulder_lift_joint": -1.3736534386056498,
            "shoulder_pan_joint": -0.3378633547517467,
            "wrist_1_joint": -1.0288598680537169,
            "wrist_2_joint": 1.233022673432363,
            "wrist_3_joint": -3.0940220416140027
        }
    },
    "waypoints": [
        {
            "positions": [
                -0.3378633547517467,
                -1.3736534386056498,
                2.4225746658250005,
                -1.0288598680537169,
                1.233022673432363,
                -3.0940220416140027
            ]
        },
        {
            "positions": [
                -0.4309216921520285,
                -1.3916538398129452,
                2.391457731958979,
                -0.8971618471655868,
                1.1895310847839764,
                -3.070688887560128
            ]
        },
        {
            "positions": [
                -0.5239800295523103,
                -1.4096542410202408,
                2.360340798092958,
                -0.7654638262774567,
                1.14603949613559,
                -3.0473557335062536
            ]
        },
        {
            "positions": [
                -0.6170383669525921,
                -1.4276546422275365,
                2.3292238642269365,
                -0.6337658053893266,
                1.1025479074872035,
                -3.0240225794523794
            ]
        },
        {
            "positions": [
                -0.7100967043528739,
                -1.4456550434348319,
                2.298106930360915,
                -0.5020677845011965,
                1.059056318838817,
                -3.000689425398505
            ]
        },
        {
            "positions": [
                -0.5078662830903912,
                -1.5117996683406016,
                2.3119905602909667,
                -0.4976028889667423,
                1.0086027969541793,
                -3.01917378193942
            ]
        },
        {
            "positions": [
                -0.3056358618279085,
                -1.5779442932463712,
                2.3258741902210183,
                -0.4931379934322882,
                0.9581492750695415,
                -3.0376581384803356
            ]
        },
        {
            "positions": [
                -0.10340544056542578,
                -1.644088918152141,
                2.33975782015107,
                -0.48867309789783403,
                0.9076957531849038,
                -3.056142495021251
            ]
        },
        {
            "positions": [
                0.09882498069705692,
                -1.7102335430579108,
                2.3536414500811214,
                -0.4842082023633799,
                0.8572422313002661,
                -3.0746268515621664
            ]
        },
        {
            "positions": [
                0.3010554019595397,
                -1.7763781679636805,
                2.367525080011173,
                -0.47974330682892574,
                0.8067887094156284,
                -3.093111208103082
            ]
        },
        {
            "positions": [
                0.5032858232220223,
                -1.84252279286945,
                2.3814087099412244,
                -0.4752784112944716,
                0.7563351875309907,
                -3.1115955646439972
            ]
        },
        {
            "positions": [
                0.7055162444845051,
                -1.9086674177752199,
                2.395292339871276,
                -0.47081351576001745,
                0.705881665646353,
                -3.1300799211849126
            ]
        }
    ]
}