{
    "goal": {
        "global_pose": {
            "orientation": {
                "w": -0.00223480608172531,
                "x": 0.0024358444001904467,
                "y": 0.7094548369677653,
                "z": -0.704743149386269
            },
            "position": {
                "x": 0.6205249238014221,
                "y": -0.6371506643295288,
                "z": 0.19426114857196808
            }
        },
        "name": "move_to_magneteinheit_B"
    },
    "id": "ProjEST_move_to_magneteinheit_B_102",
    "joint_names": [
        "shoulder_pan_joint",
        "shoulder_lift_joint",
        "elbow_joint",
        "wrist_1_joint",
        "wrist_2_joint",
        "wrist_3_joint"
    ],
    "metrics": {
        "cart_traj_len": 1.7292395330872379,
        "distance_elbow_joint": 1.0096872575550562,
        "distance_shoulder_lift_joint": 1.2254655959841303,
        "distance_shoulder_pan_joint": 1.6348982028371117,
        "distance_wrist_1_joint": 0.6550367528539223,
        "distance_wrist_2_joint": 1.6838761403152673,
        "distance_wrist_3_joint": 2.0986970124192657,
        "smoothness": 0.8882083228712152,
        "time": 0.23027755300000002,
        "traj_len": 2.882301330875167,
        "weighted_distance": 3.852787027590868
    },
    "planner": "ProjEST",
    "start": {
        "state": {
            "elbow_joint": 2.6216224122426386,
            "shoulder_lift_joint": -1.4174107377796124,
            "shoulder_pan_joint": 0.7066234856936794,
            "wrist_1_joint": 1.9546482284002225,
            "wrist_2_joint": -0.7096286983471962,
            "wrist_3_joint": 0.005740856962016249
        }
    },
    "waypoints": [
        {
            "positions": [
                0.7066234856936794,
                -1.4174107377796124,
                2.6216224122426386,
                1.9546482284002225,
                -0.7096286983471962,
                0.005740856962016249
            ]
        },
        {
            "positions": [
                0.6637348919355648,
                -1.452971323939816,
                2.62983408236001,
                2.0032408041919525,
                -0.7510519694319223,
                -0.16500152933388584
            ]
        },
        {
            "positions": [
                0.6208462981774502,
                -1.48853191010002,
                2.6380457524773817,
                2.051833379983683,
                -0.7924752405166485,
                -0.33574391562978795
            ]
        },
        {
            "positions": [
                0.5779577044193356,
                -1.5240924962602238,
                2.6462574225947533,
                2.100425955775413,
                -0.8338985116013746,
                -0.5064863019256901
            ]
        },
        {
            "positions": [
                0.5798613710623564,
                -1.5557972928247634,
                2.5764811868397253,
                2.0413205575464457,
                -0.8148904999623914,
                -0.6424139906190041
            ]
        },
        {
            "positions": [
                0.5817650377053772,
                -1.587502089389303,
                2.5067049510846973,
                1.9822151593174784,
                -0.7958824883234081,
                -0.7783416793123179
            ]
        },
        {
            "positions": [
                0.5836687043483981,
                -1.6192068859538427,
                2.4369287153296693,
                1.923109761088511,
                -0.7768744766844249,
                -0.9142693680056319
            ]
        },
        {
            "positions": [
                0.5855723709914189,
                -1.6509116825183823,
                2.3671524795746413,
                1.8640043628595437,
                -0.7578664650454416,
                -1.0501970566989458
            ]
        },
        {
            "positions": [
                0.4919087613045011,
                -1.5889138918155472,
                2.3230307730632145,
                1.8810567023947227,
                -0.8505898575770139,
                -0.9850246130265518
            ]
        },
        {
            "positions": [
                0.39824515161758334,
                -1.5269161011127121,
                2.2789090665517877,
                1.8981090419299016,
                -0.9433132501085861,
                -0.9198521693541577
            ]
        },
        {
            "positions": [
                0.30458154193066556,
                -1.4649183104098773,
                2.234787360040361,
                1.9151613814650805,
                -1.0360366426401584,
                -0.8546797256817638
            ]
        },
        {
            "positions": [
                0.21091793224374777,
                -1.4029205197070422,
                2.1906656535289337,
                1.9322137210002595,
                -1.1287600351717306,
                -0.7895072820093696
            ]
        },
        {
            "positions": [
                0.11725432255682999,
                -1.3409227290042072,
                2.146543947017507,
                1.9492660605354382,
                -1.2214834277033029,
                -0.7243348383369757
            ]
        },
        {
            "positions": [
                0.02359071286991221,
                -1.278924938301372,
                2.10242224050608,
                1.966318400070617,
                -1.3142068202348751,
                -0.6591623946645816
            ]
        },
        {
            "positions": [
                -0.07007289681700557,
                -1.216927147598537,
                2.0583005339946534,
                1.983370739605796,
                -1.4069302127664474,
                -0.5939899509921875
            ]
        },
        {
            "positions": [
                -0.16373650650392335,
                -1.154929356895702,
                2.0141788274832266,
                2.000423079140975,
                -1.4996536052980196,
                -0.5288175073197935
            ]
        },
        {
            "positions": [
                -0.25740011619084113,
                -1.092931566192867,
                1.9700571209717996,
                2.017475418676154,
                -1.5923769978295919,
                -0.46364506364739944
            ]
        },
        {
            "positions": [
                -0.3510637258777589,
                -1.0309337754900318,
                1.9259354144603729,
                2.0345277582113326,
                -1.685100390361164,
                -0.3984726199750054
            ]
        },
        {
            "positions": [
                -0.4447273355646768,
                -0.9689359847871969,
                1.8818137079489459,
                2.0515800977465117,
                -1.7778237828927363,
                -0.33330017630261133
            ]
        },
        {
            "positions": [
                -0.5383909452515945,
                -0.9069381940843619,
                1.837692001437519,
                2.0686324372816904,
                -1.8705471754243086,
                -0.2681277326302174
            ]
        },
        {
            "positions": [
                -0.6320545549385121,
                -0.8449404033815269,
                1.7935702949260923,
                2.0856847768168696,
                -1.9632705679558808,
                -0.20295528895782333
            ]
        },
        {
            "positions": [
                -0.72571816462543,
                -0.7829426126786918,
                1.7494485884146656,
                2.1027371163520483,
                -2.055993960487453,
                -0.13778284528542928
            ]
        },
        {
            "positions": [
                -0.8193817743123479,
                -0.7209448219758569,
                1.7053268819032388,
                2.1197894558872274,
                -2.148717353019025,
                -0.07261040161303522
            ]
        },
        {
            "positions": [
                -0.9130453839992657,
                -0.6589470312730218,
                1.6612051753918118,
                2.136841795422406,
                -2.2414407455505976,
                -0.007437957940641083
            ]
        }
    ]
}