{
    "goal": {
        "global_pose": {
            "orientation": {
                "w": 0.5084816262002911,
                "x": -0.4908360881923452,
                "y": 0.5182115481033761,
                "z": -0.48164630358495003
            },
            "position": {
                "x": 0.5540239810943604,
                "y": -0.46912469901144505,
                "z": 0.16403168439865112
            }
        },
        "name": "move_to_storage_B"
    },
    "id": "ProjEST_move_to_storage_B_83",
    "joint_names": [
        "shoulder_pan_joint",
        "shoulder_lift_joint",
        "elbow_joint",
        "wrist_1_joint",
        "wrist_2_joint",
        "wrist_3_joint"
    ],
    "metrics": {
        "cart_traj_len": 1.5583413878021362,
        "distance_elbow_joint": 1.1439863727575612,
        "distance_shoulder_lift_joint": 0.45800693589284713,
        "distance_shoulder_pan_joint": 1.4813938329352778,
        "distance_wrist_1_joint": 2.9871713695150657,
        "distance_wrist_2_joint": 2.7014094605311163,
        "distance_wrist_3_joint": 3.131640522685364,
        "smoothness": 0.1760488571973293,
        "time": 0.085609938,
        "traj_len": 3.4501606476100832,
        "weighted_distance": 4.884206216954208
    },
    "planner": "ProjEST",
    "start": {
        "state": {
            "elbow_joint": 1.664937868594044,
            "shoulder_lift_joint": -0.661644460510453,
            "shoulder_pan_joint": -0.9139846352900073,
            "wrist_1_joint": 2.146753192139373,
            "wrist_2_joint": -2.2341966793290973,
            "wrist_3_joint": 0.005466555786416001
        }
    },
    "waypoints": [
        {
            "positions": [
                -0.9139846352900073,
                -0.661644460510453,
                1.664937868594044,
                2.146753192139373,
                -2.2341966793290973,
                0.005466555786416001
            ]
        },
        {
            "positions": [
                -0.8211128447229404,
                -0.6970805792868635,
                1.6081267337476324,
                2.113609919653064,
                -2.147741189829693,
                -0.07534967935992687
            ]
        },
        {
            "positions": [
                -0.7282410541558737,
                -0.7325166980632739,
                1.5513155989012208,
                2.080466647166755,
                -2.0612857003302896,
                -0.15616591450626974
            ]
        },
        {
            "positions": [
                -0.6353692635888069,
                -0.7679528168396844,
                1.4945044640548093,
                2.047323374680446,
                -1.9748302108308857,
                -0.2369821496526126
            ]
        },
        {
            "positions": [
                -0.54249747302174,
                -0.8033889356160948,
                1.4376933292083978,
                2.0141801021941363,
                -1.8883747213314819,
                -0.31779838479895545
            ]
        },
        {
            "positions": [
                -0.4496256824546732,
                -0.8388250543925053,
                1.3808821943619862,
                1.9810368297078274,
                -1.8019192318320778,
                -0.39861461994529834
            ]
        },
        {
            "positions": [
                -0.3567538918876064,
                -0.8742611731689157,
                1.3240710595155747,
                1.9478935572215181,
                -1.7154637423326742,
                -0.4794308550916412
            ]
        },
        {
            "positions": [
                -0.26388210132053963,
                -0.9096972919453262,
                1.2672599246691632,
                1.914750284735209,
                -1.62900825283327,
                -0.5602470902379841
            ]
        },
        {
            "positions": [
                -0.29851923877744835,
                -0.9184453796310751,
                1.2983561092038582,
                1.7999515988139214,
                -1.5416657097484663,
                -0.6671607100988576
            ]
        },
        {
            "positions": [
                -0.3331563762343571,
                -0.9271934673168241,
                1.3294522937385531,
                1.685152912892634,
                -1.4543231666636627,
                -0.774074329959731
            ]
        },
        {
            "positions": [
                -0.36779351369126584,
                -0.9359415550025729,
                1.3605484782732482,
                1.5703542269713462,
                -1.3669806235788589,
                -0.8809879498206046
            ]
        },
        {
            "positions": [
                -0.40243065114817456,
                -0.9446896426883219,
                1.3916446628079433,
                1.4555555410500587,
                -1.2796380804940553,
                -0.987901569681478
            ]
        },
        {
            "positions": [
                -0.43706778860508333,
                -0.9534377303740708,
                1.4227408473426382,
                1.3407568551287712,
                -1.1922955374092514,
                -1.0948151895423517
            ]
        },
        {
            "positions": [
                -0.47170492606199205,
                -0.9621858180598197,
                1.4538370318773333,
                1.2259581692074835,
                -1.1049529943244476,
                -1.201728809403225
            ]
        },
        {
            "positions": [
                -0.5063420635189008,
                -0.9709339057455686,
                1.4849332164120284,
                1.111159483286196,
                -1.0176104512396438,
                -1.3086424292640986
            ]
        },
        {
            "positions": [
                -0.5409792009758094,
                -0.9796819934313176,
                1.5160294009467232,
                0.9963607973649085,
                -0.9302679081548402,
                -1.415556049124972
            ]
        },
        {
            "positions": [
                -0.5756163384327182,
                -0.9884300811170664,
                1.5471255854814183,
                0.881562111443621,
                -0.8429253650700363,
                -1.5224696689858455
            ]
        },
        {
            "positions": [
                -0.610253475889627,
                -0.9971781688028154,
                1.5782217700161134,
                0.7667634255223332,
                -0.7555828219852325,
                -1.629383288846719
            ]
        },
        {
            "positions": [
                -0.6448906133465357,
                -1.0059262564885643,
                1.6093179545508083,
                0.6519647396010457,
                -0.6682402789004289,
                -1.7362969087075923
            ]
        },
        {
            "positions": [
                -0.6795277508034445,
                -1.0146743441743131,
                1.6404141390855034,
                0.5371660536797582,
                -0.5808977358156251,
                -1.843210528568466
            ]
        },
        {
            "positions": [
                -0.7141648882603532,
                -1.023422431860062,
                1.6715103236201982,
                0.4223673677584707,
                -0.4935551927308215,
                -1.9501241484293392
            ]
        },
        {
            "positions": [
                -0.748802025717262,
                -1.032170519545811,
                1.7026065081548936,
                0.307568681837183,
                -0.40621264964601744,
                -2.057037768290213
            ]
        },
        {
            "positions": [
                -0.7834391631741706,
                -1.04091860723156,
                1.7337026926895884,
                0.1927699959158955,
                -0.31887010656121384,
                -2.1639513881510863
            ]
        },
        {
            "positions": [
                -0.8180763006310794,
                -1.0496666949173088,
                1.7647988772242833,
                0.077971309994608,
                -0.23152756347641024,
                -2.2708650080119597
            ]
        },
        {
            "positions": [
                -0.8527134380879882,
                -1.0584147826030577,
                1.7958950617589786,
                -0.03682737592667973,
                -0.1441850203916062,
                -2.3777786278728335
            ]
        },
        {
            "positions": [
                -0.8873505755448969,
                -1.0671628702888067,
                1.8269912462936735,
                -0.151626061847967,
                -0.056842477306802586,
                -2.484692247733707
            ]
        },
        {
            "positions": [
                -0.9219877130018055,
                -1.0759109579745556,
                1.8580874308283684,
                -0.26642474776925473,
                0.030500065778001018,
                -2.59160586759458
            ]
        },
        {
            "positions": [
                -0.9566248504587145,
                -1.0846590456603045,
                1.8891836153630637,
                -0.38122343369054246,
                0.11784260886280506,
                -2.698519487455454
            ]
        },
        {
            "positions": [
                -0.991261987915623,
                -1.0934071333460533,
                1.9202797998977585,
                -0.49602211961182974,
                0.20518515194760867,
                -2.8054331073163272
            ]
        },
        {
            "positions": [
                -1.0258991253725318,
                -1.1021552210318024,
                1.9513759844324534,
                -0.6108208055331175,
                0.29252769503241227,
                -2.9123467271772006
            ]
        },
        {
            "positions": [
                -1.0605362628294406,
                -1.1109033087175513,
                1.9824721689671487,
                -0.7256194914544052,
                0.3798702381172161,
                -3.0192603470380743
            ]
        },
        {
            "positions": [
                -1.0951734002863494,
                -1.1196513964033001,
                2.0135683535018436,
                -0.8404181773756925,
                0.4672127812020198,
                -3.1261739668989477
            ]
        }
    ]
}