{
    "goal": {
        "global_pose": {
            "orientation": {
                "w": 0.005598929693374612,
                "x": 0.007748599140229565,
                "y": 0.7110244013736278,
                "z": -0.7031023480610252
            },
            "position": {
                "x": -0.8858502320852131,
                "y": -0.7141253447532654,
                "z": 0.3711530566215515
            }
        },
        "name": "move_to_auspresseinheit_C"
    },
    "id": "ProjEST_move_to_auspresseinheit_C_101",
    "joint_names": [
        "shoulder_pan_joint",
        "shoulder_lift_joint",
        "elbow_joint",
        "wrist_1_joint",
        "wrist_2_joint",
        "wrist_3_joint"
    ],
    "metrics": {
        "cart_traj_len": 0.49213752161895613,
        "distance_elbow_joint": 0.9938071040629528,
        "distance_shoulder_lift_joint": 0.3227840577705864,
        "distance_shoulder_pan_joint": 0.2556868579533118,
        "distance_wrist_1_joint": 0.6623510013201305,
        "distance_wrist_2_joint": 1.3169775305779228,
        "distance_wrist_3_joint": 0.049598759886107846,
        "smoothness": 8.074349282788172e-16,
        "time": 0.203745819,
        "traj_len": 1.8976841970072396,
        "weighted_distance": 2.383218698156189
    },
    "planner": "ProjEST",
    "start": {
        "state": {
            "elbow_joint": 1.7527959577737207,
            "shoulder_lift_joint": -0.9740617694225068,
            "shoulder_pan_joint": -2.967991417825858,
            "wrist_1_joint": -0.759517768980727,
            "wrist_2_joint": 1.7443932448377408,
            "wrist_3_joint": -3.0840537646736568
        }
    },
    "waypoints": [
        {
            "positions": [
                -2.967991417825858,
                -0.9740617694225068,
                1.7527959577737207,
                -0.759517768980727,
                1.7443932448377408,
                -3.0840537646736568
            ]
        },
        {
            "positions": [
                -2.942422732030527,
                -0.9417833636454481,
                1.6534152473674253,
                -0.6932826688487139,
                1.6126954917799485,
                -3.0890136406622677
            ]
        },
        {
            "positions": [
                -2.9168540462351955,
                -0.9095049578683895,
                1.5540345369611301,
                -0.6270475687167009,
                1.4809977387221562,
                -3.093973516650878
            ]
        },
        {
            "positions": [
                -2.8912853604398645,
                -0.8772265520913308,
                1.4546538265548348,
                -0.5608124685846878,
                1.349299985664364,
                -3.098933392639489
            ]
        },
        {
            "positions": [
                -2.865716674644533,
                -0.8449481463142722,
                1.3552731161485396,
                -0.4945773684526748,
                1.2176022326065716,
                -3.1038932686281
            ]
        },
        {
            "positions": [
                -2.840147988849202,
                -0.8126697405372136,
                1.2558924057422443,
                -0.42834226832066175,
                1.0859044795487796,
                -3.1088531446167105
            ]
        },
        {
            "positions": [
                -2.814579303053871,
                -0.780391334760155,
                1.1565116953359489,
                -0.3621071681886487,
                0.9542067264909871,
                -3.1138130206053214
            ]
        },
        {
            "positions": [
                -2.7890106172585396,
                -0.7481129289830963,
                1.0571309849296537,
                -0.2958720680566357,
                0.822508973433195,
                -3.1187728965939323
            ]
        },
        {
            "positions": [
                -2.7634419314632086,
                -0.7158345232060377,
                0.9577502745233584,
                -0.22963696792462263,
                0.6908112203754027,
                -3.1237327725825432
            ]
        },
        {
            "positions": [
                -2.737873245667877,
                -0.683556117428979,
                0.8583695641170631,
                -0.16340186779260957,
                0.5591134673176104,
                -3.1286926485711537
            ]
        },
        {
            "positions": [
                -2.712304559872546,
                -0.6512777116519204,
                0.7589888537107679,
                -0.09716676766059651,
                0.4274157142598181,
                -3.1336525245597646
            ]
        }
    ]
}