{
    "goal": {
        "global_pose": {
            "orientation": {
                "w": 0.7031023480610252,
                "x": -0.7110244013736278,
                "y": 0.0077485991402295624,
                "z": 0.005598929693374583
            },
            "position": {
                "x": -0.8841497679147869,
                "y": 0.44412534475326537,
                "z": 0.3711530566215515
            }
        },
        "name": "move_to_auspresseinheit_D"
    },
    "id": "ProjEST_move_to_auspresseinheit_D_58",
    "joint_names": [
        "shoulder_pan_joint",
        "shoulder_lift_joint",
        "elbow_joint",
        "wrist_1_joint",
        "wrist_2_joint",
        "wrist_3_joint"
    ],
    "metrics": {
        "cart_traj_len": 0.3439005723613358,
        "distance_elbow_joint": 0.6441822875803109,
        "distance_shoulder_lift_joint": 0.12398145268803296,
        "distance_shoulder_pan_joint": 0.13432064154172194,
        "distance_wrist_1_joint": 0.5519510366806979,
        "distance_wrist_2_joint": 1.434220057541999,
        "distance_wrist_3_joint": 0.020603540223727013,
        "smoothness": 0.0,
        "time": 0.047914602,
        "traj_len": 1.7056550109141326,
        "weighted_distance": 2.221854448636688
    },
    "planner": "ProjEST",
    "start": {
        "state": {
            "elbow_joint": -1.8275523626775212,
            "shoulder_lift_joint": -2.126789852344167,
            "shoulder_pan_joint": -0.03513704404078235,
            "wrist_1_joint": -2.347782403156801,
            "wrist_2_joint": -1.6058999987535132,
            "wrist_3_joint": -3.0880379163319196
        }
    },
    "waypoints": [
        {
            "positions": [
                -0.03513704404078235,
                -2.126789852344167,
                -1.8275523626775212,
                -2.347782403156801,
                -1.6058999987535132,
                -3.0880379163319196
            ]
        },
        {
            "positions": [
                -0.05192712423349759,
                -2.142287533930171,
                -1.7470295767299824,
                -2.416776282741888,
                -1.4266224915607633,
                -3.0854624738039536
            ]
        },
        {
            "positions": [
                -0.06871720442621283,
                -2.157785215516175,
                -1.6665067907824436,
                -2.4857701623269755,
                -1.2473449843680133,
                -3.082887031275988
            ]
        },
        {
            "positions": [
                -0.08550728461892806,
                -2.173282897102179,
                -1.5859840048349045,
                -2.5547640419120627,
                -1.0680674771752636,
                -3.080311588748022
            ]
        },
        {
            "positions": [
                -0.10229736481164331,
                -2.188780578688183,
                -1.5054612188873657,
                -2.62375792149715,
                -0.8887899699825137,
                -3.0777361462200563
            ]
        },
        {
            "positions": [
                -0.11908744500435856,
                -2.2042782602741875,
                -1.424938432939827,
                -2.692751801082237,
                -0.7095124627897638,
                -3.0751607036920903
            ]
        },
        {
            "positions": [
                -0.1358775251970738,
                -2.2197759418601914,
                -1.3444156469922879,
                -2.761745680667324,
                -0.5302349555970141,
                -3.0725852611641242
            ]
        },
        {
            "positions": [
                -0.15266760538978905,
                -2.235273623446196,
                -1.263892861044749,
                -2.8307395602524115,
                -0.3509574484042641,
                -3.0700098186361586
            ]
        },
        {
            "positions": [
                -0.1694576855825043,
                -2.2507713050322,
                -1.1833700750972103,
                -2.8997334398374988,
                -0.17167994121151411,
                -3.0674343761081926
            ]
        }
    ]
}