{
    "goal": {
        "global_pose": {
            "orientation": {
                "w": 0.7047431493862688,
                "x": -0.7094548369677653,
                "y": 0.0024358444001904,
                "z": -0.0022348060817251984
            },
            "position": {
                "x": -0.39052492380142206,
                "y": 0.3671506643295288,
                "z": 0.19426114857196808
            }
        },
        "name": "move_to_magneteinheit_D"
    },
    "id": "ProjEST_move_to_magneteinheit_D_76",
    "joint_names": [
        "shoulder_pan_joint",
        "shoulder_lift_joint",
        "elbow_joint",
        "wrist_1_joint",
        "wrist_2_joint",
        "wrist_3_joint"
    ],
    "metrics": {
        "cart_traj_len": 4.67450433911719,
        "distance_elbow_joint": 3.2361290435486625,
        "distance_shoulder_lift_joint": 1.6281747697418563,
        "distance_shoulder_pan_joint": 3.65566984915674,
        "distance_wrist_1_joint": 1.6808285940603538,
        "distance_wrist_2_joint": 0.9977049033863723,
        "distance_wrist_3_joint": 3.2348471084295016,
        "smoothness": 0.4625322722408659,
        "time": 0.245688712,
        "traj_len": 3.7991254609875,
        "weighted_distance": 4.856087106161628
    },
    "planner": "ProjEST",
    "start": {
        "state": {
            "elbow_joint": 0.749534889911806,
            "shoulder_lift_joint": -0.6476975780787326,
            "shoulder_pan_joint": -2.711696901376241,
            "wrist_1_joint": -0.07506478083263063,
            "wrist_2_joint": 0.43296659715538205,
            "wrist_3_joint": -3.14703540197715
        }
    },
    "waypoints": [
        {
            "positions": [
                -2.711696901376241,
                -0.6476975780787326,
                0.749534889911806,
                -0.07506478083263063,
                0.43296659715538205,
                -3.14703540197715
            ]
        },
        {
            "positions": [
                -2.822795405904751,
                -0.6922516524678572,
                0.6854282885661158,
                -0.10311259525712699,
                0.3536737837171058,
                -3.113247840607781
            ]
        },
        {
            "positions": [
                -2.933893910433261,
                -0.736805726856982,
                0.6213216872204257,
                -0.13116040968162335,
                0.2743809702788295,
                -3.079460279238412
            ]
        },
        {
            "positions": [
                -3.044992414961771,
                -0.7813598012461066,
                0.5572150858747356,
                -0.15920822410611973,
                0.19508815684055325,
                -3.045672717869043
            ]
        },
        {
            "positions": [
                -2.9151411229429747,
                -0.8206740293457645,
                0.5002708971693821,
                -0.12990971452216502,
                0.18313606563689647,
                -2.9336522464449235
            ]
        },
        {
            "positions": [
                -2.785289830924178,
                -0.8599882574454223,
                0.44332670846402855,
                -0.1006112049382103,
                0.17118397443323968,
                -2.821631775020804
            ]
        },
        {
            "positions": [
                -2.655438538905382,
                -0.8993024855450802,
                0.3863825197586751,
                -0.07131269535425556,
                0.1592318832295829,
                -2.7096113035966845
            ]
        },
        {
            "positions": [
                -2.525587246886585,
                -0.9386167136447381,
                0.32943833105332154,
                -0.042014185770300846,
                0.14727979202592612,
                -2.597590832172565
            ]
        },
        {
            "positions": [
                -2.395735954867789,
                -0.977930941744396,
                0.2724941423479681,
                -0.012715676186346114,
                0.1353277008222693,
                -2.4855703607484454
            ]
        },
        {
            "positions": [
                -2.2658846628489924,
                -1.0172451698440539,
                0.2155499536426146,
                0.016582833397608604,
                0.12337560961861253,
                -2.3735498893243263
            ]
        },
        {
            "positions": [
                -2.136033370830196,
                -1.0565593979437118,
                0.15860576493726108,
                0.04588134298156332,
                0.11142351841495574,
                -2.261529417900207
            ]
        },
        {
            "positions": [
                -2.0061820788114,
                -1.0958736260433697,
                0.10166157623190758,
                0.07517985256551804,
                0.09947142721129895,
                -2.1495089464760873
            ]
        },
        {
            "positions": [
                -1.8763307867926036,
                -1.1351878541430274,
                0.044717387526554075,
                0.10447836214947276,
                0.08751933600764217,
                -2.0374884750519677
            ]
        },
        {
            "positions": [
                -1.7464794947738072,
                -1.1745020822426853,
                -0.012226801178799374,
                0.1337768717334275,
                0.07556724480398538,
                -1.9254680036278482
            ]
        },
        {
            "positions": [
                -1.6166282027550105,
                -1.2138163103423432,
                -0.06917098988415304,
                0.16307538131738225,
                0.06361515360032857,
                -1.8134475322037287
            ]
        },
        {
            "positions": [
                -1.4867769107362143,
                -1.253130538442001,
                -0.12611517858950638,
                0.19237389090133694,
                0.051663062396671816,
                -1.7014270607796094
            ]
        },
        {
            "positions": [
                -1.356925618717418,
                -1.292444766541659,
                -0.18305936729485994,
                0.2216724004852917,
                0.039710971193015004,
                -1.5894065893554896
            ]
        },
        {
            "positions": [
                -1.2270743266986215,
                -1.3317589946413166,
                -0.2400035560002134,
                0.2509709100692464,
                0.02775887998935822,
                -1.4773861179313703
            ]
        },
        {
            "positions": [
                -1.097223034679825,
                -1.3710732227409748,
                -0.29694774470556695,
                0.2802694196532011,
                0.015806788785701437,
                -1.3653656465072508
            ]
        },
        {
            "positions": [
                -0.9673717426610287,
                -1.4103874508406324,
                -0.3538919334109204,
                0.3095679292371558,
                0.0038546975820446527,
                -1.2533451750831313
            ]
        },
        {
            "positions": [
                -0.8375204506422325,
                -1.4497016789402903,
                -0.41083612211627396,
                0.3388664388211106,
                -0.008097393621612159,
                -1.1413247036590117
            ]
        },
        {
            "positions": [
                -0.7076691586234363,
                -1.4890159070399482,
                -0.4677803108216274,
                0.36816494840506525,
                -0.020049484825268915,
                -1.0293042322348924
            ]
        },
        {
            "positions": [
                -0.5778178666046396,
                -1.5283301351396061,
                -0.5247244995269811,
                0.39746345798902,
                -0.03200157602892573,
                -0.9172837608107729
            ]
        },
        {
            "positions": [
                -0.44796657458584344,
                -1.567644363239264,
                -0.5816686882323343,
                0.42676196757297474,
                -0.04395366723258248,
                -0.8052632893866534
            ]
        },
        {
            "positions": [
                -0.31811528256704696,
                -1.606958591338922,
                -0.638612876937688,
                0.4560604771569295,
                -0.055905758436239315,
                -0.6932428179625341
            ]
        },
        {
            "positions": [
                -0.28507355159292064,
                -1.6494012804724532,
                -0.8024919048304917,
                0.5305041022067475,
                -0.068550116040259,
                -0.6373802389770655
            ]
        },
        {
            "positions": [
                -0.25203182061879426,
                -1.6918439696059846,
                -0.9663709327232956,
                0.6049477272565654,
                -0.08119447364427868,
                -0.581517659991597
            ]
        },
        {
            "positions": [
                -0.21899008964466793,
                -1.7342866587395158,
                -1.1302499606160992,
                0.6793913523063835,
                -0.09383883124829834,
                -0.5256550810061285
            ]
        },
        {
            "positions": [
                -0.1859483586705416,
                -1.7767293478730473,
                -1.2941289885089031,
                0.7538349773562014,
                -0.10648318885231803,
                -0.4697925020206599
            ]
        },
        {
            "positions": [
                -0.15290662769641525,
                -1.8191720370065785,
                -1.4580080164017069,
                0.8282786024060194,
                -0.11912754645633769,
                -0.41392992303519144
            ]
        },
        {
            "positions": [
                -0.11986489672228892,
                -1.86161472614011,
                -1.6218870442945106,
                0.9027222274558373,
                -0.13177190406035738,
                -0.35806734404972296
            ]
        },
        {
            "positions": [
                -0.08682316574816257,
                -1.9040574152736411,
                -1.7857660721873143,
                0.9771658525056552,
                -0.14441626166437707,
                -0.30220476506425437
            ]
        },
        {
            "positions": [
                -0.05378143477403624,
                -1.9465001044071726,
                -1.9496451000801183,
                1.0516094775554734,
                -0.15706061926839673,
                -0.24634218607878583
            ]
        },
        {
            "positions": [
                -0.02073970379990986,
                -1.9889427935407038,
                -2.113524127972922,
                1.1260531026052913,
                -0.16970497687241642,
                -0.19047960709331735
            ]
        },
        {
            "positions": [
                0.012302027174216468,
                -2.031385482674235,
                -2.2774031558657257,
                1.2004967276551093,
                -0.1823493344764361,
                -0.1346170281078488
            ]
        },
        {
            "positions": [
                0.045343758148342794,
                -2.0738281718077665,
                -2.4412821837585295,
                1.2749403527049272,
                -0.19499369208045578,
                -0.0787544491223803
            ]
        },
        {
            "positions": [
                -0.03200229600535609,
                -2.1411762304787074,
                -2.426178193799087,
                1.3291192106968663,
                -0.07174548736361108,
                -0.023232397264136367
            ]
        },
        {
            "positions": [
                -0.10934835015905497,
                -2.208524289149648,
                -2.4110742038396444,
                1.3832980686888057,
                0.05150271735323361,
                0.03228965459410757
            ]
        },
        {
            "positions": [
                -0.1866944043127539,
                -2.275872347820589,
                -2.395970213880202,
                1.4374769266807448,
                0.17475092207007834,
                0.0878117064523515
            ]
        }
    ]
}