{
    "goal": {
        "global_pose": {
            "orientation": {
                "w": -0.00223480608172531,
                "x": 0.0024358444001904467,
                "y": 0.7094548369677653,
                "z": -0.704743149386269
            },
            "position": {
                "x": 0.6205249238014221,
                "y": -0.6371506643295288,
                "z": 0.19426114857196808
            }
        },
        "name": "move_to_magneteinheit_B"
    },
    "id": "ProjEST_move_to_magneteinheit_B_117",
    "joint_names": [
        "shoulder_pan_joint",
        "shoulder_lift_joint",
        "elbow_joint",
        "wrist_1_joint",
        "wrist_2_joint",
        "wrist_3_joint"
    ],
    "metrics": {
        "cart_traj_len": 4.603735789332722,
        "distance_elbow_joint": 4.297407938091604,
        "distance_shoulder_lift_joint": 1.4051659877328069,
        "distance_shoulder_pan_joint": 4.335042812085765,
        "distance_wrist_1_joint": 1.5701751370271735,
        "distance_wrist_2_joint": 1.464680948088796,
        "distance_wrist_3_joint": 2.135292686272138,
        "smoothness": 0.5137483414596011,
        "time": 1.311330951,
        "traj_len": 3.8997135163109458,
        "weighted_distance": 4.744808422577093
    },
    "planner": "ProjEST",
    "start": {
        "state": {
            "elbow_joint": 2.6216224122426386,
            "shoulder_lift_joint": -1.4174107377796124,
            "shoulder_pan_joint": 0.7066234856936794,
            "wrist_1_joint": 1.9546482284002225,
            "wrist_2_joint": -0.7096286983471962,
            "wrist_3_joint": 0.005740856962016249
        }
    },
    "waypoints": [
        {
            "positions": [
                0.7066234856936794,
                -1.4174107377796124,
                2.6216224122426386,
                1.9546482284002225,
                -0.7096286983471962,
                0.005740856962016249
            ]
        },
        {
            "positions": [
                0.554512003624918,
                -1.4044243362246942,
                2.6230180538796004,
                1.9637551420551107,
                -0.7354575309744653,
                -0.13841239824170018
            ]
        },
        {
            "positions": [
                0.4024005215561567,
                -1.391437934669776,
                2.6244136955165622,
                1.972862055709999,
                -0.7612863636017345,
                -0.2825656534454166
            ]
        },
        {
            "positions": [
                0.25028903948739534,
                -1.378451533114858,
                2.6258093371535245,
                1.9819689693648874,
                -0.7871151962290037,
                -0.42671890864913303
            ]
        },
        {
            "positions": [
                0.09817755741863399,
                -1.3654651315599398,
                2.6272049787904863,
                1.9910758830197757,
                -0.8129440288562728,
                -0.5708721638528496
            ]
        },
        {
            "positions": [
                0.07654055130898108,
                -1.350205358824311,
                2.4674042799642995,
                2.0222912506867305,
                -0.7868125372272664,
                -0.6663026205179924
            ]
        },
        {
            "positions": [
                0.05490354519932815,
                -1.334945586088682,
                2.307603581138113,
                2.0535066183536856,
                -0.76068104559826,
                -0.7617330771831352
            ]
        },
        {
            "positions": [
                0.03326653908967522,
                -1.3196858133530531,
                2.147802882311926,
                2.0847219860206403,
                -0.7345495539692536,
                -0.8571635338482781
            ]
        },
        {
            "positions": [
                0.011629532980022318,
                -1.3044260406174244,
                1.9880021834857395,
                2.1159373536875954,
                -0.7084180623402472,
                -0.952593990513421
            ]
        },
        {
            "positions": [
                0.10597301377941873,
                -1.2962165195459072,
                1.7768455127706915,
                2.129379413340619,
                -0.6714756456480488,
                -0.9568665497885551
            ]
        },
        {
            "positions": [
                0.20031649457881515,
                -1.28800699847439,
                1.5656888420556436,
                2.142821472993643,
                -0.6345332289558505,
                -0.9611391090636893
            ]
        },
        {
            "positions": [
                0.2946599753782116,
                -1.2797974774028729,
                1.3545321713405958,
                2.156263532646667,
                -0.5975908122636521,
                -0.9654116683388234
            ]
        },
        {
            "positions": [
                0.389003456177608,
                -1.271587956331356,
                1.1433755006255477,
                2.16970559229969,
                -0.5606483955714537,
                -0.9696842276139577
            ]
        },
        {
            "positions": [
                0.4833469369770045,
                -1.2633784352598387,
                0.9322188299104996,
                2.183147651952714,
                -0.5237059788792553,
                -0.9739567868890918
            ]
        },
        {
            "positions": [
                0.5776904177764008,
                -1.2551689141883215,
                0.7210621591954518,
                2.196589711605738,
                -0.486763562187057,
                -0.978229346164226
            ]
        },
        {
            "positions": [
                0.6720338985757973,
                -1.2469593931168044,
                0.5099054884804036,
                2.2100317712587616,
                -0.44982114549485863,
                -0.9825019054393601
            ]
        },
        {
            "positions": [
                0.7849437456191798,
                -1.2822829623110736,
                0.4230999757131787,
                2.152754238193328,
                -0.4059921040273229,
                -0.9343129101424912
            ]
        },
        {
            "positions": [
                0.8978535926625624,
                -1.3176065315053427,
                0.3362944629459537,
                2.0954767051278944,
                -0.36216306255978714,
                -0.8861239148456224
            ]
        },
        {
            "positions": [
                1.0107634397059448,
                -1.352930100699612,
                0.2494889501787288,
                2.0381991720624604,
                -0.3183340210922514,
                -0.8379349195487535
            ]
        },
        {
            "positions": [
                1.1236732867493273,
                -1.3882536698938812,
                0.16268343741150382,
                1.9809216389970268,
                -0.27450497962471565,
                -0.7897459242518846
            ]
        },
        {
            "positions": [
                1.2365831337927098,
                -1.4235772390881505,
                0.0758779246442789,
                1.9236441059315932,
                -0.2306759381571799,
                -0.7415569289550157
            ]
        },
        {
            "positions": [
                1.3494929808360925,
                -1.4589008082824195,
                -0.01092758812294603,
                1.8663665728661596,
                -0.18684689668964416,
                -0.6933679336581469
            ]
        },
        {
            "positions": [
                1.4624028278794747,
                -1.4942243774766888,
                -0.09773310089017095,
                1.8090890398007258,
                -0.14301785522210841,
                -0.6451789383612779
            ]
        },
        {
            "positions": [
                1.5753126749228574,
                -1.529547946670958,
                -0.184538613657396,
                1.751811506735292,
                -0.09918881375457267,
                -0.596989943064409
            ]
        },
        {
            "positions": [
                1.6882225219662401,
                -1.5648715158652273,
                -0.2713441264246209,
                1.6945339736698584,
                -0.055359772287036924,
                -0.5488009477675402
            ]
        },
        {
            "positions": [
                1.8011323690096224,
                -1.6001950850594964,
                -0.35814963919184584,
                1.6372564406044248,
                -0.011530730819501178,
                -0.5006119524706714
            ]
        },
        {
            "positions": [
                1.914042216053005,
                -1.6355186542537656,
                -0.44495515195907076,
                1.579978907538991,
                0.03229831064803457,
                -0.45242295717380243
            ]
        },
        {
            "positions": [
                2.0269520630963873,
                -1.6708422234480347,
                -0.5317606647262957,
                1.5227013744735574,
                0.07612735211557031,
                -0.4042339618769336
            ]
        },
        {
            "positions": [
                2.13986191013977,
                -1.7061657926423042,
                -0.6185661774935206,
                1.4654238414081235,
                0.11995639358310606,
                -0.3560449665800647
            ]
        },
        {
            "positions": [
                2.2527717571831523,
                -1.7414893618365732,
                -0.7053716902607455,
                1.40814630834269,
                0.1637854350506418,
                -0.30785597128319575
            ]
        },
        {
            "positions": [
                2.365681604226535,
                -1.7768129310308423,
                -0.7921772030279705,
                1.3508687752772564,
                0.20761447651817755,
                -0.25966697598632693
            ]
        },
        {
            "positions": [
                2.4785914512699176,
                -1.8121365002251117,
                -0.8789827157951956,
                1.2935912422118223,
                0.2514435179857133,
                -0.211477980689458
            ]
        },
        {
            "positions": [
                2.5915012983133,
                -1.8474600694193808,
                -0.9657882285624203,
                1.2363137091463887,
                0.29527255945324904,
                -0.16328898539258918
            ]
        },
        {
            "positions": [
                2.7044111453566826,
                -1.8827836386136503,
                -1.0525937413296456,
                1.1790361760809551,
                0.3391016009207848,
                -0.11509999009572025
            ]
        },
        {
            "positions": [
                2.817320992400065,
                -1.9181072078079193,
                -1.1393992540968703,
                1.1217586430155213,
                0.38293064238832053,
                -0.06691099479885143
            ]
        },
        {
            "positions": [
                2.9302308394434475,
                -1.9534307770021884,
                -1.2262047668640954,
                1.0644811099500877,
                0.4267596838558563,
                -0.0187219995019825
            ]
        },
        {
            "positions": [
                3.0431406864868302,
                -1.9887543461964579,
                -1.31301027963132,
                1.007203576884654,
                0.470588725323392,
                0.02946699579488643
            ]
        },
        {
            "positions": [
                3.1560505335302125,
                -2.024077915390727,
                -1.399815792398545,
                0.9499260438192203,
                0.5144177667909278,
                0.07765599109175536
            ]
        },
        {
            "positions": [
                3.0321435688247327,
                -2.138476945589746,
                -1.4660169424872258,
                0.9635975105014936,
                0.5059168113077981,
                0.055932984256843926
            ]
        },
        {
            "positions": [
                2.908236604119253,
                -2.252875975788765,
                -1.5322180925759064,
                0.9772689771837669,
                0.4974158558246684,
                0.0342099774219325
            ]
        },
        {
            "positions": [
                2.7843296394137735,
                -2.3672750059877843,
                -1.598419242664587,
                0.9909404438660403,
                0.4889149003415388,
                0.01248697058702107
            ]
        },
        {
            "positions": [
                2.6604226747082937,
                -2.4816740361868033,
                -1.6646203927532677,
                1.0046119105483136,
                0.4804139448584091,
                -0.00923603624789036
            ]
        }
    ]
}