{
    "goal": {
        "global_pose": {
            "orientation": {
                "w": 0.7031023480610252,
                "x": -0.7110244013736278,
                "y": 0.0077485991402295624,
                "z": 0.005598929693374583
            },
            "position": {
                "x": -0.8841497679147869,
                "y": 0.44412534475326537,
                "z": 0.3711530566215515
            }
        },
        "name": "move_to_auspresseinheit_D"
    },
    "id": "ProjEST_move_to_auspresseinheit_D_128",
    "joint_names": [
        "shoulder_pan_joint",
        "shoulder_lift_joint",
        "elbow_joint",
        "wrist_1_joint",
        "wrist_2_joint",
        "wrist_3_joint"
    ],
    "metrics": {
        "cart_traj_len": 0.3424988041814039,
        "distance_elbow_joint": 0.6333834461351453,
        "distance_shoulder_lift_joint": 0.11863101858537517,
        "distance_shoulder_pan_joint": 0.1334006978306585,
        "distance_wrist_1_joint": 0.5172451588056055,
        "distance_wrist_2_joint": 1.4332630810582152,
        "distance_wrist_3_joint": 0.012985684843857648,
        "smoothness": 1.9737298371844314e-16,
        "time": 0.037951259,
        "traj_len": 1.6878711702197111,
        "weighted_distance": 2.1966767392610125
    },
    "planner": "ProjEST",
    "start": {
        "state": {
            "elbow_joint": -1.8275523626775212,
            "shoulder_lift_joint": -2.126789852344167,
            "shoulder_pan_joint": -0.03513704404078235,
            "wrist_1_joint": -2.347782403156801,
            "wrist_2_joint": -1.6058999987535132,
            "wrist_3_joint": -3.0880379163319196
        }
    },
    "waypoints": [
        {
            "positions": [
                -0.03513704404078235,
                -2.126789852344167,
                -1.8275523626775212,
                -2.347782403156801,
                -1.6058999987535132,
                -3.0880379163319196
            ]
        },
        {
            "positions": [
                -0.05181213126961466,
                -2.141618729667339,
                -1.748379431910628,
                -2.4124380480075014,
                -1.4267421136212364,
                -3.089661126937402
            ]
        },
        {
            "positions": [
                -0.06848721849844697,
                -2.1564476069905107,
                -1.669206501143735,
                -2.4770936928582024,
                -1.2475842284889593,
                -3.0912843375428842
            ]
        },
        {
            "positions": [
                -0.08516230572727929,
                -2.1712764843136827,
                -1.5900335703768418,
                -2.541749337708903,
                -1.0684263433566825,
                -3.092907548148366
            ]
        },
        {
            "positions": [
                -0.1018373929561116,
                -2.186105361636854,
                -1.5108606396099487,
                -2.606404982559604,
                -0.8892684582244056,
                -3.0945307587538484
            ]
        },
        {
            "positions": [
                -0.11851248018494392,
                -2.200934238960026,
                -1.4316877088430555,
                -2.6710606274103044,
                -0.7101105730921287,
                -3.0961539693593307
            ]
        },
        {
            "positions": [
                -0.13518756741377622,
                -2.215763116283198,
                -1.3525147780761622,
                -2.735716272261005,
                -0.5309526879598518,
                -3.0977771799648126
            ]
        },
        {
            "positions": [
                -0.15186265464260854,
                -2.23059199360637,
                -1.273341847309269,
                -2.800371917111706,
                -0.3517948028275748,
                -3.099400390570295
            ]
        },
        {
            "positions": [
                -0.16853774187144085,
                -2.245420870929542,
                -1.194168916542376,
                -2.8650275619624064,
                -0.17263691769529801,
                -3.1010236011757772
            ]
        }
    ]
}