{
    "goal": {
        "global_pose": {
            "orientation": {
                "w": 0.5084816262002911,
                "x": -0.4908360881923452,
                "y": 0.5182115481033761,
                "z": -0.48164630358495003
            },
            "position": {
                "x": 0.5540239810943604,
                "y": -0.46912469901144505,
                "z": 0.16403168439865112
            }
        },
        "name": "move_to_storage_B"
    },
    "id": "ProjEST_move_to_storage_B_13",
    "joint_names": [
        "shoulder_pan_joint",
        "shoulder_lift_joint",
        "elbow_joint",
        "wrist_1_joint",
        "wrist_2_joint",
        "wrist_3_joint"
    ],
    "metrics": {
        "cart_traj_len": 0.9482768274505718,
        "distance_elbow_joint": 0.8315135336354973,
        "distance_shoulder_lift_joint": 0.4610889666964675,
        "distance_shoulder_pan_joint": 0.9049531859123131,
        "distance_wrist_1_joint": 3.026105955162177,
        "distance_wrist_2_joint": 2.7081699417023457,
        "distance_wrist_3_joint": 4.496613011040283,
        "smoothness": 0.30529636478241057,
        "time": 0.104468525,
        "traj_len": 3.525399919746565,
        "weighted_distance": 5.2111367774310215
    },
    "planner": "ProjEST",
    "start": {
        "state": {
            "elbow_joint": 1.664937868594044,
            "shoulder_lift_joint": -0.661644460510453,
            "shoulder_pan_joint": -0.9139846352900073,
            "wrist_1_joint": 2.146753192139373,
            "wrist_2_joint": -2.2341966793290973,
            "wrist_3_joint": 0.005466555786416001
        }
    },
    "waypoints": [
        {
            "positions": [
                -0.9139846352900073,
                -0.661644460510453,
                1.664937868594044,
                2.146753192139373,
                -2.2341966793290973,
                0.005466555786416001
            ]
        },
        {
            "positions": [
                -0.890448380125607,
                -0.6861785370617661,
                1.6698118656967016,
                1.9911303485959357,
                -2.1465687843408174,
                -0.043379751155690205
            ]
        },
        {
            "positions": [
                -0.8669121249612066,
                -0.7107126136130792,
                1.674685862799359,
                1.8355075050524983,
                -2.058940889352538,
                -0.09222605809779641
            ]
        },
        {
            "positions": [
                -0.8433758697968063,
                -0.7352466901643924,
                1.6795598599020167,
                1.6798846615090608,
                -1.9713129943642582,
                -0.14107236503990261
            ]
        },
        {
            "positions": [
                -0.8109564932135978,
                -0.7578309305278444,
                1.6532461436712858,
                1.5373236320625325,
                -1.8951865429188708,
                -0.198757465130732
            ]
        },
        {
            "positions": [
                -0.7785371166303892,
                -0.7804151708912964,
                1.6269324274405548,
                1.3947626026160043,
                -1.8190600914734831,
                -0.2564425652215614
            ]
        },
        {
            "positions": [
                -0.7461177400471806,
                -0.8029994112547485,
                1.6006187112098236,
                1.2522015731694758,
                -1.7429336400280957,
                -0.3141276653123907
            ]
        },
        {
            "positions": [
                -0.713698363463972,
                -0.8255836516182006,
                1.5743049949790926,
                1.1096405437229475,
                -1.6668071885827083,
                -0.3718127654032201
            ]
        },
        {
            "positions": [
                -0.6812789868807634,
                -0.8481678919816525,
                1.5479912787483616,
                0.967079514276419,
                -1.5906807371373206,
                -0.4294978654940495
            ]
        },
        {
            "positions": [
                -0.6488596102975549,
                -0.8707521323451046,
                1.5216775625176306,
                0.8245184848298908,
                -1.5145542856919332,
                -0.48718296558487884
            ]
        },
        {
            "positions": [
                -0.6164402337143463,
                -0.8933363727085567,
                1.4953638462868994,
                0.6819574553833624,
                -1.4384278342465455,
                -0.5448680656757083
            ]
        },
        {
            "positions": [
                -0.5840208571311377,
                -0.9159206130720087,
                1.4690501300561685,
                0.5393964259368342,
                -1.3623013828011583,
                -0.6025531657665376
            ]
        },
        {
            "positions": [
                -0.5516014805479291,
                -0.9385048534354608,
                1.4427364138254375,
                0.39683539649030564,
                -1.2861749313557707,
                -0.660238265857367
            ]
        },
        {
            "positions": [
                -0.5774381486988927,
                -0.9472776426626731,
                1.4703587041231017,
                0.3360645317515861,
                -1.202358350702008,
                -0.47781406636229556
            ]
        },
        {
            "positions": [
                -0.6032748168498563,
                -0.9560504318898855,
                1.4979809944207656,
                0.27529366701286656,
                -1.1185417700482452,
                -0.2953898668672241
            ]
        },
        {
            "positions": [
                -0.6291114850008198,
                -0.9648232211170978,
                1.5256032847184298,
                0.21452280227414702,
                -1.0347251893944822,
                -0.11296566737215263
            ]
        },
        {
            "positions": [
                -0.6549481531517833,
                -0.9735960103443102,
                1.5532255750160937,
                0.15375193753542749,
                -0.9509086087407195,
                0.06945853212291875
            ]
        },
        {
            "positions": [
                -0.680784821302747,
                -0.9823687995715226,
                1.5808478653137579,
                0.09298107279670792,
                -0.8670920280869567,
                0.25188273161799024
            ]
        },
        {
            "positions": [
                -0.7066214894537105,
                -0.9911415887987349,
                1.6084701556114218,
                0.03221020805798841,
                -0.7832754474331939,
                0.43430693111306173
            ]
        },
        {
            "positions": [
                -0.732458157604674,
                -0.9999143780259473,
                1.636092445909086,
                -0.028560656680731156,
                -0.6994588667794311,
                0.6167311306081332
            ]
        },
        {
            "positions": [
                -0.7582948257556377,
                -1.0086871672531597,
                1.66371473620675,
                -0.08933152141945067,
                -0.6156422861256684,
                0.7991553301032045
            ]
        },
        {
            "positions": [
                -0.7841314939066012,
                -1.0174599564803721,
                1.691337026504414,
                -0.15010238615817018,
                -0.5318257054719056,
                0.981579529598276
            ]
        },
        {
            "positions": [
                -0.8099681620575647,
                -1.0262327457075844,
                1.718959316802078,
                -0.2108732508968898,
                -0.4480091248181428,
                1.1640037290933476
            ]
        },
        {
            "positions": [
                -0.8358048302085284,
                -1.0350055349347969,
                1.7465816070997422,
                -0.2716441156356093,
                -0.36419254416437985,
                1.3464279285884193
            ]
        },
        {
            "positions": [
                -0.861641498359492,
                -1.043778324162009,
                1.7742038973974061,
                -0.3324149803743288,
                -0.2803759635106171,
                1.5288521280834906
            ]
        },
        {
            "positions": [
                -0.8874781665104555,
                -1.0525511133892216,
                1.8018261876950703,
                -0.39318584511304844,
                -0.19655938285685437,
                1.7112763275785623
            ]
        },
        {
            "positions": [
                -0.913314834661419,
                -1.0613239026164338,
                1.8294484779927342,
                -0.45395670985176795,
                -0.11274280220309163,
                1.8937005270736336
            ]
        },
        {
            "positions": [
                -0.9391515028123827,
                -1.0700966918436463,
                1.8570707682903984,
                -0.5147275745904875,
                -0.028926221549328668,
                2.0761247265687053
            ]
        },
        {
            "positions": [
                -0.9649881709633462,
                -1.0788694810708586,
                1.8846930585880624,
                -0.575498439329207,
                0.05489035910443385,
                2.258548926063776
            ]
        },
        {
            "positions": [
                -0.9908248391143097,
                -1.087642270298071,
                1.9123153488857265,
                -0.6362693040679265,
                0.1387069397581968,
                2.440973125558848
            ]
        },
        {
            "positions": [
                -1.0166615072652734,
                -1.0964150595252833,
                1.9399376391833905,
                -0.697040168806646,
                0.22252352041195955,
                2.623397325053919
            ]
        },
        {
            "positions": [
                -1.042498175416237,
                -1.1051878487524958,
                1.9675599294810546,
                -0.7578110335453657,
                0.3063401010657225,
                2.805821524548991
            ]
        },
        {
            "positions": [
                -1.0683348435672004,
                -1.113960637979708,
                1.9951822197787186,
                -0.8185818982840852,
                0.39015668171948503,
                2.988245724044062
            ]
        },
        {
            "positions": [
                -1.094171511718164,
                -1.1227334272069205,
                2.0228045100763827,
                -0.8793527630228047,
                0.47397326237324805,
                3.170669923539134
            ]
        }
    ]
}