{
    "goal": {
        "global_pose": {
            "orientation": {
                "w": 0.5084816262002911,
                "x": -0.4908360881923452,
                "y": 0.5182115481033761,
                "z": -0.48164630358495003
            },
            "position": {
                "x": 0.5540239810943604,
                "y": -0.46912469901144505,
                "z": 0.16403168439865112
            }
        },
        "name": "move_to_storage_B"
    },
    "id": "ProjEST_move_to_storage_B_23",
    "joint_names": [
        "shoulder_pan_joint",
        "shoulder_lift_joint",
        "elbow_joint",
        "wrist_1_joint",
        "wrist_2_joint",
        "wrist_3_joint"
    ],
    "metrics": {
        "cart_traj_len": 2.5045884471220847,
        "distance_elbow_joint": 0.3854167810330438,
        "distance_shoulder_lift_joint": 2.521884394846807,
        "distance_shoulder_pan_joint": 1.8839858695790495,
        "distance_wrist_1_joint": 3.0269416340318385,
        "distance_wrist_2_joint": 2.7149740383020293,
        "distance_wrist_3_joint": 3.1212406257962297,
        "smoothness": 0.2062176293500607,
        "time": 0.085338317,
        "traj_len": 3.6951919224296055,
        "weighted_distance": 5.0634810424761465
    },
    "planner": "ProjEST",
    "start": {
        "state": {
            "elbow_joint": 1.664937868594044,
            "shoulder_lift_joint": -0.661644460510453,
            "shoulder_pan_joint": -0.9139846352900073,
            "wrist_1_joint": 2.146753192139373,
            "wrist_2_joint": -2.2341966793290973,
            "wrist_3_joint": 0.005466555786416001
        }
    },
    "waypoints": [
        {
            "positions": [
                -0.9139846352900073,
                -0.661644460510453,
                1.664937868594044,
                2.146753192139373,
                -2.2341966793290973,
                0.005466555786416001
            ]
        },
        {
            "positions": [
                -0.8365499490969024,
                -0.7972386353827086,
                1.6988202123372498,
                2.074451743556917,
                -2.1741196042275024,
                0.003927566899292379
            ]
        },
        {
            "positions": [
                -0.7591152629037975,
                -0.9328328102549642,
                1.7327025560804554,
                2.002150294974461,
                -2.114042529125907,
                0.0023885780121687566
            ]
        },
        {
            "positions": [
                -0.6816805767106926,
                -1.06842698512722,
                1.7665848998236613,
                1.9298488463920054,
                -2.053965454024312,
                0.0008495891250451353
            ]
        },
        {
            "positions": [
                -0.6042458905175878,
                -1.2040211599994755,
                1.8004672435668672,
                1.8575473978095494,
                -1.993888378922717,
                -0.0006893997620784874
            ]
        },
        {
            "positions": [
                -0.5268112043244828,
                -1.339615334871731,
                1.834349587310073,
                1.7852459492270933,
                -1.933811303821122,
                -0.002228388649202109
            ]
        },
        {
            "positions": [
                -0.449376518131378,
                -1.4752095097439866,
                1.8682319310532787,
                1.7129445006446373,
                -1.873734228719527,
                -0.00376737753632573
            ]
        },
        {
            "positions": [
                -0.3719418319382731,
                -1.6108036846162423,
                1.9021142747964845,
                1.6406430520621815,
                -1.813657153617932,
                -0.005306366423449353
            ]
        },
        {
            "positions": [
                -0.29450714574516823,
                -1.746397859488498,
                1.9359966185396904,
                1.5683416034797255,
                -1.753580078516337,
                -0.006845355310572975
            ]
        },
        {
            "positions": [
                -0.21707245955206322,
                -1.8819920343607537,
                1.9698789622828963,
                1.4960401548972695,
                -1.693503003414742,
                -0.008384344197696597
            ]
        },
        {
            "positions": [
                -0.13963777335895844,
                -2.0175862092330092,
                2.003761306026102,
                1.4237387063148135,
                -1.633425928313147,
                -0.00992333308482022
            ]
        },
        {
            "positions": [
                -0.0622030871658536,
                -2.153180384105265,
                2.037643649769308,
                1.3514372577323575,
                -1.5733488532115518,
                -0.011462321971943842
            ]
        },
        {
            "positions": [
                -0.1052116005598076,
                -2.1102491978030984,
                2.0371140247752337,
                1.258452853581323,
                -1.4877602610371983,
                -0.14080864480685512
            ]
        },
        {
            "positions": [
                -0.1482201139537616,
                -2.067318011500932,
                2.0365843997811597,
                1.165468449430289,
                -1.4021716688628447,
                -0.2701549676417664
            ]
        },
        {
            "positions": [
                -0.19122862734771562,
                -2.0243868251987656,
                2.036054774787085,
                1.0724840452792548,
                -1.3165830766884912,
                -0.39950129047667765
            ]
        },
        {
            "positions": [
                -0.23423714074166962,
                -1.981455638896599,
                2.035525149793011,
                0.9794996411282204,
                -1.2309944845141378,
                -0.5288476133115889
            ]
        },
        {
            "positions": [
                -0.27724565413562363,
                -1.9385244525944325,
                2.034995524798937,
                0.8865152369771861,
                -1.1454058923397843,
                -0.6581939361465002
            ]
        },
        {
            "positions": [
                -0.32025416752957764,
                -1.895593266292266,
                2.0344658998048626,
                0.7935308328261519,
                -1.0598173001654307,
                -0.7875402589814114
            ]
        },
        {
            "positions": [
                -0.36326268092353164,
                -1.8526620799900997,
                2.0339362748107885,
                0.7005464286751176,
                -0.9742287079910772,
                -0.9168865818163228
            ]
        },
        {
            "positions": [
                -0.40627119431748565,
                -1.8097308936879333,
                2.0334066498167145,
                0.6075620245240834,
                -0.8886401158167238,
                -1.046232904651234
            ]
        },
        {
            "positions": [
                -0.44927970771143966,
                -1.7667997073857666,
                2.0328770248226404,
                0.5145776203730491,
                -0.8030515236423702,
                -1.1755792274861452
            ]
        },
        {
            "positions": [
                -0.49228822110539366,
                -1.7238685210836002,
                2.0323473998285664,
                0.42159321622201484,
                -0.7174629314680167,
                -1.3049255503210566
            ]
        },
        {
            "positions": [
                -0.5352967344993477,
                -1.6809373347814338,
                2.031817774834492,
                0.3286088120709807,
                -0.6318743392936632,
                -1.4342718731559676
            ]
        },
        {
            "positions": [
                -0.5783052478933017,
                -1.6380061484792674,
                2.031288149840418,
                0.23562440791994632,
                -0.5462857471193097,
                -1.563618195990879
            ]
        },
        {
            "positions": [
                -0.6213137612872557,
                -1.595074962177101,
                2.030758524846344,
                0.14264000376891217,
                -0.46069715494495633,
                -1.6929645188257902
            ]
        },
        {
            "positions": [
                -0.6643222746812096,
                -1.5521437758749346,
                2.0302288998522693,
                0.0496555996178778,
                -0.37510856277060256,
                -1.8223108416607017
            ]
        },
        {
            "positions": [
                -0.7073307880751638,
                -1.5092125895727682,
                2.0296992748581952,
                -0.04332880453315635,
                -0.289519970596249,
                -1.9516571644956129
            ]
        },
        {
            "positions": [
                -0.7503393014691178,
                -1.4662814032706017,
                2.029169649864121,
                -0.13631320868419072,
                -0.20393137842189568,
                -2.081003487330524
            ]
        },
        {
            "positions": [
                -0.7933478148630717,
                -1.4233502169684351,
                2.028640024870047,
                -0.2292976128352251,
                -0.11834278624754191,
                -2.210349810165435
            ]
        },
        {
            "positions": [
                -0.8363563282570257,
                -1.3804190306662687,
                2.028110399875973,
                -0.32228201698625925,
                -0.03275419407318858,
                -2.3396961330003463
            ]
        },
        {
            "positions": [
                -0.8793648416509796,
                -1.3374878443641023,
                2.0275807748818986,
                -0.4152664211372934,
                0.05283439810116475,
                -2.4690424558352575
            ]
        },
        {
            "positions": [
                -0.9223733550449338,
                -1.2945566580619357,
                2.0270511498878245,
                -0.5082508252883278,
                0.13842299027551852,
                -2.598388778670169
            ]
        },
        {
            "positions": [
                -0.9653818684388877,
                -1.2516254717597692,
                2.0265215248937505,
                -0.6012352294393621,
                0.22401158244987185,
                -2.7277351015050804
            ]
        },
        {
            "positions": [
                -1.0083903818328417,
                -1.2086942854576028,
                2.025991899899676,
                -0.6942196335903961,
                0.3096001746242254,
                -2.857081424339991
            ]
        },
        {
            "positions": [
                -1.0513988952267959,
                -1.1657630991554364,
                2.025462274905602,
                -0.7872040377414304,
                0.39518876679857917,
                -2.986427747174903
            ]
        },
        {
            "positions": [
                -1.0944074086207498,
                -1.12283191285327,
                2.024932649911528,
                -0.8801884418924646,
                0.48077735897293244,
                -3.115774070009814
            ]
        }
    ]
}