{
    "goal": {
        "global_pose": {
            "orientation": {
                "w": 0.5084816262002911,
                "x": -0.4908360881923452,
                "y": 0.5182115481033761,
                "z": -0.48164630358495003
            },
            "position": {
                "x": 0.5540239810943604,
                "y": -0.46912469901144505,
                "z": 0.16403168439865112
            }
        },
        "name": "move_to_storage_B"
    },
    "id": "ProjEST_move_to_storage_B_58",
    "joint_names": [
        "shoulder_pan_joint",
        "shoulder_lift_joint",
        "elbow_joint",
        "wrist_1_joint",
        "wrist_2_joint",
        "wrist_3_joint"
    ],
    "metrics": {
        "cart_traj_len": 1.7120504431947097,
        "distance_elbow_joint": 0.3537410814605937,
        "distance_shoulder_lift_joint": 0.6804667395107471,
        "distance_shoulder_pan_joint": 1.8750567900682868,
        "distance_wrist_1_joint": 3.002274449882997,
        "distance_wrist_2_joint": 2.715940549803392,
        "distance_wrist_3_joint": 4.72018877173204,
        "smoothness": 0.30491558018551235,
        "time": 0.10527275,
        "traj_len": 3.653446096832147,
        "weighted_distance": 5.339125483223682
    },
    "planner": "ProjEST",
    "start": {
        "state": {
            "elbow_joint": 1.664937868594044,
            "shoulder_lift_joint": -0.661644460510453,
            "shoulder_pan_joint": -0.9139846352900073,
            "wrist_1_joint": 2.146753192139373,
            "wrist_2_joint": -2.2341966793290973,
            "wrist_3_joint": 0.005466555786416001
        }
    },
    "waypoints": [
        {
            "positions": [
                -0.9139846352900073,
                -0.661644460510453,
                1.664937868594044,
                2.146753192139373,
                -2.2341966793290973,
                0.005466555786416001
            ]
        },
        {
            "positions": [
                -0.8292269947089846,
                -0.7186931934922632,
                1.6868478635280653,
                2.082326896663655,
                -2.1588052856785183,
                -0.07256307294754014
            ]
        },
        {
            "positions": [
                -0.744469354127962,
                -0.7757419264740736,
                1.7087578584620864,
                2.0179006011879363,
                -2.0834138920279397,
                -0.15059270168149627
            ]
        },
        {
            "positions": [
                -0.6597117135469394,
                -0.8327906594558838,
                1.7306678533961075,
                1.9534743057122181,
                -2.0080224983773607,
                -0.2286223304154524
            ]
        },
        {
            "positions": [
                -0.5749540729659167,
                -0.8898393924376942,
                1.7525778483301289,
                1.8890480102364997,
                -1.9326311047267821,
                -0.3066519591494085
            ]
        },
        {
            "positions": [
                -0.4901964323848941,
                -0.9468881254195044,
                1.7744878432641502,
                1.8246217147607813,
                -1.8572397110762031,
                -0.38468158788336465
            ]
        },
        {
            "positions": [
                -0.40543879180387143,
                -1.0039368584013146,
                1.7963978381981713,
                1.760195419285063,
                -1.7818483174256246,
                -0.4627112166173208
            ]
        },
        {
            "positions": [
                -0.3206811512228488,
                -1.060985591383125,
                1.8183078331321925,
                1.6957691238093446,
                -1.7064569237750455,
                -0.540740845351277
            ]
        },
        {
            "positions": [
                -0.23592351064182615,
                -1.1180343243649353,
                1.8402178280662138,
                1.6313428283336262,
                -1.6310655301244668,
                -0.6187704740852331
            ]
        },
        {
            "positions": [
                -0.1511658700608035,
                -1.1750830573467455,
                1.8621278230002352,
                1.566916532857908,
                -1.555674136473888,
                -0.6968001028191892
            ]
        },
        {
            "positions": [
                -0.0664082294797809,
                -1.2321317903285558,
                1.8840378179342563,
                1.5024902373821896,
                -1.4802827428233092,
                -0.7748297315531454
            ]
        },
        {
            "positions": [
                -0.10750744485010329,
                -1.22773261394085,
                1.8894234632190716,
                1.4081697775771571,
                -1.4018016782914051,
                -0.6172340321774462
            ]
        },
        {
            "positions": [
                -0.14860666022042568,
                -1.2233334375531442,
                1.8948091085038867,
                1.3138493177721244,
                -1.323320613759501,
                -0.4596383328017471
            ]
        },
        {
            "positions": [
                -0.18970587559074806,
                -1.2189342611654386,
                1.900194753788702,
                1.219528857967092,
                -1.244839549227597,
                -0.302042633426048
            ]
        },
        {
            "positions": [
                -0.23080509096107046,
                -1.2145350847777328,
                1.9055803990735174,
                1.1252083981620593,
                -1.166358484695693,
                -0.1444469340503488
            ]
        },
        {
            "positions": [
                -0.27190430633139284,
                -1.210135908390027,
                1.9109660443583325,
                1.0308879383570269,
                -1.0878774201637889,
                0.013148765325350364
            ]
        },
        {
            "positions": [
                -0.3130035217017152,
                -1.2057367320023211,
                1.9163516896431478,
                0.9365674785519943,
                -1.0093963556318848,
                0.17074446470104943
            ]
        },
        {
            "positions": [
                -0.35410273707203765,
                -1.2013375556146153,
                1.921737334927963,
                0.8422470187469617,
                -0.9309152910999807,
                0.3283401640767487
            ]
        },
        {
            "positions": [
                -0.39520195244236,
                -1.1969383792269097,
                1.9271229802127783,
                0.7479265589419292,
                -0.8524342265680767,
                0.48593586345244777
            ]
        },
        {
            "positions": [
                -0.43630116781268236,
                -1.192539202839204,
                1.9325086254975936,
                0.6536060991368967,
                -0.7739531620361726,
                0.6435315628281468
            ]
        },
        {
            "positions": [
                -0.4774003831830048,
                -1.188140026451498,
                1.9378942707824087,
                0.5592856393318641,
                -0.6954720975042685,
                0.8011272622038461
            ]
        },
        {
            "positions": [
                -0.5184995985533272,
                -1.1837408500637923,
                1.943279916067224,
                0.4649651795268317,
                -0.6169910329723645,
                0.9587229615795452
            ]
        },
        {
            "positions": [
                -0.5595988139236495,
                -1.1793416736760864,
                1.9486655613520394,
                0.370644719721799,
                -0.5385099684404604,
                1.1163186609552442
            ]
        },
        {
            "positions": [
                -0.600698029293972,
                -1.1749424972883808,
                1.9540512066368545,
                0.27632425991676657,
                -0.46002890390855633,
                1.2739143603309435
            ]
        },
        {
            "positions": [
                -0.6417972446642944,
                -1.170543320900675,
                1.9594368519216698,
                0.1820038001117339,
                -0.38154783937665226,
                1.4315100597066428
            ]
        },
        {
            "positions": [
                -0.6828964600346167,
                -1.1661441445129692,
                1.9648224972064852,
                0.08768334030670144,
                -0.3030667748447482,
                1.5891057590823416
            ]
        },
        {
            "positions": [
                -0.7239956754049391,
                -1.1617449681252634,
                1.9702081424913003,
                -0.006637119498331234,
                -0.22458571031284413,
                1.746701458458041
            ]
        },
        {
            "positions": [
                -0.7650948907752616,
                -1.1573457917375576,
                1.9755937877761156,
                -0.10095757930336369,
                -0.14610464578094007,
                1.9042971578337402
            ]
        },
        {
            "positions": [
                -0.8061941061455838,
                -1.152946615349852,
                1.9809794330609307,
                -0.19527803910839614,
                -0.067623581249036,
                2.061892857209439
            ]
        },
        {
            "positions": [
                -0.8472933215159063,
                -1.1485474389621462,
                1.986365078345746,
                -0.2895984989134288,
                0.010857483282868063,
                2.219488556585138
            ]
        },
        {
            "positions": [
                -0.8883925368862288,
                -1.1441482625744404,
                1.9917507236305614,
                -0.38391895871846127,
                0.08933854781477213,
                2.3770842559608374
            ]
        },
        {
            "positions": [
                -0.929491752256551,
                -1.1397490861867345,
                1.9971363689153765,
                -0.4782394185234937,
                0.1678196123466762,
                2.5346799553365367
            ]
        },
        {
            "positions": [
                -0.9705909676268735,
                -1.1353499097990287,
                2.002522014200192,
                -0.5725598783285262,
                0.24630067687858026,
                2.692275654712236
            ]
        },
        {
            "positions": [
                -1.011690182997196,
                -1.1309507334113231,
                2.007907659485007,
                -0.6668803381335591,
                0.3247817414104843,
                2.8498713540879352
            ]
        },
        {
            "positions": [
                -1.0527893983675183,
                -1.1265515570236173,
                2.0132933047698223,
                -0.7612007979385915,
                0.4032628059423884,
                3.0074670534636336
            ]
        },
        {
            "positions": [
                -1.0938886137378407,
                -1.1221523806359115,
                2.0186789500546376,
                -0.855521257743624,
                0.48174387047429246,
                3.1650627528393334
            ]
        }
    ]
}