{
    "goal": {
        "global_pose": {
            "orientation": {
                "w": -0.4816463035849501,
                "x": 0.5182115481033762,
                "y": 0.4908360881923453,
                "z": -0.5084816262002911
            },
            "position": {
                "x": -0.8240239810943604,
                "y": -0.300875300988555,
                "z": 0.16403168439865112
            }
        },
        "name": "move_to_storage_C"
    },
    "id": "ProjEST_move_to_storage_C_57",
    "joint_names": [
        "shoulder_pan_joint",
        "shoulder_lift_joint",
        "elbow_joint",
        "wrist_1_joint",
        "wrist_2_joint",
        "wrist_3_joint"
    ],
    "metrics": {
        "cart_traj_len": 0.5764959433545969,
        "distance_elbow_joint": 0.2549612063945219,
        "distance_shoulder_lift_joint": 0.18886318710839545,
        "distance_shoulder_pan_joint": 0.49591052963738047,
        "distance_wrist_1_joint": 0.07083824929609916,
        "distance_wrist_2_joint": 1.0608712748951175,
        "distance_wrist_3_joint": 0.06088750951463595,
        "smoothness": 2.5376526478085547e-16,
        "time": 0.057294836,
        "traj_len": 1.4602506486374696,
        "weighted_distance": 1.8400588305993477
    },
    "planner": "ProjEST",
    "start": {
        "state": {
            "elbow_joint": 2.010868314990456,
            "shoulder_lift_joint": -1.1634956873337592,
            "shoulder_pan_joint": -2.4736205022346125,
            "wrist_1_joint": -0.8367026794202681,
            "wrist_2_joint": 0.6746043897044499,
            "wrist_3_joint": -3.1496632123970403
        }
    },
    "waypoints": [
        {
            "positions": [
                -2.4736205022346125,
                -1.1634956873337592,
                2.010868314990456,
                -0.8367026794202681,
                0.6746043897044499,
                -3.1496632123970403
            ]
        },
        {
            "positions": [
                -2.556272257174176,
                -1.13201848948236,
                1.9683747805913687,
                -0.8248963045375849,
                0.8514162688536362,
                -3.139515294144601
            ]
        },
        {
            "positions": [
                -2.638924012113739,
                -1.1005412916309607,
                1.9258812461922818,
                -0.8130899296549017,
                1.0282281480028224,
                -3.1293673758921616
            ]
        },
        {
            "positions": [
                -2.7215757670533027,
                -1.0690640937795615,
                1.883387711793195,
                -0.8012835547722186,
                1.2050400271520085,
                -3.1192194576397223
            ]
        },
        {
            "positions": [
                -2.8042275219928663,
                -1.0375868959281622,
                1.8408941773941079,
                -0.7894771798895354,
                1.3818519063011947,
                -3.109071539387283
            ]
        },
        {
            "positions": [
                -2.8868792769324294,
                -1.006109698076763,
                1.7984006429950208,
                -0.7776708050068522,
                1.5586637854503813,
                -3.0989236211348437
            ]
        },
        {
            "positions": [
                -2.969531031871993,
                -0.9746325002253637,
                1.755907108595934,
                -0.7658644301241689,
                1.7354756645995673,
                -3.0887757028824043
            ]
        }
    ]
}