{
    "goal": {
        "global_pose": {
            "orientation": {
                "w": 0.7031023502349854,
                "x": -0.7110244035720825,
                "y": 0.007748599164187908,
                "z": 0.005598929710686207
            },
            "position": {
                "x": 0.11585023208521307,
                "y": 0.44412534475326537,
                "z": 0.3711530566215515
            }
        },
        "name": "move_to_auspresseinheit_A"
    },
    "id": "ProjEST_move_to_auspresseinheit_A_73",
    "joint_names": [
        "shoulder_pan_joint",
        "shoulder_lift_joint",
        "elbow_joint",
        "wrist_1_joint",
        "wrist_2_joint",
        "wrist_3_joint"
    ],
    "metrics": {
        "cart_traj_len": 1.2621783266493152,
        "distance_elbow_joint": 0.7710157306007854,
        "distance_shoulder_lift_joint": 1.9275176656265598,
        "distance_shoulder_pan_joint": 1.5309595068977822,
        "distance_wrist_1_joint": 0.5855161881743627,
        "distance_wrist_2_joint": 1.7579893600082643,
        "distance_wrist_3_joint": 1.2982821692302076,
        "smoothness": 1.1527160334576847,
        "time": 0.339402203,
        "traj_len": 2.805580264497518,
        "weighted_distance": 3.5792946940956125
    },
    "planner": "ProjEST",
    "start": {
        "state": {
            "elbow_joint": 2.4225746658250005,
            "shoulder_lift_joint": -1.3736534386056498,
            "shoulder_pan_joint": -0.3378633547517467,
            "wrist_1_joint": -1.0288598680537169,
            "wrist_2_joint": 1.233022673432363,
            "wrist_3_joint": -3.0940220416140027
        }
    },
    "waypoints": [
        {
            "positions": [
                -0.3378633547517467,
                -1.3736534386056498,
                2.4225746658250005,
                -1.0288598680537169,
                1.233022673432363,
                -3.0940220416140027
            ]
        },
        {
            "positions": [
                -0.23065120083804344,
                -1.4762989876274086,
                2.453447127440844,
                -1.02969921230275,
                1.1377782423751897,
                -3.0415163666418645
            ]
        },
        {
            "positions": [
                -0.12343904692434016,
                -1.5789445366491677,
                2.4843195890566867,
                -1.0305385565517833,
                1.0425338113180163,
                -2.989010691669726
            ]
        },
        {
            "positions": [
                -0.016226893010636845,
                -1.6815900856709265,
                2.51519205067253,
                -1.0313779008008166,
                0.9472893802608428,
                -2.9365050166975877
            ]
        },
        {
            "positions": [
                0.09098526090306641,
                -1.7842356346926853,
                2.5460645122883734,
                -1.0322172450498497,
                0.8520449492036694,
                -2.8839993417254495
            ]
        },
        {
            "positions": [
                0.19819741481676972,
                -1.8868811837144444,
                2.5769369739042163,
                -1.0330565892988828,
                0.7568005181464958,
                -2.831493666753311
            ]
        },
        {
            "positions": [
                0.30540956873047304,
                -1.989526732736203,
                2.6078094355200596,
                -1.033895933547916,
                0.6615560870893225,
                -2.7789879917811726
            ]
        },
        {
            "positions": [
                0.41262172264417635,
                -2.092172281757962,
                2.638681897135903,
                -1.0347352777969494,
                0.566311656032149,
                -2.7264823168090344
            ]
        },
        {
            "positions": [
                0.5198338765578796,
                -2.194817830779721,
                2.669554358751746,
                -1.0355746220459825,
                0.47106722497497566,
                -2.6739766418368958
            ]
        },
        {
            "positions": [
                0.627046030471583,
                -2.2974633798014796,
                2.700426820367589,
                -1.0364139662950156,
                0.37582279391780216,
                -2.6214709668647576
            ]
        },
        {
            "positions": [
                0.7342581843852862,
                -2.4001089288232387,
                2.7312992819834325,
                -1.037253310544049,
                0.28057836286062865,
                -2.568965291892619
            ]
        },
        {
            "positions": [
                0.8414703382989894,
                -2.5027544778449977,
                2.7621717435992754,
                -1.0380926547930822,
                0.18533393180345525,
                -2.516459616920481
            ]
        },
        {
            "positions": [
                0.9486824922126929,
                -2.6054000268667563,
                2.7930442052151188,
                -1.0389319990421153,
                0.09008950074628183,
                -2.4639539419483425
            ]
        },
        {
            "positions": [
                0.921525418886766,
                -2.528092129381706,
                2.748539072858378,
                -0.9749937704658971,
                0.15842907711541332,
                -2.5381999496777365
            ]
        },
        {
            "positions": [
                0.8943683455608391,
                -2.4507842318966557,
                2.7040339405016374,
                -0.9110555418896789,
                0.22676865348454484,
                -2.6124459574071306
            ]
        },
        {
            "positions": [
                0.8672112722349121,
                -2.373476334411605,
                2.6595288081448962,
                -0.8471173133134606,
                0.29510822985367635,
                -2.686691965136525
            ]
        },
        {
            "positions": [
                0.8400541989089853,
                -2.2961684369265547,
                2.6150236757881555,
                -0.7831790847372423,
                0.3634478062228078,
                -2.760937972865919
            ]
        },
        {
            "positions": [
                0.8128971255830584,
                -2.2188605394415046,
                2.570518543431415,
                -0.7192408561610241,
                0.4317873825919394,
                -2.835183980595313
            ]
        },
        {
            "positions": [
                0.7857400522571315,
                -2.141552641956454,
                2.526013411074674,
                -0.6553026275848058,
                0.5001269589610708,
                -2.9094299883247072
            ]
        },
        {
            "positions": [
                0.7585829789312046,
                -2.0642447444714036,
                2.481508278717933,
                -0.5913643990085875,
                0.5684665353302024,
                -2.9836759960541013
            ]
        },
        {
            "positions": [
                0.7314259056052776,
                -1.9869368469863535,
                2.4370031463611923,
                -0.5274261704323693,
                0.6368061116993339,
                -3.0579220037834958
            ]
        },
        {
            "positions": [
                0.7042688322793508,
                -1.909628949501303,
                2.3924980140044516,
                -0.46348794185615105,
                0.7051456880684654,
                -3.13216801151289
            ]
        }
    ]
}