{
    "goal": {
        "global_pose": {
            "orientation": {
                "w": 0.005598929693374612,
                "x": 0.007748599140229565,
                "y": 0.7110244013736278,
                "z": -0.7031023480610252
            },
            "position": {
                "x": 0.1141497679147869,
                "y": -0.7141253447532654,
                "z": 0.3711530566215515
            }
        },
        "name": "move_to_auspresseinheit_B"
    },
    "id": "ProjEST_move_to_auspresseinheit_B_33",
    "joint_names": [
        "shoulder_pan_joint",
        "shoulder_lift_joint",
        "elbow_joint",
        "wrist_1_joint",
        "wrist_2_joint",
        "wrist_3_joint"
    ],
    "metrics": {
        "cart_traj_len": 0.5650626100157276,
        "distance_elbow_joint": 0.06574828299517277,
        "distance_shoulder_lift_joint": 0.29414783263426947,
        "distance_shoulder_pan_joint": 0.5786646488651723,
        "distance_wrist_1_joint": 0.33959973708671953,
        "distance_wrist_2_joint": 0.9876593371477733,
        "distance_wrist_3_joint": 0.004577892526039129,
        "smoothness": 3.806478935924272e-16,
        "time": 0.103767806,
        "traj_len": 1.5067839033037043,
        "weighted_distance": 1.8991610228049958
    },
    "planner": "ProjEST",
    "start": {
        "state": {
            "elbow_joint": 2.0193083361928714,
            "shoulder_lift_joint": -1.1220246554650708,
            "shoulder_pan_joint": -1.0952077554168747,
            "wrist_1_joint": -0.8559753972642168,
            "wrist_2_joint": 0.4759566250798843,
            "wrist_3_joint": -3.1240929996934557
        }
    },
    "waypoints": [
        {
            "positions": [
                -1.0952077554168747,
                -1.1220246554650708,
                2.0193083361928714,
                -0.8559753972642168,
                0.4759566250798843,
                -3.1240929996934557
            ]
        },
        {
            "positions": [
                -1.19165186356107,
                -1.171049294237449,
                2.0083502890270095,
                -0.7993754410830969,
                0.6405665146045132,
                -3.1233300176057823
            ]
        },
        {
            "positions": [
                -1.2880959717052654,
                -1.2200739330098274,
                1.9973922418611472,
                -0.742775484901977,
                0.805176404129142,
                -3.1225670355181094
            ]
        },
        {
            "positions": [
                -1.3845400798494607,
                -1.2690985717822056,
                1.986434194695285,
                -0.6861755287208571,
                0.9697862936537709,
                -3.121804053430436
            ]
        },
        {
            "positions": [
                -1.480984187993656,
                -1.3181232105545837,
                1.975476147529423,
                -0.6295755725397372,
                1.1343961831783997,
                -3.1210410713427628
            ]
        },
        {
            "positions": [
                -1.5774282961378516,
                -1.367147849326962,
                1.9645181003635608,
                -0.5729756163586172,
                1.2990060727030288,
                -3.12027808925509
            ]
        },
        {
            "positions": [
                -1.673872404282047,
                -1.4161724880993403,
                1.9535600531976987,
                -0.5163756601774973,
                1.4636159622276577,
                -3.1195151071674165
            ]
        }
    ]
}