{
    "goal": {
        "global_pose": {
            "orientation": {
                "w": 0.7047431493862688,
                "x": -0.7094548369677653,
                "y": 0.0024358444001904,
                "z": -0.0022348060817251984
            },
            "position": {
                "x": -0.39052492380142206,
                "y": 0.3671506643295288,
                "z": 0.19426114857196808
            }
        },
        "name": "move_to_magneteinheit_D"
    },
    "id": "ProjEST_move_to_magneteinheit_D_121",
    "joint_names": [
        "shoulder_pan_joint",
        "shoulder_lift_joint",
        "elbow_joint",
        "wrist_1_joint",
        "wrist_2_joint",
        "wrist_3_joint"
    ],
    "metrics": {
        "cart_traj_len": 4.491778528767591,
        "distance_elbow_joint": 4.51529419574347,
        "distance_shoulder_lift_joint": 2.0779665482801972,
        "distance_shoulder_pan_joint": 3.060920964048897,
        "distance_wrist_1_joint": 1.7826628301629988,
        "distance_wrist_2_joint": 1.709348695016367,
        "distance_wrist_3_joint": 4.296843148175815,
        "smoothness": 0.6283840126917453,
        "time": 0.25829584,
        "traj_len": 4.176486128485014,
        "weighted_distance": 5.434034799571931
    },
    "planner": "ProjEST",
    "start": {
        "state": {
            "elbow_joint": 0.749534889911806,
            "shoulder_lift_joint": -0.6476975780787326,
            "shoulder_pan_joint": -2.711696901376241,
            "wrist_1_joint": -0.07506478083263063,
            "wrist_2_joint": 0.43296659715538205,
            "wrist_3_joint": -3.14703540197715
        }
    },
    "waypoints": [
        {
            "positions": [
                -2.711696901376241,
                -0.6476975780787326,
                0.749534889911806,
                -0.07506478083263063,
                0.43296659715538205,
                -3.14703540197715
            ]
        },
        {
            "positions": [
                -2.707569940623479,
                -0.6907639282969925,
                0.803080131168563,
                -0.06637270934134326,
                0.374629565450595,
                -2.9225936734965603
            ]
        },
        {
            "positions": [
                -2.703442979870717,
                -0.7338302785152524,
                0.8566253724253201,
                -0.0576806378500559,
                0.31629253374580796,
                -2.6981519450159706
            ]
        },
        {
            "positions": [
                -2.699316019117955,
                -0.7768966287335123,
                0.9101706136820772,
                -0.04898856635876854,
                0.2579555020410209,
                -2.4737102165353804
            ]
        },
        {
            "positions": [
                -2.6951890583651923,
                -0.8199629789517722,
                0.9637158549388343,
                -0.04029649486748117,
                0.1996184703362339,
                -2.2492684880547906
            ]
        },
        {
            "positions": [
                -2.69106209761243,
                -0.8630293291700322,
                1.0172610961955915,
                -0.03160442337619381,
                0.14128143863144688,
                -2.024826759574201
            ]
        },
        {
            "positions": [
                -2.686935136859668,
                -0.9060956793882919,
                1.0708063374523484,
                -0.022912351884906444,
                0.08294440692665983,
                -1.800385031093611
            ]
        },
        {
            "positions": [
                -2.682808176106906,
                -0.9491620296065519,
                1.1243515787091056,
                -0.01422028039361909,
                0.02460737522187284,
                -1.5759433026130212
            ]
        },
        {
            "positions": [
                -2.678681215354144,
                -0.9922283798248118,
                1.1778968199658628,
                -0.005528208902331716,
                -0.03372965648291426,
                -1.3515015741324312
            ]
        },
        {
            "positions": [
                -2.674554254601382,
                -1.0352947300430717,
                1.2314420612226198,
                0.0031638625889556377,
                -0.0920666881877012,
                -1.1270598456518415
            ]
        },
        {
            "positions": [
                -2.6704272938486193,
                -1.0783610802613315,
                1.2849873024793768,
                0.011855934080243005,
                -0.1504037198924883,
                -0.9026181171712513
            ]
        },
        {
            "positions": [
                -2.6663003330958572,
                -1.1214274304795915,
                1.338532543736134,
                0.020548005571530373,
                -0.2087407515972753,
                -0.678176388690662
            ]
        },
        {
            "positions": [
                -2.662173372343095,
                -1.1644937806978515,
                1.3920777849928911,
                0.02924007706281774,
                -0.2670777833020624,
                -0.4537346602100718
            ]
        },
        {
            "positions": [
                -2.658046411590333,
                -1.2075601309161113,
                1.4456230262496481,
                0.03793214855410509,
                -0.32541481500684943,
                -0.22929293172948187
            ]
        },
        {
            "positions": [
                -2.5648734945649854,
                -1.2415372065154944,
                1.4398654024469368,
                0.10018869225667609,
                -0.35277231986858,
                -0.07565021517696582
            ]
        },
        {
            "positions": [
                -2.471700577539638,
                -1.2755142821148777,
                1.4341077786442256,
                0.16244523595924712,
                -0.3801298247303105,
                0.07799250137555022
            ]
        },
        {
            "positions": [
                -2.3785276605142904,
                -1.3094913577142608,
                1.4283501548415143,
                0.22470177966181815,
                -0.40748732959204104,
                0.23163521792806627
            ]
        },
        {
            "positions": [
                -2.2599457649340464,
                -1.2980289037148238,
                1.3400271261883685,
                0.2798178416878745,
                -0.37017527511817716,
                0.16791706180350613
            ]
        },
        {
            "positions": [
                -2.1413638693538024,
                -1.2865664497153868,
                1.2517040975352225,
                0.3349339037139308,
                -0.3328632206443133,
                0.10419890567894602
            ]
        },
        {
            "positions": [
                -2.022781973773559,
                -1.2751039957159498,
                1.1633810688820767,
                0.39004996573998707,
                -0.29555116617044935,
                0.04048074955438591
            ]
        },
        {
            "positions": [
                -1.9042000781933148,
                -1.2636415417165128,
                1.075058040228931,
                0.4451660277660434,
                -0.2582391116965855,
                -0.02323740657017423
            ]
        },
        {
            "positions": [
                -1.7856181826130708,
                -1.252179087717076,
                0.9867350115757849,
                0.5002820897920998,
                -0.22092705722272155,
                -0.08695556269473434
            ]
        },
        {
            "positions": [
                -1.6670362870328268,
                -1.240716633717639,
                0.8984119829226391,
                0.5553981518181561,
                -0.18361500274885767,
                -0.15067371881929445
            ]
        },
        {
            "positions": [
                -1.5484543914525828,
                -1.229254179718202,
                0.8100889542694932,
                0.6105142138442123,
                -0.1463029482749938,
                -0.21439187494385462
            ]
        },
        {
            "positions": [
                -1.429872495872339,
                -1.217791725718765,
                0.7217659256163474,
                0.6656302758702687,
                -0.10899089380112992,
                -0.2781100310684147
            ]
        },
        {
            "positions": [
                -1.311290600292095,
                -1.206329271719328,
                0.6334428969632016,
                0.720746337896325,
                -0.07167883932726599,
                -0.3418281871929748
            ]
        },
        {
            "positions": [
                -1.2183936618288318,
                -1.2764229310354471,
                0.4608399000807366,
                0.7601758624874797,
                -0.056368916211576164,
                -0.3372670368397452
            ]
        },
        {
            "positions": [
                -1.1254967233655686,
                -1.3465165903515663,
                0.28823690319827167,
                0.7996053870786345,
                -0.04105899309588635,
                -0.33270588648651556
            ]
        },
        {
            "positions": [
                -1.0325997849023054,
                -1.4166102496676856,
                0.11563390631580672,
                0.8390349116697893,
                -0.025749069980196528,
                -0.32814473613328593
            ]
        },
        {
            "positions": [
                -0.9397028464390423,
                -1.486703908983805,
                -0.05696909056665822,
                0.878464436260944,
                -0.010439146864506713,
                -0.3235835857800563
            ]
        },
        {
            "positions": [
                -0.8468059079757793,
                -1.556797568299924,
                -0.22957208744912316,
                0.9178939608520986,
                0.004870776251183095,
                -0.3190224354268267
            ]
        },
        {
            "positions": [
                -0.753908969512516,
                -1.6268912276160434,
                -0.4021750843315881,
                0.9573234854432534,
                0.02018069936687293,
                -0.31446128507359705
            ]
        },
        {
            "positions": [
                -0.6610120310492529,
                -1.6969848869321627,
                -0.574778081214053,
                0.9967530100344082,
                0.03549062248256274,
                -0.3099001347203674
            ]
        },
        {
            "positions": [
                -0.5681150925859897,
                -1.7670785462482819,
                -0.747381078096518,
                1.0361825346255629,
                0.05080054559825256,
                -0.3053389843671378
            ]
        },
        {
            "positions": [
                -0.4752181541227266,
                -1.837172205564401,
                -0.9199840749789829,
                1.0756120592167175,
                0.06611046871394238,
                -0.3007778340139082
            ]
        },
        {
            "positions": [
                -0.3823212156594634,
                -1.9072658648805203,
                -1.0925870718614479,
                1.1150415838078724,
                0.08142039182963218,
                -0.29621668366067855
            ]
        },
        {
            "positions": [
                -0.28942427719620034,
                -1.9773595241966395,
                -1.2651900687439126,
                1.1544711083990271,
                0.096730314945322,
                -0.2916555333074489
            ]
        },
        {
            "positions": [
                -0.19652733873293693,
                -2.0474531835127587,
                -1.4377930656263778,
                1.1939006329901818,
                0.11204023806101185,
                -0.2870943829542193
            ]
        },
        {
            "positions": [
                -0.10363040026967396,
                -2.117546842828878,
                -1.6103960625088427,
                1.2333301575813365,
                0.12735016117670167,
                -0.28253323260098967
            ]
        },
        {
            "positions": [
                -0.010733461806410771,
                -2.1876405021449976,
                -1.7829990593913077,
                1.2727596821724914,
                0.14266008429239146,
                -0.27797208224776004
            ]
        },
        {
            "positions": [
                0.08216347665685247,
                -2.2577341614611166,
                -1.9556020562737728,
                1.312189206763646,
                0.1579700074080813,
                -0.2734109318945304
            ]
        },
        {
            "positions": [
                0.05831809619171968,
                -2.228145981270831,
                -2.056844935019213,
                1.3871182174324852,
                0.12194957535282996,
                -0.21641965895352527
            ]
        },
        {
            "positions": [
                0.03447271572658689,
                -2.198557801080545,
                -2.1580878137646535,
                1.4620472281013246,
                0.08592914329757864,
                -0.15942838601252016
            ]
        },
        {
            "positions": [
                0.010627335261454096,
                -2.16896962089026,
                -2.2593306925100936,
                1.5369762387701638,
                0.04990871124232732,
                -0.10243711307151504
            ]
        },
        {
            "positions": [
                -0.013218045203678697,
                -2.139381440699974,
                -2.360573571255534,
                1.611905249439003,
                0.01388827918707599,
                -0.045445840130509896
            ]
        },
        {
            "positions": [
                -0.09905757728131448,
                -2.2110079767733763,
                -2.3670783022057575,
                1.5640588494933203,
                0.09356613071098382,
                -0.0212824520869624
            ]
        },
        {
            "positions": [
                -0.18489710935895026,
                -2.282634512846779,
                -2.3735830331559806,
                1.5162124495476377,
                0.17324398223489165,
                0.002880935956585097
            ]
        }
    ]
}