{
    "goal": {
        "global_pose": {
            "orientation": {
                "w": 0.7031023480610252,
                "x": -0.7110244013736278,
                "y": 0.0077485991402295624,
                "z": 0.005598929693374583
            },
            "position": {
                "x": -0.8841497679147869,
                "y": 0.44412534475326537,
                "z": 0.3711530566215515
            }
        },
        "name": "move_to_auspresseinheit_D"
    },
    "id": "ProjEST_move_to_auspresseinheit_D_88",
    "joint_names": [
        "shoulder_pan_joint",
        "shoulder_lift_joint",
        "elbow_joint",
        "wrist_1_joint",
        "wrist_2_joint",
        "wrist_3_joint"
    ],
    "metrics": {
        "cart_traj_len": 0.3453081027344144,
        "distance_elbow_joint": 0.6719941650107293,
        "distance_shoulder_lift_joint": 0.1393128033781954,
        "distance_shoulder_pan_joint": 0.13364004077766525,
        "distance_wrist_1_joint": 0.6363159432124332,
        "distance_wrist_2_joint": 1.4425033388631086,
        "distance_wrist_3_joint": 0.09258451439040094,
        "smoothness": 5.921189511553294e-16,
        "time": 0.039014091,
        "traj_len": 1.765318896299627,
        "weighted_distance": 2.3195558015466835
    },
    "planner": "ProjEST",
    "start": {
        "state": {
            "elbow_joint": -1.8275523626775212,
            "shoulder_lift_joint": -2.126789852344167,
            "shoulder_pan_joint": -0.03513704404078235,
            "wrist_1_joint": -2.347782403156801,
            "wrist_2_joint": -1.6058999987535132,
            "wrist_3_joint": -3.0880379163319196
        }
    },
    "waypoints": [
        {
            "positions": [
                -0.03513704404078235,
                -2.126789852344167,
                -1.8275523626775212,
                -2.347782403156801,
                -1.6058999987535132,
                -3.0880379163319196
            ]
        },
        {
            "positions": [
                -0.05184204913799051,
                -2.1442039527664414,
                -1.74355309205118,
                -2.427321896058355,
                -1.4255870813956246,
                -3.0764648520331193
            ]
        },
        {
            "positions": [
                -0.06854705423519866,
                -2.1616180531887155,
                -1.6595538214248389,
                -2.5068613889599094,
                -1.245274164037736,
                -3.0648917877343194
            ]
        },
        {
            "positions": [
                -0.08525205933240682,
                -2.17903215361099,
                -1.5755545507984978,
                -2.586400881861463,
                -1.0649612466798475,
                -3.0533187234355195
            ]
        },
        {
            "positions": [
                -0.10195706442961497,
                -2.1964462540332645,
                -1.4915552801721566,
                -2.6659403747630175,
                -0.8846483293219589,
                -3.041745659136719
            ]
        },
        {
            "positions": [
                -0.11866206952682312,
                -2.213860354455539,
                -1.4075560095458153,
                -2.7454798676645717,
                -0.7043354119640703,
                -3.030172594837919
            ]
        },
        {
            "positions": [
                -0.1353670746240313,
                -2.2312744548778136,
                -1.3235567389194742,
                -2.8250193605661256,
                -0.5240224946061818,
                -3.018599530539119
            ]
        },
        {
            "positions": [
                -0.15207207972123946,
                -2.2486885553000877,
                -1.2395574682931332,
                -2.90455885346768,
                -0.3437095772482932,
                -3.007026466240319
            ]
        },
        {
            "positions": [
                -0.1687770848184476,
                -2.2661026557223622,
                -1.155558197666792,
                -2.984098346369234,
                -0.16339665989040467,
                -2.9954534019415187
            ]
        }
    ]
}