{
    "goal": {
        "global_pose": {
            "orientation": {
                "w": -0.4816463035849501,
                "x": 0.5182115481033762,
                "y": 0.4908360881923453,
                "z": -0.5084816262002911
            },
            "position": {
                "x": -0.8240239810943604,
                "y": -0.300875300988555,
                "z": 0.16403168439865112
            }
        },
        "name": "move_to_storage_C"
    },
    "id": "ProjEST_move_to_storage_C_70",
    "joint_names": [
        "shoulder_pan_joint",
        "shoulder_lift_joint",
        "elbow_joint",
        "wrist_1_joint",
        "wrist_2_joint",
        "wrist_3_joint"
    ],
    "metrics": {
        "cart_traj_len": 0.5769561346599649,
        "distance_elbow_joint": 0.26111369332413426,
        "distance_shoulder_lift_joint": 0.19032269607258012,
        "distance_shoulder_pan_joint": 0.49511014118700647,
        "distance_wrist_1_joint": 0.08612149113501888,
        "distance_wrist_2_joint": 1.0624281144534233,
        "distance_wrist_3_joint": 0.06782016218301257,
        "smoothness": 2.5376526478085547e-16,
        "time": 0.181826665,
        "traj_len": 1.470685655860958,
        "weighted_distance": 1.8566384215322171
    },
    "planner": "ProjEST",
    "start": {
        "state": {
            "elbow_joint": 2.010868314990456,
            "shoulder_lift_joint": -1.1634956873337592,
            "shoulder_pan_joint": -2.4736205022346125,
            "wrist_1_joint": -0.8367026794202681,
            "wrist_2_joint": 0.6746043897044499,
            "wrist_3_joint": -3.1496632123970403
        }
    },
    "waypoints": [
        {
            "positions": [
                -2.4736205022346125,
                -1.1634956873337592,
                2.010868314990456,
                -0.8367026794202681,
                0.6746043897044499,
                -3.1496632123970403
            ]
        },
        {
            "positions": [
                -2.5561388590991134,
                -1.1317752379883292,
                1.9673493661031,
                -0.8223490975644316,
                0.8516757421133538,
                -3.1383598520332048
            ]
        },
        {
            "positions": [
                -2.638657215963615,
                -1.100054788642899,
                1.9238304172157443,
                -0.8079955157085952,
                1.0287470945222577,
                -3.1270564916693693
            ]
        },
        {
            "positions": [
                -2.7211755728281157,
                -1.0683343392974691,
                1.8803114683283888,
                -0.7936419338527587,
                1.2058184469311617,
                -3.115753131305534
            ]
        },
        {
            "positions": [
                -2.8036939296926167,
                -1.0366138899520392,
                1.836792519441033,
                -0.7792883519969221,
                1.3828897993400653,
                -3.1044497709416987
            ]
        },
        {
            "positions": [
                -2.886212286557118,
                -1.004893440606609,
                1.7932735705536773,
                -0.7649347701410857,
                1.5599611517489693,
                -3.093146410577863
            ]
        },
        {
            "positions": [
                -2.968730643421619,
                -0.9731729912611791,
                1.7497546216663216,
                -0.7505811882852492,
                1.7370325041578734,
                -3.0818430502140277
            ]
        }
    ]
}