{
    "goal": {
        "global_pose": {
            "orientation": {
                "w": -0.4816463035849501,
                "x": 0.5182115481033762,
                "y": 0.4908360881923453,
                "z": -0.5084816262002911
            },
            "position": {
                "x": -0.8240239810943604,
                "y": -0.300875300988555,
                "z": 0.16403168439865112
            }
        },
        "name": "move_to_storage_C"
    },
    "id": "ProjEST_move_to_storage_C_116",
    "joint_names": [
        "shoulder_pan_joint",
        "shoulder_lift_joint",
        "elbow_joint",
        "wrist_1_joint",
        "wrist_2_joint",
        "wrist_3_joint"
    ],
    "metrics": {
        "cart_traj_len": 0.5774787020498299,
        "distance_elbow_joint": 0.26104067207392423,
        "distance_shoulder_lift_joint": 0.1902726319266198,
        "distance_shoulder_pan_joint": 0.4942657532700152,
        "distance_wrist_1_joint": 0.08824806419478537,
        "distance_wrist_2_joint": 1.0779183752168193,
        "distance_wrist_3_joint": 0.06987047720613893,
        "smoothness": 0.0,
        "time": 0.015565394,
        "traj_len": 1.4770294424581736,
        "weighted_distance": 1.867491196153863
    },
    "planner": "ProjEST",
    "start": {
        "state": {
            "elbow_joint": 2.010868314990456,
            "shoulder_lift_joint": -1.1634956873337592,
            "shoulder_pan_joint": -2.4736205022346125,
            "wrist_1_joint": -0.8367026794202681,
            "wrist_2_joint": 0.6746043897044499,
            "wrist_3_joint": -3.1496632123970403
        }
    },
    "waypoints": [
        {
            "positions": [
                -2.4736205022346125,
                -1.1634956873337592,
                2.010868314990456,
                -0.8367026794202681,
                0.6746043897044499,
                -3.1496632123970403
            ]
        },
        {
            "positions": [
                -2.555998127779615,
                -1.1317835820126558,
                1.9673615363114685,
                -0.8219946687211372,
                0.8542574522405865,
                -3.1380181328626837
            ]
        },
        {
            "positions": [
                -2.6383757533246177,
                -1.1000714766915527,
                1.9238547576324811,
                -0.8072866580220063,
                1.0339105147767231,
                -3.126373053328327
            ]
        },
        {
            "positions": [
                -2.7207533788696203,
                -1.0683593713704493,
                1.8803479789534938,
                -0.7925786473228754,
                1.2135635773128595,
                -3.114727973793971
            ]
        },
        {
            "positions": [
                -2.8031310044146225,
                -1.036647266049346,
                1.8368412002745063,
                -0.7778706366237446,
                1.3932166398489962,
                -3.1030828942596145
            ]
        },
        {
            "positions": [
                -2.885508629959625,
                -1.0049351607282426,
                1.793334421595519,
                -0.7631626259246136,
                1.5728697023851326,
                -3.091437814725258
            ]
        },
        {
            "positions": [
                -2.9678862555046277,
                -0.9732230554071394,
                1.7498276429165316,
                -0.7484546152254827,
                1.7525227649212693,
                -3.0797927351909014
            ]
        }
    ]
}