{
    "goal": {
        "global_pose": {
            "orientation": {
                "w": 0.5084816262002911,
                "x": -0.4908360881923452,
                "y": 0.5182115481033761,
                "z": -0.48164630358495003
            },
            "position": {
                "x": 0.5540239810943604,
                "y": -0.46912469901144505,
                "z": 0.16403168439865112
            }
        },
        "name": "move_to_storage_B"
    },
    "id": "ProjEST_move_to_storage_B_138",
    "joint_names": [
        "shoulder_pan_joint",
        "shoulder_lift_joint",
        "elbow_joint",
        "wrist_1_joint",
        "wrist_2_joint",
        "wrist_3_joint"
    ],
    "metrics": {
        "cart_traj_len": 0.7653589572297389,
        "distance_elbow_joint": 0.34928256426307946,
        "distance_shoulder_lift_joint": 0.457601416476318,
        "distance_shoulder_pan_joint": 0.40763286058036263,
        "distance_wrist_1_joint": 3.2335061498048345,
        "distance_wrist_2_joint": 2.804258778389877,
        "distance_wrist_3_joint": 3.1483983072702584,
        "smoothness": 0.3310228865530851,
        "time": 0.11887379099999999,
        "traj_len": 3.2250085390250876,
        "weighted_distance": 4.7681486574476635
    },
    "planner": "ProjEST",
    "start": {
        "state": {
            "elbow_joint": 1.664937868594044,
            "shoulder_lift_joint": -0.661644460510453,
            "shoulder_pan_joint": -0.9139846352900073,
            "wrist_1_joint": 2.146753192139373,
            "wrist_2_joint": -2.2341966793290973,
            "wrist_3_joint": 0.005466555786416001
        }
    },
    "waypoints": [
        {
            "positions": [
                -0.9139846352900073,
                -0.661644460510453,
                1.664937868594044,
                2.146753192139373,
                -2.2341966793290973,
                0.005466555786416001
            ]
        },
        {
            "positions": [
                -0.8574145657410805,
                -0.7658434933422349,
                1.720138202565252,
                2.21018902247209,
                -2.258234290953963,
                -0.02609875460036573
            ]
        },
        {
            "positions": [
                -0.8008444961921537,
                -0.8700425261740168,
                1.7753385365364602,
                2.273624852804807,
                -2.2822719025788283,
                -0.05766406498714746
            ]
        },
        {
            "positions": [
                -0.812624205051454,
                -0.880010660206527,
                1.7848938123892868,
                2.149359473239231,
                -2.1720245603732224,
                -0.18107477244701525
            ]
        },
        {
            "positions": [
                -0.8244039139107544,
                -0.8899787942390371,
                1.7944490882421134,
                2.025094093673655,
                -2.0617772181676166,
                -0.304485479906883
            ]
        },
        {
            "positions": [
                -0.8361836227700548,
                -0.8999469282715473,
                1.80400436409494,
                1.900828714108079,
                -1.9515298759620108,
                -0.42789618736675084
            ]
        },
        {
            "positions": [
                -0.8479633316293551,
                -0.9099150623040575,
                1.8135596399477663,
                1.776563334542503,
                -1.841282533756405,
                -0.5513068948266187
            ]
        },
        {
            "positions": [
                -0.8597430404886555,
                -0.9198831963365677,
                1.8231149158005928,
                1.6522979549769268,
                -1.731035191550799,
                -0.6747176022864865
            ]
        },
        {
            "positions": [
                -0.8715227493479558,
                -0.9298513303690779,
                1.8326701916534194,
                1.5280325754113508,
                -1.6207878493451933,
                -0.7981283097463542
            ]
        },
        {
            "positions": [
                -0.8833024582072563,
                -0.939819464401588,
                1.842225467506246,
                1.4037671958457747,
                -1.5105405071395874,
                -0.9215390172062221
            ]
        },
        {
            "positions": [
                -0.8950821670665566,
                -0.9497875984340981,
                1.8517807433590725,
                1.2795018162801988,
                -1.4002931649339816,
                -1.0449497246660897
            ]
        },
        {
            "positions": [
                -0.906861875925857,
                -0.9597557324666083,
                1.861336019211899,
                1.1552364367146228,
                -1.2900458227283758,
                -1.1683604321259573
            ]
        },
        {
            "positions": [
                -0.9186415847851573,
                -0.9697238664991185,
                1.8708912950647254,
                1.0309710571490465,
                -1.17979848052277,
                -1.2917711395858253
            ]
        },
        {
            "positions": [
                -0.9304212936444577,
                -0.9796920005316286,
                1.880446570917552,
                0.9067056775834705,
                -1.069551138317164,
                -1.415181847045693
            ]
        },
        {
            "positions": [
                -0.942201002503758,
                -0.9896601345641388,
                1.8900018467703785,
                0.7824402980178946,
                -0.9593037961115582,
                -1.5385925545055608
            ]
        },
        {
            "positions": [
                -0.9539807113630584,
                -0.999628268596649,
                1.899557122623205,
                0.6581749184523185,
                -0.8490564539059524,
                -1.6620032619654286
            ]
        },
        {
            "positions": [
                -0.9657604202223588,
                -1.009596402629159,
                1.9091123984760316,
                0.5339095388867423,
                -0.7388091117003464,
                -1.7854139694252966
            ]
        },
        {
            "positions": [
                -0.9775401290816591,
                -1.0195645366616692,
                1.9186676743288582,
                0.4096441593211666,
                -0.6285617694947407,
                -1.908824676885164
            ]
        },
        {
            "positions": [
                -0.9893198379409595,
                -1.0295326706941794,
                1.9282229501816848,
                0.28537877975559023,
                -0.5183144272891349,
                -2.0322353843450323
            ]
        },
        {
            "positions": [
                -1.00109954680026,
                -1.0395008047266896,
                1.937778226034511,
                0.1611134001900143,
                -0.40806708508352885,
                -2.1556460918049
            ]
        },
        {
            "positions": [
                -1.0128792556595603,
                -1.0494689387591998,
                1.9473335018873377,
                0.03684802062443859,
                -0.29781974287792323,
                -2.2790567992647675
            ]
        },
        {
            "positions": [
                -1.0246589645188606,
                -1.05943707279171,
                1.9568887777401642,
                -0.087417358941138,
                -0.1875724006723174,
                -2.4024675067246357
            ]
        },
        {
            "positions": [
                -1.036438673378161,
                -1.0694052068242201,
                1.9664440535929908,
                -0.21168273850671415,
                -0.07732505846671156,
                -2.5258782141845035
            ]
        },
        {
            "positions": [
                -1.0482183822374613,
                -1.0793733408567303,
                1.9759993294458174,
                -0.33594811807228986,
                0.032922283738894276,
                -2.649288921644371
            ]
        },
        {
            "positions": [
                -1.0599980910967617,
                -1.0893414748892405,
                1.9855546052986437,
                -0.460213497637866,
                0.1431696259445001,
                -2.7726996291042387
            ]
        },
        {
            "positions": [
                -1.071777799956062,
                -1.0993096089217507,
                1.9951098811514703,
                -0.5844788772034422,
                0.25341696815010595,
                -2.8961103365641065
            ]
        },
        {
            "positions": [
                -1.0835575088153624,
                -1.1092777429542608,
                2.004665157004297,
                -0.7087442567690179,
                0.3636643103557118,
                -3.0195210440239744
            ]
        },
        {
            "positions": [
                -1.0953372176746627,
                -1.119245876986771,
                2.0142204328571234,
                -0.8330096363345941,
                0.4739116525613175,
                -3.142931751483842
            ]
        }
    ]
}