{
    "goal": {
        "global_pose": {
            "orientation": {
                "w": 0.5084816262002911,
                "x": -0.4908360881923452,
                "y": 0.5182115481033761,
                "z": -0.48164630358495003
            },
            "position": {
                "x": 0.5540239810943604,
                "y": -0.46912469901144505,
                "z": 0.16403168439865112
            }
        },
        "name": "move_to_storage_B"
    },
    "id": "ProjEST_move_to_storage_B_6",
    "joint_names": [
        "shoulder_pan_joint",
        "shoulder_lift_joint",
        "elbow_joint",
        "wrist_1_joint",
        "wrist_2_joint",
        "wrist_3_joint"
    ],
    "metrics": {
        "cart_traj_len": 0.816650819637046,
        "distance_elbow_joint": 0.3559258951980975,
        "distance_shoulder_lift_joint": 0.46116664302590005,
        "distance_shoulder_pan_joint": 0.620742093121338,
        "distance_wrist_1_joint": 3.172980007818501,
        "distance_wrist_2_joint": 2.7754642042687743,
        "distance_wrist_3_joint": 3.121389647637657,
        "smoothness": 0.1903335220776295,
        "time": 0.22756736400000002,
        "traj_len": 3.2415534070982495,
        "weighted_distance": 4.764335420437236
    },
    "planner": "ProjEST",
    "start": {
        "state": {
            "elbow_joint": 1.664937868594044,
            "shoulder_lift_joint": -0.661644460510453,
            "shoulder_pan_joint": -0.9139846352900073,
            "wrist_1_joint": 2.146753192139373,
            "wrist_2_joint": -2.2341966793290973,
            "wrist_3_joint": 0.005466555786416001
        }
    },
    "waypoints": [
        {
            "positions": [
                -0.9139846352900073,
                -0.661644460510453,
                1.664937868594044,
                2.146753192139373,
                -2.2341966793290973,
                0.005466555786416001
            ]
        },
        {
            "positions": [
                -0.8409698176485841,
                -0.7184921128783535,
                1.7317699081398086,
                2.173204726787387,
                -2.2463680152361394,
                -0.042882327076499846
            ]
        },
        {
            "positions": [
                -0.7679550000071609,
                -0.775339765246254,
                1.7986019476855735,
                2.1996562614354005,
                -2.258539351143181,
                -0.09123120993941569
            ]
        },
        {
            "positions": [
                -0.6949401823657377,
                -0.8321874176141545,
                1.8654339872313381,
                2.226107796083414,
                -2.270710687050223,
                -0.13958009280233155
            ]
        },
        {
            "positions": [
                -0.7110080879736205,
                -0.8438123650510424,
                1.8716511782937704,
                2.102362779928436,
                -2.161152679188317,
                -0.25863381276428793
            ]
        },
        {
            "positions": [
                -0.7270759935815032,
                -0.8554373124879304,
                1.8778683693562024,
                1.9786177637734572,
                -2.0515946713264115,
                -0.37768753272624433
            ]
        },
        {
            "positions": [
                -0.743143899189386,
                -0.8670622599248183,
                1.8840855604186346,
                1.854872747618479,
                -1.9420366634645054,
                -0.4967412526882007
            ]
        },
        {
            "positions": [
                -0.7592118047972687,
                -0.8786872073617062,
                1.8903027514810666,
                1.7311277314635005,
                -1.8324786556025994,
                -0.6157949726501571
            ]
        },
        {
            "positions": [
                -0.7752797104051514,
                -0.8903121547985942,
                1.8965199425434989,
                1.607382715308522,
                -1.7229206477406933,
                -0.7348486926121135
            ]
        },
        {
            "positions": [
                -0.7913476160130342,
                -0.9019371022354822,
                1.9027371336059309,
                1.4836376991535438,
                -1.6133626398787877,
                -0.8539024125740698
            ]
        },
        {
            "positions": [
                -0.8074155216209169,
                -0.9135620496723701,
                1.9089543246683631,
                1.3598926829985651,
                -1.5038046320168816,
                -0.9729561325360263
            ]
        },
        {
            "positions": [
                -0.8234834272287996,
                -0.925186997109258,
                1.9151715157307951,
                1.236147666843587,
                -1.3942466241549756,
                -1.0920098524979827
            ]
        },
        {
            "positions": [
                -0.8395513328366824,
                -0.936811944546146,
                1.9213887067932274,
                1.1124026506886084,
                -1.2846886162930697,
                -1.211063572459939
            ]
        },
        {
            "positions": [
                -0.8556192384445651,
                -0.9484368919830339,
                1.9276058978556594,
                0.98865763453363,
                -1.1751306084311637,
                -1.3301172924218956
            ]
        },
        {
            "positions": [
                -0.8716871440524478,
                -0.9600618394199218,
                1.9338230889180916,
                0.8649126183786515,
                -1.0655726005692578,
                -1.449171012383852
            ]
        },
        {
            "positions": [
                -0.8877550496603306,
                -0.9716867868568098,
                1.9400402799805236,
                0.7411676022236733,
                -0.956014592707352,
                -1.5682247323458083
            ]
        },
        {
            "positions": [
                -0.9038229552682133,
                -0.9833117342936978,
                1.9462574710429559,
                0.6174225860686946,
                -0.846456584845446,
                -1.6872784523077646
            ]
        },
        {
            "positions": [
                -0.9198908608760961,
                -0.9949366817305857,
                1.952474662105388,
                0.49367756991371614,
                -0.7368985769835399,
                -1.8063321722697212
            ]
        },
        {
            "positions": [
                -0.9359587664839788,
                -1.0065616291674737,
                1.9586918531678201,
                0.3699325537587379,
                -0.6273405691216343,
                -1.9253858922316773
            ]
        },
        {
            "positions": [
                -0.9520266720918615,
                -1.0181865766043616,
                1.9649090442302521,
                0.24618753760375944,
                -0.5177825612597282,
                -2.0444396121936337
            ]
        },
        {
            "positions": [
                -0.9680945776997443,
                -1.0298115240412495,
                1.9711262352926844,
                0.12244252144878098,
                -0.40822455339782215,
                -2.1634933321555905
            ]
        },
        {
            "positions": [
                -0.984162483307627,
                -1.0414364714781374,
                1.9773434263551164,
                -0.0013024947061972547,
                -0.2986665455359163,
                -2.2825470521175464
            ]
        },
        {
            "positions": [
                -1.0002303889155097,
                -1.0530614189150254,
                1.9835606174175486,
                -0.12504751086117594,
                -0.18910853767401026,
                -2.401600772079503
            ]
        },
        {
            "positions": [
                -1.0162982945233925,
                -1.0646863663519133,
                1.9897778084799806,
                -0.24879252701615417,
                -0.0795505298121042,
                -2.5206544920414595
            ]
        },
        {
            "positions": [
                -1.0323662001312752,
                -1.0763113137888012,
                1.9959949995424129,
                -0.3725375431711324,
                0.030007478049801417,
                -2.6397082120034154
            ]
        },
        {
            "positions": [
                -1.048434105739158,
                -1.087936261225689,
                2.002212190604845,
                -0.4962825593261111,
                0.13956548591170748,
                -2.7587619319653722
            ]
        },
        {
            "positions": [
                -1.0645020113470407,
                -1.0995612086625772,
                2.008429381667277,
                -0.6200275754810893,
                0.24912349377361354,
                -2.8778156519273286
            ]
        },
        {
            "positions": [
                -1.0805699169549234,
                -1.1111861560994651,
                2.0146465727297094,
                -0.7437725916360676,
                0.35868150163551915,
                -2.996869371889285
            ]
        },
        {
            "positions": [
                -1.0966378225628062,
                -1.122811103536353,
                2.0208637637921414,
                -0.8675176077910463,
                0.4682395094974252,
                -3.1159230918512413
            ]
        }
    ]
}