{
    "goal": {
        "global_pose": {
            "orientation": {
                "w": 0.005598929693374612,
                "x": 0.007748599140229565,
                "y": 0.7110244013736278,
                "z": -0.7031023480610252
            },
            "position": {
                "x": 0.1141497679147869,
                "y": -0.7141253447532654,
                "z": 0.3711530566215515
            }
        },
        "name": "move_to_auspresseinheit_B"
    },
    "id": "ProjEST_move_to_auspresseinheit_B_114",
    "joint_names": [
        "shoulder_pan_joint",
        "shoulder_lift_joint",
        "elbow_joint",
        "wrist_1_joint",
        "wrist_2_joint",
        "wrist_3_joint"
    ],
    "metrics": {
        "cart_traj_len": 0.5653751476519983,
        "distance_elbow_joint": 0.06121520694336491,
        "distance_shoulder_lift_joint": 0.295306735593059,
        "distance_shoulder_pan_joint": 0.5776658705691202,
        "distance_wrist_1_joint": 0.32051081870879783,
        "distance_wrist_2_joint": 0.9948999622409926,
        "distance_wrist_3_joint": 0.0028554075394402467,
        "smoothness": 2.5376526478085547e-16,
        "time": 0.016183704,
        "traj_len": 1.5008177776115177,
        "weighted_distance": 1.8903903294355495
    },
    "planner": "ProjEST",
    "start": {
        "state": {
            "elbow_joint": 2.0193083361928714,
            "shoulder_lift_joint": -1.1220246554650708,
            "shoulder_pan_joint": -1.0952077554168747,
            "wrist_1_joint": -0.8559753972642168,
            "wrist_2_joint": 0.4759566250798843,
            "wrist_3_joint": -3.1240929996934557
        }
    },
    "waypoints": [
        {
            "positions": [
                -1.0952077554168747,
                -1.1220246554650708,
                2.0193083361928714,
                -0.8559753972642168,
                0.4759566250798843,
                -3.1240929996934557
            ]
        },
        {
            "positions": [
                -1.191485400511728,
                -1.1712424447305807,
                2.0091058017023107,
                -0.8025569274794171,
                0.6417732854533831,
                -3.1245689009500293
            ]
        },
        {
            "positions": [
                -1.2877630456065814,
                -1.2204602339960904,
                1.9989032672117497,
                -0.7491384576946175,
                0.8075899458268818,
                -3.1250448022066024
            ]
        },
        {
            "positions": [
                -1.3840406907014349,
                -1.2696780232616003,
                1.988700732721189,
                -0.6957199879098179,
                0.9734066062003806,
                -3.1255207034631756
            ]
        },
        {
            "positions": [
                -1.4803183357962881,
                -1.3188958125271102,
                1.9784981982306282,
                -0.6423015181250182,
                1.1392232665738793,
                -3.125996604719749
            ]
        },
        {
            "positions": [
                -1.5765959808911414,
                -1.3681136017926199,
                1.9682956637400673,
                -0.5888830483402185,
                1.3050399269473782,
                -3.1264725059763228
            ]
        },
        {
            "positions": [
                -1.6728736259859949,
                -1.4173313910581298,
                1.9580931292495065,
                -0.535464578555419,
                1.470856587320877,
                -3.126948407232896
            ]
        }
    ]
}