{
    "goal": {
        "global_pose": {
            "orientation": {
                "w": 0.5084816217422485,
                "x": -0.49083608388900757,
                "y": 0.5182115435600281,
                "z": -0.4816462993621826
            },
            "position": {
                "x": 0.5540239810943604,
                "y": 0.030875300988554955,
                "z": 0.16403168439865112
            }
        },
        "name": "move_to_storage_A"
    },
    "id": "ProjEST_move_to_storage_A_18",
    "joint_names": [
        "shoulder_pan_joint",
        "shoulder_lift_joint",
        "elbow_joint",
        "wrist_1_joint",
        "wrist_2_joint",
        "wrist_3_joint"
    ],
    "metrics": {
        "cart_traj_len": 0.35348007520711844,
        "distance_elbow_joint": 0.45409410528271343,
        "distance_shoulder_lift_joint": 0.23469925483274956,
        "distance_shoulder_pan_joint": 0.4616130065595538,
        "distance_wrist_1_joint": 0.25732111148604,
        "distance_wrist_2_joint": 1.1030281442860093,
        "distance_wrist_3_joint": 0.09892284973630394,
        "smoothness": 6.661338165333112e-16,
        "time": 0.048590716,
        "traj_len": 1.615449928714403,
        "weighted_distance": 2.0415370257303755
    },
    "planner": "ProjEST",
    "start": {
        "state": {
            "elbow_joint": 1.971548259319323,
            "shoulder_lift_joint": -1.1394851275133948,
            "shoulder_pan_joint": 0.1228115487234821,
            "wrist_1_joint": -0.7804723859257726,
            "wrist_2_joint": 0.12958671773740124,
            "wrist_3_joint": -3.192489227718131
        }
    },
    "waypoints": [
        {
            "positions": [
                0.1228115487234821,
                -1.1394851275133948,
                1.971548259319323,
                -0.7804723859257726,
                0.12958671773740124,
                -3.192489227718131
            ]
        },
        {
            "positions": [
                0.056866833500688704,
                -1.173013592489502,
                2.036418845788282,
                -0.8172325447094926,
                0.28716216692111685,
                -3.1783573920415162
            ]
        },
        {
            "positions": [
                -0.009077881722104691,
                -1.206542057465609,
                2.101289432257241,
                -0.8539927034932127,
                0.4447376161048324,
                -3.1642255563649013
            ]
        },
        {
            "positions": [
                -0.07502259694489807,
                -1.2400705224417161,
                2.1661600187262002,
                -0.8907528622769326,
                0.602313065288548,
                -3.1500937206882864
            ]
        },
        {
            "positions": [
                -0.14096731216769148,
                -1.273598987417823,
                2.2310306051951594,
                -0.9275130210606526,
                0.7598885144722637,
                -3.135961885011672
            ]
        },
        {
            "positions": [
                -0.20691202739048492,
                -1.3071274523939302,
                2.295901191664118,
                -0.9642731798443727,
                0.9174639636559794,
                -3.121830049335057
            ]
        },
        {
            "positions": [
                -0.27285674261327825,
                -1.3406559173700372,
                2.3607717781330773,
                -1.0010333386280925,
                1.0750394128396947,
                -3.107698213658442
            ]
        },
        {
            "positions": [
                -0.3388014578360717,
                -1.3741843823461444,
                2.4256423646020364,
                -1.0377934974118126,
                1.2326148620234105,
                -3.093566377981827
            ]
        }
    ]
}{
    "goal": {
        "global_pose": {
            "orientation": {
                "w": 0.5084816217422485,
                "x": -0.49083608388900757,
                "y": 0.5182115435600281,
                "z": -0.4816462993621826
            },
            "position": {
                "x": 0.5540239810943604,
                "y": 0.030875300988554955,
                "z": 0.16403168439865112
            }
        },
        "name": "move_to_storage_A"
    },
    "id": "ProjEST_move_to_storage_A_18",
    "joint_names": [
        "shoulder_pan_joint",
        "shoulder_lift_joint",
        "elbow_joint",
        "wrist_1_joint",
        "wrist_2_joint",
        "wrist_3_joint"
    ],
    "metrics": {
        "cart_traj_len": 0.35252073888012814,
        "distance_elbow_joint": 0.45345349705898563,
        "distance_shoulder_lift_joint": 0.23458620786573148,
        "distance_shoulder_pan_joint": 0.46093596156930333,
        "distance_wrist_1_joint": 0.25772012581081305,
        "distance_wrist_2_joint": 1.0983188182193784,
        "distance_wrist_3_joint": 0.10218189499390062,
        "smoothness": 5.551115138160447e-16,
        "time": 0.0373036,
        "traj_len": 1.614681549259207,
        "weighted_distance": 2.0414698723067417
    },
    "planner": "ProjEST",
    "start": {
        "state": {
            "elbow_joint": 1.97154746011099,
            "shoulder_lift_joint": -1.13948474672311,
            "shoulder_pan_joint": 0.12281154466712228,
            "wrist_1_joint": -0.7804688027058302,
            "wrist_2_joint": 0.12958655903071145,
            "wrist_3_joint": 3.0906928834467795
        }
    },
    "waypoints": [
        {
            "positions": [
                0.12281154466712228,
                -1.13948474672311,
                1.97154746011099,
                -0.7804688027058302,
                0.12958655903071145,
                3.0906928834467795
            ]
        },
        {
            "positions": [
                0.05696355015722181,
                -1.1729970621325,
                2.0363265311194163,
                -0.8172859635359463,
                0.2864892473477655,
                3.1052902970173366
            ]
        },
        {
            "positions": [
                -0.00888444435267867,
                -1.2065093775418905,
                2.101105602127843,
                -0.8541031243660625,
                0.4433919356648195,
                3.119887710587894
            ]
        },
        {
            "positions": [
                -0.07473243886257915,
                -1.2400216929512806,
                2.1658846731362695,
                -0.8909202851961786,
                0.6002946239818736,
                3.1344851241584513
            ]
        },
        {
            "positions": [
                -0.1405804333724796,
                -1.2735340083606708,
                2.230663744144696,
                -0.9277374460262948,
                0.7571973122989276,
                3.1490825377290084
            ]
        },
        {
            "positions": [
                -0.20642842788238008,
                -1.3070463237700611,
                2.2954428151531223,
                -0.9645546068564109,
                0.9141000006159817,
                3.1636799512995655
            ]
        },
        {
            "positions": [
                -0.27227642239228056,
                -1.3405586391794513,
                2.360221886161549,
                -1.001371767686527,
                1.0710026889330357,
                3.178277364870123
            ]
        },
        {
            "positions": [
                -0.33812441690218104,
                -1.3740709545888414,
                2.4250009571699755,
                -1.0381889285166432,
                1.2279053772500899,
                3.19287477844068
            ]
        }
    ]
}{
    "goal": {
        "global_pose": {
            "orientation": {
                "w": 0.5084816217422485,
                "x": -0.49083608388900757,
                "y": 0.5182115435600281,
                "z": -0.4816462993621826
            },
            "position": {
                "x": 0.5540239810943604,
                "y": 0.030875300988554955,
                "z": 0.16403168439865112
            }
        },
        "name": "move_to_storage_A"
    },
    "id": "ProjEST_move_to_storage_A_18",
    "joint_names": [
        "shoulder_pan_joint",
        "shoulder_lift_joint",
        "elbow_joint",
        "wrist_1_joint",
        "wrist_2_joint",
        "wrist_3_joint"
    ],
    "metrics": {
        "cart_traj_len": 0.35313948490130165,
        "distance_elbow_joint": 0.4540697761004431,
        "distance_shoulder_lift_joint": 0.23344035630541526,
        "distance_shoulder_pan_joint": 0.46166168932239837,
        "distance_wrist_1_joint": 0.26256612027814974,
        "distance_wrist_2_joint": 1.0992911724708752,
        "distance_wrist_3_joint": 0.10731156444840106,
        "smoothness": 0.0,
        "time": 0.069312122,
        "traj_len": 1.618128758450848,
        "weighted_distance": 2.0481262413658756
    },
    "planner": "ProjEST",
    "start": {
        "state": {
            "elbow_joint": 1.9715472970024885,
            "shoulder_lift_joint": -1.1394870060712896,
            "shoulder_pan_joint": 0.12281152778156021,
            "wrist_1_joint": -0.780463741449964,
            "wrist_2_joint": 0.12958659822042276,
            "wrist_3_joint": 3.090690232415272
        }
    },
    "waypoints": [
        {
            "positions": [
                0.12281152778156021,
                -1.1394870060712896,
                1.9715472970024885,
                -0.780463741449964,
                0.12958659822042276,
                3.090690232415272
            ]
        },
        {
            "positions": [
                0.05685985787836044,
                -1.1728356284006347,
                2.0364144078739805,
                -0.8179731872039854,
                0.2866281942876906,
                3.1060204559079008
            ]
        },
        {
            "positions": [
                -0.00909181202483933,
                -1.2061842507299796,
                2.101281518745472,
                -0.8554826329580068,
                0.44366979035495846,
                3.1213506794005292
            ]
        },
        {
            "positions": [
                -0.07504348192803909,
                -1.2395328730593247,
                2.166148629616964,
                -0.8929920787120281,
                0.6007113864222263,
                3.136680902893158
            ]
        },
        {
            "positions": [
                -0.14099515183123887,
                -1.2728814953886698,
                2.231015740488456,
                -0.9305015244660495,
                0.7577529824894942,
                3.1520111263857866
            ]
        },
        {
            "positions": [
                -0.20694682173443865,
                -1.306230117718015,
                2.295882851359948,
                -0.968010970220071,
                0.9147945785567622,
                3.1673413498784155
            ]
        },
        {
            "positions": [
                -0.27289849163763835,
                -1.3395787400473598,
                2.3607499622314396,
                -1.0055204159740923,
                1.07183617462403,
                3.182671573371044
            ]
        },
        {
            "positions": [
                -0.33885016154083814,
                -1.3729273623767049,
                2.4256170731029316,
                -1.0430298617281137,
                1.2288777706912979,
                3.198001796863673
            ]
        }
    ]
}