{
    "goal": {
        "global_pose": {
            "orientation": {
                "w": 0.7047431468963623,
                "x": -0.7094548344612122,
                "y": 0.0024358443915843964,
                "z": -0.0022348060738295317
            },
            "position": {
                "x": 0.6094750761985779,
                "y": 0.3671506643295288,
                "z": 0.19426114857196808
            }
        },
        "name": "move_to_magneteinheit_A"
    },
    "id": "ProjEST_move_to_magneteinheit_A_75",
    "joint_names": [
        "shoulder_pan_joint",
        "shoulder_lift_joint",
        "elbow_joint",
        "wrist_1_joint",
        "wrist_2_joint",
        "wrist_3_joint"
    ],
    "metrics": {
        "cart_traj_len": 5.710291376475706,
        "distance_elbow_joint": 3.8733606028787553,
        "distance_shoulder_lift_joint": 0.9351942033841458,
        "distance_shoulder_pan_joint": 8.812731193424554,
        "distance_wrist_1_joint": 1.5860711329382375,
        "distance_wrist_2_joint": 1.6923705818596553,
        "distance_wrist_3_joint": 2.5713504639384426,
        "smoothness": 0.29125984951291567,
        "time": 0.219148053,
        "traj_len": 4.412604466573431,
        "weighted_distance": 5.281308627707584
    },
    "planner": "ProjEST",
    "start": {
        "state": {
            "elbow_joint": -1.9196185241190666,
            "shoulder_lift_joint": -1.2443396400964142,
            "shoulder_pan_joint": 2.6996025414629847,
            "wrist_1_joint": -1.5485510000780065,
            "wrist_2_joint": -1.5709468930060704,
            "wrist_3_joint": 0.4420197071253992
        }
    },
    "waypoints": [
        {
            "positions": [
                2.6996025414629847,
                -1.2443396400964142,
                -1.9196185241190666,
                -1.5485510000780065,
                -1.5709468930060704,
                0.4420197071253992
            ]
        },
        {
            "positions": [
                2.4886624281808274,
                -1.2248806314424554,
                -1.9192718094739327,
                -1.5623016750544563,
                -1.5128408217452771,
                0.5313082399095861
            ]
        },
        {
            "positions": [
                2.2777223148986696,
                -1.2054216227884968,
                -1.918925094828799,
                -1.5760523500309058,
                -1.4547347504844839,
                0.6205967726937731
            ]
        },
        {
            "positions": [
                2.066782201616512,
                -1.185962614134538,
                -1.918578380183665,
                -1.5898030250073556,
                -1.3966286792236906,
                0.7098853054779601
            ]
        },
        {
            "positions": [
                1.8558420883343545,
                -1.1665036054805793,
                -1.9182316655385312,
                -1.6035536999838054,
                -1.3385226079628973,
                0.7991738382621469
            ]
        },
        {
            "positions": [
                1.644901975052197,
                -1.1470445968266207,
                -1.9178849508933975,
                -1.6173043749602551,
                -1.2804165367021039,
                0.888462371046334
            ]
        },
        {
            "positions": [
                1.4339618617700394,
                -1.127585588172662,
                -1.9175382362482636,
                -1.6310550499367047,
                -1.2223104654413106,
                0.977750903830521
            ]
        },
        {
            "positions": [
                1.2230217484878818,
                -1.1081265795187032,
                -1.9171915216031297,
                -1.6448057249131545,
                -1.1642043941805174,
                1.0670394366147078
            ]
        },
        {
            "positions": [
                1.0120816352057243,
                -1.0886675708647444,
                -1.916844806957996,
                -1.6585563998896042,
                -1.106098322919724,
                1.1563279693988948
            ]
        },
        {
            "positions": [
                0.8011415219235665,
                -1.0692085622107859,
                -1.916498092312862,
                -1.6723070748660538,
                -1.0479922516589308,
                1.2456165021830818
            ]
        },
        {
            "positions": [
                0.5902014086414091,
                -1.049749553556827,
                -1.9161513776677281,
                -1.6860577498425036,
                -0.9898861803981376,
                1.3349050349672686
            ]
        },
        {
            "positions": [
                0.37926129535925135,
                -1.0302905449028683,
                -1.9158046630225944,
                -1.6998084248189533,
                -0.9317801091373443,
                1.424193567751456
            ]
        },
        {
            "positions": [
                0.168321182077094,
                -1.0108315362489098,
                -1.9154579483774605,
                -1.7135590997954029,
                -0.8736740378765511,
                1.5134821005356427
            ]
        },
        {
            "positions": [
                -0.04261893120506377,
                -0.991372527594951,
                -1.9151112337323266,
                -1.7273097747718527,
                -0.8155679666157577,
                1.6027706333198295
            ]
        },
        {
            "positions": [
                -0.2535590444872211,
                -0.9719135189409922,
                -1.914764519087193,
                -1.7410604497483024,
                -0.7574618953549644,
                1.6920591661040167
            ]
        },
        {
            "positions": [
                -0.46449915776937933,
                -0.9524545102870335,
                -1.914417804442059,
                -1.7548111247247522,
                -0.6993558240941711,
                1.7813476988882035
            ]
        },
        {
            "positions": [
                -0.6754392710515362,
                -0.9329955016330749,
                -1.914071089796925,
                -1.7685617997012018,
                -0.6412497528333779,
                1.8706362316723903
            ]
        },
        {
            "positions": [
                -0.8863793843336945,
                -0.9135364929791161,
                -1.9137243751517914,
                -1.7823124746776515,
                -0.5831436815725846,
                1.9599247644565776
            ]
        },
        {
            "positions": [
                -1.0973194976158518,
                -0.8940774843251574,
                -1.9133776605066575,
                -1.7960631496541013,
                -0.5250376103117913,
                2.0492132972407644
            ]
        },
        {
            "positions": [
                -1.3082596108980096,
                -0.8746184756711987,
                -1.9130309458615236,
                -1.809813824630551,
                -0.46693153905099805,
                2.1385018300249516
            ]
        },
        {
            "positions": [
                -1.5191997241801665,
                -0.85515946701724,
                -1.9126842312163899,
                -1.8235644996070006,
                -0.4088254677902048,
                2.2277903628091384
            ]
        },
        {
            "positions": [
                -1.7301398374623242,
                -0.8357004583632812,
                -1.912337516571256,
                -1.8373151745834504,
                -0.35071939652941153,
                2.3170788955933257
            ]
        },
        {
            "positions": [
                -1.941079950744482,
                -0.8162414497093227,
                -1.911990801926122,
                -1.8510658495599,
                -0.2926133252686183,
                2.4063674283775125
            ]
        },
        {
            "positions": [
                -2.15202006402664,
                -0.7967824410553639,
                -1.9116440872809883,
                -1.8648165245363497,
                -0.2345072540078248,
                2.4956559611616997
            ]
        },
        {
            "positions": [
                -2.3629601773087967,
                -0.7773234324014051,
                -1.9112973726358544,
                -1.8785671995127995,
                -0.17640118274703176,
                2.5849444939458865
            ]
        },
        {
            "positions": [
                -2.5739002905909545,
                -0.7578644237474464,
                -1.9109506579907205,
                -1.8923178744892493,
                -0.11829511148623828,
                2.6742330267300733
            ]
        },
        {
            "positions": [
                -2.7848404038731123,
                -0.7384054150934878,
                -1.9106039433455868,
                -1.9060685494656988,
                -0.06018904022544502,
                2.76352155951426
            ]
        },
        {
            "positions": [
                -2.9957805171552696,
                -0.718946406439529,
                -1.910257228700453,
                -1.9198192244421486,
                -0.0020829689646517657,
                2.8528100922984474
            ]
        },
        {
            "positions": [
                -2.8602436417289088,
                -0.7367638399059316,
                -1.7422572588108816,
                -1.8670017066780575,
                0.003286885723097625,
                2.859790965288247
            ]
        },
        {
            "positions": [
                -2.7247067663025475,
                -0.7545812733723343,
                -1.5742572889213102,
                -1.8141841889139663,
                0.008656740410847016,
                2.866771838278047
            ]
        },
        {
            "positions": [
                -2.5891698908761867,
                -0.7723987068387369,
                -1.406257319031739,
                -1.7613666711498752,
                0.014026595098596405,
                2.8737527112678465
            ]
        },
        {
            "positions": [
                -2.4536330154498254,
                -0.7902161403051395,
                -1.2382573491421676,
                -1.7085491533857842,
                0.019396449786345797,
                2.8807335842576465
            ]
        },
        {
            "positions": [
                -2.3180961400234645,
                -0.8080335737715422,
                -1.070257379252596,
                -1.6557316356216931,
                0.024766304474095186,
                2.887714457247446
            ]
        },
        {
            "positions": [
                -2.1825592645971037,
                -0.8258510072379448,
                -0.9022574093630247,
                -1.602914117857602,
                0.030136159161844575,
                2.894695330237246
            ]
        },
        {
            "positions": [
                -2.0470223891707424,
                -0.8436684407043474,
                -0.7342574394734531,
                -1.5500966000935108,
                0.035506013849593974,
                2.9016762032270456
            ]
        },
        {
            "positions": [
                -1.9114855137443814,
                -0.8614858741707501,
                -0.566257469583882,
                -1.4972790823294198,
                0.04087586853734336,
                2.9086570762168455
            ]
        },
        {
            "positions": [
                -1.7759486383180203,
                -0.8793033076371528,
                -0.39825749969431046,
                -1.4444615645653287,
                0.04624572322509275,
                2.915637949206645
            ]
        },
        {
            "positions": [
                -1.6404117628916592,
                -0.8971207411035553,
                -0.23025752980473913,
                -1.3916440468012374,
                0.05161557791284214,
                2.922618822196445
            ]
        },
        {
            "positions": [
                -1.5048748874652982,
                -0.9149381745699581,
                -0.06225755991516779,
                -1.3388265290371464,
                0.05698543260059153,
                2.9295996951862446
            ]
        },
        {
            "positions": [
                -1.3693380120389373,
                -0.9327556080363606,
                0.10574240997440354,
                -1.2860090112730553,
                0.062355287288340916,
                2.9365805681760446
            ]
        },
        {
            "positions": [
                -1.2338011366125763,
                -0.9505730415027633,
                0.27374237986397487,
                -1.2331914935089643,
                0.06772514197609031,
                2.943561441165844
            ]
        },
        {
            "positions": [
                -1.098264261186215,
                -0.968390474969166,
                0.44174234975354665,
                -1.180373975744873,
                0.07309499666383971,
                2.950542314155644
            ]
        },
        {
            "positions": [
                -0.962727385759854,
                -0.9862079084355686,
                0.6097423196431175,
                -1.127556457980782,
                0.0784648513515891,
                2.9575231871454437
            ]
        },
        {
            "positions": [
                -0.8271905103334931,
                -1.0040253419019711,
                0.7777422895326889,
                -1.074738940216691,
                0.08383470603933849,
                2.9645040601352437
            ]
        },
        {
            "positions": [
                -0.6916536349071323,
                -1.0218427753683739,
                0.9457422594222602,
                -1.0219214224525999,
                0.08920456072708786,
                2.9714849331250432
            ]
        },
        {
            "positions": [
                -0.556116759480771,
                -1.0396602088347766,
                1.113742229311832,
                -0.9691039046885086,
                0.09457441541483727,
                2.9784658061148432
            ]
        },
        {
            "positions": [
                -0.42057988405441016,
                -1.0574776423011791,
                1.2817421992014033,
                -0.9162863869244176,
                0.09994427010258666,
                2.985446679104643
            ]
        },
        {
            "positions": [
                -0.2850430086280489,
                -1.0752950757675817,
                1.4497421690909746,
                -0.8634688691603265,
                0.10531412479033604,
                2.9924275520944428
            ]
        },
        {
            "positions": [
                -0.14950613320168804,
                -1.0931125092339844,
                1.6177421389805455,
                -0.8106513513962355,
                0.11068397947808543,
                2.9994084250842423
            ]
        },
        {
            "positions": [
                -0.01396925777532676,
                -1.1109299427003871,
                1.7857421088701173,
                -0.7578338336321442,
                0.11605383416583483,
                3.0063892980740423
            ]
        },
        {
            "positions": [
                0.12156761765103419,
                -1.1287473761667897,
                1.9537420787596886,
                -0.7050163158680531,
                0.12142368885358422,
                3.013370171063842
            ]
        }
    ]
}