{
    "goal": {
        "global_pose": {
            "orientation": {
                "w": 0.7031023502349854,
                "x": -0.7110244035720825,
                "y": 0.007748599164187908,
                "z": 0.005598929710686207
            },
            "position": {
                "x": 0.11585023208521307,
                "y": 0.44412534475326537,
                "z": 0.3711530566215515
            }
        },
        "name": "move_to_auspresseinheit_A"
    },
    "id": "ProjEST_move_to_auspresseinheit_A_77",
    "joint_names": [
        "shoulder_pan_joint",
        "shoulder_lift_joint",
        "elbow_joint",
        "wrist_1_joint",
        "wrist_2_joint",
        "wrist_3_joint"
    ],
    "metrics": {
        "cart_traj_len": 1.3579177504269888,
        "distance_elbow_joint": 0.8542751777683648,
        "distance_shoulder_lift_joint": 0.9104463595290377,
        "distance_shoulder_pan_joint": 1.3698695581766118,
        "distance_wrist_1_joint": 2.669229985440281,
        "distance_wrist_2_joint": 0.574294941360727,
        "distance_wrist_3_joint": 3.458566822075828,
        "smoothness": 0.9714641149012024,
        "time": 0.13015631900000002,
        "traj_len": 3.1363486484048373,
        "weighted_distance": 4.471838706315727
    },
    "planner": "ProjEST",
    "start": {
        "state": {
            "elbow_joint": 2.4225746658250005,
            "shoulder_lift_joint": -1.3736534386056498,
            "shoulder_pan_joint": -0.3378633547517467,
            "wrist_1_joint": -1.0288598680537169,
            "wrist_2_joint": 1.233022673432363,
            "wrist_3_joint": -3.0940220416140027
        }
    },
    "waypoints": [
        {
            "positions": [
                -0.3378633547517467,
                -1.3736534386056498,
                2.4225746658250005,
                -1.0288598680537169,
                1.233022673432363,
                -3.0940220416140027
            ]
        },
        {
            "positions": [
                -0.395697183473778,
                -1.389161533329585,
                2.3416738899055565,
                -1.021057155245775,
                1.1842896438968618,
                -3.005020934044028
            ]
        },
        {
            "positions": [
                -0.4535310121958094,
                -1.40466962805352,
                2.2607731139861125,
                -1.0132544424378331,
                1.1355566143613602,
                -2.916019826474053
            ]
        },
        {
            "positions": [
                -0.3797366562604353,
                -1.4506787347982415,
                2.2419605717087983,
                -0.9061932268529574,
                1.1126208071262023,
                -2.8141521332948822
            ]
        },
        {
            "positions": [
                -0.30594230032506126,
                -1.496687841542963,
                2.2231480294314845,
                -0.7991320112680816,
                1.0896849998910443,
                -2.7122844401157113
            ]
        },
        {
            "positions": [
                -0.23214794438968717,
                -1.5426969482876847,
                2.2043354871541703,
                -0.692070795683206,
                1.0667491926558863,
                -2.6104167469365405
            ]
        },
        {
            "positions": [
                -0.15835358845431313,
                -1.5887060550324061,
                2.185522944876856,
                -0.5850095800983302,
                1.0438133854207283,
                -2.5085490537573696
            ]
        },
        {
            "positions": [
                -0.08455923251893904,
                -1.6347151617771276,
                2.166710402599542,
                -0.47794836451345457,
                1.0208775781855701,
                -2.4066813605781987
            ]
        },
        {
            "positions": [
                -0.010764876583564953,
                -1.680724268521849,
                2.147897860322228,
                -0.37088714892857877,
                0.9979417709504121,
                -2.304813667399028
            ]
        },
        {
            "positions": [
                0.06302947935180914,
                -1.7267333752665706,
                2.129085318044914,
                -0.2638259333437031,
                0.9750059637152542,
                -2.2029459742198565
            ]
        },
        {
            "positions": [
                0.13682383528718312,
                -1.7727424820112923,
                2.1102727757675996,
                -0.15676471775882728,
                0.9520701564800962,
                -2.101078281040686
            ]
        },
        {
            "positions": [
                0.2106181912225572,
                -1.8187515887560137,
                2.0914602334902854,
                -0.049703502173951586,
                0.9291343492449382,
                -1.999210587861515
            ]
        },
        {
            "positions": [
                0.2844125471579313,
                -1.8647606955007352,
                2.0726476912129717,
                0.057357713410923994,
                0.9061985420097802,
                -1.897342894682344
            ]
        },
        {
            "positions": [
                0.3582069030933053,
                -1.9107698022454567,
                2.0538351489356574,
                0.1644189289957998,
                0.8832627347746221,
                -1.7954752015031732
            ]
        },
        {
            "positions": [
                0.4320012590286795,
                -1.9567789089901781,
                2.0350226066583432,
                0.2714801445806756,
                0.860326927539464,
                -1.693607508324002
            ]
        },
        {
            "positions": [
                0.5057956149640536,
                -2.0027880157349,
                2.016210064381029,
                0.3785413601655514,
                0.8373911203043061,
                -1.5917398151448312
            ]
        },
        {
            "positions": [
                0.5795899708994277,
                -2.0487971224796215,
                1.9973975221037152,
                0.485602575750427,
                0.8144553130691481,
                -1.4898721219656603
            ]
        },
        {
            "positions": [
                0.6533843268348017,
                -2.094806229224343,
                1.978584979826401,
                0.5926637913353028,
                0.7915195058339901,
                -1.3880044287864894
            ]
        },
        {
            "positions": [
                0.6869372322185829,
                -2.0870926903242273,
                2.0382733476986847,
                0.5218635249278054,
                0.799608396376218,
                -1.537037698316194
            ]
        },
        {
            "positions": [
                0.7204901376023641,
                -2.0793791514241122,
                2.097961715570968,
                0.4510632585203081,
                0.8076972869184458,
                -1.6860709678458985
            ]
        },
        {
            "positions": [
                0.7540430429861453,
                -2.0716656125239967,
                2.1576500834432517,
                0.3802629921128107,
                0.8157861774606736,
                -1.835104237375603
            ]
        },
        {
            "positions": [
                0.7519670196623544,
                -2.0543555174143004,
                2.186659251245316,
                0.28874633764283136,
                0.8057646247526921,
                -1.9800026483290865
            ]
        },
        {
            "positions": [
                0.7498909963385633,
                -2.037045422304604,
                2.21566841904738,
                0.197229683172852,
                0.7957430720447106,
                -2.12490105928257
            ]
        },
        {
            "positions": [
                0.7478149730147723,
                -2.019735327194908,
                2.244677586849444,
                0.10571302870287264,
                0.7857215193367291,
                -2.2697994702360536
            ]
        },
        {
            "positions": [
                0.7397350178989279,
                -1.996890793818726,
                2.2735161637987886,
                -0.006438083980893516,
                0.7700294305343839,
                -2.4439503037958037
            ]
        },
        {
            "positions": [
                0.7316550627830836,
                -1.974046260442544,
                2.302354740748133,
                -0.11858919666465967,
                0.7543373417320387,
                -2.618101137355554
            ]
        },
        {
            "positions": [
                0.7235751076672392,
                -1.951201727066362,
                2.3311933176974775,
                -0.23074030934842577,
                0.7386452529296934,
                -2.792251970915304
            ]
        },
        {
            "positions": [
                0.7154951525513948,
                -1.92835719369018,
                2.3600318946468217,
                -0.342891422032192,
                0.7229531641273482,
                -2.9664028044750546
            ]
        },
        {
            "positions": [
                0.7074151974355505,
                -1.905512660313998,
                2.3888704715961664,
                -0.45504253471595807,
                0.707261075325003,
                -3.1405536380348047
            ]
        }
    ]
}