{
    "goal": {
        "global_pose": {
            "orientation": {
                "w": 0.005598929693374612,
                "x": 0.007748599140229565,
                "y": 0.7110244013736278,
                "z": -0.7031023480610252
            },
            "position": {
                "x": -0.8858502320852131,
                "y": -0.7141253447532654,
                "z": 0.3711530566215515
            }
        },
        "name": "move_to_auspresseinheit_C"
    },
    "id": "ProjEST_move_to_auspresseinheit_C_118",
    "joint_names": [
        "shoulder_pan_joint",
        "shoulder_lift_joint",
        "elbow_joint",
        "wrist_1_joint",
        "wrist_2_joint",
        "wrist_3_joint"
    ],
    "metrics": {
        "cart_traj_len": 0.4936641396529562,
        "distance_elbow_joint": 0.9956300963349567,
        "distance_shoulder_lift_joint": 0.3224359307366693,
        "distance_shoulder_pan_joint": 0.25731923622924047,
        "distance_wrist_1_joint": 0.670259101803983,
        "distance_wrist_2_joint": 1.3070207577032313,
        "distance_wrist_3_joint": 0.0504551657569543,
        "smoothness": 1.6148698667872622e-16,
        "time": 0.17090578099999998,
        "traj_len": 1.8981886862388142,
        "weighted_distance": 2.383549974216223
    },
    "planner": "ProjEST",
    "start": {
        "state": {
            "elbow_joint": 1.7527959577737207,
            "shoulder_lift_joint": -0.9740617694225068,
            "shoulder_pan_joint": -2.967991417825858,
            "wrist_1_joint": -0.759517768980727,
            "wrist_2_joint": 1.7443932448377408,
            "wrist_3_joint": -3.0840537646736568
        }
    },
    "waypoints": [
        {
            "positions": [
                -2.967991417825858,
                -0.9740617694225068,
                1.7527959577737207,
                -0.759517768980727,
                1.7443932448377408,
                -3.0840537646736568
            ]
        },
        {
            "positions": [
                -2.942259494202934,
                -0.9418181763488398,
                1.653232948140225,
                -0.6924918588003287,
                1.6136911690674176,
                -3.0890992812493523
            ]
        },
        {
            "positions": [
                -2.9165275705800098,
                -0.9095745832751729,
                1.5536699385067294,
                -0.6254659486199303,
                1.4829890932970946,
                -3.094144797825048
            ]
        },
        {
            "positions": [
                -2.890795646957086,
                -0.877330990201506,
                1.4541069288732338,
                -0.558440038439532,
                1.3522870175267714,
                -3.099190314400743
            ]
        },
        {
            "positions": [
                -2.8650637233341616,
                -0.845087397127839,
                1.354543919239738,
                -0.4914141282591338,
                1.2215849417564484,
                -3.1042358309764384
            ]
        },
        {
            "positions": [
                -2.8393317997112377,
                -0.8128438040541721,
                1.2549809096062423,
                -0.4243882180787355,
                1.0908828659861252,
                -3.109281347552134
            ]
        },
        {
            "positions": [
                -2.813599876088314,
                -0.7806002109805052,
                1.1554178999727467,
                -0.35736230789833723,
                0.960180790215802,
                -3.1143268641278294
            ]
        },
        {
            "positions": [
                -2.7878679524653895,
                -0.7483566179068383,
                1.055854890339251,
                -0.29033639771793895,
                0.8294787144454789,
                -3.119372380703525
            ]
        },
        {
            "positions": [
                -2.7621360288424657,
                -0.7161130248331713,
                0.9562918807057552,
                -0.22331048753754057,
                0.6987766386751557,
                -3.12441789727922
            ]
        },
        {
            "positions": [
                -2.7364041052195414,
                -0.6838694317595044,
                0.8567288710722596,
                -0.1562845773571423,
                0.5680745629048325,
                -3.1294634138549156
            ]
        },
        {
            "positions": [
                -2.7106721815966175,
                -0.6516258386858375,
                0.757165861438764,
                -0.08925866717674405,
                0.4373724871345094,
                -3.134508930430611
            ]
        }
    ]
}