{
    "goal": {
        "global_pose": {
            "orientation": {
                "w": 0.7047431468963623,
                "x": -0.7094548344612122,
                "y": 0.0024358443915843964,
                "z": -0.0022348060738295317
            },
            "position": {
                "x": 0.6094750761985779,
                "y": 0.3671506643295288,
                "z": 0.19426114857196808
            }
        },
        "name": "move_to_magneteinheit_A"
    },
    "id": "ProjEST_move_to_magneteinheit_A_149",
    "joint_names": [
        "shoulder_pan_joint",
        "shoulder_lift_joint",
        "elbow_joint",
        "wrist_1_joint",
        "wrist_2_joint",
        "wrist_3_joint"
    ],
    "metrics": {
        "cart_traj_len": 3.408241233041246,
        "distance_elbow_joint": 4.163086155120423,
        "distance_shoulder_lift_joint": 0.47025509221151773,
        "distance_shoulder_pan_joint": 3.1238844597617397,
        "distance_wrist_1_joint": 3.8854403971945004,
        "distance_wrist_2_joint": 2.0606572574140745,
        "distance_wrist_3_joint": 1.6916190126216086,
        "smoothness": 0.40946324902675246,
        "time": 0.099026522,
        "traj_len": 3.923638919972614,
        "weighted_distance": 4.972351360692008
    },
    "planner": "ProjEST",
    "start": {
        "state": {
            "elbow_joint": -1.9196185241190666,
            "shoulder_lift_joint": -1.2443396400964142,
            "shoulder_pan_joint": 2.6996025414629847,
            "wrist_1_joint": -1.5485510000780065,
            "wrist_2_joint": -1.5709468930060704,
            "wrist_3_joint": 0.4420197071253992
        }
    },
    "waypoints": [
        {
            "positions": [
                2.6996025414629847,
                -1.2443396400964142,
                -1.9196185241190666,
                -1.5485510000780065,
                -1.5709468930060704,
                0.4420197071253992
            ]
        },
        {
            "positions": [
                2.602795795860714,
                -1.240813539616544,
                -1.810773993201624,
                -1.4671097762120913,
                -1.5010889247331893,
                0.4675048028136349
            ]
        },
        {
            "positions": [
                2.5059890502584437,
                -1.2372874391366742,
                -1.7019294622841814,
                -1.385668552346176,
                -1.431230956460308,
                0.4929898985018706
            ]
        },
        {
            "positions": [
                2.409182304656173,
                -1.233761338656804,
                -1.593084931366739,
                -1.3042273284802608,
                -1.361372988187427,
                0.5184749941901062
            ]
        },
        {
            "positions": [
                2.3123755590539026,
                -1.2302352381769341,
                -1.4842404004492962,
                -1.2227861046143453,
                -1.291515019914546,
                0.543960089878342
            ]
        },
        {
            "positions": [
                2.215568813451632,
                -1.226709137697064,
                -1.3753958695318538,
                -1.14134488074843,
                -1.2216570516416647,
                0.5694451855665776
            ]
        },
        {
            "positions": [
                2.1187620678493615,
                -1.2231830372171941,
                -1.2665513386144112,
                -1.0599036568825149,
                -1.151799083368784,
                0.5949302812548133
            ]
        },
        {
            "positions": [
                2.0219553222470905,
                -1.219656936737324,
                -1.1577068076969685,
                -0.9784624330165995,
                -1.0819411150959026,
                0.620415376943049
            ]
        },
        {
            "positions": [
                1.9251485766448204,
                -1.216130836257454,
                -1.048862276779526,
                -0.8970212091506843,
                -1.0120831468230214,
                0.6459004726312847
            ]
        },
        {
            "positions": [
                1.8283418310425499,
                -1.212604735777584,
                -0.9400177458620833,
                -0.815579985284769,
                -0.9422251785501404,
                0.6713855683195205
            ]
        },
        {
            "positions": [
                1.7315350854402791,
                -1.209078635297714,
                -0.8311732149446407,
                -0.7341387614188537,
                -0.8723672102772593,
                0.6968706640077561
            ]
        },
        {
            "positions": [
                1.6347283398380086,
                -1.205552534817844,
                -0.7223286840271981,
                -0.6526975375529385,
                -0.8025092420043782,
                0.7223557596959918
            ]
        },
        {
            "positions": [
                1.537921594235738,
                -1.202026434337974,
                -0.6134841531097557,
                -0.5712563136870232,
                -0.7326512737314972,
                0.7478408553842275
            ]
        },
        {
            "positions": [
                1.4411148486334675,
                -1.198500333858104,
                -0.5046396221923128,
                -0.4898150898211078,
                -0.6627933054586159,
                0.7733259510724633
            ]
        },
        {
            "positions": [
                1.3443081030311967,
                -1.194974233378234,
                -0.3957950912748702,
                -0.40837386595519254,
                -0.5929353371857348,
                0.7988110467606989
            ]
        },
        {
            "positions": [
                1.2475013574289264,
                -1.191448132898364,
                -0.28695056035742783,
                -0.3269326420892773,
                -0.5230773689128538,
                0.8242961424489346
            ]
        },
        {
            "positions": [
                1.1506946118266559,
                -1.187922032418494,
                -0.17810602943998521,
                -0.24549141822336207,
                -0.45321940063997257,
                0.8497812381371703
            ]
        },
        {
            "positions": [
                1.0538878662243851,
                -1.184395931938624,
                -0.06926149852254238,
                -0.1640501943574466,
                -0.3833614323670915,
                0.875266333825406
            ]
        },
        {
            "positions": [
                0.9570811206221148,
                -1.180869831458754,
                0.03958303239490002,
                -0.0826089704915316,
                -0.3135034640942105,
                0.9007514295136416
            ]
        },
        {
            "positions": [
                0.860274375019844,
                -1.177343730978884,
                0.14842756331234241,
                -0.0011677466256161395,
                -0.24364549582132944,
                0.9262365252018774
            ]
        },
        {
            "positions": [
                0.7634676294175735,
                -1.173817630499014,
                0.25727209422978525,
                0.0802734772402991,
                -0.17378752754844817,
                0.951721620890113
            ]
        },
        {
            "positions": [
                0.666660883815303,
                -1.1702915300191439,
                0.36611662514722765,
                0.16171470110621433,
                -0.10392955927556713,
                0.9772067165783487
            ]
        },
        {
            "positions": [
                0.5698541382130324,
                -1.166765429539274,
                0.4749611560646705,
                0.24315592497212957,
                -0.034071591002686086,
                1.0026918122665844
            ]
        },
        {
            "positions": [
                0.4730473926107619,
                -1.1632393290594039,
                0.5838056869821129,
                0.324597148838045,
                0.03578637727019518,
                1.02817690795482
            ]
        },
        {
            "positions": [
                0.37624064700849136,
                -1.159713228579534,
                0.6926502178995553,
                0.40603837270396004,
                0.105644345543076,
                1.0536620036430557
            ]
        },
        {
            "positions": [
                0.27943390140622065,
                -1.1561871280996638,
                0.8014947488169983,
                0.48747959656987533,
                0.1755023138159573,
                1.0791470993312915
            ]
        },
        {
            "positions": [
                0.2399927191693438,
                -1.1168109270826116,
                0.8831947298321231,
                0.6328159131290891,
                0.17710209334076027,
                0.9929977240688795
            ]
        },
        {
            "positions": [
                0.20055153693246697,
                -1.0774347260655595,
                0.9648947108472479,
                0.7781522296883029,
                0.17870187286556322,
                0.9068483488064676
            ]
        },
        {
            "positions": [
                0.1611103546955901,
                -1.0380585250485073,
                1.0465946918623725,
                0.9234885462475166,
                0.1803016523903662,
                0.8206989735440555
            ]
        },
        {
            "positions": [
                0.12166917245871325,
                -0.9986823240314551,
                1.1282946728774974,
                1.0688248628067305,
                0.18190143191516916,
                0.7345495982816437
            ]
        },
        {
            "positions": [
                0.08222799022183638,
                -0.9593061230144028,
                1.2099946538926223,
                1.2141611793659444,
                0.1835012114399721,
                0.6484002230192316
            ]
        },
        {
            "positions": [
                0.04278680798495954,
                -0.9199299219973506,
                1.291694634907747,
                1.359497495925158,
                0.1851009909647751,
                0.5622508477568197
            ]
        },
        {
            "positions": [
                0.015109764526578962,
                -0.9146317469162973,
                1.409329065898812,
                1.4681978058677696,
                0.1594782298725198,
                0.4984457005353487
            ]
        },
        {
            "positions": [
                -0.012567278931801616,
                -0.9093335718352441,
                1.5269634968898769,
                1.5768981158103812,
                0.1338554687802645,
                0.43464055331387774
            ]
        },
        {
            "positions": [
                -0.04024432239018219,
                -0.9040353967541909,
                1.644597927880942,
                1.6855984257529928,
                0.1082327076880092,
                0.37083540609240684
            ]
        },
        {
            "positions": [
                -0.06792136584856277,
                -0.8987372216731375,
                1.7622323588720068,
                1.7942987356956044,
                0.08260994659575391,
                0.3070302588709359
            ]
        },
        {
            "positions": [
                -0.09559840930694335,
                -0.8934390465920843,
                1.8798667898630719,
                1.9029990456382162,
                0.0569871855034986,
                0.24322511164946492
            ]
        },
        {
            "positions": [
                -0.12327545276532392,
                -0.888140871511031,
                1.997501220854137,
                2.0116993555808276,
                0.03136442441124332,
                0.17941996442799402
            ]
        },
        {
            "positions": [
                -0.15095249622370452,
                -0.8828426964299778,
                2.115135651845202,
                2.1203996655234394,
                0.005741663318988011,
                0.11561481720652306
            ]
        },
        {
            "positions": [
                -0.059842688865354265,
                -0.846589980248284,
                2.0723583254598164,
                2.0482364216590883,
                -0.03600835194682587,
                0.085295037776207
            ]
        },
        {
            "positions": [
                0.03126711849299599,
                -0.8103372640665902,
                2.029580999074431,
                1.9760731777947371,
                -0.07775836721263975,
                0.054975258345890954
            ]
        },
        {
            "positions": [
                0.12237692585134625,
                -0.7740845478848964,
                1.9868036726890457,
                1.903909933930386,
                -0.11950838247845363,
                0.0246554789155749
            ]
        }
    ]
}