{
    "goal": {
        "global_pose": {
            "orientation": {
                "w": 0.7031023480610252,
                "x": -0.7110244013736278,
                "y": 0.0077485991402295624,
                "z": 0.005598929693374583
            },
            "position": {
                "x": -0.8841497679147869,
                "y": 0.44412534475326537,
                "z": 0.3711530566215515
            }
        },
        "name": "move_to_auspresseinheit_D"
    },
    "id": "ProjEST_move_to_auspresseinheit_D_4",
    "joint_names": [
        "shoulder_pan_joint",
        "shoulder_lift_joint",
        "elbow_joint",
        "wrist_1_joint",
        "wrist_2_joint",
        "wrist_3_joint"
    ],
    "metrics": {
        "cart_traj_len": 0.3440537046957513,
        "distance_elbow_joint": 0.6554737789523393,
        "distance_shoulder_lift_joint": 0.1311201957189776,
        "distance_shoulder_pan_joint": 0.13391455493307314,
        "distance_wrist_1_joint": 0.579174701876636,
        "distance_wrist_2_joint": 1.4456690732869868,
        "distance_wrist_3_joint": 0.03764978491447213,
        "smoothness": 0.0,
        "time": 0.194451777,
        "traj_len": 1.7271369632089069,
        "weighted_distance": 2.254583206420879
    },
    "planner": "ProjEST",
    "start": {
        "state": {
            "elbow_joint": -1.8275523626775212,
            "shoulder_lift_joint": -2.126789852344167,
            "shoulder_pan_joint": -0.03513704404078235,
            "wrist_1_joint": -2.347782403156801,
            "wrist_2_joint": -1.6058999987535132,
            "wrist_3_joint": -3.0880379163319196
        }
    },
    "waypoints": [
        {
            "positions": [
                -0.03513704404078235,
                -2.126789852344167,
                -1.8275523626775212,
                -2.347782403156801,
                -1.6058999987535132,
                -3.0880379163319196
            ]
        },
        {
            "positions": [
                -0.05187636340741649,
                -2.143179876809039,
                -1.7456181403084787,
                -2.4201792408913803,
                -1.42519136459264,
                -3.0833316932176107
            ]
        },
        {
            "positions": [
                -0.06861568277405064,
                -2.1595699012739114,
                -1.6636839179394363,
                -2.4925760786259596,
                -1.2444827304317665,
                -3.078625470103302
            ]
        },
        {
            "positions": [
                -0.08535500214068478,
                -2.1759599257387836,
                -1.581749695570394,
                -2.5649729163605395,
                -1.063774096270893,
                -3.0739192469889924
            ]
        },
        {
            "positions": [
                -0.10209432150731892,
                -2.1923499502036554,
                -1.4998154732013516,
                -2.637369754095119,
                -0.8830654621100198,
                -3.0692130238746835
            ]
        },
        {
            "positions": [
                -0.11883364087395307,
                -2.2087399746685277,
                -1.417881250832309,
                -2.7097665918296983,
                -0.7023568279491464,
                -3.0645068007603746
            ]
        },
        {
            "positions": [
                -0.1355729602405872,
                -2.2251299991334,
                -1.3359470284632669,
                -2.782163429564278,
                -0.5216481937882731,
                -3.0598005776460653
            ]
        },
        {
            "positions": [
                -0.15231227960722135,
                -2.241520023598272,
                -1.2540128060942244,
                -2.8545602672988575,
                -0.34093955962739964,
                -3.0550943545317564
            ]
        },
        {
            "positions": [
                -0.1690515989738555,
                -2.2579100480631444,
                -1.172078583725182,
                -2.926957105033437,
                -0.1602309254665263,
                -3.0503881314174475
            ]
        }
    ]
}