{
    "goal": {
        "global_pose": {
            "orientation": {
                "w": 0.7031023502349854,
                "x": -0.7110244035720825,
                "y": 0.007748599164187908,
                "z": 0.005598929710686207
            },
            "position": {
                "x": 0.11585023208521307,
                "y": 0.44412534475326537,
                "z": 0.3711530566215515
            }
        },
        "name": "move_to_auspresseinheit_A"
    },
    "id": "ProjEST_move_to_auspresseinheit_A_110",
    "joint_names": [
        "shoulder_pan_joint",
        "shoulder_lift_joint",
        "elbow_joint",
        "wrist_1_joint",
        "wrist_2_joint",
        "wrist_3_joint"
    ],
    "metrics": {
        "cart_traj_len": 1.1294364931549568,
        "distance_elbow_joint": 0.4081587641722768,
        "distance_shoulder_lift_joint": 0.5344133119796173,
        "distance_shoulder_pan_joint": 2.220190236118335,
        "distance_wrist_1_joint": 1.6235136611799632,
        "distance_wrist_2_joint": 0.5315240416016195,
        "distance_wrist_3_joint": 0.04349973842596677,
        "smoothness": 1.1407966153631137,
        "time": 0.193249794,
        "traj_len": 2.3154480675406606,
        "weighted_distance": 2.757414900429621
    },
    "planner": "ProjEST",
    "start": {
        "state": {
            "elbow_joint": 2.4225746658250005,
            "shoulder_lift_joint": -1.3736534386056498,
            "shoulder_pan_joint": -0.3378633547517467,
            "wrist_1_joint": -1.0288598680537169,
            "wrist_2_joint": 1.233022673432363,
            "wrist_3_joint": -3.0940220416140027
        }
    },
    "waypoints": [
        {
            "positions": [
                -0.3378633547517467,
                -1.3736534386056498,
                2.4225746658250005,
                -1.0288598680537169,
                1.233022673432363,
                -3.0940220416140027
            ]
        },
        {
            "positions": [
                -0.4219972440869406,
                -1.4015753687680987,
                2.3912457263576243,
                -0.8728044926721946,
                1.1607002137215432,
                -3.0954213780807867
            ]
        },
        {
            "positions": [
                -0.5061311334221344,
                -1.4294972989305477,
                2.359916786890248,
                -0.7167491172906724,
                1.0883777540107231,
                -3.09682071454757
            ]
        },
        {
            "positions": [
                -0.5902650227573283,
                -1.4574192290929966,
                2.328587847422872,
                -0.5606937419091502,
                1.0160552942999033,
                -3.098220051014354
            ]
        },
        {
            "positions": [
                -0.6743989120925222,
                -1.4853411592554453,
                2.297258907955496,
                -0.40463836652762797,
                0.9437328345890832,
                -3.0996193874811375
            ]
        },
        {
            "positions": [
                -0.7585328014277162,
                -1.5132630894178942,
                2.26592996848812,
                -0.24858299114610571,
                0.8714103748782633,
                -3.1010187239479214
            ]
        },
        {
            "positions": [
                -0.8426666907629099,
                -1.5411850195803432,
                2.2346010290207436,
                -0.09252761576458346,
                0.7990879151674434,
                -3.102418060414705
            ]
        },
        {
            "positions": [
                -0.9268005800981038,
                -1.569106949742792,
                2.2032720895533675,
                0.0635277596169388,
                0.7267654554566234,
                -3.103817396881489
            ]
        },
        {
            "positions": [
                -0.693764435702107,
                -1.6175297784345741,
                2.230251544967745,
                -0.012347388027248052,
                0.7231559092243549,
                -3.1086323087612717
            ]
        },
        {
            "positions": [
                -0.46072829130611015,
                -1.6659526071263564,
                2.2572310003821228,
                -0.0882225356714349,
                0.7195463629920863,
                -3.1134472206410546
            ]
        },
        {
            "positions": [
                -0.2276921469101133,
                -1.7143754358181384,
                2.2842104557965004,
                -0.16409768331562175,
                0.7159368167598178,
                -3.1182621325208375
            ]
        },
        {
            "positions": [
                0.005343997485883545,
                -1.7627982645099207,
                2.3111899112108785,
                -0.2399728309598086,
                0.7123272705275492,
                -3.123077044400621
            ]
        },
        {
            "positions": [
                0.2383801418818805,
                -1.8112210932017028,
                2.338169366625256,
                -0.3158479786039955,
                0.7087177242952807,
                -3.1278919562804037
            ]
        },
        {
            "positions": [
                0.47141628627787724,
                -1.8596439218934848,
                2.3651488220396337,
                -0.3917231262481823,
                0.7051081780630121,
                -3.1327068681601866
            ]
        },
        {
            "positions": [
                0.7044524306738743,
                -1.908066750585267,
                2.3921282774540114,
                -0.46759827389236913,
                0.7014986318307436,
                -3.1375217800399695
            ]
        }
    ]
}