{
    "goal": {
        "global_pose": {
            "orientation": {
                "w": 0.7047431468963623,
                "x": -0.7094548344612122,
                "y": 0.0024358443915843964,
                "z": -0.0022348060738295317
            },
            "position": {
                "x": 0.6094750761985779,
                "y": 0.3671506643295288,
                "z": 0.19426114857196808
            }
        },
        "name": "move_to_magneteinheit_A"
    },
    "id": "ProjEST_move_to_magneteinheit_A_23",
    "joint_names": [
        "shoulder_pan_joint",
        "shoulder_lift_joint",
        "elbow_joint",
        "wrist_1_joint",
        "wrist_2_joint",
        "wrist_3_joint"
    ],
    "metrics": {
        "cart_traj_len": 3.5001360265125805,
        "distance_elbow_joint": 3.877417714083613,
        "distance_shoulder_lift_joint": 0.40440421228904677,
        "distance_shoulder_pan_joint": 2.854450521315958,
        "distance_wrist_1_joint": 1.302548424776591,
        "distance_wrist_2_joint": 3.571589735296217,
        "distance_wrist_3_joint": 3.6927548717675567,
        "smoothness": 0.2629834666646007,
        "time": 0.207701087,
        "traj_len": 3.9627219785810084,
        "weighted_distance": 5.28798764967704
    },
    "planner": "ProjEST",
    "start": {
        "state": {
            "elbow_joint": -1.9196185241190666,
            "shoulder_lift_joint": -1.2443396400964142,
            "shoulder_pan_joint": 2.6996025414629847,
            "wrist_1_joint": -1.5485510000780065,
            "wrist_2_joint": -1.5709468930060704,
            "wrist_3_joint": 0.4420197071253992
        }
    },
    "waypoints": [
        {
            "positions": [
                2.6996025414629847,
                -1.2443396400964142,
                -1.9196185241190666,
                -1.5485510000780065,
                -1.5709468930060704,
                0.4420197071253992
            ]
        },
        {
            "positions": [
                2.620866863175059,
                -1.2493640541499051,
                -1.8078229293397712,
                -1.5145613106853761,
                -1.4799900229324774,
                0.37672910252436814
            ]
        },
        {
            "positions": [
                2.5421311848871326,
                -1.2543884682033963,
                -1.6960273345604757,
                -1.480571621292746,
                -1.3890331528588846,
                0.3114384979233371
            ]
        },
        {
            "positions": [
                2.463395506599207,
                -1.2594128822568873,
                -1.5842317397811803,
                -1.4465819319001156,
                -1.2980762827852916,
                0.24614789332230605
            ]
        },
        {
            "positions": [
                2.3846598283112805,
                -1.2644372963103785,
                -1.4724361450018848,
                -1.4125922425074853,
                -1.2071194127116989,
                0.180857288721275
            ]
        },
        {
            "positions": [
                2.3059241500233547,
                -1.2694617103638695,
                -1.3606405502225893,
                -1.378602553114855,
                -1.1161625426381059,
                0.11556668412024396
            ]
        },
        {
            "positions": [
                2.2271884717354284,
                -1.2744861244173606,
                -1.2488449554432939,
                -1.3446128637222245,
                -1.0252056725645131,
                0.050276079519212924
            ]
        },
        {
            "positions": [
                2.1484527934475026,
                -1.2795105384708516,
                -1.1370493606639984,
                -1.3106231743295944,
                -0.9342488024909201,
                -0.015014525081818164
            ]
        },
        {
            "positions": [
                2.069717115159577,
                -1.2845349525243428,
                -1.025253765884703,
                -1.276633484936964,
                -0.8432919324173273,
                -0.0803051296828492
            ]
        },
        {
            "positions": [
                1.9909814368716505,
                -1.2895593665778338,
                -0.9134581711054075,
                -1.2426437955443337,
                -0.7523350623437343,
                -0.14559573428388017
            ]
        },
        {
            "positions": [
                1.9122457585837245,
                -1.294583780631325,
                -0.801662576326112,
                -1.2086541061517033,
                -0.6613781922701414,
                -0.21088633888491126
            ]
        },
        {
            "positions": [
                1.8335100802957984,
                -1.299608194684816,
                -0.6898669815468168,
                -1.1746644167590732,
                -0.5704213221965486,
                -0.27617694348594224
            ]
        },
        {
            "positions": [
                1.7547744020078726,
                -1.304632608738307,
                -0.5780713867675213,
                -1.1406747273664428,
                -0.47946445212295563,
                -0.3414675480869733
            ]
        },
        {
            "positions": [
                1.6760387237199463,
                -1.309657022791798,
                -0.4662757919882259,
                -1.1066850379738125,
                -0.38850758204936264,
                -0.4067581526880044
            ]
        },
        {
            "positions": [
                1.5973030454320203,
                -1.3146814368452893,
                -0.3544801972089304,
                -1.072695348581182,
                -0.2975507119757699,
                -0.4720487572890355
            ]
        },
        {
            "positions": [
                1.5185673671440942,
                -1.3197058508987802,
                -0.24268460242963497,
                -1.038705659188552,
                -0.2065938419021769,
                -0.5373393618900665
            ]
        },
        {
            "positions": [
                1.4398316888561684,
                -1.3247302649522714,
                -0.1308890076503395,
                -1.0047159697959216,
                -0.11563697182858412,
                -0.6026299664910976
            ]
        },
        {
            "positions": [
                1.3610960105682424,
                -1.3297546790057624,
                -0.01909341287104427,
                -0.9707262804032913,
                -0.024680101754991357,
                -0.6679205710921284
            ]
        },
        {
            "positions": [
                1.2823603322803163,
                -1.3347790930592536,
                0.09270218190825164,
                -0.936736591010661,
                0.06627676831860185,
                -0.7332111756931595
            ]
        },
        {
            "positions": [
                1.2036246539923903,
                -1.3398035071127445,
                0.20449777668754665,
                -0.9027469016180306,
                0.15723363839219462,
                -0.7985017802941906
            ]
        },
        {
            "positions": [
                1.1248889757044642,
                -1.3448279211662357,
                0.31629337146684255,
                -0.8687572122254003,
                0.2481905084657876,
                -0.8637923848952217
            ]
        },
        {
            "positions": [
                1.0461532974165382,
                -1.3498523352197267,
                0.42808896624613757,
                -0.83476752283277,
                0.3391473785393804,
                -0.9290829894962528
            ]
        },
        {
            "positions": [
                0.9674176191286123,
                -1.3548767492732179,
                0.539884561025433,
                -0.8007778334401398,
                0.43010424861297314,
                -0.9943735940972837
            ]
        },
        {
            "positions": [
                0.8886819408406861,
                -1.3599011633267089,
                0.6516801558047285,
                -0.7667881440475094,
                0.5210611186865661,
                -1.0596641986983149
            ]
        },
        {
            "positions": [
                0.8099462625527603,
                -1.3649255773802,
                0.763475750584024,
                -0.7327984546548791,
                0.6120179887601591,
                -1.124954803299346
            ]
        },
        {
            "positions": [
                0.7312105842648342,
                -1.369949991433691,
                0.8752713453633194,
                -0.6988087652622489,
                0.7029748588337521,
                -1.1902454079003766
            ]
        },
        {
            "positions": [
                0.6524749059769079,
                -1.374974405487182,
                0.9870669401426149,
                -0.6648190758696184,
                0.7939317289073451,
                -1.2555360125014081
            ]
        },
        {
            "positions": [
                0.5737392276889821,
                -1.3799988195406732,
                1.0988625349219103,
                -0.6308293864769882,
                0.8848885989809376,
                -1.3208266171024388
            ]
        },
        {
            "positions": [
                0.49500354940105584,
                -1.3850232335941643,
                1.2106581297012058,
                -0.5968396970843578,
                0.9758454690545306,
                -1.3861172217034703
            ]
        },
        {
            "positions": [
                0.41626787111313,
                -1.3900476476476553,
                1.3224537244805012,
                -0.5628500076917275,
                1.0668023391281236,
                -1.451407826304501
            ]
        },
        {
            "positions": [
                0.36221747215846506,
                -1.3674342215763038,
                1.3685994247228528,
                -0.5523491415434112,
                0.9601057870531208,
                -1.5933960199054393
            ]
        },
        {
            "positions": [
                0.30816707320380016,
                -1.3448207955049523,
                1.4147451249652043,
                -0.5418482753950948,
                0.853409234978118,
                -1.735384213506378
            ]
        },
        {
            "positions": [
                0.2541166742491352,
                -1.3222073694336007,
                1.460890825207556,
                -0.5313474092467786,
                0.7467126829031152,
                -1.8773724071073166
            ]
        },
        {
            "positions": [
                0.20006627529447027,
                -1.2995939433622494,
                1.5070365254499076,
                -0.5208465430984622,
                0.6400161308281125,
                -2.019360600708255
            ]
        },
        {
            "positions": [
                0.14601587633980534,
                -1.276980517290898,
                1.5531822256922592,
                -0.5103456769501459,
                0.5333195787531096,
                -2.1613487943091934
            ]
        },
        {
            "positions": [
                0.09196547738514038,
                -1.2543670912195464,
                1.599327925934611,
                -0.4998448108018296,
                0.4266230266781068,
                -2.303336987910132
            ]
        },
        {
            "positions": [
                0.03791507843047548,
                -1.2317536651481948,
                1.6454736261769625,
                -0.4893439446535133,
                0.3199264746031041,
                -2.4453251815110706
            ]
        },
        {
            "positions": [
                -0.01613532052418948,
                -1.2091402390768433,
                1.691619326419314,
                -0.4788430785051969,
                0.21322992252810127,
                -2.587313375112009
            ]
        },
        {
            "positions": [
                0.0028785236734209345,
                -1.1923893771688832,
                1.7435194018307831,
                -0.5172843009125773,
                0.18682822053506423,
                -2.7183670012193173
            ]
        },
        {
            "positions": [
                0.02189236787103135,
                -1.175638515260923,
                1.7954194772422523,
                -0.5557255233199575,
                0.1604265185420272,
                -2.849420627326626
            ]
        },
        {
            "positions": [
                0.04090621206864177,
                -1.1588876533529628,
                1.8473195526537214,
                -0.5941667457273379,
                0.13402481654899015,
                -2.9804742534339344
            ]
        },
        {
            "positions": [
                0.08174177543661787,
                -1.1451195481314063,
                1.9025593713091342,
                -0.6529251637181581,
                0.13349332625754584,
                -3.1156047090380463
            ]
        },
        {
            "positions": [
                0.12257733880459398,
                -1.1313514429098497,
                1.957799189964547,
                -0.7116835817089783,
                0.13296183596610153,
                -3.250735164642158
            ]
        }
    ]
}