{
    "goal": {
        "global_pose": {
            "orientation": {
                "w": -0.4816463035849501,
                "x": 0.5182115481033762,
                "y": 0.4908360881923453,
                "z": -0.5084816262002911
            },
            "position": {
                "x": -0.8240239810943604,
                "y": -0.300875300988555,
                "z": 0.16403168439865112
            }
        },
        "name": "move_to_storage_C"
    },
    "id": "ProjEST_move_to_storage_C_62",
    "joint_names": [
        "shoulder_pan_joint",
        "shoulder_lift_joint",
        "elbow_joint",
        "wrist_1_joint",
        "wrist_2_joint",
        "wrist_3_joint"
    ],
    "metrics": {
        "cart_traj_len": 0.575999087298197,
        "distance_elbow_joint": 0.2610601262638941,
        "distance_shoulder_lift_joint": 0.19001302058032443,
        "distance_shoulder_pan_joint": 0.4927926955222879,
        "distance_wrist_1_joint": 0.0897045169828018,
        "distance_wrist_2_joint": 1.075756756675199,
        "distance_wrist_3_joint": 0.07049578706761706,
        "smoothness": 0.0,
        "time": 0.076158441,
        "traj_len": 1.4764223322248022,
        "weighted_distance": 1.8671571307432484
    },
    "planner": "ProjEST",
    "start": {
        "state": {
            "elbow_joint": 2.010868314990456,
            "shoulder_lift_joint": -1.1634956873337592,
            "shoulder_pan_joint": -2.4736205022346125,
            "wrist_1_joint": -0.8367026794202681,
            "wrist_2_joint": 0.6746043897044499,
            "wrist_3_joint": -3.1496632123970403
        }
    },
    "waypoints": [
        {
            "positions": [
                -2.4736205022346125,
                -1.1634956873337592,
                2.010868314990456,
                -0.8367026794202681,
                0.6746043897044499,
                -3.1496632123970403
            ]
        },
        {
            "positions": [
                -2.555752618154994,
                -1.1318268505703717,
                1.9673582939464735,
                -0.8217519265898011,
                0.8538971824836498,
                -3.1379139145524375
            ]
        },
        {
            "positions": [
                -2.6378847340753753,
                -1.1001580138069844,
                1.923848272902491,
                -0.8068011737593341,
                1.0331899752628497,
                -3.1261646167078347
            ]
        },
        {
            "positions": [
                -2.7200168499957567,
                -1.068489177043597,
                1.8803382518585088,
                -0.7918504209288673,
                1.2124827680420496,
                -3.114415318863232
            ]
        },
        {
            "positions": [
                -2.8021489659161376,
                -1.0368203402802096,
                1.8368282308145265,
                -0.7768996680984003,
                1.3917755608212494,
                -3.1026660210186288
            ]
        },
        {
            "positions": [
                -2.884281081836519,
                -1.0051515035168221,
                1.793318209770544,
                -0.7619489152679333,
                1.5710683536004493,
                -3.090916723174026
            ]
        },
        {
            "positions": [
                -2.9664131977569004,
                -0.9734826667534348,
                1.7498081887265617,
                -0.7469981624374663,
                1.7503611463796491,
                -3.0791674253294232
            ]
        }
    ]
}