{
    "goal": {
        "global_pose": {
            "orientation": {
                "w": -0.00223480608172531,
                "x": 0.0024358444001904467,
                "y": 0.7094548369677653,
                "z": -0.704743149386269
            },
            "position": {
                "x": -0.37947507619857795,
                "y": -0.6371506643295288,
                "z": 0.19426114857196808
            }
        },
        "name": "move_to_magneteinheit_C"
    },
    "id": "ProjEST_move_to_magneteinheit_C_74",
    "joint_names": [
        "shoulder_pan_joint",
        "shoulder_lift_joint",
        "elbow_joint",
        "wrist_1_joint",
        "wrist_2_joint",
        "wrist_3_joint"
    ],
    "metrics": {
        "cart_traj_len": 2.9766050873462353,
        "distance_elbow_joint": 2.268504144541554,
        "distance_shoulder_lift_joint": 1.1597949320630745,
        "distance_shoulder_pan_joint": 2.564429668569803,
        "distance_wrist_1_joint": 0.8377592068797262,
        "distance_wrist_2_joint": 1.3865493477761606,
        "distance_wrist_3_joint": 4.279544424465115,
        "smoothness": 1.3899135078844218,
        "time": 0.68054083,
        "traj_len": 3.535050455693021,
        "weighted_distance": 4.824933069782579
    },
    "planner": "ProjEST",
    "start": {
        "state": {
            "elbow_joint": 1.9565354010623817,
            "shoulder_lift_joint": -1.4165861575791021,
            "shoulder_pan_joint": -1.6717766225146293,
            "wrist_1_joint": -0.5286633292919765,
            "wrist_2_joint": 1.472756589071564,
            "wrist_3_joint": -3.1238370188695823
        }
    },
    "waypoints": [
        {
            "positions": [
                -1.6717766225146293,
                -1.4165861575791021,
                1.9565354010623817,
                -0.5286633292919765,
                1.472756589071564,
                -3.1238370188695823
            ]
        },
        {
            "positions": [
                -1.552717259413775,
                -1.4444753568849786,
                1.941269689117521,
                -0.5660468670344442,
                1.446773825306761,
                -2.968647013722799
            ]
        },
        {
            "positions": [
                -1.4336578963129205,
                -1.472364556190855,
                1.92600397717266,
                -0.6034304047769119,
                1.420791061541958,
                -2.8134570085760164
            ]
        },
        {
            "positions": [
                -1.3145985332120662,
                -1.5002537554967315,
                1.9107382652277993,
                -0.6408139425193797,
                1.394808297777155,
                -2.6582670034292333
            ]
        },
        {
            "positions": [
                -1.195539170111212,
                -1.528142954802608,
                1.8954725532829386,
                -0.6781974802618473,
                1.368825534012352,
                -2.5030769982824506
            ]
        },
        {
            "positions": [
                -1.0764798070103574,
                -1.5560321541084843,
                1.8802068413380777,
                -0.7155810180043152,
                1.342842770247549,
                -2.347886993135667
            ]
        },
        {
            "positions": [
                -0.957420443909503,
                -1.5839213534143608,
                1.864941129393217,
                -0.7529645557467829,
                1.316860006482746,
                -2.1926969879888842
            ]
        },
        {
            "positions": [
                -1.0635591511028435,
                -1.5544970832583078,
                1.780244984193027,
                -0.7561948496035572,
                1.2627737600081674,
                -2.0930565372745202
            ]
        },
        {
            "positions": [
                -1.169697858296184,
                -1.5250728131022546,
                1.6955488389928368,
                -0.7594251434603316,
                1.208687513533589,
                -1.9934160865601562
            ]
        },
        {
            "positions": [
                -1.2758365654895245,
                -1.4956485429462014,
                1.6108526937926468,
                -0.7626554373171059,
                1.1546012670590104,
                -1.8937756358457922
            ]
        },
        {
            "positions": [
                -1.381975272682865,
                -1.4662242727901484,
                1.5261565485924569,
                -0.7658857311738804,
                1.1005150205844318,
                -1.7941351851314282
            ]
        },
        {
            "positions": [
                -1.4881139798762053,
                -1.4368000026340955,
                1.4414604033922667,
                -0.7691160250306547,
                1.0464287741098532,
                -1.694494734417064
            ]
        },
        {
            "positions": [
                -1.5942526870695457,
                -1.4073757324780423,
                1.3567642581920767,
                -0.7723463188874291,
                0.9923425276352749,
                -1.5948542837027
            ]
        },
        {
            "positions": [
                -1.7003913942628863,
                -1.377951462321989,
                1.2720681129918865,
                -0.7755766127442034,
                0.9382562811606963,
                -1.4952138329883358
            ]
        },
        {
            "positions": [
                -1.8065301014562267,
                -1.348527192165936,
                1.1873719677916967,
                -0.7788069066009777,
                0.8841700346861179,
                -1.395573382273972
            ]
        },
        {
            "positions": [
                -1.9126688086495673,
                -1.319102922009883,
                1.1026758225915065,
                -0.7820372004577522,
                0.8300837882115393,
                -1.2959329315596078
            ]
        },
        {
            "positions": [
                -2.0188075158429077,
                -1.28967865185383,
                1.0179796773913163,
                -0.7852674943145265,
                0.7759975417369607,
                -1.1962924808452438
            ]
        },
        {
            "positions": [
                -2.124946223036248,
                -1.2602543816977767,
                0.9332835321911265,
                -0.7884977881713009,
                0.7219112952623823,
                -1.0966520301308798
            ]
        },
        {
            "positions": [
                -2.2310849302295885,
                -1.2308301115417237,
                0.8485873869909364,
                -0.7917280820280752,
                0.6678250487878037,
                -0.9970115794165157
            ]
        },
        {
            "positions": [
                -2.276470113229127,
                -1.246055666674151,
                0.9115846417250941,
                -0.8047066074974911,
                0.7011156491101808,
                -1.191148129809536
            ]
        },
        {
            "positions": [
                -2.321855296228666,
                -1.2612812218065783,
                0.9745818964592519,
                -0.8176851329669069,
                0.7344062494325577,
                -1.3852846802025565
            ]
        },
        {
            "positions": [
                -2.367240479228205,
                -1.2765067769390055,
                1.0375791511934096,
                -0.8306636584363228,
                0.7676968497549348,
                -1.5794212305955766
            ]
        },
        {
            "positions": [
                -2.4126256622277436,
                -1.291732332071433,
                1.1005764059275673,
                -0.8436421839057386,
                0.8009874500773118,
                -1.773557780988597
            ]
        },
        {
            "positions": [
                -2.458010845227282,
                -1.30695788720386,
                1.163573660661725,
                -0.8566207093751546,
                0.8342780503996889,
                -1.9676943313816173
            ]
        },
        {
            "positions": [
                -2.503396028226821,
                -1.3221834423362875,
                1.2265709153958828,
                -0.8695992348445704,
                0.8675686507220659,
                -2.1618308817746374
            ]
        },
        {
            "positions": [
                -2.54878121122636,
                -1.3374089974687147,
                1.2895681701300405,
                -0.8825777603139863,
                0.900859251044443,
                -2.355967432167658
            ]
        },
        {
            "positions": [
                -2.5941663942258986,
                -1.3526345526011418,
                1.3525654248641983,
                -0.8955562857834021,
                0.9341498513668199,
                -2.550103982560678
            ]
        },
        {
            "positions": [
                -2.639551577225437,
                -1.3678601077335693,
                1.415562679598356,
                -0.908534811252818,
                0.967440451689197,
                -2.7442405329536985
            ]
        },
        {
            "positions": [
                -2.620252686974518,
                -1.2795856015928908,
                1.5199933623851516,
                -0.8404540252801163,
                0.9582290322223468,
                -2.818992831661617
            ]
        },
        {
            "positions": [
                -2.6009537967235987,
                -1.1913110954522124,
                1.6244240451719474,
                -0.7723732393074144,
                0.9490176127554965,
                -2.8937451303695356
            ]
        },
        {
            "positions": [
                -2.5816549064726795,
                -1.103036589311534,
                1.728854727958743,
                -0.7042924533347126,
                0.9398061932886461,
                -2.968497429077454
            ]
        },
        {
            "positions": [
                -2.5623560162217602,
                -1.0147620831708555,
                1.8332854107455385,
                -0.6362116673620108,
                0.9305947738217959,
                -3.0432497277853727
            ]
        },
        {
            "positions": [
                -2.5321070843400717,
                -1.0645089077043952,
                1.8919047796507076,
                -0.6980665277047033,
                0.8488758649139272,
                -3.0787433399997695
            ]
        },
        {
            "positions": [
                -2.501858152458383,
                -1.1142557322379352,
                1.9505241485558764,
                -0.7599213880473958,
                0.7671569560060586,
                -3.1142369522141666
            ]
        },
        {
            "positions": [
                -2.4716092205766946,
                -1.164002556771475,
                2.0091435174610455,
                -0.8217762483900883,
                0.6854380470981899,
                -3.1497305644285634
            ]
        }
    ]
}