{
    "goal": {
        "global_pose": {
            "orientation": {
                "w": 0.005598929693374612,
                "x": 0.007748599140229565,
                "y": 0.7110244013736278,
                "z": -0.7031023480610252
            },
            "position": {
                "x": 0.1141497679147869,
                "y": -0.7141253447532654,
                "z": 0.3711530566215515
            }
        },
        "name": "move_to_auspresseinheit_B"
    },
    "id": "ProjEST_move_to_auspresseinheit_B_55",
    "joint_names": [
        "shoulder_pan_joint",
        "shoulder_lift_joint",
        "elbow_joint",
        "wrist_1_joint",
        "wrist_2_joint",
        "wrist_3_joint"
    ],
    "metrics": {
        "cart_traj_len": 0.564920216827962,
        "distance_elbow_joint": 0.06501984966710306,
        "distance_shoulder_lift_joint": 0.29542081274429877,
        "distance_shoulder_pan_joint": 0.5773327991551975,
        "distance_wrist_1_joint": 0.336207390528689,
        "distance_wrist_2_joint": 0.9919914768155467,
        "distance_wrist_3_joint": 0.003849270512644054,
        "smoothness": 0.0,
        "time": 0.223156324,
        "traj_len": 1.5065927118579459,
        "weighted_distance": 1.8988730889116847
    },
    "planner": "ProjEST",
    "start": {
        "state": {
            "elbow_joint": 2.0193083361928714,
            "shoulder_lift_joint": -1.1220246554650708,
            "shoulder_pan_joint": -1.0952077554168747,
            "wrist_1_joint": -0.8559753972642168,
            "wrist_2_joint": 0.4759566250798843,
            "wrist_3_joint": -3.1240929996934557
        }
    },
    "waypoints": [
        {
            "positions": [
                -1.0952077554168747,
                -1.1220246554650708,
                2.0193083361928714,
                -0.8559753972642168,
                0.4759566250798843,
                -3.1240929996934557
            ]
        },
        {
            "positions": [
                -1.1914298886094077,
                -1.1712614575891207,
                2.0084716945816874,
                -0.7999408321761019,
                0.6412885378824754,
                -3.123451454608015
            ]
        },
        {
            "positions": [
                -1.2876520218019405,
                -1.2204982597131704,
                1.9976350529705038,
                -0.7439062670879871,
                0.8066204506850665,
                -3.1228099095225743
            ]
        },
        {
            "positions": [
                -1.3838741549944733,
                -1.26973506183722,
                1.9867984113593198,
                -0.6878717019998724,
                0.9719523634876577,
                -3.1221683644371336
            ]
        },
        {
            "positions": [
                -1.4800962881870063,
                -1.31897186396127,
                1.975961769748136,
                -0.6318371369117575,
                1.1372842762902486,
                -3.121526819351693
            ]
        },
        {
            "positions": [
                -1.5763184213795394,
                -1.3682086660853199,
                1.9651251281369522,
                -0.5758025718236426,
                1.3026161890928398,
                -3.1208852742662523
            ]
        },
        {
            "positions": [
                -1.6725405545720722,
                -1.4174454682093696,
                1.9542884865257684,
                -0.5197680067355278,
                1.467948101895431,
                -3.1202437291808116
            ]
        }
    ]
}