{
    "goal": {
        "global_pose": {
            "orientation": {
                "w": -0.4816463035849501,
                "x": 0.5182115481033762,
                "y": 0.4908360881923453,
                "z": -0.5084816262002911
            },
            "position": {
                "x": -0.8240239810943604,
                "y": -0.300875300988555,
                "z": 0.16403168439865112
            }
        },
        "name": "move_to_storage_C"
    },
    "id": "ProjEST_move_to_storage_C_87",
    "joint_names": [
        "shoulder_pan_joint",
        "shoulder_lift_joint",
        "elbow_joint",
        "wrist_1_joint",
        "wrist_2_joint",
        "wrist_3_joint"
    ],
    "metrics": {
        "cart_traj_len": 0.5769961409057248,
        "distance_elbow_joint": 0.25792309887504516,
        "distance_shoulder_lift_joint": 0.18858542785710597,
        "distance_shoulder_pan_joint": 0.49612122963934446,
        "distance_wrist_1_joint": 0.08148098950258387,
        "distance_wrist_2_joint": 1.0627858187647,
        "distance_wrist_3_joint": 0.06847083915413732,
        "smoothness": 0.0,
        "time": 0.162388638,
        "traj_len": 1.4681169584855687,
        "weighted_distance": 1.8538003911879173
    },
    "planner": "ProjEST",
    "start": {
        "state": {
            "elbow_joint": 2.010868314990456,
            "shoulder_lift_joint": -1.1634956873337592,
            "shoulder_pan_joint": -2.4736205022346125,
            "wrist_1_joint": -0.8367026794202681,
            "wrist_2_joint": 0.6746043897044499,
            "wrist_3_joint": -3.1496632123970403
        }
    },
    "waypoints": [
        {
            "positions": [
                -2.4736205022346125,
                -1.1634956873337592,
                2.010868314990456,
                -0.8367026794202681,
                0.6746043897044499,
                -3.1496632123970403
            ]
        },
        {
            "positions": [
                -2.55630737384117,
                -1.1320647826909083,
                1.967881131844615,
                -0.8231225145031708,
                0.8517353594985666,
                -3.1382514058713507
            ]
        },
        {
            "positions": [
                -2.6389942454477273,
                -1.1006338780480571,
                1.9248939486987742,
                -0.8095423495860735,
                1.0288663292926832,
                -3.126839599345661
            ]
        },
        {
            "positions": [
                -2.7216811170542847,
                -1.0692029734052062,
                1.8819067655529333,
                -0.7959621846689762,
                1.2059972990867998,
                -3.115427792819972
            ]
        },
        {
            "positions": [
                -2.804367988660842,
                -1.0377720687623553,
                1.8389195824070923,
                -0.7823820197518788,
                1.3831282688809163,
                -3.104015986294282
            ]
        },
        {
            "positions": [
                -2.8870548602673995,
                -1.0063411641195041,
                1.7959323992612515,
                -0.7688018548347816,
                1.5602592386750334,
                -3.0926041797685926
            ]
        },
        {
            "positions": [
                -2.969741731873957,
                -0.9749102594766532,
                1.7529452161154107,
                -0.7552216899176842,
                1.73739020846915,
                -3.081192373242903
            ]
        }
    ]
}