{
    "goal": {
        "global_pose": {
            "orientation": {
                "w": 0.5084816217422485,
                "x": -0.49083608388900757,
                "y": 0.5182115435600281,
                "z": -0.4816462993621826
            },
            "position": {
                "x": 0.5540239810943604,
                "y": 0.030875300988554955,
                "z": 0.16403168439865112
            }
        },
        "name": "move_to_storage_A"
    },
    "id": "ProjEST_move_to_storage_A_142",
    "joint_names": [
        "shoulder_pan_joint",
        "shoulder_lift_joint",
        "elbow_joint",
        "wrist_1_joint",
        "wrist_2_joint",
        "wrist_3_joint"
    ],
    "metrics": {
        "cart_traj_len": 0.3534577027742205,
        "distance_elbow_joint": 0.4492952272743811,
        "distance_shoulder_lift_joint": 0.23677228577128195,
        "distance_shoulder_pan_joint": 0.4647690157880877,
        "distance_wrist_1_joint": 0.23440922180961132,
        "distance_wrist_2_joint": 1.089706350057318,
        "distance_wrist_3_joint": 0.0989140376937252,
        "smoothness": 4.440892098500626e-16,
        "time": 0.050599014,
        "traj_len": 1.604327316477035,
        "weighted_distance": 2.023810708947056
    },
    "planner": "ProjEST",
    "start": {
        "state": {
            "elbow_joint": 1.971548259319323,
            "shoulder_lift_joint": -1.1394851275133948,
            "shoulder_pan_joint": 0.1228115487234821,
            "wrist_1_joint": -0.7804723859257726,
            "wrist_2_joint": 0.12958671773740124,
            "wrist_3_joint": -3.192489227718131
        }
    },
    "waypoints": [
        {
            "positions": [
                0.1228115487234821,
                -1.1394851275133948,
                1.971548259319323,
                -0.7804723859257726,
                0.12958671773740124,
                -3.192489227718131
            ]
        },
        {
            "positions": [
                0.056415975039469574,
                -1.1733097397664352,
                2.035733291787092,
                -0.81395941761286,
                0.28525905345987523,
                -3.178358650904742
            ]
        },
        {
            "positions": [
                -0.009979598644542953,
                -1.2071343520194753,
                2.0999183242548605,
                -0.8474464492999473,
                0.4409313891823492,
                -3.1642280740913526
            ]
        },
        {
            "positions": [
                -0.07637517232855548,
                -1.2409589642725156,
                2.164103356722629,
                -0.8809334809870346,
                0.5966037249048233,
                -3.1500974972779634
            ]
        },
        {
            "positions": [
                -0.142770746012568,
                -1.274783576525556,
                2.2282883891903977,
                -0.9144205126741219,
                0.7522760606272972,
                -3.1359669204645737
            ]
        },
        {
            "positions": [
                -0.20916631969658056,
                -1.3086081887785963,
                2.292473421658167,
                -0.9479075443612093,
                0.9079483963497713,
                -3.1218363436511845
            ]
        },
        {
            "positions": [
                -0.27556189338059306,
                -1.3424328010316364,
                2.3566584541259354,
                -0.9813945760482966,
                1.0636207320722453,
                -3.107705766837795
            ]
        },
        {
            "positions": [
                -0.3419574670646056,
                -1.3762574132846768,
                2.420843486593704,
                -1.014881607735384,
                1.2192930677947194,
                -3.093575190024406
            ]
        }
    ]
}{
    "goal": {
        "global_pose": {
            "orientation": {
                "w": 0.5084816217422485,
                "x": -0.49083608388900757,
                "y": 0.5182115435600281,
                "z": -0.4816462993621826
            },
            "position": {
                "x": 0.5540239810943604,
                "y": 0.030875300988554955,
                "z": 0.16403168439865112
            }
        },
        "name": "move_to_storage_A"
    },
    "id": "ProjEST_move_to_storage_A_142",
    "joint_names": [
        "shoulder_pan_joint",
        "shoulder_lift_joint",
        "elbow_joint",
        "wrist_1_joint",
        "wrist_2_joint",
        "wrist_3_joint"
    ],
    "metrics": {
        "cart_traj_len": 0.3528948618823202,
        "distance_elbow_joint": 0.44670186341422635,
        "distance_shoulder_lift_joint": 0.23357367874408763,
        "distance_shoulder_pan_joint": 0.4580891449375951,
        "distance_wrist_1_joint": 0.23504928160380345,
        "distance_wrist_2_joint": 1.11182624986094,
        "distance_wrist_3_joint": 0.0874357221269948,
        "smoothness": 8.881784213138256e-16,
        "time": 0.064362948,
        "traj_len": 1.6039563400191563,
        "weighted_distance": 2.023468041854474
    },
    "planner": "ProjEST",
    "start": {
        "state": {
            "elbow_joint": 1.97154746011099,
            "shoulder_lift_joint": -1.13948474672311,
            "shoulder_pan_joint": 0.12281154466712228,
            "wrist_1_joint": -0.7804688027058302,
            "wrist_2_joint": 0.12958655903071145,
            "wrist_3_joint": 3.0906928834467795
        }
    },
    "waypoints": [
        {
            "positions": [
                0.12281154466712228,
                -1.13948474672311,
                1.97154746011099,
                -0.7804688027058302,
                0.12958655903071145,
                3.0906928834467795
            ]
        },
        {
            "positions": [
                0.05737023824746584,
                -1.1728524151151225,
                2.035362012027308,
                -0.8140472715063736,
                0.28841888043941716,
                3.103183700893493
            ]
        },
        {
            "positions": [
                -0.008071068172190596,
                -1.206220083507135,
                2.099176563943626,
                -0.8476257403069168,
                0.44725120184812284,
                3.1156745183402066
            ]
        },
        {
            "positions": [
                -0.07351237459184705,
                -1.2395877518991476,
                2.162991115859944,
                -0.8812042091074602,
                0.6060835232568286,
                3.12816533578692
            ]
        },
        {
            "positions": [
                -0.13895368101150346,
                -1.27295542029116,
                2.226805667776262,
                -0.9147826779080036,
                0.7649158446655343,
                3.1406561532336337
            ]
        },
        {
            "positions": [
                -0.2043949874311599,
                -1.3063230886831725,
                2.2906202196925802,
                -0.9483611467085469,
                0.92374816607424,
                3.153146970680347
            ]
        },
        {
            "positions": [
                -0.26983629385081637,
                -1.339690757075185,
                2.354434771608898,
                -0.9819396155090903,
                1.0825804874829457,
                3.1656377881270608
            ]
        },
        {
            "positions": [
                -0.3352776002704728,
                -1.3730584254671976,
                2.4182493235252163,
                -1.0155180843096336,
                1.2414128088916514,
                3.1781286055737743
            ]
        }
    ]
}{
    "goal": {
        "global_pose": {
            "orientation": {
                "w": 0.5084816217422485,
                "x": -0.49083608388900757,
                "y": 0.5182115435600281,
                "z": -0.4816462993621826
            },
            "position": {
                "x": 0.5540239810943604,
                "y": 0.030875300988554955,
                "z": 0.16403168439865112
            }
        },
        "name": "move_to_storage_A"
    },
    "id": "ProjEST_move_to_storage_A_142",
    "joint_names": [
        "shoulder_pan_joint",
        "shoulder_lift_joint",
        "elbow_joint",
        "wrist_1_joint",
        "wrist_2_joint",
        "wrist_3_joint"
    ],
    "metrics": {
        "cart_traj_len": 0.3525590726444574,
        "distance_elbow_joint": 0.4494862917090763,
        "distance_shoulder_lift_joint": 0.23355572434681005,
        "distance_shoulder_pan_joint": 0.45906702255716525,
        "distance_wrist_1_joint": 0.24548822909877477,
        "distance_wrist_2_joint": 1.1054863998979552,
        "distance_wrist_3_joint": 0.09873157379789044,
        "smoothness": 2.2204460668324854e-16,
        "time": 0.07379395,
        "traj_len": 1.6099115632256549,
        "weighted_distance": 2.034761169769116
    },
    "planner": "ProjEST",
    "start": {
        "state": {
            "elbow_joint": 1.9715472970024885,
            "shoulder_lift_joint": -1.1394870060712896,
            "shoulder_pan_joint": 0.12281152778156021,
            "wrist_1_joint": -0.780463741449964,
            "wrist_2_joint": 0.12958659822042276,
            "wrist_3_joint": 3.090690232415272
        }
    },
    "waypoints": [
        {
            "positions": [
                0.12281152778156021,
                -1.1394870060712896,
                1.9715472970024885,
                -0.780463741449964,
                0.12958659822042276,
                3.090690232415272
            ]
        },
        {
            "positions": [
                0.05723052455910803,
                -1.1728521095494053,
                2.0357596243894993,
                -0.8155334884640747,
                0.2875132267772735,
                3.1047947429578278
            ]
        },
        {
            "positions": [
                -0.008350478663344152,
                -1.206217213027521,
                2.0999719517765105,
                -0.8506032354781854,
                0.4454398553341242,
                3.118899253500383
            ]
        },
        {
            "positions": [
                -0.07393148188579632,
                -1.2395823165056368,
                2.1641842791635213,
                -0.885672982492296,
                0.6033664838909749,
                3.133003764042939
            ]
        },
        {
            "positions": [
                -0.1395124851082485,
                -1.2729474199837525,
                2.228396606550532,
                -0.9207427295064067,
                0.7612931124478256,
                3.147108274585495
            ]
        },
        {
            "positions": [
                -0.2050934883307007,
                -1.3063125234618682,
                2.292608933937543,
                -0.9558124765205174,
                0.9192197410046764,
                3.161212785128051
            ]
        },
        {
            "positions": [
                -0.2706744915531528,
                -1.339677626939984,
                2.356821261324554,
                -0.9908822235346281,
                1.077146369561527,
                3.1753172956706064
            ]
        },
        {
            "positions": [
                -0.336255494775605,
                -1.3730427304180997,
                2.421033588711565,
                -1.0259519705487388,
                1.235072998118378,
                3.1894218062131623
            ]
        }
    ]
}