{
    "goal": {
        "global_pose": {
            "orientation": {
                "w": 0.7047431468963623,
                "x": -0.7094548344612122,
                "y": 0.0024358443915843964,
                "z": -0.0022348060738295317
            },
            "position": {
                "x": 0.6094750761985779,
                "y": 0.3671506643295288,
                "z": 0.19426114857196808
            }
        },
        "name": "move_to_magneteinheit_A"
    },
    "id": "ProjEST_move_to_magneteinheit_A_73",
    "joint_names": [
        "shoulder_pan_joint",
        "shoulder_lift_joint",
        "elbow_joint",
        "wrist_1_joint",
        "wrist_2_joint",
        "wrist_3_joint"
    ],
    "metrics": {
        "cart_traj_len": 4.038346520846959,
        "distance_elbow_joint": 3.9149174953306374,
        "distance_shoulder_lift_joint": 0.5373099737160022,
        "distance_shoulder_pan_joint": 3.068046667233343,
        "distance_wrist_1_joint": 3.4841712525043995,
        "distance_wrist_2_joint": 4.038169845743597,
        "distance_wrist_3_joint": 1.0358159177421682,
        "smoothness": 0.2761658460066771,
        "time": 0.170187504,
        "traj_len": 4.009791908848905,
        "weighted_distance": 5.066794261266434
    },
    "planner": "ProjEST",
    "start": {
        "state": {
            "elbow_joint": -1.9196185241190666,
            "shoulder_lift_joint": -1.2443396400964142,
            "shoulder_pan_joint": 2.6996025414629847,
            "wrist_1_joint": -1.5485510000780065,
            "wrist_2_joint": -1.5709468930060704,
            "wrist_3_joint": 0.4420197071253992
        }
    },
    "waypoints": [
        {
            "positions": [
                2.6996025414629847,
                -1.2443396400964142,
                -1.9196185241190666,
                -1.5485510000780065,
                -1.5709468930060704,
                0.4420197071253992
            ]
        },
        {
            "positions": [
                2.5950798409087925,
                -1.225769105261879,
                -1.839601224188701,
                -1.4877720808536838,
                -1.4693398728628377,
                0.41455393964773857
            ]
        },
        {
            "positions": [
                2.4905571403546003,
                -1.207198570427344,
                -1.759583924258335,
                -1.4269931616293612,
                -1.3677328527196053,
                0.3870881721700779
            ]
        },
        {
            "positions": [
                2.386034439800408,
                -1.188628035592809,
                -1.6795666243279694,
                -1.3662142424050385,
                -1.2661258325763727,
                0.35962240469241724
            ]
        },
        {
            "positions": [
                2.281511739246216,
                -1.1700575007582739,
                -1.5995493243976036,
                -1.3054353231807156,
                -1.1645188124331403,
                0.33215663721475663
            ]
        },
        {
            "positions": [
                2.1769890386920236,
                -1.1514869659237388,
                -1.519532024467238,
                -1.244656403956393,
                -1.0629117922899076,
                0.304690869737096
            ]
        },
        {
            "positions": [
                2.072466338137831,
                -1.1329164310892037,
                -1.4395147245368722,
                -1.1838774847320703,
                -0.9613047721466751,
                0.27722510225943536
            ]
        },
        {
            "positions": [
                1.9679436375836388,
                -1.1143458962546686,
                -1.3594974246065066,
                -1.1230985655077477,
                -0.8596977520034426,
                0.24975933478177473
            ]
        },
        {
            "positions": [
                1.8634209370294466,
                -1.0957753614201335,
                -1.2794801246761407,
                -1.062319646283425,
                -0.75809073186021,
                0.2222935673041141
            ]
        },
        {
            "positions": [
                1.7588982364752543,
                -1.0772048265855985,
                -1.199462824745775,
                -1.0015407270591021,
                -0.6564837117169775,
                0.19482779982645346
            ]
        },
        {
            "positions": [
                1.6543755359210621,
                -1.0586342917510634,
                -1.1194455248154092,
                -0.9407618078347796,
                -0.5548766915737449,
                0.16736203234879282
            ]
        },
        {
            "positions": [
                1.54985283536687,
                -1.0400637569165283,
                -1.0394282248850435,
                -0.8799828886104568,
                -0.45326967143051244,
                0.13989626487113221
            ]
        },
        {
            "positions": [
                1.4453301348126777,
                -1.0214932220819932,
                -0.9594109249546778,
                -0.8192039693861342,
                -0.3516626512872798,
                0.11243049739347155
            ]
        },
        {
            "positions": [
                1.3408074342584853,
                -1.0029226872474581,
                -0.879393625024312,
                -0.7584250501618115,
                -0.2500556311440474,
                0.08496472991581094
            ]
        },
        {
            "positions": [
                1.236284733704293,
                -0.984352152412923,
                -0.7993763250939463,
                -0.6976461309374887,
                -0.14844861100081475,
                0.05749896243815028
            ]
        },
        {
            "positions": [
                1.1317620331501006,
                -0.9657816175783879,
                -0.7193590251635804,
                -0.636867211713166,
                -0.046841590857582105,
                0.030033194960489618
            ]
        },
        {
            "positions": [
                1.0272393325959086,
                -0.9472110827438528,
                -0.6393417252332148,
                -0.5760882924888434,
                0.05476542928565031,
                0.00256742748282901
            ]
        },
        {
            "positions": [
                0.9227166320417162,
                -0.9286405479093176,
                -0.5593244253028491,
                -0.5153093732645206,
                0.15637244942888295,
                -0.024898339994831653
            ]
        },
        {
            "positions": [
                0.818193931487524,
                -0.9100700130747826,
                -0.47930712537248343,
                -0.454530454040198,
                0.25797946957211537,
                -0.05236410747249226
            ]
        },
        {
            "positions": [
                0.7136712309333317,
                -0.8914994782402474,
                -0.39928982544211755,
                -0.3937515348158751,
                0.359586489715348,
                -0.07982987495015292
            ]
        },
        {
            "positions": [
                0.6091485303791395,
                -0.8729289434057124,
                -0.3192725255117519,
                -0.33297261559155267,
                0.46119350985858065,
                -0.10729564242781353
            ]
        },
        {
            "positions": [
                0.5046258298249473,
                -0.8543584085711773,
                -0.239255225581386,
                -0.2721936963672298,
                0.5628005300018131,
                -0.13476140990547425
            ]
        },
        {
            "positions": [
                0.4001031292707551,
                -0.8357878737366422,
                -0.15923792565102035,
                -0.21141477714290713,
                0.6644075501450455,
                -0.16222717738313475
            ]
        },
        {
            "positions": [
                0.2955804287165624,
                -0.8172173389021071,
                -0.07922062572065447,
                -0.15063585791858447,
                0.7660145702882784,
                -0.18969294486079546
            ]
        },
        {
            "positions": [
                0.19105772816237065,
                -0.798646804067572,
                0.000796674209710968,
                -0.08985693869426181,
                0.8676215904315108,
                -0.21715871233845607
            ]
        },
        {
            "positions": [
                0.086535027608178,
                -0.780076269233037,
                0.08081397414007707,
                -0.02907801946993893,
                0.9692286105747432,
                -0.2446244798161168
            ]
        },
        {
            "positions": [
                -0.01798767294601422,
                -0.7615057343985019,
                0.16083127407044273,
                0.031700899754383505,
                1.0708356307179756,
                -0.2720902472937773
            ]
        },
        {
            "positions": [
                -0.12251037350020655,
                -0.7429351995639668,
                0.24084857400080845,
                0.09247981897870644,
                1.1724426508612082,
                -0.299556014771438
            ]
        },
        {
            "positions": [
                -0.10494367690948127,
                -0.7454998805056493,
                0.3661664595158629,
                0.22413270708211255,
                1.0799583435843285,
                -0.27853885792534294
            ]
        },
        {
            "positions": [
                -0.08737698031875599,
                -0.7480645614473318,
                0.4914843450309174,
                0.35578559518551867,
                0.9874740363074486,
                -0.2575217010792479
            ]
        },
        {
            "positions": [
                -0.0698102837280307,
                -0.7506292423890143,
                0.6168022305459719,
                0.4874384832889248,
                0.8949897290305687,
                -0.2365045442331528
            ]
        },
        {
            "positions": [
                -0.052243587137305425,
                -0.7531939233306968,
                0.7421201160610265,
                0.619091371392331,
                0.8025054217536889,
                -0.21548738738705775
            ]
        },
        {
            "positions": [
                -0.03467689054658013,
                -0.7557586042723793,
                0.867438001576081,
                0.750744259495737,
                0.710021114476809,
                -0.19447023054096266
            ]
        },
        {
            "positions": [
                -0.017110193955854863,
                -0.7583232852140618,
                0.9927558870911353,
                0.8823971475991432,
                0.6175368071999292,
                -0.1734530736948676
            ]
        },
        {
            "positions": [
                0.0004565026348704315,
                -0.7608879661557442,
                1.1180737726061898,
                1.0140500357025493,
                0.5250524999230494,
                -0.15243591684877253
            ]
        },
        {
            "positions": [
                0.0180231992255957,
                -0.7634526470974267,
                1.2433916581212443,
                1.1457029238059553,
                0.4325681926461695,
                -0.13141876000267746
            ]
        },
        {
            "positions": [
                0.03558989581632102,
                -0.7660173280391092,
                1.3687095436362988,
                1.2773558119093615,
                0.3400838853692896,
                -0.11040160315658237
            ]
        },
        {
            "positions": [
                0.05315659240704629,
                -0.7685820089807917,
                1.4940274291513533,
                1.4090087000127676,
                0.24759957809240984,
                -0.08938444631048731
            ]
        },
        {
            "positions": [
                0.07072328899777156,
                -0.7711466899224741,
                1.6193453146664076,
                1.5406615881161738,
                0.15511527081553012,
                -0.06836728946439227
            ]
        },
        {
            "positions": [
                0.08828998558849682,
                -0.7737113708641566,
                1.7446632001814621,
                1.6723144762195798,
                0.06263096353865016,
                -0.04735013261829718
            ]
        },
        {
            "positions": [
                0.10585668217922214,
                -0.7762760518058391,
                1.8699810856965167,
                1.803967364322986,
                -0.029853343738229787,
                -0.026332975772202116
            ]
        },
        {
            "positions": [
                0.1234233787699474,
                -0.7788407327475216,
                1.9952989712115712,
                1.9356202524263921,
                -0.12233765101510957,
                -0.0053158189261070495
            ]
        }
    ]
}