{
    "goal": {
        "global_pose": {
            "orientation": {
                "w": 0.5084816262002911,
                "x": -0.4908360881923452,
                "y": 0.5182115481033761,
                "z": -0.48164630358495003
            },
            "position": {
                "x": 0.5540239810943604,
                "y": -0.46912469901144505,
                "z": 0.16403168439865112
            }
        },
        "name": "move_to_storage_B"
    },
    "id": "ProjEST_move_to_storage_B_92",
    "joint_names": [
        "shoulder_pan_joint",
        "shoulder_lift_joint",
        "elbow_joint",
        "wrist_1_joint",
        "wrist_2_joint",
        "wrist_3_joint"
    ],
    "metrics": {
        "cart_traj_len": 3.8186179130198386,
        "distance_elbow_joint": 4.833889472554301,
        "distance_shoulder_lift_joint": 0.4599796860664309,
        "distance_shoulder_pan_joint": 3.1554410537152533,
        "distance_wrist_1_joint": 3.118831510636895,
        "distance_wrist_2_joint": 3.006327555634159,
        "distance_wrist_3_joint": 3.4367525551518443,
        "smoothness": 0.5264876674988972,
        "time": 0.29940518,
        "traj_len": 4.243962986850719,
        "weighted_distance": 5.568652081997369
    },
    "planner": "ProjEST",
    "start": {
        "state": {
            "elbow_joint": 1.664937868594044,
            "shoulder_lift_joint": -0.661644460510453,
            "shoulder_pan_joint": -0.9139846352900073,
            "wrist_1_joint": 2.146753192139373,
            "wrist_2_joint": -2.2341966793290973,
            "wrist_3_joint": 0.005466555786416001
        }
    },
    "waypoints": [
        {
            "positions": [
                -0.9139846352900073,
                -0.661644460510453,
                1.664937868594044,
                2.146753192139373,
                -2.2341966793290973,
                0.005466555786416001
            ]
        },
        {
            "positions": [
                -0.8315409393467388,
                -0.732357810736134,
                1.7102043007580017,
                2.1685040310203236,
                -2.2115023913266536,
                -0.04436083028406488
            ]
        },
        {
            "positions": [
                -0.7490972434034703,
                -0.803071160961815,
                1.7554707329219594,
                2.1902548699012745,
                -2.18880810332421,
                -0.09418821635454576
            ]
        },
        {
            "positions": [
                -0.6666535474602018,
                -0.873784511187496,
                1.8007371650859172,
                2.212005708782225,
                -2.1661138153217663,
                -0.14401560242502665
            ]
        },
        {
            "positions": [
                -0.6149597672970772,
                -0.8772726165484422,
                1.7073669808226086,
                2.1682877651881998,
                -2.0496893692094464,
                -0.07036625275922559
            ]
        },
        {
            "positions": [
                -0.5632659871339526,
                -0.8807607219093885,
                1.6139967965593,
                2.1245698215941746,
                -1.9332649230971268,
                0.0032830969065754667
            ]
        },
        {
            "positions": [
                -0.5115722069708281,
                -0.8842488272703347,
                1.5206266122959915,
                2.0808518780001495,
                -1.816840476984807,
                0.07693244657237652
            ]
        },
        {
            "positions": [
                -0.4598784268077035,
                -0.887736932631281,
                1.427256428032683,
                2.0371339344061243,
                -1.7004160308724874,
                0.15058179623817758
            ]
        },
        {
            "positions": [
                -0.4081846466445789,
                -0.8912250379922272,
                1.3338862437693741,
                1.9934159908120994,
                -1.5839915847601675,
                0.22423114590397863
            ]
        },
        {
            "positions": [
                -0.35649086648145434,
                -0.8947131433531734,
                1.2405160595060658,
                1.9496980472180743,
                -1.4675671386478477,
                0.2978804955697797
            ]
        },
        {
            "positions": [
                -0.30479708631832975,
                -0.8982012487141198,
                1.147145875242757,
                1.9059801036240491,
                -1.3511426925355279,
                0.37152984523558075
            ]
        },
        {
            "positions": [
                -0.2531033061552052,
                -0.901689354075066,
                1.0537756909794487,
                1.862262160030024,
                -1.2347182464232085,
                0.4451791949013818
            ]
        },
        {
            "positions": [
                -0.20140952599208062,
                -0.9051774594360122,
                0.9604055067161399,
                1.8185442164359988,
                -1.1182938003108887,
                0.5188285445671829
            ]
        },
        {
            "positions": [
                -0.14971574582895597,
                -0.9086655647969585,
                0.8670353224528313,
                1.7748262728419737,
                -1.0018693541985688,
                0.5924778942329839
            ]
        },
        {
            "positions": [
                -0.09802196566583155,
                -0.9121536701579047,
                0.7736651381895228,
                1.7311083292479488,
                -0.8854449080862492,
                0.666127243898785
            ]
        },
        {
            "positions": [
                -0.0463281855027069,
                -0.915641775518851,
                0.6802949539262142,
                1.6873903856539236,
                -0.7690204619739294,
                0.739776593564586
            ]
        },
        {
            "positions": [
                0.0053655946604176386,
                -0.9191298808797972,
                0.5869247696629056,
                1.6436724420598985,
                -0.6525960158616098,
                0.813425943230387
            ]
        },
        {
            "positions": [
                0.057059374823542286,
                -0.9226179862407434,
                0.49355458539959685,
                1.5999544984658733,
                -0.5361715697492897,
                0.8870752928961881
            ]
        },
        {
            "positions": [
                0.10875315498666682,
                -0.9261060916016897,
                0.4001844011362885,
                1.5562365548718482,
                -0.4197471236369701,
                0.9607246425619892
            ]
        },
        {
            "positions": [
                0.16044693514979136,
                -0.9295941969626359,
                0.30681421687297994,
                1.512518611277823,
                -0.3033226775246505,
                1.0343739922277901
            ]
        },
        {
            "positions": [
                0.212140715312916,
                -0.9330823023235821,
                0.21344403260967115,
                1.468800667683798,
                -0.18689823141233064,
                1.1080233418935914
            ]
        },
        {
            "positions": [
                0.26383449547604054,
                -0.9365704076845285,
                0.12007384834636259,
                1.4250827240897728,
                -0.07047378530001103,
                1.1816726915593923
            ]
        },
        {
            "positions": [
                0.3155282756391651,
                -0.9400585130454746,
                0.026703664083054246,
                1.3813647804957476,
                0.04595066081230881,
                1.2553220412251935
            ]
        },
        {
            "positions": [
                0.36722205580228984,
                -0.943546618406421,
                -0.06666652018025454,
                1.3376468369017225,
                0.16237510692462864,
                1.3289713908909944
            ]
        },
        {
            "positions": [
                0.4189158359654144,
                -0.9470347237673672,
                -0.1600367044435631,
                1.2939288933076973,
                0.2787995530369485,
                1.4026207405567956
            ]
        },
        {
            "positions": [
                0.4706096161285387,
                -0.9505228291283134,
                -0.25340688870687167,
                1.2502109497136724,
                0.39522399914926787,
                1.4762700902225965
            ]
        },
        {
            "positions": [
                0.5223033962916634,
                -0.9540109344892597,
                -0.34677707297018046,
                1.2064930061196473,
                0.5116484452615877,
                1.5499194398883978
            ]
        },
        {
            "positions": [
                0.5739971764547879,
                -0.9574990398502059,
                -0.4401472572334888,
                1.1627750625256221,
                0.6280728913739075,
                1.6235687895541988
            ]
        },
        {
            "positions": [
                0.4945943554085756,
                -0.9653145211229048,
                -0.32313745943620203,
                1.0673299031095536,
                0.621212987329567,
                1.6959347897904453
            ]
        },
        {
            "positions": [
                0.41519153436236333,
                -0.9731300023956038,
                -0.2061276616389153,
                0.971884743693485,
                0.6143530832852263,
                1.7683007900266918
            ]
        },
        {
            "positions": [
                0.335788713316151,
                -0.9809454836683028,
                -0.08911786384162856,
                0.8764395842774164,
                0.6074931792408858,
                1.8406667902629383
            ]
        },
        {
            "positions": [
                0.25638589226993874,
                -0.9887609649410017,
                0.0278919339556582,
                0.7809944248613478,
                0.6006332751965452,
                1.9130327904991848
            ]
        },
        {
            "positions": [
                0.17698307122372647,
                -0.9965764462137007,
                0.14490173175294496,
                0.6855492654452793,
                0.5937733711522046,
                1.9853987907354314
            ]
        },
        {
            "positions": [
                0.0975802501775142,
                -1.0043919274863997,
                0.26191152955023167,
                0.5901041060292106,
                0.586913467107864,
                2.057764790971678
            ]
        },
        {
            "positions": [
                0.018177429131301936,
                -1.0122074087590986,
                0.3789213273475185,
                0.494658946613142,
                0.5800535630635234,
                2.1301307912079244
            ]
        },
        {
            "positions": [
                -0.06122539191491039,
                -1.0200228900317976,
                0.4959311251448052,
                0.39921378719707346,
                0.5731936590191828,
                2.202496791444171
            ]
        },
        {
            "positions": [
                -0.1406282129611226,
                -1.0278383713044965,
                0.6129409229420919,
                0.3037686277810049,
                0.5663337549748423,
                2.2748627916804174
            ]
        },
        {
            "positions": [
                -0.22003103400733492,
                -1.0356538525771954,
                0.7299507207393787,
                0.20832346836493632,
                0.5594738509305016,
                2.347228791916664
            ]
        },
        {
            "positions": [
                -0.29943385505354725,
                -1.0434693338498944,
                0.8469605185366655,
                0.11287830894886763,
                0.5526139468861611,
                2.4195947921529104
            ]
        },
        {
            "positions": [
                -0.37883667609975946,
                -1.0512848151225933,
                0.9639703163339521,
                0.017433149532799064,
                0.5457540428418205,
                2.491960792389157
            ]
        },
        {
            "positions": [
                -0.4582394971459719,
                -1.0591002963952922,
                1.0809801141312392,
                -0.0780120098832695,
                0.5388941387974799,
                2.564326792625404
            ]
        },
        {
            "positions": [
                -0.537642318192184,
                -1.0669157776679912,
                1.1979899119285258,
                -0.17345716929933808,
                0.5320342347531393,
                2.63669279286165
            ]
        },
        {
            "positions": [
                -0.6170451392383963,
                -1.07473125894069,
                1.3149997097258126,
                -0.26890232871540687,
                0.5251743307087987,
                2.709058793097897
            ]
        },
        {
            "positions": [
                -0.6964479602846086,
                -1.082546740213389,
                1.4320095075230992,
                -0.3643474881314752,
                0.5183144266644581,
                2.781424793334143
            ]
        },
        {
            "positions": [
                -0.775850781330821,
                -1.0903622214860882,
                1.549019305320386,
                -0.459792647547544,
                0.5114545226201175,
                2.85379079357039
            ]
        },
        {
            "positions": [
                -0.8552536023770331,
                -1.0981777027587871,
                1.6660291031176726,
                -0.5552378069636124,
                0.5045946185757769,
                2.926156793806636
            ]
        },
        {
            "positions": [
                -0.9346564234232454,
                -1.105993184031486,
                1.7830389009149594,
                -0.6506829663796811,
                0.49773471453143636,
                2.998522794042883
            ]
        },
        {
            "positions": [
                -1.0140592444694576,
                -1.113808665304185,
                1.9000486987122462,
                -0.7461281257957495,
                0.4908748104870958,
                3.0708887942791296
            ]
        },
        {
            "positions": [
                -1.09346206551567,
                -1.121624146576884,
                2.017058496509533,
                -0.8415732852118184,
                0.4840149064427552,
                3.143254794515376
            ]
        }
    ]
}