{
    "goal": {
        "global_pose": {
            "orientation": {
                "w": 0.7047431493862688,
                "x": -0.7094548369677653,
                "y": 0.0024358444001904,
                "z": -0.0022348060817251984
            },
            "position": {
                "x": -0.39052492380142206,
                "y": 0.3671506643295288,
                "z": 0.19426114857196808
            }
        },
        "name": "move_to_magneteinheit_D"
    },
    "id": "ProjEST_move_to_magneteinheit_D_17",
    "joint_names": [
        "shoulder_pan_joint",
        "shoulder_lift_joint",
        "elbow_joint",
        "wrist_1_joint",
        "wrist_2_joint",
        "wrist_3_joint"
    ],
    "metrics": {
        "cart_traj_len": 4.707670843990898,
        "distance_elbow_joint": 3.234567985269184,
        "distance_shoulder_lift_joint": 1.525258817740443,
        "distance_shoulder_pan_joint": 2.916064884289165,
        "distance_wrist_1_joint": 2.8344867817479793,
        "distance_wrist_2_joint": 1.2284673678005564,
        "distance_wrist_3_joint": 6.583516692860323,
        "smoothness": 0.6410871171532543,
        "time": 0.24643079699999998,
        "traj_len": 4.280462887318106,
        "weighted_distance": 5.9625791453847246
    },
    "planner": "ProjEST",
    "start": {
        "state": {
            "elbow_joint": 0.749534889911806,
            "shoulder_lift_joint": -0.6476975780787326,
            "shoulder_pan_joint": -2.711696901376241,
            "wrist_1_joint": -0.07506478083263063,
            "wrist_2_joint": 0.43296659715538205,
            "wrist_3_joint": -3.14703540197715
        }
    },
    "waypoints": [
        {
            "positions": [
                -2.711696901376241,
                -0.6476975780787326,
                0.749534889911806,
                -0.07506478083263063,
                0.43296659715538205,
                -3.14703540197715
            ]
        },
        {
            "positions": [
                -2.7098184922438406,
                -0.7870213704166563,
                0.7050752631385643,
                -0.017424709766802014,
                0.48835390363134307,
                -3.091584211380743
            ]
        },
        {
            "positions": [
                -2.70794008311144,
                -0.92634516275458,
                0.6606156363653225,
                0.0402153612990266,
                0.5437412101073041,
                -3.0361330207843356
            ]
        },
        {
            "positions": [
                -2.7060616739790397,
                -1.0656689550925038,
                0.6161560095920808,
                0.09785543236485524,
                0.5991285165832652,
                -2.9806818301879283
            ]
        },
        {
            "positions": [
                -2.6365095660753215,
                -1.0864752599553509,
                0.5603072096845326,
                0.02720848306668637,
                0.5806278214286181,
                -2.82216578382648
            ]
        },
        {
            "positions": [
                -2.566957458171603,
                -1.1072815648181977,
                0.5044584097769844,
                -0.043438466231482495,
                0.5621271262739712,
                -2.663649737465032
            ]
        },
        {
            "positions": [
                -2.4974053502678846,
                -1.1280878696810448,
                0.44860960986943615,
                -0.11408541552965139,
                0.5436264311193242,
                -2.5051336911035835
            ]
        },
        {
            "positions": [
                -2.427853242364166,
                -1.1488941745438919,
                0.39276080996188795,
                -0.18473236482782024,
                0.5251257359646773,
                -2.3466176447421354
            ]
        },
        {
            "positions": [
                -2.3583011344604476,
                -1.1697004794067387,
                0.33691201005433974,
                -0.25537931412598913,
                0.5066250408100302,
                -2.1881015983806873
            ]
        },
        {
            "positions": [
                -2.2887490265567294,
                -1.1905067842695858,
                0.2810632101467915,
                -0.326026263424158,
                0.4881243456553833,
                -2.029585552019239
            ]
        },
        {
            "positions": [
                -2.2191969186530107,
                -1.2113130891324329,
                0.22521441023924332,
                -0.39667321272232686,
                0.4696236505007363,
                -1.871069505657791
            ]
        },
        {
            "positions": [
                -2.1496448107492925,
                -1.2321193939952797,
                0.16936561033169506,
                -0.4673201620204957,
                0.45112295534608937,
                -1.7125534592963427
            ]
        },
        {
            "positions": [
                -2.0800927028455742,
                -1.2529256988581268,
                0.11351681042414685,
                -0.5379671113186646,
                0.43262226019144234,
                -1.5540374129348946
            ]
        },
        {
            "positions": [
                -2.0105405949418556,
                -1.2737320037209738,
                0.057668010516598645,
                -0.6086140606168334,
                0.4141215650367954,
                -1.3955213665734463
            ]
        },
        {
            "positions": [
                -1.9409884870381373,
                -1.294538308583821,
                0.0018192106090503257,
                -0.6792610099150024,
                0.3956208698821484,
                -1.2370053202119982
            ]
        },
        {
            "positions": [
                -1.8714363791344186,
                -1.3153446134466678,
                -0.05402958929849788,
                -0.7499079592131712,
                0.3771201747275014,
                -1.0784892738505498
            ]
        },
        {
            "positions": [
                -1.8018842712307004,
                -1.3361509183095148,
                -0.10987838920604598,
                -0.8205549085113399,
                0.35861947957285445,
                -0.9199732274891019
            ]
        },
        {
            "positions": [
                -1.7323321633269821,
                -1.356957223172362,
                -0.1657271891135942,
                -0.8912018578095089,
                0.3401187844182075,
                -0.7614571811276538
            ]
        },
        {
            "positions": [
                -1.6627800554232637,
                -1.3777635280352087,
                -0.2215759890211425,
                -0.9618488071076778,
                0.3216180892635605,
                -0.6029411347662057
            ]
        },
        {
            "positions": [
                -1.5932279475195452,
                -1.3985698328980558,
                -0.2774247889286907,
                -1.0324957564058466,
                0.30311739410891353,
                -0.44442508840475714
            ]
        },
        {
            "positions": [
                -1.5236758396158268,
                -1.4193761377609029,
                -0.3332735888362389,
                -1.1031427057040155,
                0.28461669895426656,
                -0.285909042043309
            ]
        },
        {
            "positions": [
                -1.4541237317121083,
                -1.4401824426237497,
                -0.38912238874378713,
                -1.1737896550021845,
                0.2661160037996196,
                -0.1273929956818609
            ]
        },
        {
            "positions": [
                -1.3845716238083898,
                -1.4609887474865968,
                -0.44497118865133545,
                -1.2444366043003532,
                0.2476153086449726,
                0.03112305067958765
            ]
        },
        {
            "positions": [
                -1.3150195159046714,
                -1.4817950523494439,
                -0.5008199885588835,
                -1.3150835535985221,
                0.22911461349032564,
                0.18963909704103576
            ]
        },
        {
            "positions": [
                -1.2454674080009531,
                -1.5026013572122907,
                -0.5566687884664319,
                -1.385730502896691,
                0.2106139183356786,
                0.3481551434024839
            ]
        },
        {
            "positions": [
                -1.1759153000972347,
                -1.5234076620751378,
                -0.6125175883739802,
                -1.45637745219486,
                0.19211322318103163,
                0.506671189763932
            ]
        },
        {
            "positions": [
                -1.1063631921935162,
                -1.5442139669379848,
                -0.6683663882815283,
                -1.5270244014930288,
                0.17361252802638466,
                0.6651872361253806
            ]
        },
        {
            "positions": [
                -1.0368110842897977,
                -1.5650202718008317,
                -0.7242151881890766,
                -1.5976713507911977,
                0.1551118328717377,
                0.8237032824868287
            ]
        },
        {
            "positions": [
                -0.9672589763860793,
                -1.5858265766636788,
                -0.7800639880966247,
                -1.6683183000893667,
                0.1366111377170907,
                0.9822193288482768
            ]
        },
        {
            "positions": [
                -0.8977068684823613,
                -1.6066328815265258,
                -0.8359127880041728,
                -1.7389652493875352,
                0.1181104425624438,
                1.1407353752097245
            ]
        },
        {
            "positions": [
                -0.8281547605786428,
                -1.6274391863893727,
                -0.8917615879117211,
                -1.809612198685704,
                0.09960974740779682,
                1.299251421571173
            ]
        },
        {
            "positions": [
                -0.7586026526749243,
                -1.6482454912522198,
                -0.9476103878192692,
                -1.880259147983873,
                0.0811090522531498,
                1.4577674679326207
            ]
        },
        {
            "positions": [
                -0.6890505447712059,
                -1.6690517961150668,
                -1.0034591877268175,
                -1.950906097282042,
                0.06260835709850288,
                1.6162835142940692
            ]
        },
        {
            "positions": [
                -0.6194984368674876,
                -1.6898581009779137,
                -1.0593079876343658,
                -2.021553046580211,
                0.04410766194385585,
                1.774799560655517
            ]
        },
        {
            "positions": [
                -0.5499463289637689,
                -1.7106644058407607,
                -1.115156787541914,
                -2.0921999958783797,
                0.02560696678920893,
                1.9333156070169655
            ]
        },
        {
            "positions": [
                -0.4803942210600507,
                -1.7314707107036078,
                -1.1710055874494623,
                -2.1628469451765486,
                0.0071062716345619,
                2.091831653378414
            ]
        },
        {
            "positions": [
                -0.410842113156332,
                -1.7522770155664547,
                -1.2268543873570104,
                -2.2334938944747176,
                -0.011394423520085017,
                2.2503476997398617
            ]
        },
        {
            "positions": [
                -0.34129000525261377,
                -1.7730833204293017,
                -1.2827031872645587,
                -2.3041408437728865,
                -0.02989511867473202,
                2.4088637461013107
            ]
        },
        {
            "positions": [
                -0.2891975061222976,
                -1.779686214188645,
                -1.4077014008544717,
                -2.2925695638320063,
                -0.07850951751964928,
                2.50648365922968
            ]
        },
        {
            "positions": [
                -0.23710500699198145,
                -1.7862891079479881,
                -1.532699614444385,
                -2.2809982838911256,
                -0.12712391636456655,
                2.6041035723580492
            ]
        },
        {
            "positions": [
                -0.1850125078616653,
                -1.7928920017073313,
                -1.657697828034298,
                -2.269427003950245,
                -0.17573831520948383,
                2.7017234854864185
            ]
        },
        {
            "positions": [
                -0.13292000873134913,
                -1.7994948954666747,
                -1.782696041624211,
                -2.2578557240093646,
                -0.22435271405440108,
                2.7993433986147878
            ]
        },
        {
            "positions": [
                -0.08082750960103297,
                -1.806097789226018,
                -1.9076942552141243,
                -2.2462844440684844,
                -0.2729671128993184,
                2.896963311743157
            ]
        },
        {
            "positions": [
                -0.028735010470716776,
                -1.8127006829853611,
                -2.0326924688040373,
                -2.2347131641276037,
                -0.3215815117442356,
                2.9945832248715263
            ]
        },
        {
            "positions": [
                -0.016056545752654104,
                -1.861924952565276,
                -2.1616943814305793,
                -2.2632955383276494,
                -0.276511696887603,
                3.097978734762739
            ]
        },
        {
            "positions": [
                -0.0033780810345914285,
                -1.9111492221451907,
                -2.290696294057122,
                -2.2918779125276947,
                -0.2314418820309705,
                3.2013742446539517
            ]
        },
        {
            "positions": [
                0.009300383683471247,
                -1.9603734917251054,
                -2.419698206683664,
                -2.3204602867277404,
                -0.1863720671743379,
                3.3047697545451644
            ]
        },
        {
            "positions": [
                -0.08823341593125464,
                -1.8540820396780704,
                -2.3870307623468072,
                -2.2682625416440745,
                -0.18317907943670042,
                3.238913986376159
            ]
        },
        {
            "positions": [
                -0.18576721554598052,
                -1.7477905876310353,
                -2.35436331800995,
                -2.2160647965604086,
                -0.17998609169906296,
                3.173058218207154
            ]
        }
    ]
}