{
    "goal": {
        "global_pose": {
            "orientation": {
                "w": 0.5084816262002911,
                "x": -0.4908360881923452,
                "y": 0.5182115481033761,
                "z": -0.48164630358495003
            },
            "position": {
                "x": 0.5540239810943604,
                "y": -0.46912469901144505,
                "z": 0.16403168439865112
            }
        },
        "name": "move_to_storage_B"
    },
    "id": "RRT_move_to_storage_B_107",
    "joint_names": [
        "shoulder_pan_joint",
        "shoulder_lift_joint",
        "elbow_joint",
        "wrist_1_joint",
        "wrist_2_joint",
        "wrist_3_joint"
    ],
    "metrics": {
        "cart_traj_len": 1.9975647480680965,
        "distance_elbow_joint": 2.343602671987595,
        "distance_shoulder_lift_joint": 0.45929302447348075,
        "distance_shoulder_pan_joint": 1.239252031374316,
        "distance_wrist_1_joint": 2.9909920589650936,
        "distance_wrist_2_joint": 2.7074687653904603,
        "distance_wrist_3_joint": 3.1552127400384236,
        "smoothness": 0.2727225993610148,
        "time": 0.092993913,
        "traj_len": 3.591075227871086,
        "weighted_distance": 4.99046166167638
    },
    "planner": "RRT",
    "start": {
        "state": {
            "elbow_joint": 1.664937868594044,
            "shoulder_lift_joint": -0.661644460510453,
            "shoulder_pan_joint": -0.9139846352900073,
            "wrist_1_joint": 2.146753192139373,
            "wrist_2_joint": -2.2341966793290973,
            "wrist_3_joint": 0.005466555786416001
        }
    },
    "waypoints": [
        {
            "positions": [
                -0.9139846352900073,
                -0.661644460510453,
                1.664937868594044,
                2.146753192139373,
                -2.2341966793290973,
                0.005466555786416001
            ]
        },
        {
            "positions": [
                -0.8936007008588471,
                -0.6647203088724742,
                1.6402579296550144,
                2.145049485323807,
                -2.2086507383785516,
                0.014299477760744247
            ]
        },
        {
            "positions": [
                -0.8428080821981335,
                -0.6980628155968607,
                1.5431284260407139,
                2.098608643731049,
                -2.0866055999900692,
                0.004550905117469266
            ]
        },
        {
            "positions": [
                -0.7920154635374199,
                -0.731405322321247,
                1.4459989224264134,
                2.0521678021382908,
                -1.964560461601587,
                -0.0051976675258057145
            ]
        },
        {
            "positions": [
                -0.7412228448767063,
                -0.7647478290456333,
                1.3488694188121129,
                2.0057269605455326,
                -1.8425153232131048,
                -0.014946240169080693
            ]
        },
        {
            "positions": [
                -0.6904302262159927,
                -0.7980903357700198,
                1.2517399151978124,
                1.9592861189527746,
                -1.7204701848246224,
                -0.024694812812355676
            ]
        },
        {
            "positions": [
                -0.6396376075552792,
                -0.8314328424944062,
                1.154610411583512,
                1.9128452773600166,
                -1.59842504643614,
                -0.03444338545563065
            ]
        },
        {
            "positions": [
                -0.5888449888945655,
                -0.8647753492187925,
                1.0574809079692113,
                1.8664044357672585,
                -1.4763799080476578,
                -0.04419195809890564
            ]
        },
        {
            "positions": [
                -0.538052370233852,
                -0.8981178559431788,
                0.9603514043549111,
                1.8199635941745003,
                -1.3543347696591757,
                -0.05394053074218061
            ]
        },
        {
            "positions": [
                -0.48725975157313833,
                -0.9314603626675653,
                0.8632219007406104,
                1.773522752581742,
                -1.2322896312706932,
                -0.0636891033854556
            ]
        },
        {
            "positions": [
                -0.4364671329124248,
                -0.9648028693919517,
                0.76609239712631,
                1.7270819109889841,
                -1.1102444928822108,
                -0.07343767602873058
            ]
        },
        {
            "positions": [
                -0.3856745142517112,
                -0.998145376116338,
                0.6689628935120095,
                1.680641069396226,
                -0.9881993544937286,
                -0.08318624867200555
            ]
        },
        {
            "positions": [
                -0.41529709384904534,
                -1.003261713985821,
                0.7251140475497412,
                1.5754377387203116,
                -0.9273047111372664,
                -0.21022350248997826
            ]
        },
        {
            "positions": [
                -0.4449196734463795,
                -1.0083780518553043,
                0.7812652015874729,
                1.4702344080443972,
                -0.8664100677808042,
                -0.33726075630795094
            ]
        },
        {
            "positions": [
                -0.47454225304371367,
                -1.0134943897247874,
                0.8374163556252046,
                1.3650310773684828,
                -0.8055154244243421,
                -0.46429801012592375
            ]
        },
        {
            "positions": [
                -0.5041648326410478,
                -1.0186107275942706,
                0.8935675096629363,
                1.2598277466925683,
                -0.7446207810678799,
                -0.5913352639438963
            ]
        },
        {
            "positions": [
                -0.533787412238382,
                -1.0237270654637538,
                0.9497186637006679,
                1.1546244160166539,
                -0.6837261377114177,
                -0.7183725177618692
            ]
        },
        {
            "positions": [
                -0.5634099918357162,
                -1.028843403333237,
                1.0058698177383996,
                1.0494210853407395,
                -0.6228314943549554,
                -0.8454097715798419
            ]
        },
        {
            "positions": [
                -0.5930325714330503,
                -1.0339597412027202,
                1.0620209717761313,
                0.944217754664825,
                -0.5619368509984932,
                -0.9724470253978147
            ]
        },
        {
            "positions": [
                -0.6226551510303844,
                -1.0390760790722033,
                1.1181721258138628,
                0.8390144239889108,
                -0.5010422076420311,
                -1.0994842792157873
            ]
        },
        {
            "positions": [
                -0.6522777306277185,
                -1.0441924169416865,
                1.1743232798515946,
                0.7338110933129963,
                -0.4401475642855688,
                -1.2265215330337602
            ]
        },
        {
            "positions": [
                -0.6819003102250527,
                -1.0493087548111695,
                1.2304744338893263,
                0.6286077626370818,
                -0.37925292092910656,
                -1.353558786851733
            ]
        },
        {
            "positions": [
                -0.7115228898223869,
                -1.0544250926806527,
                1.286625587927058,
                0.5234044319611675,
                -0.31835827757264445,
                -1.4805960406697056
            ]
        },
        {
            "positions": [
                -0.741145469419721,
                -1.0595414305501358,
                1.3427767419647898,
                0.4182011012852531,
                -0.25746363421618224,
                -1.6076332944876783
            ]
        },
        {
            "positions": [
                -0.7707680490170552,
                -1.064657768419619,
                1.3989278960025213,
                0.31299777060933875,
                -0.19656899085972013,
                -1.734670548305651
            ]
        },
        {
            "positions": [
                -0.8003906286143894,
                -1.0697741062891022,
                1.455079050040253,
                0.20779443993342417,
                -0.1356743475032578,
                -1.861707802123624
            ]
        },
        {
            "positions": [
                -0.8300132082117235,
                -1.0748904441585854,
                1.5112302040779846,
                0.1025911092575098,
                -0.07477970414679569,
                -1.9887450559415965
            ]
        },
        {
            "positions": [
                -0.8596357878090577,
                -1.0800067820280685,
                1.5673813581157163,
                -0.002612221418404337,
                -0.01388506079033347,
                -2.115782309759569
            ]
        },
        {
            "positions": [
                -0.889258367406392,
                -1.0851231198975517,
                1.623532512153448,
                -0.10781555209431892,
                0.04700958256612875,
                -2.242819563577542
            ]
        },
        {
            "positions": [
                -0.918880947003726,
                -1.090239457767035,
                1.6796836661911798,
                -0.2130188827702333,
                0.10790422592259108,
                -2.369856817395515
            ]
        },
        {
            "positions": [
                -0.9485035266010602,
                -1.095355795636518,
                1.7358348202289113,
                -0.31822221344614765,
                0.1687988692790532,
                -2.4968940712134873
            ]
        },
        {
            "positions": [
                -0.9781261061983944,
                -1.100472133506001,
                1.791985974266643,
                -0.42342554412206224,
                0.22969351263551552,
                -2.62393132503146
            ]
        },
        {
            "positions": [
                -1.0077486857957285,
                -1.1055884713754842,
                1.8481371283043748,
                -0.5286288747979764,
                0.2905881559919776,
                -2.7509685788494327
            ]
        },
        {
            "positions": [
                -1.0373712653930627,
                -1.1107048092449674,
                1.9042882823421063,
                -0.633832205473891,
                0.35148279934843973,
                -2.8780058326674056
            ]
        },
        {
            "positions": [
                -1.0669938449903968,
                -1.1158211471144506,
                1.9604394363798383,
                -0.7390355361498055,
                0.41237744270490206,
                -3.0050430864853785
            ]
        },
        {
            "positions": [
                -1.096616424587731,
                -1.1209374849839338,
                2.01659059041757,
                -0.8442388668257195,
                0.47327208606136406,
                -3.132080340303351
            ]
        }
    ]
}