{
    "goal": {
        "global_pose": {
            "orientation": {
                "w": 0.7047431493862688,
                "x": -0.7094548369677653,
                "y": 0.0024358444001904,
                "z": -0.0022348060817251984
            },
            "position": {
                "x": -0.39052492380142206,
                "y": 0.3671506643295288,
                "z": 0.19426114857196808
            }
        },
        "name": "move_to_magneteinheit_D"
    },
    "id": "RRT_move_to_magneteinheit_D_111",
    "joint_names": [
        "shoulder_pan_joint",
        "shoulder_lift_joint",
        "elbow_joint",
        "wrist_1_joint",
        "wrist_2_joint",
        "wrist_3_joint"
    ],
    "metrics": {
        "cart_traj_len": 4.846039861540559,
        "distance_elbow_joint": 3.127601862176867,
        "distance_shoulder_lift_joint": 1.7106148569392399,
        "distance_shoulder_pan_joint": 3.8549388839680896,
        "distance_wrist_1_joint": 2.527109633623363,
        "distance_wrist_2_joint": 0.7353913680488755,
        "distance_wrist_3_joint": 3.1463812288345614,
        "smoothness": 0.5097375640815651,
        "time": 0.104772091,
        "traj_len": 3.8861340473008643,
        "weighted_distance": 4.965611874978991
    },
    "planner": "RRT",
    "start": {
        "state": {
            "elbow_joint": 0.749534889911806,
            "shoulder_lift_joint": -0.6476975780787326,
            "shoulder_pan_joint": -2.711696901376241,
            "wrist_1_joint": -0.07506478083263063,
            "wrist_2_joint": 0.43296659715538205,
            "wrist_3_joint": -3.14703540197715
        }
    },
    "waypoints": [
        {
            "positions": [
                -2.711696901376241,
                -0.6476975780787326,
                0.749534889911806,
                -0.07506478083263063,
                0.43296659715538205,
                -3.14703540197715
            ]
        },
        {
            "positions": [
                -2.7301286910161098,
                -0.6820712218965531,
                0.7288578291556468,
                -0.16051848409446015,
                0.3691296262154897,
                -3.032546692881892
            ]
        },
        {
            "positions": [
                -2.7485604806559785,
                -0.7164448657143736,
                0.7081807683994876,
                -0.24597218735628967,
                0.30529265527559746,
                -2.918057983786633
            ]
        },
        {
            "positions": [
                -2.766992270295847,
                -0.7508185095321942,
                0.6875037076433285,
                -0.33142589061811917,
                0.2414556843357051,
                -2.803569274691375
            ]
        },
        {
            "positions": [
                -2.785424059935716,
                -0.7851921533500147,
                0.6668266468871693,
                -0.4168795938799487,
                0.1776187133958128,
                -2.6890805655961163
            ]
        },
        {
            "positions": [
                -2.8038558495755845,
                -0.8195657971678352,
                0.6461495861310101,
                -0.5023332971417782,
                0.11378174245592049,
                -2.574591856500858
            ]
        },
        {
            "positions": [
                -2.70093045810418,
                -0.8679522311662903,
                0.562762224445746,
                -0.436029538926762,
                0.12160278469938411,
                -2.495104850459598
            ]
        },
        {
            "positions": [
                -2.5980050666327754,
                -0.9163386651647454,
                0.4793748627604817,
                -0.36972578071174583,
                0.12942382694284774,
                -2.415617844418338
            ]
        },
        {
            "positions": [
                -2.4950796751613713,
                -0.9647250991632005,
                0.39598750107521746,
                -0.30342202249672967,
                0.13724486918631135,
                -2.336130838377078
            ]
        },
        {
            "positions": [
                -2.3921542836899667,
                -1.0131115331616556,
                0.31260013938995324,
                -0.23711826428171345,
                0.14506591142977499,
                -2.256643832335818
            ]
        },
        {
            "positions": [
                -2.289228892218562,
                -1.0614979671601106,
                0.229212777704689,
                -0.17081450606669724,
                0.1528869536732386,
                -2.1771568262945578
            ]
        },
        {
            "positions": [
                -2.1863035007471576,
                -1.1098844011585658,
                0.14582541601942478,
                -0.10451074785168107,
                0.1607079959167022,
                -2.097669820253298
            ]
        },
        {
            "positions": [
                -2.0833781092757535,
                -1.1582708351570208,
                0.0624380543341605,
                -0.038206989636664856,
                0.16852903816016584,
                -2.0181828142120377
            ]
        },
        {
            "positions": [
                -1.9804527178043487,
                -1.206657269155476,
                -0.020949307351103674,
                0.028096768578351305,
                0.17635008040362946,
                -1.9386958081707777
            ]
        },
        {
            "positions": [
                -1.8775273263329442,
                -1.2550437031539312,
                -0.10433666903636796,
                0.09440052679336752,
                0.18417112264709307,
                -1.8592088021295177
            ]
        },
        {
            "positions": [
                -1.7746019348615398,
                -1.3034301371523862,
                -0.18772403072163213,
                0.16070428500838374,
                0.1919921648905567,
                -1.7797217960882574
            ]
        },
        {
            "positions": [
                -1.6716765433901353,
                -1.3518165711508412,
                -0.2711113924068964,
                0.22700804322339996,
                0.19981320713402032,
                -1.7002347900469974
            ]
        },
        {
            "positions": [
                -1.568751151918731,
                -1.4002030051492964,
                -0.3544987540921606,
                0.29331180143841606,
                0.20763424937748393,
                -1.6207477840057374
            ]
        },
        {
            "positions": [
                -1.4658257604473264,
                -1.4485894391477516,
                -0.43788611577742487,
                0.3596155596534323,
                0.21545529162094756,
                -1.5412607779644774
            ]
        },
        {
            "positions": [
                -1.362900368975922,
                -1.4969758731462064,
                -0.5212734774626891,
                0.4259193178684485,
                0.22327633386441118,
                -1.4617737719232173
            ]
        },
        {
            "positions": [
                -1.2599749775045175,
                -1.5453623071446616,
                -0.6046608391479534,
                0.4922230760834647,
                0.23109737610787479,
                -1.382286765881957
            ]
        },
        {
            "positions": [
                -1.157049586033113,
                -1.5937487411431168,
                -0.6880482008332175,
                0.5585268342984808,
                0.23891841835133842,
                -1.3027997598406973
            ]
        },
        {
            "positions": [
                -1.0541241945617086,
                -1.6421351751415718,
                -0.7714355625184818,
                0.6248305925134969,
                0.24673946059480203,
                -1.2233127537994373
            ]
        },
        {
            "positions": [
                -0.9511988030903038,
                -1.690521609140027,
                -0.8548229242037461,
                0.6911343507285133,
                0.2545605028382657,
                -1.143825747758177
            ]
        },
        {
            "positions": [
                -0.8482734116188995,
                -1.738908043138482,
                -0.9382102858890103,
                0.7574381089435294,
                0.2623815450817293,
                -1.064338741716917
            ]
        },
        {
            "positions": [
                -0.7453480201474951,
                -1.7872944771369372,
                -1.0215976475742745,
                0.8237418671585457,
                0.27020258732519287,
                -0.984851735675657
            ]
        },
        {
            "positions": [
                -0.6424226286760906,
                -1.8356809111353922,
                -1.1049850092595386,
                0.8900456253735618,
                0.2780236295686565,
                -0.905364729634397
            ]
        },
        {
            "positions": [
                -0.539497237204686,
                -1.8840673451338474,
                -1.188372370944803,
                0.9563493835885781,
                0.28584467181212014,
                -0.8258777235931367
            ]
        },
        {
            "positions": [
                -0.43657184573328145,
                -1.9324537791323024,
                -1.2717597326300671,
                1.0226531418035942,
                0.2936657140555837,
                -0.7463907175518767
            ]
        },
        {
            "positions": [
                -0.33364645426187733,
                -1.9808402131307574,
                -1.3551470943153312,
                1.0889569000186103,
                0.30148675629904736,
                -0.6669037115106167
            ]
        },
        {
            "positions": [
                -0.23072106279047278,
                -2.029226647129213,
                -1.4385344560005953,
                1.1552606582336264,
                0.309307798542511,
                -0.5874167054693569
            ]
        },
        {
            "positions": [
                -0.12779567131906822,
                -2.0776130811276676,
                -1.5219218176858598,
                1.2215644164486428,
                0.31712884078597464,
                -0.5079296994280966
            ]
        },
        {
            "positions": [
                -0.024870279847663657,
                -2.125999515126123,
                -1.6053091793711238,
                1.2878681746636589,
                0.3249498830294383,
                -0.4284426933868364
            ]
        },
        {
            "positions": [
                0.07805511162374046,
                -2.174385949124578,
                -1.6886965410563883,
                1.3541719328786752,
                0.33277092527290186,
                -0.3489556873455766
            ]
        },
        {
            "positions": [
                0.18098050309514502,
                -2.222772383123033,
                -1.7720839027416524,
                1.4204756910936913,
                0.34059196751636545,
                -0.26946868130431634
            ]
        },
        {
            "positions": [
                0.2839058945665496,
                -2.2711588171214885,
                -1.855471264426917,
                1.4867794493087076,
                0.34841300975982914,
                -0.1899816752630561
            ]
        },
        {
            "positions": [
                0.38683128603795436,
                -2.3195452511199433,
                -1.9388586261121812,
                1.5530832075237238,
                0.3562340520032927,
                -0.11049466922179624
            ]
        },
        {
            "positions": [
                0.24380808599915255,
                -2.309853455145436,
                -2.0486607126504013,
                1.5419770543615452,
                0.3127955010527823,
                -0.08303454520199473
            ]
        },
        {
            "positions": [
                0.10078488596035073,
                -2.3001616591709286,
                -2.158462799188621,
                1.5308709011993666,
                0.26935695010227195,
                -0.055574421182193225
            ]
        },
        {
            "positions": [
                -0.04223831407845108,
                -2.2904698631964213,
                -2.2682648857268415,
                1.519764748037188,
                0.22591839915176154,
                -0.02811429716239172
            ]
        },
        {
            "positions": [
                -0.1852615141172529,
                -2.280778067221914,
                -2.3780669722650614,
                1.5086585948750095,
                0.18247984820125115,
                -0.0006541731425902136
            ]
        }
    ]
}