{
    "goal": {
        "global_pose": {
            "orientation": {
                "w": 0.5084816217422485,
                "x": -0.49083608388900757,
                "y": 0.5182115435600281,
                "z": -0.4816462993621826
            },
            "position": {
                "x": 0.5540239810943604,
                "y": 0.030875300988554955,
                "z": 0.16403168439865112
            }
        },
        "name": "move_to_storage_A"
    },
    "id": "RRT_move_to_storage_A_121",
    "joint_names": [
        "shoulder_pan_joint",
        "shoulder_lift_joint",
        "elbow_joint",
        "wrist_1_joint",
        "wrist_2_joint",
        "wrist_3_joint"
    ],
    "metrics": {
        "cart_traj_len": 0.3540650076344937,
        "distance_elbow_joint": 0.45203808139361956,
        "distance_shoulder_lift_joint": 0.23390799994183098,
        "distance_shoulder_pan_joint": 0.4601142479268964,
        "distance_wrist_1_joint": 0.25148035876895614,
        "distance_wrist_2_joint": 1.1131206237480231,
        "distance_wrist_3_joint": 0.09772194038416826,
        "smoothness": 0.0,
        "time": 0.015480364,
        "traj_len": 1.6150489937347086,
        "weighted_distance": 2.0416728718011634
    },
    "planner": "RRT",
    "start": {
        "state": {
            "elbow_joint": 1.971548259319323,
            "shoulder_lift_joint": -1.1394851275133948,
            "shoulder_pan_joint": 0.1228115487234821,
            "wrist_1_joint": -0.7804723859257726,
            "wrist_2_joint": 0.12958671773740124,
            "wrist_3_joint": -3.192489227718131
        }
    },
    "waypoints": [
        {
            "positions": [
                0.1228115487234821,
                -1.1394851275133948,
                1.971548259319323,
                -0.7804723859257726,
                0.12958671773740124,
                -3.192489227718131
            ]
        },
        {
            "positions": [
                0.057080941876782615,
                -1.1729005560765136,
                2.0361251280898403,
                -0.8163981514641949,
                0.28860394970140457,
                -3.1785289505203926
            ]
        },
        {
            "positions": [
                -0.00864966496991687,
                -1.2063159846396323,
                2.1007019968603573,
                -0.8523239170026172,
                0.4476211816654079,
                -3.1645686733226546
            ]
        },
        {
            "positions": [
                -0.07438027181661636,
                -1.239731413202751,
                2.1652788656308743,
                -0.8882496825410395,
                0.6066384136294112,
                -3.150608396124916
            ]
        },
        {
            "positions": [
                -0.14011087866331584,
                -1.2731468417658696,
                2.2298557344013914,
                -0.9241754480794618,
                0.7656556455934145,
                -3.136648118927178
            ]
        },
        {
            "positions": [
                -0.20584148551001535,
                -1.3065622703289883,
                2.2944326031719084,
                -0.9601012136178841,
                0.9246728775574178,
                -3.1226878417294395
            ]
        },
        {
            "positions": [
                -0.2715720923567148,
                -1.339977698892107,
                2.3590094719424255,
                -0.9960269791563064,
                1.083690109521421,
                -3.1087275645317014
            ]
        },
        {
            "positions": [
                -0.3373026992034143,
                -1.3733931274552258,
                2.4235863407129425,
                -1.0319527446947288,
                1.2427073414854244,
                -3.094767287333963
            ]
        }
    ]
}{
    "goal": {
        "global_pose": {
            "orientation": {
                "w": 0.5084816217422485,
                "x": -0.49083608388900757,
                "y": 0.5182115435600281,
                "z": -0.4816462993621826
            },
            "position": {
                "x": 0.5540239810943604,
                "y": 0.030875300988554955,
                "z": 0.16403168439865112
            }
        },
        "name": "move_to_storage_A"
    },
    "id": "RRT_move_to_storage_A_121",
    "joint_names": [
        "shoulder_pan_joint",
        "shoulder_lift_joint",
        "elbow_joint",
        "wrist_1_joint",
        "wrist_2_joint",
        "wrist_3_joint"
    ],
    "metrics": {
        "cart_traj_len": 0.3532925817302454,
        "distance_elbow_joint": 0.4540577834612689,
        "distance_shoulder_lift_joint": 0.23521017612253314,
        "distance_shoulder_pan_joint": 0.45994702668656706,
        "distance_wrist_1_joint": 0.2583085233485267,
        "distance_wrist_2_joint": 1.1088565984756118,
        "distance_wrist_3_joint": 0.1049419203834443,
        "smoothness": 8.881784232165597e-16,
        "time": 0.019188293,
        "traj_len": 1.6190497300818008,
        "weighted_distance": 2.048992677163337
    },
    "planner": "RRT",
    "start": {
        "state": {
            "elbow_joint": 1.97154746011099,
            "shoulder_lift_joint": -1.13948474672311,
            "shoulder_pan_joint": 0.12281154466712228,
            "wrist_1_joint": -0.7804688027058302,
            "wrist_2_joint": 0.12958655903071145,
            "wrist_3_joint": 3.0906928834467795
        }
    },
    "waypoints": [
        {
            "positions": [
                0.12281154466712228,
                -1.13948474672311,
                1.97154746011099,
                -0.7804688027058302,
                0.12958655903071145,
                3.0906928834467795
            ]
        },
        {
            "positions": [
                0.057104826569041284,
                -1.1730862004549003,
                2.036412857748314,
                -0.8173700203270483,
                0.28799464452722745,
                3.1056845863587
            ]
        },
        {
            "positions": [
                -0.008601891529039715,
                -1.2066876541866909,
                2.101278255385638,
                -0.8542712379482664,
                0.4464027300237434,
                3.120676289270621
            ]
        },
        {
            "positions": [
                -0.07430860962712073,
                -1.2402891079184812,
                2.1661436530229623,
                -0.8911724555694844,
                0.6048108155202594,
                3.135667992182541
            ]
        },
        {
            "positions": [
                -0.1400153277252017,
                -1.2738905616502718,
                2.2310090506602864,
                -0.9280736731907026,
                0.7632189010167754,
                3.150659695094462
            ]
        },
        {
            "positions": [
                -0.20572204582328274,
                -1.3074920153820622,
                2.2958744482976106,
                -0.9649748908119207,
                0.9216269865132913,
                3.1656513980063825
            ]
        },
        {
            "positions": [
                -0.2714287639213637,
                -1.3410934691138525,
                2.3607398459349347,
                -1.0018761084331387,
                1.0800350720098073,
                3.1806431009183034
            ]
        },
        {
            "positions": [
                -0.33713548201944477,
                -1.374694922845643,
                2.425605243572259,
                -1.038777326054357,
                1.2384431575063233,
                3.195634803830224
            ]
        }
    ]
}{
    "goal": {
        "global_pose": {
            "orientation": {
                "w": 0.5084816217422485,
                "x": -0.49083608388900757,
                "y": 0.5182115435600281,
                "z": -0.4816462993621826
            },
            "position": {
                "x": 0.5540239810943604,
                "y": 0.030875300988554955,
                "z": 0.16403168439865112
            }
        },
        "name": "move_to_storage_A"
    },
    "id": "RRT_move_to_storage_A_121",
    "joint_names": [
        "shoulder_pan_joint",
        "shoulder_lift_joint",
        "elbow_joint",
        "wrist_1_joint",
        "wrist_2_joint",
        "wrist_3_joint"
    ],
    "metrics": {
        "cart_traj_len": 0.35352246616294336,
        "distance_elbow_joint": 0.4533616034711967,
        "distance_shoulder_lift_joint": 0.2342332288744038,
        "distance_shoulder_pan_joint": 0.4617996185502948,
        "distance_wrist_1_joint": 0.2544237740235862,
        "distance_wrist_2_joint": 1.1022905566814056,
        "distance_wrist_3_joint": 0.10032336371595774,
        "smoothness": 4.440892098500626e-16,
        "time": 0.012471349,
        "traj_len": 1.6144448412122494,
        "weighted_distance": 2.040537479061277
    },
    "planner": "RRT",
    "start": {
        "state": {
            "elbow_joint": 1.9715472970024885,
            "shoulder_lift_joint": -1.1394870060712896,
            "shoulder_pan_joint": 0.12281152778156021,
            "wrist_1_joint": -0.780463741449964,
            "wrist_2_joint": 0.12958659822042276,
            "wrist_3_joint": 3.090690232415272
        }
    },
    "waypoints": [
        {
            "positions": [
                0.12281152778156021,
                -1.1394870060712896,
                1.9715472970024885,
                -0.780463741449964,
                0.12958659822042276,
                3.090690232415272
            ]
        },
        {
            "positions": [
                0.05684015370294668,
                -1.1729488959104901,
                2.0363132403555166,
                -0.8168099948819049,
                0.2870566777463378,
                3.1050221415175514
            ]
        },
        {
            "positions": [
                -0.009131220375666854,
                -1.2064107857496906,
                2.1010791837085447,
                -0.8531562483138457,
                0.4445267572722529,
                3.1193540506198314
            ]
        },
        {
            "positions": [
                -0.07510259445428039,
                -1.2398726755888911,
                2.165845127061573,
                -0.8895025017457866,
                0.601996836798168,
                3.133685959722111
            ]
        },
        {
            "positions": [
                -0.14107396853289392,
                -1.2733345654280916,
                2.230611070414601,
                -0.9258487551777275,
                0.759466916324083,
                3.1480178688243905
            ]
        },
        {
            "positions": [
                -0.20704534261150745,
                -1.3067964552672924,
                2.295377013767629,
                -0.9621950086096684,
                0.9169369958499982,
                3.16234977792667
            ]
        },
        {
            "positions": [
                -0.27301671669012095,
                -1.3402583451064929,
                2.360142957120657,
                -0.9985412620416093,
                1.0744070753759132,
                3.17668168702895
            ]
        },
        {
            "positions": [
                -0.33898809076873454,
                -1.3737202349456934,
                2.4249089004736852,
                -1.0348875154735502,
                1.2318771549018284,
                3.1910135961312296
            ]
        }
    ]
}