{
    "goal": {
        "global_pose": {
            "orientation": {
                "w": 0.7031023480610252,
                "x": -0.7110244013736278,
                "y": 0.0077485991402295624,
                "z": 0.005598929693374583
            },
            "position": {
                "x": -0.8841497679147869,
                "y": 0.44412534475326537,
                "z": 0.3711530566215515
            }
        },
        "name": "move_to_auspresseinheit_D"
    },
    "id": "RRT_move_to_auspresseinheit_D_28",
    "joint_names": [
        "shoulder_pan_joint",
        "shoulder_lift_joint",
        "elbow_joint",
        "wrist_1_joint",
        "wrist_2_joint",
        "wrist_3_joint"
    ],
    "metrics": {
        "cart_traj_len": 0.34409947875347613,
        "distance_elbow_joint": 0.6562092025969621,
        "distance_shoulder_lift_joint": 0.1314596738384326,
        "distance_shoulder_pan_joint": 0.13371416314220097,
        "distance_wrist_1_joint": 0.5782821318297073,
        "distance_wrist_2_joint": 1.4448258925446726,
        "distance_wrist_3_joint": 0.04212018948265772,
        "smoothness": 0.0,
        "time": 0.016672738,
        "traj_len": 1.7281814874123127,
        "weighted_distance": 2.2569802074396508
    },
    "planner": "RRT",
    "start": {
        "state": {
            "elbow_joint": -1.8275523626775212,
            "shoulder_lift_joint": -2.126789852344167,
            "shoulder_pan_joint": -0.03513704404078235,
            "wrist_1_joint": -2.347782403156801,
            "wrist_2_joint": -1.6058999987535132,
            "wrist_3_joint": -3.0880379163319196
        }
    },
    "waypoints": [
        {
            "positions": [
                -0.03513704404078235,
                -2.126789852344167,
                -1.8275523626775212,
                -2.347782403156801,
                -1.6058999987535132,
                -3.0880379163319196
            ]
        },
        {
            "positions": [
                -0.05185131443355747,
                -2.143222311573971,
                -1.745526212352901,
                -2.420067669635514,
                -1.4252967621854291,
                -3.082772892646587
            ]
        },
        {
            "positions": [
                -0.0685655848263326,
                -2.159654770803775,
                -1.6635000620282807,
                -2.492352936114228,
                -1.244693525617345,
                -3.077507868961255
            ]
        },
        {
            "positions": [
                -0.08527985521910772,
                -2.176087230033579,
                -1.5814739117036605,
                -2.564638202592941,
                -1.064090289049261,
                -3.072242845275923
            ]
        },
        {
            "positions": [
                -0.10199412561188284,
                -2.192519689263383,
                -1.4994477613790402,
                -2.6369234690716548,
                -0.8834870524811769,
                -3.0669778215905907
            ]
        },
        {
            "positions": [
                -0.11870839600465796,
                -2.208952148493187,
                -1.41742161105442,
                -2.709208735550368,
                -0.7028838159130928,
                -3.0617127979052583
            ]
        },
        {
            "positions": [
                -0.13542266639743308,
                -2.225384607722991,
                -1.3353954607297995,
                -2.7814940020290813,
                -0.5222805793450087,
                -3.0564477742199263
            ]
        },
        {
            "positions": [
                -0.1521369367902082,
                -2.2418170669527955,
                -1.2533693104051793,
                -2.853779268507795,
                -0.34167734277692463,
                -3.0511827505345943
            ]
        },
        {
            "positions": [
                -0.16885120718298333,
                -2.2582495261825994,
                -1.171343160080559,
                -2.926064534986508,
                -0.16107410620884063,
                -3.045917726849262
            ]
        }
    ]
}