{
    "goal": {
        "global_pose": {
            "orientation": {
                "w": 0.5084816262002911,
                "x": -0.4908360881923452,
                "y": 0.5182115481033761,
                "z": -0.48164630358495003
            },
            "position": {
                "x": 0.5540239810943604,
                "y": -0.46912469901144505,
                "z": 0.16403168439865112
            }
        },
        "name": "move_to_storage_B"
    },
    "id": "RRT_move_to_storage_B_113",
    "joint_names": [
        "shoulder_pan_joint",
        "shoulder_lift_joint",
        "elbow_joint",
        "wrist_1_joint",
        "wrist_2_joint",
        "wrist_3_joint"
    ],
    "metrics": {
        "cart_traj_len": 0.8305629782620565,
        "distance_elbow_joint": 0.39555272730814295,
        "distance_shoulder_lift_joint": 0.4589877621611944,
        "distance_shoulder_pan_joint": 0.5057231422862477,
        "distance_wrist_1_joint": 2.9832573364415675,
        "distance_wrist_2_joint": 2.7161885007722084,
        "distance_wrist_3_joint": 3.170402382194264,
        "smoothness": 0.10045814042623738,
        "time": 0.162836206,
        "traj_len": 3.198454603580239,
        "weighted_distance": 4.719148488103117
    },
    "planner": "RRT",
    "start": {
        "state": {
            "elbow_joint": 1.664937868594044,
            "shoulder_lift_joint": -0.661644460510453,
            "shoulder_pan_joint": -0.9139846352900073,
            "wrist_1_joint": 2.146753192139373,
            "wrist_2_joint": -2.2341966793290973,
            "wrist_3_joint": 0.005466555786416001
        }
    },
    "waypoints": [
        {
            "positions": [
                -0.9139846352900073,
                -0.661644460510453,
                1.664937868594044,
                2.146753192139373,
                -2.2341966793290973,
                0.005466555786416001
            ]
        },
        {
            "positions": [
                -0.8326988608423684,
                -0.7502781874553395,
                1.6537317796577413,
                2.1334900061203665,
                -2.063685879845131,
                0.011967015894439017
            ]
        },
        {
            "positions": [
                -0.7514130863947295,
                -0.8389119144002259,
                1.6425256907214387,
                2.12022682010136,
                -1.8931750803611647,
                0.01846747600246203
            ]
        },
        {
            "positions": [
                -0.7657110694526865,
                -0.8506502605782018,
                1.6580732136145861,
                1.997029696584545,
                -1.7942097927859866,
                -0.11309091824663038
            ]
        },
        {
            "positions": [
                -0.7800090525106437,
                -0.8623886067561777,
                1.6736207365077336,
                1.8738325730677303,
                -1.6952445052108083,
                -0.24464931249572278
            ]
        },
        {
            "positions": [
                -0.7943070355686007,
                -0.8741269529341537,
                1.689168259400881,
                1.7506354495509155,
                -1.5962792176356302,
                -0.37620770674481524
            ]
        },
        {
            "positions": [
                -0.8086050186265578,
                -0.8858652991121295,
                1.7047157822940284,
                1.6274383260341008,
                -1.497313930060452,
                -0.5077661009939076
            ]
        },
        {
            "positions": [
                -0.8229030016845149,
                -0.8976036452901054,
                1.7202633051871759,
                1.504241202517286,
                -1.3983486424852738,
                -0.6393244952430001
            ]
        },
        {
            "positions": [
                -0.837200984742472,
                -0.9093419914680814,
                1.7358108280803233,
                1.3810440790004712,
                -1.2993833549100957,
                -0.7708828894920925
            ]
        },
        {
            "positions": [
                -0.851498967800429,
                -0.9210803376460572,
                1.7513583509734705,
                1.2578469554836564,
                -1.2004180673349176,
                -0.9024412837411849
            ]
        },
        {
            "positions": [
                -0.8657969508583861,
                -0.9328186838240331,
                1.766905873866618,
                1.1346498319668419,
                -1.1014527797597395,
                -1.0339996779902771
            ]
        },
        {
            "positions": [
                -0.8800949339163432,
                -0.944557030002009,
                1.7824533967597653,
                1.011452708450027,
                -1.0024874921845612,
                -1.1655580722393697
            ]
        },
        {
            "positions": [
                -0.8943929169743003,
                -0.9562953761799848,
                1.7980009196529128,
                0.8882555849332123,
                -0.903522204609383,
                -1.297116466488462
            ]
        },
        {
            "positions": [
                -0.9086909000322574,
                -0.9680337223579608,
                1.8135484425460602,
                0.7650584614163976,
                -0.8045569170342051,
                -1.4286748607375543
            ]
        },
        {
            "positions": [
                -0.9229888830902144,
                -0.9797720685359367,
                1.8290959654392076,
                0.6418613378995828,
                -0.7055916294590268,
                -1.5602332549866469
            ]
        },
        {
            "positions": [
                -0.9372868661481715,
                -0.9915104147139125,
                1.844643488332355,
                0.5186642143827682,
                -0.6066263418838487,
                -1.6917916492357392
            ]
        },
        {
            "positions": [
                -0.9515848492061286,
                -1.0032487608918885,
                1.8601910112255025,
                0.3954670908659532,
                -0.5076610543086704,
                -1.8233500434848318
            ]
        },
        {
            "positions": [
                -0.9658828322640857,
                -1.0149871070698644,
                1.8757385341186499,
                0.27226996734913844,
                -0.4086957667334923,
                -1.954908437733924
            ]
        },
        {
            "positions": [
                -0.9801808153220427,
                -1.0267254532478403,
                1.8912860570117973,
                0.1490728438323239,
                -0.3097304791583142,
                -2.0864668319830164
            ]
        },
        {
            "positions": [
                -0.9944787983799999,
                -1.0384637994258161,
                1.9068335799049447,
                0.025875720315508666,
                -0.2107651915831359,
                -2.218025226232109
            ]
        },
        {
            "positions": [
                -1.008776781437957,
                -1.050202145603792,
                1.922381102798092,
                -0.09732140320130567,
                -0.1117999040079578,
                -2.3495836204812015
            ]
        },
        {
            "positions": [
                -1.023074764495914,
                -1.0619404917817679,
                1.9379286256912394,
                -0.22051852671812044,
                -0.012834616432779722,
                -2.4811420147302936
            ]
        },
        {
            "positions": [
                -1.0373727475538712,
                -1.073678837959744,
                1.9534761485843868,
                -0.3437156502349352,
                0.08613067114239858,
                -2.612700408979386
            ]
        },
        {
            "positions": [
                -1.051670730611828,
                -1.0854171841377198,
                1.9690236714775342,
                -0.46691277375175,
                0.18509595871757645,
                -2.7442588032284787
            ]
        },
        {
            "positions": [
                -1.0659687136697853,
                -1.0971555303156957,
                1.9845711943706816,
                -0.5901098972685648,
                0.28406124629275453,
                -2.875817197477571
            ]
        },
        {
            "positions": [
                -1.0802666967277423,
                -1.1088938764936715,
                2.0001187172638293,
                -0.7133070207853796,
                0.38302653386793306,
                -3.007375591726664
            ]
        },
        {
            "positions": [
                -1.0945646797856994,
                -1.1206322226716474,
                2.0156662401569765,
                -0.8365041443021942,
                0.4819918214431113,
                -3.138933985975756
            ]
        }
    ]
}