{
    "goal": {
        "global_pose": {
            "orientation": {
                "w": -0.4816463035849501,
                "x": 0.5182115481033762,
                "y": 0.4908360881923453,
                "z": -0.5084816262002911
            },
            "position": {
                "x": -0.8240239810943604,
                "y": 0.19912469901144506,
                "z": 0.16403168439865112
            }
        },
        "name": "move_to_storage_D"
    },
    "id": "RRT_move_to_storage_D_105",
    "joint_names": [
        "shoulder_pan_joint",
        "shoulder_lift_joint",
        "elbow_joint",
        "wrist_1_joint",
        "wrist_2_joint",
        "wrist_3_joint"
    ],
    "metrics": {
        "cart_traj_len": 4.268817884626723,
        "distance_elbow_joint": 4.209447203706467,
        "distance_shoulder_lift_joint": 1.2641886942626535,
        "distance_shoulder_pan_joint": 2.811537763332869,
        "distance_wrist_1_joint": 2.2627850270417595,
        "distance_wrist_2_joint": 1.0666454626446913,
        "distance_wrist_3_joint": 3.139129515450627,
        "smoothness": 0.01506542928374488,
        "time": 0.055870517,
        "traj_len": 3.8410589251453913,
        "weighted_distance": 4.935729245717068
    },
    "planner": "RRT",
    "start": {
        "state": {
            "elbow_joint": -2.384821988534728,
            "shoulder_lift_joint": -2.2788054721415256,
            "shoulder_pan_joint": -0.1854694642142757,
            "wrist_1_joint": 1.4845938289331202,
            "wrist_2_joint": 0.17898776772866878,
            "wrist_3_joint": 0.037105688729662994
        }
    },
    "waypoints": [
        {
            "positions": [
                -0.1854694642142757,
                -2.2788054721415256,
                -2.384821988534728,
                1.4845938289331202,
                0.17898776772866878,
                0.037105688729662994
            ]
        },
        {
            "positions": [
                -0.07724684569557119,
                -2.2774248714185434,
                -2.2399418458856624,
                1.4122735682080354,
                0.17187137780569833,
                -0.01974758196768854
            ]
        },
        {
            "positions": [
                0.030975772823133324,
                -2.2760442706955617,
                -2.095061703236597,
                1.3399533074829508,
                0.16475498788272788,
                -0.07660085266504008
            ]
        },
        {
            "positions": [
                0.13919839134183784,
                -2.2746636699725795,
                -1.950181560587531,
                1.267633046757866,
                0.15763859795975743,
                -0.1334541233623916
            ]
        },
        {
            "positions": [
                0.24742100986054236,
                -2.2732830692495973,
                -1.8053014179384654,
                1.1953127860327812,
                0.15052220803678695,
                -0.19030739405974315
            ]
        },
        {
            "positions": [
                0.3556436283792469,
                -2.271902468526615,
                -1.6604212752893996,
                1.1229925253076964,
                0.1434058181138165,
                -0.24716066475709472
            ]
        },
        {
            "positions": [
                0.4638662468979514,
                -2.2705218678036334,
                -1.515541132640334,
                1.0506722645826119,
                0.13628942819084605,
                -0.3040139354544462
            ]
        },
        {
            "positions": [
                0.5720888654166559,
                -2.2691412670806512,
                -1.3706609899912685,
                0.9783520038575271,
                0.1291730382678756,
                -0.3608672061517978
            ]
        },
        {
            "positions": [
                0.6803114839353605,
                -2.267760666357669,
                -1.225780847342203,
                0.9060317431324424,
                0.12205664834490515,
                -0.41772047684914926
            ]
        },
        {
            "positions": [
                0.7885341024540651,
                -2.2663800656346873,
                -1.0809007046931371,
                0.8337114824073576,
                0.11494025842193467,
                -0.47457374754650083
            ]
        },
        {
            "positions": [
                0.8967567209727695,
                -2.264999464911705,
                -0.9360205620440716,
                0.7613912216822729,
                0.10782386849896422,
                -0.5314270182438524
            ]
        },
        {
            "positions": [
                1.0049793394914739,
                -2.263618864188723,
                -0.791140419395006,
                0.6890709609571881,
                0.10070747857599377,
                -0.5882802889412039
            ]
        },
        {
            "positions": [
                1.1132019580101784,
                -2.2622382634657408,
                -0.6462602767459404,
                0.6167507002321034,
                0.09359108865302332,
                -0.6451335596385553
            ]
        },
        {
            "positions": [
                1.221424576528883,
                -2.260857662742759,
                -0.5013801340968747,
                0.5444304395070186,
                0.08647469873005285,
                -0.701986830335907
            ]
        },
        {
            "positions": [
                1.3296471950475874,
                -2.259477062019777,
                -0.3564999914478093,
                0.47211017878193384,
                0.0793583088070824,
                -0.7588401010332585
            ]
        },
        {
            "positions": [
                1.383664741050546,
                -2.207607883513906,
                -0.26561977450532814,
                0.4200142880781599,
                0.11965064229554512,
                -0.8564727562702462
            ]
        },
        {
            "positions": [
                1.4376822870535046,
                -2.1557387050080346,
                -0.17473955756284693,
                0.3679183973743859,
                0.15994297578400782,
                -0.9541054115072339
            ]
        },
        {
            "positions": [
                1.4916998330564633,
                -2.1038695265021636,
                -0.08385934062036571,
                0.31582250667061196,
                0.20023530927247052,
                -1.0517380667442218
            ]
        },
        {
            "positions": [
                1.5457173790594219,
                -2.0520003479962927,
                0.007020876322115455,
                0.263726615966838,
                0.24052764276093325,
                -1.1493707219812095
            ]
        },
        {
            "positions": [
                1.5997349250623805,
                -2.000131169490422,
                0.09790109326459673,
                0.21163072526306403,
                0.280819976249396,
                -1.2470033772181972
            ]
        },
        {
            "positions": [
                1.653752471065339,
                -1.9482619909845507,
                0.1887813102070779,
                0.15953483455929007,
                0.32111230973785865,
                -1.344636032455185
            ]
        },
        {
            "positions": [
                1.7077700170682975,
                -1.8963928124786795,
                0.27966152714955916,
                0.10743894385551611,
                0.3614046432263214,
                -1.4422686876921729
            ]
        },
        {
            "positions": [
                1.761787563071256,
                -1.8445236339728086,
                0.3705417440920402,
                0.05534305315174215,
                0.40169697671478405,
                -1.5399013429291604
            ]
        },
        {
            "positions": [
                1.8158051090742147,
                -1.7926544554669377,
                0.4614219610345215,
                0.003247162447968188,
                0.4419893102032468,
                -1.6375339981661483
            ]
        },
        {
            "positions": [
                1.8698226550771735,
                -1.7407852769610666,
                0.5523021779770028,
                -0.04884872825580577,
                0.4822816436917095,
                -1.735166653403136
            ]
        },
        {
            "positions": [
                1.9238402010801319,
                -1.6889160984551954,
                0.6431823949194838,
                -0.10094461895957973,
                0.5225739771801722,
                -1.8327993086401237
            ]
        },
        {
            "positions": [
                1.9778577470830905,
                -1.6370469199493245,
                0.7340626118619651,
                -0.1530405096633537,
                0.5628663106686349,
                -1.9304319638771115
            ]
        },
        {
            "positions": [
                2.031875293086049,
                -1.5851777414434536,
                0.8249428288044462,
                -0.20513640036712766,
                0.6031586441570976,
                -2.028064619114099
            ]
        },
        {
            "positions": [
                2.0858928390890075,
                -1.5333085629375824,
                0.9158230457469276,
                -0.2572322910709016,
                0.6434509776455604,
                -2.125697274351087
            ]
        },
        {
            "positions": [
                2.1399103850919663,
                -1.4814393844317113,
                1.0067032626894086,
                -0.3093281817746756,
                0.683743311134023,
                -2.2233299295880746
            ]
        },
        {
            "positions": [
                2.1939279310949247,
                -1.4295702059258404,
                1.0975834796318897,
                -0.36142407247844954,
                0.7240356446224857,
                -2.3209625848250623
            ]
        },
        {
            "positions": [
                2.2479454770978835,
                -1.3777010274199695,
                1.1884636965743711,
                -0.4135199631822235,
                0.7643279781109484,
                -2.41859524006205
            ]
        },
        {
            "positions": [
                2.301963023100842,
                -1.3258318489140983,
                1.2793439135168523,
                -0.46561585388599747,
                0.8046203115994112,
                -2.516227895299038
            ]
        },
        {
            "positions": [
                2.3559805691038003,
                -1.2739626704082272,
                1.3702241304593334,
                -0.5177117445897714,
                0.8449126450878739,
                -2.6138605505360255
            ]
        },
        {
            "positions": [
                2.4099981151067595,
                -1.2220934919023563,
                1.4611043474018148,
                -0.5698076352935454,
                0.8852049785763366,
                -2.7114932057730132
            ]
        },
        {
            "positions": [
                2.464015661109718,
                -1.1702243133964854,
                1.551984564344296,
                -0.6219035259973192,
                0.9254973120647993,
                -2.809125861010001
            ]
        },
        {
            "positions": [
                2.5180332071126763,
                -1.1183551348906142,
                1.642864781286777,
                -0.6739994167010933,
                0.965789645553262,
                -2.9067585162469887
            ]
        },
        {
            "positions": [
                2.5720507531156347,
                -1.066485956384743,
                1.7337449982292583,
                -0.7260953074048674,
                1.0060819790417248,
                -3.0043911714839764
            ]
        },
        {
            "positions": [
                2.6260682991185935,
                -1.0146167778788722,
                1.8246252151717397,
                -0.7781911981086413,
                1.0463743125301874,
                -3.102023826720964
            ]
        }
    ]
}