{
    "goal": {
        "global_pose": {
            "orientation": {
                "w": 0.7047431468963623,
                "x": -0.7094548344612122,
                "y": 0.0024358443915843964,
                "z": -0.0022348060738295317
            },
            "position": {
                "x": 0.6094750761985779,
                "y": 0.3671506643295288,
                "z": 0.19426114857196808
            }
        },
        "name": "move_to_magneteinheit_A"
    },
    "id": "RRT_move_to_magneteinheit_A_74",
    "joint_names": [
        "shoulder_pan_joint",
        "shoulder_lift_joint",
        "elbow_joint",
        "wrist_1_joint",
        "wrist_2_joint",
        "wrist_3_joint"
    ],
    "metrics": {
        "cart_traj_len": 3.5065223352422388,
        "distance_elbow_joint": 3.888539360622472,
        "distance_shoulder_lift_joint": 0.6362616857114451,
        "distance_shoulder_pan_joint": 2.5898253319186035,
        "distance_wrist_1_joint": 1.4545179012086624,
        "distance_wrist_2_joint": 2.0515460282062663,
        "distance_wrist_3_joint": 2.631539554789971,
        "smoothness": 0.1349958443691917,
        "time": 0.083589221,
        "traj_len": 3.640361226919303,
        "weighted_distance": 4.692693565688292
    },
    "planner": "RRT",
    "start": {
        "state": {
            "elbow_joint": -1.9196185241190666,
            "shoulder_lift_joint": -1.2443396400964142,
            "shoulder_pan_joint": 2.6996025414629847,
            "wrist_1_joint": -1.5485510000780065,
            "wrist_2_joint": -1.5709468930060704,
            "wrist_3_joint": 0.4420197071253992
        }
    },
    "waypoints": [
        {
            "positions": [
                2.6996025414629847,
                -1.2443396400964142,
                -1.9196185241190666,
                -1.5485510000780065,
                -1.5709468930060704,
                0.4420197071253992
            ]
        },
        {
            "positions": [
                2.5737851057984797,
                -1.224785943010755,
                -1.8428134403192662,
                -1.5661096257608844,
                -1.4720220022839845,
                0.48736658577477315
            ]
        },
        {
            "positions": [
                2.447967670133975,
                -1.2052322459250961,
                -1.7660083565194655,
                -1.5836682514437623,
                -1.3730971115618986,
                0.5327134644241471
            ]
        },
        {
            "positions": [
                2.32215023446947,
                -1.185678548839437,
                -1.689203272719665,
                -1.6012268771266402,
                -1.2741722208398127,
                0.5780603430735212
            ]
        },
        {
            "positions": [
                2.1963327988049652,
                -1.166124851753778,
                -1.6123981889198644,
                -1.6187855028095184,
                -1.1752473301177269,
                0.6234072217228951
            ]
        },
        {
            "positions": [
                2.0705153631404607,
                -1.1465711546681188,
                -1.535593105120064,
                -1.6363441284923963,
                -1.076322439395641,
                0.668754100372269
            ]
        },
        {
            "positions": [
                1.9446979274759557,
                -1.1270174575824599,
                -1.4587880213202633,
                -1.6539027541752742,
                -0.9773975486735551,
                0.714100979021643
            ]
        },
        {
            "positions": [
                1.8188804918114507,
                -1.1074637604968007,
                -1.3819829375204629,
                -1.6714613798581521,
                -0.8784726579514692,
                0.7594478576710171
            ]
        },
        {
            "positions": [
                1.693063056146946,
                -1.0879100634111416,
                -1.3051778537206622,
                -1.68902000554103,
                -0.7795477672293833,
                0.804794736320391
            ]
        },
        {
            "positions": [
                1.5672456204824412,
                -1.0683563663254825,
                -1.2283727699208618,
                -1.706578631223908,
                -0.6806228765072974,
                0.8501416149697649
            ]
        },
        {
            "positions": [
                1.4414281848179364,
                -1.0488026692398236,
                -1.1515676861210613,
                -1.7241372569067859,
                -0.5816979857852115,
                0.895488493619139
            ]
        },
        {
            "positions": [
                1.3156107491534315,
                -1.0292489721541644,
                -1.0747626023212606,
                -1.741695882589664,
                -0.4827730950631255,
                0.940835372268513
            ]
        },
        {
            "positions": [
                1.1897933134889267,
                -1.0096952750685053,
                -0.9979575185214601,
                -1.759254508272542,
                -0.38384820434103983,
                0.9861822509178869
            ]
        },
        {
            "positions": [
                1.0639758778244217,
                -0.9901415779828463,
                -0.9211524347216594,
                -1.7768131339554198,
                -0.28492331361895373,
                1.0315291295672608
            ]
        },
        {
            "positions": [
                0.938158442159917,
                -0.9705878808971873,
                -0.8443473509218591,
                -1.7943717596382978,
                -0.18599842289686808,
                1.0768760082166349
            ]
        },
        {
            "positions": [
                0.812341006495412,
                -0.9510341838115282,
                -0.7675422671220584,
                -1.8119303853211757,
                -0.08707353217478198,
                1.122222886866009
            ]
        },
        {
            "positions": [
                0.6865235708309072,
                -0.931480486725869,
                -0.690737183322258,
                -1.8294890110040538,
                0.011851358547303681,
                1.167569765515383
            ]
        },
        {
            "positions": [
                0.5607061351664022,
                -0.91192678964021,
                -0.6139320995224573,
                -1.8470476366869317,
                0.11077624926938978,
                1.212916644164757
            ]
        },
        {
            "positions": [
                0.4348886995018977,
                -0.892373092554551,
                -0.5371270157226569,
                -1.8646062623698096,
                0.20970113999147566,
                1.2582635228141308
            ]
        },
        {
            "positions": [
                0.30907126383739264,
                -0.8728193954688919,
                -0.4603219319228561,
                -1.8821648880526876,
                0.30862603071356143,
                1.3036104014635048
            ]
        },
        {
            "positions": [
                0.29623496486903317,
                -0.8904196002485035,
                -0.3023323226419139,
                -1.8102176518283704,
                0.2984099600500269,
                1.420239229411835
            ]
        },
        {
            "positions": [
                0.2833986659006737,
                -0.9080198050281151,
                -0.14434271336097165,
                -1.7382704156040534,
                0.2881938893864923,
                1.536868057360165
            ]
        },
        {
            "positions": [
                0.27056236693231417,
                -0.9256200098077267,
                0.013646895919970592,
                -1.6663231793797362,
                0.2779778187229578,
                1.653496885308495
            ]
        },
        {
            "positions": [
                0.2577260679639547,
                -0.9432202145873383,
                0.17163650520091278,
                -1.594375943155419,
                0.2677617480594232,
                1.7701257132568249
            ]
        },
        {
            "positions": [
                0.24488976899559523,
                -0.96082041936695,
                0.32962611448185497,
                -1.522428706931102,
                0.2575456773958887,
                1.886754541205155
            ]
        },
        {
            "positions": [
                0.23205347002723573,
                -0.9784206241465615,
                0.48761572376279727,
                -1.4504814707067848,
                0.2473296067323541,
                2.003383369153485
            ]
        },
        {
            "positions": [
                0.21921717105887623,
                -0.9960208289261732,
                0.6456053330437393,
                -1.3785342344824678,
                0.23711353606881957,
                2.120012197101815
            ]
        },
        {
            "positions": [
                0.20638087209051675,
                -1.0136210337057847,
                0.8035949423246816,
                -1.3065869982581506,
                0.226897465405285,
                2.236641025050145
            ]
        },
        {
            "positions": [
                0.19354457312215728,
                -1.0312212384853963,
                0.9615845516056237,
                -1.2346397620338334,
                0.21668139474175047,
                2.3532698529984755
            ]
        },
        {
            "positions": [
                0.1807082741537978,
                -1.048821443265008,
                1.119574160886566,
                -1.1626925258095164,
                0.2064653240782159,
                2.4698986809468053
            ]
        },
        {
            "positions": [
                0.1678719751854383,
                -1.0664216480446196,
                1.2775637701675082,
                -1.0907452895851995,
                0.19624925341468136,
                2.586527508895135
            ]
        },
        {
            "positions": [
                0.1550356762170788,
                -1.0840218528242311,
                1.4355533794484505,
                -1.0187980533608822,
                0.18603318275114678,
                2.7031563368434655
            ]
        },
        {
            "positions": [
                0.14219937724871934,
                -1.101622057603843,
                1.5935429887293928,
                -0.946850817136565,
                0.17581711208761225,
                2.8197851647917953
            ]
        },
        {
            "positions": [
                0.12936307828035984,
                -1.1192222623834545,
                1.7515325980103347,
                -0.8749035809122481,
                0.1656010414240777,
                2.9364139927401256
            ]
        },
        {
            "positions": [
                0.11652677931200037,
                -1.136822467163066,
                1.909522207291277,
                -0.802956344687931,
                0.15538497076054314,
                3.0530428206884554
            ]
        },
        {
            "positions": [
                0.12327634907961978,
                -1.1375608365528147,
                1.9689208365034052,
                -0.7612608748187064,
                0.1366529262269269,
                3.07355926191537
            ]
        }
    ]
}