{
    "goal": {
        "global_pose": {
            "orientation": {
                "w": 0.7031023480610252,
                "x": -0.7110244013736278,
                "y": 0.0077485991402295624,
                "z": 0.005598929693374583
            },
            "position": {
                "x": -0.8841497679147869,
                "y": 0.44412534475326537,
                "z": 0.3711530566215515
            }
        },
        "name": "move_to_auspresseinheit_D"
    },
    "id": "RRT_move_to_auspresseinheit_D_42",
    "joint_names": [
        "shoulder_pan_joint",
        "shoulder_lift_joint",
        "elbow_joint",
        "wrist_1_joint",
        "wrist_2_joint",
        "wrist_3_joint"
    ],
    "metrics": {
        "cart_traj_len": 0.34466951512531063,
        "distance_elbow_joint": 0.6601983953572188,
        "distance_shoulder_lift_joint": 0.13337340459363567,
        "distance_shoulder_pan_joint": 0.13441565594319957,
        "distance_wrist_1_joint": 0.5980985128960632,
        "distance_wrist_2_joint": 1.4368796212928021,
        "distance_wrist_3_joint": 0.05181229331784998,
        "smoothness": 9.868649123407766e-16,
        "time": 0.012002746,
        "traj_len": 1.7363115744015443,
        "weighted_distance": 2.2701058574932875
    },
    "planner": "RRT",
    "start": {
        "state": {
            "elbow_joint": -1.8275523626775212,
            "shoulder_lift_joint": -2.126789852344167,
            "shoulder_pan_joint": -0.03513704404078235,
            "wrist_1_joint": -2.347782403156801,
            "wrist_2_joint": -1.6058999987535132,
            "wrist_3_joint": -3.0880379163319196
        }
    },
    "waypoints": [
        {
            "positions": [
                -0.03513704404078235,
                -2.126789852344167,
                -1.8275523626775212,
                -2.347782403156801,
                -1.6058999987535132,
                -3.0880379163319196
            ]
        },
        {
            "positions": [
                -0.05193900103368229,
                -2.1434615279183715,
                -1.745027563257869,
                -2.4225447172688086,
                -1.426290046091913,
                -3.081561379667188
            ]
        },
        {
            "positions": [
                -0.06874095802658224,
                -2.1601332034925758,
                -1.6625027638382166,
                -2.4973070313808168,
                -1.2466800934303126,
                -3.075084843002457
            ]
        },
        {
            "positions": [
                -0.08554291501948219,
                -2.17680487906678,
                -1.579977964418564,
                -2.5720693454928245,
                -1.0670701407687124,
                -3.068608306337726
            ]
        },
        {
            "positions": [
                -0.10234487201238213,
                -2.1934765546409847,
                -1.4974531649989118,
                -2.6468316596048327,
                -0.8874601881071121,
                -3.0621317696729946
            ]
        },
        {
            "positions": [
                -0.11914682900528209,
                -2.2101482302151894,
                -1.4149283655792595,
                -2.7215939737168404,
                -0.7078502354455118,
                -3.055655233008263
            ]
        },
        {
            "positions": [
                -0.13594878599818203,
                -2.2268199057893936,
                -1.332403566159607,
                -2.796356287828848,
                -0.5282402827839117,
                -3.049178696343532
            ]
        },
        {
            "positions": [
                -0.15275074299108196,
                -2.243491581363598,
                -1.2498787667399547,
                -2.8711186019408563,
                -0.34863033012231126,
                -3.042702159678801
            ]
        },
        {
            "positions": [
                -0.16955269998398192,
                -2.2601632569378025,
                -1.1673539673203024,
                -2.945880916052864,
                -0.16902037746071114,
                -3.0362256230140696
            ]
        }
    ]
}