{
    "goal": {
        "global_pose": {
            "orientation": {
                "w": 0.7047431493862688,
                "x": -0.7094548369677653,
                "y": 0.0024358444001904,
                "z": -0.0022348060817251984
            },
            "position": {
                "x": -0.39052492380142206,
                "y": 0.3671506643295288,
                "z": 0.19426114857196808
            }
        },
        "name": "move_to_magneteinheit_D"
    },
    "id": "RRT_move_to_magneteinheit_D_106",
    "joint_names": [
        "shoulder_pan_joint",
        "shoulder_lift_joint",
        "elbow_joint",
        "wrist_1_joint",
        "wrist_2_joint",
        "wrist_3_joint"
    ],
    "metrics": {
        "cart_traj_len": 4.394373187332289,
        "distance_elbow_joint": 3.147326128452195,
        "distance_shoulder_lift_joint": 2.0853547873074767,
        "distance_shoulder_pan_joint": 2.857143553678697,
        "distance_wrist_1_joint": 3.9932888206653967,
        "distance_wrist_2_joint": 1.8415415154597683,
        "distance_wrist_3_joint": 3.9958000018942452,
        "smoothness": 0.28841345335260293,
        "time": 0.793690058,
        "traj_len": 4.233255816444097,
        "weighted_distance": 5.634437429537349
    },
    "planner": "RRT",
    "start": {
        "state": {
            "elbow_joint": 0.749534889911806,
            "shoulder_lift_joint": -0.6476975780787326,
            "shoulder_pan_joint": -2.711696901376241,
            "wrist_1_joint": -0.07506478083263063,
            "wrist_2_joint": 0.43296659715538205,
            "wrist_3_joint": -3.14703540197715
        }
    },
    "waypoints": [
        {
            "positions": [
                -2.711696901376241,
                -0.6476975780787326,
                0.749534889911806,
                -0.07506478083263063,
                0.43296659715538205,
                -3.14703540197715
            ]
        },
        {
            "positions": [
                -2.722117729918802,
                -0.6271033296405736,
                0.7191720001505998,
                -0.12168836767715023,
                0.4685902048387012,
                -3.09339239428724
            ]
        },
        {
            "positions": [
                -2.7308543241404593,
                -0.5990264500885504,
                0.6683256193517212,
                -0.19868542971020198,
                0.5207143355206754,
                -2.999840070351337
            ]
        },
        {
            "positions": [
                -2.7395909183621163,
                -0.5709495705365273,
                0.6174792385528425,
                -0.2756824917432537,
                0.5728384662026494,
                -2.9062877464154346
            ]
        },
        {
            "positions": [
                -2.7483275125837734,
                -0.5428726909845041,
                0.5666328577539639,
                -0.3526795537763055,
                0.6249625968846236,
                -2.812735422479532
            ]
        },
        {
            "positions": [
                -2.7374378441408993,
                -0.525007996629531,
                0.5048727417441149,
                -0.43586299426118524,
                0.6726884466427477,
                -2.6930523888411395
            ]
        },
        {
            "positions": [
                -2.7265481756980248,
                -0.5071433022745578,
                0.44311262573426596,
                -0.5190464347460649,
                0.7204142964008718,
                -2.5733693552027472
            ]
        },
        {
            "positions": [
                -2.7156585072551507,
                -0.4892786079195848,
                0.38135250972441703,
                -0.6022298752309446,
                0.7681401461589958,
                -2.4536863215643554
            ]
        },
        {
            "positions": [
                -2.7047688388122766,
                -0.47141391356461165,
                0.31959239371456805,
                -0.6854133157158244,
                0.81586599591712,
                -2.334003287925963
            ]
        },
        {
            "positions": [
                -2.6938791703694025,
                -0.45354921920963853,
                0.2578322777047191,
                -0.7685967562007041,
                0.863591845675244,
                -2.214320254287571
            ]
        },
        {
            "positions": [
                -2.682989501926528,
                -0.4356845248546654,
                0.19607216169487018,
                -0.8517801966855838,
                0.9113176954333682,
                -2.0946372206491786
            ]
        },
        {
            "positions": [
                -2.672099833483654,
                -0.4178198304996923,
                0.1343120456850212,
                -0.9349636371704635,
                0.9590435451914923,
                -1.9749541870107865
            ]
        },
        {
            "positions": [
                -2.6065323002159055,
                -0.43741053647636385,
                0.056655285285352186,
                -0.962183621288661,
                1.0019250869842216,
                -1.8312416503183204
            ]
        },
        {
            "positions": [
                -2.540964766948157,
                -0.45700124245303547,
                -0.021001475114316825,
                -0.9894036054068583,
                1.044806628776951,
                -1.6875291136258541
            ]
        },
        {
            "positions": [
                -2.4545619213076213,
                -0.5030554505430218,
                -0.08465796486472611,
                -0.9451967030005198,
                1.062529942142834,
                -1.5855428601904877
            ]
        },
        {
            "positions": [
                -2.3681590756670854,
                -0.5491096586330081,
                -0.1483144546151354,
                -0.9009898005941813,
                1.080253255508717,
                -1.4835566067551211
            ]
        },
        {
            "positions": [
                -2.2817562300265495,
                -0.5951638667229944,
                -0.21197094436554467,
                -0.8567828981878428,
                1.0979765688745997,
                -1.3815703533197548
            ]
        },
        {
            "positions": [
                -2.1953533843860136,
                -0.6412180748129807,
                -0.275627434115954,
                -0.8125759957815043,
                1.1156998822404827,
                -1.2795840998843881
            ]
        },
        {
            "positions": [
                -2.1089505387454777,
                -0.6872722829029669,
                -0.33928392386636325,
                -0.7683690933751659,
                1.1334231956063656,
                -1.1775978464490218
            ]
        },
        {
            "positions": [
                -2.0225476931049418,
                -0.7333264909929531,
                -0.4029404136167725,
                -0.7241621909688274,
                1.1511465089722486,
                -1.0756115930136554
            ]
        },
        {
            "positions": [
                -1.9361448474644056,
                -0.7793806990829395,
                -0.4665969033671818,
                -0.6799552885624889,
                1.1688698223381315,
                -0.9736253395782889
            ]
        },
        {
            "positions": [
                -1.8497420018238695,
                -0.8254349071729258,
                -0.5302533931175911,
                -0.6357483861561504,
                1.1865931357040143,
                -0.8716390861429223
            ]
        },
        {
            "positions": [
                -1.7633391561833336,
                -0.8714891152629121,
                -0.5939098828680004,
                -0.5915414837498119,
                1.2043164490698972,
                -0.7696528327075559
            ]
        },
        {
            "positions": [
                -1.6769363105427977,
                -0.9175433233528983,
                -0.6575663726184097,
                -0.5473345813434733,
                1.2220397624357802,
                -0.6676665792721895
            ]
        },
        {
            "positions": [
                -1.594732701610934,
                -0.973558595473725,
                -0.7290701761944558,
                -0.4407849658225059,
                1.2150289888974173,
                -0.6041688562457599
            ]
        },
        {
            "positions": [
                -1.5125290926790704,
                -1.0295738675945516,
                -0.800573979770502,
                -0.33423535030153856,
                1.2080182153590542,
                -0.5406711332193301
            ]
        },
        {
            "positions": [
                -1.4303254837472068,
                -1.0855891397153783,
                -0.8720777833465482,
                -0.2276857347805712,
                1.2010074418206913,
                -0.4771734101929005
            ]
        },
        {
            "positions": [
                -1.3481218748153432,
                -1.141604411836205,
                -0.9435815869225943,
                -0.12113611925960377,
                1.1939966682823284,
                -0.41367568716647085
            ]
        },
        {
            "positions": [
                -1.2659182658834793,
                -1.1976196839570317,
                -1.0150853904986405,
                -0.014586503738636347,
                1.1869858947439653,
                -0.3501779641400411
            ]
        },
        {
            "positions": [
                -1.183714656951616,
                -1.2536349560778584,
                -1.0865891940746866,
                0.09196311178233096,
                1.1799751212056024,
                -0.28668024111361146
            ]
        },
        {
            "positions": [
                -1.101511048019752,
                -1.309650228198685,
                -1.1580929976507328,
                0.1985127273032985,
                1.1729643476672396,
                -0.22318251808718176
            ]
        },
        {
            "positions": [
                -1.0193074390878887,
                -1.3656655003195115,
                -1.229596801226779,
                0.3050623428242658,
                1.1659535741288765,
                -0.15968479506075217
            ]
        },
        {
            "positions": [
                -0.9371038301560248,
                -1.4216807724403382,
                -1.301100604802825,
                0.41161195834523323,
                1.1589428005905136,
                -0.09618707203432242
            ]
        },
        {
            "positions": [
                -0.8549002212241611,
                -1.4776960445611649,
                -1.3726044083788715,
                0.5181615738662007,
                1.1519320270521507,
                -0.032689349007892665
            ]
        },
        {
            "positions": [
                -0.7726966122922975,
                -1.5337113166819916,
                -1.4441082119549176,
                0.6247111893871682,
                1.1449212535137876,
                0.030808374018536977
            ]
        },
        {
            "positions": [
                -0.690493003360434,
                -1.5897265888028183,
                -1.5156120155309636,
                0.7312608049081353,
                1.1379104799754247,
                0.09430609704496662
            ]
        },
        {
            "positions": [
                -0.6082893944285703,
                -1.645741860923645,
                -1.5871158191070098,
                0.8378104204291028,
                1.1308997064370618,
                0.15780382007139626
            ]
        },
        {
            "positions": [
                -0.5260857854967065,
                -1.7017571330444716,
                -1.658619622683056,
                0.9443600359500703,
                1.1238889328986987,
                0.22130154309782601
            ]
        },
        {
            "positions": [
                -0.44388217656484286,
                -1.7577724051652983,
                -1.730123426259102,
                1.0509096514710377,
                1.1168781593603359,
                0.28479926612425566
            ]
        },
        {
            "positions": [
                -0.36167856763297945,
                -1.813787677286125,
                -1.8016272298351481,
                1.157459266992005,
                1.109867385821973,
                0.3482969891506852
            ]
        },
        {
            "positions": [
                -0.2794749587011156,
                -1.8698029494069517,
                -1.8731310334111946,
                1.2640088825129723,
                1.1028566122836099,
                0.41179471217711494
            ]
        },
        {
            "positions": [
                -0.19727134976925192,
                -1.9258182215277784,
                -1.9446348369872406,
                1.3705584980339398,
                1.095845838745247,
                0.4752924352035446
            ]
        },
        {
            "positions": [
                -0.16891989310242422,
                -1.9776670116789794,
                -2.024715968285739,
                1.4484788793415024,
                1.0077234581250638,
                0.4572208237998049
            ]
        },
        {
            "positions": [
                -0.14056843643559652,
                -2.0295158018301804,
                -2.1047970995842373,
                1.5263992606490648,
                0.9196010775048806,
                0.43914921239606514
            ]
        },
        {
            "positions": [
                -0.11221697976876881,
                -2.081364591981381,
                -2.184878230882736,
                1.6043196419566275,
                0.8314786968846974,
                0.42107760099232544
            ]
        },
        {
            "positions": [
                -0.08386552310194109,
                -2.133213382132582,
                -2.2649593621812345,
                1.6822400232641899,
                0.7433563162645143,
                0.4030059895885857
            ]
        },
        {
            "positions": [
                -0.0555140664351134,
                -2.185062172283783,
                -2.3450404934797326,
                1.7601604045717525,
                0.6552339356443311,
                0.384934378184846
            ]
        },
        {
            "positions": [
                -0.08663932147921395,
                -2.2196986736108983,
                -2.3653209921897385,
                1.7043259056078146,
                0.5091956925097726,
                0.2789709558465493
            ]
        },
        {
            "positions": [
                -0.11776457652331451,
                -2.2543351749380136,
                -2.3856014908997443,
                1.6484914066438767,
                0.36315744937521416,
                0.17300753350825254
            ]
        },
        {
            "positions": [
                -0.1504890696404663,
                -2.263816022583071,
                -2.3916963647200666,
                1.5396329125515353,
                0.26636443081581207,
                0.13741390199912346
            ]
        },
        {
            "positions": [
                -0.18321356275761808,
                -2.2732968702281284,
                -2.397791238540389,
                1.430774418459194,
                0.16957141225640998,
                0.10182027048999434
            ]
        }
    ]
}