{
    "goal": {
        "global_pose": {
            "orientation": {
                "w": 0.7031023502349854,
                "x": -0.7110244035720825,
                "y": 0.007748599164187908,
                "z": 0.005598929710686207
            },
            "position": {
                "x": 0.11585023208521307,
                "y": 0.44412534475326537,
                "z": 0.3711530566215515
            }
        },
        "name": "move_to_auspresseinheit_A"
    },
    "id": "RRT_move_to_auspresseinheit_A_150",
    "joint_names": [
        "shoulder_pan_joint",
        "shoulder_lift_joint",
        "elbow_joint",
        "wrist_1_joint",
        "wrist_2_joint",
        "wrist_3_joint"
    ],
    "metrics": {
        "cart_traj_len": 1.1239630025690748,
        "distance_elbow_joint": 0.9405538828662583,
        "distance_shoulder_lift_joint": 0.607962136415394,
        "distance_shoulder_pan_joint": 1.0428373039396481,
        "distance_wrist_1_joint": 2.9727699426006993,
        "distance_wrist_2_joint": 2.0003681004274823,
        "distance_wrist_3_joint": 1.3864588414225794,
        "smoothness": 0.6195535431578592,
        "time": 0.594124353,
        "traj_len": 2.9918138658131896,
        "weighted_distance": 4.0861970013137405
    },
    "planner": "RRT",
    "start": {
        "state": {
            "elbow_joint": 2.4225746658250005,
            "shoulder_lift_joint": -1.3736534386056498,
            "shoulder_pan_joint": -0.3378633547517467,
            "wrist_1_joint": -1.0288598680537169,
            "wrist_2_joint": 1.233022673432363,
            "wrist_3_joint": -3.0940220416140027
        }
    },
    "waypoints": [
        {
            "positions": [
                -0.3378633547517467,
                -1.3736534386056498,
                2.4225746658250005,
                -1.0288598680537169,
                1.233022673432363,
                -3.0940220416140027
            ]
        },
        {
            "positions": [
                -0.2960123159094924,
                -1.4103677598194253,
                2.386391755149014,
                -0.8965908364326676,
                1.1473888148065563,
                -3.037889050353758
            ]
        },
        {
            "positions": [
                -0.254161277067238,
                -1.4470820810332008,
                2.3502088444730274,
                -0.7643218048116182,
                1.0617549561807498,
                -2.9817560590935126
            ]
        },
        {
            "positions": [
                -0.21231023822498368,
                -1.4837964022469763,
                2.314025933797041,
                -0.6320527731905687,
                0.9761210975549431,
                -2.9256230678332678
            ]
        },
        {
            "positions": [
                -0.17045919938272935,
                -1.5205107234607518,
                2.2778430231210547,
                -0.49978374156951944,
                0.8904872389291365,
                -2.869490076573023
            ]
        },
        {
            "positions": [
                -0.12860816054047497,
                -1.5572250446745273,
                2.241660112445068,
                -0.3675147099484699,
                0.8048533803033299,
                -2.8133570853127776
            ]
        },
        {
            "positions": [
                -0.08675712169822064,
                -1.5939393658883025,
                2.2054772017690816,
                -0.2352456783274206,
                0.7192195216775232,
                -2.7572240940525328
            ]
        },
        {
            "positions": [
                -0.044906082855966256,
                -1.630653687102078,
                2.1692942910930952,
                -0.10297664670637119,
                0.6335856630517166,
                -2.701091102792288
            ]
        },
        {
            "positions": [
                -0.0030550440137119828,
                -1.6673680083158535,
                2.1331113804171085,
                0.029292384914678005,
                0.54795180442591,
                -2.6449581115320426
            ]
        },
        {
            "positions": [
                0.0387959948285424,
                -1.704082329529629,
                2.096928469741122,
                0.16156141653572753,
                0.4623179458001033,
                -2.588825120271798
            ]
        },
        {
            "positions": [
                0.08064703367079679,
                -1.7407966507434045,
                2.060745559065136,
                0.29383044815677706,
                0.3766840871742967,
                -2.5326921290115525
            ]
        },
        {
            "positions": [
                0.12249807251305106,
                -1.77751097195718,
                2.024562648389149,
                0.42609947977782614,
                0.29105022854849005,
                -2.476559137751308
            ]
        },
        {
            "positions": [
                0.1643491113553054,
                -1.8142252931709555,
                1.9883797377131627,
                0.5583685113988757,
                0.20541636992268342,
                -2.420426146491063
            ]
        },
        {
            "positions": [
                0.25468714667110864,
                -1.8503997135917836,
                1.9712438352521153,
                0.619232570809026,
                0.12708868401255377,
                -2.4428734328317683
            ]
        },
        {
            "positions": [
                0.3450251819869119,
                -1.8865741340126119,
                1.9541079327910678,
                0.6800966302191764,
                0.048760998102424125,
                -2.4653207191724738
            ]
        },
        {
            "positions": [
                0.43536321730271516,
                -1.92274855443344,
                1.9369720303300204,
                0.7409606896293268,
                -0.029566687807705536,
                -2.4877680055131792
            ]
        },
        {
            "positions": [
                0.4831657879299921,
                -1.9271904021153887,
                1.9885776216426196,
                0.6157493770265416,
                0.020793312173308084,
                -2.5574099694957972
            ]
        },
        {
            "positions": [
                0.5309683585572691,
                -1.9316322497973373,
                2.0401832129552187,
                0.4905380644237564,
                0.0711533121543217,
                -2.6270519334784153
            ]
        },
        {
            "positions": [
                0.578770929184546,
                -1.936074097479286,
                2.091788804267818,
                0.36532675182097124,
                0.1215133121353353,
                -2.696693897461033
            ]
        },
        {
            "positions": [
                0.6265734998118231,
                -1.9405159451612346,
                2.143394395580417,
                0.240115439218186,
                0.17187331211634893,
                -2.766335861443651
            ]
        },
        {
            "positions": [
                0.6743760704391,
                -1.9449577928431834,
                2.1949999868930163,
                0.11490412661540086,
                0.22223331209736252,
                -2.835977825426269
            ]
        },
        {
            "positions": [
                0.6804956461888602,
                -1.9376262364076113,
                2.2343846450546727,
                -0.0004744377653449483,
                0.31942905995383164,
                -2.8954400788991554
            ]
        },
        {
            "positions": [
                0.6866152219386203,
                -1.9302946799720393,
                2.273769303216329,
                -0.11585300214609076,
                0.4166248078103008,
                -2.954902332372042
            ]
        },
        {
            "positions": [
                0.6927347976883805,
                -1.922963123536467,
                2.313153961377986,
                -0.23123156652683655,
                0.5138205556667699,
                -3.014364585844929
            ]
        },
        {
            "positions": [
                0.6988543734381407,
                -1.915631567100895,
                2.3525386195396423,
                -0.3466101309075824,
                0.6110163035232391,
                -3.0738268393178156
            ]
        },
        {
            "positions": [
                0.7049739491879009,
                -1.908300010665323,
                2.3919232777012986,
                -0.46198869528832814,
                0.7082120513797082,
                -3.1332890927907022
            ]
        }
    ]
}