{
    "goal": {
        "global_pose": {
            "orientation": {
                "w": 0.7031023502349854,
                "x": -0.7110244035720825,
                "y": 0.007748599164187908,
                "z": 0.005598929710686207
            },
            "position": {
                "x": 0.11585023208521307,
                "y": 0.44412534475326537,
                "z": 0.3711530566215515
            }
        },
        "name": "move_to_auspresseinheit_A"
    },
    "id": "RRT_move_to_auspresseinheit_A_118",
    "joint_names": [
        "shoulder_pan_joint",
        "shoulder_lift_joint",
        "elbow_joint",
        "wrist_1_joint",
        "wrist_2_joint",
        "wrist_3_joint"
    ],
    "metrics": {
        "cart_traj_len": 2.7843456347466975,
        "distance_elbow_joint": 0.8350645889460004,
        "distance_shoulder_lift_joint": 0.5343835283744454,
        "distance_shoulder_pan_joint": 6.447441979825551,
        "distance_wrist_1_joint": 0.7785196409262123,
        "distance_wrist_2_joint": 1.589565397641801,
        "distance_wrist_3_joint": 12.768270388265398,
        "smoothness": 0.5523066931903529,
        "time": 0.872408776,
        "traj_len": 4.790954552485276,
        "weighted_distance": 7.131470489252425
    },
    "planner": "RRT",
    "start": {
        "state": {
            "elbow_joint": 2.4225746658250005,
            "shoulder_lift_joint": -1.3736534386056498,
            "shoulder_pan_joint": -0.3378633547517467,
            "wrist_1_joint": -1.0288598680537169,
            "wrist_2_joint": 1.233022673432363,
            "wrist_3_joint": -3.0940220416140027
        }
    },
    "waypoints": [
        {
            "positions": [
                -0.3378633547517467,
                -1.3736534386056498,
                2.4225746658250005,
                -1.0288598680537169,
                1.233022673432363,
                -3.0940220416140027
            ]
        },
        {
            "positions": [
                -0.4378637798796032,
                -1.386126269450977,
                2.437465522784549,
                -1.0327272859150511,
                1.253003875739713,
                -2.858608396325863
            ]
        },
        {
            "positions": [
                -0.5378642050074596,
                -1.398599100296304,
                2.452356379744098,
                -1.0365947037763856,
                1.2729850780470633,
                -2.623194751037724
            ]
        },
        {
            "positions": [
                -0.6378646301353161,
                -1.4110719311416313,
                2.4672472367036464,
                -1.04046212163772,
                1.2929662803544133,
                -2.387781105749584
            ]
        },
        {
            "positions": [
                -0.7378650552631725,
                -1.4235447619869583,
                2.482138093663195,
                -1.0443295394990542,
                1.3129474826617633,
                -2.152367460461445
            ]
        },
        {
            "positions": [
                -0.837865480391029,
                -1.4360175928322856,
                2.4970289506227434,
                -1.0481969573603884,
                1.3329286849691133,
                -1.9169538151733052
            ]
        },
        {
            "positions": [
                -0.9378659055188854,
                -1.4484904236776126,
                2.5119198075822924,
                -1.052064375221723,
                1.3529098872764633,
                -1.6815401698851657
            ]
        },
        {
            "positions": [
                -1.037866330646742,
                -1.4609632545229398,
                2.526810664541841,
                -1.0559317930830572,
                1.3728910895838136,
                -1.4461265245970263
            ]
        },
        {
            "positions": [
                -1.1378667557745983,
                -1.4734360853682669,
                2.5417015215013894,
                -1.0597992109443914,
                1.3928722918911636,
                -1.2107128793088866
            ]
        },
        {
            "positions": [
                -1.2378671809024548,
                -1.4859089162135941,
                2.556592378460938,
                -1.063666628805726,
                1.4128534941985136,
                -0.9752992340207474
            ]
        },
        {
            "positions": [
                -1.3378676060303112,
                -1.4983817470589211,
                2.571483235420487,
                -1.0675340466670602,
                1.4328346965058638,
                -0.7398855887326077
            ]
        },
        {
            "positions": [
                -1.4378680311581677,
                -1.5108545779042484,
                2.5863740923800353,
                -1.0714014645283945,
                1.4528158988132138,
                -0.504471943444468
            ]
        },
        {
            "positions": [
                -1.537868456286024,
                -1.5233274087495754,
                2.601264949339584,
                -1.075268882389729,
                1.4727971011205638,
                -0.26905829815632876
            ]
        },
        {
            "positions": [
                -1.6378688814138807,
                -1.5358002395949026,
                2.6161558062991324,
                -1.0791363002510632,
                1.4927783034279138,
                -0.03364465286818907
            ]
        },
        {
            "positions": [
                -1.737869306541737,
                -1.5482730704402297,
                2.6310466632586813,
                -1.0830037181123975,
                1.5127595057352639,
                0.20176899241995017
            ]
        },
        {
            "positions": [
                -1.8378697316695938,
                -1.560745901285557,
                2.64593752021823,
                -1.0868711359737318,
                1.532740708042614,
                0.4371826377080903
            ]
        },
        {
            "positions": [
                -1.93787015679745,
                -1.573218732130884,
                2.6608283771777783,
                -1.0907385538350662,
                1.552721910349964,
                0.6725962829962295
            ]
        },
        {
            "positions": [
                -2.037870581925307,
                -1.5856915629762112,
                2.675719234137327,
                -1.0946059716964005,
                1.5727031126573143,
                0.9080099282843692
            ]
        },
        {
            "positions": [
                -2.137871007053163,
                -1.5981643938215382,
                2.6906100910968758,
                -1.0984733895577348,
                1.5926843149646643,
                1.143423573572508
            ]
        },
        {
            "positions": [
                -2.2378714321810196,
                -1.6106372246668654,
                2.7055009480564243,
                -1.1023408074190693,
                1.6126655172720143,
                1.3788372188606486
            ]
        },
        {
            "positions": [
                -2.3378718573088757,
                -1.6231100555121925,
                2.7203918050159728,
                -1.1062082252804035,
                1.6326467195793644,
                1.6142508641487874
            ]
        },
        {
            "positions": [
                -2.4378722824367323,
                -1.6355828863575197,
                2.7352826619755213,
                -1.1100756431417378,
                1.6526279218867144,
                1.849664509436927
            ]
        },
        {
            "positions": [
                -2.537872707564589,
                -1.6480557172028467,
                2.7501735189350702,
                -1.1139430610030723,
                1.6726091241940644,
                2.0850781547250667
            ]
        },
        {
            "positions": [
                -2.6378731326924454,
                -1.660528548048174,
                2.7650643758946187,
                -1.1178104788644065,
                1.6925903265014146,
                2.3204918000132064
            ]
        },
        {
            "positions": [
                -2.7378735578203015,
                -1.673001378893501,
                2.7799552328541672,
                -1.1216778967257408,
                1.7125715288087646,
                2.5559054453013452
            ]
        },
        {
            "positions": [
                -2.837873982948158,
                -1.6854742097388282,
                2.794846089813716,
                -1.125545314587075,
                1.7325527311161149,
                2.791319090589485
            ]
        },
        {
            "positions": [
                -2.9378744080760146,
                -1.6979470405841552,
                2.8097369467732647,
                -1.1294127324484096,
                1.7525339334234649,
                3.0267327358776246
            ]
        },
        {
            "positions": [
                -3.037874833203871,
                -1.7104198714294825,
                2.824627803732813,
                -1.1332801503097438,
                1.7725151357308149,
                3.262146381165764
            ]
        },
        {
            "positions": [
                -2.9207676300359515,
                -1.7165954056654391,
                2.81109619588787,
                -1.1122145453513006,
                1.7397003565013351,
                3.061768194744338
            ]
        },
        {
            "positions": [
                -2.8036604268680323,
                -1.7227709399013957,
                2.7975645880429263,
                -1.0911489403928571,
                1.7068855772718556,
                2.8613900083229122
            ]
        },
        {
            "positions": [
                -2.6865532237001126,
                -1.7289464741373524,
                2.784032980197983,
                -1.070083335434414,
                1.674070798042376,
                2.661011821901486
            ]
        },
        {
            "positions": [
                -2.569446020532193,
                -1.735122008373309,
                2.77050137235304,
                -1.0490177304759707,
                1.6412560188128964,
                2.46063363548006
            ]
        },
        {
            "positions": [
                -2.4523388173642733,
                -1.7412975426092656,
                2.756969764508096,
                -1.0279521255175275,
                1.6084412395834167,
                2.260255449058634
            ]
        },
        {
            "positions": [
                -2.335231614196354,
                -1.7474730768452225,
                2.743438156663153,
                -1.006886520559084,
                1.575626460353937,
                2.059877262637208
            ]
        },
        {
            "positions": [
                -2.2181244110284344,
                -1.753648611081179,
                2.7299065488182097,
                -0.9858209156006408,
                1.5428116811244574,
                1.8594990762157826
            ]
        },
        {
            "positions": [
                -2.101017207860515,
                -1.7598241453171357,
                2.7163749409732665,
                -0.9647553106421975,
                1.5099969018949777,
                1.6591208897943566
            ]
        },
        {
            "positions": [
                -1.9839100046925955,
                -1.7659996795530923,
                2.702843333128323,
                -0.9436897056837542,
                1.4771821226654982,
                1.4587427033729305
            ]
        },
        {
            "positions": [
                -1.8668028015246758,
                -1.772175213789049,
                2.6893117252833796,
                -0.9226241007253109,
                1.4443673434360185,
                1.2583645169515045
            ]
        },
        {
            "positions": [
                -1.7496955983567564,
                -1.7783507480250056,
                2.6757801174384364,
                -0.9015584957668676,
                1.4115525642065387,
                1.057986330530079
            ]
        },
        {
            "positions": [
                -1.632588395188837,
                -1.7845262822609622,
                2.6622485095934927,
                -0.8804928908084243,
                1.378737784977059,
                0.8576081441086529
            ]
        },
        {
            "positions": [
                -1.5154811920209172,
                -1.7907018164969188,
                2.6487169017485495,
                -0.859427285849981,
                1.3459230057475795,
                0.6572299576872269
            ]
        },
        {
            "positions": [
                -1.3983739888529978,
                -1.7968773507328755,
                2.6351852939036062,
                -0.8383616808915377,
                1.3131082265180998,
                0.45685177126580134
            ]
        },
        {
            "positions": [
                -1.2812667856850781,
                -1.803052884968832,
                2.6216536860586626,
                -0.8172960759330945,
                1.2802934472886203,
                0.2564735848443753
            ]
        },
        {
            "positions": [
                -1.1641595825171587,
                -1.8092284192047887,
                2.6081220782137193,
                -0.7962304709746512,
                1.2474786680591405,
                0.056095398422949305
            ]
        },
        {
            "positions": [
                -1.0470523793492392,
                -1.8154039534407456,
                2.594590470368776,
                -0.7751648660162078,
                1.2146638888296608,
                -0.1442827879984767
            ]
        },
        {
            "positions": [
                -0.9299451761813198,
                -1.8215794876767022,
                2.5810588625238324,
                -0.7540992610577646,
                1.1818491096001813,
                -0.34466097441990273
            ]
        },
        {
            "positions": [
                -0.8128379730134001,
                -1.8277550219126588,
                2.567527254678889,
                -0.7330336560993214,
                1.1490343303707016,
                -0.5450391608413283
            ]
        },
        {
            "positions": [
                -0.6957307698454804,
                -1.8339305561486154,
                2.553995646833946,
                -0.711968051140878,
                1.116219551141222,
                -0.7454173472627548
            ]
        },
        {
            "positions": [
                -0.5786235666775612,
                -1.840106090384572,
                2.5404640389890023,
                -0.6909024461824347,
                1.0834047719117423,
                -0.9457955336841803
            ]
        },
        {
            "positions": [
                -0.46151636350964154,
                -1.8462816246205287,
                2.526932431144059,
                -0.6698368412239915,
                1.0505899926822626,
                -1.146173720105606
            ]
        },
        {
            "positions": [
                -0.34440916034172186,
                -1.8524571588564853,
                2.513400823299116,
                -0.6487712362655481,
                1.0177752134527829,
                -1.3465519065270324
            ]
        },
        {
            "positions": [
                -0.22730195717380264,
                -1.858632693092442,
                2.499869215454172,
                -0.6277056313071048,
                0.9849604342233034,
                -1.546930092948458
            ]
        },
        {
            "positions": [
                -0.11019475400588297,
                -1.8648082273283986,
                2.486337607609229,
                -0.6066400263486615,
                0.9521456549938238,
                -1.7473082793698835
            ]
        },
        {
            "positions": [
                0.0069124491620367046,
                -1.8709837615643554,
                2.4728059997642857,
                -0.5855744213902182,
                0.9193308757643441,
                -1.94768646579131
            ]
        },
        {
            "positions": [
                0.12401965232995638,
                -1.877159295800312,
                2.459274391919342,
                -0.564508816431775,
                0.8865160965348644,
                -2.1480646522127356
            ]
        },
        {
            "positions": [
                0.2411268554978756,
                -1.8833348300362687,
                2.445742784074399,
                -0.5434432114733316,
                0.8537013173053848,
                -2.348442838634161
            ]
        },
        {
            "positions": [
                0.3582340586657953,
                -1.8895103642722253,
                2.4322111762294556,
                -0.5223776065148884,
                0.8208865380759052,
                -2.5488210250555876
            ]
        },
        {
            "positions": [
                0.47534126183371495,
                -1.895685898508182,
                2.4186795683845124,
                -0.5013120015564451,
                0.7880717588464254,
                -2.749199211477013
            ]
        },
        {
            "positions": [
                0.5924484650016342,
                -1.9018614327441385,
                2.4051479605395687,
                -0.48024639659800183,
                0.7552569796169459,
                -2.9495773978984396
            ]
        },
        {
            "positions": [
                0.7095556681695538,
                -1.9080369669800952,
                2.3916163526946255,
                -0.45918079163955844,
                0.7224422003874662,
                -3.1499555843198648
            ]
        }
    ]
}