{
    "goal": {
        "global_pose": {
            "orientation": {
                "w": -0.4816463035849501,
                "x": 0.5182115481033762,
                "y": 0.4908360881923453,
                "z": -0.5084816262002911
            },
            "position": {
                "x": -0.8240239810943604,
                "y": -0.300875300988555,
                "z": 0.16403168439865112
            }
        },
        "name": "move_to_storage_C"
    },
    "id": "RRT_move_to_storage_C_140",
    "joint_names": [
        "shoulder_pan_joint",
        "shoulder_lift_joint",
        "elbow_joint",
        "wrist_1_joint",
        "wrist_2_joint",
        "wrist_3_joint"
    ],
    "metrics": {
        "cart_traj_len": 0.5760355632830543,
        "distance_elbow_joint": 0.25339576739341263,
        "distance_shoulder_lift_joint": 0.18787343032989035,
        "distance_shoulder_pan_joint": 0.4959158413759197,
        "distance_wrist_1_joint": 0.06799840886603603,
        "distance_wrist_2_joint": 1.0596209880760745,
        "distance_wrist_3_joint": 0.06668682416295857,
        "smoothness": 0.0,
        "time": 0.010955388,
        "traj_len": 1.4599627598689948,
        "weighted_distance": 1.8418697851564643
    },
    "planner": "RRT",
    "start": {
        "state": {
            "elbow_joint": 2.010868314990456,
            "shoulder_lift_joint": -1.1634956873337592,
            "shoulder_pan_joint": -2.4736205022346125,
            "wrist_1_joint": -0.8367026794202681,
            "wrist_2_joint": 0.6746043897044499,
            "wrist_3_joint": -3.1496632123970403
        }
    },
    "waypoints": [
        {
            "positions": [
                -2.4736205022346125,
                -1.1634956873337592,
                2.010868314990456,
                -0.8367026794202681,
                0.6746043897044499,
                -3.1496632123970403
            ]
        },
        {
            "positions": [
                -2.5562731424639322,
                -1.132183448945444,
                1.9686356870915538,
                -0.8253696112759288,
                0.851207887717129,
                -3.1385487417032136
            ]
        },
        {
            "positions": [
                -2.6389257826932524,
                -1.100871210557129,
                1.9264030591926515,
                -0.8140365431315895,
                1.0278113857298081,
                -3.1274342710093874
            ]
        },
        {
            "positions": [
                -2.7215784229225726,
                -1.0695589721688141,
                1.8841704312937495,
                -0.8027034749872501,
                1.204414883742487,
                -3.116319800315561
            ]
        },
        {
            "positions": [
                -2.8042310631518923,
                -1.038246733780499,
                1.8419378033948475,
                -0.7913704068429107,
                1.3810183817551662,
                -3.1052053296217346
            ]
        },
        {
            "positions": [
                -2.886883703381212,
                -1.006934495392184,
                1.7997051754959452,
                -0.7800373386985714,
                1.5576218797678454,
                -3.094090858927908
            ]
        },
        {
            "positions": [
                -2.969536343610532,
                -0.9756222570038688,
                1.7574725475970432,
                -0.7687042705542321,
                1.7342253777805245,
                -3.0829763882340817
            ]
        }
    ]
}