{
    "goal": {
        "global_pose": {
            "orientation": {
                "w": 0.5084816217422485,
                "x": -0.49083608388900757,
                "y": 0.5182115435600281,
                "z": -0.4816462993621826
            },
            "position": {
                "x": 0.5540239810943604,
                "y": 0.030875300988554955,
                "z": 0.16403168439865112
            }
        },
        "name": "move_to_storage_A"
    },
    "id": "RRT_move_to_storage_A_112",
    "joint_names": [
        "shoulder_pan_joint",
        "shoulder_lift_joint",
        "elbow_joint",
        "wrist_1_joint",
        "wrist_2_joint",
        "wrist_3_joint"
    ],
    "metrics": {
        "cart_traj_len": 0.35406118732459974,
        "distance_elbow_joint": 0.4529006240608131,
        "distance_shoulder_lift_joint": 0.23248686636638416,
        "distance_shoulder_pan_joint": 0.4604994337960625,
        "distance_wrist_1_joint": 0.2617087674501061,
        "distance_wrist_2_joint": 1.1103771308395898,
        "distance_wrist_3_joint": 0.10766821752650646,
        "smoothness": 4.440892098500626e-16,
        "time": 0.012101144,
        "traj_len": 1.620382991776778,
        "weighted_distance": 2.0525748155383208
    },
    "planner": "RRT",
    "start": {
        "state": {
            "elbow_joint": 1.971548259319323,
            "shoulder_lift_joint": -1.1394851275133948,
            "shoulder_pan_joint": 0.1228115487234821,
            "wrist_1_joint": -0.7804723859257726,
            "wrist_2_joint": 0.12958671773740124,
            "wrist_3_joint": -3.192489227718131
        }
    },
    "waypoints": [
        {
            "positions": [
                0.1228115487234821,
                -1.1394851275133948,
                1.971548259319323,
                -0.7804723859257726,
                0.12958671773740124,
                -3.192489227718131
            ]
        },
        {
            "positions": [
                0.05702591532404461,
                -1.172697536994307,
                2.0362483484708678,
                -0.8178593527043592,
                0.2882120221430569,
                -3.177108053785773
            ]
        },
        {
            "positions": [
                -0.008759718075392886,
                -1.2059099464752188,
                2.1009484376224123,
                -0.8552463194829458,
                0.44683732654871255,
                -3.161726879853415
            ]
        },
        {
            "positions": [
                -0.07454535147483038,
                -1.2391223559561308,
                2.1656485267739574,
                -0.8926332862615324,
                0.6054626309543683,
                -3.146345705921057
            ]
        },
        {
            "positions": [
                -0.14033098487426787,
                -1.272334765437043,
                2.230348615925502,
                -0.9300202530401189,
                0.764087935360024,
                -3.130964531988699
            ]
        },
        {
            "positions": [
                -0.20611661827370542,
                -1.305547174917955,
                2.2950487050770465,
                -0.9674072198187056,
                0.9227132397656796,
                -3.115583358056341
            ]
        },
        {
            "positions": [
                -0.27190225167314286,
                -1.3387595843988669,
                2.3597487942285915,
                -1.004794186597292,
                1.0813385441713352,
                -3.1002021841239826
            ]
        },
        {
            "positions": [
                -0.3376878850725804,
                -1.371971993879779,
                2.424448883380136,
                -1.0421811533758787,
                1.239963848576991,
                -3.0848210101916247
            ]
        }
    ]
}{
    "goal": {
        "global_pose": {
            "orientation": {
                "w": 0.5084816217422485,
                "x": -0.49083608388900757,
                "y": 0.5182115435600281,
                "z": -0.4816462993621826
            },
            "position": {
                "x": 0.5540239810943604,
                "y": 0.030875300988554955,
                "z": 0.16403168439865112
            }
        },
        "name": "move_to_storage_A"
    },
    "id": "RRT_move_to_storage_A_112",
    "joint_names": [
        "shoulder_pan_joint",
        "shoulder_lift_joint",
        "elbow_joint",
        "wrist_1_joint",
        "wrist_2_joint",
        "wrist_3_joint"
    ],
    "metrics": {
        "cart_traj_len": 0.3535008451049259,
        "distance_elbow_joint": 0.44919638615481183,
        "distance_shoulder_lift_joint": 0.2334184048666148,
        "distance_shoulder_pan_joint": 0.4596559611197009,
        "distance_wrist_1_joint": 0.24202154674285814,
        "distance_wrist_2_joint": 1.1101615942771077,
        "distance_wrist_3_joint": 0.10007442983234416,
        "smoothness": 4.440892098500626e-16,
        "time": 0.024189417999999997,
        "traj_len": 1.6107539610360848,
        "weighted_distance": 2.0363841296960876
    },
    "planner": "RRT",
    "start": {
        "state": {
            "elbow_joint": 1.97154746011099,
            "shoulder_lift_joint": -1.13948474672311,
            "shoulder_pan_joint": 0.12281154466712228,
            "wrist_1_joint": -0.7804688027058302,
            "wrist_2_joint": 0.12958655903071145,
            "wrist_3_joint": 3.0906928834467795
        }
    },
    "waypoints": [
        {
            "positions": [
                0.12281154466712228,
                -1.13948474672311,
                1.97154746011099,
                -0.7804688027058302,
                0.12958655903071145,
                3.0906928834467795
            ]
        },
        {
            "positions": [
                0.05714640736430787,
                -1.1728302331326264,
                2.0357183724188204,
                -0.8150433093833813,
                0.2881810724988697,
                3.104989230565686
            ]
        },
        {
            "positions": [
                -0.008518729938506539,
                -1.2061757195421428,
                2.0998892847266504,
                -0.8496178160609325,
                0.44677558596702793,
                3.1192855776845922
            ]
        },
        {
            "positions": [
                -0.07418386724132096,
                -1.2395212059516592,
                2.164060197034481,
                -0.8841923227384837,
                0.6053700994351862,
                3.1335819248034986
            ]
        },
        {
            "positions": [
                -0.13984900454413535,
                -1.2728666923611756,
                2.228231109342311,
                -0.9187668294160348,
                0.7639646129033444,
                3.1478782719224045
            ]
        },
        {
            "positions": [
                -0.20551414184694977,
                -1.306212178770692,
                2.2924020216501413,
                -0.9533413360935861,
                0.9225591263715027,
                3.162174619041311
            ]
        },
        {
            "positions": [
                -0.2711792791497642,
                -1.3395576651802084,
                2.3565729339579713,
                -0.9879158427711372,
                1.0811536398396608,
                3.1764709661602173
            ]
        },
        {
            "positions": [
                -0.3368444164525786,
                -1.3729031515897248,
                2.4207438462658017,
                -1.0224903494486883,
                1.2397481533078192,
                3.1907673132791237
            ]
        }
    ]
}{
    "goal": {
        "global_pose": {
            "orientation": {
                "w": 0.5084816217422485,
                "x": -0.49083608388900757,
                "y": 0.5182115435600281,
                "z": -0.4816462993621826
            },
            "position": {
                "x": 0.5540239810943604,
                "y": 0.030875300988554955,
                "z": 0.16403168439865112
            }
        },
        "name": "move_to_storage_A"
    },
    "id": "RRT_move_to_storage_A_112",
    "joint_names": [
        "shoulder_pan_joint",
        "shoulder_lift_joint",
        "elbow_joint",
        "wrist_1_joint",
        "wrist_2_joint",
        "wrist_3_joint"
    ],
    "metrics": {
        "cart_traj_len": 0.3534732897140114,
        "distance_elbow_joint": 0.4500920618617599,
        "distance_shoulder_lift_joint": 0.23394967564465752,
        "distance_shoulder_pan_joint": 0.46005440801414565,
        "distance_wrist_1_joint": 0.24315595003319346,
        "distance_wrist_2_joint": 1.1087718505193689,
        "distance_wrist_3_joint": 0.08932890885027112,
        "smoothness": 2.2204460668324854e-16,
        "time": 0.02340788,
        "traj_len": 1.607903247998273,
        "weighted_distance": 2.028777581002043
    },
    "planner": "RRT",
    "start": {
        "state": {
            "elbow_joint": 1.9715472970024885,
            "shoulder_lift_joint": -1.1394870060712896,
            "shoulder_pan_joint": 0.12281152778156021,
            "wrist_1_joint": -0.780463741449964,
            "wrist_2_joint": 0.12958659822042276,
            "wrist_3_joint": 3.090690232415272
        }
    },
    "waypoints": [
        {
            "positions": [
                0.12281152778156021,
                -1.1394870060712896,
                1.9715472970024885,
                -0.780463741449964,
                0.12958659822042276,
                3.090690232415272
            ]
        },
        {
            "positions": [
                0.057089469493825123,
                -1.1729083883062408,
                2.03584616298274,
                -0.8152003057404202,
                0.2879825768660469,
                3.103451505108168
            ]
        },
        {
            "positions": [
                -0.008632588793909962,
                -1.2063297705411917,
                2.1001450289629915,
                -0.8499368700308764,
                0.44637855551167105,
                3.1162127778010635
            ]
        },
        {
            "positions": [
                -0.07435464708164505,
                -1.239751152776143,
                2.164443894943243,
                -0.8846734343213326,
                0.6047745341572951,
                3.1289740504939596
            ]
        },
        {
            "positions": [
                -0.14007670536938013,
                -1.2731725350110938,
                2.228742760923494,
                -0.9194099986117888,
                0.7631705128029193,
                3.1417353231868552
            ]
        },
        {
            "positions": [
                -0.20579876365711527,
                -1.306593917246045,
                2.2930416269037455,
                -0.954146562902245,
                0.9215664914485434,
                3.1544965958797513
            ]
        },
        {
            "positions": [
                -0.2715208219448503,
                -1.340015299480996,
                2.357340492883997,
                -0.9888831271927012,
                1.0799624700941675,
                3.167257868572647
            ]
        },
        {
            "positions": [
                -0.3372428802325854,
                -1.3734366817159471,
                2.4216393588642484,
                -1.0236196914831575,
                1.2383584487397916,
                3.180019141265543
            ]
        }
    ]
}