{
    "goal": {
        "global_pose": {
            "orientation": {
                "w": 0.5084816217422485,
                "x": -0.49083608388900757,
                "y": 0.5182115435600281,
                "z": -0.4816462993621826
            },
            "position": {
                "x": 0.5540239810943604,
                "y": 0.030875300988554955,
                "z": 0.16403168439865112
            }
        },
        "name": "move_to_storage_A"
    },
    "id": "RRT_move_to_storage_A_100",
    "joint_names": [
        "shoulder_pan_joint",
        "shoulder_lift_joint",
        "elbow_joint",
        "wrist_1_joint",
        "wrist_2_joint",
        "wrist_3_joint"
    ],
    "metrics": {
        "cart_traj_len": 0.3530188180431306,
        "distance_elbow_joint": 0.45439093129476604,
        "distance_shoulder_lift_joint": 0.2354378321729289,
        "distance_shoulder_pan_joint": 0.4633975403612733,
        "distance_wrist_1_joint": 0.25664062130909093,
        "distance_wrist_2_joint": 1.0923204792037005,
        "distance_wrist_3_joint": 0.10485778047806882,
        "smoothness": 2.2204460668324854e-16,
        "time": 0.012952828000000001,
        "traj_len": 1.614634690826327,
        "weighted_distance": 2.041010006415637
    },
    "planner": "RRT",
    "start": {
        "state": {
            "elbow_joint": 1.971548259319323,
            "shoulder_lift_joint": -1.1394851275133948,
            "shoulder_pan_joint": 0.1228115487234821,
            "wrist_1_joint": -0.7804723859257726,
            "wrist_2_joint": 0.12958671773740124,
            "wrist_3_joint": -3.192489227718131
        }
    },
    "waypoints": [
        {
            "positions": [
                0.1228115487234821,
                -1.1394851275133948,
                1.971548259319323,
                -0.7804723859257726,
                0.12958671773740124,
                -3.192489227718131
            ]
        },
        {
            "positions": [
                0.05661190010044306,
                -1.173119103538099,
                2.0364612495042897,
                -0.8171353318270713,
                0.28563250048078703,
                -3.177509544792693
            ]
        },
        {
            "positions": [
                -0.009587748522595974,
                -1.206753079562803,
                2.1013742396892563,
                -0.85379827772837,
                0.4416782832241728,
                -3.162529861867254
            ]
        },
        {
            "positions": [
                -0.07578739714563501,
                -1.2403870555875072,
                2.166287229874223,
                -0.8904612236296687,
                0.5977240659675586,
                -3.147550178941816
            ]
        },
        {
            "positions": [
                -0.14198704576867405,
                -1.2740210316122114,
                2.2312002200591894,
                -0.9271241695309674,
                0.7537698487109443,
                -3.1325704960163776
            ]
        },
        {
            "positions": [
                -0.2081866943917131,
                -1.3076550076369156,
                2.296113210244156,
                -0.9637871154322661,
                0.9098156314543302,
                -3.1175908130909393
            ]
        },
        {
            "positions": [
                -0.2743863430147521,
                -1.3412889836616195,
                2.3610262004291225,
                -1.0004500613335647,
                1.0658614141977159,
                -3.1026111301655006
            ]
        },
        {
            "positions": [
                -0.3405859916377912,
                -1.3749229596863237,
                2.425939190614089,
                -1.0371130072348635,
                1.2219071969411017,
                -3.0876314472400623
            ]
        }
    ]
}{
    "goal": {
        "global_pose": {
            "orientation": {
                "w": 0.5084816217422485,
                "x": -0.49083608388900757,
                "y": 0.5182115435600281,
                "z": -0.4816462993621826
            },
            "position": {
                "x": 0.5540239810943604,
                "y": 0.030875300988554955,
                "z": 0.16403168439865112
            }
        },
        "name": "move_to_storage_A"
    },
    "id": "RRT_move_to_storage_A_100",
    "joint_names": [
        "shoulder_pan_joint",
        "shoulder_lift_joint",
        "elbow_joint",
        "wrist_1_joint",
        "wrist_2_joint",
        "wrist_3_joint"
    ],
    "metrics": {
        "cart_traj_len": 0.35383414531806073,
        "distance_elbow_joint": 0.4486945659474366,
        "distance_shoulder_lift_joint": 0.23680396772702839,
        "distance_shoulder_pan_joint": 0.46208960239567737,
        "distance_wrist_1_joint": 0.23292120133103866,
        "distance_wrist_2_joint": 1.1039651495479892,
        "distance_wrist_3_joint": 0.08754864257939987,
        "smoothness": 4.440892133664971e-16,
        "time": 0.011978470000000001,
        "traj_len": 1.603752826818575,
        "weighted_distance": 2.020892566557262
    },
    "planner": "RRT",
    "start": {
        "state": {
            "elbow_joint": 1.97154746011099,
            "shoulder_lift_joint": -1.13948474672311,
            "shoulder_pan_joint": 0.12281154466712228,
            "wrist_1_joint": -0.7804688027058302,
            "wrist_2_joint": 0.12958655903071145,
            "wrist_3_joint": 3.0906928834467795
        }
    },
    "waypoints": [
        {
            "positions": [
                0.12281154466712228,
                -1.13948474672311,
                1.97154746011099,
                -0.7804688027058302,
                0.12958655903071145,
                3.0906928834467795
            ]
        },
        {
            "positions": [
                0.05679874432488266,
                -1.1733138849698284,
                2.0356466838177667,
                -0.8137432600388357,
                0.2872958661089956,
                3.103199832386694
            ]
        },
        {
            "positions": [
                -0.009214056017356961,
                -1.2071430232165465,
                2.099745907524543,
                -0.8470177173718412,
                0.4450051731872797,
                3.115706781326608
            ]
        },
        {
            "positions": [
                -0.07522685635959657,
                -1.240972161463265,
                2.16384513123132,
                -0.8802921747048468,
                0.602714480265564,
                3.1282137302665225
            ]
        },
        {
            "positions": [
                -0.1412396567018362,
                -1.2748012997099833,
                2.2279443549380966,
                -0.9135666320378523,
                0.7604237873438481,
                3.1407206792064364
            ]
        },
        {
            "positions": [
                -0.20725245704407586,
                -1.3086304379567018,
                2.2920435786448734,
                -0.9468410893708579,
                0.9181330944221323,
                3.1532276281463507
            ]
        },
        {
            "positions": [
                -0.2732652573863154,
                -1.34245957620342,
                2.3561428023516497,
                -0.9801155467038634,
                1.0758424015004164,
                3.165734577086265
            ]
        },
        {
            "positions": [
                -0.33927805772855507,
                -1.3762887144501383,
                2.4202420260584265,
                -1.0133900040368689,
                1.2335517085787007,
                3.1782415260261794
            ]
        }
    ]
}{
    "goal": {
        "global_pose": {
            "orientation": {
                "w": 0.5084816217422485,
                "x": -0.49083608388900757,
                "y": 0.5182115435600281,
                "z": -0.4816462993621826
            },
            "position": {
                "x": 0.5540239810943604,
                "y": 0.030875300988554955,
                "z": 0.16403168439865112
            }
        },
        "name": "move_to_storage_A"
    },
    "id": "RRT_move_to_storage_A_100",
    "joint_names": [
        "shoulder_pan_joint",
        "shoulder_lift_joint",
        "elbow_joint",
        "wrist_1_joint",
        "wrist_2_joint",
        "wrist_3_joint"
    ],
    "metrics": {
        "cart_traj_len": 0.3534057314470588,
        "distance_elbow_joint": 0.4521141488746685,
        "distance_shoulder_lift_joint": 0.23371801702493888,
        "distance_shoulder_pan_joint": 0.460531469286742,
        "distance_wrist_1_joint": 0.2516574580692199,
        "distance_wrist_2_joint": 1.106333499312195,
        "distance_wrist_3_joint": 0.10169462453410771,
        "smoothness": 4.440892098500626e-16,
        "time": 0.013102204,
        "traj_len": 1.6143262424621214,
        "weighted_distance": 2.0414282802860115
    },
    "planner": "RRT",
    "start": {
        "state": {
            "elbow_joint": 1.9715472970024885,
            "shoulder_lift_joint": -1.1394870060712896,
            "shoulder_pan_joint": 0.12281152778156021,
            "wrist_1_joint": -0.780463741449964,
            "wrist_2_joint": 0.12958659822042276,
            "wrist_3_joint": 3.090690232415272
        }
    },
    "waypoints": [
        {
            "positions": [
                0.12281152778156021,
                -1.1394870060712896,
                1.9715472970024885,
                -0.780463741449964,
                0.12958659822042276,
                3.090690232415272
            ]
        },
        {
            "positions": [
                0.05702131788345423,
                -1.1728752942177094,
                2.036135032556013,
                -0.8164148068884239,
                0.28763424097930773,
                3.1052180359201444
            ]
        },
        {
            "positions": [
                -0.008768892014651752,
                -1.2062635823641292,
                2.1007227681095366,
                -0.852365872326884,
                0.44568188373819273,
                3.119745839425017
            ]
        },
        {
            "positions": [
                -0.07455910191275775,
                -1.239651870510549,
                2.165310503663061,
                -0.8883169377653439,
                0.6037295264970777,
                3.1342736429298896
            ]
        },
        {
            "positions": [
                -0.14034931181086371,
                -1.2730401586569688,
                2.2298982392165847,
                -0.924268003203804,
                0.7617771692559626,
                3.148801446434762
            ]
        },
        {
            "positions": [
                -0.20613952170896974,
                -1.3064284468033889,
                2.294485974770109,
                -0.9602190686422639,
                0.9198248120148477,
                3.1633292499396344
            ]
        },
        {
            "positions": [
                -0.2719297316070757,
                -1.3398167349498087,
                2.3590737103236328,
                -0.9961701340807239,
                1.0778724547737326,
                3.177857053444507
            ]
        },
        {
            "positions": [
                -0.33771994150518175,
                -1.3732050230962285,
                2.423661445877157,
                -1.032121199519184,
                1.2359200975326177,
                3.1923848569493796
            ]
        }
    ]
}