{
    "goal": {
        "global_pose": {
            "orientation": {
                "w": 0.7031023502349854,
                "x": -0.7110244035720825,
                "y": 0.007748599164187908,
                "z": 0.005598929710686207
            },
            "position": {
                "x": 0.11585023208521307,
                "y": 0.44412534475326537,
                "z": 0.3711530566215515
            }
        },
        "name": "move_to_auspresseinheit_A"
    },
    "id": "RRT_move_to_auspresseinheit_A_119",
    "joint_names": [
        "shoulder_pan_joint",
        "shoulder_lift_joint",
        "elbow_joint",
        "wrist_1_joint",
        "wrist_2_joint",
        "wrist_3_joint"
    ],
    "metrics": {
        "cart_traj_len": 0.6874627986988049,
        "distance_elbow_joint": 0.03271923662481635,
        "distance_shoulder_lift_joint": 0.533114721654856,
        "distance_shoulder_pan_joint": 1.040730953745101,
        "distance_wrist_1_joint": 0.5758787782062331,
        "distance_wrist_2_joint": 0.5327261111567573,
        "distance_wrist_3_joint": 0.05828354799267288,
        "smoothness": 6.908054402309963e-16,
        "time": 0.018573975000000003,
        "traj_len": 1.6653688328356684,
        "weighted_distance": 1.999656304150484
    },
    "planner": "RRT",
    "start": {
        "state": {
            "elbow_joint": 2.4225746658250005,
            "shoulder_lift_joint": -1.3736534386056498,
            "shoulder_pan_joint": -0.3378633547517467,
            "wrist_1_joint": -1.0288598680537169,
            "wrist_2_joint": 1.233022673432363,
            "wrist_3_joint": -3.0940220416140027
        }
    },
    "waypoints": [
        {
            "positions": [
                -0.3378633547517467,
                -1.3736534386056498,
                2.4225746658250005,
                -1.0288598680537169,
                1.233022673432363,
                -3.0940220416140027
            ]
        },
        {
            "positions": [
                -0.2077719855336091,
                -1.4402927788125068,
                2.4184847612468983,
                -0.9568750207779377,
                1.1664319095377684,
                -3.101307485113087
            ]
        },
        {
            "positions": [
                -0.07768061631547146,
                -1.5069321190193639,
                2.4143948566687965,
                -0.8848901735021586,
                1.0998411456431738,
                -3.108592928612171
            ]
        },
        {
            "positions": [
                0.05241075290266617,
                -1.5735714592262209,
                2.4103049520906943,
                -0.8129053262263795,
                1.0332503817485792,
                -3.115878372111255
            ]
        },
        {
            "positions": [
                0.1825021221208038,
                -1.6402107994330777,
                2.4062150475125925,
                -0.7409204789506003,
                0.9666596178539844,
                -3.123163815610339
            ]
        },
        {
            "positions": [
                0.3125934913389414,
                -1.706850139639935,
                2.4021251429344903,
                -0.6689356316748212,
                0.9000688539593897,
                -3.1304492591094233
            ]
        },
        {
            "positions": [
                0.44268486055707906,
                -1.7734894798467917,
                2.398035238356388,
                -0.596950784399042,
                0.8334780900647951,
                -3.1377347026085074
            ]
        },
        {
            "positions": [
                0.5727762297752168,
                -1.8401288200536488,
                2.3939453337782863,
                -0.5249659371232629,
                0.7668873261702005,
                -3.1450201461075915
            ]
        },
        {
            "positions": [
                0.7028675989933543,
                -1.9067681602605058,
                2.389855429200184,
                -0.45298108984748375,
                0.7002965622756058,
                -3.1523055896066756
            ]
        }
    ]
}