{
    "goal": {
        "global_pose": {
            "orientation": {
                "w": -0.4816463035849501,
                "x": 0.5182115481033762,
                "y": 0.4908360881923453,
                "z": -0.5084816262002911
            },
            "position": {
                "x": -0.8240239810943604,
                "y": -0.300875300988555,
                "z": 0.16403168439865112
            }
        },
        "name": "move_to_storage_C"
    },
    "id": "RRT_move_to_storage_C_23",
    "joint_names": [
        "shoulder_pan_joint",
        "shoulder_lift_joint",
        "elbow_joint",
        "wrist_1_joint",
        "wrist_2_joint",
        "wrist_3_joint"
    ],
    "metrics": {
        "cart_traj_len": 0.5768797169444583,
        "distance_elbow_joint": 0.2569838586185924,
        "distance_shoulder_lift_joint": 0.1900322333419563,
        "distance_shoulder_pan_joint": 0.49519072934436936,
        "distance_wrist_1_joint": 0.07080307725385648,
        "distance_wrist_2_joint": 1.0631983032292025,
        "distance_wrist_3_joint": 0.06350448605993941,
        "smoothness": 0.0,
        "time": 0.013122055,
        "traj_len": 1.4627756792645674,
        "weighted_distance": 1.8441049429061391
    },
    "planner": "RRT",
    "start": {
        "state": {
            "elbow_joint": 2.010868314990456,
            "shoulder_lift_joint": -1.1634956873337592,
            "shoulder_pan_joint": -2.4736205022346125,
            "wrist_1_joint": -0.8367026794202681,
            "wrist_2_joint": 0.6746043897044499,
            "wrist_3_joint": -3.1496632123970403
        }
    },
    "waypoints": [
        {
            "positions": [
                -2.4736205022346125,
                -1.1634956873337592,
                2.010868314990456,
                -0.8367026794202681,
                0.6746043897044499,
                -3.1496632123970403
            ]
        },
        {
            "positions": [
                -2.556152290458674,
                -1.1318236484434332,
                1.9680376718873571,
                -0.8249021665446253,
                0.851804106909317,
                -3.1390791313870503
            ]
        },
        {
            "positions": [
                -2.6386840786827355,
                -1.100151609553107,
                1.9252070287842584,
                -0.8131016536689826,
                1.0290038241141841,
                -3.1284950503770603
            ]
        },
        {
            "positions": [
                -2.721215866906797,
                -1.068479570662781,
                1.8823763856811597,
                -0.8013011407933399,
                1.2062035413190513,
                -3.1179109693670704
            ]
        },
        {
            "positions": [
                -2.803747655130859,
                -1.036807531772455,
                1.8395457425780608,
                -0.7895006279176972,
                1.3834032585239182,
                -3.107326888357081
            ]
        },
        {
            "positions": [
                -2.8862794433549204,
                -1.005135492882129,
                1.796715099474962,
                -0.7777001150420544,
                1.5606029757287854,
                -3.096742807347091
            ]
        },
        {
            "positions": [
                -2.968811231578982,
                -0.9734634539918029,
                1.7538844563718634,
                -0.7658996021664116,
                1.7378026929336525,
                -3.086158726337101
            ]
        }
    ]
}