{
    "goal": {
        "global_pose": {
            "orientation": {
                "w": -0.4816463035849501,
                "x": 0.5182115481033762,
                "y": 0.4908360881923453,
                "z": -0.5084816262002911
            },
            "position": {
                "x": -0.8240239810943604,
                "y": -0.300875300988555,
                "z": 0.16403168439865112
            }
        },
        "name": "move_to_storage_C"
    },
    "id": "RRT_move_to_storage_C_118",
    "joint_names": [
        "shoulder_pan_joint",
        "shoulder_lift_joint",
        "elbow_joint",
        "wrist_1_joint",
        "wrist_2_joint",
        "wrist_3_joint"
    ],
    "metrics": {
        "cart_traj_len": 0.5773112121121339,
        "distance_elbow_joint": 0.2573538549790044,
        "distance_shoulder_lift_joint": 0.18861560940689415,
        "distance_shoulder_pan_joint": 0.4965418124234997,
        "distance_wrist_1_joint": 0.0760897357932927,
        "distance_wrist_2_joint": 1.0599754945687856,
        "distance_wrist_3_joint": 0.05618045485018319,
        "smoothness": 0.0,
        "time": 0.016219776,
        "traj_len": 1.4610807513692252,
        "weighted_distance": 1.839343117007837
    },
    "planner": "RRT",
    "start": {
        "state": {
            "elbow_joint": 2.010868314990456,
            "shoulder_lift_joint": -1.1634956873337592,
            "shoulder_pan_joint": -2.4736205022346125,
            "wrist_1_joint": -0.8367026794202681,
            "wrist_2_joint": 0.6746043897044499,
            "wrist_3_joint": -3.1496632123970403
        }
    },
    "waypoints": [
        {
            "positions": [
                -2.4736205022346125,
                -1.1634956873337592,
                2.010868314990456,
                -0.8367026794202681,
                0.6746043897044499,
                -3.1496632123970403
            ]
        },
        {
            "positions": [
                -2.5563774709718623,
                -1.1320597524326101,
                1.9679760058272884,
                -0.8240210567880526,
                0.8512669721325808,
                -3.140299803255343
            ]
        },
        {
            "positions": [
                -2.6391344397091125,
                -1.100623817531461,
                1.925083696664121,
                -0.8113394341558372,
                1.0279295545607119,
                -3.130936394113646
            ]
        },
        {
            "positions": [
                -2.7218914084463623,
                -1.069187882630312,
                1.8821913875009537,
                -0.7986578115236218,
                1.2045921369888428,
                -3.121572984971949
            ]
        },
        {
            "positions": [
                -2.804648377183612,
                -1.037751947729163,
                1.8392990783377863,
                -0.7859761888914063,
                1.3812547194169738,
                -3.1122095758302515
            ]
        },
        {
            "positions": [
                -2.8874053459208624,
                -1.006316012828014,
                1.7964067691746188,
                -0.7732945662591908,
                1.5579173018451047,
                -3.102846166688554
            ]
        },
        {
            "positions": [
                -2.970162314658112,
                -0.974880077926865,
                1.7535144600114514,
                -0.7606129436269754,
                1.7345798842732356,
                -3.093482757546857
            ]
        }
    ]
}