{
    "goal": {
        "global_pose": {
            "orientation": {
                "w": 0.7047431468963623,
                "x": -0.7094548344612122,
                "y": 0.0024358443915843964,
                "z": -0.0022348060738295317
            },
            "position": {
                "x": 0.6094750761985779,
                "y": 0.3671506643295288,
                "z": 0.19426114857196808
            }
        },
        "name": "move_to_magneteinheit_A"
    },
    "id": "RRT_move_to_magneteinheit_A_87",
    "joint_names": [
        "shoulder_pan_joint",
        "shoulder_lift_joint",
        "elbow_joint",
        "wrist_1_joint",
        "wrist_2_joint",
        "wrist_3_joint"
    ],
    "metrics": {
        "cart_traj_len": 4.981537274581274,
        "distance_elbow_joint": 3.9182953620400642,
        "distance_shoulder_lift_joint": 0.7129359345039905,
        "distance_shoulder_pan_joint": 4.596359382871578,
        "distance_wrist_1_joint": 3.4897460247689374,
        "distance_wrist_2_joint": 5.0709594290755815,
        "distance_wrist_3_joint": 2.991437630659968,
        "smoothness": 0.30572709803877174,
        "time": 0.096474814,
        "traj_len": 4.558479325819097,
        "weighted_distance": 5.943342029454858
    },
    "planner": "RRT",
    "start": {
        "state": {
            "elbow_joint": -1.9196185241190666,
            "shoulder_lift_joint": -1.2443396400964142,
            "shoulder_pan_joint": 2.6996025414629847,
            "wrist_1_joint": -1.5485510000780065,
            "wrist_2_joint": -1.5709468930060704,
            "wrist_3_joint": 0.4420197071253992
        }
    },
    "waypoints": [
        {
            "positions": [
                2.6996025414629847,
                -1.2443396400964142,
                -1.9196185241190666,
                -1.5485510000780065,
                -1.5709468930060704,
                0.4420197071253992
            ]
        },
        {
            "positions": [
                2.5909131388213327,
                -1.2264942550302163,
                -1.857260999032462,
                -1.48467297484054,
                -1.4722840535654453,
                0.4803858109651013
            ]
        },
        {
            "positions": [
                2.48222373617968,
                -1.208648869964018,
                -1.7949034739458576,
                -1.4207949496030734,
                -1.37362121412482,
                0.5187519148048034
            ]
        },
        {
            "positions": [
                2.373534333538028,
                -1.1908034848978202,
                -1.732545948859253,
                -1.356916924365607,
                -1.274958374684195,
                0.5571180186445056
            ]
        },
        {
            "positions": [
                2.264844930896376,
                -1.172958099831622,
                -1.6701884237726485,
                -1.2930388991281403,
                -1.17629553524357,
                0.5954841224842078
            ]
        },
        {
            "positions": [
                2.1561555282547236,
                -1.155112714765424,
                -1.607830898686044,
                -1.2291608738906739,
                -1.077632695802945,
                0.6338502263239099
            ]
        },
        {
            "positions": [
                2.0474661256130715,
                -1.137267329699226,
                -1.5454733735994393,
                -1.1652828486532072,
                -0.9789698563623197,
                0.672216330163612
            ]
        },
        {
            "positions": [
                1.9387767229714192,
                -1.119421944633028,
                -1.4831158485128348,
                -1.1014048234157408,
                -0.8803070169216947,
                0.7105824340033142
            ]
        },
        {
            "positions": [
                1.830087320329767,
                -1.1015765595668299,
                -1.4207583234262302,
                -1.0375267981782743,
                -0.7816441774810695,
                0.7489485378430163
            ]
        },
        {
            "positions": [
                1.721397917688115,
                -1.083731174500632,
                -1.3584007983396256,
                -0.9736487729408076,
                -0.6829813380404445,
                0.7873146416827184
            ]
        },
        {
            "positions": [
                1.6127085150464626,
                -1.0658857894344338,
                -1.2960432732530212,
                -0.9097707477033411,
                -0.5843184985998193,
                0.8256807455224205
            ]
        },
        {
            "positions": [
                1.5040191124048106,
                -1.0480404043682359,
                -1.2336857481664167,
                -0.8458927224658745,
                -0.4856556591591943,
                0.8640468493621227
            ]
        },
        {
            "positions": [
                1.3953297097631583,
                -1.0301950193020377,
                -1.1713282230798119,
                -0.782014697228408,
                -0.386992819718569,
                0.9024129532018248
            ]
        },
        {
            "positions": [
                1.2866403071215062,
                -1.0123496342358398,
                -1.1089706979932075,
                -0.7181366719909416,
                -0.288329980277944,
                0.9407790570415269
            ]
        },
        {
            "positions": [
                1.1779509044798537,
                -0.9945042491696416,
                -1.046613172906603,
                -0.6542586467534749,
                -0.18966714083731895,
                0.9791451608812292
            ]
        },
        {
            "positions": [
                1.0692615018382017,
                -0.9766588641034437,
                -0.9842556478199984,
                -0.5903806215160085,
                -0.09100430139669391,
                1.0175112647209312
            ]
        },
        {
            "positions": [
                0.9605720991965494,
                -0.9588134790372456,
                -0.9218981227333938,
                -0.5265025962785419,
                0.007658538043931351,
                1.0558773685606333
            ]
        },
        {
            "positions": [
                0.8518826965548973,
                -0.9409680939710476,
                -0.8595405976467894,
                -0.46262457104107524,
                0.10632137748455639,
                1.0942434724003354
            ]
        },
        {
            "positions": [
                0.7431932939132453,
                -0.9231227089048496,
                -0.7971830725601847,
                -0.3987465458036088,
                0.20498421692518143,
                1.1326095762400374
            ]
        },
        {
            "positions": [
                0.6345038912715926,
                -0.9052773238386516,
                -0.7348255474735801,
                -0.33486852056614214,
                0.3036470563658067,
                1.17097568007974
            ]
        },
        {
            "positions": [
                0.5258144886299405,
                -0.8874319387724534,
                -0.6724680223869757,
                -0.2709904953286757,
                0.4023098958064317,
                1.209341783919442
            ]
        },
        {
            "positions": [
                0.41712508598828846,
                -0.8695865537062555,
                -0.610110497300371,
                -0.20711247009120926,
                0.5009727352470568,
                1.247707887759144
            ]
        },
        {
            "positions": [
                0.3084356833466364,
                -0.8517411686400574,
                -0.5477529722137666,
                -0.1432344448537426,
                0.5996355746876818,
                1.2860739915988462
            ]
        },
        {
            "positions": [
                0.1997462807049839,
                -0.8338957835738594,
                -0.485395447127162,
                -0.07935641961627593,
                0.6982984141283073,
                1.3244400954385482
            ]
        },
        {
            "positions": [
                0.09105687806333185,
                -0.8160503985076613,
                -0.42303792204055735,
                -0.01547839437880949,
                0.7969612535689323,
                1.3628061992782505
            ]
        },
        {
            "positions": [
                -0.017632524578320208,
                -0.7982050134414633,
                -0.36068039695395293,
                0.04839963085865695,
                0.8956240930095574,
                1.4011723031179526
            ]
        },
        {
            "positions": [
                -0.12632192721997226,
                -0.7803596283752653,
                -0.2983228718673485,
                0.11227765609612339,
                0.9942869324501824,
                1.4395384069576547
            ]
        },
        {
            "positions": [
                -0.23501132986162476,
                -0.7625142433090673,
                -0.23596534678074366,
                0.17615568133359027,
                1.0929497718908074,
                1.477904510797357
            ]
        },
        {
            "positions": [
                -0.34370073250327726,
                -0.7446688582428691,
                -0.17360782169413924,
                0.24003370657105672,
                1.1916126113314325,
                1.516270614637059
            ]
        },
        {
            "positions": [
                -0.4523901351449293,
                -0.7268234731766712,
                -0.1112502966075346,
                0.30391173180852316,
                1.2902754507720575,
                1.554636718476761
            ]
        },
        {
            "positions": [
                -0.5610795377865814,
                -0.7089780881104731,
                -0.04889277152093019,
                0.3677897570459896,
                1.3889382902126826,
                1.5930028223164632
            ]
        },
        {
            "positions": [
                -0.6697689404282339,
                -0.6911327030442751,
                0.013464753565674448,
                0.4316677822834565,
                1.487601129653308,
                1.6313689261561657
            ]
        },
        {
            "positions": [
                -0.7784583430698859,
                -0.6732873179780771,
                0.07582227865227908,
                0.4955458075209227,
                1.586263969093933,
                1.6697350299958678
            ]
        },
        {
            "positions": [
                -0.887147745711538,
                -0.655441932911879,
                0.1381798037388835,
                0.5594238327583891,
                1.684926808534558,
                1.7081011338355698
            ]
        },
        {
            "positions": [
                -0.8366672909266852,
                -0.6616438442778518,
                0.2312046554479893,
                0.6285123923550162,
                1.5941725221578102,
                1.62183332363808
            ]
        },
        {
            "positions": [
                -0.7861868361418326,
                -0.6678457556438245,
                0.3242295071570951,
                0.6976009519516433,
                1.5034182357810626,
                1.53556551344059
            ]
        },
        {
            "positions": [
                -0.7357063813569799,
                -0.6740476670097973,
                0.4172543588662008,
                0.7666895115482704,
                1.412663949404315,
                1.4492977032431
            ]
        },
        {
            "positions": [
                -0.6852259265721272,
                -0.68024957837577,
                0.5102792105753067,
                0.8357780711448974,
                1.3219096630275673,
                1.3630298930456102
            ]
        },
        {
            "positions": [
                -0.6347454717872745,
                -0.6864514897417429,
                0.6033040622844124,
                0.9048666307415245,
                1.2311553766508196,
                1.27676208284812
            ]
        },
        {
            "positions": [
                -0.5842650170024217,
                -0.6926534011077157,
                0.6963289139935182,
                0.9739551903381516,
                1.140401090274072,
                1.1904942726506302
            ]
        },
        {
            "positions": [
                -0.5337845622175691,
                -0.6988553124736884,
                0.7893537657026239,
                1.0430437499347787,
                1.0496468038973246,
                1.1042264624531404
            ]
        },
        {
            "positions": [
                -0.48330410743271635,
                -0.7050572238396612,
                0.8823786174117298,
                1.1121323095314057,
                0.9588925175205768,
                1.0179586522556505
            ]
        },
        {
            "positions": [
                -0.43282365264786365,
                -0.7112591352056339,
                0.9754034691208355,
                1.1812208691280328,
                0.8681382311438293,
                0.9316908420581604
            ]
        },
        {
            "positions": [
                -0.38234319786301096,
                -0.7174610465716067,
                1.0684283208299412,
                1.2503094287246599,
                0.7773839447670816,
                0.8454230318606706
            ]
        },
        {
            "positions": [
                -0.3318627430781582,
                -0.7236629579375795,
                1.1614531725390471,
                1.319397988321287,
                0.6866296583903339,
                0.7591552216631806
            ]
        },
        {
            "positions": [
                -0.2813822882933056,
                -0.7298648693035522,
                1.2544780242481528,
                1.388486547917914,
                0.5958753720135863,
                0.6728874114656909
            ]
        },
        {
            "positions": [
                -0.23090183350845284,
                -0.736066780669525,
                1.3475028759572587,
                1.4575751075145411,
                0.5051210856368387,
                0.5866196012682008
            ]
        },
        {
            "positions": [
                -0.1804213787236002,
                -0.7422686920354977,
                1.4405277276663644,
                1.526663667111168,
                0.41436679926009123,
                0.5003517910707109
            ]
        },
        {
            "positions": [
                -0.12994092393874745,
                -0.7484706034014705,
                1.5335525793754703,
                1.595752226707795,
                0.3236125128833436,
                0.41408398087322107
            ]
        },
        {
            "positions": [
                -0.07946046915389471,
                -0.7546725147674433,
                1.6265774310845762,
                1.6648407863044221,
                0.2328582265065957,
                0.327816170675731
            ]
        },
        {
            "positions": [
                -0.028980014369042073,
                -0.760874426133416,
                1.7196022827936817,
                1.7339293459010492,
                0.14210394012984828,
                0.24154836047824113
            ]
        },
        {
            "positions": [
                0.021500440415810673,
                -0.7670763374993889,
                1.8126271345027876,
                1.8030179054976763,
                0.05134965375310063,
                0.15528055028075105
            ]
        },
        {
            "positions": [
                0.07198089520066331,
                -0.7732782488653616,
                1.9056519862118932,
                1.8721064650943033,
                -0.03940463262364702,
                0.06901274008326141
            ]
        },
        {
            "positions": [
                0.12246134998551614,
                -0.7794801602313344,
                1.9986768379209991,
                1.9411950246909304,
                -0.1301589190003946,
                -0.017255070114228662
            ]
        }
    ]
}