{
    "goal": {
        "global_pose": {
            "orientation": {
                "w": -0.4816463035849501,
                "x": 0.5182115481033762,
                "y": 0.4908360881923453,
                "z": -0.5084816262002911
            },
            "position": {
                "x": -0.8240239810943604,
                "y": 0.19912469901144506,
                "z": 0.16403168439865112
            }
        },
        "name": "move_to_storage_D"
    },
    "id": "RRT_move_to_storage_D_138",
    "joint_names": [
        "shoulder_pan_joint",
        "shoulder_lift_joint",
        "elbow_joint",
        "wrist_1_joint",
        "wrist_2_joint",
        "wrist_3_joint"
    ],
    "metrics": {
        "cart_traj_len": 1.5661187301862793,
        "distance_elbow_joint": 0.5537201928303503,
        "distance_shoulder_lift_joint": 1.5512174712980937,
        "distance_shoulder_pan_joint": 2.2774451731249896,
        "distance_wrist_1_joint": 3.820517651668844,
        "distance_wrist_2_joint": 1.7735633429428765,
        "distance_wrist_3_joint": 3.149512852454122,
        "smoothness": 0.21660134615610638,
        "time": 0.056129669,
        "traj_len": 3.622978979282005,
        "weighted_distance": 5.001907974347314
    },
    "planner": "RRT",
    "start": {
        "state": {
            "elbow_joint": -2.384821988534728,
            "shoulder_lift_joint": -2.2788054721415256,
            "shoulder_pan_joint": -0.1854694642142757,
            "wrist_1_joint": 1.4845938289331202,
            "wrist_2_joint": 0.17898776772866878,
            "wrist_3_joint": 0.037105688729662994
        }
    },
    "waypoints": [
        {
            "positions": [
                -0.1854694642142757,
                -2.2788054721415256,
                -2.384821988534728,
                1.4845938289331202,
                0.17898776772866878,
                0.037105688729662994
            ]
        },
        {
            "positions": [
                -0.09867237938280878,
                -2.2179478850610312,
                -2.3819660445974415,
                1.3875561401917913,
                0.11641080640201565,
                0.1184113046773317
            ]
        },
        {
            "positions": [
                -0.011875294551341842,
                -2.157090297980537,
                -2.379110100660155,
                1.2905184514504624,
                0.05383384507536251,
                0.1997169206250004
            ]
        },
        {
            "positions": [
                0.0749217902801251,
                -2.0962327109000425,
                -2.376254156722869,
                1.1934807627091333,
                -0.008743116251290622,
                0.28102253657266907
            ]
        },
        {
            "positions": [
                0.16171887511159203,
                -2.035375123819548,
                -2.373398212785583,
                1.0964430739678044,
                -0.07132007757794376,
                0.3623281525203378
            ]
        },
        {
            "positions": [
                0.248515959943059,
                -1.974517536739054,
                -2.3705422688482964,
                0.9994053852264754,
                -0.1338970389045969,
                0.4436337684680065
            ]
        },
        {
            "positions": [
                0.33531304477452595,
                -1.9136599496585596,
                -2.36768632491101,
                0.9023676964851465,
                -0.19647400023125003,
                0.5249393844156752
            ]
        },
        {
            "positions": [
                0.4221101296059929,
                -1.8528023625780652,
                -2.364830380973724,
                0.8053300077438175,
                -0.2590509615579032,
                0.6062450003633439
            ]
        },
        {
            "positions": [
                0.5089072144374598,
                -1.7919447754975708,
                -2.3619744370364377,
                0.7082923190024886,
                -0.3216279228845563,
                0.6875506163110127
            ]
        },
        {
            "positions": [
                0.5957042992689269,
                -1.7310871884170764,
                -2.3591184930991513,
                0.6112546302611594,
                -0.38420488421120946,
                0.7688562322586814
            ]
        },
        {
            "positions": [
                0.6825013841003937,
                -1.6702296013365823,
                -2.356262549161865,
                0.5142169415198306,
                -0.4467818455378626,
                0.8501618482063501
            ]
        },
        {
            "positions": [
                0.7692984689318607,
                -1.609372014256088,
                -2.3534066052245786,
                0.41717925277850165,
                -0.5093588068645157,
                0.9314674641540187
            ]
        },
        {
            "positions": [
                0.8560955537633276,
                -1.5485144271755935,
                -2.3505506612872926,
                0.32014156403717275,
                -0.5719357681911689,
                1.0127730801016874
            ]
        },
        {
            "positions": [
                0.9428926385947946,
                -1.4876568400950991,
                -2.3476947173500062,
                0.22310387529584363,
                -0.634512729517822,
                1.0940786960493563
            ]
        },
        {
            "positions": [
                1.0296897234262614,
                -1.4267992530146048,
                -2.34483877341272,
                0.12606618655451463,
                -0.6970896908444751,
                1.1753843119970249
            ]
        },
        {
            "positions": [
                0.9765754241520388,
                -1.4617598156231635,
                -2.319151924527303,
                0.0029666860900026543,
                -0.7419639850629618,
                1.2759460234563629
            ]
        },
        {
            "positions": [
                0.9234611248778163,
                -1.496720378231722,
                -2.2934650756418855,
                -0.12013281437450932,
                -0.7868382792814484,
                1.3765077349157009
            ]
        },
        {
            "positions": [
                0.8703468256035937,
                -1.5316809408402807,
                -2.2677782267564686,
                -0.24323231483902125,
                -0.8317125734999351,
                1.477069446375039
            ]
        },
        {
            "positions": [
                0.8172325263293712,
                -1.5666415034488392,
                -2.242091377871051,
                -0.36633181530353326,
                -0.8765868677184216,
                1.577631157834377
            ]
        },
        {
            "positions": [
                0.7641182270551485,
                -1.601602066057398,
                -2.2164045289856342,
                -0.4894313157680452,
                -0.9214611619369083,
                1.678192869293715
            ]
        },
        {
            "positions": [
                0.7110039277809259,
                -1.6365626286659567,
                -2.1907176801002173,
                -0.6125308162325571,
                -0.966335456155395,
                1.778754580753053
            ]
        },
        {
            "positions": [
                0.6578896285067034,
                -1.6715231912745152,
                -2.1650308312148,
                -0.7356303166970691,
                -1.0112097503738817,
                1.879316292212391
            ]
        },
        {
            "positions": [
                0.6047753292324808,
                -1.706483753883074,
                -2.139343982329383,
                -0.8587298171615811,
                -1.0560840445923683,
                1.979878003671729
            ]
        },
        {
            "positions": [
                0.5516610299582583,
                -1.7414443164916324,
                -2.113657133443966,
                -0.9818293176260932,
                -1.1009583388108548,
                2.080439715131067
            ]
        },
        {
            "positions": [
                0.49854673068403565,
                -1.7764048791001912,
                -2.0879702845585486,
                -1.1049288180906052,
                -1.1458326330293416,
                2.181001426590405
            ]
        },
        {
            "positions": [
                0.44543243140981303,
                -1.81136544170875,
                -2.0622834356731317,
                -1.228028318555117,
                -1.1907069272478281,
                2.281563138049743
            ]
        },
        {
            "positions": [
                0.3923181321355905,
                -1.8463260043173084,
                -2.0365965867877147,
                -1.351127819019629,
                -1.2355812214663149,
                2.382124849509081
            ]
        },
        {
            "positions": [
                0.3392038328613679,
                -1.8812865669258672,
                -2.0109097379022973,
                -1.4742273194841409,
                -1.2804555156848014,
                2.482686560968419
            ]
        },
        {
            "positions": [
                0.2860895335871454,
                -1.9162471295344257,
                -1.9852228890168804,
                -1.5973268199486528,
                -1.325329809903288,
                2.583248272427757
            ]
        },
        {
            "positions": [
                0.23297523431292277,
                -1.9512076921429844,
                -1.9595360401314632,
                -1.7204263204131647,
                -1.3702041041217747,
                2.683809983887095
            ]
        },
        {
            "positions": [
                0.17986093503870015,
                -1.9861682547515431,
                -1.933849191246046,
                -1.843525820877677,
                -1.4150783983402615,
                2.784371695346433
            ]
        },
        {
            "positions": [
                0.12674663576447764,
                -2.0211288173601014,
                -1.9081623423606289,
                -1.9666253213421885,
                -1.459952692558748,
                2.884933406805771
            ]
        },
        {
            "positions": [
                0.07363233649025502,
                -2.05608937996866,
                -1.8824754934752117,
                -2.089724821806701,
                -1.5048269867772346,
                2.985495118265109
            ]
        },
        {
            "positions": [
                0.020518037216032514,
                -2.091049942577219,
                -1.8567886445897948,
                -2.2128243222712127,
                -1.5497012809957211,
                3.086056829724447
            ]
        },
        {
            "positions": [
                -0.032596262058190176,
                -2.1260105051857776,
                -1.8311017957043776,
                -2.3359238227357246,
                -1.594575575214208,
                3.186618541183785
            ]
        }
    ]
}