{
    "goal": {
        "global_pose": {
            "orientation": {
                "w": 0.7047431468963623,
                "x": -0.7094548344612122,
                "y": 0.0024358443915843964,
                "z": -0.0022348060738295317
            },
            "position": {
                "x": 0.6094750761985779,
                "y": 0.3671506643295288,
                "z": 0.19426114857196808
            }
        },
        "name": "move_to_magneteinheit_A"
    },
    "id": "RRT_move_to_magneteinheit_A_13",
    "joint_names": [
        "shoulder_pan_joint",
        "shoulder_lift_joint",
        "elbow_joint",
        "wrist_1_joint",
        "wrist_2_joint",
        "wrist_3_joint"
    ],
    "metrics": {
        "cart_traj_len": 3.5101460423234396,
        "distance_elbow_joint": 3.9140543971517934,
        "distance_shoulder_lift_joint": 0.8569437770754286,
        "distance_shoulder_pan_joint": 2.5782320762653614,
        "distance_wrist_1_joint": 3.4762194159749376,
        "distance_wrist_2_joint": 1.5410718155659717,
        "distance_wrist_3_joint": 0.44312629657468955,
        "smoothness": 0.034265715621432075,
        "time": 0.042429086,
        "traj_len": 3.579056828077501,
        "weighted_distance": 4.325874663382941
    },
    "planner": "RRT",
    "start": {
        "state": {
            "elbow_joint": -1.9196185241190666,
            "shoulder_lift_joint": -1.2443396400964142,
            "shoulder_pan_joint": 2.6996025414629847,
            "wrist_1_joint": -1.5485510000780065,
            "wrist_2_joint": -1.5709468930060704,
            "wrist_3_joint": 0.4420197071253992
        }
    },
    "waypoints": [
        {
            "positions": [
                2.6996025414629847,
                -1.2443396400964142,
                -1.9196185241190666,
                -1.5485510000780065,
                -1.5709468930060704,
                0.4420197071253992
            ]
        },
        {
            "positions": [
                2.5747177009413074,
                -1.2041048029961974,
                -1.8353654054280317,
                -1.5096487194814507,
                -1.4908982674669302,
                0.4336266259564472
            ]
        },
        {
            "positions": [
                2.44983286041963,
                -1.1638699658959806,
                -1.751112286736997,
                -1.4707464388848952,
                -1.4108496419277903,
                0.4252335447874952
            ]
        },
        {
            "positions": [
                2.3249480198979526,
                -1.1236351287957638,
                -1.6668591680459621,
                -1.4318441582883394,
                -1.3308010163886501,
                0.4168404636185432
            ]
        },
        {
            "positions": [
                2.2000631793762753,
                -1.083400291695547,
                -1.5826060493549274,
                -1.3929418776917837,
                -1.2507523908495102,
                0.4084473824495912
            ]
        },
        {
            "positions": [
                2.075178338854598,
                -1.0431654545953304,
                -1.4983529306638925,
                -1.3540395970952281,
                -1.17070376531037,
                0.40005430128063924
            ]
        },
        {
            "positions": [
                1.9502934983329203,
                -1.0029306174951136,
                -1.4140998119728576,
                -1.3151373164986724,
                -1.09065513977123,
                0.39166122011168725
            ]
        },
        {
            "positions": [
                1.8254086578112427,
                -0.9626957803948968,
                -1.329846693281823,
                -1.2762350359021166,
                -1.01060651423209,
                0.38326813894273526
            ]
        },
        {
            "positions": [
                1.7005238172895654,
                -0.92246094329468,
                -1.2455935745907882,
                -1.237332755305561,
                -0.9305578886929499,
                0.37487505777378327
            ]
        },
        {
            "positions": [
                1.575638976767888,
                -0.8822261061944632,
                -1.161340455899753,
                -1.1984304747090053,
                -0.8505092631538097,
                0.36648197660483123
            ]
        },
        {
            "positions": [
                1.4507541362462106,
                -0.8419912690942464,
                -1.0770873372087184,
                -1.1595281941124496,
                -0.7704606376146697,
                0.35808889543587924
            ]
        },
        {
            "positions": [
                1.3258692957245333,
                -0.8017564319940296,
                -0.9928342185176837,
                -1.120625913515894,
                -0.6904120120755297,
                0.34969581426692725
            ]
        },
        {
            "positions": [
                1.200984455202856,
                -0.7615215948938129,
                -0.9085810998266488,
                -1.0817236329193385,
                -0.6103633865363897,
                0.34130273309797526
            ]
        },
        {
            "positions": [
                1.0760996146811783,
                -0.7212867577935961,
                -0.8243279811356139,
                -1.0428213523227825,
                -0.5303147609972494,
                0.3329096519290233
            ]
        },
        {
            "positions": [
                0.951214774159501,
                -0.6810519206933793,
                -0.7400748624445793,
                -1.003919071726227,
                -0.45026613545810945,
                0.3245165707600713
            ]
        },
        {
            "positions": [
                0.8766682837224196,
                -0.6701449136469889,
                -0.6118145950470868,
                -0.8844100395919767,
                -0.40985397336727425,
                0.30892915867958004
            ]
        },
        {
            "positions": [
                0.8021217932853381,
                -0.6592379066005986,
                -0.4835543276495943,
                -0.7649010074577265,
                -0.369441811276439,
                0.2933417465990888
            ]
        },
        {
            "positions": [
                0.7275753028482567,
                -0.6483308995542082,
                -0.35529406025210175,
                -0.6453919753234763,
                -0.32902964918560373,
                0.27775433451859755
            ]
        },
        {
            "positions": [
                0.6530288124111752,
                -0.6374238925078178,
                -0.22703379285460923,
                -0.525882943189226,
                -0.28861748709476853,
                0.2621669224381063
            ]
        },
        {
            "positions": [
                0.5784823219740938,
                -0.6265168854614275,
                -0.0987735254571166,
                -0.4063739110549758,
                -0.24820532500393327,
                0.24657951035761505
            ]
        },
        {
            "positions": [
                0.5039358315370124,
                -0.6156098784150371,
                0.029486741940375816,
                -0.28686487892072554,
                -0.20779316291309807,
                0.23099209827712383
            ]
        },
        {
            "positions": [
                0.4293893410999309,
                -0.6047028713686468,
                0.15774700933786845,
                -0.1673558467864753,
                -0.16738100082226282,
                0.21540468619663256
            ]
        },
        {
            "positions": [
                0.3548428506628495,
                -0.5937958643222564,
                0.28600727673536086,
                -0.04784681465222507,
                -0.1269688387314276,
                0.19981727411614134
            ]
        },
        {
            "positions": [
                0.280296360225768,
                -0.582888857275866,
                0.41426754413285344,
                0.07166221748202517,
                -0.08655667664059234,
                0.1842298620356501
            ]
        },
        {
            "positions": [
                0.2555494897409961,
                -0.5971792520694846,
                0.5636617429108366,
                0.24257800342757685,
                -0.08321725828962083,
                0.16591061363486545
            ]
        },
        {
            "positions": [
                0.23080261925622422,
                -0.6114696468631033,
                0.7130559416888198,
                0.41349378937312853,
                -0.07987783993864933,
                0.14759136523408084
            ]
        },
        {
            "positions": [
                0.20605574877145233,
                -0.6257600416567219,
                0.8624501404668031,
                0.5844095753186802,
                -0.07653842158767782,
                0.1292721168332962
            ]
        },
        {
            "positions": [
                0.19547008832472365,
                -0.644837767890975,
                1.0039483570375434,
                0.7523169303909616,
                -0.08237133960612515,
                0.11297477854797289
            ]
        },
        {
            "positions": [
                0.18488442787799497,
                -0.6639154941252281,
                1.1454465736082837,
                0.920224285463243,
                -0.08820425762457247,
                0.09667744026264957
            ]
        },
        {
            "positions": [
                0.1742987674312663,
                -0.6829932203594812,
                1.286944790179024,
                1.0881316405355244,
                -0.0940371756430198,
                0.08038010197732627
            ]
        },
        {
            "positions": [
                0.16371310698453762,
                -0.7020709465937343,
                1.4284430067497644,
                1.2560389956078057,
                -0.09987009366146712,
                0.06408276369200296
            ]
        },
        {
            "positions": [
                0.15312744653780894,
                -0.7211486728279872,
                1.5699412233205048,
                1.4239463506800871,
                -0.10570301167991446,
                0.04778542540667964
            ]
        },
        {
            "positions": [
                0.14254178609108026,
                -0.7402263990622403,
                1.7114394398912451,
                1.5918537057523685,
                -0.11153592969836179,
                0.03148808712135634
            ]
        },
        {
            "positions": [
                0.13195612564435155,
                -0.7593041252964934,
                1.8529376564619855,
                1.75976106082465,
                -0.11736884771680911,
                0.015190748836033025
            ]
        },
        {
            "positions": [
                0.12137046519762289,
                -0.7783818515307465,
                1.9944358730327258,
                1.9276684158969313,
                -0.12320176573525644,
                -0.0011065894492902832
            ]
        }
    ]
}