{
    "goal": {
        "global_pose": {
            "orientation": {
                "w": -0.4816463035849501,
                "x": 0.5182115481033762,
                "y": 0.4908360881923453,
                "z": -0.5084816262002911
            },
            "position": {
                "x": -0.8240239810943604,
                "y": 0.19912469901144506,
                "z": 0.16403168439865112
            }
        },
        "name": "move_to_storage_D"
    },
    "id": "RRT_move_to_storage_D_15",
    "joint_names": [
        "shoulder_pan_joint",
        "shoulder_lift_joint",
        "elbow_joint",
        "wrist_1_joint",
        "wrist_2_joint",
        "wrist_3_joint"
    ],
    "metrics": {
        "cart_traj_len": 3.987468603681243,
        "distance_elbow_joint": 4.287515402270897,
        "distance_shoulder_lift_joint": 1.264485374309213,
        "distance_shoulder_pan_joint": 2.8118886748147838,
        "distance_wrist_1_joint": 4.0490007482094255,
        "distance_wrist_2_joint": 1.522347930270517,
        "distance_wrist_3_joint": 3.124640453800243,
        "smoothness": 0.22070591724349586,
        "time": 0.12856194199999998,
        "traj_len": 4.130360587609159,
        "weighted_distance": 5.374058817109794
    },
    "planner": "RRT",
    "start": {
        "state": {
            "elbow_joint": -2.384821988534728,
            "shoulder_lift_joint": -2.2788054721415256,
            "shoulder_pan_joint": -0.1854694642142757,
            "wrist_1_joint": 1.4845938289331202,
            "wrist_2_joint": 0.17898776772866878,
            "wrist_3_joint": 0.037105688729662994
        }
    },
    "waypoints": [
        {
            "positions": [
                -0.1854694642142757,
                -2.2788054721415256,
                -2.384821988534728,
                1.4845938289331202,
                0.17898776772866878,
                0.037105688729662994
            ]
        },
        {
            "positions": [
                -0.13348623979643823,
                -2.222045435121492,
                -2.393898170030397,
                1.4037089130885771,
                0.09776091534085515,
                0.016193199693642014
            ]
        },
        {
            "positions": [
                -0.08150301537860076,
                -2.165285398101459,
                -2.402974351526066,
                1.322823997244034,
                0.016534062953041523,
                -0.004719289342378967
            ]
        },
        {
            "positions": [
                -0.029519790960763292,
                -2.1085253610814254,
                -2.412050533021735,
                1.2419390813994908,
                -0.06469278943477211,
                -0.025631778378399944
            ]
        },
        {
            "positions": [
                0.02246343345707419,
                -2.051765324061392,
                -2.421126714517404,
                1.1610541655549478,
                -0.14591964182258574,
                -0.04654426741442093
            ]
        },
        {
            "positions": [
                0.09258814187989213,
                -2.034336181401723,
                -2.300112957976201,
                1.055688911871643,
                -0.10560711611689322,
                -0.08269531281360296
            ]
        },
        {
            "positions": [
                0.16271285030271007,
                -2.0169070387420547,
                -2.179099201434998,
                0.9503236581883385,
                -0.06529459041120068,
                -0.118846358212785
            ]
        },
        {
            "positions": [
                0.23283755872552803,
                -1.9994778960823858,
                -2.0580854448937944,
                0.8449584045050338,
                -0.024982064705508164,
                -0.15499740361196704
            ]
        },
        {
            "positions": [
                0.30296226714834595,
                -1.9820487534227171,
                -1.9370716883525914,
                0.7395931508217292,
                0.01533046100018437,
                -0.19114844901114908
            ]
        },
        {
            "positions": [
                0.37308697557116394,
                -1.9646196107630485,
                -1.8160579318113883,
                0.6342278971384245,
                0.05564298670587689,
                -0.2272994944103311
            ]
        },
        {
            "positions": [
                0.44321168399398186,
                -1.9471904681033796,
                -1.6950441752701852,
                0.5288626434551198,
                0.09595551241156941,
                -0.26345053980951316
            ]
        },
        {
            "positions": [
                0.5133363924167997,
                -1.929761325443711,
                -1.574030418728982,
                0.42349738977181517,
                0.13626803811726193,
                -0.2996015852086952
            ]
        },
        {
            "positions": [
                0.5834611008396178,
                -1.9123321827840423,
                -1.4530166621877787,
                0.31813213608851054,
                0.17658056382295448,
                -0.3357526306078772
            ]
        },
        {
            "positions": [
                0.6535858092624356,
                -1.8949030401243736,
                -1.3320029056465756,
                0.2127668824052058,
                0.21689308952864697,
                -0.37190367600705926
            ]
        },
        {
            "positions": [
                0.7237105176852536,
                -1.877473897464705,
                -1.2109891491053726,
                0.10740162872190129,
                0.2572056152343395,
                -0.40805472140624127
            ]
        },
        {
            "positions": [
                0.7938352261080717,
                -1.860044754805036,
                -1.0899753925641693,
                0.0020363750385965496,
                0.29751814094003204,
                -0.4442057668054233
            ]
        },
        {
            "positions": [
                0.8639599345308895,
                -1.8426156121453674,
                -0.9689616360229663,
                -0.10332887864470819,
                0.3378306666457246,
                -0.48035681220460535
            ]
        },
        {
            "positions": [
                0.9340846429537075,
                -1.8251864694856987,
                -0.8479478794817632,
                -0.2086941323280127,
                0.378143192351417,
                -0.5165078576037874
            ]
        },
        {
            "positions": [
                1.0042093513765253,
                -1.8077573268260299,
                -0.7269341229405599,
                -0.31405938601131744,
                0.41845571805710957,
                -0.5526589030029695
            ]
        },
        {
            "positions": [
                1.0743340597993434,
                -1.7903281841663612,
                -0.6059203663993566,
                -0.4194246396946222,
                0.4587682437628021,
                -0.5888099484021516
            ]
        },
        {
            "positions": [
                1.1444587682221612,
                -1.7728990415066925,
                -0.4849066098581536,
                -0.5247898933779267,
                0.49908076946849467,
                -0.6249609938013335
            ]
        },
        {
            "positions": [
                1.2145834766449792,
                -1.7554698988470236,
                -0.3638928533169503,
                -0.6301551470612317,
                0.5393932951741872,
                -0.6611120392005156
            ]
        },
        {
            "positions": [
                1.284708185067797,
                -1.7380407561873552,
                -0.24287909677574726,
                -0.7355204007445362,
                0.5797058208798797,
                -0.6972630845996977
            ]
        },
        {
            "positions": [
                1.354832893490615,
                -1.7206116135276863,
                -0.1218653402345442,
                -0.8408856544278407,
                0.6200183465855723,
                -0.7334141299988797
            ]
        },
        {
            "positions": [
                1.4249576019134331,
                -1.7031824708680177,
                -0.0008515836933411514,
                -0.9462509081111452,
                0.6603308722912647,
                -0.7695651753980617
            ]
        },
        {
            "positions": [
                1.4950823103362512,
                -1.685753328208349,
                0.12016217284786235,
                -1.0516161617944502,
                0.7006433979969573,
                -0.8057162207972438
            ]
        },
        {
            "positions": [
                1.565207018759069,
                -1.6683241855486801,
                0.2411759293890654,
                -1.1569814154777547,
                0.7409559237026497,
                -0.8418672661964257
            ]
        },
        {
            "positions": [
                1.635331727181887,
                -1.6508950428890115,
                0.36218968593026846,
                -1.2623466691610596,
                0.7812684494083424,
                -0.8780183115956078
            ]
        },
        {
            "positions": [
                1.7054564356047048,
                -1.6334659002293428,
                0.4832034424714715,
                -1.3677119228443642,
                0.8215809751140348,
                -0.9141693569947899
            ]
        },
        {
            "positions": [
                1.7755811440275229,
                -1.616036757569674,
                0.604217199012675,
                -1.4730771765276687,
                0.8618935008197274,
                -0.950320402393972
            ]
        },
        {
            "positions": [
                1.8457058524503407,
                -1.5986076149100052,
                0.7252309555538776,
                -1.5784424302109732,
                0.9022060265254198,
                -0.9864714477931539
            ]
        },
        {
            "positions": [
                1.9158305608731587,
                -1.5811784722503366,
                0.8462447120950811,
                -1.6838076838942782,
                0.9425185522311126,
                -1.022622493192336
            ]
        },
        {
            "positions": [
                1.9665868929965409,
                -1.5406885883633348,
                0.9165189442147765,
                -1.6209077385098476,
                0.9503044327072242,
                -1.1701162268979248
            ]
        },
        {
            "positions": [
                2.017343225119923,
                -1.5001987044763332,
                0.9867931763344718,
                -1.5580077931254173,
                0.9580903131833359,
                -1.3176099606035137
            ]
        },
        {
            "positions": [
                2.068099557243305,
                -1.4597088205893314,
                1.0570674084541671,
                -1.4951078477409867,
                0.9658761936594475,
                -1.4651036943091025
            ]
        },
        {
            "positions": [
                2.1188558893666873,
                -1.4192189367023298,
                1.1273416405738625,
                -1.4322079023565564,
                0.9736620741355593,
                -1.6125974280146913
            ]
        },
        {
            "positions": [
                2.1696122214900693,
                -1.378729052815328,
                1.197615872693558,
                -1.3693079569721258,
                0.9814479546116709,
                -1.7600911617202804
            ]
        },
        {
            "positions": [
                2.2203685536134516,
                -1.3382391689283264,
                1.2678901048132531,
                -1.3064080115876955,
                0.9892338350877826,
                -1.907584895425869
            ]
        },
        {
            "positions": [
                2.2711248857368336,
                -1.2977492850413246,
                1.3381643369329486,
                -1.243508066203265,
                0.9970197155638942,
                -2.055078629131458
            ]
        },
        {
            "positions": [
                2.3218812178602155,
                -1.257259401154323,
                1.408438569052644,
                -1.1806081208188344,
                1.004805596040006,
                -2.2025723628370466
            ]
        },
        {
            "positions": [
                2.372637549983598,
                -1.2167695172673212,
                1.4787128011723394,
                -1.1177081754344038,
                1.0125914765161175,
                -2.350066096542636
            ]
        },
        {
            "positions": [
                2.42339388210698,
                -1.1762796333803194,
                1.5489870332920348,
                -1.0548082300499735,
                1.0203773569922292,
                -2.4975598302482247
            ]
        },
        {
            "positions": [
                2.474150214230362,
                -1.1357897494933178,
                1.6192612654117302,
                -0.9919082846655431,
                1.028163237468341,
                -2.6450535639538133
            ]
        },
        {
            "positions": [
                2.524906546353744,
                -1.095299865606316,
                1.6895354975314254,
                -0.9290083392811127,
                1.0359491179444527,
                -2.792547297659402
            ]
        },
        {
            "positions": [
                2.575662878477126,
                -1.0548099817193144,
                1.759809729651121,
                -0.8661083938966821,
                1.0437349984205642,
                -2.9400410313649914
            ]
        },
        {
            "positions": [
                2.6264192106005084,
                -1.0143200978323126,
                1.8300839617708162,
                -0.8032084485122517,
                1.051520878896676,
                -3.08753476507058
            ]
        }
    ]
}