{
    "goal": {
        "global_pose": {
            "orientation": {
                "w": -0.4816463035849501,
                "x": 0.5182115481033762,
                "y": 0.4908360881923453,
                "z": -0.5084816262002911
            },
            "position": {
                "x": -0.8240239810943604,
                "y": -0.300875300988555,
                "z": 0.16403168439865112
            }
        },
        "name": "move_to_storage_C"
    },
    "id": "RRT_move_to_storage_C_63",
    "joint_names": [
        "shoulder_pan_joint",
        "shoulder_lift_joint",
        "elbow_joint",
        "wrist_1_joint",
        "wrist_2_joint",
        "wrist_3_joint"
    ],
    "metrics": {
        "cart_traj_len": 0.5764908794699688,
        "distance_elbow_joint": 0.2552122965941537,
        "distance_shoulder_lift_joint": 0.18890583106861125,
        "distance_shoulder_pan_joint": 0.49303529988285666,
        "distance_wrist_1_joint": 0.06553992332361569,
        "distance_wrist_2_joint": 1.0805381996698689,
        "distance_wrist_3_joint": 0.06372572845377,
        "smoothness": 0.0,
        "time": 0.01279936,
        "traj_len": 1.4652499032563955,
        "weighted_distance": 1.8494558277758084
    },
    "planner": "RRT",
    "start": {
        "state": {
            "elbow_joint": 2.010868314990456,
            "shoulder_lift_joint": -1.1634956873337592,
            "shoulder_pan_joint": -2.4736205022346125,
            "wrist_1_joint": -0.8367026794202681,
            "wrist_2_joint": 0.6746043897044499,
            "wrist_3_joint": -3.1496632123970403
        }
    },
    "waypoints": [
        {
            "positions": [
                -2.4736205022346125,
                -1.1634956873337592,
                2.010868314990456,
                -0.8367026794202681,
                0.6746043897044499,
                -3.1496632123970403
            ]
        },
        {
            "positions": [
                -2.5557930522150887,
                -1.1320113821556572,
                1.9683329322247636,
                -0.8257793588663321,
                0.8546940896494281,
                -3.1390422576547454
            ]
        },
        {
            "positions": [
                -2.637965602195565,
                -1.1005270769775555,
                1.9257975494590713,
                -0.8148560383123962,
                1.0347837895944063,
                -3.12842130291245
            ]
        },
        {
            "positions": [
                -2.720138152176041,
                -1.0690427717994535,
                1.8832621666933789,
                -0.8039327177584603,
                1.2148734895393845,
                -3.1178003481701553
            ]
        },
        {
            "positions": [
                -2.802310702156517,
                -1.0375584666213518,
                1.8407267839276866,
                -0.7930093972045243,
                1.3949631894843626,
                -3.1071793934278604
            ]
        },
        {
            "positions": [
                -2.884483252136993,
                -1.0060741614432498,
                1.7981914011619944,
                -0.7820860766505884,
                1.5750528894293407,
                -3.096558438685565
            ]
        },
        {
            "positions": [
                -2.966655802117469,
                -0.9745898562651479,
                1.7556560183963021,
                -0.7711627560966524,
                1.7551425893743189,
                -3.0859374839432703
            ]
        }
    ]
}