{
    "goal": {
        "global_pose": {
            "orientation": {
                "w": 0.005598929693374612,
                "x": 0.007748599140229565,
                "y": 0.7110244013736278,
                "z": -0.7031023480610252
            },
            "position": {
                "x": 0.1141497679147869,
                "y": -0.7141253447532654,
                "z": 0.3711530566215515
            }
        },
        "name": "move_to_auspresseinheit_B"
    },
    "id": "RRT_move_to_auspresseinheit_B_87",
    "joint_names": [
        "shoulder_pan_joint",
        "shoulder_lift_joint",
        "elbow_joint",
        "wrist_1_joint",
        "wrist_2_joint",
        "wrist_3_joint"
    ],
    "metrics": {
        "cart_traj_len": 0.5648602374017387,
        "distance_elbow_joint": 0.059985096928592885,
        "distance_shoulder_lift_joint": 0.29596140323687026,
        "distance_shoulder_pan_joint": 0.5775576164447107,
        "distance_wrist_1_joint": 0.3205132840819105,
        "distance_wrist_2_joint": 0.9951059096430175,
        "distance_wrist_3_joint": 0.002208976614118896,
        "smoothness": 5.075305295617109e-16,
        "time": 0.0162589,
        "traj_len": 1.5004440299288808,
        "weighted_distance": 1.889806718662622
    },
    "planner": "RRT",
    "start": {
        "state": {
            "elbow_joint": 2.0193083361928714,
            "shoulder_lift_joint": -1.1220246554650708,
            "shoulder_pan_joint": -1.0952077554168747,
            "wrist_1_joint": -0.8559753972642168,
            "wrist_2_joint": 0.4759566250798843,
            "wrist_3_joint": -3.1240929996934557
        }
    },
    "waypoints": [
        {
            "positions": [
                -1.0952077554168747,
                -1.1220246554650708,
                2.0193083361928714,
                -0.8559753972642168,
                0.4759566250798843,
                -3.1240929996934557
            ]
        },
        {
            "positions": [
                -1.1914673581576598,
                -1.171351556004549,
                2.009310820038106,
                -0.8025565165838984,
                0.6418076100203872,
                -3.1237248369244357
            ]
        },
        {
            "positions": [
                -1.287726960898445,
                -1.2206784565440276,
                1.9993133038833404,
                -0.74913763590358,
                0.8076585949608901,
                -3.123356674155416
            ]
        },
        {
            "positions": [
                -1.3839865636392301,
                -1.270005357083506,
                1.989315787728575,
                -0.6957187552232615,
                0.9735095799013931,
                -3.122988511386396
            ]
        },
        {
            "positions": [
                -1.480246166380015,
                -1.3193322576229842,
                1.9793182715738096,
                -0.6422998745429431,
                1.1393605648418959,
                -3.1226203486173763
            ]
        },
        {
            "positions": [
                -1.5765057691208002,
                -1.3686591581624628,
                1.969320755419044,
                -0.5888809938626247,
                1.3052115497823988,
                -3.1222521858483567
            ]
        },
        {
            "positions": [
                -1.6727653718615854,
                -1.417986058701941,
                1.9593232392642785,
                -0.5354621131823063,
                1.4710625347229018,
                -3.1218840230793368
            ]
        }
    ]
}