{
    "goal": {
        "global_pose": {
            "orientation": {
                "w": 0.7031023480610252,
                "x": -0.7110244013736278,
                "y": 0.0077485991402295624,
                "z": 0.005598929693374583
            },
            "position": {
                "x": -0.8841497679147869,
                "y": 0.44412534475326537,
                "z": 0.3711530566215515
            }
        },
        "name": "move_to_auspresseinheit_D"
    },
    "id": "RRT_move_to_auspresseinheit_D_29",
    "joint_names": [
        "shoulder_pan_joint",
        "shoulder_lift_joint",
        "elbow_joint",
        "wrist_1_joint",
        "wrist_2_joint",
        "wrist_3_joint"
    ],
    "metrics": {
        "cart_traj_len": 0.3435124864086057,
        "distance_elbow_joint": 0.6531065705628285,
        "distance_shoulder_lift_joint": 0.1290894941601679,
        "distance_shoulder_pan_joint": 0.1336185662334961,
        "distance_wrist_1_joint": 0.5919195575054399,
        "distance_wrist_2_joint": 1.4317944914932483,
        "distance_wrist_3_joint": 0.05719866725033107,
        "smoothness": 0.0,
        "time": 0.011456573000000001,
        "traj_len": 1.7311058162935944,
        "weighted_distance": 2.2660182547157164
    },
    "planner": "RRT",
    "start": {
        "state": {
            "elbow_joint": -1.8275523626775212,
            "shoulder_lift_joint": -2.126789852344167,
            "shoulder_pan_joint": -0.03513704404078235,
            "wrist_1_joint": -2.347782403156801,
            "wrist_2_joint": -1.6058999987535132,
            "wrist_3_joint": -3.0880379163319196
        }
    },
    "waypoints": [
        {
            "positions": [
                -0.03513704404078235,
                -2.126789852344167,
                -1.8275523626775212,
                -2.347782403156801,
                -1.6058999987535132,
                -3.0880379163319196
            ]
        },
        {
            "positions": [
                -0.05183936481996936,
                -2.142926039114188,
                -1.7459140413571677,
                -2.421772347844981,
                -1.4269256873168572,
                -3.080888082925628
            ]
        },
        {
            "positions": [
                -0.06854168559915638,
                -2.1590622258842087,
                -1.6642757200368141,
                -2.495762292533161,
                -1.2479513758802012,
                -3.073738249519337
            ]
        },
        {
            "positions": [
                -0.0852440063783434,
                -2.17519841265423,
                -1.5826373987164606,
                -2.5697522372213406,
                -1.068977064443545,
                -3.0665884161130457
            ]
        },
        {
            "positions": [
                -0.10194632715753041,
                -2.191334599424251,
                -1.500999077396107,
                -2.643742181909521,
                -0.890002753006889,
                -3.059438582706754
            ]
        },
        {
            "positions": [
                -0.11864864793671742,
                -2.2074707861942717,
                -1.4193607560757533,
                -2.717732126597701,
                -0.711028441570233,
                -3.0522887493004625
            ]
        },
        {
            "positions": [
                -0.13535096871590444,
                -2.223606972964293,
                -1.3377224347553998,
                -2.791722071285881,
                -0.5320541301335768,
                -3.0451389158941713
            ]
        },
        {
            "positions": [
                -0.15205328949509145,
                -2.2397431597343136,
                -1.2560841134350462,
                -2.8657120159740606,
                -0.35307981869692084,
                -3.03798908248788
            ]
        },
        {
            "positions": [
                -0.16875561027427846,
                -2.2558793465043347,
                -1.1744457921146927,
                -2.9397019606622408,
                -0.1741055072602648,
                -3.0308392490815885
            ]
        }
    ]
}