{
    "goal": {
        "global_pose": {
            "orientation": {
                "w": 0.7031023480610252,
                "x": -0.7110244013736278,
                "y": 0.0077485991402295624,
                "z": 0.005598929693374583
            },
            "position": {
                "x": -0.8841497679147869,
                "y": 0.44412534475326537,
                "z": 0.3711530566215515
            }
        },
        "name": "move_to_auspresseinheit_D"
    },
    "id": "RRT_move_to_auspresseinheit_D_105",
    "joint_names": [
        "shoulder_pan_joint",
        "shoulder_lift_joint",
        "elbow_joint",
        "wrist_1_joint",
        "wrist_2_joint",
        "wrist_3_joint"
    ],
    "metrics": {
        "cart_traj_len": 0.34256132068067585,
        "distance_elbow_joint": 0.6386848020292497,
        "distance_shoulder_lift_joint": 0.12188997293390758,
        "distance_shoulder_pan_joint": 0.13331601008570196,
        "distance_wrist_1_joint": 0.5324400881763394,
        "distance_wrist_2_joint": 1.4363262694964176,
        "distance_wrist_3_joint": 0.0014712229178170944,
        "smoothness": 0.0,
        "time": 0.013720458,
        "traj_len": 1.6923735892643306,
        "weighted_distance": 2.199053698559411
    },
    "planner": "RRT",
    "start": {
        "state": {
            "elbow_joint": -1.8275523626775212,
            "shoulder_lift_joint": -2.126789852344167,
            "shoulder_pan_joint": -0.03513704404078235,
            "wrist_1_joint": -2.347782403156801,
            "wrist_2_joint": -1.6058999987535132,
            "wrist_3_joint": -3.0880379163319196
        }
    },
    "waypoints": [
        {
            "positions": [
                -0.03513704404078235,
                -2.126789852344167,
                -1.8275523626775212,
                -2.347782403156801,
                -1.6058999987535132,
                -3.0880379163319196
            ]
        },
        {
            "positions": [
                -0.0518015453014951,
                -2.1420260989609052,
                -1.747716762423865,
                -2.4143374141788434,
                -1.426359215066461,
                -3.0878540134671923
            ]
        },
        {
            "positions": [
                -0.06846604656220784,
                -2.1572623455776436,
                -1.6678811621702088,
                -2.480892425200886,
                -1.2468184313794088,
                -3.087670110602465
            ]
        },
        {
            "positions": [
                -0.0851305478229206,
                -2.172498592194382,
                -1.5880455619165526,
                -2.547447436222928,
                -1.0672776476923564,
                -3.0874862077377383
            ]
        },
        {
            "positions": [
                -0.10179504908363332,
                -2.187734838811121,
                -1.5082099616628963,
                -2.6140024472449706,
                -0.8877368640053044,
                -3.087302304873011
            ]
        },
        {
            "positions": [
                -0.11845955034434608,
                -2.2029710854278592,
                -1.4283743614092401,
                -2.680557458267013,
                -0.7081960803182522,
                -3.087118402008284
            ]
        },
        {
            "positions": [
                -0.13512405160505883,
                -2.2182073320445976,
                -1.348538761155584,
                -2.747112469289055,
                -0.5286552966311999,
                -3.086934499143557
            ]
        },
        {
            "positions": [
                -0.15178855286577156,
                -2.233443578661336,
                -1.2687031609019277,
                -2.8136674803110977,
                -0.34911451294414775,
                -3.0867505962788298
            ]
        },
        {
            "positions": [
                -0.16845305412648431,
                -2.2486798252780744,
                -1.1888675606482715,
                -2.8802224913331402,
                -0.1695737292570955,
                -3.0865666934141025
            ]
        }
    ]
}