{
    "goal": {
        "global_pose": {
            "orientation": {
                "w": 0.005598929693374612,
                "x": 0.007748599140229565,
                "y": 0.7110244013736278,
                "z": -0.7031023480610252
            },
            "position": {
                "x": 0.1141497679147869,
                "y": -0.7141253447532654,
                "z": 0.3711530566215515
            }
        },
        "name": "move_to_auspresseinheit_B"
    },
    "id": "RRT_move_to_auspresseinheit_B_150",
    "joint_names": [
        "shoulder_pan_joint",
        "shoulder_lift_joint",
        "elbow_joint",
        "wrist_1_joint",
        "wrist_2_joint",
        "wrist_3_joint"
    ],
    "metrics": {
        "cart_traj_len": 0.5648219308525216,
        "distance_elbow_joint": 0.05849433270821702,
        "distance_shoulder_lift_joint": 0.2957619153463904,
        "distance_shoulder_pan_joint": 0.5774617199118854,
        "distance_wrist_1_joint": 0.31622509991037173,
        "distance_wrist_2_joint": 0.9976799062464925,
        "distance_wrist_3_joint": 0.0035694878183054612,
        "smoothness": 2.5376526478085547e-16,
        "time": 0.010691161,
        "traj_len": 1.4997307964903777,
        "weighted_distance": 1.8895069313805488
    },
    "planner": "RRT",
    "start": {
        "state": {
            "elbow_joint": 2.0193083361928714,
            "shoulder_lift_joint": -1.1220246554650708,
            "shoulder_pan_joint": -1.0952077554168747,
            "wrist_1_joint": -0.8559753972642168,
            "wrist_2_joint": 0.4759566250798843,
            "wrist_3_joint": -3.1240929996934557
        }
    },
    "waypoints": [
        {
            "positions": [
                -1.0952077554168747,
                -1.1220246554650708,
                2.0193083361928714,
                -0.8559753972642168,
                0.4759566250798843,
                -3.1240929996934557
            ]
        },
        {
            "positions": [
                -1.191451375402189,
                -1.1713183080228025,
                2.009559280741502,
                -0.8032712139458215,
                0.6422366094542997,
                -3.1234980850570713
            ]
        },
        {
            "positions": [
                -1.2876949953875032,
                -1.2206119605805343,
                1.9998102252901324,
                -0.7505670306274262,
                0.8085165938287151,
                -3.1229031704206873
            ]
        },
        {
            "positions": [
                -1.3839386153728173,
                -1.269905613138266,
                1.990061169838763,
                -0.6978628473090309,
                0.9747965782031305,
                -3.122308255784303
            ]
        },
        {
            "positions": [
                -1.4801822353581315,
                -1.3191992656959977,
                1.9803121143873934,
                -0.6451586639906357,
                1.1410765625775459,
                -3.1217133411479185
            ]
        },
        {
            "positions": [
                -1.5764258553434458,
                -1.3684929182537295,
                1.970563058936024,
                -0.5924544806722403,
                1.3073565469519615,
                -3.1211184265115346
            ]
        },
        {
            "positions": [
                -1.67266947532876,
                -1.4177865708114612,
                1.9608140034846544,
                -0.539750297353845,
                1.4736365313263768,
                -3.12052351187515
            ]
        }
    ]
}