{
    "goal": {
        "global_pose": {
            "orientation": {
                "w": 0.005598929693374612,
                "x": 0.007748599140229565,
                "y": 0.7110244013736278,
                "z": -0.7031023480610252
            },
            "position": {
                "x": 0.1141497679147869,
                "y": -0.7141253447532654,
                "z": 0.3711530566215515
            }
        },
        "name": "move_to_auspresseinheit_B"
    },
    "id": "RRT_move_to_auspresseinheit_B_3",
    "joint_names": [
        "shoulder_pan_joint",
        "shoulder_lift_joint",
        "elbow_joint",
        "wrist_1_joint",
        "wrist_2_joint",
        "wrist_3_joint"
    ],
    "metrics": {
        "cart_traj_len": 0.5652266477638732,
        "distance_elbow_joint": 0.06520334340233336,
        "distance_shoulder_lift_joint": 0.29494633750263044,
        "distance_shoulder_pan_joint": 0.5771259071217552,
        "distance_wrist_1_joint": 0.33934060923805665,
        "distance_wrist_2_joint": 0.9986916747837504,
        "distance_wrist_3_joint": 0.0038985964288826835,
        "smoothness": 0.0,
        "time": 0.015704597,
        "traj_len": 1.5097040996425124,
        "weighted_distance": 1.9039527161557823
    },
    "planner": "RRT",
    "start": {
        "state": {
            "elbow_joint": 2.0193083361928714,
            "shoulder_lift_joint": -1.1220246554650708,
            "shoulder_pan_joint": -1.0952077554168747,
            "wrist_1_joint": -0.8559753972642168,
            "wrist_2_joint": 0.4759566250798843,
            "wrist_3_joint": -3.1240929996934557
        }
    },
    "waypoints": [
        {
            "positions": [
                -1.0952077554168747,
                -1.1220246554650708,
                2.0193083361928714,
                -0.8559753972642168,
                0.4759566250798843,
                -3.1240929996934557
            ]
        },
        {
            "positions": [
                -1.191395406603834,
                -1.1711823783821758,
                2.0084411122924823,
                -0.799418629057874,
                0.6424052375438427,
                -3.1247427657649363
            ]
        },
        {
            "positions": [
                -1.287583057790793,
                -1.220340101299281,
                1.9975738883920937,
                -0.7428618608515313,
                0.8088538500078011,
                -3.1253925318364164
            ]
        },
        {
            "positions": [
                -1.3837707089777522,
                -1.2694978242163861,
                1.9867066644917046,
                -0.6863050926451885,
                0.9753024624717594,
                -3.126042297907897
            ]
        },
        {
            "positions": [
                -1.4799583601647113,
                -1.318655547133491,
                1.9758394405913158,
                -0.6297483244388458,
                1.1417510749357178,
                -3.1266920639793776
            ]
        },
        {
            "positions": [
                -1.5761460113516708,
                -1.367813270050596,
                1.964972216690927,
                -0.573191556232503,
                1.3081996873996764,
                -3.1273418300508578
            ]
        },
        {
            "positions": [
                -1.6723336625386298,
                -1.4169709929677012,
                1.954104992790538,
                -0.5166347880261601,
                1.4746482998636348,
                -3.1279915961223383
            ]
        }
    ]
}