{
    "goal": {
        "global_pose": {
            "orientation": {
                "w": 0.7031023502349854,
                "x": -0.7110244035720825,
                "y": 0.007748599164187908,
                "z": 0.005598929710686207
            },
            "position": {
                "x": 0.11585023208521307,
                "y": 0.44412534475326537,
                "z": 0.3711530566215515
            }
        },
        "name": "move_to_auspresseinheit_A"
    },
    "id": "RRT_move_to_auspresseinheit_A_130",
    "joint_names": [
        "shoulder_pan_joint",
        "shoulder_lift_joint",
        "elbow_joint",
        "wrist_1_joint",
        "wrist_2_joint",
        "wrist_3_joint"
    ],
    "metrics": {
        "cart_traj_len": 1.8046969256523961,
        "distance_elbow_joint": 0.7506460135977835,
        "distance_shoulder_lift_joint": 1.1843227489288324,
        "distance_shoulder_pan_joint": 2.7344353903165146,
        "distance_wrist_1_joint": 4.096744481906606,
        "distance_wrist_2_joint": 5.102265057516612,
        "distance_wrist_3_joint": 3.0113240349129615,
        "smoothness": 0.7133554826605096,
        "time": 1.9532110349999998,
        "traj_len": 4.108495798607966,
        "weighted_distance": 5.665809327574345
    },
    "planner": "RRT",
    "start": {
        "state": {
            "elbow_joint": 2.4225746658250005,
            "shoulder_lift_joint": -1.3736534386056498,
            "shoulder_pan_joint": -0.3378633547517467,
            "wrist_1_joint": -1.0288598680537169,
            "wrist_2_joint": 1.233022673432363,
            "wrist_3_joint": -3.0940220416140027
        }
    },
    "waypoints": [
        {
            "positions": [
                -0.3378633547517467,
                -1.3736534386056498,
                2.4225746658250005,
                -1.0288598680537169,
                1.233022673432363,
                -3.0940220416140027
            ]
        },
        {
            "positions": [
                -0.37809477990960516,
                -1.3581309848968002,
                2.4039684102604286,
                -0.9178261743598198,
                1.0990857129992029,
                -3.023491368665103
            ]
        },
        {
            "positions": [
                -0.41832620506746354,
                -1.3426085311879505,
                2.3853621546958568,
                -0.8067924806659228,
                0.9651487525660425,
                -2.9529606957162025
            ]
        },
        {
            "positions": [
                -0.4585576302253219,
                -1.327086077479101,
                2.366755899131285,
                -0.6957587869720256,
                0.8312117921328822,
                -2.8824300227673025
            ]
        },
        {
            "positions": [
                -0.49878905538318036,
                -1.3115636237702513,
                2.348149643566713,
                -0.5847250932781287,
                0.6972748316997219,
                -2.811899349818402
            ]
        },
        {
            "positions": [
                -0.5390204805410388,
                -1.2960411700614016,
                2.3295433880021412,
                -0.4736913995842317,
                0.5633378712665617,
                -2.7413686768695023
            ]
        },
        {
            "positions": [
                -0.5792519056988972,
                -1.2805187163525522,
                2.3109371324375694,
                -0.3626577058903345,
                0.4294009108334014,
                -2.6708380039206023
            ]
        },
        {
            "positions": [
                -0.6194833308567556,
                -1.2649962626437026,
                2.2923308768729975,
                -0.2516240121964375,
                0.2954639504002411,
                -2.600307330971702
            ]
        },
        {
            "positions": [
                -0.6597147560146139,
                -1.249473808934853,
                2.2737246213084257,
                -0.14059031850254045,
                0.16152698996708081,
                -2.529776658022802
            ]
        },
        {
            "positions": [
                -0.6999461811724724,
                -1.2339513552260033,
                2.255118365743854,
                -0.029556624808643406,
                0.027590029533920646,
                -2.4592459850739017
            ]
        },
        {
            "positions": [
                -0.7401776063303308,
                -1.2184289015171537,
                2.236512110179282,
                0.08147706888525352,
                -0.10634693089923974,
                -2.3887153121250018
            ]
        },
        {
            "positions": [
                -0.7804090314881893,
                -1.202906447808304,
                2.2179058546147097,
                0.1925107625791509,
                -0.24028389133240013,
                -2.318184639176102
            ]
        },
        {
            "positions": [
                -0.8206404566460477,
                -1.1873839940994544,
                2.199299599050138,
                0.3035444562730478,
                -0.3742208517655603,
                -2.2476539662272015
            ]
        },
        {
            "positions": [
                -0.8608718818039061,
                -1.1718615403906048,
                2.180693343485566,
                0.414578149966945,
                -0.5081578121987207,
                -2.1771232932783016
            ]
        },
        {
            "positions": [
                -0.9011033069617644,
                -1.1563390866817551,
                2.162087087920994,
                0.5256118436608419,
                -0.6420947726318809,
                -2.106592620329401
            ]
        },
        {
            "positions": [
                -0.9413347321196228,
                -1.1408166329729055,
                2.1434808323564223,
                0.636645537354739,
                -0.7760317330650415,
                -2.0360619473805013
            ]
        },
        {
            "positions": [
                -0.9815661572774812,
                -1.125294179264056,
                2.1248745767918504,
                0.747679231048636,
                -0.9099686934982014,
                -1.9655312744316011
            ]
        },
        {
            "positions": [
                -1.0217975824353398,
                -1.1097717255552064,
                2.1062683212272786,
                0.8587129247425331,
                -1.0439056539313618,
                -1.895000601482701
            ]
        },
        {
            "positions": [
                -1.0620290075931982,
                -1.0942492718463568,
                2.0876620656627067,
                0.9697466184364301,
                -1.1778426143645218,
                -1.824469928533801
            ]
        },
        {
            "positions": [
                -1.1022604327510566,
                -1.0787268181375071,
                2.069055810098135,
                1.080780312130327,
                -1.3117795747976826,
                -1.753939255584901
            ]
        },
        {
            "positions": [
                -1.142491857908915,
                -1.0632043644286575,
                2.050449554533563,
                1.191814005824224,
                -1.4457165352308425,
                -1.6834085826360008
            ]
        },
        {
            "positions": [
                -1.1827232830667733,
                -1.0476819107198079,
                2.031843298968991,
                1.302847699518121,
                -1.5796534956640027,
                -1.6128779096871007
            ]
        },
        {
            "positions": [
                -1.096833489339433,
                -1.086697875312671,
                2.048203055639072,
                1.2226187488665408,
                -1.4755812734630824,
                -1.6824315416410125
            ]
        },
        {
            "positions": [
                -1.0109436956120927,
                -1.1257138399055342,
                2.0645628123091524,
                1.1423897982149605,
                -1.371509051262162,
                -1.7519851735949243
            ]
        },
        {
            "positions": [
                -0.9250539018847523,
                -1.1647298044983976,
                2.0809225689792332,
                1.0621608475633804,
                -1.2674368290612417,
                -1.821538805548836
            ]
        },
        {
            "positions": [
                -0.8391641081574119,
                -1.2037457690912607,
                2.0972823256493136,
                0.9819318969118,
                -1.1633646068603212,
                -1.8910924375027478
            ]
        },
        {
            "positions": [
                -0.7532743144300718,
                -1.242761733684124,
                2.1136420823193944,
                0.9017029462602197,
                -1.059292384659401,
                -1.9606460694566596
            ]
        },
        {
            "positions": [
                -0.6673845207027314,
                -1.281777698276987,
                2.1300018389894753,
                0.8214739956086394,
                -0.9552201624584806,
                -2.0301997014105715
            ]
        },
        {
            "positions": [
                -0.5814947269753911,
                -1.3207936628698502,
                2.1463615956595556,
                0.7412450449570592,
                -0.8511479402575602,
                -2.0997533333644833
            ]
        },
        {
            "positions": [
                -0.49560493324805066,
                -1.3598096274627136,
                2.1627213523296365,
                0.6610160943054789,
                -0.7470757180566399,
                -2.169306965318395
            ]
        },
        {
            "positions": [
                -0.40971513952071026,
                -1.3988255920555768,
                2.179081108999717,
                0.5807871436538986,
                -0.6430034958557195,
                -2.238860597272307
            ]
        },
        {
            "positions": [
                -0.3238253457933701,
                -1.43784155664844,
                2.1954408656697977,
                0.5005581930023184,
                -0.5389312736547993,
                -2.3084142292262184
            ]
        },
        {
            "positions": [
                -0.23793555206602968,
                -1.476857521241303,
                2.2118006223398785,
                0.4203292423507381,
                -0.4348590514538788,
                -2.3779678611801303
            ]
        },
        {
            "positions": [
                -0.15204575833868939,
                -1.5158734858341663,
                2.228160379009959,
                0.3401002916991579,
                -0.33078682925295855,
                -2.447521493134042
            ]
        },
        {
            "positions": [
                -0.06615596461134898,
                -1.5548894504270296,
                2.2445201356800397,
                0.2598713410475775,
                -0.22671460705203805,
                -2.517075125087954
            ]
        },
        {
            "positions": [
                0.019733829115991197,
                -1.5939054150198926,
                2.26087989235012,
                0.1796423903959974,
                -0.12264238485111778,
                -2.586628757041866
            ]
        },
        {
            "positions": [
                0.1056236228433316,
                -1.632921379612756,
                2.277239649020201,
                0.09941343974441708,
                -0.018570162650197508,
                -2.656182388995777
            ]
        },
        {
            "positions": [
                0.191513416570672,
                -1.6719373442056191,
                2.2935994056902818,
                0.019184489092836765,
                0.08550205955072299,
                -2.7257360209496895
            ]
        },
        {
            "positions": [
                0.2774032102980122,
                -1.7109533087984823,
                2.309959162360362,
                -0.061044461558743546,
                0.18957428175164326,
                -2.795289652903601
            ]
        },
        {
            "positions": [
                0.3632930040253528,
                -1.7499692733913457,
                2.326318919030443,
                -0.14127341221032386,
                0.29364650395256375,
                -2.864843284857513
            ]
        },
        {
            "positions": [
                0.449182797752693,
                -1.7889852379842086,
                2.3426786757005233,
                -0.22150236286190417,
                0.397718726153484,
                -2.9343969168114246
            ]
        },
        {
            "positions": [
                0.5350725914800332,
                -1.828001202577072,
                2.359038432370604,
                -0.30173131351348426,
                0.5017909483544041,
                -3.0039505487653364
            ]
        },
        {
            "positions": [
                0.6209623852073738,
                -1.8670171671699352,
                2.375398189040685,
                -0.3819602641650648,
                0.6058631705553248,
                -3.0735041807192482
            ]
        },
        {
            "positions": [
                0.706852178934714,
                -1.9060331317627983,
                2.3917579457107654,
                -0.46218921481664493,
                0.7099353927562453,
                -3.14305781267316
            ]
        }
    ]
}