{
    "goal": {
        "global_pose": {
            "orientation": {
                "w": 0.005598929693374612,
                "x": 0.007748599140229565,
                "y": 0.7110244013736278,
                "z": -0.7031023480610252
            },
            "position": {
                "x": -0.8858502320852131,
                "y": -0.7141253447532654,
                "z": 0.3711530566215515
            }
        },
        "name": "move_to_auspresseinheit_C"
    },
    "id": "RRT_move_to_auspresseinheit_C_105",
    "joint_names": [
        "shoulder_pan_joint",
        "shoulder_lift_joint",
        "elbow_joint",
        "wrist_1_joint",
        "wrist_2_joint",
        "wrist_3_joint"
    ],
    "metrics": {
        "cart_traj_len": 0.49408768427120325,
        "distance_elbow_joint": 1.0070677667905128,
        "distance_shoulder_lift_joint": 0.3284102889338294,
        "distance_shoulder_pan_joint": 0.25725765497517505,
        "distance_wrist_1_joint": 0.6934310014726055,
        "distance_wrist_2_joint": 1.3040253462063265,
        "distance_wrist_3_joint": 0.07519256084299997,
        "smoothness": 1.6148698667872622e-16,
        "time": 0.017191447999999998,
        "traj_len": 1.9145194225239528,
        "weighted_distance": 2.411063269303894
    },
    "planner": "RRT",
    "start": {
        "state": {
            "elbow_joint": 1.7527959577737207,
            "shoulder_lift_joint": -0.9740617694225068,
            "shoulder_pan_joint": -2.967991417825858,
            "wrist_1_joint": -0.759517768980727,
            "wrist_2_joint": 1.7443932448377408,
            "wrist_3_joint": -3.0840537646736568
        }
    },
    "waypoints": [
        {
            "positions": [
                -2.967991417825858,
                -0.9740617694225068,
                1.7527959577737207,
                -0.759517768980727,
                1.7443932448377408,
                -3.0840537646736568
            ]
        },
        {
            "positions": [
                -2.9422656523283406,
                -0.9412207405291239,
                1.6520891810946694,
                -0.6901746688334665,
                1.6139907102171083,
                -3.0915730207579566
            ]
        },
        {
            "positions": [
                -2.9165398868308228,
                -0.9083797116357409,
                1.5513824044156181,
                -0.6208315686862058,
                1.4835881755964755,
                -3.099092276842257
            ]
        },
        {
            "positions": [
                -2.8908141213333054,
                -0.8755386827423579,
                1.4506756277365669,
                -0.5514884685389454,
                1.353185640975843,
                -3.1066115329265567
            ]
        },
        {
            "positions": [
                -2.865088355835788,
                -0.842697653848975,
                1.3499688510575156,
                -0.48214536839168476,
                1.2227831063552101,
                -3.114130789010857
            ]
        },
        {
            "positions": [
                -2.83936259033827,
                -0.8098566249555921,
                1.2492620743784641,
                -0.41280226824442423,
                1.0923805717345776,
                -3.1216500450951568
            ]
        },
        {
            "positions": [
                -2.813636824840753,
                -0.7770155960622092,
                1.1485552976994131,
                -0.3434591680971637,
                0.9619780371139449,
                -3.1291693011794566
            ]
        },
        {
            "positions": [
                -2.7879110593432355,
                -0.7441745671688262,
                1.0478485210203616,
                -0.2741160679499032,
                0.8315755024933124,
                -3.136688557263757
            ]
        },
        {
            "positions": [
                -2.762185293845718,
                -0.7113335382754433,
                0.9471417443413104,
                -0.20477296780264254,
                0.7011729678726797,
                -3.1442078133480567
            ]
        },
        {
            "positions": [
                -2.7364595283482003,
                -0.6784925093820603,
                0.8464349676622591,
                -0.135429867655382,
                0.5707704332520469,
                -3.151727069432357
            ]
        },
        {
            "positions": [
                -2.710733762850683,
                -0.6456514804886774,
                0.7457281909832079,
                -0.06608676750812148,
                0.44036789863141423,
                -3.1592463255166567
            ]
        }
    ]
}