{
    "goal": {
        "global_pose": {
            "orientation": {
                "w": -0.4816463035849501,
                "x": 0.5182115481033762,
                "y": 0.4908360881923453,
                "z": -0.5084816262002911
            },
            "position": {
                "x": -0.8240239810943604,
                "y": -0.300875300988555,
                "z": 0.16403168439865112
            }
        },
        "name": "move_to_storage_C"
    },
    "id": "RRT_move_to_storage_C_77",
    "joint_names": [
        "shoulder_pan_joint",
        "shoulder_lift_joint",
        "elbow_joint",
        "wrist_1_joint",
        "wrist_2_joint",
        "wrist_3_joint"
    ],
    "metrics": {
        "cart_traj_len": 0.5770494091825296,
        "distance_elbow_joint": 0.26063094548280685,
        "distance_shoulder_lift_joint": 0.19072022722908188,
        "distance_shoulder_pan_joint": 0.49351541369766805,
        "distance_wrist_1_joint": 0.08662239776559333,
        "distance_wrist_2_joint": 1.0796896202859245,
        "distance_wrist_3_joint": 0.05714193179859528,
        "smoothness": 2.5376526478085547e-16,
        "time": 0.066998933,
        "traj_len": 1.4725218287888535,
        "weighted_distance": 1.8571258486996454
    },
    "planner": "RRT",
    "start": {
        "state": {
            "elbow_joint": 2.010868314990456,
            "shoulder_lift_joint": -1.1634956873337592,
            "shoulder_pan_joint": -2.4736205022346125,
            "wrist_1_joint": -0.8367026794202681,
            "wrist_2_joint": 0.6746043897044499,
            "wrist_3_joint": -3.1496632123970403
        }
    },
    "waypoints": [
        {
            "positions": [
                -2.4736205022346125,
                -1.1634956873337592,
                2.010868314990456,
                -0.8367026794202681,
                0.6746043897044499,
                -3.1496632123970403
            ]
        },
        {
            "positions": [
                -2.555873071184224,
                -1.1317089827955789,
                1.9674298240766546,
                -0.8222656131260025,
                0.854552659752104,
                -3.1401395570972745
            ]
        },
        {
            "positions": [
                -2.6381256401338353,
                -1.0999222782573985,
                1.9239913331628535,
                -0.807828546831737,
                1.034500929799758,
                -3.1306159017975084
            ]
        },
        {
            "positions": [
                -2.7203782090834467,
                -1.0681355737192182,
                1.8805528422490525,
                -0.7933914805374714,
                1.214449199847412,
                -3.1210922464977426
            ]
        },
        {
            "positions": [
                -2.8026307780330577,
                -1.0363488691810379,
                1.8371143513352512,
                -0.7789544142432059,
                1.394397469895066,
                -3.111568591197977
            ]
        },
        {
            "positions": [
                -2.884883346982669,
                -1.0045621646428575,
                1.79367586042145,
                -0.7645173479489403,
                1.5743457399427205,
                -3.1020449358982107
            ]
        },
        {
            "positions": [
                -2.9671359159322805,
                -0.9727754601046773,
                1.750237369507649,
                -0.7500802816546748,
                1.7542940099903743,
                -3.092521280598445
            ]
        }
    ]
}