{
    "goal": {
        "global_pose": {
            "orientation": {
                "w": 0.7047431468963623,
                "x": -0.7094548344612122,
                "y": 0.0024358443915843964,
                "z": -0.0022348060738295317
            },
            "position": {
                "x": 0.6094750761985779,
                "y": 0.3671506643295288,
                "z": 0.19426114857196808
            }
        },
        "name": "move_to_magneteinheit_A"
    },
    "id": "RRT_move_to_magneteinheit_A_135",
    "joint_names": [
        "shoulder_pan_joint",
        "shoulder_lift_joint",
        "elbow_joint",
        "wrist_1_joint",
        "wrist_2_joint",
        "wrist_3_joint"
    ],
    "metrics": {
        "cart_traj_len": 3.5228747741378426,
        "distance_elbow_joint": 3.9057136353843154,
        "distance_shoulder_lift_joint": 0.502330903573581,
        "distance_shoulder_pan_joint": 2.923853666238676,
        "distance_wrist_1_joint": 1.6275967429062956,
        "distance_wrist_2_joint": 1.6896121396203676,
        "distance_wrist_3_joint": 3.565076615959673,
        "smoothness": 0.16409550383128912,
        "time": 0.123487701,
        "traj_len": 3.770170248633728,
        "weighted_distance": 4.96603924854898
    },
    "planner": "RRT",
    "start": {
        "state": {
            "elbow_joint": -1.9196185241190666,
            "shoulder_lift_joint": -1.2443396400964142,
            "shoulder_pan_joint": 2.6996025414629847,
            "wrist_1_joint": -1.5485510000780065,
            "wrist_2_joint": -1.5709468930060704,
            "wrist_3_joint": 0.4420197071253992
        }
    },
    "waypoints": [
        {
            "positions": [
                2.6996025414629847,
                -1.2443396400964142,
                -1.9196185241190666,
                -1.5485510000780065,
                -1.5709468930060704,
                0.4420197071253992
            ]
        },
        {
            "positions": [
                2.5206146686071857,
                -1.2109534439508016,
                -1.8478718142281536,
                -1.600570783429829,
                -1.5540887610942542,
                0.4187728518293604
            ]
        },
        {
            "positions": [
                2.3416267957513863,
                -1.1775672478051888,
                -1.7761251043372408,
                -1.6525905667816516,
                -1.5372306291824382,
                0.39552599653332166
            ]
        },
        {
            "positions": [
                2.1626389228955873,
                -1.1441810516595763,
                -1.7043783944463278,
                -1.7046103501334742,
                -1.520372497270622,
                0.37227914123728295
            ]
        },
        {
            "positions": [
                1.9836510500397884,
                -1.1107948555139637,
                -1.632631684555415,
                -1.7566301334852965,
                -1.503514365358806,
                0.3490322859412442
            ]
        },
        {
            "positions": [
                1.804663177183989,
                -1.0774086593683512,
                -1.5608849746645017,
                -1.808649916837119,
                -1.48665623344699,
                0.32578543064520543
            ]
        },
        {
            "positions": [
                1.62567530432819,
                -1.0440224632227384,
                -1.489138264773589,
                -1.8606697001889416,
                -1.4697981015351738,
                0.3025385753491667
            ]
        },
        {
            "positions": [
                1.4466874314723908,
                -1.0106362670771258,
                -1.417391554882676,
                -1.9126894835407642,
                -1.4529399696233576,
                0.27929172005312797
            ]
        },
        {
            "positions": [
                1.2676995586165918,
                -0.9772500709315133,
                -1.345644844991763,
                -1.9647092668925867,
                -1.4360818377115416,
                0.2560448647570892
            ]
        },
        {
            "positions": [
                1.0887116857607926,
                -0.9438638747859006,
                -1.27389813510085,
                -2.0167290502444093,
                -1.4192237057997255,
                0.23279800946105045
            ]
        },
        {
            "positions": [
                1.0391496168340082,
                -0.9490020968183391,
                -1.1489674459603787,
                -1.9828571493664087,
                -1.368961213570626,
                0.11008043968628274
            ]
        },
        {
            "positions": [
                0.9895875479072237,
                -0.9541403188507778,
                -1.0240367568199074,
                -1.9489852484884083,
                -1.3186987213415264,
                -0.012637130088484966
            ]
        },
        {
            "positions": [
                0.9400254789804392,
                -0.9592785408832163,
                -0.899106067679436,
                -1.9151133476104076,
                -1.2684362291124267,
                -0.13535469986325266
            ]
        },
        {
            "positions": [
                0.8904634100536548,
                -0.9644167629156549,
                -0.7741753785389647,
                -1.8812414467324072,
                -1.2181737368833272,
                -0.2580722696380204
            ]
        },
        {
            "positions": [
                0.8409013411268703,
                -0.9695549849480934,
                -0.6492446893984933,
                -1.8473695458544066,
                -1.1679112446542277,
                -0.3807898394127881
            ]
        },
        {
            "positions": [
                0.7913392722000858,
                -0.974693206980532,
                -0.524314000258022,
                -1.8134976449764062,
                -1.1176487524251282,
                -0.5035074091875558
            ]
        },
        {
            "positions": [
                0.7417772032733014,
                -0.9798314290129706,
                -0.39938331111755065,
                -1.7796257440984056,
                -1.0673862601960287,
                -0.6262249789623235
            ]
        },
        {
            "positions": [
                0.6922151343465169,
                -0.9849696510454091,
                -0.2744526219770793,
                -1.7457538432204052,
                -1.017123767966929,
                -0.7489425487370912
            ]
        },
        {
            "positions": [
                0.6426530654197324,
                -0.9901078730778478,
                -0.14952193283660797,
                -1.7118819423424045,
                -0.9668612757378294,
                -0.8716601185118589
            ]
        },
        {
            "positions": [
                0.593090996492948,
                -0.9952460951102863,
                -0.024591243696136633,
                -1.6780100414644041,
                -0.9165987835087299,
                -0.9943776882866266
            ]
        },
        {
            "positions": [
                0.5435289275661636,
                -1.000384317142725,
                0.10033944544433471,
                -1.6441381405864035,
                -0.8663362912796303,
                -1.1170952580613944
            ]
        },
        {
            "positions": [
                0.49396685863937917,
                -1.0055225391751634,
                0.22527013458480605,
                -1.610266239708403,
                -0.8160737990505308,
                -1.239812827836162
            ]
        },
        {
            "positions": [
                0.4444047897125948,
                -1.010660761207602,
                0.35020082372527717,
                -1.5763943388304025,
                -0.7658113068214313,
                -1.3625303976109295
            ]
        },
        {
            "positions": [
                0.3948427207858102,
                -1.0157989832400405,
                0.47513151286574873,
                -1.5425224379524018,
                -0.7155488145923317,
                -1.4852479673856975
            ]
        },
        {
            "positions": [
                0.3452806518590258,
                -1.020937205272479,
                0.6000622020062201,
                -1.5086505370744014,
                -0.665286322363232,
                -1.6079655371604653
            ]
        },
        {
            "positions": [
                0.2957185829322413,
                -1.0260754273049177,
                0.7249928911466914,
                -1.474778636196401,
                -0.6150238301341325,
                -1.7306831069352329
            ]
        },
        {
            "positions": [
                0.2461565140054569,
                -1.0312136493373563,
                0.8499235802871627,
                -1.4409067353184004,
                -0.564761337905033,
                -1.8534006767100006
            ]
        },
        {
            "positions": [
                0.1965944450786724,
                -1.0363518713697948,
                0.9748542694276341,
                -1.4070348344403998,
                -0.5144988456759334,
                -1.9761182464847682
            ]
        },
        {
            "positions": [
                0.1470323761518879,
                -1.0414900934022333,
                1.0997849585681054,
                -1.3731629335623994,
                -0.4642363534468339,
                -2.098835816259536
            ]
        },
        {
            "positions": [
                0.09747030722510353,
                -1.0466283154346718,
                1.2247156477085768,
                -1.339291032684399,
                -0.4139738612177344,
                -2.2215533860343037
            ]
        },
        {
            "positions": [
                0.04790823829831914,
                -1.0517665374671106,
                1.3496463368490481,
                -1.3054191318063983,
                -0.3637113689886349,
                -2.3442709558090713
            ]
        },
        {
            "positions": [
                -0.0016538306284654691,
                -1.056904759499549,
                1.4745770259895195,
                -1.2715472309283977,
                -0.31344887675953514,
                -2.4669885255838393
            ]
        },
        {
            "positions": [
                -0.051215899555249786,
                -1.0620429815319876,
                1.5995077151299908,
                -1.2376753300503973,
                -0.2631863845304357,
                -2.589706095358607
            ]
        },
        {
            "positions": [
                -0.01660885451116135,
                -1.0787781878353837,
                1.6768251943570425,
                -1.161602335541221,
                -0.18681605830148917,
                -2.6963762580537405
            ]
        },
        {
            "positions": [
                0.01799819053292709,
                -1.0955133941387798,
                1.7541426735840941,
                -1.085529341032045,
                -0.11044573207254268,
                -2.803046420748874
            ]
        },
        {
            "positions": [
                0.05260523557701552,
                -1.1122486004421759,
                1.8314601528111456,
                -1.0094563465228688,
                -0.034075405843596224,
                -2.9097165834440073
            ]
        },
        {
            "positions": [
                0.08721228062110396,
                -1.128983806745572,
                1.9087776320381973,
                -0.9333833520136925,
                0.04229492038535032,
                -3.016386746139141
            ]
        },
        {
            "positions": [
                0.12181932566519241,
                -1.145719013048968,
                1.986095111265249,
                -0.8573103575045163,
                0.1186652466142968,
                -3.1230569088342746
            ]
        }
    ]
}