{
    "goal": {
        "global_pose": {
            "orientation": {
                "w": 0.7047431493862688,
                "x": -0.7094548369677653,
                "y": 0.0024358444001904,
                "z": -0.0022348060817251984
            },
            "position": {
                "x": -0.39052492380142206,
                "y": 0.3671506643295288,
                "z": 0.19426114857196808
            }
        },
        "name": "move_to_magneteinheit_D"
    },
    "id": "RRT_move_to_magneteinheit_D_48",
    "joint_names": [
        "shoulder_pan_joint",
        "shoulder_lift_joint",
        "elbow_joint",
        "wrist_1_joint",
        "wrist_2_joint",
        "wrist_3_joint"
    ],
    "metrics": {
        "cart_traj_len": 4.588049203403288,
        "distance_elbow_joint": 4.840561133446764,
        "distance_shoulder_lift_joint": 1.321848128531744,
        "distance_shoulder_pan_joint": 3.71002399867937,
        "distance_wrist_1_joint": 4.152462597663815,
        "distance_wrist_2_joint": 1.1020027361590496,
        "distance_wrist_3_joint": 6.660452415658872,
        "smoothness": 0.5431984841116739,
        "time": 2.554995729,
        "traj_len": 4.667692257437244,
        "weighted_distance": 6.353166232303403
    },
    "planner": "RRT",
    "start": {
        "state": {
            "elbow_joint": 0.749534889911806,
            "shoulder_lift_joint": -0.6476975780787326,
            "shoulder_pan_joint": -2.711696901376241,
            "wrist_1_joint": -0.07506478083263063,
            "wrist_2_joint": 0.43296659715538205,
            "wrist_3_joint": -3.14703540197715
        }
    },
    "waypoints": [
        {
            "positions": [
                -2.711696901376241,
                -0.6476975780787326,
                0.749534889911806,
                -0.07506478083263063,
                0.43296659715538205,
                -3.14703540197715
            ]
        },
        {
            "positions": [
                -2.7462713422918994,
                -0.6757032427651748,
                0.8084310592686192,
                -0.037129715829784964,
                0.4759950447491232,
                -3.0173640611141757
            ]
        },
        {
            "positions": [
                -2.7808457832075577,
                -0.703708907451617,
                0.8673272286254324,
                0.0008053491730607015,
                0.5190234923428644,
                -2.8876927202512017
            ]
        },
        {
            "positions": [
                -2.8154202241232156,
                -0.7317145721380592,
                0.9262233979822456,
                0.038740414175906374,
                0.5620519399366055,
                -2.758021379388228
            ]
        },
        {
            "positions": [
                -2.849994665038874,
                -0.7597202368245014,
                0.9851195673390589,
                0.07667547917875203,
                0.6050803875303467,
                -2.6283500385252534
            ]
        },
        {
            "positions": [
                -2.827017486655481,
                -0.8064579620232999,
                1.0332774634839696,
                0.13056770132513285,
                0.5938105900690368,
                -2.418090544922129
            ]
        },
        {
            "positions": [
                -2.804040308272088,
                -0.8531956872220984,
                1.0814353596288806,
                0.1844599234715137,
                0.5825407926077271,
                -2.2078310513190047
            ]
        },
        {
            "positions": [
                -2.781063129888695,
                -0.8999334124208969,
                1.1295932557737913,
                0.23835214561789453,
                0.5712709951464172,
                -1.9975715577158801
            ]
        },
        {
            "positions": [
                -2.7580859515053024,
                -0.9466711376196953,
                1.1777511519187023,
                0.2922443677642753,
                0.5600011976851074,
                -1.7873120641127558
            ]
        },
        {
            "positions": [
                -2.7351087731219095,
                -0.9934088628184938,
                1.225909048063613,
                0.3461365899106562,
                0.5487314002237975,
                -1.5770525705096312
            ]
        },
        {
            "positions": [
                -2.7121315947385165,
                -1.0401465880172924,
                1.2740669442085237,
                0.400028812057037,
                0.5374616027624877,
                -1.3667930769065069
            ]
        },
        {
            "positions": [
                -2.6891544163551235,
                -1.0868843132160908,
                1.3222248403534347,
                0.4539210342034179,
                0.5261918053011779,
                -1.1565335833033823
            ]
        },
        {
            "positions": [
                -2.6661772379717306,
                -1.1336220384148894,
                1.3703827364983454,
                0.5078132563497987,
                0.5149220078398681,
                -0.9462740897002582
            ]
        },
        {
            "positions": [
                -2.643200059588338,
                -1.180359763613688,
                1.4185406326432564,
                0.5617054784961796,
                0.5036522103785582,
                -0.7360145960971336
            ]
        },
        {
            "positions": [
                -2.620222881204945,
                -1.2270974888124864,
                1.466698528788167,
                0.6155977006425604,
                0.49238241291724844,
                -0.525755102494009
            ]
        },
        {
            "positions": [
                -2.597245702821552,
                -1.2738352140112847,
                1.514856424933078,
                0.6694899227889411,
                0.48111261545593864,
                -0.3154956088908847
            ]
        },
        {
            "positions": [
                -2.574268524438159,
                -1.3205729392100833,
                1.5630143210779888,
                0.723382144935322,
                0.4698428179946288,
                -0.10523611528776056
            ]
        },
        {
            "positions": [
                -2.5025555839075224,
                -1.3522134343126235,
                1.5079623742377943,
                0.778442937235992,
                0.4793904240674965,
                0.040739270780069614
            ]
        },
        {
            "positions": [
                -2.430842643376886,
                -1.383853929415164,
                1.4529104273976,
                0.8335037295366619,
                0.4889380301403642,
                0.18671465684789978
            ]
        },
        {
            "positions": [
                -2.3344277438098473,
                -1.383207046995591,
                1.3211273291101313,
                0.7297324612819701,
                0.4668439166076765,
                0.14536247613691602
            ]
        },
        {
            "positions": [
                -2.2380128442428084,
                -1.3825601645760182,
                1.1893442308226627,
                0.6259611930272784,
                0.44474980307498874,
                0.10401029542593225
            ]
        },
        {
            "positions": [
                -2.14159794467577,
                -1.381913282156445,
                1.0575611325351941,
                0.5221899247725867,
                0.42265568954230104,
                0.06265811471494848
            ]
        },
        {
            "positions": [
                -2.045183045108731,
                -1.3812663997368722,
                0.9257780342477254,
                0.418418656517895,
                0.40056157600961334,
                0.021305934003964716
            ]
        },
        {
            "positions": [
                -1.9487681455416923,
                -1.3806195173172993,
                0.7939949359602567,
                0.31464738826320326,
                0.3784674624769256,
                -0.020046246707019072
            ]
        },
        {
            "positions": [
                -1.8523532459746535,
                -1.3799726348977264,
                0.6622118376727882,
                0.21087612000851153,
                0.3563733489442379,
                -0.06139842741800283
            ]
        },
        {
            "positions": [
                -1.7559383464076146,
                -1.3793257524781535,
                0.5304287393853195,
                0.10710485175381979,
                0.33427923541155014,
                -0.10275060812898662
            ]
        },
        {
            "positions": [
                -1.659523446840576,
                -1.3786788700585806,
                0.39864564109785094,
                0.0033335834991281565,
                0.3121851218788625,
                -0.14410278883997035
            ]
        },
        {
            "positions": [
                -1.563108547273537,
                -1.3780319876390075,
                0.26686254281038213,
                -0.1004376847555637,
                0.29009100834617474,
                -0.1854549695509542
            ]
        },
        {
            "positions": [
                -1.4666936477064985,
                -1.3773851052194346,
                0.13507944452291354,
                -0.20420895301025532,
                0.267996894813487,
                -0.22680715026193793
            ]
        },
        {
            "positions": [
                -1.3702787481394596,
                -1.3767382227998617,
                0.003296346235445169,
                -0.3079802212649472,
                0.2459027812807993,
                -0.2681593309729217
            ]
        },
        {
            "positions": [
                -1.273863848572421,
                -1.3760913403802888,
                -0.12848675205202342,
                -0.4117514895196388,
                0.2238086677481116,
                -0.30951151168390545
            ]
        },
        {
            "positions": [
                -1.1774489490053819,
                -1.375444457960716,
                -0.26026985033949224,
                -0.5155227577743307,
                0.20171455421542384,
                -0.35086369239488924
            ]
        },
        {
            "positions": [
                -1.0810340494383432,
                -1.3747975755411428,
                -0.39205294862696083,
                -0.6192940260290223,
                0.17962044068273614,
                -0.392215873105873
            ]
        },
        {
            "positions": [
                -0.9846191498713046,
                -1.37415069312157,
                -0.5238360469144294,
                -0.7230652942837139,
                0.15752632715004844,
                -0.4335680538168568
            ]
        },
        {
            "positions": [
                -0.8882042503042658,
                -1.373503810701997,
                -0.655619145201898,
                -0.8268365625384055,
                0.13543221361736074,
                -0.4749202345278405
            ]
        },
        {
            "positions": [
                -0.7917893507372271,
                -1.3728569282824241,
                -0.7874022434893664,
                -0.9306078307930974,
                0.11333810008467299,
                -0.5162724152388243
            ]
        },
        {
            "positions": [
                -0.695374451170188,
                -1.3722100458628512,
                -0.9191853417768356,
                -1.0343790990477892,
                0.09124398655198523,
                -0.5576245959498082
            ]
        },
        {
            "positions": [
                -0.5989595516031492,
                -1.3715631634432783,
                -1.050968440064304,
                -1.138150367302481,
                0.06914987301929754,
                -0.598976776660792
            ]
        },
        {
            "positions": [
                -0.5025446520361105,
                -1.3709162810237052,
                -1.1827515383517728,
                -1.2419216355571725,
                0.04705575948660984,
                -0.6403289573717756
            ]
        },
        {
            "positions": [
                -0.4061297524690719,
                -1.3702693986041323,
                -1.3145346366392412,
                -1.3456929038118643,
                0.02496164595392214,
                -0.6816811380827594
            ]
        },
        {
            "positions": [
                -0.30971485290203304,
                -1.3696225161845594,
                -1.4463177349267096,
                -1.4494641720665562,
                0.0028675324212343867,
                -0.7230333187937432
            ]
        },
        {
            "positions": [
                -0.21329995333499419,
                -1.3689756337649865,
                -1.5781008332141784,
                -1.5532354403212476,
                -0.019226581111453256,
                -0.7643854995047269
            ]
        },
        {
            "positions": [
                -0.11688505376795577,
                -1.3683287513454137,
                -1.7098839315016467,
                -1.6570067085759395,
                -0.04132069464414101,
                -0.8057376802157107
            ]
        },
        {
            "positions": [
                -0.02047015420091647,
                -1.3676818689258408,
                -1.841667029789116,
                -1.7607779768306313,
                -0.06341480817682876,
                -0.8470898609266945
            ]
        },
        {
            "positions": [
                0.07594474536612239,
                -1.3670349865062676,
                -1.9734501280765844,
                -1.8645492450853232,
                -0.08550892170951652,
                -0.8884420416376783
            ]
        },
        {
            "positions": [
                0.1723596449331608,
                -1.3663881040866948,
                -2.105233226364053,
                -1.9683205133400146,
                -0.10760303524220416,
                -0.929794222348662
            ]
        },
        {
            "positions": [
                0.26877454450019966,
                -1.3657412216671219,
                -2.2370163246515213,
                -2.0720917815947066,
                -0.1296971487748919,
                -0.9711464030596458
            ]
        },
        {
            "positions": [
                0.2196808236120519,
                -1.4183053985609642,
                -2.2567457376697755,
                -2.0587949443690725,
                -0.12393666980668863,
                -1.1832918014757312
            ]
        },
        {
            "positions": [
                0.17058710272390415,
                -1.4708695754548065,
                -2.276475150688029,
                -2.045498107143439,
                -0.11817619083848535,
                -1.3954371998918167
            ]
        },
        {
            "positions": [
                0.12149338183575642,
                -1.5234337523486488,
                -2.2962045637062833,
                -2.0322012699178047,
                -0.11241571187028208,
                -1.6075825983079022
            ]
        },
        {
            "positions": [
                0.07239966094760866,
                -1.575997929242491,
                -2.3159339767245375,
                -2.0189044326921706,
                -0.1066552329020788,
                -1.8197279967239877
            ]
        },
        {
            "positions": [
                0.023305940059460878,
                -1.6285621061363333,
                -2.335663389742791,
                -2.005607595466537,
                -0.10089475393387552,
                -2.031873395140073
            ]
        },
        {
            "positions": [
                -0.025787780828686824,
                -1.6811262830301756,
                -2.3553928027610453,
                -1.9923107582409028,
                -0.09513427496567226,
                -2.2440187935561586
            ]
        },
        {
            "positions": [
                -0.07488150171683461,
                -1.733690459924018,
                -2.3751222157792995,
                -1.9790139210152689,
                -0.08937379599746897,
                -2.456164191972244
            ]
        },
        {
            "positions": [
                -0.12397522260498234,
                -1.7862546368178602,
                -2.394851628797553,
                -1.9657170837896347,
                -0.0836133170292657,
                -2.6683095903883296
            ]
        },
        {
            "positions": [
                -0.17306894349313012,
                -1.8388188137117025,
                -2.4145810418158073,
                -1.9524202465640008,
                -0.07785283806106241,
                -2.880454988804415
            ]
        },
        {
            "positions": [
                -0.17862571223529633,
                -1.7915680750103575,
                -2.3898378721224143,
                -2.0617337671302245,
                -0.13039117529783512,
                -3.010221344395168
            ]
        },
        {
            "positions": [
                -0.18418248097746256,
                -1.7443173363090125,
                -2.3650947024290216,
                -2.171047287696448,
                -0.18292951253460782,
                -3.1399876999859213
            ]
        }
    ]
}