{
    "goal": {
        "global_pose": {
            "orientation": {
                "w": 0.005598929693374612,
                "x": 0.007748599140229565,
                "y": 0.7110244013736278,
                "z": -0.7031023480610252
            },
            "position": {
                "x": -0.8858502320852131,
                "y": -0.7141253447532654,
                "z": 0.3711530566215515
            }
        },
        "name": "move_to_auspresseinheit_C"
    },
    "id": "RRT_move_to_auspresseinheit_C_114",
    "joint_names": [
        "shoulder_pan_joint",
        "shoulder_lift_joint",
        "elbow_joint",
        "wrist_1_joint",
        "wrist_2_joint",
        "wrist_3_joint"
    ],
    "metrics": {
        "cart_traj_len": 0.49309473994635733,
        "distance_elbow_joint": 0.9981644576621395,
        "distance_shoulder_lift_joint": 0.3242460794464471,
        "distance_shoulder_pan_joint": 0.2563100706412609,
        "distance_wrist_1_joint": 0.6718501630283392,
        "distance_wrist_2_joint": 1.3177868787078957,
        "distance_wrist_3_joint": 0.04456368396672783,
        "smoothness": 8.074349268950106e-16,
        "time": 0.017158343,
        "traj_len": 1.9007686164951298,
        "weighted_distance": 2.385725412347888
    },
    "planner": "RRT",
    "start": {
        "state": {
            "elbow_joint": 1.7527959577737207,
            "shoulder_lift_joint": -0.9740617694225068,
            "shoulder_pan_joint": -2.967991417825858,
            "wrist_1_joint": -0.759517768980727,
            "wrist_2_joint": 1.7443932448377408,
            "wrist_3_joint": -3.0840537646736568
        }
    },
    "waypoints": [
        {
            "positions": [
                -2.967991417825858,
                -0.9740617694225068,
                1.7527959577737207,
                -0.759517768980727,
                1.7443932448377408,
                -3.0840537646736568
            ]
        },
        {
            "positions": [
                -2.942360410761732,
                -0.941637161477862,
                1.6529795120075068,
                -0.6923327526778931,
                1.6126145569669512,
                -3.0885101330703297
            ]
        },
        {
            "positions": [
                -2.9167294036976057,
                -0.9092125535332174,
                1.5531630662412927,
                -0.6251477363750592,
                1.4808358690961616,
                -3.0929665014670022
            ]
        },
        {
            "positions": [
                -2.89109839663348,
                -0.8767879455885726,
                1.453346620475079,
                -0.5579627200722252,
                1.3490571812253722,
                -3.097422869863675
            ]
        },
        {
            "positions": [
                -2.8654673895693534,
                -0.8443633376439279,
                1.3535301747088648,
                -0.4907777037693913,
                1.2172784933545824,
                -3.1018792382603477
            ]
        },
        {
            "positions": [
                -2.8398363825052275,
                -0.8119387296992833,
                1.253713728942651,
                -0.42359268746655737,
                1.085499805483793,
                -3.1063356066570207
            ]
        },
        {
            "positions": [
                -2.8142053754411016,
                -0.7795141217546385,
                1.1538972831764371,
                -0.35640767116372346,
                0.9537211176130035,
                -3.1107919750536936
            ]
        },
        {
            "positions": [
                -2.7885743683769753,
                -0.7470895138099938,
                1.054080837410223,
                -0.28922265486088955,
                0.8219424297422139,
                -3.115248343450366
            ]
        },
        {
            "positions": [
                -2.7629433613128493,
                -0.7146649058653491,
                0.954264391644009,
                -0.22203763855805558,
                0.6901637418714242,
                -3.119704711847039
            ]
        },
        {
            "positions": [
                -2.737312354248723,
                -0.6822402979207043,
                0.8544479458777952,
                -0.15485262225522167,
                0.5583850540006348,
                -3.1241610802437116
            ]
        },
        {
            "positions": [
                -2.711681347184597,
                -0.6498156899760597,
                0.7546315001115812,
                -0.08766760595238779,
                0.42660636612984504,
                -3.1286174486403846
            ]
        }
    ]
}