{
    "goal": {
        "global_pose": {
            "orientation": {
                "w": 0.7047431493862688,
                "x": -0.7094548369677653,
                "y": 0.0024358444001904,
                "z": -0.0022348060817251984
            },
            "position": {
                "x": -0.39052492380142206,
                "y": 0.3671506643295288,
                "z": 0.19426114857196808
            }
        },
        "name": "move_to_magneteinheit_D"
    },
    "id": "RRT_move_to_magneteinheit_D_70",
    "joint_names": [
        "shoulder_pan_joint",
        "shoulder_lift_joint",
        "elbow_joint",
        "wrist_1_joint",
        "wrist_2_joint",
        "wrist_3_joint"
    ],
    "metrics": {
        "cart_traj_len": 5.569502924135794,
        "distance_elbow_joint": 3.122604440388851,
        "distance_shoulder_lift_joint": 2.2868900109606103,
        "distance_shoulder_pan_joint": 4.808106530982448,
        "distance_wrist_1_joint": 4.182768794422561,
        "distance_wrist_2_joint": 1.4147822315203906,
        "distance_wrist_3_joint": 3.1706764833588297,
        "smoothness": 0.451492394655145,
        "time": 0.498110572,
        "traj_len": 4.357273056813595,
        "weighted_distance": 5.5610010325744685
    },
    "planner": "RRT",
    "start": {
        "state": {
            "elbow_joint": 0.749534889911806,
            "shoulder_lift_joint": -0.6476975780787326,
            "shoulder_pan_joint": -2.711696901376241,
            "wrist_1_joint": -0.07506478083263063,
            "wrist_2_joint": 0.43296659715538205,
            "wrist_3_joint": -3.14703540197715
        }
    },
    "waypoints": [
        {
            "positions": [
                -2.711696901376241,
                -0.6476975780787326,
                0.749534889911806,
                -0.07506478083263063,
                0.43296659715538205,
                -3.14703540197715
            ]
        },
        {
            "positions": [
                -2.7359698958247742,
                -0.6190014196145305,
                0.6857288504048396,
                -0.18448435940083865,
                0.4237813666167236,
                -3.109181156206912
            ]
        },
        {
            "positions": [
                -2.784471104232968,
                -0.5200508275071443,
                0.6319783832791991,
                -0.25843276683720273,
                0.378475207679427,
                -3.1168201517615564
            ]
        },
        {
            "positions": [
                -2.832972312641162,
                -0.421100235399758,
                0.5782279161535585,
                -0.33238117427356684,
                0.3331690487421304,
                -3.1244591473162013
            ]
        },
        {
            "positions": [
                -2.881473521049356,
                -0.3221496432923717,
                0.524477449027918,
                -0.40632958170993094,
                0.28786288980483377,
                -3.132098142870846
            ]
        },
        {
            "positions": [
                -2.863871110106907,
                -0.35140985688104076,
                0.4611641185531712,
                -0.5659347974517805,
                0.29894988985709053,
                -3.0261139678792635
            ]
        },
        {
            "positions": [
                -2.8462686991644586,
                -0.38067007046970985,
                0.39785078807842433,
                -0.72554001319363,
                0.3100368899093473,
                -2.920129792887681
            ]
        },
        {
            "positions": [
                -2.82866628822201,
                -0.4099302840583789,
                0.3345374576036775,
                -0.8851452289354795,
                0.3211238899616041,
                -2.8141456178960986
            ]
        },
        {
            "positions": [
                -2.8110638772795618,
                -0.43919049764704793,
                0.2712241271289306,
                -1.0447504446773292,
                0.3322108900138609,
                -2.708161442904516
            ]
        },
        {
            "positions": [
                -2.793461466337113,
                -0.468450711235717,
                0.20791079665418377,
                -1.2043556604191787,
                0.34329789006611766,
                -2.602177267912934
            ]
        },
        {
            "positions": [
                -2.7758590553946645,
                -0.49771092482438606,
                0.14459746617943695,
                -1.3639608761610282,
                0.35438489011837443,
                -2.4961930929213514
            ]
        },
        {
            "positions": [
                -2.65717643061059,
                -0.5293897664890079,
                0.08046310411868982,
                -1.292767475844095,
                0.3716112836247996,
                -2.414890067554304
            ]
        },
        {
            "positions": [
                -2.5384938058265156,
                -0.5610686081536298,
                0.016328742057942686,
                -1.2215740755271618,
                0.38883767713122486,
                -2.333587042187257
            ]
        },
        {
            "positions": [
                -2.419811181042441,
                -0.5927474498182518,
                -0.04780562000280447,
                -1.1503806752102288,
                0.40606407063765004,
                -2.2522840168202096
            ]
        },
        {
            "positions": [
                -2.3011285562583668,
                -0.6244262914828737,
                -0.11193998206355157,
                -1.0791872748932956,
                0.42329046414407523,
                -2.1709809914531624
            ]
        },
        {
            "positions": [
                -2.1824459314742928,
                -0.6561051331474955,
                -0.1760743441242987,
                -1.0079938745763624,
                0.4405168576505004,
                -2.089677966086115
            ]
        },
        {
            "positions": [
                -2.063763306690218,
                -0.6877839748121174,
                -0.2402087061850459,
                -0.9368004742594291,
                0.45774325115692566,
                -2.008374940719068
            ]
        },
        {
            "positions": [
                -1.9450806819061437,
                -0.7194628164767394,
                -0.30434306824579305,
                -0.8656070739424959,
                0.47496964466335084,
                -1.9270719153520208
            ]
        },
        {
            "positions": [
                -1.8263980571220693,
                -0.7511416581413612,
                -0.3684774303065401,
                -0.7944136736255628,
                0.49219603816977603,
                -1.8457688899849736
            ]
        },
        {
            "positions": [
                -1.7077154323379948,
                -0.7828204998059831,
                -0.4326117923672873,
                -0.7232202733086297,
                0.5094224316762013,
                -1.7644658646179265
            ]
        },
        {
            "positions": [
                -1.5890328075539206,
                -0.814499341470605,
                -0.4967461544280344,
                -0.6520268729916965,
                0.5266488251826265,
                -1.6831628392508793
            ]
        },
        {
            "positions": [
                -1.4703501827698462,
                -0.8461781831352269,
                -0.5608805164887815,
                -0.5808334726747634,
                0.5438752186890516,
                -1.601859813883832
            ]
        },
        {
            "positions": [
                -1.3516675579857715,
                -0.8778570247998487,
                -0.6250148785495288,
                -0.50964007235783,
                0.5611016121954768,
                -1.5205567885167848
            ]
        },
        {
            "positions": [
                -1.232984933201697,
                -0.9095358664644706,
                -0.6891492406102758,
                -0.43844667204089693,
                0.578328005701902,
                -1.4392537631497375
            ]
        },
        {
            "positions": [
                -1.114302308417623,
                -0.9412147081290926,
                -0.753283602671023,
                -0.3672532717239637,
                0.5955543992083272,
                -1.3579507377826903
            ]
        },
        {
            "positions": [
                -0.9956196836335485,
                -0.9728935497937145,
                -0.8174179647317701,
                -0.2960598714070306,
                0.6127807927147524,
                -1.276647712415643
            ]
        },
        {
            "positions": [
                -0.876937058849474,
                -1.0045723914583364,
                -0.8815523267925172,
                -0.2248664710900974,
                0.6300071862211776,
                -1.1953446870485958
            ]
        },
        {
            "positions": [
                -0.7582544340653996,
                -1.0362512331229583,
                -0.9456866888532642,
                -0.1536730707731644,
                0.6472335797276028,
                -1.1140416616815485
            ]
        },
        {
            "positions": [
                -0.6395718092813252,
                -1.0679300747875802,
                -1.0098210509140115,
                -0.08247967045623117,
                0.6644599732340281,
                -1.0327386363145015
            ]
        },
        {
            "positions": [
                -0.5208891844972512,
                -1.099608916452202,
                -1.0739554129747586,
                -0.01128627013929795,
                0.6816863667404532,
                -0.9514356109474542
            ]
        },
        {
            "positions": [
                -0.40220655971317676,
                -1.131287758116824,
                -1.1380897750355057,
                0.05990713017763527,
                0.6989127602468784,
                -0.870132585580407
            ]
        },
        {
            "positions": [
                -0.28352393492910233,
                -1.1629665997814458,
                -1.2022241370962528,
                0.13110053049456827,
                0.7161391537533036,
                -0.7888295602133597
            ]
        },
        {
            "positions": [
                -0.1648413101450279,
                -1.1946454414460677,
                -1.2663584991569998,
                0.2022939308115015,
                0.7333655472597288,
                -0.7075265348463127
            ]
        },
        {
            "positions": [
                -0.04615868536095302,
                -1.2263242831106895,
                -1.3304928612177473,
                0.27348733112843493,
                0.7505919407661541,
                -0.626223509479265
            ]
        },
        {
            "positions": [
                0.07252393942312141,
                -1.2580031247753114,
                -1.3946272232784944,
                0.34468073144536815,
                0.7678183342725793,
                -0.5449204841122179
            ]
        },
        {
            "positions": [
                0.19120656420719584,
                -1.2896819664399333,
                -1.4587615853392415,
                0.41587413176230115,
                0.7850447277790045,
                -0.46361745874517046
            ]
        },
        {
            "positions": [
                0.30988918899127027,
                -1.3213608081045551,
                -1.5228959473999886,
                0.48706753207923437,
                0.8022711212854297,
                -0.38231443337812365
            ]
        },
        {
            "positions": [
                0.42857181377534426,
                -1.3530396497691772,
                -1.5870303094607356,
                0.5582609323961676,
                0.8194975147918548,
                -0.3010114080110764
            ]
        },
        {
            "positions": [
                0.5472544385594187,
                -1.384718491433799,
                -1.651164671521483,
                0.6294543327131008,
                0.83672390829828,
                -0.21970838264402914
            ]
        },
        {
            "positions": [
                0.6659370633434931,
                -1.416397333098421,
                -1.71529903358223,
                0.700647733030034,
                0.8539503018047052,
                -0.1384053572769819
            ]
        },
        {
            "positions": [
                0.7846196881275677,
                -1.4480761747630428,
                -1.779433395642977,
                0.7718411333469672,
                0.8711766953111304,
                -0.05710233190993441
            ]
        },
        {
            "positions": [
                0.6873960179143266,
                -1.5316177292334006,
                -1.838797011126384,
                0.8476482023055838,
                0.8025402234447758,
                -0.053611387913559974
            ]
        },
        {
            "positions": [
                0.5901723477010856,
                -1.6151592837037585,
                -1.898160626609791,
                0.9234552712642004,
                0.7339037515784212,
                -0.050120443917185536
            ]
        },
        {
            "positions": [
                0.49294867748784454,
                -1.6987008381741164,
                -1.957524242093198,
                0.9992623402228169,
                0.6652672797120667,
                -0.0466294999208111
            ]
        },
        {
            "positions": [
                0.39572500727460347,
                -1.7822423926444741,
                -2.016887857576605,
                1.0750694091814337,
                0.5966308078457121,
                -0.04313855592443666
            ]
        },
        {
            "positions": [
                0.29850133706136245,
                -1.8657839471148319,
                -2.0762514730600117,
                1.15087647814005,
                0.5279943359793575,
                -0.039647611928062224
            ]
        },
        {
            "positions": [
                0.20127766684812143,
                -1.9493255015851898,
                -2.135615088543419,
                1.2266835470986668,
                0.459357864113003,
                -0.036156667931687786
            ]
        },
        {
            "positions": [
                0.10405399663488035,
                -2.0328670560555477,
                -2.194978704026826,
                1.3024906160572831,
                0.3907213922466485,
                -0.032665723935313355
            ]
        },
        {
            "positions": [
                0.006830326421639277,
                -2.1164086105259052,
                -2.254342319510233,
                1.3782976850158999,
                0.3220849203802939,
                -0.029174779938938914
            ]
        },
        {
            "positions": [
                -0.09039334379160169,
                -2.199950164996263,
                -2.3137059349936395,
                1.4541047539745164,
                0.25344844851393933,
                -0.02568383594256448
            ]
        },
        {
            "positions": [
                -0.18761701400484274,
                -2.283491719466621,
                -2.3730695504770467,
                1.529911822933133,
                0.18481197664758478,
                -0.022192891946190042
            ]
        }
    ]
}