{
    "goal": {
        "global_pose": {
            "orientation": {
                "w": 0.7031023480610252,
                "x": -0.7110244013736278,
                "y": 0.0077485991402295624,
                "z": 0.005598929693374583
            },
            "position": {
                "x": -0.8841497679147869,
                "y": 0.44412534475326537,
                "z": 0.3711530566215515
            }
        },
        "name": "move_to_auspresseinheit_D"
    },
    "id": "RRT_move_to_auspresseinheit_D_50",
    "joint_names": [
        "shoulder_pan_joint",
        "shoulder_lift_joint",
        "elbow_joint",
        "wrist_1_joint",
        "wrist_2_joint",
        "wrist_3_joint"
    ],
    "metrics": {
        "cart_traj_len": 0.34487188469847757,
        "distance_elbow_joint": 0.6584529842399018,
        "distance_shoulder_lift_joint": 0.13240300027604857,
        "distance_shoulder_pan_joint": 0.13434082318614252,
        "distance_wrist_1_joint": 0.5824278361450359,
        "distance_wrist_2_joint": 1.448809042090783,
        "distance_wrist_3_joint": 0.046763706794864746,
        "smoothness": 0.0,
        "time": 0.025852745,
        "traj_len": 1.7329735695424717,
        "weighted_distance": 2.264500316749442
    },
    "planner": "RRT",
    "start": {
        "state": {
            "elbow_joint": -1.8275523626775212,
            "shoulder_lift_joint": -2.126789852344167,
            "shoulder_pan_joint": -0.03513704404078235,
            "wrist_1_joint": -2.347782403156801,
            "wrist_2_joint": -1.6058999987535132,
            "wrist_3_joint": -3.0880379163319196
        }
    },
    "waypoints": [
        {
            "positions": [
                -0.03513704404078235,
                -2.126789852344167,
                -1.8275523626775212,
                -2.347782403156801,
                -1.6058999987535132,
                -3.0880379163319196
            ]
        },
        {
            "positions": [
                -0.05192964693905017,
                -2.143340227378673,
                -1.7452457396475334,
                -2.4205858826749305,
                -1.4247988684921653,
                -3.0821924529825617
            ]
        },
        {
            "positions": [
                -0.06872224983731798,
                -2.1598906024131788,
                -1.6629391166175458,
                -2.49338936219306,
                -1.2436977382308174,
                -3.0763469896332034
            ]
        },
        {
            "positions": [
                -0.08551485273558579,
                -2.176440977447685,
                -1.580632493587558,
                -2.566192841711189,
                -1.0625966079694695,
                -3.070501526283845
            ]
        },
        {
            "positions": [
                -0.1023074556338536,
                -2.192991352482191,
                -1.4983258705575704,
                -2.638996321229319,
                -0.8814954777081216,
                -3.0646560629344872
            ]
        },
        {
            "positions": [
                -0.11910005853212141,
                -2.2095417275166973,
                -1.4160192475275826,
                -2.7117998007474484,
                -0.7003943474467738,
                -3.0588105995851294
            ]
        },
        {
            "positions": [
                -0.13589266143038925,
                -2.2260921025512035,
                -1.3337126244975948,
                -2.7846032802655776,
                -0.5192932171854259,
                -3.052965136235771
            ]
        },
        {
            "positions": [
                -0.15268526432865706,
                -2.2426424775857092,
                -1.2514060014676072,
                -2.857406759783707,
                -0.338192086924078,
                -3.0471196728864127
            ]
        },
        {
            "positions": [
                -0.16947786722692487,
                -2.2591928526202154,
                -1.1690993784376194,
                -2.9302102393018368,
                -0.15709095666273018,
                -3.041274209537055
            ]
        }
    ]
}