{
    "goal": {
        "global_pose": {
            "orientation": {
                "w": 0.5084816217422485,
                "x": -0.49083608388900757,
                "y": 0.5182115435600281,
                "z": -0.4816462993621826
            },
            "position": {
                "x": 0.5540239810943604,
                "y": 0.030875300988554955,
                "z": 0.16403168439865112
            }
        },
        "name": "move_to_storage_A"
    },
    "id": "RRT_move_to_storage_A_101",
    "joint_names": [
        "shoulder_pan_joint",
        "shoulder_lift_joint",
        "elbow_joint",
        "wrist_1_joint",
        "wrist_2_joint",
        "wrist_3_joint"
    ],
    "metrics": {
        "cart_traj_len": 0.353611298936797,
        "distance_elbow_joint": 0.4515069331104147,
        "distance_shoulder_lift_joint": 0.23436452922682727,
        "distance_shoulder_pan_joint": 0.4607418090655112,
        "distance_wrist_1_joint": 0.2470221555264206,
        "distance_wrist_2_joint": 1.107335174612338,
        "distance_wrist_3_joint": 0.10715673462130448,
        "smoothness": 0.0,
        "time": 0.017392067,
        "traj_len": 1.6149697632348465,
        "weighted_distance": 2.0437216384684542
    },
    "planner": "RRT",
    "start": {
        "state": {
            "elbow_joint": 1.971548259319323,
            "shoulder_lift_joint": -1.1394851275133948,
            "shoulder_pan_joint": 0.1228115487234821,
            "wrist_1_joint": -0.7804723859257726,
            "wrist_2_joint": 0.12958671773740124,
            "wrist_3_joint": -3.192489227718131
        }
    },
    "waypoints": [
        {
            "positions": [
                0.1228115487234821,
                -1.1394851275133948,
                1.971548259319323,
                -0.7804723859257726,
                0.12958671773740124,
                -3.192489227718131
            ]
        },
        {
            "positions": [
                0.05699129028555193,
                -1.1729657745457986,
                2.0360492497636677,
                -0.8157612652866898,
                0.28777745696773527,
                -3.1771811227722306
            ]
        },
        {
            "positions": [
                -0.008828968152378242,
                -1.2064464215782027,
                2.1005502402080127,
                -0.8510501446476071,
                0.44596819619806927,
                -3.1618730178263297
            ]
        },
        {
            "positions": [
                -0.0746492265903084,
                -1.2399270686106065,
                2.1650512306523577,
                -0.8863390240085243,
                0.6041589354284033,
                -3.146564912880429
            ]
        },
        {
            "positions": [
                -0.14046948502823858,
                -1.2734077156430104,
                2.2295522210967027,
                -0.9216279033694416,
                0.7623496746587373,
                -3.1312568079345287
            ]
        },
        {
            "positions": [
                -0.2062897434661688,
                -1.3068883626754144,
                2.2940532115410477,
                -0.9569167827303587,
                0.9205404138890714,
                -3.115948702988628
            ]
        },
        {
            "positions": [
                -0.2721100019040989,
                -1.3403690097078182,
                2.3585542019853927,
                -0.992205662091276,
                1.0787311531194053,
                -3.100640598042727
            ]
        },
        {
            "positions": [
                -0.3379302603420291,
                -1.373849656740222,
                2.4230551924297377,
                -1.0274945414521932,
                1.2369218923497394,
                -3.0853324930968267
            ]
        }
    ]
}{
    "goal": {
        "global_pose": {
            "orientation": {
                "w": 0.5084816217422485,
                "x": -0.49083608388900757,
                "y": 0.5182115435600281,
                "z": -0.4816462993621826
            },
            "position": {
                "x": 0.5540239810943604,
                "y": 0.030875300988554955,
                "z": 0.16403168439865112
            }
        },
        "name": "move_to_storage_A"
    },
    "id": "RRT_move_to_storage_A_101",
    "joint_names": [
        "shoulder_pan_joint",
        "shoulder_lift_joint",
        "elbow_joint",
        "wrist_1_joint",
        "wrist_2_joint",
        "wrist_3_joint"
    ],
    "metrics": {
        "cart_traj_len": 0.35382757765511025,
        "distance_elbow_joint": 0.450130945404255,
        "distance_shoulder_lift_joint": 0.2346809957996927,
        "distance_shoulder_pan_joint": 0.4630029052647458,
        "distance_wrist_1_joint": 0.24027859902848747,
        "distance_wrist_2_joint": 1.0992692156815145,
        "distance_wrist_3_joint": 0.0905645658752885,
        "smoothness": 6.661338165333112e-16,
        "time": 0.013856976,
        "traj_len": 1.6055924847401297,
        "weighted_distance": 2.024500969008057
    },
    "planner": "RRT",
    "start": {
        "state": {
            "elbow_joint": 1.97154746011099,
            "shoulder_lift_joint": -1.13948474672311,
            "shoulder_pan_joint": 0.12281154466712228,
            "wrist_1_joint": -0.7804688027058302,
            "wrist_2_joint": 0.12958655903071145,
            "wrist_3_joint": 3.0906928834467795
        }
    },
    "waypoints": [
        {
            "positions": [
                0.12281154466712228,
                -1.13948474672311,
                1.97154746011099,
                -0.7804688027058302,
                0.12958655903071145,
                3.0906928834467795
            ]
        },
        {
            "positions": [
                0.05666827248644432,
                -1.173010603265923,
                2.035851880883026,
                -0.8147943168527569,
                0.28662501841378496,
                3.103630678571821
            ]
        },
        {
            "positions": [
                -0.00947499969423364,
                -1.2065364598087365,
                2.100156301655063,
                -0.8491198309996837,
                0.44366347779685844,
                3.1165684736968617
            ]
        },
        {
            "positions": [
                -0.07561827187491162,
                -1.2400623163515496,
                2.164460722427099,
                -0.8834453451466106,
                0.6007019371799319,
                3.129506268821903
            ]
        },
        {
            "positions": [
                -0.14176154405558955,
                -1.273588172894363,
                2.2287651431991358,
                -0.9177708592935373,
                0.7577403965630054,
                3.1424440639469444
            ]
        },
        {
            "positions": [
                -0.20790481623626755,
                -1.3071140294371761,
                2.293069563971172,
                -0.9520963734404642,
                0.914778855946079,
                3.1553818590719858
            ]
        },
        {
            "positions": [
                -0.2740480884169455,
                -1.3406398859799893,
                2.3573739847432087,
                -0.9864218875873909,
                1.0718173153291524,
                3.1683196541970267
            ]
        },
        {
            "positions": [
                -0.3401913605976235,
                -1.3741657425228027,
                2.421678405515245,
                -1.0207474017343177,
                1.228855774712226,
                3.181257449322068
            ]
        }
    ]
}{
    "goal": {
        "global_pose": {
            "orientation": {
                "w": 0.5084816217422485,
                "x": -0.49083608388900757,
                "y": 0.5182115435600281,
                "z": -0.4816462993621826
            },
            "position": {
                "x": 0.5540239810943604,
                "y": 0.030875300988554955,
                "z": 0.16403168439865112
            }
        },
        "name": "move_to_storage_A"
    },
    "id": "RRT_move_to_storage_A_101",
    "joint_names": [
        "shoulder_pan_joint",
        "shoulder_lift_joint",
        "elbow_joint",
        "wrist_1_joint",
        "wrist_2_joint",
        "wrist_3_joint"
    ],
    "metrics": {
        "cart_traj_len": 0.35353837288918144,
        "distance_elbow_joint": 0.4532107037990185,
        "distance_shoulder_lift_joint": 0.23309648559134266,
        "distance_shoulder_pan_joint": 0.45930124694873437,
        "distance_wrist_1_joint": 0.2594112974729761,
        "distance_wrist_2_joint": 1.1122198677251962,
        "distance_wrist_3_joint": 0.10915584768178244,
        "smoothness": 8.881784197001252e-16,
        "time": 0.012376870000000002,
        "traj_len": 1.6206157623628896,
        "weighted_distance": 2.053372423546393
    },
    "planner": "RRT",
    "start": {
        "state": {
            "elbow_joint": 1.9715472970024885,
            "shoulder_lift_joint": -1.1394870060712896,
            "shoulder_pan_joint": 0.12281152778156021,
            "wrist_1_joint": -0.780463741449964,
            "wrist_2_joint": 0.12958659822042276,
            "wrist_3_joint": 3.090690232415272
        }
    },
    "waypoints": [
        {
            "positions": [
                0.12281152778156021,
                -1.1394870060712896,
                1.9715472970024885,
                -0.780463741449964,
                0.12958659822042276,
                3.090690232415272
            ]
        },
        {
            "positions": [
                0.057197063931741024,
                -1.17278650401291,
                2.036291683259491,
                -0.8175224982318178,
                0.28847515075259367,
                3.106283924941241
            ]
        },
        {
            "positions": [
                -0.008417399918078161,
                -1.2060860019545303,
                2.101036069516494,
                -0.8545812550136714,
                0.4473637032847645,
                3.12187761746721
            ]
        },
        {
            "positions": [
                -0.07403186376789733,
                -1.2393854998961507,
                2.1657804557734965,
                -0.8916400117955252,
                0.6062522558169354,
                3.137471309993179
            ]
        },
        {
            "positions": [
                -0.13964632761771653,
                -1.272684997837771,
                2.230524842030499,
                -0.9286987685773789,
                0.7651408083491062,
                3.1530650025191473
            ]
        },
        {
            "positions": [
                -0.20526079146753576,
                -1.3059844957793916,
                2.295269228287502,
                -0.9657575253592326,
                0.9240293608812772,
                3.1686586950451163
            ]
        },
        {
            "positions": [
                -0.2708752553173549,
                -1.339283993721012,
                2.3600136145445045,
                -1.0028162821410864,
                1.0829179134134481,
                3.1842523875710853
            ]
        },
        {
            "positions": [
                -0.33648971916717413,
                -1.3725834916626323,
                2.424758000801507,
                -1.03987503892294,
                1.241806465945619,
                3.1998460800970543
            ]
        }
    ]
}