{
    "goal": {
        "global_pose": {
            "orientation": {
                "w": -0.4816463035849501,
                "x": 0.5182115481033762,
                "y": 0.4908360881923453,
                "z": -0.5084816262002911
            },
            "position": {
                "x": -0.8240239810943604,
                "y": -0.300875300988555,
                "z": 0.16403168439865112
            }
        },
        "name": "move_to_storage_C"
    },
    "id": "RRT_move_to_storage_C_14",
    "joint_names": [
        "shoulder_pan_joint",
        "shoulder_lift_joint",
        "elbow_joint",
        "wrist_1_joint",
        "wrist_2_joint",
        "wrist_3_joint"
    ],
    "metrics": {
        "cart_traj_len": 0.5762819376493107,
        "distance_elbow_joint": 0.25727172482163474,
        "distance_shoulder_lift_joint": 0.18992280159752684,
        "distance_shoulder_pan_joint": 0.4919474599884279,
        "distance_wrist_1_joint": 0.06866050626224651,
        "distance_wrist_2_joint": 1.0822689895783681,
        "distance_wrist_3_joint": 0.06900895129651463,
        "smoothness": 0.0,
        "time": 0.014596441,
        "traj_len": 1.4693809695054305,
        "weighted_distance": 1.8568865964237997
    },
    "planner": "RRT",
    "start": {
        "state": {
            "elbow_joint": 2.010868314990456,
            "shoulder_lift_joint": -1.1634956873337592,
            "shoulder_pan_joint": -2.4736205022346125,
            "wrist_1_joint": -0.8367026794202681,
            "wrist_2_joint": 0.6746043897044499,
            "wrist_3_joint": -3.1496632123970403
        }
    },
    "waypoints": [
        {
            "positions": [
                -2.4736205022346125,
                -1.1634956873337592,
                2.010868314990456,
                -0.8367026794202681,
                0.6746043897044499,
                -3.1496632123970403
            ]
        },
        {
            "positions": [
                -2.5556117455660172,
                -1.1318418870675047,
                1.96798969418685,
                -0.8252592617098937,
                0.8549825546341779,
                -3.138161720514288
            ]
        },
        {
            "positions": [
                -2.637602988897422,
                -1.1001880868012504,
                1.9251110733832442,
                -0.8138158439995192,
                1.035360719563906,
                -3.1266602286315353
            ]
        },
        {
            "positions": [
                -2.7195942322288262,
                -1.0685342865349958,
                1.8822324525796383,
                -0.8023724262891448,
                1.2157388844936339,
                -3.115158736748783
            ]
        },
        {
            "positions": [
                -2.801585475560231,
                -1.0368804862687413,
                1.8393538317760327,
                -0.7909290085787705,
                1.3961170494233621,
                -3.1036572448660307
            ]
        },
        {
            "positions": [
                -2.8835767188916357,
                -1.0052266860024868,
                1.796475210972427,
                -0.779485590868396,
                1.57649521435309,
                -3.092155752983278
            ]
        },
        {
            "positions": [
                -2.9655679622230404,
                -0.9735728857362324,
                1.753596590168821,
                -0.7680421731580216,
                1.7568733792828182,
                -3.0806542611005256
            ]
        }
    ]
}