{
    "goal": {
        "global_pose": {
            "orientation": {
                "w": 0.7047431468963623,
                "x": -0.7094548344612122,
                "y": 0.0024358443915843964,
                "z": -0.0022348060738295317
            },
            "position": {
                "x": 0.6094750761985779,
                "y": 0.3671506643295288,
                "z": 0.19426114857196808
            }
        },
        "name": "move_to_magneteinheit_A"
    },
    "id": "RRT_move_to_magneteinheit_A_142",
    "joint_names": [
        "shoulder_pan_joint",
        "shoulder_lift_joint",
        "elbow_joint",
        "wrist_1_joint",
        "wrist_2_joint",
        "wrist_3_joint"
    ],
    "metrics": {
        "cart_traj_len": 4.08998481845364,
        "distance_elbow_joint": 3.9228053187302914,
        "distance_shoulder_lift_joint": 0.976408258228521,
        "distance_shoulder_pan_joint": 3.5139199598810076,
        "distance_wrist_1_joint": 4.733868918510536,
        "distance_wrist_2_joint": 3.3957155298730783,
        "distance_wrist_3_joint": 0.9772196124293733,
        "smoothness": 0.6091500139261459,
        "time": 0.100222029,
        "traj_len": 4.1856824530359225,
        "weighted_distance": 5.253947208613268
    },
    "planner": "RRT",
    "start": {
        "state": {
            "elbow_joint": -1.9196185241190666,
            "shoulder_lift_joint": -1.2443396400964142,
            "shoulder_pan_joint": 2.6996025414629847,
            "wrist_1_joint": -1.5485510000780065,
            "wrist_2_joint": -1.5709468930060704,
            "wrist_3_joint": 0.4420197071253992
        }
    },
    "waypoints": [
        {
            "positions": [
                2.6996025414629847,
                -1.2443396400964142,
                -1.9196185241190666,
                -1.5485510000780065,
                -1.5709468930060704,
                0.4420197071253992
            ]
        },
        {
            "positions": [
                2.613685580748475,
                -1.2263860178908121,
                -1.8535669052956625,
                -1.4421932234091541,
                -1.4938183980439919,
                0.41378476520599894
            ]
        },
        {
            "positions": [
                2.527768620033965,
                -1.2084323956852103,
                -1.7875152864722583,
                -1.335835446740302,
                -1.4166899030819136,
                0.3855498232865987
            ]
        },
        {
            "positions": [
                2.4418516593194557,
                -1.1904787734796083,
                -1.721463667648854,
                -1.2294776700714496,
                -1.339561408119835,
                0.35731488136719847
            ]
        },
        {
            "positions": [
                2.355934698604946,
                -1.1725251512740065,
                -1.6554120488254498,
                -1.1231198934025974,
                -1.2624329131577565,
                0.32907993944779823
            ]
        },
        {
            "positions": [
                2.270017737890436,
                -1.1545715290684044,
                -1.5893604300020456,
                -1.016762116733745,
                -1.1853044181956782,
                0.300844997528398
            ]
        },
        {
            "positions": [
                2.184100777175926,
                -1.1366179068628024,
                -1.5233088111786413,
                -0.9104043400648928,
                -1.1081759232335997,
                0.27261005560899776
            ]
        },
        {
            "positions": [
                2.098183816461417,
                -1.1186642846572006,
                -1.4572571923552373,
                -0.8040465633960406,
                -1.0310474282715214,
                0.24437511368959752
            ]
        },
        {
            "positions": [
                2.012266855746907,
                -1.1007106624515985,
                -1.391205573531833,
                -0.6976887867271883,
                -0.9539189333094429,
                0.2161401717701973
            ]
        },
        {
            "positions": [
                1.9263498950323972,
                -1.0827570402459967,
                -1.3251539547084288,
                -0.5913310100583361,
                -0.8767904383473645,
                0.18790522985079705
            ]
        },
        {
            "positions": [
                1.8404329343178873,
                -1.0648034180403947,
                -1.2591023358850246,
                -0.4849732333894836,
                -0.799661943385286,
                0.15967028793139681
            ]
        },
        {
            "positions": [
                1.7545159736033777,
                -1.0468497958347929,
                -1.1930507170616202,
                -0.37861545672063146,
                -0.7225334484232077,
                0.13143534601199658
            ]
        },
        {
            "positions": [
                1.668599012888868,
                -1.0288961736291908,
                -1.126999098238216,
                -0.2722576800517791,
                -0.6454049534611291,
                0.10320040409259634
            ]
        },
        {
            "positions": [
                1.5826820521743583,
                -1.010942551423589,
                -1.060947479414812,
                -0.16589990338292693,
                -0.5682764584990507,
                0.0749654621731961
            ]
        },
        {
            "positions": [
                1.4967650914598487,
                -0.992988929217987,
                -0.9948958605914078,
                -0.05954212671407477,
                -0.49114796353697243,
                0.04673052025379587
            ]
        },
        {
            "positions": [
                1.4108481307453389,
                -0.975035307012385,
                -0.9288442417680036,
                0.04681564995477738,
                -0.4140194685748939,
                0.01849557833439569
            ]
        },
        {
            "positions": [
                1.324931170030829,
                -0.9570816848067831,
                -0.8627926229445992,
                0.15317342662362998,
                -0.3368909736128154,
                -0.009739363585004601
            ]
        },
        {
            "positions": [
                1.2390142093163194,
                -0.9391280626011811,
                -0.7967410041211951,
                0.25953120329248214,
                -0.25976247865073687,
                -0.03797430550440484
            ]
        },
        {
            "positions": [
                1.1530972486018096,
                -0.9211744403955793,
                -0.7306893852977909,
                0.3658889799613343,
                -0.18263398368865857,
                -0.06620924742380507
            ]
        },
        {
            "positions": [
                1.0671802878873,
                -0.9032208181899772,
                -0.6646377664743868,
                0.47224675663018645,
                -0.10550548872658028,
                -0.09444418934320531
            ]
        },
        {
            "positions": [
                0.9812633271727902,
                -0.8852671959843752,
                -0.5985861476509824,
                0.5786045332990393,
                -0.028376993764501535,
                -0.12267913126260555
            ]
        },
        {
            "positions": [
                0.8953463664582806,
                -0.8673135737787734,
                -0.5325345288275782,
                0.6849623099678912,
                0.04875150119757676,
                -0.15091407318200578
            ]
        },
        {
            "positions": [
                0.8094294057437708,
                -0.8493599515731713,
                -0.4664829100041741,
                0.7913200866367436,
                0.12587999615965506,
                -0.17914901510140602
            ]
        },
        {
            "positions": [
                0.7235124450292612,
                -0.8314063293675695,
                -0.4004312911807699,
                0.8976778633055955,
                0.20300849112173358,
                -0.20738395702080625
            ]
        },
        {
            "positions": [
                0.6375954843147511,
                -0.8134527071619675,
                -0.33437967235736554,
                1.0040356399744483,
                0.2801369860838121,
                -0.2356188989402065
            ]
        },
        {
            "positions": [
                0.5516785236002417,
                -0.7954990849563656,
                -0.2683280535339614,
                1.1103934166433003,
                0.3572654810458906,
                -0.2638538408596067
            ]
        },
        {
            "positions": [
                0.46576156288573173,
                -0.7775454627507636,
                -0.20227643471055723,
                1.2167511933121524,
                0.43439397600796903,
                -0.29208878277900696
            ]
        },
        {
            "positions": [
                0.40329584320476647,
                -0.7581098815819362,
                -0.097658429546987,
                1.321210504401325,
                0.3596203162070023,
                -0.28525785405078763
            ]
        },
        {
            "positions": [
                0.34083012352380115,
                -0.7386743004131087,
                0.0069595756165832245,
                1.4256698154904972,
                0.28484665640603557,
                -0.2784269253225683
            ]
        },
        {
            "positions": [
                0.2783644038428359,
                -0.7192387192442813,
                0.11157758078015345,
                1.5301291265796697,
                0.21007299660506884,
                -0.27159599659434897
            ]
        },
        {
            "positions": [
                0.2158986841618706,
                -0.6998031380754538,
                0.21619558594372368,
                1.6345884376688422,
                0.1352993368041021,
                -0.2647650678661296
            ]
        },
        {
            "positions": [
                0.15343296448090532,
                -0.6803675569066263,
                0.3208135911072939,
                1.7390477487580145,
                0.06052567700313538,
                -0.25793413913791025
            ]
        },
        {
            "positions": [
                0.09096724479994006,
                -0.6609319757377988,
                0.42543159627086413,
                1.843507059847187,
                -0.014247982797831349,
                -0.2511032104096909
            ]
        },
        {
            "positions": [
                0.028501525118974802,
                -0.6414963945689715,
                0.5300496014344342,
                1.9479663709363595,
                -0.08902164259879808,
                -0.24427228168147158
            ]
        },
        {
            "positions": [
                -0.03396419456199051,
                -0.622060813400144,
                0.6346676065980046,
                2.052425682025532,
                -0.1637953023997648,
                -0.23744135295325225
            ]
        },
        {
            "positions": [
                -0.09642991424295572,
                -0.6026252322313165,
                0.7392856117615747,
                2.156884993114704,
                -0.23856896220073154,
                -0.2306104242250329
            ]
        },
        {
            "positions": [
                -0.1588956339239211,
                -0.583189651062489,
                0.843903616925145,
                2.2613443042038766,
                -0.31334262200169827,
                -0.22377949549681356
            ]
        },
        {
            "positions": [
                -0.22136135360488635,
                -0.5637540698936616,
                0.9485216220887152,
                2.365803615293049,
                -0.388116281802665,
                -0.2169485667685942
            ]
        },
        {
            "positions": [
                -0.2838270732858516,
                -0.5443184887248341,
                1.0531396272522855,
                2.4702629263822216,
                -0.4628899416036317,
                -0.21011763804037487
            ]
        },
        {
            "positions": [
                -0.3462927929668168,
                -0.5248829075560066,
                1.1577576324158556,
                2.574722237471394,
                -0.5376636014045985,
                -0.20328670931215553
            ]
        },
        {
            "positions": [
                -0.27943213218807317,
                -0.5615902683685943,
                1.278533227015194,
                2.4874942830483744,
                -0.4779040180551025,
                -0.18124255944671042
            ]
        },
        {
            "positions": [
                -0.2125714714093295,
                -0.5982976291811819,
                1.3993088216145322,
                2.4002663286253547,
                -0.4181444347056065,
                -0.1591984095812653
            ]
        },
        {
            "positions": [
                -0.14571081063058586,
                -0.6350049899937695,
                1.5200844162138702,
                2.313038374202335,
                -0.35838485135611053,
                -0.13715425971582018
            ]
        },
        {
            "positions": [
                -0.07885014985184219,
                -0.6717123508063572,
                1.6408600108132085,
                2.2258104197793154,
                -0.2986252680066146,
                -0.11511010985037504
            ]
        },
        {
            "positions": [
                -0.011989489073098492,
                -0.7084197116189448,
                1.7616356054125468,
                2.1385824653562957,
                -0.2388656846571186,
                -0.0930659599849299
            ]
        },
        {
            "positions": [
                0.054871171705645094,
                -0.7451270724315324,
                1.882411200011885,
                2.051354510933276,
                -0.17910610130762267,
                -0.0710218101194848
            ]
        },
        {
            "positions": [
                0.12173183248438878,
                -0.78183443324412,
                2.0031867946112234,
                1.9641265565102564,
                -0.1193465179581267,
                -0.04897766025403966
            ]
        }
    ]
}