{
    "goal": {
        "global_pose": {
            "orientation": {
                "w": 0.7047431468963623,
                "x": -0.7094548344612122,
                "y": 0.0024358443915843964,
                "z": -0.0022348060738295317
            },
            "position": {
                "x": 0.6094750761985779,
                "y": 0.3671506643295288,
                "z": 0.19426114857196808
            }
        },
        "name": "move_to_magneteinheit_A"
    },
    "id": "RRT_move_to_magneteinheit_A_111",
    "joint_names": [
        "shoulder_pan_joint",
        "shoulder_lift_joint",
        "elbow_joint",
        "wrist_1_joint",
        "wrist_2_joint",
        "wrist_3_joint"
    ],
    "metrics": {
        "cart_traj_len": 3.292177935033761,
        "distance_elbow_joint": 3.90737036740669,
        "distance_shoulder_lift_joint": 0.9935933658733305,
        "distance_shoulder_pan_joint": 3.5581300809143115,
        "distance_wrist_1_joint": 0.6984733203803363,
        "distance_wrist_2_joint": 1.7038595213695573,
        "distance_wrist_3_joint": 3.5781984539223104,
        "smoothness": 0.11111672552430424,
        "time": 1.5182929669999998,
        "traj_len": 3.799950672030696,
        "weighted_distance": 4.898811576235715
    },
    "planner": "RRT",
    "start": {
        "state": {
            "elbow_joint": -1.9196185241190666,
            "shoulder_lift_joint": -1.2443396400964142,
            "shoulder_pan_joint": 2.6996025414629847,
            "wrist_1_joint": -1.5485510000780065,
            "wrist_2_joint": -1.5709468930060704,
            "wrist_3_joint": 0.4420197071253992
        }
    },
    "waypoints": [
        {
            "positions": [
                2.6996025414629847,
                -1.2443396400964142,
                -1.9196185241190666,
                -1.5485510000780065,
                -1.5709468930060704,
                0.4420197071253992
            ]
        },
        {
            "positions": [
                2.5535345719302054,
                -1.265695997113133,
                -1.78370728342919,
                -1.535734634199256,
                -1.5577047007114277,
                0.38653601354711387
            ]
        },
        {
            "positions": [
                2.407466602397426,
                -1.2870523541298515,
                -1.6477960427393132,
                -1.5229182683205054,
                -1.5444625084167851,
                0.33105231996882856
            ]
        },
        {
            "positions": [
                2.2613986328646467,
                -1.3084087111465703,
                -1.5118848020494366,
                -1.510101902441755,
                -1.5312203161221425,
                0.27556862639054325
            ]
        },
        {
            "positions": [
                2.115330663331868,
                -1.3297650681632889,
                -1.3759735613595598,
                -1.4972855365630044,
                -1.5179781238274999,
                0.22008493281225788
            ]
        },
        {
            "positions": [
                1.9692626937990882,
                -1.3511214251800077,
                -1.2400623206696832,
                -1.4844691706842539,
                -1.5047359315328572,
                0.16460123923397257
            ]
        },
        {
            "positions": [
                1.8231947242663091,
                -1.3724777821967262,
                -1.1041510799798067,
                -1.4716528048055033,
                -1.4914937392382146,
                0.10911754565568726
            ]
        },
        {
            "positions": [
                1.6771267547335298,
                -1.393834139213445,
                -0.96823983928993,
                -1.458836438926753,
                -1.478251546943572,
                0.0536338520774019
            ]
        },
        {
            "positions": [
                1.5310587852007504,
                -1.4151904962301636,
                -0.8323285986000533,
                -1.4460200730480024,
                -1.4650093546489293,
                -0.001849841500883409
            ]
        },
        {
            "positions": [
                1.384990815667971,
                -1.4365468532468824,
                -0.6964173579101767,
                -1.4332037071692518,
                -1.4517671623542867,
                -0.05733353507916872
            ]
        },
        {
            "positions": [
                1.2389228461351918,
                -1.457903210263601,
                -0.5605061172203001,
                -1.4203873412905013,
                -1.438524970059644,
                -0.11281722865745403
            ]
        },
        {
            "positions": [
                1.0928548766024124,
                -1.4792595672803197,
                -0.42459487653042305,
                -1.407570975411751,
                -1.4252827777650015,
                -0.16830092223573945
            ]
        },
        {
            "positions": [
                0.9467869070696333,
                -1.5006159242970383,
                -0.2886836358405467,
                -1.3947546095330003,
                -1.4120405854703588,
                -0.22378461581402465
            ]
        },
        {
            "positions": [
                0.8007189375368537,
                -1.521972281313757,
                -0.15277239515066987,
                -1.3819382436542498,
                -1.3987983931757162,
                -0.27926830939231007
            ]
        },
        {
            "positions": [
                0.6546509680040749,
                -1.5433286383304756,
                -0.01686115446079328,
                -1.3691218777754992,
                -1.3855562008810736,
                -0.3347520029705954
            ]
        },
        {
            "positions": [
                0.5085829984712951,
                -1.5646849953471944,
                0.11905008622908353,
                -1.3563055118967489,
                -1.372314008586431,
                -0.3902356965488807
            ]
        },
        {
            "positions": [
                0.36251502893851617,
                -1.586041352363913,
                0.2549613269189601,
                -1.3434891460179983,
                -1.3590718162917883,
                -0.445719390127166
            ]
        },
        {
            "positions": [
                0.21644705940573683,
                -1.6073977093806318,
                0.3908725676088367,
                -1.3306727801392477,
                -1.3458296239971457,
                -0.5012030837054514
            ]
        },
        {
            "positions": [
                0.07037908987295749,
                -1.6287540663973503,
                0.5267838082987133,
                -1.3178564142604972,
                -1.332587431702503,
                -0.5566867772837366
            ]
        },
        {
            "positions": [
                -0.07568887965982185,
                -1.650110423414069,
                0.6626950489885903,
                -1.3050400483817466,
                -1.3193452394078604,
                -0.612170470862022
            ]
        },
        {
            "positions": [
                -0.2217568491926012,
                -1.6714667804307877,
                0.7986062896784665,
                -1.2922236825029962,
                -1.3061030471132178,
                -0.6676541644403072
            ]
        },
        {
            "positions": [
                -0.36782481872538064,
                -1.6928231374475065,
                0.9345175303683435,
                -1.2794073166242457,
                -1.2928608548185752,
                -0.7231378580185928
            ]
        },
        {
            "positions": [
                -0.338959952800325,
                -1.6607578510638454,
                0.9964724899518306,
                -1.254152632099153,
                -1.2089918263961008,
                -0.865081439711435
            ]
        },
        {
            "positions": [
                -0.3100950868752693,
                -1.6286925646801844,
                1.0584274495353176,
                -1.2288979475740602,
                -1.1251227979736267,
                -1.0070250214042773
            ]
        },
        {
            "positions": [
                -0.2812302209502136,
                -1.5966272782965232,
                1.1203824091188046,
                -1.2036432630489677,
                -1.0412537695511523,
                -1.1489686030971198
            ]
        },
        {
            "positions": [
                -0.25236535502515794,
                -1.5645619919128622,
                1.1823373687022918,
                -1.178388578523875,
                -0.9573847411286782,
                -1.290912184789962
            ]
        },
        {
            "positions": [
                -0.22350048910010226,
                -1.5324967055292011,
                1.2442923282857787,
                -1.1531338939987823,
                -0.8735157127062039,
                -1.4328557664828043
            ]
        },
        {
            "positions": [
                -0.1946356231750466,
                -1.50043141914554,
                1.3062472878692657,
                -1.1278792094736896,
                -0.7896466842837296,
                -1.5747993481756466
            ]
        },
        {
            "positions": [
                -0.16577075724999094,
                -1.4683661327618789,
                1.3682022474527529,
                -1.102624524948597,
                -0.7057776558612554,
                -1.7167429298684889
            ]
        },
        {
            "positions": [
                -0.13690589132493525,
                -1.4363008463782179,
                1.4301572070362398,
                -1.0773698404235044,
                -0.6219086274387812,
                -1.8586865115613311
            ]
        },
        {
            "positions": [
                -0.10804102539987959,
                -1.4042355599945568,
                1.492112166619727,
                -1.0521151558984116,
                -0.5380395990163068,
                -2.0006300932541734
            ]
        },
        {
            "positions": [
                -0.07917615947482387,
                -1.3721702736108958,
                1.554067126203214,
                -1.026860471373319,
                -0.4541705705938326,
                -2.1425736749470157
            ]
        },
        {
            "positions": [
                -0.05031129354976821,
                -1.3401049872272346,
                1.616022085786701,
                -1.0016057868482262,
                -0.37030154217135836,
                -2.284517256639858
            ]
        },
        {
            "positions": [
                -0.02144642762471255,
                -1.3080397008435736,
                1.677977045370188,
                -0.9763511023231336,
                -0.2864325137488841,
                -2.4264608383327007
            ]
        },
        {
            "positions": [
                0.007418438300343111,
                -1.2759744144599126,
                1.739932004953675,
                -0.951096417798041,
                -0.20256348532641,
                -2.5684044200255425
            ]
        },
        {
            "positions": [
                0.03628330422539877,
                -1.2439091280762515,
                1.8018869645371622,
                -0.9258417332729483,
                -0.11869445690393565,
                -2.7103480017183847
            ]
        },
        {
            "positions": [
                0.06514817015045443,
                -1.2118438416925903,
                1.8638419241206492,
                -0.9005870487478556,
                -0.03482542848146131,
                -2.852291583411227
            ]
        },
        {
            "positions": [
                0.09401303607551015,
                -1.1797785553089293,
                1.9257968837041362,
                -0.8753323642227628,
                0.049043599941012817,
                -2.9942351651040697
            ]
        },
        {
            "positions": [
                0.1228779020005658,
                -1.1477132689252683,
                1.9877518432876233,
                -0.8500776796976702,
                0.13291262836348727,
                -3.1361787467969116
            ]
        }
    ]
}