{
    "goal": {
        "global_pose": {
            "orientation": {
                "w": -0.4816463035849501,
                "x": 0.5182115481033762,
                "y": 0.4908360881923453,
                "z": -0.5084816262002911
            },
            "position": {
                "x": -0.8240239810943604,
                "y": -0.300875300988555,
                "z": 0.16403168439865112
            }
        },
        "name": "move_to_storage_C"
    },
    "id": "RRT_move_to_storage_C_81",
    "joint_names": [
        "shoulder_pan_joint",
        "shoulder_lift_joint",
        "elbow_joint",
        "wrist_1_joint",
        "wrist_2_joint",
        "wrist_3_joint"
    ],
    "metrics": {
        "cart_traj_len": 0.5766206716744264,
        "distance_elbow_joint": 0.2564808691790441,
        "distance_shoulder_lift_joint": 0.1899325515932473,
        "distance_shoulder_pan_joint": 0.49467544115491435,
        "distance_wrist_1_joint": 0.06867059573696654,
        "distance_wrist_2_joint": 1.064939109925466,
        "distance_wrist_3_joint": 0.07103660468902318,
        "smoothness": 0.0,
        "time": 0.011282282999999999,
        "traj_len": 1.4648328137636257,
        "weighted_distance": 1.849707568054783
    },
    "planner": "RRT",
    "start": {
        "state": {
            "elbow_joint": 2.010868314990456,
            "shoulder_lift_joint": -1.1634956873337592,
            "shoulder_pan_joint": -2.4736205022346125,
            "wrist_1_joint": -0.8367026794202681,
            "wrist_2_joint": 0.6746043897044499,
            "wrist_3_joint": -3.1496632123970403
        }
    },
    "waypoints": [
        {
            "positions": [
                -2.4736205022346125,
                -1.1634956873337592,
                2.010868314990456,
                -0.8367026794202681,
                0.6746043897044499,
                -3.1496632123970403
            ]
        },
        {
            "positions": [
                -2.556066409093765,
                -1.131840262068218,
                1.9681215034606152,
                -0.8252575801307737,
                0.8520942413586943,
                -3.137823778282203
            ]
        },
        {
            "positions": [
                -2.638512315952917,
                -1.1001848368026768,
                1.9253746919307744,
                -0.8138124808412792,
                1.0295840930129385,
                -3.125984344167366
            ]
        },
        {
            "positions": [
                -2.7209582228120697,
                -1.0685294115371355,
                1.8826278804009338,
                -0.8023673815517849,
                1.207073944667183,
                -3.114144910052529
            ]
        },
        {
            "positions": [
                -2.803404129671222,
                -1.0368739862715943,
                1.8398810688710932,
                -0.7909222822622904,
                1.384563796321427,
                -3.1023054759376913
            ]
        },
        {
            "positions": [
                -2.8858500365303743,
                -1.0052185610060531,
                1.7971342573412523,
                -0.779477182972796,
                1.5620536479756715,
                -3.0904660418228542
            ]
        },
        {
            "positions": [
                -2.968295943389527,
                -0.9735631357405119,
                1.7543874458114117,
                -0.7680320836833016,
                1.7395434996299157,
                -3.078626607708017
            ]
        }
    ]
}