{
    "goal": {
        "global_pose": {
            "orientation": {
                "w": 0.7031023502349854,
                "x": -0.7110244035720825,
                "y": 0.007748599164187908,
                "z": 0.005598929710686207
            },
            "position": {
                "x": 0.11585023208521307,
                "y": 0.44412534475326537,
                "z": 0.3711530566215515
            }
        },
        "name": "move_to_auspresseinheit_A"
    },
    "id": "RRT_move_to_auspresseinheit_A_100",
    "joint_names": [
        "shoulder_pan_joint",
        "shoulder_lift_joint",
        "elbow_joint",
        "wrist_1_joint",
        "wrist_2_joint",
        "wrist_3_joint"
    ],
    "metrics": {
        "cart_traj_len": 0.7225660064865231,
        "distance_elbow_joint": 0.465257072569905,
        "distance_shoulder_lift_joint": 0.5349743893496615,
        "distance_shoulder_pan_joint": 1.0430317462133365,
        "distance_wrist_1_joint": 1.0814346623459596,
        "distance_wrist_2_joint": 2.352175946066153,
        "distance_wrist_3_joint": 0.10643181554009917,
        "smoothness": 1.2782114456488474,
        "time": 1.2850123119999999,
        "traj_len": 2.3629019514328378,
        "weighted_distance": 3.0380552779002272
    },
    "planner": "RRT",
    "start": {
        "state": {
            "elbow_joint": 2.4225746658250005,
            "shoulder_lift_joint": -1.3736534386056498,
            "shoulder_pan_joint": -0.3378633547517467,
            "wrist_1_joint": -1.0288598680537169,
            "wrist_2_joint": 1.233022673432363,
            "wrist_3_joint": -3.0940220416140027
        }
    },
    "waypoints": [
        {
            "positions": [
                -0.3378633547517467,
                -1.3736534386056498,
                2.4225746658250005,
                -1.0288598680537169,
                1.233022673432363,
                -3.0940220416140027
            ]
        },
        {
            "positions": [
                -0.28735856035359114,
                -1.3992169292782688,
                2.396111238029788,
                -0.9407855286110869,
                1.0788108886507004,
                -3.10169899693434
            ]
        },
        {
            "positions": [
                -0.23685376595543553,
                -1.4247804199508878,
                2.369647810234576,
                -0.8527111891684569,
                0.9245991038690378,
                -3.1093759522546764
            ]
        },
        {
            "positions": [
                -0.18634897155727995,
                -1.4503439106235068,
                2.3431843824393637,
                -0.7646368497258269,
                0.7703873190873752,
                -3.1170529075750135
            ]
        },
        {
            "positions": [
                -0.13584417715912434,
                -1.4759074012961255,
                2.316720954644152,
                -0.6765625102831968,
                0.6161755343057126,
                -3.12472986289535
            ]
        },
        {
            "positions": [
                -0.0853393827609687,
                -1.5014708919687445,
                2.2902575268489396,
                -0.5884881708405667,
                0.46196374952404995,
                -3.1324068182156872
            ]
        },
        {
            "positions": [
                -0.03483458836281317,
                -1.5270343826413635,
                2.2637940990537273,
                -0.5004138313979368,
                0.3077519647423874,
                -3.140083773536024
            ]
        },
        {
            "positions": [
                0.015670206035342485,
                -1.5525978733139825,
                2.237330671258515,
                -0.4123394919553068,
                0.15354017996072467,
                -3.147760728856361
            ]
        },
        {
            "positions": [
                0.05495171278946351,
                -1.5724805882815749,
                2.2167480051955724,
                -0.3438372279443723,
                0.03359768068609818,
                -3.153731694105512
            ]
        },
        {
            "positions": [
                0.09423321954358453,
                -1.5923633032491675,
                2.1961653391326292,
                -0.27533496393343787,
                -0.0863448185885283,
                -3.159702659354663
            ]
        },
        {
            "positions": [
                0.13351472629770555,
                -1.61224601821676,
                2.1755826730696866,
                -0.20683269992250342,
                -0.2062873178631548,
                -3.165673624603814
            ]
        },
        {
            "positions": [
                0.22879033715835292,
                -1.6616429865065185,
                2.2119601863721186,
                -0.2500672822916278,
                -0.05414299206804901,
                -3.159876919178766
            ]
        },
        {
            "positions": [
                0.3240659480190003,
                -1.7110399547962771,
                2.24833769967455,
                -0.2933018646607521,
                0.09800133372705677,
                -3.154080213753718
            ]
        },
        {
            "positions": [
                0.4193415588796477,
                -1.7604369230860355,
                2.284715212976982,
                -0.3365364470298764,
                0.25014565952216256,
                -3.14828350832867
            ]
        },
        {
            "positions": [
                0.514617169740295,
                -1.809833891375794,
                2.321092726279414,
                -0.37977102939900076,
                0.40228998531726834,
                -3.142486802903622
            ]
        },
        {
            "positions": [
                0.6098927806009424,
                -1.8592308596655527,
                2.3574702395818457,
                -0.4230056117681251,
                0.5544343111123742,
                -3.136690097478574
            ]
        },
        {
            "positions": [
                0.7051683914615898,
                -1.9086278279553113,
                2.3938477528842776,
                -0.46624019413724943,
                0.7065786369074799,
                -3.130893392053526
            ]
        }
    ]
}