{
    "goal": {
        "global_pose": {
            "orientation": {
                "w": -0.4816463035849501,
                "x": 0.5182115481033762,
                "y": 0.4908360881923453,
                "z": -0.5084816262002911
            },
            "position": {
                "x": -0.8240239810943604,
                "y": -0.300875300988555,
                "z": 0.16403168439865112
            }
        },
        "name": "move_to_storage_C"
    },
    "id": "RRT_move_to_storage_C_72",
    "joint_names": [
        "shoulder_pan_joint",
        "shoulder_lift_joint",
        "elbow_joint",
        "wrist_1_joint",
        "wrist_2_joint",
        "wrist_3_joint"
    ],
    "metrics": {
        "cart_traj_len": 0.5769412535838987,
        "distance_elbow_joint": 0.2555408807038355,
        "distance_shoulder_lift_joint": 0.1888512917810541,
        "distance_shoulder_pan_joint": 0.496045049453957,
        "distance_wrist_1_joint": 0.0726537597151875,
        "distance_wrist_2_joint": 1.0640173233636947,
        "distance_wrist_3_joint": 0.061682330019351195,
        "smoothness": 2.5376526478085547e-16,
        "time": 0.013150751,
        "traj_len": 1.4624604729828017,
        "weighted_distance": 1.8435906210855664
    },
    "planner": "RRT",
    "start": {
        "state": {
            "elbow_joint": 2.010868314990456,
            "shoulder_lift_joint": -1.1634956873337592,
            "shoulder_pan_joint": -2.4736205022346125,
            "wrist_1_joint": -0.8367026794202681,
            "wrist_2_joint": 0.6746043897044499,
            "wrist_3_joint": -3.1496632123970403
        }
    },
    "waypoints": [
        {
            "positions": [
                -2.4736205022346125,
                -1.1634956873337592,
                2.010868314990456,
                -0.8367026794202681,
                0.6746043897044499,
                -3.1496632123970403
            ]
        },
        {
            "positions": [
                -2.5562946771436055,
                -1.132020472036917,
                1.9682781682064832,
                -0.8245937194677369,
                0.8519406102650657,
                -3.1393828240604815
            ]
        },
        {
            "positions": [
                -2.638968852052598,
                -1.1005452567400744,
                1.9256880214225107,
                -0.8124847595152056,
                1.0292768308256814,
                -3.129102435723923
            ]
        },
        {
            "positions": [
                -2.721643026961591,
                -1.0690700414432321,
                1.883097874638538,
                -0.8003757995626744,
                1.2066130513862974,
                -3.118822047387365
            ]
        },
        {
            "positions": [
                -2.804317201870584,
                -1.0375948261463899,
                1.8405077278545654,
                -0.7882668396101431,
                1.3839492719469129,
                -3.108541659050806
            ]
        },
        {
            "positions": [
                -2.8869913767795765,
                -1.0061196108495474,
                1.797917581070593,
                -0.7761578796576118,
                1.5612854925075288,
                -3.0982612707142474
            ]
        },
        {
            "positions": [
                -2.9696655516885695,
                -0.9746443955527051,
                1.7553274342866203,
                -0.7640489197050806,
                1.7386217130681445,
                -3.087980882377689
            ]
        }
    ]
}