{
    "goal": {
        "global_pose": {
            "orientation": {
                "w": -0.00223480608172531,
                "x": 0.0024358444001904467,
                "y": 0.7094548369677653,
                "z": -0.704743149386269
            },
            "position": {
                "x": -0.37947507619857795,
                "y": -0.6371506643295288,
                "z": 0.19426114857196808
            }
        },
        "name": "move_to_magneteinheit_C"
    },
    "id": "RRT_move_to_magneteinheit_C_128",
    "joint_names": [
        "shoulder_pan_joint",
        "shoulder_lift_joint",
        "elbow_joint",
        "wrist_1_joint",
        "wrist_2_joint",
        "wrist_3_joint"
    ],
    "metrics": {
        "cart_traj_len": 5.113748742997024,
        "distance_elbow_joint": 0.35210590325454083,
        "distance_shoulder_lift_joint": 2.2601318053067727,
        "distance_shoulder_pan_joint": 8.533492932561307,
        "distance_wrist_1_joint": 2.7825836263259327,
        "distance_wrist_2_joint": 8.565807642639589,
        "distance_wrist_3_joint": 3.66614326499536,
        "smoothness": 0.5181145735646833,
        "time": 1.5535782180000002,
        "traj_len": 5.114710663867849,
        "weighted_distance": 6.696338027163778
    },
    "planner": "RRT",
    "start": {
        "state": {
            "elbow_joint": 1.9565354010623817,
            "shoulder_lift_joint": -1.4165861575791021,
            "shoulder_pan_joint": -1.6717766225146293,
            "wrist_1_joint": -0.5286633292919765,
            "wrist_2_joint": 1.472756589071564,
            "wrist_3_joint": -3.1238370188695823
        }
    },
    "waypoints": [
        {
            "positions": [
                -1.6717766225146293,
                -1.4165861575791021,
                1.9565354010623817,
                -0.5286633292919765,
                1.472756589071564,
                -3.1238370188695823
            ]
        },
        {
            "positions": [
                -1.5580855579945663,
                -1.4460959728901113,
                1.9521798266011883,
                -0.5743210667489509,
                1.3348978302838077,
                -3.0700246472596966
            ]
        },
        {
            "positions": [
                -1.4443944934745032,
                -1.4756057882011206,
                1.9478242521399949,
                -0.6199788042059253,
                1.1970390714960517,
                -3.0162122756498113
            ]
        },
        {
            "positions": [
                -1.3307034289544402,
                -1.50511560351213,
                1.9434686776788015,
                -0.6656365416628998,
                1.0591803127082955,
                -2.9623999040399256
            ]
        },
        {
            "positions": [
                -1.217012364434377,
                -1.5346254188231392,
                1.939113103217608,
                -0.7112942791198742,
                0.9213215539205394,
                -2.9085875324300403
            ]
        },
        {
            "positions": [
                -1.103321299914314,
                -1.5641352341341483,
                1.9347575287564145,
                -0.7569520165768486,
                0.7834627951327832,
                -2.8547751608201546
            ]
        },
        {
            "positions": [
                -0.9896302353942509,
                -1.5936450494451577,
                1.930401954295221,
                -0.8026097540338231,
                0.645604036345027,
                -2.800962789210269
            ]
        },
        {
            "positions": [
                -0.8759391708741879,
                -1.623154864756167,
                1.9260463798340277,
                -0.8482674914907975,
                0.507745277557271,
                -2.7471504176003836
            ]
        },
        {
            "positions": [
                -0.7622481063541248,
                -1.6526646800671763,
                1.9216908053728343,
                -0.8939252289477719,
                0.36988651876951484,
                -2.693338045990498
            ]
        },
        {
            "positions": [
                -0.6485570418340616,
                -1.6821744953781854,
                1.917335230911641,
                -0.9395829664047464,
                0.23202775998175862,
                -2.639525674380612
            ]
        },
        {
            "positions": [
                -0.5348659773139985,
                -1.7116843106891948,
                1.9129796564504475,
                -0.9852407038617208,
                0.0941690011940024,
                -2.585713302770727
            ]
        },
        {
            "positions": [
                -0.4211749127939355,
                -1.7411941260002042,
                1.9086240819892542,
                -1.0308984413186955,
                -0.0436897575937536,
                -2.531900931160841
            ]
        },
        {
            "positions": [
                -0.30748384827387243,
                -1.7707039413112133,
                1.9042685075280608,
                -1.07655617877567,
                -0.18154851638150982,
                -2.4780885595509554
            ]
        },
        {
            "positions": [
                -0.1937927837538096,
                -1.8002137566222225,
                1.8999129330668674,
                -1.122213916232644,
                -0.3194072751692658,
                -2.42427618794107
            ]
        },
        {
            "positions": [
                -0.08010171923374654,
                -1.8297235719332319,
                1.8955573586056738,
                -1.1678716536896188,
                -0.45726603395702203,
                -2.370463816331185
            ]
        },
        {
            "positions": [
                0.03358934528631674,
                -1.8592333872442413,
                1.8912017841444804,
                -1.2135293911465932,
                -0.595124792744778,
                -2.316651444721299
            ]
        },
        {
            "positions": [
                0.1472804098063798,
                -1.8887432025552504,
                1.886846209683287,
                -1.2591871286035676,
                -0.7329835515325342,
                -2.2628390731114134
            ]
        },
        {
            "positions": [
                0.26097147432644285,
                -1.9182530178662596,
                1.8824906352220936,
                -1.304844866060542,
                -0.8708423103202905,
                -2.2090267015015277
            ]
        },
        {
            "positions": [
                0.37466253884650613,
                -1.947762833177269,
                1.8781350607609002,
                -1.3505026035175165,
                -1.0087010691080467,
                -2.1552143298916424
            ]
        },
        {
            "positions": [
                0.48835360336656897,
                -1.9772726484882783,
                1.8737794862997068,
                -1.396160340974491,
                -1.146559827895803,
                -2.1014019582817567
            ]
        },
        {
            "positions": [
                0.6020446678866322,
                -2.0067824637992873,
                1.8694239118385134,
                -1.4418180784314654,
                -1.2844185866835591,
                -2.0475895866718714
            ]
        },
        {
            "positions": [
                0.7157357324066951,
                -2.0362922791102966,
                1.8650683373773198,
                -1.4874758158884398,
                -1.4222773454713153,
                -1.9937772150619857
            ]
        },
        {
            "positions": [
                0.8294267969267584,
                -2.065802094421306,
                1.8607127629161264,
                -1.5331335533454142,
                -1.5601361042590711,
                -1.9399648434521002
            ]
        },
        {
            "positions": [
                0.9431178614468216,
                -2.0953119097323154,
                1.856357188454933,
                -1.5787912908023887,
                -1.6979948630468273,
                -1.8861524718422145
            ]
        },
        {
            "positions": [
                1.0568089259668845,
                -2.124821725043325,
                1.8520016139937396,
                -1.624449028259363,
                -1.8358536218345836,
                -1.832340100232329
            ]
        },
        {
            "positions": [
                1.1704999904869478,
                -2.1543315403543337,
                1.8476460395325462,
                -1.6701067657163375,
                -1.9737123806223398,
                -1.7785277286224435
            ]
        },
        {
            "positions": [
                1.2841910550070101,
                -2.183841355665343,
                1.8432904650713529,
                -1.7157645031733118,
                -2.1115711394100956,
                -1.724715357012558
            ]
        },
        {
            "positions": [
                1.3978821195270734,
                -2.2133511709763525,
                1.8389348906101595,
                -1.7614222406302862,
                -2.2494298981978518,
                -1.6709029854026725
            ]
        },
        {
            "positions": [
                1.5115731840471363,
                -2.2428609862873614,
                1.834579316148966,
                -1.8070799780872608,
                -2.387288656985608,
                -1.617090613792787
            ]
        },
        {
            "positions": [
                1.6252642485671995,
                -2.272370801598371,
                1.8302237416877727,
                -1.8527377155442353,
                -2.525147415773364,
                -1.5632782421829012
            ]
        },
        {
            "positions": [
                1.7389553130872628,
                -2.30188061690938,
                1.825868167226579,
                -1.8983954530012097,
                -2.66300617456112,
                -1.5094658705730157
            ]
        },
        {
            "positions": [
                1.8526463776073256,
                -2.3313904322203896,
                1.8215125927653857,
                -1.9440531904581841,
                -2.8008649333488767,
                -1.4556534989631302
            ]
        },
        {
            "positions": [
                1.966337442127389,
                -2.360900247531399,
                1.8171570183041923,
                -1.9897109279151586,
                -2.9387236921366324,
                -1.4018411273532447
            ]
        },
        {
            "positions": [
                2.0800285066474515,
                -2.390410062842408,
                1.812801443842999,
                -2.035368665372133,
                -3.076582450924389,
                -1.348028755743359
            ]
        },
        {
            "positions": [
                2.193719571167515,
                -2.4199198781534172,
                1.8084458693818055,
                -2.0810264028291074,
                -3.2144412097121453,
                -1.2942163841334735
            ]
        },
        {
            "positions": [
                2.0522651245348134,
                -2.381835087706979,
                1.8146281836719256,
                -2.0437469921385376,
                -3.0969075780801494,
                -1.3498685850504204
            ]
        },
        {
            "positions": [
                1.9108106779021115,
                -2.343750297260541,
                1.8208104979620459,
                -2.0064675814479678,
                -2.9793739464481535,
                -1.4055207859673675
            ]
        },
        {
            "positions": [
                1.76935623126941,
                -2.305665506814103,
                1.826992812252166,
                -1.9691881707573982,
                -2.8618403148161575,
                -1.4611729868843144
            ]
        },
        {
            "positions": [
                1.6279017846367083,
                -2.267580716367665,
                1.833175126542286,
                -1.9319087600668285,
                -2.7443066831841616,
                -1.5168251878012615
            ]
        },
        {
            "positions": [
                1.4864473380040066,
                -2.229495925921227,
                1.8393574408324063,
                -1.8946293493762587,
                -2.6267730515521657,
                -1.5724773887182084
            ]
        },
        {
            "positions": [
                1.344992891371305,
                -2.1914111354747887,
                1.8455397551225263,
                -1.8573499386856889,
                -2.5092394199201697,
                -1.6281295896351553
            ]
        },
        {
            "positions": [
                1.2035384447386033,
                -2.1533263450283506,
                1.8517220694126466,
                -1.8200705279951193,
                -2.391705788288174,
                -1.6837817905521024
            ]
        },
        {
            "positions": [
                1.0620839981059018,
                -2.115241554581912,
                1.8579043837027667,
                -1.7827911173045494,
                -2.274172156656178,
                -1.7394339914690495
            ]
        },
        {
            "positions": [
                0.9206295514732001,
                -2.0771567641354745,
                1.8640866979928867,
                -1.7455117066139798,
                -2.156638525024182,
                -1.7950861923859964
            ]
        },
        {
            "positions": [
                0.7791751048404985,
                -2.039071973689036,
                1.870269012283007,
                -1.70823229592341,
                -2.039104893392186,
                -1.8507383933029433
            ]
        },
        {
            "positions": [
                0.637720658207797,
                -2.000987183242598,
                1.876451326573127,
                -1.6709528852328404,
                -1.92157126176019,
                -1.9063905942198902
            ]
        },
        {
            "positions": [
                0.4962662115750951,
                -1.9629023927961597,
                1.8826336408632471,
                -1.6336734745422705,
                -1.8040376301281942,
                -1.9620427951368373
            ]
        },
        {
            "positions": [
                0.35481176494239364,
                -1.9248176023497217,
                1.8888159551533674,
                -1.596394063851701,
                -1.6865039984961983,
                -2.0176949960537844
            ]
        },
        {
            "positions": [
                0.21335731830969196,
                -1.8867328119032836,
                1.8949982694434875,
                -1.559114653161131,
                -1.5689703668642023,
                -2.0733471969707313
            ]
        },
        {
            "positions": [
                0.07190287167699028,
                -1.8486480214568455,
                1.9011805837336075,
                -1.5218352424705612,
                -1.4514367352322064,
                -2.1289993978876782
            ]
        },
        {
            "positions": [
                -0.06955157495571118,
                -1.8105632310104074,
                1.9073628980237278,
                -1.4845558317799914,
                -1.3339031036002105,
                -2.184651598804625
            ]
        },
        {
            "positions": [
                -0.21100602158841308,
                -1.7724784405639693,
                1.9135452123138479,
                -1.447276421089422,
                -1.2163694719682145,
                -2.2403037997215725
            ]
        },
        {
            "positions": [
                -0.35246046822111454,
                -1.7343936501175312,
                1.919727526603968,
                -1.4099970103988522,
                -1.0988358403362186,
                -2.295956000638519
            ]
        },
        {
            "positions": [
                -0.49391491485381644,
                -1.6963088596710931,
                1.9259098408940882,
                -1.3727175997082823,
                -0.9813022087042227,
                -2.3516082015554662
            ]
        },
        {
            "positions": [
                -0.6353693614865179,
                -1.658224069224655,
                1.9320921551842083,
                -1.3354381890177125,
                -0.8637685770722268,
                -2.4072604024724136
            ]
        },
        {
            "positions": [
                -0.7768238081192194,
                -1.620139278778217,
                1.9382744694743286,
                -1.2981587783271429,
                -0.7462349454402308,
                -2.46291260338936
            ]
        },
        {
            "positions": [
                -0.9182782547519208,
                -1.5820544883317789,
                1.9444567837644486,
                -1.2608793676365733,
                -0.6287013138082349,
                -2.5185648043063074
            ]
        },
        {
            "positions": [
                -1.0597327013846232,
                -1.5439696978853406,
                1.9506390980545687,
                -1.2235999569460034,
                -0.511167682176239,
                -2.5742170052232543
            ]
        },
        {
            "positions": [
                -1.2011871480173246,
                -1.5058849074389025,
                1.956821412344689,
                -1.1863205462554336,
                -0.39363405054424305,
                -2.629869206140201
            ]
        },
        {
            "positions": [
                -1.342641594650026,
                -1.4678001169924644,
                1.963003726634809,
                -1.1490411355648638,
                -0.2761004189122471,
                -2.6855214070571485
            ]
        },
        {
            "positions": [
                -1.4840960412827275,
                -1.4297153265460263,
                1.969186040924929,
                -1.1117617248742941,
                -0.1585667872802512,
                -2.741173607974095
            ]
        },
        {
            "positions": [
                -1.6255504879154294,
                -1.391630536099588,
                1.9753683552150494,
                -1.0744823141837243,
                -0.04103315564825527,
                -2.7968258088910423
            ]
        },
        {
            "positions": [
                -1.767004934548131,
                -1.35354574565315,
                1.9815506695051694,
                -1.0372029034931547,
                0.07650047598374066,
                -2.852478009807989
            ]
        },
        {
            "positions": [
                -1.9084593811808324,
                -1.315460955206712,
                1.9877329837952895,
                -0.9999234928025849,
                0.19403410761573658,
                -2.908130210724936
            ]
        },
        {
            "positions": [
                -2.0499138278135343,
                -1.277376164760274,
                1.9939152980854098,
                -0.9626440821120152,
                0.3115677392477325,
                -2.963782411641883
            ]
        },
        {
            "positions": [
                -2.191368274446236,
                -1.2392913743138356,
                2.00009761237553,
                -0.9253646714214454,
                0.42910137087972844,
                -3.0194346125588303
            ]
        },
        {
            "positions": [
                -2.332822721078937,
                -1.2012065838673975,
                2.00627992666565,
                -0.8880852607308756,
                0.5466350025117244,
                -3.075086813475777
            ]
        },
        {
            "positions": [
                -2.4742771677116386,
                -1.1631217934209594,
                2.01246224095577,
                -0.8508058500403058,
                0.6641686341437202,
                -3.130739014392724
            ]
        }
    ]
}