{
    "goal": {
        "global_pose": {
            "orientation": {
                "w": 0.7047431493862688,
                "x": -0.7094548369677653,
                "y": 0.0024358444001904,
                "z": -0.0022348060817251984
            },
            "position": {
                "x": -0.39052492380142206,
                "y": 0.3671506643295288,
                "z": 0.19426114857196808
            }
        },
        "name": "move_to_magneteinheit_D"
    },
    "id": "RRT_move_to_magneteinheit_D_23",
    "joint_names": [
        "shoulder_pan_joint",
        "shoulder_lift_joint",
        "elbow_joint",
        "wrist_1_joint",
        "wrist_2_joint",
        "wrist_3_joint"
    ],
    "metrics": {
        "cart_traj_len": 3.8792182489889138,
        "distance_elbow_joint": 3.7314398667066757,
        "distance_shoulder_lift_joint": 1.7710709976168062,
        "distance_shoulder_pan_joint": 4.4950673002707155,
        "distance_wrist_1_joint": 2.209336206105969,
        "distance_wrist_2_joint": 1.9721089256070101,
        "distance_wrist_3_joint": 4.487299265307731,
        "smoothness": 0.6186279559607286,
        "time": 0.081958323,
        "traj_len": 4.320453976333379,
        "weighted_distance": 5.641131643911827
    },
    "planner": "RRT",
    "start": {
        "state": {
            "elbow_joint": 0.749534889911806,
            "shoulder_lift_joint": -0.6476975780787326,
            "shoulder_pan_joint": -2.711696901376241,
            "wrist_1_joint": -0.07506478083263063,
            "wrist_2_joint": 0.43296659715538205,
            "wrist_3_joint": -3.14703540197715
        }
    },
    "waypoints": [
        {
            "positions": [
                -2.711696901376241,
                -0.6476975780787326,
                0.749534889911806,
                -0.07506478083263063,
                0.43296659715538205,
                -3.14703540197715
            ]
        },
        {
            "positions": [
                -2.7356168769537654,
                -0.635605121700849,
                0.6262583759825272,
                0.019614280081519567,
                0.33202824372343326,
                -3.116270302277116
            ]
        },
        {
            "positions": [
                -2.75953685253129,
                -0.6235126653229655,
                0.5029818620532485,
                0.11429334099566976,
                0.23108989029148444,
                -3.0855052025770817
            ]
        },
        {
            "positions": [
                -2.7834568281088146,
                -0.6114202089450819,
                0.37970534812396967,
                0.20897240190981997,
                0.13015153685953562,
                -3.0547401028770476
            ]
        },
        {
            "positions": [
                -2.807376803686339,
                -0.5993277525671983,
                0.2564288341946909,
                0.30365146282397015,
                0.02921318342758683,
                -3.0239750031770134
            ]
        },
        {
            "positions": [
                -2.8312967792638637,
                -0.5872352961893147,
                0.13315232026541213,
                0.3983305237381204,
                -0.07172517000436202,
                -2.9932099034769792
            ]
        },
        {
            "positions": [
                -2.855216754841388,
                -0.5751428398114311,
                0.009875806336133428,
                0.49300958465227057,
                -0.1726635234363108,
                -2.962444803776945
            ]
        },
        {
            "positions": [
                -2.748841722917371,
                -0.6064840102966182,
                -0.07188211361172125,
                0.5322526192681114,
                -0.14664057277957415,
                -2.8510622788710425
            ]
        },
        {
            "positions": [
                -2.642466690993354,
                -0.6378251807818054,
                -0.15364003355957595,
                0.5714956538839522,
                -0.12061762212283747,
                -2.73967975396514
            ]
        },
        {
            "positions": [
                -2.5360916590693368,
                -0.6691663512669925,
                -0.2353979535074306,
                0.6107386884997931,
                -0.0945946714661008,
                -2.628297229059237
            ]
        },
        {
            "positions": [
                -2.42971662714532,
                -0.7005075217521797,
                -0.3171558734552853,
                0.6499817231156338,
                -0.06857172080936413,
                -2.516914704153334
            ]
        },
        {
            "positions": [
                -2.323341595221303,
                -0.7318486922373668,
                -0.3989137934031399,
                0.6892247577314747,
                -0.04254877015262745,
                -2.4055321792474316
            ]
        },
        {
            "positions": [
                -2.216966563297286,
                -0.763189862722554,
                -0.4806717133509946,
                0.7284677923473155,
                -0.016525819495890798,
                -2.294149654341529
            ]
        },
        {
            "positions": [
                -2.110591531373269,
                -0.7945310332077411,
                -0.5624296332988493,
                0.7677108269631563,
                0.009497131160845884,
                -2.1827671294356263
            ]
        },
        {
            "positions": [
                -2.004216499449252,
                -0.8258722036929282,
                -0.6441875532467041,
                0.8069538615789972,
                0.03552008181758254,
                -2.0713846045297233
            ]
        },
        {
            "positions": [
                -1.897841467525235,
                -0.8572133741781154,
                -0.7259454731945586,
                0.846196896194838,
                0.06154303247431919,
                -1.960002079623821
            ]
        },
        {
            "positions": [
                -1.791466435601218,
                -0.8885545446633025,
                -0.8077033931424134,
                0.8854399308106788,
                0.0875659831310559,
                -1.848619554717918
            ]
        },
        {
            "positions": [
                -1.685091403677201,
                -0.9198957151484897,
                -0.889461313090268,
                0.9246829654265196,
                0.1135889337877925,
                -1.7372370298120154
            ]
        },
        {
            "positions": [
                -1.5787163717531838,
                -0.9512368856336769,
                -0.9712192330381227,
                0.9639260000423604,
                0.1396118844445292,
                -1.6258545049061126
            ]
        },
        {
            "positions": [
                -1.472341339829167,
                -0.982578056118864,
                -1.0529771529859773,
                1.0031690346582012,
                0.16563483510126586,
                -1.5144719800002102
            ]
        },
        {
            "positions": [
                -1.3659663079051498,
                -1.013919226604051,
                -1.134735072933832,
                1.0424120692740422,
                0.19165778575800257,
                -1.4030894550943074
            ]
        },
        {
            "positions": [
                -1.259591275981133,
                -1.0452603970892382,
                -1.2164929928816866,
                1.081655103889883,
                0.21768073641473917,
                -1.2917069301884048
            ]
        },
        {
            "positions": [
                -1.1532162440571159,
                -1.0766015675744254,
                -1.2982509128295414,
                1.1208981385057237,
                0.24370368707147588,
                -1.180324405282502
            ]
        },
        {
            "positions": [
                -1.0468412121330988,
                -1.1079427380596125,
                -1.3800088327773958,
                1.1601411731215645,
                0.26972663772821254,
                -1.0689418803765993
            ]
        },
        {
            "positions": [
                -0.9404661802090819,
                -1.1392839085447997,
                -1.4617667527252505,
                1.1993842077374053,
                0.2957495883849492,
                -0.9575593554706967
            ]
        },
        {
            "positions": [
                -0.8340911482850646,
                -1.170625079029987,
                -1.5435246726731053,
                1.2386272423532463,
                0.3217725390416859,
                -0.8461768305647936
            ]
        },
        {
            "positions": [
                -0.7277161163610479,
                -1.201966249515174,
                -1.62528259262096,
                1.277870276969087,
                0.3477954896984226,
                -0.734794305658891
            ]
        },
        {
            "positions": [
                -0.6213410844370308,
                -1.233307420000361,
                -1.7070405125688146,
                1.3171133115849278,
                0.37381844035515915,
                -0.6234117807529884
            ]
        },
        {
            "positions": [
                -0.5149660525130138,
                -1.2646485904855482,
                -1.7887984325166693,
                1.3563563462007686,
                0.3998413910118958,
                -0.5120292558470858
            ]
        },
        {
            "positions": [
                -0.40859102058899666,
                -1.2959897609707356,
                -1.8705563524645241,
                1.3955993808166096,
                0.4258643416686326,
                -0.40064673094118275
            ]
        },
        {
            "positions": [
                -0.30221598866497956,
                -1.3273309314559227,
                -1.9523142724123788,
                1.4348424154324504,
                0.4518872923253692,
                -0.28926420603528014
            ]
        },
        {
            "positions": [
                -0.1958409567409629,
                -1.3586721019411097,
                -2.034072192360233,
                1.4740854500482912,
                0.4779102429821059,
                -0.17788168112937797
            ]
        },
        {
            "positions": [
                -0.08946592481694582,
                -1.3900132724262968,
                -2.115830112308088,
                1.513328484664132,
                0.5039331936388425,
                -0.06649915622347535
            ]
        },
        {
            "positions": [
                0.016909107107071275,
                -1.4213544429114842,
                -2.197588032255943,
                1.552571519279973,
                0.5299561442955794,
                0.044883368682427704
            ]
        },
        {
            "positions": [
                0.12328413903108837,
                -1.4526956133966713,
                -2.2793459522037973,
                1.5918145538958137,
                0.555979094952316,
                0.15626589358833032
            ]
        },
        {
            "positions": [
                0.22965917095510546,
                -1.4840367838818584,
                -2.361103872151652,
                1.6310575885116545,
                0.5820020456090524,
                0.26764841849423293
            ]
        },
        {
            "positions": [
                0.3360342028791221,
                -1.5153779543670456,
                -2.4428617920995066,
                1.6703006231274953,
                0.6080249962657891,
                0.37903094340013554
            ]
        },
        {
            "positions": [
                0.44240923480313965,
                -1.5467191248522327,
                -2.5246197120473615,
                1.7095436577433363,
                0.634047946922526,
                0.4904134683060386
            ]
        },
        {
            "positions": [
                0.5487842667271563,
                -1.5780602953374199,
                -2.6063776319952163,
                1.748786692359177,
                0.6600708975792626,
                0.6017959932119412
            ]
        },
        {
            "positions": [
                0.6551592986511732,
                -1.609401465822607,
                -2.6881355519430707,
                1.7880297269750178,
                0.6860938482359992,
                0.7131785181178437
            ]
        },
        {
            "positions": [
                0.5616958105052836,
                -1.6832078695268657,
                -2.655494504737315,
                1.7495584271640934,
                0.6296803556423316,
                0.6435023686497616
            ]
        },
        {
            "positions": [
                0.46823232235939405,
                -1.7570142732311245,
                -2.62285345753156,
                1.7110871273531687,
                0.5732668630486641,
                0.5738262191816795
            ]
        },
        {
            "positions": [
                0.3747688342135045,
                -1.8308206769353832,
                -2.590212410325804,
                1.6726158275422442,
                0.5168533704549967,
                0.5041500697135974
            ]
        },
        {
            "positions": [
                0.2813053460676149,
                -1.904627080639642,
                -2.557571363120049,
                1.6341445277313198,
                0.4604398778613291,
                0.4344739202455153
            ]
        },
        {
            "positions": [
                0.18784185792172536,
                -1.9784334843439009,
                -2.5249303159142933,
                1.5956732279203951,
                0.40402638526766155,
                0.3647977707774332
            ]
        },
        {
            "positions": [
                0.0943783697758358,
                -2.0522398880481596,
                -2.492289268708538,
                1.5572019281094707,
                0.3476128926739941,
                0.2951216213093511
            ]
        },
        {
            "positions": [
                0.0009148816299462403,
                -2.1260462917524183,
                -2.4596482215027824,
                1.5187306282985462,
                0.2911994000803265,
                0.22544547184126895
            ]
        },
        {
            "positions": [
                -0.09254860651594332,
                -2.199852695456677,
                -2.427007174297027,
                1.4802593284876218,
                0.23478590748665906,
                0.15576932237318686
            ]
        },
        {
            "positions": [
                -0.18601209466183286,
                -2.273659099160936,
                -2.3943661270912715,
                1.441788028676697,
                0.17837241489299152,
                0.08609317290510475
            ]
        }
    ]
}