{
    "goal": {
        "global_pose": {
            "orientation": {
                "w": 0.7031023480610252,
                "x": -0.7110244013736278,
                "y": 0.0077485991402295624,
                "z": 0.005598929693374583
            },
            "position": {
                "x": -0.8841497679147869,
                "y": 0.44412534475326537,
                "z": 0.3711530566215515
            }
        },
        "name": "move_to_auspresseinheit_D"
    },
    "id": "RRT_move_to_auspresseinheit_D_90",
    "joint_names": [
        "shoulder_pan_joint",
        "shoulder_lift_joint",
        "elbow_joint",
        "wrist_1_joint",
        "wrist_2_joint",
        "wrist_3_joint"
    ],
    "metrics": {
        "cart_traj_len": 0.3447730195884303,
        "distance_elbow_joint": 0.6559190220544253,
        "distance_shoulder_lift_joint": 0.1300173614386444,
        "distance_shoulder_pan_joint": 0.13408873359462387,
        "distance_wrist_1_joint": 0.5851460872587442,
        "distance_wrist_2_joint": 1.43586259131393,
        "distance_wrist_3_joint": 0.032879499135540335,
        "smoothness": 1.9737298371844314e-16,
        "time": 0.011881561,
        "traj_len": 1.7245037821924045,
        "weighted_distance": 2.2495957351576887
    },
    "planner": "RRT",
    "start": {
        "state": {
            "elbow_joint": -1.8275523626775212,
            "shoulder_lift_joint": -2.126789852344167,
            "shoulder_pan_joint": -0.03513704404078235,
            "wrist_1_joint": -2.347782403156801,
            "wrist_2_joint": -1.6058999987535132,
            "wrist_3_joint": -3.0880379163319196
        }
    },
    "waypoints": [
        {
            "positions": [
                -0.03513704404078235,
                -2.126789852344167,
                -1.8275523626775212,
                -2.347782403156801,
                -1.6058999987535132,
                -3.0880379163319196
            ]
        },
        {
            "positions": [
                -0.05189813574011033,
                -2.1430420225239972,
                -1.745562484920718,
                -2.4209256640641437,
                -1.426417174839272,
                -3.083927978939977
            ]
        },
        {
            "positions": [
                -0.06865922743943831,
                -2.159294192703828,
                -1.663572607163915,
                -2.494068924971487,
                -1.2469343509250308,
                -3.0798180415480347
            ]
        },
        {
            "positions": [
                -0.0854203191387663,
                -2.1755463628836584,
                -1.5815827294071116,
                -2.56721218587883,
                -1.0674515270107894,
                -3.075708104156092
            ]
        },
        {
            "positions": [
                -0.10218141083809429,
                -2.191798533063489,
                -1.4995928516503085,
                -2.640355446786173,
                -0.8879687030965482,
                -3.0715981667641494
            ]
        },
        {
            "positions": [
                -0.11894250253742228,
                -2.2080507032433196,
                -1.4176029738935054,
                -2.7134987076935158,
                -0.708485879182307,
                -3.067488229372207
            ]
        },
        {
            "positions": [
                -0.13570359423675024,
                -2.22430287342315,
                -1.335613096136702,
                -2.786641968600859,
                -0.5290030552680656,
                -3.063378291980264
            ]
        },
        {
            "positions": [
                -0.15246468593607823,
                -2.240555043602981,
                -1.253623218379899,
                -2.8597852295082022,
                -0.3495202313538244,
                -3.0592683545883217
            ]
        },
        {
            "positions": [
                -0.16922577763540622,
                -2.2568072137828112,
                -1.1716333406230959,
                -2.932928490415545,
                -0.17003740743958315,
                -3.0551584171963793
            ]
        }
    ]
}