{
    "goal": {
        "global_pose": {
            "orientation": {
                "w": -0.4816463035849501,
                "x": 0.5182115481033762,
                "y": 0.4908360881923453,
                "z": -0.5084816262002911
            },
            "position": {
                "x": -0.8240239810943604,
                "y": -0.300875300988555,
                "z": 0.16403168439865112
            }
        },
        "name": "move_to_storage_C"
    },
    "id": "RRT_move_to_storage_C_106",
    "joint_names": [
        "shoulder_pan_joint",
        "shoulder_lift_joint",
        "elbow_joint",
        "wrist_1_joint",
        "wrist_2_joint",
        "wrist_3_joint"
    ],
    "metrics": {
        "cart_traj_len": 0.576216391849846,
        "distance_elbow_joint": 0.2560911024285599,
        "distance_shoulder_lift_joint": 0.18818039696577982,
        "distance_shoulder_pan_joint": 0.4957017801817969,
        "distance_wrist_1_joint": 0.07901265555134696,
        "distance_wrist_2_joint": 1.0627949397522665,
        "distance_wrist_3_joint": 0.06459963457076734,
        "smoothness": 0.0,
        "time": 0.013319257,
        "traj_len": 1.4650530739364076,
        "weighted_distance": 1.8486176927357547
    },
    "planner": "RRT",
    "start": {
        "state": {
            "elbow_joint": 2.010868314990456,
            "shoulder_lift_joint": -1.1634956873337592,
            "shoulder_pan_joint": -2.4736205022346125,
            "wrist_1_joint": -0.8367026794202681,
            "wrist_2_joint": 0.6746043897044499,
            "wrist_3_joint": -3.1496632123970403
        }
    },
    "waypoints": [
        {
            "positions": [
                -2.4736205022346125,
                -1.1634956873337592,
                2.010868314990456,
                -0.8367026794202681,
                0.6746043897044499,
                -3.1496632123970403
            ]
        },
        {
            "positions": [
                -2.556237465598245,
                -1.1321322878394626,
                1.968186464585696,
                -0.8235339034950436,
                0.851736879663161,
                -3.138896606635246
            ]
        },
        {
            "positions": [
                -2.6388544289618783,
                -1.1007688883451658,
                1.9255046141809358,
                -0.8103651275698192,
                1.028869369621872,
                -3.128130000873451
            ]
        },
        {
            "positions": [
                -2.721471392325511,
                -1.0694054888508693,
                1.8828227637761759,
                -0.7971963516445946,
                1.2060018595805833,
                -3.1173633951116564
            ]
        },
        {
            "positions": [
                -2.8040883556891436,
                -1.0380420893565727,
                1.840140913371416,
                -0.7840275757193701,
                1.383134349539294,
                -3.106596789349862
            ]
        },
        {
            "positions": [
                -2.8867053190527767,
                -1.006678689862276,
                1.7974590629666558,
                -0.7708587997941456,
                1.5602668394980053,
                -3.0958301835880677
            ]
        },
        {
            "positions": [
                -2.9693222824164094,
                -0.9753152903679794,
                1.754777212561896,
                -0.7576900238689211,
                1.7373993294567165,
                -3.085063577826273
            ]
        }
    ]
}