{
    "goal": {
        "global_pose": {
            "orientation": {
                "w": 0.005598929693374612,
                "x": 0.007748599140229565,
                "y": 0.7110244013736278,
                "z": -0.7031023480610252
            },
            "position": {
                "x": 0.1141497679147869,
                "y": -0.7141253447532654,
                "z": 0.3711530566215515
            }
        },
        "name": "move_to_auspresseinheit_B"
    },
    "id": "RRT_move_to_auspresseinheit_B_119",
    "joint_names": [
        "shoulder_pan_joint",
        "shoulder_lift_joint",
        "elbow_joint",
        "wrist_1_joint",
        "wrist_2_joint",
        "wrist_3_joint"
    ],
    "metrics": {
        "cart_traj_len": 0.564858502369683,
        "distance_elbow_joint": 0.06007121145197858,
        "distance_shoulder_lift_joint": 0.29621791546335685,
        "distance_shoulder_pan_joint": 0.577119632769646,
        "distance_wrist_1_joint": 0.3210589099426546,
        "distance_wrist_2_joint": 0.9973905504864411,
        "distance_wrist_3_joint": 0.005979817059779791,
        "smoothness": 2.5376526478085547e-16,
        "time": 0.013992279,
        "traj_len": 1.5026104076485884,
        "weighted_distance": 1.8942669114257662
    },
    "planner": "RRT",
    "start": {
        "state": {
            "elbow_joint": 2.0193083361928714,
            "shoulder_lift_joint": -1.1220246554650708,
            "shoulder_pan_joint": -1.0952077554168747,
            "wrist_1_joint": -0.8559753972642168,
            "wrist_2_joint": 0.4759566250798843,
            "wrist_3_joint": -3.1240929996934557
        }
    },
    "waypoints": [
        {
            "positions": [
                -1.0952077554168747,
                -1.1220246554650708,
                2.0193083361928714,
                -0.8559753972642168,
                0.4759566250798843,
                -3.1240929996934557
            ]
        },
        {
            "positions": [
                -1.1913943608784823,
                -1.1713943080422968,
                2.0092964676175415,
                -0.802465578940441,
                0.6421883834942912,
                -3.123096363516826
            ]
        },
        {
            "positions": [
                -1.28758096634009,
                -1.220763960619523,
                1.999284599042212,
                -0.7489557606166652,
                0.808420141908698,
                -3.1220997273401956
            ]
        },
        {
            "positions": [
                -1.3837675718016977,
                -1.2701336131967493,
                1.9892727304668822,
                -0.6954459422928895,
                0.9746519003231049,
                -3.1211030911635658
            ]
        },
        {
            "positions": [
                -1.4799541772633051,
                -1.3195032657739754,
                1.9792608618915524,
                -0.6419361239691137,
                1.1408836587375117,
                -3.120106454986936
            ]
        },
        {
            "positions": [
                -1.576140782724913,
                -1.3688729183512014,
                1.9692489933162225,
                -0.5884263056453379,
                1.3071154171519186,
                -3.1191098188103057
            ]
        },
        {
            "positions": [
                -1.6723273881865206,
                -1.4182425709284276,
                1.9592371247408928,
                -0.5349164873215622,
                1.4733471755663254,
                -3.118113182633676
            ]
        }
    ]
}