{
    "goal": {
        "global_pose": {
            "orientation": {
                "w": -0.4816463035849501,
                "x": 0.5182115481033762,
                "y": 0.4908360881923453,
                "z": -0.5084816262002911
            },
            "position": {
                "x": -0.8240239810943604,
                "y": -0.300875300988555,
                "z": 0.16403168439865112
            }
        },
        "name": "move_to_storage_C"
    },
    "id": "RRT_move_to_storage_C_113",
    "joint_names": [
        "shoulder_pan_joint",
        "shoulder_lift_joint",
        "elbow_joint",
        "wrist_1_joint",
        "wrist_2_joint",
        "wrist_3_joint"
    ],
    "metrics": {
        "cart_traj_len": 0.5767393909933686,
        "distance_elbow_joint": 0.2596931488816827,
        "distance_shoulder_lift_joint": 0.1913145933272935,
        "distance_shoulder_pan_joint": 0.49226748376388985,
        "distance_wrist_1_joint": 0.07672216820239997,
        "distance_wrist_2_joint": 1.081803604646554,
        "distance_wrist_3_joint": 0.05736266916777355,
        "smoothness": 0.0,
        "time": 0.012850874,
        "traj_len": 1.4694092921951982,
        "weighted_distance": 1.8526777321418033
    },
    "planner": "RRT",
    "start": {
        "state": {
            "elbow_joint": 2.010868314990456,
            "shoulder_lift_joint": -1.1634956873337592,
            "shoulder_pan_joint": -2.4736205022346125,
            "wrist_1_joint": -0.8367026794202681,
            "wrist_2_joint": 0.6746043897044499,
            "wrist_3_joint": -3.1496632123970403
        }
    },
    "waypoints": [
        {
            "positions": [
                -2.4736205022346125,
                -1.1634956873337592,
                2.010868314990456,
                -0.8367026794202681,
                0.6746043897044499,
                -3.1496632123970403
            ]
        },
        {
            "positions": [
                -2.5556650828619274,
                -1.1316099217792104,
                1.9675861235101753,
                -0.8239156513865348,
                0.8549049904788756,
                -3.140102767535745
            ]
        },
        {
            "positions": [
                -2.6377096634892423,
                -1.0997241562246614,
                1.924303932029895,
                -0.8111286233528014,
                1.0352055912533014,
                -3.130542322674449
            ]
        },
        {
            "positions": [
                -2.719754244116557,
                -1.0678383906701123,
                1.8810217405496146,
                -0.7983415953190681,
                1.215506192027727,
                -3.1209818778131533
            ]
        },
        {
            "positions": [
                -2.8017988247438725,
                -1.0359526251155635,
                1.837739549069334,
                -0.7855545672853348,
                1.3958067928021527,
                -3.111421432951858
            ]
        },
        {
            "positions": [
                -2.8838434053711874,
                -1.0040668595610147,
                1.7944573575890534,
                -0.7727675392516015,
                1.5761073935765784,
                -3.1018609880905625
            ]
        },
        {
            "positions": [
                -2.9658879859985023,
                -0.9721810940064657,
                1.751175166108773,
                -0.7599805112178681,
                1.756407994351004,
                -3.0923005432292667
            ]
        }
    ]
}