{
    "goal": {
        "global_pose": {
            "orientation": {
                "w": 0.7031023480610252,
                "x": -0.7110244013736278,
                "y": 0.0077485991402295624,
                "z": 0.005598929693374583
            },
            "position": {
                "x": -0.8841497679147869,
                "y": 0.44412534475326537,
                "z": 0.3711530566215515
            }
        },
        "name": "move_to_auspresseinheit_D"
    },
    "id": "RRT_move_to_auspresseinheit_D_104",
    "joint_names": [
        "shoulder_pan_joint",
        "shoulder_lift_joint",
        "elbow_joint",
        "wrist_1_joint",
        "wrist_2_joint",
        "wrist_3_joint"
    ],
    "metrics": {
        "cart_traj_len": 0.34400650409861133,
        "distance_elbow_joint": 0.6386576870054075,
        "distance_shoulder_lift_joint": 0.12070668524309935,
        "distance_shoulder_pan_joint": 0.13415666059977172,
        "distance_wrist_1_joint": 0.5239343745737091,
        "distance_wrist_2_joint": 1.4455833502701618,
        "distance_wrist_3_joint": 0.0006260917118550147,
        "smoothness": 0.0,
        "time": 0.012209696999999999,
        "traj_len": 1.6922366410771292,
        "weighted_distance": 2.1987348084004092
    },
    "planner": "RRT",
    "start": {
        "state": {
            "elbow_joint": -1.8275523626775212,
            "shoulder_lift_joint": -2.126789852344167,
            "shoulder_pan_joint": -0.03513704404078235,
            "wrist_1_joint": -2.347782403156801,
            "wrist_2_joint": -1.6058999987535132,
            "wrist_3_joint": -3.0880379163319196
        }
    },
    "waypoints": [
        {
            "positions": [
                -0.03513704404078235,
                -2.126789852344167,
                -1.8275523626775212,
                -2.347782403156801,
                -1.6058999987535132,
                -3.0880379163319196
            ]
        },
        {
            "positions": [
                -0.05190662661575381,
                -2.1418781879995543,
                -1.7477201518018453,
                -2.4132741999785146,
                -1.425202079969743,
                -3.0881161777959014
            ]
        },
        {
            "positions": [
                -0.06867620919072528,
                -2.156966523654942,
                -1.6678879409261693,
                -2.4787659968002282,
                -1.2445041611859726,
                -3.0881944392598832
            ]
        },
        {
            "positions": [
                -0.08544579176569675,
                -2.1720548593103293,
                -1.5880557300504934,
                -2.544257793621942,
                -1.0638062424022026,
                -3.088272700723865
            ]
        },
        {
            "positions": [
                -0.10221537434066821,
                -2.1871431949657163,
                -1.5082235191748175,
                -2.6097495904436556,
                -0.8831083236184323,
                -3.088350962187847
            ]
        },
        {
            "positions": [
                -0.11898495691563968,
                -2.2022315306211038,
                -1.4283913082991415,
                -2.675241387265369,
                -0.702410404834662,
                -3.088429223651829
            ]
        },
        {
            "positions": [
                -0.13575453949061114,
                -2.2173198662764912,
                -1.3485590974234656,
                -2.7407331840870826,
                -0.5217124860508919,
                -3.088507485115811
            ]
        },
        {
            "positions": [
                -0.1525241220655826,
                -2.2324082019318787,
                -1.2687268865477896,
                -2.8062249809087962,
                -0.34101456726712165,
                -3.088585746579793
            ]
        },
        {
            "positions": [
                -0.16929370464055407,
                -2.247496537587266,
                -1.1888946756721137,
                -2.87171677773051,
                -0.16031664848335125,
                -3.0886640080437746
            ]
        }
    ]
}