{
    "goal": {
        "global_pose": {
            "orientation": {
                "w": -0.00223480608172531,
                "x": 0.0024358444001904467,
                "y": 0.7094548369677653,
                "z": -0.704743149386269
            },
            "position": {
                "x": -0.37947507619857795,
                "y": -0.6371506643295288,
                "z": 0.19426114857196808
            }
        },
        "name": "move_to_magneteinheit_C"
    },
    "id": "RRT_move_to_magneteinheit_C_148",
    "joint_names": [
        "shoulder_pan_joint",
        "shoulder_lift_joint",
        "elbow_joint",
        "wrist_1_joint",
        "wrist_2_joint",
        "wrist_3_joint"
    ],
    "metrics": {
        "cart_traj_len": 1.917770825668593,
        "distance_elbow_joint": 1.0436560084180626,
        "distance_shoulder_lift_joint": 0.6272856438150045,
        "distance_shoulder_pan_joint": 1.8730965023454933,
        "distance_wrist_1_joint": 0.7446796700353717,
        "distance_wrist_2_joint": 1.971286818367384,
        "distance_wrist_3_joint": 1.5428141463601466,
        "smoothness": 1.1798245874107038,
        "time": 1.9756561639999999,
        "traj_len": 2.7933526074130817,
        "weighted_distance": 3.68841613303929
    },
    "planner": "RRT",
    "start": {
        "state": {
            "elbow_joint": 1.9565354010623817,
            "shoulder_lift_joint": -1.4165861575791021,
            "shoulder_pan_joint": -1.6717766225146293,
            "wrist_1_joint": -0.5286633292919765,
            "wrist_2_joint": 1.472756589071564,
            "wrist_3_joint": -3.1238370188695823
        }
    },
    "waypoints": [
        {
            "positions": [
                -1.6717766225146293,
                -1.4165861575791021,
                1.9565354010623817,
                -0.5286633292919765,
                1.472756589071564,
                -3.1238370188695823
            ]
        },
        {
            "positions": [
                -1.6381367888560416,
                -1.4180367148630775,
                1.9411355801236048,
                -0.515888376331612,
                1.4625268149510964,
                -3.0893071342873295
            ]
        },
        {
            "positions": [
                -1.539065843323847,
                -1.4314254046032167,
                1.882274833024949,
                -0.5398235072680384,
                1.4169106668107612,
                -2.984051406990634
            ]
        },
        {
            "positions": [
                -1.5029810037015514,
                -1.451701397955513,
                1.8119569288462496,
                -0.595309898455884,
                1.3397270413875135,
                -2.881567529916862
            ]
        },
        {
            "positions": [
                -1.4668961640792555,
                -1.471977391307809,
                1.7416390246675502,
                -0.6507962896437297,
                1.262543415964266,
                -2.77908365284309
            ]
        },
        {
            "positions": [
                -1.4308113244569598,
                -1.4922533846601052,
                1.6713211204888507,
                -0.7062826808315754,
                1.1853597905410183,
                -2.6765997757693176
            ]
        },
        {
            "positions": [
                -1.394726484834664,
                -1.5125293780124014,
                1.6010032163101515,
                -0.761769072019421,
                1.1081761651177708,
                -2.574115898695545
            ]
        },
        {
            "positions": [
                -1.3586416452123682,
                -1.5328053713646974,
                1.530685312131452,
                -0.8172554632072666,
                1.030992539694523,
                -2.471632021621773
            ]
        },
        {
            "positions": [
                -1.3225568055900725,
                -1.5530813647169937,
                1.4603674079527527,
                -0.8727418543951123,
                0.9538089142712755,
                -2.3691481445480007
            ]
        },
        {
            "positions": [
                -1.4898225051356269,
                -1.5593782959841984,
                1.5083858142697775,
                -0.8460199965579672,
                0.8452758663012966,
                -2.40205407642804
            ]
        },
        {
            "positions": [
                -1.6570882046811812,
                -1.5656752272514032,
                1.5564042205868023,
                -0.8192981387208222,
                0.7367428183313177,
                -2.4349600083080793
            ]
        },
        {
            "positions": [
                -1.8243539042267354,
                -1.571972158518608,
                1.6044226269038273,
                -0.7925762808836772,
                0.6282097703613388,
                -2.4678659401881187
            ]
        },
        {
            "positions": [
                -1.9916196037722897,
                -1.5782690897858127,
                1.6524410332208521,
                -0.7658544230465321,
                0.51967672239136,
                -2.500771872068158
            ]
        },
        {
            "positions": [
                -2.1588853033178443,
                -1.5845660210530172,
                1.700459439537877,
                -0.7391325652093871,
                0.4111436744213811,
                -2.5336778039481973
            ]
        },
        {
            "positions": [
                -2.3261510028633983,
                -1.590862952320222,
                1.748477845854902,
                -0.712410707372242,
                0.30261062645140224,
                -2.5665837358282366
            ]
        },
        {
            "positions": [
                -2.4934167024089526,
                -1.5971598835874268,
                1.7964962521719268,
                -0.685688849535097,
                0.19407757848142337,
                -2.599489667708276
            ]
        },
        {
            "positions": [
                -2.660682401954507,
                -1.6034568148546315,
                1.8445146584889516,
                -0.6589669916979519,
                0.08554453051144446,
                -2.6323955995883153
            ]
        },
        {
            "positions": [
                -2.647115006395188,
                -1.5426907027651278,
                1.897134569481777,
                -0.6660430996278183,
                0.17629820446361888,
                -2.725289389772792
            ]
        },
        {
            "positions": [
                -2.633547610835869,
                -1.4819245906756238,
                1.9497544804746023,
                -0.6731192075576846,
                0.26705187841579325,
                -2.818183179957268
            ]
        },
        {
            "positions": [
                -2.593893536351403,
                -1.4022039000855069,
                1.9642797161712484,
                -0.7099002476713381,
                0.36769373139152217,
                -2.9029557391145926
            ]
        },
        {
            "positions": [
                -2.554239461866937,
                -1.32248320949539,
                1.9788049518678943,
                -0.7466812877849915,
                0.46833558436725115,
                -2.987728298271917
            ]
        },
        {
            "positions": [
                -2.5145853873824713,
                -1.2427625189052733,
                1.9933301875645402,
                -0.783462327898645,
                0.5689774373429801,
                -3.072500857429241
            ]
        },
        {
            "positions": [
                -2.474931312898005,
                -1.1630418283151565,
                2.0078554232611863,
                -0.8202433680122985,
                0.669619290318709,
                -3.1572734165865657
            ]
        }
    ]
}