{
    "goal": {
        "global_pose": {
            "orientation": {
                "w": 0.7047431493862688,
                "x": -0.7094548369677653,
                "y": 0.0024358444001904,
                "z": -0.0022348060817251984
            },
            "position": {
                "x": -0.39052492380142206,
                "y": 0.3671506643295288,
                "z": 0.19426114857196808
            }
        },
        "name": "move_to_magneteinheit_D"
    },
    "id": "RRT_move_to_magneteinheit_D_44",
    "joint_names": [
        "shoulder_pan_joint",
        "shoulder_lift_joint",
        "elbow_joint",
        "wrist_1_joint",
        "wrist_2_joint",
        "wrist_3_joint"
    ],
    "metrics": {
        "cart_traj_len": 4.178338764810329,
        "distance_elbow_joint": 3.1723136858349243,
        "distance_shoulder_lift_joint": 1.1358689947577925,
        "distance_shoulder_pan_joint": 3.1689070080903226,
        "distance_wrist_1_joint": 2.093894621728559,
        "distance_wrist_2_joint": 1.6159973799753218,
        "distance_wrist_3_joint": 6.274493913936901,
        "smoothness": 0.2941578457441341,
        "time": 0.325031222,
        "traj_len": 4.1786930497852826,
        "weighted_distance": 5.806923060787142
    },
    "planner": "RRT",
    "start": {
        "state": {
            "elbow_joint": 0.749534889911806,
            "shoulder_lift_joint": -0.6476975780787326,
            "shoulder_pan_joint": -2.711696901376241,
            "wrist_1_joint": -0.07506478083263063,
            "wrist_2_joint": 0.43296659715538205,
            "wrist_3_joint": -3.14703540197715
        }
    },
    "waypoints": [
        {
            "positions": [
                -2.711696901376241,
                -0.6476975780787326,
                0.749534889911806,
                -0.07506478083263063,
                0.43296659715538205,
                -3.14703540197715
            ]
        },
        {
            "positions": [
                -2.696642303702462,
                -0.7057560986704907,
                0.6505254939143751,
                -0.0917306460263021,
                0.5086127849736006,
                -3.04311430717907
            ]
        },
        {
            "positions": [
                -2.6815877060286835,
                -0.7638146192622487,
                0.5515160979169442,
                -0.10839651121997358,
                0.5842589727918192,
                -2.93919321238099
            ]
        },
        {
            "positions": [
                -2.726203964793503,
                -0.7540900037019123,
                0.43921890516791956,
                -0.16987921955828408,
                0.6136933552152808,
                -2.8510176006625625
            ]
        },
        {
            "positions": [
                -2.770820223558322,
                -0.7443653881415758,
                0.3269217124188949,
                -0.23136192789659457,
                0.6431277376387425,
                -2.762841988944135
            ]
        },
        {
            "positions": [
                -2.690625451302905,
                -0.7547621407406256,
                0.24921673399172906,
                -0.2550841985017622,
                0.6096473267057303,
                -2.5943942804738196
            ]
        },
        {
            "positions": [
                -2.610430679047488,
                -0.7651588933396755,
                0.17151175556456322,
                -0.27880646910692986,
                0.5761669157727181,
                -2.425946572003504
            ]
        },
        {
            "positions": [
                -2.530235906792071,
                -0.7755556459387254,
                0.09380677713739738,
                -0.3025287397120975,
                0.5426865048397058,
                -2.257498863533188
            ]
        },
        {
            "positions": [
                -2.4500411345366535,
                -0.7859523985377752,
                0.01610179871023154,
                -0.3262510103172651,
                0.5092060939066936,
                -2.0890511550628728
            ]
        },
        {
            "positions": [
                -2.3698463622812365,
                -0.796349151136825,
                -0.0616031797169343,
                -0.34997328092243274,
                0.47572568297368134,
                -1.920603446592557
            ]
        },
        {
            "positions": [
                -2.2896515900258194,
                -0.8067459037358748,
                -0.13930815814410014,
                -0.37369555152760037,
                0.44224527204066905,
                -1.7521557381222417
            ]
        },
        {
            "positions": [
                -2.2094568177704024,
                -0.8171426563349247,
                -0.21701313657126597,
                -0.397417822132768,
                0.4087648611076568,
                -1.5837080296519261
            ]
        },
        {
            "positions": [
                -2.1292620455149853,
                -0.8275394089339746,
                -0.2947181149984318,
                -0.4211400927379356,
                0.37528445017464457,
                -1.4152603211816106
            ]
        },
        {
            "positions": [
                -2.0490672732595683,
                -0.8379361615330244,
                -0.37242309342559754,
                -0.4448623633431032,
                0.34180403924163233,
                -1.246812612711295
            ]
        },
        {
            "positions": [
                -1.968872501004151,
                -0.8483329141320742,
                -0.4501280718527635,
                -0.4685846339482709,
                0.3083236283086201,
                -1.0783649042409793
            ]
        },
        {
            "positions": [
                -1.888677728748734,
                -0.858729666731124,
                -0.5278330502799292,
                -0.4923069045534385,
                0.27484321737560785,
                -0.909917195770664
            ]
        },
        {
            "positions": [
                -1.8084829564933167,
                -0.869126419330174,
                -0.6055380287070952,
                -0.5160291751586061,
                0.24136280644259556,
                -0.7414694873003485
            ]
        },
        {
            "positions": [
                -1.7282881842378996,
                -0.8795231719292238,
                -0.6832430071342609,
                -0.5397514457637738,
                0.20788239550958337,
                -0.5730217788300331
            ]
        },
        {
            "positions": [
                -1.6480934119824826,
                -0.8899199245282736,
                -0.7609479855614268,
                -0.5634737163689414,
                0.17440198457657108,
                -0.4045740703597174
            ]
        },
        {
            "positions": [
                -1.5678986397270656,
                -0.9003166771273234,
                -0.8386529639885926,
                -0.587195986974109,
                0.14092157364355884,
                -0.23612636188940161
            ]
        },
        {
            "positions": [
                -1.4877038674716483,
                -0.9107134297263733,
                -0.9163579424157585,
                -0.6109182575792766,
                0.1074411627105466,
                -0.0676786534190863
            ]
        },
        {
            "positions": [
                -1.4075090952162312,
                -0.9211101823254231,
                -0.9940629208429242,
                -0.6346405281844443,
                0.07396075177753436,
                0.10076905505122946
            ]
        },
        {
            "positions": [
                -1.3273143229608142,
                -0.931506934924473,
                -1.0717678992700899,
                -0.6583627987896118,
                0.04048034084452212,
                0.2692167635215448
            ]
        },
        {
            "positions": [
                -1.247119550705397,
                -0.9419036875235228,
                -1.149472877697256,
                -0.6820850693947795,
                0.006999929911509772,
                0.43766447199186054
            ]
        },
        {
            "positions": [
                -1.1669247784499799,
                -0.9523004401225726,
                -1.2271778561244218,
                -0.7058073399999472,
                -0.026480481021502356,
                0.6061121804621763
            ]
        },
        {
            "positions": [
                -1.0867300061945628,
                -0.9626971927216226,
                -1.3048828345515875,
                -0.7295296106051148,
                -0.059960891954514595,
                0.7745598889324916
            ]
        },
        {
            "positions": [
                -1.0065352339391458,
                -0.9730939453206724,
                -1.3825878129787532,
                -0.7532518812102824,
                -0.09344130288752683,
                0.9430075974028069
            ]
        },
        {
            "positions": [
                -0.9263404616837283,
                -0.9834906979197222,
                -1.4602927914059194,
                -0.77697415181545,
                -0.12692171382053918,
                1.1114553058731227
            ]
        },
        {
            "positions": [
                -0.8461456894283113,
                -0.993887450518772,
                -1.5379977698330851,
                -0.8006964224206177,
                -0.16040212475355142,
                1.279903014343438
            ]
        },
        {
            "positions": [
                -0.7659509171728942,
                -1.0042842031178218,
                -1.6157027482602508,
                -0.8244186930257853,
                -0.19388253568656355,
                1.4483507228137538
            ]
        },
        {
            "positions": [
                -0.6857561449174772,
                -1.0146809557168717,
                -1.6934077266874166,
                -0.8481409636309529,
                -0.2273629466195758,
                1.6167984312840686
            ]
        },
        {
            "positions": [
                -0.6055613726620601,
                -1.0250777083159215,
                -1.7711127051145827,
                -0.8718632342361206,
                -0.26084335755258814,
                1.7852461397543853
            ]
        },
        {
            "positions": [
                -0.5253666004066431,
                -1.0354744609149713,
                -1.8488176835417485,
                -0.8955855048412882,
                -0.2943237684856004,
                1.9536938482247002
            ]
        },
        {
            "positions": [
                -0.445171828151226,
                -1.0458712135140211,
                -1.9265226619689142,
                -0.9193077754464558,
                -0.3278041794186126,
                2.122141556695016
            ]
        },
        {
            "positions": [
                -0.364977055895809,
                -1.0562679661130712,
                -2.00422764039608,
                -0.9430300460516234,
                -0.36128459035162486,
                2.2905892651653317
            ]
        },
        {
            "positions": [
                -0.2847822836403915,
                -1.066664718712121,
                -2.081932618823246,
                -0.9667523166567911,
                -0.3947650012846371,
                2.4590369736356474
            ]
        },
        {
            "positions": [
                -0.20458751138497444,
                -1.0770614713111708,
                -2.159637597250412,
                -0.9904745872619587,
                -0.42824541221764933,
                2.6274846821059623
            ]
        },
        {
            "positions": [
                -0.12439273912955755,
                -1.0874582239102206,
                -2.2373425756775775,
                -1.0141968578671263,
                -0.4617258231506616,
                2.7959323905762776
            ]
        },
        {
            "positions": [
                -0.09015457310271352,
                -1.175021443113158,
                -2.2314035803616146,
                -1.1829064599557604,
                -0.4626294123924647,
                2.8217626973675407
            ]
        },
        {
            "positions": [
                -0.05591640707586949,
                -1.2625846623160957,
                -2.2254645850456516,
                -1.3516160620443944,
                -0.4635330016342678,
                2.8475930041588033
            ]
        },
        {
            "positions": [
                -0.02167824104902548,
                -1.350147881519033,
                -2.219525589729688,
                -1.5203256641330283,
                -0.4644365908760709,
                2.8734233109500664
            ]
        },
        {
            "positions": [
                0.012559924977818562,
                -1.4377111007219705,
                -2.213586594413725,
                -1.6890352662216626,
                -0.46534018011787404,
                2.899253617741329
            ]
        },
        {
            "positions": [
                0.04679809100466258,
                -1.525274319924908,
                -2.207647599097762,
                -1.8577448683102964,
                -0.46624376935967715,
                2.925083924532592
            ]
        },
        {
            "positions": [
                0.01859290716341303,
                -1.5820347606244376,
                -2.2305524291515892,
                -1.9515298616647065,
                -0.41601495035980307,
                2.9613441748322473
            ]
        },
        {
            "positions": [
                -0.009612276677836526,
                -1.638795201323967,
                -2.2534572592054167,
                -2.0453148550191167,
                -0.365786131359929,
                2.9976044251319025
            ]
        },
        {
            "positions": [
                -0.03781746051908609,
                -1.6955556420234967,
                -2.2763620892592438,
                -2.139099848373527,
                -0.31555731236005485,
                3.0338646754315577
            ]
        },
        {
            "positions": [
                -0.08692793689455038,
                -1.7119264648807242,
                -2.3053710070939917,
                -2.149053033102748,
                -0.2669645538620815,
                3.065062620940955
            ]
        },
        {
            "positions": [
                -0.18514888964547893,
                -1.7446681105951793,
                -2.3633888427634875,
                -2.16895940256119,
                -0.16977903686613477,
                3.1274585119597496
            ]
        }
    ]
}