{
    "goal": {
        "global_pose": {
            "orientation": {
                "w": 0.005598929693374612,
                "x": 0.007748599140229565,
                "y": 0.7110244013736278,
                "z": -0.7031023480610252
            },
            "position": {
                "x": -0.8858502320852131,
                "y": -0.7141253447532654,
                "z": 0.3711530566215515
            }
        },
        "name": "move_to_auspresseinheit_C"
    },
    "id": "RRT_move_to_auspresseinheit_C_54",
    "joint_names": [
        "shoulder_pan_joint",
        "shoulder_lift_joint",
        "elbow_joint",
        "wrist_1_joint",
        "wrist_2_joint",
        "wrist_3_joint"
    ],
    "metrics": {
        "cart_traj_len": 0.49378412790697546,
        "distance_elbow_joint": 1.012173312638577,
        "distance_shoulder_lift_joint": 0.33018798905471414,
        "distance_shoulder_pan_joint": 0.25584477656633364,
        "distance_wrist_1_joint": 0.7021028964714273,
        "distance_wrist_2_joint": 1.3100637181612766,
        "distance_wrist_3_joint": 0.08055514406067799,
        "smoothness": 0.0,
        "time": 0.024134399,
        "traj_len": 1.921178762362578,
        "weighted_distance": 2.421612012628585
    },
    "planner": "RRT",
    "start": {
        "state": {
            "elbow_joint": 1.7527959577737207,
            "shoulder_lift_joint": -0.9740617694225068,
            "shoulder_pan_joint": -2.967991417825858,
            "wrist_1_joint": -0.759517768980727,
            "wrist_2_joint": 1.7443932448377408,
            "wrist_3_joint": -3.0840537646736568
        }
    },
    "waypoints": [
        {
            "positions": [
                -2.967991417825858,
                -0.9740617694225068,
                1.7527959577737207,
                -0.759517768980727,
                1.7443932448377408,
                -3.0840537646736568
            ]
        },
        {
            "positions": [
                -2.9424069401692248,
                -0.9410429705170353,
                1.6515786265098629,
                -0.6893074793335843,
                1.6133868730216132,
                -3.0921092790797244
            ]
        },
        {
            "positions": [
                -2.916822462512591,
                -0.9080241716115639,
                1.5503612952460053,
                -0.6190971896864415,
                1.4823805012054856,
                -3.1001647934857925
            ]
        },
        {
            "positions": [
                -2.891237984855958,
                -0.8750053727060926,
                1.4491439639821475,
                -0.5488869000392989,
                1.3513741293893577,
                -3.10822030789186
            ]
        },
        {
            "positions": [
                -2.8656535071993243,
                -0.8419865738006211,
                1.34792663271829,
                -0.47867661039215603,
                1.2203677575732301,
                -3.116275822297928
            ]
        },
        {
            "positions": [
                -2.840069029542691,
                -0.8089677748951497,
                1.2467093014544322,
                -0.4084663207450133,
                1.0893613857571025,
                -3.124331336703996
            ]
        },
        {
            "positions": [
                -2.814484551886058,
                -0.7759489759896783,
                1.1454919701905744,
                -0.3382560310978706,
                0.9583550139409749,
                -3.1323868511100637
            ]
        },
        {
            "positions": [
                -2.7889000742294243,
                -0.7429301770842069,
                1.0442746389267168,
                -0.2680457414507279,
                0.8273486421248473,
                -3.1404423655161313
            ]
        },
        {
            "positions": [
                -2.763315596572791,
                -0.7099113781787354,
                0.943057307662859,
                -0.19783545180358508,
                0.6963422703087194,
                -3.148497879922199
            ]
        },
        {
            "positions": [
                -2.7377311189161575,
                -0.6768925792732641,
                0.8418399763990013,
                -0.12762516215644237,
                0.5653358984925918,
                -3.156553394328267
            ]
        },
        {
            "positions": [
                -2.7121466412595243,
                -0.6438737803677926,
                0.7406226451351436,
                -0.05741487250929969,
                0.4343295266764641,
                -3.1646089087343348
            ]
        }
    ]
}