{
    "goal": {
        "global_pose": {
            "orientation": {
                "w": 0.7047431493862688,
                "x": -0.7094548369677653,
                "y": 0.0024358444001904,
                "z": -0.0022348060817251984
            },
            "position": {
                "x": -0.39052492380142206,
                "y": 0.3671506643295288,
                "z": 0.19426114857196808
            }
        },
        "name": "move_to_magneteinheit_D"
    },
    "id": "RRT_move_to_magneteinheit_D_16",
    "joint_names": [
        "shoulder_pan_joint",
        "shoulder_lift_joint",
        "elbow_joint",
        "wrist_1_joint",
        "wrist_2_joint",
        "wrist_3_joint"
    ],
    "metrics": {
        "cart_traj_len": 4.666142279246357,
        "distance_elbow_joint": 3.1219367143438626,
        "distance_shoulder_lift_joint": 1.9019498363284306,
        "distance_shoulder_pan_joint": 3.4827013895135477,
        "distance_wrist_1_joint": 2.3862405644298486,
        "distance_wrist_2_joint": 1.8721737380083114,
        "distance_wrist_3_joint": 3.126148607502799,
        "smoothness": 0.28065936275960474,
        "time": 0.628462487,
        "traj_len": 3.986370636321565,
        "weighted_distance": 5.138274259668372
    },
    "planner": "RRT",
    "start": {
        "state": {
            "elbow_joint": 0.749534889911806,
            "shoulder_lift_joint": -0.6476975780787326,
            "shoulder_pan_joint": -2.711696901376241,
            "wrist_1_joint": -0.07506478083263063,
            "wrist_2_joint": 0.43296659715538205,
            "wrist_3_joint": -3.14703540197715
        }
    },
    "waypoints": [
        {
            "positions": [
                -2.711696901376241,
                -0.6476975780787326,
                0.749534889911806,
                -0.07506478083263063,
                0.43296659715538205,
                -3.14703540197715
            ]
        },
        {
            "positions": [
                -2.723302731957385,
                -0.6242819405006907,
                0.7130021544607954,
                -0.0901954468553884,
                0.5190375697369561,
                -2.941256835899706
            ]
        },
        {
            "positions": [
                -2.7349085625385285,
                -0.6008663029226489,
                0.676469419009785,
                -0.10532611287814617,
                0.6051085423185303,
                -2.735478269822262
            ]
        },
        {
            "positions": [
                -2.7378096465959185,
                -0.5929104279527275,
                0.6011212486589333,
                -0.1382450228108679,
                0.6530603466271867,
                -2.5209214372308675
            ]
        },
        {
            "positions": [
                -2.7407107306533085,
                -0.5849545529828063,
                0.5257730783080817,
                -0.17116393274358963,
                0.7010121509358431,
                -2.306364604639473
            ]
        },
        {
            "positions": [
                -2.7436118147106985,
                -0.576998678012885,
                0.45042490795723017,
                -0.20408284267631133,
                0.7489639552444995,
                -2.091807772048078
            ]
        },
        {
            "positions": [
                -2.7465128987680885,
                -0.5690428030429637,
                0.37507673760637855,
                -0.23700175260903308,
                0.7969157595531561,
                -1.8772509394566836
            ]
        },
        {
            "positions": [
                -2.7494139828254784,
                -0.5610869280730424,
                0.29972856725552693,
                -0.26992066254175484,
                0.8448675638618125,
                -1.6626941068652892
            ]
        },
        {
            "positions": [
                -2.7523150668828684,
                -0.5531310531031212,
                0.22438039690467537,
                -0.3028395724744765,
                0.8928193681704689,
                -1.4481372742738947
            ]
        },
        {
            "positions": [
                -2.7552161509402584,
                -0.5451751781331998,
                0.14903222655382375,
                -0.3357584824071983,
                0.9407711724791253,
                -1.2335804416825003
            ]
        },
        {
            "positions": [
                -2.7581172349976484,
                -0.5372193031632786,
                0.07368405620297214,
                -0.36867739233992003,
                0.9887229767877819,
                -1.0190236090911056
            ]
        },
        {
            "positions": [
                -2.7610183190550384,
                -0.5292634281933573,
                -0.0016641141478795918,
                -0.40159630227264176,
                1.0366747810964383,
                -0.8044667764997109
            ]
        },
        {
            "positions": [
                -2.7639194031124283,
                -0.521307553223436,
                -0.0770122844987311,
                -0.4345152122053635,
                1.0846265854050947,
                -0.5899099439083164
            ]
        },
        {
            "positions": [
                -2.7668204871698183,
                -0.5133516782535147,
                -0.1523604548495827,
                -0.46743412213808516,
                1.1325783897137511,
                -0.37535311131692195
            ]
        },
        {
            "positions": [
                -2.6165590984704306,
                -0.5698667959051918,
                -0.2256629083328049,
                -0.4263120422384095,
                1.0813451602421869,
                -0.3713673147457979
            ]
        },
        {
            "positions": [
                -2.466297709771043,
                -0.6263819135568691,
                -0.29896536181602706,
                -0.3851899623387339,
                1.0301119307706226,
                -0.36738151817467396
            ]
        },
        {
            "positions": [
                -2.316036321071655,
                -0.6828970312085463,
                -0.37226781529924924,
                -0.3440678824390583,
                0.9788787012990583,
                -0.36339572160354994
            ]
        },
        {
            "positions": [
                -2.165774932372267,
                -0.7394121488602234,
                -0.4455702687824715,
                -0.30294580253938264,
                0.9276454718274939,
                -0.35940992503242597
            ]
        },
        {
            "positions": [
                -2.015513543672879,
                -0.7959272665119006,
                -0.5188727222656937,
                -0.26182372263970705,
                0.8764122423559296,
                -0.35542412846130195
            ]
        },
        {
            "positions": [
                -1.8652521549734913,
                -0.8524423841635778,
                -0.5921751757489159,
                -0.22070164274003143,
                0.8251790128843653,
                -0.351438331890178
            ]
        },
        {
            "positions": [
                -1.7149907662741035,
                -0.9089575018152549,
                -0.665477629232138,
                -0.1795795628403558,
                0.7739457834128011,
                -0.34745253531905396
            ]
        },
        {
            "positions": [
                -1.5647293775747153,
                -0.9654726194669322,
                -0.7387800827153603,
                -0.13845748294068017,
                0.7227125539412367,
                -0.34346673874793
            ]
        },
        {
            "positions": [
                -1.4144679888753275,
                -1.0219877371186095,
                -0.8120825361985825,
                -0.09733540304100452,
                0.6714793244696724,
                -0.33948094217680597
            ]
        },
        {
            "positions": [
                -1.2642066001759398,
                -1.0785028547702864,
                -0.8853849896818047,
                -0.05621332314132893,
                0.6202460949981081,
                -0.33549514560568194
            ]
        },
        {
            "positions": [
                -1.1139452114765518,
                -1.1350179724219638,
                -0.958687443165027,
                -0.015091243241653285,
                0.5690128655265437,
                -0.331509349034558
            ]
        },
        {
            "positions": [
                -0.9636838227771642,
                -1.1915330900736407,
                -1.031989896648249,
                0.026030836658022305,
                0.5177796360549796,
                -0.32752355246343395
            ]
        },
        {
            "positions": [
                -0.813422434077776,
                -1.248048207725318,
                -1.1052923501314713,
                0.067152916557698,
                0.4665464065834152,
                -0.32353775589231
            ]
        },
        {
            "positions": [
                -0.6631610453783887,
                -1.304563325376995,
                -1.1785948036146934,
                0.10827499645737354,
                0.415313177111851,
                -0.31955195932118596
            ]
        },
        {
            "positions": [
                -0.5128996566790005,
                -1.3610784430286724,
                -1.2518972570979157,
                0.14939707635704919,
                0.3640799476402866,
                -0.315566162750062
            ]
        },
        {
            "positions": [
                -0.3626382679796123,
                -1.4175935606803498,
                -1.325199710581138,
                0.19051915625672483,
                0.3128467181687222,
                -0.311580366178938
            ]
        },
        {
            "positions": [
                -0.21237687928022497,
                -1.4741086783320267,
                -1.39850216406436,
                0.23164123615640037,
                0.26161348869715806,
                -0.307594569607814
            ]
        },
        {
            "positions": [
                -0.06211549058083676,
                -1.5306237959837041,
                -1.4718046175475823,
                0.2727633160560761,
                0.21038025922559367,
                -0.30360877303669
            ]
        },
        {
            "positions": [
                0.08814589811855056,
                -1.587138913635381,
                -1.5451070710308044,
                0.31388539595575166,
                0.1591470297540295,
                -0.299622976465566
            ]
        },
        {
            "positions": [
                0.23840728681793855,
                -1.6436540312870584,
                -1.6184095245140266,
                0.35500747585542736,
                0.10791380028246511,
                -0.295637179894442
            ]
        },
        {
            "positions": [
                0.19797760820431817,
                -1.7155009735423479,
                -1.7255096812731028,
                0.4909575763123768,
                0.10182636233594163,
                -0.27244349239887033
            ]
        },
        {
            "positions": [
                0.1575479295906978,
                -1.7873479157976375,
                -1.832609838032179,
                0.6269076767693262,
                0.09573892438941814,
                -0.24924980490329868
            ]
        },
        {
            "positions": [
                0.1171182509770774,
                -1.859194858052927,
                -1.939709994791255,
                0.7628577772262757,
                0.08965148644289465,
                -0.22605611740772702
            ]
        },
        {
            "positions": [
                0.07668857236345702,
                -1.9310418003082166,
                -2.046810151550331,
                0.8988078776832251,
                0.08356404849637117,
                -0.20286242991215533
            ]
        },
        {
            "positions": [
                0.036258893749836624,
                -2.0028887425635062,
                -2.1539103083094076,
                1.0347579781401746,
                0.07747661054984767,
                -0.17966874241658365
            ]
        },
        {
            "positions": [
                -0.00417078486378375,
                -2.0747356848187954,
                -2.2610104650684835,
                1.170708078597124,
                0.0713891726033242,
                -0.15647505492101202
            ]
        },
        {
            "positions": [
                -0.044600463477404165,
                -2.146582627074085,
                -2.36811062182756,
                1.3066581790540734,
                0.0653017346568007,
                -0.13328136742544033
            ]
        },
        {
            "positions": [
                -0.11427160319583925,
                -2.2137691209154062,
                -2.370256223129809,
                1.416547640020191,
                0.117944379853297,
                -0.07708408094989426
            ]
        },
        {
            "positions": [
                -0.18394274291427434,
                -2.2809556147567274,
                -2.372401824432058,
                1.5264371009863085,
                0.1705870250497933,
                -0.020886794474348182
            ]
        }
    ]
}