{
    "goal": {
        "global_pose": {
            "orientation": {
                "w": 0.005598929693374612,
                "x": 0.007748599140229565,
                "y": 0.7110244013736278,
                "z": -0.7031023480610252
            },
            "position": {
                "x": 0.1141497679147869,
                "y": -0.7141253447532654,
                "z": 0.3711530566215515
            }
        },
        "name": "move_to_auspresseinheit_B"
    },
    "id": "RRT_move_to_auspresseinheit_B_56",
    "joint_names": [
        "shoulder_pan_joint",
        "shoulder_lift_joint",
        "elbow_joint",
        "wrist_1_joint",
        "wrist_2_joint",
        "wrist_3_joint"
    ],
    "metrics": {
        "cart_traj_len": 0.5641151872784841,
        "distance_elbow_joint": 0.05822866868903809,
        "distance_shoulder_lift_joint": 0.2956449871784035,
        "distance_shoulder_pan_joint": 0.5775299065256556,
        "distance_wrist_1_joint": 0.31400539632730196,
        "distance_wrist_2_joint": 0.9904834993551987,
        "distance_wrist_3_joint": 0.003320521443325841,
        "smoothness": 0.0,
        "time": 0.020638006,
        "traj_len": 1.4964000065219607,
        "weighted_distance": 1.88423536695607
    },
    "planner": "RRT",
    "start": {
        "state": {
            "elbow_joint": 2.0193083361928714,
            "shoulder_lift_joint": -1.1220246554650708,
            "shoulder_pan_joint": -1.0952077554168747,
            "wrist_1_joint": -0.8559753972642168,
            "wrist_2_joint": 0.4759566250798843,
            "wrist_3_joint": -3.1240929996934557
        }
    },
    "waypoints": [
        {
            "positions": [
                -1.0952077554168747,
                -1.1220246554650708,
                2.0193083361928714,
                -0.8559753972642168,
                0.4759566250798843,
                -3.1240929996934557
            ]
        },
        {
            "positions": [
                -1.1914627398378173,
                -1.1712988199948047,
                2.0096035580780316,
                -0.8036411645429998,
                0.6410372083057507,
                -3.12464641993401
            ]
        },
        {
            "positions": [
                -1.2877177242587599,
                -1.2205729845245386,
                1.999898779963192,
                -0.7513069318217828,
                0.8061177915316171,
                -3.1251998401745644
            ]
        },
        {
            "positions": [
                -1.3839727086797025,
                -1.2698471490542724,
                1.9901940018483524,
                -0.6989726991005658,
                0.9711983747574837,
                -3.1257532604151184
            ]
        },
        {
            "positions": [
                -1.480227693100645,
                -1.3191213135840065,
                1.9804892237335128,
                -0.6466384663793489,
                1.13627895798335,
                -3.1263066806556727
            ]
        },
        {
            "positions": [
                -1.5764826775215877,
                -1.3683954781137404,
                1.970784445618673,
                -0.5943042336581318,
                1.3013595412092167,
                -3.126860100896227
            ]
        },
        {
            "positions": [
                -1.6727376619425303,
                -1.4176696426434743,
                1.9610796675038333,
                -0.5419700009369148,
                1.466440124435083,
                -3.1274135211367815
            ]
        }
    ]
}