{
    "goal": {
        "global_pose": {
            "orientation": {
                "w": -0.4816463035849501,
                "x": 0.5182115481033762,
                "y": 0.4908360881923453,
                "z": -0.5084816262002911
            },
            "position": {
                "x": -0.8240239810943604,
                "y": 0.19912469901144506,
                "z": 0.16403168439865112
            }
        },
        "name": "move_to_storage_D"
    },
    "id": "RRT_move_to_storage_D_74",
    "joint_names": [
        "shoulder_pan_joint",
        "shoulder_lift_joint",
        "elbow_joint",
        "wrist_1_joint",
        "wrist_2_joint",
        "wrist_3_joint"
    ],
    "metrics": {
        "cart_traj_len": 3.6488571013657407,
        "distance_elbow_joint": 4.3295303374120415,
        "distance_shoulder_lift_joint": 1.2641214927655506,
        "distance_shoulder_pan_joint": 2.8144536916148413,
        "distance_wrist_1_joint": 2.5992424965707803,
        "distance_wrist_2_joint": 0.8794216273668786,
        "distance_wrist_3_joint": 3.1722758110871334,
        "smoothness": 0.3479361436184842,
        "time": 0.081219299,
        "traj_len": 3.8805985951676605,
        "weighted_distance": 4.988212225129275
    },
    "planner": "RRT",
    "start": {
        "state": {
            "elbow_joint": -2.384821988534728,
            "shoulder_lift_joint": -2.2788054721415256,
            "shoulder_pan_joint": -0.1854694642142757,
            "wrist_1_joint": 1.4845938289331202,
            "wrist_2_joint": 0.17898776772866878,
            "wrist_3_joint": 0.037105688729662994
        }
    },
    "waypoints": [
        {
            "positions": [
                -0.1854694642142757,
                -2.2788054721415256,
                -2.384821988534728,
                1.4845938289331202,
                0.17898776772866878,
                0.037105688729662994
            ]
        },
        {
            "positions": [
                -0.15089599110766516,
                -2.2520519411780318,
                -2.4140662260947394,
                1.563476930656369,
                0.22281614593540672,
                0.032455046964994475
            ]
        },
        {
            "positions": [
                -0.11632251800105459,
                -2.225298410214538,
                -2.443310463654751,
                1.642360032379618,
                0.2666445241421447,
                0.027804405200325955
            ]
        },
        {
            "positions": [
                -0.03721111186098869,
                -2.201151987924563,
                -2.3051154491372,
                1.5597339065360116,
                0.2688614628304681,
                0.0938600255720862
            ]
        },
        {
            "positions": [
                0.04190029427907721,
                -2.1770055656345884,
                -2.166920434619649,
                1.4771077806924051,
                0.2710784015187915,
                0.15991564594384644
            ]
        },
        {
            "positions": [
                0.12101170041914311,
                -2.1528591433446134,
                -2.028725420102098,
                1.3944816548487988,
                0.27329534020711493,
                0.22597126631560668
            ]
        },
        {
            "positions": [
                0.200123106559209,
                -2.128712721054639,
                -1.8905304055845473,
                1.3118555290051925,
                0.27551227889543833,
                0.2920268866873669
            ]
        },
        {
            "positions": [
                0.27923451269927496,
                -2.104566298764664,
                -1.752335391066996,
                1.229229403161586,
                0.27772921758376173,
                0.3580825070591272
            ]
        },
        {
            "positions": [
                0.3583459188393408,
                -2.0804198764746893,
                -1.6141403765494453,
                1.1466032773179797,
                0.27994615627208513,
                0.4241381274308874
            ]
        },
        {
            "positions": [
                0.43745732497940676,
                -2.0562734541847143,
                -1.4759453620318945,
                1.0639771514743732,
                0.28216309496040853,
                0.4901937478026477
            ]
        },
        {
            "positions": [
                0.5165687311194727,
                -2.0321270318947398,
                -1.3377503475143435,
                0.9813510256307669,
                0.284380033648732,
                0.5562493681744078
            ]
        },
        {
            "positions": [
                0.5956801372595386,
                -2.0079806096047648,
                -1.1995553329967925,
                0.8987248997871605,
                0.2865969723370554,
                0.6223049885461682
            ]
        },
        {
            "positions": [
                0.6747915433996046,
                -1.9838341873147902,
                -1.0613603184792415,
                0.8160987739435541,
                0.2888139110253788,
                0.6883606089179284
            ]
        },
        {
            "positions": [
                0.7539029495396703,
                -1.9596877650248155,
                -0.9231653039616909,
                0.7334726480999478,
                0.2910308497137022,
                0.7544162292896885
            ]
        },
        {
            "positions": [
                0.8330143556797363,
                -1.9355413427348407,
                -0.7849702894441399,
                0.6508465222563414,
                0.2932477884020256,
                0.8204718496614489
            ]
        },
        {
            "positions": [
                0.9121257618198022,
                -1.9113949204448657,
                -0.6467752749265889,
                0.568220396412735,
                0.29546472709034904,
                0.8865274700332091
            ]
        },
        {
            "positions": [
                0.9912371679598682,
                -1.8872484981548912,
                -0.5085802604090379,
                0.4855942705691285,
                0.29768166577867244,
                0.9525830904049695
            ]
        },
        {
            "positions": [
                1.0703485740999341,
                -1.8631020758649162,
                -0.3703852458914869,
                0.4029681447255222,
                0.29989860446699584,
                1.0186387107767296
            ]
        },
        {
            "positions": [
                1.1494599802399998,
                -1.8389556535749416,
                -0.23219023137393613,
                0.32034201888191594,
                0.30211554315531924,
                1.0846943311484898
            ]
        },
        {
            "positions": [
                1.2285713863800656,
                -1.8148092312849666,
                -0.09399521685638534,
                0.23771589303830964,
                0.3043324818436427,
                1.15074995152025
            ]
        },
        {
            "positions": [
                1.3076827925201318,
                -1.7906628089949919,
                0.044199797661165885,
                0.15508976719470313,
                0.3065494205319661,
                1.2168055718920103
            ]
        },
        {
            "positions": [
                1.3867941986601975,
                -1.766516386705017,
                0.18239481217871667,
                0.07246364135109684,
                0.3087663592202895,
                1.2828611922637705
            ]
        },
        {
            "positions": [
                1.4659056048002637,
                -1.7423699644150423,
                0.3205898266962679,
                -0.010162484492509671,
                0.3109832979086129,
                1.3489168126355309
            ]
        },
        {
            "positions": [
                1.5450170109403294,
                -1.7182235421250676,
                0.4587848412138187,
                -0.09278861033611596,
                0.3132002365969363,
                1.414972433007291
            ]
        },
        {
            "positions": [
                1.6241284170803951,
                -1.694077119835093,
                0.596979855731369,
                -0.17541473617972225,
                0.3154171752852597,
                1.4810280533790512
            ]
        },
        {
            "positions": [
                1.7032398232204613,
                -1.669930697545118,
                0.7351748702489203,
                -0.25804086202332877,
                0.31763411397358315,
                1.5470836737508116
            ]
        },
        {
            "positions": [
                1.782351229360527,
                -1.6457842752551433,
                0.873369884766471,
                -0.34066698786693506,
                0.31985105266190655,
                1.6131392941225717
            ]
        },
        {
            "positions": [
                1.8614626355005928,
                -1.6216378529651685,
                1.0115648992840218,
                -0.42329311371054135,
                0.32206799135022995,
                1.679194914494332
            ]
        },
        {
            "positions": [
                1.940574041640659,
                -1.5974914306751937,
                1.149759913801573,
                -0.5059192395541479,
                0.32428493003855335,
                1.7452505348660923
            ]
        },
        {
            "positions": [
                2.0196854477807245,
                -1.573345008385219,
                1.2879549283191238,
                -0.5885453653977539,
                0.3265018687268768,
                1.8113061552378524
            ]
        },
        {
            "positions": [
                2.0987968539207906,
                -1.5491985860952442,
                1.426149942836675,
                -0.6711714912413609,
                0.3287188074152002,
                1.8773617756096128
            ]
        },
        {
            "positions": [
                2.1779082600608564,
                -1.5250521638052694,
                1.564344957354226,
                -0.753797617084967,
                0.3309357461035236,
                1.943417395981373
            ]
        },
        {
            "positions": [
                2.2280278119874906,
                -1.46834458775757,
                1.5936101174967863,
                -0.7588330219360446,
                0.4117661515470818,
                2.0820131222899008
            ]
        },
        {
            "positions": [
                2.278147363914125,
                -1.4116370117098707,
                1.6228752776393465,
                -0.7638684267871222,
                0.49259655699064,
                2.2206088485984283
            ]
        },
        {
            "positions": [
                2.3282669158407594,
                -1.3549294356621713,
                1.6521404377819067,
                -0.7689038316381999,
                0.5734269624341981,
                2.359204574906956
            ]
        },
        {
            "positions": [
                2.378386467767394,
                -1.298221859614472,
                1.6814055979244669,
                -0.7739392364892775,
                0.6542573678777563,
                2.4978003012154835
            ]
        },
        {
            "positions": [
                2.4285060196940282,
                -1.2415142835667725,
                1.710670758067027,
                -0.7789746413403551,
                0.7350877733213146,
                2.6363960275240115
            ]
        },
        {
            "positions": [
                2.478625571620663,
                -1.1848067075190731,
                1.7399359182095873,
                -0.7840100461914328,
                0.8159181787648727,
                2.774991753832539
            ]
        },
        {
            "positions": [
                2.528745123547297,
                -1.1280991314713738,
                1.7692010783521475,
                -0.7890454510425104,
                0.896748584208431,
                2.913587480141067
            ]
        },
        {
            "positions": [
                2.5788646754739313,
                -1.0713915554236744,
                1.7984662384947077,
                -0.794080855893588,
                0.9775789896519891,
                3.0521832064495946
            ]
        },
        {
            "positions": [
                2.628984227400566,
                -1.014683979375975,
                1.8277313986372679,
                -0.7991162607446657,
                1.0584093950955473,
                3.190778932758122
            ]
        }
    ]
}