{
    "goal": {
        "global_pose": {
            "orientation": {
                "w": -0.4816463035849501,
                "x": 0.5182115481033762,
                "y": 0.4908360881923453,
                "z": -0.5084816262002911
            },
            "position": {
                "x": -0.8240239810943604,
                "y": 0.19912469901144506,
                "z": 0.16403168439865112
            }
        },
        "name": "move_to_storage_D"
    },
    "id": "RRT_move_to_storage_D_82",
    "joint_names": [
        "shoulder_pan_joint",
        "shoulder_lift_joint",
        "elbow_joint",
        "wrist_1_joint",
        "wrist_2_joint",
        "wrist_3_joint"
    ],
    "metrics": {
        "cart_traj_len": 4.365722966840973,
        "distance_elbow_joint": 4.206890806622499,
        "distance_shoulder_lift_joint": 1.265665439891876,
        "distance_shoulder_pan_joint": 2.8138313664724954,
        "distance_wrist_1_joint": 2.2615772201092854,
        "distance_wrist_2_joint": 0.9136435232364172,
        "distance_wrist_3_joint": 3.142511102544891,
        "smoothness": 0.002685971091150748,
        "time": 0.14117544399999998,
        "traj_len": 3.821533652720784,
        "weighted_distance": 4.905544048045328
    },
    "planner": "RRT",
    "start": {
        "state": {
            "elbow_joint": -2.384821988534728,
            "shoulder_lift_joint": -2.2788054721415256,
            "shoulder_pan_joint": -0.1854694642142757,
            "wrist_1_joint": 1.4845938289331202,
            "wrist_2_joint": 0.17898776772866878,
            "wrist_3_joint": 0.037105688729662994
        }
    },
    "waypoints": [
        {
            "positions": [
                -0.1854694642142757,
                -2.2788054721415256,
                -2.384821988534728,
                1.4845938289331202,
                0.17898776772866878,
                0.037105688729662994
            ]
        },
        {
            "positions": [
                -0.1085623619018491,
                -2.271728597952809,
                -2.260474953850325,
                1.39872930720383,
                0.21788912827789758,
                -0.009917150903678673
            ]
        },
        {
            "positions": [
                -0.0316552595894225,
                -2.2646517237640924,
                -2.1361279191659213,
                1.3128647854745397,
                0.25679048882712635,
                -0.05693999053702034
            ]
        },
        {
            "positions": [
                0.04525184272300409,
                -2.257574849575376,
                -2.011780884481518,
                1.2270002637452495,
                0.2956918493763552,
                -0.10396283017036201
            ]
        },
        {
            "positions": [
                0.1221589450354307,
                -2.250497975386659,
                -1.887433849797115,
                1.1411357420159591,
                0.33459320992558395,
                -0.15098566980370368
            ]
        },
        {
            "positions": [
                0.1990660473478573,
                -2.2434211011979426,
                -1.763086815112712,
                1.055271220286669,
                0.3734945704748127,
                -0.19800850943704534
            ]
        },
        {
            "positions": [
                0.27597314966028386,
                -2.236344227009226,
                -1.6387397804283086,
                0.9694066985573787,
                0.41239593102404154,
                -0.245031349070387
            ]
        },
        {
            "positions": [
                0.35288025197271056,
                -2.2292673528205094,
                -1.5143927457439053,
                0.8835421768280884,
                0.45129729157327036,
                -0.2920541887037287
            ]
        },
        {
            "positions": [
                0.42978735428513715,
                -2.2221904786317928,
                -1.3900457110595021,
                0.7976776550987982,
                0.49019865212249913,
                -0.3390770283370703
            ]
        },
        {
            "positions": [
                0.5066944565975637,
                -2.215113604443076,
                -1.2656986763750988,
                0.7118131333695079,
                0.5291000126717279,
                -0.38609986797041207
            ]
        },
        {
            "positions": [
                0.5836015589099903,
                -2.2080367302543595,
                -1.1413516416906957,
                0.6259486116402178,
                0.5680013732209567,
                -0.4331227076037537
            ]
        },
        {
            "positions": [
                0.6605086612224169,
                -2.200959856065643,
                -1.0170046070062924,
                0.5400840899109274,
                0.6069027337701856,
                -0.48014554723709535
            ]
        },
        {
            "positions": [
                0.7374157635348435,
                -2.1938829818769263,
                -0.8926575723218892,
                0.4542195681816372,
                0.6458040943194143,
                -0.527168386870437
            ]
        },
        {
            "positions": [
                0.81432286584727,
                -2.1868061076882097,
                -0.7683105376374861,
                0.36835504645234707,
                0.684705454868643,
                -0.5741912265037786
            ]
        },
        {
            "positions": [
                0.8912299681596968,
                -2.179729233499493,
                -0.6439635029530826,
                0.2824905247230567,
                0.7236068154178719,
                -0.6212140661371204
            ]
        },
        {
            "positions": [
                0.9681370704721234,
                -2.1726523593107765,
                -0.5196164682686795,
                0.1966260029937663,
                0.7625081759671006,
                -0.668236905770462
            ]
        },
        {
            "positions": [
                1.0450441727845499,
                -2.16557548512206,
                -0.39526943358427635,
                0.11076148126447616,
                0.8014095365163294,
                -0.7152597454038037
            ]
        },
        {
            "positions": [
                1.1219512750969762,
                -2.1584986109333433,
                -0.27092239889987324,
                0.024896959535186003,
                0.8403108970655582,
                -0.7622825850371453
            ]
        },
        {
            "positions": [
                1.198858377409403,
                -2.1514217367446267,
                -0.14657536421546968,
                -0.060967562194104374,
                0.879212257614787,
                -0.809305424670487
            ]
        },
        {
            "positions": [
                1.2757654797218296,
                -2.14434486255591,
                -0.02222832953106657,
                -0.14683208392339453,
                0.9181136181640158,
                -0.8563282643038287
            ]
        },
        {
            "positions": [
                1.3526725820342562,
                -2.1372679883671934,
                0.10211870515333654,
                -0.23269660565268468,
                0.9570149787132446,
                -0.9033511039371703
            ]
        },
        {
            "positions": [
                1.4295796843466826,
                -2.130191114178477,
                0.22646573983773965,
                -0.31856112738197506,
                0.9959163392624734,
                -0.950373943570512
            ]
        },
        {
            "positions": [
                1.5064867866591094,
                -2.1231142399897602,
                0.3508127745221432,
                -0.40442564911126544,
                1.0348176998117022,
                -0.9973967832038537
            ]
        },
        {
            "positions": [
                1.583393888971536,
                -2.1160373658010436,
                0.4751598092065462,
                -0.49029017084055565,
                1.073719060360931,
                -1.0444196228371954
            ]
        },
        {
            "positions": [
                1.6530584231906482,
                -2.0425108768976172,
                0.5649537431319612,
                -0.5094030521962628,
                1.0724582449873208,
                -1.1818186755690643
            ]
        },
        {
            "positions": [
                1.7227229574097604,
                -1.968984387994191,
                0.6547476770573761,
                -0.52851593355197,
                1.0711974296137103,
                -1.319217728300933
            ]
        },
        {
            "positions": [
                1.792387491628873,
                -1.895457899090765,
                0.7445416109827911,
                -0.5476288149076772,
                1.0699366142401001,
                -1.456616781032802
            ]
        },
        {
            "positions": [
                1.8620520258479851,
                -1.8219314101873385,
                0.8343355449082062,
                -0.5667416962633844,
                1.0686757988664897,
                -1.5940158337646708
            ]
        },
        {
            "positions": [
                1.9317165600670974,
                -1.7484049212839123,
                0.9241294788336212,
                -0.5858545776190915,
                1.0674149834928794,
                -1.7314148864965397
            ]
        },
        {
            "positions": [
                2.00138109428621,
                -1.674878432380486,
                1.0139234127590362,
                -0.6049674589747988,
                1.066154168119269,
                -1.8688139392284087
            ]
        },
        {
            "positions": [
                2.071045628505322,
                -1.6013519434770598,
                1.103717346684451,
                -0.624080340330506,
                1.0648933527456588,
                -2.006212991960277
            ]
        },
        {
            "positions": [
                2.1407101627244343,
                -1.5278254545736334,
                1.193511280609866,
                -0.6431932216862131,
                1.0636325373720483,
                -2.143612044692146
            ]
        },
        {
            "positions": [
                2.2103746969435463,
                -1.4542989656702072,
                1.283305214535281,
                -0.6623061030419203,
                1.062371721998438,
                -2.281011097424015
            ]
        },
        {
            "positions": [
                2.2800392311626587,
                -1.380772476766781,
                1.373099148460696,
                -0.6814189843976275,
                1.0611109066248277,
                -2.418410150155884
            ]
        },
        {
            "positions": [
                2.349703765381771,
                -1.3072459878633547,
                1.462893082386111,
                -0.7005318657533347,
                1.0598500912512174,
                -2.555809202887753
            ]
        },
        {
            "positions": [
                2.419368299600883,
                -1.2337194989599283,
                1.552687016311526,
                -0.7196447471090419,
                1.058589275877607,
                -2.6932082556196217
            ]
        },
        {
            "positions": [
                2.4890328338199956,
                -1.160193010056502,
                1.642480950236941,
                -0.738757628464749,
                1.0573284605039968,
                -2.8306073083514907
            ]
        },
        {
            "positions": [
                2.558697368039108,
                -1.0866665211530757,
                1.732274884162356,
                -0.7578705098204563,
                1.0560676451303863,
                -2.9680063610833596
            ]
        },
        {
            "positions": [
                2.62836190225822,
                -1.0131400322496495,
                1.8220688180877709,
                -0.7769833911761634,
                1.054806829756776,
                -3.105405413815228
            ]
        }
    ]
}