{
    "goal": {
        "global_pose": {
            "orientation": {
                "w": 0.7047431468963623,
                "x": -0.7094548344612122,
                "y": 0.0024358443915843964,
                "z": -0.0022348060738295317
            },
            "position": {
                "x": 0.6094750761985779,
                "y": 0.3671506643295288,
                "z": 0.19426114857196808
            }
        },
        "name": "move_to_magneteinheit_A"
    },
    "id": "RRT_move_to_magneteinheit_A_80",
    "joint_names": [
        "shoulder_pan_joint",
        "shoulder_lift_joint",
        "elbow_joint",
        "wrist_1_joint",
        "wrist_2_joint",
        "wrist_3_joint"
    ],
    "metrics": {
        "cart_traj_len": 2.886931980495594,
        "distance_elbow_joint": 3.9125725262517044,
        "distance_shoulder_lift_joint": 1.3839394700201721,
        "distance_shoulder_pan_joint": 3.0355167236470857,
        "distance_wrist_1_joint": 3.930817354513681,
        "distance_wrist_2_joint": 1.9354150378566883,
        "distance_wrist_3_joint": 0.6771854076175725,
        "smoothness": 0.28401235853192686,
        "time": 0.133773231,
        "traj_len": 3.856870041874227,
        "weighted_distance": 4.700643543974847
    },
    "planner": "RRT",
    "start": {
        "state": {
            "elbow_joint": -1.9196185241190666,
            "shoulder_lift_joint": -1.2443396400964142,
            "shoulder_pan_joint": 2.6996025414629847,
            "wrist_1_joint": -1.5485510000780065,
            "wrist_2_joint": -1.5709468930060704,
            "wrist_3_joint": 0.4420197071253992
        }
    },
    "waypoints": [
        {
            "positions": [
                2.6996025414629847,
                -1.2443396400964142,
                -1.9196185241190666,
                -1.5485510000780065,
                -1.5709468930060704,
                0.4420197071253992
            ]
        },
        {
            "positions": [
                2.6090699685650374,
                -1.259106299987227,
                -1.8143083713493886,
                -1.429327604647971,
                -1.517137002931562,
                0.4460412150196966
            ]
        },
        {
            "positions": [
                2.5185373956670905,
                -1.2738729598780396,
                -1.7089982185797106,
                -1.3101042092179356,
                -1.463327112857054,
                0.450062722913994
            ]
        },
        {
            "positions": [
                2.428004822769143,
                -1.2886396197688523,
                -1.6036880658100325,
                -1.1908808137879001,
                -1.4095172227825457,
                0.45408423080829147
            ]
        },
        {
            "positions": [
                2.3374722498711957,
                -1.303406279659665,
                -1.4983779130403545,
                -1.0716574183578644,
                -1.3557073327080376,
                0.4581057387025889
            ]
        },
        {
            "positions": [
                2.2469396769732484,
                -1.3181729395504778,
                -1.3930677602706765,
                -0.9524340229278291,
                -1.3018974426335292,
                0.4621272465968863
            ]
        },
        {
            "positions": [
                2.156407104075301,
                -1.3329395994412905,
                -1.2877576075009984,
                -0.8332106274977935,
                -1.2480875525590212,
                0.46614875449118376
            ]
        },
        {
            "positions": [
                2.065874531177354,
                -1.3477062593321032,
                -1.1824474547313202,
                -0.713987232067758,
                -1.1942776624845128,
                0.4701702623854812
            ]
        },
        {
            "positions": [
                1.9753419582794067,
                -1.362472919222916,
                -1.0771373019616421,
                -0.5947638366377226,
                -1.1404677724100045,
                0.4741917702797786
            ]
        },
        {
            "positions": [
                1.8848093853814594,
                -1.3772395791137286,
                -0.971827149191964,
                -0.4755404412076869,
                -1.0866578823354964,
                0.47821327817407605
            ]
        },
        {
            "positions": [
                1.7942768124835125,
                -1.3920062390045413,
                -0.8665169964222861,
                -0.35631704577765166,
                -1.0328479922609883,
                0.4822347860683735
            ]
        },
        {
            "positions": [
                1.703744239585565,
                -1.406772898895354,
                -0.7612068436526078,
                -0.23709365034761598,
                -0.9790381021864799,
                0.4862562939626709
            ]
        },
        {
            "positions": [
                1.6132116666876177,
                -1.4215395587861668,
                -0.65589669088293,
                -0.11787025491758052,
                -0.9252282121119717,
                0.49027780185696834
            ]
        },
        {
            "positions": [
                1.5226790937896706,
                -1.4363062186769795,
                -0.5505865381132518,
                0.0013531405124549423,
                -0.8714183220374635,
                0.4942993097512658
            ]
        },
        {
            "positions": [
                1.4321465208917232,
                -1.4510728785677922,
                -0.4452763853435737,
                0.1205765359424904,
                -0.8176084319629553,
                0.49832081764556324
            ]
        },
        {
            "positions": [
                1.341613947993776,
                -1.4658395384586047,
                -0.3399662325738957,
                0.2397999313725261,
                -0.763798541888447,
                0.5023423255398607
            ]
        },
        {
            "positions": [
                1.2510813750958287,
                -1.4806061983494176,
                -0.23465607980421765,
                0.3590233268025613,
                -0.7099886518139389,
                0.506363833434158
            ]
        },
        {
            "positions": [
                1.1605488021978816,
                -1.4953728582402301,
                -0.12934592703453962,
                0.478246722232597,
                -0.6561787617394307,
                0.5103853413284555
            ]
        },
        {
            "positions": [
                1.0700162292999342,
                -1.510139518131043,
                -0.024035774264861365,
                0.5974701176626327,
                -0.6023688716649224,
                0.5144068492227529
            ]
        },
        {
            "positions": [
                0.9794836564019871,
                -1.5249061780218556,
                0.08127437850481645,
                0.7166935130926679,
                -0.5485589815904142,
                0.5184283571170504
            ]
        },
        {
            "positions": [
                0.88895108350404,
                -1.5396728379126683,
                0.18658453127449448,
                0.8359169085227032,
                -0.49474909151590607,
                0.5224498650113478
            ]
        },
        {
            "positions": [
                0.7984185106060926,
                -1.554439497803481,
                0.2918946840441725,
                0.9551403039527389,
                -0.44093920144139775,
                0.5264713729056452
            ]
        },
        {
            "positions": [
                0.7078859377081452,
                -1.5692061576942937,
                0.397204836813851,
                1.0743636993827745,
                -0.38712931136688944,
                0.5304928807999427
            ]
        },
        {
            "positions": [
                0.6173533648101981,
                -1.5839728175851064,
                0.502514989583529,
                1.1935870948128098,
                -0.33331942129238135,
                0.5345143886942401
            ]
        },
        {
            "positions": [
                0.5268207919122507,
                -1.5987394774759192,
                0.6078251423532066,
                1.3128104902428455,
                -0.27950953121787303,
                0.5385358965885375
            ]
        },
        {
            "positions": [
                0.4362882190143038,
                -1.6135061373667319,
                0.7131352951228846,
                1.4320338856728807,
                -0.22569964114336494,
                0.542557404482835
            ]
        },
        {
            "positions": [
                0.34575564611635645,
                -1.6282727972575446,
                0.8184454478925631,
                1.5512572811029164,
                -0.17188975106885662,
                0.5465789123771324
            ]
        },
        {
            "positions": [
                0.2552230732184091,
                -1.6430394571483573,
                0.9237556006622412,
                1.670480676532952,
                -0.1180798609943483,
                0.5506004202714299
            ]
        },
        {
            "positions": [
                0.16469050032046173,
                -1.65780611703917,
                1.0290657534319192,
                1.7897040719629873,
                -0.06426997091984021,
                0.5546219281657272
            ]
        },
        {
            "positions": [
                0.07415792742251481,
                -1.6725727769299827,
                1.1343759062015968,
                1.9089274673930225,
                -0.01046008084533212,
                0.5586434360600246
            ]
        },
        {
            "positions": [
                -0.016374645475432548,
                -1.6873394368207955,
                1.2396860589712753,
                2.0281508628230585,
                0.04334980922917642,
                0.5626649439543221
            ]
        },
        {
            "positions": [
                -0.10690721837338008,
                -1.7021060967116082,
                1.3449962117409535,
                2.1473742582530937,
                0.09715969930368462,
                0.5666864518486195
            ]
        },
        {
            "positions": [
                -0.08347808255085715,
                -1.561249635958748,
                1.4268980534975335,
                2.117835509132509,
                0.055275729844195695,
                0.48987977593209253
            ]
        },
        {
            "positions": [
                -0.06004894672833422,
                -1.4203931752058878,
                1.5087998952541135,
                2.088296760011924,
                0.013391760384706769,
                0.4130731000155655
            ]
        },
        {
            "positions": [
                -0.03661981090581129,
                -1.2795367144530276,
                1.5907017370106935,
                2.0587580108913395,
                -0.02849220907478217,
                0.3362664240990385
            ]
        },
        {
            "positions": [
                -0.013190675083288361,
                -1.1386802537001675,
                1.6726035787672733,
                2.029219261770755,
                -0.07037617853427108,
                0.25945974818251155
            ]
        },
        {
            "positions": [
                0.010238460739234567,
                -0.9978237929473073,
                1.7545054205238533,
                1.9996805126501704,
                -0.11226014799376005,
                0.18265307226598454
            ]
        },
        {
            "positions": [
                0.03366759656175749,
                -0.8569673321944471,
                1.8364072622804333,
                1.9701417635295857,
                -0.15414411745324896,
                0.10584639634945753
            ]
        },
        {
            "positions": [
                0.09500967327393181,
                -0.8039332140355606,
                1.9488077240013277,
                1.9547436954780903,
                -0.13817363098290453,
                0.015306699667640977
            ]
        },
        {
            "positions": [
                0.12209974543734005,
                -0.77593308330663,
                1.992954002132637,
                1.912482162070513,
                -0.13813948866324968,
                0.01644561038101472
            ]
        }
    ]
}