{
    "goal": {
        "global_pose": {
            "orientation": {
                "w": 0.7047431493862688,
                "x": -0.7094548369677653,
                "y": 0.0024358444001904,
                "z": -0.0022348060817251984
            },
            "position": {
                "x": -0.39052492380142206,
                "y": 0.3671506643295288,
                "z": 0.19426114857196808
            }
        },
        "name": "move_to_magneteinheit_D"
    },
    "id": "RRT_move_to_magneteinheit_D_63",
    "joint_names": [
        "shoulder_pan_joint",
        "shoulder_lift_joint",
        "elbow_joint",
        "wrist_1_joint",
        "wrist_2_joint",
        "wrist_3_joint"
    ],
    "metrics": {
        "cart_traj_len": 3.6984029157462115,
        "distance_elbow_joint": 4.016027500727908,
        "distance_shoulder_lift_joint": 1.7100432635487695,
        "distance_shoulder_pan_joint": 3.080893971757695,
        "distance_wrist_1_joint": 2.0320101313553236,
        "distance_wrist_2_joint": 1.0050547078800183,
        "distance_wrist_3_joint": 3.200216585905422,
        "smoothness": 0.2283774284964488,
        "time": 0.203150518,
        "traj_len": 3.878691294905427,
        "weighted_distance": 4.947903007560003
    },
    "planner": "RRT",
    "start": {
        "state": {
            "elbow_joint": 0.749534889911806,
            "shoulder_lift_joint": -0.6476975780787326,
            "shoulder_pan_joint": -2.711696901376241,
            "wrist_1_joint": -0.07506478083263063,
            "wrist_2_joint": 0.43296659715538205,
            "wrist_3_joint": -3.14703540197715
        }
    },
    "waypoints": [
        {
            "positions": [
                -2.711696901376241,
                -0.6476975780787326,
                0.749534889911806,
                -0.07506478083263063,
                0.43296659715538205,
                -3.14703540197715
            ]
        },
        {
            "positions": [
                -2.704048860604557,
                -0.6964637655567002,
                0.7956277021567759,
                0.014994529179712654,
                0.3762677107855166,
                -3.017169026569415
            ]
        },
        {
            "positions": [
                -2.6964008198328737,
                -0.7452299530346678,
                0.841720514401746,
                0.10505383919205594,
                0.31956882441565115,
                -2.88730265116168
            ]
        },
        {
            "positions": [
                -2.68875277906119,
                -0.7939961405126353,
                0.887813326646716,
                0.1951131492043992,
                0.2628699380457857,
                -2.7574362757539452
            ]
        },
        {
            "positions": [
                -2.681104738289506,
                -0.8427623279906029,
                0.933906138891686,
                0.2851724592167425,
                0.20617105167592023,
                -2.6275699003462103
            ]
        },
        {
            "positions": [
                -2.6734566975178224,
                -0.8915285154685706,
                0.979998951136656,
                0.37523176922908585,
                0.14947216530605473,
                -2.4977035249384754
            ]
        },
        {
            "positions": [
                -2.6658086567461385,
                -0.940294702946538,
                1.026091763381626,
                0.46529107924142904,
                0.09277327893618931,
                -2.3678371495307404
            ]
        },
        {
            "positions": [
                -2.6581606159744546,
                -0.9890608904245057,
                1.0721845756265962,
                0.5553503892537723,
                0.03607439256632383,
                -2.2379707741230055
            ]
        },
        {
            "positions": [
                -2.650512575202771,
                -1.0378270779024732,
                1.1182773878715662,
                0.6454096992661156,
                -0.020624493803541588,
                -2.1081043987152706
            ]
        },
        {
            "positions": [
                -2.6428645344310873,
                -1.0865932653804409,
                1.1643702001165361,
                0.735469009278459,
                -0.0773233801734071,
                -1.9782380233075358
            ]
        },
        {
            "positions": [
                -2.6379952489367273,
                -1.0950229707254697,
                1.164057317914598,
                0.751646528542442,
                -0.08514154491165044,
                -1.9492531392834214
            ]
        },
        {
            "positions": [
                -2.5792850289856712,
                -1.1307574624552816,
                1.1207668471702448,
                0.8054366173827783,
                -0.10584423546707226,
                -1.7893888495867438
            ]
        },
        {
            "positions": [
                -2.4592073207730802,
                -1.1285857861846134,
                0.9633603766285452,
                0.7924151678384787,
                -0.08649872328690308,
                -1.7256749885205205
            ]
        },
        {
            "positions": [
                -2.3391296125604897,
                -1.1264141099139453,
                0.8059539060868457,
                0.779393718294179,
                -0.06715321110673389,
                -1.6619611274542971
            ]
        },
        {
            "positions": [
                -2.2190519043478987,
                -1.124242433643277,
                0.6485474355451462,
                0.7663722687498794,
                -0.047807698926564716,
                -1.598247266388074
            ]
        },
        {
            "positions": [
                -2.0989741961353077,
                -1.1220707573726088,
                0.49114096500344673,
                0.7533508192055798,
                -0.02846218674639553,
                -1.5345334053218507
            ]
        },
        {
            "positions": [
                -1.978896487922717,
                -1.1198990811019405,
                0.3337344944617472,
                0.74032936966128,
                -0.009116674566226349,
                -1.4708195442556273
            ]
        },
        {
            "positions": [
                -1.858818779710126,
                -1.1177274048312724,
                0.17632802392004765,
                0.7273079201169804,
                0.010228837613942832,
                -1.4071056831894042
            ]
        },
        {
            "positions": [
                -1.738741071497535,
                -1.1155557285606041,
                0.01892155337834822,
                0.7142864705726808,
                0.029574349794112012,
                -1.3433918221231809
            ]
        },
        {
            "positions": [
                -1.6186633632849445,
                -1.1133840522899359,
                -0.13848491716335132,
                0.7012650210283812,
                0.048919861974281206,
                -1.2796779610569575
            ]
        },
        {
            "positions": [
                -1.4985856550723535,
                -1.1112123760192676,
                -0.29589138770505086,
                0.6882435714840816,
                0.06826537415445037,
                -1.2159640999907344
            ]
        },
        {
            "positions": [
                -1.3785079468597627,
                -1.1090406997485995,
                -0.4532978582467504,
                0.6752221219397819,
                0.08761088633461957,
                -1.152250238924511
            ]
        },
        {
            "positions": [
                -1.2584302386471717,
                -1.1068690234779313,
                -0.6107043287884502,
                0.6622006723954823,
                0.10695639851478876,
                -1.0885363778582877
            ]
        },
        {
            "positions": [
                -1.138352530434581,
                -1.104697347207263,
                -0.7681107993301495,
                0.6491792228511827,
                0.12630191069495794,
                -1.0248225167920646
            ]
        },
        {
            "positions": [
                -1.01827482222199,
                -1.1025256709365947,
                -0.925517269871849,
                0.6361577733068831,
                0.1456474228751271,
                -0.9611086557258411
            ]
        },
        {
            "positions": [
                -0.8981971140093992,
                -1.1003539946659266,
                -1.0829237404135483,
                0.6231363237625833,
                0.16499293505529627,
                -0.8973947946596179
            ]
        },
        {
            "positions": [
                -0.7781194057968082,
                -1.0981823183952584,
                -1.240330210955248,
                0.6101148742182838,
                0.1843384472354655,
                -0.8336809335933946
            ]
        },
        {
            "positions": [
                -0.6580416975842176,
                -1.09601064212459,
                -1.3977366814969474,
                0.5970934246739841,
                0.20368395941563466,
                -0.7699670725271712
            ]
        },
        {
            "positions": [
                -0.5379639893716264,
                -1.0938389658539218,
                -1.5551431520386472,
                0.5840719751296845,
                0.22302947159580383,
                -0.7062532114609479
            ]
        },
        {
            "positions": [
                -0.4178862811590358,
                -1.0916672895832538,
                -1.7125496225803465,
                0.5710505255853848,
                0.242374983775973,
                -0.6425393503947248
            ]
        },
        {
            "positions": [
                -0.2978085729464449,
                -1.0894956133125855,
                -1.8699560931220462,
                0.5580290760410852,
                0.2617204959561422,
                -0.5788254893285014
            ]
        },
        {
            "positions": [
                -0.23279006371899075,
                -1.181031191438256,
                -1.9389857026927415,
                0.6469575613550046,
                0.2630874150376929,
                -0.49922758669586065
            ]
        },
        {
            "positions": [
                -0.16777155449153655,
                -1.272566769563927,
                -2.0080153122634368,
                0.7358860466689239,
                0.2644543341192436,
                -0.4196296840632199
            ]
        },
        {
            "positions": [
                -0.10275304526408235,
                -1.3641023476895975,
                -2.077044921834132,
                0.8248145319828433,
                0.26582125320079425,
                -0.3400317814305791
            ]
        },
        {
            "positions": [
                -0.037734536036628186,
                -1.455637925815268,
                -2.1460745314048273,
                0.9137430172967627,
                0.2671881722823449,
                -0.26043387879793833
            ]
        },
        {
            "positions": [
                0.02728397319082604,
                -1.5471735039409389,
                -2.2151041409755226,
                1.002671502610682,
                0.2685550913638956,
                -0.18083597616529756
            ]
        },
        {
            "positions": [
                0.09230248241828018,
                -1.6387090820666095,
                -2.284133750546218,
                1.0915999879246014,
                0.2699220104454463,
                -0.10123807353265676
            ]
        },
        {
            "positions": [
                0.05065937039004678,
                -1.7561298264908074,
                -2.316674842564316,
                1.1654596581407612,
                0.250344863462776,
                -0.07712538615833349
            ]
        },
        {
            "positions": [
                0.009016258361813384,
                -1.8735505709150053,
                -2.349215934582414,
                1.2393193283569213,
                0.23076771648010572,
                -0.05301269878401022
            ]
        },
        {
            "positions": [
                -0.032626853666420014,
                -1.9909713153392032,
                -2.3817570266005124,
                1.313178998573081,
                0.21119056949743542,
                -0.028900011409686954
            ]
        },
        {
            "positions": [
                -0.0742699656946534,
                -2.108392059763401,
                -2.4142981186186105,
                1.3870386687892409,
                0.19161342251476515,
                -0.00478732403536368
            ]
        },
        {
            "positions": [
                -0.12943103561977348,
                -2.1918046015527555,
                -2.403036182724594,
                1.4245844683142734,
                0.18552890180758302,
                0.024196929946454063
            ]
        },
        {
            "positions": [
                -0.18459210554489355,
                -2.27521714334211,
                -2.3917742468305776,
                1.4621302678393062,
                0.1794443811004009,
                0.05318118392827181
            ]
        }
    ]
}