{
    "goal": {
        "global_pose": {
            "orientation": {
                "w": 0.7047431468963623,
                "x": -0.7094548344612122,
                "y": 0.0024358443915843964,
                "z": -0.0022348060738295317
            },
            "position": {
                "x": 0.6094750761985779,
                "y": 0.3671506643295288,
                "z": 0.19426114857196808
            }
        },
        "name": "move_to_magneteinheit_A"
    },
    "id": "RRT_move_to_magneteinheit_A_56",
    "joint_names": [
        "shoulder_pan_joint",
        "shoulder_lift_joint",
        "elbow_joint",
        "wrist_1_joint",
        "wrist_2_joint",
        "wrist_3_joint"
    ],
    "metrics": {
        "cart_traj_len": 3.372559736398769,
        "distance_elbow_joint": 3.8816695110577477,
        "distance_shoulder_lift_joint": 1.2863568712971947,
        "distance_shoulder_pan_joint": 2.5758891794237972,
        "distance_wrist_1_joint": 1.960589425829066,
        "distance_wrist_2_joint": 1.7092699238188342,
        "distance_wrist_3_joint": 5.899864995090326,
        "smoothness": 0.23165622352455328,
        "time": 0.082843466,
        "traj_len": 4.160966222708011,
        "weighted_distance": 5.725664087802002
    },
    "planner": "RRT",
    "start": {
        "state": {
            "elbow_joint": -1.9196185241190666,
            "shoulder_lift_joint": -1.2443396400964142,
            "shoulder_pan_joint": 2.6996025414629847,
            "wrist_1_joint": -1.5485510000780065,
            "wrist_2_joint": -1.5709468930060704,
            "wrist_3_joint": 0.4420197071253992
        }
    },
    "waypoints": [
        {
            "positions": [
                2.6996025414629847,
                -1.2443396400964142,
                -1.9196185241190666,
                -1.5485510000780065,
                -1.5709468930060704,
                0.4420197071253992
            ]
        },
        {
            "positions": [
                2.5918758154713952,
                -1.216368591703365,
                -1.8505499635335272,
                -1.4922189719518706,
                -1.5286860598666803,
                0.3636426195956849
            ]
        },
        {
            "positions": [
                2.484149089479806,
                -1.188397543310316,
                -1.7814814029479877,
                -1.435886943825735,
                -1.4864252267272904,
                0.28526553206597066
            ]
        },
        {
            "positions": [
                2.3764223634882167,
                -1.160426494917267,
                -1.7124128423624483,
                -1.379554915699599,
                -1.4441643935879003,
                0.2068884445362564
            ]
        },
        {
            "positions": [
                2.268695637496627,
                -1.1324554465242178,
                -1.6433442817769088,
                -1.323222887573463,
                -1.4019035604485104,
                0.12851135700654215
            ]
        },
        {
            "positions": [
                2.160968911505038,
                -1.1044843981311687,
                -1.5742757211913694,
                -1.2668908594473274,
                -1.3596427273091203,
                0.050134269476827864
            ]
        },
        {
            "positions": [
                2.0532421855134486,
                -1.0765133497381196,
                -1.50520716060583,
                -1.2105588313211915,
                -1.3173818941697304,
                -0.028242818052886365
            ]
        },
        {
            "positions": [
                1.9455154595218593,
                -1.0485423013450705,
                -1.4361386000202905,
                -1.1542268031950558,
                -1.2751210610303403,
                -0.1066199055826006
            ]
        },
        {
            "positions": [
                1.83778873353027,
                -1.0205712529520214,
                -1.367070039434751,
                -1.0978947750689199,
                -1.2328602278909502,
                -0.18499699311231488
            ]
        },
        {
            "positions": [
                1.7300620075386806,
                -0.9926002045589722,
                -1.2980014788492116,
                -1.041562746942784,
                -1.1905993947515603,
                -0.26337408064202916
            ]
        },
        {
            "positions": [
                1.6223352815470913,
                -0.964629156165923,
                -1.2289329182636721,
                -0.9852307188166481,
                -1.1483385616121704,
                -0.34175116817174345
            ]
        },
        {
            "positions": [
                1.5146085555555018,
                -0.936658107772874,
                -1.1598643576781327,
                -0.9288986906905122,
                -1.1060777284727803,
                -0.42012825570145773
            ]
        },
        {
            "positions": [
                1.4068818295639125,
                -0.9086870593798249,
                -1.0907957970925932,
                -0.8725666625643764,
                -1.0638168953333902,
                -0.4985053432311719
            ]
        },
        {
            "positions": [
                1.299155103572323,
                -0.8807160109867758,
                -1.0217272365070538,
                -0.8162346344382405,
                -1.021556062194,
                -0.5768824307608863
            ]
        },
        {
            "positions": [
                1.191428377580734,
                -0.8527449625937267,
                -0.9526586759215143,
                -0.7599026063121048,
                -0.9792952290546102,
                -0.6552595182906004
            ]
        },
        {
            "positions": [
                1.0837016515891444,
                -0.8247739142006776,
                -0.8835901153359749,
                -0.7035705781859689,
                -0.9370343959152202,
                -0.7336366058203149
            ]
        },
        {
            "positions": [
                0.9759749255975552,
                -0.7968028658076285,
                -0.8145215547504354,
                -0.6472385500598331,
                -0.8947735627758302,
                -0.8120136933500289
            ]
        },
        {
            "positions": [
                0.8682481996059657,
                -0.7688318174145794,
                -0.745452994164896,
                -0.5909065219336972,
                -0.8525127296364401,
                -0.8903907808797432
            ]
        },
        {
            "positions": [
                0.7605214736143764,
                -0.7408607690215303,
                -0.6763844335793565,
                -0.5345744938075614,
                -0.8102518964970502,
                -0.9687678684094575
            ]
        },
        {
            "positions": [
                0.6527947476227869,
                -0.7128897206284811,
                -0.6073158729938171,
                -0.4782424656814255,
                -0.7679910633576601,
                -1.0471449559391717
            ]
        },
        {
            "positions": [
                0.5450680216311978,
                -0.684918672235432,
                -0.5382473124082776,
                -0.4219104375552898,
                -0.7257302302182702,
                -1.125522043468886
            ]
        },
        {
            "positions": [
                0.4373412956396084,
                -0.6569476238423829,
                -0.4691787518227381,
                -0.36557840942915387,
                -0.6834693970788801,
                -1.2038991309986002
            ]
        },
        {
            "positions": [
                0.40850132832932234,
                -0.6384960443979272,
                -0.3475731527069971,
                -0.33113192042727535,
                -0.6492560220463258,
                -1.0925187768051154
            ]
        },
        {
            "positions": [
                0.37966136101903636,
                -0.6200444649534715,
                -0.22596755359125614,
                -0.2966854314253969,
                -0.6150426470137715,
                -0.9811384226116309
            ]
        },
        {
            "positions": [
                0.3508213937087503,
                -0.6015928855090158,
                -0.10436195447551516,
                -0.26223894242351836,
                -0.5808292719812173,
                -0.8697580684181461
            ]
        },
        {
            "positions": [
                0.3219814263984643,
                -0.58314130606456,
                0.01724364464022582,
                -0.22779245342163987,
                -0.546615896948663,
                -0.7583777142246614
            ]
        },
        {
            "positions": [
                0.29314145908817824,
                -0.5646897266201044,
                0.1388492437559668,
                -0.19334596441976135,
                -0.5124025219161087,
                -0.6469973600311766
            ]
        },
        {
            "positions": [
                0.26430149177789225,
                -0.5462381471756487,
                0.26045484287170784,
                -0.15889947541788285,
                -0.4781891468835544,
                -0.5356170058376919
            ]
        },
        {
            "positions": [
                0.25584977976902834,
                -0.568129031463121,
                0.34308693938802315,
                -0.1787590271354915,
                -0.44960081752569747,
                -0.37704321859108003
            ]
        },
        {
            "positions": [
                0.2473980677601644,
                -0.5900199157505933,
                0.4257190359043385,
                -0.19861857885310014,
                -0.4210124881678406,
                -0.21846943134446822
            ]
        },
        {
            "positions": [
                0.23894635575130047,
                -0.6119108000380656,
                0.5083511324206539,
                -0.2184781305707088,
                -0.39242415880998366,
                -0.05989564409785636
            ]
        },
        {
            "positions": [
                0.2317442936442933,
                -0.6445722203826914,
                0.5992073733280306,
                -0.2504380834467161,
                -0.359252459458562,
                0.13447577278124265
            ]
        },
        {
            "positions": [
                0.22454223153728617,
                -0.6772336407273172,
                0.6900636142354073,
                -0.2823980363227233,
                -0.32608076010714027,
                0.32884718966034165
            ]
        },
        {
            "positions": [
                0.217340169430279,
                -0.7098950610719429,
                0.7809198551427841,
                -0.3143579891987306,
                -0.2929090607557186,
                0.5232186065394406
            ]
        },
        {
            "positions": [
                0.21013810732327184,
                -0.7425564814165687,
                0.8717760960501608,
                -0.34631794207473787,
                -0.25973736140429693,
                0.7175900234185397
            ]
        },
        {
            "positions": [
                0.20293604521626468,
                -0.7752179017611944,
                0.9626323369575376,
                -0.37827789495074515,
                -0.22656566205287526,
                0.9119614402976386
            ]
        },
        {
            "positions": [
                0.19573398310925755,
                -0.8078793221058203,
                1.0534885778649143,
                -0.41023784782675243,
                -0.19339396270145356,
                1.1063328571767377
            ]
        },
        {
            "positions": [
                0.18853192100225039,
                -0.840540742450446,
                1.144344818772291,
                -0.44219780070275966,
                -0.16022226335003187,
                1.3007042740558366
            ]
        },
        {
            "positions": [
                0.18132985889524322,
                -0.8732021627950717,
                1.2352010596796679,
                -0.47415775357876694,
                -0.1270505639986102,
                1.4950756909349356
            ]
        },
        {
            "positions": [
                0.1741277967882361,
                -0.9058635831396975,
                1.3260573005870446,
                -0.5061177064547742,
                -0.09387886464718853,
                1.6894471078140347
            ]
        },
        {
            "positions": [
                0.16692573468122893,
                -0.9385250034843233,
                1.4169135414944214,
                -0.5380776593307814,
                -0.06070716529576686,
                1.8838185246931336
            ]
        },
        {
            "positions": [
                0.15972367257422176,
                -0.971186423828949,
                1.507769782401798,
                -0.5700376122067887,
                -0.02753546594434514,
                2.0781899415722327
            ]
        },
        {
            "positions": [
                0.15252161046721463,
                -1.0038478441735748,
                1.5986260233091745,
                -0.601997565082796,
                0.00563623340707653,
                2.272561358451332
            ]
        },
        {
            "positions": [
                0.14531954836020744,
                -1.0365092645182006,
                1.6894822642165512,
                -0.6339575179588033,
                0.0388079327584982,
                2.466932775330431
            ]
        },
        {
            "positions": [
                0.1381174862532003,
                -1.0691706848628262,
                1.780338505123928,
                -0.6659174708348106,
                0.07197963210991992,
                2.6613041922095295
            ]
        },
        {
            "positions": [
                0.13091542414619314,
                -1.101832105207452,
                1.8711947460313048,
                -0.6978774237108178,
                0.10515133146134159,
                2.8556756090886286
            ]
        },
        {
            "positions": [
                0.123713362039186,
                -1.1344935255520778,
                1.9620509869386817,
                -0.729837376586825,
                0.13832303081276331,
                3.0500470259677277
            ]
        }
    ]
}