{
    "goal": {
        "global_pose": {
            "orientation": {
                "w": 0.7031023480610252,
                "x": -0.7110244013736278,
                "y": 0.0077485991402295624,
                "z": 0.005598929693374583
            },
            "position": {
                "x": -0.8841497679147869,
                "y": 0.44412534475326537,
                "z": 0.3711530566215515
            }
        },
        "name": "move_to_auspresseinheit_D"
    },
    "id": "RRT_move_to_auspresseinheit_D_102",
    "joint_names": [
        "shoulder_pan_joint",
        "shoulder_lift_joint",
        "elbow_joint",
        "wrist_1_joint",
        "wrist_2_joint",
        "wrist_3_joint"
    ],
    "metrics": {
        "cart_traj_len": 0.3422811647776584,
        "distance_elbow_joint": 0.6379544747792603,
        "distance_shoulder_lift_joint": 0.12168546470564712,
        "distance_shoulder_pan_joint": 0.13345585084413325,
        "distance_wrist_1_joint": 0.5367208997337989,
        "distance_wrist_2_joint": 1.4333964955834202,
        "distance_wrist_3_joint": 0.002483409526048419,
        "smoothness": 0.0,
        "time": 0.015484768999999999,
        "traj_len": 1.692836848362035,
        "weighted_distance": 2.2001774495575632
    },
    "planner": "RRT",
    "start": {
        "state": {
            "elbow_joint": -1.8275523626775212,
            "shoulder_lift_joint": -2.126789852344167,
            "shoulder_pan_joint": -0.03513704404078235,
            "wrist_1_joint": -2.347782403156801,
            "wrist_2_joint": -1.6058999987535132,
            "wrist_3_joint": -3.0880379163319196
        }
    },
    "waypoints": [
        {
            "positions": [
                -0.03513704404078235,
                -2.126789852344167,
                -1.8275523626775212,
                -2.347782403156801,
                -1.6058999987535132,
                -3.0880379163319196
            ]
        },
        {
            "positions": [
                -0.051819025396299005,
                -2.1420005354323726,
                -1.7478080533301137,
                -2.4148725156235256,
                -1.4267254368055857,
                -3.088348342522676
            ]
        },
        {
            "positions": [
                -0.06850100675181567,
                -2.1572112185205787,
                -1.6680637439827062,
                -2.4819626280902507,
                -1.2475508748576583,
                -3.0886587687134317
            ]
        },
        {
            "positions": [
                -0.08518298810733232,
                -2.1724219016087845,
                -1.5883194346352987,
                -2.5490527405569754,
                -1.0683763129097306,
                -3.0889691949041875
            ]
        },
        {
            "positions": [
                -0.10186496946284898,
                -2.18763258469699,
                -1.5085751252878912,
                -2.6161428530237005,
                -0.8892017509618031,
                -3.089279621094944
            ]
        },
        {
            "positions": [
                -0.11854695081836564,
                -2.2028432677851963,
                -1.4288308159404837,
                -2.6832329654904252,
                -0.7100271890138756,
                -3.0895900472857
            ]
        },
        {
            "positions": [
                -0.1352289321738823,
                -2.218053950873402,
                -1.349086506593076,
                -2.75032307795715,
                -0.5308526270659479,
                -3.089900473476456
            ]
        },
        {
            "positions": [
                -0.15191091352939895,
                -2.2332646339616082,
                -1.2693421972456684,
                -2.817413190423875,
                -0.35167806511802047,
                -3.0902108996672117
            ]
        },
        {
            "positions": [
                -0.1685928948849156,
                -2.248475317049814,
                -1.189597887898261,
                -2.8845033028905998,
                -0.17250350317009305,
                -3.090521325857968
            ]
        }
    ]
}