{
    "goal": {
        "global_pose": {
            "orientation": {
                "w": 0.7031023480610252,
                "x": -0.7110244013736278,
                "y": 0.0077485991402295624,
                "z": 0.005598929693374583
            },
            "position": {
                "x": -0.8841497679147869,
                "y": 0.44412534475326537,
                "z": 0.3711530566215515
            }
        },
        "name": "move_to_auspresseinheit_D"
    },
    "id": "RRT_move_to_auspresseinheit_D_26",
    "joint_names": [
        "shoulder_pan_joint",
        "shoulder_lift_joint",
        "elbow_joint",
        "wrist_1_joint",
        "wrist_2_joint",
        "wrist_3_joint"
    ],
    "metrics": {
        "cart_traj_len": 0.3427912376714193,
        "distance_elbow_joint": 0.6416252922587138,
        "distance_shoulder_lift_joint": 0.12334597727219831,
        "distance_shoulder_pan_joint": 0.13295907875978813,
        "distance_wrist_1_joint": 0.5357561658229231,
        "distance_wrist_2_joint": 1.4443241657973098,
        "distance_wrist_3_joint": 0.0027048815329182574,
        "smoothness": 3.9474596431116675e-16,
        "time": 0.014304197000000001,
        "traj_len": 1.6972670860662595,
        "weighted_distance": 2.2059477908894216
    },
    "planner": "RRT",
    "start": {
        "state": {
            "elbow_joint": -1.8275523626775212,
            "shoulder_lift_joint": -2.126789852344167,
            "shoulder_pan_joint": -0.03513704404078235,
            "wrist_1_joint": -2.347782403156801,
            "wrist_2_joint": -1.6058999987535132,
            "wrist_3_joint": -3.0880379163319196
        }
    },
    "waypoints": [
        {
            "positions": [
                -0.03513704404078235,
                -2.126789852344167,
                -1.8275523626775212,
                -2.347782403156801,
                -1.6058999987535132,
                -3.0880379163319196
            ]
        },
        {
            "positions": [
                -0.051756928885755865,
                -2.1422080995031916,
                -1.7473492011451819,
                -2.4147519238846664,
                -1.4253594780288494,
                -3.0883760265235343
            ]
        },
        {
            "positions": [
                -0.06837681373072937,
                -2.1576263466622163,
                -1.6671460396128428,
                -2.4817214446125315,
                -1.2448189573041857,
                -3.088714136715149
            ]
        },
        {
            "positions": [
                -0.0849966985757029,
                -2.173044593821241,
                -1.5869428780805035,
                -2.548690965340397,
                -1.0642784365795221,
                -3.089052246906764
            ]
        },
        {
            "positions": [
                -0.10161658342067642,
                -2.1884628409802662,
                -1.5067397165481644,
                -2.615660486068262,
                -0.8837379158548583,
                -3.0893903570983787
            ]
        },
        {
            "positions": [
                -0.11823646826564993,
                -2.203881088139291,
                -1.426536555015825,
                -2.6826300067961277,
                -0.7031973951301945,
                -3.0897284672899934
            ]
        },
        {
            "positions": [
                -0.13485635311062344,
                -2.2192993352983157,
                -1.3463333934834858,
                -2.7495995275239933,
                -0.5226568744055309,
                -3.0900665774816085
            ]
        },
        {
            "positions": [
                -0.15147623795559698,
                -2.2347175824573404,
                -1.2661302319511467,
                -2.8165690482518584,
                -0.3421163536808671,
                -3.090404687673223
            ]
        },
        {
            "positions": [
                -0.16809612280057049,
                -2.250135829616365,
                -1.1859270704188074,
                -2.883538568979724,
                -0.16157583295620329,
                -3.090742797864838
            ]
        }
    ]
}