{
    "goal": {
        "global_pose": {
            "orientation": {
                "w": -0.00223480608172531,
                "x": 0.0024358444001904467,
                "y": 0.7094548369677653,
                "z": -0.704743149386269
            },
            "position": {
                "x": 0.6205249238014221,
                "y": -0.6371506643295288,
                "z": 0.19426114857196808
            }
        },
        "name": "move_to_magneteinheit_B"
    },
    "id": "RRT_move_to_magneteinheit_B_139",
    "joint_names": [
        "shoulder_pan_joint",
        "shoulder_lift_joint",
        "elbow_joint",
        "wrist_1_joint",
        "wrist_2_joint",
        "wrist_3_joint"
    ],
    "metrics": {
        "cart_traj_len": 1.411408020309337,
        "distance_elbow_joint": 0.9580883314369122,
        "distance_shoulder_lift_joint": 0.7564726205658671,
        "distance_shoulder_pan_joint": 1.621840775991893,
        "distance_wrist_1_joint": 0.4207997774189871,
        "distance_wrist_2_joint": 1.5191257528287292,
        "distance_wrist_3_joint": 0.09167277124210613,
        "smoothness": 0.18191519112543755,
        "time": 0.33566231500000004,
        "traj_len": 2.3168944795748674,
        "weighted_distance": 2.737018652149894
    },
    "planner": "RRT",
    "start": {
        "state": {
            "elbow_joint": 2.6216224122426386,
            "shoulder_lift_joint": -1.4174107377796124,
            "shoulder_pan_joint": 0.7066234856936794,
            "wrist_1_joint": 1.9546482284002225,
            "wrist_2_joint": -0.7096286983471962,
            "wrist_3_joint": 0.005740856962016249
        }
    },
    "waypoints": [
        {
            "positions": [
                0.7066234856936794,
                -1.4174107377796124,
                2.6216224122426386,
                1.9546482284002225,
                -0.7096286983471962,
                0.005740856962016249
            ]
        },
        {
            "positions": [
                0.5219907177037816,
                -1.399437109028051,
                2.6086061923856723,
                1.914992961740715,
                -0.7803604017862414,
                -0.01221155091114969
            ]
        },
        {
            "positions": [
                0.3373579497138838,
                -1.38146348027649,
                2.5955899725287055,
                1.8753376950812077,
                -0.8510921052252866,
                -0.03016395878431563
            ]
        },
        {
            "positions": [
                0.15272518172398597,
                -1.3634898515249287,
                2.582573752671739,
                1.8356824284217004,
                -0.9218238086643318,
                -0.04811636665748157
            ]
        },
        {
            "positions": [
                0.05563950244924058,
                -1.299621512042094,
                2.4990246915930108,
                1.8631218809162882,
                -1.0406356852562948,
                -0.04467858960088081
            ]
        },
        {
            "positions": [
                -0.041446176825504805,
                -1.235753172559259,
                2.4154756305142824,
                1.8905613334108757,
                -1.1594475618482578,
                -0.04124081254428005
            ]
        },
        {
            "positions": [
                -0.13853185610025015,
                -1.1718848330764242,
                2.331926569435554,
                1.9180007859054635,
                -1.2782594384402208,
                -0.03780303548767929
            ]
        },
        {
            "positions": [
                -0.23561753537499558,
                -1.1080164935935892,
                2.2483775083568256,
                1.9454402384000513,
                -1.397071315032184,
                -0.03436525843107853
            ]
        },
        {
            "positions": [
                -0.33270321464974095,
                -1.0441481541107545,
                2.164828447278097,
                1.972879690894639,
                -1.515883191624147,
                -0.03092748137447777
            ]
        },
        {
            "positions": [
                -0.42978889392448627,
                -0.9802798146279197,
                2.081279386199369,
                2.000319143389227,
                -1.63469506821611,
                -0.027489704317877013
            ]
        },
        {
            "positions": [
                -0.5268745731992317,
                -0.9164114751450847,
                1.9977303251206402,
                2.0277585958838147,
                -1.7535069448080731,
                -0.02405192726127625
            ]
        },
        {
            "positions": [
                -0.6239602524739771,
                -0.8525431356622498,
                1.9141812640419116,
                2.055198048378402,
                -1.8723188214000364,
                -0.02061415020467549
            ]
        },
        {
            "positions": [
                -0.7210459317487226,
                -0.7886747961794149,
                1.8306322029631832,
                2.08263750087299,
                -1.9911306979919994,
                -0.017176373148074728
            ]
        },
        {
            "positions": [
                -0.8181316110234679,
                -0.7248064566965802,
                1.7470831418844548,
                2.1100769533675776,
                -2.1099425745839624,
                -0.013738596091473973
            ]
        },
        {
            "positions": [
                -0.9152172902982133,
                -0.6609381172137453,
                1.6635340808057264,
                2.1375164058621654,
                -2.2287544511759254,
                -0.010300819034873213
            ]
        }
    ]
}