{
    "goal": {
        "global_pose": {
            "orientation": {
                "w": -0.4816463035849501,
                "x": 0.5182115481033762,
                "y": 0.4908360881923453,
                "z": -0.5084816262002911
            },
            "position": {
                "x": -0.8240239810943604,
                "y": 0.19912469901144506,
                "z": 0.16403168439865112
            }
        },
        "name": "move_to_storage_D"
    },
    "id": "RRT_move_to_storage_D_125",
    "joint_names": [
        "shoulder_pan_joint",
        "shoulder_lift_joint",
        "elbow_joint",
        "wrist_1_joint",
        "wrist_2_joint",
        "wrist_3_joint"
    ],
    "metrics": {
        "cart_traj_len": 0.836328003366186,
        "distance_elbow_joint": 0.9015237478392224,
        "distance_shoulder_lift_joint": 0.15082706120218026,
        "distance_shoulder_pan_joint": 0.42662558756500846,
        "distance_wrist_1_joint": 4.118898800793497,
        "distance_wrist_2_joint": 1.781621569029293,
        "distance_wrist_3_joint": 3.3930804656856965,
        "smoothness": 0.49239287391921394,
        "time": 0.06242410500000001,
        "traj_len": 3.282160451915003,
        "weighted_distance": 4.8434758731007514
    },
    "planner": "RRT",
    "start": {
        "state": {
            "elbow_joint": -2.384821988534728,
            "shoulder_lift_joint": -2.2788054721415256,
            "shoulder_pan_joint": -0.1854694642142757,
            "wrist_1_joint": 1.4845938289331202,
            "wrist_2_joint": 0.17898776772866878,
            "wrist_3_joint": 0.037105688729662994
        }
    },
    "waypoints": [
        {
            "positions": [
                -0.1854694642142757,
                -2.2788054721415256,
                -2.384821988534728,
                1.4845938289331202,
                0.17898776772866878,
                0.037105688729662994
            ]
        },
        {
            "positions": [
                -0.13042377942017064,
                -2.2590276405314578,
                -2.3286614616868873,
                1.5583723783735248,
                0.06867143133588294,
                0.10605797988163722
            ]
        },
        {
            "positions": [
                -0.07537809462606554,
                -2.2392498089213904,
                -2.272500934839047,
                1.6321509278139295,
                -0.04164490505690292,
                0.17501027103361144
            ]
        },
        {
            "positions": [
                -0.030797843396150493,
                -2.23831060293917,
                -2.118375317667992,
                1.5610572544917882,
                -0.04504558738760855,
                0.09611960574360584
            ]
        },
        {
            "positions": [
                0.013782407833764554,
                -2.2373713969569495,
                -1.9642497004969366,
                1.489963581169647,
                -0.04844626971831417,
                0.01722894045360024
            ]
        },
        {
            "positions": [
                0.0583626590636796,
                -2.236432190974729,
                -1.8101240833258814,
                1.4188699078475058,
                -0.05184695204901979,
                -0.06166172483640536
            ]
        },
        {
            "positions": [
                0.10294291029359463,
                -2.2354929849925087,
                -1.6559984661548262,
                1.3477762345253645,
                -0.055247634379725415,
                -0.14055239012641094
            ]
        },
        {
            "positions": [
                0.09666049151827018,
                -2.230605958899183,
                -1.663848476402977,
                1.1801868250424499,
                -0.12558336923976626,
                -0.2741711729546712
            ]
        },
        {
            "positions": [
                0.09037807274294571,
                -2.2257189328058575,
                -1.671698486651128,
                1.0125974155595352,
                -0.1959191040998071,
                -0.40778995578293153
            ]
        },
        {
            "positions": [
                0.08409565396762125,
                -2.2208319067125317,
                -1.6795484968992789,
                0.8450080060766205,
                -0.2662548389598479,
                -0.5414087386111918
            ]
        },
        {
            "positions": [
                0.0778132351922968,
                -2.2159448806192064,
                -1.68739850714743,
                0.6774185965937058,
                -0.33659057381988877,
                -0.6750275214394521
            ]
        },
        {
            "positions": [
                0.07153081641697234,
                -2.2110578545258806,
                -1.695248517395581,
                0.5098291871107912,
                -0.4069263086799296,
                -0.8086463042677123
            ]
        },
        {
            "positions": [
                0.06524839764164789,
                -2.206170828432555,
                -1.7030985276437318,
                0.3422397776278765,
                -0.4772620435399704,
                -0.9422650870959726
            ]
        },
        {
            "positions": [
                0.05896597886632342,
                -2.2012838023392294,
                -1.7109485378918827,
                0.17465036814496182,
                -0.5475977784000113,
                -1.0758838699242328
            ]
        },
        {
            "positions": [
                0.052683560090998956,
                -2.196396776245904,
                -1.7187985481400336,
                0.007060958662047145,
                -0.6179335132600522,
                -1.2095026527524932
            ]
        },
        {
            "positions": [
                0.0464011413156745,
                -2.191509750152578,
                -1.7266485583881845,
                -0.16052845082086753,
                -0.6882692481200932,
                -1.3431214355807535
            ]
        },
        {
            "positions": [
                0.04011872254035004,
                -2.186622724059253,
                -1.7344985686363354,
                -0.3281178603037822,
                -0.7586049829801339,
                -1.4767402184090137
            ]
        },
        {
            "positions": [
                0.03383630376502558,
                -2.181735697965927,
                -1.7423485788844864,
                -0.4957072697866969,
                -0.8289407178401748,
                -1.610359001237274
            ]
        },
        {
            "positions": [
                0.027553884989701127,
                -2.1768486718726012,
                -1.7501985891326375,
                -0.6632966792696116,
                -0.8992764527002155,
                -1.7439777840655342
            ]
        },
        {
            "positions": [
                0.021271466214376658,
                -2.171961645779276,
                -1.7580485993807884,
                -0.8308860887525262,
                -0.9696121875602565,
                -1.8775965668937946
            ]
        },
        {
            "positions": [
                0.014989047439052203,
                -2.16707461968595,
                -1.7658986096289393,
                -0.9984754982354409,
                -1.0399479224202972,
                -2.0112153497220544
            ]
        },
        {
            "positions": [
                0.008706628663727747,
                -2.1621875935926247,
                -1.7737486198770902,
                -1.1660649077183556,
                -1.110283657280338,
                -2.1448341325503146
            ]
        },
        {
            "positions": [
                0.002424209888403278,
                -2.157300567499299,
                -1.7815986301252411,
                -1.3336543172012703,
                -1.180619392140379,
                -2.2784529153785753
            ]
        },
        {
            "positions": [
                -0.0038582088869211634,
                -2.1524135414059735,
                -1.789448640373392,
                -1.501243726684185,
                -1.2509551270004198,
                -2.412071698206835
            ]
        },
        {
            "positions": [
                -0.010140627662245633,
                -2.1475265153126477,
                -1.797298650621543,
                -1.6688331361670996,
                -1.3212908618604609,
                -2.5456904810350958
            ]
        },
        {
            "positions": [
                -0.016423046437570088,
                -2.1426394892193223,
                -1.805148660869694,
                -1.8364225456500143,
                -1.3916265967205015,
                -2.679309263863356
            ]
        },
        {
            "positions": [
                -0.022705465212894557,
                -2.1377524631259965,
                -1.812998671117845,
                -2.004011955132929,
                -1.4619623315805423,
                -2.8129280466916162
            ]
        },
        {
            "positions": [
                -0.028987883988219013,
                -2.132865437032671,
                -1.8208486813659959,
                -2.1716013646158436,
                -1.5322980664405832,
                -2.9465468295198765
            ]
        },
        {
            "positions": [
                -0.03527030276354346,
                -2.1279784109393454,
                -1.8286986916141468,
                -2.3391907740987583,
                -1.602633801300624,
                -3.0801656123481367
            ]
        }
    ]
}