{
    "goal": {
        "global_pose": {
            "orientation": {
                "w": -0.00223480608172531,
                "x": 0.0024358444001904467,
                "y": 0.7094548369677653,
                "z": -0.704743149386269
            },
            "position": {
                "x": 0.6205249238014221,
                "y": -0.6371506643295288,
                "z": 0.19426114857196808
            }
        },
        "name": "move_to_magneteinheit_B"
    },
    "id": "RRT_move_to_magneteinheit_B_32",
    "joint_names": [
        "shoulder_pan_joint",
        "shoulder_lift_joint",
        "elbow_joint",
        "wrist_1_joint",
        "wrist_2_joint",
        "wrist_3_joint"
    ],
    "metrics": {
        "cart_traj_len": 1.4528814734699667,
        "distance_elbow_joint": 0.9584254177897797,
        "distance_shoulder_lift_joint": 0.7566714433926719,
        "distance_shoulder_pan_joint": 1.619973376578846,
        "distance_wrist_1_joint": 0.1964504719093494,
        "distance_wrist_2_joint": 1.9785847670739833,
        "distance_wrist_3_joint": 0.24150319986082713,
        "smoothness": 0.45912063441186146,
        "time": 0.074839084,
        "traj_len": 2.3982511704584777,
        "weighted_distance": 2.8999397089095567
    },
    "planner": "RRT",
    "start": {
        "state": {
            "elbow_joint": 2.6216224122426386,
            "shoulder_lift_joint": -1.4174107377796124,
            "shoulder_pan_joint": 0.7066234856936794,
            "wrist_1_joint": 1.9546482284002225,
            "wrist_2_joint": -0.7096286983471962,
            "wrist_3_joint": 0.005740856962016249
        }
    },
    "waypoints": [
        {
            "positions": [
                0.7066234856936794,
                -1.4174107377796124,
                2.6216224122426386,
                1.9546482284002225,
                -0.7096286983471962,
                0.005740856962016249
            ]
        },
        {
            "positions": [
                0.5264669083428936,
                -1.3762582811249064,
                2.5964789106223436,
                1.9663364622539183,
                -0.6352476344278986,
                0.04791773444959998
            ]
        },
        {
            "positions": [
                0.3463103309921077,
                -1.3351058244702005,
                2.571335409002048,
                1.9780246961076144,
                -0.560866570508601,
                0.09009461193718371
            ]
        },
        {
            "positions": [
                0.1661537536413218,
                -1.2939533678154946,
                2.546191907381753,
                1.9897129299613103,
                -0.4864855065893034,
                0.13227148942476746
            ]
        },
        {
            "positions": [
                0.07619511659744774,
                -1.241185528363115,
                2.4726089979710117,
                2.0031617441569987,
                -0.6327723045323109,
                0.12269044214159447
            ]
        },
        {
            "positions": [
                -0.013763520446426314,
                -1.1884176889107356,
                2.3990260885602708,
                2.016610558352687,
                -0.7790591024753184,
                0.11310939485842147
            ]
        },
        {
            "positions": [
                -0.10372215749030039,
                -1.135649849458356,
                2.32544317914953,
                2.0300593725483758,
                -0.925345900418326,
                0.10352834757524848
            ]
        },
        {
            "positions": [
                -0.19368079453417442,
                -1.0828820100059766,
                2.2518602697387884,
                2.0435081867440643,
                -1.0716326983613336,
                0.09394730029207549
            ]
        },
        {
            "positions": [
                -0.28363943157804855,
                -1.030114170553597,
                2.178277360328047,
                2.0569570009397524,
                -1.2179194963043412,
                0.08436625300890249
            ]
        },
        {
            "positions": [
                -0.3735980686219226,
                -0.9773463311012176,
                2.104694450917306,
                2.070405815135441,
                -1.3642062942473487,
                0.0747852057257295
            ]
        },
        {
            "positions": [
                -0.46355670566579665,
                -0.924578491648838,
                2.031111541506565,
                2.0838546293311295,
                -1.5104930921903563,
                0.0652041584425565
            ]
        },
        {
            "positions": [
                -0.5535153427096706,
                -0.8718106521964586,
                1.9575286320958236,
                2.097303443526818,
                -1.6567798901333637,
                0.05562311115938351
            ]
        },
        {
            "positions": [
                -0.6434739797535447,
                -0.819042812744079,
                1.8839457226850824,
                2.1107522577225066,
                -1.8030666880763713,
                0.046042063876210515
            ]
        },
        {
            "positions": [
                -0.7334326167974189,
                -0.7662749732916995,
                1.8103628132743412,
                2.1242010719181947,
                -1.949353486019379,
                0.03646101659303752
            ]
        },
        {
            "positions": [
                -0.8233912538412929,
                -0.71350713383932,
                1.7367799038636,
                2.1376498861138833,
                -2.0956402839623864,
                0.026879969309864526
            ]
        },
        {
            "positions": [
                -0.9133498908851669,
                -0.6607392943869405,
                1.6631969944528588,
                2.151098700309572,
                -2.241927081905394,
                0.017298922026691525
            ]
        }
    ]
}