{
    "goal": {
        "global_pose": {
            "orientation": {
                "w": 0.7031023480610252,
                "x": -0.7110244013736278,
                "y": 0.0077485991402295624,
                "z": 0.005598929693374583
            },
            "position": {
                "x": -0.8841497679147869,
                "y": 0.44412534475326537,
                "z": 0.3711530566215515
            }
        },
        "name": "move_to_auspresseinheit_D"
    },
    "id": "RRT_move_to_auspresseinheit_D_92",
    "joint_names": [
        "shoulder_pan_joint",
        "shoulder_lift_joint",
        "elbow_joint",
        "wrist_1_joint",
        "wrist_2_joint",
        "wrist_3_joint"
    ],
    "metrics": {
        "cart_traj_len": 0.34290700476897296,
        "distance_elbow_joint": 0.6441817811691153,
        "distance_shoulder_lift_joint": 0.124400496029339,
        "distance_shoulder_pan_joint": 0.13295918485006045,
        "distance_wrist_1_joint": 0.5511365621014943,
        "distance_wrist_2_joint": 1.4429672198979522,
        "distance_wrist_3_joint": 0.016778913699715403,
        "smoothness": 0.0,
        "time": 0.012226932000000001,
        "traj_len": 1.706582596227817,
        "weighted_distance": 2.2226303712373214
    },
    "planner": "RRT",
    "start": {
        "state": {
            "elbow_joint": -1.8275523626775212,
            "shoulder_lift_joint": -2.126789852344167,
            "shoulder_pan_joint": -0.03513704404078235,
            "wrist_1_joint": -2.347782403156801,
            "wrist_2_joint": -1.6058999987535132,
            "wrist_3_joint": -3.0880379163319196
        }
    },
    "waypoints": [
        {
            "positions": [
                -0.03513704404078235,
                -2.126789852344167,
                -1.8275523626775212,
                -2.347782403156801,
                -1.6058999987535132,
                -3.0880379163319196
            ]
        },
        {
            "positions": [
                -0.05175694214703991,
                -2.142339914347834,
                -1.7470296400313818,
                -2.4166744734194876,
                -1.4255290962662692,
                -3.085940552119455
            ]
        },
        {
            "positions": [
                -0.06837684025329746,
                -2.157889976351502,
                -1.6665069173852425,
                -2.4855665436821743,
                -1.2451581937790253,
                -3.0838431879069907
            ]
        },
        {
            "positions": [
                -0.08499673835955501,
                -2.173440038355169,
                -1.585984194739103,
                -2.554458613944861,
                -1.064787291291781,
                -3.0817458236945265
            ]
        },
        {
            "positions": [
                -0.10161663646581257,
                -2.1889901003588363,
                -1.5054614720929635,
                -2.623350684207548,
                -0.8844163888045371,
                -3.079648459482062
            ]
        },
        {
            "positions": [
                -0.11823653457207012,
                -2.2045401623625036,
                -1.4249387494468242,
                -2.692242754470235,
                -0.7040454863172931,
                -3.0775510952695972
            ]
        },
        {
            "positions": [
                -0.1348564326783277,
                -2.220090224366171,
                -1.3444160268006846,
                -2.7611348247329217,
                -0.523674583830049,
                -3.075453731057133
            ]
        },
        {
            "positions": [
                -0.15147633078458525,
                -2.2356402863698386,
                -1.2638933041545453,
                -2.8300268949956084,
                -0.343303681342805,
                -3.073356366844669
            ]
        },
        {
            "positions": [
                -0.1680962288908428,
                -2.251190348373506,
                -1.183370581508406,
                -2.898918965258295,
                -0.1629327788555611,
                -3.071259002632204
            ]
        }
    ]
}