{
    "goal": {
        "global_pose": {
            "orientation": {
                "w": 0.005598929693374612,
                "x": 0.007748599140229565,
                "y": 0.7110244013736278,
                "z": -0.7031023480610252
            },
            "position": {
                "x": -0.8858502320852131,
                "y": -0.7141253447532654,
                "z": 0.3711530566215515
            }
        },
        "name": "move_to_auspresseinheit_C"
    },
    "id": "RRT_move_to_auspresseinheit_C_47",
    "joint_names": [
        "shoulder_pan_joint",
        "shoulder_lift_joint",
        "elbow_joint",
        "wrist_1_joint",
        "wrist_2_joint",
        "wrist_3_joint"
    ],
    "metrics": {
        "cart_traj_len": 0.49246142210538946,
        "distance_elbow_joint": 0.9890946240272859,
        "distance_shoulder_lift_joint": 0.3192617944562516,
        "distance_shoulder_pan_joint": 0.25618585405184247,
        "distance_wrist_1_joint": 0.6569806659990636,
        "distance_wrist_2_joint": 1.3125521837430902,
        "distance_wrist_3_joint": 0.05400958931634836,
        "smoothness": 6.459479416000911e-16,
        "time": 0.014019878999999999,
        "traj_len": 1.8942240394403935,
        "weighted_distance": 2.380259805140761
    },
    "planner": "RRT",
    "start": {
        "state": {
            "elbow_joint": 1.7527959577737207,
            "shoulder_lift_joint": -0.9740617694225068,
            "shoulder_pan_joint": -2.967991417825858,
            "wrist_1_joint": -0.759517768980727,
            "wrist_2_joint": 1.7443932448377408,
            "wrist_3_joint": -3.0840537646736568
        }
    },
    "waypoints": [
        {
            "positions": [
                -2.967991417825858,
                -0.9740617694225068,
                1.7527959577737207,
                -0.759517768980727,
                1.7443932448377408,
                -3.0840537646736568
            ]
        },
        {
            "positions": [
                -2.9423728324206735,
                -0.9421355899768816,
                1.653886495370992,
                -0.6938197023808206,
                1.6131380264634319,
                -3.0894547236052916
            ]
        },
        {
            "positions": [
                -2.9167542470154895,
                -0.9102094105312565,
                1.5549770329682635,
                -0.6281216357809143,
                1.4818828080891229,
                -3.0948556825369264
            ]
        },
        {
            "positions": [
                -2.8911356616103054,
                -0.8782832310856313,
                1.4560675705655348,
                -0.5624235691810079,
                1.3506275897148137,
                -3.1002566414685613
            ]
        },
        {
            "positions": [
                -2.865517076205121,
                -0.8463570516400061,
                1.3571581081628064,
                -0.49672550258110154,
                1.2193723713405047,
                -3.105657600400196
            ]
        },
        {
            "positions": [
                -2.8398984907999365,
                -0.8144308721943809,
                1.2582486457600777,
                -0.4310274359811952,
                1.0881171529661957,
                -3.111058559331831
            ]
        },
        {
            "positions": [
                -2.8142799053947525,
                -0.7825046927487558,
                1.1593391833573492,
                -0.36532936938128885,
                0.9568619345918867,
                -3.116459518263466
            ]
        },
        {
            "positions": [
                -2.7886613199895685,
                -0.7505785133031306,
                1.0604297209546205,
                -0.2996313027813825,
                0.8256067162175778,
                -3.1218604771951006
            ]
        },
        {
            "positions": [
                -2.763042734584384,
                -0.7186523338575055,
                0.9615202585518919,
                -0.2339332361814761,
                0.6943514978432686,
                -3.1272614361267355
            ]
        },
        {
            "positions": [
                -2.7374241491791995,
                -0.6867261544118803,
                0.8626107961491634,
                -0.1682351695815697,
                0.5630962794689596,
                -3.1326623950583703
            ]
        },
        {
            "positions": [
                -2.7118055637740155,
                -0.6547999749662552,
                0.7637013337464348,
                -0.10253710298166338,
                0.4318410610946507,
                -3.138063353990005
            ]
        }
    ]
}