{
    "goal": {
        "global_pose": {
            "orientation": {
                "w": 0.7047431493862688,
                "x": -0.7094548369677653,
                "y": 0.0024358444001904,
                "z": -0.0022348060817251984
            },
            "position": {
                "x": -0.39052492380142206,
                "y": 0.3671506643295288,
                "z": 0.19426114857196808
            }
        },
        "name": "move_to_magneteinheit_D"
    },
    "id": "RRT_move_to_magneteinheit_D_91",
    "joint_names": [
        "shoulder_pan_joint",
        "shoulder_lift_joint",
        "elbow_joint",
        "wrist_1_joint",
        "wrist_2_joint",
        "wrist_3_joint"
    ],
    "metrics": {
        "cart_traj_len": 4.8050993773620245,
        "distance_elbow_joint": 3.106021838100543,
        "distance_shoulder_lift_joint": 1.0998184924656642,
        "distance_shoulder_pan_joint": 3.7227842528161608,
        "distance_wrist_1_joint": 2.382395512873122,
        "distance_wrist_2_joint": 2.1511591434200463,
        "distance_wrist_3_joint": 1.3717551212487678,
        "smoothness": 0.5239769447079525,
        "time": 0.130956777,
        "traj_len": 3.7193997312636755,
        "weighted_distance": 4.594670745517573
    },
    "planner": "RRT",
    "start": {
        "state": {
            "elbow_joint": 0.749534889911806,
            "shoulder_lift_joint": -0.6476975780787326,
            "shoulder_pan_joint": -2.711696901376241,
            "wrist_1_joint": -0.07506478083263063,
            "wrist_2_joint": 0.43296659715538205,
            "wrist_3_joint": -3.14703540197715
        }
    },
    "waypoints": [
        {
            "positions": [
                -2.711696901376241,
                -0.6476975780787326,
                0.749534889911806,
                -0.07506478083263063,
                0.43296659715538205,
                -3.14703540197715
            ]
        },
        {
            "positions": [
                -2.7084145760428795,
                -0.6551951269135945,
                0.6899011565375921,
                -0.03129732231214409,
                0.4555456508865926,
                -3.0743043989583745
            ]
        },
        {
            "positions": [
                -2.705132250709518,
                -0.6626926757484565,
                0.6302674231633782,
                0.012470136208342447,
                0.4781247046178031,
                -3.001573395939599
            ]
        },
        {
            "positions": [
                -2.6973441799154454,
                -0.7260251123696946,
                0.5706642746741052,
                0.019482102431872185,
                0.5642412309538479,
                -2.8890031240658183
            ]
        },
        {
            "positions": [
                -2.6895561091213733,
                -0.7893575489909328,
                0.5110611261848321,
                0.026494068655401923,
                0.6503577572898928,
                -2.7764328521920376
            ]
        },
        {
            "positions": [
                -2.681768038327301,
                -0.8526899856121709,
                0.4514579776955592,
                0.033506034878931654,
                0.7364742836259376,
                -2.663862580318257
            ]
        },
        {
            "positions": [
                -2.6739799675332288,
                -0.916022422233409,
                0.3918548292062861,
                0.0405180011024614,
                0.8225908099619824,
                -2.5512923084444763
            ]
        },
        {
            "positions": [
                -2.6661918967391562,
                -0.9793548588546472,
                0.3322516807170131,
                0.04752996732599113,
                0.9087073362980272,
                -2.4387220365706956
            ]
        },
        {
            "positions": [
                -2.537891175481667,
                -1.0098940091604636,
                0.23328013272942136,
                -0.02397108140778477,
                0.851010172464174,
                -2.447254092753029
            ]
        },
        {
            "positions": [
                -2.4095904542241775,
                -1.04043315946628,
                0.1343085847418296,
                -0.09547213014156067,
                0.7933130086303207,
                -2.4557861489353625
            ]
        },
        {
            "positions": [
                -2.2812897329666884,
                -1.0709723097720962,
                0.03533703675423783,
                -0.16697317887533658,
                0.7356158447964675,
                -2.4643182051176957
            ]
        },
        {
            "positions": [
                -2.152989011709199,
                -1.1015114600779126,
                -0.0636345112333539,
                -0.23847422760911247,
                0.6779186809626143,
                -2.4728502613000294
            ]
        },
        {
            "positions": [
                -2.0246882904517096,
                -1.132050610383729,
                -0.16260605922094573,
                -0.3099752763428884,
                0.6202215171287611,
                -2.4813823174823626
            ]
        },
        {
            "positions": [
                -1.8963875691942205,
                -1.1625897606895452,
                -0.26157760720853745,
                -0.3814763250766643,
                0.5625243532949078,
                -2.4899143736646963
            ]
        },
        {
            "positions": [
                -1.768086847936731,
                -1.1931289109953616,
                -0.36054915519612923,
                -0.45297737381044023,
                0.5048271894610545,
                -2.4984464298470295
            ]
        },
        {
            "positions": [
                -1.639786126679242,
                -1.223668061301178,
                -0.4595207031837209,
                -0.5244784225442161,
                0.4471300256272013,
                -2.506978486029363
            ]
        },
        {
            "positions": [
                -1.5114854054217526,
                -1.2542072116069942,
                -0.5584922511713128,
                -0.595979471277992,
                0.389432861793348,
                -2.5155105422116963
            ]
        },
        {
            "positions": [
                -1.3831846841642632,
                -1.2847463619128106,
                -0.6574637991589045,
                -0.6674805200117679,
                0.33173569795949476,
                -2.52404259839403
            ]
        },
        {
            "positions": [
                -1.254883962906774,
                -1.3152855122186269,
                -0.7564353471464962,
                -0.7389815687455438,
                0.2740385341256415,
                -2.532574654576363
            ]
        },
        {
            "positions": [
                -1.1265832416492847,
                -1.3458246625244432,
                -0.8554068951340881,
                -0.8104826174793197,
                0.21634137029178824,
                -2.5411067107586964
            ]
        },
        {
            "positions": [
                -0.9982825203917955,
                -1.3763638128302595,
                -0.9543784431216797,
                -0.8819836662130955,
                0.1586442064579351,
                -2.54963876694103
            ]
        },
        {
            "positions": [
                -0.869981799134306,
                -1.4069029631360759,
                -1.0533499911092716,
                -0.9534847149468716,
                0.10094704262408172,
                -2.5581708231233633
            ]
        },
        {
            "positions": [
                -0.7416810778768168,
                -1.4374421134418922,
                -1.1523215390968633,
                -1.0249857636806472,
                0.04324987879022846,
                -2.566702879305697
            ]
        },
        {
            "positions": [
                -0.6133803566193277,
                -1.4679812637477085,
                -1.251293087084455,
                -1.0964868124144234,
                -0.014447285043624691,
                -2.57523493548803
            ]
        },
        {
            "positions": [
                -0.48507963536183807,
                -1.4985204140535249,
                -1.3502646350720469,
                -1.167987861148199,
                -0.07214444887747806,
                -2.583766991670364
            ]
        },
        {
            "positions": [
                -0.3567789141043489,
                -1.5290595643593412,
                -1.4492361830596387,
                -1.2394889098819752,
                -0.1298416127113312,
                -2.592299047852697
            ]
        },
        {
            "positions": [
                -0.22847819284685977,
                -1.5595987146651575,
                -1.5482077310472304,
                -1.310989958615751,
                -0.18753877654518447,
                -2.6008311040350307
            ]
        },
        {
            "positions": [
                -0.10017747158937018,
                -1.5901378649709739,
                -1.6471792790348223,
                -1.3824910073495271,
                -0.24523594037903773,
                -2.609363160217364
            ]
        },
        {
            "positions": [
                0.028123249668118966,
                -1.6206770152767902,
                -1.746150827022414,
                -1.4539920560833028,
                -0.302933104212891,
                -2.6178952163996976
            ]
        },
        {
            "positions": [
                0.1564239709256081,
                -1.6512161655826065,
                -1.8451223750100054,
                -1.5254931048170786,
                -0.36063026804674425,
                -2.626427272582031
            ]
        },
        {
            "positions": [
                0.2847246921830977,
                -1.6817553158884229,
                -1.9440939229975973,
                -1.5969941535508547,
                -0.4183274318805975,
                -2.6349593287643645
            ]
        },
        {
            "positions": [
                0.4130254134405869,
                -1.7122944661942392,
                -2.043065470985189,
                -1.6684952022846307,
                -0.47602459571445077,
                -2.6434913849466977
            ]
        },
        {
            "positions": [
                0.31334842377403166,
                -1.7181647335859322,
                -2.095302383852447,
                -1.7591244681352771,
                -0.4275768503369636,
                -2.719936786191083
            ]
        },
        {
            "positions": [
                0.2136714341074764,
                -1.724035000977625,
                -2.147539296719705,
                -1.8497537339859236,
                -0.37912910495947644,
                -2.796382187435468
            ]
        },
        {
            "positions": [
                0.11399444444092116,
                -1.729905268369318,
                -2.199776209586963,
                -1.94038299983657,
                -0.33068135958198924,
                -2.8728275886798533
            ]
        },
        {
            "positions": [
                0.014317454774365912,
                -1.735775535761011,
                -2.252013122454221,
                -2.0310122656872163,
                -0.2822336142045021,
                -2.9492729899242387
            ]
        },
        {
            "positions": [
                -0.08535953489218934,
                -1.741645803152704,
                -2.3042500353214788,
                -2.121641531537863,
                -0.23378586882701488,
                -3.0257183911686236
            ]
        },
        {
            "positions": [
                -0.18503652455874464,
                -1.7475160705443968,
                -2.3564869481887367,
                -2.212270797388509,
                -0.1853381234495277,
                -3.102163792413009
            ]
        }
    ]
}