{
    "goal": {
        "global_pose": {
            "orientation": {
                "w": -0.00223480608172531,
                "x": 0.0024358444001904467,
                "y": 0.7094548369677653,
                "z": -0.704743149386269
            },
            "position": {
                "x": -0.37947507619857795,
                "y": -0.6371506643295288,
                "z": 0.19426114857196808
            }
        },
        "name": "move_to_magneteinheit_C"
    },
    "id": "RRT_move_to_magneteinheit_C_57",
    "joint_names": [
        "shoulder_pan_joint",
        "shoulder_lift_joint",
        "elbow_joint",
        "wrist_1_joint",
        "wrist_2_joint",
        "wrist_3_joint"
    ],
    "metrics": {
        "cart_traj_len": 2.1719167273650184,
        "distance_elbow_joint": 1.6512312096769586,
        "distance_shoulder_lift_joint": 0.5533714168726638,
        "distance_shoulder_pan_joint": 1.924706762264128,
        "distance_wrist_1_joint": 1.6432041747594741,
        "distance_wrist_2_joint": 1.5821701058034052,
        "distance_wrist_3_joint": 1.9745448666710361,
        "smoothness": 1.0677479124646685,
        "time": 4.248151553,
        "traj_len": 3.054378584270074,
        "weighted_distance": 4.062473698370566
    },
    "planner": "RRT",
    "start": {
        "state": {
            "elbow_joint": 1.9565354010623817,
            "shoulder_lift_joint": -1.4165861575791021,
            "shoulder_pan_joint": -1.6717766225146293,
            "wrist_1_joint": -0.5286633292919765,
            "wrist_2_joint": 1.472756589071564,
            "wrist_3_joint": -3.1238370188695823
        }
    },
    "waypoints": [
        {
            "positions": [
                -1.6717766225146293,
                -1.4165861575791021,
                1.9565354010623817,
                -0.5286633292919765,
                1.472756589071564,
                -3.1238370188695823
            ]
        },
        {
            "positions": [
                -1.5505400918252223,
                -1.4790817385547648,
                1.951167655897468,
                -0.4956896918886742,
                1.3801437396250196,
                -3.0788674454550566
            ]
        },
        {
            "positions": [
                -1.4950907102942421,
                -1.491592393050626,
                1.8591097621070947,
                -0.56047877518611,
                1.3584400813635908,
                -2.9460403692943347
            ]
        },
        {
            "positions": [
                -1.439641328763262,
                -1.5041030475464874,
                1.7670518683167211,
                -0.6252678584835458,
                1.3367364231021623,
                -2.8132132931336127
            ]
        },
        {
            "positions": [
                -1.384191947232282,
                -1.5166137020423487,
                1.6749939745263478,
                -0.6900569417809816,
                1.3150327648407336,
                -2.6803862169728907
            ]
        },
        {
            "positions": [
                -1.3287425657013017,
                -1.5291243565382102,
                1.5829360807359745,
                -0.7548460250784175,
                1.2933291065793049,
                -2.547559140812169
            ]
        },
        {
            "positions": [
                -1.2732931841703214,
                -1.5416350110340715,
                1.4908781869456011,
                -0.8196351083758533,
                1.2716254483178762,
                -2.414732064651447
            ]
        },
        {
            "positions": [
                -1.2178438026393412,
                -1.5541456655299328,
                1.3988202931552278,
                -0.884424191673289,
                1.2499217900564477,
                -2.281904988490725
            ]
        },
        {
            "positions": [
                -1.162394421108361,
                -1.5666563200257941,
                1.3067623993648543,
                -0.9492132749707248,
                1.228218131795019,
                -2.1490779123300032
            ]
        },
        {
            "positions": [
                -1.2867497257674498,
                -1.5654921159142567,
                1.3698943569262547,
                -1.0010864131172361,
                1.1376211531865426,
                -2.184437129649408
            ]
        },
        {
            "positions": [
                -1.4111050304265387,
                -1.5643279118027196,
                1.433026314487655,
                -1.0529595512637475,
                1.0470241745780662,
                -2.2197963469688125
            ]
        },
        {
            "positions": [
                -1.5354603350856275,
                -1.5631637076911822,
                1.4961582720490554,
                -1.1048326894102587,
                0.95642719596959,
                -2.2551555642882173
            ]
        },
        {
            "positions": [
                -1.6598156397447164,
                -1.5619995035796448,
                1.5592902296104558,
                -1.15670582755677,
                0.8658302173611137,
                -2.290514781607622
            ]
        },
        {
            "positions": [
                -1.7841709444038052,
                -1.5608352994681076,
                1.622422187171856,
                -1.2085789657032815,
                0.7752332387526374,
                -2.325873998927027
            ]
        },
        {
            "positions": [
                -1.908526249062894,
                -1.5596710953565702,
                1.6855541447332565,
                -1.2604521038497927,
                0.6846362601441611,
                -2.3612332162464313
            ]
        },
        {
            "positions": [
                -2.0328815537219826,
                -1.5585068912450328,
                1.748686102294657,
                -1.312325241996304,
                0.5940392815356849,
                -2.396592433565836
            ]
        },
        {
            "positions": [
                -2.1572368583810717,
                -1.5573426871334954,
                1.8118180598560572,
                -1.3641983801428155,
                0.5034423029272084,
                -2.431951650885241
            ]
        },
        {
            "positions": [
                -2.2815921630401608,
                -1.5561784830219583,
                1.8749500174174578,
                -1.4160715182893266,
                0.4128453243187321,
                -2.4673108682046454
            ]
        },
        {
            "positions": [
                -2.4059474676992494,
                -1.5550142789104209,
                1.938081974978858,
                -1.467944656435838,
                0.3222483457102558,
                -2.5026700855240502
            ]
        },
        {
            "positions": [
                -2.4434230731723785,
                -1.5319980961786617,
                2.002685600137938,
                -1.413246700344045,
                0.3005130223074466,
                -2.6194116499592557
            ]
        },
        {
            "positions": [
                -2.480898678645508,
                -1.5089819134469022,
                2.0672892252970176,
                -1.3585487442522521,
                0.27877769890463733,
                -2.7361532143944616
            ]
        },
        {
            "positions": [
                -2.4960069937178173,
                -1.453502855172626,
                2.0976523119958252,
                -1.2489370302766176,
                0.30916362377034545,
                -2.840304072263073
            ]
        },
        {
            "positions": [
                -2.511115308790126,
                -1.3980237968983495,
                2.128015398694633,
                -1.1393253163009833,
                0.3395495486360536,
                -2.944454930131684
            ]
        },
        {
            "positions": [
                -2.5262236238624354,
                -1.3425447386240732,
                2.1583784853934405,
                -1.0297136023253488,
                0.3699354735017617,
                -3.0486057880002955
            ]
        },
        {
            "positions": [
                -2.509058504494507,
                -1.2828148476159895,
                2.1084311114098253,
                -0.9631320960925093,
                0.4689466205148797,
                -3.082025082820684
            ]
        },
        {
            "positions": [
                -2.4918933851265783,
                -1.223084956607906,
                2.0584837374262106,
                -0.8965505898596697,
                0.5679577675279976,
                -3.115444377641072
            ]
        },
        {
            "positions": [
                -2.47472826575865,
                -1.1633550655998224,
                2.0085363634425955,
                -0.8299690836268301,
                0.6669689145411156,
                -3.1488636724614603
            ]
        }
    ]
}