{
    "goal": {
        "global_pose": {
            "orientation": {
                "w": 0.7047431468963623,
                "x": -0.7094548344612122,
                "y": 0.0024358443915843964,
                "z": -0.0022348060738295317
            },
            "position": {
                "x": 0.6094750761985779,
                "y": 0.3671506643295288,
                "z": 0.19426114857196808
            }
        },
        "name": "move_to_magneteinheit_A"
    },
    "id": "RRT_move_to_magneteinheit_A_121",
    "joint_names": [
        "shoulder_pan_joint",
        "shoulder_lift_joint",
        "elbow_joint",
        "wrist_1_joint",
        "wrist_2_joint",
        "wrist_3_joint"
    ],
    "metrics": {
        "cart_traj_len": 3.1897078350656494,
        "distance_elbow_joint": 3.912862878881477,
        "distance_shoulder_lift_joint": 0.46733732658212634,
        "distance_shoulder_pan_joint": 2.962634596547757,
        "distance_wrist_1_joint": 3.659156844757484,
        "distance_wrist_2_joint": 2.372784811138555,
        "distance_wrist_3_joint": 1.664779651273677,
        "smoothness": 0.2707730351417976,
        "time": 0.20172475,
        "traj_len": 3.8780866557080795,
        "weighted_distance": 4.939742611475264
    },
    "planner": "RRT",
    "start": {
        "state": {
            "elbow_joint": -1.9196185241190666,
            "shoulder_lift_joint": -1.2443396400964142,
            "shoulder_pan_joint": 2.6996025414629847,
            "wrist_1_joint": -1.5485510000780065,
            "wrist_2_joint": -1.5709468930060704,
            "wrist_3_joint": 0.4420197071253992
        }
    },
    "waypoints": [
        {
            "positions": [
                2.6996025414629847,
                -1.2443396400964142,
                -1.9196185241190666,
                -1.5485510000780065,
                -1.5709468930060704,
                0.4420197071253992
            ]
        },
        {
            "positions": [
                2.5970216413325384,
                -1.2419862146051115,
                -1.8359802411231225,
                -1.4465838762483383,
                -1.5002796615374925,
                0.46484572204973545
            ]
        },
        {
            "positions": [
                2.4944407412020926,
                -1.2396327891138086,
                -1.7523419581271784,
                -1.34461675241867,
                -1.4296124300689148,
                0.4876717369740718
            ]
        },
        {
            "positions": [
                2.3918598410716463,
                -1.237279363622506,
                -1.6687036751312343,
                -1.242649628589002,
                -1.358945198600337,
                0.5104977518984081
            ]
        },
        {
            "positions": [
                2.2892789409412004,
                -1.234925938131203,
                -1.58506539213529,
                -1.1406825047593339,
                -1.288277967131759,
                0.5333237668227444
            ]
        },
        {
            "positions": [
                2.186698040810754,
                -1.2325725126399003,
                -1.5014271091393459,
                -1.0387153809296656,
                -1.2176107356631811,
                0.5561497817470806
            ]
        },
        {
            "positions": [
                2.0841171406803083,
                -1.2302190871485976,
                -1.4177888261434017,
                -0.9367482570999975,
                -1.1469435041946034,
                0.578975796671417
            ]
        },
        {
            "positions": [
                1.981536240549862,
                -1.2278656616572947,
                -1.3341505431474574,
                -0.8347811332703293,
                -1.0762762727260256,
                0.6018018115957533
            ]
        },
        {
            "positions": [
                1.8789553404194161,
                -1.225512236165992,
                -1.2505122601515133,
                -0.7328140094406611,
                -1.0056090412574479,
                0.6246278265200895
            ]
        },
        {
            "positions": [
                1.7763744402889698,
                -1.2231588106746891,
                -1.1668739771555692,
                -0.630846885610993,
                -0.93494180978887,
                0.6474538414444259
            ]
        },
        {
            "positions": [
                1.6737935401585238,
                -1.2208053851833864,
                -1.083235694159625,
                -0.5288797617813248,
                -0.8642745783202921,
                0.6702798563687622
            ]
        },
        {
            "positions": [
                1.5712126400280777,
                -1.2184519596920838,
                -0.999597411163681,
                -0.42691263795165657,
                -0.7936073468517143,
                0.6931058712930984
            ]
        },
        {
            "positions": [
                1.4686317398976316,
                -1.2160985342007808,
                -0.9159591281677368,
                -0.3249455141219886,
                -0.7229401153831365,
                0.7159318862174349
            ]
        },
        {
            "positions": [
                1.3660508397671856,
                -1.2137451087094782,
                -0.8323208451717925,
                -0.22297839029232036,
                -0.6522728839145586,
                0.7387579011417711
            ]
        },
        {
            "positions": [
                1.2634699396367395,
                -1.2113916832181753,
                -0.7486825621758484,
                -0.12101126646265215,
                -0.5816056524459808,
                0.7615839160661073
            ]
        },
        {
            "positions": [
                1.1608890395062932,
                -1.2090382577268726,
                -0.665044279179904,
                -0.019044142632983707,
                -0.5109384209774028,
                0.7844099309904438
            ]
        },
        {
            "positions": [
                1.0583081393758473,
                -1.2066848322355699,
                -0.5814059961839602,
                0.08292298119668429,
                -0.44027118950882516,
                0.80723594591478
            ]
        },
        {
            "positions": [
                0.955727239245401,
                -1.204331406744267,
                -0.4977677131880158,
                0.1848901050263525,
                -0.36960395804024726,
                0.8300619608391163
            ]
        },
        {
            "positions": [
                0.853146339114955,
                -1.2019779812529643,
                -0.4141294301920717,
                0.2868572288560205,
                -0.2989367265716696,
                0.8528879757634527
            ]
        },
        {
            "positions": [
                0.7505654389845089,
                -1.1996245557616614,
                -0.3304911471961276,
                0.38882435268568893,
                -0.22826949510309147,
                0.8757139906877889
            ]
        },
        {
            "positions": [
                0.6479845388540628,
                -1.1972711302703587,
                -0.24685286420018349,
                0.49079147651535693,
                -0.1576022636345138,
                0.8985400056121252
            ]
        },
        {
            "positions": [
                0.5454036387236165,
                -1.1949177047790558,
                -0.16321458120423915,
                0.5927586003450254,
                -0.0869350321659359,
                0.9213660205364615
            ]
        },
        {
            "positions": [
                0.4428227385931707,
                -1.192564279287753,
                -0.07957629820829526,
                0.6947257241746934,
                -0.016267800697358226,
                0.9441920354607978
            ]
        },
        {
            "positions": [
                0.3402418384627244,
                -1.1902108537964504,
                0.0040619847876490756,
                0.7966928480043614,
                0.05439943077121967,
                0.9670180503851341
            ]
        },
        {
            "positions": [
                0.23766093833227853,
                -1.1878574283051475,
                0.08770026778359297,
                0.8986599718340293,
                0.12506666223979734,
                0.9898440653094704
            ]
        },
        {
            "positions": [
                0.13508003820183223,
                -1.1855040028138448,
                0.17133855077953752,
                1.0006270956636978,
                0.19573389370837546,
                1.0126700802338067
            ]
        },
        {
            "positions": [
                0.03249913807138638,
                -1.183150577322542,
                0.25497683377548164,
                1.1025942194933658,
                0.26640112517695314,
                1.035496095158143
            ]
        },
        {
            "positions": [
                -0.07008176205905993,
                -1.1807971518312392,
                0.33861511677142575,
                1.204561343323034,
                0.33706835664553103,
                1.0583221100824793
            ]
        },
        {
            "positions": [
                -0.05899811423828381,
                -1.1505875992066126,
                0.47359397737885744,
                1.2782896288831878,
                0.30038757540160094,
                0.9699283497635406
            ]
        },
        {
            "positions": [
                -0.047914466417507684,
                -1.120378046581986,
                0.6085728379862891,
                1.3520179144433417,
                0.26370679415767084,
                0.881534589444602
            ]
        },
        {
            "positions": [
                -0.03683081859673157,
                -1.0901684939573593,
                0.7435516985937207,
                1.4257462000034955,
                0.2270260129137408,
                0.7931408291256632
            ]
        },
        {
            "positions": [
                -0.025747170775955446,
                -1.0599589413327326,
                0.8785305592011524,
                1.4994744855636495,
                0.1903452316698107,
                0.7047470688067246
            ]
        },
        {
            "positions": [
                -0.01466352295517933,
                -1.0297493887081062,
                1.0135094198085839,
                1.5732027711238032,
                0.15366445042588064,
                0.6163533084877859
            ]
        },
        {
            "positions": [
                -0.003579875134403207,
                -0.9995398360834795,
                1.1484882804160157,
                1.646931056683957,
                0.11698366918195058,
                0.5279595481688472
            ]
        },
        {
            "positions": [
                0.007503772686372909,
                -0.9693302834588529,
                1.2834671410234475,
                1.7206593422441108,
                0.08030288793802048,
                0.4395657878499084
            ]
        },
        {
            "positions": [
                0.01858742050714904,
                -0.9391207308342262,
                1.418446001630879,
                1.7943876278042648,
                0.04362210669409039,
                0.35117202753096965
            ]
        },
        {
            "positions": [
                0.029671068327925168,
                -0.9089111782095995,
                1.5534248622383109,
                1.8681159133644187,
                0.006941325450160296,
                0.262778267212031
            ]
        },
        {
            "positions": [
                0.04075471614870127,
                -0.878701625584973,
                1.6884037228457422,
                1.9418441989245725,
                -0.029739455793769742,
                0.17438450689309237
            ]
        },
        {
            "positions": [
                0.0518383639694774,
                -0.8484920729603463,
                1.823382583453174,
                2.0155724844847263,
                -0.06642023703769981,
                0.0859907465741536
            ]
        },
        {
            "positions": [
                0.0873534474680637,
                -0.8127471932373171,
                1.908313469107792,
                1.9680558043873504,
                -0.09706072093956143,
                0.04791780417001838
            ]
        },
        {
            "positions": [
                0.12286853096664999,
                -0.7770023135142878,
                1.9932443547624101,
                1.9205391242899745,
                -0.12770120484142305,
                0.009844861765883155
            ]
        }
    ]
}