{
    "goal": {
        "global_pose": {
            "orientation": {
                "w": -0.00223480608172531,
                "x": 0.0024358444001904467,
                "y": 0.7094548369677653,
                "z": -0.704743149386269
            },
            "position": {
                "x": -0.37947507619857795,
                "y": -0.6371506643295288,
                "z": 0.19426114857196808
            }
        },
        "name": "move_to_magneteinheit_C"
    },
    "id": "RRT_move_to_magneteinheit_C_96",
    "joint_names": [
        "shoulder_pan_joint",
        "shoulder_lift_joint",
        "elbow_joint",
        "wrist_1_joint",
        "wrist_2_joint",
        "wrist_3_joint"
    ],
    "metrics": {
        "cart_traj_len": 0.7604987976040584,
        "distance_elbow_joint": 0.9167123540682964,
        "distance_shoulder_lift_joint": 0.3854511697643732,
        "distance_shoulder_pan_joint": 1.0104621798245164,
        "distance_wrist_1_joint": 0.3239601463870292,
        "distance_wrist_2_joint": 1.3477420767617474,
        "distance_wrist_3_joint": 0.11180405641832003,
        "smoothness": 1.5537429278666153,
        "time": 1.398853458,
        "traj_len": 2.023890309088979,
        "weighted_distance": 2.4477422901951296
    },
    "planner": "RRT",
    "start": {
        "state": {
            "elbow_joint": 1.9565354010623817,
            "shoulder_lift_joint": -1.4165861575791021,
            "shoulder_pan_joint": -1.6717766225146293,
            "wrist_1_joint": -0.5286633292919765,
            "wrist_2_joint": 1.472756589071564,
            "wrist_3_joint": -3.1238370188695823
        }
    },
    "waypoints": [
        {
            "positions": [
                -1.6717766225146293,
                -1.4165861575791021,
                1.9565354010623817,
                -0.5286633292919765,
                1.472756589071564,
                -3.1238370188695823
            ]
        },
        {
            "positions": [
                -1.7089917348685428,
                -1.4307735399339694,
                2.0079047744408527,
                -0.5221681491411998,
                1.409878089731293,
                -3.1294951204548562
            ]
        },
        {
            "positions": [
                -1.810562102719763,
                -1.4411314761207024,
                2.094694595598571,
                -0.5268392915744227,
                1.266414275119651,
                -3.1403796656184255
            ]
        },
        {
            "positions": [
                -1.9121324705709832,
                -1.4514894123074351,
                2.1814844167562892,
                -0.5315104340076455,
                1.1229504605080092,
                -3.151264210781995
            ]
        },
        {
            "positions": [
                -2.0137028384222035,
                -1.461847348494168,
                2.268274237914008,
                -0.5361815764408684,
                0.9794866458963671,
                -3.1621487559455645
            ]
        },
        {
            "positions": [
                -2.1152732062734234,
                -1.4722052846809008,
                2.3550640590717262,
                -0.5408527188740913,
                0.8360228312847252,
                -3.173033301109134
            ]
        },
        {
            "positions": [
                -2.2168435741246437,
                -1.4825632208676338,
                2.4418538802294445,
                -0.5455238613073141,
                0.6925590166730833,
                -3.183917846272703
            ]
        },
        {
            "positions": [
                -2.3071065481147075,
                -1.4229444742424362,
                2.37688230864232,
                -0.5633773047975352,
                0.6187119506554699,
                -3.172342806200433
            ]
        },
        {
            "positions": [
                -2.3973695221047713,
                -1.3633257276172388,
                2.3119107370551957,
                -0.5812307482877564,
                0.5448648846378565,
                -3.1607677661281626
            ]
        },
        {
            "positions": [
                -2.487632496094835,
                -1.3037069809920414,
                2.2469391654680715,
                -0.5990841917779777,
                0.47101781862024317,
                -3.149192726055892
            ]
        },
        {
            "positions": [
                -2.577895470084899,
                -1.2440882343668438,
                2.181967593880947,
                -0.6169376352681988,
                0.3971707526026298,
                -3.137617685983622
            ]
        },
        {
            "positions": [
                -2.543114359333483,
                -1.2170885277084933,
                2.1247983976967015,
                -0.6911694619712833,
                0.48788949936690085,
                -3.1394253755589947
            ]
        },
        {
            "positions": [
                -2.5083332485820677,
                -1.1900888210501428,
                2.067629201512456,
                -0.7654012886743677,
                0.5786082461311719,
                -3.1412330651343674
            ]
        },
        {
            "positions": [
                -2.473552137830652,
                -1.1630891143917923,
                2.010460005328211,
                -0.8396331153774523,
                0.669326992895443,
                -3.14304075470974
            ]
        }
    ]
}