{
    "goal": {
        "global_pose": {
            "orientation": {
                "w": 0.5084816262002911,
                "x": -0.4908360881923452,
                "y": 0.5182115481033761,
                "z": -0.48164630358495003
            },
            "position": {
                "x": 0.5540239810943604,
                "y": -0.46912469901144505,
                "z": 0.16403168439865112
            }
        },
        "name": "move_to_storage_B"
    },
    "id": "RRT_move_to_storage_B_141",
    "joint_names": [
        "shoulder_pan_joint",
        "shoulder_lift_joint",
        "elbow_joint",
        "wrist_1_joint",
        "wrist_2_joint",
        "wrist_3_joint"
    ],
    "metrics": {
        "cart_traj_len": 0.8094261227832804,
        "distance_elbow_joint": 0.3482708247248856,
        "distance_shoulder_lift_joint": 0.4576426029413161,
        "distance_shoulder_pan_joint": 0.4907173237646453,
        "distance_wrist_1_joint": 2.9879642410838345,
        "distance_wrist_2_joint": 2.702844281062862,
        "distance_wrist_3_joint": 3.137677055444247,
        "smoothness": 0.04645893882587971,
        "time": 0.08173793900000001,
        "traj_len": 3.1819987946292168,
        "weighted_distance": 4.700136057823962
    },
    "planner": "RRT",
    "start": {
        "state": {
            "elbow_joint": 1.664937868594044,
            "shoulder_lift_joint": -0.661644460510453,
            "shoulder_pan_joint": -0.9139846352900073,
            "wrist_1_joint": 2.146753192139373,
            "wrist_2_joint": -2.2341966793290973,
            "wrist_3_joint": 0.005466555786416001
        }
    },
    "waypoints": [
        {
            "positions": [
                -0.9139846352900073,
                -0.661644460510453,
                1.664937868594044,
                2.146753192139373,
                -2.2341966793290973,
                0.005466555786416001
            ]
        },
        {
            "positions": [
                -0.8366339765150612,
                -0.7646629024799103,
                1.6777798455239985,
                2.103793831484283,
                -2.1563110023311287,
                -0.010894287117946419
            ]
        },
        {
            "positions": [
                -0.7592833177401153,
                -0.8676813444493675,
                1.690621822453953,
                2.060834470829193,
                -2.0784253253331597,
                -0.027255130022308834
            ]
        },
        {
            "positions": [
                -0.77328398466573,
                -0.8781649160744676,
                1.704062942073327,
                1.9399159075052905,
                -1.9722972867053712,
                -0.15662827042378893
            ]
        },
        {
            "positions": [
                -0.7872846515913448,
                -0.8886484876995676,
                1.717504061692701,
                1.8189973441813883,
                -1.8661692480775827,
                -0.28600141082526903
            ]
        },
        {
            "positions": [
                -0.8012853185169594,
                -0.8991320593246677,
                1.730945181312075,
                1.698078780857486,
                -1.7600412094497941,
                -0.41537455122674916
            ]
        },
        {
            "positions": [
                -0.8152859854425741,
                -0.9096156309497678,
                1.744386300931449,
                1.577160217533584,
                -1.6539131708220056,
                -0.5447476916282292
            ]
        },
        {
            "positions": [
                -0.8292866523681889,
                -0.9200992025748679,
                1.757827420550823,
                1.4562416542096814,
                -1.547785132194217,
                -0.6741208320297094
            ]
        },
        {
            "positions": [
                -0.8432873192938035,
                -0.9305827741999679,
                1.771268540170197,
                1.3353230908857794,
                -1.4416570935664286,
                -0.8034939724311895
            ]
        },
        {
            "positions": [
                -0.8572879862194183,
                -0.941066345825068,
                1.7847096597895713,
                1.2144045275618771,
                -1.33552905493864,
                -0.9328671128326697
            ]
        },
        {
            "positions": [
                -0.871288653145033,
                -0.951549917450168,
                1.7981507794089453,
                1.093485964237975,
                -1.2294010163108515,
                -1.0622402532341495
            ]
        },
        {
            "positions": [
                -0.8852893200706478,
                -0.9620334890752681,
                1.8115918990283193,
                0.9725674009140728,
                -1.123272977683063,
                -1.1916133936356297
            ]
        },
        {
            "positions": [
                -0.8992899869962625,
                -0.9725170607003681,
                1.8250330186476933,
                0.8516488375901703,
                -1.0171449390552745,
                -1.3209865340371099
            ]
        },
        {
            "positions": [
                -0.9132906539218771,
                -0.9830006323254682,
                1.8384741382670673,
                0.7307302742662682,
                -0.911016900427486,
                -1.4503596744385898
            ]
        },
        {
            "positions": [
                -0.9272913208474919,
                -0.9934842039505682,
                1.8519152578864413,
                0.609811710942366,
                -0.8048888617996974,
                -1.57973281484007
            ]
        },
        {
            "positions": [
                -0.9412919877731066,
                -1.0039677755756684,
                1.8653563775058153,
                0.4888931476184639,
                -0.6987608231719089,
                -1.70910595524155
            ]
        },
        {
            "positions": [
                -0.9552926546987213,
                -1.0144513472007683,
                1.8787974971251893,
                0.3679745842945614,
                -0.5926327845441204,
                -1.8384790956430304
            ]
        },
        {
            "positions": [
                -0.969293321624336,
                -1.0249349188258685,
                1.8922386167445633,
                0.24705602097065915,
                -0.48650474591633186,
                -1.9678522360445103
            ]
        },
        {
            "positions": [
                -0.9832939885499508,
                -1.0354184904509687,
                1.9056797363639373,
                0.1261374576467571,
                -0.38037670728854334,
                -2.0972253764459903
            ]
        },
        {
            "positions": [
                -0.9972946554755655,
                -1.0459020620760686,
                1.9191208559833113,
                0.005218894322854606,
                -0.2742486686607548,
                -2.2265985168474707
            ]
        },
        {
            "positions": [
                -1.0112953224011803,
                -1.0563856337011688,
                1.9325619756026855,
                -0.11569966900104722,
                -0.1681206300329663,
                -2.3559716572489506
            ]
        },
        {
            "positions": [
                -1.025295989326795,
                -1.0668692053262687,
                1.9460030952220593,
                -0.2366182323249495,
                -0.061992591405177766,
                -2.4853447976504306
            ]
        },
        {
            "positions": [
                -1.0392966562524095,
                -1.0773527769513689,
                1.9594442148414335,
                -0.3575367956488522,
                0.04413544722261076,
                -2.614717938051911
            ]
        },
        {
            "positions": [
                -1.0532973231780245,
                -1.0878363485764688,
                1.9728853344608075,
                -0.47845535897275404,
                0.15026348585039928,
                -2.744091078453391
            ]
        },
        {
            "positions": [
                -1.067297990103639,
                -1.098319920201569,
                1.9863264540801815,
                -0.5993739222966563,
                0.2563915244781878,
                -2.873464218854871
            ]
        },
        {
            "positions": [
                -1.0812986570292538,
                -1.1088034918266692,
                1.9997675736995555,
                -0.7202924856205586,
                0.36251956310597633,
                -3.0028373592563513
            ]
        },
        {
            "positions": [
                -1.0952993239548685,
                -1.119287063451769,
                2.0132086933189295,
                -0.8412110489444606,
                0.46864760173376485,
                -3.1322104996578313
            ]
        }
    ]
}