{
    "goal": {
        "global_pose": {
            "orientation": {
                "w": -0.00223480608172531,
                "x": 0.0024358444001904467,
                "y": 0.7094548369677653,
                "z": -0.704743149386269
            },
            "position": {
                "x": -0.37947507619857795,
                "y": -0.6371506643295288,
                "z": 0.19426114857196808
            }
        },
        "name": "move_to_magneteinheit_C"
    },
    "id": "RRT_move_to_magneteinheit_C_82",
    "joint_names": [
        "shoulder_pan_joint",
        "shoulder_lift_joint",
        "elbow_joint",
        "wrist_1_joint",
        "wrist_2_joint",
        "wrist_3_joint"
    ],
    "metrics": {
        "cart_traj_len": 2.076328289879968,
        "distance_elbow_joint": 1.0405653879275762,
        "distance_shoulder_lift_joint": 1.0279447965085042,
        "distance_shoulder_pan_joint": 1.9468996023553202,
        "distance_wrist_1_joint": 1.5609728464504937,
        "distance_wrist_2_joint": 1.1111430892784284,
        "distance_wrist_3_joint": 3.1550232559507077,
        "smoothness": 0.47721648708335046,
        "time": 3.647423968,
        "traj_len": 3.137283694292091,
        "weighted_distance": 4.338745374656292
    },
    "planner": "RRT",
    "start": {
        "state": {
            "elbow_joint": 1.9565354010623817,
            "shoulder_lift_joint": -1.4165861575791021,
            "shoulder_pan_joint": -1.6717766225146293,
            "wrist_1_joint": -0.5286633292919765,
            "wrist_2_joint": 1.472756589071564,
            "wrist_3_joint": -3.1238370188695823
        }
    },
    "waypoints": [
        {
            "positions": [
                -1.6717766225146293,
                -1.4165861575791021,
                1.9565354010623817,
                -0.5286633292919765,
                1.472756589071564,
                -3.1238370188695823
            ]
        },
        {
            "positions": [
                -1.5925910067002946,
                -1.3887778911720414,
                1.9264694999069771,
                -0.505286092181876,
                1.4040684226131246,
                -2.968525453049396
            ]
        },
        {
            "positions": [
                -1.51340539088596,
                -1.360969624764981,
                1.8964035987515726,
                -0.4819088550717756,
                1.3353802561546853,
                -2.813213887229209
            ]
        },
        {
            "positions": [
                -1.4342197750716252,
                -1.3331613583579203,
                1.866337697596168,
                -0.4585316179616752,
                1.2666920896962461,
                -2.6579023214090225
            ]
        },
        {
            "positions": [
                -1.3550341592572905,
                -1.3053530919508598,
                1.8362717964407635,
                -0.4351543808515747,
                1.1980039232378068,
                -2.5025907555888356
            ]
        },
        {
            "positions": [
                -1.2758485434429558,
                -1.2775448255437991,
                1.806205895285359,
                -0.4117771437414743,
                1.1293157567793675,
                -2.347279189768649
            ]
        },
        {
            "positions": [
                -1.2225245898794608,
                -1.258920673778681,
                1.7856620731529749,
                -0.396207337792963,
                1.0826040589445762,
                -2.242087466015923
            ]
        },
        {
            "positions": [
                -1.2028949143942902,
                -1.2668112278387618,
                1.7393517099129634,
                -0.419581277706041,
                0.978589979096944,
                -2.0812108503337288
            ]
        },
        {
            "positions": [
                -1.1832652389091196,
                -1.2747017818988424,
                1.6930413466729521,
                -0.44295521761911893,
                0.8745758992493118,
                -1.920334234651535
            ]
        },
        {
            "positions": [
                -1.1636355634239492,
                -1.282592335958923,
                1.6467309834329407,
                -0.46632915753219695,
                0.7705618194016796,
                -1.759457618969341
            ]
        },
        {
            "positions": [
                -1.1440058879387787,
                -1.2904828900190037,
                1.6004206201929292,
                -0.4897030974452749,
                0.6665477395540473,
                -1.598581003287147
            ]
        },
        {
            "positions": [
                -1.2720260985686245,
                -1.3794404432356,
                1.58871257981114,
                -0.6102108600050111,
                0.630328678525421,
                -1.600451816619136
            ]
        },
        {
            "positions": [
                -1.40004630919847,
                -1.468397996452196,
                1.5770045394293506,
                -0.7307186225647473,
                0.5941096174967946,
                -1.6023226299511248
            ]
        },
        {
            "positions": [
                -1.5280665198283159,
                -1.557355549668792,
                1.565296499047561,
                -0.8512263851244835,
                0.5578905564681682,
                -1.6041934432831138
            ]
        },
        {
            "positions": [
                -1.6560867304581617,
                -1.6463131028853883,
                1.5535884586657718,
                -0.9717341476842196,
                0.5216714954395418,
                -1.6060642566151027
            ]
        },
        {
            "positions": [
                -1.7609257573746826,
                -1.6402522036307627,
                1.615161520087787,
                -1.0175636412456501,
                0.5316141240898011,
                -1.7605842854682916
            ]
        },
        {
            "positions": [
                -1.8657647842912035,
                -1.634191304376137,
                1.676734581509802,
                -1.0633931348070806,
                0.5415567527400605,
                -1.9151043143214805
            ]
        },
        {
            "positions": [
                -1.9706038112077242,
                -1.628130405121511,
                1.7383076429318172,
                -1.109222628368511,
                0.55149938139032,
                -2.0696243431746693
            ]
        },
        {
            "positions": [
                -2.0754428381242453,
                -1.6220695058668855,
                1.799880704353832,
                -1.1550521219299414,
                0.5614420100405793,
                -2.224144372027858
            ]
        },
        {
            "positions": [
                -2.180281865040766,
                -1.6160086066122599,
                1.8614537657758472,
                -1.200881615491372,
                0.5713846386908386,
                -2.378664400881047
            ]
        },
        {
            "positions": [
                -2.2851208919572867,
                -1.609947707357634,
                1.9230268271978623,
                -1.2467111090528022,
                0.581327267341098,
                -2.533184429734236
            ]
        },
        {
            "positions": [
                -2.3899599188738074,
                -1.6038868081030082,
                1.9845998886198775,
                -1.2925406026142328,
                0.5912698959913574,
                -2.687704458587425
            ]
        },
        {
            "positions": [
                -2.4947989457903286,
                -1.5978259088483826,
                2.0461729500418926,
                -1.3383700961756633,
                0.6012125246416167,
                -2.842224487440614
            ]
        },
        {
            "positions": [
                -2.50661190381528,
                -1.554525704892218,
                2.0744427582169136,
                -1.3280448755539684,
                0.641457773887269,
                -3.013457500834962
            ]
        },
        {
            "positions": [
                -2.5184248618402307,
                -1.5112255009360536,
                2.1027125663919346,
                -1.3177196549322736,
                0.6817030231329213,
                -3.1846905142293105
            ]
        },
        {
            "positions": [
                -2.5035215638808914,
                -1.3952924070520398,
                2.0732144537903334,
                -1.1624851031571435,
                0.6816942004819123,
                -3.1701379377539407
            ]
        },
        {
            "positions": [
                -2.4886182659215526,
                -1.279359313168026,
                2.0437163411887322,
                -1.0072505513820134,
                0.6816853778309034,
                -3.1555853612785714
            ]
        },
        {
            "positions": [
                -2.4737149679622132,
                -1.1634262192840124,
                2.014218228587131,
                -0.8520159996068831,
                0.6816765551798945,
                -3.1410327848032016
            ]
        }
    ]
}