{
    "goal": {
        "global_pose": {
            "orientation": {
                "w": -0.4816463035849501,
                "x": 0.5182115481033762,
                "y": 0.4908360881923453,
                "z": -0.5084816262002911
            },
            "position": {
                "x": -0.8240239810943604,
                "y": -0.300875300988555,
                "z": 0.16403168439865112
            }
        },
        "name": "move_to_storage_C"
    },
    "id": "RRT_move_to_storage_C_10",
    "joint_names": [
        "shoulder_pan_joint",
        "shoulder_lift_joint",
        "elbow_joint",
        "wrist_1_joint",
        "wrist_2_joint",
        "wrist_3_joint"
    ],
    "metrics": {
        "cart_traj_len": 0.575996776893363,
        "distance_elbow_joint": 0.2586705608869182,
        "distance_shoulder_lift_joint": 0.18851202119547605,
        "distance_shoulder_pan_joint": 0.4949874084753918,
        "distance_wrist_1_joint": 0.08363083337015909,
        "distance_wrist_2_joint": 1.060747937810599,
        "distance_wrist_3_joint": 0.06718256479228435,
        "smoothness": 2.5376526478085547e-16,
        "time": 0.034785678,
        "traj_len": 1.4675596500758763,
        "weighted_distance": 1.852694045787419
    },
    "planner": "RRT",
    "start": {
        "state": {
            "elbow_joint": 2.010868314990456,
            "shoulder_lift_joint": -1.1634956873337592,
            "shoulder_pan_joint": -2.4736205022346125,
            "wrist_1_joint": -0.8367026794202681,
            "wrist_2_joint": 0.6746043897044499,
            "wrist_3_joint": -3.1496632123970403
        }
    },
    "waypoints": [
        {
            "positions": [
                -2.4736205022346125,
                -1.1634956873337592,
                2.010868314990456,
                -0.8367026794202681,
                0.6746043897044499,
                -3.1496632123970403
            ]
        },
        {
            "positions": [
                -2.5561184036471776,
                -1.1320770171345131,
                1.9677565548426361,
                -0.8227642071919082,
                0.851395712672883,
                -3.1384661182649927
            ]
        },
        {
            "positions": [
                -2.638616305059743,
                -1.100658346935267,
                1.9246447946948164,
                -0.8088257349635484,
                1.0281870356413163,
                -3.1272690241329455
            ]
        },
        {
            "positions": [
                -2.7211142064723086,
                -1.069239676736021,
                1.8815330345469967,
                -0.7948872627351886,
                1.2049783586097496,
                -3.1160719300008983
            ]
        },
        {
            "positions": [
                -2.8036121078848737,
                -1.0378210065367752,
                1.838421274399177,
                -0.7809487905068287,
                1.3817696815781826,
                -3.1048748358688507
            ]
        },
        {
            "positions": [
                -2.8861100092974388,
                -1.0064023363375292,
                1.7953095142513573,
                -0.7670103182784689,
                1.5585610045466158,
                -3.093677741736803
            ]
        },
        {
            "positions": [
                -2.9686079107100043,
                -0.9749836661382831,
                1.7521977541035376,
                -0.753071846050109,
                1.7353523275150489,
                -3.082480647604756
            ]
        }
    ]
}