{
    "goal": {
        "global_pose": {
            "orientation": {
                "w": 0.5084816262002911,
                "x": -0.4908360881923452,
                "y": 0.5182115481033761,
                "z": -0.48164630358495003
            },
            "position": {
                "x": 0.5540239810943604,
                "y": -0.46912469901144505,
                "z": 0.16403168439865112
            }
        },
        "name": "move_to_storage_B"
    },
    "id": "RRT_move_to_storage_B_15",
    "joint_names": [
        "shoulder_pan_joint",
        "shoulder_lift_joint",
        "elbow_joint",
        "wrist_1_joint",
        "wrist_2_joint",
        "wrist_3_joint"
    ],
    "metrics": {
        "cart_traj_len": 2.590619563547342,
        "distance_elbow_joint": 2.6380102167901884,
        "distance_shoulder_lift_joint": 0.46078023435551385,
        "distance_shoulder_pan_joint": 2.4563152556626253,
        "distance_wrist_1_joint": 2.9997491725279897,
        "distance_wrist_2_joint": 2.701536183518133,
        "distance_wrist_3_joint": 4.691819484744064,
        "smoothness": 0.33772988684953703,
        "time": 0.106349742,
        "traj_len": 3.993521071385315,
        "weighted_distance": 5.570739167573077
    },
    "planner": "RRT",
    "start": {
        "state": {
            "elbow_joint": 1.664937868594044,
            "shoulder_lift_joint": -0.661644460510453,
            "shoulder_pan_joint": -0.9139846352900073,
            "wrist_1_joint": 2.146753192139373,
            "wrist_2_joint": -2.2341966793290973,
            "wrist_3_joint": 0.005466555786416001
        }
    },
    "waypoints": [
        {
            "positions": [
                -0.9139846352900073,
                -0.661644460510453,
                1.664937868594044,
                2.146753192139373,
                -2.2341966793290973,
                0.005466555786416001
            ]
        },
        {
            "positions": [
                -0.8265181552407199,
                -0.6778710662216512,
                1.5770864655264558,
                2.081464395017061,
                -2.158446140028982,
                0.06535532859443148
            ]
        },
        {
            "positions": [
                -0.7390516751914324,
                -0.6940976719328492,
                1.4892350624588677,
                2.016175597894748,
                -2.082695600728866,
                0.12524410140244696
            ]
        },
        {
            "positions": [
                -0.6515851951421451,
                -0.7103242776440474,
                1.4013836593912794,
                1.9508868007724356,
                -2.00694506142875,
                0.18513287421046243
            ]
        },
        {
            "positions": [
                -0.5641187150928577,
                -0.7265508833552455,
                1.3135322563236913,
                1.885598003650123,
                -1.9311945221286346,
                0.2450216470184779
            ]
        },
        {
            "positions": [
                -0.4766522350435703,
                -0.7427774890664436,
                1.2256808532561032,
                1.8203092065278104,
                -1.855443982828519,
                0.3049104198264934
            ]
        },
        {
            "positions": [
                -0.3891857549942829,
                -0.7590040947776417,
                1.137829450188515,
                1.755020409405498,
                -1.7796934435284033,
                0.3647991926345089
            ]
        },
        {
            "positions": [
                -0.3017192749449956,
                -0.7752307004888399,
                1.049978047120927,
                1.6897316122831854,
                -1.7039429042282876,
                0.4246879654425243
            ]
        },
        {
            "positions": [
                -0.21425279489570814,
                -0.7914573062000381,
                0.9621266440533387,
                1.6244428151608727,
                -1.628192364928172,
                0.4845767382505398
            ]
        },
        {
            "positions": [
                -0.12678631484642078,
                -0.8076839119112361,
                0.8742752409857506,
                1.5591540180385604,
                -1.5524418256280563,
                0.5444655110585552
            ]
        },
        {
            "positions": [
                -0.0393198347971333,
                -0.8239105176224343,
                0.7864238379181624,
                1.4938652209162477,
                -1.4766912863279407,
                0.6043542838665708
            ]
        },
        {
            "positions": [
                0.04814664525215395,
                -0.8401371233336323,
                0.6985724348505743,
                1.4285764237939351,
                -1.400940747027825,
                0.6642430566745862
            ]
        },
        {
            "positions": [
                0.13561312530144154,
                -0.8563637290448305,
                0.6107210317829861,
                1.3632876266716227,
                -1.3251902077277093,
                0.7241318294826017
            ]
        },
        {
            "positions": [
                0.22307960535072882,
                -0.8725903347560287,
                0.5228696287153979,
                1.2979988295493101,
                -1.2494396684275937,
                0.7840206022906171
            ]
        },
        {
            "positions": [
                0.17596349767137565,
                -0.8815129904742407,
                0.5762961278908101,
                1.2211775863372414,
                -1.1881261265484284,
                0.6442611223534792
            ]
        },
        {
            "positions": [
                0.1288473899920225,
                -0.8904356461924529,
                0.6297226270662224,
                1.1443563431251726,
                -1.126812584669263,
                0.5045016424163413
            ]
        },
        {
            "positions": [
                0.08173128231266932,
                -0.8993583019106649,
                0.6831491262416346,
                1.067535099913104,
                -1.0654990427900977,
                0.3647421624792033
            ]
        },
        {
            "positions": [
                0.03461517463331615,
                -0.908280957628877,
                0.7365756254170468,
                0.9907138567010351,
                -1.0041855009109324,
                0.22498268254206544
            ]
        },
        {
            "positions": [
                -0.012500933046037027,
                -0.917203613347089,
                0.7900021245924591,
                0.9138926134889662,
                -0.9428719590317669,
                0.08522320260492744
            ]
        },
        {
            "positions": [
                -0.059617040725390175,
                -0.9261262690653012,
                0.8434286237678712,
                0.8370713702768975,
                -0.8815584171526016,
                -0.05453627733221045
            ]
        },
        {
            "positions": [
                -0.10673314840474338,
                -0.9350489247835132,
                0.8968551229432835,
                0.7602501270648288,
                -0.8202448752734364,
                -0.19429575726934845
            ]
        },
        {
            "positions": [
                -0.15384925608409653,
                -0.9439715805017252,
                0.9502816221186957,
                0.68342888385276,
                -0.758931333394271,
                -0.3340552372064862
            ]
        },
        {
            "positions": [
                -0.20096536376344973,
                -0.9528942362199374,
                1.0037081212941081,
                0.6066076406406912,
                -0.6976177915151056,
                -0.47381471714362444
            ]
        },
        {
            "positions": [
                -0.24808147144280288,
                -0.9618168919381495,
                1.0571346204695202,
                0.5297863974286224,
                -0.6363042496359402,
                -0.6135741970807622
            ]
        },
        {
            "positions": [
                -0.29519757912215605,
                -0.9707395476563615,
                1.1105611196449323,
                0.4529651542165537,
                -0.574990707756775,
                -0.7533336770179002
            ]
        },
        {
            "positions": [
                -0.3423136868015092,
                -0.9796622033745735,
                1.1639876188203446,
                0.37614391100448497,
                -0.5136771658776097,
                -0.893093156955038
            ]
        },
        {
            "positions": [
                -0.38942979448086246,
                -0.9885848590927857,
                1.217414117995757,
                0.2993226677924161,
                -0.4523636239984442,
                -1.0328526368921762
            ]
        },
        {
            "positions": [
                -0.4365459021602156,
                -0.9975075148109978,
                1.270840617171169,
                0.22250142458034738,
                -0.39105008211927894,
                -1.172612116829314
            ]
        },
        {
            "positions": [
                -0.48366200983956875,
                -1.0064301705292098,
                1.3242671163465813,
                0.14568018136827865,
                -0.3297365402401137,
                -1.3123715967664518
            ]
        },
        {
            "positions": [
                -0.5307781175189219,
                -1.0153528262474218,
                1.3776936155219937,
                0.06885893815620991,
                -0.2684229983609483,
                -1.4521310767035895
            ]
        },
        {
            "positions": [
                -0.577894225198275,
                -1.024275481965634,
                1.4311201146974057,
                -0.00796230505585882,
                -0.20710945648178303,
                -1.5918905566407278
            ]
        },
        {
            "positions": [
                -0.6250103328776283,
                -1.0331981376838462,
                1.4845466138728183,
                -0.08478354826792778,
                -0.14579591460261754,
                -1.731650036577866
            ]
        },
        {
            "positions": [
                -0.6721264405569815,
                -1.0421207934020582,
                1.5379731130482304,
                -0.1616047914799965,
                -0.08448237272345227,
                -1.8714095165150038
            ]
        },
        {
            "positions": [
                -0.7192425482363346,
                -1.0510434491202703,
                1.5913996122236425,
                -0.23842603469206525,
                -0.02316883084428678,
                -2.0111689964521418
            ]
        },
        {
            "positions": [
                -0.7663586559156877,
                -1.0599661048384823,
                1.644826111399055,
                -0.315247277904134,
                0.03814471103487849,
                -2.1509284763892795
            ]
        },
        {
            "positions": [
                -0.8134747635950409,
                -1.0688887605566944,
                1.698252610574467,
                -0.3920685211162027,
                0.09945825291404375,
                -2.2906879563264173
            ]
        },
        {
            "positions": [
                -0.860590871274394,
                -1.0778114162749064,
                1.7516791097498792,
                -0.46888976432827145,
                0.16077179479320902,
                -2.430447436263555
            ]
        },
        {
            "positions": [
                -0.9077069789537472,
                -1.0867340719931184,
                1.8051056089252913,
                -0.5457110075403402,
                0.2220853366723743,
                -2.570206916200693
            ]
        },
        {
            "positions": [
                -0.9548230866331006,
                -1.0956567277113307,
                1.8585321081007038,
                -0.6225322507524091,
                0.2833988785515398,
                -2.7099663961378315
            ]
        },
        {
            "positions": [
                -1.0019391943124536,
                -1.1045793834295428,
                1.9119586072761159,
                -0.6993534939644779,
                0.34471242043070527,
                -2.8497258760749693
            ]
        },
        {
            "positions": [
                -1.0490553019918067,
                -1.1135020391477548,
                1.965385106451528,
                -0.7761747371765468,
                0.40602596230987054,
                -2.989485356012107
            ]
        },
        {
            "positions": [
                -1.09617140967116,
                -1.1224246948659669,
                2.0188116056269405,
                -0.8529959803886151,
                0.4673395041890358,
                -3.1292448359492453
            ]
        }
    ]
}