{
    "goal": {
        "global_pose": {
            "orientation": {
                "w": 0.7047431468963623,
                "x": -0.7094548344612122,
                "y": 0.0024358443915843964,
                "z": -0.0022348060738295317
            },
            "position": {
                "x": 0.6094750761985779,
                "y": 0.3671506643295288,
                "z": 0.19426114857196808
            }
        },
        "name": "move_to_magneteinheit_A"
    },
    "id": "RRT_move_to_magneteinheit_A_67",
    "joint_names": [
        "shoulder_pan_joint",
        "shoulder_lift_joint",
        "elbow_joint",
        "wrist_1_joint",
        "wrist_2_joint",
        "wrist_3_joint"
    ],
    "metrics": {
        "cart_traj_len": 3.6778525949850285,
        "distance_elbow_joint": 3.8915435707446964,
        "distance_shoulder_lift_joint": 0.44771365421543696,
        "distance_shoulder_pan_joint": 4.873732519106697,
        "distance_wrist_1_joint": 4.145392621280585,
        "distance_wrist_2_joint": 1.6914221465032728,
        "distance_wrist_3_joint": 3.6281227009270944,
        "smoothness": 0.27261812425132365,
        "time": 1.817620159,
        "traj_len": 4.321796757458381,
        "weighted_distance": 5.63657585617508
    },
    "planner": "RRT",
    "start": {
        "state": {
            "elbow_joint": -1.9196185241190666,
            "shoulder_lift_joint": -1.2443396400964142,
            "shoulder_pan_joint": 2.6996025414629847,
            "wrist_1_joint": -1.5485510000780065,
            "wrist_2_joint": -1.5709468930060704,
            "wrist_3_joint": 0.4420197071253992
        }
    },
    "waypoints": [
        {
            "positions": [
                2.6996025414629847,
                -1.2443396400964142,
                -1.9196185241190666,
                -1.5485510000780065,
                -1.5709468930060704,
                0.4420197071253992
            ]
        },
        {
            "positions": [
                2.575417610686183,
                -1.2500417848506995,
                -1.8376476666529424,
                -1.466768711364539,
                -1.5157140242731715,
                0.4004584295981495
            ]
        },
        {
            "positions": [
                2.4512326799093804,
                -1.2557439296049846,
                -1.755676809186818,
                -1.3849864226510715,
                -1.4604811555402726,
                0.3588971520708998
            ]
        },
        {
            "positions": [
                2.3270477491325785,
                -1.26144607435927,
                -1.6737059517206938,
                -1.303204133937604,
                -1.4052482868073735,
                0.3173358745436501
            ]
        },
        {
            "positions": [
                2.2028628183557766,
                -1.2671482191135552,
                -1.5917350942545696,
                -1.2214218452241363,
                -1.3500154180744746,
                0.2757745970164004
            ]
        },
        {
            "positions": [
                2.0786778875789746,
                -1.2728503638678403,
                -1.5097642367884454,
                -1.139639556510669,
                -1.2947825493415757,
                0.23421331948915075
            ]
        },
        {
            "positions": [
                1.9544929568021723,
                -1.2785525086221257,
                -1.427793379322321,
                -1.0578572677972014,
                -1.2395496806086768,
                0.19265204196190103
            ]
        },
        {
            "positions": [
                1.8303080260253703,
                -1.284254653376411,
                -1.3458225218561966,
                -0.9760749790837339,
                -1.1843168118757776,
                0.15109076443465136
            ]
        },
        {
            "positions": [
                1.706123095248568,
                -1.289956798130696,
                -1.2638516643900726,
                -0.8942926903702663,
                -1.129083943142879,
                0.10952948690740166
            ]
        },
        {
            "positions": [
                1.581938164471766,
                -1.2956589428849814,
                -1.1818808069239481,
                -0.8125104016567988,
                -1.0738510744099798,
                0.06796820938015197
            ]
        },
        {
            "positions": [
                1.4577532336949641,
                -1.3013610876392667,
                -1.099909949457824,
                -0.7307281129433313,
                -1.018618205677081,
                0.026406931852902327
            ]
        },
        {
            "positions": [
                1.333568302918162,
                -1.3070632323935518,
                -1.0179390919916997,
                -0.6489458242298638,
                -0.963385336944182,
                -0.01515434567434737
            ]
        },
        {
            "positions": [
                1.2093833721413598,
                -1.3127653771478371,
                -0.9359682345255753,
                -0.5671635355163962,
                -0.908152468211283,
                -0.05671562320159712
            ]
        },
        {
            "positions": [
                1.0851984413645577,
                -1.3184675219021225,
                -0.8539973770594511,
                -0.4853812468029286,
                -0.8529195994783841,
                -0.09827690072884676
            ]
        },
        {
            "positions": [
                0.9610135105877557,
                -1.3241696666564076,
                -0.7720265195933267,
                -0.4035989580894612,
                -0.7976867307454851,
                -0.13983817825609646
            ]
        },
        {
            "positions": [
                0.8368285798109536,
                -1.3298718114106929,
                -0.6900556621272025,
                -0.3218166693759936,
                -0.7424538620125862,
                -0.18139945578334615
            ]
        },
        {
            "positions": [
                0.7126436490341514,
                -1.3355739561649782,
                -0.6080848046610783,
                -0.24003438066252603,
                -0.6872209932796873,
                -0.22296073331059585
            ]
        },
        {
            "positions": [
                0.5884587182573493,
                -1.3412761009192633,
                -0.5261139471949539,
                -0.15825209194905865,
                -0.6319881245467883,
                -0.26452201083784554
            ]
        },
        {
            "positions": [
                0.4642737874805474,
                -1.3469782456735486,
                -0.44414308972882965,
                -0.07646980323559105,
                -0.5767552558138894,
                -0.30608328836509524
            ]
        },
        {
            "positions": [
                0.34008885670374545,
                -1.352680390427834,
                -0.36217223226270545,
                0.0053124854778763275,
                -0.5215223870809904,
                -0.3476445658923448
            ]
        },
        {
            "positions": [
                0.21590392592694352,
                -1.358382535182119,
                -0.28020137479658125,
                0.08709477419134393,
                -0.4662895183480915,
                -0.3892058434195945
            ]
        },
        {
            "positions": [
                0.09171899515014115,
                -1.3640846799364044,
                -0.19823051733045682,
                0.16887706290481153,
                -0.4110566496151926,
                -0.4307671209468442
            ]
        },
        {
            "positions": [
                -0.03246593562666078,
                -1.3697868246906897,
                -0.11625965986433262,
                0.2506593516182789,
                -0.3558237808822937,
                -0.4723283984740939
            ]
        },
        {
            "positions": [
                -0.15665086640346315,
                -1.3754889694449748,
                -0.034288802398208196,
                0.3324416403317467,
                -0.3005909121493946,
                -0.5138896760013437
            ]
        },
        {
            "positions": [
                -0.2808357971802651,
                -1.38119111419926,
                0.04768205506791601,
                0.4142239290452141,
                -0.2453580434164957,
                -0.5554509535285934
            ]
        },
        {
            "positions": [
                -0.40502072795706745,
                -1.3868932589535454,
                0.12965291253404043,
                0.4960062177586819,
                -0.1901251746835968,
                -0.5970122310558431
            ]
        },
        {
            "positions": [
                -0.5292056587338694,
                -1.3925954037078305,
                0.2116237700001644,
                0.5777885064721493,
                -0.1348923059506979,
                -0.6385735085830927
            ]
        },
        {
            "positions": [
                -0.6533905895106713,
                -1.3982975484621158,
                0.29359462746628884,
                0.6595707951856167,
                -0.07965943721779878,
                -0.6801347861103425
            ]
        },
        {
            "positions": [
                -0.7775755202874732,
                -1.4039996932164012,
                0.37556548493241326,
                0.741353083899084,
                -0.02442656848489988,
                -0.7216960636375921
            ]
        },
        {
            "positions": [
                -0.9017604510642756,
                -1.4097018379706863,
                0.45753634239853724,
                0.8231353726125519,
                0.03080630024799902,
                -0.7632573411648419
            ]
        },
        {
            "positions": [
                -1.0259453818410773,
                -1.4154039827249716,
                0.5395071998646614,
                0.9049176613260193,
                0.08603916898089803,
                -0.8048186186920915
            ]
        },
        {
            "positions": [
                -0.9621573487409308,
                -1.4000345765257005,
                0.6190859691291597,
                0.8109218857773215,
                0.08795228478735945,
                -0.9371121950870694
            ]
        },
        {
            "positions": [
                -0.8983693156407844,
                -1.3846651703264294,
                0.698664738393658,
                0.7169261102286237,
                0.08986540059382088,
                -1.0694057714820475
            ]
        },
        {
            "positions": [
                -0.834581282540638,
                -1.3692957641271584,
                0.7782435076581563,
                0.622930334679926,
                0.0917785164002823,
                -1.2016993478770255
            ]
        },
        {
            "positions": [
                -0.7707932494404914,
                -1.3539263579278873,
                0.8578222769226546,
                0.5289345591312282,
                0.09369163220674373,
                -1.3339929242720034
            ]
        },
        {
            "positions": [
                -0.7070052163403451,
                -1.3385569517286162,
                0.9374010461871529,
                0.4349387835825303,
                0.09560474801320515,
                -1.4662865006669814
            ]
        },
        {
            "positions": [
                -0.6432171832401986,
                -1.3231875455293451,
                1.0169798154516512,
                0.3409430080338326,
                0.09751786381966657,
                -1.5985800770619594
            ]
        },
        {
            "positions": [
                -0.5794291501400521,
                -1.307818139330074,
                1.0965585847161494,
                0.24694723248513473,
                0.099430979626128,
                -1.7308736534569373
            ]
        },
        {
            "positions": [
                -0.5156411170399057,
                -1.292448733130803,
                1.1761373539806477,
                0.15295145693643708,
                0.10134409543258942,
                -1.8631672298519155
            ]
        },
        {
            "positions": [
                -0.4518530839397592,
                -1.2770793269315317,
                1.2557161232451461,
                0.05895568138773921,
                0.10325721123905085,
                -1.9954608062468933
            ]
        },
        {
            "positions": [
                -0.38806505083961274,
                -1.2617099207322606,
                1.3352948925096444,
                -0.03504009416095866,
                0.10517032704551227,
                -2.1277543826418714
            ]
        },
        {
            "positions": [
                -0.32427701773946627,
                -1.2463405145329896,
                1.4148736617741426,
                -0.12903586970965653,
                0.10708344285197369,
                -2.2600479590368496
            ]
        },
        {
            "positions": [
                -0.2604889846393199,
                -1.2309711083337185,
                1.494452431038641,
                -0.22303164525835406,
                0.1089965586584351,
                -2.3923415354318274
            ]
        },
        {
            "positions": [
                -0.19670095153917344,
                -1.2156017021344474,
                1.5740312003031391,
                -0.3170274208070518,
                0.11090967446489654,
                -2.524635111826805
            ]
        },
        {
            "positions": [
                -0.13291291843902686,
                -1.2002322959351763,
                1.6536099695676374,
                -0.4110231963557498,
                0.11282279027135797,
                -2.6569286882217833
            ]
        },
        {
            "positions": [
                -0.06912488533888039,
                -1.1848628897359053,
                1.7331887388321359,
                -0.5050189719044476,
                0.11473590607781939,
                -2.7892222646167615
            ]
        },
        {
            "positions": [
                -0.005336852238734036,
                -1.1694934835366342,
                1.812767508096634,
                -0.5990147474531451,
                0.1166490218842808,
                -2.9215158410117392
            ]
        },
        {
            "positions": [
                0.05845118086141232,
                -1.154124077337363,
                1.8923462773611324,
                -0.6930105230018431,
                0.11856213769074223,
                -3.053809417406717
            ]
        },
        {
            "positions": [
                0.1222392139615589,
                -1.138754671138092,
                1.9719250466256306,
                -0.7870062985505409,
                0.12047525349720366,
                -3.186102993801695
            ]
        }
    ]
}