{
    "goal": {
        "global_pose": {
            "orientation": {
                "w": -0.00223480608172531,
                "x": 0.0024358444001904467,
                "y": 0.7094548369677653,
                "z": -0.704743149386269
            },
            "position": {
                "x": 0.6205249238014221,
                "y": -0.6371506643295288,
                "z": 0.19426114857196808
            }
        },
        "name": "move_to_magneteinheit_B"
    },
    "id": "RRT_move_to_magneteinheit_B_101",
    "joint_names": [
        "shoulder_pan_joint",
        "shoulder_lift_joint",
        "elbow_joint",
        "wrist_1_joint",
        "wrist_2_joint",
        "wrist_3_joint"
    ],
    "metrics": {
        "cart_traj_len": 3.563995083643046,
        "distance_elbow_joint": 5.078030198705539,
        "distance_shoulder_lift_joint": 2.1041438832315555,
        "distance_shoulder_pan_joint": 3.3235386757836802,
        "distance_wrist_1_joint": 3.4520099962142083,
        "distance_wrist_2_joint": 3.2147032270828513,
        "distance_wrist_3_joint": 1.8364293662436406,
        "smoothness": 0.6935858637594592,
        "time": 1.1223866980000001,
        "traj_len": 4.359914603207439,
        "weighted_distance": 5.4174188783078066
    },
    "planner": "RRT",
    "start": {
        "state": {
            "elbow_joint": 2.6216224122426386,
            "shoulder_lift_joint": -1.4174107377796124,
            "shoulder_pan_joint": 0.7066234856936794,
            "wrist_1_joint": 1.9546482284002225,
            "wrist_2_joint": -0.7096286983471962,
            "wrist_3_joint": 0.005740856962016249
        }
    },
    "waypoints": [
        {
            "positions": [
                0.7066234856936794,
                -1.4174107377796124,
                2.6216224122426386,
                1.9546482284002225,
                -0.7096286983471962,
                0.005740856962016249
            ]
        },
        {
            "positions": [
                0.5986157367103384,
                -1.4485583147930694,
                2.5839147786397145,
                1.9901848300620182,
                -0.7585449775762587,
                0.0471807186556845
            ]
        },
        {
            "positions": [
                0.49060798772699743,
                -1.4797058918065265,
                2.5462071450367905,
                2.025721431723814,
                -0.8074612568053213,
                0.08862058034935276
            ]
        },
        {
            "positions": [
                0.5190121330424687,
                -1.495517065274995,
                2.4149466006302855,
                1.928105722691726,
                -0.829530625757688,
                0.1331636306551197
            ]
        },
        {
            "positions": [
                0.5474162783579402,
                -1.5113282387434634,
                2.2836860562237806,
                1.8304900136596383,
                -0.8515999947100545,
                0.17770668096088665
            ]
        },
        {
            "positions": [
                0.5758204236734115,
                -1.5271394122119322,
                2.1524255118172753,
                1.7328743046275505,
                -0.8736693636624212,
                0.2222497312666536
            ]
        },
        {
            "positions": [
                0.6042245689888828,
                -1.5429505856804007,
                2.0211649674107703,
                1.6352585955954626,
                -0.8957387326147879,
                0.26679278157242053
            ]
        },
        {
            "positions": [
                0.6950941554471416,
                -1.5643392113736725,
                1.864409783121652,
                1.5692252934401179,
                -0.8721424223655793,
                0.28473666674732
            ]
        },
        {
            "positions": [
                0.7859637419054004,
                -1.5857278370669445,
                1.7076545988325336,
                1.5031919912847729,
                -0.8485461121163708,
                0.30268055192221943
            ]
        },
        {
            "positions": [
                0.8768333283636591,
                -1.6071164627602164,
                1.5508994145434152,
                1.4371586891294281,
                -0.8249498018671622,
                0.3206244370971189
            ]
        },
        {
            "positions": [
                0.967702914821918,
                -1.6285050884534882,
                1.3941442302542968,
                1.3711253869740831,
                -0.8013534916179537,
                0.33856832227201833
            ]
        },
        {
            "positions": [
                1.0585725012801768,
                -1.64989371414676,
                1.2373890459651782,
                1.3050920848187384,
                -0.777757181368745,
                0.3565122074469178
            ]
        },
        {
            "positions": [
                1.1494420877384357,
                -1.671282339840032,
                1.08063386167606,
                1.2390587826633936,
                -0.7541608711195366,
                0.3744560926218172
            ]
        },
        {
            "positions": [
                1.2403116741966942,
                -1.6926709655333039,
                0.9238786773869416,
                1.1730254805080487,
                -0.730564560870328,
                0.39239997779671665
            ]
        },
        {
            "positions": [
                1.3311812606549531,
                -1.7140595912265757,
                0.7671234930978232,
                1.1069921783527037,
                -0.7069682506211195,
                0.4103438629716161
            ]
        },
        {
            "positions": [
                1.4220508471132118,
                -1.7354482169198477,
                0.6103683088087046,
                1.040958876197359,
                -0.6833719403719108,
                0.4282877481465156
            ]
        },
        {
            "positions": [
                1.5129204335714705,
                -1.7568368426131196,
                0.45361312451958624,
                0.9749255740420142,
                -0.6597756301227024,
                0.446231633321415
            ]
        },
        {
            "positions": [
                1.6037900200297295,
                -1.7782254683063914,
                0.29685794023046785,
                0.9088922718866693,
                -0.6361793198734937,
                0.4641755184963145
            ]
        },
        {
            "positions": [
                1.6946596064879884,
                -1.7996140939996632,
                0.14010275594134947,
                0.8428589697313245,
                -0.6125830096242852,
                0.482119403671214
            ]
        },
        {
            "positions": [
                1.785529192946247,
                -1.8210027196929353,
                -0.01665242834776892,
                0.7768256675759797,
                -0.5889866993750767,
                0.5000632888461134
            ]
        },
        {
            "positions": [
                1.8763987794045058,
                -1.842391345386207,
                -0.1734076126368871,
                0.7107923654206348,
                -0.565390389125868,
                0.5180071740210128
            ]
        },
        {
            "positions": [
                1.9672683658627645,
                -1.863779971079479,
                -0.3301627969260057,
                0.64475906326529,
                -0.5417940788766595,
                0.5359510591959122
            ]
        },
        {
            "positions": [
                2.0581379523210233,
                -1.885168596772751,
                -0.48691798121512386,
                0.578725761109945,
                -0.518197768627451,
                0.5538949443708117
            ]
        },
        {
            "positions": [
                2.149007538779282,
                -1.9065572224660228,
                -0.6436731655042425,
                0.5126924589546002,
                -0.49460145837824243,
                0.5718388295457112
            ]
        },
        {
            "positions": [
                2.219076123801677,
                -1.8694463359516096,
                -0.7447670813287952,
                0.4635850783552642,
                -0.5540952367554465,
                0.5061690343770961
            ]
        },
        {
            "positions": [
                2.2891447088240726,
                -1.8323354494371962,
                -0.8458609971533478,
                0.4144776977559282,
                -0.6135890151326504,
                0.440499239208481
            ]
        },
        {
            "positions": [
                2.3592132938464676,
                -1.795224562922783,
                -0.9469549129779006,
                0.36537031715659213,
                -0.6730827935098544,
                0.37482944403986596
            ]
        },
        {
            "positions": [
                2.4292818788688626,
                -1.7581136764083698,
                -1.0480488288024532,
                0.3162629365572561,
                -0.7325765718870585,
                0.30915964887125086
            ]
        },
        {
            "positions": [
                2.499350463891258,
                -1.7210027898939564,
                -1.1491427446270062,
                0.26715555595792007,
                -0.7920703502642625,
                0.24348985370263576
            ]
        },
        {
            "positions": [
                2.569419048913653,
                -1.6838919033795432,
                -1.2502366604515587,
                0.218048175358584,
                -0.8515641286414664,
                0.17782005853402072
            ]
        },
        {
            "positions": [
                2.6394876339360485,
                -1.64678101686513,
                -1.3513305762761114,
                0.16894079475924795,
                -0.9110579070186704,
                0.11215026336540562
            ]
        },
        {
            "positions": [
                2.7095562189584435,
                -1.6096701303507168,
                -1.452424492100664,
                0.11983341415991194,
                -0.9705516853958744,
                0.046480468196790525
            ]
        },
        {
            "positions": [
                2.7796248039808384,
                -1.5725592438363034,
                -1.553518407925217,
                0.07072603356057583,
                -1.0300454637730785,
                -0.019189326971824627
            ]
        },
        {
            "positions": [
                2.8496933890032334,
                -1.5354483573218902,
                -1.6546123237497696,
                0.021618652961239826,
                -1.0895392421502825,
                -0.08485912214043967
            ]
        },
        {
            "positions": [
                2.919761974025629,
                -1.498337470807477,
                -1.7557062395743221,
                -0.027488727638096178,
                -1.1490330205274866,
                -0.1505289173090547
            ]
        },
        {
            "positions": [
                2.989830559048024,
                -1.4612265842930638,
                -1.8568001553988749,
                -0.07659610823743224,
                -1.2085267989046904,
                -0.21619871247766975
            ]
        },
        {
            "positions": [
                3.0598991440704193,
                -1.4241156977786504,
                -1.9578940712234276,
                -0.1257034888367683,
                -1.2680205772818947,
                -0.2818685076462849
            ]
        },
        {
            "positions": [
                3.1299677290928143,
                -1.3870048112642372,
                -2.0589879870479804,
                -0.17481086943610435,
                -1.3275143556590985,
                -0.34753830281489995
            ]
        },
        {
            "positions": [
                3.096527483632016,
                -1.4652508817887628,
                -2.030600858518343,
                -0.09049626288391163,
                -1.19933271128068,
                -0.322470141293519
            ]
        },
        {
            "positions": [
                3.063087238171217,
                -1.5434969523132887,
                -2.0022137299887057,
                -0.00618165633171891,
                -1.0711510669022617,
                -0.297401979772138
            ]
        },
        {
            "positions": [
                3.0296469927104184,
                -1.6217430228378142,
                -1.9738266014590682,
                0.07813295022047378,
                -0.9429694225238432,
                -0.272333818250757
            ]
        },
        {
            "positions": [
                2.9962067472496194,
                -1.69998909336234,
                -1.9454394729294309,
                0.16244755677266653,
                -0.8147877781454248,
                -0.247265656729376
            ]
        },
        {
            "positions": [
                2.962766501788821,
                -1.7782351638868656,
                -1.9170523443997933,
                0.24676216332485928,
                -0.6866061337670063,
                -0.22219749520799503
            ]
        },
        {
            "positions": [
                2.929326256328022,
                -1.8564812344113912,
                -1.888665215870156,
                0.3310767698770519,
                -0.5584244893885879,
                -0.19712933368661406
            ]
        },
        {
            "positions": [
                2.8958860108672235,
                -1.934727304935917,
                -1.8602780873405185,
                0.41539137642924473,
                -0.4302428450101694,
                -0.17206117216523306
            ]
        },
        {
            "positions": [
                2.862445765406425,
                -2.012973375460443,
                -1.8318909588108812,
                0.4997059829814374,
                -0.3020612006317511,
                -0.1469930106438521
            ]
        },
        {
            "positions": [
                2.829005519945626,
                -2.0912194459849687,
                -1.8035038302812438,
                0.5840205895336302,
                -0.1738795562533324,
                -0.12192484912247109
            ]
        },
        {
            "positions": [
                2.7955652744848276,
                -2.169465516509494,
                -1.7751167017516063,
                0.6683351960858229,
                -0.04569791187491412,
                -0.09685668760109012
            ]
        },
        {
            "positions": [
                2.7621250290240287,
                -2.24771158703402,
                -1.746729573221969,
                0.7526498026380156,
                0.08248373250350438,
                -0.07178852607970915
            ]
        },
        {
            "positions": [
                2.72868478356323,
                -2.3259576575585452,
                -1.7183424446923317,
                0.8369644091902082,
                0.21066537688192266,
                -0.046720364558328176
            ]
        },
        {
            "positions": [
                2.6952445381024313,
                -2.404203728083071,
                -1.6899553161626941,
                0.9212790157424011,
                0.3388470212603414,
                -0.02165220303694715
            ]
        },
        {
            "positions": [
                2.6618042926416328,
                -2.482449798607597,
                -1.6615681876330568,
                1.0055936222945938,
                0.4670286656387597,
                0.0034159584844338318
            ]
        }
    ]
}