{
    "goal": {
        "global_pose": {
            "orientation": {
                "w": -0.4816463035849501,
                "x": 0.5182115481033762,
                "y": 0.4908360881923453,
                "z": -0.5084816262002911
            },
            "position": {
                "x": -0.8240239810943604,
                "y": -0.300875300988555,
                "z": 0.16403168439865112
            }
        },
        "name": "move_to_storage_C"
    },
    "id": "RRT_move_to_storage_C_89",
    "joint_names": [
        "shoulder_pan_joint",
        "shoulder_lift_joint",
        "elbow_joint",
        "wrist_1_joint",
        "wrist_2_joint",
        "wrist_3_joint"
    ],
    "metrics": {
        "cart_traj_len": 0.5762343354108694,
        "distance_elbow_joint": 0.2603276041063498,
        "distance_shoulder_lift_joint": 0.18992818272540124,
        "distance_shoulder_pan_joint": 0.49260327424752814,
        "distance_wrist_1_joint": 0.08342329553688443,
        "distance_wrist_2_joint": 1.0772951072935681,
        "distance_wrist_3_joint": 0.06421327499337082,
        "smoothness": 5.075305295617109e-16,
        "time": 0.021469352,
        "traj_len": 1.4723419232308446,
        "weighted_distance": 1.8592836501513954
    },
    "planner": "RRT",
    "start": {
        "state": {
            "elbow_joint": 2.010868314990456,
            "shoulder_lift_joint": -1.1634956873337592,
            "shoulder_pan_joint": -2.4736205022346125,
            "wrist_1_joint": -0.8367026794202681,
            "wrist_2_joint": 0.6746043897044499,
            "wrist_3_joint": -3.1496632123970403
        }
    },
    "waypoints": [
        {
            "positions": [
                -2.4736205022346125,
                -1.1634956873337592,
                2.010868314990456,
                -0.8367026794202681,
                0.6746043897044499,
                -3.1496632123970403
            ]
        },
        {
            "positions": [
                -2.5557210479425336,
                -1.131840990212859,
                1.9674803809727308,
                -0.8227987968307874,
                0.8541535742533779,
                -3.138960999898145
            ]
        },
        {
            "positions": [
                -2.637821593650455,
                -1.1001862930919588,
                1.9240924469550058,
                -0.8088949142413067,
                1.033702758802306,
                -3.12825878739925
            ]
        },
        {
            "positions": [
                -2.719922139358377,
                -1.0685315959710586,
                1.8807045129372808,
                -0.7949910316518258,
                1.213251943351234,
                -3.117556574900355
            ]
        },
        {
            "positions": [
                -2.802022685066298,
                -1.0368768988501584,
                1.837316578919556,
                -0.7810871490623451,
                1.392801127900162,
                -3.1068543624014597
            ]
        },
        {
            "positions": [
                -2.884123230774219,
                -1.005222201729258,
                1.793928644901831,
                -0.7671832664728644,
                1.57235031244909,
                -3.0961521499025646
            ]
        },
        {
            "positions": [
                -2.9662237764821406,
                -0.973567504608358,
                1.750540710884106,
                -0.7532793838833837,
                1.7518994969980182,
                -3.0854499374036695
            ]
        }
    ]
}