{
    "goal": {
        "global_pose": {
            "orientation": {
                "w": 0.005598929693374612,
                "x": 0.007748599140229565,
                "y": 0.7110244013736278,
                "z": -0.7031023480610252
            },
            "position": {
                "x": -0.8858502320852131,
                "y": -0.7141253447532654,
                "z": 0.3711530566215515
            }
        },
        "name": "move_to_auspresseinheit_C"
    },
    "id": "RRT_move_to_auspresseinheit_C_121",
    "joint_names": [
        "shoulder_pan_joint",
        "shoulder_lift_joint",
        "elbow_joint",
        "wrist_1_joint",
        "wrist_2_joint",
        "wrist_3_joint"
    ],
    "metrics": {
        "cart_traj_len": 0.49256936529632733,
        "distance_elbow_joint": 1.0065866195533473,
        "distance_shoulder_lift_joint": 0.32809901882023873,
        "distance_shoulder_pan_joint": 0.25607428598913806,
        "distance_wrist_1_joint": 0.7018050698900603,
        "distance_wrist_2_joint": 1.305111639198447,
        "distance_wrist_3_joint": 0.075484558995079,
        "smoothness": 1.2918958855473828e-15,
        "time": 0.022744173,
        "traj_len": 1.9165492929863064,
        "weighted_distance": 2.414756099386639
    },
    "planner": "RRT",
    "start": {
        "state": {
            "elbow_joint": 1.7527959577737207,
            "shoulder_lift_joint": -0.9740617694225068,
            "shoulder_pan_joint": -2.967991417825858,
            "wrist_1_joint": -0.759517768980727,
            "wrist_2_joint": 1.7443932448377408,
            "wrist_3_joint": -3.0840537646736568
        }
    },
    "waypoints": [
        {
            "positions": [
                -2.967991417825858,
                -0.9740617694225068,
                1.7527959577737207,
                -0.759517768980727,
                1.7443932448377408,
                -3.0840537646736568
            ]
        },
        {
            "positions": [
                -2.9423839892269443,
                -0.9412518675404828,
                1.652137295818386,
                -0.689337261991721,
                1.6138820809178962,
                -3.0916022205731646
            ]
        },
        {
            "positions": [
                -2.9167765606280303,
                -0.908441965658459,
                1.5514786338630513,
                -0.6191567550027149,
                1.4833709169980513,
                -3.0991506764726724
            ]
        },
        {
            "positions": [
                -2.8911691320291166,
                -0.8756320637764352,
                1.4508199719077166,
                -0.5489762480137089,
                1.3528597530782067,
                -3.1066991323721806
            ]
        },
        {
            "positions": [
                -2.8655617034302026,
                -0.8428221618944113,
                1.3501613099523817,
                -0.47879574102470285,
                1.2223485891583619,
                -3.1142475882716885
            ]
        },
        {
            "positions": [
                -2.839954274831289,
                -0.8100122600123874,
                1.249502647997047,
                -0.40861523403569683,
                1.0918374252385172,
                -3.1217960441711963
            ]
        },
        {
            "positions": [
                -2.8143468462323753,
                -0.7772023581303635,
                1.1488439860417123,
                -0.3384347270466908,
                0.9613262613186727,
                -3.129344500070704
            ]
        },
        {
            "positions": [
                -2.7887394176334612,
                -0.7443924562483397,
                1.0481853240863777,
                -0.2682542200576848,
                0.830815097398828,
                -3.136892955970212
            ]
        },
        {
            "positions": [
                -2.7631319890345476,
                -0.7115825543663158,
                0.9475266621310428,
                -0.19807371306867871,
                0.7003039334789831,
                -3.14444141186972
            ]
        },
        {
            "positions": [
                -2.7375245604356335,
                -0.6787726524842919,
                0.8468680001757081,
                -0.1278932060796727,
                0.5697927695591385,
                -3.151989867769228
            ]
        },
        {
            "positions": [
                -2.71191713183672,
                -0.645962750602268,
                0.7462093382203733,
                -0.05771269909066668,
                0.4392816056392938,
                -3.1595383236687358
            ]
        }
    ]
}