{
    "goal": {
        "global_pose": {
            "orientation": {
                "w": 0.7047431493862688,
                "x": -0.7094548369677653,
                "y": 0.0024358444001904,
                "z": -0.0022348060817251984
            },
            "position": {
                "x": -0.39052492380142206,
                "y": 0.3671506643295288,
                "z": 0.19426114857196808
            }
        },
        "name": "move_to_magneteinheit_D"
    },
    "id": "RRT_move_to_magneteinheit_D_121",
    "joint_names": [
        "shoulder_pan_joint",
        "shoulder_lift_joint",
        "elbow_joint",
        "wrist_1_joint",
        "wrist_2_joint",
        "wrist_3_joint"
    ],
    "metrics": {
        "cart_traj_len": 4.44648958858098,
        "distance_elbow_joint": 4.373323698747448,
        "distance_shoulder_lift_joint": 1.2892203347598465,
        "distance_shoulder_pan_joint": 2.8711126684174095,
        "distance_wrist_1_joint": 4.251015158435662,
        "distance_wrist_2_joint": 1.7957065913813008,
        "distance_wrist_3_joint": 6.3173617780179345,
        "smoothness": 0.18516284884018372,
        "time": 0.244714665,
        "traj_len": 4.571404623281515,
        "weighted_distance": 6.291199053885707
    },
    "planner": "RRT",
    "start": {
        "state": {
            "elbow_joint": 0.749534889911806,
            "shoulder_lift_joint": -0.6476975780787326,
            "shoulder_pan_joint": -2.711696901376241,
            "wrist_1_joint": -0.07506478083263063,
            "wrist_2_joint": 0.43296659715538205,
            "wrist_3_joint": -3.14703540197715
        }
    },
    "waypoints": [
        {
            "positions": [
                -2.711696901376241,
                -0.6476975780787326,
                0.749534889911806,
                -0.07506478083263063,
                0.43296659715538205,
                -3.14703540197715
            ]
        },
        {
            "positions": [
                -2.710426349970261,
                -0.7000134796899287,
                0.7956815941651268,
                -0.004558227898185191,
                0.42074200574994,
                -2.9633773696506336
            ]
        },
        {
            "positions": [
                -2.709155798564281,
                -0.7523293813011247,
                0.8418282984184478,
                0.06594832503626025,
                0.40851741434449795,
                -2.7797193373241176
            ]
        },
        {
            "positions": [
                -2.707885247158301,
                -0.8046452829123207,
                0.8879750026717685,
                0.13645487797070568,
                0.3962928229390559,
                -2.596061304997601
            ]
        },
        {
            "positions": [
                -2.706614695752321,
                -0.8569611845235168,
                0.9341217069250894,
                0.20696143090515112,
                0.3840682315336138,
                -2.412403272671085
            ]
        },
        {
            "positions": [
                -2.7053441443463413,
                -0.9092770861347128,
                0.9802684111784103,
                0.2774679838395966,
                0.3718436401281717,
                -2.2287452403445687
            ]
        },
        {
            "positions": [
                -2.704073592940361,
                -0.9615929877459088,
                1.0264151154317311,
                0.347974536774042,
                0.3596190487227297,
                -2.0450872080180527
            ]
        },
        {
            "positions": [
                -2.702803041534381,
                -1.0139088893571049,
                1.0725618196850522,
                0.41848108970848746,
                0.34739445731728763,
                -1.8614291756915362
            ]
        },
        {
            "positions": [
                -2.7015324901284012,
                -1.066224790968301,
                1.118708523938373,
                0.4889876426429329,
                0.33516986591184555,
                -1.67777114336502
            ]
        },
        {
            "positions": [
                -2.7002619387224214,
                -1.118540692579497,
                1.1648552281916937,
                0.5594941955773785,
                0.3229452745064035,
                -1.4941131110385037
            ]
        },
        {
            "positions": [
                -2.698991387316441,
                -1.170856594190693,
                1.2110019324450145,
                0.6300007485118237,
                0.31072068310096146,
                -1.3104550787119875
            ]
        },
        {
            "positions": [
                -2.697720835910461,
                -1.223172495801889,
                1.2571486366983355,
                0.7005073014462693,
                0.2984960916955194,
                -1.1267970463854713
            ]
        },
        {
            "positions": [
                -2.670816151948271,
                -1.2786747188351728,
                1.2825810262063557,
                0.7528907702505353,
                0.2925190476991672,
                -0.9392129095375638
            ]
        },
        {
            "positions": [
                -2.643911467986081,
                -1.3341769418684566,
                1.3080134157143761,
                0.8052742390548013,
                0.2865420037028151,
                -0.7516287726896562
            ]
        },
        {
            "positions": [
                -2.617006784023891,
                -1.3896791649017404,
                1.3334458052223963,
                0.8576577078590673,
                0.2805649597064629,
                -0.5640446358417487
            ]
        },
        {
            "positions": [
                -2.590102100061701,
                -1.4451813879350242,
                1.3588781947304167,
                0.9100411766633333,
                0.27458791571011076,
                -0.37646049899384104
            ]
        },
        {
            "positions": [
                -2.563197416099511,
                -1.500683610968308,
                1.384310584238437,
                0.9624246454675993,
                0.2686108717137586,
                -0.18887636214593356
            ]
        },
        {
            "positions": [
                -2.4720880229880278,
                -1.512901357627808,
                1.2748130999576697,
                0.8530411378108489,
                0.2899328073256342,
                -0.13836186281888563
            ]
        },
        {
            "positions": [
                -2.3809786298765445,
                -1.5251191042873085,
                1.1653156156769024,
                0.7436576301540984,
                0.3112547429375099,
                -0.0878473634918377
            ]
        },
        {
            "positions": [
                -2.2898692367650613,
                -1.5373368509468086,
                1.0558181313961352,
                0.6342741224973479,
                0.3325766785493855,
                -0.03733286416478976
            ]
        },
        {
            "positions": [
                -2.198759843653578,
                -1.5495545976063088,
                0.9463206471153682,
                0.5248906148405974,
                0.35389861416126117,
                0.013181635162258176
            ]
        },
        {
            "positions": [
                -2.1076504505420948,
                -1.5617723442658091,
                0.8368231628346009,
                0.415507107183847,
                0.3752205497731368,
                0.06369613448930611
            ]
        },
        {
            "positions": [
                -2.0165410574306115,
                -1.5739900909253093,
                0.7273256785538338,
                0.30612359952709656,
                0.39654248538501247,
                0.11421063381635405
            ]
        },
        {
            "positions": [
                -1.9254316643191283,
                -1.5862078375848094,
                0.6178281942730666,
                0.19674009187034602,
                0.4178644209968881,
                0.16472513314340198
            ]
        },
        {
            "positions": [
                -1.834322271207645,
                -1.5984255842443098,
                0.5083307099922995,
                0.0873565842135956,
                0.4391863566087637,
                0.21523963247044992
            ]
        },
        {
            "positions": [
                -1.7432128780961615,
                -1.61064333090381,
                0.3988332257115321,
                -0.022026923443155044,
                0.4605082922206394,
                0.2657541317974979
            ]
        },
        {
            "positions": [
                -1.6521034849846783,
                -1.6228610775633103,
                0.2893357414307649,
                -0.13141043109990536,
                0.48183022783251506,
                0.3162686311245458
            ]
        },
        {
            "positions": [
                -1.560994091873195,
                -1.6350788242228105,
                0.1798382571499979,
                -0.24079393875665578,
                0.5031521634443906,
                0.36678313045159366
            ]
        },
        {
            "positions": [
                -1.4698846987617118,
                -1.6472965708823106,
                0.07034077286923068,
                -0.3501774464134062,
                0.5244740990562663,
                0.41729762977864165
            ]
        },
        {
            "positions": [
                -1.3787753056502285,
                -1.659514317541811,
                -0.03915671141153654,
                -0.45956095407015685,
                0.545796034668142,
                0.46781212910568964
            ]
        },
        {
            "positions": [
                -1.2876659125387453,
                -1.6717320642013112,
                -0.14865419569230376,
                -0.5689444617269073,
                0.5671179702800175,
                0.5183266284327375
            ]
        },
        {
            "positions": [
                -1.196556519427262,
                -1.6839498108608113,
                -0.258151679973071,
                -0.6783279693836577,
                0.5884399058918932,
                0.5688411277597853
            ]
        },
        {
            "positions": [
                -1.1054471263157788,
                -1.6961675575203117,
                -0.367649164253838,
                -0.7877114770404081,
                0.6097618415037689,
                0.6193556270868334
            ]
        },
        {
            "positions": [
                -1.0143377332042955,
                -1.7083853041798118,
                -0.4771466485346052,
                -0.8970949846971585,
                0.6310837771156446,
                0.6698701264138813
            ]
        },
        {
            "positions": [
                -0.9232283400928121,
                -1.720603050839312,
                -0.5866441328153726,
                -1.0064784923539094,
                0.6524057127275202,
                0.7203846257409294
            ]
        },
        {
            "positions": [
                -0.8321189469813288,
                -1.7328207974988123,
                -0.6961416170961399,
                -1.1158620000106598,
                0.6737276483393958,
                0.7708991250679773
            ]
        },
        {
            "positions": [
                -0.7410095538698456,
                -1.7450385441583125,
                -0.8056391013769071,
                -1.22524550766741,
                0.6950495839512715,
                0.8214136243950252
            ]
        },
        {
            "positions": [
                -0.6499001607583623,
                -1.7572562908178129,
                -0.9151365856576743,
                -1.3346290153241607,
                0.716371519563147,
                0.8719281237220731
            ]
        },
        {
            "positions": [
                -0.5587907676468791,
                -1.769474037477313,
                -1.024634069938441,
                -1.4440125229809109,
                0.7376934551750227,
                0.922442623049121
            ]
        },
        {
            "positions": [
                -0.4676813745353958,
                -1.7816917841368132,
                -1.1341315542192083,
                -1.5533960306376615,
                0.7590153907868984,
                0.972957122376169
            ]
        },
        {
            "positions": [
                -0.37657198142391257,
                -1.7939095307963133,
                -1.2436290384999755,
                -1.6627795382944117,
                0.7803373263987741,
                1.023471621703217
            ]
        },
        {
            "positions": [
                -0.2854625883124293,
                -1.8061272774558137,
                -1.3531265227807432,
                -1.7721630459511628,
                0.8016592620106497,
                1.073986121030265
            ]
        },
        {
            "positions": [
                -0.19435319520094607,
                -1.8183450241153138,
                -1.46262400706151,
                -1.881546553607913,
                0.8229811976225254,
                1.124500620357313
            ]
        },
        {
            "positions": [
                -0.10324380208946282,
                -1.8305627707748142,
                -1.5721214913422772,
                -1.9909300612646637,
                0.8443031332344009,
                1.1750151196843608
            ]
        },
        {
            "positions": [
                -0.012134408977979391,
                -1.8427805174343144,
                -1.6816189756230444,
                -2.100313568921414,
                0.8656250688462765,
                1.2255296190114087
            ]
        },
        {
            "positions": [
                -0.016489280343281325,
                -1.837111612295503,
                -1.7484724809635883,
                -2.126447130614767,
                0.7892372901100587,
                1.3835821932146475
            ]
        },
        {
            "positions": [
                -0.02084415170858326,
                -1.8314427071566914,
                -1.8153259863041322,
                -2.1525806923081205,
                0.7128495113738409,
                1.5416347674178865
            ]
        },
        {
            "positions": [
                -0.025199023073885198,
                -1.82577380201788,
                -1.8821794916446764,
                -2.178714254001474,
                0.6364617326376231,
                1.6996873416211253
            ]
        },
        {
            "positions": [
                -0.029553894439187132,
                -1.8201048968790685,
                -1.9490329969852203,
                -2.2048478156948272,
                0.5600739539014052,
                1.8577399158243644
            ]
        },
        {
            "positions": [
                -0.033908765804489066,
                -1.814435991740257,
                -2.015886502325764,
                -2.2309813773881806,
                0.4836861751651874,
                2.015792490027603
            ]
        },
        {
            "positions": [
                -0.055305311403437314,
                -1.8050370103530846,
                -2.0642223477338524,
                -2.2281071332053726,
                0.3904864930043202,
                2.180725902315201
            ]
        },
        {
            "positions": [
                -0.07670185700238556,
                -1.795638028965912,
                -2.1125581931419406,
                -2.2252328890225646,
                0.297286810843453,
                2.3456593146027984
            ]
        },
        {
            "positions": [
                -0.0980984026013338,
                -1.7862390475787395,
                -2.160894038550029,
                -2.2223586448397565,
                0.20408712868258583,
                2.5105927268903963
            ]
        },
        {
            "positions": [
                -0.11949494820028206,
                -1.776840066191567,
                -2.2092298839581166,
                -2.2194844006569485,
                0.11088744652171861,
                2.6755261391779936
            ]
        },
        {
            "positions": [
                -0.14089149379923033,
                -1.7674410848043947,
                -2.257565729366205,
                -2.2166101564741405,
                0.0176877643608514,
                2.8404595514655915
            ]
        },
        {
            "positions": [
                -0.16228803939817854,
                -1.758042103417222,
                -2.305901574774293,
                -2.2137359122913325,
                -0.07551191780001576,
                3.005392963753189
            ]
        },
        {
            "positions": [
                -0.1836845849971268,
                -1.7486431220300496,
                -2.3542374201823812,
                -2.2108616681085245,
                -0.168711599960883,
                3.1703263760407867
            ]
        }
    ]
}