{
    "goal": {
        "global_pose": {
            "orientation": {
                "w": -0.00223480608172531,
                "x": 0.0024358444001904467,
                "y": 0.7094548369677653,
                "z": -0.704743149386269
            },
            "position": {
                "x": -0.37947507619857795,
                "y": -0.6371506643295288,
                "z": 0.19426114857196808
            }
        },
        "name": "move_to_magneteinheit_C"
    },
    "id": "RRT_move_to_magneteinheit_C_132",
    "joint_names": [
        "shoulder_pan_joint",
        "shoulder_lift_joint",
        "elbow_joint",
        "wrist_1_joint",
        "wrist_2_joint",
        "wrist_3_joint"
    ],
    "metrics": {
        "cart_traj_len": 1.7010958895642159,
        "distance_elbow_joint": 0.7811499484813993,
        "distance_shoulder_lift_joint": 2.385873803633574,
        "distance_shoulder_pan_joint": 2.2765130784720937,
        "distance_wrist_1_joint": 0.9920538188982594,
        "distance_wrist_2_joint": 4.595594087662322,
        "distance_wrist_3_joint": 4.068230313208038,
        "smoothness": 1.0362176398756762,
        "time": 4.438784001,
        "traj_len": 3.8857965786123803,
        "weighted_distance": 5.3687543791211345
    },
    "planner": "RRT",
    "start": {
        "state": {
            "elbow_joint": 1.9565354010623817,
            "shoulder_lift_joint": -1.4165861575791021,
            "shoulder_pan_joint": -1.6717766225146293,
            "wrist_1_joint": -0.5286633292919765,
            "wrist_2_joint": 1.472756589071564,
            "wrist_3_joint": -3.1238370188695823
        }
    },
    "waypoints": [
        {
            "positions": [
                -1.6717766225146293,
                -1.4165861575791021,
                1.9565354010623817,
                -0.5286633292919765,
                1.472756589071564,
                -3.1238370188695823
            ]
        },
        {
            "positions": [
                -1.6929630731304597,
                -1.430046813285675,
                1.9938804377887829,
                -0.6194427731671465,
                1.3915915621117236,
                -3.0141998939846304
            ]
        },
        {
            "positions": [
                -1.71414952374629,
                -1.4435074689922476,
                2.031225474515184,
                -0.7102222170423164,
                1.3104265351518833,
                -2.9045627690996785
            ]
        },
        {
            "positions": [
                -1.7353359743621204,
                -1.4569681246988204,
                2.0685705112415853,
                -0.8010016609174864,
                1.2292615081920428,
                -2.794925644214726
            ]
        },
        {
            "positions": [
                -1.7565224249779507,
                -1.470428780405393,
                2.1059155479679865,
                -0.8917811047926563,
                1.1480964812322025,
                -2.685288519329774
            ]
        },
        {
            "positions": [
                -1.777708875593781,
                -1.4838894361119659,
                2.1432605846943877,
                -0.9825605486678263,
                1.0669314542723622,
                -2.5756513944448223
            ]
        },
        {
            "positions": [
                -1.8225462786566922,
                -1.5061637050148413,
                2.167897454071002,
                -1.0507984806164663,
                0.9522172060785777,
                -2.6154040302882082
            ]
        },
        {
            "positions": [
                -1.867383681719603,
                -1.5284379739177167,
                2.192534323447617,
                -1.1190364125651064,
                0.8375029578847933,
                -2.655156666131594
            ]
        },
        {
            "positions": [
                -1.912221084782514,
                -1.5507122428205922,
                2.2171711928242313,
                -1.1872743445137464,
                0.7227887096910088,
                -2.69490930197498
            ]
        },
        {
            "positions": [
                -1.9933962691229958,
                -1.608997987001494,
                2.1946011279052287,
                -1.1793412282869233,
                0.6010080644485776,
                -2.6024550630102707
            ]
        },
        {
            "positions": [
                -2.0745714534634776,
                -1.6672837311823963,
                2.172031062986226,
                -1.1714081120601005,
                0.4792274192061463,
                -2.510000824045561
            ]
        },
        {
            "positions": [
                -2.1557466378039596,
                -1.7255694753632982,
                2.149460998067224,
                -1.1634749958332775,
                0.3574467739637151,
                -2.4175465850808515
            ]
        },
        {
            "positions": [
                -2.236921822144441,
                -1.7838552195442003,
                2.1268909331482213,
                -1.1555418796064547,
                0.23566612872128384,
                -2.3250923461161417
            ]
        },
        {
            "positions": [
                -2.3180970064849227,
                -1.8421409637251023,
                2.1043208682292187,
                -1.1476087633796317,
                0.11388548347885263,
                -2.2326381071514323
            ]
        },
        {
            "positions": [
                -2.3992721908254047,
                -1.9004267079060044,
                2.081750803310216,
                -1.1396756471528087,
                -0.007895161763578629,
                -2.140183868186723
            ]
        },
        {
            "positions": [
                -2.4804473751658866,
                -1.9587124520869064,
                2.0591807383912135,
                -1.1317425309259859,
                -0.1296758070060099,
                -2.047729629222013
            ]
        },
        {
            "positions": [
                -2.561622559506368,
                -2.0169981962678083,
                2.036610673472211,
                -1.1238094146991628,
                -0.25145645224844115,
                -1.9552753902573035
            ]
        },
        {
            "positions": [
                -2.6427977438468497,
                -2.0752839404487107,
                2.0140406085532088,
                -1.1158762984723398,
                -0.3732370974908723,
                -1.8628211512925938
            ]
        },
        {
            "positions": [
                -2.7239729281873317,
                -2.1335696846296126,
                1.9914705436342062,
                -1.107943182245517,
                -0.49501774273330357,
                -1.7703669123278842
            ]
        },
        {
            "positions": [
                -2.8051481125278137,
                -2.1918554288105145,
                1.9689004787152036,
                -1.100010066018694,
                -0.6167983879757348,
                -1.6779126733631746
            ]
        },
        {
            "positions": [
                -2.8863232968682953,
                -2.2501411729914165,
                1.946330413796201,
                -1.092076949791871,
                -0.7385790332181661,
                -1.5854584343984652
            ]
        },
        {
            "positions": [
                -2.967498481208777,
                -2.3084269171723184,
                1.9237603488771986,
                -1.0841438335650482,
                -0.8603596784605974,
                -1.4930041954337556
            ]
        },
        {
            "positions": [
                -3.048673665549259,
                -2.366712661353221,
                1.901190283958196,
                -1.0762107173382252,
                -0.9821403237030286,
                -1.400549956469046
            ]
        },
        {
            "positions": [
                -3.1298488498897408,
                -2.4249984055341227,
                1.8786202190391936,
                -1.0682776011114024,
                -1.1039209689454599,
                -1.3080957175043364
            ]
        },
        {
            "positions": [
                -3.2110240342302223,
                -2.4832841497150246,
                1.856050154120191,
                -1.0603444848845793,
                -1.2257016141878911,
                -1.2156414785396268
            ]
        },
        {
            "positions": [
                -3.164944930057941,
                -2.4008356614964215,
                1.8660122239961603,
                -1.0474374258816217,
                -1.1071306214127121,
                -1.3357364134032372
            ]
        },
        {
            "positions": [
                -3.11886582588566,
                -2.3183871732778183,
                1.8759742938721298,
                -1.034530366878664,
                -0.9885596286375329,
                -1.4558313482668477
            ]
        },
        {
            "positions": [
                -3.0727867217133786,
                -2.235938685059215,
                1.885936363748099,
                -1.0216233078757064,
                -0.8699886358623539,
                -1.5759262831304581
            ]
        },
        {
            "positions": [
                -3.0267076175410974,
                -2.153490196840612,
                1.8958984336240685,
                -1.0087162488727488,
                -0.7514176430871746,
                -1.6960212179940686
            ]
        },
        {
            "positions": [
                -2.9806285133688157,
                -2.0710417086220088,
                1.9058605035000378,
                -0.9958091898697911,
                -0.6328466503119956,
                -1.816116152857679
            ]
        },
        {
            "positions": [
                -2.9345494091965345,
                -1.9885932204034054,
                1.915822573376007,
                -0.9829021308668334,
                -0.5142756575368165,
                -1.9362110877212892
            ]
        },
        {
            "positions": [
                -2.8884703050242533,
                -1.9061447321848022,
                1.9257846432519765,
                -0.9699950718638758,
                -0.39570466476163735,
                -2.0563060225848995
            ]
        },
        {
            "positions": [
                -2.842391200851972,
                -1.823696243966199,
                1.9357467131279458,
                -0.957088012860918,
                -0.2771336719864582,
                -2.17640095744851
            ]
        },
        {
            "positions": [
                -2.796312096679691,
                -1.7412477557475958,
                1.945708783003915,
                -0.9441809538579604,
                -0.1585626792112791,
                -2.2964958923121204
            ]
        },
        {
            "positions": [
                -2.7502329925074096,
                -1.6587992675289926,
                1.9556708528798845,
                -0.9312738948550028,
                -0.03999168643610007,
                -2.416590827175731
            ]
        },
        {
            "positions": [
                -2.704153888335128,
                -1.5763507793103892,
                1.9656329227558538,
                -0.9183668358520451,
                0.07857930633907917,
                -2.5366857620393413
            ]
        },
        {
            "positions": [
                -2.6580747841628467,
                -1.493902291091786,
                1.975594992631823,
                -0.9054597768490875,
                0.1971502991142582,
                -2.6567806969029517
            ]
        },
        {
            "positions": [
                -2.6119956799905655,
                -1.411453802873183,
                1.9855570625077925,
                -0.8925527178461299,
                0.3157212918894374,
                -2.776875631766562
            ]
        },
        {
            "positions": [
                -2.5659165758182843,
                -1.3290053146545797,
                1.9955191323837618,
                -0.8796456588431723,
                0.43429228466461645,
                -2.8969705666301726
            ]
        },
        {
            "positions": [
                -2.519837471646003,
                -1.2465568264359765,
                2.0054812022597313,
                -0.8667385998402145,
                0.5528632774397957,
                -3.017065501493783
            ]
        },
        {
            "positions": [
                -2.473758367473722,
                -1.1641083382173734,
                2.0154432721357005,
                -0.8538315408372569,
                0.6714342702149747,
                -3.1371604363573935
            ]
        }
    ]
}