{
    "goal": {
        "global_pose": {
            "orientation": {
                "w": -0.4816463035849501,
                "x": 0.5182115481033762,
                "y": 0.4908360881923453,
                "z": -0.5084816262002911
            },
            "position": {
                "x": -0.8240239810943604,
                "y": 0.19912469901144506,
                "z": 0.16403168439865112
            }
        },
        "name": "move_to_storage_D"
    },
    "id": "RRT_move_to_storage_D_30",
    "joint_names": [
        "shoulder_pan_joint",
        "shoulder_lift_joint",
        "elbow_joint",
        "wrist_1_joint",
        "wrist_2_joint",
        "wrist_3_joint"
    ],
    "metrics": {
        "cart_traj_len": 4.050131540949172,
        "distance_elbow_joint": 4.208063354283054,
        "distance_shoulder_lift_joint": 1.2648736542863797,
        "distance_shoulder_pan_joint": 2.814222620108348,
        "distance_wrist_1_joint": 2.2627437836694178,
        "distance_wrist_2_joint": 1.6133985974212897,
        "distance_wrist_3_joint": 3.156510125038682,
        "smoothness": 0.1489907008823224,
        "time": 0.154586039,
        "traj_len": 3.9140531594253,
        "weighted_distance": 5.0506410252536496
    },
    "planner": "RRT",
    "start": {
        "state": {
            "elbow_joint": -2.384821988534728,
            "shoulder_lift_joint": -2.2788054721415256,
            "shoulder_pan_joint": -0.1854694642142757,
            "wrist_1_joint": 1.4845938289331202,
            "wrist_2_joint": 0.17898776772866878,
            "wrist_3_joint": 0.037105688729662994
        }
    },
    "waypoints": [
        {
            "positions": [
                -0.1854694642142757,
                -2.2788054721415256,
                -2.384821988534728,
                1.4845938289331202,
                0.17898776772866878,
                0.037105688729662994
            ]
        },
        {
            "positions": [
                -0.17088485137689258,
                -2.2785745786430294,
                -2.364190113110852,
                1.4790159392841478,
                0.19528953113021907,
                0.026743992207716085
            ]
        },
        {
            "positions": [
                -0.09934589534951571,
                -2.249980914438668,
                -2.257194225221853,
                1.413101679009273,
                0.23148792900324294,
                0.1067259553792744
            ]
        },
        {
            "positions": [
                -0.027806939322138846,
                -2.2213872502343066,
                -2.1501983373328537,
                1.3471874187343982,
                0.2676863268762668,
                0.1867079185508327
            ]
        },
        {
            "positions": [
                0.04373201670523805,
                -2.1927935860299455,
                -2.0432024494438545,
                1.2812731584595234,
                0.3038847247492906,
                0.26668988172239105
            ]
        },
        {
            "positions": [
                0.11527097273261488,
                -2.1641999218255843,
                -1.9362065615548556,
                1.2153588981846486,
                0.3400831226223145,
                0.3466718448939493
            ]
        },
        {
            "positions": [
                0.1868099287599918,
                -2.1356062576212227,
                -1.8292106736658564,
                1.1494446379097738,
                0.37628152049533836,
                0.4266538080655077
            ]
        },
        {
            "positions": [
                0.25834888478736867,
                -2.1070125934168615,
                -1.7222147857768573,
                1.083530377634899,
                0.4124799183683622,
                0.506635771237066
            ]
        },
        {
            "positions": [
                0.3298878408147454,
                -2.0784189292125004,
                -1.6152188978878583,
                1.0176161173600242,
                0.44867831624138604,
                0.5866177344086242
            ]
        },
        {
            "positions": [
                0.40142679684212235,
                -2.0498252650081388,
                -1.5082230099988592,
                0.9517018570851494,
                0.4848767141144099,
                0.6665996975801826
            ]
        },
        {
            "positions": [
                0.47296575286949927,
                -2.0212316008037776,
                -1.40122712210986,
                0.8857875968102746,
                0.5210751119874337,
                0.7465816607517409
            ]
        },
        {
            "positions": [
                0.5445047088968762,
                -1.9926379365994162,
                -1.2942312342208608,
                0.8198733365353998,
                0.5572735098604575,
                0.8265636239232993
            ]
        },
        {
            "positions": [
                0.616043664924253,
                -1.9640442723950549,
                -1.1872353463318617,
                0.753959076260525,
                0.5934719077334815,
                0.9065455870948576
            ]
        },
        {
            "positions": [
                0.6875826209516299,
                -1.9354506081906937,
                -1.0802394584428625,
                0.6880448159856503,
                0.6296703056065054,
                0.9865275502664159
            ]
        },
        {
            "positions": [
                0.7591215769790066,
                -1.9068569439863323,
                -0.9732435705538636,
                0.6221305557107756,
                0.6658687034795292,
                1.0665095134379743
            ]
        },
        {
            "positions": [
                0.8306605330063834,
                -1.878263279781971,
                -0.8662476826648644,
                0.5562162954359007,
                0.702067101352553,
                1.1464914766095324
            ]
        },
        {
            "positions": [
                0.9021994890337603,
                -1.8496696155776098,
                -0.7592517947758652,
                0.4903020351610259,
                0.7382654992255768,
                1.2264734397810908
            ]
        },
        {
            "positions": [
                0.9737384450611373,
                -1.8210759513732484,
                -0.6522559068868661,
                0.4243877748861511,
                0.7744638970986008,
                1.3064554029526492
            ]
        },
        {
            "positions": [
                1.0452774010885142,
                -1.792482287168887,
                -0.5452600189978669,
                0.3584735146112763,
                0.8106622949716246,
                1.3864373661242075
            ]
        },
        {
            "positions": [
                1.1168163571158911,
                -1.7638886229645259,
                -0.43826413110886775,
                0.2925592543364015,
                0.8468606928446484,
                1.466419329295766
            ]
        },
        {
            "positions": [
                1.188355313143268,
                -1.7352949587601643,
                -0.3312682432198688,
                0.22664499406152672,
                0.8830590907176723,
                1.5464012924673243
            ]
        },
        {
            "positions": [
                1.259894269170645,
                -1.706701294555803,
                -0.22427235533086964,
                0.16073073378665192,
                0.9192574885906961,
                1.6263832556388826
            ]
        },
        {
            "positions": [
                1.3314332251980217,
                -1.6781076303514417,
                -0.11727646744187048,
                0.09481647351177713,
                0.95545588646372,
                1.7063652188104408
            ]
        },
        {
            "positions": [
                1.4029721812253986,
                -1.6495139661470803,
                -0.010280579552871316,
                0.02890221323690234,
                0.9916542843367439,
                1.7863471819819992
            ]
        },
        {
            "positions": [
                1.4745111372527755,
                -1.6209203019427192,
                0.09671530833612785,
                -0.03701204703797245,
                1.0278526822097678,
                1.8663291451535575
            ]
        },
        {
            "positions": [
                1.5460500932801524,
                -1.5923266377383578,
                0.203711196225127,
                -0.10292630731284724,
                1.0640510800827916,
                1.946311108325116
            ]
        },
        {
            "positions": [
                1.6175890493075293,
                -1.5637329735339964,
                0.3107070841141262,
                -0.16884056758772226,
                1.1002494779558154,
                2.0262930714966743
            ]
        },
        {
            "positions": [
                1.6891280053349058,
                -1.5351393093296353,
                0.4177029720031249,
                -0.2347548278625966,
                1.1364478758288392,
                2.1062750346682324
            ]
        },
        {
            "positions": [
                1.7606669613622827,
                -1.506545645125274,
                0.5246988598921241,
                -0.3006690881374716,
                1.172646273701863,
                2.1862569978397906
            ]
        },
        {
            "positions": [
                1.8322059173896594,
                -1.4779519809209125,
                0.6316947477811232,
                -0.3665833484123464,
                1.2088446715748868,
                2.2662389610113487
            ]
        },
        {
            "positions": [
                1.9037448734170366,
                -1.4493583167165514,
                0.7386906356701224,
                -0.4324976086872212,
                1.2450430694479109,
                2.3462209241829073
            ]
        },
        {
            "positions": [
                1.9752838294444133,
                -1.42076465251219,
                0.8456865235591216,
                -0.498411868962096,
                1.2812414673209345,
                2.4262028873544654
            ]
        },
        {
            "positions": [
                2.0468227854717904,
                -1.3921709883078286,
                0.9526824114481207,
                -0.5643261292369708,
                1.3174398651939585,
                2.506184850526024
            ]
        },
        {
            "positions": [
                2.118361741499167,
                -1.3635773241034674,
                1.0596782993371199,
                -0.6302403895118456,
                1.3536382630669825,
                2.586166813697582
            ]
        },
        {
            "positions": [
                2.1899006975265443,
                -1.3349836598991058,
                1.166674187226119,
                -0.6961546497867204,
                1.3898366609400061,
                2.6661487768691408
            ]
        },
        {
            "positions": [
                2.261439653553921,
                -1.3063899956947447,
                1.2736700751151182,
                -0.7620689100615949,
                1.4260350588130302,
                2.746130740040699
            ]
        },
        {
            "positions": [
                2.3226585706106126,
                -1.2576469660548115,
                1.3652652902206528,
                -0.7647490841740454,
                1.3649765077568754,
                2.8172576868213244
            ]
        },
        {
            "positions": [
                2.383877487667305,
                -1.2089039364148784,
                1.4568605053261874,
                -0.767429258286496,
                1.3039179567007206,
                2.88838463360195
            ]
        },
        {
            "positions": [
                2.4450964047239965,
                -1.1601609067749452,
                1.548455720431722,
                -0.7701094323989465,
                1.242859405644566,
                2.959511580382575
            ]
        },
        {
            "positions": [
                2.506315321780688,
                -1.1114178771350123,
                1.6400509355372566,
                -0.7727896065113969,
                1.1818008545884113,
                3.0306385271632004
            ]
        },
        {
            "positions": [
                2.5675342388373803,
                -1.0626748474950791,
                1.7316461506427914,
                -0.7754697806238475,
                1.1207423035322566,
                3.101765473943826
            ]
        },
        {
            "positions": [
                2.628753155894072,
                -1.013931817855146,
                1.823241365748326,
                -0.778149954736298,
                1.0596837524761018,
                3.1728924207244513
            ]
        }
    ]
}