{
    "goal": {
        "global_pose": {
            "orientation": {
                "w": 0.005598929693374612,
                "x": 0.007748599140229565,
                "y": 0.7110244013736278,
                "z": -0.7031023480610252
            },
            "position": {
                "x": -0.8858502320852131,
                "y": -0.7141253447532654,
                "z": 0.3711530566215515
            }
        },
        "name": "move_to_auspresseinheit_C"
    },
    "id": "RRT_move_to_auspresseinheit_C_74",
    "joint_names": [
        "shoulder_pan_joint",
        "shoulder_lift_joint",
        "elbow_joint",
        "wrist_1_joint",
        "wrist_2_joint",
        "wrist_3_joint"
    ],
    "metrics": {
        "cart_traj_len": 0.4946890412398582,
        "distance_elbow_joint": 1.0126099134665225,
        "distance_shoulder_lift_joint": 0.33028072046022094,
        "distance_shoulder_pan_joint": 0.25696916409822634,
        "distance_wrist_1_joint": 0.7032838489876455,
        "distance_wrist_2_joint": 1.3125049551815422,
        "distance_wrist_3_joint": 0.07761858030805602,
        "smoothness": 1.6148698667872622e-16,
        "time": 0.015216556999999999,
        "traj_len": 1.921787496707743,
        "weighted_distance": 2.421630266429521
    },
    "planner": "RRT",
    "start": {
        "state": {
            "elbow_joint": 1.7527959577737207,
            "shoulder_lift_joint": -0.9740617694225068,
            "shoulder_pan_joint": -2.967991417825858,
            "wrist_1_joint": -0.759517768980727,
            "wrist_2_joint": 1.7443932448377408,
            "wrist_3_joint": -3.0840537646736568
        }
    },
    "waypoints": [
        {
            "positions": [
                -2.967991417825858,
                -0.9740617694225068,
                1.7527959577737207,
                -0.759517768980727,
                1.7443932448377408,
                -3.0840537646736568
            ]
        },
        {
            "positions": [
                -2.9422945014160353,
                -0.9410336973764847,
                1.6515349664270684,
                -0.6891893840819624,
                1.6131427493195867,
                -3.091815622704462
            ]
        },
        {
            "positions": [
                -2.9165975850062127,
                -0.9080056253304626,
                1.5502739750804162,
                -0.6188609991831979,
                1.4818922538014323,
                -3.099577480735268
            ]
        },
        {
            "positions": [
                -2.89090066859639,
                -0.8749775532844405,
                1.449012983733764,
                -0.5485326142844333,
                1.3506417582832781,
                -3.1073393387660735
            ]
        },
        {
            "positions": [
                -2.8652037521865674,
                -0.8419494812384184,
                1.3477519923871117,
                -0.47820422938566876,
                1.2193912627651238,
                -3.1151011967968794
            ]
        },
        {
            "positions": [
                -2.839506835776745,
                -0.8089214091923963,
                1.2464910010404595,
                -0.4078758444869042,
                1.0881407672469696,
                -3.122863054827685
            ]
        },
        {
            "positions": [
                -2.813809919366922,
                -0.7758933371463742,
                1.1452300096938073,
                -0.3375474595881397,
                0.9568902717288156,
                -3.13062491285849
            ]
        },
        {
            "positions": [
                -2.7881130029570995,
                -0.7428652651003521,
                1.043969018347155,
                -0.26721907468937517,
                0.8256397762106613,
                -3.138386770889296
            ]
        },
        {
            "positions": [
                -2.762416086547277,
                -0.70983719305433,
                0.9427080270005026,
                -0.19689068979061053,
                0.6943892806925069,
                -3.1461486289201015
            ]
        },
        {
            "positions": [
                -2.7367191701374542,
                -0.6768091210083079,
                0.8414470356538504,
                -0.12656230489184606,
                0.5631387851743528,
                -3.1539104869509074
            ]
        },
        {
            "positions": [
                -2.7110222537276316,
                -0.6437810489622858,
                0.7401860443071981,
                -0.056233919993081444,
                0.43188828965619863,
                -3.161672344981713
            ]
        }
    ]
}