{
    "goal": {
        "global_pose": {
            "orientation": {
                "w": -0.00223480608172531,
                "x": 0.0024358444001904467,
                "y": 0.7094548369677653,
                "z": -0.704743149386269
            },
            "position": {
                "x": -0.37947507619857795,
                "y": -0.6371506643295288,
                "z": 0.19426114857196808
            }
        },
        "name": "move_to_magneteinheit_C"
    },
    "id": "RRT_move_to_magneteinheit_C_63",
    "joint_names": [
        "shoulder_pan_joint",
        "shoulder_lift_joint",
        "elbow_joint",
        "wrist_1_joint",
        "wrist_2_joint",
        "wrist_3_joint"
    ],
    "metrics": {
        "cart_traj_len": 3.1408427223953876,
        "distance_elbow_joint": 2.9037180659187913,
        "distance_shoulder_lift_joint": 1.036563036827937,
        "distance_shoulder_pan_joint": 2.69732297283403,
        "distance_wrist_1_joint": 1.3534895318115894,
        "distance_wrist_2_joint": 1.8286050638872402,
        "distance_wrist_3_joint": 2.114927775535951,
        "smoothness": 0.6494668384605901,
        "time": 4.466785477,
        "traj_len": 3.4546528692208054,
        "weighted_distance": 4.3984743484060775
    },
    "planner": "RRT",
    "start": {
        "state": {
            "elbow_joint": 1.9565354010623817,
            "shoulder_lift_joint": -1.4165861575791021,
            "shoulder_pan_joint": -1.6717766225146293,
            "wrist_1_joint": -0.5286633292919765,
            "wrist_2_joint": 1.472756589071564,
            "wrist_3_joint": -3.1238370188695823
        }
    },
    "waypoints": [
        {
            "positions": [
                -1.6717766225146293,
                -1.4165861575791021,
                1.9565354010623817,
                -0.5286633292919765,
                1.472756589071564,
                -3.1238370188695823
            ]
        },
        {
            "positions": [
                -1.5159170622335034,
                -1.44022605537937,
                1.9355490767844308,
                -0.5272133649286146,
                1.4035434350858615,
                -3.039310794546397
            ]
        },
        {
            "positions": [
                -1.3600575019523775,
                -1.4638659531796379,
                1.91456275250648,
                -0.5257634005652527,
                1.3343302811001594,
                -2.9547845702232114
            ]
        },
        {
            "positions": [
                -1.2041979416712516,
                -1.4875058509799057,
                1.8935764282285288,
                -0.524313436201891,
                1.265117127114457,
                -2.870258345900026
            ]
        },
        {
            "positions": [
                -1.0483383813901257,
                -1.5111457487801736,
                1.872590103950578,
                -0.5228634718385291,
                1.1959039731287548,
                -2.7857321215768405
            ]
        },
        {
            "positions": [
                -0.8924788211089998,
                -1.5347856465804415,
                1.851603779672627,
                -0.5214135074751672,
                1.1266908191430525,
                -2.7012058972536552
            ]
        },
        {
            "positions": [
                -0.9703852586324223,
                -1.4913257941581108,
                1.711032149369704,
                -0.524210346662437,
                1.0811049688752428,
                -2.6266823913783335
            ]
        },
        {
            "positions": [
                -1.0482916961558448,
                -1.4478659417357802,
                1.570460519066781,
                -0.5270071858497068,
                1.035519118607433,
                -2.5521588855030117
            ]
        },
        {
            "positions": [
                -1.1261981336792672,
                -1.4044060893134498,
                1.4298888887638581,
                -0.5298040250369767,
                0.9899332683396233,
                -2.4776353796276904
            ]
        },
        {
            "positions": [
                -1.2041045712026899,
                -1.3609462368911192,
                1.289317258460935,
                -0.5326008642242464,
                0.9443474180718135,
                -2.4031118737523687
            ]
        },
        {
            "positions": [
                -1.2820110087261125,
                -1.3174863844687885,
                1.148745628158012,
                -0.5353977034115162,
                0.8987615678040037,
                -2.328588367877047
            ]
        },
        {
            "positions": [
                -1.359917446249535,
                -1.2740265320464579,
                1.008173997855089,
                -0.538194542598786,
                0.853175717536194,
                -2.254064862001725
            ]
        },
        {
            "positions": [
                -1.4768735734614689,
                -1.2324381326093357,
                0.955106801017214,
                -0.49203970555326004,
                0.7755303567244791,
                -2.2344626667459377
            ]
        },
        {
            "positions": [
                -1.593829700673403,
                -1.1908497331722137,
                0.902039604179339,
                -0.4458848685077341,
                0.6978849959127642,
                -2.2148604714901503
            ]
        },
        {
            "positions": [
                -1.710785827885337,
                -1.1492613337350914,
                0.8489724073414641,
                -0.3997300314622082,
                0.6202396351010493,
                -2.195258276234363
            ]
        },
        {
            "positions": [
                -1.827741955097271,
                -1.1076729342979692,
                0.7959052105035891,
                -0.3535751944166823,
                0.5425942742893344,
                -2.1756560809785754
            ]
        },
        {
            "positions": [
                -1.944698082309205,
                -1.0660845348608472,
                0.7428380136657141,
                -0.30742035737115625,
                0.4649489134776195,
                -2.1560538857227876
            ]
        },
        {
            "positions": [
                -2.061654209521139,
                -1.024496135423725,
                0.6897708168278391,
                -0.2612655203256304,
                0.38730355266590466,
                -2.136451690467
            ]
        },
        {
            "positions": [
                -2.1786103367330734,
                -0.9829077359866027,
                0.6367036199899642,
                -0.2151106832801044,
                0.30965819185418975,
                -2.1168494952112127
            ]
        },
        {
            "positions": [
                -2.2955664639450073,
                -0.9413193365494807,
                0.5836364231520892,
                -0.16895584623457854,
                0.23201283104247483,
                -2.0972472999554252
            ]
        },
        {
            "positions": [
                -2.4125225911569412,
                -0.8997309371123585,
                0.5305692263142142,
                -0.1228010091890526,
                0.15436747023075992,
                -2.077645104699638
            ]
        },
        {
            "positions": [
                -2.4731203985646544,
                -0.8962290988399892,
                0.6394220014693826,
                -0.0891691621184765,
                0.16382038070522756,
                -2.1689303560231186
            ]
        },
        {
            "positions": [
                -2.533718205972368,
                -0.8927272605676199,
                0.7482747766245509,
                -0.055537315047900424,
                0.1732732911796952,
                -2.2602156073465993
            ]
        },
        {
            "positions": [
                -2.594316013380081,
                -0.8892254222952506,
                0.8571275517797192,
                -0.021905467977324327,
                0.18272620165416284,
                -2.35150085867008
            ]
        },
        {
            "positions": [
                -2.6064042911703305,
                -0.8965333685007594,
                0.9883956625768542,
                -0.06866025134427708,
                0.21893042030089369,
                -2.465484683244731
            ]
        },
        {
            "positions": [
                -2.61849256896058,
                -0.9038413147062682,
                1.1196637733739894,
                -0.11541503471122985,
                0.2551346389476245,
                -2.5794685078193824
            ]
        },
        {
            "positions": [
                -2.6305808467508296,
                -0.911149260911777,
                1.2509318841711243,
                -0.1621698180781826,
                0.29133885759435535,
                -2.693452332394034
            ]
        },
        {
            "positions": [
                -2.642669124541079,
                -0.9184572071172857,
                1.3821999949682593,
                -0.20892460144513536,
                0.3275430762410862,
                -2.8074361569686848
            ]
        },
        {
            "positions": [
                -2.6088278204306876,
                -0.9371944895342026,
                1.476667957382712,
                -0.33096102936244154,
                0.3685941373197038,
                -2.879540073290883
            ]
        },
        {
            "positions": [
                -2.5749865163202967,
                -0.9559317719511194,
                1.5711359197971644,
                -0.4529974572797478,
                0.4096451983983214,
                -2.9516439896130815
            ]
        },
        {
            "positions": [
                -2.5411452122099054,
                -0.9746690543680363,
                1.665603882211617,
                -0.575033885197054,
                0.45069625947693903,
                -3.02374790593528
            ]
        },
        {
            "positions": [
                -2.5245674732936183,
                -1.0215089772351915,
                1.7512831910299225,
                -0.6400441809545465,
                0.5041680484270032,
                -3.054406170967871
            ]
        },
        {
            "positions": [
                -2.5079897343773316,
                -1.0683489001023467,
                1.8369624998482281,
                -0.7050544767120391,
                0.5576398373770675,
                -3.085064436000462
            ]
        },
        {
            "positions": [
                -2.4914119954610445,
                -1.1151888229695022,
                1.9226418086665338,
                -0.7700647724695318,
                0.6111116263271316,
                -3.115722701033053
            ]
        },
        {
            "positions": [
                -2.4748342565447574,
                -1.1620287458366574,
                2.008321117484839,
                -0.8350750682270243,
                0.6645834152771958,
                -3.146380966065644
            ]
        }
    ]
}