{
    "goal": {
        "global_pose": {
            "orientation": {
                "w": 0.5084816262002911,
                "x": -0.4908360881923452,
                "y": 0.5182115481033761,
                "z": -0.48164630358495003
            },
            "position": {
                "x": 0.5540239810943604,
                "y": -0.46912469901144505,
                "z": 0.16403168439865112
            }
        },
        "name": "move_to_storage_B"
    },
    "id": "RRT_move_to_storage_B_72",
    "joint_names": [
        "shoulder_pan_joint",
        "shoulder_lift_joint",
        "elbow_joint",
        "wrist_1_joint",
        "wrist_2_joint",
        "wrist_3_joint"
    ],
    "metrics": {
        "cart_traj_len": 0.8947409598300281,
        "distance_elbow_joint": 0.6651768589684357,
        "distance_shoulder_lift_joint": 0.45880846862992697,
        "distance_shoulder_pan_joint": 0.6317056204032508,
        "distance_wrist_1_joint": 2.9782714620723283,
        "distance_wrist_2_joint": 2.699676827377374,
        "distance_wrist_3_joint": 3.2251934394193573,
        "smoothness": 0.16901496033509714,
        "time": 0.079848695,
        "traj_len": 3.2647867735689378,
        "weighted_distance": 4.773590665857211
    },
    "planner": "RRT",
    "start": {
        "state": {
            "elbow_joint": 1.664937868594044,
            "shoulder_lift_joint": -0.661644460510453,
            "shoulder_pan_joint": -0.9139846352900073,
            "wrist_1_joint": 2.146753192139373,
            "wrist_2_joint": -2.2341966793290973,
            "wrist_3_joint": 0.005466555786416001
        }
    },
    "waypoints": [
        {
            "positions": [
                -0.9139846352900073,
                -0.661644460510453,
                1.664937868594044,
                2.146753192139373,
                -2.2341966793290973,
                0.005466555786416001
            ]
        },
        {
            "positions": [
                -0.8392071740507041,
                -0.70453360487164,
                1.6122027133275112,
                2.142344188534088,
                -2.13366653658453,
                0.018379224323980755
            ]
        },
        {
            "positions": [
                -0.764429712811401,
                -0.7474227492328268,
                1.5594675580609783,
                2.137935184928802,
                -2.033136393839963,
                0.03129189286154551
            ]
        },
        {
            "positions": [
                -0.6896522515720979,
                -0.7903118935940138,
                1.5067324027944455,
                2.133526181323517,
                -1.9326062510953959,
                0.04420456139911026
            ]
        },
        {
            "positions": [
                -0.7059471810395115,
                -0.8035175350158684,
                1.527011258521199,
                2.014924403273258,
                -1.836682795129649,
                -0.08325365595315627
            ]
        },
        {
            "positions": [
                -0.7222421105069252,
                -0.8167231764377231,
                1.5472901142479525,
                1.8963226252229992,
                -1.740759339163902,
                -0.2107118733054228
            ]
        },
        {
            "positions": [
                -0.7385370399743388,
                -0.8299288178595777,
                1.567568969974706,
                1.7777208471727404,
                -1.644835883198155,
                -0.3381700906576893
            ]
        },
        {
            "positions": [
                -0.7548319694417525,
                -0.8431344592814324,
                1.5878478257014594,
                1.6591190691224813,
                -1.5489124272324082,
                -0.46562830800995586
            ]
        },
        {
            "positions": [
                -0.7711268989091662,
                -0.856340100703287,
                1.608126681428213,
                1.5405172910722225,
                -1.4529889712666613,
                -0.5930865253622225
            ]
        },
        {
            "positions": [
                -0.7874218283765798,
                -0.8695457421251417,
                1.6284055371549664,
                1.4219155130219636,
                -1.3570655153009143,
                -0.720544742714489
            ]
        },
        {
            "positions": [
                -0.8037167578439934,
                -0.8827513835469963,
                1.64868439288172,
                1.3033137349717046,
                -1.2611420593351674,
                -0.8480029600667557
            ]
        },
        {
            "positions": [
                -0.8200116873114072,
                -0.895957024968851,
                1.6689632486084736,
                1.1847119569214457,
                -1.1652186033694205,
                -0.975461177419022
            ]
        },
        {
            "positions": [
                -0.8363066167788208,
                -0.9091626663907056,
                1.689242104335227,
                1.066110178871187,
                -1.0692951474036738,
                -1.1029193947712885
            ]
        },
        {
            "positions": [
                -0.8526015462462344,
                -0.9223683078125603,
                1.7095209600619805,
                0.947508400820928,
                -0.9733716914379268,
                -1.2303776121235552
            ]
        },
        {
            "positions": [
                -0.8688964757136481,
                -0.9355739492344148,
                1.729799815788734,
                0.8289066227706692,
                -0.87744823547218,
                -1.3578358294758217
            ]
        },
        {
            "positions": [
                -0.8851914051810618,
                -0.9487795906562695,
                1.7500786715154875,
                0.7103048447204103,
                -0.7815247795064331,
                -1.4852940468280882
            ]
        },
        {
            "positions": [
                -0.9014863346484754,
                -0.9619852320781241,
                1.770357527242241,
                0.5917030666701515,
                -0.6856013235406861,
                -1.6127522641803549
            ]
        },
        {
            "positions": [
                -0.9177812641158891,
                -0.9751908734999788,
                1.7906363829689944,
                0.4731012886198924,
                -0.5896778675749392,
                -1.7402104815326216
            ]
        },
        {
            "positions": [
                -0.9340761935833027,
                -0.9883965149218334,
                1.8109152386957479,
                0.3544995105696338,
                -0.4937544116091923,
                -1.8676686988848878
            ]
        },
        {
            "positions": [
                -0.9503711230507164,
                -1.001602156343688,
                1.8311940944225014,
                0.23589773251937474,
                -0.3978309556434454,
                -1.9951269162371543
            ]
        },
        {
            "positions": [
                -0.9666660525181301,
                -1.0148077977655428,
                1.851472950149255,
                0.11729595446911567,
                -0.3019074996776985,
                -2.122585133589421
            ]
        },
        {
            "positions": [
                -0.9829609819855436,
                -1.0280134391873974,
                1.8717518058760083,
                -0.0013058235811427288,
                -0.20598404371195178,
                -2.250043350941687
            ]
        },
        {
            "positions": [
                -0.9992559114529573,
                -1.041219080609252,
                1.892030661602762,
                -0.11990760163140202,
                -0.11006058774620464,
                -2.3775015682939538
            ]
        },
        {
            "positions": [
                -1.015550840920371,
                -1.0544247220311067,
                1.9123095173295155,
                -0.23850937968166086,
                -0.014137131780457723,
                -2.5049597856462205
            ]
        },
        {
            "positions": [
                -1.0318457703877846,
                -1.0676303634529614,
                1.932588373056269,
                -0.35711115773191926,
                0.08178632418528897,
                -2.6324180029984867
            ]
        },
        {
            "positions": [
                -1.0481406998551983,
                -1.080836004874816,
                1.9528672287830224,
                -0.47571293578217855,
                0.1777097801510359,
                -2.7598762203507534
            ]
        },
        {
            "positions": [
                -1.064435629322612,
                -1.0940416462966707,
                1.973146084509776,
                -0.5943147138324374,
                0.2736332361167828,
                -2.88733443770302
            ]
        },
        {
            "positions": [
                -1.0807305587900256,
                -1.1072472877185253,
                1.9934249402365294,
                -0.7129164918826962,
                0.3695566920825297,
                -3.0147926550552864
            ]
        },
        {
            "positions": [
                -1.0970254882574393,
                -1.12045292914038,
                2.013703795963283,
                -0.8315182699329553,
                0.4654801480482765,
                -3.142250872407553
            ]
        }
    ]
}