{
    "goal": {
        "global_pose": {
            "orientation": {
                "w": 0.005598929693374612,
                "x": 0.007748599140229565,
                "y": 0.7110244013736278,
                "z": -0.7031023480610252
            },
            "position": {
                "x": 0.1141497679147869,
                "y": -0.7141253447532654,
                "z": 0.3711530566215515
            }
        },
        "name": "move_to_auspresseinheit_B"
    },
    "id": "RRT_move_to_auspresseinheit_B_134",
    "joint_names": [
        "shoulder_pan_joint",
        "shoulder_lift_joint",
        "elbow_joint",
        "wrist_1_joint",
        "wrist_2_joint",
        "wrist_3_joint"
    ],
    "metrics": {
        "cart_traj_len": 0.5640804915978523,
        "distance_elbow_joint": 0.05983441401987544,
        "distance_shoulder_lift_joint": 0.29531699384438426,
        "distance_shoulder_pan_joint": 0.5749214501563684,
        "distance_wrist_1_joint": 0.3194551197141242,
        "distance_wrist_2_joint": 1.0043874333750105,
        "distance_wrist_3_joint": 0.009089616896864161,
        "smoothness": 7.612957943425664e-16,
        "time": 0.015199201999999998,
        "traj_len": 1.5043287632717215,
        "weighted_distance": 1.8986908160333766
    },
    "planner": "RRT",
    "start": {
        "state": {
            "elbow_joint": 2.0193083361928714,
            "shoulder_lift_joint": -1.1220246554650708,
            "shoulder_pan_joint": -1.0952077554168747,
            "wrist_1_joint": -0.8559753972642168,
            "wrist_2_joint": 0.4759566250798843,
            "wrist_3_joint": -3.1240929996934557
        }
    },
    "waypoints": [
        {
            "positions": [
                -1.0952077554168747,
                -1.1220246554650708,
                2.0193083361928714,
                -0.8559753972642168,
                0.4759566250798843,
                -3.1240929996934557
            ]
        },
        {
            "positions": [
                -1.1910279971096027,
                -1.1712441544391348,
                2.0093359338562253,
                -0.8027328773118627,
                0.643354530642386,
                -3.1225780635439784
            ]
        },
        {
            "positions": [
                -1.2868482388023308,
                -1.220463653413199,
                1.9993635315195797,
                -0.7494903573595088,
                0.8107524362048877,
                -3.121063127394501
            ]
        },
        {
            "positions": [
                -1.3826684804950589,
                -1.269683152387263,
                1.9893911291829336,
                -0.6962478374071547,
                0.9781503417673896,
                -3.1195481912450234
            ]
        },
        {
            "positions": [
                -1.478488722187787,
                -1.318902651361327,
                1.9794187268462877,
                -0.6430053174548007,
                1.1455482473298912,
                -3.118033255095546
            ]
        },
        {
            "positions": [
                -1.574308963880515,
                -1.368122150335391,
                1.9694463245096419,
                -0.5897627975024466,
                1.3129461528923931,
                -3.116518318946069
            ]
        },
        {
            "positions": [
                -1.670129205573243,
                -1.417341649309455,
                1.959473922172996,
                -0.5365202775500926,
                1.4803440584548948,
                -3.1150033827965915
            ]
        }
    ]
}