{
    "goal": {
        "global_pose": {
            "orientation": {
                "w": -0.4816463035849501,
                "x": 0.5182115481033762,
                "y": 0.4908360881923453,
                "z": -0.5084816262002911
            },
            "position": {
                "x": -0.8240239810943604,
                "y": 0.19912469901144506,
                "z": 0.16403168439865112
            }
        },
        "name": "move_to_storage_D"
    },
    "id": "RRT_move_to_storage_D_45",
    "joint_names": [
        "shoulder_pan_joint",
        "shoulder_lift_joint",
        "elbow_joint",
        "wrist_1_joint",
        "wrist_2_joint",
        "wrist_3_joint"
    ],
    "metrics": {
        "cart_traj_len": 4.201458994571428,
        "distance_elbow_joint": 4.2171019554395945,
        "distance_shoulder_lift_joint": 1.264379500525181,
        "distance_shoulder_pan_joint": 2.8137460017086524,
        "distance_wrist_1_joint": 2.283702641496688,
        "distance_wrist_2_joint": 0.9329774408751672,
        "distance_wrist_3_joint": 3.1466069886787187,
        "smoothness": 0.07172947311250612,
        "time": 0.095171364,
        "traj_len": 3.8286439542903445,
        "weighted_distance": 4.916137568096859
    },
    "planner": "RRT",
    "start": {
        "state": {
            "elbow_joint": -2.384821988534728,
            "shoulder_lift_joint": -2.2788054721415256,
            "shoulder_pan_joint": -0.1854694642142757,
            "wrist_1_joint": 1.4845938289331202,
            "wrist_2_joint": 0.17898776772866878,
            "wrist_3_joint": 0.037105688729662994
        }
    },
    "waypoints": [
        {
            "positions": [
                -0.1854694642142757,
                -2.2788054721415256,
                -2.384821988534728,
                1.4845938289331202,
                0.17898776772866878,
                0.037105688729662994
            ]
        },
        {
            "positions": [
                -0.13405443351864016,
                -2.244467928429696,
                -2.3882086545268972,
                1.4914054717245255,
                0.15362926023589735,
                -0.030994460682396807
            ]
        },
        {
            "positions": [
                -0.04335298798623825,
                -2.204039519746383,
                -2.3323832693429427,
                1.3648435902451426,
                0.16562902242029862,
                -0.0848029856492449
            ]
        },
        {
            "positions": [
                0.04734845754616365,
                -2.1636111110630702,
                -2.276557884158988,
                1.2382817087657598,
                0.17762878460469989,
                -0.138611510616093
            ]
        },
        {
            "positions": [
                0.13804990307856557,
                -2.123182702379758,
                -2.2207324989750337,
                1.1117198272863769,
                0.18962854678910115,
                -0.19242003558294113
            ]
        },
        {
            "positions": [
                0.22875134861096746,
                -2.082754293696445,
                -2.164907113791079,
                0.985157945806994,
                0.20162830897350242,
                -0.24622856054978923
            ]
        },
        {
            "positions": [
                0.31945279414336936,
                -2.042325885013132,
                -2.109081728607124,
                0.8585960643276112,
                0.2136280711579037,
                -0.3000370855166373
            ]
        },
        {
            "positions": [
                0.4101542396757713,
                -2.001897476329819,
                -2.0532563434231696,
                0.7320341828482283,
                0.22562783334230496,
                -0.35384561048348545
            ]
        },
        {
            "positions": [
                0.5008556852081731,
                -1.9614690676465065,
                -1.9974309582392151,
                0.6054723013688456,
                0.2376275955267062,
                -0.4076541354503335
            ]
        },
        {
            "positions": [
                0.5915571307405751,
                -1.9210406589631936,
                -1.9416055730552606,
                0.4789104198894625,
                0.2496273577111075,
                -0.46146266041718165
            ]
        },
        {
            "positions": [
                0.6822585762729769,
                -1.880612250279881,
                -1.885780187871306,
                0.35234853841007974,
                0.26162711989550874,
                -0.5152711853840297
            ]
        },
        {
            "positions": [
                0.7729600218053789,
                -1.8401838415965681,
                -1.8299548026873516,
                0.22578665693069677,
                0.27362688207991004,
                -0.5690797103508778
            ]
        },
        {
            "positions": [
                0.8636614673377807,
                -1.7997554329132552,
                -1.774129417503397,
                0.09922477545131403,
                0.2856266442643113,
                -0.6228882353177259
            ]
        },
        {
            "positions": [
                0.9543629128701827,
                -1.7593270242299424,
                -1.7183040323194423,
                -0.027337106028068936,
                0.2976264064487125,
                -0.6766967602845742
            ]
        },
        {
            "positions": [
                1.0450643584025845,
                -1.7188986155466297,
                -1.6624786471354878,
                -0.15389898750745165,
                0.3096261686331138,
                -0.7305052852514222
            ]
        },
        {
            "positions": [
                1.1083928455662562,
                -1.6907197097894182,
                -1.522959235853247,
                -0.17916244908638396,
                0.339691049632521,
                -0.8256651258393275
            ]
        },
        {
            "positions": [
                1.1717213327299278,
                -1.662540804032207,
                -1.3834398245710064,
                -0.20442591066531624,
                0.36975593063192813,
                -0.9208249664272329
            ]
        },
        {
            "positions": [
                1.2350498198935995,
                -1.6343618982749955,
                -1.2439204132887658,
                -0.2296893722442485,
                0.3998208116313353,
                -1.0159848070151383
            ]
        },
        {
            "positions": [
                1.2983783070572712,
                -1.6061829925177842,
                -1.1044010020065254,
                -0.25495283382318085,
                0.4298856926307425,
                -1.1111446476030435
            ]
        },
        {
            "positions": [
                1.361706794220943,
                -1.5780040867605727,
                -0.9648815907242845,
                -0.2802162954021131,
                0.4599505736301497,
                -1.2063044881909488
            ]
        },
        {
            "positions": [
                1.4250352813846148,
                -1.5498251810033612,
                -0.8253621794420439,
                -0.3054797569810454,
                0.49001545462955687,
                -1.301464328778854
            ]
        },
        {
            "positions": [
                1.4883637685482864,
                -1.52164627524615,
                -0.6858427681598032,
                -0.33074321855997774,
                0.520080335628964,
                -1.3966241693667596
            ]
        },
        {
            "positions": [
                1.5516922557119581,
                -1.4934673694889384,
                -0.5463233568775627,
                -0.35600668013891,
                0.5501452166283711,
                -1.4917840099546649
            ]
        },
        {
            "positions": [
                1.6150207428756298,
                -1.4652884637317272,
                -0.40680394559532207,
                -0.3812701417178423,
                0.5802100976277784,
                -1.5869438505425701
            ]
        },
        {
            "positions": [
                1.6783492300393017,
                -1.4371095579745157,
                -0.2672845343130812,
                -0.40653360329677457,
                0.6102749786271855,
                -1.6821036911304756
            ]
        },
        {
            "positions": [
                1.7416777172029732,
                -1.4089306522173044,
                -0.12776512303084075,
                -0.4317970648757069,
                0.6403398596265927,
                -1.777263531718381
            ]
        },
        {
            "positions": [
                1.805006204366645,
                -1.380751746460093,
                0.011754288251399903,
                -0.4570605264546391,
                0.6704047406259999,
                -1.8724233723062862
            ]
        },
        {
            "positions": [
                1.8683346915303165,
                -1.3525728407028814,
                0.15127369953364056,
                -0.48232398803357146,
                0.700469621625407,
                -1.9675832128941915
            ]
        },
        {
            "positions": [
                1.9316631786939884,
                -1.32439393494567,
                0.29079311081588144,
                -0.5075874496125038,
                0.7305345026248142,
                -2.062743053482097
            ]
        },
        {
            "positions": [
                1.9949916658576599,
                -1.2962150291884587,
                0.43031252209812165,
                -0.532850911191436,
                0.7605993836242213,
                -2.157902894070002
            ]
        },
        {
            "positions": [
                2.0583201530213318,
                -1.2680361234312472,
                0.5698319333803623,
                -0.5581143727703683,
                0.7906642646236286,
                -2.2530627346579077
            ]
        },
        {
            "positions": [
                2.121648640185003,
                -1.239857217674036,
                0.7093513446626034,
                -0.5833778343493007,
                0.8207291456230357,
                -2.348222575245813
            ]
        },
        {
            "positions": [
                2.184977127348675,
                -1.2116783119168244,
                0.8488707559448436,
                -0.6086412959282329,
                0.850794026622443,
                -2.4433824158337183
            ]
        },
        {
            "positions": [
                2.248305614512347,
                -1.183499406159613,
                0.9883901672270843,
                -0.6339047575071652,
                0.88085890762185,
                -2.5385422564216236
            ]
        },
        {
            "positions": [
                2.3116341016760185,
                -1.1553205004024016,
                1.1279095785093254,
                -0.6591682190860976,
                0.9109237886212573,
                -2.633702097009529
            ]
        },
        {
            "positions": [
                2.37496258883969,
                -1.1271415946451904,
                1.2674289897915656,
                -0.6844316806650298,
                0.9409886696206644,
                -2.728861937597434
            ]
        },
        {
            "positions": [
                2.4382910760033623,
                -1.0989626888879789,
                1.4069484010738063,
                -0.7096951422439621,
                0.9710535506200715,
                -2.8240217781853394
            ]
        },
        {
            "positions": [
                2.5016195631670337,
                -1.0707837831307674,
                1.546467812356047,
                -0.7349586038228945,
                1.0011184316194788,
                -2.919181618773245
            ]
        },
        {
            "positions": [
                2.564948050330705,
                -1.042604877373556,
                1.6859872236382876,
                -0.7602220654018267,
                1.0311833126188859,
                -3.01434145936115
            ]
        },
        {
            "positions": [
                2.628276537494377,
                -1.0144259716163446,
                1.8255066349205284,
                -0.785485526980759,
                1.0612481936182931,
                -3.1095012999490557
            ]
        }
    ]
}