{
    "goal": {
        "global_pose": {
            "orientation": {
                "w": 0.7031023480610252,
                "x": -0.7110244013736278,
                "y": 0.0077485991402295624,
                "z": 0.005598929693374583
            },
            "position": {
                "x": -0.8841497679147869,
                "y": 0.44412534475326537,
                "z": 0.3711530566215515
            }
        },
        "name": "move_to_auspresseinheit_D"
    },
    "id": "RRT_move_to_auspresseinheit_D_16",
    "joint_names": [
        "shoulder_pan_joint",
        "shoulder_lift_joint",
        "elbow_joint",
        "wrist_1_joint",
        "wrist_2_joint",
        "wrist_3_joint"
    ],
    "metrics": {
        "cart_traj_len": 0.345247129732976,
        "distance_elbow_joint": 0.6683355869061876,
        "distance_shoulder_lift_joint": 0.13771921024499667,
        "distance_shoulder_pan_joint": 0.13449915318589267,
        "distance_wrist_1_joint": 0.6252771989969017,
        "distance_wrist_2_joint": 1.4348835672886378,
        "distance_wrist_3_joint": 0.0860672671049203,
        "smoothness": 0.0,
        "time": 0.01704632,
        "traj_len": 1.756924011938916,
        "weighted_distance": 2.3063124862478883
    },
    "planner": "RRT",
    "start": {
        "state": {
            "elbow_joint": -1.8275523626775212,
            "shoulder_lift_joint": -2.126789852344167,
            "shoulder_pan_joint": -0.03513704404078235,
            "wrist_1_joint": -2.347782403156801,
            "wrist_2_joint": -1.6058999987535132,
            "wrist_3_joint": -3.0880379163319196
        }
    },
    "waypoints": [
        {
            "positions": [
                -0.03513704404078235,
                -2.126789852344167,
                -1.8275523626775212,
                -2.347782403156801,
                -1.6058999987535132,
                -3.0880379163319196
            ]
        },
        {
            "positions": [
                -0.05194943818901893,
                -2.1440047536247913,
                -1.7440104143142476,
                -2.4259420530314135,
                -1.4265395528424334,
                -3.0772795079438047
            ]
        },
        {
            "positions": [
                -0.06876183233725552,
                -2.161219654905416,
                -1.6604684659509743,
                -2.504101702906026,
                -1.2471791069313538,
                -3.0665210995556897
            ]
        },
        {
            "positions": [
                -0.0855742264854921,
                -2.1784345561860405,
                -1.576926517587701,
                -2.582261352780639,
                -1.067818661020274,
                -3.0557626911675744
            ]
        },
        {
            "positions": [
                -0.10238662063372869,
                -2.195649457466665,
                -1.4933845692244274,
                -2.6604210026552515,
                -0.8884582151091943,
                -3.0450042827794594
            ]
        },
        {
            "positions": [
                -0.11919901478196526,
                -2.21286435874729,
                -1.4098426208611539,
                -2.7385806525298646,
                -0.7090977691981146,
                -3.0342458743913445
            ]
        },
        {
            "positions": [
                -0.13601140893020186,
                -2.2300792600279142,
                -1.3263006724978805,
                -2.8167403024044773,
                -0.5297373232870348,
                -3.023487466003229
            ]
        },
        {
            "positions": [
                -0.15282380307843843,
                -2.247294161308539,
                -1.2427587241346072,
                -2.89489995227909,
                -0.35037687737595524,
                -3.0127290576151142
            ]
        },
        {
            "positions": [
                -0.16963619722667503,
                -2.2645090625891635,
                -1.1592167757713336,
                -2.9730596021537026,
                -0.1710164314648754,
                -3.0019706492269993
            ]
        }
    ]
}