{
    "goal": {
        "global_pose": {
            "orientation": {
                "w": 0.005598929693374612,
                "x": 0.007748599140229565,
                "y": 0.7110244013736278,
                "z": -0.7031023480610252
            },
            "position": {
                "x": -0.8858502320852131,
                "y": -0.7141253447532654,
                "z": 0.3711530566215515
            }
        },
        "name": "move_to_auspresseinheit_C"
    },
    "id": "RRT_move_to_auspresseinheit_C_107",
    "joint_names": [
        "shoulder_pan_joint",
        "shoulder_lift_joint",
        "elbow_joint",
        "wrist_1_joint",
        "wrist_2_joint",
        "wrist_3_joint"
    ],
    "metrics": {
        "cart_traj_len": 0.4935864292619139,
        "distance_elbow_joint": 0.995759162619081,
        "distance_shoulder_lift_joint": 0.32328104905203714,
        "distance_shoulder_pan_joint": 0.256328923113156,
        "distance_wrist_1_joint": 0.656879004501202,
        "distance_wrist_2_joint": 1.3184567359149693,
        "distance_wrist_3_joint": 0.04052733873398173,
        "smoothness": 8.074349282788172e-16,
        "time": 0.011267702999999999,
        "traj_len": 1.895054673072634,
        "weighted_distance": 2.376472729029004
    },
    "planner": "RRT",
    "start": {
        "state": {
            "elbow_joint": 1.7527959577737207,
            "shoulder_lift_joint": -0.9740617694225068,
            "shoulder_pan_joint": -2.967991417825858,
            "wrist_1_joint": -0.759517768980727,
            "wrist_2_joint": 1.7443932448377408,
            "wrist_3_joint": -3.0840537646736568
        }
    },
    "waypoints": [
        {
            "positions": [
                -2.967991417825858,
                -0.9740617694225068,
                1.7527959577737207,
                -0.759517768980727,
                1.7443932448377408,
                -3.0840537646736568
            ]
        },
        {
            "positions": [
                -2.9423585255145426,
                -0.9417336645173031,
                1.6532200415118126,
                -0.6938298685306068,
                1.6125475712462438,
                -3.088106498547055
            ]
        },
        {
            "positions": [
                -2.9167256332032268,
                -0.9094055596120993,
                1.5536441252499045,
                -0.6281419680804866,
                1.480701897654747,
                -3.092159232420453
            ]
        },
        {
            "positions": [
                -2.891092740891911,
                -0.8770774547068956,
                1.4540682089879964,
                -0.5624540676303664,
                1.34885622406325,
                -3.0962119662938514
            ]
        },
        {
            "positions": [
                -2.8654598485805955,
                -0.8447493498016919,
                1.3544922927260883,
                -0.4967661671802462,
                1.2170105504717532,
                -3.1002647001672496
            ]
        },
        {
            "positions": [
                -2.83982695626928,
                -0.8124212448964883,
                1.2549163764641802,
                -0.431078266730126,
                1.0851648768802562,
                -3.104317434040648
            ]
        },
        {
            "positions": [
                -2.8141940639579643,
                -0.7800931399912845,
                1.155340460202272,
                -0.3653903662800058,
                0.9533192032887593,
                -3.1083701679140456
            ]
        },
        {
            "positions": [
                -2.7885611716466485,
                -0.7477650350860808,
                1.055764543940364,
                -0.29970246582988563,
                0.8214735296972624,
                -3.112422901787444
            ]
        },
        {
            "positions": [
                -2.762928279335333,
                -0.7154369301808771,
                0.9561886276784558,
                -0.2340145653797654,
                0.6896278561057654,
                -3.116475635660842
            ]
        },
        {
            "positions": [
                -2.7372953870240178,
                -0.6831088252756734,
                0.8566127114165477,
                -0.1683266649296452,
                0.5577821825142684,
                -3.1205283695342403
            ]
        },
        {
            "positions": [
                -2.711662494712702,
                -0.6507807203704696,
                0.7570367951546396,
                -0.10263876447952501,
                0.4259365089227716,
                -3.1245811034076385
            ]
        }
    ]
}