{
    "goal": {
        "global_pose": {
            "orientation": {
                "w": 0.7047431493862688,
                "x": -0.7094548369677653,
                "y": 0.0024358444001904,
                "z": -0.0022348060817251984
            },
            "position": {
                "x": -0.39052492380142206,
                "y": 0.3671506643295288,
                "z": 0.19426114857196808
            }
        },
        "name": "move_to_magneteinheit_D"
    },
    "id": "RRT_move_to_magneteinheit_D_115",
    "joint_names": [
        "shoulder_pan_joint",
        "shoulder_lift_joint",
        "elbow_joint",
        "wrist_1_joint",
        "wrist_2_joint",
        "wrist_3_joint"
    ],
    "metrics": {
        "cart_traj_len": 3.654615382696528,
        "distance_elbow_joint": 3.1213961637796936,
        "distance_shoulder_lift_joint": 1.6328691935161361,
        "distance_shoulder_pan_joint": 2.9960730075447786,
        "distance_wrist_1_joint": 1.5983706667542719,
        "distance_wrist_2_joint": 1.0797679096192379,
        "distance_wrist_3_joint": 3.1411471966798556,
        "smoothness": 0.15874886761504156,
        "time": 0.10401669799999999,
        "traj_len": 3.6836970746647952,
        "weighted_distance": 4.7465837301818645
    },
    "planner": "RRT",
    "start": {
        "state": {
            "elbow_joint": 0.749534889911806,
            "shoulder_lift_joint": -0.6476975780787326,
            "shoulder_pan_joint": -2.711696901376241,
            "wrist_1_joint": -0.07506478083263063,
            "wrist_2_joint": 0.43296659715538205,
            "wrist_3_joint": -3.14703540197715
        }
    },
    "waypoints": [
        {
            "positions": [
                -2.711696901376241,
                -0.6476975780787326,
                0.749534889911806,
                -0.07506478083263063,
                0.43296659715538205,
                -3.14703540197715
            ]
        },
        {
            "positions": [
                -2.7319628724112084,
                -0.6492549702785543,
                0.6198569612906495,
                -0.06874179371006175,
                0.36690696719594573,
                -2.984275683310904
            ]
        },
        {
            "positions": [
                -2.7522288434461757,
                -0.6508123624783759,
                0.49017903266949303,
                -0.062418806587492895,
                0.30084733723650936,
                -2.8215159646446577
            ]
        },
        {
            "positions": [
                -2.772494814481143,
                -0.6523697546781976,
                0.3605011040483366,
                -0.05609581946492403,
                0.23478770727707302,
                -2.6587562459784113
            ]
        },
        {
            "positions": [
                -2.7927607855161103,
                -0.6539271468780192,
                0.23082317542718014,
                -0.04977283234235516,
                0.16872807731763664,
                -2.4959965273121654
            ]
        },
        {
            "positions": [
                -2.6907701609373613,
                -0.6908712833622179,
                0.12729070669600842,
                0.004755786361256675,
                0.15181823541481607,
                -2.428839755726789
            ]
        },
        {
            "positions": [
                -2.5887795363586124,
                -0.7278154198464165,
                0.023758237964836698,
                0.05928440506486851,
                0.13490839351199552,
                -2.361682984141413
            ]
        },
        {
            "positions": [
                -2.4867889117798634,
                -0.7647595563306152,
                -0.07977423076633502,
                0.11381302376848035,
                0.11799855160917494,
                -2.294526212556036
            ]
        },
        {
            "positions": [
                -2.3847982872011144,
                -0.8017036928148138,
                -0.18330669949750675,
                0.16834164247209218,
                0.10108870970635438,
                -2.22736944097066
            ]
        },
        {
            "positions": [
                -2.282807662622365,
                -0.8386478292990125,
                -0.2868391682286785,
                0.22287026117570405,
                0.0841788678035338,
                -2.1602126693852837
            ]
        },
        {
            "positions": [
                -2.180817038043616,
                -0.8755919657832112,
                -0.3903716369598502,
                0.2773988798793159,
                0.06726902590071324,
                -2.0930558977999074
            ]
        },
        {
            "positions": [
                -2.078826413464867,
                -0.9125361022674098,
                -0.49390410569102194,
                0.3319274985829277,
                0.05035918399789266,
                -2.025899126214531
            ]
        },
        {
            "positions": [
                -1.976835788886118,
                -0.9494802387516084,
                -0.5974365744221937,
                0.3864561172865395,
                0.03344934209507211,
                -1.958742354629155
            ]
        },
        {
            "positions": [
                -1.8748451643073691,
                -0.9864243752358071,
                -0.7009690431533654,
                0.4409847359901513,
                0.016539500192251533,
                -1.8915855830437784
            ]
        },
        {
            "positions": [
                -1.77285453972862,
                -1.0233685117200058,
                -0.8045015118845371,
                0.49551335469376323,
                -0.0003703417105690443,
                -1.824428811458402
            ]
        },
        {
            "positions": [
                -1.670863915149871,
                -1.0603126482042045,
                -0.9080339806157087,
                0.550041973397375,
                -0.017280183613389594,
                -1.7572720398730257
            ]
        },
        {
            "positions": [
                -1.568873290571122,
                -1.097256784688403,
                -1.0115664493468806,
                0.6045705921009868,
                -0.03419002551621017,
                -1.6901152682876495
            ]
        },
        {
            "positions": [
                -1.466882665992373,
                -1.1342009211726016,
                -1.1150989180780522,
                0.6590992108045987,
                -0.05109986741903072,
                -1.6229584967022732
            ]
        },
        {
            "positions": [
                -1.3648920414136239,
                -1.1711450576568003,
                -1.218631386809224,
                0.7136278295082106,
                -0.06800970932185132,
                -1.5558017251168967
            ]
        },
        {
            "positions": [
                -1.262901416834875,
                -1.208089194140999,
                -1.3221638555403958,
                0.7681564482118224,
                -0.08491955122467185,
                -1.4886449535315205
            ]
        },
        {
            "positions": [
                -1.160910792256126,
                -1.2450333306251977,
                -1.4256963242715675,
                0.8226850669154342,
                -0.10182939312749242,
                -1.4214881819461442
            ]
        },
        {
            "positions": [
                -1.0589201676773767,
                -1.2819774671093964,
                -1.5292287930027393,
                0.8772136856190461,
                -0.118739235030313,
                -1.3543314103607678
            ]
        },
        {
            "positions": [
                -0.956929543098628,
                -1.318921603593595,
                -1.632761261733911,
                0.9317423043226578,
                -0.13564907693313358,
                -1.2871746387753915
            ]
        },
        {
            "positions": [
                -0.854938918519879,
                -1.3558657400777936,
                -1.7362937304650825,
                0.9862709230262696,
                -0.15255891883595415,
                -1.2200178671900153
            ]
        },
        {
            "positions": [
                -0.7529482939411296,
                -1.3928098765619923,
                -1.8398261991962543,
                1.0407995417298816,
                -0.16946876073877473,
                -1.1528610956046388
            ]
        },
        {
            "positions": [
                -0.6509576693623806,
                -1.4297540130461908,
                -1.943358667927426,
                1.0953281604334935,
                -0.1863786026415953,
                -1.0857043240192625
            ]
        },
        {
            "positions": [
                -0.5489670447836317,
                -1.4666981495303895,
                -2.0468911366585973,
                1.1498567791371053,
                -0.20328844454441583,
                -1.0185475524338863
            ]
        },
        {
            "positions": [
                -0.4469764202048827,
                -1.5036422860145882,
                -2.1504236053897694,
                1.204385397840717,
                -0.2201982864472364,
                -0.9513907808485098
            ]
        },
        {
            "positions": [
                -0.34498579562613374,
                -1.5405864224987869,
                -2.253956074120941,
                1.2589140165443289,
                -0.237108128350057,
                -0.8842340092631336
            ]
        },
        {
            "positions": [
                -0.24065152202001558,
                -1.6093708360566696,
                -2.290412449854553,
                1.3162161640438843,
                -0.20099688972103097,
                -0.8546879444233331
            ]
        },
        {
            "positions": [
                -0.13631724841389742,
                -1.6781552496145522,
                -2.3268688255881655,
                1.37351831154344,
                -0.16488565109200495,
                -0.8251418795835325
            ]
        },
        {
            "positions": [
                -0.03198297480777923,
                -1.746939663172435,
                -2.3633252013217776,
                1.4308204590429954,
                -0.1287744124629789,
                -0.795595814743732
            ]
        },
        {
            "positions": [
                -0.061879454803485764,
                -1.8503789187502169,
                -2.3649798492506244,
                1.4487480034970288,
                -0.0703583414600582,
                -0.6425174460552664
            ]
        },
        {
            "positions": [
                -0.0917759347991923,
                -1.9538181743279985,
                -2.366634497179471,
                1.4666755479510623,
                -0.0119422704571375,
                -0.48943907736680076
            ]
        },
        {
            "positions": [
                -0.12167241479489883,
                -2.05725742990578,
                -2.3682891451083177,
                1.484603092405096,
                0.04647380054578318,
                -0.3363607086783352
            ]
        },
        {
            "positions": [
                -0.15156889479060537,
                -2.160696685483562,
                -2.369943793037164,
                1.5025306368591294,
                0.10488987154870391,
                -0.18328233998986954
            ]
        },
        {
            "positions": [
                -0.18146537478631192,
                -2.264135941061344,
                -2.371598440966011,
                1.5204581813131628,
                0.16330594255162462,
                -0.030203971301403922
            ]
        },
        {
            "positions": [
                -0.18621428750435629,
                -2.2805667715948688,
                -2.371861273867888,
                1.5233058859216413,
                0.17258505576374158,
                -0.005888205297294578
            ]
        }
    ]
}