{
    "goal": {
        "global_pose": {
            "orientation": {
                "w": 0.005598929693374612,
                "x": 0.007748599140229565,
                "y": 0.7110244013736278,
                "z": -0.7031023480610252
            },
            "position": {
                "x": 0.1141497679147869,
                "y": -0.7141253447532654,
                "z": 0.3711530566215515
            }
        },
        "name": "move_to_auspresseinheit_B"
    },
    "id": "RRT_move_to_auspresseinheit_B_79",
    "joint_names": [
        "shoulder_pan_joint",
        "shoulder_lift_joint",
        "elbow_joint",
        "wrist_1_joint",
        "wrist_2_joint",
        "wrist_3_joint"
    ],
    "metrics": {
        "cart_traj_len": 0.5645972715639466,
        "distance_elbow_joint": 0.0637195783815434,
        "distance_shoulder_lift_joint": 0.2939144629629964,
        "distance_shoulder_pan_joint": 0.5756467410732271,
        "distance_wrist_1_joint": 0.33282674260311873,
        "distance_wrist_2_joint": 1.0034651467706521,
        "distance_wrist_3_joint": 0.0020728076662202,
        "smoothness": 5.075305295617109e-16,
        "time": 0.021771289,
        "traj_len": 1.5071978899460277,
        "weighted_distance": 1.9005480746784515
    },
    "planner": "RRT",
    "start": {
        "state": {
            "elbow_joint": 2.0193083361928714,
            "shoulder_lift_joint": -1.1220246554650708,
            "shoulder_pan_joint": -1.0952077554168747,
            "wrist_1_joint": -0.8559753972642168,
            "wrist_2_joint": 0.4759566250798843,
            "wrist_3_joint": -3.1240929996934557
        }
    },
    "waypoints": [
        {
            "positions": [
                -1.0952077554168747,
                -1.1220246554650708,
                2.0193083361928714,
                -0.8559753972642168,
                0.4759566250798843,
                -3.1240929996934557
            ]
        },
        {
            "positions": [
                -1.1911488789290792,
                -1.171010399292237,
                2.008688406462614,
                -0.8005042734970303,
                0.6432008162083263,
                -3.124438467637826
            ]
        },
        {
            "positions": [
                -1.2870900024412837,
                -1.2199961431194029,
                1.9980684767323569,
                -0.7450331497298439,
                0.8104450073367684,
                -3.1247839355821956
            ]
        },
        {
            "positions": [
                -1.3830311259534882,
                -1.268981886946569,
                1.9874485470020997,
                -0.6895620259626574,
                0.9776891984652103,
                -3.1251294035265658
            ]
        },
        {
            "positions": [
                -1.4789722494656927,
                -1.3179676307737351,
                1.9768286172718426,
                -0.634090902195471,
                1.1449333895936524,
                -3.125474871470936
            ]
        },
        {
            "positions": [
                -1.5749133729778972,
                -1.366953374600901,
                1.9662086875415852,
                -0.5786197784282845,
                1.3121775807220943,
                -3.1258203394153057
            ]
        },
        {
            "positions": [
                -1.6708544964901018,
                -1.4159391184280672,
                1.955588757811328,
                -0.5231486546610981,
                1.4794217718505365,
                -3.126165807359676
            ]
        }
    ]
}