{
    "goal": {
        "global_pose": {
            "orientation": {
                "w": 0.5084816217422485,
                "x": -0.49083608388900757,
                "y": 0.5182115435600281,
                "z": -0.4816462993621826
            },
            "position": {
                "x": 0.5540239810943604,
                "y": 0.030875300988554955,
                "z": 0.16403168439865112
            }
        },
        "name": "move_to_storage_A"
    },
    "id": "RRT_move_to_storage_A_84",
    "joint_names": [
        "shoulder_pan_joint",
        "shoulder_lift_joint",
        "elbow_joint",
        "wrist_1_joint",
        "wrist_2_joint",
        "wrist_3_joint"
    ],
    "metrics": {
        "cart_traj_len": 0.352894524638612,
        "distance_elbow_joint": 0.44846142301488334,
        "distance_shoulder_lift_joint": 0.23711807688310715,
        "distance_shoulder_pan_joint": 0.45812111024250923,
        "distance_wrist_1_joint": 0.23204586425192997,
        "distance_wrist_2_joint": 1.114081086044121,
        "distance_wrist_3_joint": 0.09644014578496041,
        "smoothness": 1.4432899335161698e-15,
        "time": 0.011694008,
        "traj_len": 1.6081877086402292,
        "weighted_distance": 2.0310772875711756
    },
    "planner": "RRT",
    "start": {
        "state": {
            "elbow_joint": 1.971548259319323,
            "shoulder_lift_joint": -1.1394851275133948,
            "shoulder_pan_joint": 0.1228115487234821,
            "wrist_1_joint": -0.7804723859257726,
            "wrist_2_joint": 0.12958671773740124,
            "wrist_3_joint": -3.192489227718131
        }
    },
    "waypoints": [
        {
            "positions": [
                0.1228115487234821,
                -1.1394851275133948,
                1.971548259319323,
                -0.7804723859257726,
                0.12958671773740124,
                -3.192489227718131
            ]
        },
        {
            "positions": [
                0.057365675831695065,
                -1.173359138496696,
                2.035614176892878,
                -0.8136217951046197,
                0.2887411586008471,
                -3.178712064034565
            ]
        },
        {
            "positions": [
                -0.00808019706009197,
                -1.2072331494799968,
                2.0996800944664327,
                -0.8467712042834669,
                0.4478955994642929,
                -3.1649349003509997
            ]
        },
        {
            "positions": [
                -0.07352606995187899,
                -1.241107160463298,
                2.1637460120399874,
                -0.879920613462314,
                0.6070500403277388,
                -3.1511577366674337
            ]
        },
        {
            "positions": [
                -0.13897194284366604,
                -1.2749811714465988,
                2.227811929613542,
                -0.9130700226411612,
                0.7662044811911847,
                -3.137380572983868
            ]
        },
        {
            "positions": [
                -0.2044178157354531,
                -1.3088551824299,
                2.291877847187097,
                -0.9462194318200083,
                0.9253589220546306,
                -3.1236034093003022
            ]
        },
        {
            "positions": [
                -0.2698636886272401,
                -1.3427291934132008,
                2.3559437647606516,
                -0.9793688409988555,
                1.0845133629180763,
                -3.1098262456167367
            ]
        },
        {
            "positions": [
                -0.33530956151902713,
                -1.376603204396502,
                2.4200096823342063,
                -1.0125182501777026,
                1.2436678037815223,
                -3.0960490819331707
            ]
        }
    ]
}{
    "goal": {
        "global_pose": {
            "orientation": {
                "w": 0.5084816217422485,
                "x": -0.49083608388900757,
                "y": 0.5182115435600281,
                "z": -0.4816462993621826
            },
            "position": {
                "x": 0.5540239810943604,
                "y": 0.030875300988554955,
                "z": 0.16403168439865112
            }
        },
        "name": "move_to_storage_A"
    },
    "id": "RRT_move_to_storage_A_84",
    "joint_names": [
        "shoulder_pan_joint",
        "shoulder_lift_joint",
        "elbow_joint",
        "wrist_1_joint",
        "wrist_2_joint",
        "wrist_3_joint"
    ],
    "metrics": {
        "cart_traj_len": 0.3535510647842245,
        "distance_elbow_joint": 0.44806046051062065,
        "distance_shoulder_lift_joint": 0.234042166142866,
        "distance_shoulder_pan_joint": 0.4599412055620523,
        "distance_wrist_1_joint": 0.23835526490688852,
        "distance_wrist_2_joint": 1.1092954516820384,
        "distance_wrist_3_joint": 0.09507342275948893,
        "smoothness": 4.440892098500626e-16,
        "time": 0.020095136,
        "traj_len": 1.6077213600509122,
        "weighted_distance": 2.030410188526412
    },
    "planner": "RRT",
    "start": {
        "state": {
            "elbow_joint": 1.97154746011099,
            "shoulder_lift_joint": -1.13948474672311,
            "shoulder_pan_joint": 0.12281154466712228,
            "wrist_1_joint": -0.7804688027058302,
            "wrist_2_joint": 0.12958655903071145,
            "wrist_3_joint": 3.0906928834467795
        }
    },
    "waypoints": [
        {
            "positions": [
                0.12281154466712228,
                -1.13948474672311,
                1.97154746011099,
                -0.7804688027058302,
                0.12958655903071145,
                3.0906928834467795
            ]
        },
        {
            "positions": [
                0.057105658158257674,
                -1.1729193418863766,
                2.035556097326793,
                -0.8145195548353857,
                0.2880573378424312,
                3.1042748009838492
            ]
        },
        {
            "positions": [
                -0.008600228350606934,
                -1.206353937049643,
                2.0995647345425956,
                -0.8485703069649412,
                0.44652811665415093,
                3.1178567185209194
            ]
        },
        {
            "positions": [
                -0.07430611485947154,
                -1.2397885322129096,
                2.1635733717583987,
                -0.8826210590944967,
                0.6049988954658707,
                3.131438636057989
            ]
        },
        {
            "positions": [
                -0.14001200136833614,
                -1.2732231273761763,
                2.2275820089742018,
                -0.9166718112240522,
                0.7634696742775905,
                3.145020553595059
            ]
        },
        {
            "positions": [
                -0.2057178878772008,
                -1.306657722539443,
                2.291590646190005,
                -0.9507225633536077,
                0.9219404530893103,
                3.1586024711321286
            ]
        },
        {
            "positions": [
                -0.27142377438606535,
                -1.3400923177027093,
                2.3555992834058075,
                -0.9847733154831632,
                1.08041123190103,
                3.1721843886691987
            ]
        },
        {
            "positions": [
                -0.33712966089493,
                -1.373526912865976,
                2.4196079206216106,
                -1.0188240676127187,
                1.2388820107127498,
                3.1857663062062684
            ]
        }
    ]
}{
    "goal": {
        "global_pose": {
            "orientation": {
                "w": 0.5084816217422485,
                "x": -0.49083608388900757,
                "y": 0.5182115435600281,
                "z": -0.4816462993621826
            },
            "position": {
                "x": 0.5540239810943604,
                "y": 0.030875300988554955,
                "z": 0.16403168439865112
            }
        },
        "name": "move_to_storage_A"
    },
    "id": "RRT_move_to_storage_A_84",
    "joint_names": [
        "shoulder_pan_joint",
        "shoulder_lift_joint",
        "elbow_joint",
        "wrist_1_joint",
        "wrist_2_joint",
        "wrist_3_joint"
    ],
    "metrics": {
        "cart_traj_len": 0.3528524437481566,
        "distance_elbow_joint": 0.45052632835514705,
        "distance_shoulder_lift_joint": 0.2331647039088116,
        "distance_shoulder_pan_joint": 0.4575053014430306,
        "distance_wrist_1_joint": 0.24484865542478196,
        "distance_wrist_2_joint": 1.114875978469399,
        "distance_wrist_3_joint": 0.09078916405822834,
        "smoothness": 6.661338165333112e-16,
        "time": 0.023218477999999997,
        "traj_len": 1.6098789183225546,
        "weighted_distance": 2.0329813313628917
    },
    "planner": "RRT",
    "start": {
        "state": {
            "elbow_joint": 1.9715472970024885,
            "shoulder_lift_joint": -1.1394870060712896,
            "shoulder_pan_joint": 0.12281152778156021,
            "wrist_1_joint": -0.780463741449964,
            "wrist_2_joint": 0.12958659822042276,
            "wrist_3_joint": 3.090690232415272
        }
    },
    "waypoints": [
        {
            "positions": [
                0.12281152778156021,
                -1.1394870060712896,
                1.9715472970024885,
                -0.780463741449964,
                0.12958659822042276,
                3.090690232415272
            ]
        },
        {
            "positions": [
                0.05745362757541299,
                -1.172796249486834,
                2.035908201053224,
                -0.8154421207963615,
                0.2888545951446226,
                3.1036601129950188
            ]
        },
        {
            "positions": [
                -0.007904272630734233,
                -1.2061054929023787,
                2.1002691051039593,
                -0.8504205001427588,
                0.44812259206882243,
                3.1166299935747657
            ]
        },
        {
            "positions": [
                -0.07326217283688147,
                -1.239414736317923,
                2.1646300091546946,
                -0.8853988794891563,
                0.6073905889930222,
                3.1295998741545126
            ]
        },
        {
            "positions": [
                -0.13862007304302867,
                -1.2727239797334677,
                2.2289909132054295,
                -0.9203772588355537,
                0.766658585917222,
                3.1425697547342595
            ]
        },
        {
            "positions": [
                -0.2039779732491759,
                -1.3060332231490122,
                2.293351817256165,
                -0.9553556381819511,
                0.9259265828414219,
                3.1555396353140064
            ]
        },
        {
            "positions": [
                -0.26933587345532317,
                -1.3393424665645566,
                2.3577127213069002,
                -0.9903340175283485,
                1.0851945797656217,
                3.1685095158937533
            ]
        },
        {
            "positions": [
                -0.33469377366147035,
                -1.3726517099801012,
                2.4220736253576356,
                -1.025312396874746,
                1.2444625766898216,
                3.1814793964735
            ]
        }
    ]
}