{
    "goal": {
        "global_pose": {
            "orientation": {
                "w": 0.7047431493862688,
                "x": -0.7094548369677653,
                "y": 0.0024358444001904,
                "z": -0.0022348060817251984
            },
            "position": {
                "x": -0.39052492380142206,
                "y": 0.3671506643295288,
                "z": 0.19426114857196808
            }
        },
        "name": "move_to_magneteinheit_D"
    },
    "id": "RRT_move_to_magneteinheit_D_127",
    "joint_names": [
        "shoulder_pan_joint",
        "shoulder_lift_joint",
        "elbow_joint",
        "wrist_1_joint",
        "wrist_2_joint",
        "wrist_3_joint"
    ],
    "metrics": {
        "cart_traj_len": 4.20450212098808,
        "distance_elbow_joint": 3.9281136405415973,
        "distance_shoulder_lift_joint": 1.6259407815542388,
        "distance_shoulder_pan_joint": 3.016185842699113,
        "distance_wrist_1_joint": 1.9890832905690623,
        "distance_wrist_2_joint": 1.0532793534897344,
        "distance_wrist_3_joint": 5.268346773131678,
        "smoothness": 0.44457329201434687,
        "time": 0.08804084000000001,
        "traj_len": 4.108643289698611,
        "weighted_distance": 5.519058422621342
    },
    "planner": "RRT",
    "start": {
        "state": {
            "elbow_joint": 0.749534889911806,
            "shoulder_lift_joint": -0.6476975780787326,
            "shoulder_pan_joint": -2.711696901376241,
            "wrist_1_joint": -0.07506478083263063,
            "wrist_2_joint": 0.43296659715538205,
            "wrist_3_joint": -3.14703540197715
        }
    },
    "waypoints": [
        {
            "positions": [
                -2.711696901376241,
                -0.6476975780787326,
                0.749534889911806,
                -0.07506478083263063,
                0.43296659715538205,
                -3.14703540197715
            ]
        },
        {
            "positions": [
                -2.710587739740603,
                -0.688490566390522,
                0.805222280417377,
                -0.1085295370754574,
                0.46497068210604203,
                -2.9605020704185674
            ]
        },
        {
            "positions": [
                -2.7094785781049646,
                -0.7292835547023113,
                0.860909670922948,
                -0.14199429331828417,
                0.49697476705670207,
                -2.7739687388599847
            ]
        },
        {
            "positions": [
                -2.7083694164693264,
                -0.7700765430141006,
                0.9165970614285192,
                -0.17545904956111097,
                0.528978852007362,
                -2.587435407301402
            ]
        },
        {
            "positions": [
                -2.707260254833688,
                -0.8108695313258899,
                0.9722844519340902,
                -0.20892380580393774,
                0.560982936958022,
                -2.4009020757428194
            ]
        },
        {
            "positions": [
                -2.70615109319805,
                -0.8516625196376792,
                1.0279718424396613,
                -0.24238856204676454,
                0.5929870219086821,
                -2.2143687441842363
            ]
        },
        {
            "positions": [
                -2.7050419315624117,
                -0.8924555079494686,
                1.0836592329452324,
                -0.2758533182895913,
                0.6249911068593421,
                -2.027835412625654
            ]
        },
        {
            "positions": [
                -2.7039327699267734,
                -0.9332484962612579,
                1.1393466234508034,
                -0.3093180745324181,
                0.6569951918100021,
                -1.8413020810670713
            ]
        },
        {
            "positions": [
                -2.6145924752108427,
                -0.9655333645393844,
                1.0390568525628983,
                -0.26735033858460117,
                0.6362586873509054,
                -1.7396296427350177
            ]
        },
        {
            "positions": [
                -2.525252180494912,
                -0.9978182328175109,
                0.938767081674993,
                -0.22538260263678422,
                0.6155221828918087,
                -1.6379572044029642
            ]
        },
        {
            "positions": [
                -2.4359118857789817,
                -1.0301031010956374,
                0.8384773107870879,
                -0.18341486668896725,
                0.594785678432712,
                -1.5362847660709107
            ]
        },
        {
            "positions": [
                -2.346571591063051,
                -1.062387969373764,
                0.7381875398991826,
                -0.1414471307411503,
                0.5740491739736153,
                -1.4346123277388572
            ]
        },
        {
            "positions": [
                -2.25723129634712,
                -1.0946728376518904,
                0.6378977690112775,
                -0.09947939479333334,
                0.5533126695145186,
                -1.3329398894068036
            ]
        },
        {
            "positions": [
                -2.1678910016311894,
                -1.1269577059300169,
                0.5376079981233723,
                -0.0575116588455164,
                0.5325761650554219,
                -1.2312674510747503
            ]
        },
        {
            "positions": [
                -2.0785507069152587,
                -1.1592425742081434,
                0.4373182272354671,
                -0.015543922897699458,
                0.5118396605963254,
                -1.1295950127426968
            ]
        },
        {
            "positions": [
                -1.9892104121993284,
                -1.1915274424862698,
                0.33702845634756196,
                0.026423813050117484,
                0.4911031561372286,
                -1.0279225744106433
            ]
        },
        {
            "positions": [
                -1.8998701174833976,
                -1.2238123107643963,
                0.2367386854596567,
                0.06839154899793448,
                0.4703666516781319,
                -0.9262501360785896
            ]
        },
        {
            "positions": [
                -1.8105298227674669,
                -1.2560971790425228,
                0.13644891457175157,
                0.11035928494575142,
                0.4496301472190352,
                -0.824577697746536
            ]
        },
        {
            "positions": [
                -1.7211895280515364,
                -1.2883820473206493,
                0.03615914368384643,
                0.1523270208935683,
                0.4288936427599386,
                -0.7229052594144827
            ]
        },
        {
            "positions": [
                -1.6318492333356056,
                -1.3206669155987758,
                -0.06413062720405871,
                0.1942947568413853,
                0.4081571383008419,
                -0.6212328210824292
            ]
        },
        {
            "positions": [
                -1.5425089386196749,
                -1.3529517838769023,
                -0.16442039809196407,
                0.2362624927892023,
                0.3874206338417452,
                -0.5195603827503756
            ]
        },
        {
            "positions": [
                -1.4531686439037443,
                -1.3852366521550288,
                -0.2647101689798692,
                0.2782302287370192,
                0.3666841293826485,
                -0.4178879444183221
            ]
        },
        {
            "positions": [
                -1.3638283491878136,
                -1.4175215204331553,
                -0.36499993986777457,
                0.3201979646848362,
                0.3459476249235518,
                -0.3162155060862686
            ]
        },
        {
            "positions": [
                -1.274488054471883,
                -1.4498063887112818,
                -0.4652897107556795,
                0.3621657006326531,
                0.3252111204644551,
                -0.21454306775421506
            ]
        },
        {
            "positions": [
                -1.1851477597559525,
                -1.4820912569894082,
                -0.5655794816435846,
                0.40413343658046996,
                0.30447461600535847,
                -0.11287062942216175
            ]
        },
        {
            "positions": [
                -1.0958074650400216,
                -1.5143761252675347,
                -0.66586925253149,
                0.44610117252828707,
                0.2837381115462617,
                -0.011198191090108
            ]
        },
        {
            "positions": [
                -1.006467170324091,
                -1.5466609935456612,
                -0.7661590234193951,
                0.48806890847610396,
                0.2630016070871651,
                0.0904742472419453
            ]
        },
        {
            "positions": [
                -0.9171268756081603,
                -1.5789458618237877,
                -0.8664487943073003,
                0.530036644423921,
                0.24226510262806833,
                0.19214668557399928
            ]
        },
        {
            "positions": [
                -0.8277865808922298,
                -1.6112307301019142,
                -0.9667385651952054,
                0.5720043803717378,
                0.2215285981689717,
                0.29381912390605236
            ]
        },
        {
            "positions": [
                -0.7384462861762993,
                -1.6435155983800407,
                -1.0670283360831105,
                0.6139721163195547,
                0.200792093709875,
                0.3954915622381059
            ]
        },
        {
            "positions": [
                -0.6491059914603685,
                -1.6758004666581672,
                -1.1673181069710161,
                0.6559398522673718,
                0.1800555892507783,
                0.4971640005701594
            ]
        },
        {
            "positions": [
                -0.5597656967444378,
                -1.7080853349362937,
                -1.2676078778589208,
                0.6979075882151887,
                0.1593190847916816,
                0.5988364389022129
            ]
        },
        {
            "positions": [
                -0.470425402028507,
                -1.7403702032144202,
                -1.367897648746826,
                0.7398753241630057,
                0.13858258033258497,
                0.7005088772342665
            ]
        },
        {
            "positions": [
                -0.3810851073125763,
                -1.7726550714925466,
                -1.4681874196347315,
                0.7818430601108227,
                0.11784607587348828,
                0.80218131556632
            ]
        },
        {
            "positions": [
                -0.291744812596646,
                -1.8049399397706731,
                -1.5684771905226367,
                0.8238107960586395,
                0.09710957141439158,
                0.9038537538983735
            ]
        },
        {
            "positions": [
                -0.20240451788071523,
                -1.8372248080487996,
                -1.6687669614105418,
                0.8657785320064565,
                0.07637306695529489,
                1.005526192230427
            ]
        },
        {
            "positions": [
                -0.11306422316478448,
                -1.869509676326926,
                -1.7690567322984467,
                0.9077462679542735,
                0.055636562496198194,
                1.1071986305624806
            ]
        },
        {
            "positions": [
                -0.08284173574646556,
                -1.892233985207362,
                -1.834702773772982,
                0.952770065896239,
                0.044988533062554036,
                1.0409560311659027
            ]
        },
        {
            "positions": [
                -0.052619248328146635,
                -1.9149582940877976,
                -1.9003488152475172,
                0.9977938638382045,
                0.03434050362890988,
                0.9747134317693247
            ]
        },
        {
            "positions": [
                -0.024683565720987247,
                -1.9503116243215475,
                -1.9856791864487195,
                1.0596228384796258,
                0.027863964875164904,
                0.8767798092292453
            ]
        },
        {
            "positions": [
                0.003252116886172142,
                -1.9856649545552971,
                -2.071009557649922,
                1.121451813121047,
                0.02138742612141993,
                0.7788461866891658
            ]
        },
        {
            "positions": [
                0.031187799493331524,
                -2.0210182847890468,
                -2.156339928851124,
                1.1832807877624683,
                0.014910887367674961,
                0.6809125641490864
            ]
        },
        {
            "positions": [
                0.059123482100490926,
                -2.0563716150227966,
                -2.2416703000523266,
                1.2451097624038896,
                0.008434348613929988,
                0.582978941609007
            ]
        },
        {
            "positions": [
                0.003581466801668813,
                -2.1102660122043084,
                -2.2853711095973943,
                1.297112543144307,
                0.05044165905811679,
                0.46002891984776806
            ]
        },
        {
            "positions": [
                -0.0519605484971533,
                -2.1641604093858198,
                -2.329071919142462,
                1.3491153238847244,
                0.09244896950230358,
                0.33707889808652913
            ]
        },
        {
            "positions": [
                -0.1075025637959754,
                -2.2180548065673316,
                -2.3727727286875298,
                1.4011181046251417,
                0.1344562799464904,
                0.21412887632529018
            ]
        },
        {
            "positions": [
                -0.1862419771218895,
                -2.2736383596329715,
                -2.398955283551797,
                1.4455119223368564,
                0.18912426425297224,
                0.09308588997043467
            ]
        }
    ]
}