{
    "goal": {
        "global_pose": {
            "orientation": {
                "w": -0.4816463035849501,
                "x": 0.5182115481033762,
                "y": 0.4908360881923453,
                "z": -0.5084816262002911
            },
            "position": {
                "x": -0.8240239810943604,
                "y": -0.300875300988555,
                "z": 0.16403168439865112
            }
        },
        "name": "move_to_storage_C"
    },
    "id": "RRT_move_to_storage_C_141",
    "joint_names": [
        "shoulder_pan_joint",
        "shoulder_lift_joint",
        "elbow_joint",
        "wrist_1_joint",
        "wrist_2_joint",
        "wrist_3_joint"
    ],
    "metrics": {
        "cart_traj_len": 0.5777443033185761,
        "distance_elbow_joint": 0.2624535150763436,
        "distance_shoulder_lift_joint": 0.19070861313519227,
        "distance_shoulder_pan_joint": 0.494653540878522,
        "distance_wrist_1_joint": 0.08970947870408197,
        "distance_wrist_2_joint": 1.0731482250524937,
        "distance_wrist_3_joint": 0.06968736464741276,
        "smoothness": 0.0,
        "time": 0.01104466,
        "traj_len": 1.4766044621001408,
        "weighted_distance": 1.8661707238474854
    },
    "planner": "RRT",
    "start": {
        "state": {
            "elbow_joint": 2.010868314990456,
            "shoulder_lift_joint": -1.1634956873337592,
            "shoulder_pan_joint": -2.4736205022346125,
            "wrist_1_joint": -0.8367026794202681,
            "wrist_2_joint": 0.6746043897044499,
            "wrist_3_joint": -3.1496632123970403
        }
    },
    "waypoints": [
        {
            "positions": [
                -2.4736205022346125,
                -1.1634956873337592,
                2.010868314990456,
                -0.8367026794202681,
                0.6746043897044499,
                -3.1496632123970403
            ]
        },
        {
            "positions": [
                -2.5560627590476996,
                -1.1317109184778937,
                1.9671260624777318,
                -0.8217510996362545,
                0.8534624272131989,
                -3.1380486516224715
            ]
        },
        {
            "positions": [
                -2.6385050158607863,
                -1.0999261496220285,
                1.923383809965008,
                -0.8067995198522407,
                1.032320464721948,
                -3.1264340908479027
            ]
        },
        {
            "positions": [
                -2.7209472726738735,
                -1.068141380766163,
                1.879641557452284,
                -0.7918479400682271,
                1.211178502230697,
                -3.114819530073334
            ]
        },
        {
            "positions": [
                -2.8033895294869606,
                -1.0363566119102976,
                1.83589930493956,
                -0.7768963602842135,
                1.3900365397394459,
                -3.103204969298765
            ]
        },
        {
            "positions": [
                -2.8858317863000473,
                -1.0045718430544324,
                1.7921570524268362,
                -0.7619447805001998,
                1.5688945772481948,
                -3.0915904085241963
            ]
        },
        {
            "positions": [
                -2.9682740431131345,
                -0.9727870741985669,
                1.7484147999141122,
                -0.7469932007161861,
                1.7477526147569438,
                -3.0799758477496275
            ]
        }
    ]
}