{
    "goal": {
        "global_pose": {
            "orientation": {
                "w": 0.7031023502349854,
                "x": -0.7110244035720825,
                "y": 0.007748599164187908,
                "z": 0.005598929710686207
            },
            "position": {
                "x": 0.11585023208521307,
                "y": 0.44412534475326537,
                "z": 0.3711530566215515
            }
        },
        "name": "move_to_auspresseinheit_A"
    },
    "id": "RRT_move_to_auspresseinheit_A_61",
    "joint_names": [
        "shoulder_pan_joint",
        "shoulder_lift_joint",
        "elbow_joint",
        "wrist_1_joint",
        "wrist_2_joint",
        "wrist_3_joint"
    ],
    "metrics": {
        "cart_traj_len": 0.6964516622066133,
        "distance_elbow_joint": 0.05318524567928229,
        "distance_shoulder_lift_joint": 0.5361478332985934,
        "distance_shoulder_pan_joint": 1.0453543276347925,
        "distance_wrist_1_joint": 0.5459627168394107,
        "distance_wrist_2_joint": 0.5186712460735315,
        "distance_wrist_3_joint": 0.05488357792386056,
        "smoothness": 0.13987703570453694,
        "time": 1.204547137,
        "traj_len": 1.6595797502528977,
        "weighted_distance": 1.9820711556879422
    },
    "planner": "RRT",
    "start": {
        "state": {
            "elbow_joint": 2.4225746658250005,
            "shoulder_lift_joint": -1.3736534386056498,
            "shoulder_pan_joint": -0.3378633547517467,
            "wrist_1_joint": -1.0288598680537169,
            "wrist_2_joint": 1.233022673432363,
            "wrist_3_joint": -3.0940220416140027
        }
    },
    "waypoints": [
        {
            "positions": [
                -0.3378633547517467,
                -1.3736534386056498,
                2.4225746658250005,
                -1.0288598680537169,
                1.233022673432363,
                -3.0940220416140027
            ]
        },
        {
            "positions": [
                -0.20567196911239993,
                -1.462929507314554,
                2.416000518208601,
                -0.9499571124737262,
                1.1791404607318545,
                -3.1013634214108317
            ]
        },
        {
            "positions": [
                -0.07348058347305314,
                -1.552205576023458,
                2.4094263705922008,
                -0.8710543568937354,
                1.125258248031346,
                -3.108704801207661
            ]
        },
        {
            "positions": [
                0.05871080216629371,
                -1.6414816447323624,
                2.402852222975801,
                -0.7921516013137447,
                1.0713760353308373,
                -3.1160461810044904
            ]
        },
        {
            "positions": [
                0.19090218780564044,
                -1.7307577134412666,
                2.3962780753594015,
                -0.713248845733754,
                1.0174938226303287,
                -3.1233875608013193
            ]
        },
        {
            "positions": [
                0.3230935734449874,
                -1.8200337821501709,
                2.3897039277430014,
                -0.6343460901537633,
                0.9636116099298202,
                -3.130728940598148
            ]
        },
        {
            "positions": [
                0.45528495908433414,
                -1.909309850859075,
                2.383129780126602,
                -0.5554433345737726,
                0.9097293972293117,
                -3.1380703203949776
            ]
        },
        {
            "positions": [
                0.58138796598369,
                -1.9090641403364907,
                2.3899999601170436,
                -0.5191702428940395,
                0.8120404122940716,
                -3.1326526708235347
            ]
        },
        {
            "positions": [
                0.7074909728830459,
                -1.9088184298139066,
                2.3968701401074854,
                -0.4828971512143062,
                0.7143514273588315,
                -3.127235021252092
            ]
        }
    ]
}