{
    "goal": {
        "global_pose": {
            "orientation": {
                "w": 0.005598929693374612,
                "x": 0.007748599140229565,
                "y": 0.7110244013736278,
                "z": -0.7031023480610252
            },
            "position": {
                "x": 0.1141497679147869,
                "y": -0.7141253447532654,
                "z": 0.3711530566215515
            }
        },
        "name": "move_to_auspresseinheit_B"
    },
    "id": "RRT_move_to_auspresseinheit_B_53",
    "joint_names": [
        "shoulder_pan_joint",
        "shoulder_lift_joint",
        "elbow_joint",
        "wrist_1_joint",
        "wrist_2_joint",
        "wrist_3_joint"
    ],
    "metrics": {
        "cart_traj_len": 0.5643623284375556,
        "distance_elbow_joint": 0.06186431055843333,
        "distance_shoulder_lift_joint": 0.2955513240881116,
        "distance_shoulder_pan_joint": 0.5782052066905803,
        "distance_wrist_1_joint": 0.33026494062700584,
        "distance_wrist_2_joint": 0.9892178833931811,
        "distance_wrist_3_joint": 0.0008112075072062019,
        "smoothness": 0.0,
        "time": 0.018460671,
        "traj_len": 1.5019703302211127,
        "weighted_distance": 1.891301169010139
    },
    "planner": "RRT",
    "start": {
        "state": {
            "elbow_joint": 2.0193083361928714,
            "shoulder_lift_joint": -1.1220246554650708,
            "shoulder_pan_joint": -1.0952077554168747,
            "wrist_1_joint": -0.8559753972642168,
            "wrist_2_joint": 0.4759566250798843,
            "wrist_3_joint": -3.1240929996934557
        }
    },
    "waypoints": [
        {
            "positions": [
                -1.0952077554168747,
                -1.1220246554650708,
                2.0193083361928714,
                -0.8559753972642168,
                0.4759566250798843,
                -3.1240929996934557
            ]
        },
        {
            "positions": [
                -1.1915752898653047,
                -1.171283209479756,
                2.008997617766466,
                -0.8009312404930491,
                0.6408262723120811,
                -3.124228200944657
            ]
        },
        {
            "positions": [
                -1.2879428243137347,
                -1.2205417634944413,
                1.9986868993400604,
                -0.7458870837218815,
                0.8056959195442779,
                -3.1243634021958577
            ]
        },
        {
            "positions": [
                -1.3843103587621648,
                -1.2698003175091266,
                1.9883761809136549,
                -0.6908429269507139,
                0.9705655667764748,
                -3.1244986034470585
            ]
        },
        {
            "positions": [
                -1.4806778932105948,
                -1.3190588715238118,
                1.9780654624872491,
                -0.6357987701795462,
                1.1354352140086716,
                -3.12463380469826
            ]
        },
        {
            "positions": [
                -1.577045427659025,
                -1.3683174255384971,
                1.9677547440608436,
                -0.5807546134083785,
                1.3003048612408685,
                -3.124769005949461
            ]
        },
        {
            "positions": [
                -1.673412962107455,
                -1.4175759795531824,
                1.957444025634438,
                -0.5257104566372109,
                1.4651745084730654,
                -3.124904207200662
            ]
        }
    ]
}