{
    "goal": {
        "global_pose": {
            "orientation": {
                "w": 0.5084816217422485,
                "x": -0.49083608388900757,
                "y": 0.5182115435600281,
                "z": -0.4816462993621826
            },
            "position": {
                "x": 0.5540239810943604,
                "y": 0.030875300988554955,
                "z": 0.16403168439865112
            }
        },
        "name": "move_to_storage_A"
    },
    "id": "RRT_move_to_storage_A_73",
    "joint_names": [
        "shoulder_pan_joint",
        "shoulder_lift_joint",
        "elbow_joint",
        "wrist_1_joint",
        "wrist_2_joint",
        "wrist_3_joint"
    ],
    "metrics": {
        "cart_traj_len": 0.35328268960370307,
        "distance_elbow_joint": 0.45413193563616194,
        "distance_shoulder_lift_joint": 0.23291201569429432,
        "distance_shoulder_pan_joint": 0.4625182763090807,
        "distance_wrist_1_joint": 0.25853048690895186,
        "distance_wrist_2_joint": 1.0969159719968438,
        "distance_wrist_3_joint": 0.10418913810352137,
        "smoothness": 1.5543122362334363e-15,
        "time": 0.01350031,
        "traj_len": 1.6153011560228805,
        "weighted_distance": 2.042797728548202
    },
    "planner": "RRT",
    "start": {
        "state": {
            "elbow_joint": 1.971548259319323,
            "shoulder_lift_joint": -1.1394851275133948,
            "shoulder_pan_joint": 0.1228115487234821,
            "wrist_1_joint": -0.7804723859257726,
            "wrist_2_joint": 0.12958671773740124,
            "wrist_3_joint": -3.192489227718131
        }
    },
    "waypoints": [
        {
            "positions": [
                0.1228115487234821,
                -1.1394851275133948,
                1.971548259319323,
                -0.7804723859257726,
                0.12958671773740124,
                -3.192489227718131
            ]
        },
        {
            "positions": [
                0.05673750925075628,
                -1.1727582726125798,
                2.036424250124489,
                -0.8174053126270514,
                0.2862889994512361,
                -3.177605065131914
            ]
        },
        {
            "positions": [
                -0.009336530221969536,
                -1.2060314177117646,
                2.101300240929655,
                -0.8543382393283303,
                0.4429912811650709,
                -3.1627209025456966
            ]
        },
        {
            "positions": [
                -0.07541056969469534,
                -1.2393045628109496,
                2.1661762317348208,
                -0.8912711660296091,
                0.5996935628789057,
                -3.1478367399594793
            ]
        },
        {
            "positions": [
                -0.14148460916742117,
                -1.2725777079101344,
                2.231052222539987,
                -0.928204092730888,
                0.7563958445927406,
                -3.1329525773732616
            ]
        },
        {
            "positions": [
                -0.207558648640147,
                -1.3058508530093194,
                2.295928213345153,
                -0.9651370194321668,
                0.9130981263065754,
                -3.1180684147870443
            ]
        },
        {
            "positions": [
                -0.2736326881128728,
                -1.3391239981085041,
                2.3608042041503188,
                -1.0020699461334457,
                1.0698004080204102,
                -3.103184252200827
            ]
        },
        {
            "positions": [
                -0.3397067275855986,
                -1.3723971432076891,
                2.425680194955485,
                -1.0390028728347245,
                1.226502689734245,
                -3.0883000896146098
            ]
        }
    ]
}{
    "goal": {
        "global_pose": {
            "orientation": {
                "w": 0.5084816217422485,
                "x": -0.49083608388900757,
                "y": 0.5182115435600281,
                "z": -0.4816462993621826
            },
            "position": {
                "x": 0.5540239810943604,
                "y": 0.030875300988554955,
                "z": 0.16403168439865112
            }
        },
        "name": "move_to_storage_A"
    },
    "id": "RRT_move_to_storage_A_73",
    "joint_names": [
        "shoulder_pan_joint",
        "shoulder_lift_joint",
        "elbow_joint",
        "wrist_1_joint",
        "wrist_2_joint",
        "wrist_3_joint"
    ],
    "metrics": {
        "cart_traj_len": 0.35305893276707456,
        "distance_elbow_joint": 0.4490355210411683,
        "distance_shoulder_lift_joint": 0.23339652082183648,
        "distance_shoulder_pan_joint": 0.4590555217381985,
        "distance_wrist_1_joint": 0.23959837485461732,
        "distance_wrist_2_joint": 1.1095811673595921,
        "distance_wrist_3_joint": 0.09519372251500258,
        "smoothness": 1.3322676330666223e-15,
        "time": 0.026095437,
        "traj_len": 1.608061201674369,
        "weighted_distance": 2.031114919342239
    },
    "planner": "RRT",
    "start": {
        "state": {
            "elbow_joint": 1.97154746011099,
            "shoulder_lift_joint": -1.13948474672311,
            "shoulder_pan_joint": 0.12281154466712228,
            "wrist_1_joint": -0.7804688027058302,
            "wrist_2_joint": 0.12958655903071145,
            "wrist_3_joint": 3.0906928834467795
        }
    },
    "waypoints": [
        {
            "positions": [
                0.12281154466712228,
                -1.13948474672311,
                1.97154746011099,
                -0.7804688027058302,
                0.12958655903071145,
                3.0906928834467795
            ]
        },
        {
            "positions": [
                0.057232184418808216,
                -1.1728271068405152,
                2.0356953916882996,
                -0.8146971419707755,
                0.28809815436779607,
                3.1042919866632084
            ]
        },
        {
            "positions": [
                -0.008347175829505851,
                -1.2061694669579204,
                2.0998433232656093,
                -0.8489254812357209,
                0.44660974970488065,
                3.1178910898796373
            ]
        },
        {
            "positions": [
                -0.07392653607781992,
                -1.2395118270753256,
                2.163991254842919,
                -0.8831538205006662,
                0.6051213450419652,
                3.131490193096066
            ]
        },
        {
            "positions": [
                -0.13950589632613397,
                -1.2728541871927308,
                2.228139186420229,
                -0.9173821597656115,
                0.7636329403790498,
                3.1450892963124955
            ]
        },
        {
            "positions": [
                -0.2050852565744481,
                -1.306196547310136,
                2.292287117997539,
                -0.9516104990305568,
                0.9221445357161344,
                3.1586883995289243
            ]
        },
        {
            "positions": [
                -0.2706646168227621,
                -1.3395389074275412,
                2.3564350495748485,
                -0.9858388382955021,
                1.080656131053219,
                3.172287502745353
            ]
        },
        {
            "positions": [
                -0.3362439770710762,
                -1.3728812675449464,
                2.420582981152158,
                -1.0200671775604475,
                1.2391677263903036,
                3.185886605961782
            ]
        }
    ]
}{
    "goal": {
        "global_pose": {
            "orientation": {
                "w": 0.5084816217422485,
                "x": -0.49083608388900757,
                "y": 0.5182115435600281,
                "z": -0.4816462993621826
            },
            "position": {
                "x": 0.5540239810943604,
                "y": 0.030875300988554955,
                "z": 0.16403168439865112
            }
        },
        "name": "move_to_storage_A"
    },
    "id": "RRT_move_to_storage_A_73",
    "joint_names": [
        "shoulder_pan_joint",
        "shoulder_lift_joint",
        "elbow_joint",
        "wrist_1_joint",
        "wrist_2_joint",
        "wrist_3_joint"
    ],
    "metrics": {
        "cart_traj_len": 0.35360746341474303,
        "distance_elbow_joint": 0.44819108513640105,
        "distance_shoulder_lift_joint": 0.23305356714073922,
        "distance_shoulder_pan_joint": 0.4601202778744455,
        "distance_wrist_1_joint": 0.23674598522644752,
        "distance_wrist_2_joint": 1.1088351678685011,
        "distance_wrist_3_joint": 0.10264754918515662,
        "smoothness": 8.881784197001252e-16,
        "time": 0.013822431000000001,
        "traj_len": 1.6092214367301012,
        "weighted_distance": 2.0348144593296342
    },
    "planner": "RRT",
    "start": {
        "state": {
            "elbow_joint": 1.9715472970024885,
            "shoulder_lift_joint": -1.1394870060712896,
            "shoulder_pan_joint": 0.12281152778156021,
            "wrist_1_joint": -0.780463741449964,
            "wrist_2_joint": 0.12958659822042276,
            "wrist_3_joint": 3.090690232415272
        }
    },
    "waypoints": [
        {
            "positions": [
                0.12281152778156021,
                -1.1394870060712896,
                1.9715472970024885,
                -0.780463741449964,
                0.12958659822042276,
                3.090690232415272
            ]
        },
        {
            "positions": [
                0.0570800595137823,
                -1.172780372805681,
                2.035574594879117,
                -0.8142845964823137,
                0.2879916222016372,
                3.1053541680131516
            ]
        },
        {
            "positions": [
                -0.008651408753995615,
                -1.2060737395400722,
                2.099601892755746,
                -0.8481054515146633,
                0.4463966461828517,
                3.120018103611031
            ]
        },
        {
            "positions": [
                -0.07438287702177354,
                -1.2393671062744636,
                2.1636291906323746,
                -0.8819263065470129,
                0.604801670164066,
                3.1346820392089105
            ]
        },
        {
            "positions": [
                -0.14011434528955144,
                -1.2726604730088549,
                2.2276564885090036,
                -0.9157471615793625,
                0.7632066941452805,
                3.14934597480679
            ]
        },
        {
            "positions": [
                -0.20584581355732937,
                -1.3059538397432462,
                2.291683786385632,
                -0.9495680166117122,
                0.921611718126495,
                3.1640099104046695
            ]
        },
        {
            "positions": [
                -0.2715772818251073,
                -1.3392472064776375,
                2.3557110842622606,
                -0.9833888716440619,
                1.0800167421077094,
                3.1786738460025488
            ]
        },
        {
            "positions": [
                -0.33730875009288525,
                -1.3725405732120288,
                2.4197383821388896,
                -1.0172097266764115,
                1.2384217660889238,
                3.1933377816004285
            ]
        }
    ]
}