{
    "goal": {
        "global_pose": {
            "orientation": {
                "w": -0.4816463035849501,
                "x": 0.5182115481033762,
                "y": 0.4908360881923453,
                "z": -0.5084816262002911
            },
            "position": {
                "x": -0.8240239810943604,
                "y": 0.19912469901144506,
                "z": 0.16403168439865112
            }
        },
        "name": "move_to_storage_D"
    },
    "id": "RRT_move_to_storage_D_53",
    "joint_names": [
        "shoulder_pan_joint",
        "shoulder_lift_joint",
        "elbow_joint",
        "wrist_1_joint",
        "wrist_2_joint",
        "wrist_3_joint"
    ],
    "metrics": {
        "cart_traj_len": 3.1703855966467005,
        "distance_elbow_joint": 4.209417236385109,
        "distance_shoulder_lift_joint": 1.584036766666733,
        "distance_shoulder_pan_joint": 2.8130660909086984,
        "distance_wrist_1_joint": 2.2618876997327937,
        "distance_wrist_2_joint": 1.3097879087737292,
        "distance_wrist_3_joint": 3.138793269448246,
        "smoothness": 0.03925412110102431,
        "time": 0.07982668600000001,
        "traj_len": 3.913692498385036,
        "weighted_distance": 5.016597564018697
    },
    "planner": "RRT",
    "start": {
        "state": {
            "elbow_joint": -2.384821988534728,
            "shoulder_lift_joint": -2.2788054721415256,
            "shoulder_pan_joint": -0.1854694642142757,
            "wrist_1_joint": 1.4845938289331202,
            "wrist_2_joint": 0.17898776772866878,
            "wrist_3_joint": 0.037105688729662994
        }
    },
    "waypoints": [
        {
            "positions": [
                -0.1854694642142757,
                -2.2788054721415256,
                -2.384821988534728,
                1.4845938289331202,
                0.17898776772866878,
                0.037105688729662994
            ]
        },
        {
            "positions": [
                -0.0654973364338438,
                -2.20384421340591,
                -2.2745266979068917,
                1.4679985806681286,
                0.16750776930952538,
                0.08321903645892301
            ]
        },
        {
            "positions": [
                0.054474791346588114,
                -2.128882954670294,
                -2.1642314072790554,
                1.4514033324031372,
                0.15602777089038197,
                0.12933238418818302
            ]
        },
        {
            "positions": [
                0.17444691912702,
                -2.053921695934678,
                -2.0539361166512196,
                1.4348080841381456,
                0.14454777247123857,
                0.17544573191744303
            ]
        },
        {
            "positions": [
                0.2944190469074519,
                -1.9789604371990623,
                -1.943640826023383,
                1.4182128358731543,
                0.1330677740520952,
                0.22155907964670304
            ]
        },
        {
            "positions": [
                0.4143911746878839,
                -1.9039991784634467,
                -1.833345535395547,
                1.4016175876081627,
                0.12158777563295178,
                0.2676724273759631
            ]
        },
        {
            "positions": [
                0.5343633024683158,
                -1.8290379197278308,
                -1.7230502447677107,
                1.385022339343171,
                0.11010777721380838,
                0.3137857751052231
            ]
        },
        {
            "positions": [
                0.6543354302487477,
                -1.7540766609922152,
                -1.6127549541398745,
                1.3684270910781797,
                0.09862777879466499,
                0.3598991228344831
            ]
        },
        {
            "positions": [
                0.7743075580291796,
                -1.679115402256599,
                -1.5024596635120382,
                1.3518318428131881,
                0.08714778037552158,
                0.4060124705637431
            ]
        },
        {
            "positions": [
                0.8942796858096115,
                -1.6041541435209834,
                -1.3921643728842021,
                1.3352365945481965,
                0.07566778195637817,
                0.45212581829300313
            ]
        },
        {
            "positions": [
                1.0142518135900433,
                -1.5291928847853677,
                -1.2818690822563659,
                1.3186413462832052,
                0.06418778353723478,
                0.49823916602226315
            ]
        },
        {
            "positions": [
                1.1342239413704753,
                -1.4542316260497516,
                -1.1715737916285296,
                1.3020460980182136,
                0.05270778511809138,
                0.5443525137515233
            ]
        },
        {
            "positions": [
                1.254196069150907,
                -1.379270367314136,
                -1.0612785010006935,
                1.285450849753222,
                0.04122778669894797,
                0.5904658614807832
            ]
        },
        {
            "positions": [
                1.3741681969313393,
                -1.3043091085785201,
                -0.9509832103728573,
                1.2688556014882306,
                0.029747788279804566,
                0.6365792092100433
            ]
        },
        {
            "positions": [
                1.494140324711771,
                -1.2293478498429045,
                -0.8406879197450212,
                1.252260353223239,
                0.018267789860661188,
                0.6826925569393032
            ]
        },
        {
            "positions": [
                1.614112452492203,
                -1.1543865911072886,
                -0.7303926291171849,
                1.2356651049582474,
                0.006787791441517754,
                0.7288059046685633
            ]
        },
        {
            "positions": [
                1.7340845802726348,
                -1.0794253323716727,
                -0.6200973384893487,
                1.219069856693256,
                -0.004692206977625624,
                0.7749192523978232
            ]
        },
        {
            "positions": [
                1.8540567080530668,
                -1.0044640736360568,
                -0.5098020478615124,
                1.2024746084282645,
                -0.01617220539676903,
                0.8210326001270833
            ]
        },
        {
            "positions": [
                1.9740288358334985,
                -0.9295028149004412,
                -0.39950675723367635,
                1.185879360163273,
                -0.027652203815912435,
                0.8671459478563434
            ]
        },
        {
            "positions": [
                2.0940009636139307,
                -0.8545415561648253,
                -0.2892114666058401,
                1.1692841118982815,
                -0.03913220223505584,
                0.9132592955856034
            ]
        },
        {
            "positions": [
                2.119410280903478,
                -0.862149787150065,
                -0.1885540040126867,
                1.076589922245998,
                0.012851985327325323,
                1.0210040414233321
            ]
        },
        {
            "positions": [
                2.1448195981930254,
                -0.8697580181353046,
                -0.08789654141953335,
                0.9838957325937143,
                0.06483617288970649,
                1.128748787261061
            ]
        },
        {
            "positions": [
                2.1702289154825727,
                -0.8773662491205442,
                0.012760921173619988,
                0.8912015429414308,
                0.11682036045208766,
                1.2364935330987898
            ]
        },
        {
            "positions": [
                2.1956382327721196,
                -0.8849744801057838,
                0.11341838376677338,
                0.7985073532891471,
                0.1688045480144688,
                1.3442382789365186
            ]
        },
        {
            "positions": [
                2.221047550061667,
                -0.8925827110910235,
                0.2140758463599267,
                0.7058131636368636,
                0.22078873557685,
                1.4519830247742476
            ]
        },
        {
            "positions": [
                2.246456867351214,
                -0.9001909420762632,
                0.31473330895308005,
                0.61311897398458,
                0.2727729231392312,
                1.5597277706119763
            ]
        },
        {
            "positions": [
                2.2718661846407615,
                -0.9077991730615028,
                0.4153907715462335,
                0.5204247843322964,
                0.3247571107016123,
                1.6674725164497053
            ]
        },
        {
            "positions": [
                2.297275501930309,
                -0.9154074040467424,
                0.5160482341393868,
                0.42773059468001284,
                0.3767412982639935,
                1.775217262287434
            ]
        },
        {
            "positions": [
                2.322684819219856,
                -0.923015635031982,
                0.6167056967325402,
                0.33503640502772924,
                0.4287254858263747,
                1.8829620081251628
            ]
        },
        {
            "positions": [
                2.3480941365094035,
                -0.9306238660172217,
                0.7173631593256935,
                0.24234221537544565,
                0.4807096733887558,
                1.9907067539628918
            ]
        },
        {
            "positions": [
                2.373503453798951,
                -0.9382320970024614,
                0.8180206219188471,
                0.14964802572316205,
                0.532693860951137,
                2.0984514998006203
            ]
        },
        {
            "positions": [
                2.3989127710884977,
                -0.945840327987701,
                0.9186780845120002,
                0.05695383607087856,
                0.5846780485135181,
                2.206196245638349
            ]
        },
        {
            "positions": [
                2.424322088378045,
                -0.9534485589729407,
                1.0193355471051537,
                -0.03574035358140515,
                0.6366622360758993,
                2.3139409914760782
            ]
        },
        {
            "positions": [
                2.4497314056675923,
                -0.9610567899581802,
                1.119993009698307,
                -0.12843454323368864,
                0.6886464236382804,
                2.421685737313807
            ]
        },
        {
            "positions": [
                2.4751407229571396,
                -0.9686650209434199,
                1.2206504722914604,
                -0.22112873288597235,
                0.7406306112006616,
                2.529430483151536
            ]
        },
        {
            "positions": [
                2.500550040246687,
                -0.9762732519286595,
                1.3213079348846137,
                -0.31382292253825583,
                0.7926147987630427,
                2.637175228989265
            ]
        },
        {
            "positions": [
                2.5259593575362342,
                -0.9838814829138992,
                1.4219653974777673,
                -0.40651711219053954,
                0.8445989863254241,
                2.7449199748269937
            ]
        },
        {
            "positions": [
                2.551368674825781,
                -0.9914897138991388,
                1.5226228600709204,
                -0.49921130184282303,
                0.8965831738878052,
                2.8526647206647224
            ]
        },
        {
            "positions": [
                2.5767779921153284,
                -0.9990979448843784,
                1.623280322664074,
                -0.5919054914951067,
                0.9485673614501864,
                2.960409466502451
            ]
        },
        {
            "positions": [
                2.6021873094048757,
                -1.006706175869618,
                1.723937785257227,
                -0.6845996811473902,
                1.0005515490125676,
                3.06815421234018
            ]
        },
        {
            "positions": [
                2.627596626694423,
                -1.0143144068548577,
                1.8245952478503806,
                -0.7772938707996738,
                1.0525357365749488,
                3.175898958177909
            ]
        }
    ]
}