{
    "goal": {
        "global_pose": {
            "orientation": {
                "w": 0.7031023502349854,
                "x": -0.7110244035720825,
                "y": 0.007748599164187908,
                "z": 0.005598929710686207
            },
            "position": {
                "x": 0.11585023208521307,
                "y": 0.44412534475326537,
                "z": 0.3711530566215515
            }
        },
        "name": "move_to_auspresseinheit_A"
    },
    "id": "RRT_move_to_auspresseinheit_A_65",
    "joint_names": [
        "shoulder_pan_joint",
        "shoulder_lift_joint",
        "elbow_joint",
        "wrist_1_joint",
        "wrist_2_joint",
        "wrist_3_joint"
    ],
    "metrics": {
        "cart_traj_len": 1.203124117820339,
        "distance_elbow_joint": 0.545712820981874,
        "distance_shoulder_lift_joint": 1.259157148224851,
        "distance_shoulder_pan_joint": 1.0670400205592285,
        "distance_wrist_1_joint": 0.5569605915337841,
        "distance_wrist_2_joint": 0.5122921047221054,
        "distance_wrist_3_joint": 0.382252994388562,
        "smoothness": 0.9004070644099076,
        "time": 2.895397855,
        "traj_len": 2.0792824917289146,
        "weighted_distance": 2.481365423601171
    },
    "planner": "RRT",
    "start": {
        "state": {
            "elbow_joint": 2.4225746658250005,
            "shoulder_lift_joint": -1.3736534386056498,
            "shoulder_pan_joint": -0.3378633547517467,
            "wrist_1_joint": -1.0288598680537169,
            "wrist_2_joint": 1.233022673432363,
            "wrist_3_joint": -3.0940220416140027
        }
    },
    "waypoints": [
        {
            "positions": [
                -0.3378633547517467,
                -1.3736534386056498,
                2.4225746658250005,
                -1.0288598680537169,
                1.233022673432363,
                -3.0940220416140027
            ]
        },
        {
            "positions": [
                -0.20697204576064773,
                -1.485843527709069,
                2.386680760020118,
                -0.9648923353196226,
                1.2062071929359677,
                -3.073092617268265
            ]
        },
        {
            "positions": [
                -0.07608073676954874,
                -1.598033616812488,
                2.3507868542152353,
                -0.9009248025855284,
                1.1793917124395725,
                -3.052163192922527
            ]
        },
        {
            "positions": [
                0.054810572221550224,
                -1.7102237059159071,
                2.3148929484103524,
                -0.8369572698514341,
                1.1525762319431772,
                -3.031233768576789
            ]
        },
        {
            "positions": [
                0.18570188121264924,
                -1.822413795019326,
                2.27899904260547,
                -0.77298973711734,
                1.1257607514467818,
                -3.0103043442310513
            ]
        },
        {
            "positions": [
                0.31659319020374826,
                -1.9346038841227453,
                2.2431051368005877,
                -0.7090222043832457,
                1.0989452709503864,
                -2.989374919885314
            ]
        },
        {
            "positions": [
                0.4474844991948472,
                -2.046793973226164,
                2.207211230995705,
                -0.6450546716491514,
                1.072129790453991,
                -2.968445495539576
            ]
        },
        {
            "positions": [
                0.5783758081859462,
                -2.1589840623295835,
                2.171317325190822,
                -0.5810871389150571,
                1.0453143099575959,
                -2.947516071193838
            ]
        },
        {
            "positions": [
                0.7092671171770453,
                -2.2711741514330024,
                2.1354234193859396,
                -0.517119606180963,
                1.0184988294612005,
                -2.9265866468481003
            ]
        },
        {
            "positions": [
                0.712719049967414,
                -2.2189438145264133,
                2.2155989437046295,
                -0.5150081960771822,
                0.9440615920641001,
                -2.9973387041480963
            ]
        },
        {
            "positions": [
                0.7161709827577828,
                -2.166713477619824,
                2.2957744680233194,
                -0.5128967859734015,
                0.8696243546669997,
                -3.068090761448093
            ]
        },
        {
            "positions": [
                0.7196229155481515,
                -2.1144831407132347,
                2.3759499923420093,
                -0.5107853758696207,
                0.7951871172698993,
                -3.138842818748089
            ]
        },
        {
            "positions": [
                0.7100691652888215,
                -1.909537716035504,
                2.3939849939287527,
                -0.4718992765199328,
                0.7207305687102576,
                -3.14140424647076
            ]
        }
    ]
}