{
    "goal": {
        "global_pose": {
            "orientation": {
                "w": 0.7031023480610252,
                "x": -0.7110244013736278,
                "y": 0.0077485991402295624,
                "z": 0.005598929693374583
            },
            "position": {
                "x": -0.8841497679147869,
                "y": 0.44412534475326537,
                "z": 0.3711530566215515
            }
        },
        "name": "move_to_auspresseinheit_D"
    },
    "id": "RRT_move_to_auspresseinheit_D_18",
    "joint_names": [
        "shoulder_pan_joint",
        "shoulder_lift_joint",
        "elbow_joint",
        "wrist_1_joint",
        "wrist_2_joint",
        "wrist_3_joint"
    ],
    "metrics": {
        "cart_traj_len": 0.34483362693097935,
        "distance_elbow_joint": 0.6624145125889933,
        "distance_shoulder_lift_joint": 0.13511609294730897,
        "distance_shoulder_pan_joint": 0.13449064695581142,
        "distance_wrist_1_joint": 0.5966750563612448,
        "distance_wrist_2_joint": 1.445591508025228,
        "distance_wrist_3_joint": 0.05368569460380623,
        "smoothness": 5.921189455882201e-16,
        "time": 0.010976066,
        "traj_len": 1.7401073275756278,
        "weighted_distance": 2.275436543847461
    },
    "planner": "RRT",
    "start": {
        "state": {
            "elbow_joint": -1.8275523626775212,
            "shoulder_lift_joint": -2.126789852344167,
            "shoulder_pan_joint": -0.03513704404078235,
            "wrist_1_joint": -2.347782403156801,
            "wrist_2_joint": -1.6058999987535132,
            "wrist_3_joint": -3.0880379163319196
        }
    },
    "waypoints": [
        {
            "positions": [
                -0.03513704404078235,
                -2.126789852344167,
                -1.8275523626775212,
                -2.347782403156801,
                -1.6058999987535132,
                -3.0880379163319196
            ]
        },
        {
            "positions": [
                -0.05194837491025878,
                -2.1436793639625806,
                -1.744750548603897,
                -2.4223667852019566,
                -1.4252010602503598,
                -3.0813272045064437
            ]
        },
        {
            "positions": [
                -0.0687597057797352,
                -2.160568875580994,
                -1.6619487345302728,
                -2.4969511672471123,
                -1.2445021217472063,
                -3.074616492680968
            ]
        },
        {
            "positions": [
                -0.08557103664921163,
                -2.1774583871994078,
                -1.5791469204566486,
                -2.5715355492922676,
                -1.0638031832440527,
                -3.0679057808554924
            ]
        },
        {
            "positions": [
                -0.10238236751868807,
                -2.1943478988178216,
                -1.4963451063830244,
                -2.6461199313374233,
                -0.8831042447408992,
                -3.0611950690300165
            ]
        },
        {
            "positions": [
                -0.11919369838816449,
                -2.211237410436235,
                -1.4135432923094005,
                -2.720704313382579,
                -0.7024053062377458,
                -3.0544843572045406
            ]
        },
        {
            "positions": [
                -0.1360050292576409,
                -2.2281269220546487,
                -1.3307414782357763,
                -2.7952886954277343,
                -0.5217063677345921,
                -3.047773645379065
            ]
        },
        {
            "positions": [
                -0.15281636012711736,
                -2.245016433673062,
                -1.247939664162152,
                -2.86987307747289,
                -0.3410074292314387,
                -3.0410629335535893
            ]
        },
        {
            "positions": [
                -0.16962769099659378,
                -2.261905945291476,
                -1.1651378500885279,
                -2.9444574595180457,
                -0.16030849072828512,
                -3.0343522217281134
            ]
        }
    ]
}