{
    "goal": {
        "global_pose": {
            "orientation": {
                "w": 0.7047431468963623,
                "x": -0.7094548344612122,
                "y": 0.0024358443915843964,
                "z": -0.0022348060738295317
            },
            "position": {
                "x": 0.6094750761985779,
                "y": 0.3671506643295288,
                "z": 0.19426114857196808
            }
        },
        "name": "move_to_magneteinheit_A"
    },
    "id": "RRT_move_to_magneteinheit_A_17",
    "joint_names": [
        "shoulder_pan_joint",
        "shoulder_lift_joint",
        "elbow_joint",
        "wrist_1_joint",
        "wrist_2_joint",
        "wrist_3_joint"
    ],
    "metrics": {
        "cart_traj_len": 3.339499485658565,
        "distance_elbow_joint": 3.88279593289505,
        "distance_shoulder_lift_joint": 1.046030851410142,
        "distance_shoulder_pan_joint": 4.527930231461909,
        "distance_wrist_1_joint": 3.613883530065487,
        "distance_wrist_2_joint": 1.6918393572689432,
        "distance_wrist_3_joint": 3.6745500557400406,
        "smoothness": 0.2608966631862049,
        "time": 0.105751259,
        "traj_len": 4.293836275271982,
        "weighted_distance": 5.576006900789855
    },
    "planner": "RRT",
    "start": {
        "state": {
            "elbow_joint": -1.9196185241190666,
            "shoulder_lift_joint": -1.2443396400964142,
            "shoulder_pan_joint": 2.6996025414629847,
            "wrist_1_joint": -1.5485510000780065,
            "wrist_2_joint": -1.5709468930060704,
            "wrist_3_joint": 0.4420197071253992
        }
    },
    "waypoints": [
        {
            "positions": [
                2.6996025414629847,
                -1.2443396400964142,
                -1.9196185241190666,
                -1.5485510000780065,
                -1.5709468930060704,
                0.4420197071253992
            ]
        },
        {
            "positions": [
                2.581186721353906,
                -1.259955513588097,
                -1.8173465733096115,
                -1.4749282051452797,
                -1.51956842172609,
                0.4186663169779791
            ]
        },
        {
            "positions": [
                2.462770901244827,
                -1.27557138707978,
                -1.7150746225001563,
                -1.4013054102125526,
                -1.4681899504461098,
                0.3953129268305591
            ]
        },
        {
            "positions": [
                2.3443550811357485,
                -1.291187260571463,
                -1.6128026716907014,
                -1.3276826152798258,
                -1.4168114791661295,
                0.371959536683139
            ]
        },
        {
            "positions": [
                2.2259392610266695,
                -1.306803134063146,
                -1.5105307208812462,
                -1.254059820347099,
                -1.3654330078861494,
                0.348606146535719
            ]
        },
        {
            "positions": [
                2.107523440917591,
                -1.322419007554829,
                -1.4082587700717912,
                -1.180437025414372,
                -1.314054536606169,
                0.325252756388299
            ]
        },
        {
            "positions": [
                1.989107620808512,
                -1.338034881046512,
                -1.305986819262336,
                -1.1068142304816448,
                -1.2626760653261888,
                0.3018993662408789
            ]
        },
        {
            "positions": [
                1.8706918006994333,
                -1.3536507545381948,
                -1.203714868452881,
                -1.033191435548918,
                -1.2112975940462085,
                0.2785459760934589
            ]
        },
        {
            "positions": [
                1.7522759805903545,
                -1.3692666280298778,
                -1.1014429176434257,
                -0.9595686406161912,
                -1.1599191227662282,
                0.2551925859460388
            ]
        },
        {
            "positions": [
                1.6338601604812757,
                -1.3848825015215607,
                -0.9991709668339707,
                -0.8859458456834642,
                -1.108540651486248,
                0.23183919579861875
            ]
        },
        {
            "positions": [
                1.515444340372197,
                -1.4004983750132436,
                -0.8968990160245156,
                -0.8123230507507373,
                -1.0571621802062676,
                0.20848580565119873
            ]
        },
        {
            "positions": [
                1.3970285202631183,
                -1.4161142485049265,
                -0.7946270652150604,
                -0.7387002558180105,
                -1.0057837089262875,
                0.18513241550377868
            ]
        },
        {
            "positions": [
                1.2786127001540393,
                -1.4317301219966097,
                -0.6923551144056053,
                -0.6650774608852834,
                -0.9544052376463071,
                0.16177902535635863
            ]
        },
        {
            "positions": [
                1.1601968800449605,
                -1.4473459954882926,
                -0.5900831635961501,
                -0.5914546659525565,
                -0.9030267663663268,
                0.13842563520893858
            ]
        },
        {
            "positions": [
                1.0417810599358819,
                -1.4629618689799755,
                -0.48781121278669515,
                -0.5178318710198295,
                -0.8516482950863467,
                0.11507224506151853
            ]
        },
        {
            "positions": [
                0.9233652398268031,
                -1.4785777424716584,
                -0.38553926197724,
                -0.4442090760871027,
                -0.8002698238063664,
                0.09171885491409848
            ]
        },
        {
            "positions": [
                0.8049494197177243,
                -1.4941936159633413,
                -0.2832673111677848,
                -0.37058628115437586,
                -0.7488913525263861,
                0.06836546476667843
            ]
        },
        {
            "positions": [
                0.6865335996086457,
                -1.5098094894550242,
                -0.18099536035832986,
                -0.2969634862216488,
                -0.6975128812464059,
                0.04501207461925838
            ]
        },
        {
            "positions": [
                0.5681177794995667,
                -1.5254253629467072,
                -0.07872340954887469,
                -0.22334069128892198,
                -0.6461344099664256,
                0.02165868447183833
            ]
        },
        {
            "positions": [
                0.44970195939048807,
                -1.54104123643839,
                0.02354854126058048,
                -0.14971789635619515,
                -0.5947559386864453,
                -0.0016947056755816647
            ]
        },
        {
            "positions": [
                0.3312861392814095,
                -1.556657109930073,
                0.12582049207003543,
                -0.07609510142346809,
                -0.5433774674064651,
                -0.025048095823001715
            ]
        },
        {
            "positions": [
                0.21287031917233046,
                -1.5722729834217561,
                0.2280924428794906,
                -0.0024723064907412606,
                -0.4919989961264848,
                -0.048401485970421765
            ]
        },
        {
            "positions": [
                0.09445449906325187,
                -1.587888856913439,
                0.33036439368894577,
                0.07115048844198557,
                -0.4406205248465045,
                -0.07175487611784181
            ]
        },
        {
            "positions": [
                -0.023961321045827155,
                -1.603504730405122,
                0.43263634449840094,
                0.14477328337471285,
                -0.3892420535665242,
                -0.09510826626526192
            ]
        },
        {
            "positions": [
                -0.14237714115490618,
                -1.619120603896805,
                0.5349082953078561,
                0.21839607830743968,
                -0.3378635822865439,
                -0.11846165641268191
            ]
        },
        {
            "positions": [
                -0.26079296126398477,
                -1.634736477388488,
                0.6371802461173113,
                0.2920188732401665,
                -0.2864851110065636,
                -0.14181504656010202
            ]
        },
        {
            "positions": [
                -0.3792087813730638,
                -1.650352350880171,
                0.7394521969267664,
                0.36564166817289356,
                -0.2351066397265833,
                -0.16516843670752202
            ]
        },
        {
            "positions": [
                -0.4976246014821424,
                -1.6659682243718539,
                0.8417241477362216,
                0.4392644631056204,
                -0.183728168446603,
                -0.18852182685494212
            ]
        },
        {
            "positions": [
                -0.616040421591221,
                -1.6815840978635368,
                0.9439960985456763,
                0.5128872580383474,
                -0.13234969716662293,
                -0.21187521700236212
            ]
        },
        {
            "positions": [
                -0.7344562417003,
                -1.6971999713552197,
                1.0462680493551315,
                0.5865100529710741,
                -0.08097122588664263,
                -0.23522860714978222
            ]
        },
        {
            "positions": [
                -0.8528720618093785,
                -1.7128158448469026,
                1.1485400001645865,
                0.6601328479038011,
                -0.02959275460666232,
                -0.25858199729720216
            ]
        },
        {
            "positions": [
                -0.7986800824655148,
                -1.680729475588033,
                1.1937976339763308,
                0.5820661988991522,
                -0.021232464669465878,
                -0.423801350148171
            ]
        },
        {
            "positions": [
                -0.7444881031216511,
                -1.6486431063291633,
                1.239055267788075,
                0.5039995498945035,
                -0.012872174732269433,
                -0.5890207029991398
            ]
        },
        {
            "positions": [
                -0.6902961237777876,
                -1.6165567370702938,
                1.2843129015998191,
                0.42593290088985464,
                -0.004511884795072987,
                -0.7542400558501086
            ]
        },
        {
            "positions": [
                -0.6361041444339239,
                -1.584470367811424,
                1.3295705354115634,
                0.3478662518852058,
                0.0038484051421234546,
                -0.9194594087010775
            ]
        },
        {
            "positions": [
                -0.5819121650900603,
                -1.5523839985525545,
                1.3748281692233078,
                0.26979960288055693,
                0.012208695079319907,
                -1.0846787615520463
            ]
        },
        {
            "positions": [
                -0.5277201857461966,
                -1.5202976292936847,
                1.420085803035052,
                0.19173295387590816,
                0.020568985016516345,
                -1.249898114403015
            ]
        },
        {
            "positions": [
                -0.47352820640233295,
                -1.4882112600348152,
                1.4653434368467964,
                0.11366630487125928,
                0.02892927495371279,
                -1.415117467253984
            ]
        },
        {
            "positions": [
                -0.41933622705846935,
                -1.4561248907759454,
                1.5106010706585407,
                0.03559965586661051,
                0.03728956489090923,
                -1.5803368201049526
            ]
        },
        {
            "positions": [
                -0.3651442477146057,
                -1.4240385215170759,
                1.555858704470285,
                -0.04246699313803837,
                0.045649854828105685,
                -1.7455561729559215
            ]
        },
        {
            "positions": [
                -0.31095226837074197,
                -1.3919521522582063,
                1.6011163382820293,
                -0.12053364214268725,
                0.05401014476530214,
                -1.9107755258068904
            ]
        },
        {
            "positions": [
                -0.2567602890268783,
                -1.3598657829993366,
                1.6463739720937733,
                -0.19860029114733613,
                0.062370434702498576,
                -2.0759948786578595
            ]
        },
        {
            "positions": [
                -0.20256830968301476,
                -1.327779413740467,
                1.6916316059055176,
                -0.2766669401519848,
                0.07073072463969501,
                -2.241214231508828
            ]
        },
        {
            "positions": [
                -0.1483763303391511,
                -1.2956930444815973,
                1.736889239717262,
                -0.35473358915663367,
                0.07909101457689147,
                -2.406433584359797
            ]
        },
        {
            "positions": [
                -0.09418435099528744,
                -1.2636066752227277,
                1.782146873529006,
                -0.43280023816128255,
                0.0874513045140879,
                -2.5716529372107657
            ]
        },
        {
            "positions": [
                -0.039992371651423775,
                -1.231520305963858,
                1.8274045073407503,
                -0.5108668871659314,
                0.09581159445128436,
                -2.7368722900617346
            ]
        },
        {
            "positions": [
                0.014199607692439775,
                -1.1994339367049884,
                1.8726621411524946,
                -0.5889335361705801,
                0.10417188438848078,
                -2.902091642912703
            ]
        },
        {
            "positions": [
                0.06839158703630344,
                -1.167347567446119,
                1.917919774964239,
                -0.667000185175229,
                0.11253217432567723,
                -3.067310995763672
            ]
        },
        {
            "positions": [
                0.1225835663801671,
                -1.1352611981872491,
                1.9631774087759832,
                -0.7450668341798777,
                0.12089246426287367,
                -3.232530348614641
            ]
        }
    ]
}