{
    "goal": {
        "global_pose": {
            "orientation": {
                "w": 0.5084816217422485,
                "x": -0.49083608388900757,
                "y": 0.5182115435600281,
                "z": -0.4816462993621826
            },
            "position": {
                "x": 0.5540239810943604,
                "y": 0.030875300988554955,
                "z": 0.16403168439865112
            }
        },
        "name": "move_to_storage_A"
    },
    "id": "RRT_move_to_storage_A_96",
    "joint_names": [
        "shoulder_pan_joint",
        "shoulder_lift_joint",
        "elbow_joint",
        "wrist_1_joint",
        "wrist_2_joint",
        "wrist_3_joint"
    ],
    "metrics": {
        "cart_traj_len": 0.3526585039326913,
        "distance_elbow_joint": 0.45219259081013496,
        "distance_shoulder_lift_joint": 0.23336195714264552,
        "distance_shoulder_pan_joint": 0.4592906899644897,
        "distance_wrist_1_joint": 0.26079139056685785,
        "distance_wrist_2_joint": 1.1050838151429379,
        "distance_wrist_3_joint": 0.10991161237519531,
        "smoothness": 2.2204460668324854e-16,
        "time": 0.014569031,
        "traj_len": 1.6188366366011924,
        "weighted_distance": 2.0509340521973023
    },
    "planner": "RRT",
    "start": {
        "state": {
            "elbow_joint": 1.971548259319323,
            "shoulder_lift_joint": -1.1394851275133948,
            "shoulder_pan_joint": 0.1228115487234821,
            "wrist_1_joint": -0.7804723859257726,
            "wrist_2_joint": 0.12958671773740124,
            "wrist_3_joint": -3.192489227718131
        }
    },
    "waypoints": [
        {
            "positions": [
                0.1228115487234821,
                -1.1394851275133948,
                1.971548259319323,
                -0.7804723859257726,
                0.12958671773740124,
                -3.192489227718131
            ]
        },
        {
            "positions": [
                0.057198593014269286,
                -1.1728225499623441,
                2.036147200863628,
                -0.8177282988638952,
                0.28745583418639237,
                -3.1767875688073888
            ]
        },
        {
            "positions": [
                -0.008414362694943528,
                -1.2061599724112935,
                2.100746142407933,
                -0.8549842118020177,
                0.44532495063538347,
                -3.161085909896647
            ]
        },
        {
            "positions": [
                -0.07402731840415633,
                -1.2394973948602428,
                2.165345083952238,
                -0.8922401247401403,
                0.6031940670843746,
                -3.1453842509859045
            ]
        },
        {
            "positions": [
                -0.13964027411336916,
                -1.2728348173091923,
                2.229944025496543,
                -0.9294960376782628,
                0.7610631835333658,
                -3.1296825920751625
            ]
        },
        {
            "positions": [
                -0.20525322982258198,
                -1.3061722397581417,
                2.294542967040848,
                -0.9667519506163853,
                0.9189322999823569,
                -3.11398093316442
            ]
        },
        {
            "positions": [
                -0.27086618553179476,
                -1.339509662207091,
                2.359141908585153,
                -1.004007863554508,
                1.076801416431348,
                -3.098279274253678
            ]
        },
        {
            "positions": [
                -0.3364791412410076,
                -1.3728470846560403,
                2.423740850129458,
                -1.0412637764926305,
                1.2346705328803391,
                -3.082577615342936
            ]
        }
    ]
}{
    "goal": {
        "global_pose": {
            "orientation": {
                "w": 0.5084816217422485,
                "x": -0.49083608388900757,
                "y": 0.5182115435600281,
                "z": -0.4816462993621826
            },
            "position": {
                "x": 0.5540239810943604,
                "y": 0.030875300988554955,
                "z": 0.16403168439865112
            }
        },
        "name": "move_to_storage_A"
    },
    "id": "RRT_move_to_storage_A_96",
    "joint_names": [
        "shoulder_pan_joint",
        "shoulder_lift_joint",
        "elbow_joint",
        "wrist_1_joint",
        "wrist_2_joint",
        "wrist_3_joint"
    ],
    "metrics": {
        "cart_traj_len": 0.35370930072865175,
        "distance_elbow_joint": 0.4501280728881687,
        "distance_shoulder_lift_joint": 0.23467641183118748,
        "distance_shoulder_pan_joint": 0.4631086651108198,
        "distance_wrist_1_joint": 0.24417668333534936,
        "distance_wrist_2_joint": 1.0975223305608643,
        "distance_wrist_3_joint": 0.09644051564945944,
        "smoothness": 4.440892098500626e-16,
        "time": 0.03968335,
        "traj_len": 1.608120853473348,
        "weighted_distance": 2.029934167546076
    },
    "planner": "RRT",
    "start": {
        "state": {
            "elbow_joint": 1.97154746011099,
            "shoulder_lift_joint": -1.13948474672311,
            "shoulder_pan_joint": 0.12281154466712228,
            "wrist_1_joint": -0.7804688027058302,
            "wrist_2_joint": 0.12958655903071145,
            "wrist_3_joint": 3.0906928834467795
        }
    },
    "waypoints": [
        {
            "positions": [
                0.12281154466712228,
                -1.13948474672311,
                1.97154746011099,
                -0.7804688027058302,
                0.12958655903071145,
                3.0906928834467795
            ]
        },
        {
            "positions": [
                0.056653163937005174,
                -1.1730099484132797,
                2.0358514705235855,
                -0.8153511860394516,
                0.2863754633965492,
                3.1044700999681307
            ]
        },
        {
            "positions": [
                -0.009505216793111934,
                -1.2065351501034491,
                2.100155480936181,
                -0.8502335693730728,
                0.443164367762387,
                3.1182473164894824
            ]
        },
        {
            "positions": [
                -0.07566359752322903,
                -1.2400603517936188,
                2.1644594913487767,
                -0.8851159527066942,
                0.5999532721282247,
                3.1320245330108336
            ]
        },
        {
            "positions": [
                -0.14182197825334614,
                -1.2735855534837885,
                2.228763501761372,
                -0.9199983360403156,
                0.7567421764940625,
                3.145801749532185
            ]
        },
        {
            "positions": [
                -0.2079803589834633,
                -1.3071107551739582,
                2.2930675121739674,
                -0.9548807193739368,
                0.9135310808599003,
                3.159578966053536
            ]
        },
        {
            "positions": [
                -0.2741387397135803,
                -1.3406359568641277,
                2.357371522586563,
                -0.9897631027075582,
                1.070319985225738,
                3.1733561825748877
            ]
        },
        {
            "positions": [
                -0.3402971204436975,
                -1.3741611585542974,
                2.4216755329991586,
                -1.0246454860411796,
                1.2271088895915758,
                3.187133399096239
            ]
        }
    ]
}{
    "goal": {
        "global_pose": {
            "orientation": {
                "w": 0.5084816217422485,
                "x": -0.49083608388900757,
                "y": 0.5182115435600281,
                "z": -0.4816462993621826
            },
            "position": {
                "x": 0.5540239810943604,
                "y": 0.030875300988554955,
                "z": 0.16403168439865112
            }
        },
        "name": "move_to_storage_A"
    },
    "id": "RRT_move_to_storage_A_96",
    "joint_names": [
        "shoulder_pan_joint",
        "shoulder_lift_joint",
        "elbow_joint",
        "wrist_1_joint",
        "wrist_2_joint",
        "wrist_3_joint"
    ],
    "metrics": {
        "cart_traj_len": 0.3523690317246225,
        "distance_elbow_joint": 0.45027986452347735,
        "distance_shoulder_lift_joint": 0.2342807846634325,
        "distance_shoulder_pan_joint": 0.4563893847587796,
        "distance_wrist_1_joint": 0.2464234318924079,
        "distance_wrist_2_joint": 1.116167819294721,
        "distance_wrist_3_joint": 0.09794672293650608,
        "smoothness": 6.661338165333112e-16,
        "time": 0.012087999,
        "traj_len": 1.6129128953757315,
        "weighted_distance": 2.03960111422049
    },
    "planner": "RRT",
    "start": {
        "state": {
            "elbow_joint": 1.9715472970024885,
            "shoulder_lift_joint": -1.1394870060712896,
            "shoulder_pan_joint": 0.12281152778156021,
            "wrist_1_joint": -0.780463741449964,
            "wrist_2_joint": 0.12958659822042276,
            "wrist_3_joint": 3.090690232415272
        }
    },
    "waypoints": [
        {
            "positions": [
                0.12281152778156021,
                -1.1394870060712896,
                1.9715472970024885,
                -0.780463741449964,
                0.12958659822042276,
                3.090690232415272
            ]
        },
        {
            "positions": [
                0.05761304424459171,
                -1.1729556895946371,
                2.035872991934414,
                -0.8156670888631651,
                0.28903914383395435,
                3.104682621406201
            ]
        },
        {
            "positions": [
                -0.007585439292376789,
                -1.2064243731179847,
                2.100198686866339,
                -0.8508704362763663,
                0.44849168944748596,
                3.118675010397131
            ]
        },
        {
            "positions": [
                -0.07278392282934529,
                -1.2398930566413322,
                2.1645243817982647,
                -0.8860737836895674,
                0.6079442350610175,
                3.13266739938806
            ]
        },
        {
            "positions": [
                -0.1379824063663138,
                -1.2733617401646795,
                2.2288500767301898,
                -0.9212771311027685,
                0.7673967806745491,
                3.1466597883789897
            ]
        },
        {
            "positions": [
                -0.20318088990328234,
                -1.306830423688027,
                2.2931757716621153,
                -0.9564804785159696,
                0.9268493262880807,
                3.160652177369919
            ]
        },
        {
            "positions": [
                -0.26837937344025076,
                -1.3402991072113746,
                2.3575014665940404,
                -0.9916838259291707,
                1.0863018719016122,
                3.1746445663608487
            ]
        },
        {
            "positions": [
                -0.33357785697721937,
                -1.373767790734722,
                2.421827161525966,
                -1.026887173342372,
                1.2457544175151438,
                3.188636955351778
            ]
        }
    ]
}