{
    "goal": {
        "global_pose": {
            "orientation": {
                "w": 0.005598929693374612,
                "x": 0.007748599140229565,
                "y": 0.7110244013736278,
                "z": -0.7031023480610252
            },
            "position": {
                "x": 0.1141497679147869,
                "y": -0.7141253447532654,
                "z": 0.3711530566215515
            }
        },
        "name": "move_to_auspresseinheit_B"
    },
    "id": "RRT_move_to_auspresseinheit_B_85",
    "joint_names": [
        "shoulder_pan_joint",
        "shoulder_lift_joint",
        "elbow_joint",
        "wrist_1_joint",
        "wrist_2_joint",
        "wrist_3_joint"
    ],
    "metrics": {
        "cart_traj_len": 0.5654674418068246,
        "distance_elbow_joint": 0.06317351294055262,
        "distance_shoulder_lift_joint": 0.2948376872613234,
        "distance_shoulder_pan_joint": 0.5796767238935681,
        "distance_wrist_1_joint": 0.3284557642203664,
        "distance_wrist_2_joint": 0.9842263491983925,
        "distance_wrist_3_joint": 0.003852847001673876,
        "smoothness": 5.075305295617109e-16,
        "time": 0.014740491,
        "traj_len": 1.5014069683186757,
        "weighted_distance": 1.890664087546485
    },
    "planner": "RRT",
    "start": {
        "state": {
            "elbow_joint": 2.0193083361928714,
            "shoulder_lift_joint": -1.1220246554650708,
            "shoulder_pan_joint": -1.0952077554168747,
            "wrist_1_joint": -0.8559753972642168,
            "wrist_2_joint": 0.4759566250798843,
            "wrist_3_joint": -3.1240929996934557
        }
    },
    "waypoints": [
        {
            "positions": [
                -1.0952077554168747,
                -1.1220246554650708,
                2.0193083361928714,
                -0.8559753972642168,
                0.4759566250798843,
                -3.1240929996934557
            ]
        },
        {
            "positions": [
                -1.1918205427324693,
                -1.1711642700086247,
                2.008779417369446,
                -0.8012327698941557,
                0.639994349946283,
                -3.12345085852651
            ]
        },
        {
            "positions": [
                -1.288433330048064,
                -1.2203038845521785,
                1.9982504985460205,
                -0.7464901425240946,
                0.8040320748126817,
                -3.1228087173595642
            ]
        },
        {
            "positions": [
                -1.3850461173636588,
                -1.2694434990957326,
                1.9877215797225951,
                -0.6917475151540335,
                0.9680697996790806,
                -3.122166576192619
            ]
        },
        {
            "positions": [
                -1.4816589046792532,
                -1.3185831136392865,
                1.9771926608991697,
                -0.6370048877839726,
                1.1321075245454792,
                -3.1215244350256732
            ]
        },
        {
            "positions": [
                -1.578271691994848,
                -1.3677227281828404,
                1.9666637420757442,
                -0.5822622604139114,
                1.2961452494118781,
                -3.1208822938587275
            ]
        },
        {
            "positions": [
                -1.6748844793104427,
                -1.4168623427263942,
                1.9561348232523188,
                -0.5275196330438504,
                1.4601829742782768,
                -3.120240152691782
            ]
        }
    ]
}