{
    "goal": {
        "global_pose": {
            "orientation": {
                "w": -0.4816463035849501,
                "x": 0.5182115481033762,
                "y": 0.4908360881923453,
                "z": -0.5084816262002911
            },
            "position": {
                "x": -0.8240239810943604,
                "y": 0.19912469901144506,
                "z": 0.16403168439865112
            }
        },
        "name": "move_to_storage_D"
    },
    "id": "RRT_move_to_storage_D_44",
    "joint_names": [
        "shoulder_pan_joint",
        "shoulder_lift_joint",
        "elbow_joint",
        "wrist_1_joint",
        "wrist_2_joint",
        "wrist_3_joint"
    ],
    "metrics": {
        "cart_traj_len": 3.853388398772786,
        "distance_elbow_joint": 4.210518153812565,
        "distance_shoulder_lift_joint": 1.265311736717139,
        "distance_shoulder_pan_joint": 2.8123677972470986,
        "distance_wrist_1_joint": 2.466209434613237,
        "distance_wrist_2_joint": 1.0934599681396184,
        "distance_wrist_3_joint": 3.129951729761054,
        "smoothness": 0.11793050028979313,
        "time": 0.080363433,
        "traj_len": 3.870118708811231,
        "weighted_distance": 4.979697950936952
    },
    "planner": "RRT",
    "start": {
        "state": {
            "elbow_joint": -2.384821988534728,
            "shoulder_lift_joint": -2.2788054721415256,
            "shoulder_pan_joint": -0.1854694642142757,
            "wrist_1_joint": 1.4845938289331202,
            "wrist_2_joint": 0.17898776772866878,
            "wrist_3_joint": 0.037105688729662994
        }
    },
    "waypoints": [
        {
            "positions": [
                -0.1854694642142757,
                -2.2788054721415256,
                -2.384821988534728,
                1.4845938289331202,
                0.17898776772866878,
                0.037105688729662994
            ]
        },
        {
            "positions": [
                -0.16787494797984726,
                -2.237832864859664,
                -2.3773097944522323,
                1.3844324940842645,
                0.12267270296372951,
                0.02349826869519986
            ]
        },
        {
            "positions": [
                -0.15028043174541877,
                -2.1968602575778027,
                -2.369797600369737,
                1.2842711592354086,
                0.06635763819879023,
                0.009890848660736726
            ]
        },
        {
            "positions": [
                -0.07528491546624713,
                -2.171439415540121,
                -2.2491360121380586,
                1.2164417888560475,
                0.09481913082407036,
                -0.06433564502693803
            ]
        },
        {
            "positions": [
                -0.00028939918707548973,
                -2.1460185735024395,
                -2.1284744239063795,
                1.1486124184766862,
                0.12328062344935048,
                -0.1385621387146128
            ]
        },
        {
            "positions": [
                0.07470611709209615,
                -2.1205977314647577,
                -2.0078128356747005,
                1.080783048097325,
                0.15174211607463062,
                -0.21278863240228754
            ]
        },
        {
            "positions": [
                0.1497016333712678,
                -2.095176889427076,
                -1.8871512474430219,
                1.012953677717964,
                0.18020360869991073,
                -0.28701512608996227
            ]
        },
        {
            "positions": [
                0.22469714965043946,
                -2.069756047389394,
                -1.766489659211343,
                0.9451243073386029,
                0.20866510132519087,
                -0.361241619777637
            ]
        },
        {
            "positions": [
                0.2996926659296111,
                -2.0443352053517128,
                -1.6458280709796642,
                0.8772949369592417,
                0.23712659395047098,
                -0.4354681134653118
            ]
        },
        {
            "positions": [
                0.3746881822087827,
                -2.018914363314031,
                -1.5251664827479854,
                0.8094655665798804,
                0.26558808657575106,
                -0.5096946071529865
            ]
        },
        {
            "positions": [
                0.44968369848795436,
                -1.9934935212763492,
                -1.4045048945163066,
                0.7416361962005193,
                0.29404957920103125,
                -0.5839211008406613
            ]
        },
        {
            "positions": [
                0.524679214767126,
                -1.9680726792386676,
                -1.2838433062846277,
                0.6738068258211583,
                0.32251107182631134,
                -0.658147594528336
            ]
        },
        {
            "positions": [
                0.5996747310462978,
                -1.942651837200986,
                -1.163181718052949,
                0.605977455441797,
                0.35097256445159153,
                -0.7323740882160108
            ]
        },
        {
            "positions": [
                0.6746702473254693,
                -1.9172309951633042,
                -1.04252012982127,
                0.5381480850624358,
                0.3794340570768716,
                -0.8066005819036856
            ]
        },
        {
            "positions": [
                0.7496657636046409,
                -1.8918101531256226,
                -0.9218585415895912,
                0.47031871468307473,
                0.4078955497021517,
                -0.8808270755913603
            ]
        },
        {
            "positions": [
                0.8246612798838127,
                -1.8663893110879408,
                -0.8011969533579124,
                0.40248934430371364,
                0.4363570423274319,
                -0.9550535692790351
            ]
        },
        {
            "positions": [
                0.8996567961629842,
                -1.8409684690502592,
                -0.6805353651262336,
                0.3346599739243524,
                0.46481853495271197,
                -1.0292800629667098
            ]
        },
        {
            "positions": [
                0.974652312442156,
                -1.8155476270125774,
                -0.5598737768945548,
                0.2668306035449912,
                0.49328002757799205,
                -1.1035065566543847
            ]
        },
        {
            "positions": [
                1.0496478287213276,
                -1.7901267849748959,
                -0.4392121886628759,
                0.19900123316563012,
                0.5217415202032722,
                -1.1777330503420593
            ]
        },
        {
            "positions": [
                1.1246433450004991,
                -1.7647059429372143,
                -0.3185506004311973,
                0.13117186278626902,
                0.5502030128285523,
                -1.251959544029734
            ]
        },
        {
            "positions": [
                1.199638861279671,
                -1.7392851008995325,
                -0.19788901219951827,
                0.06334249240690792,
                0.5786645054538325,
                -1.3261860377174088
            ]
        },
        {
            "positions": [
                1.2746343775588425,
                -1.713864258861851,
                -0.07722742396783921,
                -0.004486877972453396,
                0.6071259980791126,
                -1.4004125314050837
            ]
        },
        {
            "positions": [
                1.3496298938380142,
                -1.688443416824169,
                0.04343416426383939,
                -0.0723162483518145,
                0.6355874907043928,
                -1.4746390250927583
            ]
        },
        {
            "positions": [
                1.4246254101171858,
                -1.6630225747864875,
                0.164095752495518,
                -0.1401456187311756,
                0.6640489833296729,
                -1.548865518780433
            ]
        },
        {
            "positions": [
                1.4996209263963574,
                -1.6376017327488057,
                0.28475734072719705,
                -0.2079749891105369,
                0.692510475954953,
                -1.6230920124681079
            ]
        },
        {
            "positions": [
                1.5746164426755291,
                -1.6121808907111241,
                0.4054189289588761,
                -0.275804359489898,
                0.7209719685802332,
                -1.6973185061557827
            ]
        },
        {
            "positions": [
                1.6496119589547007,
                -1.5867600486734426,
                0.5260805171905547,
                -0.3436337298692591,
                0.7494334612055132,
                -1.7715449998434574
            ]
        },
        {
            "positions": [
                1.7246074752338723,
                -1.5613392066357608,
                0.6467421054222333,
                -0.4114631002486202,
                0.7778949538307933,
                -1.845771493531132
            ]
        },
        {
            "positions": [
                1.799602991513044,
                -1.535918364598079,
                0.7674036936539124,
                -0.4792924706279813,
                0.8063564464560735,
                -1.9199979872188069
            ]
        },
        {
            "positions": [
                1.8745985077922158,
                -1.5104975225603974,
                0.8880652818855914,
                -0.5471218410073426,
                0.8348179390813536,
                -1.9942244809064817
            ]
        },
        {
            "positions": [
                1.9495940240713872,
                -1.4850766805227158,
                1.00872687011727,
                -0.6149512113867037,
                0.8632794317066337,
                -2.0684509745941564
            ]
        },
        {
            "positions": [
                2.0245895403505587,
                -1.459655838485034,
                1.1293884583489486,
                -0.6827805817660648,
                0.8917409243319139,
                -2.142677468281831
            ]
        },
        {
            "positions": [
                2.0995850566297305,
                -1.4342349964473524,
                1.2500500465806277,
                -0.7506099521454261,
                0.920202416957194,
                -2.216903961969506
            ]
        },
        {
            "positions": [
                2.174580572908902,
                -1.4088141544096708,
                1.3707116348123067,
                -0.8184393225247872,
                0.9486639095824742,
                -2.2911304556571808
            ]
        },
        {
            "positions": [
                2.2495760891880736,
                -1.383393312371989,
                1.4913732230439856,
                -0.8862686929041484,
                0.9771254022077542,
                -2.3653569493448554
            ]
        },
        {
            "positions": [
                2.3250405379570234,
                -1.3094133969824686,
                1.558237811490756,
                -0.8671993103489547,
                0.9911378171279094,
                -2.5108547676821624
            ]
        },
        {
            "positions": [
                2.4005049867259736,
                -1.2354334815929482,
                1.6251023999375263,
                -0.848129927793761,
                1.0051502320480645,
                -2.6563525860194694
            ]
        },
        {
            "positions": [
                2.4759694354949233,
                -1.1614535662034275,
                1.6919669883842967,
                -0.8290605452385672,
                1.0191626469682196,
                -2.801850404356777
            ]
        },
        {
            "positions": [
                2.5514338842638735,
                -1.0874736508139071,
                1.7588315768310672,
                -0.8099911626833735,
                1.0331750618883748,
                -2.947348222694084
            ]
        },
        {
            "positions": [
                2.6268983330328233,
                -1.0134937354243867,
                1.8256961652778374,
                -0.7909217801281797,
                1.0471874768085299,
                -3.092846041031391
            ]
        }
    ]
}