{
    "goal": {
        "global_pose": {
            "orientation": {
                "w": 0.7047431493862688,
                "x": -0.7094548369677653,
                "y": 0.0024358444001904,
                "z": -0.0022348060817251984
            },
            "position": {
                "x": -0.39052492380142206,
                "y": 0.3671506643295288,
                "z": 0.19426114857196808
            }
        },
        "name": "move_to_magneteinheit_D"
    },
    "id": "RRT_move_to_magneteinheit_D_93",
    "joint_names": [
        "shoulder_pan_joint",
        "shoulder_lift_joint",
        "elbow_joint",
        "wrist_1_joint",
        "wrist_2_joint",
        "wrist_3_joint"
    ],
    "metrics": {
        "cart_traj_len": 4.364857158710707,
        "distance_elbow_joint": 5.017103755218274,
        "distance_shoulder_lift_joint": 3.2353219818859538,
        "distance_shoulder_pan_joint": 4.564761602517649,
        "distance_wrist_1_joint": 3.658354574931225,
        "distance_wrist_2_joint": 4.625546305543195,
        "distance_wrist_3_joint": 6.276721844850804,
        "smoothness": 0.494524063837243,
        "time": 0.79138178,
        "traj_len": 5.232380917416763,
        "weighted_distance": 6.943713317463727
    },
    "planner": "RRT",
    "start": {
        "state": {
            "elbow_joint": 0.749534889911806,
            "shoulder_lift_joint": -0.6476975780787326,
            "shoulder_pan_joint": -2.711696901376241,
            "wrist_1_joint": -0.07506478083263063,
            "wrist_2_joint": 0.43296659715538205,
            "wrist_3_joint": -3.14703540197715
        }
    },
    "waypoints": [
        {
            "positions": [
                -2.711696901376241,
                -0.6476975780787326,
                0.749534889911806,
                -0.07506478083263063,
                0.43296659715538205,
                -3.14703540197715
            ]
        },
        {
            "positions": [
                -2.7044347175488284,
                -0.7093126463261725,
                0.8225986916489919,
                -0.014431989444486495,
                0.4614110111480274,
                -3.0095631116448365
            ]
        },
        {
            "positions": [
                -2.697172533721416,
                -0.7709277145736124,
                0.8956624933861778,
                0.04620080194365764,
                0.48985542514067276,
                -2.872090821312523
            ]
        },
        {
            "positions": [
                -2.6899103498940033,
                -0.8325427828210523,
                0.9687262951233637,
                0.10683359333180178,
                0.5182998391333181,
                -2.734618530980209
            ]
        },
        {
            "positions": [
                -2.682648166066591,
                -0.8941578510684922,
                1.0417900968605496,
                0.1674663847199459,
                0.5467442531259634,
                -2.5971462406478953
            ]
        },
        {
            "positions": [
                -2.6753859822391783,
                -0.9557729193159321,
                1.1148538985977356,
                0.22809917610809005,
                0.5751886671186088,
                -2.459673950315582
            ]
        },
        {
            "positions": [
                -2.668123798411766,
                -1.017387987563372,
                1.1879177003349215,
                0.2887319674962342,
                0.6036330811112541,
                -2.3222016599832678
            ]
        },
        {
            "positions": [
                -2.6608616145843533,
                -1.079003055810812,
                1.2609815020721074,
                0.34936475888437823,
                0.6320774951038994,
                -2.184729369650954
            ]
        },
        {
            "positions": [
                -2.653599430756941,
                -1.1406181240582518,
                1.3340453038092934,
                0.40999755027252244,
                0.6605219090965448,
                -2.0472570793186406
            ]
        },
        {
            "positions": [
                -2.6463372469295283,
                -1.2022331923056917,
                1.4071091055464793,
                0.4706303416606665,
                0.6889663230891903,
                -1.909784788986327
            ]
        },
        {
            "positions": [
                -2.639075063102116,
                -1.2638482605531316,
                1.4801729072836651,
                0.5312631330488107,
                0.7174107370818356,
                -1.7723124986540133
            ]
        },
        {
            "positions": [
                -2.6318128792747033,
                -1.3254633288005715,
                1.553236709020851,
                0.5918959244369548,
                0.7458551510744809,
                -1.6348402083216997
            ]
        },
        {
            "positions": [
                -2.624550695447291,
                -1.3870783970480114,
                1.626300510758037,
                0.652528715825099,
                0.7742995650671263,
                -1.497367917989386
            ]
        },
        {
            "positions": [
                -2.6172885116198783,
                -1.4486934652954513,
                1.699364312495223,
                0.7131615072132431,
                0.8027439790597716,
                -1.3598956276570724
            ]
        },
        {
            "positions": [
                -2.5163579888170884,
                -1.458968526968358,
                1.6385326283580215,
                0.6432515423225733,
                0.7359535196623467,
                -1.2802320963761493
            ]
        },
        {
            "positions": [
                -2.415427466014298,
                -1.4692435886412647,
                1.57770094422082,
                0.5733415774319035,
                0.6691630602649219,
                -1.200568565095226
            ]
        },
        {
            "positions": [
                -2.314496943211508,
                -1.4795186503141715,
                1.5168692600836187,
                0.5034316125412337,
                0.602372600867497,
                -1.120905033814303
            ]
        },
        {
            "positions": [
                -2.2135664204087178,
                -1.489793711987078,
                1.4560375759464173,
                0.43352164765056395,
                0.5355821414700721,
                -1.0412415025333797
            ]
        },
        {
            "positions": [
                -2.112635897605928,
                -1.500068773659985,
                1.3952058918092158,
                0.36361168275989414,
                0.4687916820726473,
                -0.9615779712524566
            ]
        },
        {
            "positions": [
                -2.011705374803138,
                -1.5103438353328915,
                1.3343742076720146,
                0.2937017178692244,
                0.4020012226752225,
                -0.8819144399715335
            ]
        },
        {
            "positions": [
                -1.9107748520003476,
                -1.5206188970057983,
                1.2735425235348132,
                0.22379175297855453,
                0.3352107632777976,
                -0.8022509086906102
            ]
        },
        {
            "positions": [
                -1.8098443291975577,
                -1.530893958678705,
                1.2127108393976118,
                0.15388178808788477,
                0.26842030388037275,
                -0.722587377409687
            ]
        },
        {
            "positions": [
                -1.7089138063947678,
                -1.5411690203516117,
                1.1518791552604104,
                0.08397182319721508,
                0.20162984448294796,
                -0.642923846128764
            ]
        },
        {
            "positions": [
                -1.6079832835919776,
                -1.5514440820245183,
                1.091047471123209,
                0.01406185830654516,
                0.13483938508552307,
                -0.5632603148478408
            ]
        },
        {
            "positions": [
                -1.5070527607891875,
                -1.5617191436974251,
                1.0302157869860076,
                -0.055848106584124535,
                0.06804892568809817,
                -0.4835967835669176
            ]
        },
        {
            "positions": [
                -1.4061222379863976,
                -1.5719942053703317,
                0.9693841028488062,
                -0.12575807147479434,
                0.0012584662906733879,
                -0.4039332522859945
            ]
        },
        {
            "positions": [
                -1.3051917151836072,
                -1.5822692670432386,
                0.9085524187116047,
                -0.19566803636546415,
                -0.06553199310675151,
                -0.32426972100507134
            ]
        },
        {
            "positions": [
                -1.204261192380817,
                -1.5925443287161452,
                0.8477207345744033,
                -0.26557800125613407,
                -0.1323224525041764,
                -0.24460618972414805
            ]
        },
        {
            "positions": [
                -1.1033306695780272,
                -1.602819390389052,
                0.786889050437202,
                -0.33548796614680376,
                -0.19911291190160119,
                -0.16494265844322498
            ]
        },
        {
            "positions": [
                -1.002400146775237,
                -1.6130944520619586,
                0.7260573663000005,
                -0.40539793103747357,
                -0.2659033712990261,
                -0.08527912716230168
            ]
        },
        {
            "positions": [
                -0.9014696239724469,
                -1.6233695137348654,
                0.6652256821627991,
                -0.4753078959281434,
                -0.332693830696451,
                -0.00561559588137861
            ]
        },
        {
            "positions": [
                -0.800539101169657,
                -1.633644575407772,
                0.6043939980255979,
                -0.545217860818813,
                -0.39948429009387565,
                0.07404793539954446
            ]
        },
        {
            "positions": [
                -0.6996085783668669,
                -1.6439196370806788,
                0.5435623138883963,
                -0.615127825709483,
                -0.46627474949130054,
                0.15371146668046776
            ]
        },
        {
            "positions": [
                -0.5986780555640769,
                -1.6541946987535856,
                0.48273062975119485,
                -0.6850377906001528,
                -0.5330652088887254,
                0.23337499796139083
            ]
        },
        {
            "positions": [
                -0.497747532761287,
                -1.6644697604264922,
                0.42189894561399366,
                -0.7549477554908224,
                -0.5998556682861503,
                0.3130385292423139
            ]
        },
        {
            "positions": [
                -0.39681700995849667,
                -1.6747448220993988,
                0.36106726147679225,
                -0.8248577203814922,
                -0.6666461276835752,
                0.3927020605232372
            ]
        },
        {
            "positions": [
                -0.2958864871557063,
                -1.6850198837723056,
                0.30023557733959083,
                -0.894767685272162,
                -0.7334365870810001,
                0.4723655918041605
            ]
        },
        {
            "positions": [
                -0.19495596435291684,
                -1.6952949454452124,
                0.23940389320238942,
                -0.9646776501628318,
                -0.8002270464784248,
                0.5520291230850833
            ]
        },
        {
            "positions": [
                -0.09402544155012636,
                -1.705570007118119,
                0.178572209065188,
                -1.0345876150535016,
                -0.8670175058758497,
                0.6316926543660066
            ]
        },
        {
            "positions": [
                -0.04985580145503505,
                -1.654614971930294,
                0.06977258036561089,
                -1.086765179194292,
                -0.7891644683260874,
                0.6929246374646296
            ]
        },
        {
            "positions": [
                -0.005686161359943737,
                -1.6036599367424693,
                -0.039027048333966224,
                -1.1389427433350827,
                -0.7113114307763251,
                0.7541566205632527
            ]
        },
        {
            "positions": [
                0.03848347873514758,
                -1.5527049015546444,
                -0.1478266770335433,
                -1.1911203074758732,
                -0.6334583932265628,
                0.8153886036618757
            ]
        },
        {
            "positions": [
                0.08265311883023889,
                -1.5017498663668196,
                -0.25662630573312045,
                -1.2432978716166638,
                -0.5556053556768006,
                0.8766205867604988
            ]
        },
        {
            "positions": [
                0.12682275892533018,
                -1.4507948311789947,
                -0.36542593443269755,
                -1.2954754357574543,
                -0.4777523181270383,
                0.9378525698591218
            ]
        },
        {
            "positions": [
                0.17099239902042151,
                -1.3998397959911697,
                -0.4742255631322746,
                -1.347652999898245,
                -0.399899280577276,
                0.9990845529577448
            ]
        },
        {
            "positions": [
                0.2151620391155128,
                -1.348884760803345,
                -0.5830251918318518,
                -1.3998305640390354,
                -0.3220462430275137,
                1.0603165360563678
            ]
        },
        {
            "positions": [
                0.2593316792106041,
                -1.29792972561552,
                -0.6918248205314289,
                -1.452008128179826,
                -0.24419320547775147,
                1.1215485191549908
            ]
        },
        {
            "positions": [
                0.30350131930569546,
                -1.2469746904276953,
                -0.800624449231006,
                -1.5041856923206165,
                -0.1663401679279891,
                1.182780502253614
            ]
        },
        {
            "positions": [
                0.34767095940078674,
                -1.1960196552398703,
                -0.9094240779305831,
                -1.556363256461407,
                -0.08848713037822686,
                1.244012485352237
            ]
        },
        {
            "positions": [
                0.39184059949587813,
                -1.1450646200520453,
                -1.0182237066301603,
                -1.6085408206021978,
                -0.010634092828464503,
                1.30524446845086
            ]
        },
        {
            "positions": [
                0.4360102395909694,
                -1.0941095848642206,
                -1.1270233353297372,
                -1.6607183847429883,
                0.06721894472129775,
                1.366476451549483
            ]
        },
        {
            "positions": [
                0.4801798796860608,
                -1.0431545496763956,
                -1.2358229640293146,
                -1.7128959488837787,
                0.1450719822710601,
                1.427708434648106
            ]
        },
        {
            "positions": [
                0.524349519781152,
                -0.9921995144885708,
                -1.3446225927288915,
                -1.7650735130245692,
                0.22292501982082225,
                1.4889404177467291
            ]
        },
        {
            "positions": [
                0.5685191598762434,
                -0.9412444793007458,
                -1.4534222214284687,
                -1.8172510771653598,
                0.3007780573705846,
                1.5501724008453521
            ]
        },
        {
            "positions": [
                0.6126887999713346,
                -0.8902894441129211,
                -1.5622218501280458,
                -1.8694286413061505,
                0.37863109492034674,
                1.6114043839439751
            ]
        },
        {
            "positions": [
                0.656858440066426,
                -0.8393344089250961,
                -1.671021478827623,
                -1.921606205446941,
                0.4564841324701091,
                1.672636367042598
            ]
        },
        {
            "positions": [
                0.7010280801615173,
                -0.7883793737372713,
                -1.7798211075272,
                -1.9737837695877314,
                0.5343371700198715,
                1.733868350141221
            ]
        },
        {
            "positions": [
                0.7451977202566086,
                -0.7374243385494463,
                -1.888620736226777,
                -2.025961333728522,
                0.6121902075696338,
                1.7951003332398443
            ]
        },
        {
            "positions": [
                0.7893673603516999,
                -0.6864693033616216,
                -1.9974203649263542,
                -2.0781388978693123,
                0.690043245119396,
                1.8563323163384673
            ]
        },
        {
            "positions": [
                0.8335370004467912,
                -0.6355142681737966,
                -2.1062199936259316,
                -2.130316462010103,
                0.7678962826691582,
                1.9175642994370903
            ]
        },
        {
            "positions": [
                0.7485763587222397,
                -0.7277970859989839,
                -2.128027495835407,
                -2.1325373218152706,
                0.6886384784893099,
                2.018574478056803
            ]
        },
        {
            "positions": [
                0.6636157169976882,
                -0.8200799038241711,
                -2.149834998044882,
                -2.1347581816204375,
                0.6093806743094616,
                2.1195846566765164
            ]
        },
        {
            "positions": [
                0.5786550752731366,
                -0.9123627216493582,
                -2.1716425002543573,
                -2.136979041425605,
                0.5301228701296135,
                2.2205948352962293
            ]
        },
        {
            "positions": [
                0.4936944335485851,
                -1.0046455394745455,
                -2.193450002463833,
                -2.1391999012307723,
                0.45086506594976516,
                2.321605013915942
            ]
        },
        {
            "positions": [
                0.4087337918240336,
                -1.0969283572997326,
                -2.2152575046733083,
                -2.1414207610359393,
                0.3716072617699169,
                2.422615192535655
            ]
        },
        {
            "positions": [
                0.32377315009948204,
                -1.1892111751249197,
                -2.2370650068827835,
                -2.1436416208411067,
                0.29234945759006864,
                2.523625371155368
            ]
        },
        {
            "positions": [
                0.2388125083749305,
                -1.281493992950107,
                -2.258872509092259,
                -2.145862480646274,
                0.2130916534102203,
                2.624635549775081
            ]
        },
        {
            "positions": [
                0.15385186665037898,
                -1.3737768107752941,
                -2.280680011301734,
                -2.148083340451441,
                0.13383384923037212,
                2.725645728394794
            ]
        },
        {
            "positions": [
                0.06889122492582744,
                -1.4660596286004814,
                -2.3024875135112097,
                -2.1503042002566084,
                0.054576045050523825,
                2.8266559070145068
            ]
        },
        {
            "positions": [
                -0.01606941679872409,
                -1.5583424464256685,
                -2.324295015720685,
                -2.152525060061776,
                -0.024681759129324465,
                2.92766608563422
            ]
        },
        {
            "positions": [
                -0.10103005852327562,
                -1.6506252642508557,
                -2.3461025179301602,
                -2.1547459198669427,
                -0.10393956330917264,
                3.0286762642539324
            ]
        },
        {
            "positions": [
                -0.1859907002478272,
                -1.742908082076043,
                -2.3679100201396355,
                -2.15696677967211,
                -0.18319736748902096,
                3.1296864428736457
            ]
        }
    ]
}