{
    "goal": {
        "global_pose": {
            "orientation": {
                "w": -0.00223480608172531,
                "x": 0.0024358444001904467,
                "y": 0.7094548369677653,
                "z": -0.704743149386269
            },
            "position": {
                "x": 0.6205249238014221,
                "y": -0.6371506643295288,
                "z": 0.19426114857196808
            }
        },
        "name": "move_to_magneteinheit_B"
    },
    "id": "RRT_move_to_magneteinheit_B_66",
    "joint_names": [
        "shoulder_pan_joint",
        "shoulder_lift_joint",
        "elbow_joint",
        "wrist_1_joint",
        "wrist_2_joint",
        "wrist_3_joint"
    ],
    "metrics": {
        "cart_traj_len": 3.972290169627197,
        "distance_elbow_joint": 4.263474472220871,
        "distance_shoulder_lift_joint": 0.8759603151115432,
        "distance_shoulder_pan_joint": 2.5178991530477366,
        "distance_wrist_1_joint": 4.541167467050516,
        "distance_wrist_2_joint": 1.8307435314018106,
        "distance_wrist_3_joint": 5.296640390736034,
        "smoothness": 0.22283952281210795,
        "time": 0.359245411,
        "traj_len": 4.396121623609669,
        "weighted_distance": 6.024207591832548
    },
    "planner": "RRT",
    "start": {
        "state": {
            "elbow_joint": 2.6216224122426386,
            "shoulder_lift_joint": -1.4174107377796124,
            "shoulder_pan_joint": 0.7066234856936794,
            "wrist_1_joint": 1.9546482284002225,
            "wrist_2_joint": -0.7096286983471962,
            "wrist_3_joint": 0.005740856962016249
        }
    },
    "waypoints": [
        {
            "positions": [
                0.7066234856936794,
                -1.4174107377796124,
                2.6216224122426386,
                1.9546482284002225,
                -0.7096286983471962,
                0.005740856962016249
            ]
        },
        {
            "positions": [
                0.6354281221603648,
                -1.437743774340033,
                2.5781395293730496,
                1.9568431920974634,
                -0.7416039436137127,
                -0.13949823450730844
            ]
        },
        {
            "positions": [
                0.5642327586270501,
                -1.4580768109004536,
                2.53465664650346,
                1.9590381557947045,
                -0.7735791888802293,
                -0.28473732597663315
            ]
        },
        {
            "positions": [
                0.5737328195388811,
                -1.4536550241300428,
                2.3831212474672836,
                1.8668095723189329,
                -0.7200233290120398,
                -0.36393616545662544
            ]
        },
        {
            "positions": [
                0.583232880450712,
                -1.4492332373596317,
                2.231585848431107,
                1.774580988843161,
                -0.6664674691438504,
                -0.4431350049366177
            ]
        },
        {
            "positions": [
                0.592732941362543,
                -1.444811450589221,
                2.0800504493949306,
                1.6823524053673893,
                -0.6129116092756608,
                -0.52233384441661
            ]
        },
        {
            "positions": [
                0.6022330022743738,
                -1.44038966381881,
                1.9285150503587538,
                1.5901238218916176,
                -0.5593557494074713,
                -0.6015326838966024
            ]
        },
        {
            "positions": [
                0.6117330631862048,
                -1.4359678770483992,
                1.776979651322577,
                1.4978952384158457,
                -0.5057998895392819,
                -0.6807315233765947
            ]
        },
        {
            "positions": [
                0.6212331240980357,
                -1.4315460902779882,
                1.6254442522864005,
                1.4056666549400738,
                -0.45224402967109245,
                -0.759930362856587
            ]
        },
        {
            "positions": [
                0.6307331850098666,
                -1.4271243035075774,
                1.473908853250224,
                1.3134380714643021,
                -0.39868816980290295,
                -0.8391292023365793
            ]
        },
        {
            "positions": [
                0.6525507952986682,
                -1.4229051027083213,
                1.35389457196376,
                1.2244588334070374,
                -0.3398150336442699,
                -0.8837892215435896
            ]
        },
        {
            "positions": [
                0.6743684055874698,
                -1.4186859019090652,
                1.2338802906772963,
                1.135479595349773,
                -0.28094189748563686,
                -0.9284492407506
            ]
        },
        {
            "positions": [
                0.6961860158762714,
                -1.4144667011098089,
                1.1138660093908324,
                1.0465003572925082,
                -0.22206876132700384,
                -0.9731092599576103
            ]
        },
        {
            "positions": [
                0.718003626165073,
                -1.4102475003105528,
                0.9938517281043685,
                0.9575211192352436,
                -0.1631956251683708,
                -1.0177692791646207
            ]
        },
        {
            "positions": [
                0.7398212364538745,
                -1.4060282995112967,
                0.8738374468179047,
                0.868541881177979,
                -0.10432248900973776,
                -1.062429298371631
            ]
        },
        {
            "positions": [
                0.8061641261936112,
                -1.4248038023093679,
                0.8110761711967076,
                0.7607270445672332,
                -0.09210631619758114,
                -0.9391807769034418
            ]
        },
        {
            "positions": [
                0.872507015933348,
                -1.443579305107439,
                0.7483148955755106,
                0.6529122079564873,
                -0.07989014338542452,
                -0.8159322554352527
            ]
        },
        {
            "positions": [
                0.9388499056730847,
                -1.4623548079055102,
                0.6855536199543135,
                0.5450973713457414,
                -0.0676739705732679,
                -0.6926837339670635
            ]
        },
        {
            "positions": [
                1.0051927954128215,
                -1.4811303107035814,
                0.6227923443331165,
                0.4372825347349957,
                -0.05545779776111128,
                -0.5694352124988744
            ]
        },
        {
            "positions": [
                1.0715356851525581,
                -1.4999058135016525,
                0.5600310687119194,
                0.3294676981242499,
                -0.043241624948954664,
                -0.4461866910306852
            ]
        },
        {
            "positions": [
                1.1378785748922948,
                -1.5186813162997237,
                0.4972697930907224,
                0.22165286151350394,
                -0.03102545213679804,
                -0.322938169562496
            ]
        },
        {
            "positions": [
                1.2042214646320315,
                -1.5374568190977946,
                0.43450851746952535,
                0.11383802490275818,
                -0.018809279324641423,
                -0.19968964809430678
            ]
        },
        {
            "positions": [
                1.2705643543717682,
                -1.556232321895866,
                0.3717472418483283,
                0.006023188292012316,
                -0.006593106512484806,
                -0.07644112662611768
            ]
        },
        {
            "positions": [
                1.3369072441115049,
                -1.575007824693937,
                0.30898596622713126,
                -0.10179164831873344,
                0.005623066299671811,
                0.046807394842071526
            ]
        },
        {
            "positions": [
                1.4032501338512415,
                -1.5937833274920081,
                0.24622469060593422,
                -0.2096064849294792,
                0.017839239111828428,
                0.17005591631026062
            ]
        },
        {
            "positions": [
                1.4695930235909782,
                -1.6125588302900793,
                0.18346341498473717,
                -0.31742132154022507,
                0.03005541192398503,
                0.2933044377784497
            ]
        },
        {
            "positions": [
                1.535935913330715,
                -1.6313343330881505,
                0.12070213936354013,
                -0.42523615815097116,
                0.042271584736141676,
                0.41655295924663904
            ]
        },
        {
            "positions": [
                1.602278803070452,
                -1.6501098358862216,
                0.057940863742343085,
                -0.5330509947617168,
                0.05448775754829829,
                0.5398014807148284
            ]
        },
        {
            "positions": [
                1.6686216928101887,
                -1.6688853386842928,
                -0.0048204118788539585,
                -0.6408658313724627,
                0.06670393036045491,
                0.6630500021830175
            ]
        },
        {
            "positions": [
                1.7349645825499254,
                -1.687660841482364,
                -0.067581687500051,
                -0.7486806679832085,
                0.07892010317261153,
                0.7862985236512066
            ]
        },
        {
            "positions": [
                1.801307472289662,
                -1.7064363442804351,
                -0.13034296312124805,
                -0.8564955045939544,
                0.09113627598476814,
                0.9095470451193957
            ]
        },
        {
            "positions": [
                1.8676503620293987,
                -1.7252118470785063,
                -0.1931042387424451,
                -0.9643103412047003,
                0.10335244879692476,
                1.0327955665875848
            ]
        },
        {
            "positions": [
                1.9339932517691354,
                -1.7439873498765774,
                -0.25586551436364213,
                -1.072125177815446,
                0.11556862160908138,
                1.156044088055774
            ]
        },
        {
            "positions": [
                2.000336141508872,
                -1.7627628526746486,
                -0.3186267899848392,
                -1.179940014426192,
                0.127784794421238,
                1.279292609523963
            ]
        },
        {
            "positions": [
                2.0666790312486087,
                -1.7815383554727195,
                -0.3813880656060362,
                -1.2877548510369374,
                0.1400009672333946,
                1.4025411309921523
            ]
        },
        {
            "positions": [
                2.1330219209883454,
                -1.800313858270791,
                -0.44414934122723326,
                -1.3955696876476833,
                0.15221714004555123,
                1.5257896524603416
            ]
        },
        {
            "positions": [
                2.199364810728082,
                -1.8190893610688619,
                -0.5069106168484303,
                -1.5033845242584292,
                0.16443331285770782,
                1.6490381739285305
            ]
        },
        {
            "positions": [
                2.2657077004678188,
                -1.8378648638669333,
                -0.5696718924696274,
                -1.6111993608691755,
                0.17664948566986452,
                1.7722866953967202
            ]
        },
        {
            "positions": [
                2.3320505902075555,
                -1.8566403666650042,
                -0.6324331680908244,
                -1.7190141974799213,
                0.1888656584820211,
                1.8955352168649091
            ]
        },
        {
            "positions": [
                2.398393479947292,
                -1.8754158694630756,
                -0.6951944437120214,
                -1.8268290340906672,
                0.20108183129417775,
                2.0187837383330987
            ]
        },
        {
            "positions": [
                2.4647363696870292,
                -1.8941913722611465,
                -0.7579557193332185,
                -1.9346438707014126,
                0.21329800410633434,
                2.1420322598012875
            ]
        },
        {
            "positions": [
                2.531079259426766,
                -1.912966875059218,
                -0.8207169949544155,
                -2.0424587073121585,
                0.225514176918491,
                2.2652807812694764
            ]
        },
        {
            "positions": [
                2.5974221491665026,
                -1.9317423778572889,
                -0.8834782705756126,
                -2.1502735439229044,
                0.23773034973064758,
                2.388529302737666
            ]
        },
        {
            "positions": [
                2.6637650389062393,
                -1.95051788065536,
                -0.9462395461968096,
                -2.2580883805336502,
                0.24994652254280422,
                2.511777824205855
            ]
        },
        {
            "positions": [
                2.730107928645976,
                -1.9692933834534312,
                -1.0090008218180067,
                -2.365903217144396,
                0.2621626953549608,
                2.635026345674044
            ]
        },
        {
            "positions": [
                2.7631729403380145,
                -1.9874296068366326,
                -1.0608129840080676,
                -2.421903125970311,
                0.23459214588439323,
                2.7275963388089806
            ]
        },
        {
            "positions": [
                2.7962379520300527,
                -2.005565830219834,
                -1.1126251461981285,
                -2.477903034796226,
                0.20702159641382567,
                2.820166331943917
            ]
        },
        {
            "positions": [
                2.7976771930845685,
                -2.026032742221651,
                -1.1938849108711613,
                -2.496248512216283,
                0.13074544771246574,
                2.8902845689583914
            ]
        },
        {
            "positions": [
                2.7991164341390844,
                -2.0464996542234686,
                -1.2751446755441942,
                -2.5145939896363405,
                0.05446929901110581,
                2.960402805972865
            ]
        },
        {
            "positions": [
                2.8005556751936003,
                -2.0669665662252856,
                -1.356404440217227,
                -2.532939467056398,
                -0.02180684969025415,
                3.0305210429873393
            ]
        },
        {
            "positions": [
                2.754160505388748,
                -2.107735720854471,
                -1.4515536468042294,
                -2.518006161454754,
                -0.1708340535530452,
                3.0756943410018107
            ]
        },
        {
            "positions": [
                2.7077653355838955,
                -2.148504875483656,
                -1.5467028533912315,
                -2.5030728558531106,
                -0.31986125741583626,
                3.120867639016282
            ]
        },
        {
            "positions": [
                2.661370165779043,
                -2.1892740301128417,
                -1.6418520599782338,
                -2.488139550251467,
                -0.4688884612786273,
                3.1660409370307536
            ]
        }
    ]
}