{
    "goal": {
        "global_pose": {
            "orientation": {
                "w": 0.5084816217422485,
                "x": -0.49083608388900757,
                "y": 0.5182115435600281,
                "z": -0.4816462993621826
            },
            "position": {
                "x": 0.5540239810943604,
                "y": 0.030875300988554955,
                "z": 0.16403168439865112
            }
        },
        "name": "move_to_storage_A"
    },
    "id": "RRT_move_to_storage_A_64",
    "joint_names": [
        "shoulder_pan_joint",
        "shoulder_lift_joint",
        "elbow_joint",
        "wrist_1_joint",
        "wrist_2_joint",
        "wrist_3_joint"
    ],
    "metrics": {
        "cart_traj_len": 0.3525556788267374,
        "distance_elbow_joint": 0.4492040092658105,
        "distance_shoulder_lift_joint": 0.23320238853870445,
        "distance_shoulder_pan_joint": 0.4568240213557617,
        "distance_wrist_1_joint": 0.24293365811294387,
        "distance_wrist_2_joint": 1.1151175936719926,
        "distance_wrist_3_joint": 0.09035123434301395,
        "smoothness": 0.0,
        "time": 0.023473799,
        "traj_len": 1.6086121052908395,
        "weighted_distance": 2.031350936140575
    },
    "planner": "RRT",
    "start": {
        "state": {
            "elbow_joint": 1.971548259319323,
            "shoulder_lift_joint": -1.1394851275133948,
            "shoulder_pan_joint": 0.1228115487234821,
            "wrist_1_joint": -0.7804723859257726,
            "wrist_2_joint": 0.12958671773740124,
            "wrist_3_joint": -3.192489227718131
        }
    },
    "waypoints": [
        {
            "positions": [
                0.1228115487234821,
                -1.1394851275133948,
                1.971548259319323,
                -0.7804723859257726,
                0.12958671773740124,
                -3.192489227718131
            ]
        },
        {
            "positions": [
                0.057550974244087574,
                -1.1727997544474955,
                2.0357202606430103,
                -0.8151771942276217,
                0.28888923111911446,
                -3.179581908526272
            ]
        },
        {
            "positions": [
                -0.0077096002353069515,
                -1.206114381381596,
                2.0998922619666973,
                -0.8498820025294709,
                0.44819174450082766,
                -3.166674589334413
            ]
        },
        {
            "positions": [
                -0.07297017471470149,
                -1.2394290083156967,
                2.164064263290385,
                -0.88458681083132,
                0.6074942578825409,
                -3.153767270142554
            ]
        },
        {
            "positions": [
                -0.138230749194096,
                -1.2727436352497974,
                2.228236264614072,
                -0.9192916191331691,
                0.7667967712642542,
                -3.1408599509506945
            ]
        },
        {
            "positions": [
                -0.20349132367349054,
                -1.306058262183898,
                2.292408265937759,
                -0.9539964274350182,
                0.9260992846459675,
                -3.1279526317588355
            ]
        },
        {
            "positions": [
                -0.2687518981528851,
                -1.3393728891179986,
                2.3565802672614464,
                -0.9887012357368674,
                1.0854017980276804,
                -3.115045312566976
            ]
        },
        {
            "positions": [
                -0.3340124726322796,
                -1.3726875160520993,
                2.4207522685851335,
                -1.0234060440387165,
                1.2447043114093939,
                -3.102137993375117
            ]
        }
    ]
}{
    "goal": {
        "global_pose": {
            "orientation": {
                "w": 0.5084816217422485,
                "x": -0.49083608388900757,
                "y": 0.5182115435600281,
                "z": -0.4816462993621826
            },
            "position": {
                "x": 0.5540239810943604,
                "y": 0.030875300988554955,
                "z": 0.16403168439865112
            }
        },
        "name": "move_to_storage_A"
    },
    "id": "RRT_move_to_storage_A_64",
    "joint_names": [
        "shoulder_pan_joint",
        "shoulder_lift_joint",
        "elbow_joint",
        "wrist_1_joint",
        "wrist_2_joint",
        "wrist_3_joint"
    ],
    "metrics": {
        "cart_traj_len": 0.35398353682396105,
        "distance_elbow_joint": 0.4503200901771187,
        "distance_shoulder_lift_joint": 0.23452600165025084,
        "distance_shoulder_pan_joint": 0.46120105675128353,
        "distance_wrist_1_joint": 0.24456192993614834,
        "distance_wrist_2_joint": 1.1078332014048609,
        "distance_wrist_3_joint": 0.09858648665683978,
        "smoothness": 8.881784197001252e-16,
        "time": 0.024163338,
        "traj_len": 1.6115299459136658,
        "weighted_distance": 2.036319442334918
    },
    "planner": "RRT",
    "start": {
        "state": {
            "elbow_joint": 1.97154746011099,
            "shoulder_lift_joint": -1.13948474672311,
            "shoulder_pan_joint": 0.12281154466712228,
            "wrist_1_joint": -0.7804688027058302,
            "wrist_2_joint": 0.12958655903071145,
            "wrist_3_joint": 3.0906928834467795
        }
    },
    "waypoints": [
        {
            "positions": [
                0.12281154466712228,
                -1.13948474672311,
                1.97154746011099,
                -0.7804688027058302,
                0.12958655903071145,
                3.0906928834467795
            ]
        },
        {
            "positions": [
                0.05692567941693892,
                -1.1729884612445745,
                2.035878901564864,
                -0.8154062212681371,
                0.28784844494569156,
                3.1047766672548995
            ]
        },
        {
            "positions": [
                -0.008960185833244441,
                -1.2064921757660387,
                2.100210343018738,
                -0.850343639830444,
                0.44611033086067164,
                3.1188604510630196
            ]
        },
        {
            "positions": [
                -0.0748460510834278,
                -1.2399958902875032,
                2.164541784472612,
                -0.8852810583927508,
                0.6043722167756518,
                3.1329442348711396
            ]
        },
        {
            "positions": [
                -0.14073191633361115,
                -1.2734996048089675,
                2.2288732259264865,
                -0.9202184769550578,
                0.7626341026906319,
                3.147028018679259
            ]
        },
        {
            "positions": [
                -0.2066177815837945,
                -1.307003319330432,
                2.2932046673803606,
                -0.9551558955173647,
                0.9208959886056121,
                3.161111802487379
            ]
        },
        {
            "positions": [
                -0.2725036468339779,
                -1.3405070338518963,
                2.3575361088342346,
                -0.9900933140796716,
                1.079157874520592,
                3.1751955862954993
            ]
        },
        {
            "positions": [
                -0.33838951208416124,
                -1.3740107483733608,
                2.4218675502881086,
                -1.0250307326419785,
                1.2374197604355723,
                3.1892793701036193
            ]
        }
    ]
}{
    "goal": {
        "global_pose": {
            "orientation": {
                "w": 0.5084816217422485,
                "x": -0.49083608388900757,
                "y": 0.5182115435600281,
                "z": -0.4816462993621826
            },
            "position": {
                "x": 0.5540239810943604,
                "y": 0.030875300988554955,
                "z": 0.16403168439865112
            }
        },
        "name": "move_to_storage_A"
    },
    "id": "RRT_move_to_storage_A_64",
    "joint_names": [
        "shoulder_pan_joint",
        "shoulder_lift_joint",
        "elbow_joint",
        "wrist_1_joint",
        "wrist_2_joint",
        "wrist_3_joint"
    ],
    "metrics": {
        "cart_traj_len": 0.35348846451045185,
        "distance_elbow_joint": 0.4517582909224327,
        "distance_shoulder_lift_joint": 0.23527158044870422,
        "distance_shoulder_pan_joint": 0.4618426383825247,
        "distance_wrist_1_joint": 0.2459072092572041,
        "distance_wrist_2_joint": 1.1022168268357688,
        "distance_wrist_3_joint": 0.10340114810216239,
        "smoothness": 4.440892098500626e-16,
        "time": 0.014998929,
        "traj_len": 1.6125748646028182,
        "weighted_distance": 2.0384611907628005
    },
    "planner": "RRT",
    "start": {
        "state": {
            "elbow_joint": 1.9715472970024885,
            "shoulder_lift_joint": -1.1394870060712896,
            "shoulder_pan_joint": 0.12281152778156021,
            "wrist_1_joint": -0.780463741449964,
            "wrist_2_joint": 0.12958659822042276,
            "wrist_3_joint": 3.090690232415272
        }
    },
    "waypoints": [
        {
            "positions": [
                0.12281152778156021,
                -1.1394870060712896,
                1.9715472970024885,
                -0.780463741449964,
                0.12958659822042276,
                3.090690232415272
            ]
        },
        {
            "positions": [
                0.05683400801262811,
                -1.173097231849676,
                2.036084195705693,
                -0.8155933427724217,
                0.28704614491124686,
                3.105461825001295
            ]
        },
        {
            "positions": [
                -0.009143511756303985,
                -1.2067074576280623,
                2.100621094408898,
                -0.8507229440948795,
                0.444505691602071,
                3.1202334175873183
            ]
        },
        {
            "positions": [
                -0.07512103152523608,
                -1.2403176834064487,
                2.1651579931121026,
                -0.8858525454173372,
                0.601965238292895,
                3.1350050101733413
            ]
        },
        {
            "positions": [
                -0.14109855129416818,
                -1.2739279091848348,
                2.2296948918153072,
                -0.920982146739795,
                0.7594247849837191,
                3.1497766027593648
            ]
        },
        {
            "positions": [
                -0.2070760710631003,
                -1.3075381349632211,
                2.294231790518512,
                -0.9561117480622526,
                0.9168843316745433,
                3.164548195345388
            ]
        },
        {
            "positions": [
                -0.2730535908320324,
                -1.3411483607416075,
                2.3587686892217166,
                -0.9912413493847103,
                1.0743438783653674,
                3.1793197879314112
            ]
        },
        {
            "positions": [
                -0.33903111060096447,
                -1.3747585865199938,
                2.4233055879249212,
                -1.026370950707168,
                1.2318034250561916,
                3.1940913805174342
            ]
        }
    ]
}