{
    "goal": {
        "global_pose": {
            "orientation": {
                "w": 0.7047431493862688,
                "x": -0.7094548369677653,
                "y": 0.0024358444001904,
                "z": -0.0022348060817251984
            },
            "position": {
                "x": -0.39052492380142206,
                "y": 0.3671506643295288,
                "z": 0.19426114857196808
            }
        },
        "name": "move_to_magneteinheit_D"
    },
    "id": "RRT_move_to_magneteinheit_D_31",
    "joint_names": [
        "shoulder_pan_joint",
        "shoulder_lift_joint",
        "elbow_joint",
        "wrist_1_joint",
        "wrist_2_joint",
        "wrist_3_joint"
    ],
    "metrics": {
        "cart_traj_len": 4.728769979051325,
        "distance_elbow_joint": 3.436770419966357,
        "distance_shoulder_lift_joint": 2.588053109449029,
        "distance_shoulder_pan_joint": 3.9702420922909236,
        "distance_wrist_1_joint": 1.7713240838599622,
        "distance_wrist_2_joint": 2.447550552342913,
        "distance_wrist_3_joint": 5.4818933398241745,
        "smoothness": 0.4092284433428704,
        "time": 0.248426035,
        "traj_len": 4.437998828045514,
        "weighted_distance": 5.9058018010753255
    },
    "planner": "RRT",
    "start": {
        "state": {
            "elbow_joint": 0.749534889911806,
            "shoulder_lift_joint": -0.6476975780787326,
            "shoulder_pan_joint": -2.711696901376241,
            "wrist_1_joint": -0.07506478083263063,
            "wrist_2_joint": 0.43296659715538205,
            "wrist_3_joint": -3.14703540197715
        }
    },
    "waypoints": [
        {
            "positions": [
                -2.711696901376241,
                -0.6476975780787326,
                0.749534889911806,
                -0.07506478083263063,
                0.43296659715538205,
                -3.14703540197715
            ]
        },
        {
            "positions": [
                -2.740518002368341,
                -0.6156610256696174,
                0.7067056878637488,
                -0.06985197486856856,
                0.3882077497100057,
                -2.9080413949064154
            ]
        },
        {
            "positions": [
                -2.76933910336044,
                -0.5836244732605022,
                0.6638764858156915,
                -0.0646391689045065,
                0.34344890226462943,
                -2.6690473878356813
            ]
        },
        {
            "positions": [
                -2.79816020435254,
                -0.551587920851387,
                0.6210472837676343,
                -0.05942636294044443,
                0.2986900548192531,
                -2.4300533807649467
            ]
        },
        {
            "positions": [
                -2.8269813053446398,
                -0.5195513684422718,
                0.578218081719577,
                -0.05421355697638237,
                0.25393120737387676,
                -2.191059373694212
            ]
        },
        {
            "positions": [
                -2.855802406336739,
                -0.48751481603315655,
                0.5353888796715198,
                -0.04900075101232031,
                0.20917235992850047,
                -1.952065366623478
            ]
        },
        {
            "positions": [
                -2.884623507328839,
                -0.4554782636240413,
                0.4925596776234626,
                -0.04378794504825823,
                0.16441351248312414,
                -1.7130713595527434
            ]
        },
        {
            "positions": [
                -2.9134446083209387,
                -0.42344171121492613,
                0.44973047557540535,
                -0.03857513908419617,
                0.1196546650377478,
                -1.474077352482009
            ]
        },
        {
            "positions": [
                -2.942265709313038,
                -0.3914051588058109,
                0.4069012735273482,
                -0.033362333120134105,
                0.07489581759237152,
                -1.2350833454112744
            ]
        },
        {
            "positions": [
                -2.9710868103051378,
                -0.35936860639669566,
                0.36407207147929094,
                -0.028149527156072045,
                0.03013697014699518,
                -0.99608933834054
            ]
        },
        {
            "positions": [
                -2.9999079112972376,
                -0.3273320539875805,
                0.3212428694312337,
                -0.022936721192009978,
                -0.014621877298381103,
                -0.7570953312698059
            ]
        },
        {
            "positions": [
                -3.028729012289337,
                -0.29529550157846524,
                0.2784136673831765,
                -0.017723915227947917,
                -0.05938072474375744,
                -0.5181013241990713
            ]
        },
        {
            "positions": [
                -3.0575501132814367,
                -0.26325894916935,
                0.23558446533511923,
                -0.012511109263885836,
                -0.10413957218913378,
                -0.2791073171283367
            ]
        },
        {
            "positions": [
                -3.0863712142735364,
                -0.23122239676023476,
                0.19275526328706205,
                -0.007298303299823783,
                -0.14889841963451017,
                -0.0401133100576021
            ]
        },
        {
            "positions": [
                -3.115192315265636,
                -0.19918584435111958,
                0.14992606123900476,
                -0.0020854973357617157,
                -0.19365726707988645,
                0.19888069701313205
            ]
        },
        {
            "positions": [
                -3.1440134162577356,
                -0.16714929194200434,
                0.10709685919094764,
                0.0031273086283003515,
                -0.2384161145252628,
                0.4378747040838664
            ]
        },
        {
            "positions": [
                -3.011245877425504,
                -0.22937676380238403,
                0.02510233418653035,
                -0.00616199939606373,
                -0.2871585214116416,
                0.4748774769438256
            ]
        },
        {
            "positions": [
                -2.8784783385932724,
                -0.2916042356627637,
                -0.056892190817886934,
                -0.015451307420427812,
                -0.33590092829802043,
                0.5118802498037848
            ]
        },
        {
            "positions": [
                -2.7457107997610404,
                -0.3538317075231434,
                -0.13888671582230422,
                -0.024740615444791895,
                -0.3846433351843992,
                0.548883022663744
            ]
        },
        {
            "positions": [
                -2.612943260928809,
                -0.41605917938352316,
                -0.2208812408267215,
                -0.034029923469155975,
                -0.433385742070778,
                0.5858857955237031
            ]
        },
        {
            "positions": [
                -2.480175722096577,
                -0.4782866512439029,
                -0.3028757658311388,
                -0.04331923149352006,
                -0.48212814895715683,
                0.6228885683836624
            ]
        },
        {
            "positions": [
                -2.3474081832643456,
                -0.5405141231042825,
                -0.3848702908355561,
                -0.05260853951788414,
                -0.5308705558435356,
                0.6598913412436215
            ]
        },
        {
            "positions": [
                -2.214640644432114,
                -0.6027415949646623,
                -0.46686481583997336,
                -0.061897847542248224,
                -0.5796129627299145,
                0.6968941141035807
            ]
        },
        {
            "positions": [
                -2.0818731055998825,
                -0.664969066825042,
                -0.5488593408443907,
                -0.0711871555666123,
                -0.6283553696162932,
                0.7338968869635398
            ]
        },
        {
            "positions": [
                -1.9491055667676505,
                -0.7271965386854218,
                -0.6308538658488079,
                -0.08047646359097639,
                -0.6770977765026721,
                0.7708996598234992
            ]
        },
        {
            "positions": [
                -1.8163380279354189,
                -0.7894240105458015,
                -0.7128483908532253,
                -0.08976577161534047,
                -0.7258401833890509,
                0.8079024326834583
            ]
        },
        {
            "positions": [
                -1.683570489103187,
                -0.851651482406181,
                -0.7948429158576424,
                -0.09905507963970456,
                -0.7745825902754297,
                0.8449052055434174
            ]
        },
        {
            "positions": [
                -1.5508029502709555,
                -0.9138789542665607,
                -0.8768374408620598,
                -0.10834438766406863,
                -0.8233249971618085,
                0.8819079784033765
            ]
        },
        {
            "positions": [
                -1.4180354114387237,
                -0.9761064261269405,
                -0.9588319658664772,
                -0.11763369568843272,
                -0.8720674040481874,
                0.9189107512633359
            ]
        },
        {
            "positions": [
                -1.2852678726064921,
                -1.0383338979873202,
                -1.0408264908708944,
                -0.1269230037127968,
                -0.9208098109345662,
                0.955913524123295
            ]
        },
        {
            "positions": [
                -1.1791054585960976,
                -1.0885089691324323,
                -1.1194219672190961,
                -0.044416157411751464,
                -0.8773506062777392,
                0.9319280871218418
            ]
        },
        {
            "positions": [
                -1.072943044585703,
                -1.1386840402775444,
                -1.198017443567298,
                0.03809068888929387,
                -0.8338914016209121,
                0.9079426501203886
            ]
        },
        {
            "positions": [
                -0.9667806305753086,
                -1.1888591114226563,
                -1.2766129199154994,
                0.12059753519033922,
                -0.7904321969640852,
                0.8839572131189353
            ]
        },
        {
            "positions": [
                -0.8606182165649142,
                -1.2390341825677684,
                -1.3552083962637012,
                0.20310438149138454,
                -0.7469729923072582,
                0.8599717761174821
            ]
        },
        {
            "positions": [
                -0.7544558025545197,
                -1.2892092537128805,
                -1.433803872611903,
                0.2856112277924299,
                -0.7035137876504312,
                0.8359863391160289
            ]
        },
        {
            "positions": [
                -0.6482933885441252,
                -1.3393843248579926,
                -1.5123993489601046,
                0.36811807409347524,
                -0.6600545829936042,
                0.8120009021145757
            ]
        },
        {
            "positions": [
                -0.5421309745337307,
                -1.3895593960031047,
                -1.5909948253083064,
                0.45062492039452057,
                -0.6165953783367772,
                0.7880154651131224
            ]
        },
        {
            "positions": [
                -0.4359685605233363,
                -1.4397344671482166,
                -1.6695903016565081,
                0.533131766695566,
                -0.5731361736799503,
                0.7640300281116692
            ]
        },
        {
            "positions": [
                -0.3298061465129418,
                -1.489909538293329,
                -1.7481857780047099,
                0.6156386129966112,
                -0.5296769690231232,
                0.740044591110216
            ]
        },
        {
            "positions": [
                -0.22364373250254732,
                -1.5400846094384408,
                -1.8267812543529116,
                0.6981454592976566,
                -0.4862177643662962,
                0.7160591541087628
            ]
        },
        {
            "positions": [
                -0.11748131849215282,
                -1.590259680583553,
                -1.9053767307011131,
                0.780652305598702,
                -0.44275855970946926,
                0.6920737171073095
            ]
        },
        {
            "positions": [
                -0.011318904481758275,
                -1.640434751728665,
                -1.9839722070493149,
                0.8631591518997472,
                -0.39929935505264225,
                0.6680882801058563
            ]
        },
        {
            "positions": [
                0.008027058842219768,
                -1.697051528264873,
                -2.077042561474453,
                0.8940225874686858,
                -0.3777510635010901,
                0.5291509225358997
            ]
        },
        {
            "positions": [
                0.02737302216619781,
                -1.753668304801081,
                -2.1701129158995913,
                0.9248860230376245,
                -0.3562027719495379,
                0.39021356496594317
            ]
        },
        {
            "positions": [
                0.046718985490175856,
                -1.8102850813372888,
                -2.2631832703247294,
                0.955749458606563,
                -0.33465448039798573,
                0.2512762073959866
            ]
        },
        {
            "positions": [
                0.0660649488141539,
                -1.8669018578734968,
                -2.3562536247498675,
                0.9866128941755016,
                -0.3131061888464336,
                0.11233884982603004
            ]
        },
        {
            "positions": [
                0.08541091213813194,
                -1.9235186344097048,
                -2.4493239791750057,
                1.0174763297444402,
                -0.29155789729488146,
                -0.02659850774392658
            ]
        },
        {
            "positions": [
                0.10475687546210999,
                -1.9801354109459128,
                -2.5423943336001438,
                1.0483397653133788,
                -0.2700096057433293,
                -0.16553586531388306
            ]
        },
        {
            "positions": [
                0.04692581832419252,
                -2.0390391518075917,
                -2.5134260943092626,
                1.1259035479197306,
                -0.1814148179309835,
                -0.11403686045657355
            ]
        },
        {
            "positions": [
                -0.010905238813724946,
                -2.0979428926692703,
                -2.484457855018381,
                1.2034673305260821,
                -0.09282003011863771,
                -0.06253785559926403
            ]
        },
        {
            "positions": [
                -0.0687362959516424,
                -2.156846633530949,
                -2.4554896157274997,
                1.281031113132434,
                -0.004225242306291954,
                -0.011038850741954515
            ]
        },
        {
            "positions": [
                -0.12656735308955988,
                -2.2157503743926275,
                -2.426521376436618,
                1.3585948957387854,
                0.08436954550605386,
                0.040460154115355
            ]
        },
        {
            "positions": [
                -0.18439841022747733,
                -2.274654115254306,
                -2.397553137145737,
                1.4361586783451372,
                0.17296433331839964,
                0.09195915897266453
            ]
        }
    ]
}