{
    "goal": {
        "global_pose": {
            "orientation": {
                "w": 0.5084816217422485,
                "x": -0.49083608388900757,
                "y": 0.5182115435600281,
                "z": -0.4816462993621826
            },
            "position": {
                "x": 0.5540239810943604,
                "y": 0.030875300988554955,
                "z": 0.16403168439865112
            }
        },
        "name": "move_to_storage_A"
    },
    "id": "RRT_move_to_storage_A_88",
    "joint_names": [
        "shoulder_pan_joint",
        "shoulder_lift_joint",
        "elbow_joint",
        "wrist_1_joint",
        "wrist_2_joint",
        "wrist_3_joint"
    ],
    "metrics": {
        "cart_traj_len": 0.35393417643348335,
        "distance_elbow_joint": 0.45206429195857933,
        "distance_shoulder_lift_joint": 0.23455096586016788,
        "distance_shoulder_pan_joint": 0.46059687644803354,
        "distance_wrist_1_joint": 0.2528657351219291,
        "distance_wrist_2_joint": 1.1101566687630529,
        "distance_wrist_3_joint": 0.08976362711247532,
        "smoothness": 2.2204460668324854e-16,
        "time": 0.015904202,
        "traj_len": 1.6124509807322014,
        "weighted_distance": 2.0353249920772285
    },
    "planner": "RRT",
    "start": {
        "state": {
            "elbow_joint": 1.971548259319323,
            "shoulder_lift_joint": -1.1394851275133948,
            "shoulder_pan_joint": 0.1228115487234821,
            "wrist_1_joint": -0.7804723859257726,
            "wrist_2_joint": 0.12958671773740124,
            "wrist_3_joint": -3.192489227718131
        }
    },
    "waypoints": [
        {
            "positions": [
                0.1228115487234821,
                -1.1394851275133948,
                1.971548259319323,
                -0.7804723859257726,
                0.12958671773740124,
                -3.192489227718131
            ]
        },
        {
            "positions": [
                0.0570119949451916,
                -1.1729924083505616,
                2.036128872456263,
                -0.8165960623717625,
                0.2881805275606945,
                -3.179665852416349
            ]
        },
        {
            "positions": [
                -0.008787558833098896,
                -1.2064996891877284,
                2.1007094855932027,
                -0.8527197388177523,
                0.44677433738398775,
                -3.166842477114567
            ]
        },
        {
            "positions": [
                -0.0745871126113894,
                -1.2400069700248952,
                2.165290098730143,
                -0.8888434152637422,
                0.605368147207281,
                -3.1540191018127848
            ]
        },
        {
            "positions": [
                -0.1403866663896799,
                -1.2735142508620623,
                2.2298707118670826,
                -0.9249670917097321,
                0.7639619570305743,
                -3.141195726511002
            ]
        },
        {
            "positions": [
                -0.20618622016797045,
                -1.307021531699229,
                2.2944513250040224,
                -0.9610907681557219,
                0.9225557668538676,
                -3.12837235120922
            ]
        },
        {
            "positions": [
                -0.2719857739462609,
                -1.3405288125363959,
                2.3590319381409626,
                -0.9972144446017118,
                1.0811495766771608,
                -3.115548975907438
            ]
        },
        {
            "positions": [
                -0.33778532772455144,
                -1.3740360933735627,
                2.4236125512779023,
                -1.0333381210477017,
                1.2397433865004541,
                -3.102725600605656
            ]
        }
    ]
}{
    "goal": {
        "global_pose": {
            "orientation": {
                "w": 0.5084816217422485,
                "x": -0.49083608388900757,
                "y": 0.5182115435600281,
                "z": -0.4816462993621826
            },
            "position": {
                "x": 0.5540239810943604,
                "y": 0.030875300988554955,
                "z": 0.16403168439865112
            }
        },
        "name": "move_to_storage_A"
    },
    "id": "RRT_move_to_storage_A_88",
    "joint_names": [
        "shoulder_pan_joint",
        "shoulder_lift_joint",
        "elbow_joint",
        "wrist_1_joint",
        "wrist_2_joint",
        "wrist_3_joint"
    ],
    "metrics": {
        "cart_traj_len": 0.3531702106098394,
        "distance_elbow_joint": 0.44808589037644486,
        "distance_shoulder_lift_joint": 0.2341962273415199,
        "distance_shoulder_pan_joint": 0.45865768609866575,
        "distance_wrist_1_joint": 0.23508360478163004,
        "distance_wrist_2_joint": 1.1123626229821073,
        "distance_wrist_3_joint": 0.10151430035861297,
        "smoothness": 1.3322676365830568e-15,
        "time": 0.019870956999999998,
        "traj_len": 1.6093167282853245,
        "weighted_distance": 2.034791183492779
    },
    "planner": "RRT",
    "start": {
        "state": {
            "elbow_joint": 1.97154746011099,
            "shoulder_lift_joint": -1.13948474672311,
            "shoulder_pan_joint": 0.12281154466712228,
            "wrist_1_joint": -0.7804688027058302,
            "wrist_2_joint": 0.12958655903071145,
            "wrist_3_joint": 3.0906928834467795
        }
    },
    "waypoints": [
        {
            "positions": [
                0.12281154466712228,
                -1.13948474672311,
                1.97154746011099,
                -0.7804688027058302,
                0.12958655903071145,
                3.0906928834467795
            ]
        },
        {
            "positions": [
                0.057289018081598614,
                -1.1729413506290414,
                2.035559730164768,
                -0.8140521748174916,
                0.2884955051710125,
                3.1051949263551526
            ]
        },
        {
            "positions": [
                -0.008233508503925055,
                -1.2063979545349728,
                2.0995720002185454,
                -0.847635546929153,
                0.44740445131131357,
                3.119696969263526
            ]
        },
        {
            "positions": [
                -0.07375603508944874,
                -1.2398545584409042,
                2.1635842702723234,
                -0.8812189190408145,
                0.6063133974516146,
                3.1341990121718992
            ]
        },
        {
            "positions": [
                -0.13927856167497238,
                -1.2733111623468356,
                2.2275965403261013,
                -0.9148022911524759,
                0.7652223435919157,
                3.1487010550802728
            ]
        },
        {
            "positions": [
                -0.2048010882604961,
                -1.306767766252767,
                2.2916088103798793,
                -0.9483856632641374,
                0.9241312897322167,
                3.163203097988646
            ]
        },
        {
            "positions": [
                -0.27032361484601974,
                -1.3402243701586984,
                2.355621080433657,
                -0.9819690353757988,
                1.0830402358725177,
                3.1777051408970194
            ]
        },
        {
            "positions": [
                -0.33584614143154345,
                -1.3736809740646299,
                2.4196333504874348,
                -1.0155524074874602,
                1.2419491820128188,
                3.1922071838053925
            ]
        }
    ]
}{
    "goal": {
        "global_pose": {
            "orientation": {
                "w": 0.5084816217422485,
                "x": -0.49083608388900757,
                "y": 0.5182115435600281,
                "z": -0.4816462993621826
            },
            "position": {
                "x": 0.5540239810943604,
                "y": 0.030875300988554955,
                "z": 0.16403168439865112
            }
        },
        "name": "move_to_storage_A"
    },
    "id": "RRT_move_to_storage_A_88",
    "joint_names": [
        "shoulder_pan_joint",
        "shoulder_lift_joint",
        "elbow_joint",
        "wrist_1_joint",
        "wrist_2_joint",
        "wrist_3_joint"
    ],
    "metrics": {
        "cart_traj_len": 0.3524878116811476,
        "distance_elbow_joint": 0.4513744820891432,
        "distance_shoulder_lift_joint": 0.23415843728405505,
        "distance_shoulder_pan_joint": 0.4576413205642741,
        "distance_wrist_1_joint": 0.25037203404283725,
        "distance_wrist_2_joint": 1.11179681512679,
        "distance_wrist_3_joint": 0.10758274597997097,
        "smoothness": 8.881784232165597e-16,
        "time": 0.01313885,
        "traj_len": 1.6164547117340067,
        "weighted_distance": 2.047012500259009
    },
    "planner": "RRT",
    "start": {
        "state": {
            "elbow_joint": 1.9715472970024885,
            "shoulder_lift_joint": -1.1394870060712896,
            "shoulder_pan_joint": 0.12281152778156021,
            "wrist_1_joint": -0.780463741449964,
            "wrist_2_joint": 0.12958659822042276,
            "wrist_3_joint": 3.090690232415272
        }
    },
    "waypoints": [
        {
            "positions": [
                0.12281152778156021,
                -1.1394870060712896,
                1.9715472970024885,
                -0.780463741449964,
                0.12958659822042276,
                3.090690232415272
            ]
        },
        {
            "positions": [
                0.057434196272378196,
                -1.1729382113975833,
                2.0360293658723663,
                -0.816231174884655,
                0.28841471466710705,
                3.1060591961266963
            ]
        },
        {
            "positions": [
                -0.007943135236803817,
                -1.2063894167238767,
                2.1005114347422436,
                -0.851998608319346,
                0.4472428311137914,
                3.121428159838121
            ]
        },
        {
            "positions": [
                -0.07332046674598583,
                -1.2398406220501703,
                2.1649935036121213,
                -0.8877660417540371,
                0.6060709475604756,
                3.1367971235495453
            ]
        },
        {
            "positions": [
                -0.13869779825516784,
                -1.273291827376464,
                2.229475572481999,
                -0.9235334751887281,
                0.7648990640071599,
                3.1521660872609694
            ]
        },
        {
            "positions": [
                -0.20407512976434986,
                -1.3067430327027576,
                2.2939576413518767,
                -0.9593009086234192,
                0.9237271804538443,
                3.167535050972394
            ]
        },
        {
            "positions": [
                -0.26945246127353184,
                -1.340194238029051,
                2.358439710221754,
                -0.9950683420581102,
                1.0825552969005285,
                3.1829040146838183
            ]
        },
        {
            "positions": [
                -0.33482979278271385,
                -1.3736454433553447,
                2.4229217790916318,
                -1.0308357754928013,
                1.2413834133472128,
                3.198272978395243
            ]
        }
    ]
}