{
    "goal": {
        "global_pose": {
            "orientation": {
                "w": 0.7047431468963623,
                "x": -0.7094548344612122,
                "y": 0.0024358443915843964,
                "z": -0.0022348060738295317
            },
            "position": {
                "x": 0.6094750761985779,
                "y": 0.3671506643295288,
                "z": 0.19426114857196808
            }
        },
        "name": "move_to_magneteinheit_A"
    },
    "id": "RRT_move_to_magneteinheit_A_83",
    "joint_names": [
        "shoulder_pan_joint",
        "shoulder_lift_joint",
        "elbow_joint",
        "wrist_1_joint",
        "wrist_2_joint",
        "wrist_3_joint"
    ],
    "metrics": {
        "cart_traj_len": 3.1200328137693423,
        "distance_elbow_joint": 3.893044098899769,
        "distance_shoulder_lift_joint": 0.7060809422352905,
        "distance_shoulder_pan_joint": 2.8087846992166834,
        "distance_wrist_1_joint": 0.7608972502558163,
        "distance_wrist_2_joint": 1.6920984103615593,
        "distance_wrist_3_joint": 3.6211718867354596,
        "smoothness": 0.09474359026955267,
        "time": 0.090992595,
        "traj_len": 3.671794831918659,
        "weighted_distance": 4.814292961774644
    },
    "planner": "RRT",
    "start": {
        "state": {
            "elbow_joint": -1.9196185241190666,
            "shoulder_lift_joint": -1.2443396400964142,
            "shoulder_pan_joint": 2.6996025414629847,
            "wrist_1_joint": -1.5485510000780065,
            "wrist_2_joint": -1.5709468930060704,
            "wrist_3_joint": 0.4420197071253992
        }
    },
    "waypoints": [
        {
            "positions": [
                2.6996025414629847,
                -1.2443396400964142,
                -1.9196185241190666,
                -1.5485510000780065,
                -1.5709468930060704,
                0.4420197071253992
            ]
        },
        {
            "positions": [
                2.595703421931613,
                -1.2568799423392896,
                -1.7887202221064007,
                -1.5296080503694789,
                -1.5622418116843526,
                0.32305379256099087
            ]
        },
        {
            "positions": [
                2.4918043024002414,
                -1.2694202445821652,
                -1.6578219200937347,
                -1.5106651006609513,
                -1.5535367303626348,
                0.20408787799658257
            ]
        },
        {
            "positions": [
                2.3879051828688698,
                -1.2819605468250406,
                -1.526923618081069,
                -1.4917221509524237,
                -1.544831649040917,
                0.08512196343217426
            ]
        },
        {
            "positions": [
                2.284006063337498,
                -1.2945008490679162,
                -1.396025316068403,
                -1.472779201243896,
                -1.5361265677191993,
                -0.03384395113223404
            ]
        },
        {
            "positions": [
                2.1801069438061265,
                -1.3070411513107916,
                -1.2651270140557371,
                -1.4538362515353684,
                -1.5274214863974815,
                -0.15280986569664234
            ]
        },
        {
            "positions": [
                2.076207824274755,
                -1.319581453553667,
                -1.1342287120430714,
                -1.434893301826841,
                -1.5187164050757638,
                -0.27177578026105065
            ]
        },
        {
            "positions": [
                1.9723087047433832,
                -1.3321217557965426,
                -1.0033304100304052,
                -1.4159503521183132,
                -1.510011323754046,
                -0.39074169482545895
            ]
        },
        {
            "positions": [
                1.8684095852120115,
                -1.344662058039418,
                -0.8724321080177395,
                -1.3970074024097858,
                -1.5013062424323282,
                -0.5097076093898673
            ]
        },
        {
            "positions": [
                1.7645104656806399,
                -1.3572023602822936,
                -0.7415338060050736,
                -1.3780644527012582,
                -1.4926011611106105,
                -0.6286735239542757
            ]
        },
        {
            "positions": [
                1.6606113461492682,
                -1.369742662525169,
                -0.6106355039924076,
                -1.3591215029927306,
                -1.4838960797888927,
                -0.7476394385186839
            ]
        },
        {
            "positions": [
                1.5567122266178965,
                -1.3822829647680446,
                -0.4797372019797419,
                -1.340178553284203,
                -1.4751909984671752,
                -0.8666053530830921
            ]
        },
        {
            "positions": [
                1.452813107086525,
                -1.39482326701092,
                -0.34883889996707595,
                -1.3212356035756754,
                -1.4664859171454574,
                -0.9855712676475005
            ]
        },
        {
            "positions": [
                1.3489139875551532,
                -1.4073635692537954,
                -0.21794059795441023,
                -1.3022926538671478,
                -1.4577808358237396,
                -1.1045371822119088
            ]
        },
        {
            "positions": [
                1.2450148680237816,
                -1.419903871496671,
                -0.08704229594174406,
                -1.2833497041586202,
                -1.4490757545020219,
                -1.2235030967763172
            ]
        },
        {
            "positions": [
                1.14111574849241,
                -1.4324441737395464,
                0.04385600607092166,
                -1.2644067544500925,
                -1.440370673180304,
                -1.3424690113407252
            ]
        },
        {
            "positions": [
                1.0372166289610383,
                -1.444984475982422,
                0.1747543080835876,
                -1.245463804741565,
                -1.4316655918585863,
                -1.4614349259051336
            ]
        },
        {
            "positions": [
                0.9333175094296666,
                -1.4575247782252974,
                0.3056526100962538,
                -1.2265208550330373,
                -1.4229605105368686,
                -1.580400840469542
            ]
        },
        {
            "positions": [
                0.829418389898295,
                -1.470065080468173,
                0.4365509121089195,
                -1.2075779053245097,
                -1.4142554292151508,
                -1.6993667550339504
            ]
        },
        {
            "positions": [
                0.7255192703669233,
                -1.4826053827110484,
                0.5674492141215852,
                -1.1886349556159823,
                -1.405550347893433,
                -1.8183326695983584
            ]
        },
        {
            "positions": [
                0.6216201508355517,
                -1.4951456849539237,
                0.6983475161342514,
                -1.1696920059074545,
                -1.3968452665717153,
                -1.9372985841627668
            ]
        },
        {
            "positions": [
                0.51772103130418,
                -1.5076859871967994,
                0.8292458181469171,
                -1.150749056198927,
                -1.3881401852499975,
                -2.056264498727175
            ]
        },
        {
            "positions": [
                0.41382191177280836,
                -1.5202262894396747,
                0.9601441201595828,
                -1.1318061064903995,
                -1.3794351039282797,
                -2.175230413291583
            ]
        },
        {
            "positions": [
                0.3099227922414367,
                -1.5327665916825504,
                1.091042422172249,
                -1.1128631567818719,
                -1.370730022606562,
                -2.2941963278559916
            ]
        },
        {
            "positions": [
                0.20602367271006522,
                -1.5453068939254258,
                1.2219407241849147,
                -1.0939202070733443,
                -1.3620249412848442,
                -2.4131622424204
            ]
        },
        {
            "positions": [
                0.17764067940599682,
                -1.5074430036367656,
                1.2705068331502396,
                -1.051219769727723,
                -1.2571021540371328,
                -2.4941662672603515
            ]
        },
        {
            "positions": [
                0.14925768610192844,
                -1.4695791133481055,
                1.3190729421155643,
                -1.0085193323821016,
                -1.1521793667894213,
                -2.5751702921003026
            ]
        },
        {
            "positions": [
                0.12087469279786003,
                -1.4317152230594454,
                1.3676390510808891,
                -0.9658188950364803,
                -1.0472565795417097,
                -2.656174316940254
            ]
        },
        {
            "positions": [
                0.09249169949379164,
                -1.3938513327707853,
                1.4162051600462138,
                -0.9231184576908591,
                -0.9423337922939983,
                -2.7371783417802056
            ]
        },
        {
            "positions": [
                0.06410870618972322,
                -1.355987442482125,
                1.4647712690115386,
                -0.8804180203452378,
                -0.8374110050462867,
                -2.818182366620157
            ]
        },
        {
            "positions": [
                0.03572571288565485,
                -1.3181235521934649,
                1.5133373779768633,
                -0.8377175829996164,
                -0.7324882177985753,
                -2.899186391460108
            ]
        },
        {
            "positions": [
                0.007342719581586441,
                -1.2802596619048048,
                1.5619034869421882,
                -0.7950171456539952,
                -0.6275654305508638,
                -2.9801904163000597
            ]
        },
        {
            "positions": [
                0.0306476950486433,
                -1.2522463706276732,
                1.644207904509891,
                -0.7964898248203561,
                -0.4778220409695932,
                -3.01998276896206
            ]
        },
        {
            "positions": [
                0.053952670515700164,
                -1.2242330793505416,
                1.7265123220775935,
                -0.7979625039867172,
                -0.3280786513883226,
                -3.05977512162406
            ]
        },
        {
            "positions": [
                0.07725764598275701,
                -1.19621978807341,
                1.8088167396452963,
                -0.7994351831530782,
                -0.17833526180705206,
                -3.09956747428606
            ]
        },
        {
            "positions": [
                0.10056262144981389,
                -1.1682064967962784,
                1.8911211572129991,
                -0.8009078623194392,
                -0.028591872225781412,
                -3.13935982694806
            ]
        },
        {
            "positions": [
                0.12386759691687074,
                -1.1401932055191468,
                1.9734255747807017,
                -0.8023805414858002,
                0.12115151735548908,
                -3.1791521796100604
            ]
        }
    ]
}