{
    "goal": {
        "global_pose": {
            "orientation": {
                "w": 0.7047431468963623,
                "x": -0.7094548344612122,
                "y": 0.0024358443915843964,
                "z": -0.0022348060738295317
            },
            "position": {
                "x": 0.6094750761985779,
                "y": 0.3671506643295288,
                "z": 0.19426114857196808
            }
        },
        "name": "move_to_magneteinheit_A"
    },
    "id": "RRT_move_to_magneteinheit_A_75",
    "joint_names": [
        "shoulder_pan_joint",
        "shoulder_lift_joint",
        "elbow_joint",
        "wrist_1_joint",
        "wrist_2_joint",
        "wrist_3_joint"
    ],
    "metrics": {
        "cart_traj_len": 3.2359810914406255,
        "distance_elbow_joint": 3.895763740277989,
        "distance_shoulder_lift_joint": 0.6949117181166495,
        "distance_shoulder_pan_joint": 2.7732007340218585,
        "distance_wrist_1_joint": 1.1815538085233925,
        "distance_wrist_2_joint": 1.6984614580635191,
        "distance_wrist_3_joint": 2.657356998260505,
        "smoothness": 0.1619016075389953,
        "time": 0.106446049,
        "traj_len": 3.591830794631606,
        "weighted_distance": 4.593035784791127
    },
    "planner": "RRT",
    "start": {
        "state": {
            "elbow_joint": -1.9196185241190666,
            "shoulder_lift_joint": -1.2443396400964142,
            "shoulder_pan_joint": 2.6996025414629847,
            "wrist_1_joint": -1.5485510000780065,
            "wrist_2_joint": -1.5709468930060704,
            "wrist_3_joint": 0.4420197071253992
        }
    },
    "waypoints": [
        {
            "positions": [
                2.6996025414629847,
                -1.2443396400964142,
                -1.9196185241190666,
                -1.5485510000780065,
                -1.5709468930060704,
                0.4420197071253992
            ]
        },
        {
            "positions": [
                2.5709088980421986,
                -1.2628475299518929,
                -1.8157044758135572,
                -1.488243718386561,
                -1.5093044542006515,
                0.44908706929905634
            ]
        },
        {
            "positions": [
                2.4422152546214124,
                -1.2813554198073716,
                -1.7117904275080478,
                -1.4279364366951157,
                -1.4476620153952329,
                0.45615443147271345
            ]
        },
        {
            "positions": [
                2.3135216112006263,
                -1.2998633096628502,
                -1.6078763792025383,
                -1.3676291550036703,
                -1.386019576589814,
                0.4632217936463706
            ]
        },
        {
            "positions": [
                2.18482796777984,
                -1.318371199518329,
                -1.503962330897029,
                -1.3073218733122252,
                -1.3243771377843951,
                0.4702891558200277
            ]
        },
        {
            "positions": [
                2.056134324359054,
                -1.3368790893738076,
                -1.4000482825915195,
                -1.2470145916207795,
                -1.2627346989789765,
                0.4773565179936849
            ]
        },
        {
            "positions": [
                1.9274406809382678,
                -1.3553869792292863,
                -1.2961342342860103,
                -1.1867073099293344,
                -1.2010922601735576,
                0.48442388016734206
            ]
        },
        {
            "positions": [
                1.7987470375174817,
                -1.373894869084765,
                -1.1922201859805008,
                -1.126400028237889,
                -1.1394498213681388,
                0.49149124234099917
            ]
        },
        {
            "positions": [
                1.6700533940966955,
                -1.3924027589402437,
                -1.0883061376749914,
                -1.0660927465464436,
                -1.0778073825627201,
                0.49855860451465633
            ]
        },
        {
            "positions": [
                1.5413597506759094,
                -1.4109106487957224,
                -0.984392089369482,
                -1.0057854648549982,
                -1.0161649437573013,
                0.5056259666883135
            ]
        },
        {
            "positions": [
                1.4126661072551232,
                -1.4294185386512008,
                -0.8804780410639725,
                -0.9454781831635528,
                -0.9545225049518824,
                0.5126933288619706
            ]
        },
        {
            "positions": [
                1.283972463834337,
                -1.4479264285066795,
                -0.7765639927584631,
                -0.8851709014721075,
                -0.8928800661464636,
                0.5197606910356278
            ]
        },
        {
            "positions": [
                1.155278820413551,
                -1.4664343183621582,
                -0.6726499444529539,
                -0.8248636197806621,
                -0.8312376273410449,
                0.5268280532092849
            ]
        },
        {
            "positions": [
                1.0265851769927647,
                -1.484942208217637,
                -0.5687358961474445,
                -0.7645563380892167,
                -0.769595188535626,
                0.533895415382942
            ]
        },
        {
            "positions": [
                0.8978915335719786,
                -1.5034500980731156,
                -0.46482184784193503,
                -0.7042490563977715,
                -0.7079527497302073,
                0.5409627775565992
            ]
        },
        {
            "positions": [
                0.7691978901511924,
                -1.5219579879285943,
                -0.3609077995364256,
                -0.6439417747063261,
                -0.6463103109247884,
                0.5480301397302564
            ]
        },
        {
            "positions": [
                0.6405042467304063,
                -1.540465877784073,
                -0.2569937512309163,
                -0.5836344930148807,
                -0.5846678721193697,
                0.5550975019039135
            ]
        },
        {
            "positions": [
                0.5994417103876282,
                -1.5207307538739208,
                -0.12534918655645524,
                -0.5978308616041041,
                -0.5507100863314127,
                0.6983282760422467
            ]
        },
        {
            "positions": [
                0.5583791740448502,
                -1.5009956299637686,
                0.00629537811800579,
                -0.6120272301933277,
                -0.5167523005434558,
                0.8415590501805799
            ]
        },
        {
            "positions": [
                0.517316637702072,
                -1.4812605060536164,
                0.13793994279246685,
                -0.6262235987825512,
                -0.48279451475549884,
                0.984789824318913
            ]
        },
        {
            "positions": [
                0.47625410135929397,
                -1.4615253821434642,
                0.26958450746692786,
                -0.6404199673717748,
                -0.4488367289675419,
                1.1280205984572462
            ]
        },
        {
            "positions": [
                0.4351915650165159,
                -1.441790258233312,
                0.4012290721413888,
                -0.6546163359609982,
                -0.414878943179585,
                1.2712513725955792
            ]
        },
        {
            "positions": [
                0.3941290286737378,
                -1.4220551343231598,
                0.53287363681585,
                -0.6688127045502217,
                -0.380921157391628,
                1.4144821467339126
            ]
        },
        {
            "positions": [
                0.35306649233095977,
                -1.4023200104130078,
                0.6645182014903109,
                -0.6830090731394453,
                -0.34696337160367113,
                1.5577129208722458
            ]
        },
        {
            "positions": [
                0.31200395598818165,
                -1.3825848865028556,
                0.796162766164772,
                -0.6972054417286687,
                -0.3130055858157142,
                1.7009436950105787
            ]
        },
        {
            "positions": [
                0.2709414196454036,
                -1.3628497625927034,
                0.9278073308392331,
                -0.7114018103178923,
                -0.27904780002775725,
                1.844174469148912
            ]
        },
        {
            "positions": [
                0.22987888330262551,
                -1.3431146386825512,
                1.059451895513694,
                -0.7255981789071158,
                -0.24509001423980037,
                1.987405243287245
            ]
        },
        {
            "positions": [
                0.18881634695984745,
                -1.323379514772399,
                1.191096460188155,
                -0.7397945474963392,
                -0.21113222845184343,
                2.1306360174255783
            ]
        },
        {
            "positions": [
                0.14775381061706933,
                -1.3036443908622468,
                1.3227410248626161,
                -0.7539909160855628,
                -0.17717444266388643,
                2.2738667915639117
            ]
        },
        {
            "positions": [
                0.10669127427429126,
                -1.2839092669520946,
                1.4543855895370772,
                -0.7681872846747863,
                -0.1432166568759295,
                2.4170975657022447
            ]
        },
        {
            "positions": [
                0.06562873793151325,
                -1.2641741430419424,
                1.5860301542115383,
                -0.7823836532640098,
                -0.10925887108797261,
                2.560328339840578
            ]
        },
        {
            "positions": [
                0.024566201588735154,
                -1.2444390191317902,
                1.717674718885999,
                -0.7965800218532333,
                -0.07530108530001564,
                2.703559113978911
            ]
        },
        {
            "positions": [
                0.057287666304605564,
                -1.2101861452062208,
                1.8038315513103067,
                -0.7978106127272047,
                -0.007695868514194154,
                2.8354983111145753
            ]
        },
        {
            "positions": [
                0.09000913102047597,
                -1.1759332712806516,
                1.8899883837346143,
                -0.7990412036011759,
                0.05990934827162733,
                2.96743750825024
            ]
        },
        {
            "positions": [
                0.12273059573634638,
                -1.1416803973550822,
                1.976145216158922,
                -0.8002717944751473,
                0.12751456505744882,
                3.0993767053859043
            ]
        }
    ]
}