{
    "goal": {
        "global_pose": {
            "orientation": {
                "w": 0.005598929693374612,
                "x": 0.007748599140229565,
                "y": 0.7110244013736278,
                "z": -0.7031023480610252
            },
            "position": {
                "x": 0.1141497679147869,
                "y": -0.7141253447532654,
                "z": 0.3711530566215515
            }
        },
        "name": "move_to_auspresseinheit_B"
    },
    "id": "RRT_move_to_auspresseinheit_B_113",
    "joint_names": [
        "shoulder_pan_joint",
        "shoulder_lift_joint",
        "elbow_joint",
        "wrist_1_joint",
        "wrist_2_joint",
        "wrist_3_joint"
    ],
    "metrics": {
        "cart_traj_len": 0.5646612397463238,
        "distance_elbow_joint": 0.05989678853559588,
        "distance_shoulder_lift_joint": 0.29512267525827385,
        "distance_shoulder_pan_joint": 0.5777652975707441,
        "distance_wrist_1_joint": 0.31813877734434026,
        "distance_wrist_2_joint": 0.9916634669753837,
        "distance_wrist_3_joint": 0.003153617387594565,
        "smoothness": 0.0,
        "time": 0.020473207,
        "traj_len": 1.4985795351171496,
        "weighted_distance": 1.8872864388234356
    },
    "planner": "RRT",
    "start": {
        "state": {
            "elbow_joint": 2.0193083361928714,
            "shoulder_lift_joint": -1.1220246554650708,
            "shoulder_pan_joint": -1.0952077554168747,
            "wrist_1_joint": -0.8559753972642168,
            "wrist_2_joint": 0.4759566250798843,
            "wrist_3_joint": -3.1240929996934557
        }
    },
    "waypoints": [
        {
            "positions": [
                -1.0952077554168747,
                -1.1220246554650708,
                2.0193083361928714,
                -0.8559753972642168,
                0.4759566250798843,
                -3.1240929996934557
            ]
        },
        {
            "positions": [
                -1.1915019716786652,
                -1.1712117680081164,
                2.0093255381036053,
                -0.8029522677068267,
                0.6412338695757815,
                -3.123567396795523
            ]
        },
        {
            "positions": [
                -1.287796187940456,
                -1.220398880551162,
                1.9993427400143395,
                -0.7499291381494367,
                0.8065111140716787,
                -3.123041793897591
            ]
        },
        {
            "positions": [
                -1.3840904042022468,
                -1.2695859930942077,
                1.9893599419250734,
                -0.6969060085920467,
                0.9717883585675762,
                -3.1225161909996584
            ]
        },
        {
            "positions": [
                -1.4803846204640374,
                -1.3187731056372534,
                1.9793771438358074,
                -0.6438828790346567,
                1.1370656030634734,
                -3.121990588101726
            ]
        },
        {
            "positions": [
                -1.576678836725828,
                -1.367960218180299,
                1.9693943457465415,
                -0.5908597494772665,
                1.3023428475593708,
                -3.1214649852037937
            ]
        },
        {
            "positions": [
                -1.6729730529876188,
                -1.4171473307233446,
                1.9594115476572755,
                -0.5378366199198765,
                1.467620092055268,
                -3.120939382305861
            ]
        }
    ]
}