{
    "goal": {
        "global_pose": {
            "orientation": {
                "w": -0.00223480608172531,
                "x": 0.0024358444001904467,
                "y": 0.7094548369677653,
                "z": -0.704743149386269
            },
            "position": {
                "x": 0.6205249238014221,
                "y": -0.6371506643295288,
                "z": 0.19426114857196808
            }
        },
        "name": "move_to_magneteinheit_B"
    },
    "id": "RRT_move_to_magneteinheit_B_123",
    "joint_names": [
        "shoulder_pan_joint",
        "shoulder_lift_joint",
        "elbow_joint",
        "wrist_1_joint",
        "wrist_2_joint",
        "wrist_3_joint"
    ],
    "metrics": {
        "cart_traj_len": 3.4571569221451925,
        "distance_elbow_joint": 3.040251289656124,
        "distance_shoulder_lift_joint": 1.4407402129357685,
        "distance_shoulder_pan_joint": 2.727983136273768,
        "distance_wrist_1_joint": 1.0426018906714454,
        "distance_wrist_2_joint": 1.51462464805622,
        "distance_wrist_3_joint": 3.513832737535519,
        "smoothness": 0.8267115083571714,
        "time": 0.31406267499999996,
        "traj_len": 3.6441780849910237,
        "weighted_distance": 4.7817283411887335
    },
    "planner": "RRT",
    "start": {
        "state": {
            "elbow_joint": 2.6216224122426386,
            "shoulder_lift_joint": -1.4174107377796124,
            "shoulder_pan_joint": 0.7066234856936794,
            "wrist_1_joint": 1.9546482284002225,
            "wrist_2_joint": -0.7096286983471962,
            "wrist_3_joint": 0.005740856962016249
        }
    },
    "waypoints": [
        {
            "positions": [
                0.7066234856936794,
                -1.4174107377796124,
                2.6216224122426386,
                1.9546482284002225,
                -0.7096286983471962,
                0.005740856962016249
            ]
        },
        {
            "positions": [
                0.534916900843458,
                -1.3946129391457556,
                2.602427898316416,
                1.9331295924079963,
                -0.7137221921815258,
                0.14743682111569667
            ]
        },
        {
            "positions": [
                0.3632103159932366,
                -1.3718151405118988,
                2.583233384390194,
                1.91161095641577,
                -0.7178156860158553,
                0.2891327852693771
            ]
        },
        {
            "positions": [
                0.19150373114301522,
                -1.3490173418780422,
                2.564038870463971,
                1.8900923204235438,
                -0.7219091798501849,
                0.4308287494230575
            ]
        },
        {
            "positions": [
                0.019797146292793832,
                -1.3262195432441855,
                2.5448443565377485,
                1.8685736844313177,
                -0.7260026736845144,
                0.5725247135767378
            ]
        },
        {
            "positions": [
                -0.15190943855742756,
                -1.3034217446103287,
                2.5256498426115264,
                1.8470550484390913,
                -0.730096167518844,
                0.7142206777304183
            ]
        },
        {
            "positions": [
                -0.32361602340764895,
                -1.2806239459764721,
                2.5064553286853037,
                1.8255364124468652,
                -0.7341896613531735,
                0.8559166418840987
            ]
        },
        {
            "positions": [
                -0.49532260825787044,
                -1.2578261473426153,
                2.487260814759081,
                1.804017776454639,
                -0.7382831551875031,
                0.9976126060377791
            ]
        },
        {
            "positions": [
                -0.6670291931080917,
                -1.2350283487087585,
                2.468066300832859,
                1.7824991404624126,
                -0.7423766490218326,
                1.1393085701914596
            ]
        },
        {
            "positions": [
                -0.8387357779583132,
                -1.2122305500749018,
                2.4488717869066363,
                1.7609805044701865,
                -0.7464701428561622,
                1.28100453434514
            ]
        },
        {
            "positions": [
                -1.0104423628085346,
                -1.189432751441045,
                2.4296772729804137,
                1.7394618684779604,
                -0.7505636366904918,
                1.4227004984988205
            ]
        },
        {
            "positions": [
                -1.1821489476587557,
                -1.1666349528071884,
                2.4104827590541915,
                1.717943232485734,
                -0.7546571305248213,
                1.5643964626525007
            ]
        },
        {
            "positions": [
                -1.3538555325089772,
                -1.1438371541733316,
                2.391288245127969,
                1.6964245964935079,
                -0.7587506243591509,
                1.7060924268061812
            ]
        },
        {
            "positions": [
                -1.3452320561949718,
                -1.1820535970619073,
                2.1950876751171777,
                1.6798615961614645,
                -0.781621700775898,
                1.59564080698846
            ]
        },
        {
            "positions": [
                -1.3366085798809664,
                -1.2202700399504829,
                1.9988871051063861,
                1.663298595829421,
                -0.8044927771926451,
                1.4851891871707388
            ]
        },
        {
            "positions": [
                -1.327985103566961,
                -1.2584864828390587,
                1.802686535095595,
                1.646735595497378,
                -0.8273638536093921,
                1.3747375673530176
            ]
        },
        {
            "positions": [
                -1.3193616272529556,
                -1.2967029257276343,
                1.6064859650848033,
                1.6301725951653345,
                -0.8502349300261393,
                1.2642859475352966
            ]
        },
        {
            "positions": [
                -1.31073815093895,
                -1.33491936861621,
                1.4102853950740122,
                1.6136095948332911,
                -0.8731060064428864,
                1.153834327717575
            ]
        },
        {
            "positions": [
                -1.3021146746249446,
                -1.3731358115047856,
                1.2140848250632208,
                1.5970465945012478,
                -0.8959770828596334,
                1.043382707899854
            ]
        },
        {
            "positions": [
                -1.2934911983109392,
                -1.4113522543933614,
                1.0178842550524294,
                1.5804835941692046,
                -0.9188481592763806,
                0.9329310880821328
            ]
        },
        {
            "positions": [
                -1.2848677219969338,
                -1.449568697281937,
                0.821683685041638,
                1.5639205938371612,
                -0.9417192356931277,
                0.8224794682644117
            ]
        },
        {
            "positions": [
                -1.2762442456829284,
                -1.4877851401705127,
                0.6254831150308466,
                1.5473575935051178,
                -0.9645903121098748,
                0.7120278484466904
            ]
        },
        {
            "positions": [
                -1.237677272665439,
                -1.4375676647692837,
                0.7005508241060607,
                1.5959562197911936,
                -1.0620312470645075,
                0.6519376612174833
            ]
        },
        {
            "positions": [
                -1.1991102996479497,
                -1.3873501893680547,
                0.7756185331812748,
                1.6445548460772692,
                -1.1594721820191403,
                0.5918474739882762
            ]
        },
        {
            "positions": [
                -1.1605433266304603,
                -1.3371327139668256,
                0.8506862422564889,
                1.693153472363345,
                -1.2569131169737728,
                0.5317572867590691
            ]
        },
        {
            "positions": [
                -1.121976353612971,
                -1.2869152385655966,
                0.9257539513317029,
                1.7417520986494208,
                -1.3543540519284054,
                0.471667099529862
            ]
        },
        {
            "positions": [
                -1.0834093805954816,
                -1.2366977631643676,
                1.0008216604069171,
                1.7903507249354964,
                -1.4517949868830382,
                0.4115769123006549
            ]
        },
        {
            "positions": [
                -1.0448424075779923,
                -1.1864802877631386,
                1.0758893694821312,
                1.8389493512215722,
                -1.549235921837671,
                0.3514867250714478
            ]
        },
        {
            "positions": [
                -1.0062754345605032,
                -1.1362628123619094,
                1.150957078557345,
                1.887547977507648,
                -1.6466768567923036,
                0.2913965378422407
            ]
        },
        {
            "positions": [
                -0.9677084615430138,
                -1.0860453369606806,
                1.2260247876325592,
                1.9361466037937236,
                -1.7441177917469362,
                0.23130635061303362
            ]
        },
        {
            "positions": [
                -0.9291414885255245,
                -1.0358278615594514,
                1.3010924967077733,
                1.9847452300797994,
                -1.841558726701569,
                0.1712161633838265
            ]
        },
        {
            "positions": [
                -0.8905745155080351,
                -0.9856103861582224,
                1.3761602057829876,
                2.033343856365875,
                -1.9389996616562017,
                0.11112597615461939
            ]
        },
        {
            "positions": [
                -0.8520075424905458,
                -0.9353929107569934,
                1.4512279148582015,
                2.081942482651951,
                -2.0364405966108343,
                0.05103578892541227
            ]
        },
        {
            "positions": [
                -0.8134405694730564,
                -0.8851754353557644,
                1.5262956239334156,
                2.1305411089380266,
                -2.133881531565467,
                -0.009054398303794828
            ]
        },
        {
            "positions": [
                -0.8002878779437171,
                -0.8204210902537019,
                1.6019056837736203,
                2.16886284464776,
                -2.2146064568231525,
                -0.04674333222863636
            ]
        },
        {
            "positions": [
                -0.8857402255731079,
                -0.7035301451920799,
                1.652672751549789,
                2.158508341172486,
                -2.2218416240083503,
                -0.0012592757362328982
            ]
        },
        {
            "positions": [
                -0.9142243414495715,
                -0.6645664968382059,
                1.6695951074751787,
                2.1550568400140615,
                -2.224253346403416,
                0.013902076427901588
            ]
        }
    ]
}