{
    "goal": {
        "global_pose": {
            "orientation": {
                "w": 0.7031023502349854,
                "x": -0.7110244035720825,
                "y": 0.007748599164187908,
                "z": 0.005598929710686207
            },
            "position": {
                "x": 0.11585023208521307,
                "y": 0.44412534475326537,
                "z": 0.3711530566215515
            }
        },
        "name": "move_to_auspresseinheit_A"
    },
    "id": "RRT_move_to_auspresseinheit_A_49",
    "joint_names": [
        "shoulder_pan_joint",
        "shoulder_lift_joint",
        "elbow_joint",
        "wrist_1_joint",
        "wrist_2_joint",
        "wrist_3_joint"
    ],
    "metrics": {
        "cart_traj_len": 2.375380076114496,
        "distance_elbow_joint": 2.0040119938218615,
        "distance_shoulder_lift_joint": 0.7220993337528274,
        "distance_shoulder_pan_joint": 1.3690878450002155,
        "distance_wrist_1_joint": 0.9601039933976361,
        "distance_wrist_2_joint": 2.0976127816197145,
        "distance_wrist_3_joint": 2.0764709202454825,
        "smoothness": 0.4667077301193285,
        "time": 3.085513228,
        "traj_len": 3.0379905970621,
        "weighted_distance": 4.054632595358801
    },
    "planner": "RRT",
    "start": {
        "state": {
            "elbow_joint": 2.4225746658250005,
            "shoulder_lift_joint": -1.3736534386056498,
            "shoulder_pan_joint": -0.3378633547517467,
            "wrist_1_joint": -1.0288598680537169,
            "wrist_2_joint": 1.233022673432363,
            "wrist_3_joint": -3.0940220416140027
        }
    },
    "waypoints": [
        {
            "positions": [
                -0.3378633547517467,
                -1.3736534386056498,
                2.4225746658250005,
                -1.0288598680537169,
                1.233022673432363,
                -3.0940220416140027
            ]
        },
        {
            "positions": [
                -0.3014484572073987,
                -1.3852600594244249,
                2.2956625755880005,
                -1.0529024636195217,
                1.1825459035566743,
                -2.965757451559603
            ]
        },
        {
            "positions": [
                -0.26503355966305076,
                -1.3968666802431997,
                2.1687504853510005,
                -1.0769450591853265,
                1.1320691336809854,
                -2.8374928615052033
            ]
        },
        {
            "positions": [
                -0.22861866211870274,
                -1.4084733010619748,
                2.041838395114001,
                -1.1009876547511313,
                1.0815923638052967,
                -2.7092282714508036
            ]
        },
        {
            "positions": [
                -0.19220376457435476,
                -1.4200799218807498,
                1.9149263048770009,
                -1.1250302503169363,
                1.0311155939296077,
                -2.580963681396404
            ]
        },
        {
            "positions": [
                -0.15578886703000677,
                -1.4316865426995247,
                1.7880142146400009,
                -1.149072845882741,
                0.980638824053919,
                -2.452699091342004
            ]
        },
        {
            "positions": [
                -0.11937396948565876,
                -1.4432931635182997,
                1.661102124403001,
                -1.1731154414485458,
                0.9301620541782302,
                -2.3244345012876044
            ]
        },
        {
            "positions": [
                -0.0829590719413108,
                -1.4548997843370746,
                1.5341900341660013,
                -1.1971580370143506,
                0.8796852843025413,
                -2.1961699112332047
            ]
        },
        {
            "positions": [
                -0.04654417439696279,
                -1.4665064051558496,
                1.4072779439290013,
                -1.2212006325801554,
                0.8292085144268525,
                -2.067905321178805
            ]
        },
        {
            "positions": [
                0.06762439169476697,
                -1.527118466820973,
                1.4141377004020288,
                -1.155291520754504,
                0.7150402633702734,
                -2.0854506013506846
            ]
        },
        {
            "positions": [
                0.18179295778649673,
                -1.5877305284860963,
                1.4209974568750563,
                -1.0893824089288526,
                0.6008720123136942,
                -2.102995881522564
            ]
        },
        {
            "positions": [
                0.2959615238782265,
                -1.6483425901512196,
                1.427857213348084,
                -1.0234732971032012,
                0.4867037612571152,
                -2.1205411616944434
            ]
        },
        {
            "positions": [
                0.41013008996995626,
                -1.708954651816343,
                1.4347169698211115,
                -0.9575641852775498,
                0.37253551020053605,
                -2.1380864418663226
            ]
        },
        {
            "positions": [
                0.524298656061686,
                -1.769566713481466,
                1.441576726294139,
                -0.8916550734518984,
                0.258367259143957,
                -2.155631722038202
            ]
        },
        {
            "positions": [
                0.6384672221534158,
                -1.8301787751465894,
                1.4484364827671667,
                -0.825745961626247,
                0.14419900808737784,
                -2.173177002210082
            ]
        },
        {
            "positions": [
                0.7526357882451455,
                -1.8907908368117128,
                1.4552962392401942,
                -0.7598368498005956,
                0.030030757030798716,
                -2.190722282381961
            ]
        },
        {
            "positions": [
                0.8668043543368753,
                -1.9514028984768361,
                1.4621559957132217,
                -0.6939277379749442,
                -0.08413749402578043,
                -2.2082675625538406
            ]
        },
        {
            "positions": [
                0.8598382771440273,
                -1.958788987642186,
                1.59441798134071,
                -0.66152105872167,
                -0.017499685068191967,
                -2.320152287008939
            ]
        },
        {
            "positions": [
                0.8528721999511792,
                -1.966175076807536,
                1.7266799669681985,
                -0.6291143794683957,
                0.04913812388939649,
                -2.432037011464037
            ]
        },
        {
            "positions": [
                0.8459061227583312,
                -1.9735611659728858,
                1.858941952595687,
                -0.5967077002151214,
                0.11577593284698497,
                -2.5439217359191355
            ]
        },
        {
            "positions": [
                0.8389400455654831,
                -1.9809472551382357,
                1.9912039382231752,
                -0.5643010209618472,
                0.18241374180457343,
                -2.6558064603742335
            ]
        },
        {
            "positions": [
                0.831973968372635,
                -1.9883333443035855,
                2.123465923850664,
                -0.5318943417085729,
                0.2490515507621619,
                -2.767691184829332
            ]
        },
        {
            "positions": [
                0.825007891179787,
                -1.9957194334689354,
                2.2557279094781517,
                -0.49948766245529863,
                0.3156893597197504,
                -2.87957590928443
            ]
        },
        {
            "positions": [
                0.818041813986939,
                -2.0031055226342853,
                2.3879898951056404,
                -0.46708098320202435,
                0.38232716867733885,
                -2.9914606337395284
            ]
        },
        {
            "positions": [
                0.7602130162061103,
                -1.9567818977721894,
                2.391991555480252,
                -0.47390277294855754,
                0.5393211444065646,
                -3.0548600773643093
            ]
        },
        {
            "positions": [
                0.7023842184252814,
                -1.9104582729100934,
                2.3959932158548636,
                -0.4807245626950908,
                0.6963151201357903,
                -3.1182595209890898
            ]
        }
    ]
}