{
    "goal": {
        "global_pose": {
            "orientation": {
                "w": -0.00223480608172531,
                "x": 0.0024358444001904467,
                "y": 0.7094548369677653,
                "z": -0.704743149386269
            },
            "position": {
                "x": 0.6205249238014221,
                "y": -0.6371506643295288,
                "z": 0.19426114857196808
            }
        },
        "name": "move_to_magneteinheit_B"
    },
    "id": "RRT_move_to_magneteinheit_B_56",
    "joint_names": [
        "shoulder_pan_joint",
        "shoulder_lift_joint",
        "elbow_joint",
        "wrist_1_joint",
        "wrist_2_joint",
        "wrist_3_joint"
    ],
    "metrics": {
        "cart_traj_len": 3.4744843042487616,
        "distance_elbow_joint": 5.1850594988302285,
        "distance_shoulder_lift_joint": 0.7704281142866103,
        "distance_shoulder_pan_joint": 3.147167154400783,
        "distance_wrist_1_joint": 4.409809332119491,
        "distance_wrist_2_joint": 0.9919944231257174,
        "distance_wrist_3_joint": 3.9052560554369915,
        "smoothness": 0.2291377322190667,
        "time": 0.23465024499999998,
        "traj_len": 4.2906543298429245,
        "weighted_distance": 5.62334690769821
    },
    "planner": "RRT",
    "start": {
        "state": {
            "elbow_joint": 2.6216224122426386,
            "shoulder_lift_joint": -1.4174107377796124,
            "shoulder_pan_joint": 0.7066234856936794,
            "wrist_1_joint": 1.9546482284002225,
            "wrist_2_joint": -0.7096286983471962,
            "wrist_3_joint": 0.005740856962016249
        }
    },
    "waypoints": [
        {
            "positions": [
                0.7066234856936794,
                -1.4174107377796124,
                2.6216224122426386,
                1.9546482284002225,
                -0.7096286983471962,
                0.005740856962016249
            ]
        },
        {
            "positions": [
                0.6477818548486081,
                -1.4516228353777358,
                2.60376200516474,
                1.863627996190692,
                -0.6598786892891515,
                0.08446210196940919
            ]
        },
        {
            "positions": [
                0.5889402240035367,
                -1.4858349329758596,
                2.5859015980868416,
                1.772607763981162,
                -0.6101286802311069,
                0.16318334697680215
            ]
        },
        {
            "positions": [
                0.5300985931584654,
                -1.520047030573983,
                2.568041191008943,
                1.6815875317716316,
                -0.5603786711730622,
                0.24190459198419512
            ]
        },
        {
            "positions": [
                0.46310504956781684,
                -1.5366617465866745,
                2.489952130837755,
                1.601234136625102,
                -0.46654805266571225,
                0.22690448975070654
            ]
        },
        {
            "positions": [
                0.3961115059771682,
                -1.553276462599366,
                2.4118630706665676,
                1.5208807414785723,
                -0.37271743415836234,
                0.21190438751721793
            ]
        },
        {
            "positions": [
                0.32911796238651964,
                -1.5698911786120577,
                2.3337740104953797,
                1.4405273463320425,
                -0.2788868156510124,
                0.19690428528372936
            ]
        },
        {
            "positions": [
                0.262124418795871,
                -1.5865058946247492,
                2.2556849503241923,
                1.3601739511855129,
                -0.18505619714366245,
                0.18190418305024075
            ]
        },
        {
            "positions": [
                0.1951308752052224,
                -1.6031206106374407,
                2.1775958901530044,
                1.2798205560389833,
                -0.09122557863631256,
                0.16690408081675218
            ]
        },
        {
            "positions": [
                0.28164104671089246,
                -1.6185870035613745,
                2.026675955917064,
                1.2618124546572234,
                -0.09522535678683125,
                0.05182383682081572
            ]
        },
        {
            "positions": [
                0.3681512182165625,
                -1.6340533964853083,
                1.875756021681124,
                1.2438043532754635,
                -0.09922513493734995,
                -0.06325640717512074
            ]
        },
        {
            "positions": [
                0.4546613897222326,
                -1.6495197894092422,
                1.7248360874451836,
                1.2257962518937036,
                -0.10322491308786866,
                -0.17833665117105718
            ]
        },
        {
            "positions": [
                0.5411715612279026,
                -1.6649861823331757,
                1.5739161532092434,
                1.2077881505119434,
                -0.10722469123838735,
                -0.29341689516699365
            ]
        },
        {
            "positions": [
                0.6276817327335726,
                -1.6804525752571096,
                1.422996218973303,
                1.1897800491301835,
                -0.11122446938890604,
                -0.4084971391629301
            ]
        },
        {
            "positions": [
                0.7141919042392427,
                -1.6959189681810434,
                1.2720762847373628,
                1.1717719477484236,
                -0.11522424753942474,
                -0.5235773831588666
            ]
        },
        {
            "positions": [
                0.8007020757449128,
                -1.7113853611049772,
                1.1211563505014226,
                1.1537638463666637,
                -0.11922402568994345,
                -0.638657627154803
            ]
        },
        {
            "positions": [
                0.8872122472505828,
                -1.726851754028911,
                0.9702364162654824,
                1.1357557449849038,
                -0.12322380384046214,
                -0.7537378711507394
            ]
        },
        {
            "positions": [
                0.973722418756253,
                -1.7423181469528448,
                0.819316482029542,
                1.117747643603144,
                -0.12722358199098083,
                -0.8688181151466761
            ]
        },
        {
            "positions": [
                1.060232590261923,
                -1.7577845398767786,
                0.6683965477936018,
                1.0997395422213838,
                -0.13122336014149955,
                -0.9838983591426125
            ]
        },
        {
            "positions": [
                1.146742761767593,
                -1.7732509328007122,
                0.5174766135576616,
                1.081731440839624,
                -0.13522313829201824,
                -1.098978603138549
            ]
        },
        {
            "positions": [
                1.233252933273263,
                -1.788717325724646,
                0.3665566793217214,
                1.063723339457864,
                -0.13922291644253693,
                -1.2140588471344853
            ]
        },
        {
            "positions": [
                1.319763104778933,
                -1.8041837186485798,
                0.215636745085781,
                1.0457152380761041,
                -0.14322269459305562,
                -1.329139091130422
            ]
        },
        {
            "positions": [
                1.406273276284603,
                -1.8196501115725137,
                0.06471681084984082,
                1.0277071366943442,
                -0.1472224727435743,
                -1.4442193351263584
            ]
        },
        {
            "positions": [
                1.492783447790273,
                -1.8351165044964475,
                -0.08620312338609937,
                1.0096990353125843,
                -0.15122225089409302,
                -1.5592995791222948
            ]
        },
        {
            "positions": [
                1.579293619295943,
                -1.8505828974203813,
                -0.23712305762203956,
                0.9916909339308244,
                -0.15522202904461171,
                -1.6743798231182312
            ]
        },
        {
            "positions": [
                1.6658037908016132,
                -1.866049290344315,
                -0.38804299185797975,
                0.9736828325490645,
                -0.1592218071951304,
                -1.7894600671141676
            ]
        },
        {
            "positions": [
                1.7523139623072834,
                -1.881515683268249,
                -0.5389629260939204,
                0.9556747311673044,
                -0.16322158534564912,
                -1.9045403111101042
            ]
        },
        {
            "positions": [
                1.8388241338129534,
                -1.8969820761921825,
                -0.6898828603298606,
                0.9376666297855445,
                -0.1672213634961678,
                -2.019620555106041
            ]
        },
        {
            "positions": [
                1.9253343053186234,
                -1.9124484691161163,
                -0.8408027945658008,
                0.9196585284037846,
                -0.1712211416466865,
                -2.134700799101977
            ]
        },
        {
            "positions": [
                2.0118444768242933,
                -1.9279148620400501,
                -0.991722728801741,
                0.9016504270220247,
                -0.1752209197972052,
                -2.2497810430979137
            ]
        },
        {
            "positions": [
                2.0983546483299635,
                -1.943381254963984,
                -1.1426426630376811,
                0.8836423256402648,
                -0.17922069794772388,
                -2.36486128709385
            ]
        },
        {
            "positions": [
                2.1848648198356337,
                -1.9588476478879178,
                -1.2935625972736213,
                0.8656342242585049,
                -0.1832204760982426,
                -2.4799415310897865
            ]
        },
        {
            "positions": [
                2.2713749913413035,
                -1.9743140408118514,
                -1.4444825315095615,
                0.847626122876745,
                -0.1872202542487613,
                -2.5950217750857227
            ]
        },
        {
            "positions": [
                2.3578851628469737,
                -1.9897804337357852,
                -1.5954024657455022,
                0.8296180214949849,
                -0.19122003239927998,
                -2.71010201908166
            ]
        },
        {
            "positions": [
                2.444395334352644,
                -2.005246826659719,
                -1.7463223999814423,
                0.811609920113225,
                -0.1952198105497987,
                -2.825182263077596
            ]
        },
        {
            "positions": [
                2.5309055058583136,
                -2.020713219583653,
                -1.8972423342173825,
                0.7936018187314651,
                -0.1992195887003174,
                -2.9402625070735326
            ]
        },
        {
            "positions": [
                2.617415677363984,
                -2.0361796125075866,
                -2.0481622684533227,
                0.7755937173497052,
                -0.20321936685083608,
                -3.055342751069469
            ]
        },
        {
            "positions": [
                2.6495646633093823,
                -2.050829429124525,
                -2.0625433520241168,
                0.6089490730478168,
                -0.24361172140526877,
                -3.1127069262777196
            ]
        },
        {
            "positions": [
                2.681713649254781,
                -2.0654792457414635,
                -2.0769244355949112,
                0.44230442874592835,
                -0.28400407595970145,
                -3.170071101485971
            ]
        },
        {
            "positions": [
                2.7138626352001793,
                -2.080129062358402,
                -2.0913055191657053,
                0.27565978444403993,
                -0.32439643051413414,
                -3.2274352766942216
            ]
        },
        {
            "positions": [
                2.746011621145578,
                -2.0947788789753403,
                -2.1056866027364993,
                0.10901514014215152,
                -0.3647887850685668,
                -3.2847994519024724
            ]
        },
        {
            "positions": [
                2.7365900880375813,
                -2.1051188759854385,
                -2.0548254378641557,
                -0.17589333139800606,
                -0.37590301806663123,
                -3.268978532288234
            ]
        },
        {
            "positions": [
                2.7271685549295843,
                -2.1154588729955366,
                -2.003964272991812,
                -0.46080180293816364,
                -0.38701725106469564,
                -3.2531576126739954
            ]
        },
        {
            "positions": [
                2.717747021821588,
                -2.1257988700056343,
                -1.9531031081194685,
                -0.7457102744783213,
                -0.39813148406276005,
                -3.237336693059757
            ]
        },
        {
            "positions": [
                2.708325488713591,
                -2.1361388670157324,
                -1.902241943247125,
                -1.0306187460184788,
                -0.40924571706082447,
                -3.221515773445519
            ]
        },
        {
            "positions": [
                2.6989039556055943,
                -2.1464788640258305,
                -1.8513807783747813,
                -1.3155272175586366,
                -0.42035995005888893,
                -3.20569485383128
            ]
        },
        {
            "positions": [
                2.6894824224975973,
                -2.1568188610359287,
                -1.800519613502438,
                -1.600435689098794,
                -0.4314741830569533,
                -3.189873934217042
            ]
        },
        {
            "positions": [
                2.6800608893896007,
                -2.1671588580460264,
                -1.7496584486300943,
                -1.8853441606389516,
                -0.44258841605501775,
                -3.1740530146028036
            ]
        },
        {
            "positions": [
                2.6706393562816038,
                -2.1774988550561245,
                -1.6987972837577507,
                -2.170252632179109,
                -0.45370264905308216,
                -3.158232094988565
            ]
        },
        {
            "positions": [
                2.6612178231736072,
                -2.1878388520662226,
                -1.6479361188854071,
                -2.455161103719267,
                -0.4648168820511466,
                -3.1424111753743267
            ]
        }
    ]
}