{
    "goal": {
        "global_pose": {
            "orientation": {
                "w": -0.00223480608172531,
                "x": 0.0024358444001904467,
                "y": 0.7094548369677653,
                "z": -0.704743149386269
            },
            "position": {
                "x": 0.6205249238014221,
                "y": -0.6371506643295288,
                "z": 0.19426114857196808
            }
        },
        "name": "move_to_magneteinheit_B"
    },
    "id": "RRT_move_to_magneteinheit_B_46",
    "joint_names": [
        "shoulder_pan_joint",
        "shoulder_lift_joint",
        "elbow_joint",
        "wrist_1_joint",
        "wrist_2_joint",
        "wrist_3_joint"
    ],
    "metrics": {
        "cart_traj_len": 1.4243727658825802,
        "distance_elbow_joint": 0.9549886195930062,
        "distance_shoulder_lift_joint": 0.8503797389675899,
        "distance_shoulder_pan_joint": 1.621231079439803,
        "distance_wrist_1_joint": 0.19814734761313746,
        "distance_wrist_2_joint": 1.5168666105617101,
        "distance_wrist_3_joint": 0.4270917803628104,
        "smoothness": 0.1635904437967973,
        "time": 1.000905813,
        "traj_len": 2.3598104111428224,
        "weighted_distance": 2.8527009474248306
    },
    "planner": "RRT",
    "start": {
        "state": {
            "elbow_joint": 2.6216224122426386,
            "shoulder_lift_joint": -1.4174107377796124,
            "shoulder_pan_joint": 0.7066234856936794,
            "wrist_1_joint": 1.9546482284002225,
            "wrist_2_joint": -0.7096286983471962,
            "wrist_3_joint": 0.005740856962016249
        }
    },
    "waypoints": [
        {
            "positions": [
                0.7066234856936794,
                -1.4174107377796124,
                2.6216224122426386,
                1.9546482284002225,
                -0.7096286983471962,
                0.005740856962016249
            ]
        },
        {
            "positions": [
                0.6590872509223942,
                -1.4256513403848814,
                2.6185201491588592,
                1.9612984163119054,
                -0.7129486684046887,
                -0.012476843118877015
            ]
        },
        {
            "positions": [
                0.47759720934037586,
                -1.4356039969528225,
                2.584526870629992,
                1.9755267331287154,
                -0.7288310200913815,
                -0.06174431090564491
            ]
        },
        {
            "positions": [
                0.2961071677583576,
                -1.4455566535207638,
                2.550533592101125,
                1.9897550499455252,
                -0.7447133717780741,
                -0.11101177869241281
            ]
        },
        {
            "positions": [
                0.11461712617633935,
                -1.455509310088705,
                2.516540313572258,
                2.0039833667623355,
                -0.7605957234647668,
                -0.1602792464791807
            ]
        },
        {
            "positions": [
                -0.06687291540567894,
                -1.4654619666566462,
                2.4825470350433907,
                2.0182116835791453,
                -0.7764780751514595,
                -0.2095467142659486
            ]
        },
        {
            "positions": [
                -0.14393970434571934,
                -1.3925230111938685,
                2.4083731039166856,
                2.0304465828913467,
                -0.9082978236748638,
                -0.1902917861627808
            ]
        },
        {
            "positions": [
                -0.22100649328575975,
                -1.3195840557310905,
                2.33419917278998,
                2.0426814822035477,
                -1.040117572198268,
                -0.17103685805961302
            ]
        },
        {
            "positions": [
                -0.29807328222580015,
                -1.2466451002683128,
                2.260025241663275,
                2.054916381515749,
                -1.1719373207216721,
                -0.15178192995644527
            ]
        },
        {
            "positions": [
                -0.3751400711658406,
                -1.1737061448055348,
                2.1858513105365693,
                2.0671512808279506,
                -1.3037570692450764,
                -0.13252700185327748
            ]
        },
        {
            "positions": [
                -0.45220686010588096,
                -1.100767189342757,
                2.111677379409864,
                2.079386180140152,
                -1.4355768177684807,
                -0.1132720737501097
            ]
        },
        {
            "positions": [
                -0.5292736490459213,
                -1.0278282338799793,
                2.037503448283159,
                2.091621079452353,
                -1.567396566291885,
                -0.09401714564694193
            ]
        },
        {
            "positions": [
                -0.6063404379859618,
                -0.9548892784172014,
                1.9633295171564535,
                2.1038559787645545,
                -1.6992163148152892,
                -0.07476221754377413
            ]
        },
        {
            "positions": [
                -0.6834072269260022,
                -0.8819503229544235,
                1.8891555860297484,
                2.116090878076756,
                -1.8310360633386935,
                -0.055507289440606344
            ]
        },
        {
            "positions": [
                -0.7604740158660427,
                -0.8090113674916457,
                1.8149816549030429,
                2.1283257773889575,
                -1.962855811862098,
                -0.03625236133743856
            ]
        },
        {
            "positions": [
                -0.837540804806083,
                -0.736072412028868,
                1.7408077237763377,
                2.1405606767011585,
                -2.094675560385502,
                -0.016997433234270803
            ]
        },
        {
            "positions": [
                -0.9146075937461234,
                -0.6631334565660901,
                1.6666337926496324,
                2.15279557601336,
                -2.2264953089089063,
                0.002257494868896983
            ]
        }
    ]
}