{
    "goal": {
        "global_pose": {
            "orientation": {
                "w": 0.005598929693374612,
                "x": 0.007748599140229565,
                "y": 0.7110244013736278,
                "z": -0.7031023480610252
            },
            "position": {
                "x": -0.8858502320852131,
                "y": -0.7141253447532654,
                "z": 0.3711530566215515
            }
        },
        "name": "move_to_auspresseinheit_C"
    },
    "id": "RRT_move_to_auspresseinheit_C_79",
    "joint_names": [
        "shoulder_pan_joint",
        "shoulder_lift_joint",
        "elbow_joint",
        "wrist_1_joint",
        "wrist_2_joint",
        "wrist_3_joint"
    ],
    "metrics": {
        "cart_traj_len": 0.49275517247590794,
        "distance_elbow_joint": 0.9958069327283239,
        "distance_shoulder_lift_joint": 0.322672369050493,
        "distance_shoulder_pan_joint": 0.25540356603728354,
        "distance_wrist_1_joint": 0.6629293176233247,
        "distance_wrist_2_joint": 1.3174240172129954,
        "distance_wrist_3_joint": 0.056232766505258436,
        "smoothness": 4.844609574787718e-16,
        "time": 0.013839355000000001,
        "traj_len": 1.900123408928399,
        "weighted_distance": 2.388155739687954
    },
    "planner": "RRT",
    "start": {
        "state": {
            "elbow_joint": 1.7527959577737207,
            "shoulder_lift_joint": -0.9740617694225068,
            "shoulder_pan_joint": -2.967991417825858,
            "wrist_1_joint": -0.759517768980727,
            "wrist_2_joint": 1.7443932448377408,
            "wrist_3_joint": -3.0840537646736568
        }
    },
    "waypoints": [
        {
            "positions": [
                -2.967991417825858,
                -0.9740617694225068,
                1.7527959577737207,
                -0.759517768980727,
                1.7443932448377408,
                -3.0840537646736568
            ]
        },
        {
            "positions": [
                -2.9424510612221297,
                -0.9417945325174575,
                1.6532152645008882,
                -0.6932248372183945,
                1.6126508431164412,
                -3.0896770413241827
            ]
        },
        {
            "positions": [
                -2.916910704618401,
                -0.9095272956124082,
                1.553634571228056,
                -0.626931905456062,
                1.4809084413951417,
                -3.0953003179747083
            ]
        },
        {
            "positions": [
                -2.891370348014673,
                -0.8772600587073589,
                1.4540538779552235,
                -0.5606389736937296,
                1.3491660396738423,
                -3.1009235946252343
            ]
        },
        {
            "positions": [
                -2.8658299914109446,
                -0.8449928218023095,
                1.3544731846823912,
                -0.4943460419313971,
                1.2174236379525425,
                -3.1065468712757602
            ]
        },
        {
            "positions": [
                -2.840289634807216,
                -0.8127255848972603,
                1.2548924914095587,
                -0.4280531101690646,
                1.0856812362312431,
                -3.112170147926286
            ]
        },
        {
            "positions": [
                -2.8147492782034877,
                -0.7804583479922109,
                1.1553117981367262,
                -0.36176017840673214,
                0.9539388345099437,
                -3.1177934245768117
            ]
        },
        {
            "positions": [
                -2.7892089215997595,
                -0.7481911110871617,
                1.055731104863894,
                -0.2954672466443997,
                0.8221964327886441,
                -3.1234167012273377
            ]
        },
        {
            "positions": [
                -2.7636685649960313,
                -0.7159238741821123,
                0.9561504115910615,
                -0.2291743148820672,
                0.6904540310673444,
                -3.1290399778778637
            ]
        },
        {
            "positions": [
                -2.7381282083923026,
                -0.683656637277063,
                0.8565697183182291,
                -0.16288138311973466,
                0.558711629346045,
                -3.1346632545283892
            ]
        },
        {
            "positions": [
                -2.7125878517885744,
                -0.6513894003720138,
                0.7569890250453968,
                -0.0965884513574022,
                0.42696922762474554,
                -3.140286531178915
            ]
        }
    ]
}