{
    "goal": {
        "global_pose": {
            "orientation": {
                "w": 0.7031023480610252,
                "x": -0.7110244013736278,
                "y": 0.0077485991402295624,
                "z": 0.005598929693374583
            },
            "position": {
                "x": -0.8841497679147869,
                "y": 0.44412534475326537,
                "z": 0.3711530566215515
            }
        },
        "name": "move_to_auspresseinheit_D"
    },
    "id": "RRT_move_to_auspresseinheit_D_103",
    "joint_names": [
        "shoulder_pan_joint",
        "shoulder_lift_joint",
        "elbow_joint",
        "wrist_1_joint",
        "wrist_2_joint",
        "wrist_3_joint"
    ],
    "metrics": {
        "cart_traj_len": 0.3452904247578159,
        "distance_elbow_joint": 0.6716937565297081,
        "distance_shoulder_lift_joint": 0.1400409811367127,
        "distance_shoulder_pan_joint": 0.13429756280759714,
        "distance_wrist_1_joint": 0.6300671742166388,
        "distance_wrist_2_joint": 1.4422529568826765,
        "distance_wrist_3_joint": 0.08236064128868925,
        "smoothness": 0.0,
        "time": 0.011104506,
        "traj_len": 1.760884173607686,
        "weighted_distance": 2.3103580862149307
    },
    "planner": "RRT",
    "start": {
        "state": {
            "elbow_joint": -1.8275523626775212,
            "shoulder_lift_joint": -2.126789852344167,
            "shoulder_pan_joint": -0.03513704404078235,
            "wrist_1_joint": -2.347782403156801,
            "wrist_2_joint": -1.6058999987535132,
            "wrist_3_joint": -3.0880379163319196
        }
    },
    "waypoints": [
        {
            "positions": [
                -0.03513704404078235,
                -2.126789852344167,
                -1.8275523626775212,
                -2.347782403156801,
                -1.6058999987535132,
                -3.0880379163319196
            ]
        },
        {
            "positions": [
                -0.05192423939173199,
                -2.144294974986256,
                -1.7435906431113077,
                -2.4265407999338806,
                -1.4256183791431787,
                -3.0777428361708337
            ]
        },
        {
            "positions": [
                -0.06871143474268163,
                -2.161800097628345,
                -1.6596289235450943,
                -2.5052991967109604,
                -1.2453367595328442,
                -3.0674477560097473
            ]
        },
        {
            "positions": [
                -0.08549863009363128,
                -2.179305220270434,
                -1.5756672039788806,
                -2.5840575934880405,
                -1.0650551399225094,
                -3.057152675848661
            ]
        },
        {
            "positions": [
                -0.10228582544458092,
                -2.1968103429125234,
                -1.4917054844126671,
                -2.6628159902651203,
                -0.8847735203121749,
                -3.046857595687575
            ]
        },
        {
            "positions": [
                -0.11907302079553056,
                -2.2143154655546122,
                -1.4077437648464537,
                -2.7415743870422,
                -0.7044919007018404,
                -3.036562515526489
            ]
        },
        {
            "positions": [
                -0.1358602161464802,
                -2.2318205881967015,
                -1.32378204528024,
                -2.82033278381928,
                -0.5242102810915057,
                -3.0262674353654027
            ]
        },
        {
            "positions": [
                -0.15264741149742986,
                -2.2493257108387903,
                -1.2398203257140266,
                -2.89909118059636,
                -0.3439286614811712,
                -3.0159723552043163
            ]
        },
        {
            "positions": [
                -0.1694346068483795,
                -2.2668308334808795,
                -1.155858606147813,
                -2.9778495773734397,
                -0.16364704187083678,
                -3.0056772750432303
            ]
        }
    ]
}