{
    "goal": {
        "global_pose": {
            "orientation": {
                "w": 0.7047431468963623,
                "x": -0.7094548344612122,
                "y": 0.0024358443915843964,
                "z": -0.0022348060738295317
            },
            "position": {
                "x": 0.6094750761985779,
                "y": 0.3671506643295288,
                "z": 0.19426114857196808
            }
        },
        "name": "move_to_magneteinheit_A"
    },
    "id": "RRT_move_to_magneteinheit_A_39",
    "joint_names": [
        "shoulder_pan_joint",
        "shoulder_lift_joint",
        "elbow_joint",
        "wrist_1_joint",
        "wrist_2_joint",
        "wrist_3_joint"
    ],
    "metrics": {
        "cart_traj_len": 3.6887498679339825,
        "distance_elbow_joint": 3.9055264928680398,
        "distance_shoulder_lift_joint": 0.3497805100094946,
        "distance_shoulder_pan_joint": 3.359609241905092,
        "distance_wrist_1_joint": 0.7015559576942554,
        "distance_wrist_2_joint": 1.7011708633084697,
        "distance_wrist_3_joint": 3.0220012615455834,
        "smoothness": 0.28928889782513095,
        "time": 0.224907072,
        "traj_len": 3.6110447694996712,
        "weighted_distance": 4.635339650060697
    },
    "planner": "RRT",
    "start": {
        "state": {
            "elbow_joint": -1.9196185241190666,
            "shoulder_lift_joint": -1.2443396400964142,
            "shoulder_pan_joint": 2.6996025414629847,
            "wrist_1_joint": -1.5485510000780065,
            "wrist_2_joint": -1.5709468930060704,
            "wrist_3_joint": 0.4420197071253992
        }
    },
    "waypoints": [
        {
            "positions": [
                2.6996025414629847,
                -1.2443396400964142,
                -1.9196185241190666,
                -1.5485510000780065,
                -1.5709468930060704,
                0.4420197071253992
            ]
        },
        {
            "positions": [
                2.597241752530289,
                -1.2486895844775232,
                -1.794828414564676,
                -1.5476991239231312,
                -1.5162557520225717,
                0.5409372458340309
            ]
        },
        {
            "positions": [
                2.494880963597594,
                -1.2530395288586325,
                -1.6700383050102852,
                -1.546847247768256,
                -1.4615646110390732,
                0.6398547845426628
            ]
        },
        {
            "positions": [
                2.3925201746648983,
                -1.2573894732397415,
                -1.5452481954558945,
                -1.545995371613381,
                -1.4068734700555745,
                0.7387723232512945
            ]
        },
        {
            "positions": [
                2.2901593857322027,
                -1.2617394176208505,
                -1.4204580859015037,
                -1.5451434954585057,
                -1.3521823290720758,
                0.8376898619599262
            ]
        },
        {
            "positions": [
                2.187798596799507,
                -1.2660893620019598,
                -1.295667976347113,
                -1.5442916193036305,
                -1.297491188088577,
                0.9366074006685581
            ]
        },
        {
            "positions": [
                2.085437807866812,
                -1.2704393063830688,
                -1.1708778667927224,
                -1.5434397431487552,
                -1.2428000471050786,
                1.03552493937719
            ]
        },
        {
            "positions": [
                1.9830770189341163,
                -1.2747892507641778,
                -1.0460877572383316,
                -1.54258786699388,
                -1.18810890612158,
                1.1344424780858215
            ]
        },
        {
            "positions": [
                1.8807162300014206,
                -1.2791391951452868,
                -0.921297647683941,
                -1.5417359908390047,
                -1.1334177651380815,
                1.2333600167944534
            ]
        },
        {
            "positions": [
                1.7783554410687252,
                -1.283489139526396,
                -0.7965075381295501,
                -1.5408841146841297,
                -1.0787266241545828,
                1.3322775555030852
            ]
        },
        {
            "positions": [
                1.6759946521360296,
                -1.2878390839075051,
                -0.6717174285751595,
                -1.5400322385292544,
                -1.024035483171084,
                1.4311950942117169
            ]
        },
        {
            "positions": [
                1.5736338632033342,
                -1.2921890282886141,
                -0.5469273190207689,
                -1.5391803623743792,
                -0.9693443421875855,
                1.5301126329203485
            ]
        },
        {
            "positions": [
                1.4712730742706388,
                -1.2965389726697234,
                -0.4221372094663782,
                -1.538328486219504,
                -0.9146532012040869,
                1.6290301716289806
            ]
        },
        {
            "positions": [
                1.3689122853379432,
                -1.3008889170508324,
                -0.2973470999119874,
                -1.5374766100646287,
                -0.8599620602205882,
                1.7279477103376122
            ]
        },
        {
            "positions": [
                1.2665514964052476,
                -1.3052388614319415,
                -0.17255699035759653,
                -1.5366247339097534,
                -0.8052709192370895,
                1.8268652490462443
            ]
        },
        {
            "positions": [
                1.1641907074725522,
                -1.3095888058130507,
                -0.0477668808032059,
                -1.5357728577548784,
                -0.7505797782535909,
                1.9257827877548759
            ]
        },
        {
            "positions": [
                1.0618299185398568,
                -1.3139387501941597,
                0.07702322875118472,
                -1.5349209816000031,
                -0.6958886372700923,
                2.0247003264635075
            ]
        },
        {
            "positions": [
                0.9594691296071614,
                -1.3182886945752688,
                0.20181333830557513,
                -1.5340691054451279,
                -0.6411974962865937,
                2.123617865172139
            ]
        },
        {
            "positions": [
                0.8571083406744657,
                -1.322638638956378,
                0.3266034478599664,
                -1.5332172292902526,
                -0.586506355303095,
                2.222535403880771
            ]
        },
        {
            "positions": [
                0.7547475517417703,
                -1.326988583337487,
                0.4513935574143568,
                -1.5323653531353774,
                -0.5318152143195964,
                2.321452942589403
            ]
        },
        {
            "positions": [
                0.6523867628090745,
                -1.331338527718596,
                0.5761836669687477,
                -1.531513476980502,
                -0.47712407333609774,
                2.420370481298035
            ]
        },
        {
            "positions": [
                0.5500259738763793,
                -1.3356884720997053,
                0.7009737765231385,
                -1.530661600825627,
                -0.42243293235259904,
                2.5192880200066665
            ]
        },
        {
            "positions": [
                0.4476651849436837,
                -1.3400384164808143,
                0.8257638860775289,
                -1.5298097246707518,
                -0.36774179136910057,
                2.618205558715298
            ]
        },
        {
            "positions": [
                0.34530439601098806,
                -1.3443883608619234,
                0.9505539956319198,
                -1.5289578485158766,
                -0.31305065038560187,
                2.71712309742393
            ]
        },
        {
            "positions": [
                0.24294360707829288,
                -1.3487383052430324,
                1.0753441051863102,
                -1.5281059723610013,
                -0.2583595094021034,
                2.816040636132562
            ]
        },
        {
            "positions": [
                0.14058281814559725,
                -1.3530882496241416,
                1.200134214740701,
                -1.527254096206126,
                -0.2036683684186047,
                2.9149581748411935
            ]
        },
        {
            "positions": [
                0.03822202921290163,
                -1.3574381940052507,
                1.3249243242950919,
                -1.5264022200512508,
                -0.148977227435106,
                3.0138757135498255
            ]
        },
        {
            "positions": [
                -0.06413875971979355,
                -1.3617881383863597,
                1.4497144338494823,
                -1.5255503438963758,
                -0.09428608645160752,
                3.112793252258457
            ]
        },
        {
            "positions": [
                -0.16649954865248962,
                -1.366138082767469,
                1.5745045434038736,
                -1.5246984677415005,
                -0.0395949454681086,
                3.2117107909670892
            ]
        },
        {
            "positions": [
                -0.2688603375851848,
                -1.370488027148578,
                1.699294652958264,
                -1.5238465915866253,
                0.015096195515389932,
                3.310628329675721
            ]
        },
        {
            "positions": [
                -0.19063106501380034,
                -1.3257616025571117,
                1.7566173161164056,
                -1.3884762817460505,
                0.038121750472791816,
                3.2799498018766684
            ]
        },
        {
            "positions": [
                -0.11240179244241585,
                -1.2810351779656457,
                1.8139399792745472,
                -1.2531059719054756,
                0.06114730543019369,
                3.249271274077616
            ]
        },
        {
            "positions": [
                -0.0341725198710314,
                -1.2363087533741794,
                1.8712626424326888,
                -1.1177356620649008,
                0.08417286038759557,
                3.218592746278564
            ]
        },
        {
            "positions": [
                0.044056752700353086,
                -1.1915823287827134,
                1.9285853055908304,
                -0.982365352224326,
                0.10719841534499745,
                3.1879142184795115
            ]
        },
        {
            "positions": [
                0.12228602527173753,
                -1.1468559041912472,
                1.985907968748972,
                -0.8469950423837511,
                0.13022397030239932,
                3.157235690680459
            ]
        }
    ]
}