{
    "goal": {
        "global_pose": {
            "orientation": {
                "w": -0.4816463035849501,
                "x": 0.5182115481033762,
                "y": 0.4908360881923453,
                "z": -0.5084816262002911
            },
            "position": {
                "x": -0.8240239810943604,
                "y": -0.300875300988555,
                "z": 0.16403168439865112
            }
        },
        "name": "move_to_storage_C"
    },
    "id": "RRT_move_to_storage_C_100",
    "joint_names": [
        "shoulder_pan_joint",
        "shoulder_lift_joint",
        "elbow_joint",
        "wrist_1_joint",
        "wrist_2_joint",
        "wrist_3_joint"
    ],
    "metrics": {
        "cart_traj_len": 0.5773981008046354,
        "distance_elbow_joint": 0.26011183452334197,
        "distance_shoulder_lift_joint": 0.19076952243724632,
        "distance_shoulder_pan_joint": 0.4943361484197064,
        "distance_wrist_1_joint": 0.08123962543330654,
        "distance_wrist_2_joint": 1.0734718162498669,
        "distance_wrist_3_joint": 0.06960629565929999,
        "smoothness": 0.0,
        "time": 0.014312085,
        "traj_len": 1.472934228919529,
        "weighted_distance": 1.8610371505492684
    },
    "planner": "RRT",
    "start": {
        "state": {
            "elbow_joint": 2.010868314990456,
            "shoulder_lift_joint": -1.1634956873337592,
            "shoulder_pan_joint": -2.4736205022346125,
            "wrist_1_joint": -0.8367026794202681,
            "wrist_2_joint": 0.6746043897044499,
            "wrist_3_joint": -3.1496632123970403
        }
    },
    "waypoints": [
        {
            "positions": [
                -2.4736205022346125,
                -1.1634956873337592,
                2.010868314990456,
                -0.8367026794202681,
                0.6746043897044499,
                -3.1496632123970403
            ]
        },
        {
            "positions": [
                -2.5560098603045636,
                -1.1317007669275514,
                1.967516342569899,
                -0.8231627418480504,
                0.8535163590794277,
                -3.13806216312049
            ]
        },
        {
            "positions": [
                -2.6383992183745146,
                -1.0999058465213438,
                1.9241643701493418,
                -0.8096228042758326,
                1.0324283284544056,
                -3.1264611138439404
            ]
        },
        {
            "positions": [
                -2.7207885764444657,
                -1.068110926115136,
                1.8808123977287847,
                -0.7960828667036148,
                1.2113402978293832,
                -3.1148600645673903
            ]
        },
        {
            "positions": [
                -2.8031779345144168,
                -1.0363160057089282,
                1.8374604253082278,
                -0.7825429291313971,
                1.3902522672043611,
                -3.10325901529084
            ]
        },
        {
            "positions": [
                -2.885567292584368,
                -1.0045210853027207,
                1.794108452887671,
                -0.7690029915591793,
                1.569164236579339,
                -3.0916579660142904
            ]
        },
        {
            "positions": [
                -2.967956650654319,
                -0.9727261648965129,
                1.7507564804671139,
                -0.7554630539869616,
                1.7480762059543167,
                -3.0800569167377403
            ]
        }
    ]
}