{
    "goal": {
        "global_pose": {
            "orientation": {
                "w": -0.00223480608172531,
                "x": 0.0024358444001904467,
                "y": 0.7094548369677653,
                "z": -0.704743149386269
            },
            "position": {
                "x": 0.6205249238014221,
                "y": -0.6371506643295288,
                "z": 0.19426114857196808
            }
        },
        "name": "move_to_magneteinheit_B"
    },
    "id": "RRT_move_to_magneteinheit_B_5",
    "joint_names": [
        "shoulder_pan_joint",
        "shoulder_lift_joint",
        "elbow_joint",
        "wrist_1_joint",
        "wrist_2_joint",
        "wrist_3_joint"
    ],
    "metrics": {
        "cart_traj_len": 3.950504728256715,
        "distance_elbow_joint": 5.135916475291356,
        "distance_shoulder_lift_joint": 0.7724790217082766,
        "distance_shoulder_pan_joint": 2.990895084061423,
        "distance_wrist_1_joint": 5.782319634601299,
        "distance_wrist_2_joint": 1.2126855318359844,
        "distance_wrist_3_joint": 3.1232401056047654,
        "smoothness": 0.4637403923080401,
        "time": 3.050072466,
        "traj_len": 4.360909979935736,
        "weighted_distance": 5.679702565341774
    },
    "planner": "RRT",
    "start": {
        "state": {
            "elbow_joint": 2.6216224122426386,
            "shoulder_lift_joint": -1.4174107377796124,
            "shoulder_pan_joint": 0.7066234856936794,
            "wrist_1_joint": 1.9546482284002225,
            "wrist_2_joint": -0.7096286983471962,
            "wrist_3_joint": 0.005740856962016249
        }
    },
    "waypoints": [
        {
            "positions": [
                0.7066234856936794,
                -1.4174107377796124,
                2.6216224122426386,
                1.9546482284002225,
                -0.7096286983471962,
                0.005740856962016249
            ]
        },
        {
            "positions": [
                0.6448949363698473,
                -1.4426459812770616,
                2.6051393439399795,
                1.969506434489178,
                -0.7464219070116503,
                -0.05236723405077525
            ]
        },
        {
            "positions": [
                0.5831663870460152,
                -1.4678812247745108,
                2.5886562756373204,
                1.9843646405781337,
                -0.7832151156761045,
                -0.11047532506356675
            ]
        },
        {
            "positions": [
                0.5222035395600609,
                -1.487290846445817,
                2.4838566478038038,
                1.916183349715662,
                -0.7697817757845886,
                -0.20829938036639398
            ]
        },
        {
            "positions": [
                0.4612406920741068,
                -1.5067004681171232,
                2.379057019970287,
                1.8480020588531902,
                -0.7563484358930727,
                -0.3061234356692212
            ]
        },
        {
            "positions": [
                0.4002778445881525,
                -1.5261100897884292,
                2.2742573921367706,
                1.7798207679907185,
                -0.7429150960015568,
                -0.4039474909720484
            ]
        },
        {
            "positions": [
                0.3393149971021983,
                -1.5455197114597354,
                2.169457764303254,
                1.7116394771282468,
                -0.7294817561100408,
                -0.5017715462748756
            ]
        },
        {
            "positions": [
                0.2783521496162441,
                -1.5649293331310417,
                2.0646581364697374,
                1.6434581862657751,
                -0.716048416218525,
                -0.5995956015777029
            ]
        },
        {
            "positions": [
                0.3470438414721847,
                -1.5684940594912964,
                1.9495843239037773,
                1.5109310048270939,
                -0.6976717688534165,
                -0.6474624293337554
            ]
        },
        {
            "positions": [
                0.4157355333281253,
                -1.5720587858515511,
                1.8345105113378175,
                1.3784038233884128,
                -0.6792951214883082,
                -0.695329257089808
            ]
        },
        {
            "positions": [
                0.4844272251840659,
                -1.5756235122118056,
                1.7194366987718575,
                1.2458766419497316,
                -0.6609184741231997,
                -0.7431960848458605
            ]
        },
        {
            "positions": [
                0.5531189170400066,
                -1.5791882385720604,
                1.6043628862058976,
                1.1133494605110505,
                -0.6425418267580914,
                -0.7910629126019131
            ]
        },
        {
            "positions": [
                0.6218106088959472,
                -1.582752964932315,
                1.4892890736399376,
                0.9808222790723692,
                -0.6241651793929829,
                -0.8389297403579656
            ]
        },
        {
            "positions": [
                0.6905023007518878,
                -1.5863176912925698,
                1.3742152610739775,
                0.848295097633688,
                -0.6057885320278745,
                -0.8867965681140182
            ]
        },
        {
            "positions": [
                0.7591939926078284,
                -1.5898824176528246,
                1.2591414485080175,
                0.7157679161950069,
                -0.5874118846627661,
                -0.9346633958700707
            ]
        },
        {
            "positions": [
                0.827885684463769,
                -1.5934471440130793,
                1.1440676359420576,
                0.5832407347563258,
                -0.5690352372976577,
                -0.9825302236261233
            ]
        },
        {
            "positions": [
                0.8965773763197096,
                -1.597011870373334,
                1.0289938233760976,
                0.4507135533176445,
                -0.5506585899325492,
                -1.0303970513821759
            ]
        },
        {
            "positions": [
                0.9652690681756502,
                -1.6005765967335885,
                0.9139200108101375,
                0.31818637187896326,
                -0.5322819425674409,
                -1.0782638791382284
            ]
        },
        {
            "positions": [
                1.033960760031591,
                -1.6041413230938433,
                0.7988461982441775,
                0.185659190440282,
                -0.5139052952023324,
                -1.1261307068942812
            ]
        },
        {
            "positions": [
                1.1026524518875314,
                -1.607706049454098,
                0.6837723856782176,
                0.05313200900160098,
                -0.49552864783722406,
                -1.1739975346503335
            ]
        },
        {
            "positions": [
                1.171344143743472,
                -1.6112707758143527,
                0.5686985731122576,
                -0.07939517243708027,
                -0.4771520004721156,
                -1.2218643624063863
            ]
        },
        {
            "positions": [
                1.2400358355994126,
                -1.6148355021746075,
                0.45362476054629775,
                -0.2119223538757613,
                -0.4587753531070072,
                -1.2697311901624388
            ]
        },
        {
            "positions": [
                1.3087275274553534,
                -1.618400228534862,
                0.3385509479803377,
                -0.34444953531444256,
                -0.44039870574189877,
                -1.3175980179184914
            ]
        },
        {
            "positions": [
                1.3774192193112937,
                -1.6219649548951167,
                0.22347713541437786,
                -0.4769767167531236,
                -0.42202205837679035,
                -1.365464845674544
            ]
        },
        {
            "positions": [
                1.4461109111672346,
                -1.6255296812553715,
                0.1084033228484178,
                -0.6095038981918051,
                -0.40364541101168194,
                -1.4133316734305965
            ]
        },
        {
            "positions": [
                1.514802603023175,
                -1.6290944076156262,
                -0.0066704897175422495,
                -0.7420310796304861,
                -0.38526876364657353,
                -1.461198501186649
            ]
        },
        {
            "positions": [
                1.5834942948791157,
                -1.632659133975881,
                -0.1217443022835023,
                -0.8745582610691671,
                -0.3668921162814651,
                -1.5090653289427016
            ]
        },
        {
            "positions": [
                1.6521859867350561,
                -1.6362238603361356,
                -0.23681811484946236,
                -1.0070854425078486,
                -0.3485154689163567,
                -1.5569321566987542
            ]
        },
        {
            "positions": [
                1.720877678590997,
                -1.6397885866963904,
                -0.3518919274154224,
                -1.1396126239465296,
                -0.33013882155124824,
                -1.6047989844548067
            ]
        },
        {
            "positions": [
                1.7895693704469378,
                -1.643353313056645,
                -0.46696573998138247,
                -1.272139805385211,
                -0.31176217418613983,
                -1.6526658122108593
            ]
        },
        {
            "positions": [
                1.8582610623028781,
                -1.6469180394168996,
                -0.5820395525473421,
                -1.4046669868238917,
                -0.2933855268210315,
                -1.7005326399669116
            ]
        },
        {
            "positions": [
                1.9269527541588185,
                -1.6504827657771544,
                -0.6971133651133021,
                -1.5371941682625732,
                -0.27500887945592306,
                -1.7483994677229642
            ]
        },
        {
            "positions": [
                1.9956444460147593,
                -1.654047492137409,
                -0.8121871776792622,
                -1.6697213497012542,
                -0.25663223209081465,
                -1.796266295479017
            ]
        },
        {
            "positions": [
                2.0643361378706997,
                -1.6576122184976638,
                -0.9272609902452222,
                -1.8022485311399357,
                -0.23825558472570624,
                -1.8441331232350695
            ]
        },
        {
            "positions": [
                2.1330278297266405,
                -1.6611769448579183,
                -1.0423348028111823,
                -1.9347757125786167,
                -0.21987893736059783,
                -1.891999950991122
            ]
        },
        {
            "positions": [
                2.2017195215825813,
                -1.664741671218173,
                -1.157408615377142,
                -2.0673028940172977,
                -0.20150228999548936,
                -1.9398667787471746
            ]
        },
        {
            "positions": [
                2.2704112134385217,
                -1.6683063975784278,
                -1.272482427943102,
                -2.199830075455979,
                -0.183125642630381,
                -1.9877336065032272
            ]
        },
        {
            "positions": [
                2.3391029052944625,
                -1.6718711239386825,
                -1.387556240509062,
                -2.3323572568946602,
                -0.16474899526527254,
                -2.0356004342592797
            ]
        },
        {
            "positions": [
                2.4077945971504033,
                -1.6754358502989373,
                -1.502630053075022,
                -2.4648844383333417,
                -0.14637234790016407,
                -2.0834672620153323
            ]
        },
        {
            "positions": [
                2.4764862890063437,
                -1.679000576659192,
                -1.6177038656409817,
                -2.5974116197720223,
                -0.1279957005350557,
                -2.131334089771385
            ]
        },
        {
            "positions": [
                2.545177980862284,
                -1.6825653030194467,
                -1.7327776782069417,
                -2.7299388012107038,
                -0.10961905316994736,
                -2.1792009175274374
            ]
        },
        {
            "positions": [
                2.613869672718225,
                -1.6861300293797012,
                -1.8478514907729018,
                -2.8624659826493852,
                -0.09124240580483889,
                -2.22706774528349
            ]
        },
        {
            "positions": [
                2.6825613645741653,
                -1.689694755739956,
                -1.9629253033388618,
                -2.994993164088066,
                -0.07286575843973053,
                -2.2749345730395425
            ]
        },
        {
            "positions": [
                2.751253056430106,
                -1.6932594821002107,
                -2.077999115904822,
                -3.127520345526747,
                -0.054489111074622065,
                -2.322801400795595
            ]
        },
        {
            "positions": [
                2.7400377012838404,
                -1.7553382667736706,
                -2.023462247511835,
                -3.047430565986933,
                -0.10578574981282132,
                -2.4221386317764892
            ]
        },
        {
            "positions": [
                2.7288223461375747,
                -1.8174170514471304,
                -1.968925379118848,
                -2.96734078644712,
                -0.15708238855102058,
                -2.5214758627573834
            ]
        },
        {
            "positions": [
                2.717606990991309,
                -1.87949583612059,
                -1.9143885107258607,
                -2.8872510069073063,
                -0.20837902728921986,
                -2.6208130937382776
            ]
        },
        {
            "positions": [
                2.7063916358450433,
                -1.9415746207940499,
                -1.8598516423328737,
                -2.8071612273674926,
                -0.2596756660274191,
                -2.720150324719172
            ]
        },
        {
            "positions": [
                2.6951762806987776,
                -2.0036534054675097,
                -1.8053147739398867,
                -2.7270714478276794,
                -0.3109723047656184,
                -2.8194875557000665
            ]
        },
        {
            "positions": [
                2.683960925552512,
                -2.0657321901409693,
                -1.7507779055468995,
                -2.6469816682878657,
                -0.36226894350381766,
                -2.9188247866809607
            ]
        },
        {
            "positions": [
                2.672745570406246,
                -2.1278109748144294,
                -1.6962410371539125,
                -2.566891888748052,
                -0.4135655822420169,
                -3.018162017661855
            ]
        },
        {
            "positions": [
                2.6615302152599805,
                -2.189889759487889,
                -1.6417041687609255,
                -2.486802109208239,
                -0.4648622209802162,
                -3.117499248642749
            ]
        }
    ]
}