{
    "goal": {
        "global_pose": {
            "orientation": {
                "w": 0.5084816217422485,
                "x": -0.49083608388900757,
                "y": 0.5182115435600281,
                "z": -0.4816462993621826
            },
            "position": {
                "x": 0.5540239810943604,
                "y": 0.030875300988554955,
                "z": 0.16403168439865112
            }
        },
        "name": "move_to_storage_A"
    },
    "id": "RRT_move_to_storage_A_134",
    "joint_names": [
        "shoulder_pan_joint",
        "shoulder_lift_joint",
        "elbow_joint",
        "wrist_1_joint",
        "wrist_2_joint",
        "wrist_3_joint"
    ],
    "metrics": {
        "cart_traj_len": 0.35362287481661353,
        "distance_elbow_joint": 0.4506281407692134,
        "distance_shoulder_lift_joint": 0.2348753265051795,
        "distance_shoulder_pan_joint": 0.4621737449956911,
        "distance_wrist_1_joint": 0.24162783796246023,
        "distance_wrist_2_joint": 1.1015005789783023,
        "distance_wrist_3_joint": 0.09408295518453214,
        "smoothness": 0.0,
        "time": 0.019065261,
        "traj_len": 1.6077588701031567,
        "weighted_distance": 2.02883782291863
    },
    "planner": "RRT",
    "start": {
        "state": {
            "elbow_joint": 1.971548259319323,
            "shoulder_lift_joint": -1.1394851275133948,
            "shoulder_pan_joint": 0.1228115487234821,
            "wrist_1_joint": -0.7804723859257726,
            "wrist_2_joint": 0.12958671773740124,
            "wrist_3_joint": -3.192489227718131
        }
    },
    "waypoints": [
        {
            "positions": [
                0.1228115487234821,
                -1.1394851275133948,
                1.971548259319323,
                -0.7804723859257726,
                0.12958671773740124,
                -3.192489227718131
            ]
        },
        {
            "positions": [
                0.05678672800981195,
                -1.1730387455855633,
                2.0359237080006394,
                -0.8149906484918383,
                0.28694394330573014,
                -3.1790488055489123
            ]
        },
        {
            "positions": [
                -0.009238092703858197,
                -1.2065923636577318,
                2.1002991566819555,
                -0.8495089110579042,
                0.444301168874059,
                -3.1656083833796935
            ]
        },
        {
            "positions": [
                -0.07526291341752836,
                -1.2401459817299003,
                2.1646746053632717,
                -0.8840271736239699,
                0.6016583944423879,
                -3.1521679612104747
            ]
        },
        {
            "positions": [
                -0.1412877341311985,
                -1.2736995998020688,
                2.229050054044588,
                -0.9185454361900356,
                0.7590156200107169,
                -3.1387275390412555
            ]
        },
        {
            "positions": [
                -0.20731255484486866,
                -1.3072532178742373,
                2.293425502725904,
                -0.9530636987561014,
                0.9163728455790459,
                -3.1252871168720366
            ]
        },
        {
            "positions": [
                -0.2733373755585388,
                -1.3408068359464058,
                2.3578009514072202,
                -0.987581961322167,
                1.0737300711473745,
                -3.111846694702818
            ]
        },
        {
            "positions": [
                -0.339362196272209,
                -1.3743604540185743,
                2.4221764000885364,
                -1.0221002238882329,
                1.2310872967157036,
                -3.098406272533599
            ]
        }
    ]
}{
    "goal": {
        "global_pose": {
            "orientation": {
                "w": 0.5084816217422485,
                "x": -0.49083608388900757,
                "y": 0.5182115435600281,
                "z": -0.4816462993621826
            },
            "position": {
                "x": 0.5540239810943604,
                "y": 0.030875300988554955,
                "z": 0.16403168439865112
            }
        },
        "name": "move_to_storage_A"
    },
    "id": "RRT_move_to_storage_A_134",
    "joint_names": [
        "shoulder_pan_joint",
        "shoulder_lift_joint",
        "elbow_joint",
        "wrist_1_joint",
        "wrist_2_joint",
        "wrist_3_joint"
    ],
    "metrics": {
        "cart_traj_len": 0.3533519842104248,
        "distance_elbow_joint": 0.44990997705305835,
        "distance_shoulder_lift_joint": 0.23239358973309243,
        "distance_shoulder_pan_joint": 0.46057804412310616,
        "distance_wrist_1_joint": 0.25052366298992723,
        "distance_wrist_2_joint": 1.1042317691514658,
        "distance_wrist_3_joint": 0.0920895438458631,
        "smoothness": 0.0,
        "time": 0.021088459,
        "traj_len": 1.609262746383111,
        "weighted_distance": 2.031910703433995
    },
    "planner": "RRT",
    "start": {
        "state": {
            "elbow_joint": 1.97154746011099,
            "shoulder_lift_joint": -1.13948474672311,
            "shoulder_pan_joint": 0.12281154466712228,
            "wrist_1_joint": -0.7804688027058302,
            "wrist_2_joint": 0.12958655903071145,
            "wrist_3_joint": 3.0906928834467795
        }
    },
    "waypoints": [
        {
            "positions": [
                0.12281154466712228,
                -1.13948474672311,
                1.97154746011099,
                -0.7804688027058302,
                0.12958655903071145,
                3.0906928834467795
            ]
        },
        {
            "positions": [
                0.05701468122096426,
                -1.1726838309706946,
                2.0358203139757127,
                -0.8162578974186769,
                0.287333954623778,
                3.1038485325676173
            ]
        },
        {
            "positions": [
                -0.008782182225193766,
                -1.2058829152182793,
                2.100093167840435,
                -0.8520469921315237,
                0.4450813502168445,
                3.1170041816884546
            ]
        },
        {
            "positions": [
                -0.07457904567135178,
                -1.239081999465864,
                2.164366021705158,
                -0.8878360868443704,
                0.6028287458099111,
                3.1301598308092924
            ]
        },
        {
            "positions": [
                -0.1403759091175098,
                -1.2722810837134484,
                2.2286388755698803,
                -0.9236251815572172,
                0.7605761414029776,
                3.1433154799301297
            ]
        },
        {
            "positions": [
                -0.20617277256366784,
                -1.305480167961033,
                2.292911729434603,
                -0.9594142762700639,
                0.9183235369960442,
                3.1564711290509675
            ]
        },
        {
            "positions": [
                -0.2719696360098258,
                -1.3386792522086177,
                2.3571845832993255,
                -0.9952033709829107,
                1.0760709325891107,
                3.169626778171805
            ]
        },
        {
            "positions": [
                -0.33776649945598386,
                -1.3718783364562024,
                2.4214574371640483,
                -1.0309924656957574,
                1.2338183281821773,
                3.1827824272926426
            ]
        }
    ]
}{
    "goal": {
        "global_pose": {
            "orientation": {
                "w": 0.5084816217422485,
                "x": -0.49083608388900757,
                "y": 0.5182115435600281,
                "z": -0.4816462993621826
            },
            "position": {
                "x": 0.5540239810943604,
                "y": 0.030875300988554955,
                "z": 0.16403168439865112
            }
        },
        "name": "move_to_storage_A"
    },
    "id": "RRT_move_to_storage_A_134",
    "joint_names": [
        "shoulder_pan_joint",
        "shoulder_lift_joint",
        "elbow_joint",
        "wrist_1_joint",
        "wrist_2_joint",
        "wrist_3_joint"
    ],
    "metrics": {
        "cart_traj_len": 0.3531131982066643,
        "distance_elbow_joint": 0.448860365749995,
        "distance_shoulder_lift_joint": 0.23367053506338253,
        "distance_shoulder_pan_joint": 0.46341878165567996,
        "distance_wrist_1_joint": 0.2394785149007812,
        "distance_wrist_2_joint": 1.0911463682565459,
        "distance_wrist_3_joint": 0.08856307812458342,
        "smoothness": 2.2204460668324854e-16,
        "time": 0.016415673999999998,
        "traj_len": 1.6016047089562917,
        "weighted_distance": 2.0181399067352745
    },
    "planner": "RRT",
    "start": {
        "state": {
            "elbow_joint": 1.9715472970024885,
            "shoulder_lift_joint": -1.1394870060712896,
            "shoulder_pan_joint": 0.12281152778156021,
            "wrist_1_joint": -0.780463741449964,
            "wrist_2_joint": 0.12958659822042276,
            "wrist_3_joint": 3.090690232415272
        }
    },
    "waypoints": [
        {
            "positions": [
                0.12281152778156021,
                -1.1394870060712896,
                1.9715472970024885,
                -0.780463741449964,
                0.12958659822042276,
                3.090690232415272
            ]
        },
        {
            "positions": [
                0.05660884468789165,
                -1.1728685110803443,
                2.035670206395345,
                -0.8146749578643613,
                0.2854646508285007,
                3.1033421007187836
            ]
        },
        {
            "positions": [
                -0.009593838405776905,
                -1.206250016089399,
                2.0997931157882013,
                -0.8488861742787586,
                0.44134270343657866,
                3.1159939690222958
            ]
        },
        {
            "positions": [
                -0.07579652149944546,
                -1.2396315210984536,
                2.1639160251810576,
                -0.883097390693156,
                0.5972207560446566,
                3.1286458373258075
            ]
        },
        {
            "positions": [
                -0.14199920459311402,
                -1.273013026107508,
                2.228038934573914,
                -0.9173086071075532,
                0.7530988086527346,
                3.1412977056293196
            ]
        },
        {
            "positions": [
                -0.20820188768678263,
                -1.3063945311165628,
                2.292161843966771,
                -0.9515198235219506,
                0.9089768612608127,
                3.1539495739328314
            ]
        },
        {
            "positions": [
                -0.2744045707804511,
                -1.3397760361256175,
                2.356284753359627,
                -0.9857310399363479,
                1.0648549138688905,
                3.1666014422363435
            ]
        },
        {
            "positions": [
                -0.3406072538741197,
                -1.3731575411346721,
                2.4204076627524835,
                -1.0199422563507452,
                1.2207329664769686,
                3.1792533105398553
            ]
        }
    ]
}