{
    "goal": {
        "global_pose": {
            "orientation": {
                "w": 0.7047431468963623,
                "x": -0.7094548344612122,
                "y": 0.0024358443915843964,
                "z": -0.0022348060738295317
            },
            "position": {
                "x": 0.6094750761985779,
                "y": 0.3671506643295288,
                "z": 0.19426114857196808
            }
        },
        "name": "move_to_magneteinheit_A"
    },
    "id": "RRT_move_to_magneteinheit_A_126",
    "joint_names": [
        "shoulder_pan_joint",
        "shoulder_lift_joint",
        "elbow_joint",
        "wrist_1_joint",
        "wrist_2_joint",
        "wrist_3_joint"
    ],
    "metrics": {
        "cart_traj_len": 3.2752064663397684,
        "distance_elbow_joint": 3.899675635018723,
        "distance_shoulder_lift_joint": 0.3664034066837836,
        "distance_shoulder_pan_joint": 2.660643184906557,
        "distance_wrist_1_joint": 1.2777086388795906,
        "distance_wrist_2_joint": 1.7089508792943127,
        "distance_wrist_3_joint": 3.5957667924235692,
        "smoothness": 0.056435785099104324,
        "time": 0.045879885,
        "traj_len": 3.67547936155361,
        "weighted_distance": 4.866964314665516
    },
    "planner": "RRT",
    "start": {
        "state": {
            "elbow_joint": -1.9196185241190666,
            "shoulder_lift_joint": -1.2443396400964142,
            "shoulder_pan_joint": 2.6996025414629847,
            "wrist_1_joint": -1.5485510000780065,
            "wrist_2_joint": -1.5709468930060704,
            "wrist_3_joint": 0.4420197071253992
        }
    },
    "waypoints": [
        {
            "positions": [
                2.6996025414629847,
                -1.2443396400964142,
                -1.9196185241190666,
                -1.5485510000780065,
                -1.5709468930060704,
                0.4420197071253992
            ]
        },
        {
            "positions": [
                2.6130579460142425,
                -1.2498821044652844,
                -1.837633994865664,
                -1.5069087632836273,
                -1.5136974674809613,
                0.3306906426121675
            ]
        },
        {
            "positions": [
                2.5265133505655,
                -1.2554245688341545,
                -1.7556494656122612,
                -1.465266526489248,
                -1.4564480419558525,
                0.21936157809893592
            ]
        },
        {
            "positions": [
                2.439968755116758,
                -1.2609670332030247,
                -1.6736649363588585,
                -1.4236242896948688,
                -1.3991986164307435,
                0.10803251358570426
            ]
        },
        {
            "positions": [
                2.3534241596680157,
                -1.2665094975718947,
                -1.5916804071054558,
                -1.3819820529004894,
                -1.3419491909056347,
                -0.003296550927527342
            ]
        },
        {
            "positions": [
                2.2668795642192734,
                -1.2720519619407649,
                -1.5096958778520528,
                -1.3403398161061102,
                -1.2846997653805257,
                -0.114625615440759
            ]
        },
        {
            "positions": [
                2.1803349687705307,
                -1.277594426309635,
                -1.4277113485986501,
                -1.2986975793117308,
                -1.2274503398554168,
                -0.22595467995399066
            ]
        },
        {
            "positions": [
                2.0937903733217884,
                -1.2831368906785052,
                -1.3457268193452474,
                -1.2570553425173516,
                -1.1702009143303078,
                -0.3372837444672223
            ]
        },
        {
            "positions": [
                2.007245777873046,
                -1.2886793550473754,
                -1.2637422900918447,
                -1.2154131057229725,
                -1.1129514888051988,
                -0.44861280898045386
            ]
        },
        {
            "positions": [
                1.9207011824243039,
                -1.2942218194162454,
                -1.181757760838442,
                -1.173770868928593,
                -1.05570206328009,
                -0.5599418734936855
            ]
        },
        {
            "positions": [
                1.8341565869755616,
                -1.2997642837851155,
                -1.099773231585039,
                -1.1321286321342137,
                -0.9984526377549809,
                -0.6712709380069172
            ]
        },
        {
            "positions": [
                1.7476119915268193,
                -1.3053067481539857,
                -1.0177887023316365,
                -1.0904863953398345,
                -0.941203212229872,
                -0.7826000025201488
            ]
        },
        {
            "positions": [
                1.661067396078077,
                -1.310849212522856,
                -0.9358041730782337,
                -1.0488441585454553,
                -0.8839537867047631,
                -0.8939290670333805
            ]
        },
        {
            "positions": [
                1.5745228006293348,
                -1.316391676891726,
                -0.8538196438248311,
                -1.0072019217510761,
                -0.8267043611796542,
                -1.0052581315466118
            ]
        },
        {
            "positions": [
                1.4879782051805923,
                -1.3219341412605963,
                -0.7718351145714282,
                -0.9655596849566966,
                -0.7694549356545451,
                -1.116587196059844
            ]
        },
        {
            "positions": [
                1.4014336097318503,
                -1.3274766056294665,
                -0.6898505853180255,
                -0.9239174481623175,
                -0.7122055101294362,
                -1.2279162605730756
            ]
        },
        {
            "positions": [
                1.314889014283108,
                -1.3330190699983364,
                -0.6078660560646227,
                -0.8822752113679382,
                -0.6549560846043274,
                -1.3392453250863068
            ]
        },
        {
            "positions": [
                1.2283444188343655,
                -1.3385615343672066,
                -0.52588152681122,
                -0.8406329745735589,
                -0.5977066590792184,
                -1.4505743895995389
            ]
        },
        {
            "positions": [
                1.1417998233856232,
                -1.3441039987360768,
                -0.4438969975578173,
                -0.7989907377791796,
                -0.5404572335541096,
                -1.56190345411277
            ]
        },
        {
            "positions": [
                1.055255227936881,
                -1.349646463104947,
                -0.3619124683044146,
                -0.7573485009848004,
                -0.48320780802900054,
                -1.6732325186260018
            ]
        },
        {
            "positions": [
                0.9687106324881385,
                -1.3551889274738171,
                -0.27992793905101165,
                -0.715706264190421,
                -0.4259583825038915,
                -1.7845615831392334
            ]
        },
        {
            "positions": [
                0.8821660370393962,
                -1.360731391842687,
                -0.19794340979760894,
                -0.6740640273960419,
                -0.3687089569787827,
                -1.895890647652465
            ]
        },
        {
            "positions": [
                0.7956214415906542,
                -1.3662738562115573,
                -0.11595888054420644,
                -0.6324217906016626,
                -0.31145953145367367,
                -2.0072197121656967
            ]
        },
        {
            "positions": [
                0.7090768461419117,
                -1.3718163205804275,
                -0.033974351290803506,
                -0.5907795538072833,
                -0.25421010592856463,
                -2.1185487766789284
            ]
        },
        {
            "positions": [
                0.6225322506931694,
                -1.3773587849492976,
                0.04801017796259921,
                -0.549137317012904,
                -0.1969606804034557,
                -2.22987784119216
            ]
        },
        {
            "positions": [
                0.5548663664364446,
                -1.363380305109931,
                0.2090669961236536,
                -0.5539993255051591,
                -0.1568397579425788,
                -2.321261393891966
            ]
        },
        {
            "positions": [
                0.4872004821797199,
                -1.3494018252705642,
                0.370123814284708,
                -0.5588613339974141,
                -0.11671883548170185,
                -2.4126449465917723
            ]
        },
        {
            "positions": [
                0.41953459792299513,
                -1.3354233454311972,
                0.5311806324457624,
                -0.5637233424896692,
                -0.07659791302082491,
                -2.5040284992915782
            ]
        },
        {
            "positions": [
                0.35186871366627037,
                -1.3214448655918305,
                0.6922374506068167,
                -0.5685853509819241,
                -0.03647699055994799,
                -2.595412051991384
            ]
        },
        {
            "positions": [
                0.2842028294095456,
                -1.3074663857524638,
                0.8532942687678711,
                -0.5734473594741791,
                0.0036439319009289317,
                -2.6867956046911905
            ]
        },
        {
            "positions": [
                0.21653694515282085,
                -1.2934879059130968,
                1.0143510869289254,
                -0.5783093679664342,
                0.04376485436180588,
                -2.7781791573909964
            ]
        },
        {
            "positions": [
                0.14887106089609609,
                -1.27950942607373,
                1.17540790508998,
                -0.5831713764586892,
                0.08388577682268278,
                -2.8695627100908023
            ]
        },
        {
            "positions": [
                0.08120517663937127,
                -1.2655309462343634,
                1.3364647232510343,
                -0.5880333849509443,
                0.12400669928355972,
                -2.9609462627906087
            ]
        },
        {
            "positions": [
                0.08981280792838105,
                -1.2297863008550856,
                1.5285823974472021,
                -0.655032089683361,
                0.12715522987178804,
                -3.0215597068654545
            ]
        },
        {
            "positions": [
                0.09842043921739083,
                -1.194041655475808,
                1.7207000716433702,
                -0.7220307944157778,
                0.13030376046001635,
                -3.0821731509403
            ]
        },
        {
            "positions": [
                0.1070280705064006,
                -1.1582970100965302,
                1.9128177458395381,
                -0.7890294991481945,
                0.13345229104824466,
                -3.1427865950151457
            ]
        },
        {
            "positions": [
                0.12345099672231577,
                -1.1439745231183975,
                1.9800571108996559,
                -0.8274322728273922,
                0.12890059580824742,
                -3.15374708529817
            ]
        }
    ]
}