{
    "goal": {
        "global_pose": {
            "orientation": {
                "w": -0.00223480608172531,
                "x": 0.0024358444001904467,
                "y": 0.7094548369677653,
                "z": -0.704743149386269
            },
            "position": {
                "x": -0.37947507619857795,
                "y": -0.6371506643295288,
                "z": 0.19426114857196808
            }
        },
        "name": "move_to_magneteinheit_C"
    },
    "id": "RRT_move_to_magneteinheit_C_70",
    "joint_names": [
        "shoulder_pan_joint",
        "shoulder_lift_joint",
        "elbow_joint",
        "wrist_1_joint",
        "wrist_2_joint",
        "wrist_3_joint"
    ],
    "metrics": {
        "cart_traj_len": 3.3633638127945598,
        "distance_elbow_joint": 1.232577039378115,
        "distance_shoulder_lift_joint": 0.8796914537098952,
        "distance_shoulder_pan_joint": 3.0595431905749697,
        "distance_wrist_1_joint": 1.957629437417254,
        "distance_wrist_2_joint": 2.2695195585943138,
        "distance_wrist_3_joint": 1.1739524913509283,
        "smoothness": 1.2648925361637517,
        "time": 5.019146322,
        "traj_len": 3.251601631661769,
        "weighted_distance": 4.141010402032202
    },
    "planner": "RRT",
    "start": {
        "state": {
            "elbow_joint": 1.9565354010623817,
            "shoulder_lift_joint": -1.4165861575791021,
            "shoulder_pan_joint": -1.6717766225146293,
            "wrist_1_joint": -0.5286633292919765,
            "wrist_2_joint": 1.472756589071564,
            "wrist_3_joint": -3.1238370188695823
        }
    },
    "waypoints": [
        {
            "positions": [
                -1.6717766225146293,
                -1.4165861575791021,
                1.9565354010623817,
                -0.5286633292919765,
                1.472756589071564,
                -3.1238370188695823
            ]
        },
        {
            "positions": [
                -1.5248057712057457,
                -1.3911869340501417,
                1.9345404080222544,
                -0.4650025874275246,
                1.5321166924057985,
                -3.0509025707405324
            ]
        },
        {
            "positions": [
                -1.3778349198968618,
                -1.365787710521181,
                1.9125454149821273,
                -0.40134184556307273,
                1.591476795740033,
                -2.977968122611482
            ]
        },
        {
            "positions": [
                -1.2308640685879781,
                -1.3403884869922207,
                1.8905504219420002,
                -0.3376811036986208,
                1.6508368990742674,
                -2.905033674482432
            ]
        },
        {
            "positions": [
                -1.0838932172790945,
                -1.3149892634632603,
                1.8685554289018729,
                -0.27402036183416895,
                1.710197002408502,
                -2.832099226353382
            ]
        },
        {
            "positions": [
                -0.9369223659702106,
                -1.2895900399342997,
                1.8465604358617456,
                -0.21035961996971703,
                1.7695571057427366,
                -2.759164778224332
            ]
        },
        {
            "positions": [
                -0.789951514661327,
                -1.2641908164053393,
                1.8245654428216185,
                -0.14669887810526516,
                1.8289172090769712,
                -2.686230330095282
            ]
        },
        {
            "positions": [
                -0.8072164155719298,
                -1.3048698746343965,
                1.7593811636952206,
                -0.2516902422623039,
                1.7016772139087968,
                -2.723677398533659
            ]
        },
        {
            "positions": [
                -0.8244813164825328,
                -1.345548932863454,
                1.694196884568823,
                -0.35668160641934266,
                1.5744372187406224,
                -2.761124466972036
            ]
        },
        {
            "positions": [
                -0.8417462173931356,
                -1.3862279910925113,
                1.629012605442425,
                -0.46167297057638135,
                1.447197223572448,
                -2.798571535410413
            ]
        },
        {
            "positions": [
                -0.8590111183037386,
                -1.4269070493215685,
                1.5638283263160273,
                -0.5666643347334201,
                1.3199572284042738,
                -2.8360186038487902
            ]
        },
        {
            "positions": [
                -0.8762760192143414,
                -1.467586107550626,
                1.4986440471896294,
                -0.6716556988904588,
                1.1927172332360994,
                -2.873465672287167
            ]
        },
        {
            "positions": [
                -0.8935409201249442,
                -1.5082651657796833,
                1.4334597680632317,
                -0.7766470630474975,
                1.065477238067925,
                -2.910912740725544
            ]
        },
        {
            "positions": [
                -0.9108058210355472,
                -1.5489442240087405,
                1.3682754889368338,
                -0.8816384272045363,
                0.9382372428997504,
                -2.948359809163921
            ]
        },
        {
            "positions": [
                -1.1049586271134086,
                -1.532754860202016,
                1.3834566403400141,
                -0.9266005199402207,
                0.8664880553836246,
                -2.9324719280137415
            ]
        },
        {
            "positions": [
                -1.2991114331912703,
                -1.5165654963952915,
                1.3986377917431945,
                -0.971562612675905,
                0.7947388678674989,
                -2.916584046863562
            ]
        },
        {
            "positions": [
                -1.4932642392691318,
                -1.500376132588567,
                1.4138189431463748,
                -1.0165247054115893,
                0.7229896803513731,
                -2.9006961657133825
            ]
        },
        {
            "positions": [
                -1.6874170453469932,
                -1.4841867687818424,
                1.4290000945495551,
                -1.0614867981472738,
                0.6512404928352473,
                -2.884808284563203
            ]
        },
        {
            "positions": [
                -1.8815698514248549,
                -1.4679974049751179,
                1.4441812459527354,
                -1.1064488908829582,
                0.5794913053191215,
                -2.8689204034130236
            ]
        },
        {
            "positions": [
                -2.075722657502716,
                -1.4518080411683933,
                1.4593623973559158,
                -1.1514109836186424,
                0.5077421178029957,
                -2.853032522262844
            ]
        },
        {
            "positions": [
                -2.2698754635805782,
                -1.4356186773616688,
                1.474543548759096,
                -1.1963730763543268,
                0.4359929302868699,
                -2.837144641112664
            ]
        },
        {
            "positions": [
                -2.4640282696584395,
                -1.4194293135549443,
                1.4897247001622764,
                -1.2413351690900112,
                0.3642437427707442,
                -2.821256759962485
            ]
        },
        {
            "positions": [
                -2.658181075736301,
                -1.4032399497482198,
                1.5049058515654568,
                -1.2862972618256956,
                0.29249455525461837,
                -2.8053688788123052
            ]
        },
        {
            "positions": [
                -2.673860222684476,
                -1.3361369385482191,
                1.5939772977044249,
                -1.2061000616365245,
                0.35663637800158016,
                -2.856159505003821
            ]
        },
        {
            "positions": [
                -2.6895393696326506,
                -1.2690339273482185,
                1.683048743843393,
                -1.1259028614473532,
                0.4207782007485419,
                -2.906950131195336
            ]
        },
        {
            "positions": [
                -2.7052185165808256,
                -1.2019309161482181,
                1.7721201899823609,
                -1.045705661258182,
                0.48492002349550367,
                -2.9577407573868513
            ]
        },
        {
            "positions": [
                -2.7208976635290005,
                -1.1348279049482175,
                1.861191636121329,
                -0.9655084610690109,
                0.5490618462424655,
                -3.008531383578367
            ]
        },
        {
            "positions": [
                -2.5975116966020035,
                -1.1490410978843215,
                1.936892126155365,
                -0.907869560192297,
                0.6092463431318185,
                -3.072562827773522
            ]
        },
        {
            "positions": [
                -2.4741257296750065,
                -1.1632542908204255,
                2.012592616189401,
                -0.8502306593155833,
                0.6694308400211715,
                -3.136594271968678
            ]
        }
    ]
}