{
    "goal": {
        "global_pose": {
            "orientation": {
                "w": 0.7047431493862688,
                "x": -0.7094548369677653,
                "y": 0.0024358444001904,
                "z": -0.0022348060817251984
            },
            "position": {
                "x": -0.39052492380142206,
                "y": 0.3671506643295288,
                "z": 0.19426114857196808
            }
        },
        "name": "move_to_magneteinheit_D"
    },
    "id": "RRT_move_to_magneteinheit_D_129",
    "joint_names": [
        "shoulder_pan_joint",
        "shoulder_lift_joint",
        "elbow_joint",
        "wrist_1_joint",
        "wrist_2_joint",
        "wrist_3_joint"
    ],
    "metrics": {
        "cart_traj_len": 4.342165374960622,
        "distance_elbow_joint": 3.1130288607521024,
        "distance_shoulder_lift_joint": 1.478617103916018,
        "distance_shoulder_pan_joint": 3.1821947913261583,
        "distance_wrist_1_joint": 3.111647939874424,
        "distance_wrist_2_joint": 0.994405639130274,
        "distance_wrist_3_joint": 6.287771507778878,
        "smoothness": 0.29946618820269955,
        "time": 0.287553218,
        "traj_len": 4.262354495203074,
        "weighted_distance": 5.903326387498857
    },
    "planner": "RRT",
    "start": {
        "state": {
            "elbow_joint": 0.749534889911806,
            "shoulder_lift_joint": -0.6476975780787326,
            "shoulder_pan_joint": -2.711696901376241,
            "wrist_1_joint": -0.07506478083263063,
            "wrist_2_joint": 0.43296659715538205,
            "wrist_3_joint": -3.14703540197715
        }
    },
    "waypoints": [
        {
            "positions": [
                -2.711696901376241,
                -0.6476975780787326,
                0.749534889911806,
                -0.07506478083263063,
                0.43296659715538205,
                -3.14703540197715
            ]
        },
        {
            "positions": [
                -2.7213017847007834,
                -0.6249853322469996,
                0.6849438654327892,
                -0.004562226088487165,
                0.37911438246690954,
                -2.977864548568857
            ]
        },
        {
            "positions": [
                -2.730906668025326,
                -0.6022730864152664,
                0.6203528409537724,
                0.0659403286556563,
                0.325262167778437,
                -2.8086936951605637
            ]
        },
        {
            "positions": [
                -2.740511551349868,
                -0.5795608405835334,
                0.5557618164747556,
                0.13644288339979976,
                0.27140995308996446,
                -2.639522841752271
            ]
        },
        {
            "positions": [
                -2.750116434674411,
                -0.5568485947518003,
                0.4911707919957389,
                0.20694543814394323,
                0.21755773840149192,
                -2.4703519883439777
            ]
        },
        {
            "positions": [
                -2.7597213179989533,
                -0.5341363489200672,
                0.4265797675167221,
                0.2774479928880867,
                0.16370552371301939,
                -2.3011811349356845
            ]
        },
        {
            "positions": [
                -2.7693262013234956,
                -0.5114241030883342,
                0.36198874303770534,
                0.34795054763223016,
                0.10985330902454687,
                -2.1320102815273914
            ]
        },
        {
            "positions": [
                -2.778931084648038,
                -0.48871185725660105,
                0.2973977185586886,
                0.4184531023763736,
                0.056001094336074315,
                -1.9628394281190982
            ]
        },
        {
            "positions": [
                -2.6919410693848462,
                -0.5199069647193415,
                0.22547067839841806,
                0.3515211961185326,
                0.03709636847250705,
                -1.8601910896543679
            ]
        },
        {
            "positions": [
                -2.604951054121654,
                -0.5511020721820821,
                0.15354363823814757,
                0.28458928986069154,
                0.01819164260893979,
                -1.7575427511896373
            ]
        },
        {
            "positions": [
                -2.517961038858462,
                -0.5822971796448226,
                0.08161659807787705,
                0.21765738360285053,
                -0.0007130832546274821,
                -1.654894412724907
            ]
        },
        {
            "positions": [
                -2.43097102359527,
                -0.6134922871075631,
                0.009689557917606562,
                0.15072547734500952,
                -0.01961780911819474,
                -1.5522460742601767
            ]
        },
        {
            "positions": [
                -2.3439810083320785,
                -0.6446873945703036,
                -0.062237482242663955,
                0.08379357108716845,
                -0.03852253498176201,
                -1.4495977357954462
            ]
        },
        {
            "positions": [
                -2.2569909930688863,
                -0.6758825020330441,
                -0.13416452240293447,
                0.01686166482932744,
                -0.05742726084532928,
                -1.3469493973307158
            ]
        },
        {
            "positions": [
                -2.1700009778056946,
                -0.7070776094957846,
                -0.20609156256320493,
                -0.05007024142851357,
                -0.07633198670889654,
                -1.2443010588659855
            ]
        },
        {
            "positions": [
                -2.0830109625425024,
                -0.7382727169585251,
                -0.27801860272347545,
                -0.11700214768635459,
                -0.0952367125724638,
                -1.1416527204012552
            ]
        },
        {
            "positions": [
                -1.9960209472793107,
                -0.7694678244212656,
                -0.34994564288374597,
                -0.18393405394419565,
                -0.11414143843603108,
                -1.039004381936525
            ]
        },
        {
            "positions": [
                -1.9090309320161185,
                -0.8006629318840062,
                -0.4218726830440165,
                -0.2508659602020367,
                -0.13304616429959834,
                -0.9363560434717944
            ]
        },
        {
            "positions": [
                -1.8220409167529268,
                -0.8318580393467467,
                -0.493799723204287,
                -0.3177978664598777,
                -0.15195089016316563,
                -0.833707705007064
            ]
        },
        {
            "positions": [
                -1.7350509014897346,
                -0.8630531468094872,
                -0.5657267633645575,
                -0.38472977271771874,
                -0.17085561602673288,
                -0.7310593665423335
            ]
        },
        {
            "positions": [
                -1.648060886226543,
                -0.8942482542722276,
                -0.6376538035248279,
                -0.4516616789755597,
                -0.1897603418903001,
                -0.6284110280776034
            ]
        },
        {
            "positions": [
                -1.561070870963351,
                -0.9254433617349682,
                -0.7095808436850984,
                -0.5185935852334007,
                -0.2086650677538674,
                -0.5257626896128729
            ]
        },
        {
            "positions": [
                -1.474080855700159,
                -0.9566384691977087,
                -0.781507883845369,
                -0.5855254914912418,
                -0.22756979361743468,
                -0.42311435114814255
            ]
        },
        {
            "positions": [
                -1.387090840436967,
                -0.9878335766604491,
                -0.8534349240056395,
                -0.6524573977490828,
                -0.2464745194810019,
                -0.320466012683412
            ]
        },
        {
            "positions": [
                -1.3001008251737751,
                -1.0190286841231897,
                -0.9253619641659101,
                -0.7193893040069238,
                -0.2653792453445692,
                -0.2178176742186817
            ]
        },
        {
            "positions": [
                -1.2100255184006217,
                -1.0455106310925746,
                -0.9801682255045355,
                -0.7784339709881061,
                -0.27295951475262675,
                -0.0773915779116773
            ]
        },
        {
            "positions": [
                -1.1199502116274682,
                -1.0719925780619592,
                -1.034974486843161,
                -0.8374786379692885,
                -0.2805397841606843,
                0.06303451839532709
            ]
        },
        {
            "positions": [
                -1.0298749048543148,
                -1.0984745250313441,
                -1.0897807481817863,
                -0.8965233049504708,
                -0.2881200535687419,
                0.2034606147023315
            ]
        },
        {
            "positions": [
                -0.9397995980811613,
                -1.1249564720007288,
                -1.1445870095204118,
                -0.9555679719316531,
                -0.29570032297679943,
                0.3438867110093359
            ]
        },
        {
            "positions": [
                -0.8497242913080079,
                -1.1514384189701137,
                -1.1993932708590371,
                -1.0146126389128354,
                -0.303280592384857,
                0.4843128073163403
            ]
        },
        {
            "positions": [
                -0.7596489845348544,
                -1.1779203659394986,
                -1.2541995321976624,
                -1.0736573058940178,
                -0.31086086179291456,
                0.6247389036233447
            ]
        },
        {
            "positions": [
                -0.669573677761701,
                -1.2044023129088832,
                -1.309005793536288,
                -1.1327019728752001,
                -0.3184411312009721,
                0.765164999930349
            ]
        },
        {
            "positions": [
                -0.5794983709885474,
                -1.230884259878268,
                -1.3638120548749133,
                -1.1917466398563823,
                -0.3260214006090297,
                0.9055910962373535
            ]
        },
        {
            "positions": [
                -0.48942306421539394,
                -1.2573662068476528,
                -1.4186183162135388,
                -1.2507913068375647,
                -0.33360167001708724,
                1.046017192544358
            ]
        },
        {
            "positions": [
                -0.3993477574422405,
                -1.2838481538170377,
                -1.4734245775521642,
                -1.309835973818747,
                -0.3411819394251448,
                1.1864432888513623
            ]
        },
        {
            "positions": [
                -0.35979849589305624,
                -1.3248737956144154,
                -1.5389971302847112,
                -1.3825704826463774,
                -0.3433950793380306,
                1.3412063303213677
            ]
        },
        {
            "positions": [
                -0.3202492343438719,
                -1.3658994374117932,
                -1.6045696830172584,
                -1.4553049914740075,
                -0.34560821925091645,
                1.4959693717913733
            ]
        },
        {
            "positions": [
                -0.2806999727946876,
                -1.406925079209171,
                -1.6701422357498055,
                -1.5280395003016378,
                -0.3478213591638023,
                1.650732413261379
            ]
        },
        {
            "positions": [
                -0.24115071124550336,
                -1.4479507210065485,
                -1.7357147884823525,
                -1.600774009129268,
                -0.3500344990766881,
                1.8054954547313844
            ]
        },
        {
            "positions": [
                -0.20160144969631905,
                -1.4889763628039263,
                -1.8012873412148995,
                -1.6735085179568983,
                -0.3522476389895739,
                1.96025849620139
            ]
        },
        {
            "positions": [
                -0.16205218814713476,
                -1.530002004601304,
                -1.8668598939474466,
                -1.7462430267845286,
                -0.35446077890245975,
                2.1150215376713954
            ]
        },
        {
            "positions": [
                -0.12250292659795048,
                -1.5710276463986819,
                -1.9324324466799938,
                -1.818977535612159,
                -0.3566739188153456,
                2.269784579141401
            ]
        },
        {
            "positions": [
                -0.08295366504876622,
                -1.6120532881960594,
                -1.9980049994125408,
                -1.891712044439789,
                -0.3588870587282314,
                2.4245476206114063
            ]
        },
        {
            "positions": [
                -0.04340440349958191,
                -1.6530789299934372,
                -2.063577552145088,
                -1.9644465532674193,
                -0.3611001986411172,
                2.5793106620814124
            ]
        },
        {
            "positions": [
                -0.0038551419503976003,
                -1.694104571790815,
                -2.129150104877635,
                -2.0371810620950495,
                -0.36331333855400305,
                2.7340737035514175
            ]
        },
        {
            "positions": [
                0.035694119598786656,
                -1.7351302135881927,
                -2.194722657610182,
                -2.10991557092268,
                -0.3655264784668889,
                2.888836745021423
            ]
        },
        {
            "positions": [
                0.07524338114797097,
                -1.7761558553855705,
                -2.260295210342729,
                -2.18265007975031,
                -0.3677396183797747,
                3.043599786491429
            ]
        },
        {
            "positions": [
                -0.05514968998120623,
                -1.760062162903112,
                -2.3118945905915114,
                -2.174136642480943,
                -0.2708899065822161,
                3.09216794614658
            ]
        },
        {
            "positions": [
                -0.18554276111038343,
                -1.7439684704206535,
                -2.363493970840294,
                -2.165623205211576,
                -0.17404019478465751,
                3.1407361058017313
            ]
        }
    ]
}