{
    "goal": {
        "global_pose": {
            "orientation": {
                "w": 0.7031023480610252,
                "x": -0.7110244013736278,
                "y": 0.0077485991402295624,
                "z": 0.005598929693374583
            },
            "position": {
                "x": -0.8841497679147869,
                "y": 0.44412534475326537,
                "z": 0.3711530566215515
            }
        },
        "name": "move_to_auspresseinheit_D"
    },
    "id": "RRT_move_to_auspresseinheit_D_121",
    "joint_names": [
        "shoulder_pan_joint",
        "shoulder_lift_joint",
        "elbow_joint",
        "wrist_1_joint",
        "wrist_2_joint",
        "wrist_3_joint"
    ],
    "metrics": {
        "cart_traj_len": 0.3429060798865689,
        "distance_elbow_joint": 0.640958985001828,
        "distance_shoulder_lift_joint": 0.12332529939926085,
        "distance_shoulder_pan_joint": 0.13419610137670973,
        "distance_wrist_1_joint": 0.5452121920453794,
        "distance_wrist_2_joint": 1.4315350423152506,
        "distance_wrist_3_joint": 0.007347465189663893,
        "smoothness": 0.0,
        "time": 0.019335726,
        "traj_len": 1.697814797122493,
        "weighted_distance": 2.2077176563292804
    },
    "planner": "RRT",
    "start": {
        "state": {
            "elbow_joint": -1.8275523626775212,
            "shoulder_lift_joint": -2.126789852344167,
            "shoulder_pan_joint": -0.03513704404078235,
            "wrist_1_joint": -2.347782403156801,
            "wrist_2_joint": -1.6058999987535132,
            "wrist_3_joint": -3.0880379163319196
        }
    },
    "waypoints": [
        {
            "positions": [
                -0.03513704404078235,
                -2.126789852344167,
                -1.8275523626775212,
                -2.347782403156801,
                -1.6058999987535132,
                -3.0880379163319196
            ]
        },
        {
            "positions": [
                -0.051911556712871065,
                -2.1422055147690746,
                -1.7474324895522928,
                -2.4159339271624733,
                -1.426958118464107,
                -3.0871194831832116
            ]
        },
        {
            "positions": [
                -0.06868606938495977,
                -2.157621177193982,
                -1.6673126164270642,
                -2.484085451168146,
                -1.2480162381747006,
                -3.0862010500345036
            ]
        },
        {
            "positions": [
                -0.0854605820570485,
                -2.1730368396188897,
                -1.5871927433018356,
                -2.5522369751738183,
                -1.0690743578852941,
                -3.0852826168857956
            ]
        },
        {
            "positions": [
                -0.10223509472913722,
                -2.1884525020437975,
                -1.5070728701766072,
                -2.620388499179491,
                -0.8901324775958879,
                -3.0843641837370877
            ]
        },
        {
            "positions": [
                -0.11900960740122593,
                -2.203868164468705,
                -1.4269529970513788,
                -2.688540023185163,
                -0.7111905973064816,
                -3.0834457505883797
            ]
        },
        {
            "positions": [
                -0.13578412007331464,
                -2.2192838268936126,
                -1.3468331239261502,
                -2.7566915471908353,
                -0.5322487170170751,
                -3.0825273174396717
            ]
        },
        {
            "positions": [
                -0.15255863274540338,
                -2.23469948931852,
                -1.2667132508009216,
                -2.824843071196508,
                -0.3533068367276688,
                -3.0816088842909637
            ]
        },
        {
            "positions": [
                -0.1693331454174921,
                -2.2501151517434277,
                -1.1865933776756932,
                -2.8929945952021803,
                -0.1743649564382625,
                -3.0806904511422557
            ]
        }
    ]
}