{
    "goal": {
        "global_pose": {
            "orientation": {
                "w": -0.4816463035849501,
                "x": 0.5182115481033762,
                "y": 0.4908360881923453,
                "z": -0.5084816262002911
            },
            "position": {
                "x": -0.8240239810943604,
                "y": -0.300875300988555,
                "z": 0.16403168439865112
            }
        },
        "name": "move_to_storage_C"
    },
    "id": "RRT_move_to_storage_C_122",
    "joint_names": [
        "shoulder_pan_joint",
        "shoulder_lift_joint",
        "elbow_joint",
        "wrist_1_joint",
        "wrist_2_joint",
        "wrist_3_joint"
    ],
    "metrics": {
        "cart_traj_len": 0.5774115652926307,
        "distance_elbow_joint": 0.2586882085677098,
        "distance_shoulder_lift_joint": 0.1899265479389376,
        "distance_shoulder_pan_joint": 0.49453901898781893,
        "distance_wrist_1_joint": 0.07638430005150387,
        "distance_wrist_2_joint": 1.0733303460344388,
        "distance_wrist_3_joint": 0.05901317163653941,
        "smoothness": 0.0,
        "time": 0.011039957,
        "traj_len": 1.4669293075049488,
        "weighted_distance": 1.8492221560904927
    },
    "planner": "RRT",
    "start": {
        "state": {
            "elbow_joint": 2.010868314990456,
            "shoulder_lift_joint": -1.1634956873337592,
            "shoulder_pan_joint": -2.4736205022346125,
            "wrist_1_joint": -0.8367026794202681,
            "wrist_2_joint": 0.6746043897044499,
            "wrist_3_joint": -3.1496632123970403
        }
    },
    "waypoints": [
        {
            "positions": [
                -2.4736205022346125,
                -1.1634956873337592,
                2.010868314990456,
                -0.8367026794202681,
                0.6746043897044499,
                -3.1496632123970403
            ]
        },
        {
            "positions": [
                -2.5560436720659157,
                -1.1318412626772696,
                1.9677536135625042,
                -0.8239719627450175,
                0.8534927807101897,
                -3.1398276837909505
            ]
        },
        {
            "positions": [
                -2.638466841897219,
                -1.10018683802078,
                1.9246389121345526,
                -0.8112412460697668,
                1.0323811717159295,
                -3.1299921551848606
            ]
        },
        {
            "positions": [
                -2.720890011728522,
                -1.0685324133642904,
                1.8815242107066008,
                -0.7985105293945162,
                1.2112695627216694,
                -3.120156626578771
            ]
        },
        {
            "positions": [
                -2.803313181559825,
                -1.0368779887078008,
                1.8384095092786492,
                -0.7857798127192656,
                1.390157953727409,
                -3.1103210979726805
            ]
        },
        {
            "positions": [
                -2.8857363513911283,
                -1.0052235640513112,
                1.7952948078506976,
                -0.7730490960440148,
                1.5690463447331489,
                -3.1004855693665907
            ]
        },
        {
            "positions": [
                -2.9681595212224314,
                -0.9735691393948216,
                1.752180106422746,
                -0.7603183793687642,
                1.7479347357388888,
                -3.090650040760501
            ]
        }
    ]
}