{
    "goal": {
        "global_pose": {
            "orientation": {
                "w": 0.7047431493862688,
                "x": -0.7094548369677653,
                "y": 0.0024358444001904,
                "z": -0.0022348060817251984
            },
            "position": {
                "x": -0.39052492380142206,
                "y": 0.3671506643295288,
                "z": 0.19426114857196808
            }
        },
        "name": "move_to_magneteinheit_D"
    },
    "id": "RRT_move_to_magneteinheit_D_80",
    "joint_names": [
        "shoulder_pan_joint",
        "shoulder_lift_joint",
        "elbow_joint",
        "wrist_1_joint",
        "wrist_2_joint",
        "wrist_3_joint"
    ],
    "metrics": {
        "cart_traj_len": 6.034606334655963,
        "distance_elbow_joint": 4.587453967412224,
        "distance_shoulder_lift_joint": 1.6292583896604917,
        "distance_shoulder_pan_joint": 7.988037960476505,
        "distance_wrist_1_joint": 2.675090265064304,
        "distance_wrist_2_joint": 4.117195039630975,
        "distance_wrist_3_joint": 6.191222440040715,
        "smoothness": 0.5870244990692426,
        "time": 0.675387761,
        "traj_len": 5.214236095756044,
        "weighted_distance": 6.809037248177009
    },
    "planner": "RRT",
    "start": {
        "state": {
            "elbow_joint": 0.749534889911806,
            "shoulder_lift_joint": -0.6476975780787326,
            "shoulder_pan_joint": -2.711696901376241,
            "wrist_1_joint": -0.07506478083263063,
            "wrist_2_joint": 0.43296659715538205,
            "wrist_3_joint": -3.14703540197715
        }
    },
    "waypoints": [
        {
            "positions": [
                -2.711696901376241,
                -0.6476975780787326,
                0.749534889911806,
                -0.07506478083263063,
                0.43296659715538205,
                -3.14703540197715
            ]
        },
        {
            "positions": [
                -2.699309528213275,
                -0.7123542661269335,
                0.6555944431373253,
                -0.15738238918005865,
                0.48766718217173144,
                -3.0597813658724826
            ]
        },
        {
            "positions": [
                -2.6869221550503086,
                -0.7770109541751344,
                0.5616539963628447,
                -0.2396999975274867,
                0.5423677671880808,
                -2.9725273297678156
            ]
        },
        {
            "positions": [
                -2.558975269873267,
                -0.8036232454232276,
                0.49701817664823755,
                -0.18216151124138197,
                0.5032268878438909,
                -2.902275972466627
            ]
        },
        {
            "positions": [
                -2.4310283846962255,
                -0.8302355366713208,
                0.43238235693363036,
                -0.12462302495527727,
                0.464086008499701,
                -2.8320246151654382
            ]
        },
        {
            "positions": [
                -2.3030814995191844,
                -0.8568478279194138,
                0.3677465372190232,
                -0.06708453866917258,
                0.42494512915551114,
                -2.7617732578642498
            ]
        },
        {
            "positions": [
                -2.175134614342143,
                -0.883460119167507,
                0.303110717504416,
                -0.009546052383067855,
                0.3858042498113212,
                -2.691521900563061
            ]
        },
        {
            "positions": [
                -2.0471877291651013,
                -0.9100724104156002,
                0.2384748977898088,
                0.04799243390303684,
                0.34666337046713136,
                -2.6212705432618724
            ]
        },
        {
            "positions": [
                -1.9192408439880597,
                -0.9366847016636933,
                0.1738390780752016,
                0.10553092018914154,
                0.3075224911229415,
                -2.5510191859606834
            ]
        },
        {
            "positions": [
                -1.7912939588110184,
                -0.9632969929117865,
                0.10920325836059447,
                0.16306940647524623,
                0.26838161177875164,
                -2.480767828659495
            ]
        },
        {
            "positions": [
                -1.6633470736339768,
                -0.9899092841598796,
                0.04456743864598722,
                0.22060789276135098,
                0.22924073243456172,
                -2.410516471358306
            ]
        },
        {
            "positions": [
                -1.5354001884569353,
                -1.0165215754079728,
                -0.020068381068619967,
                0.27814637904745565,
                0.19009985309037186,
                -2.3402651140571176
            ]
        },
        {
            "positions": [
                -1.407453303279894,
                -1.0431338666560659,
                -0.08470420078322716,
                0.33568486533356034,
                0.150958973746182,
                -2.2700137567559286
            ]
        },
        {
            "positions": [
                -1.2795064181028524,
                -1.069746157904159,
                -0.14934002049783446,
                0.39322335161966515,
                0.11181809440199209,
                -2.19976239945474
            ]
        },
        {
            "positions": [
                -1.151559532925811,
                -1.0963584491522522,
                -0.21397584021244154,
                0.45076183790576974,
                0.07267721505780228,
                -2.1295110421535512
            ]
        },
        {
            "positions": [
                -1.0236126477487695,
                -1.1229707404003453,
                -0.2786116599270487,
                0.5083003241918745,
                0.033536335713612364,
                -2.0592596848523628
            ]
        },
        {
            "positions": [
                -0.8956657625717281,
                -1.1495830316484383,
                -0.3432474796416558,
                0.5658388104779791,
                -0.0056045436305774965,
                -1.989008327551174
            ]
        },
        {
            "positions": [
                -0.7677188773946866,
                -1.1761953228965316,
                -0.4078832993562631,
                0.6233772967640838,
                -0.04474542297476736,
                -1.9187569702499854
            ]
        },
        {
            "positions": [
                -0.639771992217645,
                -1.202807614144625,
                -0.4725191190708703,
                0.6809157830501886,
                -0.08388630231895733,
                -1.8485056129487967
            ]
        },
        {
            "positions": [
                -0.5118251070406039,
                -1.229419905392718,
                -0.5371549387854774,
                0.7384542693362932,
                -0.12302718166314708,
                -1.778254255647608
            ]
        },
        {
            "positions": [
                -0.3838782218635619,
                -1.256032196640811,
                -0.6017907585000847,
                0.795992755622398,
                -0.16216806100733705,
                -1.7080028983464193
            ]
        },
        {
            "positions": [
                -0.2559313366865208,
                -1.2826444878889043,
                -0.6664265782146918,
                0.8535312419085026,
                -0.2013089403515269,
                -1.6377515410452306
            ]
        },
        {
            "positions": [
                -0.1279844515094793,
                -1.3092567791369973,
                -0.7310623979292991,
                0.9110697281946074,
                -0.2404498196957168,
                -1.5675001837440419
            ]
        },
        {
            "positions": [
                -0.011712424803646551,
                -1.3196456682603002,
                -0.6995502649147196,
                0.893712232217169,
                -0.16138785611607315,
                -1.432159962659863
            ]
        },
        {
            "positions": [
                0.10455960190218619,
                -1.330034557383603,
                -0.6680381319001402,
                0.8763547362397306,
                -0.0823258925364295,
                -1.2968197415756841
            ]
        },
        {
            "positions": [
                0.22083162860801892,
                -1.3404234465069058,
                -0.6365259988855607,
                0.8589972402622922,
                -0.0032639289567858165,
                -1.1614795204915054
            ]
        },
        {
            "positions": [
                0.33710365531385167,
                -1.3508123356302086,
                -0.6050138658709813,
                0.8416397442848538,
                0.07579803462285781,
                -1.0261392994073264
            ]
        },
        {
            "positions": [
                0.4533756820196844,
                -1.3612012247535115,
                -0.5735017328564018,
                0.8242822483074154,
                0.1548599982025015,
                -0.8907990783231475
            ]
        },
        {
            "positions": [
                0.5696477087255172,
                -1.3715901138768145,
                -0.5419895998418224,
                0.806924752329977,
                0.23392196178214517,
                -0.7554588572389687
            ]
        },
        {
            "positions": [
                0.68591973543135,
                -1.3819790030001173,
                -0.5104774668272429,
                0.7895672563525385,
                0.3129839253617889,
                -0.6201186361547897
            ]
        },
        {
            "positions": [
                0.8021917621371826,
                -1.3923678921234202,
                -0.4789653338126635,
                0.7722097603751001,
                0.39204588894143244,
                -0.4847784150706109
            ]
        },
        {
            "positions": [
                0.9184637888430154,
                -1.402756781246723,
                -0.44745320079808404,
                0.7548522643976617,
                0.47110785252107623,
                -0.34943819398643194
            ]
        },
        {
            "positions": [
                1.0347358155488482,
                -1.4131456703700258,
                -0.4159410677835046,
                0.7374947684202233,
                0.5501698161007198,
                -0.2140979729022532
            ]
        },
        {
            "positions": [
                1.151007842254681,
                -1.4235345594933286,
                -0.38442893476892515,
                0.720137272442785,
                0.6292317796803635,
                -0.0787577518180742
            ]
        },
        {
            "positions": [
                1.2672798689605136,
                -1.4339234486166315,
                -0.3529168017543457,
                0.7027797764653465,
                0.7082937432600072,
                0.05658246926610455
            ]
        },
        {
            "positions": [
                1.3835518956663464,
                -1.4443123377399343,
                -0.3214046687397663,
                0.6854222804879082,
                0.7873557068396508,
                0.1919226903502833
            ]
        },
        {
            "positions": [
                1.4998239223721792,
                -1.454701226863237,
                -0.28989253572518675,
                0.6680647845104697,
                0.8664176704192945,
                0.3272629114344625
            ]
        },
        {
            "positions": [
                1.616095949078012,
                -1.46509011598654,
                -0.25838040271060736,
                0.6507072885330314,
                0.9454796339989382,
                0.46260313251864127
            ]
        },
        {
            "positions": [
                1.7323679757838446,
                -1.4754790051098428,
                -0.2268682696960279,
                0.633349792555593,
                1.0245415975785817,
                0.59794335360282
            ]
        },
        {
            "positions": [
                1.8486400024896772,
                -1.4858678942331456,
                -0.19535613668144847,
                0.6159922965781546,
                1.1036035611582253,
                0.7332835746869988
            ]
        },
        {
            "positions": [
                1.96491202919551,
                -1.4962567833564486,
                -0.16384400366686902,
                0.598634800600716,
                1.1826655247378692,
                0.868623795771178
            ]
        },
        {
            "positions": [
                2.081184055901343,
                -1.5066456724797515,
                -0.13233187065228957,
                0.5812773046232778,
                1.2617274883175127,
                1.0039640168553567
            ]
        },
        {
            "positions": [
                2.1974560826071756,
                -1.5170345616030543,
                -0.10081973763771013,
                0.5639198086458393,
                1.3407894518971564,
                1.1393042379395355
            ]
        },
        {
            "positions": [
                2.313728109313008,
                -1.527423450726357,
                -0.06930760462313068,
                0.5465623126684009,
                1.4198514154768,
                1.2746444590237143
            ]
        },
        {
            "positions": [
                2.4300001360188412,
                -1.53781233984966,
                -0.037795471608551234,
                0.5292048166909625,
                1.4989133790564437,
                1.4099846801078935
            ]
        },
        {
            "positions": [
                2.546272162724674,
                -1.5482012289729628,
                -0.006283338593971788,
                0.5118473207135241,
                1.5779753426360874,
                1.5453249011920724
            ]
        },
        {
            "positions": [
                2.43706940686965,
                -1.5773514185236133,
                -0.10156644340340341,
                0.550265837320175,
                1.5217132978207806,
                1.4853704157172125
            ]
        },
        {
            "positions": [
                2.3278666510146264,
                -1.6065016080742638,
                -0.19684954821283504,
                0.5886843539268259,
                1.4654512530054737,
                1.4254159302423526
            ]
        },
        {
            "positions": [
                2.2186638951596027,
                -1.635651797624914,
                -0.29213265302226665,
                0.6271028705334768,
                1.409189208190167,
                1.3654614447674926
            ]
        },
        {
            "positions": [
                2.109461139304579,
                -1.6648019871755646,
                -0.3874157578316983,
                0.6655213871401278,
                1.35292716337486,
                1.3055069592926327
            ]
        },
        {
            "positions": [
                2.0002583834495553,
                -1.6939521767262151,
                -0.48269886264112993,
                0.7039399037467786,
                1.2966651185595532,
                1.2455524738177728
            ]
        },
        {
            "positions": [
                1.8910556275945316,
                -1.7231023662768656,
                -0.5779819674505615,
                0.7423584203534296,
                1.2404030737442464,
                1.1855979883429129
            ]
        },
        {
            "positions": [
                1.781852871739508,
                -1.752252555827516,
                -0.6732650722599932,
                0.7807769369600805,
                1.1841410289289394,
                1.1256435028680527
            ]
        },
        {
            "positions": [
                1.6726501158844842,
                -1.7814027453781665,
                -0.7685481770694248,
                0.8191954535667314,
                1.1278789841136325,
                1.065689017393193
            ]
        },
        {
            "positions": [
                1.5634473600294605,
                -1.810552934928817,
                -0.8638312818788564,
                0.8576139701733823,
                1.071616939298326,
                1.0057345319183328
            ]
        },
        {
            "positions": [
                1.4542446041744368,
                -1.8397031244794675,
                -0.9591143866882881,
                0.8960324867800332,
                1.0153548944830189,
                0.945780046443473
            ]
        },
        {
            "positions": [
                1.345041848319413,
                -1.8688533140301178,
                -1.0543974914977197,
                0.9344510033866842,
                0.959092849667712,
                0.8858255609686131
            ]
        },
        {
            "positions": [
                1.2358390924643894,
                -1.8980035035807683,
                -1.1496805963071512,
                0.972869519993335,
                0.9028308048524052,
                0.8258710754937532
            ]
        },
        {
            "positions": [
                1.1266363366093657,
                -1.9271536931314188,
                -1.2449637011165828,
                1.011288036599986,
                0.8465687600370984,
                0.7659165900188932
            ]
        },
        {
            "positions": [
                1.0174335807543418,
                -1.9563038826820693,
                -1.3402468059260146,
                1.049706553206637,
                0.7903067152217914,
                0.7059621045440332
            ]
        },
        {
            "positions": [
                0.9082308248993183,
                -1.9854540722327196,
                -1.435529910735446,
                1.0881250698132878,
                0.7340446704064847,
                0.6460076190691734
            ]
        },
        {
            "positions": [
                0.7990280690442946,
                -2.0146042617833704,
                -1.5308130155448778,
                1.1265435864199387,
                0.6777826255911777,
                0.5860531335943134
            ]
        },
        {
            "positions": [
                0.6898253131892707,
                -2.0437544513340207,
                -1.6260961203543094,
                1.1649621030265895,
                0.6215205807758709,
                0.5260986481194534
            ]
        },
        {
            "positions": [
                0.5806225573342472,
                -2.072904640884671,
                -1.721379225163741,
                1.2033806196332404,
                0.5652585359605642,
                0.46614416264459346
            ]
        },
        {
            "positions": [
                0.47141980147922347,
                -2.1020548304353217,
                -1.8166623299731726,
                1.2417991362398912,
                0.5089964911452571,
                0.40618967716973353
            ]
        },
        {
            "positions": [
                0.36221704562419976,
                -2.131205019985972,
                -1.9119454347826044,
                1.2802176528465423,
                0.4527344463299503,
                0.3462351916948736
            ]
        },
        {
            "positions": [
                0.25301428976917606,
                -2.1603552095366227,
                -2.007228539592036,
                1.3186361694531932,
                0.3964724015146437,
                0.28628070622001367
            ]
        },
        {
            "positions": [
                0.14381153391415236,
                -2.189505399087273,
                -2.1025116444014675,
                1.3570546860598443,
                0.34021035669933664,
                0.22632622074515374
            ]
        },
        {
            "positions": [
                0.03460877805912865,
                -2.2186555886379233,
                -2.197794749210899,
                1.395473202666495,
                0.2839483118840298,
                0.1663717352702938
            ]
        },
        {
            "positions": [
                -0.07459397779589505,
                -2.2478057781885736,
                -2.2930778540203307,
                1.433891719273146,
                0.22768626706872297,
                0.10641724979543388
            ]
        },
        {
            "positions": [
                -0.1837967336509186,
                -2.2769559677392244,
                -2.3883609588297623,
                1.4723102358797968,
                0.17142422225341608,
                0.04646276432057391
            ]
        }
    ]
}