{
    "goal": {
        "global_pose": {
            "orientation": {
                "w": 0.5084816217422485,
                "x": -0.49083608388900757,
                "y": 0.5182115435600281,
                "z": -0.4816462993621826
            },
            "position": {
                "x": 0.5540239810943604,
                "y": 0.030875300988554955,
                "z": 0.16403168439865112
            }
        },
        "name": "move_to_storage_A"
    },
    "id": "RRT_move_to_storage_A_15",
    "joint_names": [
        "shoulder_pan_joint",
        "shoulder_lift_joint",
        "elbow_joint",
        "wrist_1_joint",
        "wrist_2_joint",
        "wrist_3_joint"
    ],
    "metrics": {
        "cart_traj_len": 0.3522478259612602,
        "distance_elbow_joint": 0.45167337327513324,
        "distance_shoulder_lift_joint": 0.23344627145266572,
        "distance_shoulder_pan_joint": 0.45612636223278025,
        "distance_wrist_1_joint": 0.2542219879702686,
        "distance_wrist_2_joint": 1.11605671943774,
        "distance_wrist_3_joint": 0.10520062240597339,
        "smoothness": 0.0,
        "time": 0.016840395,
        "traj_len": 1.6176295425017935,
        "weighted_distance": 2.0487570107249216
    },
    "planner": "RRT",
    "start": {
        "state": {
            "elbow_joint": 1.971548259319323,
            "shoulder_lift_joint": -1.1394851275133948,
            "shoulder_pan_joint": 0.1228115487234821,
            "wrist_1_joint": -0.7804723859257726,
            "wrist_2_joint": 0.12958671773740124,
            "wrist_3_joint": -3.192489227718131
        }
    },
    "waypoints": [
        {
            "positions": [
                0.1228115487234821,
                -1.1394851275133948,
                1.971548259319323,
                -0.7804723859257726,
                0.12958671773740124,
                -3.192489227718131
            ]
        },
        {
            "positions": [
                0.057650639833084924,
                -1.1728345948637757,
                2.0360730269300564,
                -0.8167898127786681,
                0.2890233919427927,
                -3.1774605673744207
            ]
        },
        {
            "positions": [
                -0.007510269057312252,
                -1.2061840622141564,
                2.1005977945407897,
                -0.8531072396315637,
                0.4484600661481841,
                -3.1624319070307103
            ]
        },
        {
            "positions": [
                -0.07267117794770941,
                -1.2395335295645373,
                2.165122562151523,
                -0.8894246664844592,
                0.6078967403535755,
                -3.147403246687
            ]
        },
        {
            "positions": [
                -0.1378320868381066,
                -1.272882996914918,
                2.229647329762256,
                -0.9257420933373547,
                0.767333414558967,
                -3.132374586343289
            ]
        },
        {
            "positions": [
                -0.20299299572850382,
                -1.306232464265299,
                2.2941720973729898,
                -0.9620595201902502,
                0.9267700887643584,
                -3.1173459259995786
            ]
        },
        {
            "positions": [
                -0.26815390461890093,
                -1.3395819316156796,
                2.358696864983723,
                -0.9983769470431457,
                1.0862067629697498,
                -3.102317265655868
            ]
        },
        {
            "positions": [
                -0.33331481350929815,
                -1.3729313989660605,
                2.423221632594456,
                -1.0346943738960412,
                1.2456434371751413,
                -3.0872886053121578
            ]
        }
    ]
}{
    "goal": {
        "global_pose": {
            "orientation": {
                "w": 0.5084816217422485,
                "x": -0.49083608388900757,
                "y": 0.5182115435600281,
                "z": -0.4816462993621826
            },
            "position": {
                "x": 0.5540239810943604,
                "y": 0.030875300988554955,
                "z": 0.16403168439865112
            }
        },
        "name": "move_to_storage_A"
    },
    "id": "RRT_move_to_storage_A_15",
    "joint_names": [
        "shoulder_pan_joint",
        "shoulder_lift_joint",
        "elbow_joint",
        "wrist_1_joint",
        "wrist_2_joint",
        "wrist_3_joint"
    ],
    "metrics": {
        "cart_traj_len": 0.3530665049576555,
        "distance_elbow_joint": 0.448711642227289,
        "distance_shoulder_lift_joint": 0.23494385884846736,
        "distance_shoulder_pan_joint": 0.46169579442138986,
        "distance_wrist_1_joint": 0.24172609429876557,
        "distance_wrist_2_joint": 1.0983781916788604,
        "distance_wrist_3_joint": 0.09104283741737174,
        "smoothness": 0.0,
        "time": 0.01170535,
        "traj_len": 1.605147475745498,
        "weighted_distance": 2.024521765678135
    },
    "planner": "RRT",
    "start": {
        "state": {
            "elbow_joint": 1.97154746011099,
            "shoulder_lift_joint": -1.13948474672311,
            "shoulder_pan_joint": 0.12281154466712228,
            "wrist_1_joint": -0.7804688027058302,
            "wrist_2_joint": 0.12958655903071145,
            "wrist_3_joint": 3.0906928834467795
        }
    },
    "waypoints": [
        {
            "positions": [
                0.12281154466712228,
                -1.13948474672311,
                1.97154746011099,
                -0.7804688027058302,
                0.12958655903071145,
                3.0906928834467795
            ]
        },
        {
            "positions": [
                0.056855002606923735,
                -1.1730481551300338,
                2.035649123286317,
                -0.8150011018913681,
                0.2864977292705486,
                3.1036990030778324
            ]
        },
        {
            "positions": [
                -0.009101539453274812,
                -1.2066115635369579,
                2.099750786461644,
                -0.849533401076906,
                0.44340889951038587,
                3.1167051227088858
            ]
        },
        {
            "positions": [
                -0.07505808151347336,
                -1.2401749719438817,
                2.163852449636971,
                -0.884065700262444,
                0.600320069750223,
                3.1297112423399387
            ]
        },
        {
            "positions": [
                -0.1410146235736719,
                -1.2737383803508056,
                2.2279541128122977,
                -0.9185979994479819,
                0.7572312399900603,
                3.142717361970992
            ]
        },
        {
            "positions": [
                -0.20697116563387047,
                -1.3073017887577296,
                2.2920557759876248,
                -0.95313029863352,
                0.9141424102298975,
                3.155723481602045
            ]
        },
        {
            "positions": [
                -0.272927707694069,
                -1.3408651971646535,
                2.356157439162952,
                -0.9876625978190579,
                1.0710535804697345,
                3.1687296012330983
            ]
        },
        {
            "positions": [
                -0.33888424975426756,
                -1.3744286055715773,
                2.420259102338279,
                -1.0221948970045958,
                1.227964750709572,
                3.1817357208641512
            ]
        }
    ]
}{
    "goal": {
        "global_pose": {
            "orientation": {
                "w": 0.5084816217422485,
                "x": -0.49083608388900757,
                "y": 0.5182115435600281,
                "z": -0.4816462993621826
            },
            "position": {
                "x": 0.5540239810943604,
                "y": 0.030875300988554955,
                "z": 0.16403168439865112
            }
        },
        "name": "move_to_storage_A"
    },
    "id": "RRT_move_to_storage_A_15",
    "joint_names": [
        "shoulder_pan_joint",
        "shoulder_lift_joint",
        "elbow_joint",
        "wrist_1_joint",
        "wrist_2_joint",
        "wrist_3_joint"
    ],
    "metrics": {
        "cart_traj_len": 0.35307803482941696,
        "distance_elbow_joint": 0.4482096779041629,
        "distance_shoulder_lift_joint": 0.23394417836165826,
        "distance_shoulder_pan_joint": 0.45950926956382193,
        "distance_wrist_1_joint": 0.24186550541160723,
        "distance_wrist_2_joint": 1.1073020249099916,
        "distance_wrist_3_joint": 0.10557827248253071,
        "smoothness": 4.440892098500626e-16,
        "time": 0.013442233,
        "traj_len": 1.611337620932923,
        "weighted_distance": 2.0388067598280206
    },
    "planner": "RRT",
    "start": {
        "state": {
            "elbow_joint": 1.9715472970024885,
            "shoulder_lift_joint": -1.1394870060712896,
            "shoulder_pan_joint": 0.12281152778156021,
            "wrist_1_joint": -0.780463741449964,
            "wrist_2_joint": 0.12958659822042276,
            "wrist_3_joint": 3.090690232415272
        }
    },
    "waypoints": [
        {
            "positions": [
                0.12281152778156021,
                -1.1394870060712896,
                1.9715472970024885,
                -0.780463741449964,
                0.12958659822042276,
                3.090690232415272
            ]
        },
        {
            "positions": [
                0.05716734641529994,
                -1.172907602980098,
                2.0355772509887977,
                -0.815015956508765,
                0.287772601778993,
                3.105772842769919
            ]
        },
        {
            "positions": [
                -0.008476834950960327,
                -1.2063281998889062,
                2.0996072049751064,
                -0.849568171567566,
                0.44595860533756326,
                3.1208554531245665
            ]
        },
        {
            "positions": [
                -0.0741210163172206,
                -1.2397487967977145,
                2.1636371589614156,
                -0.884120386626367,
                0.6041446088961334,
                3.1359380634792138
            ]
        },
        {
            "positions": [
                -0.13976519768348086,
                -1.273169393706523,
                2.2276671129477243,
                -0.9186726016851681,
                0.7623306124547037,
                3.1510206738338606
            ]
        },
        {
            "positions": [
                -0.20540937904974113,
                -1.3065899906153313,
                2.2916970669340335,
                -0.9532248167439692,
                0.920516616013274,
                3.166103284188508
            ]
        },
        {
            "positions": [
                -0.27105356041600137,
                -1.3400105875241395,
                2.3557270209203423,
                -0.9877770318027702,
                1.078702619571844,
                3.1811858945431553
            ]
        },
        {
            "positions": [
                -0.3366977417822617,
                -1.3734311844329479,
                2.4197569749066514,
                -1.0223292468615712,
                1.2368886231304144,
                3.1962685048978026
            ]
        }
    ]
}