{
    "goal": {
        "global_pose": {
            "orientation": {
                "w": -0.4816463035849501,
                "x": 0.5182115481033762,
                "y": 0.4908360881923453,
                "z": -0.5084816262002911
            },
            "position": {
                "x": -0.8240239810943604,
                "y": -0.300875300988555,
                "z": 0.16403168439865112
            }
        },
        "name": "move_to_storage_C"
    },
    "id": "RRT_move_to_storage_C_110",
    "joint_names": [
        "shoulder_pan_joint",
        "shoulder_lift_joint",
        "elbow_joint",
        "wrist_1_joint",
        "wrist_2_joint",
        "wrist_3_joint"
    ],
    "metrics": {
        "cart_traj_len": 0.5762105366050363,
        "distance_elbow_joint": 0.2572304982019109,
        "distance_shoulder_lift_joint": 0.18859779312240665,
        "distance_shoulder_pan_joint": 0.4955729445056618,
        "distance_wrist_1_joint": 0.07895210388943452,
        "distance_wrist_2_joint": 1.059291608465169,
        "distance_wrist_3_joint": 0.05838810526198035,
        "smoothness": 0.0,
        "time": 0.021156414,
        "traj_len": 1.4622014407893884,
        "weighted_distance": 1.8420241519386025
    },
    "planner": "RRT",
    "start": {
        "state": {
            "elbow_joint": 2.010868314990456,
            "shoulder_lift_joint": -1.1634956873337592,
            "shoulder_pan_joint": -2.4736205022346125,
            "wrist_1_joint": -0.8367026794202681,
            "wrist_2_joint": 0.6746043897044499,
            "wrist_3_joint": -3.1496632123970403
        }
    },
    "waypoints": [
        {
            "positions": [
                -2.4736205022346125,
                -1.1634956873337592,
                2.010868314990456,
                -0.8367026794202681,
                0.6746043897044499,
                -3.1496632123970403
            ]
        },
        {
            "positions": [
                -2.556215992985556,
                -1.132062721813358,
                1.9679965652901372,
                -0.8235439954386957,
                0.8511529911153114,
                -3.1399318615200436
            ]
        },
        {
            "positions": [
                -2.6388114837364998,
                -1.100629756292957,
                1.9251248155898188,
                -0.8103853114571232,
                1.027701592526173,
                -3.130200510643047
            ]
        },
        {
            "positions": [
                -2.7214069744874436,
                -1.069196790772556,
                1.8822530658895005,
                -0.7972266274755508,
                1.2042501939370345,
                -3.12046915976605
            ]
        },
        {
            "positions": [
                -2.804002465238387,
                -1.0377638252521548,
                1.8393813161891819,
                -0.7840679434939785,
                1.380798795347896,
                -3.1107378088890534
            ]
        },
        {
            "positions": [
                -2.8865979559893304,
                -1.0063308597317535,
                1.7965095664888633,
                -0.770909259512406,
                1.5573473967587574,
                -3.1010064580120567
            ]
        },
        {
            "positions": [
                -2.9691934467402743,
                -0.9748978942113525,
                1.753637816788545,
                -0.7577505755308336,
                1.7338959981696187,
                -3.09127510713506
            ]
        }
    ]
}