{
    "goal": {
        "global_pose": {
            "orientation": {
                "w": 0.7031023502349854,
                "x": -0.7110244035720825,
                "y": 0.007748599164187908,
                "z": 0.005598929710686207
            },
            "position": {
                "x": 0.11585023208521307,
                "y": 0.44412534475326537,
                "z": 0.3711530566215515
            }
        },
        "name": "move_to_auspresseinheit_A"
    },
    "id": "RRT_move_to_auspresseinheit_A_76",
    "joint_names": [
        "shoulder_pan_joint",
        "shoulder_lift_joint",
        "elbow_joint",
        "wrist_1_joint",
        "wrist_2_joint",
        "wrist_3_joint"
    ],
    "metrics": {
        "cart_traj_len": 0.6813678263105597,
        "distance_elbow_joint": 0.026683172680879164,
        "distance_shoulder_lift_joint": 0.5348691738935771,
        "distance_shoulder_pan_joint": 1.045851248513916,
        "distance_wrist_1_joint": 0.54340613384167,
        "distance_wrist_2_joint": 0.5250198413733335,
        "distance_wrist_3_joint": 0.0355427406597415,
        "smoothness": 2.9605947279411004e-16,
        "time": 2.397981325,
        "traj_len": 1.646624520333375,
        "weighted_distance": 1.962366878923919
    },
    "planner": "RRT",
    "start": {
        "state": {
            "elbow_joint": 2.4225746658250005,
            "shoulder_lift_joint": -1.3736534386056498,
            "shoulder_pan_joint": -0.3378633547517467,
            "wrist_1_joint": -1.0288598680537169,
            "wrist_2_joint": 1.233022673432363,
            "wrist_3_joint": -3.0940220416140027
        }
    },
    "waypoints": [
        {
            "positions": [
                -0.3378633547517467,
                -1.3736534386056498,
                2.4225746658250005,
                -1.0288598680537169,
                1.233022673432363,
                -3.0940220416140027
            ]
        },
        {
            "positions": [
                -0.2617604339424428,
                -1.4653625486063178,
                2.417865951386109,
                -0.9321056155356798,
                1.1327247619324239,
                -3.0954589513524553
            ]
        },
        {
            "positions": [
                -0.18565751313313889,
                -1.557071658606986,
                2.4131572369472174,
                -0.8353513630176428,
                1.0324268504324845,
                -3.096895861090908
            ]
        },
        {
            "positions": [
                -0.10955459232383497,
                -1.6487807686076539,
                2.4084485225083263,
                -0.7385971104996056,
                0.9321289389325454,
                -3.0983327708293604
            ]
        },
        {
            "positions": [
                -0.033451671514531045,
                -1.7404898786083218,
                2.4037398080694348,
                -0.6418428579815686,
                0.8318310274326062,
                -3.099769680567813
            ]
        },
        {
            "positions": [
                0.04265124929477286,
                -1.8321989886089898,
                2.3990310936305432,
                -0.5450886054635316,
                0.731533115932667,
                -3.1012065903062656
            ]
        },
        {
            "positions": [
                0.264430130783905,
                -1.857640196572402,
                2.397984560135069,
                -0.5252103150463701,
                0.7236896879747878,
                -3.1106593209620916
            ]
        },
        {
            "positions": [
                0.4862090122730371,
                -1.8830814045358146,
                2.3969380266395954,
                -0.5053320246292085,
                0.7158462600169088,
                -3.120112051617918
            ]
        },
        {
            "positions": [
                0.7079878937621692,
                -1.908522612499227,
                2.3958914931441213,
                -0.4854537342120469,
                0.7080028320590296,
                -3.1295647822737442
            ]
        }
    ]
}