{
    "goal": {
        "global_pose": {
            "orientation": {
                "w": 0.5084816217422485,
                "x": -0.49083608388900757,
                "y": 0.5182115435600281,
                "z": -0.4816462993621826
            },
            "position": {
                "x": 0.5540239810943604,
                "y": 0.030875300988554955,
                "z": 0.16403168439865112
            }
        },
        "name": "move_to_storage_A"
    },
    "id": "RRT_move_to_storage_A_120",
    "joint_names": [
        "shoulder_pan_joint",
        "shoulder_lift_joint",
        "elbow_joint",
        "wrist_1_joint",
        "wrist_2_joint",
        "wrist_3_joint"
    ],
    "metrics": {
        "cart_traj_len": 0.35404837193880323,
        "distance_elbow_joint": 0.45243416692328897,
        "distance_shoulder_lift_joint": 0.23471054448869855,
        "distance_shoulder_pan_joint": 0.461045276730095,
        "distance_wrist_1_joint": 0.24971892010064678,
        "distance_wrist_2_joint": 1.1096399859517985,
        "distance_wrist_3_joint": 0.09017863380221991,
        "smoothness": 4.440892133664971e-16,
        "time": 0.013594413,
        "traj_len": 1.6117467319640353,
        "weighted_distance": 2.034070721890867
    },
    "planner": "RRT",
    "start": {
        "state": {
            "elbow_joint": 1.971548259319323,
            "shoulder_lift_joint": -1.1394851275133948,
            "shoulder_pan_joint": 0.1228115487234821,
            "wrist_1_joint": -0.7804723859257726,
            "wrist_2_joint": 0.12958671773740124,
            "wrist_3_joint": -3.192489227718131
        }
    },
    "waypoints": [
        {
            "positions": [
                0.1228115487234821,
                -1.1394851275133948,
                1.971548259319323,
                -0.7804723859257726,
                0.12958671773740124,
                -3.192489227718131
            ]
        },
        {
            "positions": [
                0.05694793776203996,
                -1.1730152052974947,
                2.0361817117369356,
                -0.8161465173687221,
                0.2881067157305153,
                -3.1796065657463854
            ]
        },
        {
            "positions": [
                -0.008915673199402174,
                -1.2065452830815944,
                2.1008151641545485,
                -0.8518206488116717,
                0.4466267137236294,
                -3.1667239037746397
            ]
        },
        {
            "positions": [
                -0.07477928416084431,
                -1.2400753608656943,
                2.165448616572161,
                -0.8874947802546213,
                0.6051467117167434,
                -3.153841241802894
            ]
        },
        {
            "positions": [
                -0.14064289512228645,
                -1.273605438649794,
                2.230082068989774,
                -0.9231689116975708,
                0.7636667097098575,
                -3.1409585798311483
            ]
        },
        {
            "positions": [
                -0.2065065060837286,
                -1.3071355164338938,
                2.2947155214073867,
                -0.9588430431405204,
                0.9221867077029716,
                -3.1280759178594026
            ]
        },
        {
            "positions": [
                -0.2723701170451707,
                -1.3406655942179935,
                2.359348973824999,
                -0.9945171745834698,
                1.0807067056960855,
                -3.115193255887657
            ]
        },
        {
            "positions": [
                -0.3382337280066129,
                -1.3741956720020934,
                2.423982426242612,
                -1.0301913060264194,
                1.2392267036891997,
                -3.1023105939159112
            ]
        }
    ]
}{
    "goal": {
        "global_pose": {
            "orientation": {
                "w": 0.5084816217422485,
                "x": -0.49083608388900757,
                "y": 0.5182115435600281,
                "z": -0.4816462993621826
            },
            "position": {
                "x": 0.5540239810943604,
                "y": 0.030875300988554955,
                "z": 0.16403168439865112
            }
        },
        "name": "move_to_storage_A"
    },
    "id": "RRT_move_to_storage_A_120",
    "joint_names": [
        "shoulder_pan_joint",
        "shoulder_lift_joint",
        "elbow_joint",
        "wrist_1_joint",
        "wrist_2_joint",
        "wrist_3_joint"
    ],
    "metrics": {
        "cart_traj_len": 0.3525417670787889,
        "distance_elbow_joint": 0.45087747227279307,
        "distance_shoulder_lift_joint": 0.23620192079411417,
        "distance_shoulder_pan_joint": 0.4605197016755194,
        "distance_wrist_1_joint": 0.24155942983644296,
        "distance_wrist_2_joint": 1.1010887314464586,
        "distance_wrist_3_joint": 0.09099353004142552,
        "smoothness": 6.661338165333112e-16,
        "time": 0.016660683,
        "traj_len": 1.6066240338258213,
        "weighted_distance": 2.0262961302417044
    },
    "planner": "RRT",
    "start": {
        "state": {
            "elbow_joint": 1.97154746011099,
            "shoulder_lift_joint": -1.13948474672311,
            "shoulder_pan_joint": 0.12281154466712228,
            "wrist_1_joint": -0.7804688027058302,
            "wrist_2_joint": 0.12958655903071145,
            "wrist_3_joint": 3.0906928834467795
        }
    },
    "waypoints": [
        {
            "positions": [
                0.12281154466712228,
                -1.13948474672311,
                1.97154746011099,
                -0.7804688027058302,
                0.12958655903071145,
                3.0906928834467795
            ]
        },
        {
            "positions": [
                0.05702301585633379,
                -1.1732278782651262,
                2.035958527578532,
                -0.8149772926824649,
                0.2868849492373484,
                3.103691959166983
            ]
        },
        {
            "positions": [
                -0.008765512954454699,
                -1.2069710098071427,
                2.1003695950460735,
                -0.8494857826590996,
                0.44418333944398536,
                3.116691034887187
            ]
        },
        {
            "positions": [
                -0.07455404176524318,
                -1.240714141349159,
                2.1647806625136155,
                -0.8839942726357343,
                0.6014817296506223,
                3.1296901106073904
            ]
        },
        {
            "positions": [
                -0.14034257057603167,
                -1.2744572728911752,
                2.2291917299811574,
                -0.918502762612369,
                0.7587801198572592,
                3.142689186327594
            ]
        },
        {
            "positions": [
                -0.20613109938682017,
                -1.3082004044331916,
                2.2936027974486994,
                -0.9530112525890038,
                0.9160785100638962,
                3.1556882620477977
            ]
        },
        {
            "positions": [
                -0.2719196281976086,
                -1.3419435359752079,
                2.358013864916241,
                -0.9875197425656385,
                1.0733769002705331,
                3.1686873377680014
            ]
        },
        {
            "positions": [
                -0.3377081570083971,
                -1.3756866675172241,
                2.422424932383783,
                -1.0220282325422732,
                1.23067529047717,
                3.181686413488205
            ]
        }
    ]
}{
    "goal": {
        "global_pose": {
            "orientation": {
                "w": 0.5084816217422485,
                "x": -0.49083608388900757,
                "y": 0.5182115435600281,
                "z": -0.4816462993621826
            },
            "position": {
                "x": 0.5540239810943604,
                "y": 0.030875300988554955,
                "z": 0.16403168439865112
            }
        },
        "name": "move_to_storage_A"
    },
    "id": "RRT_move_to_storage_A_120",
    "joint_names": [
        "shoulder_pan_joint",
        "shoulder_lift_joint",
        "elbow_joint",
        "wrist_1_joint",
        "wrist_2_joint",
        "wrist_3_joint"
    ],
    "metrics": {
        "cart_traj_len": 0.35309948086738474,
        "distance_elbow_joint": 0.44823872932621134,
        "distance_shoulder_lift_joint": 0.23547318611830992,
        "distance_shoulder_pan_joint": 0.46107692857383376,
        "distance_wrist_1_joint": 0.23726772186744127,
        "distance_wrist_2_joint": 1.1016874046695793,
        "distance_wrist_3_joint": 0.09536831738731966,
        "smoothness": 4.440892133664971e-16,
        "time": 0.019243354,
        "traj_len": 1.6059614839536764,
        "weighted_distance": 2.027018512311704
    },
    "planner": "RRT",
    "start": {
        "state": {
            "elbow_joint": 1.9715472970024885,
            "shoulder_lift_joint": -1.1394870060712896,
            "shoulder_pan_joint": 0.12281152778156021,
            "wrist_1_joint": -0.780463741449964,
            "wrist_2_joint": 0.12958659822042276,
            "wrist_3_joint": 3.090690232415272
        }
    },
    "waypoints": [
        {
            "positions": [
                0.12281152778156021,
                -1.1394870060712896,
                1.9715472970024885,
                -0.780463741449964,
                0.12958659822042276,
                3.090690232415272
            ]
        },
        {
            "positions": [
                0.0569433951281554,
                -1.1731260326596196,
                2.0355814011919473,
                -0.8143591302881699,
                0.28697051317321975,
                3.1043142777563175
            ]
        },
        {
            "positions": [
                -0.008924737525249415,
                -1.2067650592479495,
                2.099615505381406,
                -0.8482545191263757,
                0.4443544281260168,
                3.117938323097363
            ]
        },
        {
            "positions": [
                -0.07479287017865424,
                -1.2404040858362795,
                2.163649609570865,
                -0.8821499079645817,
                0.6017383430788138,
                3.131562368438409
            ]
        },
        {
            "positions": [
                -0.14066100283205904,
                -1.2740431124246094,
                2.2276837137603236,
                -0.9160452968027876,
                0.7591222580316108,
                3.1451864137794545
            ]
        },
        {
            "positions": [
                -0.2065291354854639,
                -1.3076821390129396,
                2.2917178179497824,
                -0.9499406856409935,
                0.916506172984408,
                3.1588104591205
            ]
        },
        {
            "positions": [
                -0.27239726813886866,
                -1.3413211656012696,
                2.355751922139241,
                -0.9838360744791994,
                1.0738900879372049,
                3.172434504461546
            ]
        },
        {
            "positions": [
                -0.3382654007922735,
                -1.3749601921895995,
                2.4197860263287,
                -1.0177314633174053,
                1.231274002890002,
                3.1860585498025915
            ]
        }
    ]
}