{
    "goal": {
        "global_pose": {
            "orientation": {
                "w": 0.005598929693374612,
                "x": 0.007748599140229565,
                "y": 0.7110244013736278,
                "z": -0.7031023480610252
            },
            "position": {
                "x": 0.1141497679147869,
                "y": -0.7141253447532654,
                "z": 0.3711530566215515
            }
        },
        "name": "move_to_auspresseinheit_B"
    },
    "id": "RRT_move_to_auspresseinheit_B_121",
    "joint_names": [
        "shoulder_pan_joint",
        "shoulder_lift_joint",
        "elbow_joint",
        "wrist_1_joint",
        "wrist_2_joint",
        "wrist_3_joint"
    ],
    "metrics": {
        "cart_traj_len": 0.564109198799487,
        "distance_elbow_joint": 0.06485365254918296,
        "distance_shoulder_lift_joint": 0.29354822123583224,
        "distance_shoulder_pan_joint": 0.5752244815601542,
        "distance_wrist_1_joint": 0.33486553362724847,
        "distance_wrist_2_joint": 0.9996497385548191,
        "distance_wrist_3_joint": 0.00296139776942983,
        "smoothness": 3.806478935924272e-16,
        "time": 0.01738161,
        "traj_len": 1.5070179246766333,
        "weighted_distance": 1.9004055075213802
    },
    "planner": "RRT",
    "start": {
        "state": {
            "elbow_joint": 2.0193083361928714,
            "shoulder_lift_joint": -1.1220246554650708,
            "shoulder_pan_joint": -1.0952077554168747,
            "wrist_1_joint": -0.8559753972642168,
            "wrist_2_joint": 0.4759566250798843,
            "wrist_3_joint": -3.1240929996934557
        }
    },
    "waypoints": [
        {
            "positions": [
                -1.0952077554168747,
                -1.1220246554650708,
                2.0193083361928714,
                -0.8559753972642168,
                0.4759566250798843,
                -3.1240929996934557
            ]
        },
        {
            "positions": [
                -1.191078502343567,
                -1.1709493590043762,
                2.008499394101341,
                -0.8001644749930087,
                0.6425649148390208,
                -3.1245865659883605
            ]
        },
        {
            "positions": [
                -1.2869492492702594,
                -1.2198740625436815,
                1.9976904520098104,
                -0.7443535527218006,
                0.8091732045981572,
                -3.1250801322832658
            ]
        },
        {
            "positions": [
                -1.3828199961969516,
                -1.268798766082987,
                1.98688150991828,
                -0.6885426304505926,
                0.9757814943572938,
                -3.1255736985781706
            ]
        },
        {
            "positions": [
                -1.478690743123644,
                -1.3177234696222924,
                1.9760725678267494,
                -0.6327317081793845,
                1.1423897841164303,
                -3.1260672648730754
            ]
        },
        {
            "positions": [
                -1.5745614900503364,
                -1.3666481731615976,
                1.965263625735219,
                -0.5769207859081764,
                1.3089980738755669,
                -3.1265608311679807
            ]
        },
        {
            "positions": [
                -1.6704322369770288,
                -1.415572876700903,
                1.9544546836436885,
                -0.5211098636369683,
                1.4756063636347034,
                -3.1270543974628855
            ]
        }
    ]
}