{
    "goal": {
        "global_pose": {
            "orientation": {
                "w": 0.5084816217422485,
                "x": -0.49083608388900757,
                "y": 0.5182115435600281,
                "z": -0.4816462993621826
            },
            "position": {
                "x": 0.5540239810943604,
                "y": 0.030875300988554955,
                "z": 0.16403168439865112
            }
        },
        "name": "move_to_storage_A"
    },
    "id": "RRT_move_to_storage_A_24",
    "joint_names": [
        "shoulder_pan_joint",
        "shoulder_lift_joint",
        "elbow_joint",
        "wrist_1_joint",
        "wrist_2_joint",
        "wrist_3_joint"
    ],
    "metrics": {
        "cart_traj_len": 0.35309313125505293,
        "distance_elbow_joint": 0.4518981303210625,
        "distance_shoulder_lift_joint": 0.23550357043260606,
        "distance_shoulder_pan_joint": 0.45946606969851034,
        "distance_wrist_1_joint": 0.24972162387778962,
        "distance_wrist_2_joint": 1.1092648253937745,
        "distance_wrist_3_joint": 0.0975770044001818,
        "smoothness": 2.2204460668324854e-16,
        "time": 0.01376141,
        "traj_len": 1.6135151762917896,
        "weighted_distance": 2.0390124281612048
    },
    "planner": "RRT",
    "start": {
        "state": {
            "elbow_joint": 1.971548259319323,
            "shoulder_lift_joint": -1.1394851275133948,
            "shoulder_pan_joint": 0.1228115487234821,
            "wrist_1_joint": -0.7804723859257726,
            "wrist_2_joint": 0.12958671773740124,
            "wrist_3_joint": -3.192489227718131
        }
    },
    "waypoints": [
        {
            "positions": [
                0.1228115487234821,
                -1.1394851275133948,
                1.971548259319323,
                -0.7804723859257726,
                0.12958671773740124,
                -3.192489227718131
            ]
        },
        {
            "positions": [
                0.057173538766552054,
                -1.173128494718053,
                2.0361051350794748,
                -0.8161469036225997,
                0.2880531213650833,
                -3.1785496556609623
            ]
        },
        {
            "positions": [
                -0.008464471190377992,
                -1.2067718619227108,
                2.100662010839627,
                -0.8518214213194268,
                0.44651952499276537,
                -3.1646100836037934
            ]
        },
        {
            "positions": [
                -0.07410248114730802,
                -1.240415229127369,
                2.1652188865997783,
                -0.8874959390162539,
                0.6049859286204474,
                -3.1506705115466245
            ]
        },
        {
            "positions": [
                -0.13974049110423808,
                -1.2740585963320268,
                2.22977576235993,
                -0.923170456713081,
                0.7634523322481295,
                -3.136730939489456
            ]
        },
        {
            "positions": [
                -0.20537850106116817,
                -1.3077019635366849,
                2.294332638120082,
                -0.9588449744099081,
                0.9219187358758116,
                -3.122791367432287
            ]
        },
        {
            "positions": [
                -0.27101651101809815,
                -1.3413453307413428,
                2.358889513880234,
                -0.9945194921067351,
                1.0803851395034936,
                -3.1088517953751182
            ]
        },
        {
            "positions": [
                -0.33665452097502824,
                -1.3749886979460009,
                2.4234463896403855,
                -1.0301940098035622,
                1.2388515431311757,
                -3.0949122233179494
            ]
        }
    ]
}{
    "goal": {
        "global_pose": {
            "orientation": {
                "w": 0.5084816217422485,
                "x": -0.49083608388900757,
                "y": 0.5182115435600281,
                "z": -0.4816462993621826
            },
            "position": {
                "x": 0.5540239810943604,
                "y": 0.030875300988554955,
                "z": 0.16403168439865112
            }
        },
        "name": "move_to_storage_A"
    },
    "id": "RRT_move_to_storage_A_24",
    "joint_names": [
        "shoulder_pan_joint",
        "shoulder_lift_joint",
        "elbow_joint",
        "wrist_1_joint",
        "wrist_2_joint",
        "wrist_3_joint"
    ],
    "metrics": {
        "cart_traj_len": 0.35343957806154896,
        "distance_elbow_joint": 0.4529818422316003,
        "distance_shoulder_lift_joint": 0.23319080289174066,
        "distance_shoulder_pan_joint": 0.458704209924881,
        "distance_wrist_1_joint": 0.255143742502123,
        "distance_wrist_2_joint": 1.114376381191809,
        "distance_wrist_3_joint": 0.09382028483737637,
        "smoothness": 2.2204460668324854e-16,
        "time": 0.020636282,
        "traj_len": 1.614997604821608,
        "weighted_distance": 2.0409257597835877
    },
    "planner": "RRT",
    "start": {
        "state": {
            "elbow_joint": 1.97154746011099,
            "shoulder_lift_joint": -1.13948474672311,
            "shoulder_pan_joint": 0.12281154466712228,
            "wrist_1_joint": -0.7804688027058302,
            "wrist_2_joint": 0.12958655903071145,
            "wrist_3_joint": 3.0906928834467795
        }
    },
    "waypoints": [
        {
            "positions": [
                0.12281154466712228,
                -1.13948474672311,
                1.97154746011099,
                -0.7804688027058302,
                0.12958655903071145,
                3.0906928834467795
            ]
        },
        {
            "positions": [
                0.05728237182071072,
                -1.172797718564787,
                2.0362591518583613,
                -0.8169179087775621,
                0.28878318491525556,
                3.1040957812806904
            ]
        },
        {
            "positions": [
                -0.008246801025700842,
                -1.2061106904064645,
                2.100970843605733,
                -0.8533670148492939,
                0.44797981079979976,
                3.1174986791146013
            ]
        },
        {
            "positions": [
                -0.07377597387211242,
                -1.2394236622481416,
                2.1656825353531044,
                -0.8898161209210258,
                0.6071764366843438,
                3.1309015769485122
            ]
        },
        {
            "positions": [
                -0.13930514671852395,
                -1.272736634089819,
                2.2303942271004757,
                -0.9262652269927576,
                0.766373062568888,
                3.144304474782423
            ]
        },
        {
            "positions": [
                -0.20483431956493553,
                -1.306049605931496,
                2.295105918847847,
                -0.9627143330644895,
                0.9255696884534322,
                3.157707372616334
            ]
        },
        {
            "positions": [
                -0.2703634924113471,
                -1.3393625777731732,
                2.359817610595219,
                -0.9991634391362213,
                1.0847663143379762,
                3.171110270450245
            ]
        },
        {
            "positions": [
                -0.3358926652577587,
                -1.3726755496148506,
                2.4245293023425902,
                -1.0356125452079532,
                1.2439629402225205,
                3.184513168284156
            ]
        }
    ]
}{
    "goal": {
        "global_pose": {
            "orientation": {
                "w": 0.5084816217422485,
                "x": -0.49083608388900757,
                "y": 0.5182115435600281,
                "z": -0.4816462993621826
            },
            "position": {
                "x": 0.5540239810943604,
                "y": 0.030875300988554955,
                "z": 0.16403168439865112
            }
        },
        "name": "move_to_storage_A"
    },
    "id": "RRT_move_to_storage_A_24",
    "joint_names": [
        "shoulder_pan_joint",
        "shoulder_lift_joint",
        "elbow_joint",
        "wrist_1_joint",
        "wrist_2_joint",
        "wrist_3_joint"
    ],
    "metrics": {
        "cart_traj_len": 0.35336422247805027,
        "distance_elbow_joint": 0.45313998694910884,
        "distance_shoulder_lift_joint": 0.23459568199908198,
        "distance_shoulder_pan_joint": 0.46250204910768433,
        "distance_wrist_1_joint": 0.2549396057389193,
        "distance_wrist_2_joint": 1.0980245318368147,
        "distance_wrist_3_joint": 0.10780133925945234,
        "smoothness": 0.0,
        "time": 0.014876012,
        "traj_len": 1.6158598933357624,
        "weighted_distance": 2.0443996700708253
    },
    "planner": "RRT",
    "start": {
        "state": {
            "elbow_joint": 1.9715472970024885,
            "shoulder_lift_joint": -1.1394870060712896,
            "shoulder_pan_joint": 0.12281152778156021,
            "wrist_1_joint": -0.780463741449964,
            "wrist_2_joint": 0.12958659822042276,
            "wrist_3_joint": 3.090690232415272
        }
    },
    "waypoints": [
        {
            "positions": [
                0.12281152778156021,
                -1.1394870060712896,
                1.9715472970024885,
                -0.780463741449964,
                0.12958659822042276,
                3.090690232415272
            ]
        },
        {
            "positions": [
                0.05673980648046245,
                -1.1730006749283013,
                2.036281580852361,
                -0.8168836851269524,
                0.286447245625682,
                3.106090423738051
            ]
        },
        {
            "positions": [
                -0.009331914820635306,
                -1.206514343785313,
                2.101015864702234,
                -0.853303628803941,
                0.4433078930309412,
                3.1214906150608295
            ]
        },
        {
            "positions": [
                -0.07540363612173306,
                -1.2400280126423247,
                2.1657501485521067,
                -0.8897235724809294,
                0.6001685404362005,
                3.1368908063836085
            ]
        },
        {
            "positions": [
                -0.14147535742283082,
                -1.2735416814993363,
                2.2304844324019792,
                -0.9261435161579179,
                0.7570291878414597,
                3.1522909977063875
            ]
        },
        {
            "positions": [
                -0.2075470787239286,
                -1.3070553503563482,
                2.295218716251852,
                -0.9625634598349063,
                0.913889835246719,
                3.1676911890291666
            ]
        },
        {
            "positions": [
                -0.27361880002502637,
                -1.34056901921336,
                2.359953000101725,
                -0.9989834035118947,
                1.0707504826519783,
                3.183091380351945
            ]
        },
        {
            "positions": [
                -0.3396905213261241,
                -1.3740826880703716,
                2.4246872839515974,
                -1.0354033471888833,
                1.2276111300572374,
                3.198491571674724
            ]
        }
    ]
}