{
    "goal": {
        "global_pose": {
            "orientation": {
                "w": -0.4816463035849501,
                "x": 0.5182115481033762,
                "y": 0.4908360881923453,
                "z": -0.5084816262002911
            },
            "position": {
                "x": -0.8240239810943604,
                "y": -0.300875300988555,
                "z": 0.16403168439865112
            }
        },
        "name": "move_to_storage_C"
    },
    "id": "RRT_move_to_storage_C_61",
    "joint_names": [
        "shoulder_pan_joint",
        "shoulder_lift_joint",
        "elbow_joint",
        "wrist_1_joint",
        "wrist_2_joint",
        "wrist_3_joint"
    ],
    "metrics": {
        "cart_traj_len": 0.5757426404232773,
        "distance_elbow_joint": 0.25586998571173214,
        "distance_shoulder_lift_joint": 0.187560342059215,
        "distance_shoulder_pan_joint": 0.4953920522842745,
        "distance_wrist_1_joint": 0.07722370497441156,
        "distance_wrist_2_joint": 1.0597918710980343,
        "distance_wrist_3_joint": 0.06845321035212892,
        "smoothness": 0.0,
        "time": 0.014280164,
        "traj_len": 1.464339839818543,
        "weighted_distance": 1.8488410324461375
    },
    "planner": "RRT",
    "start": {
        "state": {
            "elbow_joint": 2.010868314990456,
            "shoulder_lift_joint": -1.1634956873337592,
            "shoulder_pan_joint": -2.4736205022346125,
            "wrist_1_joint": -0.8367026794202681,
            "wrist_2_joint": 0.6746043897044499,
            "wrist_3_joint": -3.1496632123970403
        }
    },
    "waypoints": [
        {
            "positions": [
                -2.4736205022346125,
                -1.1634956873337592,
                2.010868314990456,
                -0.8367026794202681,
                0.6746043897044499,
                -3.1496632123970403
            ]
        },
        {
            "positions": [
                -2.5561858442819916,
                -1.13223563032389,
                1.9682233173718338,
                -0.8238320619245328,
                0.851236368220789,
                -3.138254344005019
            ]
        },
        {
            "positions": [
                -2.6387511863293707,
                -1.1009755733140207,
                1.9255783197532117,
                -0.8109614444287976,
                1.0278683467371281,
                -3.1268454756129973
            ]
        },
        {
            "positions": [
                -2.7213165283767498,
                -1.0697155163041516,
                1.8829333221345896,
                -0.7980908269330623,
                1.2045003252534672,
                -3.1154366072209756
            ]
        },
        {
            "positions": [
                -2.803881870424129,
                -1.0384554592942825,
                1.8402883245159678,
                -0.7852202094373271,
                1.3811323037698062,
                -3.1040277388289543
            ]
        },
        {
            "positions": [
                -2.886447212471508,
                -1.0071954022844134,
                1.7976433268973457,
                -0.7723495919415918,
                1.5577642822861453,
                -3.092618870436933
            ]
        },
        {
            "positions": [
                -2.969012554518887,
                -0.9759353452745442,
                1.7549983292787237,
                -0.7594789744458565,
                1.734396260802484,
                -3.0812100020449114
            ]
        }
    ]
}