{
    "goal": {
        "global_pose": {
            "orientation": {
                "w": 0.7031023480610252,
                "x": -0.7110244013736278,
                "y": 0.0077485991402295624,
                "z": 0.005598929693374583
            },
            "position": {
                "x": -0.8841497679147869,
                "y": 0.44412534475326537,
                "z": 0.3711530566215515
            }
        },
        "name": "move_to_auspresseinheit_D"
    },
    "id": "RRT_move_to_auspresseinheit_D_83",
    "joint_names": [
        "shoulder_pan_joint",
        "shoulder_lift_joint",
        "elbow_joint",
        "wrist_1_joint",
        "wrist_2_joint",
        "wrist_3_joint"
    ],
    "metrics": {
        "cart_traj_len": 0.3429266527882939,
        "distance_elbow_joint": 0.6338118860910826,
        "distance_shoulder_lift_joint": 0.11883394047208684,
        "distance_shoulder_pan_joint": 0.1333030052435801,
        "distance_wrist_1_joint": 0.5050139503899675,
        "distance_wrist_2_joint": 1.4436497465468634,
        "distance_wrist_3_joint": 0.03196573352021881,
        "smoothness": 1.7763568305772507e-15,
        "time": 0.014496034000000001,
        "traj_len": 1.6930972394590333,
        "weighted_distance": 2.2088851093348127
    },
    "planner": "RRT",
    "start": {
        "state": {
            "elbow_joint": -1.8275523626775212,
            "shoulder_lift_joint": -2.126789852344167,
            "shoulder_pan_joint": -0.03513704404078235,
            "wrist_1_joint": -2.347782403156801,
            "wrist_2_joint": -1.6058999987535132,
            "wrist_3_joint": -3.0880379163319196
        }
    },
    "waypoints": [
        {
            "positions": [
                -0.03513704404078235,
                -2.126789852344167,
                -1.8275523626775212,
                -2.347782403156801,
                -1.6058999987535132,
                -3.0880379163319196
            ]
        },
        {
            "positions": [
                -0.051799919696229865,
                -2.1416440949031776,
                -1.7483258769161358,
                -2.4109091469555466,
                -1.4254437804351552,
                -3.092033633021947
            ]
        },
        {
            "positions": [
                -0.06846279535167737,
                -2.1564983374621884,
                -1.6690993911547505,
                -2.4740358907542928,
                -1.2449875621167974,
                -3.096029349711974
            ]
        },
        {
            "positions": [
                -0.0851256710071249,
                -2.1713525800211992,
                -1.5898729053933651,
                -2.537162634553039,
                -1.0645313437984394,
                -3.1000250664020017
            ]
        },
        {
            "positions": [
                -0.1017885466625724,
                -2.1862068225802105,
                -1.5106464196319798,
                -2.6002893783517846,
                -0.8840751254800815,
                -3.104020783092029
            ]
        },
        {
            "positions": [
                -0.11845142231801992,
                -2.2010610651392213,
                -1.4314199338705946,
                -2.6634161221505304,
                -0.7036189071617236,
                -3.1080164997820563
            ]
        },
        {
            "positions": [
                -0.13511429797346744,
                -2.215915307698232,
                -1.3521934481092093,
                -2.7265428659492765,
                -0.5231626888433656,
                -3.112012216472084
            ]
        },
        {
            "positions": [
                -0.15177717362891494,
                -2.230769550257243,
                -1.272966962347824,
                -2.7896696097480227,
                -0.3427064705250078,
                -3.116007933162111
            ]
        },
        {
            "positions": [
                -0.16844004928436246,
                -2.2456237928162537,
                -1.1937404765864386,
                -2.8527963535467684,
                -0.16225025220664982,
                -3.1200036498521384
            ]
        }
    ]
}