{
    "goal": {
        "global_pose": {
            "orientation": {
                "w": 0.005598929693374612,
                "x": 0.007748599140229565,
                "y": 0.7110244013736278,
                "z": -0.7031023480610252
            },
            "position": {
                "x": 0.1141497679147869,
                "y": -0.7141253447532654,
                "z": 0.3711530566215515
            }
        },
        "name": "move_to_auspresseinheit_B"
    },
    "id": "RRT_move_to_auspresseinheit_B_62",
    "joint_names": [
        "shoulder_pan_joint",
        "shoulder_lift_joint",
        "elbow_joint",
        "wrist_1_joint",
        "wrist_2_joint",
        "wrist_3_joint"
    ],
    "metrics": {
        "cart_traj_len": 0.5635986846602539,
        "distance_elbow_joint": 0.06256886932845052,
        "distance_shoulder_lift_joint": 0.2949523873879334,
        "distance_shoulder_pan_joint": 0.5775602239866116,
        "distance_wrist_1_joint": 0.3318115069751325,
        "distance_wrist_2_joint": 0.9859893675622491,
        "distance_wrist_3_joint": 0.006940721865645649,
        "smoothness": 0.0,
        "time": 0.019950672000000003,
        "traj_len": 1.5032707930063773,
        "weighted_distance": 1.8951267491581392
    },
    "planner": "RRT",
    "start": {
        "state": {
            "elbow_joint": 2.0193083361928714,
            "shoulder_lift_joint": -1.1220246554650708,
            "shoulder_pan_joint": -1.0952077554168747,
            "wrist_1_joint": -0.8559753972642168,
            "wrist_2_joint": 0.4759566250798843,
            "wrist_3_joint": -3.1240929996934557
        }
    },
    "waypoints": [
        {
            "positions": [
                -1.0952077554168747,
                -1.1220246554650708,
                2.0193083361928714,
                -0.8559753972642168,
                0.4759566250798843,
                -3.1240929996934557
            ]
        },
        {
            "positions": [
                -1.1914677927479767,
                -1.171183386696393,
                2.0088801913047964,
                -0.8006734794350281,
                0.6402881863402592,
                -3.122936212715848
            ]
        },
        {
            "positions": [
                -1.2877278300790784,
                -1.2203421179277152,
                1.9984520464167213,
                -0.7453715616058393,
                0.804619747600634,
                -3.1217794257382403
            ]
        },
        {
            "positions": [
                -1.3839878674101804,
                -1.2695008491590376,
                1.988023901528646,
                -0.6900696437766505,
                0.9689513088610089,
                -3.120622638760633
            ]
        },
        {
            "positions": [
                -1.4802479047412822,
                -1.3186595803903598,
                1.977595756640571,
                -0.6347677259474618,
                1.1332828701213837,
                -3.1194658517830254
            ]
        },
        {
            "positions": [
                -1.5765079420723844,
                -1.367818311621682,
                1.967167611752496,
                -0.5794658081182731,
                1.2976144313817586,
                -3.1183090648054175
            ]
        },
        {
            "positions": [
                -1.6727679794034862,
                -1.4169770428530042,
                1.956739466864421,
                -0.5241638902890843,
                1.4619459926421334,
                -3.11715227782781
            ]
        }
    ]
}