{
    "goal": {
        "global_pose": {
            "orientation": {
                "w": 0.7047431468963623,
                "x": -0.7094548344612122,
                "y": 0.0024358443915843964,
                "z": -0.0022348060738295317
            },
            "position": {
                "x": 0.6094750761985779,
                "y": 0.3671506643295288,
                "z": 0.19426114857196808
            }
        },
        "name": "move_to_magneteinheit_A"
    },
    "id": "RRT_move_to_magneteinheit_A_15",
    "joint_names": [
        "shoulder_pan_joint",
        "shoulder_lift_joint",
        "elbow_joint",
        "wrist_1_joint",
        "wrist_2_joint",
        "wrist_3_joint"
    ],
    "metrics": {
        "cart_traj_len": 3.1388226775530064,
        "distance_elbow_joint": 3.897908000359368,
        "distance_shoulder_lift_joint": 0.735874849308904,
        "distance_shoulder_pan_joint": 2.8593581511795576,
        "distance_wrist_1_joint": 0.8048314745474436,
        "distance_wrist_2_joint": 1.6969480118962414,
        "distance_wrist_3_joint": 3.6060289635670366,
        "smoothness": 0.15753035234007473,
        "time": 2.675384393,
        "traj_len": 3.6879465086764145,
        "weighted_distance": 4.828538791853733
    },
    "planner": "RRT",
    "start": {
        "state": {
            "elbow_joint": -1.9196185241190666,
            "shoulder_lift_joint": -1.2443396400964142,
            "shoulder_pan_joint": 2.6996025414629847,
            "wrist_1_joint": -1.5485510000780065,
            "wrist_2_joint": -1.5709468930060704,
            "wrist_3_joint": 0.4420197071253992
        }
    },
    "waypoints": [
        {
            "positions": [
                2.6996025414629847,
                -1.2443396400964142,
                -1.9196185241190666,
                -1.5485510000780065,
                -1.5709468930060704,
                0.4420197071253992
            ]
        },
        {
            "positions": [
                2.6061975981601857,
                -1.2556865369719517,
                -1.7922946534837358,
                -1.521988999621399,
                -1.537448300838102,
                0.33872556726397296
            ]
        },
        {
            "positions": [
                2.512792654857387,
                -1.2670334338474891,
                -1.664970782848405,
                -1.4954269991647917,
                -1.5039497086701337,
                0.23543142740254674
            ]
        },
        {
            "positions": [
                2.419387711554588,
                -1.2783803307230264,
                -1.5376469122130743,
                -1.4688649987081843,
                -1.4704511165021652,
                0.13213728754112053
            ]
        },
        {
            "positions": [
                2.325982768251789,
                -1.2897272275985638,
                -1.4103230415777435,
                -1.442302998251577,
                -1.436952524334197,
                0.028843147679694314
            ]
        },
        {
            "positions": [
                2.2325778249489905,
                -1.3010741244741013,
                -1.2829991709424124,
                -1.4157409977949695,
                -1.4034539321662285,
                -0.0744509921817319
            ]
        },
        {
            "positions": [
                2.1391728816461915,
                -1.3124210213496388,
                -1.1556753003070819,
                -1.3891789973383621,
                -1.3699553399982602,
                -0.17774513204315812
            ]
        },
        {
            "positions": [
                2.0457679383433924,
                -1.323767918225176,
                -1.0283514296717509,
                -1.3626169968817545,
                -1.3364567478302918,
                -0.28103927190458433
            ]
        },
        {
            "positions": [
                1.9523629950405939,
                -1.3351148151007135,
                -0.9010275590364201,
                -1.3360549964251471,
                -1.3029581556623233,
                -0.38433341176601055
            ]
        },
        {
            "positions": [
                1.8589580517377948,
                -1.346461711976251,
                -0.773703688401089,
                -1.3094929959685397,
                -1.269459563494355,
                -0.4876275516274369
            ]
        },
        {
            "positions": [
                1.7655531084349958,
                -1.3578086088517884,
                -0.6463798177657583,
                -1.2829309955119323,
                -1.2359609713263866,
                -0.590921691488863
            ]
        },
        {
            "positions": [
                1.672148165132197,
                -1.369155505727326,
                -0.5190559471304277,
                -1.256368995055325,
                -1.2024623791584184,
                -0.6942158313502892
            ]
        },
        {
            "positions": [
                1.5787432218293982,
                -1.3805024026028632,
                -0.3917320764950969,
                -1.2298069945987176,
                -1.16896378699045,
                -0.7975099712117154
            ]
        },
        {
            "positions": [
                1.4853382785265992,
                -1.3918492994784006,
                -0.2644082058597659,
                -1.2032449941421102,
                -1.1354651948224816,
                -0.9008041110731416
            ]
        },
        {
            "positions": [
                1.3919333352238004,
                -1.403196196353938,
                -0.13708433522443508,
                -1.1766829936855028,
                -1.1019666026545132,
                -1.0040982509345677
            ]
        },
        {
            "positions": [
                1.2985283919210016,
                -1.4145430932294756,
                -0.00976046458910429,
                -1.1501209932288954,
                -1.0684680104865447,
                -1.1073923907959942
            ]
        },
        {
            "positions": [
                1.2051234486182028,
                -1.4258899901050128,
                0.1175634060462265,
                -1.123558992772288,
                -1.0349694183185765,
                -1.2106865306574202
            ]
        },
        {
            "positions": [
                1.1117185053154037,
                -1.4372368869805503,
                0.24488727668155708,
                -1.0969969923156806,
                -1.0014708261506082,
                -1.3139806705188461
            ]
        },
        {
            "positions": [
                1.0183135620126047,
                -1.4485837838560878,
                0.37221114731688854,
                -1.0704349918590732,
                -0.9679722339826397,
                -1.417274810380273
            ]
        },
        {
            "positions": [
                0.9249086187098059,
                -1.4599306807316252,
                0.4995350179522191,
                -1.0438729914024658,
                -0.9344736418146713,
                -1.520568950241699
            ]
        },
        {
            "positions": [
                0.8315036754070071,
                -1.4712775776071627,
                0.6268588885875501,
                -1.0173109909458584,
                -0.9009750496467029,
                -1.623863090103125
            ]
        },
        {
            "positions": [
                0.7380987321042083,
                -1.4826244744827002,
                0.7541827592228807,
                -0.9907489904892509,
                -0.8674764574787346,
                -1.7271572299645515
            ]
        },
        {
            "positions": [
                0.6446937888014093,
                -1.4939713713582374,
                0.8815066298582113,
                -0.9641869900326435,
                -0.8339778653107662,
                -1.8304513698259774
            ]
        },
        {
            "positions": [
                0.5512888454986107,
                -1.505318268233775,
                1.0088305004935423,
                -0.9376249895760361,
                -0.8004792731427979,
                -1.9337455096874034
            ]
        },
        {
            "positions": [
                0.45788390219581165,
                -1.5166651651093124,
                1.1361543711288729,
                -0.9110629891194287,
                -0.7669806809748295,
                -2.03703964954883
            ]
        },
        {
            "positions": [
                0.36447895889301263,
                -1.5280120619848498,
                1.2634782417642043,
                -0.8845009886628212,
                -0.733482088806861,
                -2.1403337894102563
            ]
        },
        {
            "positions": [
                0.2710740155902136,
                -1.539358958860387,
                1.3908021123995349,
                -0.8579389882062138,
                -0.6999834966388927,
                -2.2436279292716823
            ]
        },
        {
            "positions": [
                0.17766907228741502,
                -1.5507058557359246,
                1.518125983034866,
                -0.8313769877496064,
                -0.6664849044709243,
                -2.3469220691331087
            ]
        },
        {
            "positions": [
                0.08426412898461604,
                -1.562052752611462,
                1.6454498536701965,
                -0.804814987292999,
                -0.632986312302956,
                -2.4502162089945347
            ]
        },
        {
            "positions": [
                0.033094999972217216,
                -1.5386549104954934,
                1.708925597741508,
                -0.8153523435295872,
                -0.5662132556347093,
                -2.487997609272102
            ]
        },
        {
            "positions": [
                -0.018074129040181602,
                -1.5152570683795248,
                1.7724013418128195,
                -0.8258896997661753,
                -0.49944019896646247,
                -2.52577900954967
            ]
        },
        {
            "positions": [
                0.0017597722909940654,
                -1.4455953802168868,
                1.8149172841870918,
                -0.8193024341938835,
                -0.378085677631894,
                -2.6484757314660223
            ]
        },
        {
            "positions": [
                0.021593673622169733,
                -1.375933692054249,
                1.8574332265613642,
                -0.8127151686215917,
                -0.25673115629732557,
                -2.7711724533823747
            ]
        },
        {
            "positions": [
                0.0414275749533454,
                -1.3062720038916114,
                1.8999491689356365,
                -0.8061279030492999,
                -0.1353766349627571,
                -2.893869175298727
            ]
        },
        {
            "positions": [
                0.06126147628452107,
                -1.2366103157289734,
                1.9424651113099087,
                -0.7995406374770081,
                -0.014022113628188629,
                -3.0165658972150795
            ]
        },
        {
            "positions": [
                0.09243441396036538,
                -1.1902506657732896,
                1.960377293775105,
                -0.8063764809770544,
                0.055989502630991214,
                -3.0902875768283584
            ]
        },
        {
            "positions": [
                0.12360735163620969,
                -1.1438910158176059,
                1.9782894762403012,
                -0.8132123244771008,
                0.12600111889017107,
                -3.1640092564416373
            ]
        }
    ]
}