{
    "goal": {
        "global_pose": {
            "orientation": {
                "w": 0.005598929693374612,
                "x": 0.007748599140229565,
                "y": 0.7110244013736278,
                "z": -0.7031023480610252
            },
            "position": {
                "x": 0.1141497679147869,
                "y": -0.7141253447532654,
                "z": 0.3711530566215515
            }
        },
        "name": "move_to_auspresseinheit_B"
    },
    "id": "RRT_move_to_auspresseinheit_B_130",
    "joint_names": [
        "shoulder_pan_joint",
        "shoulder_lift_joint",
        "elbow_joint",
        "wrist_1_joint",
        "wrist_2_joint",
        "wrist_3_joint"
    ],
    "metrics": {
        "cart_traj_len": 0.5642745332323622,
        "distance_elbow_joint": 0.06254440267720152,
        "distance_shoulder_lift_joint": 0.293918227369947,
        "distance_shoulder_pan_joint": 0.574864668745382,
        "distance_wrist_1_joint": 0.3285088347316041,
        "distance_wrist_2_joint": 1.0059932585501834,
        "distance_wrist_3_joint": 0.0026484231543077996,
        "smoothness": 3.806478935924272e-16,
        "time": 0.011988437999999999,
        "traj_len": 1.5061466778599706,
        "weighted_distance": 1.8995464602949381
    },
    "planner": "RRT",
    "start": {
        "state": {
            "elbow_joint": 2.0193083361928714,
            "shoulder_lift_joint": -1.1220246554650708,
            "shoulder_pan_joint": -1.0952077554168747,
            "wrist_1_joint": -0.8559753972642168,
            "wrist_2_joint": 0.4759566250798843,
            "wrist_3_joint": -3.1240929996934557
        }
    },
    "waypoints": [
        {
            "positions": [
                -1.0952077554168747,
                -1.1220246554650708,
                2.0193083361928714,
                -0.8559753972642168,
                0.4759566250798843,
                -3.1240929996934557
            ]
        },
        {
            "positions": [
                -1.191018533541105,
                -1.1710110266933953,
                2.0088842690800046,
                -0.8012239248089494,
                0.6436221681715815,
                -3.123651595834404
            ]
        },
        {
            "positions": [
                -1.2868293116653353,
                -1.2199973979217198,
                1.9984602019671376,
                -0.7464724523536821,
                0.8112877112632788,
                -3.123210191975353
            ]
        },
        {
            "positions": [
                -1.3826400897895657,
                -1.2689837691500443,
                1.9880361348542706,
                -0.6917209798984147,
                0.9789532543549759,
                -3.1227687881163018
            ]
        },
        {
            "positions": [
                -1.478450867913796,
                -1.3179701403783688,
                1.9776120677414037,
                -0.6369695074431474,
                1.1466187974466733,
                -3.1223273842572503
            ]
        },
        {
            "positions": [
                -1.5742616460380263,
                -1.3669565116066933,
                1.967188000628537,
                -0.58221803498788,
                1.3142843405383704,
                -3.1218859803981993
            ]
        },
        {
            "positions": [
                -1.6700724241622567,
                -1.4159428828350178,
                1.95676393351567,
                -0.5274665625326127,
                1.4819498836300677,
                -3.121444576539148
            ]
        }
    ]
}