{
    "goal": {
        "global_pose": {
            "orientation": {
                "w": 0.005598929693374612,
                "x": 0.007748599140229565,
                "y": 0.7110244013736278,
                "z": -0.7031023480610252
            },
            "position": {
                "x": -0.8858502320852131,
                "y": -0.7141253447532654,
                "z": 0.3711530566215515
            }
        },
        "name": "move_to_auspresseinheit_C"
    },
    "id": "RRT_move_to_auspresseinheit_C_137",
    "joint_names": [
        "shoulder_pan_joint",
        "shoulder_lift_joint",
        "elbow_joint",
        "wrist_1_joint",
        "wrist_2_joint",
        "wrist_3_joint"
    ],
    "metrics": {
        "cart_traj_len": 0.49244526141053074,
        "distance_elbow_joint": 0.9950969648098813,
        "distance_shoulder_lift_joint": 0.32314900662275614,
        "distance_shoulder_pan_joint": 0.2557095396720417,
        "distance_wrist_1_joint": 0.6636206865150094,
        "distance_wrist_2_joint": 1.3207640939787935,
        "distance_wrist_3_joint": 0.046756079110268356,
        "smoothness": 0.0,
        "time": 0.122863422,
        "traj_len": 1.898709132729063,
        "weighted_distance": 2.383902957215979
    },
    "planner": "RRT",
    "start": {
        "state": {
            "elbow_joint": 1.7527959577737207,
            "shoulder_lift_joint": -0.9740617694225068,
            "shoulder_pan_joint": -2.967991417825858,
            "wrist_1_joint": -0.759517768980727,
            "wrist_2_joint": 1.7443932448377408,
            "wrist_3_joint": -3.0840537646736568
        }
    },
    "waypoints": [
        {
            "positions": [
                -2.967991417825858,
                -0.9740617694225068,
                1.7527959577737207,
                -0.759517768980727,
                1.7443932448377408,
                -3.0840537646736568
            ]
        },
        {
            "positions": [
                -2.942420463858654,
                -0.9417468687602312,
                1.6532862612927326,
                -0.693155700329226,
                1.6123168354398616,
                -3.088729372584684
            ]
        },
        {
            "positions": [
                -2.9168495098914495,
                -0.9094319680979556,
                1.5537765648117443,
                -0.6267936316777251,
                1.4802404260419821,
                -3.0934049804957104
            ]
        },
        {
            "positions": [
                -2.8912785559242455,
                -0.87711706743568,
                1.4542668683307562,
                -0.5604315630262242,
                1.3481640166441027,
                -3.098080588406737
            ]
        },
        {
            "positions": [
                -2.865707601957041,
                -0.8448021667734043,
                1.3547571718497682,
                -0.4940694943747232,
                1.2160876072462234,
                -3.102756196317764
            ]
        },
        {
            "positions": [
                -2.840136647989837,
                -0.8124872661111286,
                1.2552474753687801,
                -0.4277074257232223,
                1.0840111978483442,
                -3.107431804228791
            ]
        },
        {
            "positions": [
                -2.814565694022633,
                -0.780172365448853,
                1.1557377788877918,
                -0.3613453570717214,
                0.9519347884504648,
                -3.112107412139818
            ]
        },
        {
            "positions": [
                -2.7889947400554287,
                -0.7478574647865774,
                1.0562280824068038,
                -0.2949832884202204,
                0.8198583790525855,
                -3.1167830200508444
            ]
        },
        {
            "positions": [
                -2.7634237860882247,
                -0.7155425641243018,
                0.9567183859258156,
                -0.2286212197687194,
                0.6877819696547061,
                -3.1214586279618715
            ]
        },
        {
            "positions": [
                -2.7378528321210203,
                -0.6832276634620262,
                0.8572086894448274,
                -0.16225915111721856,
                0.5557055602568266,
                -3.1261342358728985
            ]
        },
        {
            "positions": [
                -2.7122818781538163,
                -0.6509127627997506,
                0.7576989929638394,
                -0.0958970824657176,
                0.4236291508589473,
                -3.130809843783925
            ]
        }
    ]
}