{
    "goal": {
        "global_pose": {
            "orientation": {
                "w": -0.4816463035849501,
                "x": 0.5182115481033762,
                "y": 0.4908360881923453,
                "z": -0.5084816262002911
            },
            "position": {
                "x": -0.8240239810943604,
                "y": 0.19912469901144506,
                "z": 0.16403168439865112
            }
        },
        "name": "move_to_storage_D"
    },
    "id": "RRT_move_to_storage_D_4",
    "joint_names": [
        "shoulder_pan_joint",
        "shoulder_lift_joint",
        "elbow_joint",
        "wrist_1_joint",
        "wrist_2_joint",
        "wrist_3_joint"
    ],
    "metrics": {
        "cart_traj_len": 3.866959080225162,
        "distance_elbow_joint": 4.209691177995738,
        "distance_shoulder_lift_joint": 1.26485692398554,
        "distance_shoulder_pan_joint": 2.812050749644185,
        "distance_wrist_1_joint": 2.2650797046603537,
        "distance_wrist_2_joint": 0.8691523339752828,
        "distance_wrist_3_joint": 3.137859602967151,
        "smoothness": 7.01193492152154e-16,
        "time": 0.052854615,
        "traj_len": 3.8155852097978697,
        "weighted_distance": 4.895777950213652
    },
    "planner": "RRT",
    "start": {
        "state": {
            "elbow_joint": -2.384821988534728,
            "shoulder_lift_joint": -2.2788054721415256,
            "shoulder_pan_joint": -0.1854694642142757,
            "wrist_1_joint": 1.4845938289331202,
            "wrist_2_joint": 0.17898776772866878,
            "wrist_3_joint": 0.037105688729662994
        }
    },
    "waypoints": [
        {
            "positions": [
                -0.1854694642142757,
                -2.2788054721415256,
                -2.384821988534728,
                1.4845938289331202,
                0.17898776772866878,
                0.037105688729662994
            ]
        },
        {
            "positions": [
                -0.09615384038178657,
                -2.2512751069209167,
                -2.262471185611505,
                1.4077073783714376,
                0.20037664958506304,
                -0.02140199276105663
            ]
        },
        {
            "positions": [
                -0.006838216549297421,
                -2.223744741700308,
                -2.140120382688282,
                1.330820927809755,
                0.22176553144145733,
                -0.07990967425177625
            ]
        },
        {
            "positions": [
                0.08247740728319172,
                -2.196214376479699,
                -2.017769579765059,
                1.253934477248072,
                0.2431544132978516,
                -0.13841735574249586
            ]
        },
        {
            "positions": [
                0.17179303111568087,
                -2.1686840112590904,
                -1.895418776841836,
                1.1770480266863894,
                0.26454329515424585,
                -0.1969250372332155
            ]
        },
        {
            "positions": [
                0.26110865494817004,
                -2.1411536460384815,
                -1.773067973918613,
                1.1001615761247066,
                0.2859321770106401,
                -0.25543271872393514
            ]
        },
        {
            "positions": [
                0.3504242787806592,
                -2.1136232808178725,
                -1.65071717099539,
                1.023275125563024,
                0.30732105886703437,
                -0.31394040021465475
            ]
        },
        {
            "positions": [
                0.4397399026131483,
                -2.0860929155972636,
                -1.528366368072167,
                0.9463886750013413,
                0.32870994072342863,
                -0.37244808170537436
            ]
        },
        {
            "positions": [
                0.5290555264456375,
                -2.0585625503766547,
                -1.4060155651489443,
                0.8695022244396586,
                0.35009882257982294,
                -0.43095576319609397
            ]
        },
        {
            "positions": [
                0.6183711502781267,
                -2.0310321851560458,
                -1.2836647622257211,
                0.7926157738779758,
                0.3714877044362172,
                -0.4894634446868137
            ]
        },
        {
            "positions": [
                0.7076867741106158,
                -2.003501819935437,
                -1.1613139593024984,
                0.7157293233162931,
                0.39287658629261146,
                -0.5479711261775333
            ]
        },
        {
            "positions": [
                0.7970023979431049,
                -1.9759714547148282,
                -1.0389631563792754,
                0.6388428727546105,
                0.4142654681490057,
                -0.6064788076682528
            ]
        },
        {
            "positions": [
                0.886318021775594,
                -1.9484410894942192,
                -0.9166123534560524,
                0.5619564221929279,
                0.4356543500054,
                -0.6649864891589724
            ]
        },
        {
            "positions": [
                0.9756336456080833,
                -1.9209107242736103,
                -0.7942615505328294,
                0.485069971631245,
                0.4570432318617943,
                -0.7234941706496921
            ]
        },
        {
            "positions": [
                1.0649492694405722,
                -1.8933803590530016,
                -0.6719107476096065,
                0.40818352106956235,
                0.4784321137181885,
                -0.7820018521404117
            ]
        },
        {
            "positions": [
                1.1542648932730613,
                -1.8658499938323927,
                -0.5495599446863835,
                0.3312970705078797,
                0.4998209955745828,
                -0.8405095336311313
            ]
        },
        {
            "positions": [
                1.2435805171055505,
                -1.8383196286117838,
                -0.4272091417631607,
                0.25441061994619707,
                0.521209877430977,
                -0.899017215121851
            ]
        },
        {
            "positions": [
                1.3328961409380395,
                -1.8107892633911749,
                -0.30485833883993774,
                0.17752416938451443,
                0.5425987592873713,
                -0.9575248966125706
            ]
        },
        {
            "positions": [
                1.422211764770529,
                -1.783258898170566,
                -0.18250753591671431,
                0.10063771882283135,
                0.5639876411437657,
                -1.0160325781032904
            ]
        },
        {
            "positions": [
                1.511527388603018,
                -1.755728532949957,
                -0.060156732993491335,
                0.023751268261148706,
                0.5853765230001599,
                -1.07454025959401
            ]
        },
        {
            "positions": [
                1.600843012435507,
                -1.7281981677293483,
                0.0621940699297312,
                -0.053135182300533934,
                0.6067654048565542,
                -1.1330479410847296
            ]
        },
        {
            "positions": [
                1.6901586362679963,
                -1.7006678025087394,
                0.18454487285295418,
                -0.13002163286221657,
                0.6281542867129484,
                -1.1915556225754491
            ]
        },
        {
            "positions": [
                1.7794742601004854,
                -1.6731374372881307,
                0.30689567577617716,
                -0.20690808342389921,
                0.6495431685693427,
                -1.2500633040661686
            ]
        },
        {
            "positions": [
                1.8687898839329744,
                -1.6456070720675218,
                0.42924647869940014,
                -0.28379453398558185,
                0.6709320504257369,
                -1.3085709855568883
            ]
        },
        {
            "positions": [
                1.9581055077654637,
                -1.6180767068469128,
                0.5515972816226231,
                -0.3606809845472645,
                0.6923209322821311,
                -1.3670786670476078
            ]
        },
        {
            "positions": [
                2.047421131597953,
                -1.590546341626304,
                0.6739480845458461,
                -0.4375674351089476,
                0.7137098141385255,
                -1.4255863485383278
            ]
        },
        {
            "positions": [
                2.136736755430442,
                -1.563015976405695,
                0.7962988874690691,
                -0.5144538856706302,
                0.7350986959949197,
                -1.4840940300290473
            ]
        },
        {
            "positions": [
                2.226052379262931,
                -1.535485611185086,
                0.918649690392292,
                -0.5913403362323129,
                0.756487577851314,
                -1.542601711519767
            ]
        },
        {
            "positions": [
                2.3153680030954202,
                -1.5079552459644774,
                1.041000493315515,
                -0.6682267867939955,
                0.7778764597077082,
                -1.6011093930104865
            ]
        },
        {
            "positions": [
                2.349947256688141,
                -1.4530656128746449,
                1.1280970151094591,
                -0.6807000188976886,
                0.8079057532628464,
                -1.7677365620357088
            ]
        },
        {
            "positions": [
                2.384526510280862,
                -1.3981759797848126,
                1.215193536903403,
                -0.6931732510013817,
                0.8379350468179845,
                -1.9343637310609312
            ]
        },
        {
            "positions": [
                2.4191057638735836,
                -1.34328634669498,
                1.3022900586973472,
                -0.7056464831050748,
                0.8679643403731226,
                -2.1009909000861535
            ]
        },
        {
            "positions": [
                2.4536850174663045,
                -1.2883967136051477,
                1.389386580491291,
                -0.7181197152087679,
                0.8979936339282608,
                -2.267618069111376
            ]
        },
        {
            "positions": [
                2.4882642710590255,
                -1.2335070805153152,
                1.4764831022852354,
                -0.7305929473124612,
                0.928022927483399,
                -2.4342452381365987
            ]
        },
        {
            "positions": [
                2.5228435246517464,
                -1.178617447425483,
                1.5635796240791793,
                -0.7430661794161543,
                0.9580522210385372,
                -2.6008724071618206
            ]
        },
        {
            "positions": [
                2.557422778244468,
                -1.1237278143356504,
                1.6506761458731232,
                -0.7555394115198474,
                0.9880815145936752,
                -2.7674995761870433
            ]
        },
        {
            "positions": [
                2.592002031837189,
                -1.068838181245818,
                1.7377726676670673,
                -0.7680126436235405,
                1.0181108081488133,
                -2.9341267452122652
            ]
        },
        {
            "positions": [
                2.6265812854299098,
                -1.0139485481559856,
                1.8248691894610114,
                -0.7804858757272336,
                1.0481401017039516,
                -3.100753914237488
            ]
        }
    ]
}