{
    "goal": {
        "global_pose": {
            "orientation": {
                "w": 0.5084816262002911,
                "x": -0.4908360881923452,
                "y": 0.5182115481033761,
                "z": -0.48164630358495003
            },
            "position": {
                "x": 0.5540239810943604,
                "y": -0.46912469901144505,
                "z": 0.16403168439865112
            }
        },
        "name": "move_to_storage_B"
    },
    "id": "RRT_move_to_storage_B_65",
    "joint_names": [
        "shoulder_pan_joint",
        "shoulder_lift_joint",
        "elbow_joint",
        "wrist_1_joint",
        "wrist_2_joint",
        "wrist_3_joint"
    ],
    "metrics": {
        "cart_traj_len": 1.4997788224677864,
        "distance_elbow_joint": 1.2432455356058765,
        "distance_shoulder_lift_joint": 0.4597062695991927,
        "distance_shoulder_pan_joint": 1.0911591720131588,
        "distance_wrist_1_joint": 2.986560828149579,
        "distance_wrist_2_joint": 2.7198719443061927,
        "distance_wrist_3_joint": 3.1405607947630174,
        "smoothness": 0.18012732950901658,
        "time": 0.065909128,
        "traj_len": 3.4119062918604635,
        "weighted_distance": 4.8609318969122395
    },
    "planner": "RRT",
    "start": {
        "state": {
            "elbow_joint": 1.664937868594044,
            "shoulder_lift_joint": -0.661644460510453,
            "shoulder_pan_joint": -0.9139846352900073,
            "wrist_1_joint": 2.146753192139373,
            "wrist_2_joint": -2.2341966793290973,
            "wrist_3_joint": 0.005466555786416001
        }
    },
    "waypoints": [
        {
            "positions": [
                -0.9139846352900073,
                -0.661644460510453,
                1.664937868594044,
                2.146753192139373,
                -2.2341966793290973,
                0.005466555786416001
            ]
        },
        {
            "positions": [
                -0.8570610487376006,
                -0.7003502734505718,
                1.609254484731071,
                2.1250430287964557,
                -2.05209409616096,
                -0.016725739057426112
            ]
        },
        {
            "positions": [
                -0.8001374621851938,
                -0.7390560863906905,
                1.5535711008680981,
                2.1033328654535386,
                -1.8699915129928228,
                -0.038918033901268224
            ]
        },
        {
            "positions": [
                -0.7432138756327871,
                -0.7777618993308094,
                1.497887717005125,
                2.081622702110621,
                -1.6878889298246857,
                -0.06111032874511034
            ]
        },
        {
            "positions": [
                -0.6862902890803804,
                -0.8164677122709282,
                1.4422043331421521,
                2.059912538767704,
                -1.5057863466565484,
                -0.08330262358895245
            ]
        },
        {
            "positions": [
                -0.6293667025279736,
                -0.855173525211047,
                1.3865209492791792,
                2.0382023754247864,
                -1.323683763488411,
                -0.10549491843279456
            ]
        },
        {
            "positions": [
                -0.5724431159755669,
                -0.8938793381511658,
                1.3308375654162061,
                2.016492212081869,
                -1.141581180320274,
                -0.12768721327663668
            ]
        },
        {
            "positions": [
                -0.51551952942316,
                -0.9325851510912846,
                1.2751541815532332,
                1.9947820487389516,
                -0.9594785971521369,
                -0.1498795081204788
            ]
        },
        {
            "positions": [
                -0.45859594287075334,
                -0.9712909640314034,
                1.2194707976902603,
                1.9730718853960343,
                -0.7773760139839996,
                -0.1720718029643209
            ]
        },
        {
            "positions": [
                -0.48749460103411263,
                -0.9781118624895053,
                1.2557334551767192,
                1.8452137253321141,
                -0.7199645922130407,
                -0.30675464096487914
            ]
        },
        {
            "positions": [
                -0.5163932591974719,
                -0.9849327609476072,
                1.2919961126631778,
                1.7173555652681942,
                -0.6625531704420818,
                -0.44143747896543734
            ]
        },
        {
            "positions": [
                -0.5452919173608313,
                -0.9917536594057091,
                1.3282587701496367,
                1.5894974052042743,
                -0.6051417486711229,
                -0.5761203169659955
            ]
        },
        {
            "positions": [
                -0.5741905755241906,
                -0.9985745578638111,
                1.3645214276360955,
                1.4616392451403541,
                -0.5477303269001641,
                -0.7108031549665538
            ]
        },
        {
            "positions": [
                -0.6030892336875499,
                -1.005395456321913,
                1.4007840851225541,
                1.3337810850764342,
                -0.4903189051292052,
                -0.845485992967112
            ]
        },
        {
            "positions": [
                -0.6319878918509092,
                -1.012216354780015,
                1.437046742609013,
                1.2059229250125143,
                -0.4329074833582463,
                -0.9801688309676702
            ]
        },
        {
            "positions": [
                -0.6608865500142684,
                -1.019037253238117,
                1.4733094000954718,
                1.0780647649485942,
                -0.3754960615872874,
                -1.1148516689682286
            ]
        },
        {
            "positions": [
                -0.6897852081776278,
                -1.0258581516962189,
                1.5095720575819305,
                0.950206604884674,
                -0.3180846398163285,
                -1.2495345069687867
            ]
        },
        {
            "positions": [
                -0.7186838663409871,
                -1.0326790501543206,
                1.5458347150683893,
                0.8223484448207541,
                -0.2606732180453696,
                -1.3842173449693451
            ]
        },
        {
            "positions": [
                -0.7475825245043464,
                -1.0394999486124226,
                1.582097372554848,
                0.6944902847568342,
                -0.20326179627441077,
                -1.5189001829699031
            ]
        },
        {
            "positions": [
                -0.7764811826677057,
                -1.0463208470705245,
                1.6183600300413068,
                0.566632124692914,
                -0.14585037450345184,
                -1.6535830209704614
            ]
        },
        {
            "positions": [
                -0.8053798408310651,
                -1.0531417455286265,
                1.6546226875277656,
                0.4387739646289941,
                -0.08843895273249303,
                -1.7882658589710194
            ]
        },
        {
            "positions": [
                -0.8342784989944243,
                -1.0599626439867285,
                1.6908853450142245,
                0.31091580456507395,
                -0.03102753096153399,
                -1.9229486969715779
            ]
        },
        {
            "positions": [
                -0.8631771571577836,
                -1.0667835424448302,
                1.7271480025006831,
                0.18305764450115403,
                0.026383890809424826,
                -2.057631534972136
            ]
        },
        {
            "positions": [
                -0.892075815321143,
                -1.0736044409029322,
                1.7634106599871417,
                0.0551994844372341,
                0.08379531258038364,
                -2.192314372972694
            ]
        },
        {
            "positions": [
                -0.9209744734845022,
                -1.0804253393610341,
                1.7996733174736006,
                -0.07265867562668626,
                0.14120673435134257,
                -2.3269972109732526
            ]
        },
        {
            "positions": [
                -0.9498731316478615,
                -1.087246237819136,
                1.8359359749600594,
                -0.20051683569060597,
                0.1986181561223015,
                -2.461680048973811
            ]
        },
        {
            "positions": [
                -0.9787717898112209,
                -1.094067136277238,
                1.8721986324465183,
                -0.3283749957545261,
                0.2560295778932604,
                -2.5963628869743696
            ]
        },
        {
            "positions": [
                -1.0076704479745802,
                -1.1008880347353398,
                1.908461289932977,
                -0.45623315581844626,
                0.31344099966421934,
                -2.731045724974927
            ]
        },
        {
            "positions": [
                -1.0365691061379394,
                -1.1077089331934418,
                1.9447239474194356,
                -0.584091315882366,
                0.37085242143517805,
                -2.8657285629754856
            ]
        },
        {
            "positions": [
                -1.0654677643012989,
                -1.1145298316515437,
                1.9809866049058944,
                -0.7119494759462865,
                0.428263843206137,
                -3.000411400976044
            ]
        },
        {
            "positions": [
                -1.094366422464658,
                -1.1213507301096457,
                2.0172492623923532,
                -0.8398076360102062,
                0.4856752649770959,
                -3.1350942389766017
            ]
        }
    ]
}