{
    "goal": {
        "global_pose": {
            "orientation": {
                "w": 0.5084816262002911,
                "x": -0.4908360881923452,
                "y": 0.5182115481033761,
                "z": -0.48164630358495003
            },
            "position": {
                "x": 0.5540239810943604,
                "y": -0.46912469901144505,
                "z": 0.16403168439865112
            }
        },
        "name": "move_to_storage_B"
    },
    "id": "RRT_move_to_storage_B_64",
    "joint_names": [
        "shoulder_pan_joint",
        "shoulder_lift_joint",
        "elbow_joint",
        "wrist_1_joint",
        "wrist_2_joint",
        "wrist_3_joint"
    ],
    "metrics": {
        "cart_traj_len": 0.7047101573671691,
        "distance_elbow_joint": 0.35374500109010043,
        "distance_shoulder_lift_joint": 0.45931831922612787,
        "distance_shoulder_pan_joint": 0.3810683456255485,
        "distance_wrist_1_joint": 3.0135853231601395,
        "distance_wrist_2_joint": 2.741076262428173,
        "distance_wrist_3_joint": 3.3315078767642183,
        "smoothness": 0.3270135229933105,
        "time": 0.149752167,
        "traj_len": 3.2062908676996704,
        "weighted_distance": 4.764239547651972
    },
    "planner": "RRT",
    "start": {
        "state": {
            "elbow_joint": 1.664937868594044,
            "shoulder_lift_joint": -0.661644460510453,
            "shoulder_pan_joint": -0.9139846352900073,
            "wrist_1_joint": 2.146753192139373,
            "wrist_2_joint": -2.2341966793290973,
            "wrist_3_joint": 0.005466555786416001
        }
    },
    "waypoints": [
        {
            "positions": [
                -0.9139846352900073,
                -0.661644460510453,
                1.664937868594044,
                2.146753192139373,
                -2.2341966793290973,
                0.005466555786416001
            ]
        },
        {
            "positions": [
                -0.8640852173376007,
                -0.7219380943621644,
                1.7010194241456698,
                2.1448501292447695,
                -2.2443122258977515,
                0.0577299343433379
            ]
        },
        {
            "positions": [
                -0.8141857993851941,
                -0.7822317282138758,
                1.7371009796972954,
                2.142947066350166,
                -2.2544277724664057,
                0.10999331290025981
            ]
        },
        {
            "positions": [
                -0.8254365797740235,
                -0.795780970274784,
                1.7483642552967693,
                2.022555898455329,
                -2.145593965694771,
                -0.019085931885755178
            ]
        },
        {
            "positions": [
                -0.8366873601628529,
                -0.8093302123356921,
                1.7596275308962432,
                1.9021647305604916,
                -2.0367601589231366,
                -0.14816517667177015
            ]
        },
        {
            "positions": [
                -0.8479381405516824,
                -0.8228794543966004,
                1.7708908064957172,
                1.7817735626656543,
                -1.927926352151502,
                -0.27724442145778516
            ]
        },
        {
            "positions": [
                -0.8591889209405117,
                -0.8364286964575086,
                1.782154082095191,
                1.661382394770817,
                -1.8190925453798674,
                -0.4063236662438001
            ]
        },
        {
            "positions": [
                -0.8704397013293411,
                -0.8499779385184167,
                1.7934173576946653,
                1.5409912268759798,
                -1.7102587386082329,
                -0.5354029110298152
            ]
        },
        {
            "positions": [
                -0.8816904817181705,
                -0.863527180579325,
                1.8046806332941392,
                1.4206000589811425,
                -1.6014249318365983,
                -0.6644821558158301
            ]
        },
        {
            "positions": [
                -0.892941262107,
                -0.8770764226402332,
                1.8159439088936131,
                1.300208891086305,
                -1.4925911250649635,
                -0.7935614006018452
            ]
        },
        {
            "positions": [
                -0.9041920424958294,
                -0.8906256647011415,
                1.827207184493087,
                1.179817723191468,
                -1.3837573182933292,
                -0.9226406453878601
            ]
        },
        {
            "positions": [
                -0.9154428228846587,
                -0.9041749067620496,
                1.838470460092561,
                1.0594265552966304,
                -1.2749235115216946,
                -1.0517198901738751
            ]
        },
        {
            "positions": [
                -0.9266936032734883,
                -0.9177241488229578,
                1.849733735692035,
                0.9390353874017932,
                -1.1660897047500598,
                -1.1807991349598903
            ]
        },
        {
            "positions": [
                -0.9379443836623176,
                -0.931273390883866,
                1.8609970112915089,
                0.8186442195069559,
                -1.0572558979784252,
                -1.3098783797459053
            ]
        },
        {
            "positions": [
                -0.949195164051147,
                -0.9448226329447742,
                1.8722602868909828,
                0.6982530516121186,
                -0.9484220912067907,
                -1.4389576245319202
            ]
        },
        {
            "positions": [
                -0.9604459444399764,
                -0.9583718750056824,
                1.883523562490457,
                0.5778618837172813,
                -0.8395882844351561,
                -1.5680368693179352
            ]
        },
        {
            "positions": [
                -0.9716967248288059,
                -0.9719211170665907,
                1.8947868380899309,
                0.4574707158224438,
                -0.7307544776635213,
                -1.6971161141039504
            ]
        },
        {
            "positions": [
                -0.9829475052176353,
                -0.9854703591274988,
                1.9060501136894048,
                0.33707954792760675,
                -0.621920670891887,
                -1.826195358889965
            ]
        },
        {
            "positions": [
                -0.9941982856064646,
                -0.999019601188407,
                1.9173133892888787,
                0.21668838003276947,
                -0.5130868641202524,
                -1.95527460367598
            ]
        },
        {
            "positions": [
                -1.0054490659952942,
                -1.0125688432493152,
                1.9285766648883527,
                0.09629721213793196,
                -0.4042530573486176,
                -2.0843538484619955
            ]
        },
        {
            "positions": [
                -1.0166998463841235,
                -1.0261180853102234,
                1.9398399404878266,
                -0.024093955756905316,
                -0.29541925057698326,
                -2.21343309324801
            ]
        },
        {
            "positions": [
                -1.0279506267729528,
                -1.0396673273711317,
                1.9511032160873005,
                -0.1444851236517426,
                -0.18658544380534847,
                -2.3425123380340254
            ]
        },
        {
            "positions": [
                -1.0392014071617823,
                -1.05321656943204,
                1.9623664916867747,
                -0.2648762915465799,
                -0.0777516370337139,
                -2.4715915828200403
            ]
        },
        {
            "positions": [
                -1.0504521875506116,
                -1.0667658114929481,
                1.9736297672862486,
                -0.38526745944141716,
                0.031082169737920662,
                -2.600670827606055
            ]
        },
        {
            "positions": [
                -1.0617029679394412,
                -1.0803150535538562,
                1.9848930428857225,
                -0.5056586273362544,
                0.13991597650955523,
                -2.7297500723920702
            ]
        },
        {
            "positions": [
                -1.0729537483282705,
                -1.0938642956147646,
                1.9961563184851965,
                -0.6260497952310917,
                0.2487497832811898,
                -2.858829317178085
            ]
        },
        {
            "positions": [
                -1.0842045287171,
                -1.1074135376756726,
                2.0074195940846704,
                -0.746440963125929,
                0.35758359005282436,
                -2.9879085619641
            ]
        },
        {
            "positions": [
                -1.0954553091059294,
                -1.1209627797365809,
                2.0186828696841443,
                -0.8668321310207663,
                0.4664173968244589,
                -3.116987806750115
            ]
        }
    ]
}