{
    "goal": {
        "global_pose": {
            "orientation": {
                "w": 0.005598929693374612,
                "x": 0.007748599140229565,
                "y": 0.7110244013736278,
                "z": -0.7031023480610252
            },
            "position": {
                "x": -0.8858502320852131,
                "y": -0.7141253447532654,
                "z": 0.3711530566215515
            }
        },
        "name": "move_to_auspresseinheit_C"
    },
    "id": "RRT_move_to_auspresseinheit_C_101",
    "joint_names": [
        "shoulder_pan_joint",
        "shoulder_lift_joint",
        "elbow_joint",
        "wrist_1_joint",
        "wrist_2_joint",
        "wrist_3_joint"
    ],
    "metrics": {
        "cart_traj_len": 0.49381711141759976,
        "distance_elbow_joint": 1.0072492497319478,
        "distance_shoulder_lift_joint": 0.32840243053890206,
        "distance_shoulder_pan_joint": 0.25715204569008643,
        "distance_wrist_1_joint": 0.6971986816437488,
        "distance_wrist_2_joint": 1.302701269889985,
        "distance_wrist_3_joint": 0.07879601595623731,
        "smoothness": 3.2297397080004555e-16,
        "time": 0.016018644999999998,
        "traj_len": 1.916115782892805,
        "weighted_distance": 2.4143304821206883
    },
    "planner": "RRT",
    "start": {
        "state": {
            "elbow_joint": 1.7527959577737207,
            "shoulder_lift_joint": -0.9740617694225068,
            "shoulder_pan_joint": -2.967991417825858,
            "wrist_1_joint": -0.759517768980727,
            "wrist_2_joint": 1.7443932448377408,
            "wrist_3_joint": -3.0840537646736568
        }
    },
    "waypoints": [
        {
            "positions": [
                -2.967991417825858,
                -0.9740617694225068,
                1.7527959577737207,
                -0.759517768980727,
                1.7443932448377408,
                -3.0840537646736568
            ]
        },
        {
            "positions": [
                -2.942276213256849,
                -0.9412215263686166,
                1.652071032800526,
                -0.6897979008163521,
                1.6141231178487423,
                -3.0919333662692807
            ]
        },
        {
            "positions": [
                -2.916561008687841,
                -0.9083812833147263,
                1.5513461078273312,
                -0.6200780326519773,
                1.4838529908597438,
                -3.0998129678649042
            ]
        },
        {
            "positions": [
                -2.890845804118832,
                -0.8755410402608361,
                1.4506211828541362,
                -0.5503581644876023,
                1.3535828638707454,
                -3.1076925694605277
            ]
        },
        {
            "positions": [
                -2.8651305995498233,
                -0.8427007972069459,
                1.3498962578809415,
                -0.48063829632322747,
                1.2233127368817467,
                -3.1155721710561517
            ]
        },
        {
            "positions": [
                -2.839415394980815,
                -0.8098605541530557,
                1.2491713329077467,
                -0.4109184281588526,
                1.0930426098927484,
                -3.1234517726517756
            ]
        },
        {
            "positions": [
                -2.813700190411806,
                -0.7770203110991656,
                1.148446407934552,
                -0.34119855999447773,
                0.96277248290375,
                -3.131331374247399
            ]
        },
        {
            "positions": [
                -2.7879849858427974,
                -0.7441800680452754,
                1.0477214829613573,
                -0.27147869183010287,
                0.8325023559147514,
                -3.1392109758430227
            ]
        },
        {
            "positions": [
                -2.7622697812737886,
                -0.7113398249913852,
                0.9469965579881623,
                -0.20175882366572795,
                0.7022322289257528,
                -3.1470905774386466
            ]
        },
        {
            "positions": [
                -2.7365545767047803,
                -0.6784995819374949,
                0.8462716330149676,
                -0.13203895550135303,
                0.5719621019367545,
                -3.1549701790342706
            ]
        },
        {
            "positions": [
                -2.7108393721357715,
                -0.6456593388836047,
                0.7455467080417729,
                -0.06231908733697821,
                0.4416919749477559,
                -3.162849780629894
            ]
        }
    ]
}