{
    "goal": {
        "global_pose": {
            "orientation": {
                "w": -0.00223480608172531,
                "x": 0.0024358444001904467,
                "y": 0.7094548369677653,
                "z": -0.704743149386269
            },
            "position": {
                "x": -0.37947507619857795,
                "y": -0.6371506643295288,
                "z": 0.19426114857196808
            }
        },
        "name": "move_to_magneteinheit_C"
    },
    "id": "RRT_move_to_magneteinheit_C_115",
    "joint_names": [
        "shoulder_pan_joint",
        "shoulder_lift_joint",
        "elbow_joint",
        "wrist_1_joint",
        "wrist_2_joint",
        "wrist_3_joint"
    ],
    "metrics": {
        "cart_traj_len": 0.7947159573487008,
        "distance_elbow_joint": 0.4469168907425254,
        "distance_shoulder_lift_joint": 0.5132152686886315,
        "distance_shoulder_pan_joint": 1.1038400555938466,
        "distance_wrist_1_joint": 1.2779722866492325,
        "distance_wrist_2_joint": 0.7928849469540571,
        "distance_wrist_3_joint": 0.29561818267791473,
        "smoothness": 1.8084102523938486,
        "time": 0.40317735,
        "traj_len": 2.1048628533247027,
        "weighted_distance": 2.663182537916867
    },
    "planner": "RRT",
    "start": {
        "state": {
            "elbow_joint": 1.9565354010623817,
            "shoulder_lift_joint": -1.4165861575791021,
            "shoulder_pan_joint": -1.6717766225146293,
            "wrist_1_joint": -0.5286633292919765,
            "wrist_2_joint": 1.472756589071564,
            "wrist_3_joint": -3.1238370188695823
        }
    },
    "waypoints": [
        {
            "positions": [
                -1.6717766225146293,
                -1.4165861575791021,
                1.9565354010623817,
                -0.5286633292919765,
                1.472756589071564,
                -3.1238370188695823
            ]
        },
        {
            "positions": [
                -1.6980449861339082,
                -1.442672516585461,
                1.9635155325092708,
                -0.4307660963569019,
                1.3427390133646426,
                -3.155957567768116
            ]
        },
        {
            "positions": [
                -1.724313349753187,
                -1.4687588755918202,
                1.97049566395616,
                -0.3328688634218273,
                1.2127214376577213,
                -3.1880781166666496
            ]
        },
        {
            "positions": [
                -1.750581713372466,
                -1.494845234598179,
                1.9774757954030493,
                -0.23497163048675274,
                1.0827038619508,
                -3.2201986655651833
            ]
        },
        {
            "positions": [
                -1.7768500769917448,
                -1.5209315936045382,
                1.9844559268499384,
                -0.13707439755167816,
                0.9526862862438786,
                -3.252319214463717
            ]
        },
        {
            "positions": [
                -1.8031184406110237,
                -1.5470179526108971,
                1.9914360582968276,
                -0.03917716461660359,
                0.8226687105369573,
                -3.2844397633622506
            ]
        },
        {
            "positions": [
                -1.939927677004667,
                -1.519949094377128,
                2.027307299005205,
                -0.15558764607046602,
                0.8149114259156502,
                -3.265696823496713
            ]
        },
        {
            "positions": [
                -2.0767369133983102,
                -1.492880236143359,
                2.0631785397135824,
                -0.27199812752432845,
                0.8071541412943432,
                -3.2469538836311758
            ]
        },
        {
            "positions": [
                -2.213546149791953,
                -1.46581137790959,
                2.09904978042196,
                -0.3884086089781909,
                0.7993968566730361,
                -3.228210943765638
            ]
        },
        {
            "positions": [
                -2.3503553861855964,
                -1.438742519675821,
                2.1349210211303373,
                -0.5048190904320533,
                0.7916395720517291,
                -3.2094680039001005
            ]
        },
        {
            "positions": [
                -2.4871646225792396,
                -1.411673661442052,
                2.1707922618387148,
                -0.6212295718859158,
                0.783882287430422,
                -3.190725064034563
            ]
        },
        {
            "positions": [
                -2.623973858972883,
                -1.384604803208283,
                2.206663502547092,
                -0.7376400533397782,
                0.7761250028091149,
                -3.1719821241690256
            ]
        },
        {
            "positions": [
                -2.5481524494050865,
                -1.2744196410811717,
                2.1082691079181846,
                -0.7826516699651208,
                0.7279983224633109,
                -3.160703224673015
            ]
        },
        {
            "positions": [
                -2.47233103983729,
                -1.1642344789540606,
                2.0098747132892774,
                -0.8276632865904634,
                0.6798716421175068,
                -3.149424325177004
            ]
        }
    ]
}