{
    "goal": {
        "global_pose": {
            "orientation": {
                "w": 0.7047431468963623,
                "x": -0.7094548344612122,
                "y": 0.0024358443915843964,
                "z": -0.0022348060738295317
            },
            "position": {
                "x": 0.6094750761985779,
                "y": 0.3671506643295288,
                "z": 0.19426114857196808
            }
        },
        "name": "move_to_magneteinheit_A"
    },
    "id": "RRT_move_to_magneteinheit_A_105",
    "joint_names": [
        "shoulder_pan_joint",
        "shoulder_lift_joint",
        "elbow_joint",
        "wrist_1_joint",
        "wrist_2_joint",
        "wrist_3_joint"
    ],
    "metrics": {
        "cart_traj_len": 4.0481948414584155,
        "distance_elbow_joint": 3.876885126070883,
        "distance_shoulder_lift_joint": 0.6022796805725112,
        "distance_shoulder_pan_joint": 3.7539801152291816,
        "distance_wrist_1_joint": 2.4057282197363805,
        "distance_wrist_2_joint": 1.7010047368109786,
        "distance_wrist_3_joint": 5.085584968974898,
        "smoothness": 0.2370299337415036,
        "time": 0.049979021,
        "traj_len": 4.17438173235209,
        "weighted_distance": 5.630574192912477
    },
    "planner": "RRT",
    "start": {
        "state": {
            "elbow_joint": -1.9196185241190666,
            "shoulder_lift_joint": -1.2443396400964142,
            "shoulder_pan_joint": 2.6996025414629847,
            "wrist_1_joint": -1.5485510000780065,
            "wrist_2_joint": -1.5709468930060704,
            "wrist_3_joint": 0.4420197071253992
        }
    },
    "waypoints": [
        {
            "positions": [
                2.6996025414629847,
                -1.2443396400964142,
                -1.9196185241190666,
                -1.5485510000780065,
                -1.5709468930060704,
                0.4420197071253992
            ]
        },
        {
            "positions": [
                2.567726532825091,
                -1.2294168183119436,
                -1.8301678298562973,
                -1.5813448383054851,
                -1.5038233180232288,
                0.38989281370005635
            ]
        },
        {
            "positions": [
                2.4358505241871975,
                -1.214493996527473,
                -1.740717135593528,
                -1.6141386765329635,
                -1.4366997430403874,
                0.3377659202747136
            ]
        },
        {
            "positions": [
                2.3039745155493034,
                -1.1995711747430025,
                -1.6512664413307585,
                -1.6469325147604421,
                -1.3695761680575458,
                0.2856390268493708
            ]
        },
        {
            "positions": [
                2.17209850691141,
                -1.1846483529585319,
                -1.5618157470679892,
                -1.6797263529879205,
                -1.3024525930747042,
                0.233512133424028
            ]
        },
        {
            "positions": [
                2.040222498273516,
                -1.1697255311740613,
                -1.47236505280522,
                -1.7125201912153991,
                -1.2353290180918628,
                0.18138523999868517
            ]
        },
        {
            "positions": [
                1.9083464896356226,
                -1.1548027093895907,
                -1.3829143585424504,
                -1.7453140294428775,
                -1.1682054431090212,
                0.1292583465733424
            ]
        },
        {
            "positions": [
                1.7764704809977288,
                -1.13987988760512,
                -1.293463664279681,
                -1.7781078676703561,
                -1.1010818681261796,
                0.07713145314799957
            ]
        },
        {
            "positions": [
                1.6445944723598351,
                -1.1249570658206494,
                -1.2040129700169118,
                -1.8109017058978345,
                -1.0339582931433382,
                0.025004559722656805
            ]
        },
        {
            "positions": [
                1.5127184637219413,
                -1.1100342440361788,
                -1.1145622757541425,
                -1.8436955441253131,
                -0.9668347181604967,
                -0.02712233370268602
            ]
        },
        {
            "positions": [
                1.3808424550840477,
                -1.0951114222517082,
                -1.0251115814913732,
                -1.8764893823527915,
                -0.8997111431776551,
                -0.07924922712802884
            ]
        },
        {
            "positions": [
                1.248966446446154,
                -1.0801886004672376,
                -0.9356608872286037,
                -1.9092832205802701,
                -0.8325875681948137,
                -0.13137612055337156
            ]
        },
        {
            "positions": [
                1.1170904378082602,
                -1.065265778682767,
                -0.8462101929658343,
                -1.9420770588077487,
                -0.7654639932119721,
                -0.18350301397871438
            ]
        },
        {
            "positions": [
                0.9852144291703666,
                -1.0503429568982965,
                -0.756759498703065,
                -1.9748708970352271,
                -0.6983404182291306,
                -0.2356299074040571
            ]
        },
        {
            "positions": [
                0.8533384205324728,
                -1.035420135113826,
                -0.6673088044402955,
                -2.0076647352627055,
                -0.631216843246289,
                -0.28775680082940003
            ]
        },
        {
            "positions": [
                0.7214624118945792,
                -1.0204973133293553,
                -0.5778581101775262,
                -2.0404585734901843,
                -0.5640932682634476,
                -0.33988369425474274
            ]
        },
        {
            "positions": [
                0.5895864032566855,
                -1.0055744915448848,
                -0.4884074159147569,
                -2.0732524117176627,
                -0.49696969328060603,
                -0.39201058768008556
            ]
        },
        {
            "positions": [
                0.4577103946187915,
                -0.9906516697604141,
                -0.39895672165198737,
                -2.106046249945141,
                -0.4298461182977644,
                -0.4441374811054284
            ]
        },
        {
            "positions": [
                0.32583438598089787,
                -0.9757288479759435,
                -0.3095060273892183,
                -2.1388400881726195,
                -0.36272254331492304,
                -0.4962643745307712
            ]
        },
        {
            "positions": [
                0.19395837734300425,
                -0.9608060261914729,
                -0.22005533312644898,
                -2.171633926400098,
                -0.29559896833208144,
                -0.5483912679561139
            ]
        },
        {
            "positions": [
                0.062082368705110635,
                -0.9458832044070022,
                -0.13060463886367946,
                -2.2044277646275767,
                -0.22847539334923983,
                -0.6005181613814569
            ]
        },
        {
            "positions": [
                -0.06979363993278298,
                -0.9309603826225317,
                -0.04115394460091015,
                -2.237221602855055,
                -0.16135181836639845,
                -0.6526450548067996
            ]
        },
        {
            "positions": [
                -0.2016696485706766,
                -0.9160375608380611,
                0.04829674966185915,
                -2.270015441082534,
                -0.09422824338355706,
                -0.7047719482321423
            ]
        },
        {
            "positions": [
                -0.33354565720857066,
                -0.9011147390535905,
                0.13774744392462868,
                -2.3028092793100123,
                -0.027104668400715237,
                -0.7568988416574852
            ]
        },
        {
            "positions": [
                -0.4654216658464642,
                -0.8861919172691199,
                0.22719813818739792,
                -2.3356031175374907,
                0.040018906582126174,
                -0.8090257350828279
            ]
        },
        {
            "positions": [
                -0.4373761464217149,
                -0.8978172485903207,
                0.30958235074760826,
                -2.258523303143353,
                0.04430647502130632,
                -0.6264286147606055
            ]
        },
        {
            "positions": [
                -0.40933062699696565,
                -0.9094425799115216,
                0.39196656330781854,
                -2.181443488749215,
                0.048594043460486465,
                -0.44383149443838316
            ]
        },
        {
            "positions": [
                -0.38128510757221634,
                -0.9210679112327224,
                0.4743507758680289,
                -2.104363674355077,
                0.052881611899666614,
                -0.2612343741161608
            ]
        },
        {
            "positions": [
                -0.3532395881474671,
                -0.9326932425539232,
                0.5567349884282392,
                -2.027283859960939,
                0.057169180338846756,
                -0.07863725379393838
            ]
        },
        {
            "positions": [
                -0.3251940687227178,
                -0.944318573875124,
                0.6391192009884495,
                -1.9502040455668013,
                0.061456748778026905,
                0.10395986652828393
            ]
        },
        {
            "positions": [
                -0.2971485492979685,
                -0.9559439051963248,
                0.7215034135486598,
                -1.8731242311726632,
                0.06574431721720705,
                0.28655698685050635
            ]
        },
        {
            "positions": [
                -0.2691030298732192,
                -0.9675692365175256,
                0.8038876261088701,
                -1.7960444167785254,
                0.0700318856563872,
                0.46915410717272865
            ]
        },
        {
            "positions": [
                -0.24105751044846993,
                -0.9791945678387264,
                0.8862718386690804,
                -1.7189646023843874,
                0.07431945409556734,
                0.6517512274949512
            ]
        },
        {
            "positions": [
                -0.21301199102372065,
                -0.9908198991599272,
                0.9686560512292908,
                -1.6418847879902496,
                0.0786070225347475,
                0.8343483478171735
            ]
        },
        {
            "positions": [
                -0.18496647159897134,
                -1.002445230481128,
                1.051040263789501,
                -1.5648049735961118,
                0.08289459097392764,
                1.016945468139396
            ]
        },
        {
            "positions": [
                -0.15692095217422203,
                -1.014070561802329,
                1.1334244763497114,
                -1.4877251592019736,
                0.0871821594131078,
                1.1995425884616182
            ]
        },
        {
            "positions": [
                -0.12887543274947277,
                -1.0256958931235296,
                1.2158086889099218,
                -1.4106453448078358,
                0.09146972785228794,
                1.3821397087838405
            ]
        },
        {
            "positions": [
                -0.10082991332472346,
                -1.0373212244447305,
                1.2981929014701323,
                -1.333565530413698,
                0.09575729629146809,
                1.5647368291060633
            ]
        },
        {
            "positions": [
                -0.07278439389997421,
                -1.0489465557659312,
                1.3805771140303424,
                -1.2564857160195602,
                0.10004486473064822,
                1.7473339494282851
            ]
        },
        {
            "positions": [
                -0.0447388744752249,
                -1.0605718870871321,
                1.4629613265905528,
                -1.1794059016254221,
                0.10433243316982838,
                1.9299310697505079
            ]
        },
        {
            "positions": [
                -0.016693355050475644,
                -1.0721972184083328,
                1.5453455391507631,
                -1.1023260872312843,
                0.10862000160900852,
                2.11252819007273
            ]
        },
        {
            "positions": [
                0.011352164374273721,
                -1.0838225497295337,
                1.6277297517109734,
                -1.0252462728371463,
                0.11290757004818867,
                2.2951253103949525
            ]
        },
        {
            "positions": [
                0.03939768379902292,
                -1.0954478810507344,
                1.7101139642711838,
                -0.9481664584430085,
                0.11719513848736882,
                2.477722430717175
            ]
        },
        {
            "positions": [
                0.06744320322377223,
                -1.1070732123719353,
                1.7924981768313941,
                -0.8710866440488705,
                0.12148270692654896,
                2.6603195510393975
            ]
        },
        {
            "positions": [
                0.09548872264852154,
                -1.118698543693136,
                1.8748823893916045,
                -0.7940068296547327,
                0.1257702753657291,
                2.8429166713616194
            ]
        },
        {
            "positions": [
                0.12353424207327086,
                -1.130323875014337,
                1.9572666019518148,
                -0.7169270152605945,
                0.13005784380490926,
                3.025513791683842
            ]
        }
    ]
}