{
    "goal": {
        "global_pose": {
            "orientation": {
                "w": 0.005598929693374612,
                "x": 0.007748599140229565,
                "y": 0.7110244013736278,
                "z": -0.7031023480610252
            },
            "position": {
                "x": -0.8858502320852131,
                "y": -0.7141253447532654,
                "z": 0.3711530566215515
            }
        },
        "name": "move_to_auspresseinheit_C"
    },
    "id": "RRT_move_to_auspresseinheit_C_9",
    "joint_names": [
        "shoulder_pan_joint",
        "shoulder_lift_joint",
        "elbow_joint",
        "wrist_1_joint",
        "wrist_2_joint",
        "wrist_3_joint"
    ],
    "metrics": {
        "cart_traj_len": 0.49210935963865066,
        "distance_elbow_joint": 0.9873600429172062,
        "distance_shoulder_lift_joint": 0.31946229367690215,
        "distance_shoulder_pan_joint": 0.25681919253580165,
        "distance_wrist_1_joint": 0.6568676377621311,
        "distance_wrist_2_joint": 1.3020548838148371,
        "distance_wrist_3_joint": 0.05400548991152343,
        "smoothness": 4.844609560949652e-16,
        "time": 0.025615071,
        "traj_len": 1.891182048513152,
        "weighted_distance": 2.3756058263142936
    },
    "planner": "RRT",
    "start": {
        "state": {
            "elbow_joint": 1.7527959577737207,
            "shoulder_lift_joint": -0.9740617694225068,
            "shoulder_pan_joint": -2.967991417825858,
            "wrist_1_joint": -0.759517768980727,
            "wrist_2_joint": 1.7443932448377408,
            "wrist_3_joint": -3.0840537646736568
        }
    },
    "waypoints": [
        {
            "positions": [
                -2.967991417825858,
                -0.9740617694225068,
                1.7527959577737207,
                -0.759517768980727,
                1.7443932448377408,
                -3.0840537646736568
            ]
        },
        {
            "positions": [
                -2.942309498572278,
                -0.9421155400548166,
                1.654059953482,
                -0.6938310052045139,
                1.614187756456257,
                -3.089454313664809
            ]
        },
        {
            "positions": [
                -2.9166275793186975,
                -0.9101693106871264,
                1.5553239491902793,
                -0.6281442414283007,
                1.4839822680747734,
                -3.0948548626559615
            ]
        },
        {
            "positions": [
                -2.8909456600651176,
                -0.8782230813194362,
                1.4565879448985588,
                -0.5624574776520876,
                1.3537767796932898,
                -3.100255411647114
            ]
        },
        {
            "positions": [
                -2.865263740811537,
                -0.8462768519517458,
                1.3578519406068381,
                -0.4967707138758745,
                1.223571291311806,
                -3.1056559606382663
            ]
        },
        {
            "positions": [
                -2.839581821557957,
                -0.8143306225840556,
                1.2591159363151174,
                -0.43108395009966144,
                1.0933658029303222,
                -3.1110565096294183
            ]
        },
        {
            "positions": [
                -2.813899902304377,
                -0.7823843932163654,
                1.160379932023397,
                -0.36539718632344836,
                0.9631603145488385,
                -3.1164570586205707
            ]
        },
        {
            "positions": [
                -2.7882179830507967,
                -0.7504381638486752,
                1.0616439277316765,
                -0.29971042254723523,
                0.832954826167355,
                -3.121857607611723
            ]
        },
        {
            "positions": [
                -2.7625360637972167,
                -0.718491934480985,
                0.9629079234399556,
                -0.23402365877102205,
                0.7027493377858711,
                -3.1272581566028754
            ]
        },
        {
            "positions": [
                -2.7368541445436363,
                -0.6865457051132948,
                0.864171919148235,
                -0.16833689499480897,
                0.5725438494043873,
                -3.132658705594028
            ]
        },
        {
            "positions": [
                -2.7111722252900563,
                -0.6545994757456046,
                0.7654359148565144,
                -0.10265013121859586,
                0.44233836102290364,
                -3.13805925458518
            ]
        }
    ]
}