{
    "goal": {
        "global_pose": {
            "orientation": {
                "w": -0.00223480608172531,
                "x": 0.0024358444001904467,
                "y": 0.7094548369677653,
                "z": -0.704743149386269
            },
            "position": {
                "x": 0.6205249238014221,
                "y": -0.6371506643295288,
                "z": 0.19426114857196808
            }
        },
        "name": "move_to_magneteinheit_B"
    },
    "id": "RRT_move_to_magneteinheit_B_29",
    "joint_names": [
        "shoulder_pan_joint",
        "shoulder_lift_joint",
        "elbow_joint",
        "wrist_1_joint",
        "wrist_2_joint",
        "wrist_3_joint"
    ],
    "metrics": {
        "cart_traj_len": 3.160935812945284,
        "distance_elbow_joint": 4.289105723237224,
        "distance_shoulder_lift_joint": 1.0607550281137672,
        "distance_shoulder_pan_joint": 2.3833385495449786,
        "distance_wrist_1_joint": 0.9737262321599925,
        "distance_wrist_2_joint": 1.1812620719138058,
        "distance_wrist_3_joint": 0.7098421981963003,
        "smoothness": 0.19385356420296931,
        "time": 1.3022022420000001,
        "traj_len": 3.2554615345855447,
        "weighted_distance": 3.764664992218094
    },
    "planner": "RRT",
    "start": {
        "state": {
            "elbow_joint": 2.6216224122426386,
            "shoulder_lift_joint": -1.4174107377796124,
            "shoulder_pan_joint": 0.7066234856936794,
            "wrist_1_joint": 1.9546482284002225,
            "wrist_2_joint": -0.7096286983471962,
            "wrist_3_joint": 0.005740856962016249
        }
    },
    "waypoints": [
        {
            "positions": [
                0.7066234856936794,
                -1.4174107377796124,
                2.6216224122426386,
                1.9546482284002225,
                -0.7096286983471962,
                0.005740856962016249
            ]
        },
        {
            "positions": [
                0.673239488442108,
                -1.4563220153497254,
                2.5909475184498563,
                1.8494587132731797,
                -0.6691358527558651,
                0.04628514413917813
            ]
        },
        {
            "positions": [
                0.6398554911905365,
                -1.4952332929198384,
                2.560272624657074,
                1.744269198146137,
                -0.6286430071645339,
                0.08682943131634001
            ]
        },
        {
            "positions": [
                0.6138738594382855,
                -1.538368362068186,
                2.4600611592357313,
                1.6431129079554334,
                -0.5787639098646717,
                0.15811980781381513
            ]
        },
        {
            "positions": [
                0.5878922276860346,
                -1.5815034312165337,
                2.3598496938143887,
                1.54195661776473,
                -0.5288848125648095,
                0.22941018431129023
            ]
        },
        {
            "positions": [
                0.5619105959337836,
                -1.6246385003648813,
                2.259638228393046,
                1.4408003275740264,
                -0.47900571526494723,
                0.30070056080876534
            ]
        },
        {
            "positions": [
                0.5359289641815326,
                -1.667773569513229,
                2.1594267629717034,
                1.339644037383323,
                -0.429126617965085,
                0.37199093730624044
            ]
        },
        {
            "positions": [
                0.6443816238456049,
                -1.6846833106687746,
                1.9697788291173894,
                1.3225881570399594,
                -0.38727534338098557,
                0.354820069139783
            ]
        },
        {
            "positions": [
                0.7528342835096773,
                -1.7015930518243203,
                1.7801308952630754,
                1.3055322766965958,
                -0.3454240687968862,
                0.3376492009733255
            ]
        },
        {
            "positions": [
                0.8612869431737497,
                -1.718502792979866,
                1.5904829614087617,
                1.288476396353232,
                -0.3035727942127868,
                0.320478332806868
            ]
        },
        {
            "positions": [
                0.969739602837822,
                -1.7354125341354116,
                1.4008350275544477,
                1.2714205160098684,
                -0.2617215196286874,
                0.30330746464041053
            ]
        },
        {
            "positions": [
                1.0781922625018945,
                -1.752322275290957,
                1.2111870937001337,
                1.2543646356665048,
                -0.219870245044588,
                0.28613659647395306
            ]
        },
        {
            "positions": [
                1.1866449221659667,
                -1.7692320164465027,
                1.0215391598458199,
                1.2373087553231412,
                -0.1780189704604886,
                0.2689657283074956
            ]
        },
        {
            "positions": [
                1.295097581830039,
                -1.7861417576020484,
                0.8318912259915059,
                1.2202528749797776,
                -0.13616769587638922,
                0.25179486014103813
            ]
        },
        {
            "positions": [
                1.4035502414941115,
                -1.803051498757594,
                0.6422432921371919,
                1.2031969946364138,
                -0.09431642129228979,
                0.23462399197458064
            ]
        },
        {
            "positions": [
                1.512002901158184,
                -1.8199612399131397,
                0.4525953582828781,
                1.1861411142930502,
                -0.05246514670819036,
                0.21745312380812315
            ]
        },
        {
            "positions": [
                1.6204555608222562,
                -1.8368709810686854,
                0.2629474244285641,
                1.1690852339496867,
                -0.010613872124090984,
                0.20028225564166569
            ]
        },
        {
            "positions": [
                1.7289082204863286,
                -1.853780722224231,
                0.07329949057425011,
                1.152029353606323,
                0.031237402460008445,
                0.1831113874752082
            ]
        },
        {
            "positions": [
                1.8373608801504009,
                -1.8706904633797767,
                -0.11634844328006366,
                1.1349734732629595,
                0.07308867704410782,
                0.16594051930875073
            ]
        },
        {
            "positions": [
                1.9458135398144734,
                -1.8876002045353224,
                -0.3059963771343779,
                1.1179175929195957,
                0.11493995162820725,
                0.14876965114229326
            ]
        },
        {
            "positions": [
                2.054266199478546,
                -1.9045099456908678,
                -0.49564431098869166,
                1.100861712576232,
                0.15679122621230657,
                0.1315987829758358
            ]
        },
        {
            "positions": [
                2.162718859142618,
                -1.9214196868464137,
                -0.6852922448430054,
                1.0838058322328685,
                0.198642500796406,
                0.1144279148093783
            ]
        },
        {
            "positions": [
                2.2711715188066903,
                -1.9383294280019592,
                -0.8749401786973197,
                1.066749951889505,
                0.24049377538050543,
                0.09725704664292084
            ]
        },
        {
            "positions": [
                2.3796241784707624,
                -1.9552391691575048,
                -1.0645881125516334,
                1.0496940715461414,
                0.28234504996460486,
                0.08008617847646338
            ]
        },
        {
            "positions": [
                2.488076838134835,
                -1.9721489103130505,
                -1.2542360464059472,
                1.0326381912027776,
                0.3241963245487043,
                0.06291531031000586
            ]
        },
        {
            "positions": [
                2.5965294977989073,
                -1.9890586514685962,
                -1.443883980260261,
                1.015582310859414,
                0.3660475991328036,
                0.04574444214354839
            ]
        },
        {
            "positions": [
                2.7049821574629798,
                -2.005968392624142,
                -1.6335319141145752,
                0.9985264305160504,
                0.40789887371690303,
                0.0285735739770909
            ]
        },
        {
            "positions": [
                2.6831867400872875,
                -2.242067079258761,
                -1.6505076125545797,
                0.9897242133781401,
                0.43976612364175643,
                0.028660951238553986
            ]
        },
        {
            "positions": [
                2.6613913227115953,
                -2.4781657658933796,
                -1.6674833109945841,
                0.9809219962402299,
                0.47163337356660984,
                0.028748328500017076
            ]
        }
    ]
}