{
    "goal": {
        "global_pose": {
            "orientation": {
                "w": -0.4816463035849501,
                "x": 0.5182115481033762,
                "y": 0.4908360881923453,
                "z": -0.5084816262002911
            },
            "position": {
                "x": -0.8240239810943604,
                "y": -0.300875300988555,
                "z": 0.16403168439865112
            }
        },
        "name": "move_to_storage_C"
    },
    "id": "RRT_move_to_storage_C_121",
    "joint_names": [
        "shoulder_pan_joint",
        "shoulder_lift_joint",
        "elbow_joint",
        "wrist_1_joint",
        "wrist_2_joint",
        "wrist_3_joint"
    ],
    "metrics": {
        "cart_traj_len": 0.5762213920738918,
        "distance_elbow_joint": 0.25875503167528624,
        "distance_shoulder_lift_joint": 0.18900641512290572,
        "distance_shoulder_pan_joint": 0.49468397993742474,
        "distance_wrist_1_joint": 0.08760726048109146,
        "distance_wrist_2_joint": 1.0689085185702645,
        "distance_wrist_3_joint": 0.060210614133752394,
        "smoothness": 0.0,
        "time": 0.018248111999999997,
        "traj_len": 1.4694120660729326,
        "weighted_distance": 1.8536744124143232
    },
    "planner": "RRT",
    "start": {
        "state": {
            "elbow_joint": 2.010868314990456,
            "shoulder_lift_joint": -1.1634956873337592,
            "shoulder_pan_joint": -2.4736205022346125,
            "wrist_1_joint": -0.8367026794202681,
            "wrist_2_joint": 0.6746043897044499,
            "wrist_3_joint": -3.1496632123970403
        }
    },
    "waypoints": [
        {
            "positions": [
                -2.4736205022346125,
                -1.1634956873337592,
                2.010868314990456,
                -0.8367026794202681,
                0.6746043897044499,
                -3.1496632123970403
            ]
        },
        {
            "positions": [
                -2.5560678322241834,
                -1.1319946181466083,
                1.9677424763779081,
                -0.8221014693400862,
                0.8527558094661607,
                -3.1396281100414147
            ]
        },
        {
            "positions": [
                -2.638515162213754,
                -1.1004935489594572,
                1.9246166377653604,
                -0.8075002592599043,
                1.0309072292278714,
                -3.1295930076857896
            ]
        },
        {
            "positions": [
                -2.720962492203325,
                -1.0689924797723063,
                1.8814907991528127,
                -0.7928990491797223,
                1.2090586489895823,
                -3.119557905330164
            ]
        },
        {
            "positions": [
                -2.803409822192896,
                -1.0374914105851554,
                1.838364960540265,
                -0.7782978390995404,
                1.3872100687512927,
                -3.1095228029745385
            ]
        },
        {
            "positions": [
                -2.8858571521824663,
                -1.0059903413980045,
                1.7952391219277173,
                -0.7636966290193585,
                1.5653614885130036,
                -3.0994877006189134
            ]
        },
        {
            "positions": [
                -2.9683044821720372,
                -0.9744892722108535,
                1.7521132833151696,
                -0.7490954189391766,
                1.7435129082747145,
                -3.089452598263288
            ]
        }
    ]
}