{
    "goal": {
        "global_pose": {
            "orientation": {
                "w": 0.5084816262002911,
                "x": -0.4908360881923452,
                "y": 0.5182115481033761,
                "z": -0.48164630358495003
            },
            "position": {
                "x": 0.5540239810943604,
                "y": -0.46912469901144505,
                "z": 0.16403168439865112
            }
        },
        "name": "move_to_storage_B"
    },
    "id": "RRT_move_to_storage_B_112",
    "joint_names": [
        "shoulder_pan_joint",
        "shoulder_lift_joint",
        "elbow_joint",
        "wrist_1_joint",
        "wrist_2_joint",
        "wrist_3_joint"
    ],
    "metrics": {
        "cart_traj_len": 0.8138871475513023,
        "distance_elbow_joint": 0.5321107457983429,
        "distance_shoulder_lift_joint": 0.4591693122373437,
        "distance_shoulder_pan_joint": 0.6634229518572695,
        "distance_wrist_1_joint": 2.978226207689591,
        "distance_wrist_2_joint": 2.7279863105432236,
        "distance_wrist_3_joint": 3.416147271512064,
        "smoothness": 0.39447999370510256,
        "time": 0.089759384,
        "traj_len": 3.282843706245827,
        "weighted_distance": 4.82861987123596
    },
    "planner": "RRT",
    "start": {
        "state": {
            "elbow_joint": 1.664937868594044,
            "shoulder_lift_joint": -0.661644460510453,
            "shoulder_pan_joint": -0.9139846352900073,
            "wrist_1_joint": 2.146753192139373,
            "wrist_2_joint": -2.2341966793290973,
            "wrist_3_joint": 0.005466555786416001
        }
    },
    "waypoints": [
        {
            "positions": [
                -0.9139846352900073,
                -0.661644460510453,
                1.664937868594044,
                2.146753192139373,
                -2.2341966793290973,
                0.005466555786416001
            ]
        },
        {
            "positions": [
                -0.7932495127713171,
                -0.6856132309271499,
                1.6190407289416262,
                2.14456516917615,
                -2.2387161247578025,
                0.07357298150307978
            ]
        },
        {
            "positions": [
                -0.6725143902526269,
                -0.7095820013438469,
                1.5731435892892083,
                2.142377146212927,
                -2.2432355701865077,
                0.14167940721974356
            ]
        },
        {
            "positions": [
                -0.6887433405149304,
                -0.7253986079363065,
                1.590078838000497,
                2.0279982938374213,
                -2.138660669429361,
                0.015528083370561357
            ]
        },
        {
            "positions": [
                -0.7049722907772338,
                -0.741215214528766,
                1.6070140867117857,
                1.9136194414619156,
                -2.0340857686722145,
                -0.11062324047862085
            ]
        },
        {
            "positions": [
                -0.7212012410395372,
                -0.7570318211212257,
                1.6239493354230745,
                1.79924058908641,
                -1.9295108679150677,
                -0.23677456432780306
            ]
        },
        {
            "positions": [
                -0.7374301913018406,
                -0.7728484277136853,
                1.6408845841343633,
                1.6848617367109044,
                -1.824935967157921,
                -0.36292588817698523
            ]
        },
        {
            "positions": [
                -0.753659141564144,
                -0.7886650343061449,
                1.657819832845652,
                1.5704828843353988,
                -1.7203610664007742,
                -0.4890772120261674
            ]
        },
        {
            "positions": [
                -0.7698880918264475,
                -0.8044816408986045,
                1.6747550815569408,
                1.4561040319598935,
                -1.6157861656436276,
                -0.6152285358753496
            ]
        },
        {
            "positions": [
                -0.7861170420887509,
                -0.8202982474910641,
                1.6916903302682296,
                1.3417251795843879,
                -1.511211264886481,
                -0.7413798597245317
            ]
        },
        {
            "positions": [
                -0.8023459923510544,
                -0.8361148540835237,
                1.7086255789795182,
                1.2273463272088823,
                -1.4066363641293345,
                -0.8675311835737141
            ]
        },
        {
            "positions": [
                -0.8185749426133578,
                -0.8519314606759834,
                1.725560827690807,
                1.1129674748333767,
                -1.3020614633721879,
                -0.9936825074228961
            ]
        },
        {
            "positions": [
                -0.8348038928756613,
                -0.867748067268443,
                1.7424960764020958,
                0.9985886224578711,
                -1.197486562615041,
                -1.1198338312720784
            ]
        },
        {
            "positions": [
                -0.8510328431379647,
                -0.8835646738609025,
                1.7594313251133844,
                0.8842097700823657,
                -1.0929116618578945,
                -1.2459851551212606
            ]
        },
        {
            "positions": [
                -0.8672617934002681,
                -0.8993812804533622,
                1.7763665738246732,
                0.7698309177068601,
                -0.9883367611007476,
                -1.3721364789704429
            ]
        },
        {
            "positions": [
                -0.8834907436625715,
                -0.9151978870458217,
                1.793301822535962,
                0.6554520653313545,
                -0.883761860343601,
                -1.498287802819625
            ]
        },
        {
            "positions": [
                -0.8997196939248749,
                -0.9310144936382814,
                1.8102370712472506,
                0.5410732129558489,
                -0.7791869595864545,
                -1.624439126668807
            ]
        },
        {
            "positions": [
                -0.9159486441871784,
                -0.946831100230741,
                1.8271723199585395,
                0.4266943605803435,
                -0.6746120588293079,
                -1.7505904505179892
            ]
        },
        {
            "positions": [
                -0.9321775944494819,
                -0.9626477068232007,
                1.8441075686698283,
                0.31231550820483767,
                -0.570037158072161,
                -1.8767417743671717
            ]
        },
        {
            "positions": [
                -0.9484065447117853,
                -0.9784643134156602,
                1.8610428173811169,
                0.1979366558293323,
                -0.46546225731501445,
                -2.0028930982163535
            ]
        },
        {
            "positions": [
                -0.9646354949740887,
                -0.9942809200081197,
                1.8779780660924057,
                0.08355780345382646,
                -0.36088735655786786,
                -2.129044422065536
            ]
        },
        {
            "positions": [
                -0.9808644452363922,
                -1.0100975266005794,
                1.8949133148036943,
                -0.030821048921678695,
                -0.25631245580072126,
                -2.255195745914718
            ]
        },
        {
            "positions": [
                -0.9970933954986956,
                -1.025914133193039,
                1.9118485635149831,
                -0.14519990129718474,
                -0.15173755504357445,
                -2.3813470697639003
            ]
        },
        {
            "positions": [
                -1.013322345760999,
                -1.0417307397854987,
                1.928783812226272,
                -0.2595787536726899,
                -0.04716265428642785,
                -2.5074983936130826
            ]
        },
        {
            "positions": [
                -1.0295512960233024,
                -1.0575473463779583,
                1.9457190609375605,
                -0.3739576060481955,
                0.05741224647071874,
                -2.633649717462265
            ]
        },
        {
            "positions": [
                -1.0457802462856058,
                -1.0733639529704178,
                1.9626543096488493,
                -0.4883364584237011,
                0.16198714722786534,
                -2.7598010413114467
            ]
        },
        {
            "positions": [
                -1.0620091965479093,
                -1.0891805595628776,
                1.9795895583601382,
                -0.6027153107992067,
                0.2665620479850124,
                -2.8859523651606294
            ]
        },
        {
            "positions": [
                -1.0782381468102127,
                -1.104997166155337,
                1.996524807071427,
                -0.7170941631747123,
                0.37113694874215897,
                -3.012103689009811
            ]
        },
        {
            "positions": [
                -1.094467097072516,
                -1.1208137727477967,
                2.0134600557827156,
                -0.8314730155502177,
                0.47571184949930556,
                -3.1382550128589934
            ]
        }
    ]
}