{
    "goal": {
        "global_pose": {
            "orientation": {
                "w": -0.4816463035849501,
                "x": 0.5182115481033762,
                "y": 0.4908360881923453,
                "z": -0.5084816262002911
            },
            "position": {
                "x": -0.8240239810943604,
                "y": -0.300875300988555,
                "z": 0.16403168439865112
            }
        },
        "name": "move_to_storage_C"
    },
    "id": "RRT_move_to_storage_C_129",
    "joint_names": [
        "shoulder_pan_joint",
        "shoulder_lift_joint",
        "elbow_joint",
        "wrist_1_joint",
        "wrist_2_joint",
        "wrist_3_joint"
    ],
    "metrics": {
        "cart_traj_len": 0.5772205454391619,
        "distance_elbow_joint": 0.2555532159728755,
        "distance_shoulder_lift_joint": 0.19031906721019987,
        "distance_shoulder_pan_joint": 0.4957816243810975,
        "distance_wrist_1_joint": 0.06340687375970488,
        "distance_wrist_2_joint": 1.0606307283017844,
        "distance_wrist_3_joint": 0.0694425526928355,
        "smoothness": 2.5376526478085547e-16,
        "time": 0.012184681000000001,
        "traj_len": 1.4612097940810886,
        "weighted_distance": 1.84338188386608
    },
    "planner": "RRT",
    "start": {
        "state": {
            "elbow_joint": 2.010868314990456,
            "shoulder_lift_joint": -1.1634956873337592,
            "shoulder_pan_joint": -2.4736205022346125,
            "wrist_1_joint": -0.8367026794202681,
            "wrist_2_joint": 0.6746043897044499,
            "wrist_3_joint": -3.1496632123970403
        }
    },
    "waypoints": [
        {
            "positions": [
                -2.4736205022346125,
                -1.1634956873337592,
                2.010868314990456,
                -0.8367026794202681,
                0.6746043897044499,
                -3.1496632123970403
            ]
        },
        {
            "positions": [
                -2.5562507729647956,
                -1.131775842798726,
                1.96827611232831,
                -0.8261348671269839,
                0.8513761777547473,
                -3.138089453614901
            ]
        },
        {
            "positions": [
                -2.6388810436949783,
                -1.1000559982636926,
                1.925683909666164,
                -0.8155670548336998,
                1.0281479658050448,
                -3.126515694832762
            ]
        },
        {
            "positions": [
                -2.721511314425161,
                -1.0683361537286593,
                1.883091707004018,
                -0.8049992425404157,
                1.204919753855342,
                -3.1149419360506228
            ]
        },
        {
            "positions": [
                -2.804141585155344,
                -1.036616309193626,
                1.8404995043418722,
                -0.7944314302471315,
                1.3816915419056395,
                -3.103368177268483
            ]
        },
        {
            "positions": [
                -2.8867718558855273,
                -1.0048964646585925,
                1.7979073016797262,
                -0.7838636179538474,
                1.558463329955937,
                -3.091794418486344
            ]
        },
        {
            "positions": [
                -2.96940212661571,
                -0.9731766201235593,
                1.7553150990175803,
                -0.7732958056605632,
                1.7352351180062342,
                -3.0802206597042048
            ]
        }
    ]
}