{
    "goal": {
        "global_pose": {
            "orientation": {
                "w": -0.4816463035849501,
                "x": 0.5182115481033762,
                "y": 0.4908360881923453,
                "z": -0.5084816262002911
            },
            "position": {
                "x": -0.8240239810943604,
                "y": -0.300875300988555,
                "z": 0.16403168439865112
            }
        },
        "name": "move_to_storage_C"
    },
    "id": "RRT_move_to_storage_C_143",
    "joint_names": [
        "shoulder_pan_joint",
        "shoulder_lift_joint",
        "elbow_joint",
        "wrist_1_joint",
        "wrist_2_joint",
        "wrist_3_joint"
    ],
    "metrics": {
        "cart_traj_len": 0.5763654073035563,
        "distance_elbow_joint": 0.25967297384459176,
        "distance_shoulder_lift_joint": 0.1893603443470897,
        "distance_shoulder_pan_joint": 0.49527508874950366,
        "distance_wrist_1_joint": 0.08440386231917818,
        "distance_wrist_2_joint": 1.0588143362680986,
        "distance_wrist_3_joint": 0.06251978521313539,
        "smoothness": 0.0,
        "time": 0.011305249,
        "traj_len": 1.4663036488877728,
        "weighted_distance": 1.8488656413474573
    },
    "planner": "RRT",
    "start": {
        "state": {
            "elbow_joint": 2.010868314990456,
            "shoulder_lift_joint": -1.1634956873337592,
            "shoulder_pan_joint": -2.4736205022346125,
            "wrist_1_joint": -0.8367026794202681,
            "wrist_2_joint": 0.6746043897044499,
            "wrist_3_joint": -3.1496632123970403
        }
    },
    "waypoints": [
        {
            "positions": [
                -2.4736205022346125,
                -1.1634956873337592,
                2.010868314990456,
                -0.8367026794202681,
                0.6746043897044499,
                -3.1496632123970403
            ]
        },
        {
            "positions": [
                -2.55616635035953,
                -1.1319356299425776,
                1.9675894860163572,
                -0.8226353690337385,
                0.851073445749133,
                -3.139243248194851
            ]
        },
        {
            "positions": [
                -2.638712198484447,
                -1.100375572551396,
                1.9243106570422586,
                -0.8085680586472087,
                1.0275425017938162,
                -3.128823283992662
            ]
        },
        {
            "positions": [
                -2.721258046609364,
                -1.0688155151602143,
                1.88103182806816,
                -0.794500748260679,
                1.2040115578384993,
                -3.1184033197904726
            ]
        },
        {
            "positions": [
                -2.8038038947342816,
                -1.0372554577690327,
                1.8377529990940613,
                -0.7804334378741493,
                1.3804806138831824,
                -3.107983355588283
            ]
        },
        {
            "positions": [
                -2.886349742859199,
                -1.005695400377851,
                1.7944741701199627,
                -0.7663661274876197,
                1.5569496699278655,
                -3.0975633913860943
            ]
        },
        {
            "positions": [
                -2.968895590984116,
                -0.9741353429866695,
                1.751195341145864,
                -0.7522988171010899,
                1.7334187259725484,
                -3.087143427183905
            ]
        }
    ]
}