{
    "goal": {
        "global_pose": {
            "orientation": {
                "w": 0.7031023480610252,
                "x": -0.7110244013736278,
                "y": 0.0077485991402295624,
                "z": 0.005598929693374583
            },
            "position": {
                "x": -0.8841497679147869,
                "y": 0.44412534475326537,
                "z": 0.3711530566215515
            }
        },
        "name": "move_to_auspresseinheit_D"
    },
    "id": "RRT_move_to_auspresseinheit_D_7",
    "joint_names": [
        "shoulder_pan_joint",
        "shoulder_lift_joint",
        "elbow_joint",
        "wrist_1_joint",
        "wrist_2_joint",
        "wrist_3_joint"
    ],
    "metrics": {
        "cart_traj_len": 0.34290773781361134,
        "distance_elbow_joint": 0.6383564441069682,
        "distance_shoulder_lift_joint": 0.12236798675941962,
        "distance_shoulder_pan_joint": 0.13405314365751037,
        "distance_wrist_1_joint": 0.5221845729684609,
        "distance_wrist_2_joint": 1.4441587641569378,
        "distance_wrist_3_joint": 0.019563675950495796,
        "smoothness": 7.894919182364742e-16,
        "time": 0.020284606,
        "traj_len": 1.697257961418886,
        "weighted_distance": 2.2104649458035257
    },
    "planner": "RRT",
    "start": {
        "state": {
            "elbow_joint": -1.8275523626775212,
            "shoulder_lift_joint": -2.126789852344167,
            "shoulder_pan_joint": -0.03513704404078235,
            "wrist_1_joint": -2.347782403156801,
            "wrist_2_joint": -1.6058999987535132,
            "wrist_3_joint": -3.0880379163319196
        }
    },
    "waypoints": [
        {
            "positions": [
                -0.03513704404078235,
                -2.126789852344167,
                -1.8275523626775212,
                -2.347782403156801,
                -1.6058999987535132,
                -3.0880379163319196
            ]
        },
        {
            "positions": [
                -0.051893686997971145,
                -2.142085850689094,
                -1.7477578071641502,
                -2.4130554747778583,
                -1.4253801532338959,
                -3.0904833758257317
            ]
        },
        {
            "positions": [
                -0.06865032995515993,
                -2.1573818490340217,
                -1.6679632516507792,
                -2.478328546398916,
                -1.2448603077142788,
                -3.0929288353195434
            ]
        },
        {
            "positions": [
                -0.08540697291234874,
                -2.1726778473789494,
                -1.5881686961374082,
                -2.5436016180199736,
                -1.0643404621946615,
                -3.0953742948133556
            ]
        },
        {
            "positions": [
                -0.10216361586953754,
                -2.1879738457238767,
                -1.5083741406240372,
                -2.6088746896410315,
                -0.8838206166750443,
                -3.0978197543071673
            ]
        },
        {
            "positions": [
                -0.11892025882672633,
                -2.203269844068804,
                -1.4285795851106662,
                -2.674147761262089,
                -0.7033007711554271,
                -3.1002652138009794
            ]
        },
        {
            "positions": [
                -0.13567690178391512,
                -2.2185658424137316,
                -1.348785029597295,
                -2.7394208328831464,
                -0.5227809256358098,
                -3.1027106732947916
            ]
        },
        {
            "positions": [
                -0.15243354474110393,
                -2.2338618407586592,
                -1.268990474083924,
                -2.8046939045042043,
                -0.3422610801161927,
                -3.1051561327886033
            ]
        },
        {
            "positions": [
                -0.16919018769829272,
                -2.2491578391035865,
                -1.189195918570553,
                -2.8699669761252617,
                -0.16174123459657538,
                -3.1076015922824154
            ]
        }
    ]
}