{
    "goal": {
        "global_pose": {
            "orientation": {
                "w": -0.4816463035849501,
                "x": 0.5182115481033762,
                "y": 0.4908360881923453,
                "z": -0.5084816262002911
            },
            "position": {
                "x": -0.8240239810943604,
                "y": 0.19912469901144506,
                "z": 0.16403168439865112
            }
        },
        "name": "move_to_storage_D"
    },
    "id": "RRT_move_to_storage_D_117",
    "joint_names": [
        "shoulder_pan_joint",
        "shoulder_lift_joint",
        "elbow_joint",
        "wrist_1_joint",
        "wrist_2_joint",
        "wrist_3_joint"
    ],
    "metrics": {
        "cart_traj_len": 1.3286041253267542,
        "distance_elbow_joint": 0.7424539408017419,
        "distance_shoulder_lift_joint": 2.048947407464526,
        "distance_shoulder_pan_joint": 1.5546185740823888,
        "distance_wrist_1_joint": 3.822079301849326,
        "distance_wrist_2_joint": 1.782150783730962,
        "distance_wrist_3_joint": 3.1636493260236973,
        "smoothness": 0.2321406050219359,
        "time": 0.23137089500000002,
        "traj_len": 3.6213118250093634,
        "weighted_distance": 5.004540745321224
    },
    "planner": "RRT",
    "start": {
        "state": {
            "elbow_joint": -2.384821988534728,
            "shoulder_lift_joint": -2.2788054721415256,
            "shoulder_pan_joint": -0.1854694642142757,
            "wrist_1_joint": 1.4845938289331202,
            "wrist_2_joint": 0.17898776772866878,
            "wrist_3_joint": 0.037105688729662994
        }
    },
    "waypoints": [
        {
            "positions": [
                -0.1854694642142757,
                -2.2788054721415256,
                -2.384821988534728,
                1.4845938289331202,
                0.17898776772866878,
                0.037105688729662994
            ]
        },
        {
            "positions": [
                -0.14672146362607952,
                -2.228790345577974,
                -2.3890543315170003,
                1.3551909298362113,
                0.10132036305985155,
                0.13038414482105584
            ]
        },
        {
            "positions": [
                -0.10797346303788335,
                -2.1787752190144216,
                -2.3932866744992727,
                1.2257880307393023,
                0.023652958391034318,
                0.2236626009124487
            ]
        },
        {
            "positions": [
                -0.06922546244968718,
                -2.12876009245087,
                -2.397519017481545,
                1.0963851316423934,
                -0.0540144462777829,
                0.31694105700384156
            ]
        },
        {
            "positions": [
                -0.030477461861491,
                -2.078744965887318,
                -2.4017513604638174,
                0.9669822325454843,
                -0.13168185094660015,
                0.4102195130952344
            ]
        },
        {
            "positions": [
                0.008270538726705162,
                -2.0287298393237663,
                -2.40598370344609,
                0.8375793334485754,
                -0.20934925561541737,
                0.5034979691866273
            ]
        },
        {
            "positions": [
                0.04701853931490135,
                -1.9787147127602143,
                -2.410216046428362,
                0.7081764343516664,
                -0.28701666028423456,
                0.5967764252780201
            ]
        },
        {
            "positions": [
                0.08576653990309754,
                -1.9286995861966623,
                -2.4144483894106346,
                0.5787735352547575,
                -0.36468406495305183,
                0.690054881369413
            ]
        },
        {
            "positions": [
                0.12451454049129371,
                -1.8786844596331105,
                -2.418680732392907,
                0.44937063615784845,
                -0.4423514696218691,
                0.7833333374608058
            ]
        },
        {
            "positions": [
                0.16326254107948993,
                -1.8286693330695585,
                -2.4229130753751793,
                0.3199677370609395,
                -0.5200188742906864,
                0.8766117935521986
            ]
        },
        {
            "positions": [
                0.20201054166768603,
                -1.7786542065060065,
                -2.4271454183574517,
                0.19056483796403056,
                -0.5976862789595035,
                0.9698902496435915
            ]
        },
        {
            "positions": [
                0.24075854225588225,
                -1.7286390799424547,
                -2.431377761339724,
                0.061161938867121624,
                -0.6753536836283208,
                1.0631687057349843
            ]
        },
        {
            "positions": [
                0.2795065428440784,
                -1.678623953378903,
                -2.435610104321997,
                -0.06824096022978732,
                -0.753021088297138,
                1.1564471618263772
            ]
        },
        {
            "positions": [
                0.31825454343227466,
                -1.628608826815351,
                -2.4398424473042692,
                -0.19764385932669648,
                -0.8306884929659554,
                1.24972561791777
            ]
        },
        {
            "positions": [
                0.3570025440204708,
                -1.578593700251799,
                -2.4440747902865416,
                -0.3270467584236052,
                -0.9083558976347724,
                1.3430040740091629
            ]
        },
        {
            "positions": [
                0.395750544608667,
                -1.5285785736882471,
                -2.448307133268814,
                -0.45644965752051414,
                -0.9860233023035897,
                1.4362825301005557
            ]
        },
        {
            "positions": [
                0.43449854519686315,
                -1.4785634471246951,
                -2.4525394762510864,
                -0.5858525566174233,
                -1.0636907069724069,
                1.5295609861919486
            ]
        },
        {
            "positions": [
                0.4732465457850593,
                -1.4285483205611433,
                -2.4567718192333587,
                -0.715255455714332,
                -1.1413581116412241,
                1.6228394422833414
            ]
        },
        {
            "positions": [
                0.5119945463732556,
                -1.3785331939975913,
                -2.461004162215631,
                -0.8446583548112412,
                -1.2190255163100414,
                1.7161178983747343
            ]
        },
        {
            "positions": [
                0.5507425469614518,
                -1.3285180674340396,
                -2.4652365051979035,
                -0.9740612539081499,
                -1.2966929209788587,
                1.8093963544661271
            ]
        },
        {
            "positions": [
                0.5894905475496478,
                -1.2785029408704875,
                -2.469468848180176,
                -1.103464153005059,
                -1.3743603256476757,
                1.90267481055752
            ]
        },
        {
            "positions": [
                0.6282385481378441,
                -1.2284878143069355,
                -2.4737011911624482,
                -1.2328670521019682,
                -1.452027730316493,
                1.9959532666489128
            ]
        },
        {
            "positions": [
                0.6669865487260402,
                -1.1784726877433838,
                -2.4779335341447206,
                -1.3622699511988767,
                -1.5296951349853103,
                2.0892317227403057
            ]
        },
        {
            "positions": [
                0.6084730019642007,
                -1.2575239063322492,
                -2.4238216678787414,
                -1.4435379113419875,
                -1.5358174584033921,
                2.1818586637413935
            ]
        },
        {
            "positions": [
                0.5499594552023613,
                -1.3365751249211144,
                -2.3697098016127622,
                -1.524805871485098,
                -1.5419397818214742,
                2.2744856047424813
            ]
        },
        {
            "positions": [
                0.49144590844052183,
                -1.4156263435099798,
                -2.3155979353467835,
                -1.6060738316282088,
                -1.548062105239556,
                2.367112545743569
            ]
        },
        {
            "positions": [
                0.43293236167868243,
                -1.494677562098845,
                -2.2614860690808043,
                -1.6873417917713196,
                -1.554184428657638,
                2.4597394867446574
            ]
        },
        {
            "positions": [
                0.3744188149168429,
                -1.5737287806877105,
                -2.207374202814825,
                -1.7686097519144304,
                -1.56030675207572,
                2.552366427745745
            ]
        },
        {
            "positions": [
                0.31590526815500347,
                -1.652779999276576,
                -2.153262336548846,
                -1.8498777120575411,
                -1.5664290754938017,
                2.644993368746833
            ]
        },
        {
            "positions": [
                0.25739172139316396,
                -1.7318312178654414,
                -2.0991504702828667,
                -1.931145672200652,
                -1.5725513989118838,
                2.737620309747921
            ]
        },
        {
            "positions": [
                0.19887817463132457,
                -1.8108824364543066,
                -2.045038604016888,
                -2.0124136323437627,
                -1.5786737223299656,
                2.8302472507490086
            ]
        },
        {
            "positions": [
                0.14036462786948511,
                -1.889933655043172,
                -1.9909267377509088,
                -2.093681592486873,
                -1.5847960457480477,
                2.922874191750097
            ]
        },
        {
            "positions": [
                0.0818510811076456,
                -1.9689848736320374,
                -1.9368148714849296,
                -2.174949552629984,
                -1.5909183691661295,
                3.0155011327511847
            ]
        },
        {
            "positions": [
                0.02333753434580621,
                -2.0480360922209027,
                -1.8827030052189504,
                -2.2562175127730946,
                -1.5970406925842116,
                3.1081280737522725
            ]
        },
        {
            "positions": [
                -0.0351760124160333,
                -2.127087310809768,
                -1.8285911389529714,
                -2.3374854729162053,
                -1.6031630160022934,
                3.2007550147533603
            ]
        }
    ]
}