{
    "goal": {
        "global_pose": {
            "orientation": {
                "w": 0.005598929693374612,
                "x": 0.007748599140229565,
                "y": 0.7110244013736278,
                "z": -0.7031023480610252
            },
            "position": {
                "x": -0.8858502320852131,
                "y": -0.7141253447532654,
                "z": 0.3711530566215515
            }
        },
        "name": "move_to_auspresseinheit_C"
    },
    "id": "RRT_move_to_auspresseinheit_C_139",
    "joint_names": [
        "shoulder_pan_joint",
        "shoulder_lift_joint",
        "elbow_joint",
        "wrist_1_joint",
        "wrist_2_joint",
        "wrist_3_joint"
    ],
    "metrics": {
        "cart_traj_len": 0.4934673370895007,
        "distance_elbow_joint": 1.0112684509776724,
        "distance_shoulder_lift_joint": 0.3295453207954506,
        "distance_shoulder_pan_joint": 0.2555474512515863,
        "distance_wrist_1_joint": 0.7024748675574826,
        "distance_wrist_2_joint": 1.3144248863123908,
        "distance_wrist_3_joint": 0.07625248118170669,
        "smoothness": 8.074349282788172e-16,
        "time": 0.024509381,
        "traj_len": 1.920810625250779,
        "weighted_distance": 2.420520228031482
    },
    "planner": "RRT",
    "start": {
        "state": {
            "elbow_joint": 1.7527959577737207,
            "shoulder_lift_joint": -0.9740617694225068,
            "shoulder_pan_joint": -2.967991417825858,
            "wrist_1_joint": -0.759517768980727,
            "wrist_2_joint": 1.7443932448377408,
            "wrist_3_joint": -3.0840537646736568
        }
    },
    "waypoints": [
        {
            "positions": [
                -2.967991417825858,
                -0.9740617694225068,
                1.7527959577737207,
                -0.759517768980727,
                1.7443932448377408,
                -3.0840537646736568
            ]
        },
        {
            "positions": [
                -2.9424366727006994,
                -0.9411072373429618,
                1.6516691126759535,
                -0.6892702822249788,
                1.6129507562065017,
                -3.091679012791827
            ]
        },
        {
            "positions": [
                -2.916881927575541,
                -0.9081527052634166,
                1.5505422675781861,
                -0.6190227954692304,
                1.4815082675752627,
                -3.099304260909998
            ]
        },
        {
            "positions": [
                -2.891327182450382,
                -0.8751981731838716,
                1.449415422480419,
                -0.5487753087134822,
                1.3500657789440236,
                -3.106929509028169
            ]
        },
        {
            "positions": [
                -2.8657724373252234,
                -0.8422436411043265,
                1.3482885773826516,
                -0.47852782195773397,
                1.2186232903127845,
                -3.1145547571463394
            ]
        },
        {
            "positions": [
                -2.840217692200065,
                -0.8092891090247815,
                1.2471617322848845,
                -0.4082803352019857,
                1.0871808016815454,
                -3.12218000526451
            ]
        },
        {
            "positions": [
                -2.8146629470749063,
                -0.7763345769452364,
                1.1460348871871173,
                -0.33803284844623743,
                0.9557383130503063,
                -3.129805253382681
            ]
        },
        {
            "positions": [
                -2.7891082019497477,
                -0.7433800448656913,
                1.0449080420893502,
                -0.2677853616904892,
                0.8242958244190673,
                -3.1374305015008517
            ]
        },
        {
            "positions": [
                -2.7635534568245887,
                -0.7104255127861463,
                0.9437811969915827,
                -0.19753787493474095,
                0.6928533357878282,
                -3.145055749619022
            ]
        },
        {
            "positions": [
                -2.73799871169943,
                -0.6774709807066013,
                0.8426543518938155,
                -0.12729038817899263,
                0.5614108471565891,
                -3.1526809977371926
            ]
        },
        {
            "positions": [
                -2.7124439665742717,
                -0.6445164486270561,
                0.7415275067960483,
                -0.05704290142324436,
                0.42996835852535,
                -3.1603062458553635
            ]
        }
    ]
}