{
    "goal": {
        "global_pose": {
            "orientation": {
                "w": 0.005598929693374612,
                "x": 0.007748599140229565,
                "y": 0.7110244013736278,
                "z": -0.7031023480610252
            },
            "position": {
                "x": -0.8858502320852131,
                "y": -0.7141253447532654,
                "z": 0.3711530566215515
            }
        },
        "name": "move_to_auspresseinheit_C"
    },
    "id": "RRT_move_to_auspresseinheit_C_45",
    "joint_names": [
        "shoulder_pan_joint",
        "shoulder_lift_joint",
        "elbow_joint",
        "wrist_1_joint",
        "wrist_2_joint",
        "wrist_3_joint"
    ],
    "metrics": {
        "cart_traj_len": 0.4940061219743108,
        "distance_elbow_joint": 1.0064361431547433,
        "distance_shoulder_lift_joint": 0.3275725793208276,
        "distance_shoulder_pan_joint": 0.25660088879991383,
        "distance_wrist_1_joint": 0.689201449943019,
        "distance_wrist_2_joint": 1.3058221130142051,
        "distance_wrist_3_joint": 0.05730269517160469,
        "smoothness": 1.6148698667872622e-16,
        "time": 0.017737865000000002,
        "traj_len": 1.908647654598489,
        "weighted_distance": 2.3984505045351145
    },
    "planner": "RRT",
    "start": {
        "state": {
            "elbow_joint": 1.7527959577737207,
            "shoulder_lift_joint": -0.9740617694225068,
            "shoulder_pan_joint": -2.967991417825858,
            "wrist_1_joint": -0.759517768980727,
            "wrist_2_joint": 1.7443932448377408,
            "wrist_3_joint": -3.0840537646736568
        }
    },
    "waypoints": [
        {
            "positions": [
                -2.967991417825858,
                -0.9740617694225068,
                1.7527959577737207,
                -0.759517768980727,
                1.7443932448377408,
                -3.0840537646736568
            ]
        },
        {
            "positions": [
                -2.9423313289458664,
                -0.941304511490424,
                1.6521523434582464,
                -0.6905976239864251,
                1.6138110335363203,
                -3.089784034190817
            ]
        },
        {
            "positions": [
                -2.916671240065875,
                -0.9085472535583412,
                1.551508729142772,
                -0.6216774789921231,
                1.4832288222348997,
                -3.0955143037079775
            ]
        },
        {
            "positions": [
                -2.891011151185884,
                -0.8757899956262585,
                1.4508651148272977,
                -0.5527573339978213,
                1.3526466109334794,
                -3.1012445732251384
            ]
        },
        {
            "positions": [
                -2.8653510623058924,
                -0.8430327376941757,
                1.3502215005118234,
                -0.48383718900351935,
                1.2220643996320586,
                -3.1069748427422987
            ]
        },
        {
            "positions": [
                -2.839690973425901,
                -0.810275479762093,
                1.2495778861963491,
                -0.4149170440092175,
                1.0914821883306383,
                -3.112705112259459
            ]
        },
        {
            "positions": [
                -2.8140308845459097,
                -0.7775182218300102,
                1.1489342718808748,
                -0.3459968990149156,
                0.9608999770292178,
                -3.1184353817766195
            ]
        },
        {
            "positions": [
                -2.7883707956659185,
                -0.7447609638979275,
                1.0482906575654005,
                -0.2770767540206137,
                0.8303177657277973,
                -3.12416565129378
            ]
        },
        {
            "positions": [
                -2.762710706785927,
                -0.7120037059658446,
                0.947647043249926,
                -0.20815660902631172,
                0.6997355544263766,
                -3.1298959208109407
            ]
        },
        {
            "positions": [
                -2.7370506179059353,
                -0.6792464480337619,
                0.8470034289344517,
                -0.13923646403200984,
                0.5691533431249562,
                -3.135626190328101
            ]
        },
        {
            "positions": [
                -2.711390529025944,
                -0.6464891901016792,
                0.7463598146189774,
                -0.07031631903770802,
                0.43857113182353563,
                -3.1413564598452615
            ]
        }
    ]
}