{
    "goal": {
        "global_pose": {
            "orientation": {
                "w": 0.7047431493862688,
                "x": -0.7094548369677653,
                "y": 0.0024358444001904,
                "z": -0.0022348060817251984
            },
            "position": {
                "x": -0.39052492380142206,
                "y": 0.3671506643295288,
                "z": 0.19426114857196808
            }
        },
        "name": "move_to_magneteinheit_D"
    },
    "id": "RRT_move_to_magneteinheit_D_87",
    "joint_names": [
        "shoulder_pan_joint",
        "shoulder_lift_joint",
        "elbow_joint",
        "wrist_1_joint",
        "wrist_2_joint",
        "wrist_3_joint"
    ],
    "metrics": {
        "cart_traj_len": 4.539209026453376,
        "distance_elbow_joint": 4.4419990687297215,
        "distance_shoulder_lift_joint": 2.5258748828969075,
        "distance_shoulder_pan_joint": 3.2833143854215048,
        "distance_wrist_1_joint": 1.5374757805942956,
        "distance_wrist_2_joint": 1.9807400833463258,
        "distance_wrist_3_joint": 4.350921564541814,
        "smoothness": 0.7053269274327221,
        "time": 1.6390357629999999,
        "traj_len": 4.256797595086073,
        "weighted_distance": 5.508210667590231
    },
    "planner": "RRT",
    "start": {
        "state": {
            "elbow_joint": 0.749534889911806,
            "shoulder_lift_joint": -0.6476975780787326,
            "shoulder_pan_joint": -2.711696901376241,
            "wrist_1_joint": -0.07506478083263063,
            "wrist_2_joint": 0.43296659715538205,
            "wrist_3_joint": -3.14703540197715
        }
    },
    "waypoints": [
        {
            "positions": [
                -2.711696901376241,
                -0.6476975780787326,
                0.749534889911806,
                -0.07506478083263063,
                0.43296659715538205,
                -3.14703540197715
            ]
        },
        {
            "positions": [
                -2.7202079295185055,
                -0.6730934304091146,
                0.8101770613331595,
                0.01067134827529101,
                0.33806254948734177,
                -3.063392580952881
            ]
        },
        {
            "positions": [
                -2.72871895766077,
                -0.6984892827394966,
                0.8708192327545129,
                0.09640747738321265,
                0.2431585018193015,
                -2.9797497599286116
            ]
        },
        {
            "positions": [
                -2.737229985803035,
                -0.7238851350698787,
                0.9314614041758664,
                0.1821436064911343,
                0.1482544541512612,
                -2.8961069389043423
            ]
        },
        {
            "positions": [
                -2.7457410139452993,
                -0.7492809874002607,
                0.9921035755972198,
                0.2678797355990559,
                0.053350406483220925,
                -2.812464117880073
            ]
        },
        {
            "positions": [
                -2.754252042087564,
                -0.7746768397306427,
                1.0527457470185735,
                0.35361586470697765,
                -0.041553641184819357,
                -2.728821296855804
            ]
        },
        {
            "positions": [
                -2.7627630702298283,
                -0.8000726920610247,
                1.113387918439927,
                0.4393519938148993,
                -0.13645768885285964,
                -2.6451784758315346
            ]
        },
        {
            "positions": [
                -2.77627483400099,
                -0.8772485628034763,
                1.0536593272085772,
                0.49150516423703466,
                -0.14290500875922013,
                -2.4700370816483597
            ]
        },
        {
            "positions": [
                -2.7897865977721517,
                -0.954424433545928,
                0.9939307359772274,
                0.54365833465917,
                -0.14935232866558062,
                -2.2948956874651842
            ]
        },
        {
            "positions": [
                -2.803298361543313,
                -1.0316003042883797,
                0.9342021447458776,
                0.5958115050813053,
                -0.15579964857194115,
                -2.119754293282009
            ]
        },
        {
            "positions": [
                -2.8168101253144746,
                -1.1087761750308314,
                0.8744735535145278,
                0.6479646755034406,
                -0.16224696847830164,
                -1.9446128990988338
            ]
        },
        {
            "positions": [
                -2.8303218890856363,
                -1.1859520457732828,
                0.8147449622831782,
                0.7001178459255759,
                -0.16869428838466213,
                -1.7694715049156586
            ]
        },
        {
            "positions": [
                -2.843833652856798,
                -1.2631279165157345,
                0.7550163710518283,
                0.7522710163477113,
                -0.17514160829102263,
                -1.5943301107324834
            ]
        },
        {
            "positions": [
                -2.8573454166279597,
                -1.3403037872581862,
                0.6952877798204786,
                0.8044241867698466,
                -0.18158892819738312,
                -1.4191887165493082
            ]
        },
        {
            "positions": [
                -2.870857180399121,
                -1.4174796580006377,
                0.6355591885891287,
                0.8565773571919819,
                -0.18803624810374364,
                -1.244047322366133
            ]
        },
        {
            "positions": [
                -2.8843689441702827,
                -1.4946555287430896,
                0.5758305973577791,
                0.9087305276141173,
                -0.19448356801010414,
                -1.0689059281829578
            ]
        },
        {
            "positions": [
                -2.8978807079414444,
                -1.571831399485541,
                0.5161020061264293,
                0.9608836980362526,
                -0.20093088791646463,
                -0.8937645339997826
            ]
        },
        {
            "positions": [
                -2.7703023506177393,
                -1.5078182661694304,
                0.5570995119333628,
                0.9932350543935069,
                -0.2693964622912376,
                -0.9225326309682046
            ]
        },
        {
            "positions": [
                -2.6427239932940343,
                -1.44380513285332,
                0.5980970177402963,
                1.025586410750761,
                -0.33786203666601056,
                -0.9513007279366266
            ]
        },
        {
            "positions": [
                -2.5151456359703293,
                -1.3797919995372092,
                0.6390945235472298,
                1.0579377671080155,
                -0.40632761104078347,
                -0.9800688249050484
            ]
        },
        {
            "positions": [
                -2.3875672786466238,
                -1.3157788662210985,
                0.6800920293541635,
                1.0902891234652696,
                -0.47479318541555643,
                -1.0088369218734705
            ]
        },
        {
            "positions": [
                -2.2599889213229187,
                -1.251765732904988,
                0.721089535161097,
                1.1226404798225238,
                -0.5432587597903293,
                -1.0376050188418924
            ]
        },
        {
            "positions": [
                -2.1324105639992137,
                -1.1877525995888774,
                0.7620870409680305,
                1.1549918361797782,
                -0.6117243341651023,
                -1.0663731158103142
            ]
        },
        {
            "positions": [
                -2.0048322066755087,
                -1.1237394662727667,
                0.803084546774964,
                1.1873431925370324,
                -0.6801899085398753,
                -1.0951412127787363
            ]
        },
        {
            "positions": [
                -1.9002159359015556,
                -1.1568073853549505,
                0.6685352265272153,
                1.192886614991322,
                -0.6506893008583725,
                -1.0145740507627707
            ]
        },
        {
            "positions": [
                -1.7955996651276025,
                -1.1898753044371342,
                0.5339859062794665,
                1.1984300374456118,
                -0.6211886931768698,
                -0.9340068887468054
            ]
        },
        {
            "positions": [
                -1.6909833943536494,
                -1.222943223519318,
                0.3994365860317177,
                1.2039734598999015,
                -0.591688085495367,
                -0.8534397267308399
            ]
        },
        {
            "positions": [
                -1.5863671235796963,
                -1.256011142601502,
                0.26488726578396904,
                1.209516882354191,
                -0.5621874778138642,
                -0.7728725647148744
            ]
        },
        {
            "positions": [
                -1.4817508528057433,
                -1.2890790616836858,
                0.13033794553622025,
                1.215060304808481,
                -0.5326868701323615,
                -0.6923054026989088
            ]
        },
        {
            "positions": [
                -1.37713458203179,
                -1.3221469807658695,
                -0.004211374711528548,
                1.2206037272627706,
                -0.5031862624508587,
                -0.6117382406829435
            ]
        },
        {
            "positions": [
                -1.2725183112578369,
                -1.3552148998480533,
                -0.13876069495927723,
                1.2261471497170602,
                -0.473685654769356,
                -0.5311710786669779
            ]
        },
        {
            "positions": [
                -1.1679020404838838,
                -1.3882828189302372,
                -0.2733100152070259,
                1.2316905721713498,
                -0.4441850470878532,
                -0.4506039166510124
            ]
        },
        {
            "positions": [
                -1.0632857697099307,
                -1.4213507380124208,
                -0.4078593354547747,
                1.2372339946256397,
                -0.41468443940635047,
                -0.3700367546350469
            ]
        },
        {
            "positions": [
                -0.9586694989359776,
                -1.4544186570946047,
                -0.5424086557025235,
                1.2427774170799293,
                -0.3851838317248477,
                -0.28946959261908145
            ]
        },
        {
            "positions": [
                -0.8540532281620243,
                -1.4874865761767886,
                -0.6769579759502725,
                1.2483208395342191,
                -0.35568322404334496,
                -0.20890243060311586
            ]
        },
        {
            "positions": [
                -0.7494369573880713,
                -1.5205544952589725,
                -0.8115072961980211,
                1.2538642619885088,
                -0.3261826163618422,
                -0.1283352685871505
            ]
        },
        {
            "positions": [
                -0.6448206866141182,
                -1.5536224143411563,
                -0.9460566164457699,
                1.2594076844427984,
                -0.29668200868033945,
                -0.0477681065711848
            ]
        },
        {
            "positions": [
                -0.5402044158401651,
                -1.58669033342334,
                -1.0806059366935186,
                1.264951106897088,
                -0.2671814009988367,
                0.03279905544478057
            ]
        },
        {
            "positions": [
                -0.435588145066212,
                -1.6197582525055239,
                -1.2151552569412671,
                1.2704945293513779,
                -0.23768079331733394,
                0.11336621746074615
            ]
        },
        {
            "positions": [
                -0.33097187429225894,
                -1.6528261715877077,
                -1.3497045771890157,
                1.2760379518056675,
                -0.20818018563583118,
                0.19393337947671152
            ]
        },
        {
            "positions": [
                -0.22635560351830564,
                -1.6858940906698914,
                -1.4842538974367647,
                1.281581374259957,
                -0.17867957795432843,
                0.2745005414926771
            ]
        },
        {
            "positions": [
                -0.12173933274435278,
                -1.7189620097520752,
                -1.6188032176845133,
                1.287124796714247,
                -0.14917897027282567,
                0.3550677035086425
            ]
        },
        {
            "positions": [
                -0.017123061970399492,
                -1.7520299288342591,
                -1.7533525379322625,
                1.2926682191685366,
                -0.11967836259132295,
                0.4356348655246081
            ]
        },
        {
            "positions": [
                -0.011164858492808207,
                -1.833694376109451,
                -1.896729571616092,
                1.321012313071543,
                -0.06742343768808393,
                0.3934600588620072
            ]
        },
        {
            "positions": [
                -0.0052066550152169225,
                -1.9153588233846432,
                -2.040106605299921,
                1.3493564069745492,
                -0.01516851278484492,
                0.3512852521994062
            ]
        },
        {
            "positions": [
                0.0007515484623743622,
                -1.9970232706598354,
                -2.1834836389837506,
                1.3777005008775554,
                0.037086412118394085,
                0.3091104455368052
            ]
        },
        {
            "positions": [
                0.006709751939965647,
                -2.0786877179350274,
                -2.32686067266758,
                1.4060445947805618,
                0.0893413370216331,
                0.2669356388742043
            ]
        },
        {
            "positions": [
                -0.057470287718331875,
                -2.1449213434733823,
                -2.348171461933255,
                1.4248333964409294,
                0.1220254477181533,
                0.20133606793028952
            ]
        },
        {
            "positions": [
                -0.1216503273766294,
                -2.211154969011737,
                -2.36948225119893,
                1.443622198101297,
                0.1547095584146735,
                0.13573649698637472
            ]
        },
        {
            "positions": [
                -0.18583036703492695,
                -2.277388594550092,
                -2.3907930404646054,
                1.4624109997616648,
                0.18739366911119368,
                0.0701369260424599
            ]
        }
    ]
}