{
    "goal": {
        "global_pose": {
            "orientation": {
                "w": 0.5084816217422485,
                "x": -0.49083608388900757,
                "y": 0.5182115435600281,
                "z": -0.4816462993621826
            },
            "position": {
                "x": 0.5540239810943604,
                "y": 0.030875300988554955,
                "z": 0.16403168439865112
            }
        },
        "name": "move_to_storage_A"
    },
    "id": "RRT_move_to_storage_A_78",
    "joint_names": [
        "shoulder_pan_joint",
        "shoulder_lift_joint",
        "elbow_joint",
        "wrist_1_joint",
        "wrist_2_joint",
        "wrist_3_joint"
    ],
    "metrics": {
        "cart_traj_len": 0.3537973985998863,
        "distance_elbow_joint": 0.4517100980332225,
        "distance_shoulder_lift_joint": 0.2357559034515606,
        "distance_shoulder_pan_joint": 0.4610441110318724,
        "distance_wrist_1_joint": 0.2494669731411051,
        "distance_wrist_2_joint": 1.1077635579324863,
        "distance_wrist_3_joint": 0.08964971398577326,
        "smoothness": 6.661338165333112e-16,
        "time": 0.013889478,
        "traj_len": 1.6110215261057255,
        "weighted_distance": 2.0327125514005067
    },
    "planner": "RRT",
    "start": {
        "state": {
            "elbow_joint": 1.971548259319323,
            "shoulder_lift_joint": -1.1394851275133948,
            "shoulder_pan_joint": 0.1228115487234821,
            "wrist_1_joint": -0.7804723859257726,
            "wrist_2_joint": 0.12958671773740124,
            "wrist_3_joint": -3.192489227718131
        }
    },
    "waypoints": [
        {
            "positions": [
                0.1228115487234821,
                -1.1394851275133948,
                1.971548259319323,
                -0.7804723859257726,
                0.12958671773740124,
                -3.192489227718131
            ]
        },
        {
            "positions": [
                0.056948104290357474,
                -1.1731645422921892,
                2.036078273324069,
                -0.8161105249459305,
                0.28783865458489927,
                -3.1796821257201637
            ]
        },
        {
            "positions": [
                -0.008915340142767153,
                -1.2068439570709835,
                2.100608287328815,
                -0.8517486639660884,
                0.44609059143239727,
                -3.166875023722196
            ]
        },
        {
            "positions": [
                -0.07477878457589177,
                -1.240523371849778,
                2.165138301333561,
                -0.8873868029862462,
                0.6043425282798953,
                -3.1540679217242285
            ]
        },
        {
            "positions": [
                -0.1406422290090164,
                -1.2742027866285723,
                2.2296683153383072,
                -0.9230249420064041,
                0.7625944651273934,
                -3.1412608197262606
            ]
        },
        {
            "positions": [
                -0.20650567344214105,
                -1.3078822014073668,
                2.2941983293430535,
                -0.958663081026562,
                0.9208464019748914,
                -3.128453717728293
            ]
        },
        {
            "positions": [
                -0.27236911787526563,
                -1.341561616186161,
                2.3587283433477992,
                -0.9943012200467198,
                1.0790983388223894,
                -3.1156466157303253
            ]
        },
        {
            "positions": [
                -0.33823256230839027,
                -1.3752410309649554,
                2.4232583573525455,
                -1.0299393590668777,
                1.2373502756698875,
                -3.102839513732358
            ]
        }
    ]
}{
    "goal": {
        "global_pose": {
            "orientation": {
                "w": 0.5084816217422485,
                "x": -0.49083608388900757,
                "y": 0.5182115435600281,
                "z": -0.4816462993621826
            },
            "position": {
                "x": 0.5540239810943604,
                "y": 0.030875300988554955,
                "z": 0.16403168439865112
            }
        },
        "name": "move_to_storage_A"
    },
    "id": "RRT_move_to_storage_A_78",
    "joint_names": [
        "shoulder_pan_joint",
        "shoulder_lift_joint",
        "elbow_joint",
        "wrist_1_joint",
        "wrist_2_joint",
        "wrist_3_joint"
    ],
    "metrics": {
        "cart_traj_len": 0.3533493005674271,
        "distance_elbow_joint": 0.44934178430787997,
        "distance_shoulder_lift_joint": 0.23535577743498104,
        "distance_shoulder_pan_joint": 0.4620495528058893,
        "distance_wrist_1_joint": 0.23516582270610087,
        "distance_wrist_2_joint": 1.1001158602324852,
        "distance_wrist_3_joint": 0.09471709919103244,
        "smoothness": 6.661338165333112e-16,
        "time": 0.018843352,
        "traj_len": 1.605224562694693,
        "weighted_distance": 2.0252066013123255
    },
    "planner": "RRT",
    "start": {
        "state": {
            "elbow_joint": 1.97154746011099,
            "shoulder_lift_joint": -1.13948474672311,
            "shoulder_pan_joint": 0.12281154466712228,
            "wrist_1_joint": -0.7804688027058302,
            "wrist_2_joint": 0.12958655903071145,
            "wrist_3_joint": 3.0906928834467795
        }
    },
    "waypoints": [
        {
            "positions": [
                0.12281154466712228,
                -1.13948474672311,
                1.97154746011099,
                -0.7804688027058302,
                0.12958655903071145,
                3.0906928834467795
            ]
        },
        {
            "positions": [
                0.056804465694852396,
                -1.173107000642393,
                2.035739143583544,
                -0.8140639202352732,
                0.2867459676353522,
                3.104223897616927
            ]
        },
        {
            "positions": [
                -0.00920261327741749,
                -1.206729254561676,
                2.0999308270560983,
                -0.8476590377647162,
                0.44390537623999293,
                3.1177549117870744
            ]
        },
        {
            "positions": [
                -0.07520969224968739,
                -1.2403515084809589,
                2.1641225105286526,
                -0.8812541552941591,
                0.6010647848446337,
                3.131285925957222
            ]
        },
        {
            "positions": [
                -0.14121677122195725,
                -1.2739737624002418,
                2.2283141940012072,
                -0.9148492728236021,
                0.7582241934492744,
                3.1448169401273693
            ]
        },
        {
            "positions": [
                -0.20722385019422718,
                -1.307596016319525,
                2.2925058774737614,
                -0.9484443903530451,
                0.9153836020539152,
                3.158347954297517
            ]
        },
        {
            "positions": [
                -0.27323092916649705,
                -1.341218270238808,
                2.3566975609463157,
                -0.9820395078824881,
                1.0725430106585558,
                3.1718789684676643
            ]
        },
        {
            "positions": [
                -0.339238008138767,
                -1.374840524158091,
                2.42088924441887,
                -1.015634625411931,
                1.2297024192631967,
                3.185409982637812
            ]
        }
    ]
}{
    "goal": {
        "global_pose": {
            "orientation": {
                "w": 0.5084816217422485,
                "x": -0.49083608388900757,
                "y": 0.5182115435600281,
                "z": -0.4816462993621826
            },
            "position": {
                "x": 0.5540239810943604,
                "y": 0.030875300988554955,
                "z": 0.16403168439865112
            }
        },
        "name": "move_to_storage_A"
    },
    "id": "RRT_move_to_storage_A_78",
    "joint_names": [
        "shoulder_pan_joint",
        "shoulder_lift_joint",
        "elbow_joint",
        "wrist_1_joint",
        "wrist_2_joint",
        "wrist_3_joint"
    ],
    "metrics": {
        "cart_traj_len": 0.3536476308005233,
        "distance_elbow_joint": 0.4544259634869001,
        "distance_shoulder_lift_joint": 0.23440737435851444,
        "distance_shoulder_pan_joint": 0.4621280542773086,
        "distance_wrist_1_joint": 0.2576726110348424,
        "distance_wrist_2_joint": 1.1021051522370966,
        "distance_wrist_3_joint": 0.1101057954318776,
        "smoothness": 8.881784197001252e-16,
        "time": 0.016583376,
        "traj_len": 1.618902390765589,
        "weighted_distance": 2.049593692652823
    },
    "planner": "RRT",
    "start": {
        "state": {
            "elbow_joint": 1.9715472970024885,
            "shoulder_lift_joint": -1.1394870060712896,
            "shoulder_pan_joint": 0.12281152778156021,
            "wrist_1_joint": -0.780463741449964,
            "wrist_2_joint": 0.12958659822042276,
            "wrist_3_joint": 3.090690232415272
        }
    },
    "waypoints": [
        {
            "positions": [
                0.12281152778156021,
                -1.1394870060712896,
                1.9715472970024885,
                -0.780463741449964,
                0.12958659822042276,
                3.090690232415272
            ]
        },
        {
            "positions": [
                0.056793234313373284,
                -1.1729737738367916,
                2.0364652917863313,
                -0.8172741144549415,
                0.2870301913971508,
                3.106419631762683
            ]
        },
        {
            "positions": [
                -0.009225059154813642,
                -1.2064605416022938,
                2.1013832865701745,
                -0.8540844874599189,
                0.44447378457387887,
                3.122149031110094
            ]
        },
        {
            "positions": [
                -0.07524335262300058,
                -1.2399473093677957,
                2.1663012813540172,
                -0.8908948604648964,
                0.6019173777506069,
                3.137878430457505
            ]
        },
        {
            "positions": [
                -0.1412616460911875,
                -1.273434077133298,
                2.23121927613786,
                -0.9277052334698739,
                0.759360970927335,
                3.1536078298049164
            ]
        },
        {
            "positions": [
                -0.20727993955937443,
                -1.3069208448988,
                2.2961372709217027,
                -0.9645156064748515,
                0.9168045641040632,
                3.1693372291523274
            ]
        },
        {
            "positions": [
                -0.2732982330275614,
                -1.3404076126643019,
                2.361055265705546,
                -1.0013259794798288,
                1.0742481572807911,
                3.1850666284997384
            ]
        },
        {
            "positions": [
                -0.33931652649574834,
                -1.373894380429804,
                2.4259732604893887,
                -1.0381363524848064,
                1.2316917504575193,
                3.2007960278471494
            ]
        }
    ]
}