{
    "goal": {
        "global_pose": {
            "orientation": {
                "w": 0.7031023502349854,
                "x": -0.7110244035720825,
                "y": 0.007748599164187908,
                "z": 0.005598929710686207
            },
            "position": {
                "x": 0.11585023208521307,
                "y": 0.44412534475326537,
                "z": 0.3711530566215515
            }
        },
        "name": "move_to_auspresseinheit_A"
    },
    "id": "RRT_move_to_auspresseinheit_A_88",
    "joint_names": [
        "shoulder_pan_joint",
        "shoulder_lift_joint",
        "elbow_joint",
        "wrist_1_joint",
        "wrist_2_joint",
        "wrist_3_joint"
    ],
    "metrics": {
        "cart_traj_len": 1.9727052623636299,
        "distance_elbow_joint": 2.2432035730499953,
        "distance_shoulder_lift_joint": 0.6481620574621083,
        "distance_shoulder_pan_joint": 1.6849955682409652,
        "distance_wrist_1_joint": 2.571337168831046,
        "distance_wrist_2_joint": 1.1450386829135888,
        "distance_wrist_3_joint": 2.3070330800580257,
        "smoothness": 0.4630811732628117,
        "time": 1.282520418,
        "traj_len": 3.25572881710927,
        "weighted_distance": 4.350886362847968
    },
    "planner": "RRT",
    "start": {
        "state": {
            "elbow_joint": 2.4225746658250005,
            "shoulder_lift_joint": -1.3736534386056498,
            "shoulder_pan_joint": -0.3378633547517467,
            "wrist_1_joint": -1.0288598680537169,
            "wrist_2_joint": 1.233022673432363,
            "wrist_3_joint": -3.0940220416140027
        }
    },
    "waypoints": [
        {
            "positions": [
                -0.3378633547517467,
                -1.3736534386056498,
                2.4225746658250005,
                -1.0288598680537169,
                1.233022673432363,
                -3.0940220416140027
            ]
        },
        {
            "positions": [
                -0.29163042956488744,
                -1.3898727740929768,
                2.319248033143202,
                -0.9223467685600213,
                1.1589997971415225,
                -3.055394815938886
            ]
        },
        {
            "positions": [
                -0.2453975043780281,
                -1.406092109580304,
                2.2159214004614034,
                -0.8158336690663258,
                1.0849769208506819,
                -3.0167675902637687
            ]
        },
        {
            "positions": [
                -0.1991645791911688,
                -1.422311445067631,
                2.112594767779605,
                -0.7093205695726303,
                1.0109540445598413,
                -2.978140364588652
            ]
        },
        {
            "positions": [
                -0.1529316540043095,
                -1.4385307805549583,
                2.0092681350978063,
                -0.6028074700789348,
                0.9369311682690007,
                -2.939513138913535
            ]
        },
        {
            "positions": [
                -0.10669872881745021,
                -1.4547501160422853,
                1.9059415024160078,
                -0.4962943705852393,
                0.8629082919781601,
                -2.900885913238418
            ]
        },
        {
            "positions": [
                -0.0604658036305909,
                -1.4709694515296126,
                1.8026148697342093,
                -0.3897812710915438,
                0.7888854156873195,
                -2.862258687563301
            ]
        },
        {
            "positions": [
                -0.014232878443731611,
                -1.4871887870169396,
                1.6992882370524107,
                -0.28326817159784823,
                0.7148625393964788,
                -2.8236314618881844
            ]
        },
        {
            "positions": [
                0.03200004674312773,
                -1.5034081225042668,
                1.5959616043706122,
                -0.17675507210415264,
                0.6408396631056382,
                -2.785004236213067
            ]
        },
        {
            "positions": [
                0.07823297192998707,
                -1.5196274579915938,
                1.4926349716888136,
                -0.07024197261045706,
                0.5668167868147976,
                -2.7463770105379504
            ]
        },
        {
            "positions": [
                0.1244658971168463,
                -1.535846793478921,
                1.3893083390070151,
                0.0362711268832383,
                0.49279391052395705,
                -2.707749784862833
            ]
        },
        {
            "positions": [
                0.17069882230370567,
                -1.552066128966248,
                1.2859817063252166,
                0.14278422637693394,
                0.41877103423311646,
                -2.6691225591877163
            ]
        },
        {
            "positions": [
                0.2994544352498746,
                -1.5858027762975455,
                1.3126724058902992,
                0.20685985245809077,
                0.4290582175829533,
                -2.561286463875155
            ]
        },
        {
            "positions": [
                0.4282100481960436,
                -1.6195394236288427,
                1.339363105455382,
                0.2709354785392476,
                0.4393454009327902,
                -2.4534503685625944
            ]
        },
        {
            "positions": [
                0.5569656611422126,
                -1.65327607096014,
                1.3660538050204647,
                0.3350111046204044,
                0.4496325842826271,
                -2.3456142732500336
            ]
        },
        {
            "positions": [
                0.6857212740883815,
                -1.6870127182914374,
                1.3927445045855473,
                0.39908673070156125,
                0.45991976763246395,
                -2.2377781779374724
            ]
        },
        {
            "positions": [
                0.8144768870345506,
                -1.7207493656227348,
                1.4194352041506302,
                0.4631623567827181,
                0.4702069509823008,
                -2.129942082624911
            ]
        },
        {
            "positions": [
                0.9432324999807195,
                -1.754486012954032,
                1.4461259037157128,
                0.5272379828638749,
                0.48049413433213767,
                -2.0221059873123504
            ]
        },
        {
            "positions": [
                1.0276763138069185,
                -1.786817967300545,
                1.510795524890467,
                0.5390755391563937,
                0.5078297145192889,
                -1.960111208314032
            ]
        },
        {
            "positions": [
                1.0184665508399835,
                -1.8121091542000023,
                1.6204821219819612,
                0.44835462973106144,
                0.5397207702719204,
                -2.0405309776234626
            ]
        },
        {
            "positions": [
                1.0092567878730483,
                -1.8374003410994597,
                1.7301687190734554,
                0.3576337203057292,
                0.571611826024552,
                -2.120950746932893
            ]
        },
        {
            "positions": [
                1.000047024906113,
                -1.862691527998917,
                1.8398553161649494,
                0.2669128108803969,
                0.6035028817771835,
                -2.2013705162423234
            ]
        },
        {
            "positions": [
                0.9908372619391781,
                -1.8879827148983743,
                1.9495419132564435,
                0.1761919014550647,
                0.635393937529815,
                -2.281790285551754
            ]
        },
        {
            "positions": [
                0.981627498972243,
                -1.9132739017978315,
                2.0592285103479377,
                0.08547099202973235,
                0.6672849932824466,
                -2.362210054861184
            ]
        },
        {
            "positions": [
                0.9724177360053079,
                -1.9385650886972887,
                2.1689151074394317,
                -0.005249917395599879,
                0.6991760490350781,
                -2.4426298241706146
            ]
        },
        {
            "positions": [
                0.9632079730383728,
                -1.9638562755967461,
                2.278601704530926,
                -0.09597082682093212,
                0.7310671047877096,
                -2.523049593480045
            ]
        },
        {
            "positions": [
                0.8994610833099342,
                -1.949366470478993,
                2.3070993583670516,
                -0.18805967573183438,
                0.7264443614977724,
                -2.6755955588780553
            ]
        },
        {
            "positions": [
                0.8357141935814957,
                -1.9348766653612401,
                2.335597012203177,
                -0.28014852464273665,
                0.7218216182078352,
                -2.8281415242760657
            ]
        },
        {
            "positions": [
                0.7719673038530571,
                -1.9203868602434873,
                2.3640946660393025,
                -0.3722373735536389,
                0.7171988749178979,
                -2.9806874896740765
            ]
        },
        {
            "positions": [
                0.7082204141246186,
                -1.9058970551257342,
                2.392592319875428,
                -0.46432622246454114,
                0.7125761316279606,
                -3.133233455072087
            ]
        }
    ]
}