{
    "goal": {
        "global_pose": {
            "orientation": {
                "w": 0.5084816217422485,
                "x": -0.49083608388900757,
                "y": 0.5182115435600281,
                "z": -0.4816462993621826
            },
            "position": {
                "x": 0.5540239810943604,
                "y": 0.030875300988554955,
                "z": 0.16403168439865112
            }
        },
        "name": "move_to_storage_A"
    },
    "id": "RRT_move_to_storage_A_76",
    "joint_names": [
        "shoulder_pan_joint",
        "shoulder_lift_joint",
        "elbow_joint",
        "wrist_1_joint",
        "wrist_2_joint",
        "wrist_3_joint"
    ],
    "metrics": {
        "cart_traj_len": 0.35310211581730916,
        "distance_elbow_joint": 0.44941400627091643,
        "distance_shoulder_lift_joint": 0.235108026363279,
        "distance_shoulder_pan_joint": 0.4584158798278224,
        "distance_wrist_1_joint": 0.24443923434778203,
        "distance_wrist_2_joint": 1.1129642645732356,
        "distance_wrist_3_joint": 0.09638179193374485,
        "smoothness": 8.881784232165597e-16,
        "time": 0.017440249,
        "traj_len": 1.6114351377938798,
        "weighted_distance": 2.036391486454726
    },
    "planner": "RRT",
    "start": {
        "state": {
            "elbow_joint": 1.971548259319323,
            "shoulder_lift_joint": -1.1394851275133948,
            "shoulder_pan_joint": 0.1228115487234821,
            "wrist_1_joint": -0.7804723859257726,
            "wrist_2_joint": 0.12958671773740124,
            "wrist_3_joint": -3.192489227718131
        }
    },
    "waypoints": [
        {
            "positions": [
                0.1228115487234821,
                -1.1394851275133948,
                1.971548259319323,
                -0.7804723859257726,
                0.12958671773740124,
                -3.192489227718131
            ]
        },
        {
            "positions": [
                0.057323565890936054,
                -1.1730719884224348,
                2.0357502602151683,
                -0.8153922765468843,
                0.2885816126764349,
                -3.178720400299025
            ]
        },
        {
            "positions": [
                -0.008164416941609992,
                -1.2066588493314745,
                2.0999522611110133,
                -0.8503121671679961,
                0.4475765076154685,
                -3.1649515728799185
            ]
        },
        {
            "positions": [
                -0.07365239977415605,
                -1.2402457102405144,
                2.164154262006859,
                -0.8852320577891077,
                0.6065714025545021,
                -3.151182745460812
            ]
        },
        {
            "positions": [
                -0.13914038260670208,
                -1.2738325711495542,
                2.228356262902704,
                -0.9201519484102195,
                0.7655662974935359,
                -3.1374139180417053
            ]
        },
        {
            "positions": [
                -0.20462836543924817,
                -1.3074194320585941,
                2.292558263798549,
                -0.9550718390313312,
                0.9245611924325696,
                -3.123645090622599
            ]
        },
        {
            "positions": [
                -0.2701163482717942,
                -1.3410062929676339,
                2.3567602646943944,
                -0.989991729652443,
                1.083556087371603,
                -3.1098762632034926
            ]
        },
        {
            "positions": [
                -0.3356043311043403,
                -1.3745931538766738,
                2.4209622655902394,
                -1.0249116202735546,
                1.2425509823106369,
                -3.0961074357843863
            ]
        }
    ]
}{
    "goal": {
        "global_pose": {
            "orientation": {
                "w": 0.5084816217422485,
                "x": -0.49083608388900757,
                "y": 0.5182115435600281,
                "z": -0.4816462993621826
            },
            "position": {
                "x": 0.5540239810943604,
                "y": 0.030875300988554955,
                "z": 0.16403168439865112
            }
        },
        "name": "move_to_storage_A"
    },
    "id": "RRT_move_to_storage_A_76",
    "joint_names": [
        "shoulder_pan_joint",
        "shoulder_lift_joint",
        "elbow_joint",
        "wrist_1_joint",
        "wrist_2_joint",
        "wrist_3_joint"
    ],
    "metrics": {
        "cart_traj_len": 0.35305145493486934,
        "distance_elbow_joint": 0.4486522536356188,
        "distance_shoulder_lift_joint": 0.2344535992826895,
        "distance_shoulder_pan_joint": 0.45903101760942283,
        "distance_wrist_1_joint": 0.24293091136867706,
        "distance_wrist_2_joint": 1.1094640511322948,
        "distance_wrist_3_joint": 0.09737894431067806,
        "smoothness": 2.8865798670323397e-15,
        "time": 0.013676170000000001,
        "traj_len": 1.6099412341260724,
        "weighted_distance": 2.034468881173096
    },
    "planner": "RRT",
    "start": {
        "state": {
            "elbow_joint": 1.97154746011099,
            "shoulder_lift_joint": -1.13948474672311,
            "shoulder_pan_joint": 0.12281154466712228,
            "wrist_1_joint": -0.7804688027058302,
            "wrist_2_joint": 0.12958655903071145,
            "wrist_3_joint": 3.0906928834467795
        }
    },
    "waypoints": [
        {
            "positions": [
                0.12281154466712228,
                -1.13948474672311,
                1.97154746011099,
                -0.7804688027058302,
                0.12958655903071145,
                3.0906928834467795
            ]
        },
        {
            "positions": [
                0.05723568500863331,
                -1.1729781180492085,
                2.0356406392017927,
                -0.8151732186156412,
                0.2880814234781821,
                3.104604161205448
            ]
        },
        {
            "positions": [
                -0.008340174649855661,
                -1.206471489375307,
                2.099733818292595,
                -0.8498776345254522,
                0.44657628792565285,
                3.118515438964116
            ]
        },
        {
            "positions": [
                -0.07391603430834463,
                -1.2399648607014055,
                2.163826997383398,
                -0.8845820504352632,
                0.6050711523731235,
                3.1324267167227844
            ]
        },
        {
            "positions": [
                -0.1394918939668336,
                -1.2734582320275039,
                2.2279201764742007,
                -0.9192864663450742,
                0.7635660168205942,
                3.1463379944814527
            ]
        },
        {
            "positions": [
                -0.2050677536253226,
                -1.3069516033536024,
                2.2920133555650035,
                -0.9539908822548853,
                0.922060881268065,
                3.160249272240121
            ]
        },
        {
            "positions": [
                -0.27064361328381153,
                -1.340444974679701,
                2.356106534655806,
                -0.9886952981646963,
                1.0805557457155355,
                3.1741605499987893
            ]
        },
        {
            "positions": [
                -0.33621947294230053,
                -1.3739383460057994,
                2.4201997137466087,
                -1.0233997140745072,
                1.2390506101630063,
                3.1880718277574576
            ]
        }
    ]
}{
    "goal": {
        "global_pose": {
            "orientation": {
                "w": 0.5084816217422485,
                "x": -0.49083608388900757,
                "y": 0.5182115435600281,
                "z": -0.4816462993621826
            },
            "position": {
                "x": 0.5540239810943604,
                "y": 0.030875300988554955,
                "z": 0.16403168439865112
            }
        },
        "name": "move_to_storage_A"
    },
    "id": "RRT_move_to_storage_A_76",
    "joint_names": [
        "shoulder_pan_joint",
        "shoulder_lift_joint",
        "elbow_joint",
        "wrist_1_joint",
        "wrist_2_joint",
        "wrist_3_joint"
    ],
    "metrics": {
        "cart_traj_len": 0.3536174708047831,
        "distance_elbow_joint": 0.45122513390848074,
        "distance_shoulder_lift_joint": 0.23581456570037296,
        "distance_shoulder_pan_joint": 0.46055074551859926,
        "distance_wrist_1_joint": 0.24138035675375624,
        "distance_wrist_2_joint": 1.1091083235883314,
        "distance_wrist_3_joint": 0.09080489787470025,
        "smoothness": 8.881784232165597e-16,
        "time": 0.012533477999999999,
        "traj_len": 1.6090009395100553,
        "weighted_distance": 2.030020319956362
    },
    "planner": "RRT",
    "start": {
        "state": {
            "elbow_joint": 1.9715472970024885,
            "shoulder_lift_joint": -1.1394870060712896,
            "shoulder_pan_joint": 0.12281152778156021,
            "wrist_1_joint": -0.780463741449964,
            "wrist_2_joint": 0.12958659822042276,
            "wrist_3_joint": 3.090690232415272
        }
    },
    "waypoints": [
        {
            "positions": [
                0.12281152778156021,
                -1.1394870060712896,
                1.9715472970024885,
                -0.780463741449964,
                0.12958659822042276,
                3.090690232415272
            ]
        },
        {
            "positions": [
                0.05701856413604604,
                -1.173174801171343,
                2.0360080304179857,
                -0.8149466495576435,
                0.28803064444732723,
                3.103662360683086
            ]
        },
        {
            "positions": [
                -0.008774399509468123,
                -1.2068625962713961,
                2.100468763833483,
                -0.8494295576653229,
                0.44647469067423173,
                3.1166344889509006
            ]
        },
        {
            "positions": [
                -0.0745673631549823,
                -1.2405503913714495,
                2.16492949724898,
                -0.8839124657730024,
                0.6049187369011362,
                3.1296066172187147
            ]
        },
        {
            "positions": [
                -0.14036032680049645,
                -1.2742381864715027,
                2.2293902306644773,
                -0.9183953738806818,
                0.7633627831280406,
                3.1425787454865293
            ]
        },
        {
            "positions": [
                -0.20615329044601063,
                -1.307925981571556,
                2.293850964079975,
                -0.9528782819883613,
                0.9218068293549452,
                3.1555508737543434
            ]
        },
        {
            "positions": [
                -0.27194625409152484,
                -1.3416137766716092,
                2.358311697495472,
                -0.9873611900960407,
                1.0802508755818496,
                3.168523002022158
            ]
        },
        {
            "positions": [
                -0.337739217737039,
                -1.3753015717716626,
                2.4227724309109693,
                -1.0218440982037202,
                1.2386949218087542,
                3.181495130289972
            ]
        }
    ]
}