{
    "goal": {
        "global_pose": {
            "orientation": {
                "w": -0.4816463035849501,
                "x": 0.5182115481033762,
                "y": 0.4908360881923453,
                "z": -0.5084816262002911
            },
            "position": {
                "x": -0.8240239810943604,
                "y": 0.19912469901144506,
                "z": 0.16403168439865112
            }
        },
        "name": "move_to_storage_D"
    },
    "id": "RRT_move_to_storage_D_91",
    "joint_names": [
        "shoulder_pan_joint",
        "shoulder_lift_joint",
        "elbow_joint",
        "wrist_1_joint",
        "wrist_2_joint",
        "wrist_3_joint"
    ],
    "metrics": {
        "cart_traj_len": 1.6727203396299994,
        "distance_elbow_joint": 0.554730309548424,
        "distance_shoulder_lift_joint": 2.0885990494561706,
        "distance_shoulder_pan_joint": 1.3105655025874396,
        "distance_wrist_1_joint": 4.229516142546267,
        "distance_wrist_2_joint": 1.7797404576190563,
        "distance_wrist_3_joint": 3.120162846797161,
        "smoothness": 0.2281096331637204,
        "time": 0.093829945,
        "traj_len": 3.617086439187556,
        "weighted_distance": 5.033179571832716
    },
    "planner": "RRT",
    "start": {
        "state": {
            "elbow_joint": -2.384821988534728,
            "shoulder_lift_joint": -2.2788054721415256,
            "shoulder_pan_joint": -0.1854694642142757,
            "wrist_1_joint": 1.4845938289331202,
            "wrist_2_joint": 0.17898776772866878,
            "wrist_3_joint": 0.037105688729662994
        }
    },
    "waypoints": [
        {
            "positions": [
                -0.1854694642142757,
                -2.2788054721415256,
                -2.384821988534728,
                1.4845938289331202,
                0.17898776772866878,
                0.037105688729662994
            ]
        },
        {
            "positions": [
                -0.13328275467447376,
                -2.198814761405579,
                -2.3470476050144566,
                1.4991503900323335,
                0.11206037496381491,
                -0.0938523025751073
            ]
        },
        {
            "positions": [
                -0.08109604513467183,
                -2.118824050669633,
                -2.3092732214941853,
                1.5137069511315469,
                0.04513298219896103,
                -0.22481029387987758
            ]
        },
        {
            "positions": [
                -0.02890933559486991,
                -2.0388333399336864,
                -2.271498837973914,
                1.5282635122307602,
                -0.021794410565892847,
                -0.35576828518464787
            ]
        },
        {
            "positions": [
                0.02327737394493204,
                -1.9588426291977399,
                -2.2337244544536428,
                1.5428200733299733,
                -0.08872180333074672,
                -0.48672627648941813
            ]
        },
        {
            "positions": [
                0.07546408348473402,
                -1.8788519184617936,
                -2.1959500709333715,
                1.5573766344291866,
                -0.1556491960956006,
                -0.6176842677941885
            ]
        },
        {
            "positions": [
                0.12765079302453589,
                -1.7988612077258472,
                -2.1581756874131,
                1.5719331955284,
                -0.22257658886045448,
                -0.7486422590989587
            ]
        },
        {
            "positions": [
                0.17983750256433786,
                -1.7188704969899007,
                -2.1204013038928293,
                1.5864897566276133,
                -0.2895039816253083,
                -0.879600250403729
            ]
        },
        {
            "positions": [
                0.2320242121041398,
                -1.6388797862539541,
                -2.082626920372558,
                1.6010463177268266,
                -0.35643137439016226,
                -1.0105582417084993
            ]
        },
        {
            "positions": [
                0.2842109216439418,
                -1.5588890755180078,
                -2.0448525368522867,
                1.61560287882604,
                -0.4233587671550162,
                -1.1415162330132698
            ]
        },
        {
            "positions": [
                0.3363976311837438,
                -1.4788983647820615,
                -2.0070781533320154,
                1.6301594399252533,
                -0.49028615991987,
                -1.27247422431804
            ]
        },
        {
            "positions": [
                0.38858434072354564,
                -1.398907654046115,
                -1.9693037698117442,
                1.6447160010244664,
                -0.5572135526847238,
                -1.40343221562281
            ]
        },
        {
            "positions": [
                0.4407710502633475,
                -1.3189169433101686,
                -1.9315293862914729,
                1.6592725621236797,
                -0.6241409454495778,
                -1.5343902069275803
            ]
        },
        {
            "positions": [
                0.4929577598031496,
                -1.238926232574222,
                -1.8937550027712016,
                1.673829123222893,
                -0.6910683382144317,
                -1.6653481982323508
            ]
        },
        {
            "positions": [
                0.5451444693429515,
                -1.1589355218382758,
                -1.8559806192509303,
                1.6883856843221063,
                -0.7579957309792855,
                -1.796306189537121
            ]
        },
        {
            "positions": [
                0.5161468908914408,
                -1.2073719767959217,
                -1.854686172237699,
                1.4870994699642424,
                -0.8001335789248406,
                -1.86064373796364
            ]
        },
        {
            "positions": [
                0.48714931243993026,
                -1.2558084317535678,
                -1.8533917252244676,
                1.2858132556063784,
                -0.8422714268703958,
                -1.9249812863901588
            ]
        },
        {
            "positions": [
                0.4581517339884197,
                -1.304244886711214,
                -1.8520972782112364,
                1.0845270412485144,
                -0.8844092748159509,
                -1.9893188348166775
            ]
        },
        {
            "positions": [
                0.4291541555369091,
                -1.35268134166886,
                -1.850802831198005,
                0.8832408268906504,
                -0.926547122761506,
                -2.0536563832431964
            ]
        },
        {
            "positions": [
                0.40015657708539853,
                -1.4011177966265058,
                -1.8495083841847737,
                0.6819546125327864,
                -0.968684970707061,
                -2.1179939316697154
            ]
        },
        {
            "positions": [
                0.3711589986338879,
                -1.449554251584152,
                -1.8482139371715425,
                0.48066839817492246,
                -1.0108228186526163,
                -2.1823314800962343
            ]
        },
        {
            "positions": [
                0.34216142018237733,
                -1.4979907065417981,
                -1.846919490158311,
                0.2793821838170585,
                -1.0529606665981714,
                -2.246669028522753
            ]
        },
        {
            "positions": [
                0.31316384173086675,
                -1.546427161499444,
                -1.8456250431450798,
                0.0780959694591945,
                -1.0950985145437264,
                -2.311006576949272
            ]
        },
        {
            "positions": [
                0.2841662632793561,
                -1.59486361645709,
                -1.8443305961318484,
                -0.12319024489866948,
                -1.1372363624892816,
                -2.3753441253757908
            ]
        },
        {
            "positions": [
                0.25516868482784555,
                -1.643300071414736,
                -1.8430361491186171,
                -0.32447645925653346,
                -1.1793742104348368,
                -2.4396816738023093
            ]
        },
        {
            "positions": [
                0.22617110637633492,
                -1.6917365263723823,
                -1.841741702105386,
                -0.5257626736143974,
                -1.2215120583803918,
                -2.5040192222288287
            ]
        },
        {
            "positions": [
                0.1971735279248244,
                -1.7401729813300282,
                -1.8404472550921545,
                -0.7270488879722614,
                -1.2636499063259468,
                -2.568356770655347
            ]
        },
        {
            "positions": [
                0.16817594947331377,
                -1.788609436287674,
                -1.8391528080789232,
                -0.9283351023301254,
                -1.3057877542715022,
                -2.632694319081866
            ]
        },
        {
            "positions": [
                0.1391783710218032,
                -1.8370458912453203,
                -1.8378583610656918,
                -1.1296213166879894,
                -1.3479256022170572,
                -2.6970318675083846
            ]
        },
        {
            "positions": [
                0.11018079257029256,
                -1.8854823462029664,
                -1.8365639140524606,
                -1.3309075310458534,
                -1.3900634501626123,
                -2.7613694159349036
            ]
        },
        {
            "positions": [
                0.08118321411878199,
                -1.9339188011606123,
                -1.8352694670392293,
                -1.5321937454037173,
                -1.4322012981081675,
                -2.8257069643614225
            ]
        },
        {
            "positions": [
                0.05218563566727141,
                -1.9823552561182582,
                -1.8339750200259979,
                -1.7334799597615813,
                -1.4743391460537225,
                -2.8900445127879415
            ]
        },
        {
            "positions": [
                0.023188057215760782,
                -2.0307917110759046,
                -1.8326805730127667,
                -1.9347661741194453,
                -1.5164769939992777,
                -2.95438206121446
            ]
        },
        {
            "positions": [
                -0.005809521235749737,
                -2.0792281660335505,
                -1.8313861259995352,
                -2.1360523884773093,
                -1.5586148419448327,
                -3.018719609640979
            ]
        },
        {
            "positions": [
                -0.03480709968726034,
                -2.1276646209911965,
                -1.830091678986304,
                -2.3373386028351737,
                -1.6007526898903879,
                -3.083057158067498
            ]
        }
    ]
}