{
    "goal": {
        "global_pose": {
            "orientation": {
                "w": 0.005598929693374612,
                "x": 0.007748599140229565,
                "y": 0.7110244013736278,
                "z": -0.7031023480610252
            },
            "position": {
                "x": -0.8858502320852131,
                "y": -0.7141253447532654,
                "z": 0.3711530566215515
            }
        },
        "name": "move_to_auspresseinheit_C"
    },
    "id": "RRT_move_to_auspresseinheit_C_28",
    "joint_names": [
        "shoulder_pan_joint",
        "shoulder_lift_joint",
        "elbow_joint",
        "wrist_1_joint",
        "wrist_2_joint",
        "wrist_3_joint"
    ],
    "metrics": {
        "cart_traj_len": 0.49303569785831514,
        "distance_elbow_joint": 0.9995029776420745,
        "distance_shoulder_lift_joint": 0.3239641359314205,
        "distance_shoulder_pan_joint": 0.25579351045202037,
        "distance_wrist_1_joint": 0.6764335387335241,
        "distance_wrist_2_joint": 1.3100109824953918,
        "distance_wrist_3_joint": 0.06085319605968742,
        "smoothness": 4.844609574787718e-16,
        "time": 0.011887824,
        "traj_len": 1.904352472971881,
        "weighted_distance": 2.394725298371905
    },
    "planner": "RRT",
    "start": {
        "state": {
            "elbow_joint": 1.7527959577737207,
            "shoulder_lift_joint": -0.9740617694225068,
            "shoulder_pan_joint": -2.967991417825858,
            "wrist_1_joint": -0.759517768980727,
            "wrist_2_joint": 1.7443932448377408,
            "wrist_3_joint": -3.0840537646736568
        }
    },
    "waypoints": [
        {
            "positions": [
                -2.967991417825858,
                -0.9740617694225068,
                1.7527959577737207,
                -0.759517768980727,
                1.7443932448377408,
                -3.0840537646736568
            ]
        },
        {
            "positions": [
                -2.9424120667806557,
                -0.9416653558293647,
                1.6528456600095132,
                -0.6918744151073746,
                1.6133921465882017,
                -3.0901390842796257
            ]
        },
        {
            "positions": [
                -2.916832715735454,
                -0.9092689422362227,
                1.5528953622453057,
                -0.6242310612340222,
                1.4823910483386624,
                -3.096224403885594
            ]
        },
        {
            "positions": [
                -2.891253364690252,
                -0.8768725286430806,
                1.4529450644810984,
                -0.5565877073606698,
                1.3513899500891233,
                -3.102309723491563
            ]
        },
        {
            "positions": [
                -2.86567401364505,
                -0.8444761150499386,
                1.352994766716891,
                -0.48894435348731735,
                1.220388851839584,
                -3.1083950430975316
            ]
        },
        {
            "positions": [
                -2.8400946625998476,
                -0.8120797014567965,
                1.2530444689526834,
                -0.42130099961396494,
                1.089387753590045,
                -3.1144803627035005
            ]
        },
        {
            "positions": [
                -2.8145153115546457,
                -0.7796832878636545,
                1.1530941711884761,
                -0.35365764574061254,
                0.9583866553405057,
                -3.1205656823094694
            ]
        },
        {
            "positions": [
                -2.788935960509444,
                -0.7472868742705124,
                1.0531438734242684,
                -0.2860142918672602,
                0.8273855570909666,
                -3.126651001915438
            ]
        },
        {
            "positions": [
                -2.7633566094642417,
                -0.7148904606773704,
                0.953193575660061,
                -0.21837093799390772,
                0.6963844588414274,
                -3.132736321521407
            ]
        },
        {
            "positions": [
                -2.7377772584190394,
                -0.6824940470842283,
                0.8532432778958535,
                -0.1507275841205553,
                0.5653833605918881,
                -3.1388216411273753
            ]
        },
        {
            "positions": [
                -2.7121979073738376,
                -0.6500976334910863,
                0.7532929801316461,
                -0.08308423024720292,
                0.43438226234234895,
                -3.144906960733344
            ]
        }
    ]
}