{
    "goal": {
        "global_pose": {
            "orientation": {
                "w": -0.4816463035849501,
                "x": 0.5182115481033762,
                "y": 0.4908360881923453,
                "z": -0.5084816262002911
            },
            "position": {
                "x": -0.8240239810943604,
                "y": -0.300875300988555,
                "z": 0.16403168439865112
            }
        },
        "name": "move_to_storage_C"
    },
    "id": "RRT_move_to_storage_C_17",
    "joint_names": [
        "shoulder_pan_joint",
        "shoulder_lift_joint",
        "elbow_joint",
        "wrist_1_joint",
        "wrist_2_joint",
        "wrist_3_joint"
    ],
    "metrics": {
        "cart_traj_len": 0.5774574369849672,
        "distance_elbow_joint": 0.25934889270028494,
        "distance_shoulder_lift_joint": 0.1890168767892686,
        "distance_shoulder_pan_joint": 0.49605066891185734,
        "distance_wrist_1_joint": 0.08410635037944958,
        "distance_wrist_2_joint": 1.0652286766057095,
        "distance_wrist_3_joint": 0.06932473941472672,
        "smoothness": 0.0,
        "time": 0.013285263,
        "traj_len": 1.470740019446434,
        "weighted_distance": 1.8577030738565057
    },
    "planner": "RRT",
    "start": {
        "state": {
            "elbow_joint": 2.010868314990456,
            "shoulder_lift_joint": -1.1634956873337592,
            "shoulder_pan_joint": -2.4736205022346125,
            "wrist_1_joint": -0.8367026794202681,
            "wrist_2_joint": 0.6746043897044499,
            "wrist_3_joint": -3.1496632123970403
        }
    },
    "waypoints": [
        {
            "positions": [
                -2.4736205022346125,
                -1.1634956873337592,
                2.010868314990456,
                -0.8367026794202681,
                0.6746043897044499,
                -3.1496632123970403
            ]
        },
        {
            "positions": [
                -2.556295613719922,
                -1.1319928745355479,
                1.9676434995404084,
                -0.8226849543570265,
                0.8521425024720681,
                -3.1381090891612526
            ]
        },
        {
            "positions": [
                -2.6389707252052315,
                -1.1004900617373363,
                1.9244186840903608,
                -0.8086672292937849,
                1.0296806152396865,
                -3.1265549659254646
            ]
        },
        {
            "positions": [
                -2.7216458366905414,
                -1.0689872489391248,
                1.8811938686403133,
                -0.7946495042305433,
                1.2072187280073048,
                -3.115000842689677
            ]
        },
        {
            "positions": [
                -2.804320948175851,
                -1.0374844361409135,
                1.837969053190266,
                -0.7806317791673018,
                1.384756840774923,
                -3.1034467194538893
            ]
        },
        {
            "positions": [
                -2.8869960596611604,
                -1.0059816233427021,
                1.7947442377402183,
                -0.7666140541040601,
                1.5622949535425412,
                -3.091892596218101
            ]
        },
        {
            "positions": [
                -2.96967117114647,
                -0.9744788105444906,
                1.7515194222901709,
                -0.7525963290408185,
                1.7398330663101595,
                -3.0803384729823136
            ]
        }
    ]
}