{
    "goal": {
        "global_pose": {
            "orientation": {
                "w": 0.005598929693374612,
                "x": 0.007748599140229565,
                "y": 0.7110244013736278,
                "z": -0.7031023480610252
            },
            "position": {
                "x": -0.8858502320852131,
                "y": -0.7141253447532654,
                "z": 0.3711530566215515
            }
        },
        "name": "move_to_auspresseinheit_C"
    },
    "id": "RRT_move_to_auspresseinheit_C_90",
    "joint_names": [
        "shoulder_pan_joint",
        "shoulder_lift_joint",
        "elbow_joint",
        "wrist_1_joint",
        "wrist_2_joint",
        "wrist_3_joint"
    ],
    "metrics": {
        "cart_traj_len": 0.4936524220848453,
        "distance_elbow_joint": 0.9963470346592873,
        "distance_shoulder_lift_joint": 0.3230729876551388,
        "distance_shoulder_pan_joint": 0.2563788519779857,
        "distance_wrist_1_joint": 0.6611856242634018,
        "distance_wrist_2_joint": 1.318289721510285,
        "distance_wrist_3_joint": 0.04498102172044005,
        "smoothness": 8.074349308362242e-16,
        "time": 0.015856844,
        "traj_len": 1.8974338570254665,
        "weighted_distance": 2.381111637660256
    },
    "planner": "RRT",
    "start": {
        "state": {
            "elbow_joint": 1.7527959577737207,
            "shoulder_lift_joint": -0.9740617694225068,
            "shoulder_pan_joint": -2.967991417825858,
            "wrist_1_joint": -0.759517768980727,
            "wrist_2_joint": 1.7443932448377408,
            "wrist_3_joint": -3.0840537646736568
        }
    },
    "waypoints": [
        {
            "positions": [
                -2.967991417825858,
                -0.9740617694225068,
                1.7527959577737207,
                -0.759517768980727,
                1.7443932448377408,
                -3.0840537646736568
            ]
        },
        {
            "positions": [
                -2.942353532628059,
                -0.9417544706569929,
                1.653161254307792,
                -0.6933992065543868,
                1.6125642726867124,
                -3.088551866845701
            ]
        },
        {
            "positions": [
                -2.916715647430261,
                -0.9094471718914791,
                1.5535265508418632,
                -0.6272806441280466,
                1.4807353005356838,
                -3.093049969017745
            ]
        },
        {
            "positions": [
                -2.891077762232462,
                -0.8771398731259651,
                1.4538918473759344,
                -0.5611620817017064,
                1.3489063283846554,
                -3.097548071189789
            ]
        },
        {
            "positions": [
                -2.865439877034664,
                -0.8448325743604512,
                1.3542571439100057,
                -0.4950435192753663,
                1.2170773562336268,
                -3.102046173361833
            ]
        },
        {
            "positions": [
                -2.839801991836865,
                -0.8125252755949374,
                1.2546224404440771,
                -0.4289249568490261,
                1.0852483840825984,
                -3.106544275533877
            ]
        },
        {
            "positions": [
                -2.8141641066390664,
                -0.7802179768294235,
                1.1549877369781483,
                -0.3628063944226859,
                0.9534194119315699,
                -3.1110423777059206
            ]
        },
        {
            "positions": [
                -2.788526221441268,
                -0.7479106780639097,
                1.0553530335122194,
                -0.2966878319963458,
                0.8215904397805415,
                -3.1155404798779647
            ]
        },
        {
            "positions": [
                -2.7628883362434693,
                -0.7156033792983958,
                0.9557183300462908,
                -0.23056926957000556,
                0.689761467629513,
                -3.1200385820500087
            ]
        },
        {
            "positions": [
                -2.737250451045671,
                -0.6832960805328818,
                0.8560836265803621,
                -0.1644507071436654,
                0.5579324954784843,
                -3.1245366842220528
            ]
        },
        {
            "positions": [
                -2.7116125658478722,
                -0.650988781767368,
                0.7564489231144333,
                -0.09833214471732521,
                0.4261035233274558,
                -3.129034786394097
            ]
        }
    ]
}