{
    "goal": {
        "global_pose": {
            "orientation": {
                "w": -0.00223480608172531,
                "x": 0.0024358444001904467,
                "y": 0.7094548369677653,
                "z": -0.704743149386269
            },
            "position": {
                "x": -0.37947507619857795,
                "y": -0.6371506643295288,
                "z": 0.19426114857196808
            }
        },
        "name": "move_to_magneteinheit_C"
    },
    "id": "RRT_move_to_magneteinheit_C_81",
    "joint_names": [
        "shoulder_pan_joint",
        "shoulder_lift_joint",
        "elbow_joint",
        "wrist_1_joint",
        "wrist_2_joint",
        "wrist_3_joint"
    ],
    "metrics": {
        "cart_traj_len": 1.2028754822488024,
        "distance_elbow_joint": 0.20421880907337364,
        "distance_shoulder_lift_joint": 0.78397721272382,
        "distance_shoulder_pan_joint": 1.3645091543005379,
        "distance_wrist_1_joint": 0.804948612627911,
        "distance_wrist_2_joint": 1.2799306039178062,
        "distance_wrist_3_joint": 0.6021350152271836,
        "smoothness": 1.3107165590690297,
        "time": 1.4190899369999999,
        "traj_len": 2.244931938360411,
        "weighted_distance": 2.8859779373499577
    },
    "planner": "RRT",
    "start": {
        "state": {
            "elbow_joint": 1.9565354010623817,
            "shoulder_lift_joint": -1.4165861575791021,
            "shoulder_pan_joint": -1.6717766225146293,
            "wrist_1_joint": -0.5286633292919765,
            "wrist_2_joint": 1.472756589071564,
            "wrist_3_joint": -3.1238370188695823
        }
    },
    "waypoints": [
        {
            "positions": [
                -1.6717766225146293,
                -1.4165861575791021,
                1.9565354010623817,
                -0.5286633292919765,
                1.472756589071564,
                -3.1238370188695823
            ]
        },
        {
            "positions": [
                -1.6495975301089092,
                -1.4698227294741697,
                1.9655376912207692,
                -0.4903859815241116,
                1.2984105647320172,
                -3.064107767730033
            ]
        },
        {
            "positions": [
                -1.627418437703189,
                -1.5230593013692375,
                1.9745399813791567,
                -0.45210863375624677,
                1.1240645403924707,
                -3.0043785165904833
            ]
        },
        {
            "positions": [
                -1.6052393452974691,
                -1.576295873264305,
                1.983542271537544,
                -0.4138312859883819,
                0.9497185160529242,
                -2.944649265450934
            ]
        },
        {
            "positions": [
                -1.583060252891749,
                -1.629532445159373,
                1.9925445616959314,
                -0.3755539382205171,
                0.7753724917133775,
                -2.8849200143113847
            ]
        },
        {
            "positions": [
                -1.5608811604860289,
                -1.6827690170544405,
                2.001546851854319,
                -0.33727659045265224,
                0.601026467373831,
                -2.825190763171835
            ]
        },
        {
            "positions": [
                -1.7774259896658522,
                -1.6245895058811055,
                1.987015393858741,
                -0.3277587957693807,
                0.5678680214302229,
                -2.850607643996384
            ]
        },
        {
            "positions": [
                -1.9939708188456757,
                -1.5664099947077703,
                1.972483935863163,
                -0.31824100108610914,
                0.5347095754866148,
                -2.8760245248209326
            ]
        },
        {
            "positions": [
                -2.210515648025499,
                -1.5082304835344353,
                1.9579524778675852,
                -0.3087232064028376,
                0.5015511295430066,
                -2.901441405645481
            ]
        },
        {
            "positions": [
                -2.4270604772053224,
                -1.4500509723611001,
                1.9434210198720072,
                -0.29920541171956605,
                0.4683926835993985,
                -2.9268582864700297
            ]
        },
        {
            "positions": [
                -2.6436053063851457,
                -1.3918714611877652,
                1.9288895618764292,
                -0.28968761703629453,
                0.4352342376557904,
                -2.9522751672945784
            ]
        },
        {
            "positions": [
                -2.6008829197919408,
                -1.3351472618423137,
                1.950527078952316,
                -0.4311808421293518,
                0.49583630078129853,
                -2.9963762561462515
            ]
        },
        {
            "positions": [
                -2.5581605331987354,
                -1.278423062496862,
                1.9721645960282026,
                -0.5726740672224091,
                0.5564383639068067,
                -3.040477344997925
            ]
        },
        {
            "positions": [
                -2.51543814660553,
                -1.2216988631514103,
                1.9938021131040893,
                -0.7141672923154663,
                0.6170404270323149,
                -3.0845784338495985
            ]
        },
        {
            "positions": [
                -2.472715760012325,
                -1.1649746638059588,
                2.015439630179976,
                -0.8556605174085236,
                0.677642490157823,
                -3.1286795227012716
            ]
        }
    ]
}