{
    "goal": {
        "global_pose": {
            "orientation": {
                "w": 0.5084816262002911,
                "x": -0.4908360881923452,
                "y": 0.5182115481033761,
                "z": -0.48164630358495003
            },
            "position": {
                "x": 0.5540239810943604,
                "y": -0.46912469901144505,
                "z": 0.16403168439865112
            }
        },
        "name": "move_to_storage_B"
    },
    "id": "RRT_move_to_storage_B_27",
    "joint_names": [
        "shoulder_pan_joint",
        "shoulder_lift_joint",
        "elbow_joint",
        "wrist_1_joint",
        "wrist_2_joint",
        "wrist_3_joint"
    ],
    "metrics": {
        "cart_traj_len": 1.1912688624099879,
        "distance_elbow_joint": 0.3574733395885801,
        "distance_shoulder_lift_joint": 0.46161223896154446,
        "distance_shoulder_pan_joint": 0.9420652821345089,
        "distance_wrist_1_joint": 3.0116047820403136,
        "distance_wrist_2_joint": 2.719164868315706,
        "distance_wrist_3_joint": 3.2118025648265753,
        "smoothness": 0.09621137604545413,
        "time": 0.06902763,
        "traj_len": 3.2716544860157883,
        "weighted_distance": 4.7810143124525775
    },
    "planner": "RRT",
    "start": {
        "state": {
            "elbow_joint": 1.664937868594044,
            "shoulder_lift_joint": -0.661644460510453,
            "shoulder_pan_joint": -0.9139846352900073,
            "wrist_1_joint": 2.146753192139373,
            "wrist_2_joint": -2.2341966793290973,
            "wrist_3_joint": 0.005466555786416001
        }
    },
    "waypoints": [
        {
            "positions": [
                -0.9139846352900073,
                -0.661644460510453,
                1.664937868594044,
                2.146753192139373,
                -2.2341966793290973,
                0.005466555786416001
            ]
        },
        {
            "positions": [
                -0.8505232576256231,
                -0.7285721686603089,
                1.6778017692368203,
                2.1229733029099376,
                -2.077467180352404,
                0.012443581596584572
            ]
        },
        {
            "positions": [
                -0.787061879961239,
                -0.7954998768101649,
                1.6906656698795968,
                2.0991934136805024,
                -1.9207376813757107,
                0.019420607406753145
            ]
        },
        {
            "positions": [
                -0.7236005022968548,
                -0.8624275849600208,
                1.703529570522373,
                2.0754135244510667,
                -1.7640081823990172,
                0.026397633216921717
            ]
        },
        {
            "positions": [
                -0.6601391246324706,
                -0.9293552931098767,
                1.7163934711651494,
                2.051633635221631,
                -1.607278683422324,
                0.03337465902709029
            ]
        },
        {
            "positions": [
                -0.5966777469680864,
                -0.9962830012597327,
                1.7292573718079258,
                2.027853745992196,
                -1.4505491844456309,
                0.040351684837258865
            ]
        },
        {
            "positions": [
                -0.5332163693037023,
                -1.0632107094095886,
                1.7421212724507023,
                2.0040738567627603,
                -1.2938196854689374,
                0.047328710647427434
            ]
        },
        {
            "positions": [
                -0.5576205873971025,
                -1.0658214046296934,
                1.7543077913955685,
                1.879337967777382,
                -1.2164810822317398,
                -0.09049478543803186
            ]
        },
        {
            "positions": [
                -0.5820248054905026,
                -1.068432099849798,
                1.7664943103404345,
                1.7546020787920036,
                -1.1391424789945421,
                -0.22831828152349115
            ]
        },
        {
            "positions": [
                -0.6064290235839028,
                -1.0710427950699029,
                1.7786808292853007,
                1.6298661898066253,
                -1.0618038757573445,
                -0.3661417776089505
            ]
        },
        {
            "positions": [
                -0.630833241677303,
                -1.0736534902900075,
                1.790867348230167,
                1.505130300821247,
                -0.9844652725201468,
                -0.5039652736944098
            ]
        },
        {
            "positions": [
                -0.6552374597707031,
                -1.0762641855101123,
                1.8030538671750331,
                1.3803944118358689,
                -0.9071266692829492,
                -0.6417887697798691
            ]
        },
        {
            "positions": [
                -0.6796416778641033,
                -1.078874880730217,
                1.8152403861198991,
                1.2556585228504904,
                -0.8297880660457515,
                -0.7796122658653285
            ]
        },
        {
            "positions": [
                -0.7040458959575036,
                -1.0814855759503217,
                1.8274269050647654,
                1.130922633865112,
                -0.7524494628085538,
                -0.9174357619507878
            ]
        },
        {
            "positions": [
                -0.7284501140509037,
                -1.0840962711704265,
                1.8396134240096316,
                1.006186744879734,
                -0.6751108595713562,
                -1.055259258036247
            ]
        },
        {
            "positions": [
                -0.7528543321443039,
                -1.086706966390531,
                1.8517999429544978,
                0.8814508558943555,
                -0.5977722563341585,
                -1.1930827541217064
            ]
        },
        {
            "positions": [
                -0.7772585502377041,
                -1.089317661610636,
                1.8639864618993638,
                0.7567149669089772,
                -0.5204336530969609,
                -1.3309062502071656
            ]
        },
        {
            "positions": [
                -0.8016627683311042,
                -1.0919283568307407,
                1.87617298084423,
                0.6319790779235988,
                -0.4430950498597632,
                -1.468729746292625
            ]
        },
        {
            "positions": [
                -0.8260669864245044,
                -1.0945390520508453,
                1.8883594997890962,
                0.5072431889382207,
                -0.36575644662256557,
                -1.6065532423780844
            ]
        },
        {
            "positions": [
                -0.8504712045179046,
                -1.0971497472709502,
                1.9005460187339622,
                0.3825072999528425,
                -0.2884178433853679,
                -1.7443767384635436
            ]
        },
        {
            "positions": [
                -0.8748754226113047,
                -1.099760442491055,
                1.9127325376788284,
                0.2577714109674638,
                -0.21107924014817026,
                -1.882200234549003
            ]
        },
        {
            "positions": [
                -0.8992796407047049,
                -1.1023711377111596,
                1.9249190566236947,
                0.13303552198208557,
                -0.1337406369109726,
                -2.0200237306344624
            ]
        },
        {
            "positions": [
                -0.9236838587981051,
                -1.1049818329312644,
                1.9371055755685609,
                0.008299632996707329,
                -0.05640203367377494,
                -2.1578472267199214
            ]
        },
        {
            "positions": [
                -0.9480880768915052,
                -1.107592528151369,
                1.949292094513427,
                -0.11643625598867091,
                0.020936569563422713,
                -2.2956707228053808
            ]
        },
        {
            "positions": [
                -0.9724922949849054,
                -1.1102032233714738,
                1.961478613458293,
                -0.24117214497404937,
                0.09827517280062037,
                -2.43349421889084
            ]
        },
        {
            "positions": [
                -0.9968965130783056,
                -1.1128139185915786,
                1.9736651324031593,
                -0.3659080339594274,
                0.17561377603781803,
                -2.5713177149762996
            ]
        },
        {
            "positions": [
                -1.0213007311717057,
                -1.1154246138116832,
                1.9858516513480255,
                -0.49064392294480585,
                0.2529523792750157,
                -2.7091412110617585
            ]
        },
        {
            "positions": [
                -1.0457049492651058,
                -1.118035309031788,
                1.9980381702928915,
                -0.6153798119301839,
                0.33029098251221334,
                -2.846964707147218
            ]
        },
        {
            "positions": [
                -1.0701091673585061,
                -1.1206460042518926,
                2.010224689237758,
                -0.7401157009155628,
                0.407629585749411,
                -2.9847882032326774
            ]
        },
        {
            "positions": [
                -1.0945133854519062,
                -1.1232566994719975,
                2.022411208182624,
                -0.8648515899009408,
                0.48496818898660876,
                -3.1226116993181368
            ]
        }
    ]
}