{
    "goal": {
        "global_pose": {
            "orientation": {
                "w": 0.005598929693374612,
                "x": 0.007748599140229565,
                "y": 0.7110244013736278,
                "z": -0.7031023480610252
            },
            "position": {
                "x": -0.8858502320852131,
                "y": -0.7141253447532654,
                "z": 0.3711530566215515
            }
        },
        "name": "move_to_auspresseinheit_C"
    },
    "id": "RRT_move_to_auspresseinheit_C_92",
    "joint_names": [
        "shoulder_pan_joint",
        "shoulder_lift_joint",
        "elbow_joint",
        "wrist_1_joint",
        "wrist_2_joint",
        "wrist_3_joint"
    ],
    "metrics": {
        "cart_traj_len": 0.4939058697342055,
        "distance_elbow_joint": 1.0048464087116984,
        "distance_shoulder_lift_joint": 0.3268354603757121,
        "distance_shoulder_pan_joint": 0.2564237513203005,
        "distance_wrist_1_joint": 0.684253775445069,
        "distance_wrist_2_joint": 1.3101074436844478,
        "distance_wrist_3_joint": 0.06791365693237728,
        "smoothness": 3.2297397080004555e-16,
        "time": 0.012479982,
        "traj_len": 1.9105968953365347,
        "weighted_distance": 2.404281395648994
    },
    "planner": "RRT",
    "start": {
        "state": {
            "elbow_joint": 1.7527959577737207,
            "shoulder_lift_joint": -0.9740617694225068,
            "shoulder_pan_joint": -2.967991417825858,
            "wrist_1_joint": -0.759517768980727,
            "wrist_2_joint": 1.7443932448377408,
            "wrist_3_joint": -3.0840537646736568
        }
    },
    "waypoints": [
        {
            "positions": [
                -2.967991417825858,
                -0.9740617694225068,
                1.7527959577737207,
                -0.759517768980727,
                1.7443932448377408,
                -3.0840537646736568
            ]
        },
        {
            "positions": [
                -2.942349042693828,
                -0.9413782233849356,
                1.6523113169025507,
                -0.69109239143622,
                1.613382500469296,
                -3.0908451303668945
            ]
        },
        {
            "positions": [
                -2.916706667561798,
                -0.9086946773473643,
                1.551826676031381,
                -0.6226670138917132,
                1.4823717561008514,
                -3.097636496060132
            ]
        },
        {
            "positions": [
                -2.8910642924297676,
                -0.8760111313097931,
                1.451342035160211,
                -0.5542416363472062,
                1.3513610117324064,
                -3.10442786175337
            ]
        },
        {
            "positions": [
                -2.8654219172977378,
                -0.843327585272222,
                1.3508573942890414,
                -0.48581625880269935,
                1.2203502673639617,
                -3.1112192274466075
            ]
        },
        {
            "positions": [
                -2.839779542165708,
                -0.8106440392346508,
                1.2503727534178715,
                -0.41739088125819246,
                1.089339522995517,
                -3.1180105931398456
            ]
        },
        {
            "positions": [
                -2.8141371670336777,
                -0.7779604931970795,
                1.1498881125467015,
                -0.34896550371368557,
                0.9583287786270722,
                -3.1248019588330833
            ]
        },
        {
            "positions": [
                -2.7884947919016474,
                -0.7452769471595083,
                1.0494034716755318,
                -0.28054012616917867,
                0.8273180342586275,
                -3.131593324526321
            ]
        },
        {
            "positions": [
                -2.7628524167696176,
                -0.712593401121937,
                0.9489188308043619,
                -0.21211474862467172,
                0.6963072898901825,
                -3.1383846902195587
            ]
        },
        {
            "positions": [
                -2.7372100416375877,
                -0.6799098550843659,
                0.8484341899331921,
                -0.14368937108016477,
                0.5652965455217378,
                -3.1451760559127964
            ]
        },
        {
            "positions": [
                -2.7115676665055575,
                -0.6472263090467947,
                0.7479495490620222,
                -0.07526399353565794,
                0.4342858011532931,
                -3.151967421606034
            ]
        }
    ]
}