{
    "goal": {
        "global_pose": {
            "orientation": {
                "w": -0.4816463035849501,
                "x": 0.5182115481033762,
                "y": 0.4908360881923453,
                "z": -0.5084816262002911
            },
            "position": {
                "x": -0.8240239810943604,
                "y": 0.19912469901144506,
                "z": 0.16403168439865112
            }
        },
        "name": "move_to_storage_D"
    },
    "id": "RRT_move_to_storage_D_133",
    "joint_names": [
        "shoulder_pan_joint",
        "shoulder_lift_joint",
        "elbow_joint",
        "wrist_1_joint",
        "wrist_2_joint",
        "wrist_3_joint"
    ],
    "metrics": {
        "cart_traj_len": 3.886229182492062,
        "distance_elbow_joint": 4.20861313282704,
        "distance_shoulder_lift_joint": 1.6942841214851063,
        "distance_shoulder_pan_joint": 2.812946557867174,
        "distance_wrist_1_joint": 2.2637539388280996,
        "distance_wrist_2_joint": 1.3941832620002514,
        "distance_wrist_3_joint": 3.131565973579807,
        "smoothness": 0.06517817192656485,
        "time": 0.06920000700000001,
        "traj_len": 3.937682946427694,
        "weighted_distance": 5.042461317112452
    },
    "planner": "RRT",
    "start": {
        "state": {
            "elbow_joint": -2.384821988534728,
            "shoulder_lift_joint": -2.2788054721415256,
            "shoulder_pan_joint": -0.1854694642142757,
            "wrist_1_joint": 1.4845938289331202,
            "wrist_2_joint": 0.17898776772866878,
            "wrist_3_joint": 0.037105688729662994
        }
    },
    "waypoints": [
        {
            "positions": [
                -0.1854694642142757,
                -2.2788054721415256,
                -2.384821988534728,
                1.4845938289331202,
                0.17898776772866878,
                0.037105688729662994
            ]
        },
        {
            "positions": [
                -0.08822794194762146,
                -2.293095292761769,
                -2.199571044227251,
                1.4400278015882588,
                0.1614990770373119,
                0.023886956446644646
            ]
        },
        {
            "positions": [
                0.009013580319032793,
                -2.3073851133820127,
                -2.014320099919774,
                1.3954617742433972,
                0.14401038634595503,
                0.010668224163626297
            ]
        },
        {
            "positions": [
                0.10625510258568707,
                -2.321674934002256,
                -1.8290691556122967,
                1.3508957468985359,
                0.12652169565459814,
                -0.0025505081193920587
            ]
        },
        {
            "positions": [
                0.2034966248523413,
                -2.3359647546224998,
                -1.6438182113048196,
                1.3063297195536743,
                0.10903300496324127,
                -0.0157692404024104
            ]
        },
        {
            "positions": [
                0.3007381471189955,
                -2.3502545752427433,
                -1.4585672669973426,
                1.261763692208813,
                0.09154431427188439,
                -0.028987972685428742
            ]
        },
        {
            "positions": [
                0.3979796693856499,
                -2.364544395862987,
                -1.2733163226898654,
                1.2171976648639515,
                0.0740556235805275,
                -0.04220670496844711
            ]
        },
        {
            "positions": [
                0.49522119165230405,
                -2.3788342164832303,
                -1.0880653783823884,
                1.17263163751909,
                0.056566932889170626,
                -0.055425437251465454
            ]
        },
        {
            "positions": [
                0.5924627139189583,
                -2.3931240371034734,
                -0.9028144340749114,
                1.1280656101742286,
                0.03907824219781375,
                -0.0686441695344838
            ]
        },
        {
            "positions": [
                0.6897042361856125,
                -2.407413857723717,
                -0.7175634897674343,
                1.0834995828293672,
                0.02158955150645689,
                -0.08186290181750214
            ]
        },
        {
            "positions": [
                0.7869457584522668,
                -2.4217036783439605,
                -0.5323125454599573,
                1.0389335554845056,
                0.004100860815099999,
                -0.09508163410052048
            ]
        },
        {
            "positions": [
                0.8841872807189209,
                -2.435993498964204,
                -0.3470616011524803,
                0.9943675281396442,
                -0.013387829876256863,
                -0.10830036638353885
            ]
        },
        {
            "positions": [
                0.9814288029855754,
                -2.4502833195844476,
                -0.16181065684500284,
                0.9498015007947826,
                -0.03087652056761378,
                -0.12151909866655722
            ]
        },
        {
            "positions": [
                1.0786703252522294,
                -2.464573140204691,
                0.023440287462474174,
                0.9052354734499212,
                -0.04836521125897064,
                -0.13473783094957556
            ]
        },
        {
            "positions": [
                1.1759118475188837,
                -2.4788629608249346,
                0.2086912317699512,
                0.8606694461050598,
                -0.06585390195032753,
                -0.1479565632325939
            ]
        },
        {
            "positions": [
                1.273153369785538,
                -2.493152781445178,
                0.3939421760774284,
                0.8161034187601983,
                -0.08334259264168441,
                -0.16117529551561224
            ]
        },
        {
            "positions": [
                1.3252427437804364,
                -2.4362321348228146,
                0.44893636716261626,
                0.7547471291965376,
                -0.03980978873284216,
                -0.2739939489515558
            ]
        },
        {
            "positions": [
                1.3773321177753348,
                -2.379311488200451,
                0.5039305582478042,
                0.693390839632877,
                0.0037230151760000857,
                -0.38681260238749937
            ]
        },
        {
            "positions": [
                1.4294214917702333,
                -2.322390841578087,
                0.5589247493329921,
                0.6320345500692163,
                0.047255819084842346,
                -0.4996312558234429
            ]
        },
        {
            "positions": [
                1.4815108657651317,
                -2.2654701949557237,
                0.61391894041818,
                0.5706782605055556,
                0.09078862299368458,
                -0.6124499092593865
            ]
        },
        {
            "positions": [
                1.5336002397600301,
                -2.20854954833336,
                0.6689131315033678,
                0.5093219709418948,
                0.13432142690252685,
                -0.72526856269533
            ]
        },
        {
            "positions": [
                1.5856896137549286,
                -2.1516289017109966,
                0.7239073225885557,
                0.44796568137823417,
                0.17785423081136909,
                -0.8380872161312736
            ]
        },
        {
            "positions": [
                1.637778987749827,
                -2.0947082550886327,
                0.7789015136737436,
                0.3866093918145735,
                0.22138703472021126,
                -0.950905869567217
            ]
        },
        {
            "positions": [
                1.6898683617447254,
                -2.037787608466269,
                0.8338957047589315,
                0.32525310225091275,
                0.26491983862905355,
                -1.0637245230031607
            ]
        },
        {
            "positions": [
                1.7419577357396239,
                -1.9808669618439056,
                0.8888898958441194,
                0.26389681268725207,
                0.3084526425378958,
                -1.176543176439104
            ]
        },
        {
            "positions": [
                1.7940471097345223,
                -1.9239463152215421,
                0.9438840869293073,
                0.2025405231235914,
                0.35198544644673807,
                -1.2893618298750478
            ]
        },
        {
            "positions": [
                1.8461364837294207,
                -1.8670256685991786,
                0.9988782780144951,
                0.1411842335599307,
                0.39551825035558025,
                -1.4021804833109912
            ]
        },
        {
            "positions": [
                1.8982258577243192,
                -1.8101050219768149,
                1.053872469099683,
                0.07982794399627002,
                0.4390510542644226,
                -1.5149991367469349
            ]
        },
        {
            "positions": [
                1.9503152317192176,
                -1.7531843753544512,
                1.108866660184871,
                0.01847165443260934,
                0.48258385817326477,
                -1.6278177901828783
            ]
        },
        {
            "positions": [
                2.002404605714116,
                -1.6962637287320876,
                1.1638608512700588,
                -0.04288463513105134,
                0.526116662082107,
                -1.7406364436188217
            ]
        },
        {
            "positions": [
                2.0544939797090143,
                -1.6393430821097241,
                1.2188550423552464,
                -0.10424092469471191,
                0.5696494659909492,
                -1.8534550970547652
            ]
        },
        {
            "positions": [
                2.106583353703913,
                -1.5824224354873604,
                1.2738492334404345,
                -0.16559721425837282,
                0.6131822698997915,
                -1.966273750490709
            ]
        },
        {
            "positions": [
                2.1586727276988116,
                -1.5255017888649969,
                1.3288434245256224,
                -0.2269535038220334,
                0.6567150738086338,
                -2.0790924039266523
            ]
        },
        {
            "positions": [
                2.21076210169371,
                -1.4685811422426331,
                1.3838376156108103,
                -0.2883097933856942,
                0.700247877717476,
                -2.1919110573625957
            ]
        },
        {
            "positions": [
                2.262851475688608,
                -1.4116604956202696,
                1.4388318066959982,
                -0.34966608294935475,
                0.7437806816263182,
                -2.304729710798539
            ]
        },
        {
            "positions": [
                2.3149408496835067,
                -1.354739848997906,
                1.493825997781186,
                -0.41102237251301554,
                0.7873134855351606,
                -2.417548364234483
            ]
        },
        {
            "positions": [
                2.3670302236784053,
                -1.2978192023755424,
                1.548820188866374,
                -0.4723786620766761,
                0.8308462894440027,
                -2.5303670176704265
            ]
        },
        {
            "positions": [
                2.4191195976733035,
                -1.2408985557531789,
                1.6038143799515618,
                -0.5337349516403369,
                0.8743790933528449,
                -2.64318567110637
            ]
        },
        {
            "positions": [
                2.4712089716682017,
                -1.1839779091308151,
                1.6588085710367497,
                -0.5950912412039975,
                0.9179118972616871,
                -2.7560043245423134
            ]
        },
        {
            "positions": [
                2.5232983456631004,
                -1.1270572625084516,
                1.7138027621219376,
                -0.6564475307676583,
                0.9614447011705296,
                -2.8688229779782572
            ]
        },
        {
            "positions": [
                2.575387719657999,
                -1.0701366158860879,
                1.7687969532071255,
                -0.7178038203313191,
                1.0049775050793717,
                -2.9816416314142007
            ]
        },
        {
            "positions": [
                2.6274770936528973,
                -1.0132159692637244,
                1.8237911442923134,
                -0.7791601098949795,
                1.048510308988214,
                -3.094460284850144
            ]
        }
    ]
}