{
    "goal": {
        "global_pose": {
            "orientation": {
                "w": -0.4816463035849501,
                "x": 0.5182115481033762,
                "y": 0.4908360881923453,
                "z": -0.5084816262002911
            },
            "position": {
                "x": -0.8240239810943604,
                "y": -0.300875300988555,
                "z": 0.16403168439865112
            }
        },
        "name": "move_to_storage_C"
    },
    "id": "RRT_move_to_storage_C_3",
    "joint_names": [
        "shoulder_pan_joint",
        "shoulder_lift_joint",
        "elbow_joint",
        "wrist_1_joint",
        "wrist_2_joint",
        "wrist_3_joint"
    ],
    "metrics": {
        "cart_traj_len": 0.577258839895045,
        "distance_elbow_joint": 0.2606922481547951,
        "distance_shoulder_lift_joint": 0.19015564784884254,
        "distance_shoulder_pan_joint": 0.49508853981978396,
        "distance_wrist_1_joint": 0.08236671257029782,
        "distance_wrist_2_joint": 1.064319456921126,
        "distance_wrist_3_joint": 0.06672202210255129,
        "smoothness": 0.0,
        "time": 0.012074258,
        "traj_len": 1.469470866474527,
        "weighted_distance": 1.854582120347849
    },
    "planner": "RRT",
    "start": {
        "state": {
            "elbow_joint": 2.010868314990456,
            "shoulder_lift_joint": -1.1634956873337592,
            "shoulder_pan_joint": -2.4736205022346125,
            "wrist_1_joint": -0.8367026794202681,
            "wrist_2_joint": 0.6746043897044499,
            "wrist_3_joint": -3.1496632123970403
        }
    },
    "waypoints": [
        {
            "positions": [
                -2.4736205022346125,
                -1.1634956873337592,
                2.010868314990456,
                -0.8367026794202681,
                0.6746043897044499,
                -3.1496632123970403
            ]
        },
        {
            "positions": [
                -2.556135258871243,
                -1.1318030793589522,
                1.9674196069646566,
                -0.8229748939918852,
                0.851990965857971,
                -3.1385428753799482
            ]
        },
        {
            "positions": [
                -2.638650015507874,
                -1.100110471384145,
                1.9239708989388575,
                -0.8092471085635021,
                1.029377542011492,
                -3.1274225383628567
            ]
        },
        {
            "positions": [
                -2.7211647721445047,
                -1.068417863409338,
                1.8805221909130583,
                -0.7955193231351192,
                1.206764118165013,
                -3.1163022013457646
            ]
        },
        {
            "positions": [
                -2.803679528781135,
                -1.0367252554345308,
                1.837073482887259,
                -0.7817915377067363,
                1.3841506943185338,
                -3.1051818643286726
            ]
        },
        {
            "positions": [
                -2.8861942854177656,
                -1.0050326474597238,
                1.79362477486146,
                -0.7680637522783532,
                1.561537270472055,
                -3.094061527311581
            ]
        },
        {
            "positions": [
                -2.9687090420543965,
                -0.9733400394849167,
                1.7501760668356607,
                -0.7543359668499703,
                1.738923846625576,
                -3.082941190294489
            ]
        }
    ]
}