{
    "goal": {
        "global_pose": {
            "orientation": {
                "w": 0.7031023480610252,
                "x": -0.7110244013736278,
                "y": 0.0077485991402295624,
                "z": 0.005598929693374583
            },
            "position": {
                "x": -0.8841497679147869,
                "y": 0.44412534475326537,
                "z": 0.3711530566215515
            }
        },
        "name": "move_to_auspresseinheit_D"
    },
    "id": "RRT_move_to_auspresseinheit_D_6",
    "joint_names": [
        "shoulder_pan_joint",
        "shoulder_lift_joint",
        "elbow_joint",
        "wrist_1_joint",
        "wrist_2_joint",
        "wrist_3_joint"
    ],
    "metrics": {
        "cart_traj_len": 0.34541616969530486,
        "distance_elbow_joint": 0.6729011854846354,
        "distance_shoulder_lift_joint": 0.14105051216241105,
        "distance_shoulder_pan_joint": 0.1345714130786921,
        "distance_wrist_1_joint": 0.6313668134149446,
        "distance_wrist_2_joint": 1.4442562232852927,
        "distance_wrist_3_joint": 0.08976715233163635,
        "smoothness": 1.381610860894979e-15,
        "time": 0.017190166,
        "traj_len": 1.7646283744056743,
        "weighted_distance": 2.3171255125955357
    },
    "planner": "RRT",
    "start": {
        "state": {
            "elbow_joint": -1.8275523626775212,
            "shoulder_lift_joint": -2.126789852344167,
            "shoulder_pan_joint": -0.03513704404078235,
            "wrist_1_joint": -2.347782403156801,
            "wrist_2_joint": -1.6058999987535132,
            "wrist_3_joint": -3.0880379163319196
        }
    },
    "waypoints": [
        {
            "positions": [
                -0.03513704404078235,
                -2.126789852344167,
                -1.8275523626775212,
                -2.347782403156801,
                -1.6058999987535132,
                -3.0880379163319196
            ]
        },
        {
            "positions": [
                -0.05195847067561886,
                -2.1444211663644683,
                -1.7434397144919418,
                -2.426703254833669,
                -1.4253679708428515,
                -3.076817022290465
            ]
        },
        {
            "positions": [
                -0.06877989731045538,
                -2.1620524803847694,
                -1.6593270663063624,
                -2.505624106510537,
                -1.24483594293219,
                -3.0655961282490107
            ]
        },
        {
            "positions": [
                -0.08560132394529188,
                -2.179683794405071,
                -1.5752144181207828,
                -2.584544958187405,
                -1.0643039150215285,
                -3.054375234207556
            ]
        },
        {
            "positions": [
                -0.1024227505801284,
                -2.1973151084253724,
                -1.4911017699352036,
                -2.663465809864273,
                -0.8837718871108668,
                -3.0431543401661014
            ]
        },
        {
            "positions": [
                -0.11924417721496491,
                -2.214946422445674,
                -1.406989121749624,
                -2.742386661541141,
                -0.7032398592002053,
                -3.031933446124647
            ]
        },
        {
            "positions": [
                -0.13606560384980143,
                -2.2325777364659753,
                -1.3228764735640446,
                -2.8213075132180094,
                -0.5227078312895437,
                -3.020712552083192
            ]
        },
        {
            "positions": [
                -0.15288703048463795,
                -2.2502090504862764,
                -1.2387638253784652,
                -2.9002283648948772,
                -0.3421758033788822,
                -3.0094916580417377
            ]
        },
        {
            "positions": [
                -0.16970845711947447,
                -2.267840364506578,
                -1.1546511771928858,
                -2.9791492165717455,
                -0.16164377546822048,
                -2.9982707640002833
            ]
        }
    ]
}