{
    "goal": {
        "global_pose": {
            "orientation": {
                "w": 0.7031023480610252,
                "x": -0.7110244013736278,
                "y": 0.0077485991402295624,
                "z": 0.005598929693374583
            },
            "position": {
                "x": -0.8841497679147869,
                "y": 0.44412534475326537,
                "z": 0.3711530566215515
            }
        },
        "name": "move_to_auspresseinheit_D"
    },
    "id": "RRT_move_to_auspresseinheit_D_68",
    "joint_names": [
        "shoulder_pan_joint",
        "shoulder_lift_joint",
        "elbow_joint",
        "wrist_1_joint",
        "wrist_2_joint",
        "wrist_3_joint"
    ],
    "metrics": {
        "cart_traj_len": 0.34247441702653014,
        "distance_elbow_joint": 0.6336109419777904,
        "distance_shoulder_lift_joint": 0.11888776250167954,
        "distance_shoulder_pan_joint": 0.13324148836376176,
        "distance_wrist_1_joint": 0.514019061368093,
        "distance_wrist_2_joint": 1.4470743042874645,
        "distance_wrist_3_joint": 0.006967926560063287,
        "smoothness": 5.921189511553294e-16,
        "time": 0.021763715,
        "traj_len": 1.6893198291202447,
        "weighted_distance": 2.1974600573922927
    },
    "planner": "RRT",
    "start": {
        "state": {
            "elbow_joint": -1.8275523626775212,
            "shoulder_lift_joint": -2.126789852344167,
            "shoulder_pan_joint": -0.03513704404078235,
            "wrist_1_joint": -2.347782403156801,
            "wrist_2_joint": -1.6058999987535132,
            "wrist_3_joint": -3.0880379163319196
        }
    },
    "waypoints": [
        {
            "positions": [
                -0.03513704404078235,
                -2.126789852344167,
                -1.8275523626775212,
                -2.347782403156801,
                -1.6058999987535132,
                -3.0880379163319196
            ]
        },
        {
            "positions": [
                -0.05179223008625257,
                -2.1416508226568767,
                -1.7483509949302973,
                -2.4120347858278124,
                -1.42501571071758,
                -3.0889089071519273
            ]
        },
        {
            "positions": [
                -0.06844741613172278,
                -2.156511792969587,
                -1.6691496271830735,
                -2.476287168498824,
                -1.2441314226816471,
                -3.0897798979719355
            ]
        },
        {
            "positions": [
                -0.08510260217719301,
                -2.171372763282297,
                -1.5899482594358498,
                -2.540539551169836,
                -1.063247134645714,
                -3.0906508887919433
            ]
        },
        {
            "positions": [
                -0.10175778822266324,
                -2.1862337335950066,
                -1.510746891688626,
                -2.6047919338408474,
                -0.8823628466097809,
                -3.0915218796119515
            ]
        },
        {
            "positions": [
                -0.11841297426813346,
                -2.2010947039077164,
                -1.431545523941402,
                -2.669044316511859,
                -0.7014785585738479,
                -3.092392870431959
            ]
        },
        {
            "positions": [
                -0.13506816031360366,
                -2.2159556742204263,
                -1.3523441561941785,
                -2.733296699182871,
                -0.5205942705379147,
                -3.093263861251967
            ]
        },
        {
            "positions": [
                -0.1517233463590739,
                -2.2308166445331366,
                -1.2731427884469546,
                -2.7975490818538824,
                -0.3397099825019818,
                -3.094134852071975
            ]
        },
        {
            "positions": [
                -0.16837853240454412,
                -2.2456776148458464,
                -1.1939414206997307,
                -2.861801464524894,
                -0.15882569446604866,
                -3.095005842891983
            ]
        }
    ]
}