{
    "goal": {
        "global_pose": {
            "orientation": {
                "w": -0.4816463035849501,
                "x": 0.5182115481033762,
                "y": 0.4908360881923453,
                "z": -0.5084816262002911
            },
            "position": {
                "x": -0.8240239810943604,
                "y": 0.19912469901144506,
                "z": 0.16403168439865112
            }
        },
        "name": "move_to_storage_D"
    },
    "id": "RRT_move_to_storage_D_129",
    "joint_names": [
        "shoulder_pan_joint",
        "shoulder_lift_joint",
        "elbow_joint",
        "wrist_1_joint",
        "wrist_2_joint",
        "wrist_3_joint"
    ],
    "metrics": {
        "cart_traj_len": 1.0299578485431264,
        "distance_elbow_joint": 0.5536268270069691,
        "distance_shoulder_lift_joint": 0.6615918363869762,
        "distance_shoulder_pan_joint": 1.0510431763624593,
        "distance_wrist_1_joint": 3.822183543708265,
        "distance_wrist_2_joint": 1.774113477380089,
        "distance_wrist_3_joint": 3.1323631215307914,
        "smoothness": 0.08939863051417243,
        "time": 0.132167539,
        "traj_len": 3.3158591620235547,
        "weighted_distance": 4.780789186580546
    },
    "planner": "RRT",
    "start": {
        "state": {
            "elbow_joint": -2.384821988534728,
            "shoulder_lift_joint": -2.2788054721415256,
            "shoulder_pan_joint": -0.1854694642142757,
            "wrist_1_joint": 1.4845938289331202,
            "wrist_2_joint": 0.17898776772866878,
            "wrist_3_joint": 0.037105688729662994
        }
    },
    "waypoints": [
        {
            "positions": [
                -0.1854694642142757,
                -2.2788054721415256,
                -2.384821988534728,
                1.4845938289331202,
                0.17898776772866878,
                0.037105688729662994
            ]
        },
        {
            "positions": [
                -0.1429450797044972,
                -2.2426142722180975,
                -2.3702943140959345,
                1.465328387692783,
                0.1605285122774357,
                0.026183744050920804
            ]
        },
        {
            "positions": [
                -0.04981494893328607,
                -2.1807864191020148,
                -2.3113017013011823,
                1.3934513400824904,
                0.13470108137801562,
                0.0013114563217471835
            ]
        },
        {
            "positions": [
                0.04331518183792507,
                -2.1189585659859316,
                -2.25230908850643,
                1.321574292472198,
                0.10887365047859554,
                -0.023560831407426437
            ]
        },
        {
            "positions": [
                0.13644531260913623,
                -2.057130712869849,
                -2.193316475711678,
                1.2496972448619057,
                0.08304621957917546,
                -0.04843311913660006
            ]
        },
        {
            "positions": [
                0.22957544338034735,
                -1.9953028597537659,
                -2.1343238629169257,
                1.1778201972516131,
                0.057218788679755384,
                -0.07330540686577368
            ]
        },
        {
            "positions": [
                0.32270557415155854,
                -1.933475006637683,
                -2.0753312501221735,
                1.1059431496413206,
                0.031391357780335305,
                -0.09817769459494731
            ]
        },
        {
            "positions": [
                0.41583570492276967,
                -1.8716471535216,
                -2.0163386373274212,
                1.0340661020310282,
                0.0055639268809152265,
                -0.12304998232412093
            ]
        },
        {
            "positions": [
                0.3962818785216647,
                -1.882709480381037,
                -2.0082889209883055,
                0.8874723708655424,
                -0.06403127470744718,
                -0.2522763932144256
            ]
        },
        {
            "positions": [
                0.37672805212055976,
                -1.893771807240474,
                -2.0002392046491897,
                0.7408786397000566,
                -0.1336264762958096,
                -0.38150280410473025
            ]
        },
        {
            "positions": [
                0.3571742257194548,
                -1.9048341340999109,
                -1.992189488310074,
                0.5942849085345709,
                -0.20322167788417198,
                -0.5107292149950349
            ]
        },
        {
            "positions": [
                0.33762039931834986,
                -1.9158964609593478,
                -1.9841397719709581,
                0.44769117736908515,
                -0.2728168794725344,
                -0.6399556258853395
            ]
        },
        {
            "positions": [
                0.3180665729172449,
                -1.9269587878187848,
                -1.9760900556318424,
                0.30109744620359935,
                -0.34241208106089677,
                -0.7691820367756442
            ]
        },
        {
            "positions": [
                0.29851274651613996,
                -1.9380211146782218,
                -1.9680403392927268,
                0.15450371503811355,
                -0.4120072826492592,
                -0.8984084476659489
            ]
        },
        {
            "positions": [
                0.278958920115035,
                -1.9490834415376588,
                -1.959990622953611,
                0.007909983872627757,
                -0.48160248423762164,
                -1.0276348585562536
            ]
        },
        {
            "positions": [
                0.25940509371393006,
                -1.9601457683970958,
                -1.9519409066144953,
                -0.13868374729285793,
                -0.551197685825984,
                -1.156861269446558
            ]
        },
        {
            "positions": [
                0.23985126731282508,
                -1.9712080952565327,
                -1.9438911902753795,
                -0.28527747845834384,
                -0.6207928874143465,
                -1.2860876803368628
            ]
        },
        {
            "positions": [
                0.22029744091172013,
                -1.9822704221159697,
                -1.9358414739362637,
                -0.4318712096238295,
                -0.6903880890027088,
                -1.4153140912271676
            ]
        },
        {
            "positions": [
                0.20074361451061515,
                -1.9933327489754067,
                -1.927791757597148,
                -0.5784649407893154,
                -0.7599832905910713,
                -1.5445405021174723
            ]
        },
        {
            "positions": [
                0.18118978810951022,
                -2.004395075834844,
                -1.9197420412580322,
                -0.7250586719548011,
                -0.8295784921794336,
                -1.6737669130077768
            ]
        },
        {
            "positions": [
                0.16163596170840527,
                -2.0154574026942806,
                -1.9116923249189164,
                -0.8716524031202868,
                -0.899173693767796,
                -1.8029933238980813
            ]
        },
        {
            "positions": [
                0.1420821353073003,
                -2.0265197295537174,
                -1.9036426085798006,
                -1.0182461342857727,
                -0.9687688953561585,
                -1.9322197347883863
            ]
        },
        {
            "positions": [
                0.12252830890619532,
                -2.0375820564131546,
                -1.8955928922406848,
                -1.1648398654512584,
                -1.038364096944521,
                -2.061446145678691
            ]
        },
        {
            "positions": [
                0.10297448250509039,
                -2.048644383272592,
                -1.887543175901569,
                -1.311433596616744,
                -1.1079592985328834,
                -2.1906725565689955
            ]
        },
        {
            "positions": [
                0.08342065610398547,
                -2.0597067101320286,
                -1.8794934595624535,
                -1.4580273277822298,
                -1.1775545001212455,
                -2.3198989674593005
            ]
        },
        {
            "positions": [
                0.06386682970288049,
                -2.0707690369914653,
                -1.8714437432233377,
                -1.604621058947716,
                -1.247149701709608,
                -2.449125378349605
            ]
        },
        {
            "positions": [
                0.04431300330177551,
                -2.0818313638509025,
                -1.863394026884222,
                -1.7512147901132016,
                -1.3167449032979706,
                -2.57835178923991
            ]
        },
        {
            "positions": [
                0.024759176900670588,
                -2.0928936907103397,
                -1.8553443105451062,
                -1.8978085212786873,
                -1.3863401048863326,
                -2.7075782001302144
            ]
        },
        {
            "positions": [
                0.005205350499565664,
                -2.1039560175697765,
                -1.8472945942059904,
                -2.044402252444173,
                -1.4559353064746952,
                -2.836804611020519
            ]
        },
        {
            "positions": [
                -0.01434847590153937,
                -2.115018344429213,
                -1.8392448778668746,
                -2.190995983609659,
                -1.5255305080630577,
                -2.966031021910824
            ]
        },
        {
            "positions": [
                -0.03390230230264429,
                -2.1260806712886504,
                -1.8311951615277589,
                -2.3375897147751448,
                -1.5951257096514202,
                -3.0952574328011284
            ]
        }
    ]
}