{
    "goal": {
        "global_pose": {
            "orientation": {
                "w": 0.7047431493862688,
                "x": -0.7094548369677653,
                "y": 0.0024358444001904,
                "z": -0.0022348060817251984
            },
            "position": {
                "x": -0.39052492380142206,
                "y": 0.3671506643295288,
                "z": 0.19426114857196808
            }
        },
        "name": "move_to_magneteinheit_D"
    },
    "id": "RRT_move_to_magneteinheit_D_5",
    "joint_names": [
        "shoulder_pan_joint",
        "shoulder_lift_joint",
        "elbow_joint",
        "wrist_1_joint",
        "wrist_2_joint",
        "wrist_3_joint"
    ],
    "metrics": {
        "cart_traj_len": 6.566826604227113,
        "distance_elbow_joint": 6.842256124311996,
        "distance_shoulder_lift_joint": 2.1683594980827445,
        "distance_shoulder_pan_joint": 8.882714424561037,
        "distance_wrist_1_joint": 3.386125067660896,
        "distance_wrist_2_joint": 2.1723965694397327,
        "distance_wrist_3_joint": 6.284175705395264,
        "smoothness": 0.3969924788780471,
        "time": 0.14249033,
        "traj_len": 5.453075039778172,
        "weighted_distance": 6.918301846359611
    },
    "planner": "RRT",
    "start": {
        "state": {
            "elbow_joint": 0.749534889911806,
            "shoulder_lift_joint": -0.6476975780787326,
            "shoulder_pan_joint": -2.711696901376241,
            "wrist_1_joint": -0.07506478083263063,
            "wrist_2_joint": 0.43296659715538205,
            "wrist_3_joint": -3.14703540197715
        }
    },
    "waypoints": [
        {
            "positions": [
                -2.711696901376241,
                -0.6476975780787326,
                0.749534889911806,
                -0.07506478083263063,
                0.43296659715538205,
                -3.14703540197715
            ]
        },
        {
            "positions": [
                -2.703389138780613,
                -0.6848126704427508,
                0.6776363854122216,
                -0.05435953581362426,
                0.48263478991461506,
                -3.0836216814121626
            ]
        },
        {
            "positions": [
                -2.6950813761849846,
                -0.7219277628067691,
                0.6057378809126371,
                -0.03365429079461789,
                0.5323029826738481,
                -3.0202079608471752
            ]
        },
        {
            "positions": [
                -2.6650846439399047,
                -0.7406657327747671,
                0.4990516122697506,
                -0.05576683314327892,
                0.5895175999632918,
                -2.8762870739754742
            ]
        },
        {
            "positions": [
                -2.635087911694825,
                -0.7594037027427651,
                0.392365343626864,
                -0.07787937549193995,
                0.6467322172527354,
                -2.732366187103773
            ]
        },
        {
            "positions": [
                -2.605091179449745,
                -0.7781416727107631,
                0.2856790749839774,
                -0.09999191784060098,
                0.7039468345421791,
                -2.588445300232072
            ]
        },
        {
            "positions": [
                -2.5750944472046653,
                -0.7968796426787611,
                0.17899280634109083,
                -0.122104460189262,
                0.7611614518316228,
                -2.444524413360371
            ]
        },
        {
            "positions": [
                -2.5450977149595855,
                -0.8156176126467591,
                0.07230653769820417,
                -0.14421700253792302,
                0.8183760691210664,
                -2.30060352648867
            ]
        },
        {
            "positions": [
                -2.5151009827145057,
                -0.8343555826147572,
                -0.034379730944682385,
                -0.16632954488658408,
                0.8755906864105101,
                -2.156682639616969
            ]
        },
        {
            "positions": [
                -2.4851042504694263,
                -0.8530935525827552,
                -0.14106599958756905,
                -0.18844208723524508,
                0.9328053036999537,
                -2.012761752745268
            ]
        },
        {
            "positions": [
                -2.4551075182243465,
                -0.8718315225507531,
                -0.24775226823045549,
                -0.21055462958390614,
                0.9900199209893974,
                -1.8688408658735671
            ]
        },
        {
            "positions": [
                -2.4251107859792667,
                -0.8905694925187513,
                -0.35443853687334215,
                -0.23266717193256714,
                1.047234538278841,
                -1.724919979001866
            ]
        },
        {
            "positions": [
                -2.395114053734187,
                -0.9093074624867492,
                -0.4611248055162288,
                -0.2547797142812282,
                1.1044491555682847,
                -1.580999092130165
            ]
        },
        {
            "positions": [
                -2.365117321489107,
                -0.9280454324547472,
                -0.5678110741591152,
                -0.2768922566298892,
                1.1616637728577284,
                -1.437078205258464
            ]
        },
        {
            "positions": [
                -2.335120589244027,
                -0.9467834024227453,
                -0.674497342802002,
                -0.29900479897855026,
                1.218878390147172,
                -1.293157318386763
            ]
        },
        {
            "positions": [
                -2.144810286769961,
                -0.9943442062614302,
                -0.607916033112741,
                -0.2773852090262618,
                1.1812868925215425,
                -1.2724291767372373
            ]
        },
        {
            "positions": [
                -1.9544999842958952,
                -1.041905010100115,
                -0.54133472342348,
                -0.2557656190739733,
                1.143695394895913,
                -1.2517010350877118
            ]
        },
        {
            "positions": [
                -1.7641896818218292,
                -1.0894658139388,
                -0.474753413734219,
                -0.23414602912168486,
                1.1061038972702835,
                -1.230972893438186
            ]
        },
        {
            "positions": [
                -1.5738793793477632,
                -1.137026617777485,
                -0.40817210404495796,
                -0.2125264391693964,
                1.0685123996446542,
                -1.2102447517886603
            ]
        },
        {
            "positions": [
                -1.3835690768736972,
                -1.18458742161617,
                -0.34159079435569695,
                -0.19090684921710793,
                1.0309209020190246,
                -1.1895166101391346
            ]
        },
        {
            "positions": [
                -1.1932587743996312,
                -1.2321482254548548,
                -0.27500948466643593,
                -0.16928725926481947,
                0.9933294043933951,
                -1.168788468489609
            ]
        },
        {
            "positions": [
                -1.0029484719255652,
                -1.2797090292935398,
                -0.20842817497717492,
                -0.147667669312531,
                0.9557379067677656,
                -1.1480603268400833
            ]
        },
        {
            "positions": [
                -0.8126381694514992,
                -1.3272698331322248,
                -0.1418468652879139,
                -0.12604807936024254,
                0.9181464091421361,
                -1.1273321851905576
            ]
        },
        {
            "positions": [
                -0.622327866977433,
                -1.3748306369709096,
                -0.07526555559865289,
                -0.10442848940795404,
                0.8805549115165066,
                -1.106604043541032
            ]
        },
        {
            "positions": [
                -0.43201756450336726,
                -1.4223914408095946,
                -0.008684245909391874,
                -0.08280889945566561,
                0.8429634138908771,
                -1.0858759018915063
            ]
        },
        {
            "positions": [
                -0.24170726202930126,
                -1.4699522446482796,
                0.05789706377986914,
                -0.06118930950337714,
                0.8053719162652476,
                -1.0651477602419805
            ]
        },
        {
            "positions": [
                -0.051396959555235266,
                -1.5175130484869643,
                0.12447837346913015,
                -0.03956971955108868,
                0.7677804186396182,
                -1.044419618592455
            ]
        },
        {
            "positions": [
                0.13891334291883073,
                -1.5650738523256496,
                0.19105968315839117,
                -0.017950129598800213,
                0.7301889210139887,
                -1.0236914769429293
            ]
        },
        {
            "positions": [
                0.3292236453928967,
                -1.6126346561643343,
                0.2576409928476522,
                0.003669460353488252,
                0.6925974233883592,
                -1.0029633352934035
            ]
        },
        {
            "positions": [
                0.5195339478669627,
                -1.660195460003019,
                0.3242223025369132,
                0.025289050305776717,
                0.6550059257627296,
                -0.9822351936438778
            ]
        },
        {
            "positions": [
                0.7098442503410287,
                -1.707756263841704,
                0.3908036122261742,
                0.04690864025806518,
                0.6174144281371002,
                -0.9615070519943523
            ]
        },
        {
            "positions": [
                0.9001545528150943,
                -1.755317067680389,
                0.4573849219154351,
                0.06852823021035359,
                0.5798229305114707,
                -0.9407789103448265
            ]
        },
        {
            "positions": [
                1.0904648552891612,
                -1.802877871519074,
                0.5239662316046962,
                0.09014782016264217,
                0.5422314328858412,
                -0.9200507686953008
            ]
        },
        {
            "positions": [
                1.2807751577632267,
                -1.850438675357759,
                0.5905475412939574,
                0.11176741011493058,
                0.5046399352602117,
                -0.899322627045775
            ]
        },
        {
            "positions": [
                1.4710854602372927,
                -1.8979994791964439,
                0.6571288509832183,
                0.13338700006721904,
                0.46704843763458226,
                -0.8785944853962495
            ]
        },
        {
            "positions": [
                1.6613957627113587,
                -1.9455602830351288,
                0.7237101606724794,
                0.1550065900195075,
                0.42945694000895274,
                -0.8578663437467238
            ]
        },
        {
            "positions": [
                1.8517060651854247,
                -1.9931210868738138,
                0.7902914703617403,
                0.17662617997179597,
                0.3918654423833232,
                -0.837138202097198
            ]
        },
        {
            "positions": [
                2.0420163676594902,
                -2.0406818907124986,
                0.8568727800510012,
                0.19824576992408444,
                0.3542739447576938,
                -0.8164100604476725
            ]
        },
        {
            "positions": [
                2.2323266701335567,
                -2.088242694551184,
                0.9234540897402623,
                0.2198653598763729,
                0.3166824471320643,
                -0.7956819187981468
            ]
        },
        {
            "positions": [
                2.422636972607623,
                -2.1358034983898686,
                0.9900353994295235,
                0.24148494982866142,
                0.27909094950643476,
                -0.774953777148621
            ]
        },
        {
            "positions": [
                2.6129472750816887,
                -2.1833643022285534,
                1.0566167091187844,
                0.26310453978094983,
                0.24149945188080524,
                -0.7542256354990954
            ]
        },
        {
            "positions": [
                2.803257577555755,
                -2.2309251060672386,
                1.1231980188080455,
                0.28472412973323835,
                0.20390795425517583,
                -0.7334974938495696
            ]
        },
        {
            "positions": [
                2.99356788002982,
                -2.2784859099059234,
                1.1897793284973064,
                0.30634371968552676,
                0.1663164566295463,
                -0.712769352200044
            ]
        },
        {
            "positions": [
                2.905450559642753,
                -2.263588420448306,
                1.0913099268280513,
                0.2376702064690109,
                0.1570580497475709,
                -0.6059679332940984
            ]
        },
        {
            "positions": [
                2.8173332392556856,
                -2.248690930990689,
                0.9928405251587962,
                0.16899669325249506,
                0.14779964286559552,
                -0.49916651438815274
            ]
        },
        {
            "positions": [
                2.7292159188686185,
                -2.2337934415330714,
                0.8943711234895411,
                0.10032318003597923,
                0.13854123598362011,
                -0.3923650954822071
            ]
        },
        {
            "positions": [
                2.6410985984815514,
                -2.218895952075454,
                0.795901721820286,
                0.03164966681946335,
                0.12928282910164474,
                -0.28556367657626147
            ]
        },
        {
            "positions": [
                2.552981278094484,
                -2.203998462617837,
                0.6974323201510306,
                -0.03702384639705247,
                0.12002442221966932,
                -0.17876225767031584
            ]
        },
        {
            "positions": [
                2.4648639577074167,
                -2.1891009731602193,
                0.5989629184817756,
                -0.1056973596135683,
                0.11076601533769392,
                -0.0719608387643702
            ]
        },
        {
            "positions": [
                2.376746637320349,
                -2.1742034837026023,
                0.5004935168125204,
                -0.17437087283008418,
                0.10150760845571853,
                0.03484058014157543
            ]
        },
        {
            "positions": [
                2.288629316933282,
                -2.159305994244985,
                0.4020241151432654,
                -0.24304438604660006,
                0.09224920157374314,
                0.14164199904752106
            ]
        },
        {
            "positions": [
                2.200511996546215,
                -2.1444085047873673,
                0.3035547134740102,
                -0.3117178992631159,
                0.08299079469176773,
                0.2484434179534667
            ]
        },
        {
            "positions": [
                2.1123946761591474,
                -2.1295110153297503,
                0.20508531180475498,
                -0.3803914124796317,
                0.07373238780979233,
                0.3552448368594123
            ]
        },
        {
            "positions": [
                2.0242773557720803,
                -2.114613525872133,
                0.10661591013549976,
                -0.44906492569614764,
                0.06447398092781693,
                0.46204625576535796
            ]
        },
        {
            "positions": [
                1.9361600353850132,
                -2.0997160364145158,
                0.008146508466244873,
                -0.5177384389126634,
                0.05521557404584154,
                0.5688476746713036
            ]
        },
        {
            "positions": [
                1.848042714997946,
                -2.0848185469568983,
                -0.09032289320301023,
                -0.5864119521291793,
                0.04595716716386615,
                0.6756490935772492
            ]
        },
        {
            "positions": [
                1.7599253946108786,
                -2.069921057499281,
                -0.18879229487226556,
                -0.6550854653456951,
                0.03669876028189076,
                0.7824505124831949
            ]
        },
        {
            "positions": [
                1.6718080742238113,
                -2.0550235680416638,
                -0.2872616965415207,
                -0.7237589785622109,
                0.02744035339991535,
                0.8892519313891405
            ]
        },
        {
            "positions": [
                1.5836907538367442,
                -2.0401260785840463,
                -0.38573109821077556,
                -0.7924324917787269,
                0.018181946517939973,
                0.9960533502950861
            ]
        },
        {
            "positions": [
                1.4955734334496769,
                -2.025228589126429,
                -0.4842004998800309,
                -0.8611060049952426,
                0.008923539635964567,
                1.1028547692010318
            ]
        },
        {
            "positions": [
                1.4074561130626095,
                -2.0103310996688117,
                -0.582669901549286,
                -0.9297795182117585,
                -0.0003348672460108393,
                1.2096561881069774
            ]
        },
        {
            "positions": [
                1.3193387926755422,
                -1.9954336102111943,
                -0.6811393032185411,
                -0.9984530314282745,
                -0.009593274127986245,
                1.3164576070129232
            ]
        },
        {
            "positions": [
                1.231221472288475,
                -1.980536120753577,
                -0.7796087048877964,
                -1.0671265446447902,
                -0.01885168100996165,
                1.4232590259188687
            ]
        },
        {
            "positions": [
                1.1431041519014076,
                -1.9656386312959597,
                -0.8780781065570515,
                -1.1358000578613061,
                -0.02811008789193703,
                1.5300604448248145
            ]
        },
        {
            "positions": [
                1.0549868315143403,
                -1.9507411418383422,
                -0.9765475082263069,
                -1.204473571077822,
                -0.037368494773912436,
                1.63686186373076
            ]
        },
        {
            "positions": [
                0.9668695111272734,
                -1.935843652380725,
                -1.0750169098955613,
                -1.2731470842943378,
                -0.046626901655887815,
                1.7436632826367053
            ]
        },
        {
            "positions": [
                0.8787521907402063,
                -1.9209461629231077,
                -1.1734863115648166,
                -1.3418205975108535,
                -0.05588530853786322,
                1.8504647015426512
            ]
        },
        {
            "positions": [
                0.7906348703531387,
                -1.9060486734654905,
                -1.271955713234072,
                -1.4104941107273694,
                -0.0651437154198386,
                1.9572661204485966
            ]
        },
        {
            "positions": [
                0.7025175499660716,
                -1.8911511840078732,
                -1.3704251149033269,
                -1.4791676239438853,
                -0.074402122301814,
                2.0640675393545425
            ]
        },
        {
            "positions": [
                0.6144002295790041,
                -1.8762536945502557,
                -1.4688945165725822,
                -1.5478411371604013,
                -0.08366052918378941,
                2.1708689582604883
            ]
        },
        {
            "positions": [
                0.526282909191937,
                -1.8613562050926384,
                -1.5673639182418375,
                -1.616514650376917,
                -0.09291893606576479,
                2.2776703771664337
            ]
        },
        {
            "positions": [
                0.43816558880486944,
                -1.8464587156350212,
                -1.6658333199110924,
                -1.685188163593433,
                -0.10217734294774022,
                2.3844717960723796
            ]
        },
        {
            "positions": [
                0.35004826841780234,
                -1.8315612261774037,
                -1.7643027215803477,
                -1.7538616768099486,
                -0.1114357498297156,
                2.491273214978325
            ]
        },
        {
            "positions": [
                0.2619309480307348,
                -1.8166637367197864,
                -1.862772123249603,
                -1.8225351900264646,
                -0.12069415671169104,
                2.598074633884271
            ]
        },
        {
            "positions": [
                0.17381362764366814,
                -1.8017662472621692,
                -1.9612415249188575,
                -1.8912087032429805,
                -0.12995256359366636,
                2.7048760527902163
            ]
        },
        {
            "positions": [
                0.0856963072566006,
                -1.786868757804552,
                -2.059710926588113,
                -1.959882216459496,
                -0.1392109704756418,
                2.8116774716961617
            ]
        },
        {
            "positions": [
                -0.0024210131304664984,
                -1.7719712683469346,
                -2.158180328257368,
                -2.028555729676012,
                -0.14846937735761717,
                2.9184788906021075
            ]
        },
        {
            "positions": [
                -0.09053833351753404,
                -1.7570737788893172,
                -2.256649729926623,
                -2.097229242892528,
                -0.1577277842395926,
                3.025280309508053
            ]
        },
        {
            "positions": [
                -0.17865565390460098,
                -1.7421762894316999,
                -2.3551191315958784,
                -2.165902756109044,
                -0.16698619112156796,
                3.132081728413999
            ]
        },
        {
            "positions": [
                -0.1838817631251585,
                -1.7434378352130309,
                -2.364167891801572,
                -2.167671831089346,
                -0.1676063863007728,
                3.1371403034181204
            ]
        }
    ]
}