{
    "goal": {
        "global_pose": {
            "orientation": {
                "w": 0.5084816217422485,
                "x": -0.49083608388900757,
                "y": 0.5182115435600281,
                "z": -0.4816462993621826
            },
            "position": {
                "x": 0.5540239810943604,
                "y": 0.030875300988554955,
                "z": 0.16403168439865112
            }
        },
        "name": "move_to_storage_A"
    },
    "id": "RRT_move_to_storage_A_123",
    "joint_names": [
        "shoulder_pan_joint",
        "shoulder_lift_joint",
        "elbow_joint",
        "wrist_1_joint",
        "wrist_2_joint",
        "wrist_3_joint"
    ],
    "metrics": {
        "cart_traj_len": 0.35387511005635974,
        "distance_elbow_joint": 0.4506351369687287,
        "distance_shoulder_lift_joint": 0.23470733753802508,
        "distance_shoulder_pan_joint": 0.4610211073690753,
        "distance_wrist_1_joint": 0.24560481060733796,
        "distance_wrist_2_joint": 1.1079174675241885,
        "distance_wrist_3_joint": 0.09164316509471782,
        "smoothness": 6.661338165333112e-16,
        "time": 0.011335910000000001,
        "traj_len": 1.609822668837184,
        "weighted_distance": 2.0318311035671828
    },
    "planner": "RRT",
    "start": {
        "state": {
            "elbow_joint": 1.971548259319323,
            "shoulder_lift_joint": -1.1394851275133948,
            "shoulder_pan_joint": 0.1228115487234821,
            "wrist_1_joint": -0.7804723859257726,
            "wrist_2_joint": 0.12958671773740124,
            "wrist_3_joint": -3.192489227718131
        }
    },
    "waypoints": [
        {
            "positions": [
                0.1228115487234821,
                -1.1394851275133948,
                1.971548259319323,
                -0.7804723859257726,
                0.12958671773740124,
                -3.192489227718131
            ]
        },
        {
            "positions": [
                0.05695139052789992,
                -1.173014747161684,
                2.035924707457713,
                -0.8155587874411067,
                0.28786064166942815,
                -3.1793973469903145
            ]
        },
        {
            "positions": [
                -0.008908767667682255,
                -1.2065443668099733,
                2.1003011555961026,
                -0.8506451889564406,
                0.44613456560145504,
                -3.1663054662624974
            ]
        },
        {
            "positions": [
                -0.07476892586326445,
                -1.2400739864582626,
                2.1646776037344924,
                -0.8857315904717746,
                0.604408489533482,
                -3.153213585534681
            ]
        },
        {
            "positions": [
                -0.1406290840588466,
                -1.273603606106552,
                2.229054051872882,
                -0.9208179919871086,
                0.7626824134655089,
                -3.1401217048068637
            ]
        },
        {
            "positions": [
                -0.20648924225442883,
                -1.3071332257548414,
                2.2934305000112722,
                -0.9559043935024426,
                0.9209563373975359,
                -3.127029824079047
            ]
        },
        {
            "positions": [
                -0.272349400450011,
                -1.3406628454031306,
                2.357806948149662,
                -0.9909907950177765,
                1.0792302613295628,
                -3.11393794335123
            ]
        },
        {
            "positions": [
                -0.3382095586455932,
                -1.37419246505142,
                2.4221833962880517,
                -1.0260771965331106,
                1.2375041852615898,
                -3.1008460626234133
            ]
        }
    ]
}{
    "goal": {
        "global_pose": {
            "orientation": {
                "w": 0.5084816217422485,
                "x": -0.49083608388900757,
                "y": 0.5182115435600281,
                "z": -0.4816462993621826
            },
            "position": {
                "x": 0.5540239810943604,
                "y": 0.030875300988554955,
                "z": 0.16403168439865112
            }
        },
        "name": "move_to_storage_A"
    },
    "id": "RRT_move_to_storage_A_123",
    "joint_names": [
        "shoulder_pan_joint",
        "shoulder_lift_joint",
        "elbow_joint",
        "wrist_1_joint",
        "wrist_2_joint",
        "wrist_3_joint"
    ],
    "metrics": {
        "cart_traj_len": 0.35274360932847904,
        "distance_elbow_joint": 0.4514470519411833,
        "distance_shoulder_lift_joint": 0.23228075897967226,
        "distance_shoulder_pan_joint": 0.4608385730077416,
        "distance_wrist_1_joint": 0.25557965094318535,
        "distance_wrist_2_joint": 1.0987911441921527,
        "distance_wrist_3_joint": 0.1010512383294615,
        "smoothness": 6.661338165333112e-16,
        "time": 0.014183416999999999,
        "traj_len": 1.6124479580418702,
        "weighted_distance": 2.038740221113925
    },
    "planner": "RRT",
    "start": {
        "state": {
            "elbow_joint": 1.97154746011099,
            "shoulder_lift_joint": -1.13948474672311,
            "shoulder_pan_joint": 0.12281154466712228,
            "wrist_1_joint": -0.7804688027058302,
            "wrist_2_joint": 0.12958655903071145,
            "wrist_3_joint": 3.0906928834467795
        }
    },
    "waypoints": [
        {
            "positions": [
                0.12281154466712228,
                -1.13948474672311,
                1.97154746011099,
                -0.7804688027058302,
                0.12958655903071145,
                3.0906928834467795
            ]
        },
        {
            "positions": [
                0.05697746280887349,
                -1.1726677122916345,
                2.0360398961025874,
                -0.8169801814119996,
                0.28655672248673325,
                3.1051287746367024
            ]
        },
        {
            "positions": [
                -0.008856619049375306,
                -1.2058506778601592,
                2.1005323320941853,
                -0.8534915601181688,
                0.443526885942755,
                3.119564665826626
            ]
        },
        {
            "positions": [
                -0.0746907009076241,
                -1.2390336434286837,
                2.165024768085783,
                -0.8900029388243382,
                0.6004970493987769,
                3.134000557016549
            ]
        },
        {
            "positions": [
                -0.14052478276587288,
                -1.2722166089972085,
                2.2295172040773803,
                -0.9265143175305075,
                0.7574672128547987,
                3.1484364482064717
            ]
        },
        {
            "positions": [
                -0.20635886462412173,
                -1.305399574565733,
                2.2940096400689782,
                -0.9630256962366769,
                0.9144373763108206,
                3.1628723393963947
            ]
        },
        {
            "positions": [
                -0.27219294648237047,
                -1.3385825401342575,
                2.3585020760605757,
                -0.9995370749428462,
                1.0714075397668423,
                3.177308230586318
            ]
        },
        {
            "positions": [
                -0.3380270283406193,
                -1.3717655057027822,
                2.422994512052173,
                -1.0360484536490155,
                1.2283777032228642,
                3.191744121776241
            ]
        }
    ]
}{
    "goal": {
        "global_pose": {
            "orientation": {
                "w": 0.5084816217422485,
                "x": -0.49083608388900757,
                "y": 0.5182115435600281,
                "z": -0.4816462993621826
            },
            "position": {
                "x": 0.5540239810943604,
                "y": 0.030875300988554955,
                "z": 0.16403168439865112
            }
        },
        "name": "move_to_storage_A"
    },
    "id": "RRT_move_to_storage_A_123",
    "joint_names": [
        "shoulder_pan_joint",
        "shoulder_lift_joint",
        "elbow_joint",
        "wrist_1_joint",
        "wrist_2_joint",
        "wrist_3_joint"
    ],
    "metrics": {
        "cart_traj_len": 0.3534444284648319,
        "distance_elbow_joint": 0.45112096951046476,
        "distance_shoulder_lift_joint": 0.23245661870817202,
        "distance_shoulder_pan_joint": 0.4622866632556426,
        "distance_wrist_1_joint": 0.24980202830199927,
        "distance_wrist_2_joint": 1.098274767227617,
        "distance_wrist_3_joint": 0.08858610830173541,
        "smoothness": 4.440892098500626e-16,
        "time": 0.019000373,
        "traj_len": 1.6070243169615173,
        "weighted_distance": 2.026764951206409
    },
    "planner": "RRT",
    "start": {
        "state": {
            "elbow_joint": 1.9715472970024885,
            "shoulder_lift_joint": -1.1394870060712896,
            "shoulder_pan_joint": 0.12281152778156021,
            "wrist_1_joint": -0.780463741449964,
            "wrist_2_joint": 0.12958659822042276,
            "wrist_3_joint": 3.090690232415272
        }
    },
    "waypoints": [
        {
            "positions": [
                0.12281152778156021,
                -1.1394870060712896,
                1.9715472970024885,
                -0.780463741449964,
                0.12958659822042276,
                3.090690232415272
            ]
        },
        {
            "positions": [
                0.05677057588789698,
                -1.1726950944581713,
                2.035993149789698,
                -0.8161497454931067,
                0.28648299353865375,
                3.1033453907440913
            ]
        },
        {
            "positions": [
                -0.009270376005766245,
                -1.205903182845053,
                2.100439002576907,
                -0.8518357495362495,
                0.44337938885688477,
                3.1160005490729104
            ]
        },
        {
            "positions": [
                -0.07531132789942946,
                -1.2391112712319348,
                2.1648848553641162,
                -0.8875217535793922,
                0.6002757841751157,
                3.12865570740173
            ]
        },
        {
            "positions": [
                -0.1413522797930927,
                -1.2723193596188165,
                2.2293307081513256,
                -0.923207757622535,
                0.7571721794933467,
                3.1413108657305493
            ]
        },
        {
            "positions": [
                -0.20739323168675597,
                -1.3055274480056982,
                2.293776560938535,
                -0.9588937616656777,
                0.9140685748115778,
                3.1539660240593688
            ]
        },
        {
            "positions": [
                -0.27343418358041915,
                -1.33873553639258,
                2.358222413725744,
                -0.9945797657088205,
                1.0709649701298087,
                3.166621182388188
            ]
        },
        {
            "positions": [
                -0.33947513547408237,
                -1.3719436247794616,
                2.4226682665129533,
                -1.0302657697519633,
                1.2278613654480397,
                3.1792763407170073
            ]
        }
    ]
}