{
    "goal": {
        "global_pose": {
            "orientation": {
                "w": 0.005598929693374612,
                "x": 0.007748599140229565,
                "y": 0.7110244013736278,
                "z": -0.7031023480610252
            },
            "position": {
                "x": -0.8858502320852131,
                "y": -0.7141253447532654,
                "z": 0.3711530566215515
            }
        },
        "name": "move_to_auspresseinheit_C"
    },
    "id": "RRT_move_to_auspresseinheit_C_64",
    "joint_names": [
        "shoulder_pan_joint",
        "shoulder_lift_joint",
        "elbow_joint",
        "wrist_1_joint",
        "wrist_2_joint",
        "wrist_3_joint"
    ],
    "metrics": {
        "cart_traj_len": 0.49315742744565344,
        "distance_elbow_joint": 1.0081437573415897,
        "distance_shoulder_lift_joint": 0.32885483893993284,
        "distance_shoulder_pan_joint": 0.25568193247448834,
        "distance_wrist_1_joint": 0.694218642382061,
        "distance_wrist_2_joint": 1.314533100717194,
        "distance_wrist_3_joint": 0.06637675877436022,
        "smoothness": 4.844609600361787e-16,
        "time": 0.022543526,
        "traj_len": 1.9151524823443242,
        "weighted_distance": 2.410251914484791
    },
    "planner": "RRT",
    "start": {
        "state": {
            "elbow_joint": 1.7527959577737207,
            "shoulder_lift_joint": -0.9740617694225068,
            "shoulder_pan_joint": -2.967991417825858,
            "wrist_1_joint": -0.759517768980727,
            "wrist_2_joint": 1.7443932448377408,
            "wrist_3_joint": -3.0840537646736568
        }
    },
    "waypoints": [
        {
            "positions": [
                -2.967991417825858,
                -0.9740617694225068,
                1.7527959577737207,
                -0.759517768980727,
                1.7443932448377408,
                -3.0840537646736568
            ]
        },
        {
            "positions": [
                -2.942423224578409,
                -0.9411762855285135,
                1.6519815820395616,
                -0.6900959047425209,
                1.6129399347660214,
                -3.090691440551093
            ]
        },
        {
            "positions": [
                -2.9168550313309605,
                -0.9082908016345203,
                1.5511672063054027,
                -0.6206740405043147,
                1.481486624694302,
                -3.097329116428529
            ]
        },
        {
            "positions": [
                -2.8912868380835115,
                -0.8754053177405269,
                1.4503528305712439,
                -0.5512521762661087,
                1.3500333146225827,
                -3.1039667923059646
            ]
        },
        {
            "positions": [
                -2.8657186448360625,
                -0.8425198338465336,
                1.3495384548370848,
                -0.48183031202790255,
                1.218580004550863,
                -3.110604468183401
            ]
        },
        {
            "positions": [
                -2.840150451588614,
                -0.8096343499525404,
                1.2487240791029257,
                -0.4124084477896965,
                1.0871266944791438,
                -3.117242144060837
            ]
        },
        {
            "positions": [
                -2.814582258341165,
                -0.7767488660585471,
                1.1479097033687669,
                -0.3429865835514904,
                0.9556733844074244,
                -3.123879819938273
            ]
        },
        {
            "positions": [
                -2.789014065093716,
                -0.7438633821645538,
                1.047095327634608,
                -0.2735647193132843,
                0.824220074335705,
                -3.1305174958157087
            ]
        },
        {
            "positions": [
                -2.763445871846267,
                -0.7109778982705606,
                0.9462809519004489,
                -0.20414285507507812,
                0.6927667642639854,
                -3.137155171693145
            ]
        },
        {
            "positions": [
                -2.7378776785988186,
                -0.6780924143765672,
                0.84546657616629,
                -0.13472099083687206,
                0.5613134541922662,
                -3.143792847570581
            ]
        },
        {
            "positions": [
                -2.7123094853513696,
                -0.6452069304825739,
                0.744652200432131,
                -0.065299126598666,
                0.42986014412054663,
                -3.150430523448017
            ]
        }
    ]
}