{
    "goal": {
        "global_pose": {
            "orientation": {
                "w": 0.7047431493862688,
                "x": -0.7094548369677653,
                "y": 0.0024358444001904,
                "z": -0.0022348060817251984
            },
            "position": {
                "x": -0.39052492380142206,
                "y": 0.3671506643295288,
                "z": 0.19426114857196808
            }
        },
        "name": "move_to_magneteinheit_D"
    },
    "id": "RRT_move_to_magneteinheit_D_58",
    "joint_names": [
        "shoulder_pan_joint",
        "shoulder_lift_joint",
        "elbow_joint",
        "wrist_1_joint",
        "wrist_2_joint",
        "wrist_3_joint"
    ],
    "metrics": {
        "cart_traj_len": 4.442780173325777,
        "distance_elbow_joint": 3.573459301758243,
        "distance_shoulder_lift_joint": 1.6424043702619577,
        "distance_shoulder_pan_joint": 3.1013435366082267,
        "distance_wrist_1_joint": 2.4442919590868835,
        "distance_wrist_2_joint": 0.7042870808761491,
        "distance_wrist_3_joint": 3.1377604575657014,
        "smoothness": 0.30899295973087015,
        "time": 0.104439959,
        "traj_len": 3.8214587144383967,
        "weighted_distance": 4.901800348979098
    },
    "planner": "RRT",
    "start": {
        "state": {
            "elbow_joint": 0.749534889911806,
            "shoulder_lift_joint": -0.6476975780787326,
            "shoulder_pan_joint": -2.711696901376241,
            "wrist_1_joint": -0.07506478083263063,
            "wrist_2_joint": 0.43296659715538205,
            "wrist_3_joint": -3.14703540197715
        }
    },
    "waypoints": [
        {
            "positions": [
                -2.711696901376241,
                -0.6476975780787326,
                0.749534889911806,
                -0.07506478083263063,
                0.43296659715538205,
                -3.14703540197715
            ]
        },
        {
            "positions": [
                -2.7291544747459637,
                -0.7339514250102329,
                0.8222198239683017,
                -0.18135422380543859,
                0.4788370012214063,
                -3.139364583319696
            ]
        },
        {
            "positions": [
                -2.7466120481156864,
                -0.8202052719417331,
                0.8949047580247975,
                -0.28764366677824654,
                0.5247074052874307,
                -3.131693764662242
            ]
        },
        {
            "positions": [
                -2.764069621485409,
                -0.9064591188732334,
                0.9675896920812933,
                -0.3939331097510545,
                0.5705778093534549,
                -3.124022946004788
            ]
        },
        {
            "positions": [
                -2.7777051427694173,
                -0.9024926417436749,
                0.9321708518586642,
                -0.5006507354341074,
                0.62416369388102,
                -3.0259057886242333
            ]
        },
        {
            "positions": [
                -2.6695074895010142,
                -0.9365333506103601,
                0.8173387165699347,
                -0.475261413500936,
                0.6105461016133538,
                -2.9327233575715272
            ]
        },
        {
            "positions": [
                -2.5613098362326117,
                -0.9705740594770452,
                0.7025065812812052,
                -0.4498720915677645,
                0.5969285093456874,
                -2.8395409265188216
            ]
        },
        {
            "positions": [
                -2.4531121829642086,
                -1.0046147683437303,
                0.5876744459924759,
                -0.424482769634593,
                0.5833109170780211,
                -2.7463584954661155
            ]
        },
        {
            "positions": [
                -2.344914529695806,
                -1.0386554772104155,
                0.4728423107037463,
                -0.3990934477014215,
                0.5696933248103548,
                -2.6531760644134095
            ]
        },
        {
            "positions": [
                -2.236716876427403,
                -1.0726961860771007,
                0.3580101754150169,
                -0.3737041257682501,
                0.5560757325426886,
                -2.559993633360704
            ]
        },
        {
            "positions": [
                -2.1285192231590004,
                -1.106736894943786,
                0.2431780401262874,
                -0.3483148038350786,
                0.5424581402750223,
                -2.4668112023079978
            ]
        },
        {
            "positions": [
                -2.0203215698905974,
                -1.140777603810471,
                0.12834590483755803,
                -0.3229254819019072,
                0.5288405480073559,
                -2.3736287712552917
            ]
        },
        {
            "positions": [
                -1.9121239166221944,
                -1.1748183126771563,
                0.013513769548828436,
                -0.2975361599687356,
                0.5152229557396897,
                -2.280446340202586
            ]
        },
        {
            "positions": [
                -1.8039262633537918,
                -1.2088590215438413,
                -0.10131836573990083,
                -0.27214683803556416,
                0.5016053634720234,
                -2.18726390914988
            ]
        },
        {
            "positions": [
                -1.6957286100853888,
                -1.2428997304105265,
                -0.21615050102863043,
                -0.24675751610239272,
                0.4879877712043571,
                -2.094081478097174
            ]
        },
        {
            "positions": [
                -1.587530956816986,
                -1.2769404392772117,
                -0.3309826363173598,
                -0.22136819416922127,
                0.4743701789366908,
                -2.0008990470444683
            ]
        },
        {
            "positions": [
                -1.4793333035485832,
                -1.3109811481438969,
                -0.4458147716060894,
                -0.19597887223604976,
                0.4607525866690245,
                -1.9077166159917622
            ]
        },
        {
            "positions": [
                -1.3711356502801804,
                -1.345021857010582,
                -0.5606469068948188,
                -0.1705895503028783,
                0.44713499440135823,
                -1.8145341849390564
            ]
        },
        {
            "positions": [
                -1.2629379970117776,
                -1.379062565877267,
                -0.6754790421835482,
                -0.14520022836970686,
                0.43351740213369194,
                -1.7213517538863505
            ]
        },
        {
            "positions": [
                -1.1547403437433748,
                -1.4131032747439523,
                -0.7903111774722775,
                -0.11981090643653541,
                0.4198998098660257,
                -1.6281693228336447
            ]
        },
        {
            "positions": [
                -1.0465426904749717,
                -1.4471439836106375,
                -0.9051433127610073,
                -0.09442158450336385,
                0.40628221759835936,
                -1.5349868917809386
            ]
        },
        {
            "positions": [
                -0.9383450372065689,
                -1.4811846924773227,
                -1.0199754480497367,
                -0.0690322625701924,
                0.3926646253306931,
                -1.4418044607282328
            ]
        },
        {
            "positions": [
                -0.8301473839381661,
                -1.5152254013440078,
                -1.1348075833384659,
                -0.043642940637020955,
                0.3790470330630268,
                -1.348622029675527
            ]
        },
        {
            "positions": [
                -0.7219497306697633,
                -1.5492661102106928,
                -1.2496397186271953,
                -0.018253618703849506,
                0.3654294407953605,
                -1.255439598622821
            ]
        },
        {
            "positions": [
                -0.6137520774013603,
                -1.5833068190773782,
                -1.364471853915925,
                0.007135703229321999,
                0.3518118485276942,
                -1.1622571675701148
            ]
        },
        {
            "positions": [
                -0.5055544241329577,
                -1.6173475279440632,
                -1.4793039892046544,
                0.03252502516249345,
                0.3381942562600279,
                -1.069074736517409
            ]
        },
        {
            "positions": [
                -0.3973567708645547,
                -1.6513882368107482,
                -1.5941361244933838,
                0.0579143470956649,
                0.3245766639923616,
                -0.9758923054647033
            ]
        },
        {
            "positions": [
                -0.2891591175961521,
                -1.6854289456774336,
                -1.7089682597821132,
                0.08330366902883635,
                0.31095907172469534,
                -0.8827098744119972
            ]
        },
        {
            "positions": [
                -0.18096146432774907,
                -1.7194696545441186,
                -1.823800395070843,
                0.10869299096200791,
                0.29734147945702905,
                -0.7895274433592911
            ]
        },
        {
            "positions": [
                -0.07276381105934604,
                -1.753510363410804,
                -1.9386325303595724,
                0.13408231289517936,
                0.28372388718936276,
                -0.6963450123065855
            ]
        },
        {
            "positions": [
                0.0354338422090567,
                -1.787551072277489,
                -2.0534646656483018,
                0.15947163482835083,
                0.27010629492169647,
                -0.6031625812538794
            ]
        },
        {
            "positions": [
                0.02086518101215737,
                -1.832839217291738,
                -2.1003004546548842,
                0.3189332263890039,
                0.2517814726251253,
                -0.5347244252108949
            ]
        },
        {
            "positions": [
                0.006296519815258032,
                -1.8781273623059873,
                -2.147136243661467,
                0.4783948179496569,
                0.23345665032855412,
                -0.46628626916791033
            ]
        },
        {
            "positions": [
                -0.008272141381641306,
                -1.9234155073202364,
                -2.1939720326680496,
                0.63785640951031,
                0.21513182803198294,
                -0.39784811312492574
            ]
        },
        {
            "positions": [
                -0.02284080257854064,
                -1.9687036523344856,
                -2.240807821674632,
                0.797318001070963,
                0.19680700573541177,
                -0.3294099570819412
            ]
        },
        {
            "positions": [
                -0.03740946377543999,
                -2.013991797348735,
                -2.2876436106812146,
                0.956779592631616,
                0.1784821834388406,
                -0.2609718010389566
            ]
        },
        {
            "positions": [
                -0.051978124972339314,
                -2.0592799423629837,
                -2.3344793996877975,
                1.116241184192269,
                0.16015736114226942,
                -0.1925336449959721
            ]
        },
        {
            "positions": [
                -0.06654678616923865,
                -2.104568087377233,
                -2.38131518869438,
                1.2757027757529222,
                0.14183253884569824,
                -0.1240954889529875
            ]
        },
        {
            "positions": [
                -0.12665462709838005,
                -2.193368540729403,
                -2.378065379287839,
                1.3968790224021106,
                0.157211953403293,
                -0.0666852166822186
            ]
        },
        {
            "positions": [
                -0.18676246802752144,
                -2.2821689940815735,
                -2.3748155698812976,
                1.518055269051299,
                0.17259136796088775,
                -0.009274944411449732
            ]
        }
    ]
}