{
    "goal": {
        "global_pose": {
            "orientation": {
                "w": -0.00223480608172531,
                "x": 0.0024358444001904467,
                "y": 0.7094548369677653,
                "z": -0.704743149386269
            },
            "position": {
                "x": -0.37947507619857795,
                "y": -0.6371506643295288,
                "z": 0.19426114857196808
            }
        },
        "name": "move_to_magneteinheit_C"
    },
    "id": "RRT_move_to_magneteinheit_C_39",
    "joint_names": [
        "shoulder_pan_joint",
        "shoulder_lift_joint",
        "elbow_joint",
        "wrist_1_joint",
        "wrist_2_joint",
        "wrist_3_joint"
    ],
    "metrics": {
        "cart_traj_len": 0.612063048087359,
        "distance_elbow_joint": 0.30280511177900893,
        "distance_shoulder_lift_joint": 0.25396305039876577,
        "distance_shoulder_pan_joint": 0.8905069697951513,
        "distance_wrist_1_joint": 2.127906610820842,
        "distance_wrist_2_joint": 0.9847381634191273,
        "distance_wrist_3_joint": 0.20316444813676782,
        "smoothness": 1.4300227692398841,
        "time": 0.646260128,
        "traj_len": 2.1824491642074193,
        "weighted_distance": 2.877856498309665
    },
    "planner": "RRT",
    "start": {
        "state": {
            "elbow_joint": 1.9565354010623817,
            "shoulder_lift_joint": -1.4165861575791021,
            "shoulder_pan_joint": -1.6717766225146293,
            "wrist_1_joint": -0.5286633292919765,
            "wrist_2_joint": 1.472756589071564,
            "wrist_3_joint": -3.1238370188695823
        }
    },
    "waypoints": [
        {
            "positions": [
                -1.6717766225146293,
                -1.4165861575791021,
                1.9565354010623817,
                -0.5286633292919765,
                1.472756589071564,
                -3.1238370188695823
            ]
        },
        {
            "positions": [
                -1.763784736945172,
                -1.3988757427079033,
                1.9385708069413012,
                -0.3974871345324654,
                1.361880112076732,
                -3.1122820830705393
            ]
        },
        {
            "positions": [
                -1.8557928513757145,
                -1.3811653278367044,
                1.9206062128202206,
                -0.2663109397729544,
                1.2510036350819003,
                -3.1007271472714963
            ]
        },
        {
            "positions": [
                -1.9478009658062572,
                -1.3634549129655056,
                1.9026416186991402,
                -0.13513474501344336,
                1.1401271580870684,
                -3.0891722114724534
            ]
        },
        {
            "positions": [
                -2.0398090802368,
                -1.3457444980943065,
                1.8846770245780597,
                -0.003958550253932325,
                1.0292506810922366,
                -3.0776172756734104
            ]
        },
        {
            "positions": [
                -2.1318171946673425,
                -1.3280340832231077,
                1.8667124304569793,
                0.1272176445055787,
                0.9183742040974049,
                -3.0660623398743674
            ]
        },
        {
            "positions": [
                -2.223825309097885,
                -1.3103236683519088,
                1.8487478363358987,
                0.25839383926508974,
                0.8074977271025731,
                -3.0545074040753244
            ]
        },
        {
            "positions": [
                -2.3158334235284275,
                -1.29261325348071,
                1.8307832422148183,
                0.3895700340246008,
                0.6966212501077412,
                -3.0429524682762814
            ]
        },
        {
            "positions": [
                -2.383454653008145,
                -1.281363745965406,
                1.87714397337424,
                0.23448209736690917,
                0.6575710655394641,
                -3.0549123151405726
            ]
        },
        {
            "positions": [
                -2.451075882487862,
                -1.270114238450102,
                1.923504704533662,
                0.07939416070921756,
                0.6185208809711868,
                -3.0668721620048642
            ]
        },
        {
            "positions": [
                -2.518697111967579,
                -1.258864730934798,
                1.9698654356930838,
                -0.07569377594847404,
                0.5794706964029097,
                -3.0788320088691554
            ]
        },
        {
            "positions": [
                -2.504168285186845,
                -1.2267841896833107,
                1.9825223555108105,
                -0.32383025512553726,
                0.6099547866530675,
                -3.1076321278526864
            ]
        },
        {
            "positions": [
                -2.4896394584061117,
                -1.1947036484318236,
                1.9951792753285371,
                -0.5719667343026005,
                0.6404388769032251,
                -3.1364322468362174
            ]
        },
        {
            "positions": [
                -2.4751106316253777,
                -1.1626231071803363,
                2.0078361951462638,
                -0.8201032134796638,
                0.6709229671533828,
                -3.1652323658197483
            ]
        }
    ]
}