{
    "goal": {
        "global_pose": {
            "orientation": {
                "w": 0.7047431493862688,
                "x": -0.7094548369677653,
                "y": 0.0024358444001904,
                "z": -0.0022348060817251984
            },
            "position": {
                "x": -0.39052492380142206,
                "y": 0.3671506643295288,
                "z": 0.19426114857196808
            }
        },
        "name": "move_to_magneteinheit_D"
    },
    "id": "RRT_move_to_magneteinheit_D_99",
    "joint_names": [
        "shoulder_pan_joint",
        "shoulder_lift_joint",
        "elbow_joint",
        "wrist_1_joint",
        "wrist_2_joint",
        "wrist_3_joint"
    ],
    "metrics": {
        "cart_traj_len": 4.174860114184362,
        "distance_elbow_joint": 3.528319092938142,
        "distance_shoulder_lift_joint": 1.6337439868394987,
        "distance_shoulder_pan_joint": 3.3673198327442626,
        "distance_wrist_1_joint": 2.211032051605603,
        "distance_wrist_2_joint": 0.5331081580906609,
        "distance_wrist_3_joint": 3.5697657931766145,
        "smoothness": 0.6618599757643197,
        "time": 1.393002871,
        "traj_len": 3.8526989131509857,
        "weighted_distance": 4.9726211107869736
    },
    "planner": "RRT",
    "start": {
        "state": {
            "elbow_joint": 0.749534889911806,
            "shoulder_lift_joint": -0.6476975780787326,
            "shoulder_pan_joint": -2.711696901376241,
            "wrist_1_joint": -0.07506478083263063,
            "wrist_2_joint": 0.43296659715538205,
            "wrist_3_joint": -3.14703540197715
        }
    },
    "waypoints": [
        {
            "positions": [
                -2.711696901376241,
                -0.6476975780787326,
                0.749534889911806,
                -0.07506478083263063,
                0.43296659715538205,
                -3.14703540197715
            ]
        },
        {
            "positions": [
                -2.7014620045944016,
                -0.6675487458382017,
                0.7474796490365261,
                0.0028631651819571863,
                0.5033201541759729,
                -3.090202923175994
            ]
        },
        {
            "positions": [
                -2.691227107812562,
                -0.6873999135976708,
                0.7454244081612463,
                0.080791111196545,
                0.5736737111965636,
                -3.033370444374838
            ]
        },
        {
            "positions": [
                -2.7078950555000327,
                -0.7766090151365832,
                0.682145566609853,
                0.08906775658854012,
                0.5325495750395942,
                -2.9569246946560344
            ]
        },
        {
            "positions": [
                -2.724563003187504,
                -0.8658181166754956,
                0.6188667250584597,
                0.09734440198053523,
                0.4914254388826248,
                -2.880478944937231
            ]
        },
        {
            "positions": [
                -2.6176602904127613,
                -0.8825208015235126,
                0.5456750323137192,
                0.15954566071685322,
                0.48739089000060165,
                -2.7555484881097563
            ]
        },
        {
            "positions": [
                -2.510757577638018,
                -0.8992234863715296,
                0.4724833395689787,
                0.22174691945317124,
                0.4833563411185785,
                -2.630618031282282
            ]
        },
        {
            "positions": [
                -2.4038548648632756,
                -0.9159261712195466,
                0.3992916468242382,
                0.28394817818948925,
                0.47932179223655536,
                -2.5056875744548077
            ]
        },
        {
            "positions": [
                -2.2969521520885325,
                -0.9326288560675636,
                0.3260999540794976,
                0.34614943692580724,
                0.4752872433545322,
                -2.380757117627333
            ]
        },
        {
            "positions": [
                -2.19004943931379,
                -0.9493315409155807,
                0.25290826133475713,
                0.40835069566212523,
                0.47125269447250906,
                -2.255826660799859
            ]
        },
        {
            "positions": [
                -2.083146726539047,
                -0.9660342257635977,
                0.1797165685900166,
                0.4705519543984432,
                0.4672181455904859,
                -2.1308962039723847
            ]
        },
        {
            "positions": [
                -1.9762440137643043,
                -0.9827369106116146,
                0.10652487584527603,
                0.5327532131347612,
                0.46318359670846276,
                -2.00596574714491
            ]
        },
        {
            "positions": [
                -1.8693413009895612,
                -0.9994395954596317,
                0.03333318310053546,
                0.5949544718710793,
                0.4591490478264396,
                -1.881035290317436
            ]
        },
        {
            "positions": [
                -1.7624385882148186,
                -1.0161422803076487,
                -0.03985850964420501,
                0.6571557306073972,
                0.45511449894441647,
                -1.7561048334899616
            ]
        },
        {
            "positions": [
                -1.6555358754400757,
                -1.0328449651556657,
                -0.11305020238894548,
                0.7193569893437153,
                0.4510799500623933,
                -1.6311743766624873
            ]
        },
        {
            "positions": [
                -1.548633162665333,
                -1.0495476500036827,
                -0.18624189513368605,
                0.7815582480800332,
                0.44704540118037017,
                -1.506243919835013
            ]
        },
        {
            "positions": [
                -1.4417304498905903,
                -1.0662503348516996,
                -0.2594335878784265,
                0.8437595068163513,
                0.443010852298347,
                -1.3813134630075388
            ]
        },
        {
            "positions": [
                -1.3348277371158472,
                -1.0829530196997168,
                -0.3326252806231672,
                0.9059607655526694,
                0.4389763034163238,
                -1.2563830061800643
            ]
        },
        {
            "positions": [
                -1.2279250243411044,
                -1.0996557045477338,
                -0.4058169733679077,
                0.9681620242889872,
                0.4349417545343007,
                -1.13145254935259
            ]
        },
        {
            "positions": [
                -1.1210223115663618,
                -1.1163583893957507,
                -0.47900866611264814,
                1.030363283025305,
                0.4309072056522775,
                -1.006522092525116
            ]
        },
        {
            "positions": [
                -1.0141195987916187,
                -1.1330610742437677,
                -0.5522003588573888,
                1.0925645417616232,
                0.4268726567702544,
                -0.8815916356976412
            ]
        },
        {
            "positions": [
                -0.9072168860168761,
                -1.1497637590917849,
                -0.6253920516021291,
                1.154765800497941,
                0.42283810788823123,
                -0.7566611788701669
            ]
        },
        {
            "positions": [
                -0.800314173242133,
                -1.1664664439398018,
                -0.6985837443468698,
                1.2169670592342592,
                0.4188035590062081,
                -0.6317307220426924
            ]
        },
        {
            "positions": [
                -0.6934114604673902,
                -1.1831691287878188,
                -0.7717754370916102,
                1.279168317970577,
                0.41476901012418493,
                -0.5068002652152184
            ]
        },
        {
            "positions": [
                -0.5865087476926476,
                -1.199871813635836,
                -0.8449671298363507,
                1.3413695767068952,
                0.4107344612421618,
                -0.38186980838774387
            ]
        },
        {
            "positions": [
                -0.47960603491790454,
                -1.216574498483853,
                -0.9181588225810914,
                1.4035708354432133,
                0.40669991236013864,
                -0.25693935156026937
            ]
        },
        {
            "positions": [
                -0.37270332214316176,
                -1.2332771833318699,
                -0.991350515325832,
                1.4657720941795311,
                0.4026653634781155,
                -0.13200889473279548
            ]
        },
        {
            "positions": [
                -0.3152355726478014,
                -1.3190470594639763,
                -1.1497535884710741,
                1.4354629498922362,
                0.39021977819382925,
                -0.1535271883107343
            ]
        },
        {
            "positions": [
                -0.25776782315244107,
                -1.4048169355960827,
                -1.3081566616163165,
                1.405153805604941,
                0.37777419290954295,
                -0.17504548188867317
            ]
        },
        {
            "positions": [
                -0.20030007365708072,
                -1.490586811728189,
                -1.4665597347615587,
                1.374844661317646,
                0.3653286076252567,
                -0.196563775466612
            ]
        },
        {
            "positions": [
                -0.14283232416172034,
                -1.5763566878602957,
                -1.624962807906801,
                1.344535517030351,
                0.3528830223409704,
                -0.21808206904455085
            ]
        },
        {
            "positions": [
                -0.08536457466636,
                -1.662126563992402,
                -1.7833658810520432,
                1.314226372743056,
                0.34043743705668417,
                -0.23960036262248968
            ]
        },
        {
            "positions": [
                -0.027896825170999673,
                -1.7478964401245085,
                -1.9417689541972853,
                1.283917228455761,
                0.3279918517723979,
                -0.2611186562004285
            ]
        },
        {
            "positions": [
                0.029570924324360703,
                -1.833666316256615,
                -2.1001720273425275,
                1.2536080841684658,
                0.3155462664881116,
                -0.28263694977836734
            ]
        },
        {
            "positions": [
                0.08703867381972108,
                -1.9194361923887215,
                -2.25857510048777,
                1.2232989398811709,
                0.3031006812038254,
                -0.3041552433563062
            ]
        },
        {
            "positions": [
                0.1445064233150814,
                -2.005206068520828,
                -2.4169781736330123,
                1.192989795593876,
                0.2906550959195391,
                -0.32567353693424506
            ]
        },
        {
            "positions": [
                0.20197417281044172,
                -2.0909759446529343,
                -2.5753812467782544,
                1.1626806513065808,
                0.27820951063525284,
                -0.3471918305121839
            ]
        },
        {
            "positions": [
                0.10522993085851767,
                -2.1385923497192585,
                -2.524530507716234,
                1.2544565847367035,
                0.2539752997632107,
                -0.26230274297396566
            ]
        },
        {
            "positions": [
                0.008485688906593625,
                -2.186208754785583,
                -2.473679768654214,
                1.3462325181668262,
                0.2297410888911686,
                -0.17741365543574744
            ]
        },
        {
            "positions": [
                -0.08825855304533042,
                -2.233825159851907,
                -2.4228290295921937,
                1.438008451596949,
                0.20550687801912648,
                -0.09252456789752922
            ]
        },
        {
            "positions": [
                -0.18500279499725447,
                -2.2814415649182314,
                -2.371978290530173,
                1.5297843850270716,
                0.18127266714708434,
                -0.007635480359311008
            ]
        }
    ]
}