{
    "goal": {
        "global_pose": {
            "orientation": {
                "w": 0.5084816217422485,
                "x": -0.49083608388900757,
                "y": 0.5182115435600281,
                "z": -0.4816462993621826
            },
            "position": {
                "x": 0.5540239810943604,
                "y": 0.030875300988554955,
                "z": 0.16403168439865112
            }
        },
        "name": "move_to_storage_A"
    },
    "id": "RRT_move_to_storage_A_22",
    "joint_names": [
        "shoulder_pan_joint",
        "shoulder_lift_joint",
        "elbow_joint",
        "wrist_1_joint",
        "wrist_2_joint",
        "wrist_3_joint"
    ],
    "metrics": {
        "cart_traj_len": 0.35312805176570217,
        "distance_elbow_joint": 0.45104682902955484,
        "distance_shoulder_lift_joint": 0.23623407867903667,
        "distance_shoulder_pan_joint": 0.4635427287125418,
        "distance_wrist_1_joint": 0.24269322388014503,
        "distance_wrist_2_joint": 1.092431421415429,
        "distance_wrist_3_joint": 0.09117818145354528,
        "smoothness": 0.0,
        "time": 0.013858305000000001,
        "traj_len": 1.6053430982722205,
        "weighted_distance": 2.0235136449683053
    },
    "planner": "RRT",
    "start": {
        "state": {
            "elbow_joint": 1.971548259319323,
            "shoulder_lift_joint": -1.1394851275133948,
            "shoulder_pan_joint": 0.1228115487234821,
            "wrist_1_joint": -0.7804723859257726,
            "wrist_2_joint": 0.12958671773740124,
            "wrist_3_joint": -3.192489227718131
        }
    },
    "waypoints": [
        {
            "positions": [
                0.1228115487234821,
                -1.1394851275133948,
                1.971548259319323,
                -0.7804723859257726,
                0.12958671773740124,
                -3.192489227718131
            ]
        },
        {
            "positions": [
                0.056591158907404696,
                -1.1732328530389715,
                2.0359835206092596,
                -0.8151428464800791,
                0.2856483493681768,
                -3.1794637732247675
            ]
        },
        {
            "positions": [
                -0.009629230908672709,
                -1.2069805785645482,
                2.100418781899196,
                -0.8498133070343855,
                0.4417099809989523,
                -3.166438318731404
            ]
        },
        {
            "positions": [
                -0.0758496207247501,
                -1.240728304090125,
                2.1648540431891323,
                -0.8844837675886918,
                0.5977716126297279,
                -3.15341286423804
            ]
        },
        {
            "positions": [
                -0.14207001054082752,
                -1.2744760296157014,
                2.2292893044790687,
                -0.9191542281429983,
                0.7538332442605035,
                -3.140387409744677
            ]
        },
        {
            "positions": [
                -0.20829040035690494,
                -1.308223755141278,
                2.293724565769005,
                -0.9538246886973047,
                0.909894875891279,
                -3.127361955251313
            ]
        },
        {
            "positions": [
                -0.2745107901729823,
                -1.3419714806668548,
                2.3581598270589414,
                -0.9884951492516112,
                1.0659565075220545,
                -3.1143365007579495
            ]
        },
        {
            "positions": [
                -0.3407311799890597,
                -1.3757192061924315,
                2.422595088348878,
                -1.0231656098059176,
                1.2220181391528302,
                -3.101311046264586
            ]
        }
    ]
}{
    "goal": {
        "global_pose": {
            "orientation": {
                "w": 0.5084816217422485,
                "x": -0.49083608388900757,
                "y": 0.5182115435600281,
                "z": -0.4816462993621826
            },
            "position": {
                "x": 0.5540239810943604,
                "y": 0.030875300988554955,
                "z": 0.16403168439865112
            }
        },
        "name": "move_to_storage_A"
    },
    "id": "RRT_move_to_storage_A_22",
    "joint_names": [
        "shoulder_pan_joint",
        "shoulder_lift_joint",
        "elbow_joint",
        "wrist_1_joint",
        "wrist_2_joint",
        "wrist_3_joint"
    ],
    "metrics": {
        "cart_traj_len": 0.35381865165173904,
        "distance_elbow_joint": 0.45054999726961453,
        "distance_shoulder_lift_joint": 0.2346496679974126,
        "distance_shoulder_pan_joint": 0.46531955307090683,
        "distance_wrist_1_joint": 0.24378494763391534,
        "distance_wrist_2_joint": 1.089034905099212,
        "distance_wrist_3_joint": 0.1016696522935967,
        "smoothness": 5.551115138160447e-16,
        "time": 0.015920964000000003,
        "traj_len": 1.607796231916426,
        "weighted_distance": 2.030065979392044
    },
    "planner": "RRT",
    "start": {
        "state": {
            "elbow_joint": 1.97154746011099,
            "shoulder_lift_joint": -1.13948474672311,
            "shoulder_pan_joint": 0.12281154466712228,
            "wrist_1_joint": -0.7804688027058302,
            "wrist_2_joint": 0.12958655903071145,
            "wrist_3_joint": 3.0906928834467795
        }
    },
    "waypoints": [
        {
            "positions": [
                0.12281154466712228,
                -1.13948474672311,
                1.97154746011099,
                -0.7804688027058302,
                0.12958655903071145,
                3.0906928834467795
            ]
        },
        {
            "positions": [
                0.056337322799849876,
                -1.1730061278655974,
                2.0359117454352207,
                -0.8152952237963895,
                0.2851629740448846,
                3.1052171194887217
            ]
        },
        {
            "positions": [
                -0.01013689906742253,
                -1.206527509008085,
                2.100276030759451,
                -0.8501216448869489,
                0.44073938905905774,
                3.1197413555306643
            ]
        },
        {
            "positions": [
                -0.07661112093469492,
                -1.2400488901505724,
                2.164640316083682,
                -0.8849480659775082,
                0.5963158040732309,
                3.1342655915726065
            ]
        },
        {
            "positions": [
                -0.14308534280196733,
                -1.2735702712930599,
                2.2290046014079126,
                -0.9197744870680675,
                0.7518922190874041,
                3.148789827614549
            ]
        },
        {
            "positions": [
                -0.20955956466923975,
                -1.3070916524355476,
                2.2933688867321433,
                -0.9546009081586269,
                0.9074686341015773,
                3.1633140636564914
            ]
        },
        {
            "positions": [
                -0.2760337865365121,
                -1.340613033578035,
                2.3577331720563737,
                -0.9894273292491862,
                1.0630450491157504,
                3.177838299698434
            ]
        },
        {
            "positions": [
                -0.34250800840378454,
                -1.3741344147205226,
                2.4220974573806044,
                -1.0242537503397455,
                1.2186214641299236,
                3.192362535740376
            ]
        }
    ]
}{
    "goal": {
        "global_pose": {
            "orientation": {
                "w": 0.5084816217422485,
                "x": -0.49083608388900757,
                "y": 0.5182115435600281,
                "z": -0.4816462993621826
            },
            "position": {
                "x": 0.5540239810943604,
                "y": 0.030875300988554955,
                "z": 0.16403168439865112
            }
        },
        "name": "move_to_storage_A"
    },
    "id": "RRT_move_to_storage_A_22",
    "joint_names": [
        "shoulder_pan_joint",
        "shoulder_lift_joint",
        "elbow_joint",
        "wrist_1_joint",
        "wrist_2_joint",
        "wrist_3_joint"
    ],
    "metrics": {
        "cart_traj_len": 0.3526775196402768,
        "distance_elbow_joint": 0.452321876283464,
        "distance_shoulder_lift_joint": 0.2328126987950767,
        "distance_shoulder_pan_joint": 0.4595419229314526,
        "distance_wrist_1_joint": 0.258585074926994,
        "distance_wrist_2_joint": 1.1042426197520165,
        "distance_wrist_3_joint": 0.1050041292660513,
        "smoothness": 0.0,
        "time": 0.018957198999999997,
        "traj_len": 1.6163255618702115,
        "weighted_distance": 2.045811397750577
    },
    "planner": "RRT",
    "start": {
        "state": {
            "elbow_joint": 1.9715472970024885,
            "shoulder_lift_joint": -1.1394870060712896,
            "shoulder_pan_joint": 0.12281152778156021,
            "wrist_1_joint": -0.780463741449964,
            "wrist_2_joint": 0.12958659822042276,
            "wrist_3_joint": 3.090690232415272
        }
    },
    "waypoints": [
        {
            "positions": [
                0.12281152778156021,
                -1.1394870060712896,
                1.9715472970024885,
                -0.780463741449964,
                0.12958659822042276,
                3.090690232415272
            ]
        },
        {
            "positions": [
                0.057162681648495556,
                -1.172745963042015,
                2.0361647079001264,
                -0.8174044664395346,
                0.2873355438992823,
                3.105690822310422
            ]
        },
        {
            "positions": [
                -0.008486164484569098,
                -1.20600492001274,
                2.1007821187977638,
                -0.8543451914291051,
                0.44508448957814173,
                3.1206914122055722
            ]
        },
        {
            "positions": [
                -0.07413501061763375,
                -1.2392638769834654,
                2.1653995296954016,
                -0.8912859164186757,
                0.6028334352570013,
                3.1356920021007224
            ]
        },
        {
            "positions": [
                -0.1397838567506984,
                -1.2725228339541905,
                2.2300169405930395,
                -0.9282266414082463,
                0.7605823809358607,
                3.1506925919958726
            ]
        },
        {
            "positions": [
                -0.20543270288376306,
                -1.3057817909249159,
                2.2946343514906773,
                -0.9651673663978169,
                0.9183313266147203,
                3.1656931818910228
            ]
        },
        {
            "positions": [
                -0.2710815490168277,
                -1.339040747895641,
                2.3592517623883147,
                -1.0021080913873874,
                1.0760802722935798,
                3.180693771786173
            ]
        },
        {
            "positions": [
                -0.33673039514989234,
                -1.3722997048663663,
                2.4238691732859525,
                -1.039048816376958,
                1.2338292179724393,
                3.195694361681323
            ]
        }
    ]
}