{
    "goal": {
        "global_pose": {
            "orientation": {
                "w": 0.7047431468963623,
                "x": -0.7094548344612122,
                "y": 0.0024358443915843964,
                "z": -0.0022348060738295317
            },
            "position": {
                "x": 0.6094750761985779,
                "y": 0.3671506643295288,
                "z": 0.19426114857196808
            }
        },
        "name": "move_to_magneteinheit_A"
    },
    "id": "RRT_move_to_magneteinheit_A_125",
    "joint_names": [
        "shoulder_pan_joint",
        "shoulder_lift_joint",
        "elbow_joint",
        "wrist_1_joint",
        "wrist_2_joint",
        "wrist_3_joint"
    ],
    "metrics": {
        "cart_traj_len": 3.6398524750605854,
        "distance_elbow_joint": 3.9113769451357,
        "distance_shoulder_lift_joint": 0.7360667931891471,
        "distance_shoulder_pan_joint": 3.5482960539441697,
        "distance_wrist_1_joint": 0.6857281670533195,
        "distance_wrist_2_joint": 2.6621363986012705,
        "distance_wrist_3_joint": 3.556395992428269,
        "smoothness": 0.3638147856917415,
        "time": 0.17034711,
        "traj_len": 3.885871890625304,
        "weighted_distance": 5.055754829979694
    },
    "planner": "RRT",
    "start": {
        "state": {
            "elbow_joint": -1.9196185241190666,
            "shoulder_lift_joint": -1.2443396400964142,
            "shoulder_pan_joint": 2.6996025414629847,
            "wrist_1_joint": -1.5485510000780065,
            "wrist_2_joint": -1.5709468930060704,
            "wrist_3_joint": 0.4420197071253992
        }
    },
    "waypoints": [
        {
            "positions": [
                2.6996025414629847,
                -1.2443396400964142,
                -1.9196185241190666,
                -1.5485510000780065,
                -1.5709468930060704,
                0.4420197071253992
            ]
        },
        {
            "positions": [
                2.606792437811359,
                -1.2540557898139955,
                -1.8136759983709405,
                -1.5293976526143458,
                -1.5047292226086162,
                0.34268301889838876
            ]
        },
        {
            "positions": [
                2.513982334159734,
                -1.2637719395315767,
                -1.7077334726228142,
                -1.510244305150685,
                -1.4385115522111618,
                0.24334633067137837
            ]
        },
        {
            "positions": [
                2.4211722305081085,
                -1.273488089249158,
                -1.601790946874688,
                -1.4910909576870242,
                -1.3722938818137076,
                0.14400964244436798
            ]
        },
        {
            "positions": [
                2.328362126856483,
                -1.2832042389667393,
                -1.495848421126562,
                -1.4719376102233634,
                -1.3060762114162534,
                0.04467295421735756
            ]
        },
        {
            "positions": [
                2.235552023204858,
                -1.2929203886843208,
                -1.3899058953784356,
                -1.4527842627597027,
                -1.2398585410187992,
                -0.0546637340096528
            ]
        },
        {
            "positions": [
                2.1427419195532322,
                -1.302636538401902,
                -1.2839633696303094,
                -1.433630915296042,
                -1.173640870621345,
                -0.15400042223666321
            ]
        },
        {
            "positions": [
                2.049931815901607,
                -1.3123526881194834,
                -1.1780208438821833,
                -1.4144775678323813,
                -1.1074232002238906,
                -0.2533371104636736
            ]
        },
        {
            "positions": [
                1.9571217122499815,
                -1.3220688378370646,
                -1.0720783181340572,
                -1.3953242203687204,
                -1.0412055298264364,
                -0.35267379869068405
            ]
        },
        {
            "positions": [
                1.8643116085983564,
                -1.331784987554646,
                -0.966135792385931,
                -1.3761708729050597,
                -0.9749878594289824,
                -0.4520104869176943
            ]
        },
        {
            "positions": [
                1.7715015049467309,
                -1.3415011372722272,
                -0.8601932666378047,
                -1.357017525441399,
                -0.9087701890315281,
                -0.5513471751447048
            ]
        },
        {
            "positions": [
                1.6786914012951055,
                -1.3512172869898085,
                -0.7542507408896786,
                -1.3378641779777383,
                -0.8425525186340739,
                -0.650683863371715
            ]
        },
        {
            "positions": [
                1.58588129764348,
                -1.36093343670739,
                -0.6483082151415522,
                -1.3187108305140773,
                -0.7763348482366196,
                -0.7500205515987256
            ]
        },
        {
            "positions": [
                1.4930711939918546,
                -1.370649586424971,
                -0.5423656893934261,
                -1.2995574830504166,
                -0.7101171778391654,
                -0.849357239825736
            ]
        },
        {
            "positions": [
                1.4002610903402293,
                -1.3803657361425525,
                -0.4364231636453,
                -1.280404135586756,
                -0.6438995074417111,
                -0.9486939280527463
            ]
        },
        {
            "positions": [
                1.307450986688604,
                -1.3900818858601338,
                -0.33048063789717386,
                -1.2612507881230952,
                -0.5776818370442569,
                -1.0480306162797568
            ]
        },
        {
            "positions": [
                1.2146408830369784,
                -1.399798035577715,
                -0.2245381121490475,
                -1.2420974406594345,
                -0.5114641666468025,
                -1.1473673045067674
            ]
        },
        {
            "positions": [
                1.1218307793853532,
                -1.4095141852952964,
                -0.11859558640092138,
                -1.2229440931957738,
                -0.44524649624934853,
                -1.2467039927337775
            ]
        },
        {
            "positions": [
                1.029020675733728,
                -1.4192303350128777,
                -0.012653060652795256,
                -1.2037907457321129,
                -0.37902882585189435,
                -1.3460406809607877
            ]
        },
        {
            "positions": [
                0.9362105720821021,
                -1.428946484730459,
                0.09328946509533109,
                -1.1846373982684522,
                -0.31281115545443994,
                -1.4453773691877987
            ]
        },
        {
            "positions": [
                0.843400468430477,
                -1.4386626344480402,
                0.19923199084345722,
                -1.1654840508047914,
                -0.24659348505698575,
                -1.5447140574148088
            ]
        },
        {
            "positions": [
                0.7505903647788517,
                -1.4483787841656217,
                0.30517451659158334,
                -1.1463307033411305,
                -0.18037581465953156,
                -1.644050745641819
            ]
        },
        {
            "positions": [
                0.6577802611272263,
                -1.458094933883203,
                0.41111704233970947,
                -1.1271773558774698,
                -0.11415814426207738,
                -1.743387433868829
            ]
        },
        {
            "positions": [
                0.5649701574756008,
                -1.4678110836007843,
                0.517059568087836,
                -1.108024008413809,
                -0.04794047386462297,
                -1.8427241220958401
            ]
        },
        {
            "positions": [
                0.4721600538239752,
                -1.4775272333183656,
                0.6230020938359622,
                -1.0888706609501484,
                0.01827719653283122,
                -1.9420608103228503
            ]
        },
        {
            "positions": [
                0.37934995017235007,
                -1.4872433830359468,
                0.7289446195840883,
                -1.0697173134864877,
                0.0844948669302854,
                -2.0413974985498604
            ]
        },
        {
            "positions": [
                0.2865398465207245,
                -1.496959532753528,
                0.8348871453322144,
                -1.050563966022827,
                0.1507125373277396,
                -2.140734186776871
            ]
        },
        {
            "positions": [
                0.19372974286909894,
                -1.5066756824711094,
                0.9408296710803405,
                -1.031410618559166,
                0.216930207725194,
                -2.2400708750038816
            ]
        },
        {
            "positions": [
                0.10091963921747382,
                -1.516391832188691,
                1.0467721968284667,
                -1.0122572710955053,
                0.2831478781226482,
                -2.3394075632308917
            ]
        },
        {
            "positions": [
                0.008109535565848258,
                -1.526107981906272,
                1.1527147225765928,
                -0.9931039236318446,
                0.3493655485201024,
                -2.4387442514579023
            ]
        },
        {
            "positions": [
                -0.08470056808577686,
                -1.5358241316238535,
                1.258657248324719,
                -0.9739505761681838,
                0.41558321891755656,
                -2.5380809396849124
            ]
        },
        {
            "positions": [
                -0.17751067173740243,
                -1.5455402813414347,
                1.3645997740728455,
                -0.9547972287045231,
                0.48180088931501097,
                -2.637417627911923
            ]
        },
        {
            "positions": [
                -0.270320775389028,
                -1.555256431059016,
                1.4705422998209716,
                -0.9356438812408623,
                0.5480185597124654,
                -2.7367543161389336
            ]
        },
        {
            "positions": [
                -0.3631308790406532,
                -1.5649725807765973,
                1.5764848255690977,
                -0.9164905337772016,
                0.6142362301099192,
                -2.8360910043659437
            ]
        },
        {
            "positions": [
                -0.28220377346723124,
                -1.4957336053584367,
                1.6456970914770204,
                -0.9075459169851158,
                0.5347440175290391,
                -2.882471884522098
            ]
        },
        {
            "positions": [
                -0.20127666789380932,
                -1.4264946299402759,
                1.714909357384943,
                -0.8986013001930301,
                0.45525180494815903,
                -2.9288527646782523
            ]
        },
        {
            "positions": [
                -0.12034956232038738,
                -1.3572556545221153,
                1.7841216232928656,
                -0.8896566834009443,
                0.3757595923672789,
                -2.9752336448344066
            ]
        },
        {
            "positions": [
                -0.03942245674696543,
                -1.2880166791039547,
                1.8533338892007882,
                -0.8807120666088585,
                0.29626737978639883,
                -3.0216145249905613
            ]
        },
        {
            "positions": [
                0.04150464882645655,
                -1.2187777036857939,
                1.922546155108711,
                -0.8717674498167728,
                0.21677516720551865,
                -3.0679954051467155
            ]
        },
        {
            "positions": [
                0.12243175439987848,
                -1.1495387282676333,
                1.9917584210166337,
                -0.862822833024687,
                0.13728295462463858,
                -3.11437628530287
            ]
        }
    ]
}