{
    "goal": {
        "global_pose": {
            "orientation": {
                "w": 0.7047431493862688,
                "x": -0.7094548369677653,
                "y": 0.0024358444001904,
                "z": -0.0022348060817251984
            },
            "position": {
                "x": -0.39052492380142206,
                "y": 0.3671506643295288,
                "z": 0.19426114857196808
            }
        },
        "name": "move_to_magneteinheit_D"
    },
    "id": "RRT_move_to_magneteinheit_D_6",
    "joint_names": [
        "shoulder_pan_joint",
        "shoulder_lift_joint",
        "elbow_joint",
        "wrist_1_joint",
        "wrist_2_joint",
        "wrist_3_joint"
    ],
    "metrics": {
        "cart_traj_len": 6.896887508932858,
        "distance_elbow_joint": 5.7898966547465935,
        "distance_shoulder_lift_joint": 2.469110916834542,
        "distance_shoulder_pan_joint": 8.584745917555935,
        "distance_wrist_1_joint": 7.986513106308154,
        "distance_wrist_2_joint": 4.858056530735193,
        "distance_wrist_3_joint": 3.244520640660213,
        "smoothness": 0.36978671117687867,
        "time": 0.194186999,
        "traj_len": 5.7387144698826615,
        "weighted_distance": 7.2295542521793426
    },
    "planner": "RRT",
    "start": {
        "state": {
            "elbow_joint": 0.749534889911806,
            "shoulder_lift_joint": -0.6476975780787326,
            "shoulder_pan_joint": -2.711696901376241,
            "wrist_1_joint": -0.07506478083263063,
            "wrist_2_joint": 0.43296659715538205,
            "wrist_3_joint": -3.14703540197715
        }
    },
    "waypoints": [
        {
            "positions": [
                -2.711696901376241,
                -0.6476975780787326,
                0.749534889911806,
                -0.07506478083263063,
                0.43296659715538205,
                -3.14703540197715
            ]
        },
        {
            "positions": [
                -2.727455071174372,
                -0.7065669158291071,
                0.9085973486847525,
                -0.12652249940267812,
                0.4474898915213595,
                -3.0906363942270816
            ]
        },
        {
            "positions": [
                -2.743213240972503,
                -0.7654362535794816,
                1.067659807457699,
                -0.17798021797272562,
                0.4620131858873369,
                -3.034237386477013
            ]
        },
        {
            "positions": [
                -2.758971410770634,
                -0.8243055913298561,
                1.2267222662306456,
                -0.22943793654277309,
                0.47653648025331435,
                -2.9778383787269442
            ]
        },
        {
            "positions": [
                -2.774729580568765,
                -0.8831749290802307,
                1.3857847250035924,
                -0.28089565511282055,
                0.49105977461929173,
                -2.921439370976876
            ]
        },
        {
            "positions": [
                -2.790487750366896,
                -0.9420442668306052,
                1.5448471837765387,
                -0.33235337368286805,
                0.5055830689852692,
                -2.8650403632268073
            ]
        },
        {
            "positions": [
                -2.8062459201650265,
                -1.0009136045809797,
                1.7039096425494855,
                -0.38381109225291554,
                0.5201063633512466,
                -2.8086413554767384
            ]
        },
        {
            "positions": [
                -2.8220040899631575,
                -1.059782942331354,
                1.862972101322432,
                -0.43526881082296304,
                0.534629657717224,
                -2.75224234772667
            ]
        },
        {
            "positions": [
                -2.8377622597612886,
                -1.1186522800817287,
                2.0220345600953786,
                -0.48672652939301053,
                0.5491529520832015,
                -2.6958433399766015
            ]
        },
        {
            "positions": [
                -2.7896507960408625,
                -1.1360714113918653,
                2.025734891175048,
                -0.5964901602326645,
                0.6456632752367787,
                -2.5820970258526104
            ]
        },
        {
            "positions": [
                -2.741539332320436,
                -1.153490542702002,
                2.029435222254717,
                -0.7062537910723186,
                0.7421735983903559,
                -2.4683507117286188
            ]
        },
        {
            "positions": [
                -2.69342786860001,
                -1.1709096740121383,
                2.0331355533343864,
                -0.8160174219119727,
                0.8386839215439331,
                -2.3546043976046276
            ]
        },
        {
            "positions": [
                -2.645316404879584,
                -1.188328805322275,
                2.0368358844140557,
                -0.9257810527516267,
                0.9351942446975103,
                -2.2408580834806364
            ]
        },
        {
            "positions": [
                -2.5972049411591573,
                -1.2057479366324115,
                2.040536215493725,
                -1.0355446835912807,
                1.0317045678510874,
                -2.127111769356645
            ]
        },
        {
            "positions": [
                -2.5490934774387313,
                -1.2231670679425481,
                2.0442365465733943,
                -1.1453083144309346,
                1.1282148910046648,
                -2.0133654552326536
            ]
        },
        {
            "positions": [
                -2.500982013718305,
                -1.2405861992526845,
                2.0479368776530635,
                -1.255071945270589,
                1.224725214158242,
                -1.8996191411086623
            ]
        },
        {
            "positions": [
                -2.4528705499978787,
                -1.2580053305628212,
                2.051637208732733,
                -1.3648355761102429,
                1.3212355373118192,
                -1.7858728269846709
            ]
        },
        {
            "positions": [
                -2.4047590862774526,
                -1.2754244618729578,
                2.055337539812402,
                -1.474599206949897,
                1.4177458604653965,
                -1.6721265128606795
            ]
        },
        {
            "positions": [
                -2.356647622557026,
                -1.2928435931830944,
                2.0590378708920714,
                -1.5843628377895511,
                1.5142561836189736,
                -1.5583801987366883
            ]
        },
        {
            "positions": [
                -2.3085361588366,
                -1.310262724493231,
                2.0627382019717406,
                -1.694126468629205,
                1.6107665067725507,
                -1.444633884612697
            ]
        },
        {
            "positions": [
                -2.260424695116174,
                -1.3276818558033674,
                2.06643853305141,
                -1.803890099468859,
                1.707276829926128,
                -1.3308875704887058
            ]
        },
        {
            "positions": [
                -2.2123132313957474,
                -1.345100987113504,
                2.070138864131079,
                -1.9136537303085133,
                1.8037871530797054,
                -1.2171412563647142
            ]
        },
        {
            "positions": [
                -2.1642017676753214,
                -1.3625201184236406,
                2.0738391952107484,
                -2.023417361148167,
                1.9002974762332825,
                -1.103394942240723
            ]
        },
        {
            "positions": [
                -2.0728747439404884,
                -1.3767319864744478,
                1.9813545460838762,
                -1.9554814923526083,
                1.8762227462191639,
                -1.032870810389491
            ]
        },
        {
            "positions": [
                -1.981547720205656,
                -1.3909438545252553,
                1.8888698969570037,
                -1.8875456235570494,
                1.8521480162050454,
                -0.9623466785382593
            ]
        },
        {
            "positions": [
                -1.8902206964708232,
                -1.4051557225760625,
                1.7963852478301314,
                -1.8196097547614904,
                1.8280732861909268,
                -0.8918225466870274
            ]
        },
        {
            "positions": [
                -1.7988936727359905,
                -1.4193675906268697,
                1.703900598703259,
                -1.7516738859659315,
                1.8039985561768084,
                -0.8212984148357956
            ]
        },
        {
            "positions": [
                -1.7075666490011576,
                -1.4335794586776769,
                1.6114159495763867,
                -1.6837380171703726,
                1.7799238261626897,
                -0.7507742829845636
            ]
        },
        {
            "positions": [
                -1.6162396252663251,
                -1.4477913267284843,
                1.5189313004495144,
                -1.6158021483748137,
                1.7558490961485713,
                -0.6802501511333319
            ]
        },
        {
            "positions": [
                -1.5249126015314922,
                -1.4620031947792915,
                1.426446651322642,
                -1.5478662795792548,
                1.7317743661344527,
                -0.6097260192820999
            ]
        },
        {
            "positions": [
                -1.4037155097839782,
                -1.4499829989979973,
                1.3639402643751193,
                -1.4255829457095857,
                1.6635646618758688,
                -0.6101067218135332
            ]
        },
        {
            "positions": [
                -1.2825184180364644,
                -1.4379628032167031,
                1.3014338774275966,
                -1.3032996118399165,
                1.5953549576172852,
                -0.6104874243449664
            ]
        },
        {
            "positions": [
                -1.1613213262889504,
                -1.425942607435409,
                1.2389274904800742,
                -1.1810162779702473,
                1.5271452533587015,
                -0.6108681268763997
            ]
        },
        {
            "positions": [
                -1.0401242345414365,
                -1.4139224116541147,
                1.1764211035325516,
                -1.0587329441005782,
                1.4589355491001177,
                -0.611248829407833
            ]
        },
        {
            "positions": [
                -0.9189271427939225,
                -1.4019022158728205,
                1.113914716585029,
                -0.936449610230909,
                1.390725844841534,
                -0.6116295319392663
            ]
        },
        {
            "positions": [
                -0.7977300510464085,
                -1.3898820200915263,
                1.0514083296375065,
                -0.8141662763612398,
                1.3225161405829502,
                -0.6120102344706995
            ]
        },
        {
            "positions": [
                -0.6765329592988945,
                -1.377861824310232,
                0.9889019426899839,
                -0.6918829424915707,
                1.2543064363243666,
                -0.6123909370021328
            ]
        },
        {
            "positions": [
                -0.5553358675513806,
                -1.3658416285289379,
                0.9263955557424612,
                -0.5695996086219015,
                1.1860967320657827,
                -0.6127716395335661
            ]
        },
        {
            "positions": [
                -0.43413877580386684,
                -1.3538214327476437,
                0.8638891687949387,
                -0.44731627475223235,
                1.117887027807199,
                -0.6131523420649992
            ]
        },
        {
            "positions": [
                -0.3129416840563528,
                -1.3418012369663495,
                0.8013827818474161,
                -0.3250329408825632,
                1.0496773235486154,
                -0.6135330445964325
            ]
        },
        {
            "positions": [
                -0.19174459230883878,
                -1.3297810411850552,
                0.7388763948998935,
                -0.20274960701289402,
                0.9814676192900315,
                -0.6139137471278658
            ]
        },
        {
            "positions": [
                -0.07054750056132475,
                -1.317760845403761,
                0.6763700079523709,
                -0.08046627314322485,
                0.9132579150314477,
                -0.6142944496592991
            ]
        },
        {
            "positions": [
                0.05064959118618928,
                -1.3057406496224668,
                0.6138636210048483,
                0.04181706072644431,
                0.845048210772864,
                -0.6146751521907323
            ]
        },
        {
            "positions": [
                0.1718466829337033,
                -1.2937204538411726,
                0.5513572340573257,
                0.16410039459611347,
                0.7768385065142802,
                -0.6150558547221656
            ]
        },
        {
            "positions": [
                0.2930437746812169,
                -1.2817002580598784,
                0.4888508471098032,
                0.28638372846578264,
                0.7086288022556966,
                -0.6154365572535989
            ]
        },
        {
            "positions": [
                0.4142408664287309,
                -1.2696800622785842,
                0.42634446016228056,
                0.4086670623354518,
                0.6404190979971127,
                -0.6158172597850321
            ]
        },
        {
            "positions": [
                0.535437958176245,
                -1.2576598664972898,
                0.3638380732147579,
                0.530950396205121,
                0.5722093937385291,
                -0.6161979623164654
            ]
        },
        {
            "positions": [
                0.6566350499237585,
                -1.2456396707159958,
                0.3013316862672355,
                0.6532337300747901,
                0.5039996894799454,
                -0.6165786648478987
            ]
        },
        {
            "positions": [
                0.7778321416712726,
                -1.2336194749347014,
                0.23882529931971286,
                0.7755170639444593,
                0.4357899852213616,
                -0.616959367379332
            ]
        },
        {
            "positions": [
                0.8990292334187866,
                -1.2215992791534074,
                0.17631891237219022,
                0.8978003978141285,
                0.36758028096277795,
                -0.6173400699107652
            ]
        },
        {
            "positions": [
                1.0202263251663006,
                -1.209579083372113,
                0.1138125254246678,
                1.0200837316837976,
                0.2993705767041941,
                -0.6177207724421985
            ]
        },
        {
            "positions": [
                1.1414234169138147,
                -1.197558887590819,
                0.05130613847714516,
                1.1423670655534668,
                0.23116087244561023,
                -0.6181014749736318
            ]
        },
        {
            "positions": [
                1.2626205086613287,
                -1.1855386918095245,
                -0.011200248470377483,
                1.264650399423136,
                0.1629511681870266,
                -0.618482177505065
            ]
        },
        {
            "positions": [
                1.3838176004088427,
                -1.1735184960282303,
                -0.07370663541790012,
                1.3869337332928051,
                0.09474146392844274,
                -0.6188628800364983
            ]
        },
        {
            "positions": [
                1.5050146921563567,
                -1.1614983002469361,
                -0.13621302236542276,
                1.5092170671624743,
                0.0265317596698591,
                -0.6192435825679315
            ]
        },
        {
            "positions": [
                1.6262117839038708,
                -1.149478104465642,
                -0.1987194093129454,
                1.6315004010321434,
                -0.04167794458872476,
                -0.6196242850993648
            ]
        },
        {
            "positions": [
                1.7474088756513848,
                -1.1374579086843477,
                -0.2612257962604678,
                1.7537837349018126,
                -0.1098876488473084,
                -0.620004987630798
            ]
        },
        {
            "positions": [
                1.8686059673988988,
                -1.1254377129030535,
                -0.32373218320799046,
                1.8760670687714818,
                -0.17809735310589225,
                -0.6203856901622313
            ]
        },
        {
            "positions": [
                1.9898030591464129,
                -1.1134175171217593,
                -0.3862385701555131,
                1.9983504026411514,
                -0.2463070573644761,
                -0.6207663926936646
            ]
        },
        {
            "positions": [
                2.111000150893926,
                -1.101397321340465,
                -0.4487449571030355,
                2.12063373651082,
                -0.3145167616230595,
                -0.6211470952250978
            ]
        },
        {
            "positions": [
                2.23219724264144,
                -1.0893771255591709,
                -0.5112513440505582,
                2.2429170703804893,
                -0.3827264658816434,
                -0.6215277977565311
            ]
        },
        {
            "positions": [
                2.353394334388954,
                -1.0773569297778767,
                -0.5737577309980808,
                2.3652004042501584,
                -0.45093617014022724,
                -0.6219085002879644
            ]
        },
        {
            "positions": [
                2.474591426136468,
                -1.0653367339965825,
                -0.6362641179456032,
                2.4874837381198276,
                -0.5191458743988107,
                -0.6222892028193977
            ]
        },
        {
            "positions": [
                2.595788517883982,
                -1.0533165382152883,
                -0.6987705048931261,
                2.6097670719894968,
                -0.5873555786573945,
                -0.6226699053508309
            ]
        },
        {
            "positions": [
                2.7169856096314957,
                -1.041296342433994,
                -0.7612768918406485,
                2.7320504058591664,
                -0.6555652829159784,
                -0.6230506078822642
            ]
        },
        {
            "positions": [
                2.5849886691870365,
                -1.0973917264243889,
                -0.8353894492222965,
                2.6737461895416534,
                -0.6176169696201586,
                -0.5915103047293098
            ]
        },
        {
            "positions": [
                2.4529917287425773,
                -1.1534871104147837,
                -0.9095020066039444,
                2.6154419732241405,
                -0.5796686563243388,
                -0.5599700015763552
            ]
        },
        {
            "positions": [
                2.320994788298118,
                -1.2095824944051785,
                -0.9836145639855924,
                2.557137756906627,
                -0.5417203430285191,
                -0.5284296984234008
            ]
        },
        {
            "positions": [
                2.188997847853659,
                -1.2656778783955733,
                -1.0577271213672403,
                2.498833540589114,
                -0.5037720297326993,
                -0.4968893952704463
            ]
        },
        {
            "positions": [
                2.0570009074091997,
                -1.3217732623859682,
                -1.1318396787488882,
                2.4405293242716013,
                -0.4658237164368795,
                -0.46534909211749187
            ]
        },
        {
            "positions": [
                1.9250039669647405,
                -1.377868646376363,
                -1.2059522361305364,
                2.3822251079540884,
                -0.42787540314105976,
                -0.43380878896453745
            ]
        },
        {
            "positions": [
                1.7930070265202813,
                -1.4339640303667578,
                -1.2800647935121843,
                2.323920891636575,
                -0.38992708984523994,
                -0.4022684858115829
            ]
        },
        {
            "positions": [
                1.661010086075822,
                -1.4900594143571526,
                -1.3541773508938322,
                2.265616675319062,
                -0.35197877654942017,
                -0.37072818265862845
            ]
        },
        {
            "positions": [
                1.5290131456313627,
                -1.5461547983475474,
                -1.42828990827548,
                2.207312459001549,
                -0.3140304632536004,
                -0.339187879505674
            ]
        },
        {
            "positions": [
                1.3970162051869035,
                -1.6022501823379423,
                -1.502402465657128,
                2.1490082426840362,
                -0.27608214995778063,
                -0.30764757635271955
            ]
        },
        {
            "positions": [
                1.2650192647424443,
                -1.658345566328337,
                -1.576515023038776,
                2.090704026366523,
                -0.23813383666196086,
                -0.2761072731997651
            ]
        },
        {
            "positions": [
                1.133022324297985,
                -1.714440950318732,
                -1.650627580420424,
                2.03239981004901,
                -0.20018552336614115,
                -0.24456697004681066
            ]
        },
        {
            "positions": [
                1.0010253838535257,
                -1.7705363343091267,
                -1.7247401378020721,
                1.974095593731497,
                -0.16223721007032127,
                -0.21302666689385613
            ]
        },
        {
            "positions": [
                0.8690284434090667,
                -1.8266317182995215,
                -1.79885269518372,
                1.915791377413984,
                -0.1242888967745015,
                -0.1814863637409017
            ]
        },
        {
            "positions": [
                0.7370315029646075,
                -1.8827271022899161,
                -1.872965252565368,
                1.8574871610964712,
                -0.08634058347868179,
                -0.14994606058794724
            ]
        },
        {
            "positions": [
                0.6050345625201481,
                -1.9388224862803112,
                -1.947077809947016,
                1.7991829447789578,
                -0.04839227018286196,
                -0.11840575743499271
            ]
        },
        {
            "positions": [
                0.4730376220756889,
                -1.994917870270706,
                -2.0211903673286638,
                1.7408787284614449,
                -0.01044395688704225,
                -0.08686545428203829
            ]
        },
        {
            "positions": [
                0.3410406816312297,
                -2.051013254261101,
                -2.095302924710312,
                1.682574512143932,
                0.027504356408777575,
                -0.05532515112908376
            ]
        },
        {
            "positions": [
                0.2090437411867705,
                -2.1071086382514954,
                -2.16941548209196,
                1.6242702958264188,
                0.06545266970459729,
                -0.023784847976129342
            ]
        },
        {
            "positions": [
                0.0770468007423113,
                -2.1632040222418905,
                -2.243528039473608,
                1.5659660795089059,
                0.10340098300041711,
                0.007755455176825077
            ]
        },
        {
            "positions": [
                -0.054950139702147904,
                -2.2192994062322855,
                -2.317640596855256,
                1.5076618631913927,
                0.14134929629623694,
                0.039295758329779606
            ]
        },
        {
            "positions": [
                -0.18694708014660724,
                -2.27539479022268,
                -2.3917531542369037,
                1.4493576468738798,
                0.1792976095920567,
                0.07083606148273401
            ]
        }
    ]
}