{
    "goal": {
        "global_pose": {
            "orientation": {
                "w": 0.7031023480610252,
                "x": -0.7110244013736278,
                "y": 0.0077485991402295624,
                "z": 0.005598929693374583
            },
            "position": {
                "x": -0.8841497679147869,
                "y": 0.44412534475326537,
                "z": 0.3711530566215515
            }
        },
        "name": "move_to_auspresseinheit_D"
    },
    "id": "RRT_move_to_auspresseinheit_D_12",
    "joint_names": [
        "shoulder_pan_joint",
        "shoulder_lift_joint",
        "elbow_joint",
        "wrist_1_joint",
        "wrist_2_joint",
        "wrist_3_joint"
    ],
    "metrics": {
        "cart_traj_len": 0.34299220467421515,
        "distance_elbow_joint": 0.6412623277107945,
        "distance_shoulder_lift_joint": 0.1229215768876073,
        "distance_shoulder_pan_joint": 0.13404458613199802,
        "distance_wrist_1_joint": 0.5515260266383444,
        "distance_wrist_2_joint": 1.431299846088815,
        "distance_wrist_3_joint": 0.024324210799154145,
        "smoothness": 1.5789838603703863e-15,
        "time": 0.014748114,
        "traj_len": 1.704517108819009,
        "weighted_distance": 2.2219029836116118
    },
    "planner": "RRT",
    "start": {
        "state": {
            "elbow_joint": -1.8275523626775212,
            "shoulder_lift_joint": -2.126789852344167,
            "shoulder_pan_joint": -0.03513704404078235,
            "wrist_1_joint": -2.347782403156801,
            "wrist_2_joint": -1.6058999987535132,
            "wrist_3_joint": -3.0880379163319196
        }
    },
    "waypoints": [
        {
            "positions": [
                -0.03513704404078235,
                -2.126789852344167,
                -1.8275523626775212,
                -2.347782403156801,
                -1.6058999987535132,
                -3.0880379163319196
            ]
        },
        {
            "positions": [
                -0.051892617307282105,
                -2.1421550494551176,
                -1.7473945717136719,
                -2.416723156486594,
                -1.4269875179924112,
                -3.0849973899820253
            ]
        },
        {
            "positions": [
                -0.06864819057378185,
                -2.1575202465660688,
                -1.6672367807498225,
                -2.485663909816387,
                -1.2480750372313094,
                -3.081956863632131
            ]
        },
        {
            "positions": [
                -0.08540376384028162,
                -2.1728854436770195,
                -1.5870789897859732,
                -2.55460466314618,
                -1.0691625564702076,
                -3.078916337282237
            ]
        },
        {
            "positions": [
                -0.10215933710678135,
                -2.1882506407879703,
                -1.5069211988221238,
                -2.623545416475973,
                -0.8902500757091056,
                -3.0758758109323425
            ]
        },
        {
            "positions": [
                -0.11891491037328111,
                -2.2036158378989215,
                -1.4267634078582745,
                -2.692486169805766,
                -0.7113375949480037,
                -3.0728352845824483
            ]
        },
        {
            "positions": [
                -0.13567048363978088,
                -2.218981035009872,
                -1.3466056168944254,
                -2.7614269231355593,
                -0.5324251141869019,
                -3.069794758232554
            ]
        },
        {
            "positions": [
                -0.1524260569062806,
                -2.2343462321208234,
                -1.266447825930576,
                -2.830367676465352,
                -0.3535126334258001,
                -3.0667542318826597
            ]
        },
        {
            "positions": [
                -0.16918163017278037,
                -2.249711429231774,
                -1.1862900349667267,
                -2.8993084297951452,
                -0.17460015266469797,
                -3.0637137055327655
            ]
        }
    ]
}