{
    "goal": {
        "global_pose": {
            "orientation": {
                "w": 0.5084816217422485,
                "x": -0.49083608388900757,
                "y": 0.5182115435600281,
                "z": -0.4816462993621826
            },
            "position": {
                "x": 0.5540239810943604,
                "y": 0.030875300988554955,
                "z": 0.16403168439865112
            }
        },
        "name": "move_to_storage_A"
    },
    "id": "RRT_move_to_storage_A_34",
    "joint_names": [
        "shoulder_pan_joint",
        "shoulder_lift_joint",
        "elbow_joint",
        "wrist_1_joint",
        "wrist_2_joint",
        "wrist_3_joint"
    ],
    "metrics": {
        "cart_traj_len": 0.3526394910469656,
        "distance_elbow_joint": 0.4507188580756998,
        "distance_shoulder_lift_joint": 0.23554287922288197,
        "distance_shoulder_pan_joint": 0.45717941261439954,
        "distance_wrist_1_joint": 0.245324032965324,
        "distance_wrist_2_joint": 1.1155484763657746,
        "distance_wrist_3_joint": 0.10039095773611661,
        "smoothness": 8.881784232165597e-16,
        "time": 0.015728924,
        "traj_len": 1.6139097301212966,
        "weighted_distance": 2.04116609852886
    },
    "planner": "RRT",
    "start": {
        "state": {
            "elbow_joint": 1.971548259319323,
            "shoulder_lift_joint": -1.1394851275133948,
            "shoulder_pan_joint": 0.1228115487234821,
            "wrist_1_joint": -0.7804723859257726,
            "wrist_2_joint": 0.12958671773740124,
            "wrist_3_joint": -3.192489227718131
        }
    },
    "waypoints": [
        {
            "positions": [
                0.1228115487234821,
                -1.1394851275133948,
                1.971548259319323,
                -0.7804723859257726,
                0.12958671773740124,
                -3.192489227718131
            ]
        },
        {
            "positions": [
                0.057500204064282176,
                -1.1731341102595207,
                2.0359366676158515,
                -0.8155186763493903,
                0.2889507857896547,
                -3.1781476623272575
            ]
        },
        {
            "positions": [
                -0.007811140594917748,
                -1.206783093005647,
                2.10032507591238,
                -0.8505649667730081,
                0.4483148538419083,
                -3.1638060969363835
            ]
        },
        {
            "positions": [
                -0.07312248525411769,
                -1.2404320757517728,
                2.1647134842089084,
                -0.8856112571966257,
                0.6076789218941617,
                -3.14946453154551
            ]
        },
        {
            "positions": [
                -0.1384338299133176,
                -1.2740810584978988,
                2.229101892505437,
                -0.9206575476202434,
                0.7670429899464153,
                -3.135122966154636
            ]
        },
        {
            "positions": [
                -0.20374517457251756,
                -1.307730041244025,
                2.293490300801966,
                -0.9557038380438612,
                0.9264070579986688,
                -3.120781400763762
            ]
        },
        {
            "positions": [
                -0.2690565192317175,
                -1.3413790239901509,
                2.357878709098494,
                -0.9907501284674789,
                1.0857711260509222,
                -3.106439835372888
            ]
        },
        {
            "positions": [
                -0.33436786389091744,
                -1.3750280067362768,
                2.4222671173950228,
                -1.0257964188910966,
                1.2451351941031759,
                -3.0920982699820145
            ]
        }
    ]
}{
    "goal": {
        "global_pose": {
            "orientation": {
                "w": 0.5084816217422485,
                "x": -0.49083608388900757,
                "y": 0.5182115435600281,
                "z": -0.4816462993621826
            },
            "position": {
                "x": 0.5540239810943604,
                "y": 0.030875300988554955,
                "z": 0.16403168439865112
            }
        },
        "name": "move_to_storage_A"
    },
    "id": "RRT_move_to_storage_A_34",
    "joint_names": [
        "shoulder_pan_joint",
        "shoulder_lift_joint",
        "elbow_joint",
        "wrist_1_joint",
        "wrist_2_joint",
        "wrist_3_joint"
    ],
    "metrics": {
        "cart_traj_len": 0.35270122896622585,
        "distance_elbow_joint": 0.4509434349716055,
        "distance_shoulder_lift_joint": 0.23517019285520968,
        "distance_shoulder_pan_joint": 0.4609287349621602,
        "distance_wrist_1_joint": 0.2447430271515032,
        "distance_wrist_2_joint": 1.0998937027737867,
        "distance_wrist_3_joint": 0.1057107826675896,
        "smoothness": 0.0,
        "time": 0.011569606,
        "traj_len": 1.6116419811427893,
        "weighted_distance": 2.0380010232191554
    },
    "planner": "RRT",
    "start": {
        "state": {
            "elbow_joint": 1.97154746011099,
            "shoulder_lift_joint": -1.13948474672311,
            "shoulder_pan_joint": 0.12281154466712228,
            "wrist_1_joint": -0.7804688027058302,
            "wrist_2_joint": 0.12958655903071145,
            "wrist_3_joint": 3.0906928834467795
        }
    },
    "waypoints": [
        {
            "positions": [
                0.12281154466712228,
                -1.13948474672311,
                1.97154746011099,
                -0.7804688027058302,
                0.12958655903071145,
                3.0906928834467795
            ]
        },
        {
            "positions": [
                0.056964582529670835,
                -1.1730804885595685,
                2.0359679508212194,
                -0.8154320922989021,
                0.28671423085553815,
                3.105794423827864
            ]
        },
        {
            "positions": [
                -0.008882379607780613,
                -1.206676230396027,
                2.1003884415314484,
                -0.850395381891974,
                0.44384190268036483,
                3.1208959642089478
            ]
        },
        {
            "positions": [
                -0.07472934174523206,
                -1.2402719722324855,
                2.164808932241678,
                -0.8853586714850459,
                0.6009695745051915,
                3.135997504590032
            ]
        },
        {
            "positions": [
                -0.1405763038826835,
                -1.273867714068944,
                2.2292294229519074,
                -0.9203219610781177,
                0.7580972463300182,
                3.1510990449711165
            ]
        },
        {
            "positions": [
                -0.206423266020135,
                -1.3074634559054026,
                2.293649913662137,
                -0.9552852506711896,
                0.9152249181548449,
                3.166200585352201
            ]
        },
        {
            "positions": [
                -0.2722702281575864,
                -1.341059197741861,
                2.358070404372366,
                -0.9902485402642615,
                1.0723525899796715,
                3.1813021257332847
            ]
        },
        {
            "positions": [
                -0.3381171902950379,
                -1.3746549395783196,
                2.4224908950825954,
                -1.0252118298573334,
                1.2294802618044982,
                3.196403666114369
            ]
        }
    ]
}{
    "goal": {
        "global_pose": {
            "orientation": {
                "w": 0.5084816217422485,
                "x": -0.49083608388900757,
                "y": 0.5182115435600281,
                "z": -0.4816462993621826
            },
            "position": {
                "x": 0.5540239810943604,
                "y": 0.030875300988554955,
                "z": 0.16403168439865112
            }
        },
        "name": "move_to_storage_A"
    },
    "id": "RRT_move_to_storage_A_34",
    "joint_names": [
        "shoulder_pan_joint",
        "shoulder_lift_joint",
        "elbow_joint",
        "wrist_1_joint",
        "wrist_2_joint",
        "wrist_3_joint"
    ],
    "metrics": {
        "cart_traj_len": 0.3529826149178825,
        "distance_elbow_joint": 0.45049530465085663,
        "distance_shoulder_lift_joint": 0.2362796150515889,
        "distance_shoulder_pan_joint": 0.4606726653508868,
        "distance_wrist_1_joint": 0.24131513312279096,
        "distance_wrist_2_joint": 1.1036012678711506,
        "distance_wrist_3_joint": 0.08896922839119004,
        "smoothness": 0.0,
        "time": 0.013473453,
        "traj_len": 1.6066527983476901,
        "weighted_distance": 2.025879579889877
    },
    "planner": "RRT",
    "start": {
        "state": {
            "elbow_joint": 1.9715472970024885,
            "shoulder_lift_joint": -1.1394870060712896,
            "shoulder_pan_joint": 0.12281152778156021,
            "wrist_1_joint": -0.780463741449964,
            "wrist_2_joint": 0.12958659822042276,
            "wrist_3_joint": 3.090690232415272
        }
    },
    "waypoints": [
        {
            "positions": [
                0.12281152778156021,
                -1.1394870060712896,
                1.9715472970024885,
                -0.780463741449964,
                0.12958659822042276,
                3.090690232415272
            ]
        },
        {
            "positions": [
                0.05700114701714781,
                -1.1732412367929452,
                2.035903769095468,
                -0.814937331896077,
                0.28724392220201567,
                3.103400122185442
            ]
        },
        {
            "positions": [
                -0.008809233747264583,
                -1.2069954675146006,
                2.1002602411884475,
                -0.84941092234219,
                0.4449012461836086,
                3.116110011955612
            ]
        },
        {
            "positions": [
                -0.07461961451167698,
                -1.2407496982362562,
                2.164616713281427,
                -0.8838845127883029,
                0.6025585701652015,
                3.128819901725782
            ]
        },
        {
            "positions": [
                -0.14042999527608938,
                -1.2745039289579119,
                2.2289731853744064,
                -0.9183581032344159,
                0.7602158941467945,
                3.1415297914959517
            ]
        },
        {
            "positions": [
                -0.2062403760405018,
                -1.3082581596795675,
                2.2933296574673863,
                -0.952831693680529,
                0.9178732181283875,
                3.1542396812661218
            ]
        },
        {
            "positions": [
                -0.2720507568049142,
                -1.3420123904012229,
                2.3576861295603657,
                -0.987305284126642,
                1.0755305421099803,
                3.166949571036292
            ]
        },
        {
            "positions": [
                -0.33786113756932656,
                -1.3757666211228785,
                2.422042601653345,
                -1.021778874572755,
                1.2331878660915734,
                3.179659460806462
            ]
        }
    ]
}