{
    "goal": {
        "global_pose": {
            "orientation": {
                "w": -0.4816463035849501,
                "x": 0.5182115481033762,
                "y": 0.4908360881923453,
                "z": -0.5084816262002911
            },
            "position": {
                "x": -0.8240239810943604,
                "y": 0.19912469901144506,
                "z": 0.16403168439865112
            }
        },
        "name": "move_to_storage_D"
    },
    "id": "RRT_move_to_storage_D_34",
    "joint_names": [
        "shoulder_pan_joint",
        "shoulder_lift_joint",
        "elbow_joint",
        "wrist_1_joint",
        "wrist_2_joint",
        "wrist_3_joint"
    ],
    "metrics": {
        "cart_traj_len": 3.9180833528788352,
        "distance_elbow_joint": 4.207678093355497,
        "distance_shoulder_lift_joint": 1.2662985883237157,
        "distance_shoulder_pan_joint": 2.811874640550121,
        "distance_wrist_1_joint": 2.2659772937689704,
        "distance_wrist_2_joint": 0.8668014368329263,
        "distance_wrist_3_joint": 3.151217078473414,
        "smoothness": 0.03789472335326313,
        "time": 0.085001594,
        "traj_len": 3.8170469123793382,
        "weighted_distance": 4.899495894360293
    },
    "planner": "RRT",
    "start": {
        "state": {
            "elbow_joint": -2.384821988534728,
            "shoulder_lift_joint": -2.2788054721415256,
            "shoulder_pan_joint": -0.1854694642142757,
            "wrist_1_joint": 1.4845938289331202,
            "wrist_2_joint": 0.17898776772866878,
            "wrist_3_joint": 0.037105688729662994
        }
    },
    "waypoints": [
        {
            "positions": [
                -0.1854694642142757,
                -2.2788054721415256,
                -2.384821988534728,
                1.4845938289331202,
                0.17898776772866878,
                0.037105688729662994
            ]
        },
        {
            "positions": [
                -0.1714687714719516,
                -2.278056854751444,
                -2.376476341023859,
                1.4745124632923343,
                0.18210512131540857,
                0.04034866202406287
            ]
        },
        {
            "positions": [
                -0.09132627073193136,
                -2.2432121514829895,
                -2.2687344730024104,
                1.4107630243362361,
                0.20488140608103508,
                -0.04549643665428589
            ]
        },
        {
            "positions": [
                -0.011183769991911119,
                -2.208367448214535,
                -2.160992604980962,
                1.3470135853801382,
                0.2276576908466616,
                -0.13134153533263465
            ]
        },
        {
            "positions": [
                0.06895873074810915,
                -2.17352274494608,
                -2.053250736959513,
                1.28326414642404,
                0.2504339756122881,
                -0.21718663401098345
            ]
        },
        {
            "positions": [
                0.14910123148812937,
                -2.1386780416776254,
                -1.9455088689380649,
                1.2195147074679418,
                0.2732102603779146,
                -0.30303173268933215
            ]
        },
        {
            "positions": [
                0.22924373222814964,
                -2.1038333384091708,
                -1.837767000916616,
                1.1557652685118438,
                0.29598654514354117,
                -0.3888768313676809
            ]
        },
        {
            "positions": [
                0.3093862329681699,
                -2.068988635140716,
                -1.7300251328951675,
                1.0920158295557456,
                0.31876282990916766,
                -0.4747219300460298
            ]
        },
        {
            "positions": [
                0.3895287337081901,
                -2.0341439318722614,
                -1.6222832648737189,
                1.0282663905996476,
                0.34153911467479414,
                -0.5605670287243785
            ]
        },
        {
            "positions": [
                0.46967123444821035,
                -1.999299228603807,
                -1.5145413968522703,
                0.9645169516435494,
                0.3643153994404207,
                -0.6464121274027272
            ]
        },
        {
            "positions": [
                0.5498137351882306,
                -1.9644545253353523,
                -1.4067995288308217,
                0.9007675126874513,
                0.3870916842060472,
                -0.732257226081076
            ]
        },
        {
            "positions": [
                0.6299562359282509,
                -1.9296098220668976,
                -1.2990576608093731,
                0.8370180737313532,
                0.4098679689716737,
                -0.8181023247594248
            ]
        },
        {
            "positions": [
                0.7100987366682712,
                -1.894765118798443,
                -1.1913157927879243,
                0.773268634775255,
                0.4326442537373002,
                -0.9039474234377736
            ]
        },
        {
            "positions": [
                0.7902412374082914,
                -1.8599204155299882,
                -1.0835739247664757,
                0.7095191958191569,
                0.45542053850292674,
                -0.9897925221161225
            ]
        },
        {
            "positions": [
                0.8703837381483115,
                -1.8250757122615338,
                -0.9758320567450274,
                0.6457697568630589,
                0.47819682326855323,
                -1.075637620794471
            ]
        },
        {
            "positions": [
                0.9505262388883318,
                -1.790231008993079,
                -0.8680901887235788,
                0.5820203179069607,
                0.5009731080341797,
                -1.1614827194728197
            ]
        },
        {
            "positions": [
                1.030668739628352,
                -1.7553863057246244,
                -0.76034832070213,
                0.5182708789508627,
                0.5237493927998063,
                -1.2473278181511684
            ]
        },
        {
            "positions": [
                1.1108112403683723,
                -1.7205416024561697,
                -0.6526064526806814,
                0.4545214399947646,
                0.5465256775654328,
                -1.3331729168295172
            ]
        },
        {
            "positions": [
                1.1909537411083926,
                -1.685696899187715,
                -0.5448645846592328,
                0.3907720010386664,
                0.5693019623310593,
                -1.419018015507866
            ]
        },
        {
            "positions": [
                1.2710962418484129,
                -1.6508521959192604,
                -0.43712271663778424,
                0.3270225620825682,
                0.5920782470966859,
                -1.5048631141862148
            ]
        },
        {
            "positions": [
                1.3512387425884331,
                -1.6160074926508057,
                -0.32938084861633543,
                0.2632731231264702,
                0.6148545318623123,
                -1.5907082128645635
            ]
        },
        {
            "positions": [
                1.4313812433284534,
                -1.581162789382351,
                -0.22163898059488707,
                0.19952368417037203,
                0.6376308166279389,
                -1.6765533115429123
            ]
        },
        {
            "positions": [
                1.5115237440684737,
                -1.5463180861138963,
                -0.11389711257343826,
                0.13577424521427384,
                0.6604071013935653,
                -1.762398410221261
            ]
        },
        {
            "positions": [
                1.591666244808494,
                -1.5114733828454416,
                -0.006155244551989458,
                0.07202480625817564,
                0.6831833861591918,
                -1.8482435088996099
            ]
        },
        {
            "positions": [
                1.6718087455485142,
                -1.476628679576987,
                0.1015866234694589,
                0.008275367302077674,
                0.7059596709248184,
                -1.9340886075779586
            ]
        },
        {
            "positions": [
                1.7519512462885345,
                -1.4417839763085323,
                0.2093284914909077,
                -0.05547407165402052,
                0.7287359556904449,
                -2.0199337062563076
            ]
        },
        {
            "positions": [
                1.8320937470285545,
                -1.4069392730400776,
                0.31707035951235607,
                -0.11922351061011871,
                0.7515122404560715,
                -2.105778804934656
            ]
        },
        {
            "positions": [
                1.9122362477685746,
                -1.3720945697716234,
                0.42481222753380443,
                -0.18297294956621646,
                0.7742885252216979,
                -2.1916239036130047
            ]
        },
        {
            "positions": [
                1.992378748508595,
                -1.3372498665031687,
                0.5325540955552532,
                -0.24672238852231465,
                0.7970648099873244,
                -2.2774690022913533
            ]
        },
        {
            "positions": [
                2.072521249248615,
                -1.302405163234714,
                0.6402959635767016,
                -0.31047182747841284,
                0.8198410947529509,
                -2.3633141009697023
            ]
        },
        {
            "positions": [
                2.1526637499886356,
                -1.2675604599662593,
                0.7480378315981504,
                -0.3742212664345108,
                0.8426173795185774,
                -2.449159199648051
            ]
        },
        {
            "positions": [
                2.2328062507286557,
                -1.2327157566978046,
                0.8557796996195992,
                -0.437970705390609,
                0.865393664284204,
                -2.5350042983264
            ]
        },
        {
            "positions": [
                2.312948751468676,
                -1.19787105342935,
                0.9635215676410476,
                -0.5017201443467072,
                0.8881699490498305,
                -2.6208493970047484
            ]
        },
        {
            "positions": [
                2.3930912522086962,
                -1.1630263501608953,
                1.0712634356624964,
                -0.5654695833028052,
                0.9109462338154569,
                -2.7066944956830974
            ]
        },
        {
            "positions": [
                2.4732337529487167,
                -1.1281816468924406,
                1.1790053036839447,
                -0.6292190222589034,
                0.9337225185810835,
                -2.792539594361446
            ]
        },
        {
            "positions": [
                2.5533762536887368,
                -1.093336943623986,
                1.2867471717053935,
                -0.6929684612150013,
                0.95649880334671,
                -2.878384693039795
            ]
        },
        {
            "positions": [
                2.5777192279044394,
                -1.0663935903552606,
                1.4654501494105185,
                -0.7224401290886175,
                0.9862622704183384,
                -2.9547982764115135
            ]
        },
        {
            "positions": [
                2.6020622021201425,
                -1.0394502370865353,
                1.6441531271156435,
                -0.7519117969622339,
                1.0160257374899668,
                -3.0312118597832325
            ]
        },
        {
            "positions": [
                2.626405176335845,
                -1.01250688381781,
                1.8228561048207685,
                -0.7813834648358501,
                1.045789204561595,
                -3.107625443154951
            ]
        }
    ]
}