{
    "goal": {
        "global_pose": {
            "orientation": {
                "w": -0.4816463035849501,
                "x": 0.5182115481033762,
                "y": 0.4908360881923453,
                "z": -0.5084816262002911
            },
            "position": {
                "x": -0.8240239810943604,
                "y": 0.19912469901144506,
                "z": 0.16403168439865112
            }
        },
        "name": "move_to_storage_D"
    },
    "id": "RRT_move_to_storage_D_134",
    "joint_names": [
        "shoulder_pan_joint",
        "shoulder_lift_joint",
        "elbow_joint",
        "wrist_1_joint",
        "wrist_2_joint",
        "wrist_3_joint"
    ],
    "metrics": {
        "cart_traj_len": 3.714424846915849,
        "distance_elbow_joint": 4.2355553429298265,
        "distance_shoulder_lift_joint": 1.2651215505107802,
        "distance_shoulder_pan_joint": 2.8120198240583036,
        "distance_wrist_1_joint": 2.590952600817027,
        "distance_wrist_2_joint": 3.1370421007432907,
        "distance_wrist_3_joint": 3.1756992899759755,
        "smoothness": 0.13690954695609323,
        "time": 0.078171142,
        "traj_len": 4.149263875560965,
        "weighted_distance": 5.4125579895782625
    },
    "planner": "RRT",
    "start": {
        "state": {
            "elbow_joint": -2.384821988534728,
            "shoulder_lift_joint": -2.2788054721415256,
            "shoulder_pan_joint": -0.1854694642142757,
            "wrist_1_joint": 1.4845938289331202,
            "wrist_2_joint": 0.17898776772866878,
            "wrist_3_joint": 0.037105688729662994
        }
    },
    "waypoints": [
        {
            "positions": [
                -0.1854694642142757,
                -2.2788054721415256,
                -2.384821988534728,
                1.4845938289331202,
                0.17898776772866878,
                0.037105688729662994
            ]
        },
        {
            "positions": [
                -0.14391048208874857,
                -2.2439430847813755,
                -2.390092497310782,
                1.3854735419011313,
                0.1403074730954864,
                0.04917157474959414
            ]
        },
        {
            "positions": [
                -0.10235149996322146,
                -2.209080697421225,
                -2.3953630060868365,
                1.2863532548691425,
                0.10162717846230401,
                0.061237460769525284
            ]
        },
        {
            "positions": [
                -0.02012518043382827,
                -2.1719886071613903,
                -2.294011804949391,
                1.192964366330974,
                0.057653507256575,
                0.0304833910555298
            ]
        },
        {
            "positions": [
                0.06210113909556492,
                -2.1348965169015552,
                -2.192660603811945,
                1.099575477792805,
                0.013679836050845981,
                -0.0002706786584656812
            ]
        },
        {
            "positions": [
                0.1443274586249581,
                -2.0978044266417206,
                -2.091309402674499,
                1.0061865892546362,
                -0.030293835154883042,
                -0.031024748372461164
            ]
        },
        {
            "positions": [
                0.2265537781543513,
                -2.060712336381886,
                -1.9899582015370534,
                0.9127977007164676,
                -0.07426750636061205,
                -0.06177881808645665
            ]
        },
        {
            "positions": [
                0.3087800976837445,
                -2.023620246122051,
                -1.8886070003996076,
                0.8194088121782989,
                -0.11824117756634109,
                -0.09253288780045214
            ]
        },
        {
            "positions": [
                0.39100641721313767,
                -1.9865281558622163,
                -1.7872557992621618,
                0.7260199236401301,
                -0.1622148487720701,
                -0.12328695751444761
            ]
        },
        {
            "positions": [
                0.47323273674253086,
                -1.9494360656023815,
                -1.685904598124716,
                0.6326310351019614,
                -0.20618851997779913,
                -0.1540410272284431
            ]
        },
        {
            "positions": [
                0.555459056271924,
                -1.9123439753425469,
                -1.5845533969872703,
                0.5392421465637927,
                -0.2501621911835281,
                -0.18479509694243856
            ]
        },
        {
            "positions": [
                0.6376853758013172,
                -1.875251885082712,
                -1.4832021958498245,
                0.4458532580256239,
                -0.29413586238925715,
                -0.21554916665643403
            ]
        },
        {
            "positions": [
                0.7199116953307104,
                -1.8381597948228772,
                -1.3818509947123787,
                0.3524643694874552,
                -0.3381095335949862,
                -0.24630323637042956
            ]
        },
        {
            "positions": [
                0.8021380148601036,
                -1.8010677045630425,
                -1.280499793574933,
                0.25907548094928656,
                -0.38208320480071517,
                -0.277057306084425
            ]
        },
        {
            "positions": [
                0.8843643343894968,
                -1.7639756143032077,
                -1.1791485924374872,
                0.16568659241111772,
                -0.4260568760064442,
                -0.3078113757984205
            ]
        },
        {
            "positions": [
                0.9665906539188899,
                -1.726883524043373,
                -1.0777973913000414,
                0.07229770387294909,
                -0.47003054721217313,
                -0.33856544551241596
            ]
        },
        {
            "positions": [
                1.0488169734482833,
                -1.689791433783538,
                -0.9764461901625956,
                -0.021091184665219753,
                -0.5140042184179023,
                -0.3693195152264115
            ]
        },
        {
            "positions": [
                1.1310432929776764,
                -1.6526993435237034,
                -0.8750949890251498,
                -0.11448007320338838,
                -0.5579778896236314,
                -0.40007358494040696
            ]
        },
        {
            "positions": [
                1.2132696125070694,
                -1.6156072532638688,
                -0.773743787887704,
                -0.20786896174155722,
                -0.6019515608293602,
                -0.4308276546544024
            ]
        },
        {
            "positions": [
                1.295495932036463,
                -1.5785151630040337,
                -0.6723925867502583,
                -0.30125785027972607,
                -0.6459252320350894,
                -0.46158172436839795
            ]
        },
        {
            "positions": [
                1.377722251565856,
                -1.541423072744199,
                -0.5710413856128125,
                -0.3946467388178947,
                -0.6898989032408183,
                -0.49233579408239336
            ]
        },
        {
            "positions": [
                1.4599485710952491,
                -1.5043309824843645,
                -0.4696901844753667,
                -0.4880356273560633,
                -0.7338725744465473,
                -0.5230898637963889
            ]
        },
        {
            "positions": [
                1.5421748906246422,
                -1.4672388922245294,
                -0.3683389833379209,
                -0.5814245158942322,
                -0.7778462456522763,
                -0.5538439335103844
            ]
        },
        {
            "positions": [
                1.6244012101540353,
                -1.4301468019646948,
                -0.26698778220047537,
                -0.674813404432401,
                -0.8218199168580054,
                -0.5845980032243798
            ]
        },
        {
            "positions": [
                1.7066275296834288,
                -1.3930547117048602,
                -0.16563658106302936,
                -0.7682022929705694,
                -0.8657935880637344,
                -0.6153520729383753
            ]
        },
        {
            "positions": [
                1.7888538492128219,
                -1.355962621445025,
                -0.06428537992558336,
                -0.8615911815087383,
                -0.9097672592694634,
                -0.6461061426523709
            ]
        },
        {
            "positions": [
                1.8710801687422152,
                -1.3188705311851905,
                0.03706582121186239,
                -0.9549800700469069,
                -0.9537409304751925,
                -0.6768602123663663
            ]
        },
        {
            "positions": [
                1.9108417577475736,
                -1.302808078050746,
                0.13141242637391615,
                -0.9470127699502227,
                -0.8482507513941699,
                -0.8038849410400621
            ]
        },
        {
            "positions": [
                1.9506033467529322,
                -1.2867456249163016,
                0.2257590315359699,
                -0.9390454698535384,
                -0.7427605723131473,
                -0.930909669713758
            ]
        },
        {
            "positions": [
                1.9903649357582907,
                -1.270683171781857,
                0.3201056366980236,
                -0.9310781697568542,
                -0.6372703932321248,
                -1.0579343983874538
            ]
        },
        {
            "positions": [
                2.030126524763649,
                -1.2546207186474125,
                0.41445224186007745,
                -0.92311086966017,
                -0.5317802141511021,
                -1.1849591270611497
            ]
        },
        {
            "positions": [
                2.0698881137690077,
                -1.238558265512968,
                0.5087988470221312,
                -0.9151435695634857,
                -0.42629003507007956,
                -1.3119838557348455
            ]
        },
        {
            "positions": [
                2.1096497027743664,
                -1.2224958123785237,
                0.6031454521841849,
                -0.9071762694668014,
                -0.320799855989057,
                -1.4390085844085414
            ]
        },
        {
            "positions": [
                2.1494112917797246,
                -1.2064333592440792,
                0.6974920573462388,
                -0.8992089693701172,
                -0.21530967690803438,
                -1.5660333130822373
            ]
        },
        {
            "positions": [
                2.189172880785083,
                -1.1903709061096346,
                0.7918386625082925,
                -0.891241669273433,
                -0.10981949782701184,
                -1.693058041755933
            ]
        },
        {
            "positions": [
                2.228934469790442,
                -1.1743084529751902,
                0.8861852676703462,
                -0.8832743691767487,
                -0.004329318745989297,
                -1.820082770429629
            ]
        },
        {
            "positions": [
                2.2686960587958005,
                -1.1582459998407457,
                0.9805318728324,
                -0.8753070690800645,
                0.10116086033503335,
                -1.9471074991033248
            ]
        },
        {
            "positions": [
                2.3084576478011587,
                -1.1421835467063013,
                1.0748784779944538,
                -0.8673397689833803,
                0.20665103941605611,
                -2.074132227777021
            ]
        },
        {
            "positions": [
                2.3482192368065173,
                -1.1261210935718569,
                1.1692250831565074,
                -0.859372468886696,
                0.31214121849707843,
                -2.2011569564507165
            ]
        },
        {
            "positions": [
                2.387980825811876,
                -1.1100586404374122,
                1.2635716883185613,
                -0.8514051687900118,
                0.4176313975781012,
                -2.3281816851244126
            ]
        },
        {
            "positions": [
                2.427742414817234,
                -1.0939961873029678,
                1.357918293480615,
                -0.8434378686933276,
                0.5231215766591237,
                -2.4552064137981082
            ]
        },
        {
            "positions": [
                2.467504003822593,
                -1.0779337341685233,
                1.452264898642669,
                -0.8354705685966433,
                0.6286117557401463,
                -2.5822311424718043
            ]
        },
        {
            "positions": [
                2.5072655928279515,
                -1.061871281034079,
                1.5466115038047226,
                -0.827503268499959,
                0.7341019348211688,
                -2.7092558711455
            ]
        },
        {
            "positions": [
                2.54702718183331,
                -1.0458088278996343,
                1.6409581089667764,
                -0.8195359684032748,
                0.8395921139021916,
                -2.836280599819196
            ]
        },
        {
            "positions": [
                2.5867887708386683,
                -1.0297463747651898,
                1.73530471412883,
                -0.8115686683065906,
                0.9450822929832139,
                -2.9633053284928916
            ]
        },
        {
            "positions": [
                2.626550359844027,
                -1.0136839216307454,
                1.8296513192908839,
                -0.8036013682099064,
                1.0505724720642369,
                -3.0903300571665877
            ]
        }
    ]
}