{
    "goal": {
        "global_pose": {
            "orientation": {
                "w": 0.5084816217422485,
                "x": -0.49083608388900757,
                "y": 0.5182115435600281,
                "z": -0.4816462993621826
            },
            "position": {
                "x": 0.5540239810943604,
                "y": 0.030875300988554955,
                "z": 0.16403168439865112
            }
        },
        "name": "move_to_storage_A"
    },
    "id": "RRT_move_to_storage_A_116",
    "joint_names": [
        "shoulder_pan_joint",
        "shoulder_lift_joint",
        "elbow_joint",
        "wrist_1_joint",
        "wrist_2_joint",
        "wrist_3_joint"
    ],
    "metrics": {
        "cart_traj_len": 0.35321919069699736,
        "distance_elbow_joint": 0.4507116962746911,
        "distance_shoulder_lift_joint": 0.233252943883125,
        "distance_shoulder_pan_joint": 0.4600729677718749,
        "distance_wrist_1_joint": 0.24363872080128235,
        "distance_wrist_2_joint": 1.1068090293315254,
        "distance_wrist_3_joint": 0.08772822467105845,
        "smoothness": 0.0,
        "time": 0.051487803,
        "traj_len": 1.606926750892385,
        "weighted_distance": 2.0268492253269557
    },
    "planner": "RRT",
    "start": {
        "state": {
            "elbow_joint": 1.971548259319323,
            "shoulder_lift_joint": -1.1394851275133948,
            "shoulder_pan_joint": 0.1228115487234821,
            "wrist_1_joint": -0.7804723859257726,
            "wrist_2_joint": 0.12958671773740124,
            "wrist_3_joint": -3.192489227718131
        }
    },
    "waypoints": [
        {
            "positions": [
                0.1228115487234821,
                -1.1394851275133948,
                1.971548259319323,
                -0.7804723859257726,
                0.12958671773740124,
                -3.192489227718131
            ]
        },
        {
            "positions": [
                0.057086839041785686,
                -1.1728069766395555,
                2.035935644501422,
                -0.815277917468813,
                0.2877022933561906,
                -3.1799566241936943
            ]
        },
        {
            "positions": [
                -0.008637870639910727,
                -1.2061288257657163,
                2.1003230296835205,
                -0.8500834490118533,
                0.4458178689749799,
                -3.1674240206692574
            ]
        },
        {
            "positions": [
                -0.07436258032160714,
                -1.239450674891877,
                2.164710414865619,
                -0.8848889805548936,
                0.6039334445937692,
                -3.1548914171448206
            ]
        },
        {
            "positions": [
                -0.14008729000330356,
                -1.2727725240180376,
                2.2290978000477177,
                -0.919694512097934,
                0.7620490202125586,
                -3.1423588136203833
            ]
        },
        {
            "positions": [
                -0.20581199968499997,
                -1.3060943731441985,
                2.293485185229817,
                -0.9545000436409743,
                0.920164595831348,
                -3.1298262100959464
            ]
        },
        {
            "positions": [
                -0.2715367093666964,
                -1.3394162222703592,
                2.3578725704119154,
                -0.9893055751840146,
                1.078280171450137,
                -3.1172936065715096
            ]
        },
        {
            "positions": [
                -0.3372614190483928,
                -1.3727380713965198,
                2.422259955594014,
                -1.024111106727055,
                1.2363957470689266,
                -3.1047610030470727
            ]
        }
    ]
}{
    "goal": {
        "global_pose": {
            "orientation": {
                "w": 0.5084816217422485,
                "x": -0.49083608388900757,
                "y": 0.5182115435600281,
                "z": -0.4816462993621826
            },
            "position": {
                "x": 0.5540239810943604,
                "y": 0.030875300988554955,
                "z": 0.16403168439865112
            }
        },
        "name": "move_to_storage_A"
    },
    "id": "RRT_move_to_storage_A_116",
    "joint_names": [
        "shoulder_pan_joint",
        "shoulder_lift_joint",
        "elbow_joint",
        "wrist_1_joint",
        "wrist_2_joint",
        "wrist_3_joint"
    ],
    "metrics": {
        "cart_traj_len": 0.35352613695612634,
        "distance_elbow_joint": 0.45204404016430155,
        "distance_shoulder_lift_joint": 0.2352264078629156,
        "distance_shoulder_pan_joint": 0.4602530601578251,
        "distance_wrist_1_joint": 0.2508816594445218,
        "distance_wrist_2_joint": 1.1089916891668303,
        "distance_wrist_3_joint": 0.09703310245128849,
        "smoothness": 4.440892098500626e-16,
        "time": 0.021503767,
        "traj_len": 1.6138246370803995,
        "weighted_distance": 2.039208060194352
    },
    "planner": "RRT",
    "start": {
        "state": {
            "elbow_joint": 1.97154746011099,
            "shoulder_lift_joint": -1.13948474672311,
            "shoulder_pan_joint": 0.12281154466712228,
            "wrist_1_joint": -0.7804688027058302,
            "wrist_2_joint": 0.12958655903071145,
            "wrist_3_joint": 3.0906928834467795
        }
    },
    "waypoints": [
        {
            "positions": [
                0.12281154466712228,
                -1.13948474672311,
                1.97154746011099,
                -0.7804688027058302,
                0.12958655903071145,
                3.0906928834467795
            ]
        },
        {
            "positions": [
                0.05706110750171871,
                -1.173088519274955,
                2.0361251801344618,
                -0.8163090397693333,
                0.2880139431974015,
                3.104554755225535
            ]
        },
        {
            "positions": [
                -0.008689329663684867,
                -1.2066922918268002,
                2.100702900157933,
                -0.8521492768328364,
                0.4464413273640915,
                3.1184166270042906
            ]
        },
        {
            "positions": [
                -0.07443976682908844,
                -1.2402960643786451,
                2.165280620181405,
                -0.8879895138963395,
                0.6048687115307816,
                3.132278498783046
            ]
        },
        {
            "positions": [
                -0.140190203994492,
                -1.2738998369304904,
                2.2298583402048764,
                -0.9238297509598427,
                0.7632960956974716,
                3.1461403705618016
            ]
        },
        {
            "positions": [
                -0.20594064115989563,
                -1.3075036094823353,
                2.2944360602283482,
                -0.9596699880233457,
                0.9217234798641617,
                3.160002242340557
            ]
        },
        {
            "positions": [
                -0.27169107832529915,
                -1.3411073820341803,
                2.3590137802518196,
                -0.9955102250868488,
                1.0801508640308517,
                3.1738641141193127
            ]
        },
        {
            "positions": [
                -0.3374415154907028,
                -1.3747111545860256,
                2.4235915002752915,
                -1.031350462150352,
                1.2385782481975418,
                3.187725985898068
            ]
        }
    ]
}{
    "goal": {
        "global_pose": {
            "orientation": {
                "w": 0.5084816217422485,
                "x": -0.49083608388900757,
                "y": 0.5182115435600281,
                "z": -0.4816462993621826
            },
            "position": {
                "x": 0.5540239810943604,
                "y": 0.030875300988554955,
                "z": 0.16403168439865112
            }
        },
        "name": "move_to_storage_A"
    },
    "id": "RRT_move_to_storage_A_116",
    "joint_names": [
        "shoulder_pan_joint",
        "shoulder_lift_joint",
        "elbow_joint",
        "wrist_1_joint",
        "wrist_2_joint",
        "wrist_3_joint"
    ],
    "metrics": {
        "cart_traj_len": 0.3531766869427474,
        "distance_elbow_joint": 0.4510319541712131,
        "distance_shoulder_lift_joint": 0.23451072153969266,
        "distance_shoulder_pan_joint": 0.46175354938989976,
        "distance_wrist_1_joint": 0.24311113613433877,
        "distance_wrist_2_joint": 1.099893865721139,
        "distance_wrist_3_joint": 0.09357072911762288,
        "smoothness": 2.2204460668324854e-16,
        "time": 0.013649652,
        "traj_len": 1.6074426758282567,
        "weighted_distance": 2.0283043204027913
    },
    "planner": "RRT",
    "start": {
        "state": {
            "elbow_joint": 1.9715472970024885,
            "shoulder_lift_joint": -1.1394870060712896,
            "shoulder_pan_joint": 0.12281152778156021,
            "wrist_1_joint": -0.780463741449964,
            "wrist_2_joint": 0.12958659822042276,
            "wrist_3_joint": 3.090690232415272
        }
    },
    "waypoints": [
        {
            "positions": [
                0.12281152778156021,
                -1.1394870060712896,
                1.9715472970024885,
                -0.780463741449964,
                0.12958659822042276,
                3.090690232415272
            ]
        },
        {
            "positions": [
                0.05684673501157453,
                -1.172988537719817,
                2.0359804333126617,
                -0.8151939037548696,
                0.2867142933234426,
                3.104057479432075
            ]
        },
        {
            "positions": [
                -0.009118057758411152,
                -1.2064900693683447,
                2.100413569622835,
                -0.8499240660597751,
                0.4438419884264625,
                3.1174247264488786
            ]
        },
        {
            "positions": [
                -0.07508285052839683,
                -1.2399916010168721,
                2.1648467059330083,
                -0.8846542283646806,
                0.6009696835294823,
                3.1307919734656817
            ]
        },
        {
            "positions": [
                -0.1410476432983825,
                -1.2734931326653998,
                2.229279842243182,
                -0.9193843906695861,
                0.7580973786325022,
                3.144159220482485
            ]
        },
        {
            "positions": [
                -0.2070124360683682,
                -1.3069946643139272,
                2.293712978553355,
                -0.9541145529744917,
                0.9152250737355221,
                3.157526467499288
            ]
        },
        {
            "positions": [
                -0.27297722883835385,
                -1.3404961959624546,
                2.358146114863528,
                -0.9888447152793972,
                1.072352768838542,
                3.1708937145160916
            ]
        },
        {
            "positions": [
                -0.3389420216083395,
                -1.3739977276109823,
                2.4225792511737017,
                -1.0235748775843028,
                1.2294804639415617,
                3.1842609615328947
            ]
        }
    ]
}