{
    "goal": {
        "global_pose": {
            "orientation": {
                "w": 0.005598929693374612,
                "x": 0.007748599140229565,
                "y": 0.7110244013736278,
                "z": -0.7031023480610252
            },
            "position": {
                "x": -0.8858502320852131,
                "y": -0.7141253447532654,
                "z": 0.3711530566215515
            }
        },
        "name": "move_to_auspresseinheit_C"
    },
    "id": "RRT_move_to_auspresseinheit_C_46",
    "joint_names": [
        "shoulder_pan_joint",
        "shoulder_lift_joint",
        "elbow_joint",
        "wrist_1_joint",
        "wrist_2_joint",
        "wrist_3_joint"
    ],
    "metrics": {
        "cart_traj_len": 0.49435352854331294,
        "distance_elbow_joint": 1.0100200522681337,
        "distance_shoulder_lift_joint": 0.3288887751805155,
        "distance_shoulder_pan_joint": 0.2568895042681154,
        "distance_wrist_1_joint": 0.7002525695462869,
        "distance_wrist_2_joint": 1.306716518004948,
        "distance_wrist_3_joint": 0.07484406579010017,
        "smoothness": 1.130408897695056e-15,
        "time": 0.015071576,
        "traj_len": 1.9177099585333803,
        "weighted_distance": 2.4154230901002696
    },
    "planner": "RRT",
    "start": {
        "state": {
            "elbow_joint": 1.7527959577737207,
            "shoulder_lift_joint": -0.9740617694225068,
            "shoulder_pan_joint": -2.967991417825858,
            "wrist_1_joint": -0.759517768980727,
            "wrist_2_joint": 1.7443932448377408,
            "wrist_3_joint": -3.0840537646736568
        }
    },
    "waypoints": [
        {
            "positions": [
                -2.967991417825858,
                -0.9740617694225068,
                1.7527959577737207,
                -0.759517768980727,
                1.7443932448377408,
                -3.0840537646736568
            ]
        },
        {
            "positions": [
                -2.9423024673990463,
                -0.9411728919044552,
                1.6517939525469072,
                -0.6894925120260983,
                1.613721593037246,
                -3.0915381712526666
            ]
        },
        {
            "positions": [
                -2.9166135169722347,
                -0.9082840143864037,
                1.550791947320094,
                -0.6194672550714696,
                1.4830499412367513,
                -3.099022577831677
            ]
        },
        {
            "positions": [
                -2.8909245665454235,
                -0.8753951368683521,
                1.4497899420932805,
                -0.5494419981168409,
                1.3523782894362564,
                -3.1065069844106867
            ]
        },
        {
            "positions": [
                -2.865235616118612,
                -0.8425062593503005,
                1.3487879368664673,
                -0.4794167411622122,
                1.2217066376357617,
                -3.113991390989697
            ]
        },
        {
            "positions": [
                -2.8395466656918003,
                -0.809617381832249,
                1.2477859316396538,
                -0.40939148420758353,
                1.0910349858352668,
                -3.121475797568707
            ]
        },
        {
            "positions": [
                -2.8138577152649886,
                -0.7767285043141975,
                1.1467839264128403,
                -0.33936622725295484,
                0.960363334034772,
                -3.1289602041477167
            ]
        },
        {
            "positions": [
                -2.788168764838177,
                -0.7438396267961459,
                1.045781921186027,
                -0.2693409702983262,
                0.8296916822342773,
                -3.136444610726727
            ]
        },
        {
            "positions": [
                -2.762479814411366,
                -0.7109507492780944,
                0.9447799159592136,
                -0.19931571334369746,
                0.6990200304337824,
                -3.143929017305737
            ]
        },
        {
            "positions": [
                -2.736790863984554,
                -0.6780618717600428,
                0.8437779107324003,
                -0.12929045638906878,
                0.5683483786332875,
                -3.151413423884747
            ]
        },
        {
            "positions": [
                -2.7111019135577425,
                -0.6451729942419913,
                0.742775905505587,
                -0.059265199434440065,
                0.43767672683279285,
                -3.158897830463757
            ]
        }
    ]
}