{
    "goal": {
        "global_pose": {
            "orientation": {
                "w": 0.7047431468963623,
                "x": -0.7094548344612122,
                "y": 0.0024358443915843964,
                "z": -0.0022348060738295317
            },
            "position": {
                "x": 0.6094750761985779,
                "y": 0.3671506643295288,
                "z": 0.19426114857196808
            }
        },
        "name": "move_to_magneteinheit_A"
    },
    "id": "RRT_move_to_magneteinheit_A_50",
    "joint_names": [
        "shoulder_pan_joint",
        "shoulder_lift_joint",
        "elbow_joint",
        "wrist_1_joint",
        "wrist_2_joint",
        "wrist_3_joint"
    ],
    "metrics": {
        "cart_traj_len": 4.26688520771541,
        "distance_elbow_joint": 3.927316568024006,
        "distance_shoulder_lift_joint": 1.0271093286577528,
        "distance_shoulder_pan_joint": 4.089788012131423,
        "distance_wrist_1_joint": 3.5216878536702687,
        "distance_wrist_2_joint": 2.272014413117347,
        "distance_wrist_3_joint": 0.5828130534579054,
        "smoothness": 0.3211782447186502,
        "time": 0.297957592,
        "traj_len": 3.9269236342280336,
        "weighted_distance": 4.730756557122987
    },
    "planner": "RRT",
    "start": {
        "state": {
            "elbow_joint": -1.9196185241190666,
            "shoulder_lift_joint": -1.2443396400964142,
            "shoulder_pan_joint": 2.6996025414629847,
            "wrist_1_joint": -1.5485510000780065,
            "wrist_2_joint": -1.5709468930060704,
            "wrist_3_joint": 0.4420197071253992
        }
    },
    "waypoints": [
        {
            "positions": [
                2.6996025414629847,
                -1.2443396400964142,
                -1.9196185241190666,
                -1.5485510000780065,
                -1.5709468930060704,
                0.4420197071253992
            ]
        },
        {
            "positions": [
                2.5653007361479423,
                -1.2455243757721768,
                -1.8381084324648724,
                -1.4686864922334912,
                -1.478164508657462,
                0.445310610860515
            ]
        },
        {
            "positions": [
                2.4309989308329003,
                -1.2467091114479394,
                -1.7565983408106782,
                -1.3888219843889757,
                -1.3853821243088535,
                0.4486015145956308
            ]
        },
        {
            "positions": [
                2.296697125517858,
                -1.247893847123702,
                -1.675088249156484,
                -1.3089574765444605,
                -1.2925997399602451,
                0.4518924183307466
            ]
        },
        {
            "positions": [
                2.162395320202816,
                -1.2490785827994648,
                -1.59357815750229,
                -1.2290929686999452,
                -1.1998173556116367,
                0.4551833220658625
            ]
        },
        {
            "positions": [
                2.0280935148877735,
                -1.2502633184752274,
                -1.5120680658480958,
                -1.1492284608554297,
                -1.1070349712630283,
                0.4584742258009783
            ]
        },
        {
            "positions": [
                1.8937917095727315,
                -1.25144805415099,
                -1.4305579741939016,
                -1.0693639530109147,
                -1.0142525869144197,
                0.4617651295360941
            ]
        },
        {
            "positions": [
                1.759489904257689,
                -1.2526327898267526,
                -1.3490478825397074,
                -0.9894994451663992,
                -0.9214702025658114,
                0.4650560332712099
            ]
        },
        {
            "positions": [
                1.6251880989426468,
                -1.2538175255025152,
                -1.2675377908855134,
                -0.9096349373218839,
                -0.8286878182172029,
                0.46834693700632574
            ]
        },
        {
            "positions": [
                1.4908862936276044,
                -1.2550022611782778,
                -1.186027699231319,
                -0.8297704294773685,
                -0.7359054338685944,
                0.47163784074144155
            ]
        },
        {
            "positions": [
                1.3565844883125622,
                -1.2561869968540404,
                -1.104517607577125,
                -0.7499059216328532,
                -0.643123049519986,
                0.4749287444765574
            ]
        },
        {
            "positions": [
                1.2222826829975202,
                -1.2573717325298033,
                -1.0230075159229308,
                -0.6700414137883379,
                -0.5503406651713776,
                0.4782196482116732
            ]
        },
        {
            "positions": [
                1.087980877682478,
                -1.2585564682055659,
                -0.9414974242687366,
                -0.5901769059438227,
                -0.45755828082276917,
                0.48151055194678904
            ]
        },
        {
            "positions": [
                0.9536790723674355,
                -1.2597412038813285,
                -0.8599873326145424,
                -0.5103123980993072,
                -0.36477589647416075,
                0.48480145568190486
            ]
        },
        {
            "positions": [
                0.8193772670523934,
                -1.260925939557091,
                -0.7784772409603481,
                -0.430447890254792,
                -0.2719935121255523,
                0.48809235941702067
            ]
        },
        {
            "positions": [
                0.7428985657636821,
                -1.2217976946827942,
                -0.673777546608061,
                -0.3121392927151969,
                -0.24269274465678586,
                0.47871236385913507
            ]
        },
        {
            "positions": [
                0.6664198644749707,
                -1.1826694498084973,
                -0.569077852255774,
                -0.19383069517560175,
                -0.21339197718801944,
                0.4693323683012494
            ]
        },
        {
            "positions": [
                0.5899411631862592,
                -1.1435412049342006,
                -0.4643781579034869,
                -0.07552209763600665,
                -0.18409120971925302,
                0.4599523727433638
            ]
        },
        {
            "positions": [
                0.5134624618975479,
                -1.1044129600599037,
                -0.35967846355119987,
                0.042786499903588515,
                -0.1547904422504866,
                0.4505723771854782
            ]
        },
        {
            "positions": [
                0.4369837606088365,
                -1.0652847151856069,
                -0.2549787691989128,
                0.16109509744318362,
                -0.12548967478172018,
                0.44119238162759256
            ]
        },
        {
            "positions": [
                0.3605050593201251,
                -1.02615647031131,
                -0.15027907484662573,
                0.2794036949827787,
                -0.09618890731295376,
                0.43181238606970695
            ]
        },
        {
            "positions": [
                0.28402635803141374,
                -0.9870282254370131,
                -0.04557938049433874,
                0.39771229252237383,
                -0.06688813984418734,
                0.42243239051182135
            ]
        },
        {
            "positions": [
                0.20754765674270237,
                -0.9478999805627163,
                0.05912031385794836,
                0.516020890061969,
                -0.037587372375420924,
                0.41305239495393575
            ]
        },
        {
            "positions": [
                0.1310689554539909,
                -0.9087717356884195,
                0.16382000821023546,
                0.634329487601564,
                -0.008286604906654504,
                0.4036723993960501
            ]
        },
        {
            "positions": [
                0.05459025416527952,
                -0.8696434908141226,
                0.26851970256252244,
                0.7526380851411593,
                0.021014162562111915,
                0.3942924038381645
            ]
        },
        {
            "positions": [
                -0.021888447123431964,
                -0.8305152459398257,
                0.37321939691480954,
                0.8709466826807545,
                0.050314930030878335,
                0.38491240828027884
            ]
        },
        {
            "positions": [
                -0.09836714841214322,
                -0.7913870010655288,
                0.47791909126709664,
                0.9892552802203495,
                0.07961569749964476,
                0.37553241272239324
            ]
        },
        {
            "positions": [
                -0.1748458497008547,
                -0.7522587561912321,
                0.5826187856193837,
                1.1075638777599446,
                0.10891646496841118,
                0.36615241716450764
            ]
        },
        {
            "positions": [
                -0.25132455098956596,
                -0.7131305113169352,
                0.6873184799716706,
                1.2258724752995396,
                0.1382172324371776,
                0.35677242160662204
            ]
        },
        {
            "positions": [
                -0.32780325227827756,
                -0.6740022664426383,
                0.7920181743239579,
                1.344181072839135,
                0.16751799990594402,
                0.3473924260487364
            ]
        },
        {
            "positions": [
                -0.4042819535669887,
                -0.6348740215683415,
                0.8967178686762448,
                1.46248967037873,
                0.19681876737471043,
                0.3380124304908508
            ]
        },
        {
            "positions": [
                -0.4807606548557003,
                -0.5957457766940446,
                1.0014175630285318,
                1.580798267918325,
                0.22611953484347685,
                0.3286324349329651
            ]
        },
        {
            "positions": [
                -0.5572393561444117,
                -0.5566175318197478,
                1.1061172573808191,
                1.69910686545792,
                0.2554203023122433,
                0.3192524393750795
            ]
        },
        {
            "positions": [
                -0.6337180574331229,
                -0.5174892869454509,
                1.210816951733106,
                1.8174154629975154,
                0.28472106978100975,
                0.3098724438171939
            ]
        },
        {
            "positions": [
                -0.5256512841137921,
                -0.5556444836005132,
                1.3246571077576537,
                1.839661375939622,
                0.22524300544811454,
                0.2586552315934143
            ]
        },
        {
            "positions": [
                -0.41758451079446124,
                -0.5937996802555754,
                1.4384972637822013,
                1.861907288881729,
                0.16576494111521936,
                0.20743801936963474
            ]
        },
        {
            "positions": [
                -0.3095177374751304,
                -0.6319548769106377,
                1.5523374198067492,
                1.8841532018238356,
                0.10628687678232415,
                0.15622080714585515
            ]
        },
        {
            "positions": [
                -0.20145096415579955,
                -0.6701100735656998,
                1.6661775758312969,
                1.9063991147659425,
                0.04680881244942897,
                0.10500359492207556
            ]
        },
        {
            "positions": [
                -0.09338419083646865,
                -0.7082652702207621,
                1.7800177318558448,
                1.9286450277080491,
                -0.012669251883466237,
                0.05378638269829594
            ]
        },
        {
            "positions": [
                0.014682582482862139,
                -0.7464204668758243,
                1.8938578878803924,
                1.9508909406501558,
                -0.07214731621636145,
                0.00256917047451638
            ]
        },
        {
            "positions": [
                0.12274935580219305,
                -0.7845756635308866,
                2.00769804390494,
                1.9731368535922627,
                -0.13162538054925663,
                -0.04864804174926326
            ]
        }
    ]
}