{
    "goal": {
        "global_pose": {
            "orientation": {
                "w": 0.5084816217422485,
                "x": -0.49083608388900757,
                "y": 0.5182115435600281,
                "z": -0.4816462993621826
            },
            "position": {
                "x": 0.5540239810943604,
                "y": 0.030875300988554955,
                "z": 0.16403168439865112
            }
        },
        "name": "move_to_storage_A"
    },
    "id": "RRT_move_to_storage_A_129",
    "joint_names": [
        "shoulder_pan_joint",
        "shoulder_lift_joint",
        "elbow_joint",
        "wrist_1_joint",
        "wrist_2_joint",
        "wrist_3_joint"
    ],
    "metrics": {
        "cart_traj_len": 0.35244686658069896,
        "distance_elbow_joint": 0.4479671960803586,
        "distance_shoulder_lift_joint": 0.23572439443583382,
        "distance_shoulder_pan_joint": 0.4606408135652238,
        "distance_wrist_1_joint": 0.23596645997832166,
        "distance_wrist_2_joint": 1.098732999369498,
        "distance_wrist_3_joint": 0.0882890488813235,
        "smoothness": 2.2204460668324854e-16,
        "time": 0.016384653000000002,
        "traj_len": 1.6022861518188813,
        "weighted_distance": 2.0195540273587698
    },
    "planner": "RRT",
    "start": {
        "state": {
            "elbow_joint": 1.971548259319323,
            "shoulder_lift_joint": -1.1394851275133948,
            "shoulder_pan_joint": 0.1228115487234821,
            "wrist_1_joint": -0.7804723859257726,
            "wrist_2_joint": 0.12958671773740124,
            "wrist_3_joint": -3.192489227718131
        }
    },
    "waypoints": [
        {
            "positions": [
                0.1228115487234821,
                -1.1394851275133948,
                1.971548259319323,
                -0.7804723859257726,
                0.12958671773740124,
                -3.192489227718131
            ]
        },
        {
            "positions": [
                0.05700571821416442,
                -1.1731600410042282,
                2.0355435730450884,
                -0.81418188020839,
                0.2865485747901867,
                -3.1798765064493706
            ]
        },
        {
            "positions": [
                -0.008800112295153262,
                -1.2068349544950616,
                2.099538886770854,
                -0.8478913744910074,
                0.4435104318429721,
                -3.16726378518061
            ]
        },
        {
            "positions": [
                -0.07460594280447094,
                -1.240509867985895,
                2.1635342004966196,
                -0.8816008687736248,
                0.6004722888957575,
                -3.1546510639118495
            ]
        },
        {
            "positions": [
                -0.14041177331378862,
                -1.2741847814767284,
                2.227529514222385,
                -0.9153103630562421,
                0.757434145948543,
                -3.1420383426430893
            ]
        },
        {
            "positions": [
                -0.20621760382310633,
                -1.3078596949675618,
                2.291524827948151,
                -0.9490198573388595,
                0.9143960030013285,
                -3.129425621374329
            ]
        },
        {
            "positions": [
                -0.272023434332424,
                -1.3415346084583952,
                2.355520141673916,
                -0.9827293516214769,
                1.0713578600541138,
                -3.116812900105568
            ]
        },
        {
            "positions": [
                -0.3378292648417417,
                -1.3752095219492286,
                2.4195154553996816,
                -1.0164388459040943,
                1.2283197171068994,
                -3.1042001788368077
            ]
        }
    ]
}{
    "goal": {
        "global_pose": {
            "orientation": {
                "w": 0.5084816217422485,
                "x": -0.49083608388900757,
                "y": 0.5182115435600281,
                "z": -0.4816462993621826
            },
            "position": {
                "x": 0.5540239810943604,
                "y": 0.030875300988554955,
                "z": 0.16403168439865112
            }
        },
        "name": "move_to_storage_A"
    },
    "id": "RRT_move_to_storage_A_129",
    "joint_names": [
        "shoulder_pan_joint",
        "shoulder_lift_joint",
        "elbow_joint",
        "wrist_1_joint",
        "wrist_2_joint",
        "wrist_3_joint"
    ],
    "metrics": {
        "cart_traj_len": 0.35330768980940136,
        "distance_elbow_joint": 0.4503099537123756,
        "distance_shoulder_lift_joint": 0.23547082322386825,
        "distance_shoulder_pan_joint": 0.4599444252878472,
        "distance_wrist_1_joint": 0.24285238630112316,
        "distance_wrist_2_joint": 1.1086625946867925,
        "distance_wrist_3_joint": 0.10270461062317038,
        "smoothness": 1.6653345401994185e-15,
        "time": 0.013038591,
        "traj_len": 1.6124344308638343,
        "weighted_distance": 2.0388401104719893
    },
    "planner": "RRT",
    "start": {
        "state": {
            "elbow_joint": 1.97154746011099,
            "shoulder_lift_joint": -1.13948474672311,
            "shoulder_pan_joint": 0.12281154466712228,
            "wrist_1_joint": -0.7804688027058302,
            "wrist_2_joint": 0.12958655903071145,
            "wrist_3_joint": 3.0906928834467795
        }
    },
    "waypoints": [
        {
            "positions": [
                0.12281154466712228,
                -1.13948474672311,
                1.97154746011099,
                -0.7804688027058302,
                0.12958655903071145,
                3.0906928834467795
            ]
        },
        {
            "positions": [
                0.05710519819742983,
                -1.173123435755091,
                2.0358774534984723,
                -0.8151620007488478,
                0.2879669297002532,
                3.105364970678661
            ]
        },
        {
            "positions": [
                -0.008601148272262618,
                -1.2067621247870723,
                2.100207446885954,
                -0.8498551987918653,
                0.446347300369795,
                3.1200370579105425
            ]
        },
        {
            "positions": [
                -0.07430749474195507,
                -1.2404008138190534,
                2.1645374402734365,
                -0.884548396834883,
                0.6047276710393368,
                3.134709145142424
            ]
        },
        {
            "positions": [
                -0.1400138412116475,
                -1.2740395028510347,
                2.228867433660919,
                -0.9192415948779006,
                0.7631080417088786,
                3.1493812323743056
            ]
        },
        {
            "positions": [
                -0.20572018768133998,
                -1.3076781918830158,
                2.2931974270484012,
                -0.9539347929209181,
                0.9214884123784204,
                3.164053319606187
            ]
        },
        {
            "positions": [
                -0.2714265341510324,
                -1.341316880914997,
                2.357527420435883,
                -0.9886279909639357,
                1.079868783047962,
                3.1787254068380686
            ]
        },
        {
            "positions": [
                -0.3371328806207249,
                -1.3749555699469782,
                2.4218574138233655,
                -1.0233211890069533,
                1.238249153717504,
                3.19339749406995
            ]
        }
    ]
}{
    "goal": {
        "global_pose": {
            "orientation": {
                "w": 0.5084816217422485,
                "x": -0.49083608388900757,
                "y": 0.5182115435600281,
                "z": -0.4816462993621826
            },
            "position": {
                "x": 0.5540239810943604,
                "y": 0.030875300988554955,
                "z": 0.16403168439865112
            }
        },
        "name": "move_to_storage_A"
    },
    "id": "RRT_move_to_storage_A_129",
    "joint_names": [
        "shoulder_pan_joint",
        "shoulder_lift_joint",
        "elbow_joint",
        "wrist_1_joint",
        "wrist_2_joint",
        "wrist_3_joint"
    ],
    "metrics": {
        "cart_traj_len": 0.3524736824743191,
        "distance_elbow_joint": 0.45016607967297917,
        "distance_shoulder_lift_joint": 0.23431259822614958,
        "distance_shoulder_pan_joint": 0.46057799324631793,
        "distance_wrist_1_joint": 0.2413118664134115,
        "distance_wrist_2_joint": 1.0993386116316182,
        "distance_wrist_3_joint": 0.09992895951989089,
        "smoothness": 4.440892098500626e-16,
        "time": 0.027128214999999997,
        "traj_len": 1.6079913273119253,
        "weighted_distance": 2.031291339467379
    },
    "planner": "RRT",
    "start": {
        "state": {
            "elbow_joint": 1.9715472970024885,
            "shoulder_lift_joint": -1.1394870060712896,
            "shoulder_pan_joint": 0.12281152778156021,
            "wrist_1_joint": -0.780463741449964,
            "wrist_2_joint": 0.12958659822042276,
            "wrist_3_joint": 3.090690232415272
        }
    },
    "waypoints": [
        {
            "positions": [
                0.12281152778156021,
                -1.1394870060712896,
                1.9715472970024885,
                -0.780463741449964,
                0.12958659822042276,
                3.090690232415272
            ]
        },
        {
            "positions": [
                0.0570146716035148,
                -1.172960234389311,
                2.0358567369557714,
                -0.8149368652233085,
                0.2866349713106539,
                3.1049657980609706
            ]
        },
        {
            "positions": [
                -0.008782184574530616,
                -1.2064334627073323,
                2.100166176909054,
                -0.849409988996653,
                0.4436833444008851,
                3.1192413637066694
            ]
        },
        {
            "positions": [
                -0.07457904075257601,
                -1.2399066910253538,
                2.1644756168623367,
                -0.8838831127699975,
                0.6007317174911162,
                3.133516929352368
            ]
        },
        {
            "positions": [
                -0.14037589693062144,
                -1.273379919343375,
                2.2287850568156196,
                -0.918356236543342,
                0.7577800905813473,
                3.1477924949980665
            ]
        },
        {
            "positions": [
                -0.20617275310866687,
                -1.3068531476613965,
                2.2930944967689024,
                -0.9528293603166865,
                0.9148284636715786,
                3.162068060643765
            ]
        },
        {
            "positions": [
                -0.2719696092867122,
                -1.3403263759794177,
                2.357403936722185,
                -0.987302484090031,
                1.0718768367618097,
                3.176343626289464
            ]
        },
        {
            "positions": [
                -0.3377664654647577,
                -1.3737996042974392,
                2.4217133766754677,
                -1.0217756078633755,
                1.228925209852041,
                3.1906191919351627
            ]
        }
    ]
}