{
    "goal": {
        "global_pose": {
            "orientation": {
                "w": -0.00223480608172531,
                "x": 0.0024358444001904467,
                "y": 0.7094548369677653,
                "z": -0.704743149386269
            },
            "position": {
                "x": 0.6205249238014221,
                "y": -0.6371506643295288,
                "z": 0.19426114857196808
            }
        },
        "name": "move_to_magneteinheit_B"
    },
    "id": "RRT_move_to_magneteinheit_B_8",
    "joint_names": [
        "shoulder_pan_joint",
        "shoulder_lift_joint",
        "elbow_joint",
        "wrist_1_joint",
        "wrist_2_joint",
        "wrist_3_joint"
    ],
    "metrics": {
        "cart_traj_len": 3.1414425349724415,
        "distance_elbow_joint": 4.616390927207739,
        "distance_shoulder_lift_joint": 1.0584393159318393,
        "distance_shoulder_pan_joint": 2.581409658699234,
        "distance_wrist_1_joint": 1.2457538935894208,
        "distance_wrist_2_joint": 1.1943057021194043,
        "distance_wrist_3_joint": 1.7758047352111754,
        "smoothness": 0.5215166783008158,
        "time": 1.935200346,
        "traj_len": 3.5315866452288573,
        "weighted_distance": 4.296949301410245
    },
    "planner": "RRT",
    "start": {
        "state": {
            "elbow_joint": 2.6216224122426386,
            "shoulder_lift_joint": -1.4174107377796124,
            "shoulder_pan_joint": 0.7066234856936794,
            "wrist_1_joint": 1.9546482284002225,
            "wrist_2_joint": -0.7096286983471962,
            "wrist_3_joint": 0.005740856962016249
        }
    },
    "waypoints": [
        {
            "positions": [
                0.7066234856936794,
                -1.4174107377796124,
                2.6216224122426386,
                1.9546482284002225,
                -0.7096286983471962,
                0.005740856962016249
            ]
        },
        {
            "positions": [
                0.6937044165704764,
                -1.4549733314405582,
                2.596165844366893,
                1.867975214214083,
                -0.7009327141669857,
                -0.04890192357751548
            ]
        },
        {
            "positions": [
                0.6807853474472736,
                -1.492535925101504,
                2.5707092764911468,
                1.7813022000279437,
                -0.6922367299867751,
                -0.1035447041170472
            ]
        },
        {
            "positions": [
                0.6306913836348168,
                -1.5740593049630964,
                2.504410935030077,
                1.6965492741082266,
                -0.6430557396231477,
                -0.0805268893369115
            ]
        },
        {
            "positions": [
                0.5805974198223599,
                -1.6555826848246888,
                2.438112593569007,
                1.6117963481885094,
                -0.5938747492595201,
                -0.05750907455677579
            ]
        },
        {
            "positions": [
                0.5305034560099031,
                -1.7371060646862813,
                2.3718142521079373,
                1.5270434222687923,
                -0.5446937588958927,
                -0.03449125977664008
            ]
        },
        {
            "positions": [
                0.6249807901748379,
                -1.7471481194069058,
                2.196545717190581,
                1.4984845842290486,
                -0.5058533161758467,
                0.00014147467724934248
            ]
        },
        {
            "positions": [
                0.7194581243397727,
                -1.7571901741275304,
                2.0212771822732254,
                1.4699257461893052,
                -0.4670128734558009,
                0.03477420913113877
            ]
        },
        {
            "positions": [
                0.8139354585047076,
                -1.767232228848155,
                1.8460086473558694,
                1.4413669081495615,
                -0.42817243073575495,
                0.06940694358502819
            ]
        },
        {
            "positions": [
                0.9084127926696424,
                -1.7772742835687798,
                1.6707401124385135,
                1.412808070109818,
                -0.38933198801570906,
                0.10403967803891762
            ]
        },
        {
            "positions": [
                1.0028901268345771,
                -1.7873163382894044,
                1.4954715775211576,
                1.3842492320700743,
                -0.3504915452956631,
                0.13867241249280704
            ]
        },
        {
            "positions": [
                1.097367460999512,
                -1.797358393010029,
                1.3202030426038016,
                1.3556903940303306,
                -0.31165110257561723,
                0.17330514694669646
            ]
        },
        {
            "positions": [
                1.1918447951644469,
                -1.8074004477306536,
                1.1449345076864457,
                1.3271315559905872,
                -0.2728106598555713,
                0.20793788140058592
            ]
        },
        {
            "positions": [
                1.2863221293293816,
                -1.8174425024512781,
                0.9696659727690897,
                1.2985727179508435,
                -0.23397021713552546,
                0.2425706158544753
            ]
        },
        {
            "positions": [
                1.3807994634943164,
                -1.8274845571719027,
                0.7943974378517338,
                1.2700138799111,
                -0.19512977441547952,
                0.27720335030836474
            ]
        },
        {
            "positions": [
                1.4752767976592511,
                -1.8375266118925273,
                0.6191289029343778,
                1.2414550418713564,
                -0.15628933169543358,
                0.31183608476225416
            ]
        },
        {
            "positions": [
                1.569754131824186,
                -1.8475686666131519,
                0.4438603680170219,
                1.2128962038316127,
                -0.11744888897538774,
                0.3464688192161436
            ]
        },
        {
            "positions": [
                1.6642314659891209,
                -1.8576107213337765,
                0.26859183309966594,
                1.184337365791869,
                -0.0786084462553418,
                0.381101553670033
            ]
        },
        {
            "positions": [
                1.7587088001540556,
                -1.8676527760544013,
                0.09332329818231022,
                1.1557785277521255,
                -0.03976800353529597,
                0.4157342881239224
            ]
        },
        {
            "positions": [
                1.8531861343189906,
                -1.8776948307750259,
                -0.08194523673504595,
                1.1272196897123818,
                -0.0009275608152499171,
                0.4503670225778119
            ]
        },
        {
            "positions": [
                1.9476634684839254,
                -1.8877368854956504,
                -0.2572137716524021,
                1.0986608516726384,
                0.037912881904795914,
                0.48499975703170123
            ]
        },
        {
            "positions": [
                2.04214080264886,
                -1.897778940216275,
                -0.43248230656975784,
                1.0701020136328947,
                0.07675332462484175,
                0.5196324914855908
            ]
        },
        {
            "positions": [
                2.1366181368137953,
                -1.9078209949368996,
                -0.607750841487114,
                1.041543175593151,
                0.1155937673448878,
                0.5542652259394802
            ]
        },
        {
            "positions": [
                2.2310954709787296,
                -1.9178630496575242,
                -0.7830193764044697,
                1.0129843375534076,
                0.15443421006493363,
                0.5888979603933695
            ]
        },
        {
            "positions": [
                2.3255728051436644,
                -1.9279051043781488,
                -0.9582879113218254,
                0.9844254995136639,
                0.19327465278497946,
                0.623530694847259
            ]
        },
        {
            "positions": [
                2.420050139308599,
                -1.9379471590987736,
                -1.1335564462391816,
                0.9558666614739203,
                0.23211509550502551,
                0.6581634293011485
            ]
        },
        {
            "positions": [
                2.5145274734735343,
                -1.9479892138193982,
                -1.3088249811565373,
                0.9273078234341767,
                0.27095553822507135,
                0.6927961637550379
            ]
        },
        {
            "positions": [
                2.609004807638469,
                -1.9580312685400227,
                -1.4840935160738935,
                0.8987489853944332,
                0.3097959809451172,
                0.7274288982089272
            ]
        },
        {
            "positions": [
                2.703482141803404,
                -1.9680733232606473,
                -1.6593620509912497,
                0.8701901473546895,
                0.34863642366516323,
                0.7620616326628167
            ]
        },
        {
            "positions": [
                2.7979594759683386,
                -1.978115377981272,
                -1.8346305859086058,
                0.8416313093149459,
                0.38747686638520906,
                0.7966943671167062
            ]
        },
        {
            "positions": [
                2.770392754156934,
                -2.0776623131273078,
                -1.8026030000973068,
                0.8681787042157748,
                0.4069168938626088,
                0.6434383465370344
            ]
        },
        {
            "positions": [
                2.74282603234553,
                -2.1772092482733436,
                -1.770575414286008,
                0.8947260991166036,
                0.4263569213400086,
                0.49018232595736266
            ]
        },
        {
            "positions": [
                2.715259310534125,
                -2.27675618341938,
                -1.738547828474709,
                0.9212734940174325,
                0.44579694881740833,
                0.33692630537769097
            ]
        },
        {
            "positions": [
                2.687692588722721,
                -2.3763031185654158,
                -1.70652024266341,
                0.9478208889182613,
                0.4652369762948081,
                0.18367028479801917
            ]
        },
        {
            "positions": [
                2.6601258669113164,
                -2.4758500537114516,
                -1.674492656852111,
                0.9743682838190902,
                0.48467700377220785,
                0.030414264218347444
            ]
        }
    ]
}