{
    "goal": {
        "global_pose": {
            "orientation": {
                "w": 0.005598929693374612,
                "x": 0.007748599140229565,
                "y": 0.7110244013736278,
                "z": -0.7031023480610252
            },
            "position": {
                "x": 0.1141497679147869,
                "y": -0.7141253447532654,
                "z": 0.3711530566215515
            }
        },
        "name": "move_to_auspresseinheit_B"
    },
    "id": "RRT_move_to_auspresseinheit_B_110",
    "joint_names": [
        "shoulder_pan_joint",
        "shoulder_lift_joint",
        "elbow_joint",
        "wrist_1_joint",
        "wrist_2_joint",
        "wrist_3_joint"
    ],
    "metrics": {
        "cart_traj_len": 0.5650742926892047,
        "distance_elbow_joint": 0.059930637567164435,
        "distance_shoulder_lift_joint": 0.2967179412245704,
        "distance_shoulder_pan_joint": 0.5770401543186823,
        "distance_wrist_1_joint": 0.31823224836717134,
        "distance_wrist_2_joint": 0.9968595587258491,
        "distance_wrist_3_joint": 0.0011044707858469671,
        "smoothness": 0.0,
        "time": 0.011693038999999999,
        "traj_len": 1.4999616698400278,
        "weighted_distance": 1.8886994889748872
    },
    "planner": "RRT",
    "start": {
        "state": {
            "elbow_joint": 2.0193083361928714,
            "shoulder_lift_joint": -1.1220246554650708,
            "shoulder_pan_joint": -1.0952077554168747,
            "wrist_1_joint": -0.8559753972642168,
            "wrist_2_joint": 0.4759566250798843,
            "wrist_3_joint": -3.1240929996934557
        }
    },
    "waypoints": [
        {
            "positions": [
                -1.0952077554168747,
                -1.1220246554650708,
                2.0193083361928714,
                -0.8559753972642168,
                0.4759566250798843,
                -3.1240929996934557
            ]
        },
        {
            "positions": [
                -1.1913811144699884,
                -1.1714776456691658,
                2.009319896598344,
                -0.8029366892030215,
                0.6420998848675258,
                -3.1242770781577636
            ]
        },
        {
            "positions": [
                -1.2875544735231021,
                -1.220930635873261,
                1.9993314570038165,
                -0.7498979811418264,
                0.8082431446551672,
                -3.1244611566220715
            ]
        },
        {
            "positions": [
                -1.383727832576216,
                -1.270383626077356,
                1.9893430174092892,
                -0.6968592730806311,
                0.9743864044428088,
                -3.124645235086379
            ]
        },
        {
            "positions": [
                -1.4799011916293294,
                -1.319836616281451,
                1.9793545778147619,
                -0.643820565019436,
                1.1405296642304503,
                -3.124829313550687
            ]
        },
        {
            "positions": [
                -1.5760745506824432,
                -1.3692896064855462,
                1.9693661382202343,
                -0.5907818569582406,
                1.3066729240180919,
                -3.1250133920149947
            ]
        },
        {
            "positions": [
                -1.672247909735557,
                -1.4187425966896412,
                1.959377698625707,
                -0.5377431488970454,
                1.4728161838057334,
                -3.1251974704793026
            ]
        }
    ]
}