{
    "goal": {
        "global_pose": {
            "orientation": {
                "w": -0.00223480608172531,
                "x": 0.0024358444001904467,
                "y": 0.7094548369677653,
                "z": -0.704743149386269
            },
            "position": {
                "x": -0.37947507619857795,
                "y": -0.6371506643295288,
                "z": 0.19426114857196808
            }
        },
        "name": "move_to_magneteinheit_C"
    },
    "id": "RRT_move_to_magneteinheit_C_104",
    "joint_names": [
        "shoulder_pan_joint",
        "shoulder_lift_joint",
        "elbow_joint",
        "wrist_1_joint",
        "wrist_2_joint",
        "wrist_3_joint"
    ],
    "metrics": {
        "cart_traj_len": 1.130316019076051,
        "distance_elbow_joint": 0.31583004814214277,
        "distance_shoulder_lift_joint": 1.9891423053801238,
        "distance_shoulder_pan_joint": 0.8241657267210452,
        "distance_wrist_1_joint": 1.4028333782257398,
        "distance_wrist_2_joint": 1.0391215448063167,
        "distance_wrist_3_joint": 0.21397268769304123,
        "smoothness": 1.1769248476522836,
        "time": 1.955797308,
        "traj_len": 2.4052163501374277,
        "weighted_distance": 2.9419323563580706
    },
    "planner": "RRT",
    "start": {
        "state": {
            "elbow_joint": 1.9565354010623817,
            "shoulder_lift_joint": -1.4165861575791021,
            "shoulder_pan_joint": -1.6717766225146293,
            "wrist_1_joint": -0.5286633292919765,
            "wrist_2_joint": 1.472756589071564,
            "wrist_3_joint": -3.1238370188695823
        }
    },
    "waypoints": [
        {
            "positions": [
                -1.6717766225146293,
                -1.4165861575791021,
                1.9565354010623817,
                -0.5286633292919765,
                1.472756589071564,
                -3.1238370188695823
            ]
        },
        {
            "positions": [
                -1.7063311766470128,
                -1.4845257989623117,
                1.968141851898576,
                -0.47322715315658626,
                1.4221184141241683,
                -3.115741633861182
            ]
        },
        {
            "positions": [
                -1.784720566395288,
                -1.5845002015091838,
                1.9898641147191123,
                -0.41178826281206415,
                1.3277017984289832,
                -3.104432913993209
            ]
        },
        {
            "positions": [
                -1.8631099561435631,
                -1.6844746040560559,
                2.0115863775396488,
                -0.3503493724675421,
                1.233285182733798,
                -3.0931241941252363
            ]
        },
        {
            "positions": [
                -1.9414993458918384,
                -1.784449006602928,
                2.033308640360185,
                -0.28891048212302006,
                1.138868567038613,
                -3.081815474257263
            ]
        },
        {
            "positions": [
                -2.0198887356401136,
                -1.8844234091498002,
                2.0550309031807212,
                -0.22747159177849796,
                1.044451951343428,
                -3.07050675438929
            ]
        },
        {
            "positions": [
                -2.0982781253883886,
                -1.984397811696672,
                2.0767531660012577,
                -0.16603270143397586,
                0.9500353356482428,
                -3.0591980345213172
            ]
        },
        {
            "positions": [
                -2.1766675151366637,
                -2.0843722142435444,
                2.098475428821794,
                -0.10459381108945381,
                0.8556187199530578,
                -3.047889314653344
            ]
        },
        {
            "positions": [
                -2.255056904884939,
                -2.1843466167904166,
                2.12019769164233,
                -0.04315492074493177,
                0.7612021042578727,
                -3.036580594785371
            ]
        },
        {
            "positions": [
                -2.333446294633214,
                -2.2843210193372885,
                2.1419199544628666,
                0.018283969599590326,
                0.6667854885626876,
                -3.025271874917398
            ]
        },
        {
            "positions": [
                -2.363644469087054,
                -2.147197401578576,
                2.134419473847437,
                -0.0903257726685649,
                0.6444363564565573,
                -3.040711349541481
            ]
        },
        {
            "positions": [
                -2.393842643540894,
                -2.010073783819864,
                2.1269189932320076,
                -0.19893551493672013,
                0.622087224350427,
                -3.056150824165564
            ]
        },
        {
            "positions": [
                -2.424040817994734,
                -1.8729501660611514,
                2.119418512616578,
                -0.30754525720487536,
                0.5997380922442967,
                -3.071590298789647
            ]
        },
        {
            "positions": [
                -2.454238992448574,
                -1.7358265483024389,
                2.1119180320011486,
                -0.4161549994730306,
                0.5773889601381664,
                -3.0870297734137297
            ]
        },
        {
            "positions": [
                -2.484437166902414,
                -1.5987029305437266,
                2.104417551385719,
                -0.5247647417411858,
                0.5550398280320361,
                -3.1024692480378127
            ]
        },
        {
            "positions": [
                -2.4806021061246604,
                -1.4534398122676013,
                2.0734365208308825,
                -0.6290438644056514,
                0.5955080892876324,
                -3.1152059715779603
            ]
        },
        {
            "positions": [
                -2.476767045346907,
                -1.3081766939914763,
                2.0424554902760454,
                -0.733322987070117,
                0.6359763505432288,
                -3.1279426951181075
            ]
        },
        {
            "positions": [
                -2.4729319845691533,
                -1.162913575715351,
                2.011474459721209,
                -0.8376021097345827,
                0.6764446117988251,
                -3.140679418658255
            ]
        }
    ]
}