{
    "goal": {
        "global_pose": {
            "orientation": {
                "w": -0.4816463035849501,
                "x": 0.5182115481033762,
                "y": 0.4908360881923453,
                "z": -0.5084816262002911
            },
            "position": {
                "x": -0.8240239810943604,
                "y": 0.19912469901144506,
                "z": 0.16403168439865112
            }
        },
        "name": "move_to_storage_D"
    },
    "id": "RRT_move_to_storage_D_59",
    "joint_names": [
        "shoulder_pan_joint",
        "shoulder_lift_joint",
        "elbow_joint",
        "wrist_1_joint",
        "wrist_2_joint",
        "wrist_3_joint"
    ],
    "metrics": {
        "cart_traj_len": 3.7518869960942536,
        "distance_elbow_joint": 4.21686593362585,
        "distance_shoulder_lift_joint": 1.2642760383010636,
        "distance_shoulder_pan_joint": 2.811852091418387,
        "distance_wrist_1_joint": 2.2634552480893895,
        "distance_wrist_2_joint": 0.9359470834904131,
        "distance_wrist_3_joint": 3.1871859667898703,
        "smoothness": 0.19692818033780798,
        "time": 0.138161699,
        "traj_len": 3.8313943103934083,
        "weighted_distance": 4.924769702927694
    },
    "planner": "RRT",
    "start": {
        "state": {
            "elbow_joint": -2.384821988534728,
            "shoulder_lift_joint": -2.2788054721415256,
            "shoulder_pan_joint": -0.1854694642142757,
            "wrist_1_joint": 1.4845938289331202,
            "wrist_2_joint": 0.17898776772866878,
            "wrist_3_joint": 0.037105688729662994
        }
    },
    "waypoints": [
        {
            "positions": [
                -0.1854694642142757,
                -2.2788054721415256,
                -2.384821988534728,
                1.4845938289331202,
                0.17898776772866878,
                0.037105688729662994
            ]
        },
        {
            "positions": [
                -0.1633198532007203,
                -2.2632408560390855,
                -2.388348902679394,
                1.4781723076664472,
                0.18651749191242972,
                0.013896557943602221
            ]
        },
        {
            "positions": [
                -0.0726439752219985,
                -2.2128564574271956,
                -2.308156587293181,
                1.395920108363571,
                0.1848017600290619,
                0.09068785362778894
            ]
        },
        {
            "positions": [
                0.018031902756723284,
                -2.1624720588153052,
                -2.2279642719069677,
                1.3136679090606946,
                0.1830860281456941,
                0.16747914931197566
            ]
        },
        {
            "positions": [
                0.10870778073544507,
                -2.1120876602034153,
                -2.1477719565207547,
                1.2314157097578184,
                0.18137029626232629,
                0.24427044499616235
            ]
        },
        {
            "positions": [
                0.19938365871416686,
                -2.0617032615915254,
                -2.0675796411345413,
                1.149163510454942,
                0.17965456437895846,
                0.3210617406803491
            ]
        },
        {
            "positions": [
                0.29005953669288864,
                -2.011318862979635,
                -1.9873873257483283,
                1.0669113111520658,
                0.17793883249559067,
                0.3978530363645358
            ]
        },
        {
            "positions": [
                0.38073541467161043,
                -1.960934464367745,
                -1.9071950103621151,
                0.9846591118491896,
                0.17622310061222285,
                0.4746443320487225
            ]
        },
        {
            "positions": [
                0.4714112926503322,
                -1.910550065755855,
                -1.827002694975902,
                0.9024069125463133,
                0.17450736872885503,
                0.5514356277329092
            ]
        },
        {
            "positions": [
                0.562087170629054,
                -1.8601656671439648,
                -1.7468103795896885,
                0.820154713243437,
                0.1727916368454872,
                0.628226923417096
            ]
        },
        {
            "positions": [
                0.6527630486077758,
                -1.8097812685320749,
                -1.6666180642034756,
                0.7379025139405608,
                0.1710759049621194,
                0.7050182191012826
            ]
        },
        {
            "positions": [
                0.7434389265864976,
                -1.7593968699201847,
                -1.5864257488172624,
                0.6556503146376845,
                0.1693601730787516,
                0.7818095147854693
            ]
        },
        {
            "positions": [
                0.8341148045652195,
                -1.7090124713082946,
                -1.5062334334310492,
                0.5733981153348082,
                0.16764444119538377,
                0.8586008104696561
            ]
        },
        {
            "positions": [
                0.9247906825439411,
                -1.6586280726964047,
                -1.4260411180448362,
                0.49114591603193203,
                0.16592870931201598,
                0.9353921061538427
            ]
        },
        {
            "positions": [
                1.015466560522663,
                -1.6082436740845145,
                -1.3458488026586228,
                0.4088937167290556,
                0.16421297742864815,
                1.0121834018380294
            ]
        },
        {
            "positions": [
                1.1061424385013847,
                -1.5578592754726244,
                -1.2656564872724099,
                0.3266415174261794,
                0.16249724554528033,
                1.088974697522216
            ]
        },
        {
            "positions": [
                1.1968183164801065,
                -1.5074748768607344,
                -1.1854641718861965,
                0.24438931812330322,
                0.1607815136619125,
                1.1657659932064028
            ]
        },
        {
            "positions": [
                1.2874941944588283,
                -1.457090478248844,
                -1.1052718564999833,
                0.1621371188204268,
                0.15906578177854472,
                1.2425572888905896
            ]
        },
        {
            "positions": [
                1.37817007243755,
                -1.4067060796369542,
                -1.0250795411137703,
                0.07988491951755061,
                0.1573500498951769,
                1.319348584574776
            ]
        },
        {
            "positions": [
                1.4688459504162719,
                -1.3563216810250642,
                -0.9448872257275571,
                -0.0023672797853255823,
                0.15563431801180908,
                1.3961398802589629
            ]
        },
        {
            "positions": [
                1.5595218283949936,
                -1.305937282413174,
                -0.8646949103413439,
                -0.08461947908820178,
                0.15391858612844128,
                1.4729311759431496
            ]
        },
        {
            "positions": [
                1.6501977063737154,
                -1.255552883801284,
                -0.7845025949551307,
                -0.1668716783910781,
                0.15220285424507346,
                1.5497224716273363
            ]
        },
        {
            "positions": [
                1.704430201975404,
                -1.2421626921367939,
                -0.6395307776353019,
                -0.2008711084335887,
                0.2018752276694788,
                1.6401753006451183
            ]
        },
        {
            "positions": [
                1.7586626975770927,
                -1.2287725004723038,
                -0.49455896031547286,
                -0.23487053847609934,
                0.2515476010938841,
                1.7306281296629002
            ]
        },
        {
            "positions": [
                1.8128951931787816,
                -1.2153823088078135,
                -0.34958714299564386,
                -0.26886996851860995,
                0.3012199745182894,
                1.8210809586806822
            ]
        },
        {
            "positions": [
                1.8671276887804702,
                -1.2019921171433234,
                -0.20461532567581497,
                -0.30286939856112055,
                0.35089234794269475,
                1.9115337876984642
            ]
        },
        {
            "positions": [
                1.9213601843821588,
                -1.1886019254788334,
                -0.059643508355985864,
                -0.33686882860363115,
                0.4005647213671001,
                2.001986616716246
            ]
        },
        {
            "positions": [
                1.9755926799838475,
                -1.1752117338143433,
                0.08532830896384302,
                -0.37086825864614176,
                0.45023709479150537,
                2.092439445734028
            ]
        },
        {
            "positions": [
                2.029825175585536,
                -1.1618215421498532,
                0.2303001262836719,
                -0.4048676886886524,
                0.49990946821591076,
                2.18289227475181
            ]
        },
        {
            "positions": [
                2.084057671187225,
                -1.1484313504853632,
                0.3752719436035008,
                -0.438867118731163,
                0.549581841640316,
                2.273345103769592
            ]
        },
        {
            "positions": [
                2.138290166788914,
                -1.135041158820873,
                0.5202437609233299,
                -0.4728665487736736,
                0.5992542150647213,
                2.363797932787374
            ]
        },
        {
            "positions": [
                2.1925226623906022,
                -1.1216509671563828,
                0.665215578243159,
                -0.5068659788161842,
                0.6489265884891267,
                2.454250761805156
            ]
        },
        {
            "positions": [
                2.246755157992291,
                -1.1082607754918927,
                0.8101873955629879,
                -0.5408654088586948,
                0.698598961913532,
                2.544703590822938
            ]
        },
        {
            "positions": [
                2.3009876535939795,
                -1.0948705838274027,
                0.9551592128828168,
                -0.5748648389012054,
                0.7482713353379373,
                2.63515641984072
            ]
        },
        {
            "positions": [
                2.3552201491956684,
                -1.0814803921629126,
                1.1001310302026457,
                -0.608864268943716,
                0.7979437087623427,
                2.7256092488585018
            ]
        },
        {
            "positions": [
                2.4094526447973568,
                -1.0680902004984225,
                1.2451028475224746,
                -0.6428636989862266,
                0.847616082186748,
                2.8160620778762837
            ]
        },
        {
            "positions": [
                2.4636851403990456,
                -1.0547000088339322,
                1.3900746648423037,
                -0.6768631290287372,
                0.8972884556111533,
                2.9065149068940657
            ]
        },
        {
            "positions": [
                2.5179176360007345,
                -1.0413098171694422,
                1.5350464821621324,
                -0.7108625590712478,
                0.9469608290355587,
                2.9969677359118476
            ]
        },
        {
            "positions": [
                2.572150131602423,
                -1.027919625504952,
                1.6800182994819615,
                -0.7448619891137584,
                0.996633202459964,
                3.0874205649296296
            ]
        },
        {
            "positions": [
                2.6263826272041118,
                -1.014529433840462,
                1.8249901168017908,
                -0.778861419156269,
                1.0463055758843693,
                3.1778733939474115
            ]
        }
    ]
}