{
    "goal": {
        "global_pose": {
            "orientation": {
                "w": 0.005598929693374612,
                "x": 0.007748599140229565,
                "y": 0.7110244013736278,
                "z": -0.7031023480610252
            },
            "position": {
                "x": 0.1141497679147869,
                "y": -0.7141253447532654,
                "z": 0.3711530566215515
            }
        },
        "name": "move_to_auspresseinheit_B"
    },
    "id": "RRT_move_to_auspresseinheit_B_133",
    "joint_names": [
        "shoulder_pan_joint",
        "shoulder_lift_joint",
        "elbow_joint",
        "wrist_1_joint",
        "wrist_2_joint",
        "wrist_3_joint"
    ],
    "metrics": {
        "cart_traj_len": 0.5648871391425727,
        "distance_elbow_joint": 0.06407511880809658,
        "distance_shoulder_lift_joint": 0.2936750690019867,
        "distance_shoulder_pan_joint": 0.5772971555997131,
        "distance_wrist_1_joint": 0.3278643091103305,
        "distance_wrist_2_joint": 0.9906900494974831,
        "distance_wrist_3_joint": 0.008901526223351386,
        "smoothness": 2.5376526478085547e-16,
        "time": 0.014573319,
        "traj_len": 1.5041619687523553,
        "weighted_distance": 1.8970663244324057
    },
    "planner": "RRT",
    "start": {
        "state": {
            "elbow_joint": 2.0193083361928714,
            "shoulder_lift_joint": -1.1220246554650708,
            "shoulder_pan_joint": -1.0952077554168747,
            "wrist_1_joint": -0.8559753972642168,
            "wrist_2_joint": 0.4759566250798843,
            "wrist_3_joint": -3.1240929996934557
        }
    },
    "waypoints": [
        {
            "positions": [
                -1.0952077554168747,
                -1.1220246554650708,
                2.0193083361928714,
                -0.8559753972642168,
                0.4759566250798843,
                -3.1240929996934557
            ]
        },
        {
            "positions": [
                -1.1914239480168267,
                -1.1709705002987352,
                2.008629149724855,
                -0.8013313457458284,
                0.6410716333294648,
                -3.1255765873973473
            ]
        },
        {
            "positions": [
                -1.287640140616779,
                -1.2199163451323998,
                1.9979499632568392,
                -0.74668729422744,
                0.8061866415790453,
                -3.1270601751012395
            ]
        },
        {
            "positions": [
                -1.3838563332167313,
                -1.2688621899660641,
                1.9872707767888231,
                -0.6920432427090515,
                0.9713016498286258,
                -3.1285437628051316
            ]
        },
        {
            "positions": [
                -1.4800725258166834,
                -1.3178080347997285,
                1.9765915903208071,
                -0.6373991911906631,
                1.1364166580782062,
                -3.1300273505090233
            ]
        },
        {
            "positions": [
                -1.5762887184166354,
                -1.3667538796333931,
                1.9659124038527909,
                -0.5827551396722748,
                1.301531666327787,
                -3.131510938212915
            ]
        },
        {
            "positions": [
                -1.6725049110165877,
                -1.4156997244670575,
                1.9552332173847748,
                -0.5281110881538863,
                1.4666466745773674,
                -3.132994525916807
            ]
        }
    ]
}