{
    "goal": {
        "global_pose": {
            "orientation": {
                "w": 0.5084816262002911,
                "x": -0.4908360881923452,
                "y": 0.5182115481033761,
                "z": -0.48164630358495003
            },
            "position": {
                "x": 0.5540239810943604,
                "y": -0.46912469901144505,
                "z": 0.16403168439865112
            }
        },
        "name": "move_to_storage_B"
    },
    "id": "RRT_move_to_storage_B_40",
    "joint_names": [
        "shoulder_pan_joint",
        "shoulder_lift_joint",
        "elbow_joint",
        "wrist_1_joint",
        "wrist_2_joint",
        "wrist_3_joint"
    ],
    "metrics": {
        "cart_traj_len": 1.7935173156326856,
        "distance_elbow_joint": 0.7605825574386258,
        "distance_shoulder_lift_joint": 0.6330737587723232,
        "distance_shoulder_pan_joint": 1.5157208536198075,
        "distance_wrist_1_joint": 2.9799354202252477,
        "distance_wrist_2_joint": 2.7030063077356328,
        "distance_wrist_3_joint": 3.559651801040712,
        "smoothness": 0.24536138204609176,
        "time": 0.06932269099999999,
        "traj_len": 3.4859676847085583,
        "weighted_distance": 4.995419504793832
    },
    "planner": "RRT",
    "start": {
        "state": {
            "elbow_joint": 1.664937868594044,
            "shoulder_lift_joint": -0.661644460510453,
            "shoulder_pan_joint": -0.9139846352900073,
            "wrist_1_joint": 2.146753192139373,
            "wrist_2_joint": -2.2341966793290973,
            "wrist_3_joint": 0.005466555786416001
        }
    },
    "waypoints": [
        {
            "positions": [
                -0.9139846352900073,
                -0.661644460510453,
                1.664937868594044,
                2.146753192139373,
                -2.2341966793290973,
                0.005466555786416001
            ]
        },
        {
            "positions": [
                -0.8306225368476838,
                -0.7298781245945057,
                1.6391468675869296,
                2.1099616704435378,
                -2.0932342934244557,
                -0.021238088669608662
            ]
        },
        {
            "positions": [
                -0.7472604384053604,
                -0.7981117886785585,
                1.6133558665798156,
                2.0731701487477023,
                -1.9522719075198143,
                -0.047942733125633324
            ]
        },
        {
            "positions": [
                -0.6638983399630369,
                -0.8663454527626111,
                1.5875648655727015,
                2.0363786270518673,
                -1.811309521615173,
                -0.07464737758165799
            ]
        },
        {
            "positions": [
                -0.5805362415207136,
                -0.9345791168466638,
                1.5617738645655872,
                1.999587105356032,
                -1.6703471357105313,
                -0.10135202203768265
            ]
        },
        {
            "positions": [
                -0.4971741430783901,
                -1.0028127809307166,
                1.535982863558473,
                1.9627955836601965,
                -1.52938474980589,
                -0.1280566664937073
            ]
        },
        {
            "positions": [
                -0.4138120446360667,
                -1.0710464450147692,
                1.5101918625513588,
                1.926004061964361,
                -1.3884223639012485,
                -0.15476131094973197
            ]
        },
        {
            "positions": [
                -0.33044994619374324,
                -1.1392801090988218,
                1.4844008615442448,
                1.8892125402685256,
                -1.247459977996607,
                -0.18146595540575663
            ]
        },
        {
            "positions": [
                -0.24708784775141981,
                -1.2075137731828747,
                1.4586098605371305,
                1.8524210185726904,
                -1.1064975920919655,
                -0.2081705998617813
            ]
        },
        {
            "positions": [
                -0.2839932419288641,
                -1.2037222755263572,
                1.482707884423292,
                1.735655660022318,
                -1.038005973809422,
                -0.06269170223601978
            ]
        },
        {
            "positions": [
                -0.3208986361063084,
                -1.1999307778698398,
                1.5068059083094534,
                1.6188903014719456,
                -0.9695143555268785,
                0.08278719538974175
            ]
        },
        {
            "positions": [
                -0.35780403028375274,
                -1.1961392802133224,
                1.5309039321956148,
                1.502124942921573,
                -0.9010227372443349,
                0.22826609301550324
            ]
        },
        {
            "positions": [
                -0.39470942446119706,
                -1.1923477825568047,
                1.555001956081776,
                1.3853595843712008,
                -0.8325311189617914,
                0.37374499064126476
            ]
        },
        {
            "positions": [
                -0.4316148186386414,
                -1.1885562849002873,
                1.5790999799679375,
                1.2685942258208285,
                -0.7640395006792479,
                0.5192238882670263
            ]
        },
        {
            "positions": [
                -0.4685202128160857,
                -1.1847647872437699,
                1.603198003854099,
                1.151828867270456,
                -0.6955478823967043,
                0.6647027858927878
            ]
        },
        {
            "positions": [
                -0.50542560699353,
                -1.1809732895872525,
                1.6272960277402604,
                1.0350635087200835,
                -0.6270562641141608,
                0.8101816835185494
            ]
        },
        {
            "positions": [
                -0.5423310011709743,
                -1.177181791930735,
                1.6513940516264218,
                0.9182981501697113,
                -0.5585646458316172,
                0.9556605811443109
            ]
        },
        {
            "positions": [
                -0.5792363953484186,
                -1.1733902942742176,
                1.675492075512583,
                0.8015327916193387,
                -0.49007302754907367,
                1.1011394787700723
            ]
        },
        {
            "positions": [
                -0.616141789525863,
                -1.1695987966177002,
                1.6995900993987445,
                0.6847674330689664,
                -0.4215814092665302,
                1.2466183763958338
            ]
        },
        {
            "positions": [
                -0.6530471837033073,
                -1.1658072989611827,
                1.723688123284906,
                0.5680020745185941,
                -0.35308979098398663,
                1.3920972740215953
            ]
        },
        {
            "positions": [
                -0.6899525778807516,
                -1.162015801304665,
                1.7477861471710674,
                0.45123671596822157,
                -0.28459817270144316,
                1.5375761716473568
            ]
        },
        {
            "positions": [
                -0.7268579720581958,
                -1.1582243036481477,
                1.7718841710572288,
                0.3344713574178493,
                -0.2161065544188997,
                1.683055069273118
            ]
        },
        {
            "positions": [
                -0.7637633662356402,
                -1.1544328059916302,
                1.7959821949433903,
                0.21770599886747677,
                -0.147614936136356,
                1.82853396689888
            ]
        },
        {
            "positions": [
                -0.8006687604130844,
                -1.1506413083351128,
                1.8200802188295517,
                0.10094064031710448,
                -0.07912331785381244,
                1.9740128645246415
            ]
        },
        {
            "positions": [
                -0.8375741545905288,
                -1.1468498106785954,
                1.844178242715713,
                -0.01582471823326781,
                -0.010631699571268971,
                2.1194917621504032
            ]
        },
        {
            "positions": [
                -0.8744795487679731,
                -1.143058313022078,
                1.8682762666018744,
                -0.13259007678364032,
                0.057859918711274494,
                2.2649706597761643
            ]
        },
        {
            "positions": [
                -0.9113849429454174,
                -1.1392668153655605,
                1.8923742904880358,
                -0.24935543533401305,
                0.12635153699381818,
                2.4104495574019262
            ]
        },
        {
            "positions": [
                -0.9482903371228617,
                -1.135475317709043,
                1.9164723143741973,
                -0.3661207938843851,
                0.19484315527636165,
                2.5559284550276877
            ]
        },
        {
            "positions": [
                -0.985195731300306,
                -1.1316838200525254,
                1.9405703382603585,
                -0.48288615243475763,
                0.2633347735589051,
                2.7014073526534492
            ]
        },
        {
            "positions": [
                -1.0221011254777503,
                -1.127892322396008,
                1.96466836214652,
                -0.5996515109851297,
                0.3318263918414486,
                2.8468862502792107
            ]
        },
        {
            "positions": [
                -1.0590065196551948,
                -1.1241008247394906,
                1.9887663860326814,
                -0.7164168695355022,
                0.40031801012399226,
                2.992365147904972
            ]
        },
        {
            "positions": [
                -1.095911913832639,
                -1.1203093270829731,
                2.012864409918843,
                -0.8331822280858748,
                0.46880962840653584,
                3.1378440455307337
            ]
        }
    ]
}