{
    "goal": {
        "global_pose": {
            "orientation": {
                "w": 0.5084816262002911,
                "x": -0.4908360881923452,
                "y": 0.5182115481033761,
                "z": -0.48164630358495003
            },
            "position": {
                "x": 0.5540239810943604,
                "y": -0.46912469901144505,
                "z": 0.16403168439865112
            }
        },
        "name": "move_to_storage_B"
    },
    "id": "RRT_move_to_storage_B_94",
    "joint_names": [
        "shoulder_pan_joint",
        "shoulder_lift_joint",
        "elbow_joint",
        "wrist_1_joint",
        "wrist_2_joint",
        "wrist_3_joint"
    ],
    "metrics": {
        "cart_traj_len": 1.1197315885038983,
        "distance_elbow_joint": 0.37302510675810563,
        "distance_shoulder_lift_joint": 0.46081548384463145,
        "distance_shoulder_pan_joint": 0.8780270847815569,
        "distance_wrist_1_joint": 3.001889254655991,
        "distance_wrist_2_joint": 2.7157546355143802,
        "distance_wrist_3_joint": 3.1530401928604017,
        "smoothness": 0.07860892934157492,
        "time": 0.051613454,
        "traj_len": 3.253083423217896,
        "weighted_distance": 4.754605770650837
    },
    "planner": "RRT",
    "start": {
        "state": {
            "elbow_joint": 1.664937868594044,
            "shoulder_lift_joint": -0.661644460510453,
            "shoulder_pan_joint": -0.9139846352900073,
            "wrist_1_joint": 2.146753192139373,
            "wrist_2_joint": -2.2341966793290973,
            "wrist_3_joint": 0.005466555786416001
        }
    },
    "waypoints": [
        {
            "positions": [
                -0.9139846352900073,
                -0.661644460510453,
                1.664937868594044,
                2.146753192139373,
                -2.2341966793290973,
                0.005466555786416001
            ]
        },
        {
            "positions": [
                -0.8559458022985198,
                -0.7236278085042828,
                1.6633615742678487,
                2.047041883390557,
                -2.1125751042689442,
                0.006969492955563853
            ]
        },
        {
            "positions": [
                -0.7979069693070323,
                -0.7856111564981125,
                1.6617852799416537,
                1.9473305746417406,
                -1.9909535292087908,
                0.008472430124711706
            ]
        },
        {
            "positions": [
                -0.7398681363155448,
                -0.8475945044919423,
                1.6602089856154585,
                1.8476192658929242,
                -1.8693319541486377,
                0.009975367293859557
            ]
        },
        {
            "positions": [
                -0.6818293033240572,
                -0.909577852485772,
                1.6586326912892633,
                1.747907957144108,
                -1.7477103790884845,
                0.01147830446300741
            ]
        },
        {
            "positions": [
                -0.6237904703325697,
                -0.9715612004796018,
                1.6570563969630683,
                1.6481966483952917,
                -1.6260888040283312,
                0.012981241632155263
            ]
        },
        {
            "positions": [
                -0.5657516373410822,
                -1.0335445484734316,
                1.655480102636873,
                1.5484853396464753,
                -1.504467228968178,
                0.014484178801303116
            ]
        },
        {
            "positions": [
                -0.5898331867425655,
                -1.037586157377143,
                1.6720058908550974,
                1.4392298213663348,
                -1.414193356915748,
                0.1573942956124629
            ]
        },
        {
            "positions": [
                -0.6139147361440488,
                -1.0416277662808546,
                1.6885316790733216,
                1.3299743030861941,
                -1.323919484863318,
                0.30030441242362266
            ]
        },
        {
            "positions": [
                -0.637996285545532,
                -1.045669375184566,
                1.705057467291546,
                1.2207187848060537,
                -1.233645612810888,
                0.4432145292347824
            ]
        },
        {
            "positions": [
                -0.6620778349470153,
                -1.0497109840882775,
                1.7215832555097703,
                1.111463266525913,
                -1.143371740758458,
                0.5861246460459423
            ]
        },
        {
            "positions": [
                -0.6861593843484985,
                -1.053752592991989,
                1.7381090437279947,
                1.0022077482457727,
                -1.0530978687060282,
                0.729034762857102
            ]
        },
        {
            "positions": [
                -0.7102409337499819,
                -1.0577942018957005,
                1.7546348319462188,
                0.8929522299656321,
                -0.9628239966535981,
                0.8719448796682617
            ]
        },
        {
            "positions": [
                -0.7343224831514651,
                -1.0618358107994121,
                1.7711606201644432,
                0.7836967116854915,
                -0.8725501246011681,
                1.0148549964794213
            ]
        },
        {
            "positions": [
                -0.7584040325529484,
                -1.0658774197031236,
                1.7876864083826676,
                0.6744411934053509,
                -0.7822762525487381,
                1.1577651132905813
            ]
        },
        {
            "positions": [
                -0.7824855819544316,
                -1.069919028606835,
                1.804212196600892,
                0.5651856751252103,
                -0.6920023804963081,
                1.300675230101741
            ]
        },
        {
            "positions": [
                -0.8065671313559148,
                -1.0739606375105466,
                1.820737984819116,
                0.45593015684507,
                -0.6017285084438782,
                1.4435853469129007
            ]
        },
        {
            "positions": [
                -0.8306486807573982,
                -1.078002246414258,
                1.8372637730373405,
                0.3466746385649293,
                -0.5114546363914482,
                1.5864954637240605
            ]
        },
        {
            "positions": [
                -0.8547302301588815,
                -1.0820438553179694,
                1.8537895612555648,
                0.23741912028478884,
                -0.4211807643390182,
                1.7294055805352202
            ]
        },
        {
            "positions": [
                -0.8788117795603647,
                -1.086085464221681,
                1.8703153494737892,
                0.12816360200464816,
                -0.3309068922865881,
                1.8723156973463801
            ]
        },
        {
            "positions": [
                -0.9028933289618479,
                -1.0901270731253925,
                1.8868411376920133,
                0.018908083724507696,
                -0.24063302023415822,
                2.0152258141575397
            ]
        },
        {
            "positions": [
                -0.9269748783633311,
                -1.094168682029104,
                1.9033669259102377,
                -0.09034743455563277,
                -0.15035914818172835,
                2.1581359309686996
            ]
        },
        {
            "positions": [
                -0.9510564277648146,
                -1.0982102909328155,
                1.919892714128462,
                -0.19960295283577345,
                -0.06008527612929826,
                2.3010460477798595
            ]
        },
        {
            "positions": [
                -0.9751379771662978,
                -1.102251899836527,
                1.9364185023466862,
                -0.3088584711159139,
                0.03018859592313161,
                2.443956164591019
            ]
        },
        {
            "positions": [
                -0.999219526567781,
                -1.1062935087402386,
                1.9529442905649106,
                -0.4181139893960546,
                0.1204624679755617,
                2.586866281402179
            ]
        },
        {
            "positions": [
                -1.0233010759692642,
                -1.11033511764395,
                1.969470078783135,
                -0.5273695076761951,
                0.2107363400279918,
                2.7297763982133385
            ]
        },
        {
            "positions": [
                -1.0473826253707474,
                -1.1143767265476614,
                1.985995867001359,
                -0.6366250259563353,
                0.30101021208042167,
                2.8726865150244985
            ]
        },
        {
            "positions": [
                -1.0714641747722309,
                -1.118418335451373,
                2.0025216552195837,
                -0.7458805442364764,
                0.39128408413285176,
                3.0155966318356584
            ]
        },
        {
            "positions": [
                -1.095545724173714,
                -1.1224599443550844,
                2.019047443437808,
                -0.8551360625166166,
                0.48155795618528163,
                3.158506748646818
            ]
        }
    ]
}