{
    "goal": {
        "global_pose": {
            "orientation": {
                "w": 0.7047431493862688,
                "x": -0.7094548369677653,
                "y": 0.0024358444001904,
                "z": -0.0022348060817251984
            },
            "position": {
                "x": -0.39052492380142206,
                "y": 0.3671506643295288,
                "z": 0.19426114857196808
            }
        },
        "name": "move_to_magneteinheit_D"
    },
    "id": "RRT_move_to_magneteinheit_D_52",
    "joint_names": [
        "shoulder_pan_joint",
        "shoulder_lift_joint",
        "elbow_joint",
        "wrist_1_joint",
        "wrist_2_joint",
        "wrist_3_joint"
    ],
    "metrics": {
        "cart_traj_len": 3.34197172541382,
        "distance_elbow_joint": 3.1241608744336786,
        "distance_shoulder_lift_joint": 2.430436955317435,
        "distance_shoulder_pan_joint": 3.4603849890979856,
        "distance_wrist_1_joint": 2.0287617661403257,
        "distance_wrist_2_joint": 1.7078145624579792,
        "distance_wrist_3_joint": 3.2693417784023335,
        "smoothness": 0.19495380109179292,
        "time": 0.239849029,
        "traj_len": 4.002611763067926,
        "weighted_distance": 5.127978238180494
    },
    "planner": "RRT",
    "start": {
        "state": {
            "elbow_joint": 0.749534889911806,
            "shoulder_lift_joint": -0.6476975780787326,
            "shoulder_pan_joint": -2.711696901376241,
            "wrist_1_joint": -0.07506478083263063,
            "wrist_2_joint": 0.43296659715538205,
            "wrist_3_joint": -3.14703540197715
        }
    },
    "waypoints": [
        {
            "positions": [
                -2.711696901376241,
                -0.6476975780787326,
                0.749534889911806,
                -0.07506478083263063,
                0.43296659715538205,
                -3.14703540197715
            ]
        },
        {
            "positions": [
                -2.7164215659145547,
                -0.6223147129212263,
                0.6853979164364907,
                0.011435505776107385,
                0.35479157801459715,
                -3.0561935376955076
            ]
        },
        {
            "positions": [
                -2.721146230452868,
                -0.5969318477637201,
                0.6212609429611755,
                0.0979357923848454,
                0.2766165588738122,
                -2.965351673413865
            ]
        },
        {
            "positions": [
                -2.71776734142032,
                -0.5704436446065897,
                0.5414891290977817,
                0.19475601596713793,
                0.20209493976708254,
                -2.8505238079297577
            ]
        },
        {
            "positions": [
                -2.7143884523877717,
                -0.5439554414494594,
                0.46171731523438797,
                0.29157623954943046,
                0.1275733206603529,
                -2.7356959424456497
            ]
        },
        {
            "positions": [
                -2.711009563355224,
                -0.517467238292329,
                0.3819455013709942,
                0.388396463131723,
                0.05305170155362324,
                -2.6208680769615422
            ]
        },
        {
            "positions": [
                -2.707630674322676,
                -0.49097903513519864,
                0.30217368750760043,
                0.4852166867140155,
                -0.0214699175531064,
                -2.5060402114774347
            ]
        },
        {
            "positions": [
                -2.7042517852901278,
                -0.46449083197806823,
                0.2224018736442066,
                0.5820369102963081,
                -0.09599153665983612,
                -2.3912123459933268
            ]
        },
        {
            "positions": [
                -2.7008728962575796,
                -0.4380026288209379,
                0.1426300597808129,
                0.6788571338786006,
                -0.17051315576656573,
                -2.2763844805092193
            ]
        },
        {
            "positions": [
                -2.697494007225032,
                -0.41151442566380747,
                0.06285824591741906,
                0.7756773574608932,
                -0.2450347748732954,
                -2.1615566150251118
            ]
        },
        {
            "positions": [
                -2.694115118192484,
                -0.3850262225066772,
                -0.01691356794597465,
                0.8724975810431856,
                -0.319556393980025,
                -2.0467287495410043
            ]
        },
        {
            "positions": [
                -2.6907362291599357,
                -0.35853801934954677,
                -0.09668538180936848,
                0.9693178046254782,
                -0.3940780130867547,
                -1.9319008840568963
            ]
        },
        {
            "positions": [
                -2.6687604448928943,
                -0.3419774493277187,
                -0.17693058849686855,
                1.0456956041064176,
                -0.42476700795895134,
                -1.813340931494377
            ]
        },
        {
            "positions": [
                -2.646784660625853,
                -0.3254168793058906,
                -0.2571757951843686,
                1.1220734035873567,
                -0.45545600283114795,
                -1.6947809789318575
            ]
        },
        {
            "positions": [
                -2.624808876358812,
                -0.30885630928406255,
                -0.33742100187186863,
                1.1984512030682961,
                -0.4861449977033445,
                -1.5762210263693381
            ]
        },
        {
            "positions": [
                -2.6028330920917706,
                -0.29229573926223446,
                -0.41766620855936876,
                1.2748290025492355,
                -0.5168339925755412,
                -1.4576610738068188
            ]
        },
        {
            "positions": [
                -2.580857307824729,
                -0.27573516924040636,
                -0.49791141524686877,
                1.3512068020301746,
                -0.5475229874477378,
                -1.3391011212442994
            ]
        },
        {
            "positions": [
                -2.535534225292599,
                -0.26667106164185156,
                -0.5922691494165105,
                1.4198305579073627,
                -0.5390626277096109,
                -1.197421057381997
            ]
        },
        {
            "positions": [
                -2.4902111427604683,
                -0.25760695404329675,
                -0.6866268835861524,
                1.4884543137845505,
                -0.530602267971484,
                -1.0557409935196946
            ]
        },
        {
            "positions": [
                -2.444888060228338,
                -0.24854284644474192,
                -0.7809846177557942,
                1.5570780696617386,
                -0.5221419082333572,
                -0.9140609296573922
            ]
        },
        {
            "positions": [
                -2.275064386249384,
                -0.32109072244677683,
                -0.8622736581885615,
                1.5684791100440854,
                -0.4805729144263271,
                -0.9182839515516098
            ]
        },
        {
            "positions": [
                -2.1052407122704304,
                -0.39363859844881177,
                -0.9435626986213287,
                1.5798801504264322,
                -0.43900392061929705,
                -0.9225069734458274
            ]
        },
        {
            "positions": [
                -1.9354170382914764,
                -0.4661864744508467,
                -1.0248517390540959,
                1.591281190808779,
                -0.397434926812267,
                -0.9267299953400451
            ]
        },
        {
            "positions": [
                -1.7655933643125223,
                -0.5387343504528816,
                -1.1061407794868632,
                1.6026822311911257,
                -0.35586593300523695,
                -0.9309530172342627
            ]
        },
        {
            "positions": [
                -1.5957696903335685,
                -0.6112822264549166,
                -1.1874298199196305,
                1.6140832715734725,
                -0.3142969391982069,
                -0.9351760391284804
            ]
        },
        {
            "positions": [
                -1.4259460163546147,
                -0.6838301024569515,
                -1.2687188603523976,
                1.6254843119558193,
                -0.27272794539117684,
                -0.939399061022698
            ]
        },
        {
            "positions": [
                -1.2561223423756607,
                -0.7563779784589865,
                -1.3500079007851649,
                1.6368853523381661,
                -0.2311589515841468,
                -0.9436220829169156
            ]
        },
        {
            "positions": [
                -1.0862986683967069,
                -0.8289258544610214,
                -1.4312969412179322,
                1.6482863927205131,
                -0.18958995777711674,
                -0.9478451048111332
            ]
        },
        {
            "positions": [
                -0.916474994417753,
                -0.9014737304630563,
                -1.5125859816506995,
                1.65968743310286,
                -0.14802096397008668,
                -0.9520681267053508
            ]
        },
        {
            "positions": [
                -0.746651320438799,
                -0.9740216064650913,
                -1.5938750220834668,
                1.6710884734852067,
                -0.10645197016305663,
                -0.9562911485995684
            ]
        },
        {
            "positions": [
                -0.5768276464598452,
                -1.0465694824671263,
                -1.6751640625162338,
                1.6824895138675535,
                -0.06488297635602658,
                -0.9605141704937861
            ]
        },
        {
            "positions": [
                -0.4070039724808914,
                -1.1191173584691612,
                -1.7564531029490011,
                1.6938905542499003,
                -0.023313982548996526,
                -0.9647371923880037
            ]
        },
        {
            "positions": [
                -0.23718029850193734,
                -1.1916652344711962,
                -1.8377421433817684,
                1.705291594632247,
                0.018255011258033527,
                -0.9689602142822213
            ]
        },
        {
            "positions": [
                -0.0673566245229833,
                -1.264213110473231,
                -1.9190311838145355,
                1.716692635014594,
                0.05982400506506358,
                -0.973183236176439
            ]
        },
        {
            "positions": [
                0.1024670494559703,
                -1.3367609864752659,
                -2.000320224247303,
                1.7280936753969407,
                0.10139299887209363,
                -0.9774062580706566
            ]
        },
        {
            "positions": [
                0.2722907234349242,
                -1.409308862477301,
                -2.08160926468007,
                1.7394947157792875,
                0.14296199267912374,
                -0.9816292799648743
            ]
        },
        {
            "positions": [
                0.21513022023198178,
                -1.520682078455797,
                -2.120850923882288,
                1.706966548230104,
                0.14820154805707175,
                -0.8529059726998701
            ]
        },
        {
            "positions": [
                0.15796971702903934,
                -1.6320552944342934,
                -2.160092583084506,
                1.6744383806809202,
                0.15344110343501977,
                -0.724182665434866
            ]
        },
        {
            "positions": [
                0.1008092138260969,
                -1.7434285104127896,
                -2.199334242286724,
                1.6419102131317367,
                0.15868065881296778,
                -0.595459358169862
            ]
        },
        {
            "positions": [
                0.04364871062315445,
                -1.8548017263912857,
                -2.2385759014889417,
                1.6093820455825532,
                0.1639202141909158,
                -0.4667360509048578
            ]
        },
        {
            "positions": [
                -0.013511792579788018,
                -1.966174942369782,
                -2.27781756069116,
                1.5768538780333694,
                0.1691597695688638,
                -0.3380127436398537
            ]
        },
        {
            "positions": [
                -0.07067229578273042,
                -2.077548158348278,
                -2.3170592198933777,
                1.5443257104841859,
                0.17439932494681182,
                -0.20928943637484956
            ]
        },
        {
            "positions": [
                -0.12794013924068615,
                -2.178686614238232,
                -2.3458426022076253,
                1.5348090783675328,
                0.17710065767696664,
                -0.11105988028231499
            ]
        },
        {
            "positions": [
                -0.1852079826986419,
                -2.279825070128186,
                -2.3746259845218725,
                1.5252924462508797,
                0.1798019904071215,
                -0.01283032418978041
            ]
        }
    ]
}