{
    "goal": {
        "global_pose": {
            "orientation": {
                "w": 0.5084816217422485,
                "x": -0.49083608388900757,
                "y": 0.5182115435600281,
                "z": -0.4816462993621826
            },
            "position": {
                "x": 0.5540239810943604,
                "y": 0.030875300988554955,
                "z": 0.16403168439865112
            }
        },
        "name": "move_to_storage_A"
    },
    "id": "RRT_move_to_storage_A_5",
    "joint_names": [
        "shoulder_pan_joint",
        "shoulder_lift_joint",
        "elbow_joint",
        "wrist_1_joint",
        "wrist_2_joint",
        "wrist_3_joint"
    ],
    "metrics": {
        "cart_traj_len": 0.3537408127168301,
        "distance_elbow_joint": 0.45309731460633285,
        "distance_shoulder_lift_joint": 0.23524667501793495,
        "distance_shoulder_pan_joint": 0.4619569691419727,
        "distance_wrist_1_joint": 0.25356178514129357,
        "distance_wrist_2_joint": 1.103547021561297,
        "distance_wrist_3_joint": 0.09610188386075924,
        "smoothness": 0.0,
        "time": 0.016115873,
        "traj_len": 1.613540098457299,
        "weighted_distance": 2.0378479393109044
    },
    "planner": "RRT",
    "start": {
        "state": {
            "elbow_joint": 1.971548259319323,
            "shoulder_lift_joint": -1.1394851275133948,
            "shoulder_pan_joint": 0.1228115487234821,
            "wrist_1_joint": -0.7804723859257726,
            "wrist_2_joint": 0.12958671773740124,
            "wrist_3_joint": -3.192489227718131
        }
    },
    "waypoints": [
        {
            "positions": [
                0.1228115487234821,
                -1.1394851275133948,
                1.971548259319323,
                -0.7804723859257726,
                0.12958671773740124,
                -3.192489227718131
            ]
        },
        {
            "positions": [
                0.05681769598891458,
                -1.1730917953730997,
                2.0362764471202275,
                -0.8166954980888146,
                0.287236292246158,
                -3.178760387166594
            ]
        },
        {
            "positions": [
                -0.009176156745652947,
                -1.2066984632328048,
                2.101004634921132,
                -0.8529186102518564,
                0.4448858667549147,
                -3.165031546615057
            ]
        },
        {
            "positions": [
                -0.07517000948022048,
                -1.2403051310925097,
                2.165732822722037,
                -0.8891417224148984,
                0.6025354412636714,
                -3.15130270606352
            ]
        },
        {
            "positions": [
                -0.141163862214788,
                -1.2739117989522148,
                2.2304610105229417,
                -0.9253648345779404,
                0.7601850157724281,
                -3.137573865511983
            ]
        },
        {
            "positions": [
                -0.20715771494935553,
                -1.3075184668119197,
                2.2951891983238464,
                -0.9615879467409822,
                0.9178345902811849,
                -3.123845024960446
            ]
        },
        {
            "positions": [
                -0.27315156768392307,
                -1.3411251346716249,
                2.359917386124751,
                -0.9978110589040242,
                1.0754841647899416,
                -3.110116184408909
            ]
        },
        {
            "positions": [
                -0.3391454204184906,
                -1.3747318025313298,
                2.424645573925656,
                -1.0340341710670662,
                1.2331337392986983,
                -3.096387343857372
            ]
        }
    ]
}{
    "goal": {
        "global_pose": {
            "orientation": {
                "w": 0.5084816217422485,
                "x": -0.49083608388900757,
                "y": 0.5182115435600281,
                "z": -0.4816462993621826
            },
            "position": {
                "x": 0.5540239810943604,
                "y": 0.030875300988554955,
                "z": 0.16403168439865112
            }
        },
        "name": "move_to_storage_A"
    },
    "id": "RRT_move_to_storage_A_5",
    "joint_names": [
        "shoulder_pan_joint",
        "shoulder_lift_joint",
        "elbow_joint",
        "wrist_1_joint",
        "wrist_2_joint",
        "wrist_3_joint"
    ],
    "metrics": {
        "cart_traj_len": 0.3533611429766857,
        "distance_elbow_joint": 0.4533943474836919,
        "distance_shoulder_lift_joint": 0.23437600139237946,
        "distance_shoulder_pan_joint": 0.4610057507076802,
        "distance_wrist_1_joint": 0.260597302528236,
        "distance_wrist_2_joint": 1.1039523378290057,
        "distance_wrist_3_joint": 0.0944526747917398,
        "smoothness": 1.1102230263833737e-15,
        "time": 0.02175268,
        "traj_len": 1.6148617323884833,
        "weighted_distance": 2.03991014622543
    },
    "planner": "RRT",
    "start": {
        "state": {
            "elbow_joint": 1.97154746011099,
            "shoulder_lift_joint": -1.13948474672311,
            "shoulder_pan_joint": 0.12281154466712228,
            "wrist_1_joint": -0.7804688027058302,
            "wrist_2_joint": 0.12958655903071145,
            "wrist_3_joint": 3.0906928834467795
        }
    },
    "waypoints": [
        {
            "positions": [
                0.12281154466712228,
                -1.13948474672311,
                1.97154746011099,
                -0.7804688027058302,
                0.12958655903071145,
                3.0906928834467795
            ]
        },
        {
            "positions": [
                0.056953580280310834,
                -1.172967032636307,
                2.036318081180089,
                -0.8176969887812925,
                0.28729403586342656,
                3.1041861227027425
            ]
        },
        {
            "positions": [
                -0.008904384106500615,
                -1.206449318549504,
                2.1010887022491875,
                -0.8549251748567548,
                0.44500151269614163,
                3.117679361958705
            ]
        },
        {
            "positions": [
                -0.07476234849331208,
                -1.2399316044627011,
                2.1658593233182866,
                -0.892153360932217,
                0.6027089895288568,
                3.131172601214668
            ]
        },
        {
            "positions": [
                -0.1406203128801235,
                -1.2734138903758982,
                2.230629944387385,
                -0.9293815470076793,
                0.7604164663615719,
                3.1446658404706307
            ]
        },
        {
            "positions": [
                -0.20647827726693496,
                -1.3068961762890954,
                2.295400565456484,
                -0.9666097330831416,
                0.918123943194287,
                3.1581590797265937
            ]
        },
        {
            "positions": [
                -0.2723362416537464,
                -1.3403784622022923,
                2.3601711865255828,
                -1.0038379191586038,
                1.075831420027002,
                3.1716523189825563
            ]
        },
        {
            "positions": [
                -0.3381942060405579,
                -1.3738607481154894,
                2.424941807594682,
                -1.0410661052340662,
                1.2335388968597172,
                3.1851455582385193
            ]
        }
    ]
}{
    "goal": {
        "global_pose": {
            "orientation": {
                "w": 0.5084816217422485,
                "x": -0.49083608388900757,
                "y": 0.5182115435600281,
                "z": -0.4816462993621826
            },
            "position": {
                "x": 0.5540239810943604,
                "y": 0.030875300988554955,
                "z": 0.16403168439865112
            }
        },
        "name": "move_to_storage_A"
    },
    "id": "RRT_move_to_storage_A_5",
    "joint_names": [
        "shoulder_pan_joint",
        "shoulder_lift_joint",
        "elbow_joint",
        "wrist_1_joint",
        "wrist_2_joint",
        "wrist_3_joint"
    ],
    "metrics": {
        "cart_traj_len": 0.35333176299857444,
        "distance_elbow_joint": 0.4534450593355328,
        "distance_shoulder_lift_joint": 0.23491636293210427,
        "distance_shoulder_pan_joint": 0.46187158754885843,
        "distance_wrist_1_joint": 0.25862940253456856,
        "distance_wrist_2_joint": 1.1004013605946208,
        "distance_wrist_3_joint": 0.09609292005444514,
        "smoothness": 0.0,
        "time": 0.014212192,
        "traj_len": 1.614111734979995,
        "weighted_distance": 2.0387675925024435
    },
    "planner": "RRT",
    "start": {
        "state": {
            "elbow_joint": 1.9715472970024885,
            "shoulder_lift_joint": -1.1394870060712896,
            "shoulder_pan_joint": 0.12281152778156021,
            "wrist_1_joint": -0.780463741449964,
            "wrist_2_joint": 0.12958659822042276,
            "wrist_3_joint": 3.090690232415272
        }
    },
    "waypoints": [
        {
            "positions": [
                0.12281152778156021,
                -1.1394870060712896,
                1.9715472970024885,
                -0.780463741449964,
                0.12958659822042276,
                3.090690232415272
            ]
        },
        {
            "positions": [
                0.05682987241743759,
                -1.1730464864901617,
                2.0363251626218504,
                -0.8174107989549023,
                0.28678679259108286,
                3.1044177924230496
            ]
        },
        {
            "positions": [
                -0.009151782946685033,
                -1.2066059669090337,
                2.101103028241212,
                -0.8543578564598407,
                0.443986986961743,
                3.118145352430828
            ]
        },
        {
            "positions": [
                -0.07513343831080765,
                -1.2401654473279058,
                2.165880893860574,
                -0.8913049139647791,
                0.6011871813324031,
                3.1318729124386055
            ]
        },
        {
            "positions": [
                -0.14111509367493028,
                -1.2737249277467777,
                2.230658759479936,
                -0.9282519714697175,
                0.7583873757030631,
                3.1456004724463833
            ]
        },
        {
            "positions": [
                -0.20709674903905292,
                -1.3072844081656498,
                2.2954366250992977,
                -0.9651990289746558,
                0.9155875700737233,
                3.159328032454161
            ]
        },
        {
            "positions": [
                -0.27307840440317555,
                -1.3408438885845217,
                2.3602144907186595,
                -1.0021460864795941,
                1.0727877644443835,
                3.1730555924619392
            ]
        },
        {
            "positions": [
                -0.3390600597672982,
                -1.3744033690033939,
                2.4249923563380213,
                -1.0390931439845326,
                1.2299879588150435,
                3.186783152469717
            ]
        }
    ]
}