{
    "goal": {
        "global_pose": {
            "orientation": {
                "w": -0.4816463035849501,
                "x": 0.5182115481033762,
                "y": 0.4908360881923453,
                "z": -0.5084816262002911
            },
            "position": {
                "x": -0.8240239810943604,
                "y": -0.300875300988555,
                "z": 0.16403168439865112
            }
        },
        "name": "move_to_storage_C"
    },
    "id": "RRT_move_to_storage_C_102",
    "joint_names": [
        "shoulder_pan_joint",
        "shoulder_lift_joint",
        "elbow_joint",
        "wrist_1_joint",
        "wrist_2_joint",
        "wrist_3_joint"
    ],
    "metrics": {
        "cart_traj_len": 0.5758679871694082,
        "distance_elbow_joint": 0.2536801378663389,
        "distance_shoulder_lift_joint": 0.18838502140396607,
        "distance_shoulder_pan_joint": 0.4947691787875028,
        "distance_wrist_1_joint": 0.06451757387255841,
        "distance_wrist_2_joint": 1.0634654800478223,
        "distance_wrist_3_joint": 0.06797004512089044,
        "smoothness": 2.5376526478085547e-16,
        "time": 0.012771219,
        "traj_len": 1.4604065999231444,
        "weighted_distance": 1.8430167067233114
    },
    "planner": "RRT",
    "start": {
        "state": {
            "elbow_joint": 2.010868314990456,
            "shoulder_lift_joint": -1.1634956873337592,
            "shoulder_pan_joint": -2.4736205022346125,
            "wrist_1_joint": -0.8367026794202681,
            "wrist_2_joint": 0.6746043897044499,
            "wrist_3_joint": -3.1496632123970403
        }
    },
    "waypoints": [
        {
            "positions": [
                -2.4736205022346125,
                -1.1634956873337592,
                2.010868314990456,
                -0.8367026794202681,
                0.6746043897044499,
                -3.1496632123970403
            ]
        },
        {
            "positions": [
                -2.5560820320325295,
                -1.1320981837664315,
                1.9685882920127327,
                -0.8259497504415083,
                0.8518486363790869,
                -3.1383348715435586
            ]
        },
        {
            "positions": [
                -2.638543561830447,
                -1.100700680199104,
                1.9263082690350095,
                -0.8151968214627486,
                1.029092883053724,
                -3.127006530690077
            ]
        },
        {
            "positions": [
                -2.721005091628364,
                -1.0693031766317762,
                1.8840282460572864,
                -0.804443892483989,
                1.206337129728361,
                -3.1156781898365953
            ]
        },
        {
            "positions": [
                -2.803466621426281,
                -1.0379056730644485,
                1.8417482230795632,
                -0.7936909635052292,
                1.383581376402998,
                -3.104349848983113
            ]
        },
        {
            "positions": [
                -2.8859281512241983,
                -1.0065081694971207,
                1.79946820010184,
                -0.7829380345264694,
                1.5608256230776352,
                -3.0930215081296315
            ]
        },
        {
            "positions": [
                -2.9683896810221153,
                -0.9751106659297931,
                1.757188177124117,
                -0.7721851055477097,
                1.7380698697522723,
                -3.08169316727615
            ]
        }
    ]
}