{
    "goal": {
        "global_pose": {
            "orientation": {
                "w": 0.7031023480610252,
                "x": -0.7110244013736278,
                "y": 0.0077485991402295624,
                "z": 0.005598929693374583
            },
            "position": {
                "x": -0.8841497679147869,
                "y": 0.44412534475326537,
                "z": 0.3711530566215515
            }
        },
        "name": "move_to_auspresseinheit_D"
    },
    "id": "RRT_move_to_auspresseinheit_D_93",
    "joint_names": [
        "shoulder_pan_joint",
        "shoulder_lift_joint",
        "elbow_joint",
        "wrist_1_joint",
        "wrist_2_joint",
        "wrist_3_joint"
    ],
    "metrics": {
        "cart_traj_len": 0.3431578545950896,
        "distance_elbow_joint": 0.6457137716812658,
        "distance_shoulder_lift_joint": 0.12552958351413013,
        "distance_shoulder_pan_joint": 0.13311290459879496,
        "distance_wrist_1_joint": 0.5481536983847661,
        "distance_wrist_2_joint": 1.4465430484488047,
        "distance_wrist_3_joint": 0.0034167668766968973,
        "smoothness": 3.9474596431116675e-16,
        "time": 0.02087215,
        "traj_len": 1.7036636327351882,
        "weighted_distance": 2.2144976979196485
    },
    "planner": "RRT",
    "start": {
        "state": {
            "elbow_joint": -1.8275523626775212,
            "shoulder_lift_joint": -2.126789852344167,
            "shoulder_pan_joint": -0.03513704404078235,
            "wrist_1_joint": -2.347782403156801,
            "wrist_2_joint": -1.6058999987535132,
            "wrist_3_joint": -3.0880379163319196
        }
    },
    "waypoints": [
        {
            "positions": [
                -0.03513704404078235,
                -2.126789852344167,
                -1.8275523626775212,
                -2.347782403156801,
                -1.6058999987535132,
                -3.0880379163319196
            ]
        },
        {
            "positions": [
                -0.051776157115631716,
                -2.142481050283433,
                -1.746838141217363,
                -2.4163016154548966,
                -1.4250821176974127,
                -3.0876108204723325
            ]
        },
        {
            "positions": [
                -0.06841527019048109,
                -2.1581722482226993,
                -1.6661239197572049,
                -2.4848208277529924,
                -1.2442642366413121,
                -3.0871837246127454
            ]
        },
        {
            "positions": [
                -0.08505438326533046,
                -2.1738634461619655,
                -1.5854096982970465,
                -2.553340040051088,
                -1.0634463555852114,
                -3.0867566287531583
            ]
        },
        {
            "positions": [
                -0.10169349634017982,
                -2.189554644101232,
                -1.5046954768368883,
                -2.621859252349184,
                -0.8826284745291109,
                -3.086329532893571
            ]
        },
        {
            "positions": [
                -0.11833260941502921,
                -2.2052458420404983,
                -1.4239812553767301,
                -2.6903784646472797,
                -0.7018105934730103,
                -3.085902437033984
            ]
        },
        {
            "positions": [
                -0.13497172248987857,
                -2.2209370399797645,
                -1.3432670339165718,
                -2.7588976769453755,
                -0.5209927124169096,
                -3.085475341174397
            ]
        },
        {
            "positions": [
                -0.15161083556472793,
                -2.2366282379190308,
                -1.2625528124564136,
                -2.8274168892434712,
                -0.34017483136080906,
                -3.08504824531481
            ]
        },
        {
            "positions": [
                -0.16824994863957732,
                -2.252319435858297,
                -1.1818385909962554,
                -2.895936101541567,
                -0.15935695030470853,
                -3.0846211494552227
            ]
        }
    ]
}