{
    "goal": {
        "global_pose": {
            "orientation": {
                "w": 0.7047431493862688,
                "x": -0.7094548369677653,
                "y": 0.0024358444001904,
                "z": -0.0022348060817251984
            },
            "position": {
                "x": -0.39052492380142206,
                "y": 0.3671506643295288,
                "z": 0.19426114857196808
            }
        },
        "name": "move_to_magneteinheit_D"
    },
    "id": "RRT_move_to_magneteinheit_D_131",
    "joint_names": [
        "shoulder_pan_joint",
        "shoulder_lift_joint",
        "elbow_joint",
        "wrist_1_joint",
        "wrist_2_joint",
        "wrist_3_joint"
    ],
    "metrics": {
        "cart_traj_len": 3.552477293841372,
        "distance_elbow_joint": 3.4840459163485837,
        "distance_shoulder_lift_joint": 1.631364782099521,
        "distance_shoulder_pan_joint": 3.1713458300317448,
        "distance_wrist_1_joint": 2.1229419091466886,
        "distance_wrist_2_joint": 1.8534214185396696,
        "distance_wrist_3_joint": 3.3735826724315157,
        "smoothness": 0.38350625216370343,
        "time": 0.08817739599999999,
        "traj_len": 3.954327063938657,
        "weighted_distance": 5.134221576943004
    },
    "planner": "RRT",
    "start": {
        "state": {
            "elbow_joint": 0.749534889911806,
            "shoulder_lift_joint": -0.6476975780787326,
            "shoulder_pan_joint": -2.711696901376241,
            "wrist_1_joint": -0.07506478083263063,
            "wrist_2_joint": 0.43296659715538205,
            "wrist_3_joint": -3.14703540197715
        }
    },
    "waypoints": [
        {
            "positions": [
                -2.711696901376241,
                -0.6476975780787326,
                0.749534889911806,
                -0.07506478083263063,
                0.43296659715538205,
                -3.14703540197715
            ]
        },
        {
            "positions": [
                -2.705074148632658,
                -0.6754277281666684,
                0.7691886175133129,
                0.007347835360027602,
                0.3493550767735373,
                -3.009705481847218
            ]
        },
        {
            "positions": [
                -2.698451395889075,
                -0.7031578782546042,
                0.78884234511482,
                0.08976045155268583,
                0.26574355639169245,
                -2.872375561717286
            ]
        },
        {
            "positions": [
                -2.691828643145492,
                -0.73088802834254,
                0.808496072716327,
                0.17217306774534408,
                0.18213203600984768,
                -2.735045641587354
            ]
        },
        {
            "positions": [
                -2.685205890401909,
                -0.7586181784304757,
                0.8281498003178339,
                0.2545856839380023,
                0.09852051562800285,
                -2.597715721457422
            ]
        },
        {
            "positions": [
                -2.678583137658326,
                -0.7863483285184116,
                0.847803527919341,
                0.33699830013066057,
                0.014908995246158019,
                -2.4603858013274897
            ]
        },
        {
            "positions": [
                -2.6719603849147426,
                -0.8140784786063473,
                0.867457255520848,
                0.4194109163233188,
                -0.0687025251356867,
                -2.3230558811975577
            ]
        },
        {
            "positions": [
                -2.66533763217116,
                -0.8418086286942832,
                0.8871109831223549,
                0.501823532515977,
                -0.15231404551753164,
                -2.1857259610676256
            ]
        },
        {
            "positions": [
                -2.658714879427577,
                -0.869538778782219,
                0.9067647107238619,
                0.5842361487086352,
                -0.23592556589937635,
                -2.0483960409376936
            ]
        },
        {
            "positions": [
                -2.6520921266839936,
                -0.8972689288701547,
                0.926418438325369,
                0.6666487649012935,
                -0.31953708628122124,
                -1.9110661208077615
            ]
        },
        {
            "positions": [
                -2.6074414481585624,
                -0.9162683395846473,
                0.9097094873122589,
                0.7401976459297468,
                -0.39354611178686555,
                -1.7815753984031195
            ]
        },
        {
            "positions": [
                -2.562790769633131,
                -0.9352677502991398,
                0.8930005362991489,
                0.8137465269582,
                -0.46755513729250986,
                -1.6520846759984775
            ]
        },
        {
            "positions": [
                -2.5181400911077003,
                -0.9542671610136322,
                0.8762915852860388,
                0.8872954079866533,
                -0.5415641627981542,
                -1.5225939535938355
            ]
        },
        {
            "positions": [
                -2.473489412582269,
                -0.9732665717281247,
                0.8595826342729287,
                0.9608442890151065,
                -0.6155731883037985,
                -1.3931032311891935
            ]
        },
        {
            "positions": [
                -2.353635745058854,
                -0.9990764996534124,
                0.7306787109821901,
                0.9892618674864659,
                -0.6133355725115015,
                -1.320406356625974
            ]
        },
        {
            "positions": [
                -2.2337820775354382,
                -1.0248864275787,
                0.6017747876914514,
                1.0176794459578253,
                -0.6110979567192044,
                -1.2477094820627546
            ]
        },
        {
            "positions": [
                -2.113928410012023,
                -1.0506963555039877,
                0.4728708644007127,
                1.0460970244291847,
                -0.6088603409269074,
                -1.1750126074995353
            ]
        },
        {
            "positions": [
                -1.9940747424886076,
                -1.0765062834292753,
                0.34396694110997406,
                1.0745146029005441,
                -0.6066227251346104,
                -1.1023157329363158
            ]
        },
        {
            "positions": [
                -1.8742210749651922,
                -1.102316211354563,
                0.2150630178192353,
                1.1029321813719035,
                -0.6043851093423134,
                -1.0296188583730963
            ]
        },
        {
            "positions": [
                -1.7543674074417768,
                -1.1281261392798507,
                0.08615909452849668,
                1.131349759843263,
                -0.6021474935500164,
                -0.9569219838098768
            ]
        },
        {
            "positions": [
                -1.6345137399183614,
                -1.1539360672051384,
                -0.04274482876224206,
                1.1597673383146223,
                -0.5999098777577193,
                -0.8842251092466573
            ]
        },
        {
            "positions": [
                -1.5146600723949462,
                -1.179745995130426,
                -0.17164875205298058,
                1.1881849167859817,
                -0.5976722619654223,
                -0.8115282346834379
            ]
        },
        {
            "positions": [
                -1.3948064048715307,
                -1.2055559230557138,
                -0.3005526753437193,
                1.216602495257341,
                -0.5954346461731254,
                -0.7388313601202184
            ]
        },
        {
            "positions": [
                -1.2749527373481153,
                -1.2313658509810015,
                -0.42945659863445806,
                1.2450200737287005,
                -0.5931970303808283,
                -0.666134485556999
            ]
        },
        {
            "positions": [
                -1.1550990698246997,
                -1.2571757789062892,
                -0.5583605219251968,
                1.2734376522000599,
                -0.5909594145885313,
                -0.5934376109937795
            ]
        },
        {
            "positions": [
                -1.0352454023012845,
                -1.2829857068315769,
                -0.6872644452159353,
                1.3018552306714193,
                -0.5887217987962342,
                -0.5207407364305601
            ]
        },
        {
            "positions": [
                -0.9153917347778691,
                -1.3087956347568643,
                -0.8161683685066743,
                1.3302728091427787,
                -0.5864841830039372,
                -0.44804386186734046
            ]
        },
        {
            "positions": [
                -0.7955380672544536,
                -1.3346055626821522,
                -0.9450722917974128,
                1.358690387614138,
                -0.5842465672116403,
                -0.3753469873041211
            ]
        },
        {
            "positions": [
                -0.6756843997310382,
                -1.3604154906074397,
                -1.0739762150881516,
                1.3871079660854975,
                -0.5820089514193432,
                -0.3026501127409016
            ]
        },
        {
            "positions": [
                -0.555830732207623,
                -1.3862254185327274,
                -1.2028801383788899,
                1.4155255445568569,
                -0.5797713356270462,
                -0.22995323817768232
            ]
        },
        {
            "positions": [
                -0.4359770646842076,
                -1.412035346458015,
                -1.331784061669629,
                1.4439431230282163,
                -0.5775337198347492,
                -0.1572563636144626
            ]
        },
        {
            "positions": [
                -0.3161233971607924,
                -1.4378452743833028,
                -1.4606879849603673,
                1.4723607014995757,
                -0.5752961040424521,
                -0.08455948905124333
            ]
        },
        {
            "positions": [
                -0.19626972963737677,
                -1.4636552023085905,
                -1.589591908251106,
                1.500778279970935,
                -0.5730584882501552,
                -0.011862614488023837
            ]
        },
        {
            "positions": [
                -0.07641606211396157,
                -1.4894651302338782,
                -1.7184958315418448,
                1.5291958584422944,
                -0.5708208724578581,
                0.060834260075195656
            ]
        },
        {
            "positions": [
                0.043437605409454,
                -1.5152750581591659,
                -1.8473997548325838,
                1.5576134369136538,
                -0.5685832566655611,
                0.13353113463841515
            ]
        },
        {
            "positions": [
                0.07477664309320048,
                -1.562013991315437,
                -1.932124771264853,
                1.4748399899029965,
                -0.4265365171186869,
                0.13108950770163091
            ]
        },
        {
            "positions": [
                0.10611568077694697,
                -1.6087529244717083,
                -2.0168497876971223,
                1.3920665428923389,
                -0.2844897775718127,
                0.12864788076484665
            ]
        },
        {
            "positions": [
                0.13745471846069346,
                -1.6554918576279793,
                -2.101574804129392,
                1.3092930958816815,
                -0.14244303802493846,
                0.12620625382806241
            ]
        },
        {
            "positions": [
                0.06309081573490857,
                -1.7522900320134853,
                -2.116927505821337,
                1.378799850399523,
                -0.14585165625954777,
                0.11096464539612627
            ]
        },
        {
            "positions": [
                -0.011273086990876313,
                -1.849088206398991,
                -2.1322802075132814,
                1.448306604917364,
                -0.14926027449415705,
                0.09572303696419013
            ]
        },
        {
            "positions": [
                -0.08563698971666121,
                -1.945886380784497,
                -2.1476329092052264,
                1.5178133594352055,
                -0.15266889272876635,
                0.08048142853225398
            ]
        },
        {
            "positions": [
                -0.11867115705581321,
                -2.056945040582416,
                -2.225336582673368,
                1.506672330496903,
                -0.04549368336283262,
                0.06715928529565804
            ]
        },
        {
            "positions": [
                -0.1517053243949652,
                -2.1680037003803347,
                -2.3030402561415095,
                1.4955313015586003,
                0.06168152600310112,
                0.053837142059062086
            ]
        },
        {
            "positions": [
                -0.18473949173411722,
                -2.2790623601782536,
                -2.3807439296096513,
                1.4843902726202978,
                0.16885673536903487,
                0.04051499882246613
            ]
        }
    ]
}