{
    "goal": {
        "global_pose": {
            "orientation": {
                "w": 0.005598929693374612,
                "x": 0.007748599140229565,
                "y": 0.7110244013736278,
                "z": -0.7031023480610252
            },
            "position": {
                "x": 0.1141497679147869,
                "y": -0.7141253447532654,
                "z": 0.3711530566215515
            }
        },
        "name": "move_to_auspresseinheit_B"
    },
    "id": "RRT_move_to_auspresseinheit_B_33",
    "joint_names": [
        "shoulder_pan_joint",
        "shoulder_lift_joint",
        "elbow_joint",
        "wrist_1_joint",
        "wrist_2_joint",
        "wrist_3_joint"
    ],
    "metrics": {
        "cart_traj_len": 0.564107934169556,
        "distance_elbow_joint": 0.06326244385052826,
        "distance_shoulder_lift_joint": 0.29472874304904306,
        "distance_shoulder_pan_joint": 0.5770045970441187,
        "distance_wrist_1_joint": 0.3291051484434274,
        "distance_wrist_2_joint": 0.9885714635134506,
        "distance_wrist_3_joint": 0.0013696522297976799,
        "smoothness": 2.5376526478085547e-16,
        "time": 0.013681279000000001,
        "traj_len": 1.5013467448029338,
        "weighted_distance": 1.890623697235079
    },
    "planner": "RRT",
    "start": {
        "state": {
            "elbow_joint": 2.0193083361928714,
            "shoulder_lift_joint": -1.1220246554650708,
            "shoulder_pan_joint": -1.0952077554168747,
            "wrist_1_joint": -0.8559753972642168,
            "wrist_2_joint": 0.4759566250798843,
            "wrist_3_joint": -3.1240929996934557
        }
    },
    "waypoints": [
        {
            "positions": [
                -1.0952077554168747,
                -1.1220246554650708,
                2.0193083361928714,
                -0.8559753972642168,
                0.4759566250798843,
                -3.1240929996934557
            ]
        },
        {
            "positions": [
                -1.1913751882575612,
                -1.1711461126399114,
                2.0087645955511166,
                -0.8011245391903122,
                0.6407185356654594,
                -3.1238647243218227
            ]
        },
        {
            "positions": [
                -1.2875426210982475,
                -1.2202675698147518,
                1.998220854909362,
                -0.7462736811164077,
                0.8054804462510345,
                -3.1236364489501898
            ]
        },
        {
            "positions": [
                -1.383710053938934,
                -1.2693890269895922,
                1.9876771142676073,
                -0.691422823042503,
                0.9702423568366096,
                -3.123408173578557
            ]
        },
        {
            "positions": [
                -1.4798774867796203,
                -1.3185104841644328,
                1.9771333736258525,
                -0.6365719649685986,
                1.1350042674221847,
                -3.123179898206924
            ]
        },
        {
            "positions": [
                -1.576044919620307,
                -1.3676319413392735,
                1.966589632984098,
                -0.5817211068946939,
                1.2997661780077598,
                -3.122951622835291
            ]
        },
        {
            "positions": [
                -1.6722123524609933,
                -1.4167533985141139,
                1.9560458923423432,
                -0.5268702488207894,
                1.464528088593335,
                -3.122723347463658
            ]
        }
    ]
}