{
    "goal": {
        "global_pose": {
            "orientation": {
                "w": 0.005598929693374612,
                "x": 0.007748599140229565,
                "y": 0.7110244013736278,
                "z": -0.7031023480610252
            },
            "position": {
                "x": 0.1141497679147869,
                "y": -0.7141253447532654,
                "z": 0.3711530566215515
            }
        },
        "name": "move_to_auspresseinheit_B"
    },
    "id": "RRT_move_to_auspresseinheit_B_93",
    "joint_names": [
        "shoulder_pan_joint",
        "shoulder_lift_joint",
        "elbow_joint",
        "wrist_1_joint",
        "wrist_2_joint",
        "wrist_3_joint"
    ],
    "metrics": {
        "cart_traj_len": 0.5654962435196031,
        "distance_elbow_joint": 0.06728932798931475,
        "distance_shoulder_lift_joint": 0.29288822488714494,
        "distance_shoulder_pan_joint": 0.5756129013612621,
        "distance_wrist_1_joint": 0.3373865871899795,
        "distance_wrist_2_joint": 1.002727546579605,
        "distance_wrist_3_joint": 0.0010975220087865445,
        "smoothness": 3.806478935924272e-16,
        "time": 0.011372851,
        "traj_len": 1.508973859951223,
        "weighted_distance": 1.9024487608877276
    },
    "planner": "RRT",
    "start": {
        "state": {
            "elbow_joint": 2.0193083361928714,
            "shoulder_lift_joint": -1.1220246554650708,
            "shoulder_pan_joint": -1.0952077554168747,
            "wrist_1_joint": -0.8559753972642168,
            "wrist_2_joint": 0.4759566250798843,
            "wrist_3_joint": -3.1240929996934557
        }
    },
    "waypoints": [
        {
            "positions": [
                -1.0952077554168747,
                -1.1220246554650708,
                2.0193083361928714,
                -0.8559753972642168,
                0.4759566250798843,
                -3.1240929996934557
            ]
        },
        {
            "positions": [
                -1.191143238977085,
                -1.1708393596129283,
                2.008093448194652,
                -0.7997442993992202,
                0.6430778828431518,
                -3.123910079358658
            ]
        },
        {
            "positions": [
                -1.2870787225372953,
                -1.2196540637607858,
                1.9968785601964332,
                -0.7435132015342236,
                0.8101991406064193,
                -3.12372715902386
            ]
        },
        {
            "positions": [
                -1.3830142060975057,
                -1.2684687679086433,
                1.9856636721982142,
                -0.687282103669227,
                0.9773203983696868,
                -3.123544238689062
            ]
        },
        {
            "positions": [
                -1.478949689657716,
                -1.3172834720565008,
                1.974448784199995,
                -0.6310510058042305,
                1.1444416561329542,
                -3.123361318354265
            ]
        },
        {
            "positions": [
                -1.5748851732179263,
                -1.3660981762043582,
                1.9632338962017757,
                -0.5748199079392339,
                1.311562913896222,
                -3.123178398019467
            ]
        },
        {
            "positions": [
                -1.6708206567781367,
                -1.4149128803522157,
                1.9520190082035567,
                -0.5185888100742373,
                1.4786841716594894,
                -3.122995477684669
            ]
        }
    ]
}