{
    "goal": {
        "global_pose": {
            "orientation": {
                "w": -0.00223480608172531,
                "x": 0.0024358444001904467,
                "y": 0.7094548369677653,
                "z": -0.704743149386269
            },
            "position": {
                "x": -0.37947507619857795,
                "y": -0.6371506643295288,
                "z": 0.19426114857196808
            }
        },
        "name": "move_to_magneteinheit_C"
    },
    "id": "RRT_move_to_magneteinheit_C_143",
    "joint_names": [
        "shoulder_pan_joint",
        "shoulder_lift_joint",
        "elbow_joint",
        "wrist_1_joint",
        "wrist_2_joint",
        "wrist_3_joint"
    ],
    "metrics": {
        "cart_traj_len": 0.5706133005763983,
        "distance_elbow_joint": 0.3529985550598629,
        "distance_shoulder_lift_joint": 0.2511120865378653,
        "distance_shoulder_pan_joint": 0.8007907485462018,
        "distance_wrist_1_joint": 0.3144885730026368,
        "distance_wrist_2_joint": 0.7925465391471522,
        "distance_wrist_3_joint": 0.01750706089788734,
        "smoothness": 0.5632816269319593,
        "time": 1.854084202,
        "traj_len": 1.5904224480280722,
        "weighted_distance": 1.9161139833363698
    },
    "planner": "RRT",
    "start": {
        "state": {
            "elbow_joint": 1.9565354010623817,
            "shoulder_lift_joint": -1.4165861575791021,
            "shoulder_pan_joint": -1.6717766225146293,
            "wrist_1_joint": -0.5286633292919765,
            "wrist_2_joint": 1.472756589071564,
            "wrist_3_joint": -3.1238370188695823
        }
    },
    "waypoints": [
        {
            "positions": [
                -1.6717766225146293,
                -1.4165861575791021,
                1.9565354010623817,
                -0.5286633292919765,
                1.472756589071564,
                -3.1238370188695823
            ]
        },
        {
            "positions": [
                -1.7464413863995432,
                -1.4125166991799503,
                2.007788458843397,
                -0.5617888931886117,
                1.2911709715947208,
                -3.1232386629288924
            ]
        },
        {
            "positions": [
                -1.8211061502844568,
                -1.4084472407807982,
                2.0590415166244123,
                -0.5949144570852469,
                1.1095853541178775,
                -3.1226403069882025
            ]
        },
        {
            "positions": [
                -1.8957709141693706,
                -1.4043777823816463,
                2.110294574405428,
                -0.6280400209818823,
                0.9279997366410343,
                -3.1220419510475126
            ]
        },
        {
            "positions": [
                -1.9704356780542844,
                -1.4003083239824945,
                2.1615476321864433,
                -0.6611655848785175,
                0.7464141191641911,
                -3.1214435951068227
            ]
        },
        {
            "positions": [
                -2.137812909056467,
                -1.322030239668742,
                2.112218857541176,
                -0.7218276906838828,
                0.7243460960842646,
                -3.1264814741518654
            ]
        },
        {
            "positions": [
                -2.3051901400586488,
                -1.2437521553549893,
                2.062890082895909,
                -0.782489796489248,
                0.7022780730043382,
                -3.1315193531969077
            ]
        },
        {
            "positions": [
                -2.472567371060831,
                -1.1654740710412368,
                2.013561308250642,
                -0.8431519022946132,
                0.6802100499244117,
                -3.1365572322419504
            ]
        }
    ]
}