{
    "goal": {
        "global_pose": {
            "orientation": {
                "w": 0.5084816262002911,
                "x": -0.4908360881923452,
                "y": 0.5182115481033761,
                "z": -0.48164630358495003
            },
            "position": {
                "x": 0.5540239810943604,
                "y": -0.46912469901144505,
                "z": 0.16403168439865112
            }
        },
        "name": "move_to_storage_B"
    },
    "id": "RRT_move_to_storage_B_68",
    "joint_names": [
        "shoulder_pan_joint",
        "shoulder_lift_joint",
        "elbow_joint",
        "wrist_1_joint",
        "wrist_2_joint",
        "wrist_3_joint"
    ],
    "metrics": {
        "cart_traj_len": 2.8614950895544946,
        "distance_elbow_joint": 0.8475246087412094,
        "distance_shoulder_lift_joint": 1.4806793637784863,
        "distance_shoulder_pan_joint": 2.8885166442090275,
        "distance_wrist_1_joint": 3.000910904044366,
        "distance_wrist_2_joint": 2.7057732263411536,
        "distance_wrist_3_joint": 3.1306300052392926,
        "smoothness": 0.2709536053612872,
        "time": 0.080040572,
        "traj_len": 3.7488711304009286,
        "weighted_distance": 5.101174266109484
    },
    "planner": "RRT",
    "start": {
        "state": {
            "elbow_joint": 1.664937868594044,
            "shoulder_lift_joint": -0.661644460510453,
            "shoulder_pan_joint": -0.9139846352900073,
            "wrist_1_joint": 2.146753192139373,
            "wrist_2_joint": -2.2341966793290973,
            "wrist_3_joint": 0.005466555786416001
        }
    },
    "waypoints": [
        {
            "positions": [
                -0.9139846352900073,
                -0.661644460510453,
                1.664937868594044,
                2.146753192139373,
                -2.2341966793290973,
                0.005466555786416001
            ]
        },
        {
            "positions": [
                -0.8387791211260389,
                -0.7155289659351521,
                1.6512173403053283,
                2.0675583784512703,
                -2.14275301050166,
                -0.06192645522858575
            ]
        },
        {
            "positions": [
                -0.7635736069620707,
                -0.7694134713598512,
                1.637496812016613,
                1.988363564763167,
                -2.051309341674223,
                -0.1293194662435875
            ]
        },
        {
            "positions": [
                -0.6883680927981024,
                -0.8232979767845503,
                1.6237762837278973,
                1.909168751075064,
                -1.9598656728467856,
                -0.19671247725858923
            ]
        },
        {
            "positions": [
                -0.613162578634134,
                -0.8771824822092493,
                1.6100557554391817,
                1.8299739373869608,
                -1.8684220040193482,
                -0.264105488273591
            ]
        },
        {
            "positions": [
                -0.5379570644701657,
                -0.9310669876339486,
                1.5963352271504663,
                1.750779123698858,
                -1.7769783351919108,
                -0.3314984992885927
            ]
        },
        {
            "positions": [
                -0.4627515503061974,
                -0.9849514930586476,
                1.5826146988617507,
                1.6715843100107548,
                -1.6855346663644737,
                -0.39889151030359443
            ]
        },
        {
            "positions": [
                -0.38754603614222904,
                -1.0388359984833466,
                1.568894170573035,
                1.5923894963226517,
                -1.5940909975370365,
                -0.4662845213185962
            ]
        },
        {
            "positions": [
                -0.3123405219782608,
                -1.0927205039080459,
                1.5551736422843196,
                1.5131946826345486,
                -1.5026473287095992,
                -0.533677532333598
            ]
        },
        {
            "positions": [
                -0.23713500781429242,
                -1.146605009332745,
                1.541453113995604,
                1.4339998689464455,
                -1.4112036598821618,
                -0.6010705433485998
            ]
        },
        {
            "positions": [
                -0.16192949365032405,
                -1.200489514757444,
                1.5277325857068884,
                1.3548050552583424,
                -1.3197599910547246,
                -0.6684635543636015
            ]
        },
        {
            "positions": [
                -0.08672397948635568,
                -1.2543740201821432,
                1.514012057418173,
                1.2756102415702393,
                -1.2283163222272873,
                -0.7358565653786033
            ]
        },
        {
            "positions": [
                -0.011518465322387539,
                -1.3082585256068422,
                1.5002915291294574,
                1.1964154278821364,
                -1.13687265339985,
                -0.803249576393605
            ]
        },
        {
            "positions": [
                0.06368704884158083,
                -1.3621430310315414,
                1.4865710008407418,
                1.1172206141940333,
                -1.045428984572413,
                -0.8706425874086068
            ]
        },
        {
            "positions": [
                0.1388925630055492,
                -1.4160275364562405,
                1.4728504725520264,
                1.03802580050593,
                -0.9539853157449756,
                -0.9380355984236085
            ]
        },
        {
            "positions": [
                0.21409807716951745,
                -1.4699120418809395,
                1.4591299442633108,
                0.9588309868178269,
                -0.8625416469175382,
                -1.0054286094386102
            ]
        },
        {
            "positions": [
                0.2893035913334857,
                -1.5237965473056385,
                1.4454094159745952,
                0.879636173129724,
                -0.771097978090101,
                -1.072821620453612
            ]
        },
        {
            "positions": [
                0.3645091054974542,
                -1.5776810527303375,
                1.4316888876858798,
                0.8004413594416209,
                -0.6796543092626639,
                -1.1402146314686137
            ]
        },
        {
            "positions": [
                0.43971461966142245,
                -1.6315655581550368,
                1.4179683593971641,
                0.7212465457535177,
                -0.5882106404352265,
                -1.2076076424836155
            ]
        },
        {
            "positions": [
                0.35893475706891725,
                -1.6046835441479892,
                1.4495765225310762,
                0.6383305321925434,
                -0.5324323674116853,
                -1.308531632324103
            ]
        },
        {
            "positions": [
                0.27815489447641206,
                -1.5778015301409418,
                1.4811846856649884,
                0.5554145186315691,
                -0.47665409438814416,
                -1.4094556221645904
            ]
        },
        {
            "positions": [
                0.1973750318839069,
                -1.5509195161338942,
                1.5127928487989004,
                0.4724985050705949,
                -0.420875821364603,
                -1.5103796120050779
            ]
        },
        {
            "positions": [
                0.11659516929140173,
                -1.5240375021268469,
                1.5444010119328124,
                0.38958249150962065,
                -0.3650975483410618,
                -1.6113036018455653
            ]
        },
        {
            "positions": [
                0.03581530669889654,
                -1.4971554881197993,
                1.5760091750667247,
                0.30666647794864643,
                -0.30931927531752057,
                -1.7122275916860525
            ]
        },
        {
            "positions": [
                -0.04496455589360865,
                -1.4702734741127519,
                1.6076173382006367,
                0.22375046438767215,
                -0.2535410022939794,
                -1.8131515815265402
            ]
        },
        {
            "positions": [
                -0.12574441848611384,
                -1.4433914601057043,
                1.6392255013345487,
                0.14083445082669788,
                -0.1977627292704382,
                -1.9140755713670274
            ]
        },
        {
            "positions": [
                -0.20652428107861898,
                -1.4165094460986567,
                1.6708336644684607,
                0.057918437265723655,
                -0.14198445624689704,
                -2.014999561207515
            ]
        },
        {
            "positions": [
                -0.2873041436711241,
                -1.3896274320916093,
                1.702441827602373,
                -0.024997576295250568,
                -0.08620618322335583,
                -2.1159235510480023
            ]
        },
        {
            "positions": [
                -0.36808400626362936,
                -1.3627454180845617,
                1.734049990736285,
                -0.10791358985622479,
                -0.030427910199814612,
                -2.21684754088849
            ]
        },
        {
            "positions": [
                -0.4488638688561346,
                -1.3358634040775144,
                1.7656581538701972,
                -0.19082960341719912,
                0.025350362823726602,
                -2.3177715307289777
            ]
        },
        {
            "positions": [
                -0.5296437314486397,
                -1.3089813900704668,
                1.7972663170041092,
                -0.27374561697817335,
                0.0811286358472677,
                -2.4186955205694645
            ]
        },
        {
            "positions": [
                -0.610423594041145,
                -1.2820993760634192,
                1.8288744801380212,
                -0.35666163053914757,
                0.13690690887080892,
                -2.519619510409952
            ]
        },
        {
            "positions": [
                -0.6912034566336501,
                -1.2552173620563718,
                1.8604826432719332,
                -0.4395776441001219,
                0.19268518189435013,
                -2.62054350025044
            ]
        },
        {
            "positions": [
                -0.7719833192261553,
                -1.2283353480493242,
                1.8920908064058455,
                -0.5224936576610962,
                0.24846345491789135,
                -2.721467490090927
            ]
        },
        {
            "positions": [
                -0.8527631818186604,
                -1.2014533340422768,
                1.9236989695397575,
                -0.6054096712220703,
                0.30424172794143245,
                -2.8223914799314143
            ]
        },
        {
            "positions": [
                -0.9335430444111658,
                -1.1745713200352292,
                1.9553071326736697,
                -0.6883256847830447,
                0.36002000096497366,
                -2.923315469771902
            ]
        },
        {
            "positions": [
                -1.0143229070036708,
                -1.1476893060281819,
                1.9869152958075817,
                -0.7712416983440188,
                0.4157982739885149,
                -3.0242394596123896
            ]
        },
        {
            "positions": [
                -1.095102769596176,
                -1.1208072920211343,
                2.0185234589414938,
                -0.854157711904993,
                0.471576547012056,
                -3.125163449452877
            ]
        }
    ]
}