{
    "goal": {
        "global_pose": {
            "orientation": {
                "w": 0.7047431493862688,
                "x": -0.7094548369677653,
                "y": 0.0024358444001904,
                "z": -0.0022348060817251984
            },
            "position": {
                "x": -0.39052492380142206,
                "y": 0.3671506643295288,
                "z": 0.19426114857196808
            }
        },
        "name": "move_to_magneteinheit_D"
    },
    "id": "RRT_move_to_magneteinheit_D_68",
    "joint_names": [
        "shoulder_pan_joint",
        "shoulder_lift_joint",
        "elbow_joint",
        "wrist_1_joint",
        "wrist_2_joint",
        "wrist_3_joint"
    ],
    "metrics": {
        "cart_traj_len": 4.049260303863543,
        "distance_elbow_joint": 3.185939419068729,
        "distance_shoulder_lift_joint": 2.246134095553988,
        "distance_shoulder_pan_joint": 2.8412166234237595,
        "distance_wrist_1_joint": 2.8675295992068506,
        "distance_wrist_2_joint": 2.5935041296798182,
        "distance_wrist_3_joint": 3.307786085810455,
        "smoothness": 0.2584556415886051,
        "time": 0.118407212,
        "traj_len": 4.128209049060332,
        "weighted_distance": 5.396176039868529
    },
    "planner": "RRT",
    "start": {
        "state": {
            "elbow_joint": 0.749534889911806,
            "shoulder_lift_joint": -0.6476975780787326,
            "shoulder_pan_joint": -2.711696901376241,
            "wrist_1_joint": -0.07506478083263063,
            "wrist_2_joint": 0.43296659715538205,
            "wrist_3_joint": -3.14703540197715
        }
    },
    "waypoints": [
        {
            "positions": [
                -2.711696901376241,
                -0.6476975780787326,
                0.749534889911806,
                -0.07506478083263063,
                0.43296659715538205,
                -3.14703540197715
            ]
        },
        {
            "positions": [
                -2.7236716043432825,
                -0.6251165175671756,
                0.7064001415327866,
                -0.10350941069287142,
                0.49370132083888874,
                -3.0489638847674225
            ]
        },
        {
            "positions": [
                -2.735646307310324,
                -0.6025354570556185,
                0.6632653931537673,
                -0.13195404055311222,
                0.5544360445223954,
                -2.950892367557695
            ]
        },
        {
            "positions": [
                -2.734503734641671,
                -0.5742445453551543,
                0.5896461303115952,
                -0.1776037605447586,
                0.6427103207514187,
                -2.798548056298603
            ]
        },
        {
            "positions": [
                -2.733361161973019,
                -0.5459536336546902,
                0.5160268674694231,
                -0.22325348053640498,
                0.7309845969804418,
                -2.646203745039511
            ]
        },
        {
            "positions": [
                -2.712814526396331,
                -0.525009485296934,
                0.4376366287371508,
                -0.26926618398446145,
                0.811200220689944,
                -2.497455765103219
            ]
        },
        {
            "positions": [
                -2.6922678908196427,
                -0.5040653369391778,
                0.35924639000487857,
                -0.315278887432518,
                0.8914158443994462,
                -2.348707785166927
            ]
        },
        {
            "positions": [
                -2.6717212552429546,
                -0.4831211885814216,
                0.2808561512726064,
                -0.36129159088057444,
                0.9716314681089484,
                -2.199959805230635
            ]
        },
        {
            "positions": [
                -2.6511746196662664,
                -0.46217704022366546,
                0.20246591254033414,
                -0.4073042943286309,
                1.0518470918184506,
                -2.051211825294343
            ]
        },
        {
            "positions": [
                -2.6306279840895783,
                -0.4412328918659092,
                0.12407567380806189,
                -0.45331699777668744,
                1.132062715527953,
                -1.9024638453580511
            ]
        },
        {
            "positions": [
                -2.61008134851289,
                -0.42028874350815304,
                0.045685435075789704,
                -0.4993297012247439,
                1.212278339237455,
                -1.7537158654217593
            ]
        },
        {
            "positions": [
                -2.589534712936202,
                -0.3993445951503969,
                -0.03270480365648254,
                -0.5453424046728004,
                1.2924939629469574,
                -1.6049678854854672
            ]
        },
        {
            "positions": [
                -2.568988077359514,
                -0.3784004467926407,
                -0.11109504238875478,
                -0.5913551081208569,
                1.3727095866564594,
                -1.4562199055491754
            ]
        },
        {
            "positions": [
                -2.548441441782826,
                -0.35745629843488447,
                -0.18948528112102703,
                -0.6373678115689134,
                1.4529252103659618,
                -1.3074719256128833
            ]
        },
        {
            "positions": [
                -2.5238531052035027,
                -0.3483387101704457,
                -0.24258025741614309,
                -0.6671000864448468,
                1.4996492018730923,
                -1.2141586086645764
            ]
        },
        {
            "positions": [
                -2.4494316644335457,
                -0.34442370428465763,
                -0.3285227917991112,
                -0.6981685297350342,
                1.5389058697463254,
                -1.0892604223499265
            ]
        },
        {
            "positions": [
                -2.3750102236635886,
                -0.34050869839886955,
                -0.4144653261820793,
                -0.7292369730252215,
                1.5781625376195585,
                -0.9643622360352767
            ]
        },
        {
            "positions": [
                -2.274565690174778,
                -0.3906182708280909,
                -0.49247060514247154,
                -0.6702137867065696,
                1.5297661651979322,
                -0.920366613595442
            ]
        },
        {
            "positions": [
                -2.1741211566859677,
                -0.4407278432573123,
                -0.5704758841028638,
                -0.6111906003879176,
                1.4813697927763059,
                -0.8763709911556073
            ]
        },
        {
            "positions": [
                -2.073676623197157,
                -0.49083741568653366,
                -0.648481163063256,
                -0.5521674140692656,
                1.4329734203546796,
                -0.8323753687157727
            ]
        },
        {
            "positions": [
                -1.9732320897083466,
                -0.540946988115755,
                -0.7264864420236482,
                -0.49314422775061373,
                1.3845770479330533,
                -0.7883797462759379
            ]
        },
        {
            "positions": [
                -1.872787556219536,
                -0.5910565605449765,
                -0.8044917209840404,
                -0.4341210414319618,
                1.336180675511427,
                -0.7443841238361033
            ]
        },
        {
            "positions": [
                -1.7723430227307255,
                -0.6411661329741978,
                -0.8824969999444326,
                -0.37509785511330984,
                1.2877843030898006,
                -0.7003885013962685
            ]
        },
        {
            "positions": [
                -1.671898489241915,
                -0.6912757054034192,
                -0.9605022789048249,
                -0.31607466879465784,
                1.2393879306681743,
                -0.6563928789564338
            ]
        },
        {
            "positions": [
                -1.5714539557531046,
                -0.7413852778326405,
                -1.0385075578652172,
                -0.25705148247600595,
                1.190991558246548,
                -0.6123972565165992
            ]
        },
        {
            "positions": [
                -1.4710094222642938,
                -0.791494850261862,
                -1.1165128368256094,
                -0.19802829615735396,
                1.1425951858249217,
                -0.5684016340767644
            ]
        },
        {
            "positions": [
                -1.3705648887754835,
                -0.8416044226910833,
                -1.1945181157860016,
                -0.13900510983870207,
                1.0941988134032954,
                -0.5244060116369298
            ]
        },
        {
            "positions": [
                -1.2701203552866729,
                -0.8917139951203047,
                -1.2725233947463939,
                -0.07998192352005007,
                1.045802440981669,
                -0.48041038919709506
            ]
        },
        {
            "positions": [
                -1.1696758217978624,
                -0.941823567549526,
                -1.350528673706786,
                -0.02095873720139818,
                0.9974060685600428,
                -0.43641476675726043
            ]
        },
        {
            "positions": [
                -1.069231288309052,
                -0.9919331399787473,
                -1.4285339526671783,
                0.03806444911725371,
                0.9490096961384165,
                -0.39241914431742575
            ]
        },
        {
            "positions": [
                -0.9687867548202413,
                -1.042042712407969,
                -1.5065392316275705,
                0.09708763543590582,
                0.9006133237167901,
                -0.34842352187759096
            ]
        },
        {
            "positions": [
                -0.8683422213314309,
                -1.0921522848371903,
                -1.5845445105879628,
                0.1561108217545577,
                0.8522169512951638,
                -0.3044278994377563
            ]
        },
        {
            "positions": [
                -0.7678976878426205,
                -1.1422618572664116,
                -1.662549789548355,
                0.2151340080732096,
                0.8038205788735375,
                -0.2604322769979216
            ]
        },
        {
            "positions": [
                -0.66745315435381,
                -1.192371429695633,
                -1.7405550685087472,
                0.2741571943918615,
                0.7554242064519112,
                -0.21643665455808692
            ]
        },
        {
            "positions": [
                -0.5670086208649991,
                -1.2424810021248542,
                -1.8185603474691394,
                0.3331803807105136,
                0.7070278340302849,
                -0.17244103211825212
            ]
        },
        {
            "positions": [
                -0.4665640873761887,
                -1.2925905745540756,
                -1.8965656264295316,
                0.3922035670291655,
                0.6586314616086586,
                -0.12844540967841744
            ]
        },
        {
            "positions": [
                -0.3661195538873785,
                -1.3427001469832969,
                -1.9745709053899239,
                0.45122675334781737,
                0.6102350891870323,
                -0.08444978723858287
            ]
        },
        {
            "positions": [
                -0.26567502039856805,
                -1.3928097194125182,
                -2.052576184350316,
                0.5102499396664693,
                0.561838716765406,
                -0.04045416479874819
            ]
        },
        {
            "positions": [
                -0.16523048690975717,
                -1.44291929184174,
                -2.1305814633107083,
                0.5692731259851214,
                0.5134423443437797,
                0.0035414576410865983
            ]
        },
        {
            "positions": [
                -0.06478595342094673,
                -1.4930288642709613,
                -2.2085867422711005,
                0.6282963123037733,
                0.46504597192215347,
                0.047537080080921286
            ]
        },
        {
            "positions": [
                -0.062295276699802345,
                -1.6157132505849057,
                -2.248822001688966,
                0.7764028720181041,
                0.4027338188342804,
                0.034492990131092485
            ]
        },
        {
            "positions": [
                -0.05980459997865796,
                -1.7383976368988499,
                -2.289057261106832,
                0.9245094317324349,
                0.34042166574640736,
                0.021448900181263685
            ]
        },
        {
            "positions": [
                -0.05731392325751357,
                -1.8610820232127943,
                -2.3292925205246973,
                1.0726159914467657,
                0.27810951265853434,
                0.00840481023143489
            ]
        },
        {
            "positions": [
                -0.054823246536369184,
                -1.9837664095267384,
                -2.369527779942563,
                1.2207225511610966,
                0.21579735957066123,
                -0.004639279718393917
            ]
        },
        {
            "positions": [
                -0.0523325698152248,
                -2.106450795840683,
                -2.4097630393604286,
                1.3688291108754274,
                0.15348520648278816,
                -0.01768336966822271
            ]
        },
        {
            "positions": [
                -0.1193093098125136,
                -2.1929523550568386,
                -2.3964422944621813,
                1.426474772432233,
                0.16530063552222424,
                0.0063132073333984975
            ]
        },
        {
            "positions": [
                -0.1862860498098024,
                -2.2794539142729944,
                -2.3831215495639344,
                1.484120433989039,
                0.17711606456166032,
                0.030309784335019702
            ]
        }
    ]
}