{
    "goal": {
        "global_pose": {
            "orientation": {
                "w": -0.4816463035849501,
                "x": 0.5182115481033762,
                "y": 0.4908360881923453,
                "z": -0.5084816262002911
            },
            "position": {
                "x": -0.8240239810943604,
                "y": 0.19912469901144506,
                "z": 0.16403168439865112
            }
        },
        "name": "move_to_storage_D"
    },
    "id": "RRT_move_to_storage_D_80",
    "joint_names": [
        "shoulder_pan_joint",
        "shoulder_lift_joint",
        "elbow_joint",
        "wrist_1_joint",
        "wrist_2_joint",
        "wrist_3_joint"
    ],
    "metrics": {
        "cart_traj_len": 1.9149507614150376,
        "distance_elbow_joint": 0.5549526493971197,
        "distance_shoulder_lift_joint": 1.1893181215979634,
        "distance_shoulder_pan_joint": 2.3931265466708225,
        "distance_wrist_1_joint": 3.8309183357257592,
        "distance_wrist_2_joint": 1.7736468169108894,
        "distance_wrist_3_joint": 3.118471115650649,
        "smoothness": 0.24357181498921868,
        "time": 0.039678769,
        "traj_len": 3.5861446688544514,
        "weighted_distance": 4.970104724237826
    },
    "planner": "RRT",
    "start": {
        "state": {
            "elbow_joint": -2.384821988534728,
            "shoulder_lift_joint": -2.2788054721415256,
            "shoulder_pan_joint": -0.1854694642142757,
            "wrist_1_joint": 1.4845938289331202,
            "wrist_2_joint": 0.17898776772866878,
            "wrist_3_joint": 0.037105688729662994
        }
    },
    "waypoints": [
        {
            "positions": [
                -0.1854694642142757,
                -2.2788054721415256,
                -2.384821988534728,
                1.4845938289331202,
                0.17898776772866878,
                0.037105688729662994
            ]
        },
        {
            "positions": [
                -0.110606554081405,
                -2.23929507800483,
                -2.3658975810913887,
                1.3971671846551368,
                0.09344600745346623,
                -0.03902537868283941
            ]
        },
        {
            "positions": [
                -0.0357436439485343,
                -2.199784683868134,
                -2.3469731736480495,
                1.3097405403771532,
                0.007904247178263685,
                -0.11515644609534181
            ]
        },
        {
            "positions": [
                0.03911926618433639,
                -2.160274289731438,
                -2.3280487662047107,
                1.2223138960991697,
                -0.07763751309693892,
                -0.19128751350784423
            ]
        },
        {
            "positions": [
                0.11398217631720711,
                -2.120763895594742,
                -2.3091243587613715,
                1.1348872518211863,
                -0.16317927337214141,
                -0.26741858092034665
            ]
        },
        {
            "positions": [
                0.18884508645007778,
                -2.0812535014580464,
                -2.2901999513180322,
                1.047460607543203,
                -0.24872103364734402,
                -0.34354964833284907
            ]
        },
        {
            "positions": [
                0.2637079965829485,
                -2.0417431073213503,
                -2.271275543874693,
                0.9600339632652193,
                -0.33426279392254665,
                -0.4196807157453515
            ]
        },
        {
            "positions": [
                0.33857090671581924,
                -2.0022327131846547,
                -2.252351136431354,
                0.8726073189872359,
                -0.4198045541977491,
                -0.4958117831578538
            ]
        },
        {
            "positions": [
                0.41343381684868996,
                -1.962722319047959,
                -2.233426728988015,
                0.7851806747092523,
                -0.5053463144729516,
                -0.5719428505703562
            ]
        },
        {
            "positions": [
                0.48829672698156057,
                -1.923211924911263,
                -2.2145023215446757,
                0.6977540304312689,
                -0.5908880747481543,
                -0.6480739179828586
            ]
        },
        {
            "positions": [
                0.5631596371144313,
                -1.8837015307745673,
                -2.1955779141013365,
                0.6103273861532854,
                -0.6764298350233569,
                -0.724204985395361
            ]
        },
        {
            "positions": [
                0.638022547247302,
                -1.8441911366378714,
                -2.1766535066579977,
                0.5229007418753019,
                -0.7619715952985594,
                -0.8003360528078635
            ]
        },
        {
            "positions": [
                0.7128854573801727,
                -1.8046807425011755,
                -2.1577290992146585,
                0.43547409759731837,
                -0.8475133555737621,
                -0.8764671202203659
            ]
        },
        {
            "positions": [
                0.7877483675130433,
                -1.7651703483644798,
                -2.1388046917713193,
                0.3480474533193352,
                -0.9330551158489645,
                -0.9525981876328682
            ]
        },
        {
            "positions": [
                0.8626112776459142,
                -1.7256599542277837,
                -2.11988028432798,
                0.26062080904135154,
                -1.0185968761241668,
                -1.0287292550453706
            ]
        },
        {
            "positions": [
                0.9374741877787848,
                -1.686149560091088,
                -2.1009558768846412,
                0.17319416476336813,
                -1.1041386363993695,
                -1.104860322457873
            ]
        },
        {
            "positions": [
                1.0123370979116555,
                -1.6466391659543922,
                -2.082031469441302,
                0.0857675204853845,
                -1.189680396674572,
                -1.1809913898703754
            ]
        },
        {
            "positions": [
                1.087200008044526,
                -1.6071287718176963,
                -2.063107061997963,
                -0.001659123792598971,
                -1.2752221569497746,
                -1.2571224572828779
            ]
        },
        {
            "positions": [
                1.0212907683732306,
                -1.637578267186763,
                -2.0493871959473537,
                -0.13958061691024845,
                -1.2940125623752126,
                -1.3644308672615901
            ]
        },
        {
            "positions": [
                0.9553815287019354,
                -1.6680277625558297,
                -2.0356673298967447,
                -0.27750211002789793,
                -1.3128029678006505,
                -1.4717392772403024
            ]
        },
        {
            "positions": [
                0.8894722890306399,
                -1.6984772579248963,
                -2.0219474638461357,
                -0.41542360314554744,
                -1.3315933732260887,
                -1.5790476872190147
            ]
        },
        {
            "positions": [
                0.8235630493593447,
                -1.7289267532939632,
                -2.0082275977955266,
                -0.553345096263197,
                -1.3503837786515267,
                -1.6863560971977267
            ]
        },
        {
            "positions": [
                0.7576538096880492,
                -1.7593762486630298,
                -1.9945077317449174,
                -0.6912665893808463,
                -1.3691741840769647,
                -1.7936645071764392
            ]
        },
        {
            "positions": [
                0.6917445700167537,
                -1.7898257440320966,
                -1.9807878656943083,
                -0.8291880824984958,
                -1.3879645895024026,
                -1.9009729171551513
            ]
        },
        {
            "positions": [
                0.6258353303454585,
                -1.8202752394011632,
                -1.967067999643699,
                -0.9671095756161452,
                -1.4067549949278406,
                -2.0082813271338633
            ]
        },
        {
            "positions": [
                0.5599260906741631,
                -1.85072473477023,
                -1.95334813359309,
                -1.1050310687337948,
                -1.4255454003532786,
                -2.115589737112576
            ]
        },
        {
            "positions": [
                0.49401685100286763,
                -1.8811742301392966,
                -1.939628267542481,
                -1.242952561851444,
                -1.4443358057787168,
                -2.2228981470912883
            ]
        },
        {
            "positions": [
                0.42810761133157227,
                -1.9116237255083635,
                -1.925908401491872,
                -1.3808740549690937,
                -1.4631262112041548,
                -2.3302065570700004
            ]
        },
        {
            "positions": [
                0.3621983716602769,
                -1.94207322087743,
                -1.9121885354412627,
                -1.5187955480867432,
                -1.4819166166295927,
                -2.4375149670487124
            ]
        },
        {
            "positions": [
                0.29628913198898144,
                -1.9725227162464969,
                -1.8984686693906536,
                -1.6567170412043928,
                -1.5007070220550307,
                -2.544823377027425
            ]
        },
        {
            "positions": [
                0.23037989231768619,
                -2.0029722116155635,
                -1.8847488033400446,
                -1.794638534322042,
                -1.5194974274804687,
                -2.652131787006137
            ]
        },
        {
            "positions": [
                0.16447065264639082,
                -2.03342170698463,
                -1.8710289372894355,
                -1.9325600274396915,
                -1.5382878329059069,
                -2.7594401969848494
            ]
        },
        {
            "positions": [
                0.09856141297509546,
                -2.063871202353697,
                -1.8573090712388263,
                -2.070481520557341,
                -1.5570782383313446,
                -2.8667486069635615
            ]
        },
        {
            "positions": [
                0.0326521733038001,
                -2.0943206977227637,
                -1.8435892051882172,
                -2.2084030136749906,
                -1.5758686437567828,
                -2.9740570169422735
            ]
        },
        {
            "positions": [
                -0.03325706636749526,
                -2.1247701930918304,
                -1.8298693391376082,
                -2.34632450679264,
                -1.5946590491822208,
                -3.081365426920986
            ]
        }
    ]
}