{
    "goal": {
        "global_pose": {
            "orientation": {
                "w": 0.7031023480610252,
                "x": -0.7110244013736278,
                "y": 0.0077485991402295624,
                "z": 0.005598929693374583
            },
            "position": {
                "x": -0.8841497679147869,
                "y": 0.44412534475326537,
                "z": 0.3711530566215515
            }
        },
        "name": "move_to_auspresseinheit_D"
    },
    "id": "RRT_move_to_auspresseinheit_D_23",
    "joint_names": [
        "shoulder_pan_joint",
        "shoulder_lift_joint",
        "elbow_joint",
        "wrist_1_joint",
        "wrist_2_joint",
        "wrist_3_joint"
    ],
    "metrics": {
        "cart_traj_len": 0.3442787396295856,
        "distance_elbow_joint": 0.6479441525947305,
        "distance_shoulder_lift_joint": 0.1259567452920325,
        "distance_shoulder_pan_joint": 0.13368918066806232,
        "distance_wrist_1_joint": 0.5486989621517666,
        "distance_wrist_2_joint": 1.4496318271846216,
        "distance_wrist_3_joint": 0.004460190012967047,
        "smoothness": 1.9737298371844314e-16,
        "time": 0.011922603,
        "traj_len": 1.705983897316789,
        "weighted_distance": 2.217573499856657
    },
    "planner": "RRT",
    "start": {
        "state": {
            "elbow_joint": -1.8275523626775212,
            "shoulder_lift_joint": -2.126789852344167,
            "shoulder_pan_joint": -0.03513704404078235,
            "wrist_1_joint": -2.347782403156801,
            "wrist_2_joint": -1.6058999987535132,
            "wrist_3_joint": -3.0880379163319196
        }
    },
    "waypoints": [
        {
            "positions": [
                -0.03513704404078235,
                -2.126789852344167,
                -1.8275523626775212,
                -2.347782403156801,
                -1.6058999987535132,
                -3.0880379163319196
            ]
        },
        {
            "positions": [
                -0.051848191624290135,
                -2.142534445505671,
                -1.7465593436031799,
                -2.416369773425772,
                -1.4246960203554355,
                -3.0874803925802987
            ]
        },
        {
            "positions": [
                -0.06855933920779793,
                -2.158279038667175,
                -1.6655663245288386,
                -2.4849571436947424,
                -1.2434920419573579,
                -3.086922868828678
            ]
        },
        {
            "positions": [
                -0.08527048679130572,
                -2.174023631828679,
                -1.5845733054544973,
                -2.5535445139637134,
                -1.0622880635592802,
                -3.086365345077057
            ]
        },
        {
            "positions": [
                -0.1019816343748135,
                -2.189768224990183,
                -1.503580286380156,
                -2.622131884232684,
                -0.8810840851612024,
                -3.085807821325436
            ]
        },
        {
            "positions": [
                -0.11869278195832131,
                -2.205512818151687,
                -1.4225872673058146,
                -2.690719254501655,
                -0.6998801067631247,
                -3.085250297573815
            ]
        },
        {
            "positions": [
                -0.1354039295418291,
                -2.221257411313191,
                -1.3415942482314733,
                -2.759306624770626,
                -0.518676128365047,
                -3.0846927738221943
            ]
        },
        {
            "positions": [
                -0.15211507712533687,
                -2.237002004474695,
                -1.260601229157132,
                -2.8278939950395965,
                -0.3374721499669693,
                -3.0841352500705734
            ]
        },
        {
            "positions": [
                -0.16882622470884467,
                -2.2527465976361993,
                -1.1796082100827907,
                -2.8964813653085675,
                -0.1562681715688916,
                -3.0835777263189525
            ]
        }
    ]
}