{
    "goal": {
        "global_pose": {
            "orientation": {
                "w": 0.5084816217422485,
                "x": -0.49083608388900757,
                "y": 0.5182115435600281,
                "z": -0.4816462993621826
            },
            "position": {
                "x": 0.5540239810943604,
                "y": 0.030875300988554955,
                "z": 0.16403168439865112
            }
        },
        "name": "move_to_storage_A"
    },
    "id": "RRT_move_to_storage_A_16",
    "joint_names": [
        "shoulder_pan_joint",
        "shoulder_lift_joint",
        "elbow_joint",
        "wrist_1_joint",
        "wrist_2_joint",
        "wrist_3_joint"
    ],
    "metrics": {
        "cart_traj_len": 0.35350046001317587,
        "distance_elbow_joint": 0.4476019684419861,
        "distance_shoulder_lift_joint": 0.23280782511693343,
        "distance_shoulder_pan_joint": 0.45937607761715554,
        "distance_wrist_1_joint": 0.23580980744524715,
        "distance_wrist_2_joint": 1.1109430808937437,
        "distance_wrist_3_joint": 0.08950041624820493,
        "smoothness": 0.0,
        "time": 0.021901648,
        "traj_len": 1.605004416119554,
        "weighted_distance": 2.02528834900087
    },
    "planner": "RRT",
    "start": {
        "state": {
            "elbow_joint": 1.971548259319323,
            "shoulder_lift_joint": -1.1394851275133948,
            "shoulder_pan_joint": 0.1228115487234821,
            "wrist_1_joint": -0.7804723859257726,
            "wrist_2_joint": 0.12958671773740124,
            "wrist_3_joint": -3.192489227718131
        }
    },
    "waypoints": [
        {
            "positions": [
                0.1228115487234821,
                -1.1394851275133948,
                1.971548259319323,
                -0.7804723859257726,
                0.12958671773740124,
                -3.192489227718131
            ]
        },
        {
            "positions": [
                0.057186394778174165,
                -1.1727433882443854,
                2.0354913976681783,
                -0.8141595012750936,
                0.2882928721507932,
                -3.1797034539683877
            ]
        },
        {
            "positions": [
                -0.00843875916713377,
                -1.2060016489753758,
                2.0994345360170334,
                -0.8478466166244146,
                0.4469990265641851,
                -3.166917680218644
            ]
        },
        {
            "positions": [
                -0.0740639131124417,
                -1.2392599097063663,
                2.1633776743658886,
                -0.8815337319737356,
                0.6057051809775771,
                -3.1541319064689004
            ]
        },
        {
            "positions": [
                -0.13968906705774964,
                -1.2725181704373567,
                2.2273208127147437,
                -0.9152208473230568,
                0.7644113353909691,
                -3.141346132719157
            ]
        },
        {
            "positions": [
                -0.20531422100305757,
                -1.3057764311683473,
                2.291263951063599,
                -0.9489079626723778,
                0.923117489804361,
                -3.1285603589694135
            ]
        },
        {
            "positions": [
                -0.2709393749483655,
                -1.3390346918993377,
                2.355207089412454,
                -0.9825950780216988,
                1.081823644217753,
                -3.1157745852196697
            ]
        },
        {
            "positions": [
                -0.33656452889367344,
                -1.3722929526303282,
                2.419150227761309,
                -1.0162821933710198,
                1.240529798631145,
                -3.1029888114699262
            ]
        }
    ]
}{
    "goal": {
        "global_pose": {
            "orientation": {
                "w": 0.5084816217422485,
                "x": -0.49083608388900757,
                "y": 0.5182115435600281,
                "z": -0.4816462993621826
            },
            "position": {
                "x": 0.5540239810943604,
                "y": 0.030875300988554955,
                "z": 0.16403168439865112
            }
        },
        "name": "move_to_storage_A"
    },
    "id": "RRT_move_to_storage_A_16",
    "joint_names": [
        "shoulder_pan_joint",
        "shoulder_lift_joint",
        "elbow_joint",
        "wrist_1_joint",
        "wrist_2_joint",
        "wrist_3_joint"
    ],
    "metrics": {
        "cart_traj_len": 0.35392454119472483,
        "distance_elbow_joint": 0.4506445767098515,
        "distance_shoulder_lift_joint": 0.23312604675624593,
        "distance_shoulder_pan_joint": 0.4630408946509686,
        "distance_wrist_1_joint": 0.24627243511024188,
        "distance_wrist_2_joint": 1.098964594711261,
        "distance_wrist_3_joint": 0.10482832310029444,
        "smoothness": 6.661338165333112e-16,
        "time": 0.013368073,
        "traj_len": 1.6114828174817328,
        "weighted_distance": 2.0375893960906244
    },
    "planner": "RRT",
    "start": {
        "state": {
            "elbow_joint": 1.97154746011099,
            "shoulder_lift_joint": -1.13948474672311,
            "shoulder_pan_joint": 0.12281154466712228,
            "wrist_1_joint": -0.7804688027058302,
            "wrist_2_joint": 0.12958655903071145,
            "wrist_3_joint": 3.0906928834467795
        }
    },
    "waypoints": [
        {
            "positions": [
                0.12281154466712228,
                -1.13948474672311,
                1.97154746011099,
                -0.7804688027058302,
                0.12958655903071145,
                3.0906928834467795
            ]
        },
        {
            "positions": [
                0.056662845431269634,
                -1.172788467688288,
                2.035925256783826,
                -0.8156505791501505,
                0.28658150113232017,
                3.105668358175393
            ]
        },
        {
            "positions": [
                -0.009485853804583014,
                -1.206092188653466,
                2.1003030534566616,
                -0.8508323555944707,
                0.44357644323392886,
                3.1206438329040065
            ]
        },
        {
            "positions": [
                -0.07563455304043566,
                -1.239395909618644,
                2.1646808501294976,
                -0.886014132038791,
                0.6005713853355376,
                3.13561930763262
            ]
        },
        {
            "positions": [
                -0.1417832522762883,
                -1.2726996305838219,
                2.2290586468023337,
                -0.9211959084831113,
                0.7575663274371462,
                3.1505947823612335
            ]
        },
        {
            "positions": [
                -0.207931951512141,
                -1.306003351549,
                2.2934364434751697,
                -0.9563776849274315,
                0.914561269538755,
                3.165570257089847
            ]
        },
        {
            "positions": [
                -0.2740806507479936,
                -1.3393070725141778,
                2.3578142401480053,
                -0.9915594613717518,
                1.0715562116403636,
                3.1805457318184605
            ]
        },
        {
            "positions": [
                -0.3402293499838463,
                -1.3726107934793559,
                2.4221920368208414,
                -1.026741237816072,
                1.2285511537419724,
                3.195521206547074
            ]
        }
    ]
}{
    "goal": {
        "global_pose": {
            "orientation": {
                "w": 0.5084816217422485,
                "x": -0.49083608388900757,
                "y": 0.5182115435600281,
                "z": -0.4816462993621826
            },
            "position": {
                "x": 0.5540239810943604,
                "y": 0.030875300988554955,
                "z": 0.16403168439865112
            }
        },
        "name": "move_to_storage_A"
    },
    "id": "RRT_move_to_storage_A_16",
    "joint_names": [
        "shoulder_pan_joint",
        "shoulder_lift_joint",
        "elbow_joint",
        "wrist_1_joint",
        "wrist_2_joint",
        "wrist_3_joint"
    ],
    "metrics": {
        "cart_traj_len": 0.35356452580972975,
        "distance_elbow_joint": 0.45086648212343716,
        "distance_shoulder_lift_joint": 0.23643457334709406,
        "distance_shoulder_pan_joint": 0.46131388684703833,
        "distance_wrist_1_joint": 0.24300629494469583,
        "distance_wrist_2_joint": 1.105286650316608,
        "distance_wrist_3_joint": 0.1073805444495406,
        "smoothness": 4.440892098500626e-16,
        "time": 0.013575437,
        "traj_len": 1.6137807880962067,
        "weighted_distance": 2.0414069820074583
    },
    "planner": "RRT",
    "start": {
        "state": {
            "elbow_joint": 1.9715472970024885,
            "shoulder_lift_joint": -1.1394870060712896,
            "shoulder_pan_joint": 0.12281152778156021,
            "wrist_1_joint": -0.780463741449964,
            "wrist_2_joint": 0.12958659822042276,
            "wrist_3_joint": 3.090690232415272
        }
    },
    "waypoints": [
        {
            "positions": [
                0.12281152778156021,
                -1.1394870060712896,
                1.9715472970024885,
                -0.780463741449964,
                0.12958659822042276,
                3.090690232415272
            ]
        },
        {
            "positions": [
                0.05690954394626903,
                -1.173263373692303,
                2.035956794448694,
                -0.8151789264420634,
                0.28748469112279534,
                3.106030310193778
            ]
        },
        {
            "positions": [
                -0.008992439889022152,
                -1.2070397413133165,
                2.100366291894899,
                -0.8498941114341628,
                0.44538278402516795,
                3.1213703879722834
            ]
        },
        {
            "positions": [
                -0.07489442372431335,
                -1.24081610893433,
                2.1647757893411046,
                -0.8846092964262622,
                0.6032808769275405,
                3.1367104657507894
            ]
        },
        {
            "positions": [
                -0.14079640755960451,
                -1.2745924765553434,
                2.2291852867873096,
                -0.9193244814183616,
                0.7611789698299131,
                3.152050543529295
            ]
        },
        {
            "positions": [
                -0.20669839139489574,
                -1.3083688441763568,
                2.293594784233515,
                -0.954039666410461,
                0.9190770627322857,
                3.167390621307801
            ]
        },
        {
            "positions": [
                -0.2726003752301869,
                -1.3421452117973702,
                2.35800428167972,
                -0.9887548514025604,
                1.0769751556346583,
                3.1827306990863065
            ]
        },
        {
            "positions": [
                -0.3385023590654781,
                -1.3759215794183837,
                2.4224137791259257,
                -1.0234700363946598,
                1.2348732485370308,
                3.1980707768648124
            ]
        }
    ]
}