{
    "goal": {
        "global_pose": {
            "orientation": {
                "w": 0.5084816217422485,
                "x": -0.49083608388900757,
                "y": 0.5182115435600281,
                "z": -0.4816462993621826
            },
            "position": {
                "x": 0.5540239810943604,
                "y": 0.030875300988554955,
                "z": 0.16403168439865112
            }
        },
        "name": "move_to_storage_A"
    },
    "id": "RRT_move_to_storage_A_29",
    "joint_names": [
        "shoulder_pan_joint",
        "shoulder_lift_joint",
        "elbow_joint",
        "wrist_1_joint",
        "wrist_2_joint",
        "wrist_3_joint"
    ],
    "metrics": {
        "cart_traj_len": 0.3532258965520813,
        "distance_elbow_joint": 0.45367427883456535,
        "distance_shoulder_lift_joint": 0.2320887535959968,
        "distance_shoulder_pan_joint": 0.46114424898155776,
        "distance_wrist_1_joint": 0.26282973026066025,
        "distance_wrist_2_joint": 1.1014750887684444,
        "distance_wrist_3_joint": 0.10703739581605598,
        "smoothness": 4.440892098500626e-16,
        "time": 0.022367851999999997,
        "traj_len": 1.6181005828616715,
        "weighted_distance": 2.0485675744086396
    },
    "planner": "RRT",
    "start": {
        "state": {
            "elbow_joint": 1.971548259319323,
            "shoulder_lift_joint": -1.1394851275133948,
            "shoulder_pan_joint": 0.1228115487234821,
            "wrist_1_joint": -0.7804723859257726,
            "wrist_2_joint": 0.12958671773740124,
            "wrist_3_joint": -3.192489227718131
        }
    },
    "waypoints": [
        {
            "positions": [
                0.1228115487234821,
                -1.1394851275133948,
                1.971548259319323,
                -0.7804723859257726,
                0.12958671773740124,
                -3.192489227718131
            ]
        },
        {
            "positions": [
                0.05693379886897386,
                -1.1726406637413944,
                2.0363588705814037,
                -0.8180194902487241,
                0.286940301847179,
                -3.1771981711729804
            ]
        },
        {
            "positions": [
                -0.008943950985534382,
                -1.2057961999693938,
                2.1011694818434847,
                -0.8555665945716755,
                0.44429388595695674,
                -3.1619071146278293
            ]
        },
        {
            "positions": [
                -0.07482170084004264,
                -1.2389517361973934,
                2.1659800931055653,
                -0.893113698894627,
                0.6016474700667345,
                -3.1466160580826785
            ]
        },
        {
            "positions": [
                -0.14069945069455086,
                -1.272107272425393,
                2.230790704367646,
                -0.9306608032175785,
                0.7590010541765123,
                -3.131325001537528
            ]
        },
        {
            "positions": [
                -0.20657720054905915,
                -1.3052628086533926,
                2.295601315629727,
                -0.9682079075405299,
                0.9163546382862902,
                -3.116033944992377
            ]
        },
        {
            "positions": [
                -0.2724549504035674,
                -1.338418344881392,
                2.360411926891808,
                -1.0057550118634815,
                1.0737082223960677,
                -3.100742888447226
            ]
        },
        {
            "positions": [
                -0.33833270025807566,
                -1.3715738811093916,
                2.4252225381538883,
                -1.0433021161864329,
                1.2310618065058456,
                -3.085451831902075
            ]
        }
    ]
}{
    "goal": {
        "global_pose": {
            "orientation": {
                "w": 0.5084816217422485,
                "x": -0.49083608388900757,
                "y": 0.5182115435600281,
                "z": -0.4816462993621826
            },
            "position": {
                "x": 0.5540239810943604,
                "y": 0.030875300988554955,
                "z": 0.16403168439865112
            }
        },
        "name": "move_to_storage_A"
    },
    "id": "RRT_move_to_storage_A_29",
    "joint_names": [
        "shoulder_pan_joint",
        "shoulder_lift_joint",
        "elbow_joint",
        "wrist_1_joint",
        "wrist_2_joint",
        "wrist_3_joint"
    ],
    "metrics": {
        "cart_traj_len": 0.3529231275962794,
        "distance_elbow_joint": 0.4510719832856438,
        "distance_shoulder_lift_joint": 0.23539851690293,
        "distance_shoulder_pan_joint": 0.46299492822933336,
        "distance_wrist_1_joint": 0.24673824950356038,
        "distance_wrist_2_joint": 1.0925754165359685,
        "distance_wrist_3_joint": 0.09807771672186272,
        "smoothness": 5.551115138160447e-16,
        "time": 0.012919667,
        "traj_len": 1.6083708562328833,
        "weighted_distance": 2.030351179146739
    },
    "planner": "RRT",
    "start": {
        "state": {
            "elbow_joint": 1.97154746011099,
            "shoulder_lift_joint": -1.13948474672311,
            "shoulder_pan_joint": 0.12281154466712228,
            "wrist_1_joint": -0.7804688027058302,
            "wrist_2_joint": 0.12958655903071145,
            "wrist_3_joint": 3.0906928834467795
        }
    },
    "waypoints": [
        {
            "positions": [
                0.12281154466712228,
                -1.13948474672311,
                1.97154746011099,
                -0.7804688027058302,
                0.12958655903071145,
                3.0906928834467795
            ]
        },
        {
            "positions": [
                0.0566694120629318,
                -1.1731131062806714,
                2.035986314866082,
                -0.8157171240634816,
                0.2856687613929927,
                3.104703985835617
            ]
        },
        {
            "positions": [
                -0.00947272054125868,
                -1.2067414658382327,
                2.100425169621174,
                -0.8509654454211332,
                0.4417509637552739,
                3.1187150882244548
            ]
        },
        {
            "positions": [
                -0.07561485314544915,
                -1.2403698253957942,
                2.164864024376266,
                -0.8862137667787846,
                0.5978331661175551,
                3.132726190613292
            ]
        },
        {
            "positions": [
                -0.14175698574963963,
                -1.2739981849533557,
                2.2293028791313576,
                -0.9214620881364362,
                0.7539153684798363,
                3.1467372930021296
            ]
        },
        {
            "positions": [
                -0.20789911835383013,
                -1.3076265445109172,
                2.2937417338864496,
                -0.9567104094940876,
                0.9099975708421175,
                3.160748395390967
            ]
        },
        {
            "positions": [
                -0.27404125095802057,
                -1.3412549040684785,
                2.3581805886415417,
                -0.991958730851739,
                1.0660797732043987,
                3.174759497779805
            ]
        },
        {
            "positions": [
                -0.34018338356221106,
                -1.37488326362604,
                2.4226194433966337,
                -1.0272070522093906,
                1.22216197556668,
                3.1887706001686422
            ]
        }
    ]
}{
    "goal": {
        "global_pose": {
            "orientation": {
                "w": 0.5084816217422485,
                "x": -0.49083608388900757,
                "y": 0.5182115435600281,
                "z": -0.4816462993621826
            },
            "position": {
                "x": 0.5540239810943604,
                "y": 0.030875300988554955,
                "z": 0.16403168439865112
            }
        },
        "name": "move_to_storage_A"
    },
    "id": "RRT_move_to_storage_A_29",
    "joint_names": [
        "shoulder_pan_joint",
        "shoulder_lift_joint",
        "elbow_joint",
        "wrist_1_joint",
        "wrist_2_joint",
        "wrist_3_joint"
    ],
    "metrics": {
        "cart_traj_len": 0.35218047793801804,
        "distance_elbow_joint": 0.4491595180330763,
        "distance_shoulder_lift_joint": 0.23386436357367124,
        "distance_shoulder_pan_joint": 0.4574150294649385,
        "distance_wrist_1_joint": 0.24239644518497117,
        "distance_wrist_2_joint": 1.1100140120669741,
        "distance_wrist_3_joint": 0.10131565513586516,
        "smoothness": 1.1102230298998083e-15,
        "time": 0.012033956,
        "traj_len": 1.6106411839573382,
        "weighted_distance": 2.036960183946454
    },
    "planner": "RRT",
    "start": {
        "state": {
            "elbow_joint": 1.9715472970024885,
            "shoulder_lift_joint": -1.1394870060712896,
            "shoulder_pan_joint": 0.12281152778156021,
            "wrist_1_joint": -0.780463741449964,
            "wrist_2_joint": 0.12958659822042276,
            "wrist_3_joint": 3.090690232415272
        }
    },
    "waypoints": [
        {
            "positions": [
                0.12281152778156021,
                -1.1394870060712896,
                1.9715472970024885,
                -0.780463741449964,
                0.12958659822042276,
                3.090690232415272
            ]
        },
        {
            "positions": [
                0.05746652357228328,
                -1.1728962008675283,
                2.035712942435785,
                -0.815091805047817,
                0.28816002851570477,
                3.1051638974346814
            ]
        },
        {
            "positions": [
                -0.007878480636993646,
                -1.206305395663767,
                2.0998785878690818,
                -0.8497198686456701,
                0.4467334588109868,
                3.1196375624540904
            ]
        },
        {
            "positions": [
                -0.07322348484627056,
                -1.2397145904600058,
                2.1640442333023784,
                -0.884347932243523,
                0.6053068891062688,
                3.1341112274735
            ]
        },
        {
            "positions": [
                -0.1385684890555475,
                -1.2731237852562445,
                2.228209878735675,
                -0.9189759958413761,
                0.7638803194015508,
                3.148584892492909
            ]
        },
        {
            "positions": [
                -0.20391349326482447,
                -1.3065329800524834,
                2.2923755241689716,
                -0.9536040594392291,
                0.9224537496968328,
                3.1630585575123185
            ]
        },
        {
            "positions": [
                -0.26925849747410135,
                -1.3399421748487221,
                2.3565411696022682,
                -0.9882321230370821,
                1.081027179992115,
                3.1775322225317275
            ]
        },
        {
            "positions": [
                -0.33460350168337827,
                -1.3733513696449609,
                2.420706815035565,
                -1.0228601866349352,
                1.2396006102873969,
                3.192005887551137
            ]
        }
    ]
}