{
    "goal": {
        "global_pose": {
            "orientation": {
                "w": 0.7031023480610252,
                "x": -0.7110244013736278,
                "y": 0.0077485991402295624,
                "z": 0.005598929693374583
            },
            "position": {
                "x": -0.8841497679147869,
                "y": 0.44412534475326537,
                "z": 0.3711530566215515
            }
        },
        "name": "move_to_auspresseinheit_D"
    },
    "id": "RRT_move_to_auspresseinheit_D_150",
    "joint_names": [
        "shoulder_pan_joint",
        "shoulder_lift_joint",
        "elbow_joint",
        "wrist_1_joint",
        "wrist_2_joint",
        "wrist_3_joint"
    ],
    "metrics": {
        "cart_traj_len": 0.3428548148336774,
        "distance_elbow_joint": 0.6309148608216952,
        "distance_shoulder_lift_joint": 0.11698519435963428,
        "distance_shoulder_pan_joint": 0.1336727409075318,
        "distance_wrist_1_joint": 0.5051895019343124,
        "distance_wrist_2_joint": 1.4381374165034897,
        "distance_wrist_3_joint": 0.030299191958326865,
        "smoothness": 0.0,
        "time": 0.013856178,
        "traj_len": 1.689733383254586,
        "weighted_distance": 2.204342126086476
    },
    "planner": "RRT",
    "start": {
        "state": {
            "elbow_joint": -1.8275523626775212,
            "shoulder_lift_joint": -2.126789852344167,
            "shoulder_pan_joint": -0.03513704404078235,
            "wrist_1_joint": -2.347782403156801,
            "wrist_2_joint": -1.6058999987535132,
            "wrist_3_joint": -3.0880379163319196
        }
    },
    "waypoints": [
        {
            "positions": [
                -0.03513704404078235,
                -2.126789852344167,
                -1.8275523626775212,
                -2.347782403156801,
                -1.6058999987535132,
                -3.0880379163319196
            ]
        },
        {
            "positions": [
                -0.05184613665422383,
                -2.1414130016391213,
                -1.7486880050748093,
                -2.4109310908985897,
                -1.4261328216905769,
                -3.0918253153267106
            ]
        },
        {
            "positions": [
                -0.0685552292676653,
                -2.1560361509340753,
                -1.6698236474720973,
                -2.474079778640379,
                -1.2463656446276408,
                -3.0956127143215015
            ]
        },
        {
            "positions": [
                -0.08526432188110677,
                -2.1706593002290298,
                -1.5909592898693854,
                -2.5372284663821683,
                -1.0665984675647047,
                -3.099400113316292
            ]
        },
        {
            "positions": [
                -0.10197341449454825,
                -2.185282449523984,
                -1.5120949322666735,
                -2.600377154123957,
                -0.8868312905017683,
                -3.103187512311083
            ]
        },
        {
            "positions": [
                -0.11868250710798972,
                -2.199905598818938,
                -1.4332305746639618,
                -2.663525841865746,
                -0.7070641134388321,
                -3.106974911305874
            ]
        },
        {
            "positions": [
                -0.13539159972143122,
                -2.2145287481138927,
                -1.3543662170612498,
                -2.726674529607535,
                -0.5272969363758959,
                -3.1107623103006645
            ]
        },
        {
            "positions": [
                -0.1521006923348727,
                -2.2291518974088467,
                -1.275501859458538,
                -2.7898232173493245,
                -0.3475297593129598,
                -3.1145497092954555
            ]
        },
        {
            "positions": [
                -0.16880978494831417,
                -2.243775046703801,
                -1.196637501855826,
                -2.8529719050911133,
                -0.16776258225002355,
                -3.1183371082902465
            ]
        }
    ]
}