{
    "goal": {
        "global_pose": {
            "orientation": {
                "w": 0.7031023502349854,
                "x": -0.7110244035720825,
                "y": 0.007748599164187908,
                "z": 0.005598929710686207
            },
            "position": {
                "x": 0.11585023208521307,
                "y": 0.44412534475326537,
                "z": 0.3711530566215515
            }
        },
        "name": "move_to_auspresseinheit_A"
    },
    "id": "RRT_move_to_auspresseinheit_A_114",
    "joint_names": [
        "shoulder_pan_joint",
        "shoulder_lift_joint",
        "elbow_joint",
        "wrist_1_joint",
        "wrist_2_joint",
        "wrist_3_joint"
    ],
    "metrics": {
        "cart_traj_len": 1.7844331030801723,
        "distance_elbow_joint": 1.5248447355099346,
        "distance_shoulder_lift_joint": 1.3502700238476224,
        "distance_shoulder_pan_joint": 1.078125908515939,
        "distance_wrist_1_joint": 1.7582090514255442,
        "distance_wrist_2_joint": 2.4422827991537126,
        "distance_wrist_3_joint": 1.7855187762506608,
        "smoothness": 0.9065368791592275,
        "time": 1.588397337,
        "traj_len": 3.152657814400956,
        "weighted_distance": 4.20841783783217
    },
    "planner": "RRT",
    "start": {
        "state": {
            "elbow_joint": 2.4225746658250005,
            "shoulder_lift_joint": -1.3736534386056498,
            "shoulder_pan_joint": -0.3378633547517467,
            "wrist_1_joint": -1.0288598680537169,
            "wrist_2_joint": 1.233022673432363,
            "wrist_3_joint": -3.0940220416140027
        }
    },
    "waypoints": [
        {
            "positions": [
                -0.3378633547517467,
                -1.3736534386056498,
                2.4225746658250005,
                -1.0288598680537169,
                1.233022673432363,
                -3.0940220416140027
            ]
        },
        {
            "positions": [
                -0.2827047034857192,
                -1.4325232583024137,
                2.3739045314814127,
                -0.9559553975753023,
                1.1400246526366224,
                -3.0395923990820273
            ]
        },
        {
            "positions": [
                -0.22754605221969162,
                -1.4913930779991778,
                2.325234397137825,
                -0.8830509270968877,
                1.0470266318408816,
                -2.985162756550052
            ]
        },
        {
            "positions": [
                -0.17238740095366406,
                -1.5502628976959416,
                2.276564262794237,
                -0.8101464566184731,
                0.954028611045141,
                -2.9307331140180763
            ]
        },
        {
            "positions": [
                -0.11722874968763652,
                -1.6091327173927055,
                2.2278941284506493,
                -0.7372419861400585,
                0.8610305902494004,
                -2.876303471486101
            ]
        },
        {
            "positions": [
                -0.06207009842160899,
                -1.6680025370894693,
                2.179223994107061,
                -0.664337515661644,
                0.7680325694536597,
                -2.8218738289541254
            ]
        },
        {
            "positions": [
                -0.006911447155581396,
                -1.7268723567862334,
                2.1305538597634732,
                -0.5914330451832294,
                0.675034548657919,
                -2.76744418642215
            ]
        },
        {
            "positions": [
                0.04824720411044614,
                -1.7857421764829973,
                2.0818837254198854,
                -0.5185285747048147,
                0.5820365278621784,
                -2.7130145438901745
            ]
        },
        {
            "positions": [
                0.10340585537647368,
                -1.8446119961797613,
                2.0332135910762976,
                -0.4456241042264002,
                0.4890385070664377,
                -2.658584901358199
            ]
        },
        {
            "positions": [
                0.1585645066425012,
                -1.9034818158765252,
                1.9845434567327098,
                -0.37271963374798567,
                0.396040486270697,
                -2.6041552588262236
            ]
        },
        {
            "positions": [
                0.21372315790852875,
                -1.962351635573289,
                1.935873322389122,
                -0.29981516326957103,
                0.3030424654749564,
                -2.549725616294248
            ]
        },
        {
            "positions": [
                0.26888180917455634,
                -2.021221455270053,
                1.887203188045534,
                -0.2269106927911564,
                0.2100444446792158,
                -2.4952959737622726
            ]
        },
        {
            "positions": [
                0.32404046044058393,
                -2.080091274966817,
                1.8385330537019462,
                -0.15400622231274186,
                0.11704642388347497,
                -2.440866331230297
            ]
        },
        {
            "positions": [
                0.3791991117066114,
                -2.138961094663581,
                1.7898629193583584,
                -0.08110175183432733,
                0.02404840308773437,
                -2.3864366886983217
            ]
        },
        {
            "positions": [
                0.434357762972639,
                -2.197830914360345,
                1.7411927850147704,
                -0.008197281355912578,
                -0.06894961770800623,
                -2.3320070461663462
            ]
        },
        {
            "positions": [
                0.4895164142386665,
                -2.256700734057109,
                1.6925226506711826,
                0.06470718912250195,
                -0.16194763850374705,
                -2.277577403634371
            ]
        },
        {
            "positions": [
                0.5446750655046941,
                -2.3155705537538727,
                1.6438525163275948,
                0.1376116596009166,
                -0.25494565929948765,
                -2.2231477611023953
            ]
        },
        {
            "positions": [
                0.566847382565038,
                -2.2947443649155495,
                1.7363628541224974,
                0.08451510987862754,
                -0.17479472906938348,
                -2.328988962317621
            ]
        },
        {
            "positions": [
                0.5890196996253819,
                -2.273918176077226,
                1.8288731919174,
                0.03141856015633848,
                -0.09464379883927931,
                -2.4348301635328466
            ]
        },
        {
            "positions": [
                0.6111920166857258,
                -2.2530919872389026,
                1.9213835297123023,
                -0.021677989565950573,
                -0.014492868609175147,
                -2.5406713647480723
            ]
        },
        {
            "positions": [
                0.6333643337460697,
                -2.2322657984005794,
                2.013893867507205,
                -0.07477453928823963,
                0.06565806162092902,
                -2.646512565963298
            ]
        },
        {
            "positions": [
                0.6555366508064135,
                -2.2114396095622557,
                2.1064042053021073,
                -0.12787108901052868,
                0.1458089918510332,
                -2.7523537671785236
            ]
        },
        {
            "positions": [
                0.6777089678667574,
                -2.1906134207239325,
                2.19891454309701,
                -0.18096763873281774,
                0.22595992208113735,
                -2.8581949683937498
            ]
        },
        {
            "positions": [
                0.6998812849271012,
                -2.169787231885609,
                2.2914248808919124,
                -0.2340641884551068,
                0.30611085231124147,
                -2.9640361696089754
            ]
        },
        {
            "positions": [
                0.7220536019874452,
                -2.1489610430472856,
                2.383935218686815,
                -0.28716073817739585,
                0.38626178254134574,
                -3.069877370824201
            ]
        },
        {
            "positions": [
                0.7159839513951962,
                -2.068379910383015,
                2.385948513237918,
                -0.3428157801749286,
                0.4906307907350218,
                -3.0925156661632838
            ]
        },
        {
            "positions": [
                0.7099143008029472,
                -1.987798777718744,
                2.387961807789021,
                -0.3984708221724613,
                0.5949997989286979,
                -3.115153961502366
            ]
        },
        {
            "positions": [
                0.7038446502106982,
                -1.907217645054473,
                2.3899751023401237,
                -0.45412586416999406,
                0.699368807122374,
                -3.1377922568414487
            ]
        }
    ]
}