{
    "goal": {
        "global_pose": {
            "orientation": {
                "w": -0.00223480608172531,
                "x": 0.0024358444001904467,
                "y": 0.7094548369677653,
                "z": -0.704743149386269
            },
            "position": {
                "x": -0.37947507619857795,
                "y": -0.6371506643295288,
                "z": 0.19426114857196808
            }
        },
        "name": "move_to_magneteinheit_C"
    },
    "id": "RRT_move_to_magneteinheit_C_131",
    "joint_names": [
        "shoulder_pan_joint",
        "shoulder_lift_joint",
        "elbow_joint",
        "wrist_1_joint",
        "wrist_2_joint",
        "wrist_3_joint"
    ],
    "metrics": {
        "cart_traj_len": 0.8350567247391596,
        "distance_elbow_joint": 0.3292733459248729,
        "distance_shoulder_lift_joint": 0.4682063737979545,
        "distance_shoulder_pan_joint": 0.9258177063480602,
        "distance_wrist_1_joint": 1.2564310404924774,
        "distance_wrist_2_joint": 0.8134159351096535,
        "distance_wrist_3_joint": 0.8653161564547549,
        "smoothness": 0.8351698092615135,
        "time": 3.549782266,
        "traj_len": 2.1583467187010927,
        "weighted_distance": 2.9084256646232878
    },
    "planner": "RRT",
    "start": {
        "state": {
            "elbow_joint": 1.9565354010623817,
            "shoulder_lift_joint": -1.4165861575791021,
            "shoulder_pan_joint": -1.6717766225146293,
            "wrist_1_joint": -0.5286633292919765,
            "wrist_2_joint": 1.472756589071564,
            "wrist_3_joint": -3.1238370188695823
        }
    },
    "waypoints": [
        {
            "positions": [
                -1.6717766225146293,
                -1.4165861575791021,
                1.9565354010623817,
                -0.5286633292919765,
                1.472756589071564,
                -3.1238370188695823
            ]
        },
        {
            "positions": [
                -1.65828389585888,
                -1.443535694752178,
                1.9276758985825126,
                -0.41184229678382633,
                1.3909897883594642,
                -3.0177479579789224
            ]
        },
        {
            "positions": [
                -1.6447911692031305,
                -1.4704852319252537,
                1.8988163961026436,
                -0.2950212642756762,
                1.3092229876473644,
                -2.9116588970882624
            ]
        },
        {
            "positions": [
                -1.631298442547381,
                -1.4974347690983296,
                1.8699568936227746,
                -0.17820023176752608,
                1.2274561869352645,
                -2.805569836197603
            ]
        },
        {
            "positions": [
                -1.6178057158916317,
                -1.5243843062714055,
                1.8410973911429056,
                -0.06137919925937596,
                1.1456893862231647,
                -2.699480775306943
            ]
        },
        {
            "positions": [
                -1.7670268809767706,
                -1.5105861329899861,
                1.8708975824466694,
                -0.06692464467646414,
                1.0547889711323324,
                -2.7432102769221007
            ]
        },
        {
            "positions": [
                -1.9162480460619093,
                -1.4967879597085665,
                1.900697773750433,
                -0.07247009009355232,
                0.9638885560415,
                -2.7869397785372585
            ]
        },
        {
            "positions": [
                -2.065469211147048,
                -1.482989786427147,
                1.9304979650541967,
                -0.0780155355106405,
                0.8729881409506677,
                -2.8306692801524167
            ]
        },
        {
            "positions": [
                -2.2146903762321872,
                -1.4691916131457274,
                1.9602981563579602,
                -0.08356098092772868,
                0.7820877258598352,
                -2.8743987817675745
            ]
        },
        {
            "positions": [
                -2.363911541317326,
                -1.455393439864308,
                1.990098347661724,
                -0.08910642634481686,
                0.6911873107690029,
                -2.9181282833827322
            ]
        },
        {
            "positions": [
                -2.42255239161424,
                -1.425588614844652,
                2.0125230488314294,
                -0.18967900283434722,
                0.6976466641227905,
                -2.9749367811485063
            ]
        },
        {
            "positions": [
                -2.481193241911155,
                -1.3957837898249956,
                2.034947750001135,
                -0.2902515793238776,
                0.7041060174765783,
                -3.031745278914281
            ]
        },
        {
            "positions": [
                -2.4783734840093086,
                -1.3185145536052485,
                2.028286090952079,
                -0.477009756122336,
                0.6977967007767393,
                -3.067977082009207
            ]
        },
        {
            "positions": [
                -2.475553726107462,
                -1.2412453173855016,
                2.021624431903023,
                -0.6637679329207944,
                0.6914873840769004,
                -3.1042088851041325
            ]
        },
        {
            "positions": [
                -2.4727339682056155,
                -1.1639760811657545,
                2.014962772853967,
                -0.8505261097192529,
                0.6851780673770613,
                -3.1404406881990585
            ]
        }
    ]
}