{
    "goal": {
        "global_pose": {
            "orientation": {
                "w": 0.7047431493862688,
                "x": -0.7094548369677653,
                "y": 0.0024358444001904,
                "z": -0.0022348060817251984
            },
            "position": {
                "x": -0.39052492380142206,
                "y": 0.3671506643295288,
                "z": 0.19426114857196808
            }
        },
        "name": "move_to_magneteinheit_D"
    },
    "id": "RRT_move_to_magneteinheit_D_25",
    "joint_names": [
        "shoulder_pan_joint",
        "shoulder_lift_joint",
        "elbow_joint",
        "wrist_1_joint",
        "wrist_2_joint",
        "wrist_3_joint"
    ],
    "metrics": {
        "cart_traj_len": 4.362836271248394,
        "distance_elbow_joint": 3.248433315736189,
        "distance_shoulder_lift_joint": 1.6251875452217048,
        "distance_shoulder_pan_joint": 3.1340138219317235,
        "distance_wrist_1_joint": 1.5299182171461148,
        "distance_wrist_2_joint": 0.7679953952614659,
        "distance_wrist_3_joint": 4.38717642397335,
        "smoothness": 0.4756670260896935,
        "time": 0.12447703,
        "traj_len": 3.8331090147908067,
        "weighted_distance": 5.075922692439754
    },
    "planner": "RRT",
    "start": {
        "state": {
            "elbow_joint": 0.749534889911806,
            "shoulder_lift_joint": -0.6476975780787326,
            "shoulder_pan_joint": -2.711696901376241,
            "wrist_1_joint": -0.07506478083263063,
            "wrist_2_joint": 0.43296659715538205,
            "wrist_3_joint": -3.14703540197715
        }
    },
    "waypoints": [
        {
            "positions": [
                -2.711696901376241,
                -0.6476975780787326,
                0.749534889911806,
                -0.07506478083263063,
                0.43296659715538205,
                -3.14703540197715
            ]
        },
        {
            "positions": [
                -2.72730889992422,
                -0.7932053760974485,
                0.7752050633947093,
                -0.08088293006319204,
                0.5194095415334453,
                -3.1088667680151265
            ]
        },
        {
            "positions": [
                -2.7429208984721987,
                -0.9387131741161644,
                0.8008752368776126,
                -0.08670107929375345,
                0.6058524859115085,
                -3.070698134053103
            ]
        },
        {
            "positions": [
                -2.6518991337733473,
                -0.9772213114672631,
                0.7259330618698585,
                -0.0411531131572005,
                0.593135509105589,
                -2.937261848891976
            ]
        },
        {
            "positions": [
                -2.560877369074496,
                -1.0157294488183617,
                0.6509908868621043,
                0.004394852979352451,
                0.5804185322996693,
                -2.8038255637308493
            ]
        },
        {
            "positions": [
                -2.4698556043756446,
                -1.0542375861694604,
                0.57604871185435,
                0.049942819115905396,
                0.5677015554937498,
                -2.670389278569722
            ]
        },
        {
            "positions": [
                -2.378833839676793,
                -1.092745723520559,
                0.5011065368465959,
                0.09549078525245835,
                0.5549845786878302,
                -2.5369529934085953
            ]
        },
        {
            "positions": [
                -2.287812074977942,
                -1.1312538608716576,
                0.42616436183884165,
                0.1410387513890113,
                0.5422676018819107,
                -2.4035167082474684
            ]
        },
        {
            "positions": [
                -2.1967903102790904,
                -1.1697619982227563,
                0.3512221868310875,
                0.18658671752556424,
                0.5295506250759912,
                -2.270080423086341
            ]
        },
        {
            "positions": [
                -2.105768545580239,
                -1.208270135573855,
                0.2762800118233333,
                0.23213468366211723,
                0.5168336482700715,
                -2.1366441379252143
            ]
        },
        {
            "positions": [
                -2.0147467808813877,
                -1.2467782729249537,
                0.20133783681557915,
                0.2776826497986702,
                0.504116671464152,
                -2.0032078527640875
            ]
        },
        {
            "positions": [
                -1.9237250161825363,
                -1.2852864102760524,
                0.1263956618078248,
                0.3232306159352232,
                0.49139969465823236,
                -1.8697715676029603
            ]
        },
        {
            "positions": [
                -1.832703251483685,
                -1.323794547627151,
                0.05145348680007067,
                0.36877858207177605,
                0.4786827178523128,
                -1.7363352824418334
            ]
        },
        {
            "positions": [
                -1.7416814867848338,
                -1.3623026849782496,
                -0.02348868820768346,
                0.41432654820832904,
                0.4659657410463932,
                -1.6028989972807066
            ]
        },
        {
            "positions": [
                -1.6506597220859824,
                -1.4008108223293483,
                -0.09843086321543759,
                0.4598745143448819,
                0.45324876424047367,
                -1.4694627121195798
            ]
        },
        {
            "positions": [
                -1.559637957387131,
                -1.439318959680447,
                -0.17337303822319194,
                0.5054224804814349,
                0.4405317874345541,
                -1.3360264269584525
            ]
        },
        {
            "positions": [
                -1.4686161926882797,
                -1.4778270970315455,
                -0.24831521323094607,
                0.5509704466179879,
                0.4278148106286345,
                -1.2025901417973257
            ]
        },
        {
            "positions": [
                -1.3775944279894283,
                -1.5163352343826442,
                -0.3232573882387002,
                0.5965184127545409,
                0.4150978338227149,
                -1.0691538566361989
            ]
        },
        {
            "positions": [
                -1.2865726632905772,
                -1.5548433717337429,
                -0.39819956324645434,
                0.6420663788910937,
                0.4023808570167954,
                -0.9357175714750721
            ]
        },
        {
            "positions": [
                -1.1955508985917258,
                -1.5933515090848416,
                -0.47314173825420847,
                0.6876143450276467,
                0.38966388021087583,
                -0.8022812863139452
            ]
        },
        {
            "positions": [
                -1.1045291338928742,
                -1.6318596464359403,
                -0.548083913261963,
                0.7331623111641997,
                0.3769469034049562,
                -0.6688450011528175
            ]
        },
        {
            "positions": [
                -1.0135073691940228,
                -1.670367783787039,
                -0.6230260882697172,
                0.7787102773007527,
                0.36422992659903664,
                -0.5354087159916907
            ]
        },
        {
            "positions": [
                -0.9224856044951715,
                -1.7088759211381377,
                -0.6979682632774713,
                0.8242582434373056,
                0.3515129497931171,
                -0.4019724308305639
            ]
        },
        {
            "positions": [
                -0.8314638397963203,
                -1.7473840584892362,
                -0.7729104382852254,
                0.8698062095738586,
                0.33879597298719755,
                -0.26853614566943707
            ]
        },
        {
            "positions": [
                -0.740442075097469,
                -1.7858921958403347,
                -0.8478526132929796,
                0.9153541757104116,
                0.32607899618127795,
                -0.13509986050831024
            ]
        },
        {
            "positions": [
                -0.6494203103986176,
                -1.8244003331914334,
                -0.9227947883007337,
                0.9609021418469645,
                0.3133620193753584,
                -0.0016635753471834214
            ]
        },
        {
            "positions": [
                -0.5583985456997662,
                -1.862908470542532,
                -0.9977369633084878,
                1.0064501079835173,
                0.3006450425694388,
                0.1317727098139434
            ]
        },
        {
            "positions": [
                -0.46737678100091484,
                -1.9014166078936308,
                -1.0726791383162424,
                1.0519980741200705,
                0.2879280657635192,
                0.2652089949750711
            ]
        },
        {
            "positions": [
                -0.37635501630206347,
                -1.9399247452447295,
                -1.1476213133239965,
                1.0975460402566233,
                0.27521108895759966,
                0.39864528013619793
            ]
        },
        {
            "positions": [
                -0.2853332516032121,
                -1.9784328825958282,
                -1.2225634883317507,
                1.1430940063931763,
                0.26249411215168006,
                0.5320815652973248
            ]
        },
        {
            "positions": [
                -0.1943114869043609,
                -2.016941019946927,
                -1.2975056633395048,
                1.1886419725297293,
                0.24977713534576054,
                0.6655178504584516
            ]
        },
        {
            "positions": [
                -0.1474282527329162,
                -2.0488876070464386,
                -1.4694645057003364,
                1.217686468298134,
                0.22335774731604566,
                0.5925621412916751
            ]
        },
        {
            "positions": [
                -0.10054501856147151,
                -2.08083419414595,
                -1.641423348061168,
                1.246730964066539,
                0.19693835928633074,
                0.5196064321248985
            ]
        },
        {
            "positions": [
                -0.05366178439002681,
                -2.1127807812454615,
                -1.8133821904219998,
                1.2757754598349438,
                0.17051897125661586,
                0.4466507229581219
            ]
        },
        {
            "positions": [
                -0.006778550218582119,
                -2.1447273683449732,
                -1.9853410327828314,
                1.3048199556033488,
                0.14409958322690097,
                0.3736950137913454
            ]
        },
        {
            "positions": [
                0.040104683952862596,
                -2.1766739554444845,
                -2.1572998751436634,
                1.3338644513717537,
                0.11768019519718606,
                0.3007393046245688
            ]
        },
        {
            "positions": [
                0.08698791812430728,
                -2.208620542543996,
                -2.3292587175044948,
                1.3629089471401585,
                0.09126080716747116,
                0.2277835954577923
            ]
        },
        {
            "positions": [
                -0.04945258599532251,
                -2.240752832922217,
                -2.362738224698632,
                1.3972448932656985,
                0.13151972104812226,
                0.1593391371892469
            ]
        },
        {
            "positions": [
                -0.1858930901149523,
                -2.2728851233004375,
                -2.396217731892769,
                1.4315808393912384,
                0.17177863492877335,
                0.09089467892070148
            ]
        }
    ]
}