{
    "goal": {
        "global_pose": {
            "orientation": {
                "w": -0.4816463035849501,
                "x": 0.5182115481033762,
                "y": 0.4908360881923453,
                "z": -0.5084816262002911
            },
            "position": {
                "x": -0.8240239810943604,
                "y": 0.19912469901144506,
                "z": 0.16403168439865112
            }
        },
        "name": "move_to_storage_D"
    },
    "id": "RRT_move_to_storage_D_111",
    "joint_names": [
        "shoulder_pan_joint",
        "shoulder_lift_joint",
        "elbow_joint",
        "wrist_1_joint",
        "wrist_2_joint",
        "wrist_3_joint"
    ],
    "metrics": {
        "cart_traj_len": 3.7223201458913815,
        "distance_elbow_joint": 4.8080919290966655,
        "distance_shoulder_lift_joint": 1.2653540954061915,
        "distance_shoulder_pan_joint": 2.8130540282885566,
        "distance_wrist_1_joint": 2.281991678805656,
        "distance_wrist_2_joint": 2.7776632147129954,
        "distance_wrist_3_joint": 5.429122514431382,
        "smoothness": 0.29580913176306184,
        "time": 0.244824546,
        "traj_len": 4.401735732724246,
        "weighted_distance": 5.94080612233078
    },
    "planner": "RRT",
    "start": {
        "state": {
            "elbow_joint": -2.384821988534728,
            "shoulder_lift_joint": -2.2788054721415256,
            "shoulder_pan_joint": -0.1854694642142757,
            "wrist_1_joint": 1.4845938289331202,
            "wrist_2_joint": 0.17898776772866878,
            "wrist_3_joint": 0.037105688729662994
        }
    },
    "waypoints": [
        {
            "positions": [
                -0.1854694642142757,
                -2.2788054721415256,
                -2.384821988534728,
                1.4845938289331202,
                0.17898776772866878,
                0.037105688729662994
            ]
        },
        {
            "positions": [
                -0.12035171568766825,
                -2.239958592214346,
                -2.40960698735742,
                1.406156610956146,
                0.09963491874805329,
                -0.05794328500878575
            ]
        },
        {
            "positions": [
                -0.0552339671610608,
                -2.2011117122871666,
                -2.4343919861801115,
                1.3277193929791722,
                0.020282069767437794,
                -0.1529922587472345
            ]
        },
        {
            "positions": [
                0.009883781365546684,
                -2.162264832359987,
                -2.4591769850028036,
                1.249282175002198,
                -0.059070779213177715,
                -0.24804123248568324
            ]
        },
        {
            "positions": [
                0.07500152989215411,
                -2.1234179524328076,
                -2.4839619838254956,
                1.1708449570252242,
                -0.1384236281937932,
                -0.343090206224132
            ]
        },
        {
            "positions": [
                0.14011927841876162,
                -2.084571072505628,
                -2.5087469826481876,
                1.09240773904825,
                -0.2177764771744087,
                -0.4381391799625808
            ]
        },
        {
            "positions": [
                0.20523702694536908,
                -2.0457241925784486,
                -2.5335319814708797,
                1.013970521071276,
                -0.2971293261550242,
                -0.5331881537010295
            ]
        },
        {
            "positions": [
                0.2703547754719766,
                -2.006877312651269,
                -2.5583169802935712,
                0.9355333030943019,
                -0.37648217513563975,
                -0.6282371274394782
            ]
        },
        {
            "positions": [
                0.33547252399858396,
                -1.9680304327240896,
                -2.5831019791162633,
                0.8570960851173279,
                -0.4558350241162552,
                -0.7232861011779269
            ]
        },
        {
            "positions": [
                0.4005902725251915,
                -1.9291835527969101,
                -2.6078869779389553,
                0.7786588671403539,
                -0.5351878730968708,
                -0.8183350749163757
            ]
        },
        {
            "positions": [
                0.465708021051799,
                -1.8903366728697306,
                -2.632671976761647,
                0.7002216491633798,
                -0.6145407220774862,
                -0.9133840486548245
            ]
        },
        {
            "positions": [
                0.5308257695784064,
                -1.8514897929425511,
                -2.657456975584339,
                0.6217844311864059,
                -0.6938935710581017,
                -1.0084330223932731
            ]
        },
        {
            "positions": [
                0.5959435181050139,
                -1.8126429130153716,
                -2.682241974407031,
                0.5433472132094318,
                -0.7732464200387172,
                -1.103481996131722
            ]
        },
        {
            "positions": [
                0.6494077561568368,
                -1.791611556797476,
                -2.563540081164285,
                0.5080644483914852,
                -0.7252088140664643,
                -0.9906258164061956
            ]
        },
        {
            "positions": [
                0.7028719942086595,
                -1.77058020057958,
                -2.444838187921538,
                0.4727816835735388,
                -0.6771712080942114,
                -0.8777696366806693
            ]
        },
        {
            "positions": [
                0.7563362322604824,
                -1.7495488443616845,
                -2.3261362946787916,
                0.4374989187555922,
                -0.6291336021219585,
                -0.7649134569551431
            ]
        },
        {
            "positions": [
                0.8098004703123053,
                -1.7285174881437888,
                -2.2074344014360454,
                0.4022161539376457,
                -0.5810959961497055,
                -0.6520572772296168
            ]
        },
        {
            "positions": [
                0.863264708364128,
                -1.707486131925893,
                -2.0887325081932993,
                0.3669333891196992,
                -0.5330583901774526,
                -0.5392010975040905
            ]
        },
        {
            "positions": [
                0.9167289464159509,
                -1.6864547757079973,
                -1.9700306149505526,
                0.33165062430175263,
                -0.48502078420519973,
                -0.4263449177785643
            ]
        },
        {
            "positions": [
                0.9701931844677738,
                -1.6654234194901016,
                -1.8513287217078063,
                0.2963678594838062,
                -0.4369831782329468,
                -0.313488738053038
            ]
        },
        {
            "positions": [
                1.0236574225195967,
                -1.6443920632722058,
                -1.7326268284650599,
                0.2610850946658596,
                -0.3889455722606939,
                -0.2006325583275117
            ]
        },
        {
            "positions": [
                1.0771216605714193,
                -1.6233607070543101,
                -1.6139249352223135,
                0.2258023298479131,
                -0.34090796628844094,
                -0.0877763786019854
            ]
        },
        {
            "positions": [
                1.1305858986232424,
                -1.6023293508364145,
                -1.4952230419795671,
                0.1905195650299666,
                -0.29287036031618807,
                0.025079801123540912
            ]
        },
        {
            "positions": [
                1.184050136675065,
                -1.5812979946185186,
                -1.3765211487368205,
                0.15523680021202002,
                -0.24483275434393503,
                0.13793598084906722
            ]
        },
        {
            "positions": [
                1.237514374726888,
                -1.560266638400623,
                -1.2578192554940744,
                0.11995403539407351,
                -0.19679514837168222,
                0.2507921605745933
            ]
        },
        {
            "positions": [
                1.2909786127787108,
                -1.539235282182727,
                -1.1391173622513278,
                0.08467127057612694,
                -0.1487575423994293,
                0.36364834030011983
            ]
        },
        {
            "positions": [
                1.3444428508305335,
                -1.5182039259648314,
                -1.0204154690085816,
                0.04938850575818049,
                -0.10071993642717636,
                0.4765045200256459
            ]
        },
        {
            "positions": [
                1.3979070888823566,
                -1.4971725697469358,
                -0.901713575765835,
                0.014105740940233868,
                -0.05268233045492343,
                0.5893606997511724
            ]
        },
        {
            "positions": [
                1.4513713269341793,
                -1.47614121352904,
                -0.7830116825230888,
                -0.021177023877712586,
                -0.004644724482670504,
                0.7022168794766985
            ]
        },
        {
            "positions": [
                1.5048355649860023,
                -1.4551098573111443,
                -0.6643097892803422,
                -0.05645978869565915,
                0.043392881489582424,
                0.8150730592022248
            ]
        },
        {
            "positions": [
                1.558299803037825,
                -1.4340785010932486,
                -0.5456078960375961,
                -0.09174255351360561,
                0.09143048746183535,
                0.9279292389277511
            ]
        },
        {
            "positions": [
                1.6117640410896479,
                -1.4130471448753528,
                -0.42690600279484947,
                -0.12702531833155217,
                0.13946809343408828,
                1.0407854186532774
            ]
        },
        {
            "positions": [
                1.6652282791414708,
                -1.3920157886574571,
                -0.3082041095521033,
                -0.16230808314949863,
                0.1875056994063411,
                1.1536415983788038
            ]
        },
        {
            "positions": [
                1.7186925171932936,
                -1.3709844324395615,
                -0.18950221630935626,
                -0.1975908479674453,
                0.23554330537859425,
                1.26649777810433
            ]
        },
        {
            "positions": [
                1.7721567552451165,
                -1.3499530762216656,
                -0.0708003230666101,
                -0.23287361278539176,
                0.2835809113508472,
                1.3793539578298564
            ]
        },
        {
            "positions": [
                1.8256209932969392,
                -1.32892172000377,
                0.047901570176136055,
                -0.2681563776033382,
                0.3316185173230999,
                1.4922101375553827
            ]
        },
        {
            "positions": [
                1.879085231348762,
                -1.3078903637858743,
                0.16660346341888221,
                -0.3034391424212848,
                0.3796561232953528,
                1.6050663172809085
            ]
        },
        {
            "positions": [
                1.932549469400585,
                -1.2868590075679784,
                0.28530535666162926,
                -0.33872190723923135,
                0.42769372926760596,
                1.7179224970064353
            ]
        },
        {
            "positions": [
                1.9860137074524078,
                -1.2658276513500828,
                0.4040072499043754,
                -0.3740046720571779,
                0.47573133523985867,
                1.8307786767319616
            ]
        },
        {
            "positions": [
                2.0394779455042307,
                -1.2447962951321871,
                0.5227091431471216,
                -0.40928743687512437,
                0.5237689412121116,
                1.9436348564574875
            ]
        },
        {
            "positions": [
                2.0929421835560533,
                -1.2237649389142913,
                0.6414110363898677,
                -0.4445702016930708,
                0.5718065471843645,
                2.0564910361830138
            ]
        },
        {
            "positions": [
                2.1464064216078764,
                -1.2027335826963956,
                0.7601129296326148,
                -0.4798529665110175,
                0.6198441531566177,
                2.1693472159085405
            ]
        },
        {
            "positions": [
                2.199870659659699,
                -1.1817022264785,
                0.878814822875361,
                -0.5151357313289641,
                0.6678817591288704,
                2.282203395634067
            ]
        },
        {
            "positions": [
                2.2533348977115217,
                -1.1606708702606041,
                0.9975167161181071,
                -0.5504184961469104,
                0.7159193651011233,
                2.3950595753595927
            ]
        },
        {
            "positions": [
                2.306799135763345,
                -1.1396395140427085,
                1.1162186093608533,
                -0.585701260964857,
                0.7639569710733762,
                2.507915755085119
            ]
        },
        {
            "positions": [
                2.360263373815168,
                -1.1186081578248128,
                1.2349205026036003,
                -0.6209840257828035,
                0.8119945770456292,
                2.6207719348106457
            ]
        },
        {
            "positions": [
                2.4137276118669906,
                -1.097576801606917,
                1.3536223958463465,
                -0.6562667906007501,
                0.8600321830178821,
                2.7336281145361716
            ]
        },
        {
            "positions": [
                2.4671918499188132,
                -1.0765454453890213,
                1.4723242890890926,
                -0.6915495554186964,
                0.908069788990135,
                2.846484294261698
            ]
        },
        {
            "positions": [
                2.520656087970636,
                -1.0555140891711257,
                1.5910261823318388,
                -0.726832320236643,
                0.956107394962388,
                2.959340473987224
            ]
        },
        {
            "positions": [
                2.574120326022459,
                -1.0344827329532298,
                1.7097280755745858,
                -0.7621150850545896,
                1.0041450009346409,
                3.072196653712751
            ]
        },
        {
            "positions": [
                2.6275845640742816,
                -1.0134513767353341,
                1.8284299688173318,
                -0.7973978498725361,
                1.0521826069068938,
                3.1850528334382764
            ]
        }
    ]
}