{
    "goal": {
        "global_pose": {
            "orientation": {
                "w": 0.7031023480610252,
                "x": -0.7110244013736278,
                "y": 0.0077485991402295624,
                "z": 0.005598929693374583
            },
            "position": {
                "x": -0.8841497679147869,
                "y": 0.44412534475326537,
                "z": 0.3711530566215515
            }
        },
        "name": "move_to_auspresseinheit_D"
    },
    "id": "RRT_move_to_auspresseinheit_D_117",
    "joint_names": [
        "shoulder_pan_joint",
        "shoulder_lift_joint",
        "elbow_joint",
        "wrist_1_joint",
        "wrist_2_joint",
        "wrist_3_joint"
    ],
    "metrics": {
        "cart_traj_len": 0.3452317682453919,
        "distance_elbow_joint": 0.6759416998507459,
        "distance_shoulder_lift_joint": 0.14195736093894595,
        "distance_shoulder_pan_joint": 0.13336622642818058,
        "distance_wrist_1_joint": 0.6468738965059768,
        "distance_wrist_2_joint": 1.4460916666423291,
        "distance_wrist_3_joint": 0.0950840049064805,
        "smoothness": 7.894919300567339e-16,
        "time": 0.011314206,
        "traj_len": 1.7718111793508526,
        "weighted_distance": 2.328615130981057
    },
    "planner": "RRT",
    "start": {
        "state": {
            "elbow_joint": -1.8275523626775212,
            "shoulder_lift_joint": -2.126789852344167,
            "shoulder_pan_joint": -0.03513704404078235,
            "wrist_1_joint": -2.347782403156801,
            "wrist_2_joint": -1.6058999987535132,
            "wrist_3_joint": -3.0880379163319196
        }
    },
    "waypoints": [
        {
            "positions": [
                -0.03513704404078235,
                -2.126789852344167,
                -1.8275523626775212,
                -2.347782403156801,
                -1.6058999987535132,
                -3.0880379163319196
            ]
        },
        {
            "positions": [
                -0.05180782234430492,
                -2.144534522461535,
                -1.743059650196178,
                -2.428641640220048,
                -1.425138540423222,
                -3.0761524157186093
            ]
        },
        {
            "positions": [
                -0.06847860064782749,
                -2.1622791925789033,
                -1.6585669377148347,
                -2.509500877283295,
                -1.244377082092931,
                -3.0642669151052995
            ]
        },
        {
            "positions": [
                -0.08514937895135007,
                -2.1800238626962716,
                -1.5740742252334914,
                -2.590360114346542,
                -1.0636156237626397,
                -3.0523814144919896
            ]
        },
        {
            "positions": [
                -0.10182015725487265,
                -2.19776853281364,
                -1.4895815127521481,
                -2.671219351409789,
                -0.8828541654323486,
                -3.0404959138786793
            ]
        },
        {
            "positions": [
                -0.11849093555839521,
                -2.215513202931008,
                -1.4050888002708048,
                -2.7520785884730365,
                -0.7020927071020575,
                -3.028610413265369
            ]
        },
        {
            "positions": [
                -0.13516171386191778,
                -2.2332578730483763,
                -1.3205960877894618,
                -2.8329378255362836,
                -0.5213312487717663,
                -3.016724912652059
            ]
        },
        {
            "positions": [
                -0.15183249216544037,
                -2.2510025431657446,
                -1.2361033753081185,
                -2.9137970625995306,
                -0.3405697904414753,
                -3.0048394120387494
            ]
        },
        {
            "positions": [
                -0.16850327046896293,
                -2.268747213283113,
                -1.1516106628267753,
                -2.9946562996627777,
                -0.15980833211118403,
                -2.992953911425439
            ]
        }
    ]
}