{
    "goal": {
        "global_pose": {
            "orientation": {
                "w": 0.7047431493862688,
                "x": -0.7094548369677653,
                "y": 0.0024358444001904,
                "z": -0.0022348060817251984
            },
            "position": {
                "x": -0.39052492380142206,
                "y": 0.3671506643295288,
                "z": 0.19426114857196808
            }
        },
        "name": "move_to_magneteinheit_D"
    },
    "id": "RRT_move_to_magneteinheit_D_81",
    "joint_names": [
        "shoulder_pan_joint",
        "shoulder_lift_joint",
        "elbow_joint",
        "wrist_1_joint",
        "wrist_2_joint",
        "wrist_3_joint"
    ],
    "metrics": {
        "cart_traj_len": 4.766329234288245,
        "distance_elbow_joint": 3.2701623385845777,
        "distance_shoulder_lift_joint": 1.6365571690421963,
        "distance_shoulder_pan_joint": 3.8654173139550503,
        "distance_wrist_1_joint": 1.5144127762998711,
        "distance_wrist_2_joint": 0.600453704037438,
        "distance_wrist_3_joint": 3.2273864759537725,
        "smoothness": 0.3450870938751835,
        "time": 0.595626065,
        "traj_len": 3.756912266459373,
        "weighted_distance": 4.762775368429396
    },
    "planner": "RRT",
    "start": {
        "state": {
            "elbow_joint": 0.749534889911806,
            "shoulder_lift_joint": -0.6476975780787326,
            "shoulder_pan_joint": -2.711696901376241,
            "wrist_1_joint": -0.07506478083263063,
            "wrist_2_joint": 0.43296659715538205,
            "wrist_3_joint": -3.14703540197715
        }
    },
    "waypoints": [
        {
            "positions": [
                -2.711696901376241,
                -0.6476975780787326,
                0.749534889911806,
                -0.07506478083263063,
                0.43296659715538205,
                -3.14703540197715
            ]
        },
        {
            "positions": [
                -2.736866302007149,
                -0.7585364818525501,
                0.7206280847700102,
                -0.01029655255232989,
                0.4217975469305298,
                -3.0832070685435036
            ]
        },
        {
            "positions": [
                -2.762035702638057,
                -0.8693753856263674,
                0.6917212796282144,
                0.05447167572797085,
                0.4106284967056775,
                -3.0193787351098567
            ]
        },
        {
            "positions": [
                -2.787205103268965,
                -0.9802142894001848,
                0.6628144744864186,
                0.11923990400827161,
                0.39945944648082526,
                -2.95555040167621
            ]
        },
        {
            "positions": [
                -2.6593922051007843,
                -1.0230342186065058,
                0.5472536589063487,
                0.13624805990665007,
                0.40353977697838306,
                -2.868200228207591
            ]
        },
        {
            "positions": [
                -2.5315793069326036,
                -1.0658541478128265,
                0.43169284332627866,
                0.15325621580502852,
                0.40762010747594085,
                -2.7808500547389716
            ]
        },
        {
            "positions": [
                -2.4037664087644233,
                -1.1086740770191474,
                0.31613202774620874,
                0.17026437170340694,
                0.41170043797349865,
                -2.693499881270352
            ]
        },
        {
            "positions": [
                -2.2759535105962425,
                -1.1514940062254682,
                0.20057121216613877,
                0.1872725276017854,
                0.41578076847105644,
                -2.6061497078017326
            ]
        },
        {
            "positions": [
                -2.1481406124280618,
                -1.194313935431789,
                0.08501039658606879,
                0.20428068350016385,
                0.41986109896861423,
                -2.5187995343331133
            ]
        },
        {
            "positions": [
                -2.0203277142598814,
                -1.23713386463811,
                -0.030550418994001127,
                0.22128883939854227,
                0.423941429466172,
                -2.431449360864494
            ]
        },
        {
            "positions": [
                -1.8925148160917005,
                -1.2799537938444308,
                -0.14611123457407116,
                0.23829699529692072,
                0.4280217599637299,
                -2.3440991873958748
            ]
        },
        {
            "positions": [
                -1.76470191792352,
                -1.3227737230507517,
                -0.2616720501541411,
                0.2553051511952992,
                0.43210209046128767,
                -2.256749013927255
            ]
        },
        {
            "positions": [
                -1.6368890197553394,
                -1.3655936522570724,
                -0.377232865734211,
                0.2723133070936776,
                0.43618242095884546,
                -2.1693988404586357
            ]
        },
        {
            "positions": [
                -1.5090761215871584,
                -1.4084135814633933,
                -0.49279368131428103,
                0.2893214629920561,
                0.44026275145640326,
                -2.0820486669900165
            ]
        },
        {
            "positions": [
                -1.381263223418978,
                -1.4512335106697143,
                -0.6083544968943511,
                0.30632961889043453,
                0.44434308195396105,
                -1.9946984935213972
            ]
        },
        {
            "positions": [
                -1.2534503252507974,
                -1.494053439876035,
                -0.7239153124744209,
                0.323337774788813,
                0.44842341245151884,
                -1.9073483200527777
            ]
        },
        {
            "positions": [
                -1.1256374270826166,
                -1.536873369082356,
                -0.8394761280544909,
                0.34034593068719143,
                0.45250374294907664,
                -1.8199981465841584
            ]
        },
        {
            "positions": [
                -0.9978245289144358,
                -1.5796932982886767,
                -0.9550369436345609,
                0.3573540865855699,
                0.45658407344663443,
                -1.7326479731155389
            ]
        },
        {
            "positions": [
                -0.8700116307462555,
                -1.6225132274949976,
                -1.0705977592146307,
                0.3743622424839483,
                0.4606644039441922,
                -1.6452977996469196
            ]
        },
        {
            "positions": [
                -0.7421987325780748,
                -1.6653331567013185,
                -1.1861585747947008,
                0.39137039838232673,
                0.46474473444175,
                -1.5579476261783
            ]
        },
        {
            "positions": [
                -0.614385834409894,
                -1.7081530859076395,
                -1.3017193903747708,
                0.4083785542807052,
                0.46882506493930787,
                -1.4705974527096808
            ]
        },
        {
            "positions": [
                -0.4865729362417137,
                -1.75097301511396,
                -1.4172802059548406,
                0.42538671017908364,
                0.4729053954368656,
                -1.3832472792410615
            ]
        },
        {
            "positions": [
                -0.3587600380735325,
                -1.793792944320281,
                -1.5328410215349106,
                0.4423948660774621,
                0.47698572593442345,
                -1.295897105772442
            ]
        },
        {
            "positions": [
                -0.23094713990535176,
                -1.8366128735266019,
                -1.6484018371149807,
                0.45940302197584054,
                0.48106605643198125,
                -1.2085469323038227
            ]
        },
        {
            "positions": [
                -0.10313424173717145,
                -1.8794328027329228,
                -1.7639626526950503,
                0.47641117787421894,
                0.48514638692953904,
                -1.1211967588352034
            ]
        },
        {
            "positions": [
                0.024678656431009305,
                -1.9222527319392435,
                -1.8795234682751207,
                0.4934193337725974,
                0.48922671742709684,
                -1.033846585366584
            ]
        },
        {
            "positions": [
                0.15249155459919006,
                -1.9650726611455644,
                -1.9950842838551908,
                0.510427489670976,
                0.49330704792465463,
                -0.9464964118979644
            ]
        },
        {
            "positions": [
                0.28030445276737037,
                -2.007892590351885,
                -2.1106450994352604,
                0.5274356455693543,
                0.4973873784222124,
                -0.8591462384293451
            ]
        },
        {
            "positions": [
                0.408117350935551,
                -2.050712519558206,
                -2.2262059150153304,
                0.5444438014677327,
                0.5014677089197702,
                -0.7717960649607257
            ]
        },
        {
            "positions": [
                0.3454443561704882,
                -2.083381315358469,
                -2.259466518008629,
                0.6222795424010725,
                0.445270733082876,
                -0.6790973849657826
            ]
        },
        {
            "positions": [
                0.2827713614054254,
                -2.116050111158732,
                -2.2927271210019278,
                0.7001152833344123,
                0.3890737572459818,
                -0.5863987049708395
            ]
        },
        {
            "positions": [
                0.2200983666403626,
                -2.1487189069589947,
                -2.3259877239952265,
                0.7779510242677521,
                0.3328767814090876,
                -0.4937000249758963
            ]
        },
        {
            "positions": [
                0.1574253718752998,
                -2.181387702759258,
                -2.3592483269885256,
                0.8557867652010919,
                0.27667980557219346,
                -0.4010013449809532
            ]
        },
        {
            "positions": [
                0.09475237711023698,
                -2.2140564985595206,
                -2.3925089299818243,
                0.9336225061344317,
                0.22048282973529926,
                -0.30830266498601
            ]
        },
        {
            "positions": [
                0.03207938234517421,
                -2.2467252943597837,
                -2.425769532975123,
                1.0114582470677713,
                0.16428585389840505,
                -0.21560398499106692
            ]
        },
        {
            "positions": [
                -0.030593612419888616,
                -2.2793940901600465,
                -2.4590301359684217,
                1.0892939880011112,
                0.10808887806151085,
                -0.12290530499612369
            ]
        },
        {
            "positions": [
                -0.08255217725401182,
                -2.2777738711730855,
                -2.438497698400305,
                1.2059786571564877,
                0.13194203141673652,
                -0.055153178671874734
            ]
        },
        {
            "positions": [
                -0.13451074208813502,
                -2.276153652186125,
                -2.4179652608321884,
                1.3226633263118641,
                0.15579518477196216,
                0.012598947652374223
            ]
        },
        {
            "positions": [
                -0.18646930692225822,
                -2.274533433199164,
                -2.397432823264072,
                1.4393479954672406,
                0.17964833812718783,
                0.0803510739766232
            ]
        }
    ]
}