{
    "goal": {
        "global_pose": {
            "orientation": {
                "w": 0.5084816262002911,
                "x": -0.4908360881923452,
                "y": 0.5182115481033761,
                "z": -0.48164630358495003
            },
            "position": {
                "x": 0.5540239810943604,
                "y": -0.46912469901144505,
                "z": 0.16403168439865112
            }
        },
        "name": "move_to_storage_B"
    },
    "id": "RRT_move_to_storage_B_67",
    "joint_names": [
        "shoulder_pan_joint",
        "shoulder_lift_joint",
        "elbow_joint",
        "wrist_1_joint",
        "wrist_2_joint",
        "wrist_3_joint"
    ],
    "metrics": {
        "cart_traj_len": 4.3690390346696475,
        "distance_elbow_joint": 3.782133317213973,
        "distance_shoulder_lift_joint": 1.1805872596766496,
        "distance_shoulder_pan_joint": 3.7710597018575998,
        "distance_wrist_1_joint": 3.020769315575383,
        "distance_wrist_2_joint": 2.7113810813981907,
        "distance_wrist_3_joint": 5.254997203768816,
        "smoothness": 0.3383933058749765,
        "time": 0.077018137,
        "traj_len": 4.4408251349823065,
        "weighted_distance": 5.996921934126027
    },
    "planner": "RRT",
    "start": {
        "state": {
            "elbow_joint": 1.664937868594044,
            "shoulder_lift_joint": -0.661644460510453,
            "shoulder_pan_joint": -0.9139846352900073,
            "wrist_1_joint": 2.146753192139373,
            "wrist_2_joint": -2.2341966793290973,
            "wrist_3_joint": 0.005466555786416001
        }
    },
    "waypoints": [
        {
            "positions": [
                -0.9139846352900073,
                -0.661644460510453,
                1.664937868594044,
                2.146753192139373,
                -2.2341966793290973,
                0.005466555786416001
            ]
        },
        {
            "positions": [
                -0.8195273757993404,
                -0.7048964981726497,
                1.5748743871787456,
                2.0978023404689603,
                -2.1784977079430616,
                0.06183149050147752
            ]
        },
        {
            "positions": [
                -0.7250701163086736,
                -0.7481485358348462,
                1.4848109057634473,
                2.0488514887985474,
                -2.1227987365570264,
                0.11819642521653904
            ]
        },
        {
            "positions": [
                -0.6306128568180067,
                -0.7914005734970428,
                1.394747424348149,
                1.9999006371281343,
                -2.067099765170991,
                0.17456135993160057
            ]
        },
        {
            "positions": [
                -0.5361555973273398,
                -0.8346526111592395,
                1.3046839429328507,
                1.9509497854577214,
                -2.011400793784955,
                0.2309262946466621
            ]
        },
        {
            "positions": [
                -0.44169833783667295,
                -0.8779046488214362,
                1.2146204615175524,
                1.9019989337873084,
                -1.9557018223989198,
                0.28729122936172363
            ]
        },
        {
            "positions": [
                -0.34724107834600604,
                -0.9211566864836327,
                1.1245569801022541,
                1.8530480821168955,
                -1.9000028510128844,
                0.3436561640767852
            ]
        },
        {
            "positions": [
                -0.2527838188553392,
                -0.9644087241458293,
                1.0344934986869558,
                1.8040972304464824,
                -1.8443038796268487,
                0.40002109879184666
            ]
        },
        {
            "positions": [
                -0.15832655936467233,
                -1.007660761808026,
                0.9444300172716575,
                1.7551463787760695,
                -1.7886049082408133,
                0.4563860335069082
            ]
        },
        {
            "positions": [
                -0.06386929987400547,
                -1.0509127994702225,
                0.8543665358563591,
                1.7061955271056566,
                -1.732905936854778,
                0.5127509682219696
            ]
        },
        {
            "positions": [
                0.030587959616661387,
                -1.094164837132419,
                0.7643030544410608,
                1.6572446754352437,
                -1.6772069654687423,
                0.5691159029370312
            ]
        },
        {
            "positions": [
                0.12504521910732846,
                -1.1374168747946158,
                0.6742395730257624,
                1.6082938237648308,
                -1.6215079940827068,
                0.6254808376520927
            ]
        },
        {
            "positions": [
                0.2195024785979952,
                -1.1806689124568126,
                0.5841760916104644,
                1.5593429720944179,
                -1.5658090226966714,
                0.6818457723671543
            ]
        },
        {
            "positions": [
                0.3139597380886622,
                -1.2239209501190091,
                0.49411261019516584,
                1.5103921204240047,
                -1.5101100513106358,
                0.7382107070822158
            ]
        },
        {
            "positions": [
                0.4084169975793289,
                -1.2671729877812057,
                0.40404912877986776,
                1.4614412687535918,
                -1.4544110799246004,
                0.7945756417972772
            ]
        },
        {
            "positions": [
                0.5028742570699959,
                -1.3104250254434024,
                0.31398564736456924,
                1.412490417083179,
                -1.398712108538565,
                0.8509405765123389
            ]
        },
        {
            "positions": [
                0.5973315165606626,
                -1.3536770631055988,
                0.22392216594927117,
                1.363539565412766,
                -1.3430131371525293,
                0.9073055112274003
            ]
        },
        {
            "positions": [
                0.6917887760513296,
                -1.3969291007677955,
                0.13385868453397265,
                1.3145887137423529,
                -1.2873141657664937,
                0.9636704459424619
            ]
        },
        {
            "positions": [
                0.7862460355419963,
                -1.4401811384299923,
                0.04379520311867435,
                1.26563786207194,
                -1.2316151943804585,
                1.0200353806575233
            ]
        },
        {
            "positions": [
                0.8807032950326634,
                -1.4834331760921888,
                -0.04626827829662383,
                1.216687010401527,
                -1.1759162229944229,
                1.076400315372585
            ]
        },
        {
            "positions": [
                0.8189416771721969,
                -1.4722207215892227,
                0.01844819577597949,
                1.151352537469104,
                -1.124256828461188,
                0.9456483327418772
            ]
        },
        {
            "positions": [
                0.7571800593117304,
                -1.4610082670862568,
                0.08316466984858281,
                1.0860180645366808,
                -1.0725974339279531,
                0.8148963501111693
            ]
        },
        {
            "positions": [
                0.6954184414512639,
                -1.4497958125832906,
                0.14788114392118612,
                1.0206835916042578,
                -1.0209380393947183,
                0.6841443674804615
            ]
        },
        {
            "positions": [
                0.6336568235907972,
                -1.4385833580803247,
                0.21259761799378946,
                0.9553491186718348,
                -0.9692786448614833,
                0.5533923848497537
            ]
        },
        {
            "positions": [
                0.5718952057303307,
                -1.4273709035773585,
                0.2773140920663928,
                0.8900146457394117,
                -0.9176192503282484,
                0.422640402219046
            ]
        },
        {
            "positions": [
                0.5101335878698642,
                -1.4161584490743926,
                0.3420305661389961,
                0.8246801728069886,
                -0.8659598557950134,
                0.2918884195883381
            ]
        },
        {
            "positions": [
                0.4483719700093976,
                -1.4049459945714264,
                0.4067470402115994,
                0.7593456998745656,
                -0.8143004612617786,
                0.16113643695763025
            ]
        },
        {
            "positions": [
                0.3866103521489311,
                -1.3937335400684603,
                0.47146351428420274,
                0.6940112269421425,
                -0.7626410667285437,
                0.030384454326922494
            ]
        },
        {
            "positions": [
                0.3248487342884645,
                -1.3825210855654944,
                0.536179988356806,
                0.6286767540097193,
                -0.7109816721953088,
                -0.10036752830378526
            ]
        },
        {
            "positions": [
                0.263087116427998,
                -1.3713086310625282,
                0.6008964624294094,
                0.5633422810772963,
                -0.659322277662074,
                -0.231119510934493
            ]
        },
        {
            "positions": [
                0.20132549856753146,
                -1.3600961765595623,
                0.6656129365020127,
                0.4980078081448732,
                -0.607662883128839,
                -0.361871493565201
            ]
        },
        {
            "positions": [
                0.13956388070706494,
                -1.3488837220565961,
                0.730329410574616,
                0.4326733352124501,
                -0.5560034885956041,
                -0.49262347619590874
            ]
        },
        {
            "positions": [
                0.07780226284659841,
                -1.3376712675536302,
                0.7950458846472194,
                0.3673388622800271,
                -0.5043440940623692,
                -0.6233754588266165
            ]
        },
        {
            "positions": [
                0.01604064498613178,
                -1.326458813050664,
                0.8597623587198227,
                0.302004389347604,
                -0.45268469952913426,
                -0.7541274414573245
            ]
        },
        {
            "positions": [
                -0.04572097287433474,
                -1.315246358547698,
                0.924478832792426,
                0.23666991641518098,
                -0.4010253049958994,
                -0.8848794240880322
            ]
        },
        {
            "positions": [
                -0.10748259073480126,
                -1.304033904044732,
                0.9891953068650293,
                0.17133544348275787,
                -0.3493659104626645,
                -1.01563140671874
            ]
        },
        {
            "positions": [
                -0.1692442085952679,
                -1.292821449541766,
                1.0539117809376326,
                0.10600097055033486,
                -0.29770651592942965,
                -1.146383389349448
            ]
        },
        {
            "positions": [
                -0.23100582645573442,
                -1.2816089950387999,
                1.1186282550102358,
                0.040666497617911634,
                -0.24604712139619478,
                -1.2771353719801555
            ]
        },
        {
            "positions": [
                -0.29276744431620094,
                -1.2703965405358337,
                1.1833447290828394,
                -0.02466797531451137,
                -0.1943877268629598,
                -1.4078873546108635
            ]
        },
        {
            "positions": [
                -0.35452906217666746,
                -1.2591840860328678,
                1.2480612031554426,
                -0.09000244824693437,
                -0.14272833232972504,
                -1.538639337241571
            ]
        },
        {
            "positions": [
                -0.416290680037134,
                -1.2479716315299016,
                1.3127776772280457,
                -0.1553369211793576,
                -0.09106893779648995,
                -1.669391319872279
            ]
        },
        {
            "positions": [
                -0.4780522978976005,
                -1.2367591770269357,
                1.3774941513006493,
                -0.2206713941117806,
                -0.039409543263255076,
                -1.800143302502987
            ]
        },
        {
            "positions": [
                -0.539813915758067,
                -1.2255467225239696,
                1.4422106253732525,
                -0.2860058670442036,
                0.012249851269979795,
                -1.9308952851336945
            ]
        },
        {
            "positions": [
                -0.6015755336185336,
                -1.2143342680210036,
                1.5069270994458557,
                -0.35134033997662684,
                0.06390924580321466,
                -2.0616472677644024
            ]
        },
        {
            "positions": [
                -0.6633371514790001,
                -1.2031218135180375,
                1.5716435735184593,
                -0.41667481290904984,
                0.11556864033644954,
                -2.1923992503951104
            ]
        },
        {
            "positions": [
                -0.7250987693394666,
                -1.1919093590150713,
                1.6363600475910625,
                -0.48200928584147285,
                0.1672280348696844,
                -2.323151233025818
            ]
        },
        {
            "positions": [
                -0.7868603871999333,
                -1.1806969045121054,
                1.701076521663666,
                -0.5473437587738958,
                0.21888742940291928,
                -2.453903215656526
            ]
        },
        {
            "positions": [
                -0.8486220050603999,
                -1.1694844500091393,
                1.7657929957362692,
                -0.6126782317063191,
                0.27054682393615437,
                -2.584655198287234
            ]
        },
        {
            "positions": [
                -0.9103836229208664,
                -1.1582719955061733,
                1.8305094698088724,
                -0.6780127046387421,
                0.32220621846938924,
                -2.7154071809179414
            ]
        },
        {
            "positions": [
                -0.9721452407813329,
                -1.1470595410032072,
                1.895225943881476,
                -0.7433471775711651,
                0.3738656130026241,
                -2.8461591635486494
            ]
        },
        {
            "positions": [
                -1.0339068586417994,
                -1.1358470865002412,
                1.9599424179540792,
                -0.8086816505035883,
                0.425525007535859,
                -2.9769111461793574
            ]
        },
        {
            "positions": [
                -1.095668476502266,
                -1.124634631997275,
                2.0246588920266824,
                -0.8740161234360114,
                0.4771844020690939,
                -3.1076631288100645
            ]
        }
    ]
}