{
    "goal": {
        "global_pose": {
            "orientation": {
                "w": 0.005598929693374612,
                "x": 0.007748599140229565,
                "y": 0.7110244013736278,
                "z": -0.7031023480610252
            },
            "position": {
                "x": 0.1141497679147869,
                "y": -0.7141253447532654,
                "z": 0.3711530566215515
            }
        },
        "name": "move_to_auspresseinheit_B"
    },
    "id": "RRT_move_to_auspresseinheit_B_38",
    "joint_names": [
        "shoulder_pan_joint",
        "shoulder_lift_joint",
        "elbow_joint",
        "wrist_1_joint",
        "wrist_2_joint",
        "wrist_3_joint"
    ],
    "metrics": {
        "cart_traj_len": 0.5648580652326665,
        "distance_elbow_joint": 0.06489569652304361,
        "distance_shoulder_lift_joint": 0.2949958520723215,
        "distance_shoulder_pan_joint": 0.5791819257232138,
        "distance_wrist_1_joint": 0.33862394024959197,
        "distance_wrist_2_joint": 0.984157723143875,
        "distance_wrist_3_joint": 0.000605119493378492,
        "smoothness": 2.5376526478085547e-16,
        "time": 0.013752454,
        "traj_len": 1.504147684639186,
        "weighted_distance": 1.8937930614472238
    },
    "planner": "RRT",
    "start": {
        "state": {
            "elbow_joint": 2.0193083361928714,
            "shoulder_lift_joint": -1.1220246554650708,
            "shoulder_pan_joint": -1.0952077554168747,
            "wrist_1_joint": -0.8559753972642168,
            "wrist_2_joint": 0.4759566250798843,
            "wrist_3_joint": -3.1240929996934557
        }
    },
    "waypoints": [
        {
            "positions": [
                -1.0952077554168747,
                -1.1220246554650708,
                2.0193083361928714,
                -0.8559753972642168,
                0.4759566250798843,
                -3.1240929996934557
            ]
        },
        {
            "positions": [
                -1.1917380763707437,
                -1.1711906308104578,
                2.0084923867723643,
                -0.7995380738892848,
                0.6399829122705301,
                -3.1241938529423523
            ]
        },
        {
            "positions": [
                -1.2882683973246125,
                -1.2203566061558446,
                1.997676437351857,
                -0.7431007505143528,
                0.804009199461176,
                -3.1242947061912485
            ]
        },
        {
            "positions": [
                -1.3847987182784816,
                -1.2695225815012314,
                1.9868604879313496,
                -0.6866634271394207,
                0.9680354866518217,
                -3.1243955594401447
            ]
        },
        {
            "positions": [
                -1.4813290392323504,
                -1.3186885568466185,
                1.9760445385108423,
                -0.6302261037644888,
                1.1320617738424676,
                -3.1244964126890413
            ]
        },
        {
            "positions": [
                -1.5778593601862196,
                -1.3678545321920055,
                1.9652285890903352,
                -0.5737887803895567,
                1.2960880610331134,
                -3.124597265937938
            ]
        },
        {
            "positions": [
                -1.6743896811400885,
                -1.4170205075373923,
                1.9544126396698278,
                -0.5173514570146248,
                1.4601143482237593,
                -3.124698119186834
            ]
        }
    ]
}