{
    "goal": {
        "global_pose": {
            "orientation": {
                "w": 0.5084816262002911,
                "x": -0.4908360881923452,
                "y": 0.5182115481033761,
                "z": -0.48164630358495003
            },
            "position": {
                "x": 0.5540239810943604,
                "y": -0.46912469901144505,
                "z": 0.16403168439865112
            }
        },
        "name": "move_to_storage_B"
    },
    "id": "RRT_move_to_storage_B_56",
    "joint_names": [
        "shoulder_pan_joint",
        "shoulder_lift_joint",
        "elbow_joint",
        "wrist_1_joint",
        "wrist_2_joint",
        "wrist_3_joint"
    ],
    "metrics": {
        "cart_traj_len": 2.335637620448165,
        "distance_elbow_joint": 1.9953115121008858,
        "distance_shoulder_lift_joint": 0.9951298697399951,
        "distance_shoulder_pan_joint": 1.7851923675015542,
        "distance_wrist_1_joint": 2.9845898405637787,
        "distance_wrist_2_joint": 2.7096074308291196,
        "distance_wrist_3_joint": 3.3379693317533694,
        "smoothness": 0.3220755289172082,
        "time": 0.072346648,
        "traj_len": 3.7158848680346246,
        "weighted_distance": 5.116437851414628
    },
    "planner": "RRT",
    "start": {
        "state": {
            "elbow_joint": 1.664937868594044,
            "shoulder_lift_joint": -0.661644460510453,
            "shoulder_pan_joint": -0.9139846352900073,
            "wrist_1_joint": 2.146753192139373,
            "wrist_2_joint": -2.2341966793290973,
            "wrist_3_joint": 0.005466555786416001
        }
    },
    "waypoints": [
        {
            "positions": [
                -0.9139846352900073,
                -0.661644460510453,
                1.664937868594044,
                2.146753192139373,
                -2.2341966793290973,
                0.005466555786416001
            ]
        },
        {
            "positions": [
                -0.8265945828565753,
                -0.7201448757147954,
                1.6515958327399667,
                2.048719489066776,
                -2.159002953591417,
                -0.019417743433929824
            ]
        },
        {
            "positions": [
                -0.7392045304231432,
                -0.7786452909191377,
                1.6382537968858895,
                1.950685785994179,
                -2.0838092278537363,
                -0.04430204265427565
            ]
        },
        {
            "positions": [
                -0.6518144779897111,
                -0.83714570612348,
                1.6249117610318122,
                1.852652082921582,
                -2.008615502116056,
                -0.06918634187462147
            ]
        },
        {
            "positions": [
                -0.5644244255562791,
                -0.8956461213278224,
                1.611569725177735,
                1.754618379848985,
                -1.9334217763783759,
                -0.0940706410949673
            ]
        },
        {
            "positions": [
                -0.5191465311073812,
                -0.944908211926103,
                1.5346110210627066,
                1.6422613935542507,
                -1.8765774356107805,
                -0.06346693477684397
            ]
        },
        {
            "positions": [
                -0.47386863665848317,
                -0.9941703025243835,
                1.4576523169476783,
                1.5299044072595167,
                -1.8197330948431854,
                -0.03286322845872064
            ]
        },
        {
            "positions": [
                -0.42859074220958515,
                -1.0434323931226641,
                1.38069361283265,
                1.4175474209647825,
                -1.76288875407559,
                -0.0022595221405973254
            ]
        },
        {
            "positions": [
                -0.3833128477606872,
                -1.0926944837209447,
                1.3037349087176215,
                1.3051904346700485,
                -1.7060444133079946,
                0.028344184177526016
            ]
        },
        {
            "positions": [
                -0.3380349533117892,
                -1.1419565743192253,
                1.2267762046025932,
                1.1928334483753142,
                -1.6492000725403995,
                0.05894789049564933
            ]
        },
        {
            "positions": [
                -0.2927570588628912,
                -1.1912186649175058,
                1.1498175004875648,
                1.08047646208058,
                -1.592355731772804,
                0.08955159681377264
            ]
        },
        {
            "positions": [
                -0.2474791644139932,
                -1.2404807555157864,
                1.0728587963725364,
                0.968119475785846,
                -1.5355113910052087,
                0.12015530313189596
            ]
        },
        {
            "positions": [
                -0.2022012699650952,
                -1.289742846114067,
                0.9959000922575081,
                0.8557624894911118,
                -1.4786670502376134,
                0.15075900945001933
            ]
        },
        {
            "positions": [
                -0.15692337551619717,
                -1.3390049367123475,
                0.9189413881424797,
                0.7434055031963775,
                -1.421822709470018,
                0.18136271576814264
            ]
        },
        {
            "positions": [
                -0.11164548106729918,
                -1.3882670273106281,
                0.8419826840274514,
                0.6310485169016434,
                -1.3649783687024228,
                0.21196642208626598
            ]
        },
        {
            "positions": [
                -0.1563206271254285,
                -1.3760621499042727,
                0.8952716080062829,
                0.564281009386823,
                -1.2813243177841298,
                0.34525710716311836
            ]
        },
        {
            "positions": [
                -0.20099577318355782,
                -1.3638572724979172,
                0.9485605319851144,
                0.4975135018720026,
                -1.1976702668658368,
                0.47854779223997074
            ]
        },
        {
            "positions": [
                -0.2456709192416871,
                -1.3516523950915618,
                1.001849455963946,
                0.43074599435718225,
                -1.1140162159475437,
                0.6118384773168231
            ]
        },
        {
            "positions": [
                -0.29034606529981644,
                -1.3394475176852063,
                1.0551383799427774,
                0.36397848684236184,
                -1.030362165029251,
                0.7451291623936755
            ]
        },
        {
            "positions": [
                -0.3350212113579457,
                -1.3272426402788509,
                1.1084273039216088,
                0.2972109793275414,
                -0.9467081141109579,
                0.8784198474705278
            ]
        },
        {
            "positions": [
                -0.379696357416075,
                -1.3150377628724954,
                1.1617162279004405,
                0.23044347181272107,
                -0.8630540631926649,
                1.0117105325473803
            ]
        },
        {
            "positions": [
                -0.4243715034742044,
                -1.30283288546614,
                1.215005151879272,
                0.1636759642979006,
                -0.7794000122743718,
                1.1450012176242328
            ]
        },
        {
            "positions": [
                -0.46904664953233366,
                -1.2906280080597845,
                1.2682940758581034,
                0.09690845678308024,
                -0.6957459613560788,
                1.278291902701085
            ]
        },
        {
            "positions": [
                -0.513721795590463,
                -1.278423130653429,
                1.3215829998369348,
                0.03014094926825972,
                -0.6120919104377858,
                1.4115825877779375
            ]
        },
        {
            "positions": [
                -0.5583969416485923,
                -1.2662182532470736,
                1.3748719238157663,
                -0.03662655824656058,
                -0.5284378595194928,
                1.5448732728547898
            ]
        },
        {
            "positions": [
                -0.6030720877067216,
                -1.2540133758407181,
                1.428160847794598,
                -0.103394065761381,
                -0.4447838086011998,
                1.6781639579316423
            ]
        },
        {
            "positions": [
                -0.6477472337648509,
                -1.2418084984343627,
                1.4814497717734294,
                -0.1701615732762013,
                -0.3611297576829069,
                1.8114546430084946
            ]
        },
        {
            "positions": [
                -0.6924223798229803,
                -1.2296036210280072,
                1.534738695752261,
                -0.23692908079102182,
                -0.27747570676461386,
                1.944745328085347
            ]
        },
        {
            "positions": [
                -0.7370975258811095,
                -1.2173987436216518,
                1.5880276197310925,
                -0.30369658830584223,
                -0.19382165584632083,
                2.0780360131621993
            ]
        },
        {
            "positions": [
                -0.7817726719392388,
                -1.2051938662152963,
                1.641316543709924,
                -0.37046409582066253,
                -0.1101676049280278,
                2.2113266982390516
            ]
        },
        {
            "positions": [
                -0.8264478179973682,
                -1.1929889888089409,
                1.6946054676887554,
                -0.43723160333548294,
                -0.026513554009734763,
                2.344617383315904
            ]
        },
        {
            "positions": [
                -0.8711229640554975,
                -1.1807841114025854,
                1.7478943916675869,
                -0.5039991108503034,
                0.05714049690855827,
                2.4779080683927566
            ]
        },
        {
            "positions": [
                -0.9157981101136269,
                -1.16857923399623,
                1.8011833156464185,
                -0.570766618365124,
                0.1407945478268513,
                2.611198753469609
            ]
        },
        {
            "positions": [
                -0.9604732561717562,
                -1.1563743565898745,
                1.85447223962525,
                -0.6375341258799442,
                0.2244485987451441,
                2.744489438546461
            ]
        },
        {
            "positions": [
                -1.0051484022298853,
                -1.144169479183519,
                1.9077611636040814,
                -0.7043016333947646,
                0.30810264966343714,
                2.8777801236233134
            ]
        },
        {
            "positions": [
                -1.0498235482880147,
                -1.1319646017771636,
                1.961050087582913,
                -0.771069140909585,
                0.3917567005817302,
                3.011070808700166
            ]
        },
        {
            "positions": [
                -1.094498694346144,
                -1.1197597243708082,
                2.0143390115617446,
                -0.8378366484244054,
                0.47541075150002327,
                3.1443614937770183
            ]
        }
    ]
}