{
    "goal": {
        "global_pose": {
            "orientation": {
                "w": 0.5084816262002911,
                "x": -0.4908360881923452,
                "y": 0.5182115481033761,
                "z": -0.48164630358495003
            },
            "position": {
                "x": 0.5540239810943604,
                "y": -0.46912469901144505,
                "z": 0.16403168439865112
            }
        },
        "name": "move_to_storage_B"
    },
    "id": "RRT_move_to_storage_B_60",
    "joint_names": [
        "shoulder_pan_joint",
        "shoulder_lift_joint",
        "elbow_joint",
        "wrist_1_joint",
        "wrist_2_joint",
        "wrist_3_joint"
    ],
    "metrics": {
        "cart_traj_len": 2.100297589620096,
        "distance_elbow_joint": 1.14667933338322,
        "distance_shoulder_lift_joint": 0.8006776962852651,
        "distance_shoulder_pan_joint": 2.0906981090620227,
        "distance_wrist_1_joint": 2.9779552120297046,
        "distance_wrist_2_joint": 2.7185248319815662,
        "distance_wrist_3_joint": 3.1505297209461114,
        "smoothness": 0.2500434902658438,
        "time": 0.119390269,
        "traj_len": 3.5895772597463176,
        "weighted_distance": 4.988246624776222
    },
    "planner": "RRT",
    "start": {
        "state": {
            "elbow_joint": 1.664937868594044,
            "shoulder_lift_joint": -0.661644460510453,
            "shoulder_pan_joint": -0.9139846352900073,
            "wrist_1_joint": 2.146753192139373,
            "wrist_2_joint": -2.2341966793290973,
            "wrist_3_joint": 0.005466555786416001
        }
    },
    "waypoints": [
        {
            "positions": [
                -0.9139846352900073,
                -0.661644460510453,
                1.664937868594044,
                2.146753192139373,
                -2.2341966793290973,
                0.005466555786416001
            ]
        },
        {
            "positions": [
                -0.8503308409530687,
                -0.7036516817862343,
                1.6383523069756383,
                2.035809937501888,
                -2.1585220841743156,
                -0.06375549144392956
            ]
        },
        {
            "positions": [
                -0.78667704661613,
                -0.7456589030620155,
                1.6117667453572324,
                1.9248666828644025,
                -2.082847489019534,
                -0.13297753867427511
            ]
        },
        {
            "positions": [
                -0.7230232522791913,
                -0.7876661243377968,
                1.5851811837388268,
                1.8139234282269174,
                -2.007172893864752,
                -0.2021995859046207
            ]
        },
        {
            "positions": [
                -0.6593694579422527,
                -0.8296733456135781,
                1.5585956221204211,
                1.702980173589432,
                -1.9314982987099703,
                -0.2714216331349662
            ]
        },
        {
            "positions": [
                -0.595715663605314,
                -0.8716805668893592,
                1.5320100605020153,
                1.5920369189519468,
                -1.8558237035551886,
                -0.34064368036531173
            ]
        },
        {
            "positions": [
                -0.5320618692683754,
                -0.9136877881651406,
                1.5054244988836096,
                1.4810936643144614,
                -1.7801491084004069,
                -0.40986572759565737
            ]
        },
        {
            "positions": [
                -0.46840807493143677,
                -0.9556950094409218,
                1.478838937265204,
                1.370150409676976,
                -1.704474513245625,
                -0.4790877748260029
            ]
        },
        {
            "positions": [
                -0.40475428059449814,
                -0.9977022307167032,
                1.4522533756467981,
                1.259207155039491,
                -1.6287999180908432,
                -0.5483098220563485
            ]
        },
        {
            "positions": [
                -0.3411004862575595,
                -1.0397094519924843,
                1.4256678140283925,
                1.1482639004020057,
                -1.5531253229360615,
                -0.617531869286694
            ]
        },
        {
            "positions": [
                -0.2774466919206209,
                -1.0817166732682657,
                1.3990822524099868,
                1.0373206457645203,
                -1.4774507277812798,
                -0.6867539165170395
            ]
        },
        {
            "positions": [
                -0.21379289758368225,
                -1.1237238945440469,
                1.3724966907915812,
                0.9263773911270352,
                -1.4017761326264981,
                -0.7559759637473851
            ]
        },
        {
            "positions": [
                -0.1501391032467435,
                -1.165731115819828,
                1.3459111291731753,
                0.8154341364895497,
                -1.3261015374717164,
                -0.8251980109777308
            ]
        },
        {
            "positions": [
                -0.08648530890980488,
                -1.2077383370956094,
                1.3193255675547695,
                0.7044908818520643,
                -1.2504269423169345,
                -0.8944200582080764
            ]
        },
        {
            "positions": [
                -0.02283151457286625,
                -1.2497455583713908,
                1.2927400059363638,
                0.5935476272145792,
                -1.1747523471621528,
                -0.9636421054384219
            ]
        },
        {
            "positions": [
                0.040822279764072406,
                -1.291752779647172,
                1.2661544443179582,
                0.48260437257709393,
                -1.0990777520073711,
                -1.0328641526687674
            ]
        },
        {
            "positions": [
                -0.022282786569702145,
                -1.2822767031389193,
                1.3077042170461324,
                0.4096151285511259,
                -1.0111107573040468,
                -1.1502085422515966
            ]
        },
        {
            "positions": [
                -0.0853878529034767,
                -1.2728006266306668,
                1.3492539897743066,
                0.33662588452515785,
                -0.9231437626007223,
                -1.267552931834426
            ]
        },
        {
            "positions": [
                -0.14849291923725125,
                -1.2633245501224142,
                1.3908037625024805,
                0.26363664049918983,
                -0.8351767678973978,
                -1.3848973214172553
            ]
        },
        {
            "positions": [
                -0.2115979855710258,
                -1.2538484736141617,
                1.4323535352306547,
                0.19064739647322182,
                -0.7472097731940734,
                -1.5022417110000847
            ]
        },
        {
            "positions": [
                -0.2747030519048004,
                -1.244372397105909,
                1.4739033079588288,
                0.11765815244725375,
                -0.6592427784907489,
                -1.619586100582914
            ]
        },
        {
            "positions": [
                -0.33780811823857493,
                -1.2348963205976566,
                1.515453080687003,
                0.044668908421285736,
                -0.5712757837874245,
                -1.7369304901657432
            ]
        },
        {
            "positions": [
                -0.4009131845723495,
                -1.225420244089404,
                1.557002853415177,
                -0.028320335604682334,
                -0.4833087890841,
                -1.8542748797485726
            ]
        },
        {
            "positions": [
                -0.46401825090612403,
                -1.2159441675811515,
                1.5985526261433511,
                -0.10130957963065029,
                -0.39534179438077566,
                -1.971619269331402
            ]
        },
        {
            "positions": [
                -0.5271233172398986,
                -1.2064680910728989,
                1.6401023988715253,
                -0.17429882365661836,
                -0.3073747996774512,
                -2.0889636589142313
            ]
        },
        {
            "positions": [
                -0.5902283835736731,
                -1.1969920145646462,
                1.6816521715996995,
                -0.24728806768258643,
                -0.2194078049741267,
                -2.2063080484970605
            ]
        },
        {
            "positions": [
                -0.6533334499074478,
                -1.1875159380563938,
                1.7232019443278737,
                -0.3202773117085545,
                -0.13144081027080223,
                -2.3236524380798897
            ]
        },
        {
            "positions": [
                -0.7164385162412222,
                -1.178039861548141,
                1.7647517170560476,
                -0.39326655573452246,
                -0.04347381556747787,
                -2.440996827662719
            ]
        },
        {
            "positions": [
                -0.7795435825749968,
                -1.1685637850398887,
                1.8063014897842218,
                -0.46625579976049053,
                0.044493179135846495,
                -2.5583412172455486
            ]
        },
        {
            "positions": [
                -0.8426486489087713,
                -1.159087708531636,
                1.847851262512396,
                -0.5392450437864587,
                0.13246017383917108,
                -2.675685606828378
            ]
        },
        {
            "positions": [
                -0.9057537152425459,
                -1.1496116320233836,
                1.8894010352405701,
                -0.6122342878124267,
                0.22042716854249544,
                -2.7930299964112075
            ]
        },
        {
            "positions": [
                -0.9688587815763204,
                -1.140135555515131,
                1.930950807968744,
                -0.6852235318383946,
                0.3083941632458198,
                -2.9103743859940367
            ]
        },
        {
            "positions": [
                -1.0319638479100948,
                -1.1306594790068785,
                1.9725005806969182,
                -0.7582127758643626,
                0.39636115794914417,
                -3.027718775576866
            ]
        },
        {
            "positions": [
                -1.0950689142438694,
                -1.1211834024986258,
                2.0140503534250924,
                -0.8312020198903306,
                0.4843281526524688,
                -3.145063165159695
            ]
        }
    ]
}