{
    "goal": {
        "global_pose": {
            "orientation": {
                "w": -0.00223480608172531,
                "x": 0.0024358444001904467,
                "y": 0.7094548369677653,
                "z": -0.704743149386269
            },
            "position": {
                "x": 0.6205249238014221,
                "y": -0.6371506643295288,
                "z": 0.19426114857196808
            }
        },
        "name": "move_to_magneteinheit_B"
    },
    "id": "RRT_move_to_magneteinheit_B_105",
    "joint_names": [
        "shoulder_pan_joint",
        "shoulder_lift_joint",
        "elbow_joint",
        "wrist_1_joint",
        "wrist_2_joint",
        "wrist_3_joint"
    ],
    "metrics": {
        "cart_traj_len": 1.478276232779475,
        "distance_elbow_joint": 0.9585018381957311,
        "distance_shoulder_lift_joint": 0.7574436286982045,
        "distance_shoulder_pan_joint": 1.621014684061103,
        "distance_wrist_1_joint": 0.6960188977594153,
        "distance_wrist_2_joint": 1.5542025878034234,
        "distance_wrist_3_joint": 0.030665571839345648,
        "smoothness": 0.32787534129491613,
        "time": 0.37749839500000004,
        "traj_len": 2.370199824562736,
        "weighted_distance": 2.815919004090628
    },
    "planner": "RRT",
    "start": {
        "state": {
            "elbow_joint": 2.6216224122426386,
            "shoulder_lift_joint": -1.4174107377796124,
            "shoulder_pan_joint": 0.7066234856936794,
            "wrist_1_joint": 1.9546482284002225,
            "wrist_2_joint": -0.7096286983471962,
            "wrist_3_joint": 0.005740856962016249
        }
    },
    "waypoints": [
        {
            "positions": [
                0.7066234856936794,
                -1.4174107377796124,
                2.6216224122426386,
                1.9546482284002225,
                -0.7096286983471962,
                0.005740856962016249
            ]
        },
        {
            "positions": [
                0.6619031909884788,
                -1.4153597606074784,
                2.611546352666609,
                1.9027818056956989,
                -0.689716644908828,
                0.0008936942861560377
            ]
        },
        {
            "positions": [
                0.5176627028605489,
                -1.4029174641268922,
                2.5563688469402854,
                1.801008605405673,
                -0.6982582440764927,
                0.006547537388036827
            ]
        },
        {
            "positions": [
                0.37342221473261894,
                -1.390475167646306,
                2.501191341213962,
                1.699235405115647,
                -0.7067998432441575,
                0.012201380489917615
            ]
        },
        {
            "positions": [
                0.2743596444941541,
                -1.3342822400643908,
                2.4367243591241885,
                1.73312818007525,
                -0.8235080998618287,
                0.011085171031477319
            ]
        },
        {
            "positions": [
                0.17529707425568933,
                -1.2780893124824755,
                2.372257377034415,
                1.7670209550348532,
                -0.9402163564794999,
                0.00996896157303702
            ]
        },
        {
            "positions": [
                0.07623450401722448,
                -1.2218963849005604,
                2.3077903949446417,
                1.8009137299944562,
                -1.0569246130971712,
                0.008852752114596723
            ]
        },
        {
            "positions": [
                -0.022828066221240284,
                -1.165703457318645,
                2.2433234128548682,
                1.8348065049540594,
                -1.1736328697148424,
                0.007736542656156427
            ]
        },
        {
            "positions": [
                -0.1218906364597051,
                -1.1095105297367298,
                2.178856430765095,
                1.8686992799136624,
                -1.2903411263325135,
                0.00662033319771613
            ]
        },
        {
            "positions": [
                -0.22095320669816998,
                -1.0533176021548145,
                2.1143894486753214,
                1.9025920548732655,
                -1.4070493829501847,
                0.005504123739275833
            ]
        },
        {
            "positions": [
                -0.32001577693663463,
                -0.9971246745728994,
                2.049922466585548,
                1.9364848298328685,
                -1.5237576395678558,
                0.004387914280835537
            ]
        },
        {
            "positions": [
                -0.4190783471750995,
                -0.9409317469909841,
                1.9854554844957746,
                1.9703776047924717,
                -1.6404658961855272,
                0.003271704822395239
            ]
        },
        {
            "positions": [
                -0.5181409174135643,
                -0.8847388194090688,
                1.9209885024060012,
                2.0042703797520747,
                -1.7571741528031986,
                0.002155495363954943
            ]
        },
        {
            "positions": [
                -0.6172034876520291,
                -0.8285458918271535,
                1.8565215203162277,
                2.0381631547116776,
                -1.8738824094208697,
                0.001039285905514645
            ]
        },
        {
            "positions": [
                -0.716266057890494,
                -0.7723529642452384,
                1.7920545382264543,
                2.072055929671281,
                -1.9905906660385408,
                -7.692355292565102e-05
            ]
        },
        {
            "positions": [
                -0.8153286281289589,
                -0.7161600366633231,
                1.727587556136681,
                2.105948704630884,
                -2.107298922656212,
                -0.0011931330113659488
            ]
        },
        {
            "positions": [
                -0.9143911983674237,
                -0.6599671090814079,
                1.6631205740469075,
                2.139841479590487,
                -2.224007179273883,
                -0.002309342469806245
            ]
        }
    ]
}