{
    "goal": {
        "global_pose": {
            "orientation": {
                "w": -0.4816463035849501,
                "x": 0.5182115481033762,
                "y": 0.4908360881923453,
                "z": -0.5084816262002911
            },
            "position": {
                "x": -0.8240239810943604,
                "y": -0.300875300988555,
                "z": 0.16403168439865112
            }
        },
        "name": "move_to_storage_C"
    },
    "id": "RRT_move_to_storage_C_137",
    "joint_names": [
        "shoulder_pan_joint",
        "shoulder_lift_joint",
        "elbow_joint",
        "wrist_1_joint",
        "wrist_2_joint",
        "wrist_3_joint"
    ],
    "metrics": {
        "cart_traj_len": 0.5766780403533572,
        "distance_elbow_joint": 0.25783123702682587,
        "distance_shoulder_lift_joint": 0.1890664990144283,
        "distance_shoulder_pan_joint": 0.4958418330130612,
        "distance_wrist_1_joint": 0.08046075830902633,
        "distance_wrist_2_joint": 1.060955332786079,
        "distance_wrist_3_joint": 0.06385745832902812,
        "smoothness": 0.0,
        "time": 0.011018815,
        "traj_len": 1.4656101522841771,
        "weighted_distance": 1.8485518997938928
    },
    "planner": "RRT",
    "start": {
        "state": {
            "elbow_joint": 2.010868314990456,
            "shoulder_lift_joint": -1.1634956873337592,
            "shoulder_pan_joint": -2.4736205022346125,
            "wrist_1_joint": -0.8367026794202681,
            "wrist_2_joint": 0.6746043897044499,
            "wrist_3_joint": -3.1496632123970403
        }
    },
    "waypoints": [
        {
            "positions": [
                -2.4736205022346125,
                -1.1634956873337592,
                2.010868314990456,
                -0.8367026794202681,
                0.6746043897044499,
                -3.1496632123970403
            ]
        },
        {
            "positions": [
                -2.5562608077367894,
                -1.1319846041646877,
                1.9678964421526515,
                -0.8232925530354304,
                0.8514302785021297,
                -3.1390203026755357
            ]
        },
        {
            "positions": [
                -2.6389011132389664,
                -1.1004735209956165,
                1.9249245693148471,
                -0.8098824266505926,
                1.0282561672998096,
                -3.128377392954031
            ]
        },
        {
            "positions": [
                -2.7215414187411433,
                -1.068962437826545,
                1.8819526964770428,
                -0.796472300265755,
                1.2050820560974893,
                -3.1177344832325264
            ]
        },
        {
            "positions": [
                -2.80418172424332,
                -1.0374513546574737,
                1.8389808236392386,
                -0.7830621738809173,
                1.3819079448951692,
                -3.1070915735110214
            ]
        },
        {
            "positions": [
                -2.8868220297454967,
                -1.0059402714884023,
                1.7960089508014343,
                -0.7696520474960795,
                1.5587338336928491,
                -3.0964486637895168
            ]
        },
        {
            "positions": [
                -2.9694623352476737,
                -0.9744291883193309,
                1.75303707796363,
                -0.7562419211112418,
                1.7355597224905288,
                -3.085805754068012
            ]
        }
    ]
}