{
    "goal": {
        "global_pose": {
            "orientation": {
                "w": -0.4816463035849501,
                "x": 0.5182115481033762,
                "y": 0.4908360881923453,
                "z": -0.5084816262002911
            },
            "position": {
                "x": -0.8240239810943604,
                "y": 0.19912469901144506,
                "z": 0.16403168439865112
            }
        },
        "name": "move_to_storage_D"
    },
    "id": "RRT_move_to_storage_D_124",
    "joint_names": [
        "shoulder_pan_joint",
        "shoulder_lift_joint",
        "elbow_joint",
        "wrist_1_joint",
        "wrist_2_joint",
        "wrist_3_joint"
    ],
    "metrics": {
        "cart_traj_len": 4.027053763091894,
        "distance_elbow_joint": 4.208360528907072,
        "distance_shoulder_lift_joint": 1.2657249988859403,
        "distance_shoulder_pan_joint": 2.8145808190629946,
        "distance_wrist_1_joint": 2.969748037901386,
        "distance_wrist_2_joint": 0.88401125174046,
        "distance_wrist_3_joint": 3.1362164259213725,
        "smoothness": 0.04583967386781763,
        "time": 0.060983869999999996,
        "traj_len": 3.9087903579520904,
        "weighted_distance": 5.04032084334954
    },
    "planner": "RRT",
    "start": {
        "state": {
            "elbow_joint": -2.384821988534728,
            "shoulder_lift_joint": -2.2788054721415256,
            "shoulder_pan_joint": -0.1854694642142757,
            "wrist_1_joint": 1.4845938289331202,
            "wrist_2_joint": 0.17898776772866878,
            "wrist_3_joint": 0.037105688729662994
        }
    },
    "waypoints": [
        {
            "positions": [
                -0.1854694642142757,
                -2.2788054721415256,
                -2.384821988534728,
                1.4845938289331202,
                0.17898776772866878,
                0.037105688729662994
            ]
        },
        {
            "positions": [
                -0.10722690370773047,
                -2.257159680960855,
                -2.2553213534861527,
                1.375588449620681,
                0.19197336839335447,
                -0.00047420053064210765
            ]
        },
        {
            "positions": [
                -0.02898434320118523,
                -2.2355138897801843,
                -2.1258207184375775,
                1.266583070308242,
                0.20495896905804017,
                -0.03805408979094721
            ]
        },
        {
            "positions": [
                0.049258217305360036,
                -2.2138680985995136,
                -1.996320083389002,
                1.1575776909958027,
                0.21794456972272586,
                -0.07563397905125233
            ]
        },
        {
            "positions": [
                0.12750077781190525,
                -2.192222307418843,
                -1.8668194483404268,
                1.0485723116833636,
                0.23093017038741154,
                -0.11321386831155741
            ]
        },
        {
            "positions": [
                0.20574333831845057,
                -2.1705765162381723,
                -1.7373188132918513,
                0.9395669323709243,
                0.24391577105209725,
                -0.15079375757186256
            ]
        },
        {
            "positions": [
                0.2839858988249958,
                -2.148930725057501,
                -1.607818178243276,
                0.8305615530584851,
                0.25690137171678296,
                -0.18837364683216765
            ]
        },
        {
            "positions": [
                0.36222845933154113,
                -2.1272849338768305,
                -1.4783175431947009,
                0.7215561737460459,
                0.26988697238146864,
                -0.2259535360924728
            ]
        },
        {
            "positions": [
                0.44047101983808623,
                -2.10563914269616,
                -1.3488169081461256,
                0.6125507944336068,
                0.2828725730461543,
                -0.2635334253527778
            ]
        },
        {
            "positions": [
                0.5187135803446316,
                -2.083993351515489,
                -1.2193162730975502,
                0.5035454151211676,
                0.29585817371084,
                -0.301113314613083
            ]
        },
        {
            "positions": [
                0.5969561408511769,
                -2.0623475603348185,
                -1.0898156380489747,
                0.3945400358087283,
                0.3088437743755257,
                -0.3386932038733881
            ]
        },
        {
            "positions": [
                0.675198701357722,
                -2.040701769154148,
                -0.9603150030003997,
                0.2855346564962893,
                0.32182937504021136,
                -0.37627309313369317
            ]
        },
        {
            "positions": [
                0.7534412618642673,
                -2.019055977973477,
                -0.8308143679518243,
                0.17652927718385003,
                0.33481497570489704,
                -0.41385298239399826
            ]
        },
        {
            "positions": [
                0.8316838223708124,
                -1.9974101867928065,
                -0.701313732903249,
                0.067523897871411,
                0.3478005763695827,
                -0.45143287165430335
            ]
        },
        {
            "positions": [
                0.9099263828773579,
                -1.9757643956121358,
                -0.5718130978546736,
                -0.04148148144102848,
                0.36078617703426846,
                -0.48901276091460855
            ]
        },
        {
            "positions": [
                0.988168943383903,
                -1.9541186044314651,
                -0.44231246280609837,
                -0.1504868607534675,
                0.37377177769895414,
                -0.5265926501749136
            ]
        },
        {
            "positions": [
                1.066411503890448,
                -1.9324728132507945,
                -0.31281182775752336,
                -0.25949224006590654,
                0.3867573783636398,
                -0.5641725394352186
            ]
        },
        {
            "positions": [
                1.1446540643969936,
                -1.9108270220701236,
                -0.1833111927089477,
                -0.368497619378346,
                0.39974297902832556,
                -0.6017524286955238
            ]
        },
        {
            "positions": [
                1.2228966249035387,
                -1.889181230889453,
                -0.05381055766037246,
                -0.47750299869078505,
                0.41272857969301124,
                -0.6393323179558289
            ]
        },
        {
            "positions": [
                1.3011391854100838,
                -1.8675354397087822,
                0.07569007738820277,
                -0.5865083780032241,
                0.4257141803576969,
                -0.676912207216134
            ]
        },
        {
            "positions": [
                1.3793817459166293,
                -1.8458896485281113,
                0.20519071243677844,
                -0.6955137573156636,
                0.4386997810223826,
                -0.7144920964764392
            ]
        },
        {
            "positions": [
                1.4576243064231744,
                -1.8242438573474407,
                0.33469134748535323,
                -0.8045191366281026,
                0.4516853816870683,
                -0.7520719857367442
            ]
        },
        {
            "positions": [
                1.5358668669297195,
                -1.80259806616677,
                0.46419198253392846,
                -0.9135245159405416,
                0.46467098235175397,
                -0.7896518749970493
            ]
        },
        {
            "positions": [
                1.614109427436265,
                -1.7809522749860993,
                0.5936926175825041,
                -1.022529895252981,
                0.47765658301643965,
                -0.8272317642573545
            ]
        },
        {
            "positions": [
                1.6923519879428102,
                -1.7593064838054286,
                0.7231932526310791,
                -1.1315352745654201,
                0.49064218368112533,
                -0.8648116535176595
            ]
        },
        {
            "positions": [
                1.7508994483744296,
                -1.7126673581460634,
                0.7919648331149083,
                -1.1094340911652423,
                0.5264144859178755,
                -1.0044553462472876
            ]
        },
        {
            "positions": [
                1.8094469088060487,
                -1.6660282324866982,
                0.8607364135987374,
                -1.0873329077650644,
                0.5621867881546257,
                -1.1440990389769157
            ]
        },
        {
            "positions": [
                1.867994369237668,
                -1.619389106827333,
                0.9295079940825666,
                -1.0652317243648866,
                0.597959090391376,
                -1.283742731706544
            ]
        },
        {
            "positions": [
                1.9265418296692873,
                -1.5727499811679677,
                0.9982795745663957,
                -1.0431305409647087,
                0.6337313926281262,
                -1.423386424436172
            ]
        },
        {
            "positions": [
                1.9850892901009067,
                -1.5261108555086027,
                1.0670511550502249,
                -1.0210293575645308,
                0.6695036948648764,
                -1.5630301171658
            ]
        },
        {
            "positions": [
                2.043636750532526,
                -1.4794717298492375,
                1.1358227355340538,
                -0.9989281741643531,
                0.7052759971016267,
                -1.7026738098954284
            ]
        },
        {
            "positions": [
                2.102184210964145,
                -1.4328326041898722,
                1.2045943160178831,
                -0.9768269907641752,
                0.7410482993383769,
                -1.8423175026250564
            ]
        },
        {
            "positions": [
                2.1607316713957645,
                -1.386193478530507,
                1.273365896501712,
                -0.9547258073639975,
                0.7768206015751271,
                -1.9819611953546845
            ]
        },
        {
            "positions": [
                2.219279131827384,
                -1.3395543528711418,
                1.3421374769855414,
                -0.9326246239638196,
                0.8125929038118773,
                -2.1216048880843124
            ]
        },
        {
            "positions": [
                2.277826592259003,
                -1.2929152272117765,
                1.4109090574693703,
                -0.9105234405636418,
                0.8483652060486275,
                -2.2612485808139406
            ]
        },
        {
            "positions": [
                2.3363740526906223,
                -1.2462761015524113,
                1.4796806379531997,
                -0.8884222571634639,
                0.8841375082853777,
                -2.400892273543569
            ]
        },
        {
            "positions": [
                2.3949215131222417,
                -1.1996369758930463,
                1.5484522184370286,
                -0.866321073763286,
                0.919909810522128,
                -2.5405359662731968
            ]
        },
        {
            "positions": [
                2.453468973553861,
                -1.1529978502336808,
                1.6172237989208578,
                -0.8442198903631082,
                0.9556821127588782,
                -2.680179659002825
            ]
        },
        {
            "positions": [
                2.5120164339854805,
                -1.1063587245743158,
                1.685995379404687,
                -0.8221187069629303,
                0.9914544149956284,
                -2.8198233517324534
            ]
        },
        {
            "positions": [
                2.5705638944170994,
                -1.0597195989149506,
                1.754766959888516,
                -0.8000175235627526,
                1.0272267172323786,
                -2.959467044462081
            ]
        },
        {
            "positions": [
                2.629111354848719,
                -1.0130804732555854,
                1.8235385403723452,
                -0.7779163401625747,
                1.0629990194691288,
                -3.0991107371917095
            ]
        }
    ]
}