{
    "goal": {
        "global_pose": {
            "orientation": {
                "w": 0.5084816262002911,
                "x": -0.4908360881923452,
                "y": 0.5182115481033761,
                "z": -0.48164630358495003
            },
            "position": {
                "x": 0.5540239810943604,
                "y": -0.46912469901144505,
                "z": 0.16403168439865112
            }
        },
        "name": "move_to_storage_B"
    },
    "id": "RRT_move_to_storage_B_106",
    "joint_names": [
        "shoulder_pan_joint",
        "shoulder_lift_joint",
        "elbow_joint",
        "wrist_1_joint",
        "wrist_2_joint",
        "wrist_3_joint"
    ],
    "metrics": {
        "cart_traj_len": 1.787006068981224,
        "distance_elbow_joint": 2.110676061107505,
        "distance_shoulder_lift_joint": 0.9423140591749042,
        "distance_shoulder_pan_joint": 0.6607792447333652,
        "distance_wrist_1_joint": 2.9898973834484925,
        "distance_wrist_2_joint": 2.707384133565193,
        "distance_wrist_3_joint": 3.40914424105464,
        "smoothness": 0.48291942052723574,
        "time": 0.072026252,
        "traj_len": 3.5805300058907608,
        "weighted_distance": 5.033464524778839
    },
    "planner": "RRT",
    "start": {
        "state": {
            "elbow_joint": 1.664937868594044,
            "shoulder_lift_joint": -0.661644460510453,
            "shoulder_pan_joint": -0.9139846352900073,
            "wrist_1_joint": 2.146753192139373,
            "wrist_2_joint": -2.2341966793290973,
            "wrist_3_joint": 0.005466555786416001
        }
    },
    "waypoints": [
        {
            "positions": [
                -0.9139846352900073,
                -0.661644460510453,
                1.664937868594044,
                2.146753192139373,
                -2.2341966793290973,
                0.005466555786416001
            ]
        },
        {
            "positions": [
                -0.8930961155705335,
                -0.6783257183889474,
                1.646903577101568,
                2.1502193902715185,
                -2.2017685859810037,
                0.012629865601290646
            ]
        },
        {
            "positions": [
                -0.8290686772640792,
                -0.7007785930974307,
                1.5965333457567505,
                2.0924483294418557,
                -2.1867586548196285,
                -0.05431936393908973
            ]
        },
        {
            "positions": [
                -0.7650412389576249,
                -0.7232314678059141,
                1.546163114411933,
                2.034677268612193,
                -2.1717487236582533,
                -0.12126859347947011
            ]
        },
        {
            "positions": [
                -0.7913314022460813,
                -0.763190069776035,
                1.4985649352719794,
                1.9324852244278323,
                -2.0621948860177906,
                -0.06100417157938737
            ]
        },
        {
            "positions": [
                -0.8176215655345378,
                -0.803148671746156,
                1.450966756132026,
                1.8302931802434717,
                -1.952641048377328,
                -0.0007397496793046243
            ]
        },
        {
            "positions": [
                -0.8439117288229941,
                -0.8431072737162769,
                1.4033685769920725,
                1.7281011360591112,
                -1.8430872107368652,
                0.05952467222077812
            ]
        },
        {
            "positions": [
                -0.8702018921114506,
                -0.8830658756863978,
                1.3557703978521192,
                1.6259090918747505,
                -1.7335333730964027,
                0.11978909412086086
            ]
        },
        {
            "positions": [
                -0.8964920553999071,
                -0.9230244776565188,
                1.3081722187121656,
                1.52371704769039,
                -1.6239795354559399,
                0.1800535160209436
            ]
        },
        {
            "positions": [
                -0.9227822186883634,
                -0.9629830796266398,
                1.2605740395722123,
                1.4215250035060296,
                -1.514425697815477,
                0.24031793792102635
            ]
        },
        {
            "positions": [
                -0.9490723819768199,
                -1.0029416815967607,
                1.2129758604322587,
                1.319332959321669,
                -1.4048718601750145,
                0.3005823598211091
            ]
        },
        {
            "positions": [
                -0.9753625452652763,
                -1.0429002835668817,
                1.1653776812923053,
                1.2171409151373083,
                -1.295318022534552,
                0.36084678172119183
            ]
        },
        {
            "positions": [
                -1.0016527085537328,
                -1.0828588855370027,
                1.1177795021523518,
                1.1149488709529478,
                -1.1857641848940892,
                0.4211112036212746
            ]
        },
        {
            "positions": [
                -1.0279428718421892,
                -1.1228174875071235,
                1.0701813230123984,
                1.0127568267685874,
                -1.0762103472536264,
                0.4813756255213573
            ]
        },
        {
            "positions": [
                -1.0542330351306455,
                -1.1627760894772445,
                1.0225831438724449,
                0.9105647825842267,
                -0.9666565096131639,
                0.54164004742144
            ]
        },
        {
            "positions": [
                -1.080523198419102,
                -1.2027346914473656,
                0.9749849647324914,
                0.8083727383998662,
                -0.8571026719727011,
                0.6019044693215228
            ]
        },
        {
            "positions": [
                -1.1068133617075584,
                -1.2426932934174864,
                0.927386785592538,
                0.7061806942155056,
                -0.7475488343322385,
                0.6621688912216055
            ]
        },
        {
            "positions": [
                -1.1331035249960149,
                -1.2826518953876072,
                0.8797886064525845,
                0.6039886500311451,
                -0.6379949966917757,
                0.7224333131216882
            ]
        },
        {
            "positions": [
                -1.1593936882844713,
                -1.3226104973577284,
                0.832190427312631,
                0.5017966058467844,
                -0.5284411590513132,
                0.782697735021771
            ]
        },
        {
            "positions": [
                -1.1856838515729278,
                -1.3625690993278492,
                0.7845922481726776,
                0.399604561662424,
                -0.4188873214108504,
                0.8429621569218537
            ]
        },
        {
            "positions": [
                -1.1799842743363227,
                -1.347482260555505,
                0.8614879007155613,
                0.3223660393682207,
                -0.36313264793291644,
                0.9869528895317088
            ]
        },
        {
            "positions": [
                -1.1742846970997178,
                -1.3323954217831606,
                0.9383835532584449,
                0.24512751707401753,
                -0.3073779744549825,
                1.1309436221415639
            ]
        },
        {
            "positions": [
                -1.1685851198631128,
                -1.3173085830108164,
                1.0152792058013285,
                0.1678889947798143,
                -0.2516233009770485,
                1.274934354751419
            ]
        },
        {
            "positions": [
                -1.162885542626508,
                -1.3022217442384723,
                1.0921748583442121,
                0.09065047248561109,
                -0.19586862749911454,
                1.418925087361274
            ]
        },
        {
            "positions": [
                -1.1571859653899028,
                -1.2871349054661279,
                1.1690705108870958,
                0.01341195019140784,
                -0.1401139540211806,
                1.562915819971129
            ]
        },
        {
            "positions": [
                -1.1514863881532977,
                -1.2720480666937837,
                1.2459661634299795,
                -0.06382657210279535,
                -0.0843592805432466,
                1.7069065525809841
            ]
        },
        {
            "positions": [
                -1.1457868109166929,
                -1.2569612279214395,
                1.3228618159728631,
                -0.14106509439699855,
                -0.02860460706531265,
                1.8508972851908392
            ]
        },
        {
            "positions": [
                -1.1400872336800878,
                -1.2418743891490953,
                1.3997574685157468,
                -0.2183036166912018,
                0.0271500664126213,
                1.9948880178006942
            ]
        },
        {
            "positions": [
                -1.1343876564434827,
                -1.226787550376751,
                1.4766531210586304,
                -0.29554213898540505,
                0.08290473989055525,
                2.1388787504105493
            ]
        },
        {
            "positions": [
                -1.1286880792068779,
                -1.2117007116044067,
                1.553548773601514,
                -0.3727806612796083,
                0.1386594133684892,
                2.2828694830204044
            ]
        },
        {
            "positions": [
                -1.1229885019702728,
                -1.1966138728320623,
                1.6304444261443978,
                -0.45001918357381143,
                0.19441408684642314,
                2.4268602156302594
            ]
        },
        {
            "positions": [
                -1.1172889247336677,
                -1.1815270340597182,
                1.7073400786872814,
                -0.5272577058680147,
                0.2501687603243572,
                2.5708509482401145
            ]
        },
        {
            "positions": [
                -1.1115893474970628,
                -1.166440195287374,
                1.784235731230165,
                -0.6044962281622179,
                0.30592343380229114,
                2.7148416808499696
            ]
        },
        {
            "positions": [
                -1.1058897702604578,
                -1.1513533565150298,
                1.8611313837730488,
                -0.6817347504564211,
                0.3616781072802251,
                2.8588324134598246
            ]
        },
        {
            "positions": [
                -1.100190193023853,
                -1.1362665177426854,
                1.9380270363159324,
                -0.7589732727506244,
                0.41743278075815904,
                3.0028231460696797
            ]
        },
        {
            "positions": [
                -1.0944906157872478,
                -1.1211796789703412,
                2.014922688858816,
                -0.8362117950448276,
                0.47318745423609304,
                3.1468138786795348
            ]
        }
    ]
}