{
    "goal": {
        "global_pose": {
            "orientation": {
                "w": 0.7047431493862688,
                "x": -0.7094548369677653,
                "y": 0.0024358444001904,
                "z": -0.0022348060817251984
            },
            "position": {
                "x": -0.39052492380142206,
                "y": 0.3671506643295288,
                "z": 0.19426114857196808
            }
        },
        "name": "move_to_magneteinheit_D"
    },
    "id": "RRT_move_to_magneteinheit_D_64",
    "joint_names": [
        "shoulder_pan_joint",
        "shoulder_lift_joint",
        "elbow_joint",
        "wrist_1_joint",
        "wrist_2_joint",
        "wrist_3_joint"
    ],
    "metrics": {
        "cart_traj_len": 4.262725264656114,
        "distance_elbow_joint": 3.1122913761439515,
        "distance_shoulder_lift_joint": 1.2170259604504965,
        "distance_shoulder_pan_joint": 3.1559652175636823,
        "distance_wrist_1_joint": 4.544770577835573,
        "distance_wrist_2_joint": 2.485877484433106,
        "distance_wrist_3_joint": 6.293325027854303,
        "smoothness": 0.5303226465789089,
        "time": 0.44961987,
        "traj_len": 4.561716304668794,
        "weighted_distance": 6.358187930712525
    },
    "planner": "RRT",
    "start": {
        "state": {
            "elbow_joint": 0.749534889911806,
            "shoulder_lift_joint": -0.6476975780787326,
            "shoulder_pan_joint": -2.711696901376241,
            "wrist_1_joint": -0.07506478083263063,
            "wrist_2_joint": 0.43296659715538205,
            "wrist_3_joint": -3.14703540197715
        }
    },
    "waypoints": [
        {
            "positions": [
                -2.711696901376241,
                -0.6476975780787326,
                0.749534889911806,
                -0.07506478083263063,
                0.43296659715538205,
                -3.14703540197715
            ]
        },
        {
            "positions": [
                -2.7106916515470365,
                -0.6859337392388536,
                0.7479479709446882,
                0.07624811926252004,
                0.3086932741538847,
                -3.1224355874247305
            ]
        },
        {
            "positions": [
                -2.7096864017178315,
                -0.7241699003989746,
                0.7463610519775706,
                0.2275610193576707,
                0.18441995115238732,
                -3.097835772872311
            ]
        },
        {
            "positions": [
                -2.708681151888627,
                -0.7624060615590955,
                0.7447741330104529,
                0.37887391945282134,
                0.06014662815089,
                -3.073235958319892
            ]
        },
        {
            "positions": [
                -2.707675902059422,
                -0.8006422227192165,
                0.7431872140433353,
                0.530186819547972,
                -0.0641266948506074,
                -3.0486361437674723
            ]
        },
        {
            "positions": [
                -2.7066706522302173,
                -0.8388783838793374,
                0.7416002950762176,
                0.6814997196431227,
                -0.18840001785210475,
                -3.0240363292150527
            ]
        },
        {
            "positions": [
                -2.661206568021022,
                -0.8807906061629956,
                0.7085593058950765,
                0.7213088185997875,
                -0.2751221225445001,
                -2.9066490081787677
            ]
        },
        {
            "positions": [
                -2.6157424838118266,
                -0.9227028284466539,
                0.6755183167139355,
                0.7611179175564522,
                -0.36184422723689535,
                -2.789261687142483
            ]
        },
        {
            "positions": [
                -2.5702783996026315,
                -0.9646150507303121,
                0.6424773275327944,
                0.8009270165131169,
                -0.4485663319292907,
                -2.6718743661061986
            ]
        },
        {
            "positions": [
                -2.5248143153934364,
                -1.0065272730139703,
                0.6094363383516533,
                0.8407361154697817,
                -0.5352884366216859,
                -2.5544870450699135
            ]
        },
        {
            "positions": [
                -2.479350231184241,
                -1.0484394952976284,
                0.5763953491705123,
                0.8805452144264464,
                -0.6220105413140813,
                -2.4370997240336285
            ]
        },
        {
            "positions": [
                -2.4338861469750457,
                -1.0903517175812867,
                0.5433543599893712,
                0.9203543133831111,
                -0.7087326460064767,
                -2.319712402997344
            ]
        },
        {
            "positions": [
                -2.4016555990087465,
                -1.0942390310233279,
                0.5143369133822784,
                0.9148382616340212,
                -0.4868550125067807,
                -2.2544006140642225
            ]
        },
        {
            "positions": [
                -2.3694250510424473,
                -1.0981263444653693,
                0.48531946677518545,
                0.9093222098849312,
                -0.26497737900708473,
                -2.189088825131101
            ]
        },
        {
            "positions": [
                -2.298011005483436,
                -1.110811349432281,
                0.41727855944816317,
                0.8296995993197048,
                -0.25303303415582296,
                -2.044692525880436
            ]
        },
        {
            "positions": [
                -2.2265969599244255,
                -1.123496354399193,
                0.3492376521211409,
                0.7500769887544785,
                -0.24108868930456118,
                -1.9002962266297712
            ]
        },
        {
            "positions": [
                -2.1551829143654144,
                -1.1361813593661048,
                0.2811967447941186,
                0.670454378189252,
                -0.2291443444532994,
                -1.7558999273791063
            ]
        },
        {
            "positions": [
                -2.0837688688064038,
                -1.1488663643330166,
                0.21315583746709632,
                0.5908317676240258,
                -0.21719999960203765,
                -1.6115036281284412
            ]
        },
        {
            "positions": [
                -2.0123548232473927,
                -1.1615513692999284,
                0.14511493014007404,
                0.5112091570587993,
                -0.20525565475077587,
                -1.4671073288777763
            ]
        },
        {
            "positions": [
                -1.940940777688382,
                -1.1742363742668402,
                0.07707402281305176,
                0.431586546493573,
                -0.1933113098995141,
                -1.3227110296271112
            ]
        },
        {
            "positions": [
                -1.869526732129371,
                -1.186921379233752,
                0.009033115486029475,
                0.3519639359283465,
                -0.1813669650482523,
                -1.178314730376446
            ]
        },
        {
            "positions": [
                -1.7981126865703603,
                -1.199606384200664,
                -0.05900779184099281,
                0.2723413253631203,
                -0.16942262019699056,
                -1.0339184311257812
            ]
        },
        {
            "positions": [
                -1.7266986410113492,
                -1.2122913891675757,
                -0.12704869916801498,
                0.19271871479789393,
                -0.15747827534572878,
                -0.8895221318751163
            ]
        },
        {
            "positions": [
                -1.6552845954523385,
                -1.2249763941344876,
                -0.19508960649503737,
                0.11309610423266747,
                -0.145533930494467,
                -0.7451258326244514
            ]
        },
        {
            "positions": [
                -1.5838705498933274,
                -1.2376613991013994,
                -0.26313051382205965,
                0.03347349366744112,
                -0.13358958564320522,
                -0.6007295333737863
            ]
        },
        {
            "positions": [
                -1.5124565043343166,
                -1.2503464040683112,
                -0.33117142114908193,
                -0.046149116897785225,
                -0.12164524079194344,
                -0.4563332341231212
            ]
        },
        {
            "positions": [
                -1.4410424587753057,
                -1.263031409035223,
                -0.3992123284761042,
                -0.12577172746301168,
                -0.10970089594068166,
                -0.3119369348724561
            ]
        },
        {
            "positions": [
                -1.3696284132162946,
                -1.2757164140021349,
                -0.4672532358031265,
                -0.20539433802823814,
                -0.09775655108941989,
                -0.167540635621791
            ]
        },
        {
            "positions": [
                -1.298214367657284,
                -1.2884014189690465,
                -0.5352941431301488,
                -0.2850169485934644,
                -0.08581220623815813,
                -0.02314433637112634
            ]
        },
        {
            "positions": [
                -1.226800322098273,
                -1.3010864239359585,
                -0.6033350504571711,
                -0.3646395591586906,
                -0.07386786138689636,
                0.12125196287953877
            ]
        },
        {
            "positions": [
                -1.1553862765392622,
                -1.3137714289028701,
                -0.6713759577841933,
                -0.4442621697239171,
                -0.061923516535634576,
                0.26564826213020387
            ]
        },
        {
            "positions": [
                -1.0839722309802513,
                -1.326456433869782,
                -0.7394168651112154,
                -0.5238847802891433,
                -0.049979171684372825,
                0.41004456138086853
            ]
        },
        {
            "positions": [
                -1.0125581854212404,
                -1.3391414388366938,
                -0.8074577724382379,
                -0.6035073908543698,
                -0.038034826833111046,
                0.5544408606315336
            ]
        },
        {
            "positions": [
                -0.9411441398622296,
                -1.3518264438036056,
                -0.8754986797652602,
                -0.6831300014195962,
                -0.026090481981849267,
                0.6988371598821983
            ]
        },
        {
            "positions": [
                -0.8697300943032185,
                -1.3645114487705174,
                -0.9435395870922825,
                -0.7627526119848225,
                -0.014146137130587488,
                0.8432334591328634
            ]
        },
        {
            "positions": [
                -0.7983160487442076,
                -1.3771964537374293,
                -1.0115804944193048,
                -0.8423752225500489,
                -0.0022017922793257094,
                0.9876297583835285
            ]
        },
        {
            "positions": [
                -0.7269020031851967,
                -1.389881458704341,
                -1.079621401746327,
                -0.9219978331152754,
                0.00974255257193607,
                1.1320260576341936
            ]
        },
        {
            "positions": [
                -0.6554879576261858,
                -1.402566463671253,
                -1.1476623090733493,
                -1.0016204436805016,
                0.02168689742319785,
                1.2764223568848587
            ]
        },
        {
            "positions": [
                -0.584073912067175,
                -1.4152514686381648,
                -1.2157032164003716,
                -1.081243054245728,
                0.03363124227445963,
                1.4208186561355238
            ]
        },
        {
            "positions": [
                -0.5126598665081639,
                -1.4279364736050766,
                -1.2837441237273939,
                -1.1608656648109545,
                0.045575587125721406,
                1.565214955386189
            ]
        },
        {
            "positions": [
                -0.441245820949153,
                -1.4406214785719884,
                -1.3517850310544162,
                -1.240488275376181,
                0.057519931976983185,
                1.7096112546368536
            ]
        },
        {
            "positions": [
                -0.3698317753901421,
                -1.4533064835389002,
                -1.4198259383814384,
                -1.3201108859414075,
                0.06946427682824496,
                1.8540075538875191
            ]
        },
        {
            "positions": [
                -0.29841772983113124,
                -1.465991488505812,
                -1.487866845708461,
                -1.399733496506634,
                0.08140862167950674,
                1.9984038531381838
            ]
        },
        {
            "positions": [
                -0.2270036842721206,
                -1.478676493472724,
                -1.555907753035483,
                -1.47935610707186,
                0.09335296653076847,
                2.1428001523888485
            ]
        },
        {
            "positions": [
                -0.1555896387131095,
                -1.4913614984396357,
                -1.6239486603625053,
                -1.5589787176370864,
                0.10529731138203025,
                2.287196451639513
            ]
        },
        {
            "positions": [
                -0.08417559315409884,
                -1.5040465034065476,
                -1.6919895676895276,
                -1.6386013282023124,
                0.11724165623329202,
                2.4315927508901787
            ]
        },
        {
            "positions": [
                -0.012761547595087741,
                -1.5167315083734594,
                -1.7600304750165499,
                -1.7182239387675389,
                0.1291860010845538,
                2.5759890501408433
            ]
        },
        {
            "positions": [
                0.05865249796392291,
                -1.5294165133403712,
                -1.8280713823435721,
                -1.7978465493327653,
                0.14113034593581558,
                2.720385349391509
            ]
        },
        {
            "positions": [
                0.13006654352293412,
                -1.542101518307283,
                -1.8961122896705942,
                -1.8774691598979918,
                0.15307469078707736,
                2.8647816486421736
            ]
        },
        {
            "positions": [
                0.09738594299451833,
                -1.5857585692082996,
                -1.9704762475145932,
                -1.9652413754560205,
                0.08528031624933774,
                2.8996428713608395
            ]
        },
        {
            "positions": [
                0.06470534246610253,
                -1.6294156201093162,
                -2.044840205358592,
                -2.0530135910140492,
                0.01748594171159812,
                2.934504094079506
            ]
        },
        {
            "positions": [
                0.03202474193768673,
                -1.6730726710103325,
                -2.119204163202591,
                -2.1407858065720777,
                -0.0503084328261415,
                2.9693653167981724
            ]
        },
        {
            "positions": [
                -0.0006558585907290582,
                -1.716729721911349,
                -2.1935681210465896,
                -2.2285580221301067,
                -0.11810280736388112,
                3.0042265395168384
            ]
        },
        {
            "positions": [
                -0.03333645911914487,
                -1.7603867728123657,
                -2.267932078890589,
                -2.3163302376881356,
                -0.18589718190162074,
                3.0390877622355044
            ]
        },
        {
            "positions": [
                -0.06601705964756066,
                -1.8040438237133822,
                -2.3422960367345875,
                -2.404102453246164,
                -0.25369155643936037,
                3.073948984954171
            ]
        },
        {
            "positions": [
                -0.12507614439456652,
                -1.7737039663054588,
                -2.3525262614833666,
                -2.2916550947508862,
                -0.21588922781373165,
                3.110119305415662
            ]
        },
        {
            "positions": [
                -0.18413522914157238,
                -1.7433641088975353,
                -2.3627564862321453,
                -2.1792077362556084,
                -0.17808689918810297,
                3.1462896258771536
            ]
        }
    ]
}