{
    "goal": {
        "global_pose": {
            "orientation": {
                "w": -0.4816463035849501,
                "x": 0.5182115481033762,
                "y": 0.4908360881923453,
                "z": -0.5084816262002911
            },
            "position": {
                "x": -0.8240239810943604,
                "y": 0.19912469901144506,
                "z": 0.16403168439865112
            }
        },
        "name": "move_to_storage_D"
    },
    "id": "RRT_move_to_storage_D_49",
    "joint_names": [
        "shoulder_pan_joint",
        "shoulder_lift_joint",
        "elbow_joint",
        "wrist_1_joint",
        "wrist_2_joint",
        "wrist_3_joint"
    ],
    "metrics": {
        "cart_traj_len": 4.064275381503859,
        "distance_elbow_joint": 4.212322032588979,
        "distance_shoulder_lift_joint": 1.2634243813819637,
        "distance_shoulder_pan_joint": 2.81566740453157,
        "distance_wrist_1_joint": 2.275161463575098,
        "distance_wrist_2_joint": 1.7416092013549915,
        "distance_wrist_3_joint": 3.126378193266814,
        "smoothness": 0.0881952593384068,
        "time": 0.079678365,
        "traj_len": 3.9286845987810493,
        "weighted_distance": 5.069920090905095
    },
    "planner": "RRT",
    "start": {
        "state": {
            "elbow_joint": -2.384821988534728,
            "shoulder_lift_joint": -2.2788054721415256,
            "shoulder_pan_joint": -0.1854694642142757,
            "wrist_1_joint": 1.4845938289331202,
            "wrist_2_joint": 0.17898776772866878,
            "wrist_3_joint": 0.037105688729662994
        }
    },
    "waypoints": [
        {
            "positions": [
                -0.1854694642142757,
                -2.2788054721415256,
                -2.384821988534728,
                1.4845938289331202,
                0.17898776772866878,
                0.037105688729662994
            ]
        },
        {
            "positions": [
                -0.10794165128449049,
                -2.2517158731816034,
                -2.272565719699304,
                1.414498112906438,
                0.22141762818805838,
                -0.021925438149451075
            ]
        },
        {
            "positions": [
                -0.030413838354705264,
                -2.224626274221681,
                -2.16030945086388,
                1.3444023968797558,
                0.26384748864744795,
                -0.08095656502856514
            ]
        },
        {
            "positions": [
                0.04711397457507996,
                -2.1975366752617584,
                -2.0480531820284558,
                1.2743066808530736,
                0.30627734910683757,
                -0.13998769190767923
            ]
        },
        {
            "positions": [
                0.12464178750486518,
                -2.170447076301836,
                -1.935796913193032,
                1.2042109648263912,
                0.34870720956622714,
                -0.19901881878679328
            ]
        },
        {
            "positions": [
                0.2021696004346504,
                -2.143357477341914,
                -1.8235406443576079,
                1.134115248799709,
                0.3911370700256167,
                -0.25804994566590733
            ]
        },
        {
            "positions": [
                0.27969741336443565,
                -2.1162678783819917,
                -1.7112843755221838,
                1.0640195327730269,
                0.4335669304850063,
                -0.3170810725450215
            ]
        },
        {
            "positions": [
                0.3572252262942208,
                -2.089178279422069,
                -1.59902810668676,
                0.9939238167463447,
                0.47599679094439595,
                -0.37611219942413554
            ]
        },
        {
            "positions": [
                0.4347530392240061,
                -2.0620886804621468,
                -1.486771837851336,
                0.9238281007196624,
                0.5184266514037855,
                -0.4351433263032496
            ]
        },
        {
            "positions": [
                0.5122808521537914,
                -2.0349990815022245,
                -1.3745155690159117,
                0.8537323846929801,
                0.5608565118631751,
                -0.49417445318236364
            ]
        },
        {
            "positions": [
                0.5898086650835765,
                -2.0079094825423023,
                -1.2622593001804878,
                0.7836366686662979,
                0.6032863723225647,
                -0.5532055800614777
            ]
        },
        {
            "positions": [
                0.6673364780133618,
                -1.9808198835823798,
                -1.1500030313450638,
                0.7135409526396156,
                0.6457162327819543,
                -0.6122367069405918
            ]
        },
        {
            "positions": [
                0.744864290943147,
                -1.9537302846224573,
                -1.0377467625096397,
                0.6434452366129335,
                0.6881460932413438,
                -0.6712678338197059
            ]
        },
        {
            "positions": [
                0.8223921038729324,
                -1.926640685662535,
                -0.9254904936742157,
                0.5733495205862512,
                0.7305759537007335,
                -0.7302989606988199
            ]
        },
        {
            "positions": [
                0.8999199168027173,
                -1.8995510867026129,
                -0.8132342248387918,
                0.503253804559569,
                0.773005814160123,
                -0.789330087577934
            ]
        },
        {
            "positions": [
                0.9774477297325027,
                -1.8724614877426904,
                -0.7009779560033678,
                0.43315808853288673,
                0.8154356746195126,
                -0.8483612144570482
            ]
        },
        {
            "positions": [
                1.0549755426622878,
                -1.8453718887827681,
                -0.5887216871679437,
                0.36306237250620454,
                0.8578655350789022,
                -0.9073923413361621
            ]
        },
        {
            "positions": [
                1.132503355592073,
                -1.8182822898228457,
                -0.4764654183325199,
                0.29296665647952236,
                0.9002953955382917,
                -0.9664234682152761
            ]
        },
        {
            "positions": [
                1.2100311685218583,
                -1.7911926908629234,
                -0.3642091494970954,
                0.22287094045283995,
                0.9427252559976814,
                -1.0254545950943903
            ]
        },
        {
            "positions": [
                1.2875589814516435,
                -1.7641030919030012,
                -0.25195288066167176,
                0.15277522442615776,
                0.985155116457071,
                -1.0844857219735045
            ]
        },
        {
            "positions": [
                1.3650867943814287,
                -1.7370134929430787,
                -0.1396966118262477,
                0.08267950839947558,
                1.0275849769164607,
                -1.1435168488526184
            ]
        },
        {
            "positions": [
                1.4426146073112138,
                -1.7099238939831563,
                -0.027440342990823652,
                0.01258379237279339,
                1.0700148373758502,
                -1.2025479757317323
            ]
        },
        {
            "positions": [
                1.5201424202409992,
                -1.682834295023234,
                0.0848159258446004,
                -0.05751192365388902,
                1.1124446978352398,
                -1.2615791026108467
            ]
        },
        {
            "positions": [
                1.5976702331707844,
                -1.6557446960633118,
                0.19707219468002446,
                -0.1276076396805712,
                1.1548745582946294,
                -1.3206102294899607
            ]
        },
        {
            "positions": [
                1.6751980461005695,
                -1.6286550971033893,
                0.3093284635154485,
                -0.19770335570725317,
                1.197304418754019,
                -1.3796413563690748
            ]
        },
        {
            "positions": [
                1.7527258590303547,
                -1.601565498143467,
                0.4215847323508721,
                -0.26779907173393536,
                1.2397342792134085,
                -1.4386724832481887
            ]
        },
        {
            "positions": [
                1.8302536719601403,
                -1.5744758991835446,
                0.5338410011862966,
                -0.33789478776061777,
                1.2821641396727983,
                -1.497703610127303
            ]
        },
        {
            "positions": [
                1.9077814848899255,
                -1.5473863002236223,
                0.6460972700217202,
                -0.40799050378729995,
                1.3245940001321879,
                -1.556734737006417
            ]
        },
        {
            "positions": [
                1.9853092978197102,
                -1.5202967012637,
                0.7583535388571443,
                -0.47808621981398214,
                1.3670238605915774,
                -1.615765863885531
            ]
        },
        {
            "positions": [
                2.0628371107494954,
                -1.4932071023037776,
                0.8706098076925683,
                -0.5481819358406645,
                1.4094537210509668,
                -1.674796990764645
            ]
        },
        {
            "positions": [
                2.140364923679281,
                -1.4661175033438552,
                0.9828660765279924,
                -0.6182776518673467,
                1.4518835815103566,
                -1.7338281176437593
            ]
        },
        {
            "positions": [
                2.217892736609066,
                -1.439027904383933,
                1.0951223453634165,
                -0.6883733678940291,
                1.4943134419697461,
                -1.7928592445228733
            ]
        },
        {
            "positions": [
                2.2637044259099803,
                -1.3919560362034473,
                1.1764976452179536,
                -0.6997282864215788,
                1.4469486056237557,
                -1.9369051623022375
            ]
        },
        {
            "positions": [
                2.3095161152108945,
                -1.3448841680229615,
                1.2578729450724908,
                -0.7110832049491286,
                1.3995837692777653,
                -2.0809510800816016
            ]
        },
        {
            "positions": [
                2.3553278045118087,
                -1.297812299842476,
                1.3392482449270278,
                -0.7224381234766782,
                1.3522189329317746,
                -2.224996997860966
            ]
        },
        {
            "positions": [
                2.401139493812723,
                -1.2507404316619903,
                1.420623544781565,
                -0.7337930420042279,
                1.3048540965857842,
                -2.36904291564033
            ]
        },
        {
            "positions": [
                2.4469511831136375,
                -1.2036685634815045,
                1.5019988446361021,
                -0.7451479605317777,
                1.2574892602397938,
                -2.5130888334196944
            ]
        },
        {
            "positions": [
                2.4927628724145516,
                -1.156596695301019,
                1.583374144490639,
                -0.7565028790593273,
                1.2101244238938034,
                -2.6571347511990586
            ]
        },
        {
            "positions": [
                2.538574561715466,
                -1.1095248271205334,
                1.6647494443451762,
                -0.767857797586877,
                1.162759587547813,
                -2.8011806689784224
            ]
        },
        {
            "positions": [
                2.58438625101638,
                -1.0624529589400478,
                1.7461247441997134,
                -0.7792127161144268,
                1.1153947512018223,
                -2.9452265867577867
            ]
        },
        {
            "positions": [
                2.630197940317294,
                -1.015381090759562,
                1.8275000440542506,
                -0.7905676346419764,
                1.0680299148558319,
                -3.089272504537151
            ]
        }
    ]
}