{
    "goal": {
        "global_pose": {
            "orientation": {
                "w": 0.7031023502349854,
                "x": -0.7110244035720825,
                "y": 0.007748599164187908,
                "z": 0.005598929710686207
            },
            "position": {
                "x": 0.11585023208521307,
                "y": 0.44412534475326537,
                "z": 0.3711530566215515
            }
        },
        "name": "move_to_auspresseinheit_A"
    },
    "id": "RRT_move_to_auspresseinheit_A_38",
    "joint_names": [
        "shoulder_pan_joint",
        "shoulder_lift_joint",
        "elbow_joint",
        "wrist_1_joint",
        "wrist_2_joint",
        "wrist_3_joint"
    ],
    "metrics": {
        "cart_traj_len": 3.829644925252627,
        "distance_elbow_joint": 5.483362251737563,
        "distance_shoulder_lift_joint": 1.4914746621853403,
        "distance_shoulder_pan_joint": 2.3457166853104208,
        "distance_wrist_1_joint": 2.2245481111555296,
        "distance_wrist_2_joint": 2.028247970706511,
        "distance_wrist_3_joint": 5.095896653929243,
        "smoothness": 0.4653814516004685,
        "time": 0.749558389,
        "traj_len": 4.320792327227104,
        "weighted_distance": 5.754462244618964
    },
    "planner": "RRT",
    "start": {
        "state": {
            "elbow_joint": 2.4225746658250005,
            "shoulder_lift_joint": -1.3736534386056498,
            "shoulder_pan_joint": -0.3378633547517467,
            "wrist_1_joint": -1.0288598680537169,
            "wrist_2_joint": 1.233022673432363,
            "wrist_3_joint": -3.0940220416140027
        }
    },
    "waypoints": [
        {
            "positions": [
                -0.3378633547517467,
                -1.3736534386056498,
                2.4225746658250005,
                -1.0288598680537169,
                1.233022673432363,
                -3.0940220416140027
            ]
        },
        {
            "positions": [
                -0.39260069064687775,
                -1.3621472864788846,
                2.304263363810474,
                -0.9853924295159892,
                1.20269601143611,
                -2.9686189131742413
            ]
        },
        {
            "positions": [
                -0.4473380265420088,
                -1.3506411343521194,
                2.185952061795948,
                -0.9419249909782614,
                1.172369349439857,
                -2.8432157847344803
            ]
        },
        {
            "positions": [
                -0.5020753624371399,
                -1.339134982225354,
                2.0676407597814213,
                -0.8984575524405337,
                1.1420426874436038,
                -2.7178126562947194
            ]
        },
        {
            "positions": [
                -0.556812698332271,
                -1.3276288300985888,
                1.949329457766895,
                -0.854990113902806,
                1.1117160254473508,
                -2.592409527854958
            ]
        },
        {
            "positions": [
                -0.611550034227402,
                -1.3161226779718236,
                1.8310181557523686,
                -0.8115226753650784,
                1.0813893634510978,
                -2.4670063994151965
            ]
        },
        {
            "positions": [
                -0.666287370122533,
                -1.3046165258450584,
                1.712706853737842,
                -0.7680552368273506,
                1.0510627014548448,
                -2.3416032709754355
            ]
        },
        {
            "positions": [
                -0.721024706017664,
                -1.2931103737182932,
                1.5943955517233155,
                -0.7245877982896229,
                1.0207360394585918,
                -2.2162001425356745
            ]
        },
        {
            "positions": [
                -0.7757620419127951,
                -1.2816042215915278,
                1.4760842497087894,
                -0.6811203597518952,
                0.9904093774623388,
                -2.090797014095913
            ]
        },
        {
            "positions": [
                -0.8304993778079262,
                -1.2700980694647626,
                1.3577729476942626,
                -0.6376529212141675,
                0.9600827154660857,
                -1.9653938856561517
            ]
        },
        {
            "positions": [
                -0.8852367137030572,
                -1.2585919173379974,
                1.2394616456797365,
                -0.5941854826764398,
                0.9297560534698327,
                -1.8399907572163907
            ]
        },
        {
            "positions": [
                -0.9399740495981883,
                -1.2470857652112322,
                1.12115034366521,
                -0.5507180441387121,
                0.8994293914735796,
                -1.7145876287766293
            ]
        },
        {
            "positions": [
                -0.9947113854933194,
                -1.235579613084467,
                1.0028390416506836,
                -0.5072506056009843,
                0.8691027294773266,
                -1.5891845003368683
            ]
        },
        {
            "positions": [
                -1.0494487213884505,
                -1.2240734609577015,
                0.884527739636157,
                -0.4637831670632566,
                0.8387760674810736,
                -1.4637813718971069
            ]
        },
        {
            "positions": [
                -1.1041860572835813,
                -1.2125673088309363,
                0.7662164376216307,
                -0.420315728525529,
                0.8084494054848206,
                -1.338378243457346
            ]
        },
        {
            "positions": [
                -1.1589233931787124,
                -1.2010611567041711,
                0.6479051356071042,
                -0.3768482899878012,
                0.7781227434885675,
                -1.2129751150175845
            ]
        },
        {
            "positions": [
                -1.2136607290738435,
                -1.189555004577406,
                0.5295938335925781,
                -0.33338085145007357,
                0.7477960814923145,
                -1.0875719865778235
            ]
        },
        {
            "positions": [
                -1.2683980649689746,
                -1.1780488524506407,
                0.4112825315780517,
                -0.28991341291234585,
                0.7174694194960615,
                -0.9621688581380625
            ]
        },
        {
            "positions": [
                -1.3231354008641056,
                -1.1665427003238755,
                0.2929712295635247,
                -0.24644597437461802,
                0.6871427574998084,
                -0.8367657296983007
            ]
        },
        {
            "positions": [
                -1.3778727367592367,
                -1.15503654819711,
                0.17465992754899862,
                -0.2029785358368904,
                0.6568160955035554,
                -0.7113626012585397
            ]
        },
        {
            "positions": [
                -1.4326100726543676,
                -1.143530396070345,
                0.05634862553447251,
                -0.15951109729916269,
                0.6264894335073024,
                -0.5859594728187787
            ]
        },
        {
            "positions": [
                -1.4873474085494987,
                -1.1320242439435797,
                -0.061962676480054046,
                -0.11604365876143508,
                0.5961627715110493,
                -0.4605563443790177
            ]
        },
        {
            "positions": [
                -1.5420847444446297,
                -1.1205180918168145,
                -0.1802739784945806,
                -0.07257622022370724,
                0.5658361095147962,
                -0.33515321593925584
            ]
        },
        {
            "positions": [
                -1.5968220803397608,
                -1.109011939690049,
                -0.29858528050910715,
                -0.029108781685979523,
                0.5355094475185432,
                -0.20975008749949486
            ]
        },
        {
            "positions": [
                -1.6515594162348919,
                -1.0975057875632839,
                -0.41689658252363326,
                0.014358656851748197,
                0.5051827855222901,
                -0.08434695905973388
            ]
        },
        {
            "positions": [
                -1.7062967521300227,
                -1.0859996354365187,
                -0.5352078845381598,
                0.05782609538947581,
                0.4748561235260371,
                0.0410561693800271
            ]
        },
        {
            "positions": [
                -1.761034088025154,
                -1.0744934833097535,
                -0.6535191865526864,
                0.10129353392720364,
                0.444529461529784,
                0.16645929781978897
            ]
        },
        {
            "positions": [
                -1.8157714239202851,
                -1.0629873311829883,
                -0.7718304885672125,
                0.14476097246493125,
                0.414202799533531,
                0.29186242625954995
            ]
        },
        {
            "positions": [
                -1.870508759815416,
                -1.051481179056223,
                -0.890141790581739,
                0.18822841100265886,
                0.383876137537278,
                0.4172655546993109
            ]
        },
        {
            "positions": [
                -1.925246095710547,
                -1.0399750269294579,
                -1.0084530925962651,
                0.2316958495403867,
                0.353549475541025,
                0.5426686831390719
            ]
        },
        {
            "positions": [
                -1.9799834316056781,
                -1.0284688748026924,
                -1.1267643946107921,
                0.2751632880781145,
                0.3232228135447719,
                0.6680718115788338
            ]
        },
        {
            "positions": [
                -2.034720767500809,
                -1.0169627226759272,
                -1.2450756966253183,
                0.31863072661584213,
                0.2928961515485189,
                0.7934749400185948
            ]
        },
        {
            "positions": [
                -2.0277021972018305,
                -1.0878895917693545,
                -1.3678029303404378,
                0.38451082587477026,
                0.34284484418375205,
                0.7173593724031078
            ]
        },
        {
            "positions": [
                -2.0206836269028523,
                -1.1588164608627818,
                -1.4905301640555573,
                0.4503909251336984,
                0.3927935368189852,
                0.6412438047876207
            ]
        },
        {
            "positions": [
                -2.0136650566038736,
                -1.229743329956209,
                -1.6132573977706768,
                0.5162710243926265,
                0.44274222945421837,
                0.5651282371721337
            ]
        },
        {
            "positions": [
                -2.006646486304895,
                -1.300670199049636,
                -1.7359846314857963,
                0.5821511236515546,
                0.4926909220894516,
                0.48901266955664663
            ]
        },
        {
            "positions": [
                -1.9996279160059165,
                -1.3715970681430634,
                -1.8587118652009158,
                0.6480312229104829,
                0.5426396147246848,
                0.41289710194115964
            ]
        },
        {
            "positions": [
                -1.992609345706938,
                -1.4425239372364906,
                -1.9814390989160353,
                0.713911322169411,
                0.5925883073599179,
                0.3367815343256726
            ]
        },
        {
            "positions": [
                -1.9855907754079594,
                -1.513450806329918,
                -2.104166332631155,
                0.7797914214283391,
                0.6425369999951511,
                0.2606659667101856
            ]
        },
        {
            "positions": [
                -1.978572205108981,
                -1.5843776754233452,
                -2.2268935663462743,
                0.8456715206872673,
                0.6924856926303843,
                0.1845503990946985
            ]
        },
        {
            "positions": [
                -1.9715536348100025,
                -1.6553045445167722,
                -2.349620800061394,
                0.9115516199461954,
                0.7424343852656174,
                0.10843483147921151
            ]
        },
        {
            "positions": [
                -1.9645350645110238,
                -1.7262314136101997,
                -2.4723480337765134,
                0.9774317192051236,
                0.7923830779008506,
                0.03231926386372452
            ]
        },
        {
            "positions": [
                -1.9575164942120453,
                -1.7971582827036268,
                -2.595075267491633,
                1.0433118184640517,
                0.8423317705360838,
                -0.043796303751762466
            ]
        },
        {
            "positions": [
                -1.9504979239130666,
                -1.8680851517970543,
                -2.7178025012067524,
                1.1091919177229799,
                0.8922804631713169,
                -0.11991187136724957
            ]
        },
        {
            "positions": [
                -1.9434793536140882,
                -1.9390120208904813,
                -2.840529734921872,
                1.175072016981908,
                0.9422291558065501,
                -0.19602743898273656
            ]
        },
        {
            "positions": [
                -1.8319557818791607,
                -1.8964650912822685,
                -2.796478164723734,
                1.179195262205889,
                1.029986844719477,
                -0.15224798032367348
            ]
        },
        {
            "positions": [
                -1.720432210144233,
                -1.8539181616740559,
                -2.7524265945255952,
                1.18331850742987,
                1.1177445336324041,
                -0.10846852166461042
            ]
        },
        {
            "positions": [
                -1.6089086384093056,
                -1.811371232065843,
                -2.708375024327457,
                1.1874417526538508,
                1.2055022225453311,
                -0.06468906300554736
            ]
        },
        {
            "positions": [
                -1.497385066674378,
                -1.7688243024576304,
                -2.6643234541293186,
                1.1915649978778318,
                1.2932599114582581,
                -0.020909604346484284
            ]
        },
        {
            "positions": [
                -1.3858614949394505,
                -1.7262773728494176,
                -2.6202718839311805,
                1.1956882431018128,
                1.3810176003711852,
                0.022869854312578774
            ]
        }
    ]
}