{
    "goal": {
        "global_pose": {
            "orientation": {
                "w": 0.7047431468963623,
                "x": -0.7094548344612122,
                "y": 0.0024358443915843964,
                "z": -0.0022348060738295317
            },
            "position": {
                "x": 0.6094750761985779,
                "y": 0.3671506643295288,
                "z": 0.19426114857196808
            }
        },
        "name": "move_to_magneteinheit_A"
    },
    "id": "RRT_move_to_magneteinheit_A_21",
    "joint_names": [
        "shoulder_pan_joint",
        "shoulder_lift_joint",
        "elbow_joint",
        "wrist_1_joint",
        "wrist_2_joint",
        "wrist_3_joint"
    ],
    "metrics": {
        "cart_traj_len": 4.061825076366405,
        "distance_elbow_joint": 3.9112778311266387,
        "distance_shoulder_lift_joint": 1.6234009351920329,
        "distance_shoulder_pan_joint": 5.419004310116495,
        "distance_wrist_1_joint": 2.35359415792488,
        "distance_wrist_2_joint": 1.7002444362833828,
        "distance_wrist_3_joint": 3.5668526397216143,
        "smoothness": 0.2946933784593826,
        "time": 0.116998623,
        "traj_len": 4.309799799336975,
        "weighted_distance": 5.455448486056533
    },
    "planner": "RRT",
    "start": {
        "state": {
            "elbow_joint": -1.9196185241190666,
            "shoulder_lift_joint": -1.2443396400964142,
            "shoulder_pan_joint": 2.6996025414629847,
            "wrist_1_joint": -1.5485510000780065,
            "wrist_2_joint": -1.5709468930060704,
            "wrist_3_joint": 0.4420197071253992
        }
    },
    "waypoints": [
        {
            "positions": [
                2.6996025414629847,
                -1.2443396400964142,
                -1.9196185241190666,
                -1.5485510000780065,
                -1.5709468930060704,
                0.4420197071253992
            ]
        },
        {
            "positions": [
                2.525767607508912,
                -1.2767121575304945,
                -1.8368884824093372,
                -1.4825555009692744,
                -1.536351640011374,
                0.4419152951264065
            ]
        },
        {
            "positions": [
                2.3519326735548396,
                -1.3090846749645748,
                -1.7541584406996076,
                -1.4165600018605422,
                -1.5017563870166772,
                0.44181088312741373
            ]
        },
        {
            "positions": [
                2.178097739600767,
                -1.3414571923986551,
                -1.6714283989898782,
                -1.35056450275181,
                -1.4671611340219808,
                0.44170647112842104
            ]
        },
        {
            "positions": [
                2.0042628056466945,
                -1.3738297098327354,
                -1.5886983572801487,
                -1.2845690036430777,
                -1.4325658810272843,
                0.44160205912942835
            ]
        },
        {
            "positions": [
                1.8304278716926219,
                -1.4062022272668155,
                -1.5059683155704193,
                -1.2185735045343455,
                -1.3979706280325876,
                0.4414976471304356
            ]
        },
        {
            "positions": [
                1.6565929377385493,
                -1.438574744700896,
                -1.4232382738606897,
                -1.1525780054256134,
                -1.3633753750378912,
                0.4413932351314429
            ]
        },
        {
            "positions": [
                1.4827580037844768,
                -1.4709472621349762,
                -1.34050823215096,
                -1.0865825063168812,
                -1.3287801220431947,
                0.4412888231324502
            ]
        },
        {
            "positions": [
                1.3089230698304042,
                -1.5033197795690565,
                -1.2577781904412308,
                -1.020587007208149,
                -1.294184869048498,
                0.44118441113345747
            ]
        },
        {
            "positions": [
                1.1350881358763316,
                -1.5356922970031368,
                -1.1750481487315012,
                -0.9545915080994168,
                -1.2595896160538016,
                0.4410799991344648
            ]
        },
        {
            "positions": [
                0.961253201922259,
                -1.5680648144372171,
                -1.0923181070217718,
                -0.8885960089906848,
                -1.2249943630591051,
                0.4409755871354721
            ]
        },
        {
            "positions": [
                0.7874182679681865,
                -1.6004373318712974,
                -1.0095880653120424,
                -0.8226005098819525,
                -1.1903991100644085,
                0.44087117513647933
            ]
        },
        {
            "positions": [
                0.6135833340141139,
                -1.6328098493053778,
                -0.9268580236023128,
                -0.7566050107732204,
                -1.155803857069712,
                0.44076676313748664
            ]
        },
        {
            "positions": [
                0.43974840006004134,
                -1.665182366739458,
                -0.8441279818925833,
                -0.6906095116644883,
                -1.1212086040750155,
                0.4406623511384939
            ]
        },
        {
            "positions": [
                0.2659134661059688,
                -1.6975548841735384,
                -0.7613979401828537,
                -0.624614012555756,
                -1.0866133510803189,
                0.4405579391395012
            ]
        },
        {
            "positions": [
                0.09207853215189621,
                -1.7299274016076187,
                -0.6786678984731243,
                -0.5586185134470238,
                -1.0520180980856222,
                0.4404535271405085
            ]
        },
        {
            "positions": [
                -0.08175640180217636,
                -1.7622999190416988,
                -0.5959378567633948,
                -0.4926230143382917,
                -1.017422845090926,
                0.44034911514151576
            ]
        },
        {
            "positions": [
                -0.2555913357562489,
                -1.7946724364757793,
                -0.5132078150536654,
                -0.42662751522955955,
                -0.9828275920962294,
                0.44024470314252306
            ]
        },
        {
            "positions": [
                -0.4294262697103215,
                -1.8270449539098594,
                -0.4304777733439358,
                -0.3606320161208272,
                -0.9482323391015327,
                0.44014029114353037
            ]
        },
        {
            "positions": [
                -0.6032612036643941,
                -1.85941747134394,
                -0.34774773163420636,
                -0.29463651701209503,
                -0.9136370861068362,
                0.4400358791445376
            ]
        },
        {
            "positions": [
                -0.7770961376184666,
                -1.89178998877802,
                -0.26501768992447694,
                -0.2286410179033631,
                -0.8790418331121397,
                0.43993146714554493
            ]
        },
        {
            "positions": [
                -0.9509310715725392,
                -1.9241625062121004,
                -0.18228764821474752,
                -0.16264551879463096,
                -0.8444465801174432,
                0.43982705514655224
            ]
        },
        {
            "positions": [
                -1.1247660055266118,
                -1.9565350236461807,
                -0.09955760650501788,
                -0.09665001968589859,
                -0.8098513271227465,
                0.4397226431475595
            ]
        },
        {
            "positions": [
                -1.2986009394806843,
                -1.988907541080261,
                -0.016827564795288463,
                -0.030654520577166444,
                -0.7752560741280501,
                0.4396182311485668
            ]
        },
        {
            "positions": [
                -1.2397922108582522,
                -1.9531193077824502,
                0.06420122532618985,
                -0.06542835833847602,
                -0.738152445316354,
                0.2916163176870429
            ]
        },
        {
            "positions": [
                -1.18098348223582,
                -1.9173310744846395,
                0.14523001544766817,
                -0.10020219609978559,
                -0.7010488165046581,
                0.14361440422551897
            ]
        },
        {
            "positions": [
                -1.122174753613388,
                -1.881542841186829,
                0.22625880556914651,
                -0.13497603386109516,
                -0.6639451876929621,
                -0.004387509236005005
            ]
        },
        {
            "positions": [
                -1.0633660249909558,
                -1.8457546078890181,
                0.3072875956906248,
                -0.16974987162240474,
                -0.626841558881266,
                -0.15238942269752886
            ]
        },
        {
            "positions": [
                -1.0045572963685236,
                -1.8099663745912073,
                0.3883163858121032,
                -0.2045237093837143,
                -0.58973793006957,
                -0.3003913361590529
            ]
        },
        {
            "positions": [
                -0.9457485677460914,
                -1.7741781412933966,
                0.4693451759335815,
                -0.23929754714502388,
                -0.552634301257874,
                -0.4483932496205768
            ]
        },
        {
            "positions": [
                -0.8869398391236591,
                -1.738389907995586,
                0.5503739660550598,
                -0.2740713849063335,
                -0.515530672446178,
                -0.5963951630821007
            ]
        },
        {
            "positions": [
                -0.8281311105012271,
                -1.7026016746977752,
                0.6314027561765381,
                -0.308845222667643,
                -0.478427043634482,
                -0.7443970765436245
            ]
        },
        {
            "positions": [
                -0.7693223818787949,
                -1.6668134413999645,
                0.7124315462980164,
                -0.3436190604289526,
                -0.441323414822786,
                -0.8923989900051486
            ]
        },
        {
            "positions": [
                -0.7105136532563627,
                -1.6310252081021537,
                0.7934603364194949,
                -0.3783928981902622,
                -0.40421978601109,
                -1.0404009034666726
            ]
        },
        {
            "positions": [
                -0.6517049246339306,
                -1.595236974804343,
                0.8744891265409731,
                -0.4131667359515717,
                -0.367116157199394,
                -1.1884028169281964
            ]
        },
        {
            "positions": [
                -0.5928961960114985,
                -1.5594487415065323,
                0.9555179166624514,
                -0.4479405737128813,
                -0.33001252838769796,
                -1.3364047303897204
            ]
        },
        {
            "positions": [
                -0.5340874673890663,
                -1.5236605082087216,
                1.0365467067839298,
                -0.48271441147419086,
                -0.29290889957600197,
                -1.4844066438512442
            ]
        },
        {
            "positions": [
                -0.47527873876663407,
                -1.4878722749109108,
                1.1175754969054081,
                -0.5174882492355005,
                -0.2558052707643059,
                -1.6324085573127682
            ]
        },
        {
            "positions": [
                -0.41647001014420204,
                -1.4520840416131,
                1.1986042870268865,
                -0.55226208699681,
                -0.21870164195260988,
                -1.7804104707742923
            ]
        },
        {
            "positions": [
                -0.3576612815217699,
                -1.4162958083152892,
                1.2796330771483646,
                -0.5870359247581196,
                -0.18159801314091395,
                -1.9284123842358158
            ]
        },
        {
            "positions": [
                -0.29885255289933765,
                -1.3805075750174787,
                1.3606618672698432,
                -0.6218097625194292,
                -0.1444943843292179,
                -2.0764142976973403
            ]
        },
        {
            "positions": [
                -0.2400438242769054,
                -1.344719341719668,
                1.4416906573913213,
                -0.6565836002807388,
                -0.10739075551752186,
                -2.224416211158864
            ]
        },
        {
            "positions": [
                -0.1812350956544735,
                -1.3089311084218571,
                1.5227194475127996,
                -0.6913574380420483,
                -0.07028712670582593,
                -2.372418124620388
            ]
        },
        {
            "positions": [
                -0.12242636703204113,
                -1.2731428751240463,
                1.6037482376342782,
                -0.7261312758033579,
                -0.03318349789412989,
                -2.520420038081912
            ]
        },
        {
            "positions": [
                -0.06361763840960899,
                -1.2373546418262356,
                1.6847770277557563,
                -0.7609051135646675,
                0.003920130917566156,
                -2.668421951543436
            ]
        },
        {
            "positions": [
                -0.004808909787176852,
                -1.201566408528425,
                1.7658058178772347,
                -0.795678951325977,
                0.04102375972926209,
                -2.8164238650049596
            ]
        },
        {
            "positions": [
                0.05399981883525529,
                -1.165778175230614,
                1.846834607998713,
                -0.8304527890872867,
                0.07812738854095824,
                -2.964425778466484
            ]
        },
        {
            "positions": [
                0.11280854745768744,
                -1.1299899419328034,
                1.9278633981201914,
                -0.8652266268485962,
                0.11523101735265415,
                -3.1124276919280076
            ]
        },
        {
            "positions": [
                0.12219988969213696,
                -1.149905376993532,
                1.9916593070075717,
                -0.8663521990012056,
                0.12929754327731288,
                -3.124832932596215
            ]
        }
    ]
}