{
    "goal": {
        "global_pose": {
            "orientation": {
                "w": -0.4816463035849501,
                "x": 0.5182115481033762,
                "y": 0.4908360881923453,
                "z": -0.5084816262002911
            },
            "position": {
                "x": -0.8240239810943604,
                "y": -0.300875300988555,
                "z": 0.16403168439865112
            }
        },
        "name": "move_to_storage_C"
    },
    "id": "RRT_move_to_storage_C_44",
    "joint_names": [
        "shoulder_pan_joint",
        "shoulder_lift_joint",
        "elbow_joint",
        "wrist_1_joint",
        "wrist_2_joint",
        "wrist_3_joint"
    ],
    "metrics": {
        "cart_traj_len": 0.5766127123501679,
        "distance_elbow_joint": 0.25871123278570907,
        "distance_shoulder_lift_joint": 0.18805927889959362,
        "distance_shoulder_pan_joint": 0.49597207925057374,
        "distance_wrist_1_joint": 0.08727581120572458,
        "distance_wrist_2_joint": 1.0622087493884131,
        "distance_wrist_3_joint": 0.0675851327126904,
        "smoothness": 0.0,
        "time": 0.019992705,
        "traj_len": 1.469629982084846,
        "weighted_distance": 1.8559275606182002
    },
    "planner": "RRT",
    "start": {
        "state": {
            "elbow_joint": 2.010868314990456,
            "shoulder_lift_joint": -1.1634956873337592,
            "shoulder_pan_joint": -2.4736205022346125,
            "wrist_1_joint": -0.8367026794202681,
            "wrist_2_joint": 0.6746043897044499,
            "wrist_3_joint": -3.1496632123970403
        }
    },
    "waypoints": [
        {
            "positions": [
                -2.4736205022346125,
                -1.1634956873337592,
                2.010868314990456,
                -0.8367026794202681,
                0.6746043897044499,
                -3.1496632123970403
            ]
        },
        {
            "positions": [
                -2.5562825154430415,
                -1.132152474183827,
                1.9677497761928375,
                -0.8221567108859806,
                0.8516391812691855,
                -3.138399023611592
            ]
        },
        {
            "positions": [
                -2.6389445286514706,
                -1.1008092610338946,
                1.9246312373952195,
                -0.8076107423516933,
                1.028673972833921,
                -3.1271348348261436
            ]
        },
        {
            "positions": [
                -2.7216065418598996,
                -1.0694660478839624,
                1.8815126985976014,
                -0.7930647738174058,
                1.2057087643986564,
                -3.115870646040695
            ]
        },
        {
            "positions": [
                -2.804268555068328,
                -1.03812283473403,
                1.838394159799983,
                -0.7785188052831183,
                1.3827435559633918,
                -3.1046064572552465
            ]
        },
        {
            "positions": [
                -2.886930568276757,
                -1.0067796215840978,
                1.7952756210023648,
                -0.763972836748831,
                1.5597783475281277,
                -3.093342268469798
            ]
        },
        {
            "positions": [
                -2.9695925814851862,
                -0.9754364084341656,
                1.7521570822047468,
                -0.7494268682145435,
                1.736813139092863,
                -3.08207807968435
            ]
        }
    ]
}