{
    "goal": {
        "global_pose": {
            "orientation": {
                "w": 0.005598929693374612,
                "x": 0.007748599140229565,
                "y": 0.7110244013736278,
                "z": -0.7031023480610252
            },
            "position": {
                "x": -0.8858502320852131,
                "y": -0.7141253447532654,
                "z": 0.3711530566215515
            }
        },
        "name": "move_to_auspresseinheit_C"
    },
    "id": "RRT_move_to_auspresseinheit_C_145",
    "joint_names": [
        "shoulder_pan_joint",
        "shoulder_lift_joint",
        "elbow_joint",
        "wrist_1_joint",
        "wrist_2_joint",
        "wrist_3_joint"
    ],
    "metrics": {
        "cart_traj_len": 0.49333938355237006,
        "distance_elbow_joint": 1.0136524398020637,
        "distance_shoulder_lift_joint": 0.33090938319996244,
        "distance_shoulder_pan_joint": 0.2552803643381205,
        "distance_wrist_1_joint": 0.7071400850287097,
        "distance_wrist_2_joint": 1.3159582240006014,
        "distance_wrist_3_joint": 0.08828629050165082,
        "smoothness": 3.2297397080004555e-16,
        "time": 0.011307162,
        "traj_len": 1.9264544601082862,
        "weighted_distance": 2.4312337766869976
    },
    "planner": "RRT",
    "start": {
        "state": {
            "elbow_joint": 1.7527959577737207,
            "shoulder_lift_joint": -0.9740617694225068,
            "shoulder_pan_joint": -2.967991417825858,
            "wrist_1_joint": -0.759517768980727,
            "wrist_2_joint": 1.7443932448377408,
            "wrist_3_joint": -3.0840537646736568
        }
    },
    "waypoints": [
        {
            "positions": [
                -2.967991417825858,
                -0.9740617694225068,
                1.7527959577737207,
                -0.759517768980727,
                1.7443932448377408,
                -3.0840537646736568
            ]
        },
        {
            "positions": [
                -2.942463381392046,
                -0.9409708311025106,
                1.6514307137935142,
                -0.688803760477856,
                1.6127974224376807,
                -3.092882393723822
            ]
        },
        {
            "positions": [
                -2.916935344958234,
                -0.9078798927825142,
                1.5500654698133078,
                -0.6180897519749851,
                1.4812016000376205,
                -3.101711022773987
            ]
        },
        {
            "positions": [
                -2.8914073085244216,
                -0.874788954462518,
                1.4487002258331017,
                -0.547375743472114,
                1.3496057776375605,
                -3.110539651824152
            ]
        },
        {
            "positions": [
                -2.8658792720906097,
                -0.8416980161425218,
                1.3473349818528952,
                -0.4766617349692431,
                1.2180099552375,
                -3.1193682808743173
            ]
        },
        {
            "positions": [
                -2.8403512356567977,
                -0.8086070778225256,
                1.2459697378726888,
                -0.4059477264663721,
                1.0864141328374401,
                -3.1281969099244824
            ]
        },
        {
            "positions": [
                -2.8148231992229857,
                -0.7755161395025293,
                1.1446044938924826,
                -0.33523371796350115,
                0.9548183104373801,
                -3.137025538974647
            ]
        },
        {
            "positions": [
                -2.7892951627891738,
                -0.7424252011825331,
                1.043239249912276,
                -0.2645197094606302,
                0.8232224880373199,
                -3.145854168024812
            ]
        },
        {
            "positions": [
                -2.7637671263553614,
                -0.7093342628625368,
                0.9418740059320697,
                -0.19380570095775917,
                0.6916266656372596,
                -3.1546827970749773
            ]
        },
        {
            "positions": [
                -2.7382390899215494,
                -0.6762433245425405,
                0.8405087619518633,
                -0.12309169245488816,
                0.5600308432371996,
                -3.1635114261251425
            ]
        },
        {
            "positions": [
                -2.7127110534877374,
                -0.6431523862225443,
                0.7391435179716569,
                -0.0523776839520172,
                0.4284350208371395,
                -3.1723400551753076
            ]
        }
    ]
}