{
    "goal": {
        "global_pose": {
            "orientation": {
                "w": 0.005598929693374612,
                "x": 0.007748599140229565,
                "y": 0.7110244013736278,
                "z": -0.7031023480610252
            },
            "position": {
                "x": -0.8858502320852131,
                "y": -0.7141253447532654,
                "z": 0.3711530566215515
            }
        },
        "name": "move_to_auspresseinheit_C"
    },
    "id": "RRT_move_to_auspresseinheit_C_88",
    "joint_names": [
        "shoulder_pan_joint",
        "shoulder_lift_joint",
        "elbow_joint",
        "wrist_1_joint",
        "wrist_2_joint",
        "wrist_3_joint"
    ],
    "metrics": {
        "cart_traj_len": 0.4927761228123587,
        "distance_elbow_joint": 1.0024699299111726,
        "distance_shoulder_lift_joint": 0.32616658957904376,
        "distance_shoulder_pan_joint": 0.2552994066795815,
        "distance_wrist_1_joint": 0.6792023988822183,
        "distance_wrist_2_joint": 1.321500472885788,
        "distance_wrist_3_joint": 0.052634440283994,
        "smoothness": 3.2297397335745243e-16,
        "time": 0.01290101,
        "traj_len": 1.9071636631977336,
        "weighted_distance": 2.3965068309015503
    },
    "planner": "RRT",
    "start": {
        "state": {
            "elbow_joint": 1.7527959577737207,
            "shoulder_lift_joint": -0.9740617694225068,
            "shoulder_pan_joint": -2.967991417825858,
            "wrist_1_joint": -0.759517768980727,
            "wrist_2_joint": 1.7443932448377408,
            "wrist_3_joint": -3.0840537646736568
        }
    },
    "waypoints": [
        {
            "positions": [
                -2.967991417825858,
                -0.9740617694225068,
                1.7527959577737207,
                -0.759517768980727,
                1.7443932448377408,
                -3.0840537646736568
            ]
        },
        {
            "positions": [
                -2.9424614771578996,
                -0.9414451104646024,
                1.6525489647826035,
                -0.6915975290925052,
                1.612243197549162,
                -3.089317208702056
            ]
        },
        {
            "positions": [
                -2.9169315364899417,
                -0.908828451506698,
                1.552301971791486,
                -0.6236772892042833,
                1.4800931502605832,
                -3.0945806527304556
            ]
        },
        {
            "positions": [
                -2.8914015958219834,
                -0.8762117925487937,
                1.452054978800369,
                -0.5557570493160615,
                1.3479431029720044,
                -3.099844096758855
            ]
        },
        {
            "positions": [
                -2.8658716551540255,
                -0.8435951335908892,
                1.3518079858092515,
                -0.48783680942783963,
                1.2157930556834255,
                -3.1051075407872544
            ]
        },
        {
            "positions": [
                -2.840341714486067,
                -0.8109784746329849,
                1.2515609928181344,
                -0.4199165695396178,
                1.083643008394847,
                -3.1103709848156536
            ]
        },
        {
            "positions": [
                -2.814811773818109,
                -0.7783618156750806,
                1.1513139998270172,
                -0.351996329651396,
                0.951492961106268,
                -3.115634428844053
            ]
        },
        {
            "positions": [
                -2.789281833150151,
                -0.7457451567171761,
                1.0510670068359,
                -0.28407608976317417,
                0.8193429138176893,
                -3.120897872872453
            ]
        },
        {
            "positions": [
                -2.7637518924821927,
                -0.7131284977592718,
                0.9508200138447825,
                -0.2161558498749523,
                0.6871928665291105,
                -3.126161316900852
            ]
        },
        {
            "positions": [
                -2.7382219518142348,
                -0.6805118388013673,
                0.8505730208536654,
                -0.14823560998673047,
                0.5550428192405317,
                -3.131424760929251
            ]
        },
        {
            "positions": [
                -2.7126920111462764,
                -0.647895179843463,
                0.7503260278625482,
                -0.08031537009850866,
                0.4228927719519529,
                -3.1366882049576508
            ]
        }
    ]
}