{
    "goal": {
        "global_pose": {
            "orientation": {
                "w": -0.00223480608172531,
                "x": 0.0024358444001904467,
                "y": 0.7094548369677653,
                "z": -0.704743149386269
            },
            "position": {
                "x": 0.6205249238014221,
                "y": -0.6371506643295288,
                "z": 0.19426114857196808
            }
        },
        "name": "move_to_magneteinheit_B"
    },
    "id": "RRT_move_to_magneteinheit_B_127",
    "joint_names": [
        "shoulder_pan_joint",
        "shoulder_lift_joint",
        "elbow_joint",
        "wrist_1_joint",
        "wrist_2_joint",
        "wrist_3_joint"
    ],
    "metrics": {
        "cart_traj_len": 5.726657296358335,
        "distance_elbow_joint": 3.5539452407277015,
        "distance_shoulder_lift_joint": 2.0546762003043755,
        "distance_shoulder_pan_joint": 6.546078628764823,
        "distance_wrist_1_joint": 7.334841022374428,
        "distance_wrist_2_joint": 4.808900110271959,
        "distance_wrist_3_joint": 3.4410069224741093,
        "smoothness": 0.595722406308176,
        "time": 1.185141379,
        "traj_len": 5.266825241539482,
        "weighted_distance": 6.8385088361800035
    },
    "planner": "RRT",
    "start": {
        "state": {
            "elbow_joint": 2.6216224122426386,
            "shoulder_lift_joint": -1.4174107377796124,
            "shoulder_pan_joint": 0.7066234856936794,
            "wrist_1_joint": 1.9546482284002225,
            "wrist_2_joint": -0.7096286983471962,
            "wrist_3_joint": 0.005740856962016249
        }
    },
    "waypoints": [
        {
            "positions": [
                0.7066234856936794,
                -1.4174107377796124,
                2.6216224122426386,
                1.9546482284002225,
                -0.7096286983471962,
                0.005740856962016249
            ]
        },
        {
            "positions": [
                0.6009856995403613,
                -1.4281542013893034,
                2.6479953789375106,
                2.0373636702792637,
                -0.6187895565187214,
                -0.038541818734080704
            ]
        },
        {
            "positions": [
                0.49534791338704326,
                -1.4388976649989944,
                2.674368345632382,
                2.1200791121583045,
                -0.5279504146902465,
                -0.08282449443017766
            ]
        },
        {
            "positions": [
                0.3897101272337252,
                -1.4496411286086854,
                2.7007413123272537,
                2.2027945540373457,
                -0.43711127286177154,
                -0.1271071701262746
            ]
        },
        {
            "positions": [
                0.28407234108040713,
                -1.4603845922183765,
                2.7271142790221257,
                2.285509995916387,
                -0.3462721310332967,
                -0.17138984582237154
            ]
        },
        {
            "positions": [
                0.22155195486763302,
                -1.4820131018098648,
                2.6513265362482783,
                2.3301595223233753,
                -0.3087902094718288,
                -0.3121614119269879
            ]
        },
        {
            "positions": [
                0.1590315686548589,
                -1.5036416114013533,
                2.5755387934744305,
                2.3748090487303637,
                -0.2713082879103609,
                -0.4529329780316042
            ]
        },
        {
            "positions": [
                0.09651118244208481,
                -1.5252701209928416,
                2.499751050700583,
                2.4194585751373516,
                -0.23382636634889292,
                -0.5937045441362205
            ]
        },
        {
            "positions": [
                0.03399079622931067,
                -1.54689863058433,
                2.4239633079267358,
                2.46410810154434,
                -0.19634444478742502,
                -0.7344761102408368
            ]
        },
        {
            "positions": [
                -0.028529589983463444,
                -1.5685271401758185,
                2.3481755651528884,
                2.5087576279513284,
                -0.1588625232259571,
                -0.8752476763454531
            ]
        },
        {
            "positions": [
                -0.0910499761962375,
                -1.5901556497673068,
                2.2723878223790406,
                2.5534071543583168,
                -0.12138060166448919,
                -1.0160192424500694
            ]
        },
        {
            "positions": [
                -0.15357036240901167,
                -1.6117841593587952,
                2.196600079605193,
                2.598056680765305,
                -0.08389868010302126,
                -1.1567908085546856
            ]
        },
        {
            "positions": [
                -0.2160907486217858,
                -1.6334126689502837,
                2.120812336831346,
                2.6427062071722935,
                -0.04641675854155336,
                -1.2975623746593021
            ]
        },
        {
            "positions": [
                -0.2786111348345599,
                -1.655041178541772,
                2.045024594057498,
                2.6873557335792815,
                -0.008934836980085403,
                -1.4383339407639184
            ]
        },
        {
            "positions": [
                -0.341131521047334,
                -1.6766696881332606,
                1.9692368512836507,
                2.73200525998627,
                0.028547084581382498,
                -1.5791055068685347
            ]
        },
        {
            "positions": [
                -0.40365190726010813,
                -1.6982981977247489,
                1.893449108509803,
                2.7766547863932582,
                0.0660290061428504,
                -1.719877072973151
            ]
        },
        {
            "positions": [
                -0.31245202888332724,
                -1.7119197574089997,
                1.8407952187098602,
                2.6441816339364697,
                0.0982026384838248,
                -1.6600305684755707
            ]
        },
        {
            "positions": [
                -0.22125215050654634,
                -1.7255413170932505,
                1.7881413289099173,
                2.5117084814796806,
                0.1303762708247992,
                -1.6001840639779905
            ]
        },
        {
            "positions": [
                -0.13005227212976544,
                -1.7391628767775014,
                1.7354874391099744,
                2.379235329022892,
                0.16254990316577356,
                -1.5403375594804103
            ]
        },
        {
            "positions": [
                -0.03885239375298455,
                -1.7527844364617522,
                1.6828335493100315,
                2.2467621765661034,
                0.19472353550674795,
                -1.48049105498283
            ]
        },
        {
            "positions": [
                0.05234748462379635,
                -1.766405996146003,
                1.6301796595100886,
                2.114289024109315,
                0.22689716784772232,
                -1.4206445504852498
            ]
        },
        {
            "positions": [
                0.14354736300057724,
                -1.7800275558302538,
                1.5775257697101457,
                1.981815871652526,
                0.2590708001886967,
                -1.3607980459876696
            ]
        },
        {
            "positions": [
                0.23474724137735814,
                -1.7936491155145047,
                1.5248718799102028,
                1.8493427191957372,
                0.29124443252967114,
                -1.3009515414900894
            ]
        },
        {
            "positions": [
                0.32594711975413904,
                -1.8072706751987555,
                1.47221799011026,
                1.7168695667389486,
                0.3234180648706455,
                -1.2411050369925092
            ]
        },
        {
            "positions": [
                0.41714699813091993,
                -1.8208922348830063,
                1.4195641003103172,
                1.58439641428216,
                0.3555916972116199,
                -1.1812585324949292
            ]
        },
        {
            "positions": [
                0.5083468765077008,
                -1.8345137945672572,
                1.3669102105103743,
                1.4519232618253712,
                0.38776532955259424,
                -1.1214120279973487
            ]
        },
        {
            "positions": [
                0.5995467548844817,
                -1.848135354251508,
                1.3142563207104314,
                1.3194501093685826,
                0.41993896189356866,
                -1.0615655234997687
            ]
        },
        {
            "positions": [
                0.6907466332612626,
                -1.8617569139357588,
                1.2616024309104885,
                1.1869769569117938,
                0.45211259423454303,
                -1.0017190190021883
            ]
        },
        {
            "positions": [
                0.7819465116380435,
                -1.8753784736200096,
                1.2089485411105456,
                1.0545038044550052,
                0.4842862265755174,
                -0.9418725145046082
            ]
        },
        {
            "positions": [
                0.8731463900148244,
                -1.8890000333042605,
                1.1562946513106027,
                0.9220306519982164,
                0.5164598589164918,
                -0.882026010007028
            ]
        },
        {
            "positions": [
                0.9643462683916055,
                -1.9026215929885115,
                1.1036407615106598,
                0.7895574995414276,
                0.5486334912574662,
                -0.8221795055094477
            ]
        },
        {
            "positions": [
                1.0555461467683862,
                -1.9162431526727621,
                1.050986871710717,
                0.657084347084639,
                0.5808071235984407,
                -0.7623330010118676
            ]
        },
        {
            "positions": [
                1.1467460251451673,
                -1.9298647123570132,
                0.9983329819107739,
                0.52461119462785,
                0.6129807559394149,
                -0.7024864965142872
            ]
        },
        {
            "positions": [
                1.237945903521948,
                -1.943486272041264,
                0.9456790921108311,
                0.39213804217106185,
                0.6451543882803894,
                -0.6426399920167072
            ]
        },
        {
            "positions": [
                1.3291457818987291,
                -1.9571078317255148,
                0.8930252023108882,
                0.2596648897142728,
                0.6773280206213639,
                -0.582793487519127
            ]
        },
        {
            "positions": [
                1.4203456602755098,
                -1.9707293914097657,
                0.8403713125109453,
                0.12719173725748423,
                0.7095016529623381,
                -0.5229469830215467
            ]
        },
        {
            "positions": [
                1.511545538652291,
                -1.9843509510940165,
                0.7877174227110024,
                -0.005281415199304806,
                0.7416752853033126,
                -0.4631004785239665
            ]
        },
        {
            "positions": [
                1.6027454170290716,
                -1.9979725107782673,
                0.7350635329110595,
                -0.13775456765609295,
                0.7738489176442869,
                -0.4032539740263863
            ]
        },
        {
            "positions": [
                1.6939452954058527,
                -2.011594070462518,
                0.6824096431111166,
                -0.270227720112882,
                0.8060225499852613,
                -0.3434074695288061
            ]
        },
        {
            "positions": [
                1.7851451737826334,
                -2.0252156301467688,
                0.6297557533111737,
                -0.4027008725696706,
                0.8381961823262356,
                -0.28356096503122585
            ]
        },
        {
            "positions": [
                1.8763450521594145,
                -2.03883718983102,
                0.5771018635112308,
                -0.5351740250264596,
                0.8703698146672101,
                -0.22371446053364563
            ]
        },
        {
            "positions": [
                1.9675449305361952,
                -2.0524587495152704,
                0.5244479737112879,
                -0.6676471774832478,
                0.9025434470081843,
                -0.1638679560360654
            ]
        },
        {
            "positions": [
                2.0587448089129765,
                -2.0660803091995215,
                0.47179408391134503,
                -0.8001203299400368,
                0.9347170793491588,
                -0.10402145153848519
            ]
        },
        {
            "positions": [
                1.9596312582583784,
                -2.0192134215700395,
                0.5115651898725929,
                -0.7022516850051004,
                0.8292319349299719,
                -0.10070367250167582
            ]
        },
        {
            "positions": [
                1.8605177076037802,
                -1.972346533940557,
                0.5513362958338408,
                -0.604383040070164,
                0.723746790510785,
                -0.09738589346486644
            ]
        },
        {
            "positions": [
                1.761404156949182,
                -1.9254796463110748,
                0.5911074017950887,
                -0.5065143951352274,
                0.6182616460915982,
                -0.09406811442805707
            ]
        },
        {
            "positions": [
                1.662290606294584,
                -1.8786127586815926,
                0.6308785077563366,
                -0.40864575020029104,
                0.5127765016724113,
                -0.09075033539124769
            ]
        },
        {
            "positions": [
                1.563177055639986,
                -1.8317458710521104,
                0.6706496137175844,
                -0.3107771052653546,
                0.4072913572532244,
                -0.08743255635443832
            ]
        },
        {
            "positions": [
                1.4640635049853876,
                -1.7848789834226282,
                0.7104207196788324,
                -0.2129084603304181,
                0.3018062128340374,
                -0.08411477731762894
            ]
        },
        {
            "positions": [
                1.3649499543307897,
                -1.7380120957931462,
                0.7501918256400801,
                -0.11503981539548169,
                0.19632106841485053,
                -0.08079699828081957
            ]
        },
        {
            "positions": [
                1.2658364036761915,
                -1.6911452081636638,
                0.7899629316013281,
                -0.017171170460545282,
                0.09083592399566365,
                -0.07747921924401019
            ]
        },
        {
            "positions": [
                1.1667228530215934,
                -1.6442783205341818,
                0.8297340375625759,
                0.08069747447439113,
                -0.014649220423523235,
                -0.07416144020720082
            ]
        },
        {
            "positions": [
                1.0676093023669955,
                -1.5974114329046996,
                0.8695051435238238,
                0.17856611940932754,
                -0.12013436484271,
                -0.07084366117039145
            ]
        },
        {
            "positions": [
                0.9684957517123973,
                -1.5505445452752173,
                0.9092762494850717,
                0.27643476434426395,
                -0.2256195092618969,
                -0.06752588213358207
            ]
        },
        {
            "positions": [
                0.869382201057799,
                -1.503677657645735,
                0.9490473554463197,
                0.3743034092792006,
                -0.331104653681084,
                -0.06420810309677269
            ]
        },
        {
            "positions": [
                0.770268650403201,
                -1.456810770016253,
                0.9888184614075675,
                0.472172054214137,
                -0.4365897981002709,
                -0.06089032405996332
            ]
        },
        {
            "positions": [
                0.6711550997486029,
                -1.4099438823867707,
                1.0285895673688152,
                0.5700406991490734,
                -0.5420749425194578,
                -0.05757254502315395
            ]
        },
        {
            "positions": [
                0.5720415490940047,
                -1.3630769947572885,
                1.0683606733300632,
                0.6679093440840098,
                -0.6475600869386446,
                -0.05425476598634457
            ]
        },
        {
            "positions": [
                0.4729279984394066,
                -1.3162101071278063,
                1.1081317792913112,
                0.7657779890189462,
                -0.7530452313578315,
                -0.0509369869495352
            ]
        },
        {
            "positions": [
                0.37381444778480843,
                -1.269343219498324,
                1.147902885252559,
                0.8636466339538826,
                -0.8585303757770184,
                -0.04761920791272582
            ]
        },
        {
            "positions": [
                0.2747008971302105,
                -1.222476331868842,
                1.1876739912138068,
                0.961515278888819,
                -0.9640155201962053,
                -0.044301428875916454
            ]
        },
        {
            "positions": [
                0.17558734647561236,
                -1.1756094442393596,
                1.2274450971750546,
                1.0593839238237555,
                -1.0695006646153922,
                -0.04098364983910707
            ]
        },
        {
            "positions": [
                0.07647379582101421,
                -1.1287425566098777,
                1.2672162031363026,
                1.1572525687586919,
                -1.1749858090345788,
                -0.037665870802297705
            ]
        },
        {
            "positions": [
                -0.022639754833583936,
                -1.0818756689803952,
                1.3069873090975506,
                1.2551212136936285,
                -1.280470953453766,
                -0.03434809176548834
            ]
        },
        {
            "positions": [
                -0.12175330548818186,
                -1.0350087813509132,
                1.3467584150587983,
                1.3529898586285647,
                -1.3859560978729526,
                -0.031030312728678955
            ]
        },
        {
            "positions": [
                -0.22086685614278023,
                -0.9881418937214308,
                1.3865295210200463,
                1.4508585035635013,
                -1.4914412422921401,
                -0.027712533691869573
            ]
        },
        {
            "positions": [
                -0.3199804067973786,
                -0.9412750060919486,
                1.4263006269812943,
                1.548727148498438,
                -1.5969263867113268,
                -0.02439475465506019
            ]
        },
        {
            "positions": [
                -0.41909395745197653,
                -0.8944081184624664,
                1.4660717329425421,
                1.6465957934333741,
                -1.702411531130514,
                -0.021076975618250823
            ]
        },
        {
            "positions": [
                -0.5182075081065745,
                -0.8475412308329844,
                1.50584283890379,
                1.7444644383683108,
                -1.8078966755497006,
                -0.017759196581441455
            ]
        },
        {
            "positions": [
                -0.6173210587611728,
                -0.8006743432035022,
                1.545613944865038,
                1.842333083303247,
                -1.9133818199688877,
                -0.014441417544632074
            ]
        },
        {
            "positions": [
                -0.7164346094157708,
                -0.75380745557402,
                1.5853850508262857,
                1.9402017282381836,
                -2.0188669643880743,
                -0.011123638507822706
            ]
        },
        {
            "positions": [
                -0.8155481600703691,
                -0.7069405679445377,
                1.6251561567875337,
                2.03807037317312,
                -2.1243521088072614,
                -0.007805859471013324
            ]
        },
        {
            "positions": [
                -0.914661710724967,
                -0.6600736803150554,
                1.6649272627487814,
                2.1359390181080564,
                -2.229837253226448,
                -0.004488080434203957
            ]
        }
    ]
}