{
    "goal": {
        "global_pose": {
            "orientation": {
                "w": -0.4816463035849501,
                "x": 0.5182115481033762,
                "y": 0.4908360881923453,
                "z": -0.5084816262002911
            },
            "position": {
                "x": -0.8240239810943604,
                "y": -0.300875300988555,
                "z": 0.16403168439865112
            }
        },
        "name": "move_to_storage_C"
    },
    "id": "RRT_move_to_storage_C_70",
    "joint_names": [
        "shoulder_pan_joint",
        "shoulder_lift_joint",
        "elbow_joint",
        "wrist_1_joint",
        "wrist_2_joint",
        "wrist_3_joint"
    ],
    "metrics": {
        "cart_traj_len": 0.5769256076671168,
        "distance_elbow_joint": 0.2574832543907595,
        "distance_shoulder_lift_joint": 0.18866914782700228,
        "distance_shoulder_pan_joint": 0.49425890211685086,
        "distance_wrist_1_joint": 0.07279421161127642,
        "distance_wrist_2_joint": 1.07235149374986,
        "distance_wrist_3_joint": 0.0650979234227993,
        "smoothness": 0.0,
        "time": 0.010960454,
        "traj_len": 1.4665111431961737,
        "weighted_distance": 1.850944754800986
    },
    "planner": "RRT",
    "start": {
        "state": {
            "elbow_joint": 2.010868314990456,
            "shoulder_lift_joint": -1.1634956873337592,
            "shoulder_pan_joint": -2.4736205022346125,
            "wrist_1_joint": -0.8367026794202681,
            "wrist_2_joint": 0.6746043897044499,
            "wrist_3_joint": -3.1496632123970403
        }
    },
    "waypoints": [
        {
            "positions": [
                -2.4736205022346125,
                -1.1634956873337592,
                2.010868314990456,
                -0.8367026794202681,
                0.6746043897044499,
                -3.1496632123970403
            ]
        },
        {
            "positions": [
                -2.5559969859207543,
                -1.1320508293625922,
                1.9679544392586625,
                -0.8245703108183887,
                0.8533296386627599,
                -3.1388135584932404
            ]
        },
        {
            "positions": [
                -2.638373469606896,
                -1.1006059713914251,
                1.9250405635268693,
                -0.8124379422165093,
                1.03205488762107,
                -3.1279639045894405
            ]
        },
        {
            "positions": [
                -2.720749953293038,
                -1.069161113420258,
                1.882126687795076,
                -0.8003055736146298,
                1.21078013657938,
                -3.1171142506856406
            ]
        },
        {
            "positions": [
                -2.8031264369791797,
                -1.037716255449091,
                1.839212812063283,
                -0.7881732050127505,
                1.38950538553769,
                -3.1062645967818407
            ]
        },
        {
            "positions": [
                -2.8855029206653215,
                -1.0062713974779238,
                1.7962989363314896,
                -0.7760408364108711,
                1.568230634496,
                -3.095414942878041
            ]
        },
        {
            "positions": [
                -2.9678794043514634,
                -0.9748265395067569,
                1.7533850605996963,
                -0.7639084678089917,
                1.7469558834543097,
                -3.084565288974241
            ]
        }
    ]
}