{
    "goal": {
        "global_pose": {
            "orientation": {
                "w": 0.005598929693374612,
                "x": 0.007748599140229565,
                "y": 0.7110244013736278,
                "z": -0.7031023480610252
            },
            "position": {
                "x": 0.1141497679147869,
                "y": -0.7141253447532654,
                "z": 0.3711530566215515
            }
        },
        "name": "move_to_auspresseinheit_B"
    },
    "id": "RRT_move_to_auspresseinheit_B_20",
    "joint_names": [
        "shoulder_pan_joint",
        "shoulder_lift_joint",
        "elbow_joint",
        "wrist_1_joint",
        "wrist_2_joint",
        "wrist_3_joint"
    ],
    "metrics": {
        "cart_traj_len": 0.5641587705309961,
        "distance_elbow_joint": 0.06245364056266545,
        "distance_shoulder_lift_joint": 0.2945614039431179,
        "distance_shoulder_pan_joint": 0.5773883254137708,
        "distance_wrist_1_joint": 0.3287464521213018,
        "distance_wrist_2_joint": 0.989965554895953,
        "distance_wrist_3_joint": 0.0007386338167698625,
        "smoothness": 2.5376526478085547e-16,
        "time": 0.011274833000000001,
        "traj_len": 1.501284120595958,
        "weighted_distance": 1.8905140267674223
    },
    "planner": "RRT",
    "start": {
        "state": {
            "elbow_joint": 2.0193083361928714,
            "shoulder_lift_joint": -1.1220246554650708,
            "shoulder_pan_joint": -1.0952077554168747,
            "wrist_1_joint": -0.8559753972642168,
            "wrist_2_joint": 0.4759566250798843,
            "wrist_3_joint": -3.1240929996934557
        }
    },
    "waypoints": [
        {
            "positions": [
                -1.0952077554168747,
                -1.1220246554650708,
                2.0193083361928714,
                -0.8559753972642168,
                0.4759566250798843,
                -3.1240929996934557
            ]
        },
        {
            "positions": [
                -1.1914391429858364,
                -1.1711182227889239,
                2.008899396099094,
                -0.8011843219106665,
                0.6409508842292098,
                -3.1239698940573275
            ]
        },
        {
            "positions": [
                -1.2876705305547982,
                -1.2202117901127767,
                1.9984904560053163,
                -0.7463932465571161,
                0.8059451433785352,
                -3.123846788421199
            ]
        },
        {
            "positions": [
                -1.38390191812376,
                -1.2693053574366298,
                1.9880815159115386,
                -0.6916021712035658,
                0.9709394025278608,
                -3.1237236827850707
            ]
        },
        {
            "positions": [
                -1.4801333056927217,
                -1.3183989247604828,
                1.9776725758177611,
                -0.6368110958500156,
                1.1359336616771862,
                -3.1236005771489426
            ]
        },
        {
            "positions": [
                -1.5763646932616837,
                -1.3674924920843357,
                1.9672636357239837,
                -0.5820200204964652,
                1.3009279208265119,
                -3.123477471512814
            ]
        },
        {
            "positions": [
                -1.6725960808306455,
                -1.4165860594081887,
                1.956854695630206,
                -0.527228945142915,
                1.4659221799758373,
                -3.123354365876686
            ]
        }
    ]
}