{
    "goal": {
        "global_pose": {
            "orientation": {
                "w": 0.005598929693374612,
                "x": 0.007748599140229565,
                "y": 0.7110244013736278,
                "z": -0.7031023480610252
            },
            "position": {
                "x": 0.1141497679147869,
                "y": -0.7141253447532654,
                "z": 0.3711530566215515
            }
        },
        "name": "move_to_auspresseinheit_B"
    },
    "id": "RRT_move_to_auspresseinheit_B_22",
    "joint_names": [
        "shoulder_pan_joint",
        "shoulder_lift_joint",
        "elbow_joint",
        "wrist_1_joint",
        "wrist_2_joint",
        "wrist_3_joint"
    ],
    "metrics": {
        "cart_traj_len": 0.5651853104714291,
        "distance_elbow_joint": 0.06377444591903503,
        "distance_shoulder_lift_joint": 0.29527757518011777,
        "distance_shoulder_pan_joint": 0.5766822860436898,
        "distance_wrist_1_joint": 0.3316013143387765,
        "distance_wrist_2_joint": 0.9989908788321764,
        "distance_wrist_3_joint": 0.006646493682969101,
        "smoothness": 5.075305295617109e-16,
        "time": 0.01855468,
        "traj_len": 1.5076382172115315,
        "weighted_distance": 1.9018039264166156
    },
    "planner": "RRT",
    "start": {
        "state": {
            "elbow_joint": 2.0193083361928714,
            "shoulder_lift_joint": -1.1220246554650708,
            "shoulder_pan_joint": -1.0952077554168747,
            "wrist_1_joint": -0.8559753972642168,
            "wrist_2_joint": 0.4759566250798843,
            "wrist_3_joint": -3.1240929996934557
        }
    },
    "waypoints": [
        {
            "positions": [
                -1.0952077554168747,
                -1.1220246554650708,
                2.0193083361928714,
                -0.8559753972642168,
                0.4759566250798843,
                -3.1240929996934557
            ]
        },
        {
            "positions": [
                -1.1913214697574896,
                -1.171237584661757,
                2.0086792618730325,
                -0.8007085115410874,
                0.642455104885247,
                -3.1229852507462943
            ]
        },
        {
            "positions": [
                -1.2874351840981046,
                -1.2204505138584434,
                1.998050187553193,
                -0.7454416258179579,
                0.8089535846906097,
                -3.1218775017991325
            ]
        },
        {
            "positions": [
                -1.3835488984387196,
                -1.2696634430551297,
                1.987421113233354,
                -0.6901747400948286,
                0.9754520644959725,
                -3.120769752851971
            ]
        },
        {
            "positions": [
                -1.4796626127793344,
                -1.318876372251816,
                1.9767920389135147,
                -0.6349078543716992,
                1.1419505443013351,
                -3.1196620039048097
            ]
        },
        {
            "positions": [
                -1.5757763271199494,
                -1.3680893014485023,
                1.9661629645936756,
                -0.5796409686485697,
                1.308449024106698,
                -3.118554254957648
            ]
        },
        {
            "positions": [
                -1.6718900414605644,
                -1.4173022306451886,
                1.9555338902738364,
                -0.5243740829254403,
                1.4749475039120608,
                -3.1174465060104866
            ]
        }
    ]
}