{
    "goal": {
        "global_pose": {
            "orientation": {
                "w": -0.4816463035849501,
                "x": 0.5182115481033762,
                "y": 0.4908360881923453,
                "z": -0.5084816262002911
            },
            "position": {
                "x": -0.8240239810943604,
                "y": 0.19912469901144506,
                "z": 0.16403168439865112
            }
        },
        "name": "move_to_storage_D"
    },
    "id": "RRT_move_to_storage_D_118",
    "joint_names": [
        "shoulder_pan_joint",
        "shoulder_lift_joint",
        "elbow_joint",
        "wrist_1_joint",
        "wrist_2_joint",
        "wrist_3_joint"
    ],
    "metrics": {
        "cart_traj_len": 3.719316659473869,
        "distance_elbow_joint": 4.210171149882039,
        "distance_shoulder_lift_joint": 1.3587986363491045,
        "distance_shoulder_pan_joint": 2.812985277707262,
        "distance_wrist_1_joint": 2.2975422950020725,
        "distance_wrist_2_joint": 1.105789005151507,
        "distance_wrist_3_joint": 3.1381101972189764,
        "smoothness": 0.019316140695706127,
        "time": 0.072768155,
        "traj_len": 3.8630812263413477,
        "weighted_distance": 4.96013591103132
    },
    "planner": "RRT",
    "start": {
        "state": {
            "elbow_joint": -2.384821988534728,
            "shoulder_lift_joint": -2.2788054721415256,
            "shoulder_pan_joint": -0.1854694642142757,
            "wrist_1_joint": 1.4845938289331202,
            "wrist_2_joint": 0.17898776772866878,
            "wrist_3_joint": 0.037105688729662994
        }
    },
    "waypoints": [
        {
            "positions": [
                -0.1854694642142757,
                -2.2788054721415256,
                -2.384821988534728,
                1.4845938289331202,
                0.17898776772866878,
                0.037105688729662994
            ]
        },
        {
            "positions": [
                -0.07187149397465578,
                -2.216369939898674,
                -2.2977679440743084,
                1.3759290442072434,
                0.17349829727374963,
                0.021660140702945693
            ]
        },
        {
            "positions": [
                0.041726476264964146,
                -2.1539344076558224,
                -2.210713899613889,
                1.2672642594813666,
                0.16800882681883045,
                0.006214592676228391
            ]
        },
        {
            "positions": [
                0.15532444650458407,
                -2.0914988754129706,
                -2.123659855153469,
                1.1585994747554895,
                0.1625193563639113,
                -0.009230955350488908
            ]
        },
        {
            "positions": [
                0.26892241674420403,
                -2.0290633431701193,
                -2.0366058106930494,
                1.0499346900296127,
                0.15702988590899214,
                -0.024676503377206213
            ]
        },
        {
            "positions": [
                0.38252038698382396,
                -1.9666278109272675,
                -1.9495517662326298,
                0.9412699053037358,
                0.15154041545407299,
                -0.04012205140392351
            ]
        },
        {
            "positions": [
                0.4961183572234439,
                -1.904192278684416,
                -1.8624977217722103,
                0.832605120577859,
                0.1460509449991538,
                -0.05556759943064081
            ]
        },
        {
            "positions": [
                0.6097163274630638,
                -1.8417567464415643,
                -1.7754436773117908,
                0.723940335851982,
                0.14056147454423465,
                -0.07101314745735812
            ]
        },
        {
            "positions": [
                0.7233142977026837,
                -1.7793212141987127,
                -1.6883896328513712,
                0.6152755511261052,
                0.13507200408931547,
                -0.08645869548407542
            ]
        },
        {
            "positions": [
                0.8369122679423037,
                -1.716885681955861,
                -1.6013355883909515,
                0.5066107664002283,
                0.1295825336343963,
                -0.10190424351079272
            ]
        },
        {
            "positions": [
                0.9505102381819236,
                -1.6544501497130095,
                -1.514281543930532,
                0.39794598167435136,
                0.12409306317947716,
                -0.11734979153751002
            ]
        },
        {
            "positions": [
                1.0641082084215436,
                -1.592014617470158,
                -1.4272274994701122,
                0.28928119694847454,
                0.11860359272455799,
                -0.13279533956422734
            ]
        },
        {
            "positions": [
                1.1777061786611633,
                -1.5295790852273063,
                -1.3401734550096926,
                0.18061641222259772,
                0.11311412226963884,
                -0.14824088759094461
            ]
        },
        {
            "positions": [
                1.2913041489007835,
                -1.4671435529844548,
                -1.253119410549273,
                0.07195162749672068,
                0.10762465181471967,
                -0.16368643561766194
            ]
        },
        {
            "positions": [
                1.4049021191404032,
                -1.4047080207416032,
                -1.1660653660888536,
                -0.036713157229156135,
                0.10213518135980051,
                -0.17913198364437924
            ]
        },
        {
            "positions": [
                1.5185000893800233,
                -1.3422724884987516,
                -1.0790113216284338,
                -0.14537794195503295,
                0.09664571090488135,
                -0.19457753167109654
            ]
        },
        {
            "positions": [
                1.632098059619643,
                -1.2798369562558998,
                -0.9919572771680143,
                -0.25404272668090977,
                0.09115624044996218,
                -0.21002307969781384
            ]
        },
        {
            "positions": [
                1.7456960298592632,
                -1.2174014240130482,
                -0.9049032327075945,
                -0.3627075114067868,
                0.08566676999504301,
                -0.22546862772453116
            ]
        },
        {
            "positions": [
                1.859294000098883,
                -1.1549658917701968,
                -0.817849188247175,
                -0.4713722961326636,
                0.08017729954012386,
                -0.24091417575124843
            ]
        },
        {
            "positions": [
                1.972891970338503,
                -1.092530359527345,
                -0.7307951437867555,
                -0.5800370808585407,
                0.07468782908520469,
                -0.2563597237779658
            ]
        },
        {
            "positions": [
                2.0864899405781228,
                -1.0300948272844934,
                -0.6437410993263359,
                -0.6887018655844175,
                0.06919835863028553,
                -0.27180527180468306
            ]
        },
        {
            "positions": [
                2.200087910817743,
                -0.9676592950416418,
                -0.5566870548659162,
                -0.7973666503102943,
                0.06370888817536637,
                -0.28725081983140033
            ]
        },
        {
            "positions": [
                2.225230728622169,
                -0.9704623808798313,
                -0.4165672774416086,
                -0.7964500729127261,
                0.1219741896811431,
                -0.4527657426936305
            ]
        },
        {
            "positions": [
                2.2503735464265953,
                -0.9732654667180207,
                -0.276447500017301,
                -0.7955334955151577,
                0.18023949118691984,
                -0.6182806655558607
            ]
        },
        {
            "positions": [
                2.275516364231021,
                -0.9760685525562101,
                -0.13632772259299342,
                -0.7946169181175895,
                0.2385047926926966,
                -0.7837955884180909
            ]
        },
        {
            "positions": [
                2.300659182035447,
                -0.9788716383943995,
                0.0037920548313141733,
                -0.7937003407200213,
                0.2967700941984733,
                -0.9493105112803211
            ]
        },
        {
            "positions": [
                2.3258019998398733,
                -0.981674724232589,
                0.14391183225562176,
                -0.7927837633224529,
                0.35503539570425,
                -1.1148254341425514
            ]
        },
        {
            "positions": [
                2.3509448176442995,
                -0.9844778100707784,
                0.28403160967992935,
                -0.7918671859248847,
                0.41330069721002677,
                -1.2803403570047815
            ]
        },
        {
            "positions": [
                2.3760876354487253,
                -0.9872808959089678,
                0.42415138710423683,
                -0.7909506085273165,
                0.47156599871580346,
                -1.4458552798670115
            ]
        },
        {
            "positions": [
                2.4012304532531514,
                -0.9900839817471573,
                0.5642711645285445,
                -0.7900340311297481,
                0.5298313002215802,
                -1.6113702027292418
            ]
        },
        {
            "positions": [
                2.4263732710575776,
                -0.9928870675853466,
                0.704390941952852,
                -0.7891174537321799,
                0.5880966017273569,
                -1.776885125591472
            ]
        },
        {
            "positions": [
                2.451516088862004,
                -0.9956901534235361,
                0.8445107193771597,
                -0.7882008763346116,
                0.6463619032331337,
                -1.9424000484537023
            ]
        },
        {
            "positions": [
                2.4766589066664295,
                -0.9984932392617255,
                0.9846304968014674,
                -0.7872842989370433,
                0.7046272047389104,
                -2.1079149713159326
            ]
        },
        {
            "positions": [
                2.5018017244708557,
                -1.001296325099915,
                1.124750274225775,
                -0.7863677215394751,
                0.7628925062446872,
                -2.2734298941781628
            ]
        },
        {
            "positions": [
                2.526944542275282,
                -1.0040994109381043,
                1.2648700516500824,
                -0.7854511441419068,
                0.8211578077504638,
                -2.4389448170403925
            ]
        },
        {
            "positions": [
                2.552087360079708,
                -1.0069024967762938,
                1.4049898290743899,
                -0.7845345667443385,
                0.8794231092562406,
                -2.6044597399026226
            ]
        },
        {
            "positions": [
                2.577230177884134,
                -1.0097055826144832,
                1.5451096064986973,
                -0.7836179893467703,
                0.9376884107620173,
                -2.769974662764853
            ]
        },
        {
            "positions": [
                2.60237299568856,
                -1.0125086684526727,
                1.6852293839230053,
                -0.782701411949202,
                0.9959537122677941,
                -2.9354895856270833
            ]
        },
        {
            "positions": [
                2.627515813492986,
                -1.015311754290862,
                1.8253491613473127,
                -0.7817848345516337,
                1.0542190137735707,
                -3.1010045084893134
            ]
        }
    ]
}