{
    "goal": {
        "global_pose": {
            "orientation": {
                "w": 0.7047431468963623,
                "x": -0.7094548344612122,
                "y": 0.0024358443915843964,
                "z": -0.0022348060738295317
            },
            "position": {
                "x": 0.6094750761985779,
                "y": 0.3671506643295288,
                "z": 0.19426114857196808
            }
        },
        "name": "move_to_magneteinheit_A"
    },
    "id": "RRT_move_to_magneteinheit_A_44",
    "joint_names": [
        "shoulder_pan_joint",
        "shoulder_lift_joint",
        "elbow_joint",
        "wrist_1_joint",
        "wrist_2_joint",
        "wrist_3_joint"
    ],
    "metrics": {
        "cart_traj_len": 4.207976931568357,
        "distance_elbow_joint": 3.915146493881681,
        "distance_shoulder_lift_joint": 0.4668609880716563,
        "distance_shoulder_pan_joint": 4.121569318278944,
        "distance_wrist_1_joint": 3.483054110029407,
        "distance_wrist_2_joint": 2.8101939779128497,
        "distance_wrist_3_joint": 0.9813611718257306,
        "smoothness": 0.307756339900748,
        "time": 0.08714034300000001,
        "traj_len": 3.9721764890296956,
        "weighted_distance": 4.9024643284366665
    },
    "planner": "RRT",
    "start": {
        "state": {
            "elbow_joint": -1.9196185241190666,
            "shoulder_lift_joint": -1.2443396400964142,
            "shoulder_pan_joint": 2.6996025414629847,
            "wrist_1_joint": -1.5485510000780065,
            "wrist_2_joint": -1.5709468930060704,
            "wrist_3_joint": 0.4420197071253992
        }
    },
    "waypoints": [
        {
            "positions": [
                2.6996025414629847,
                -1.2443396400964142,
                -1.9196185241190666,
                -1.5485510000780065,
                -1.5709468930060704,
                0.4420197071253992
            ]
        },
        {
            "positions": [
                2.5841123922721496,
                -1.2412538913854816,
                -1.7956492867913652,
                -1.4966735386639667,
                -1.4975950471591912,
                0.417141773414782
            ]
        },
        {
            "positions": [
                2.468622243081315,
                -1.238168142674549,
                -1.6716800494636639,
                -1.4447960772499269,
                -1.4242432013123119,
                0.39226383970416473
            ]
        },
        {
            "positions": [
                2.35313209389048,
                -1.2350823939636166,
                -1.5477108121359624,
                -1.392918615835887,
                -1.3508913554654325,
                0.36738590599354753
            ]
        },
        {
            "positions": [
                2.237641944699645,
                -1.231996645252684,
                -1.4237415748082611,
                -1.341041154421847,
                -1.2775395096185533,
                0.3425079722829303
            ]
        },
        {
            "positions": [
                2.12215179550881,
                -1.2289108965417515,
                -1.2997723374805596,
                -1.2891636930078072,
                -1.204187663771674,
                0.3176300385723131
            ]
        },
        {
            "positions": [
                2.0066616463179754,
                -1.2258251478308189,
                -1.1758031001528582,
                -1.2372862315937674,
                -1.1308358179247948,
                0.2927521048616959
            ]
        },
        {
            "positions": [
                1.8911714971271403,
                -1.2227393991198863,
                -1.051833862825157,
                -1.1854087701797276,
                -1.0574839720779154,
                0.26787417115107864
            ]
        },
        {
            "positions": [
                1.7756813479363054,
                -1.2196536504089537,
                -0.9278646254974555,
                -1.1335313087656878,
                -0.9841321262310363,
                0.24299623744046142
            ]
        },
        {
            "positions": [
                1.6601911987454705,
                -1.2165679016980213,
                -0.8038953881697541,
                -1.081653847351648,
                -0.910780280384157,
                0.2181183037298442
            ]
        },
        {
            "positions": [
                1.5447010495546356,
                -1.2134821529870887,
                -0.6799261508420527,
                -1.0297763859376081,
                -0.8374284345372777,
                0.19324037001922698
            ]
        },
        {
            "positions": [
                1.4292109003638007,
                -1.2103964042761561,
                -0.5559569135143514,
                -0.9778989245235682,
                -0.7640765886903985,
                0.1683624363086098
            ]
        },
        {
            "positions": [
                1.3137207511729658,
                -1.2073106555652235,
                -0.4319876761866499,
                -0.9260214631095284,
                -0.6907247428435193,
                0.14348450259799256
            ]
        },
        {
            "positions": [
                1.198230601982131,
                -1.204224906854291,
                -0.30801843885894864,
                -0.8741440016954884,
                -0.6173728969966399,
                0.11860656888737536
            ]
        },
        {
            "positions": [
                1.0827404527912958,
                -1.2011391581433584,
                -0.18404920153124715,
                -0.8222665402814486,
                -0.5440210511497607,
                0.09372863517675811
            ]
        },
        {
            "positions": [
                0.9672503036004609,
                -1.198053409432426,
                -0.060079964203545666,
                -0.7703890788674087,
                -0.47066920530288137,
                0.06885070146614086
            ]
        },
        {
            "positions": [
                0.851760154409626,
                -1.1949676607214934,
                0.0638892731241556,
                -0.718511617453369,
                -0.3973173594560022,
                0.04397276775552367
            ]
        },
        {
            "positions": [
                0.7362700052187914,
                -1.1918819120105608,
                0.18785851045185664,
                -0.6666341560393292,
                -0.32396551360912307,
                0.019094834044906528
            ]
        },
        {
            "positions": [
                0.6207798560279563,
                -1.1887961632996282,
                0.31182774777955835,
                -0.6147566946252893,
                -0.2506136677622437,
                -0.005783099665710778
            ]
        },
        {
            "positions": [
                0.5052897068371216,
                -1.1857104145886956,
                0.4357969851072596,
                -0.5628792332112494,
                -0.17726182191536433,
                -0.030661033376327973
            ]
        },
        {
            "positions": [
                0.3897995576462865,
                -1.182624665877763,
                0.5597662224349613,
                -0.5110017717972095,
                -0.10390997606848495,
                -0.05553896708694522
            ]
        },
        {
            "positions": [
                0.2743094084554514,
                -1.1795389171668307,
                0.6837354597626626,
                -0.4591243103831697,
                -0.030558130221605806,
                -0.08041690079756236
            ]
        },
        {
            "positions": [
                0.1588192592646167,
                -1.176453168455898,
                0.8077046970903639,
                -0.4072468489691299,
                0.04279371562527334,
                -0.10529483450817956
            ]
        },
        {
            "positions": [
                0.043329110073781596,
                -1.1733674197449655,
                0.9316739344180656,
                -0.35536938755509007,
                0.11614556147215271,
                -0.13017276821879686
            ]
        },
        {
            "positions": [
                -0.07216103911705307,
                -1.170281671034033,
                1.0556431717457668,
                -0.30349192614105025,
                0.18949740731903186,
                -0.15505070192941406
            ]
        },
        {
            "positions": [
                -0.18765118830788774,
                -1.1671959223231003,
                1.1796124090734676,
                -0.25161446472701043,
                0.262849253165911,
                -0.17992863564003125
            ]
        },
        {
            "positions": [
                -0.30314133749872285,
                -1.1641101736121677,
                1.3035816464011694,
                -0.1997370033129704,
                0.3362010990127906,
                -0.20480656935064845
            ]
        },
        {
            "positions": [
                -0.41863148668955796,
                -1.1610244249012354,
                1.4275508837288706,
                -0.14785954189893058,
                0.40955294485966975,
                -0.22968450306126564
            ]
        },
        {
            "positions": [
                -0.5341216358803931,
                -1.1579386761903028,
                1.5515201210565723,
                -0.09598208048489076,
                0.4829047907065489,
                -0.25456243677188295
            ]
        },
        {
            "positions": [
                -0.6496117850712279,
                -1.1548529274793702,
                1.6754893583842736,
                -0.044104619070851,
                0.5562566365534283,
                -0.27944037048250014
            ]
        },
        {
            "positions": [
                -0.5852488690925002,
                -1.1234050711914858,
                1.702159242665802,
                0.12077935834767001,
                0.4993407658573156,
                -0.2577819459643475
            ]
        },
        {
            "positions": [
                -0.5208859531137724,
                -1.0919572149036014,
                1.7288291269473304,
                0.285663335766191,
                0.442424895161203,
                -0.2361235214461949
            ]
        },
        {
            "positions": [
                -0.4565230371350446,
                -1.060509358615717,
                1.7554990112288589,
                0.4505473131847121,
                0.3855090244650903,
                -0.21446509692804225
            ]
        },
        {
            "positions": [
                -0.39216012115631693,
                -1.0290615023278327,
                1.7821688955103874,
                0.6154312906032331,
                0.32859315376897763,
                -0.19280667240988963
            ]
        },
        {
            "positions": [
                -0.32779720517758915,
                -0.9976136460399484,
                1.8088387797919157,
                0.7803152680217542,
                0.27167728307286493,
                -0.171148247891737
            ]
        },
        {
            "positions": [
                -0.2634342891988614,
                -0.966165789752064,
                1.8355086640734442,
                0.9451992454402751,
                0.21476141237675228,
                -0.14948982337358435
            ]
        },
        {
            "positions": [
                -0.19907137322013363,
                -0.9347179334641796,
                1.8621785483549727,
                1.1100832228587962,
                0.15784554168063958,
                -0.1278313988554317
            ]
        },
        {
            "positions": [
                -0.134708457241406,
                -0.9032700771762954,
                1.888848432636501,
                1.2749672002773171,
                0.10092967098452699,
                -0.1061729743372791
            ]
        },
        {
            "positions": [
                -0.07034554126267822,
                -0.871822220888411,
                1.9155183169180294,
                1.4398511776958383,
                0.044013800288414284,
                -0.08451454981912646
            ]
        },
        {
            "positions": [
                -0.005982625283950438,
                -0.8403743646005266,
                1.942188201199558,
                1.6047351551143594,
                -0.012902070407698418,
                -0.06285612530097381
            ]
        },
        {
            "positions": [
                0.05838029069477724,
                -0.8089265083126422,
                1.9688580854810862,
                1.7696191325328803,
                -0.06981794110381101,
                -0.0411977007828212
            ]
        },
        {
            "positions": [
                0.12274320667350504,
                -0.7774786520247579,
                1.9955279697626147,
                1.9345031099514014,
                -0.12673381179992377,
                -0.019539276264668542
            ]
        }
    ]
}