{
    "goal": {
        "global_pose": {
            "orientation": {
                "w": -0.4816463035849501,
                "x": 0.5182115481033762,
                "y": 0.4908360881923453,
                "z": -0.5084816262002911
            },
            "position": {
                "x": -0.8240239810943604,
                "y": 0.19912469901144506,
                "z": 0.16403168439865112
            }
        },
        "name": "move_to_storage_D"
    },
    "id": "RRT_move_to_storage_D_88",
    "joint_names": [
        "shoulder_pan_joint",
        "shoulder_lift_joint",
        "elbow_joint",
        "wrist_1_joint",
        "wrist_2_joint",
        "wrist_3_joint"
    ],
    "metrics": {
        "cart_traj_len": 3.906755271468876,
        "distance_elbow_joint": 4.6072223855376,
        "distance_shoulder_lift_joint": 1.263455381930676,
        "distance_shoulder_pan_joint": 2.814889110707993,
        "distance_wrist_1_joint": 3.2515751846766507,
        "distance_wrist_2_joint": 1.3068675681709272,
        "distance_wrist_3_joint": 3.337051622386615,
        "smoothness": 0.4354706016159256,
        "time": 0.092961134,
        "traj_len": 4.071984927944904,
        "weighted_distance": 5.2738607538530315
    },
    "planner": "RRT",
    "start": {
        "state": {
            "elbow_joint": -2.384821988534728,
            "shoulder_lift_joint": -2.2788054721415256,
            "shoulder_pan_joint": -0.1854694642142757,
            "wrist_1_joint": 1.4845938289331202,
            "wrist_2_joint": 0.17898776772866878,
            "wrist_3_joint": 0.037105688729662994
        }
    },
    "waypoints": [
        {
            "positions": [
                -0.1854694642142757,
                -2.2788054721415256,
                -2.384821988534728,
                1.4845938289331202,
                0.17898776772866878,
                0.037105688729662994
            ]
        },
        {
            "positions": [
                -0.1164397658426925,
                -2.2759325044068186,
                -2.349827386223598,
                1.4570579058241855,
                0.10376513301726185,
                0.14115286986919864
            ]
        },
        {
            "positions": [
                -0.05515819371283069,
                -2.2634694994749203,
                -2.221120482496505,
                1.3764238874745751,
                0.13606400282982237,
                0.06764828074708387
            ]
        },
        {
            "positions": [
                0.006123378417031117,
                -2.251006494543022,
                -2.0924135787694125,
                1.295789869124965,
                0.1683628726423829,
                -0.0058563083750309
            ]
        },
        {
            "positions": [
                0.06740495054689294,
                -2.2385434896111236,
                -1.9637066750423195,
                1.2151558507753546,
                0.2006617424549434,
                -0.0793608974971457
            ]
        },
        {
            "positions": [
                0.12868652267675473,
                -2.2260804846792257,
                -1.8349997713152266,
                1.1345218324257444,
                0.23296061226750392,
                -0.15286548661926044
            ]
        },
        {
            "positions": [
                0.18996809480661658,
                -2.2136174797473274,
                -1.706292867588134,
                1.053887814076134,
                0.26525948208006445,
                -0.22637007574137527
            ]
        },
        {
            "positions": [
                0.2512496669364784,
                -2.201154474815429,
                -1.5775859638610412,
                0.9732537957265237,
                0.297558351892625,
                -0.29987466486349
            ]
        },
        {
            "positions": [
                0.31253123906634017,
                -2.1886914698835307,
                -1.4488790601339483,
                0.8926197773769136,
                0.32985722170518544,
                -0.3733792539856048
            ]
        },
        {
            "positions": [
                0.37381281119620197,
                -2.1762284649516324,
                -1.3201721564068556,
                0.8119857590273033,
                0.362156091517746,
                -0.44688384310771956
            ]
        },
        {
            "positions": [
                0.4350943833260638,
                -2.163765460019734,
                -1.1914652526797627,
                0.7313517406776929,
                0.3944549613303065,
                -0.5203884322298344
            ]
        },
        {
            "positions": [
                0.49637595545592567,
                -2.1513024550878357,
                -1.06275834895267,
                0.6507177223280827,
                0.426753831142867,
                -0.5938930213519492
            ]
        },
        {
            "positions": [
                0.5576575275857873,
                -2.138839450155938,
                -0.934051445225577,
                0.5700837039784724,
                0.45905270095542755,
                -0.667397610474064
            ]
        },
        {
            "positions": [
                0.6189390997156492,
                -2.1263764452240395,
                -0.8053445414984843,
                0.48944968562886204,
                0.4913515707679881,
                -0.7409021995961788
            ]
        },
        {
            "positions": [
                0.680220671845511,
                -2.113913440292141,
                -0.6766376377713916,
                0.408815667279252,
                0.5236504405805485,
                -0.8144067887182934
            ]
        },
        {
            "positions": [
                0.7415022439753729,
                -2.101450435360243,
                -0.5479307340442989,
                0.32818164892964163,
                0.555949310393109,
                -0.8879113778404082
            ]
        },
        {
            "positions": [
                0.8027838161052345,
                -2.0889874304283444,
                -0.419223830317206,
                0.24754763058003126,
                0.5882481802056696,
                -0.9614159669625231
            ]
        },
        {
            "positions": [
                0.8640653882350964,
                -2.076524425496446,
                -0.2905169265901133,
                0.16691361223042112,
                0.6205470500182302,
                -1.0349205560846377
            ]
        },
        {
            "positions": [
                0.9253469603649582,
                -2.064061420564548,
                -0.16181002286302038,
                0.08627959388081075,
                0.6528459198307907,
                -1.1084251452067526
            ]
        },
        {
            "positions": [
                0.9866285324948201,
                -2.05159841563265,
                -0.03310311913592745,
                0.005645575531200375,
                0.6851447896433511,
                -1.1819297343288675
            ]
        },
        {
            "positions": [
                1.047910104624682,
                -2.0391354107007515,
                0.09560378459116547,
                -0.07498844281840977,
                0.7174436594559117,
                -1.2554343234509822
            ]
        },
        {
            "positions": [
                1.1091916767545438,
                -2.026672405768853,
                0.22431068831825796,
                -0.15562246116802014,
                0.7497425292684722,
                -1.328938912573097
            ]
        },
        {
            "positions": [
                1.1704732488844056,
                -2.014209400836955,
                0.3530175920453509,
                -0.2362564795176305,
                0.7820413990810328,
                -1.4024435016952117
            ]
        },
        {
            "positions": [
                1.2317548210142673,
                -2.0017463959050565,
                0.4817244957724438,
                -0.31689049786724066,
                0.8143402688935932,
                -1.4759480908173266
            ]
        },
        {
            "positions": [
                1.293036393144129,
                -1.9892833909731584,
                0.6104313994995367,
                -0.39752451621685103,
                0.8466391387061538,
                -1.5494526799394415
            ]
        },
        {
            "positions": [
                1.354317965273991,
                -1.97682038604126,
                0.7391383032266292,
                -0.4781585345664614,
                0.8789380085187143,
                -1.6229572690615561
            ]
        },
        {
            "positions": [
                1.4155995374038528,
                -1.9643573811093618,
                0.8678452069537221,
                -0.5587925529160718,
                0.9112368783312749,
                -1.696461858183671
            ]
        },
        {
            "positions": [
                1.4768811095337144,
                -1.9518943761774636,
                0.9965521106808146,
                -0.6394265712656815,
                0.9435357481438352,
                -1.7699664473057855
            ]
        },
        {
            "positions": [
                1.5381626816635763,
                -1.9394313712455653,
                1.1252590144079075,
                -0.7200605896152921,
                0.9758346179563958,
                -1.8434710364279003
            ]
        },
        {
            "positions": [
                1.5994442537934381,
                -1.926968366313667,
                1.253965918135,
                -0.8006946079649022,
                1.0081334877689563,
                -1.916975625550015
            ]
        },
        {
            "positions": [
                1.6607258259233,
                -1.9145053613817686,
                1.382672821862093,
                -0.8813286263145124,
                1.0404323575815169,
                -1.9904802146721299
            ]
        },
        {
            "positions": [
                1.7220073980531616,
                -1.9020423564498705,
                1.5113797255891859,
                -0.961962644664123,
                1.0727312273940772,
                -2.0639848037942445
            ]
        },
        {
            "positions": [
                1.7832889701830235,
                -1.8895793515179722,
                1.6400866293162788,
                -1.042596663013733,
                1.1050300972066378,
                -2.1374893929163594
            ]
        },
        {
            "positions": [
                1.8445705423128853,
                -1.877116346586074,
                1.7687935330433713,
                -1.1232306813633433,
                1.1373289670191984,
                -2.210993982038474
            ]
        },
        {
            "positions": [
                1.9058521144427472,
                -1.8646533416541757,
                1.8975004367704646,
                -1.2038646997129538,
                1.1696278368317587,
                -2.2844985711605887
            ]
        },
        {
            "positions": [
                1.967133686572609,
                -1.8521903367222774,
                2.0262073404975567,
                -1.2844987180625638,
                1.2019267066443193,
                -2.3580031602827036
            ]
        },
        {
            "positions": [
                2.0499194315627474,
                -1.7475853059083488,
                2.0016832084343923,
                -1.2241883883524431,
                1.1852412866652615,
                -2.449734211669601
            ]
        },
        {
            "positions": [
                2.132705176552886,
                -1.6429802750944205,
                1.977159076371228,
                -1.1638780586423223,
                1.1685558666862037,
                -2.541465263056498
            ]
        },
        {
            "positions": [
                2.2154909215430245,
                -1.538375244280492,
                1.9526349443080637,
                -1.1035677289322017,
                1.151870446707146,
                -2.633196314443395
            ]
        },
        {
            "positions": [
                2.2982766665331633,
                -1.4337702134665635,
                1.9281108122448993,
                -1.043257399222081,
                1.135185026728088,
                -2.7249273658302924
            ]
        },
        {
            "positions": [
                2.3810624115233017,
                -1.329165182652635,
                1.903586680181735,
                -0.9829470695119603,
                1.11849960674903,
                -2.816658417217189
            ]
        },
        {
            "positions": [
                2.46384815651344,
                -1.2245601518387066,
                1.8790625481185708,
                -0.9226367398018396,
                1.1018141867699722,
                -2.9083894686040863
            ]
        },
        {
            "positions": [
                2.5466339015035784,
                -1.1199551210247782,
                1.8545384160554064,
                -0.862326410091719,
                1.0851287667909144,
                -3.0001205199909835
            ]
        },
        {
            "positions": [
                2.629419646493717,
                -1.0153500902108497,
                1.830014283992242,
                -0.8020160803815982,
                1.0684433468118566,
                -3.0918515713778807
            ]
        }
    ]
}