{
    "goal": {
        "global_pose": {
            "orientation": {
                "w": 0.7047431493862688,
                "x": -0.7094548369677653,
                "y": 0.0024358444001904,
                "z": -0.0022348060817251984
            },
            "position": {
                "x": -0.39052492380142206,
                "y": 0.3671506643295288,
                "z": 0.19426114857196808
            }
        },
        "name": "move_to_magneteinheit_D"
    },
    "id": "RRT_move_to_magneteinheit_D_142",
    "joint_names": [
        "shoulder_pan_joint",
        "shoulder_lift_joint",
        "elbow_joint",
        "wrist_1_joint",
        "wrist_2_joint",
        "wrist_3_joint"
    ],
    "metrics": {
        "cart_traj_len": 6.381202178730661,
        "distance_elbow_joint": 3.74404813100868,
        "distance_shoulder_lift_joint": 6.355613152226997,
        "distance_shoulder_pan_joint": 8.77727824977799,
        "distance_wrist_1_joint": 5.069621300749158,
        "distance_wrist_2_joint": 2.9393558775775634,
        "distance_wrist_3_joint": 4.621545552829748,
        "smoothness": 0.45041090312444504,
        "time": 0.202226649,
        "traj_len": 5.6131508321236225,
        "weighted_distance": 6.982802485260225
    },
    "planner": "RRT",
    "start": {
        "state": {
            "elbow_joint": 0.749534889911806,
            "shoulder_lift_joint": -0.6476975780787326,
            "shoulder_pan_joint": -2.711696901376241,
            "wrist_1_joint": -0.07506478083263063,
            "wrist_2_joint": 0.43296659715538205,
            "wrist_3_joint": -3.14703540197715
        }
    },
    "waypoints": [
        {
            "positions": [
                -2.711696901376241,
                -0.6476975780787326,
                0.749534889911806,
                -0.07506478083263063,
                0.43296659715538205,
                -3.14703540197715
            ]
        },
        {
            "positions": [
                -2.696621643140052,
                -0.6818045946697601,
                0.6692677240996988,
                -0.05579359042178167,
                0.487954680498038,
                -3.07703164372625
            ]
        },
        {
            "positions": [
                -2.681546384903863,
                -0.7159116112607876,
                0.5890005582875918,
                -0.03652240001093272,
                0.542942763840694,
                -3.0070278854753503
            ]
        },
        {
            "positions": [
                -2.6664711266676737,
                -0.7500186278518151,
                0.5087333924754847,
                -0.017251209600083757,
                0.5979308471833499,
                -2.93702412722445
            ]
        },
        {
            "positions": [
                -2.522664959343244,
                -0.808451218149851,
                0.5203956742776802,
                -0.08492587233621943,
                0.5507957842890034,
                -2.8763998419745316
            ]
        },
        {
            "positions": [
                -2.3788587920188142,
                -0.8668838084478869,
                0.5320579560798757,
                -0.1526005350723551,
                0.5036607213946569,
                -2.815775556724613
            ]
        },
        {
            "positions": [
                -2.2350526246943847,
                -0.9253163987459228,
                0.5437202378820712,
                -0.22027519780849078,
                0.45652565850031046,
                -2.755151271474695
            ]
        },
        {
            "positions": [
                -2.091246457369955,
                -0.9837489890439587,
                0.5553825196842668,
                -0.28794986054462646,
                0.4093905956059639,
                -2.6945269862247763
            ]
        },
        {
            "positions": [
                -1.9474402900455254,
                -1.0421815793419946,
                0.5670448014864623,
                -0.35562452328076216,
                0.3622555327116175,
                -2.6339027009748577
            ]
        },
        {
            "positions": [
                -1.8036341227210957,
                -1.1006141696400304,
                0.5787070832886578,
                -0.4232991860168978,
                0.315120469817271,
                -2.573278415724939
            ]
        },
        {
            "positions": [
                -1.6598279553966662,
                -1.1590467599380663,
                0.5903693650908534,
                -0.49097384875303346,
                0.26798540692292455,
                -2.5126541304750205
            ]
        },
        {
            "positions": [
                -1.5160217880722364,
                -1.2174793502361023,
                0.6020316468930489,
                -0.5586485114891692,
                0.220850344028578,
                -2.452029845225102
            ]
        },
        {
            "positions": [
                -1.372215620747807,
                -1.2759119405341381,
                0.6136939286952444,
                -0.6263231742253048,
                0.17371528113423157,
                -2.391405559975184
            ]
        },
        {
            "positions": [
                -1.2284094534233772,
                -1.334344530832174,
                0.62535621049744,
                -0.6939978369614406,
                0.12658021823988508,
                -2.330781274725265
            ]
        },
        {
            "positions": [
                -1.0846032860989476,
                -1.39277712113021,
                0.6370184922996355,
                -0.7616724996975761,
                0.07944515534553864,
                -2.2701569894753466
            ]
        },
        {
            "positions": [
                -0.9407971187745179,
                -1.451209711428246,
                0.648680774101831,
                -0.8293471624337119,
                0.032310092451192096,
                -2.209532704225428
            ]
        },
        {
            "positions": [
                -0.7969909514500884,
                -1.5096423017262817,
                0.6603430559040265,
                -0.8970218251698475,
                -0.01482497044315434,
                -2.14890841897551
            ]
        },
        {
            "positions": [
                -0.6531847841256586,
                -1.5680748920243177,
                0.6720053377062221,
                -0.9646964879059832,
                -0.061960033337500775,
                -2.0882841337255913
            ]
        },
        {
            "positions": [
                -0.5093786168012291,
                -1.6265074823223535,
                0.6836676195084176,
                -1.032371150642119,
                -0.10909509623184721,
                -2.0276598484756727
            ]
        },
        {
            "positions": [
                -0.3655724494767991,
                -1.6849400726203896,
                0.6953299013106131,
                -1.1000458133782547,
                -0.15623015912619387,
                -1.9670355632257541
            ]
        },
        {
            "positions": [
                -0.2217662821523696,
                -1.7433726629184254,
                0.7069921831128086,
                -1.1677204761143904,
                -0.2033652220205403,
                -1.9064112779758355
            ]
        },
        {
            "positions": [
                -0.07796011482794007,
                -1.8018052532164612,
                0.7186544649150042,
                -1.235395138850526,
                -0.25050028491488674,
                -1.8457869927259172
            ]
        },
        {
            "positions": [
                0.06584605249648945,
                -1.860237843514497,
                0.7303167467171997,
                -1.3030698015866615,
                -0.2976353478092332,
                -1.7851627074759988
            ]
        },
        {
            "positions": [
                0.20965221982091942,
                -1.918670433812533,
                0.7419790285193952,
                -1.3707444643227975,
                -0.3447704107035797,
                -1.72453842222608
            ]
        },
        {
            "positions": [
                0.35345838714534894,
                -1.977103024110569,
                0.7536413103215908,
                -1.438419127058933,
                -0.39190547359792616,
                -1.6639141369761616
            ]
        },
        {
            "positions": [
                0.49726455446977846,
                -2.035535614408605,
                0.7653035921237863,
                -1.5060937897950686,
                -0.4390405364922726,
                -1.6032898517262433
            ]
        },
        {
            "positions": [
                0.641070721794208,
                -2.093968204706641,
                0.7769658739259818,
                -1.5737684525312043,
                -0.48617559938661914,
                -1.5426655664763247
            ]
        },
        {
            "positions": [
                0.784876889118638,
                -2.152400795004677,
                0.7886281557281773,
                -1.64144311526734,
                -0.5333106622809657,
                -1.482041281226406
            ]
        },
        {
            "positions": [
                0.9286830564430675,
                -2.2108333853027125,
                0.8002904375303729,
                -1.7091177780034759,
                -0.580445725175312,
                -1.4214169959764875
            ]
        },
        {
            "positions": [
                1.072489223767497,
                -2.2692659756007485,
                0.8119527193325684,
                -1.7767924407396114,
                -0.6275807880696584,
                -1.3607927107265692
            ]
        },
        {
            "positions": [
                1.1392023764814645,
                -2.1848589695264957,
                0.7132143800099582,
                -1.7557993755389443,
                -0.5854372171584443,
                -1.2849814980299588
            ]
        },
        {
            "positions": [
                1.2059155291954318,
                -2.100451963452243,
                0.6144760406873481,
                -1.734806310338277,
                -0.5432936462472302,
                -1.2091702853333486
            ]
        },
        {
            "positions": [
                1.2726286819093993,
                -2.01604495737799,
                0.515737701364738,
                -1.7138132451376098,
                -0.5011500753360161,
                -1.1333590726367384
            ]
        },
        {
            "positions": [
                1.3393418346233665,
                -1.9316379513037372,
                0.41699936204212773,
                -1.6928201799369427,
                -0.45900650442480206,
                -1.057547859940128
            ]
        },
        {
            "positions": [
                1.406054987337334,
                -1.8472309452294842,
                0.3182610227195175,
                -1.6718271147362753,
                -0.41686293351358794,
                -0.9817366472435177
            ]
        },
        {
            "positions": [
                1.4727681400513013,
                -1.7628239391552314,
                0.2195226833969074,
                -1.6508340495356082,
                -0.3747193626023738,
                -0.9059254345469074
            ]
        },
        {
            "positions": [
                1.5394812927652688,
                -1.6784169330809786,
                0.12078434407429717,
                -1.6298409843349408,
                -0.3325757916911597,
                -0.8301142218502972
            ]
        },
        {
            "positions": [
                1.606194445479236,
                -1.5940099270067258,
                0.022046004751687054,
                -1.6088479191342737,
                -0.2904322207799456,
                -0.7543030091536869
            ]
        },
        {
            "positions": [
                1.6729075981932038,
                -1.5096029209324726,
                -0.07669233457092328,
                -1.5878548539336066,
                -0.24828864986873145,
                -0.6784917964570766
            ]
        },
        {
            "positions": [
                1.739620750907171,
                -1.4251959148582198,
                -0.1754306738935334,
                -1.5668617887329392,
                -0.20614507895751738,
                -0.6026805837604663
            ]
        },
        {
            "positions": [
                1.8063339036211383,
                -1.340788908783967,
                -0.2741690132161436,
                -1.5458687235322721,
                -0.16400150804630326,
                -0.526869371063856
            ]
        },
        {
            "positions": [
                1.8730470563351056,
                -1.2563819027097143,
                -0.3729073525387536,
                -1.524875658331605,
                -0.12185793713508919,
                -0.4510581583672457
            ]
        },
        {
            "positions": [
                1.9397602090490733,
                -1.1719748966354613,
                -0.47164569186136385,
                -1.5038825931309376,
                -0.07971436622387507,
                -0.37524694567063543
            ]
        },
        {
            "positions": [
                2.0064733617630406,
                -1.0875678905612085,
                -0.5703840311839741,
                -1.4828895279302705,
                -0.03757079531266094,
                -0.29943573297402515
            ]
        },
        {
            "positions": [
                2.073186514477008,
                -1.0031608844869557,
                -0.6691223705065843,
                -1.4618964627296034,
                0.00457277559855318,
                -0.22362452027741497
            ]
        },
        {
            "positions": [
                2.139899667190975,
                -0.918753878412703,
                -0.7678607098291943,
                -1.440903397528936,
                0.04671634650976719,
                -0.14781330758080458
            ]
        },
        {
            "positions": [
                2.206612819904943,
                -0.83434687233845,
                -0.8665990491518045,
                -1.419910332328269,
                0.08885991742098132,
                -0.0720020948841944
            ]
        },
        {
            "positions": [
                2.2733259726189106,
                -0.749939866264197,
                -0.965337388474415,
                -1.3989172671276018,
                0.13100348833219555,
                0.0038091178124159963
            ]
        },
        {
            "positions": [
                2.3400391253328774,
                -0.6655328601899442,
                -1.064075727797025,
                -1.3779242019269344,
                0.17314705924340967,
                0.0796203305090264
            ]
        },
        {
            "positions": [
                2.406752278046845,
                -0.5811258541156914,
                -1.1628140671196352,
                -1.3569311367262673,
                0.21529063015462369,
                0.15543154320563657
            ]
        },
        {
            "positions": [
                2.4734654307608124,
                -0.4967188480414384,
                -1.2615524064422452,
                -1.3359380715256002,
                0.2574342010658378,
                0.23124275590224697
            ]
        },
        {
            "positions": [
                2.5401785834747796,
                -0.4123118419671856,
                -1.3602907457648556,
                -1.3149450063249328,
                0.29957777197705193,
                0.30705396859885714
            ]
        },
        {
            "positions": [
                2.6068917361887474,
                -0.32790483589293284,
                -1.4590290850874656,
                -1.2939519411242657,
                0.34172134288826594,
                0.3828651812954673
            ]
        },
        {
            "positions": [
                2.673604888902714,
                -0.24349782981868007,
                -1.5577674244100757,
                -1.2729588759235986,
                0.38386491379948007,
                0.4586763939920777
            ]
        },
        {
            "positions": [
                2.740318041616682,
                -0.15909082374442685,
                -1.656505763732686,
                -1.2519658107229312,
                0.4260084847106942,
                0.5344876066886881
            ]
        },
        {
            "positions": [
                2.8070311943306496,
                -0.07468381767017407,
                -1.755244103055296,
                -1.2309727455222639,
                0.4681520556219083,
                0.6102988193852983
            ]
        },
        {
            "positions": [
                2.873744347044617,
                0.009723188404078709,
                -1.8539824423779065,
                -1.209979680321597,
                0.5102956265331224,
                0.6861100320819085
            ]
        },
        {
            "positions": [
                2.940457499758584,
                0.09413019447833149,
                -1.9527207817005166,
                -1.1889866151209296,
                0.5524391974443366,
                0.7619212447785189
            ]
        },
        {
            "positions": [
                2.815452545812858,
                -0.0006957489067047629,
                -1.9701349339278043,
                -1.0824081882105936,
                0.5376847971730327,
                0.7334176885355559
            ]
        },
        {
            "positions": [
                2.690447591867132,
                -0.09552169229174101,
                -1.9875490861550917,
                -0.9758297613002576,
                0.522930396901729,
                0.7049141322925929
            ]
        },
        {
            "positions": [
                2.565442637921406,
                -0.1903476356767772,
                -2.004963238382379,
                -0.8692513343899215,
                0.5081759966304252,
                0.67641057604963
            ]
        },
        {
            "positions": [
                2.44043768397568,
                -0.2851735790618135,
                -2.022377390609667,
                -0.7626729074795855,
                0.4934215963591215,
                0.647907019806667
            ]
        },
        {
            "positions": [
                2.3154327300299533,
                -0.37999952244684976,
                -2.0397915428369546,
                -0.6560944805692493,
                0.4786671960878177,
                0.619403463563704
            ]
        },
        {
            "positions": [
                2.1904277760842272,
                -0.4748254658318859,
                -2.0572056950642423,
                -0.5495160536589134,
                0.46391279581651396,
                0.590899907320741
            ]
        },
        {
            "positions": [
                2.065422822138501,
                -0.5696514092169223,
                -2.0746198472915296,
                -0.4429376267485773,
                0.4491583955452102,
                0.5623963510777781
            ]
        },
        {
            "positions": [
                1.940417868192775,
                -0.6644773526019585,
                -2.0920339995188173,
                -0.33635919983824125,
                0.4344039952739064,
                0.5338927948348151
            ]
        },
        {
            "positions": [
                1.815412914247049,
                -0.7593032959869946,
                -2.109448151746105,
                -0.22978077292790533,
                0.4196495950026027,
                0.5053892385918521
            ]
        },
        {
            "positions": [
                1.6904079603013227,
                -0.854129239372031,
                -2.1268623039733927,
                -0.12320234601756908,
                0.40489519473129887,
                0.47688568234888923
            ]
        },
        {
            "positions": [
                1.5654030063555966,
                -0.9489551827570673,
                -2.14427645620068,
                -0.016623919107233265,
                0.3901407944599951,
                0.44838212610592626
            ]
        },
        {
            "positions": [
                1.4403980524098705,
                -1.0437811261421033,
                -2.1616906084279677,
                0.08995450780310277,
                0.37538639418869135,
                0.4198785698629633
            ]
        },
        {
            "positions": [
                1.3153930984641444,
                -1.1386070695271397,
                -2.1791047606552554,
                0.19653293471343902,
                0.36063199391738754,
                0.3913750136200003
            ]
        },
        {
            "positions": [
                1.1903881445184181,
                -1.233433012912176,
                -2.196518912882543,
                0.30311136162377506,
                0.3458775936460838,
                0.3628714573770373
            ]
        },
        {
            "positions": [
                1.0653831905726923,
                -1.328258956297212,
                -2.2139330651098303,
                0.40968978853411087,
                0.33112319337478,
                0.3343679011340744
            ]
        },
        {
            "positions": [
                0.940378236626966,
                -1.4230848996822485,
                -2.231347217337118,
                0.5162682154444471,
                0.3163687931034762,
                0.3058643448911114
            ]
        },
        {
            "positions": [
                0.8153732826812399,
                -1.5179108430672847,
                -2.2487613695644058,
                0.6228466423547832,
                0.30161439283217245,
                0.27736078864814845
            ]
        },
        {
            "positions": [
                0.6903683287355138,
                -1.6127367864523208,
                -2.2661755217916935,
                0.729425069265119,
                0.28685999256086875,
                0.24885723240518554
            ]
        },
        {
            "positions": [
                0.5653633747897877,
                -1.707562729837357,
                -2.283589674018981,
                0.8360034961754552,
                0.27210559228956493,
                0.22035367616222257
            ]
        },
        {
            "positions": [
                0.4403584208440612,
                -1.8023886732223935,
                -2.3010038262462684,
                0.9425819230857915,
                0.2573511920182612,
                0.1918501199192596
            ]
        },
        {
            "positions": [
                0.31535346689833554,
                -1.8972146166074295,
                -2.318417978473556,
                1.0491603499961273,
                0.24259679174695742,
                0.16334656367629663
            ]
        },
        {
            "positions": [
                0.19034851295260902,
                -1.992040559992466,
                -2.335832130700844,
                1.155738776906463,
                0.22784239147565366,
                0.13484300743333366
            ]
        },
        {
            "positions": [
                0.06534355900688293,
                -2.086866503377502,
                -2.353246282928131,
                1.2623172038167993,
                0.21308799120434985,
                0.10633945119037069
            ]
        },
        {
            "positions": [
                -0.05966139493884315,
                -2.181692446762538,
                -2.370660435155419,
                1.3688956307271352,
                0.1983335909330461,
                0.07783589494740772
            ]
        },
        {
            "positions": [
                -0.18466634888456926,
                -2.2765183901475745,
                -2.3880745873827065,
                1.4754740576374714,
                0.1835791906617423,
                0.04933233870444477
            ]
        }
    ]
}