{
    "goal": {
        "global_pose": {
            "orientation": {
                "w": 0.7047431493862688,
                "x": -0.7094548369677653,
                "y": 0.0024358444001904,
                "z": -0.0022348060817251984
            },
            "position": {
                "x": -0.39052492380142206,
                "y": 0.3671506643295288,
                "z": 0.19426114857196808
            }
        },
        "name": "move_to_magneteinheit_D"
    },
    "id": "RRT_move_to_magneteinheit_D_147",
    "joint_names": [
        "shoulder_pan_joint",
        "shoulder_lift_joint",
        "elbow_joint",
        "wrist_1_joint",
        "wrist_2_joint",
        "wrist_3_joint"
    ],
    "metrics": {
        "cart_traj_len": 8.068109577373187,
        "distance_elbow_joint": 4.486537215363013,
        "distance_shoulder_lift_joint": 1.555485606882437,
        "distance_shoulder_pan_joint": 7.82720274611958,
        "distance_wrist_1_joint": 5.514099733356616,
        "distance_wrist_2_joint": 6.454395572304298,
        "distance_wrist_3_joint": 5.0730183611317585,
        "smoothness": 0.563772938150781,
        "time": 0.337456162,
        "traj_len": 5.559742731022518,
        "weighted_distance": 7.281845319909102
    },
    "planner": "RRT",
    "start": {
        "state": {
            "elbow_joint": 0.749534889911806,
            "shoulder_lift_joint": -0.6476975780787326,
            "shoulder_pan_joint": -2.711696901376241,
            "wrist_1_joint": -0.07506478083263063,
            "wrist_2_joint": 0.43296659715538205,
            "wrist_3_joint": -3.14703540197715
        }
    },
    "waypoints": [
        {
            "positions": [
                -2.711696901376241,
                -0.6476975780787326,
                0.749534889911806,
                -0.07506478083263063,
                0.43296659715538205,
                -3.14703540197715
            ]
        },
        {
            "positions": [
                -2.6825962144330244,
                -0.7621827880198331,
                0.7292249201621366,
                -0.07758486238820708,
                0.5272379187695714,
                -3.0465008236552267
            ]
        },
        {
            "positions": [
                -2.6534955274898078,
                -0.8766679979609335,
                0.7089149504124671,
                -0.08010494394378354,
                0.6215092403837608,
                -2.9459662453333033
            ]
        },
        {
            "positions": [
                -2.624394840546591,
                -0.991153207902034,
                0.6886049806627977,
                -0.08262502549935999,
                0.71578056199795,
                -2.84543166701138
            ]
        },
        {
            "positions": [
                -2.519147841659572,
                -1.0250850148127122,
                0.6201292600827708,
                -0.13580464131248315,
                0.6493839646174646,
                -2.782905391832469
            ]
        },
        {
            "positions": [
                -2.413900842772553,
                -1.0590168217233904,
                0.5516535395027439,
                -0.18898425712560635,
                0.5829873672369792,
                -2.7203791166535582
            ]
        },
        {
            "positions": [
                -2.3086538438855344,
                -1.0929486286340686,
                0.48317781892271694,
                -0.2421638729387295,
                0.5165907698564938,
                -2.6578528414746474
            ]
        },
        {
            "positions": [
                -2.2034068449985154,
                -1.1268804355447468,
                0.41470209834268995,
                -0.2953434887518527,
                0.4501941724760084,
                -2.5953265662957365
            ]
        },
        {
            "positions": [
                -2.0981598461114963,
                -1.160812242455425,
                0.34622637776266296,
                -0.3485231045649759,
                0.383797575095523,
                -2.5328002911168253
            ]
        },
        {
            "positions": [
                -1.9929128472244773,
                -1.1947440493661032,
                0.2777506571826361,
                -0.40170272037809907,
                0.3174009777150376,
                -2.4702740159379144
            ]
        },
        {
            "positions": [
                -1.8876658483374582,
                -1.2286758562767814,
                0.2092749366026091,
                -0.4548823361912222,
                0.2510043803345522,
                -2.4077477407590036
            ]
        },
        {
            "positions": [
                -1.7824188494504394,
                -1.2626076631874594,
                0.14079921602258216,
                -0.5080619520043453,
                0.18460778295406677,
                -2.3452214655800927
            ]
        },
        {
            "positions": [
                -1.6771718505634203,
                -1.2965394700981379,
                0.07232349544255512,
                -0.5612415678174686,
                0.11821118557358135,
                -2.2826951904011814
            ]
        },
        {
            "positions": [
                -1.5719248516764013,
                -1.3304712770088158,
                0.003847774862528186,
                -0.6144211836305918,
                0.05181458819309592,
                -2.2201689152222706
            ]
        },
        {
            "positions": [
                -1.4666778527893825,
                -1.364403083919494,
                -0.06462794571749864,
                -0.667600799443715,
                -0.014582009187389389,
                -2.1576426400433597
            ]
        },
        {
            "positions": [
                -1.3614308539023636,
                -1.3983348908301723,
                -0.13310366629752557,
                -0.7207804152568381,
                -0.08097860656787481,
                -2.095116364864449
            ]
        },
        {
            "positions": [
                -1.2561838550153444,
                -1.4322666977408505,
                -0.2015793868775526,
                -0.7739600310699614,
                -0.14737520394836023,
                -2.032590089685538
            ]
        },
        {
            "positions": [
                -1.1509368561283255,
                -1.4661985046515287,
                -0.27005510745757955,
                -0.8271396468830845,
                -0.21377180132884566,
                -1.9700638145066272
            ]
        },
        {
            "positions": [
                -1.0456898572413067,
                -1.5001303115622069,
                -0.33853082803760637,
                -0.8803192626962076,
                -0.2801683987093311,
                -1.9075375393277163
            ]
        },
        {
            "positions": [
                -0.9404428583542876,
                -1.5340621184728849,
                -0.4070065486176334,
                -0.9334988785093308,
                -0.3465649960898165,
                -1.8450112641488055
            ]
        },
        {
            "positions": [
                -0.8351958594672688,
                -1.567993925383563,
                -0.47548226919766023,
                -0.9866784943224539,
                -0.4129615934703017,
                -1.7824849889698946
            ]
        },
        {
            "positions": [
                -0.7299488605802495,
                -1.6019257322942415,
                -0.5439579897776875,
                -1.0398581101355773,
                -0.47935819085078735,
                -1.7199587137909833
            ]
        },
        {
            "positions": [
                -0.6247018616932305,
                -1.6358575392049197,
                -0.6124337103577143,
                -1.0930377259487003,
                -0.5457547882312728,
                -1.6574324386120725
            ]
        },
        {
            "positions": [
                -0.5194548628062114,
                -1.6697893461155977,
                -0.6809094309377414,
                -1.1462173417618235,
                -0.6121513856117582,
                -1.5949061634331616
            ]
        },
        {
            "positions": [
                -0.41420786391919284,
                -1.703721153026276,
                -0.7493851515177682,
                -1.1993969575749466,
                -0.6785479829922436,
                -1.5323798882542508
            ]
        },
        {
            "positions": [
                -0.3089608650321738,
                -1.7376529599369541,
                -0.817860872097795,
                -1.2525765733880698,
                -0.7449445803727288,
                -1.46985361307534
            ]
        },
        {
            "positions": [
                -0.20371386614515474,
                -1.7715847668476323,
                -0.886336592677822,
                -1.3057561892011929,
                -0.8113411777532142,
                -1.407327337896429
            ]
        },
        {
            "positions": [
                -0.09846686725813614,
                -1.8055165737583105,
                -0.9548123132578489,
                -1.358935805014316,
                -0.8777377751336997,
                -1.3448010627175182
            ]
        },
        {
            "positions": [
                0.006780131628883357,
                -1.8394483806689887,
                -1.023288033837876,
                -1.4121154208274393,
                -0.9441343725141853,
                -1.282274787538607
            ]
        },
        {
            "positions": [
                0.1120271305159024,
                -1.873380187579667,
                -1.091763754417903,
                -1.4652950366405626,
                -1.0105309698946705,
                -1.219748512359696
            ]
        },
        {
            "positions": [
                0.217274129402921,
                -1.9073119944903452,
                -1.1602394749979301,
                -1.5184746524536856,
                -1.076927567275156,
                -1.1572222371807852
            ]
        },
        {
            "positions": [
                0.32252112828994006,
                -1.9412438014010234,
                -1.2287151955779567,
                -1.5716542682668089,
                -1.1433241646556414,
                -1.0946959620018744
            ]
        },
        {
            "positions": [
                0.44152343548437223,
                -1.928712482216458,
                -1.1901410553179086,
                -1.4790644502832988,
                -1.2364962571494889,
                -1.065393513819043
            ]
        },
        {
            "positions": [
                0.5605257426788044,
                -1.916181163031893,
                -1.1515669150578605,
                -1.3864746322997887,
                -1.3296683496433364,
                -1.0360910656362112
            ]
        },
        {
            "positions": [
                0.6795280498732366,
                -1.9036498438473277,
                -1.1129927747978123,
                -1.2938848143162789,
                -1.4228404421371839,
                -1.0067886174533798
            ]
        },
        {
            "positions": [
                0.7985303570676687,
                -1.8911185246627624,
                -1.0744186345377642,
                -1.2012949963327688,
                -1.5160125346310314,
                -0.9774861692705481
            ]
        },
        {
            "positions": [
                0.917532664262101,
                -1.8785872054781971,
                -1.035844494277716,
                -1.1087051783492587,
                -1.6091846271248789,
                -0.9481837210877166
            ]
        },
        {
            "positions": [
                1.036534971456533,
                -1.866055886293632,
                -0.9972703540176682,
                -1.016115360365749,
                -1.7023567196187264,
                -0.9188812729048851
            ]
        },
        {
            "positions": [
                1.1555372786509654,
                -1.8535245671090668,
                -0.95869621375762,
                -0.9235255423822387,
                -1.7955288121125739,
                -0.8895788247220535
            ]
        },
        {
            "positions": [
                1.2745395858453974,
                -1.8409932479245015,
                -0.9201220734975719,
                -0.8309357243987288,
                -1.8887009046064214,
                -0.860276376539222
            ]
        },
        {
            "positions": [
                1.3935418930398298,
                -1.8284619287399364,
                -0.8815479332375238,
                -0.7383459064152187,
                -1.9818729971002689,
                -0.8309739283563904
            ]
        },
        {
            "positions": [
                1.512544200234262,
                -1.8159306095553711,
                -0.8429737929774757,
                -0.6457560884317086,
                -2.0750450895941164,
                -0.8016714801735588
            ]
        },
        {
            "positions": [
                1.6315465074286943,
                -1.8033992903708058,
                -0.8043996527174275,
                -0.5531662704481985,
                -2.1682171820879637,
                -0.7723690319907273
            ]
        },
        {
            "positions": [
                1.7505488146231263,
                -1.7908679711862405,
                -0.7658255124573795,
                -0.4605764524646887,
                -2.2613892745818114,
                -0.7430665838078958
            ]
        },
        {
            "positions": [
                1.8695511218175584,
                -1.7783366520016755,
                -0.7272513721973314,
                -0.36798663448117863,
                -2.354561367075659,
                -0.7137641356250641
            ]
        },
        {
            "positions": [
                1.9885534290119908,
                -1.7658053328171102,
                -0.6886772319372833,
                -0.27539681649766856,
                -2.4477334595695064,
                -0.6844616874422327
            ]
        },
        {
            "positions": [
                2.107555736206423,
                -1.7532740136325449,
                -0.6501030916772351,
                -0.1828069985141585,
                -2.5409055520633537,
                -0.655159239259401
            ]
        },
        {
            "positions": [
                2.226558043400855,
                -1.7407426944479796,
                -0.6115289514171871,
                -0.09021718053064864,
                -2.6340776445572014,
                -0.6258567910765696
            ]
        },
        {
            "positions": [
                2.3455603505952873,
                -1.7282113752634145,
                -0.572954811157139,
                0.002372637452861426,
                -2.727249737051049,
                -0.596554342893738
            ]
        },
        {
            "positions": [
                2.4645626577897195,
                -1.7156800560788492,
                -0.5343806708970908,
                0.0949624554363715,
                -2.8204218295448964,
                -0.5672518947109064
            ]
        },
        {
            "positions": [
                2.379048361436377,
                -1.716853463763945,
                -0.5928952710645871,
                0.019127180526072818,
                -2.7354095967733194,
                -0.6476788254807617
            ]
        },
        {
            "positions": [
                2.2935340650830343,
                -1.718026871449041,
                -0.6514098712320833,
                -0.05670809438422586,
                -2.6503973640017424,
                -0.728105756250617
            ]
        },
        {
            "positions": [
                2.2080197687296916,
                -1.7192002791341368,
                -0.7099244713995795,
                -0.13254336929452454,
                -2.565385131230166,
                -0.8085326870204724
            ]
        },
        {
            "positions": [
                2.122505472376349,
                -1.7203736868192328,
                -0.7684390715670757,
                -0.20837864420482322,
                -2.480372898458589,
                -0.8889596177903277
            ]
        },
        {
            "positions": [
                2.0369911760230064,
                -1.7215470945043285,
                -0.826953671734572,
                -0.2842139191151219,
                -2.395360665687012,
                -0.9693865485601831
            ]
        },
        {
            "positions": [
                1.951476879669664,
                -1.7227205021894245,
                -0.8854682719020681,
                -0.36004919402542057,
                -2.310348432915435,
                -1.0498134793300384
            ]
        },
        {
            "positions": [
                1.8659625833163214,
                -1.7238939098745203,
                -0.9439828720695644,
                -0.4358844689357192,
                -2.2253362001438584,
                -1.1302404100998937
            ]
        },
        {
            "positions": [
                1.7804482869629787,
                -1.7250673175596163,
                -1.0024974722370605,
                -0.5117197438460179,
                -2.1403239673722814,
                -1.210667340869749
            ]
        },
        {
            "positions": [
                1.6949339906096361,
                -1.726240725244712,
                -1.0610120724045569,
                -0.5875550187563167,
                -2.0553117346007044,
                -1.2910942716396043
            ]
        },
        {
            "positions": [
                1.6094196942562937,
                -1.727414132929808,
                -1.1195266725720532,
                -0.6633902936666153,
                -1.9702995018291274,
                -1.3715212024094598
            ]
        },
        {
            "positions": [
                1.5239053979029509,
                -1.7285875406149038,
                -1.1780412727395493,
                -0.739225568576914,
                -1.8852872690575504,
                -1.4519481331793151
            ]
        },
        {
            "positions": [
                1.4383911015496085,
                -1.7297609482999996,
                -1.2365558729070454,
                -0.8150608434872126,
                -1.8002750362859736,
                -1.5323750639491704
            ]
        },
        {
            "positions": [
                1.3528768051962656,
                -1.7309343559850956,
                -1.2950704730745417,
                -0.8908961183975114,
                -1.7152628035143966,
                -1.6128019947190257
            ]
        },
        {
            "positions": [
                1.2673625088429232,
                -1.7321077636701914,
                -1.353585073242038,
                -0.9667313933078099,
                -1.6302505707428199,
                -1.693228925488881
            ]
        },
        {
            "positions": [
                1.1818482124895806,
                -1.7332811713552874,
                -1.4120996734095344,
                -1.0425666682181087,
                -1.5452383379712429,
                -1.7736558562587366
            ]
        },
        {
            "positions": [
                1.096333916136238,
                -1.7344545790403831,
                -1.4706142735770302,
                -1.1184019431284073,
                -1.460226105199666,
                -1.8540827870285916
            ]
        },
        {
            "positions": [
                1.0108196197828956,
                -1.7356279867254791,
                -1.5291288737445266,
                -1.194237218038706,
                -1.3752138724280891,
                -1.934509717798447
            ]
        },
        {
            "positions": [
                0.9253053234295527,
                -1.736801394410575,
                -1.5876434739120229,
                -1.2700724929490048,
                -1.2902016396565121,
                -2.0149366485683027
            ]
        },
        {
            "positions": [
                0.8397910270762101,
                -1.737974802095671,
                -1.6461580740795192,
                -1.3459077678593034,
                -1.2051894068849351,
                -2.0953635793381578
            ]
        },
        {
            "positions": [
                0.7542767307228677,
                -1.7391482097807667,
                -1.7046726742470153,
                -1.421743042769602,
                -1.1201771741133584,
                -2.175790510108013
            ]
        },
        {
            "positions": [
                0.6687624343695251,
                -1.7403216174658624,
                -1.7631872744145114,
                -1.4975783176799007,
                -1.0351649413417816,
                -2.2562174408778684
            ]
        },
        {
            "positions": [
                0.5832481380161822,
                -1.7414950251509584,
                -1.8217018745820077,
                -1.5734135925901995,
                -0.9501527085702044,
                -2.336644371647724
            ]
        },
        {
            "positions": [
                0.49773384166283985,
                -1.7426684328360542,
                -1.880216474749504,
                -1.6492488675004982,
                -0.8651404757986276,
                -2.417071302417579
            ]
        },
        {
            "positions": [
                0.41221954530949745,
                -1.7438418405211502,
                -1.9387310749170001,
                -1.7250841424107968,
                -0.7801282430270509,
                -2.4974982331874345
            ]
        },
        {
            "positions": [
                0.3267052489561548,
                -1.745015248206246,
                -1.9972456750844962,
                -1.8009194173210954,
                -0.6951160102554739,
                -2.5779251639572895
            ]
        },
        {
            "positions": [
                0.24119095260281176,
                -1.746188655891342,
                -2.055760275251993,
                -1.8767546922313942,
                -0.6101037774838969,
                -2.658352094727145
            ]
        },
        {
            "positions": [
                0.15567665624946958,
                -1.7473620635764378,
                -2.114274875419489,
                -1.952589967141693,
                -0.5250915447123199,
                -2.7387790254970006
            ]
        },
        {
            "positions": [
                0.07016235989612696,
                -1.7485354712615337,
                -2.1727894755869848,
                -2.0284252420519913,
                -0.44007931194074335,
                -2.8192059562668557
            ]
        },
        {
            "positions": [
                -0.015351936457215665,
                -1.7497088789466295,
                -2.231304075754481,
                -2.10426051696229,
                -0.35506707916916636,
                -2.899632887036711
            ]
        },
        {
            "positions": [
                -0.10086623281055829,
                -1.7508822866317255,
                -2.2898186759219774,
                -2.180095791872589,
                -0.27005484639758937,
                -2.9800598178065667
            ]
        },
        {
            "positions": [
                -0.18638052916390083,
                -1.7520556943168213,
                -2.3483332760894737,
                -2.2559310667828876,
                -0.18504261362601224,
                -3.0604867485764218
            ]
        }
    ]
}