{
    "goal": {
        "global_pose": {
            "orientation": {
                "w": 0.5084816262002911,
                "x": -0.4908360881923452,
                "y": 0.5182115481033761,
                "z": -0.48164630358495003
            },
            "position": {
                "x": 0.5540239810943604,
                "y": -0.46912469901144505,
                "z": 0.16403168439865112
            }
        },
        "name": "move_to_storage_B"
    },
    "id": "RRT_move_to_storage_B_70",
    "joint_names": [
        "shoulder_pan_joint",
        "shoulder_lift_joint",
        "elbow_joint",
        "wrist_1_joint",
        "wrist_2_joint",
        "wrist_3_joint"
    ],
    "metrics": {
        "cart_traj_len": 2.887165410452871,
        "distance_elbow_joint": 0.8082382888396573,
        "distance_shoulder_lift_joint": 2.4722250222673168,
        "distance_shoulder_pan_joint": 2.1335393220620205,
        "distance_wrist_1_joint": 2.984499728994245,
        "distance_wrist_2_joint": 2.7089001456109565,
        "distance_wrist_3_joint": 3.1324833200363944,
        "smoothness": 0.2711881218921275,
        "time": 0.077509178,
        "traj_len": 3.773577325007477,
        "weighted_distance": 5.118422837406907
    },
    "planner": "RRT",
    "start": {
        "state": {
            "elbow_joint": 1.664937868594044,
            "shoulder_lift_joint": -0.661644460510453,
            "shoulder_pan_joint": -0.9139846352900073,
            "wrist_1_joint": 2.146753192139373,
            "wrist_2_joint": -2.2341966793290973,
            "wrist_3_joint": 0.005466555786416001
        }
    },
    "waypoints": [
        {
            "positions": [
                -0.9139846352900073,
                -0.661644460510453,
                1.664937868594044,
                2.146753192139373,
                -2.2341966793290973,
                0.005466555786416001
            ]
        },
        {
            "positions": [
                -0.8529894401900938,
                -0.7532624168283291,
                1.650593532213626,
                2.035657320840933,
                -2.15496352471055,
                -0.021068936781942823
            ]
        },
        {
            "positions": [
                -0.7919942450901803,
                -0.8448803731462052,
                1.6362491958332082,
                1.9245614495424928,
                -2.0757303700920025,
                -0.047604429350301646
            ]
        },
        {
            "positions": [
                -0.7309990499902669,
                -0.9364983294640813,
                1.6219048594527905,
                1.8134655782440525,
                -1.9964972154734553,
                -0.07413992191866046
            ]
        },
        {
            "positions": [
                -0.6700038548903534,
                -1.0281162857819575,
                1.6075605230723726,
                1.7023697069456123,
                -1.917264060854908,
                -0.10067541448701929
            ]
        },
        {
            "positions": [
                -0.6090086597904398,
                -1.1197342420998335,
                1.5932161866919547,
                1.591273835647172,
                -1.8380309062363607,
                -0.1272109070553781
            ]
        },
        {
            "positions": [
                -0.5480134646905264,
                -1.2113521984177096,
                1.5788718503115369,
                1.4801779643487316,
                -1.7587977516178133,
                -0.15374639962373693
            ]
        },
        {
            "positions": [
                -0.48701826959061295,
                -1.3029701547355859,
                1.564527513931119,
                1.3690820930502914,
                -1.679564596999266,
                -0.18028189219209576
            ]
        },
        {
            "positions": [
                -0.4260230744906995,
                -1.3945881110534617,
                1.5501831775507013,
                1.2579862217518512,
                -1.6003314423807187,
                -0.20681738476045458
            ]
        },
        {
            "positions": [
                -0.36502787939078596,
                -1.486206067371338,
                1.5358388411702835,
                1.146890350453411,
                -1.5210982877621713,
                -0.2333528773288134
            ]
        },
        {
            "positions": [
                -0.3040326842908725,
                -1.577824023689214,
                1.5214945047898656,
                1.0357944791549707,
                -1.441865133143624,
                -0.2598883698971722
            ]
        },
        {
            "positions": [
                -0.24303748919095902,
                -1.66944198000709,
                1.5071501684094477,
                0.9246986078565305,
                -1.3626319785250767,
                -0.28642386246553103
            ]
        },
        {
            "positions": [
                -0.18204229409104555,
                -1.7610599363249662,
                1.4928058320290298,
                0.81360273655809,
                -1.2833988239065293,
                -0.31295935503388983
            ]
        },
        {
            "positions": [
                -0.12104709899113208,
                -1.8526778926428422,
                1.4784614956486122,
                0.7025068652596498,
                -1.204165669287982,
                -0.3394948476022487
            ]
        },
        {
            "positions": [
                -0.060051903891218616,
                -1.9442958489607185,
                1.4641171592681943,
                0.5914109939612096,
                -1.1249325146694347,
                -0.3660303401706075
            ]
        },
        {
            "positions": [
                0.000943291208694852,
                -2.035913805278595,
                1.4497728228877764,
                0.4803151226627693,
                -1.0456993600508875,
                -0.39256583273896634
            ]
        },
        {
            "positions": [
                0.06193848630860829,
                -2.1275317615964706,
                1.4354284865073585,
                0.3692192513643292,
                -0.96646620543234,
                -0.41910132530732513
            ]
        },
        {
            "positions": [
                0.006813905334160451,
                -2.0796109177306943,
                1.4629870058765477,
                0.31174469002055777,
                -0.8978390782078542,
                -0.5480496795426896
            ]
        },
        {
            "positions": [
                -0.04831067564028739,
                -2.0316900738649184,
                1.490545525245737,
                0.25427012867678633,
                -0.8292119509833686,
                -0.676998033778054
            ]
        },
        {
            "positions": [
                -0.10343525661473524,
                -1.983769229999142,
                1.5181040446149259,
                0.19679556733301493,
                -0.7605848237588829,
                -0.8059463880134184
            ]
        },
        {
            "positions": [
                -0.15855983758918307,
                -1.935848386133366,
                1.545662563984115,
                0.13932100598924352,
                -0.6919576965343972,
                -0.9348947422487829
            ]
        },
        {
            "positions": [
                -0.21368441856363093,
                -1.8879275422675899,
                1.5732210833533042,
                0.08184644464547208,
                -0.6233305693099116,
                -1.0638430964841472
            ]
        },
        {
            "positions": [
                -0.2688089995380788,
                -1.8400066984018137,
                1.6007796027224934,
                0.024371883301700648,
                -0.5547034420854259,
                -1.1927914507195116
            ]
        },
        {
            "positions": [
                -0.32393358051252663,
                -1.7920858545360376,
                1.6283381220916826,
                -0.03310267804207079,
                -0.4860763148609402,
                -1.321739804954876
            ]
        },
        {
            "positions": [
                -0.37905816148697447,
                -1.7441650106702613,
                1.6558966414608716,
                -0.09057723938584217,
                -0.41744918763645456,
                -1.4506881591902405
            ]
        },
        {
            "positions": [
                -0.4341827424614223,
                -1.6962441668044852,
                1.6834551608300607,
                -0.14805180072961366,
                -0.34882206041196884,
                -1.579636513425605
            ]
        },
        {
            "positions": [
                -0.48930732343587013,
                -1.648323322938709,
                1.71101368019925,
                -0.20552636207338504,
                -0.28019493318748323,
                -1.7085848676609694
            ]
        },
        {
            "positions": [
                -0.544431904410318,
                -1.6004024790729328,
                1.7385721995684391,
                -0.26300092341715653,
                -0.2115678059629974,
                -1.8375332218963338
            ]
        },
        {
            "positions": [
                -0.5995564853847658,
                -1.5524816352071569,
                1.7661307189376283,
                -0.3204754847609279,
                -0.1429406787385118,
                -1.9664815761316983
            ]
        },
        {
            "positions": [
                -0.6546810663592136,
                -1.5045607913413805,
                1.7936892383068175,
                -0.3779500461046994,
                -0.07431355151402608,
                -2.0954299303670627
            ]
        },
        {
            "positions": [
                -0.7098056473336615,
                -1.4566399474756044,
                1.8212477576760064,
                -0.4354246074484708,
                -0.00568642428954047,
                -2.224378284602427
            ]
        },
        {
            "positions": [
                -0.7649302283081094,
                -1.4087191036098283,
                1.8488062770451956,
                -0.49289916879224227,
                0.06294070293494525,
                -2.3533266388377916
            ]
        },
        {
            "positions": [
                -0.8200548092825571,
                -1.360798259744052,
                1.8763647964143848,
                -0.5503737301360135,
                0.13156783015943085,
                -2.482274993073156
            ]
        },
        {
            "positions": [
                -0.8751793902570051,
                -1.3128774158782759,
                1.903923315783574,
                -0.607848291479785,
                0.20019495738391668,
                -2.6112233473085205
            ]
        },
        {
            "positions": [
                -0.9303039712314528,
                -1.2649565720124998,
                1.9314818351527632,
                -0.6653228528235565,
                0.2688220846084023,
                -2.740171701543885
            ]
        },
        {
            "positions": [
                -0.9854285522059008,
                -1.2170357281467235,
                1.9590403545219521,
                -0.722797414167328,
                0.3374492118328879,
                -2.8691200557792493
            ]
        },
        {
            "positions": [
                -1.0405531331803486,
                -1.1691148842809476,
                1.9865988738911413,
                -0.7802719755110993,
                0.4060763390573735,
                -2.9980684100146138
            ]
        },
        {
            "positions": [
                -1.0956777141547964,
                -1.1211940404151712,
                2.0141573932603305,
                -0.8377465368548708,
                0.47470346628185944,
                -3.127016764249978
            ]
        }
    ]
}