{
    "goal": {
        "global_pose": {
            "orientation": {
                "w": -0.4816463035849501,
                "x": 0.5182115481033762,
                "y": 0.4908360881923453,
                "z": -0.5084816262002911
            },
            "position": {
                "x": -0.8240239810943604,
                "y": 0.19912469901144506,
                "z": 0.16403168439865112
            }
        },
        "name": "move_to_storage_D"
    },
    "id": "RRT_move_to_storage_D_71",
    "joint_names": [
        "shoulder_pan_joint",
        "shoulder_lift_joint",
        "elbow_joint",
        "wrist_1_joint",
        "wrist_2_joint",
        "wrist_3_joint"
    ],
    "metrics": {
        "cart_traj_len": 0.6241368443126152,
        "distance_elbow_joint": 1.0701363278703393,
        "distance_shoulder_lift_joint": 0.22800011219214378,
        "distance_shoulder_pan_joint": 0.7176954280075153,
        "distance_wrist_1_joint": 3.8220172629179165,
        "distance_wrist_2_joint": 1.7740800534138417,
        "distance_wrist_3_joint": 3.117830902162902,
        "smoothness": 0.1610610351991174,
        "time": 0.083254789,
        "traj_len": 3.2756312500897686,
        "weighted_distance": 4.74989675753297
    },
    "planner": "RRT",
    "start": {
        "state": {
            "elbow_joint": -2.384821988534728,
            "shoulder_lift_joint": -2.2788054721415256,
            "shoulder_pan_joint": -0.1854694642142757,
            "wrist_1_joint": 1.4845938289331202,
            "wrist_2_joint": 0.17898776772866878,
            "wrist_3_joint": 0.037105688729662994
        }
    },
    "waypoints": [
        {
            "positions": [
                -0.1854694642142757,
                -2.2788054721415256,
                -2.384821988534728,
                1.4845938289331202,
                0.17898776772866878,
                0.037105688729662994
            ]
        },
        {
            "positions": [
                -0.07668315328290795,
                -2.288275195683368,
                -2.4492088156608083,
                1.4679797569813484,
                0.1238649774995571,
                -0.07497061575818548
            ]
        },
        {
            "positions": [
                0.03210315764845981,
                -2.2977449192252104,
                -2.513595642786888,
                1.4513656850295766,
                0.06874218727044541,
                -0.18704692024603395
            ]
        },
        {
            "positions": [
                0.14088946857982756,
                -2.307214642767053,
                -2.5779824699129685,
                1.434751613077805,
                0.01361939704133372,
                -0.2991232247338824
            ]
        },
        {
            "positions": [
                0.24967577951119535,
                -2.316684366308895,
                -2.642369297039049,
                1.4181375411260333,
                -0.04150339318777796,
                -0.41119952922173086
            ]
        },
        {
            "positions": [
                0.23790285516611015,
                -2.308762648891196,
                -2.6085114212321314,
                1.2616558338297488,
                -0.10623626370850274,
                -0.522429766063877
            ]
        },
        {
            "positions": [
                0.22612993082102498,
                -2.3008409314734974,
                -2.574653545425214,
                1.105174126533464,
                -0.17096913422922752,
                -0.6336600029060232
            ]
        },
        {
            "positions": [
                0.2143570064759398,
                -2.2929192140557983,
                -2.5407956696182965,
                0.9486924192371795,
                -0.23570200474995232,
                -0.7448902397481694
            ]
        },
        {
            "positions": [
                0.2025840821308546,
                -2.2849974966380993,
                -2.506937793811379,
                0.792210711940895,
                -0.3004348752706771,
                -0.8561204765903155
            ]
        },
        {
            "positions": [
                0.1908111577857694,
                -2.2770757792204006,
                -2.4730799180044616,
                0.6357290046446102,
                -0.3651677457914019,
                -0.9673507134324617
            ]
        },
        {
            "positions": [
                0.17903823344068423,
                -2.2691540618027015,
                -2.439222042197544,
                0.4792472973483257,
                -0.42990061631212667,
                -1.078580950274608
            ]
        },
        {
            "positions": [
                0.16726530909559906,
                -2.261232344385003,
                -2.4053641663906267,
                0.322765590052041,
                -0.49463348683285147,
                -1.189811187116754
            ]
        },
        {
            "positions": [
                0.15549238475051386,
                -2.2533106269673038,
                -2.371506290583709,
                0.16628388275575667,
                -0.5593663573535762,
                -1.3010414239589
            ]
        },
        {
            "positions": [
                0.14371946040542866,
                -2.2453889095496047,
                -2.337648414776792,
                0.009802175459471929,
                -0.624099227874301,
                -1.4122716608010464
            ]
        },
        {
            "positions": [
                0.13194653606034348,
                -2.237467192131906,
                -2.3037905389698747,
                -0.14667953183681282,
                -0.6888320983950258,
                -1.5235018976431927
            ]
        },
        {
            "positions": [
                0.12017361171525831,
                -2.229545474714207,
                -2.2699326631629573,
                -0.3031612391330971,
                -0.7535649689157505,
                -1.6347321344853385
            ]
        },
        {
            "positions": [
                0.10840068737017311,
                -2.2216237572965083,
                -2.23607478735604,
                -0.45964294642938186,
                -0.8182978394364754,
                -1.7459623713274848
            ]
        },
        {
            "positions": [
                0.09662776302508794,
                -2.213702039878809,
                -2.2022169115491224,
                -0.6161246537256664,
                -0.8830307099572001,
                -1.857192608169631
            ]
        },
        {
            "positions": [
                0.08485483868000274,
                -2.20578032246111,
                -2.168359035742205,
                -0.7726063610219513,
                -0.947763580477925,
                -1.9684228450117773
            ]
        },
        {
            "positions": [
                0.07308191433491756,
                -2.1978586050434115,
                -2.1345011599352874,
                -0.9290880683182359,
                -1.0124964509986496,
                -2.079653081853923
            ]
        },
        {
            "positions": [
                0.06130898998983236,
                -2.1899368876257124,
                -2.10064328412837,
                -1.08556977561452,
                -1.0772293215193744,
                -2.1908833186960694
            ]
        },
        {
            "positions": [
                0.04953606564474716,
                -2.1820151702080133,
                -2.0667854083214525,
                -1.242051482910805,
                -1.1419621920400993,
                -2.3021135555382157
            ]
        },
        {
            "positions": [
                0.03776314129966199,
                -2.1740934527903146,
                -2.032927532514535,
                -1.3985331902070894,
                -1.2066950625608241,
                -2.413343792380362
            ]
        },
        {
            "positions": [
                0.025990216954576817,
                -2.1661717353726155,
                -1.9990696567076176,
                -1.555014897503374,
                -1.2714279330815488,
                -2.524574029222508
            ]
        },
        {
            "positions": [
                0.014217292609491616,
                -2.1582500179549164,
                -1.9652117809007001,
                -1.711496604799659,
                -1.3361608036022736,
                -2.635804266064654
            ]
        },
        {
            "positions": [
                0.0024443682644064157,
                -2.150328300537218,
                -1.9313539050937827,
                -1.867978312095943,
                -1.4008936741229985,
                -2.7470345029068004
            ]
        },
        {
            "positions": [
                -0.00932855608067873,
                -2.1424065831195187,
                -1.8974960292868654,
                -2.0244600193922277,
                -1.465626544643723,
                -2.8582647397489462
            ]
        },
        {
            "positions": [
                -0.02110148042576393,
                -2.13448486570182,
                -1.8636381534799478,
                -2.1809417266885127,
                -1.5303594151644482,
                -2.9694949765910925
            ]
        },
        {
            "positions": [
                -0.03287440477084912,
                -2.126563148284121,
                -1.8297802776730305,
                -2.337423433984797,
                -1.5950922856851728,
                -3.080725213433239
            ]
        }
    ]
}