{
    "goal": {
        "global_pose": {
            "orientation": {
                "w": 0.7031023502349854,
                "x": -0.7110244035720825,
                "y": 0.007748599164187908,
                "z": 0.005598929710686207
            },
            "position": {
                "x": 0.11585023208521307,
                "y": 0.44412534475326537,
                "z": 0.3711530566215515
            }
        },
        "name": "move_to_auspresseinheit_A"
    },
    "id": "RRT_move_to_auspresseinheit_A_41",
    "joint_names": [
        "shoulder_pan_joint",
        "shoulder_lift_joint",
        "elbow_joint",
        "wrist_1_joint",
        "wrist_2_joint",
        "wrist_3_joint"
    ],
    "metrics": {
        "cart_traj_len": 0.9545230934894899,
        "distance_elbow_joint": 0.6437156808074089,
        "distance_shoulder_lift_joint": 0.5332718450828242,
        "distance_shoulder_pan_joint": 1.095761268312926,
        "distance_wrist_1_joint": 4.130705468927313,
        "distance_wrist_2_joint": 1.8064561306945826,
        "distance_wrist_3_joint": 1.381545699748473,
        "smoothness": 1.040554001205499,
        "time": 0.475239852,
        "traj_len": 3.0970076030861673,
        "weighted_distance": 4.276880766714495
    },
    "planner": "RRT",
    "start": {
        "state": {
            "elbow_joint": 2.4225746658250005,
            "shoulder_lift_joint": -1.3736534386056498,
            "shoulder_pan_joint": -0.3378633547517467,
            "wrist_1_joint": -1.0288598680537169,
            "wrist_2_joint": 1.233022673432363,
            "wrist_3_joint": -3.0940220416140027
        }
    },
    "waypoints": [
        {
            "positions": [
                -0.3378633547517467,
                -1.3736534386056498,
                2.4225746658250005,
                -1.0288598680537169,
                1.233022673432363,
                -3.0940220416140027
            ]
        },
        {
            "positions": [
                -0.33981187555013415,
                -1.3982201080242247,
                2.3965984964164133,
                -0.8479493061853778,
                1.1437282523285617,
                -3.0425046491630474
            ]
        },
        {
            "positions": [
                -0.34176039634852157,
                -1.4227867774427998,
                2.370622327007826,
                -0.6670387443170387,
                1.0544338312247603,
                -2.990987256712092
            ]
        },
        {
            "positions": [
                -0.343708917146909,
                -1.4473534468613747,
                2.344646157599239,
                -0.4861281824486995,
                0.9651394101209589,
                -2.9394698642611363
            ]
        },
        {
            "positions": [
                -0.34565743794529635,
                -1.4719201162799496,
                2.318669988190652,
                -0.3052176205803604,
                0.8758449890171576,
                -2.887952471810181
            ]
        },
        {
            "positions": [
                -0.3476059587436838,
                -1.4964867856985247,
                2.2926938187820647,
                -0.1243070587120213,
                0.7865505679133562,
                -2.8364350793592257
            ]
        },
        {
            "positions": [
                -0.3495544795420712,
                -1.5210534551170996,
                2.2667176493734775,
                0.0566035031563179,
                0.6972561468095548,
                -2.7849176869082704
            ]
        },
        {
            "positions": [
                -0.3515030003404586,
                -1.5456201245356744,
                2.24074147996489,
                0.23751406502465677,
                0.6079617257057535,
                -2.7334002944573146
            ]
        },
        {
            "positions": [
                -0.35345152113884604,
                -1.5701867939542495,
                2.2147653105563028,
                0.4184246268929961,
                0.5186673046019521,
                -2.6818829020063593
            ]
        },
        {
            "positions": [
                -0.35540004193723346,
                -1.5947534633728244,
                2.1887891411477156,
                0.5993351887613352,
                0.4293728834981507,
                -2.630365509555404
            ]
        },
        {
            "positions": [
                -0.3573485627356209,
                -1.6193201327913993,
                2.1628129717391285,
                0.7802457506296743,
                0.34007846239434936,
                -2.5788481171044486
            ]
        },
        {
            "positions": [
                -0.35929708353400824,
                -1.6438868022099742,
                2.1368368023305413,
                0.9611563124980134,
                0.250784041290548,
                -2.527330724653493
            ]
        },
        {
            "positions": [
                -0.36124560433239566,
                -1.6684534716285493,
                2.110860632921954,
                1.1420668743663527,
                0.16148962018674662,
                -2.4758133322025375
            ]
        },
        {
            "positions": [
                -0.3631941251307831,
                -1.6930201410471242,
                2.084884463513367,
                1.3229774362346913,
                0.07219519908294518,
                -2.424295939751582
            ]
        },
        {
            "positions": [
                -0.2739915836362923,
                -1.71084556960057,
                2.110386586721348,
                1.1747384225147826,
                0.12599758711170894,
                -2.4836142395754197
            ]
        },
        {
            "positions": [
                -0.18478904214180145,
                -1.7286709981540158,
                2.1358887099293296,
                1.0264994087948738,
                0.1797999751404727,
                -2.5429325393992577
            ]
        },
        {
            "positions": [
                -0.09558650064731061,
                -1.7464964267074616,
                2.161390833137311,
                0.8782603950749651,
                0.23360236316923644,
                -2.602250839223095
            ]
        },
        {
            "positions": [
                -0.006383959152819807,
                -1.7643218552609075,
                2.186892956345292,
                0.7300213813550565,
                0.2874047511980002,
                -2.661569139046933
            ]
        },
        {
            "positions": [
                0.08281858234167105,
                -1.7821472838143533,
                2.212395079553273,
                0.5817823676351476,
                0.341207139226764,
                -2.7208874388707707
            ]
        },
        {
            "positions": [
                0.17202112383616186,
                -1.799972712367799,
                2.2378972027612547,
                0.4335433539152389,
                0.39500952725552774,
                -2.780205738694608
            ]
        },
        {
            "positions": [
                0.2612236653306528,
                -1.817798140921245,
                2.263399325969236,
                0.28530434019533013,
                0.44881191528429154,
                -2.839524038518446
            ]
        },
        {
            "positions": [
                0.35042620682514347,
                -1.8356235694746907,
                2.2889014491772173,
                0.13706532647542158,
                0.5026143033130552,
                -2.8988423383422837
            ]
        },
        {
            "positions": [
                0.4396287483196344,
                -1.8534489980281366,
                2.3144035723851983,
                -0.011173687244487418,
                0.5564166913418189,
                -2.9581606381661216
            ]
        },
        {
            "positions": [
                0.5288312898141252,
                -1.8712744265815824,
                2.33990569559318,
                -0.1594127009643962,
                0.6102190793705827,
                -3.017478937989959
            ]
        },
        {
            "positions": [
                0.6180338313086159,
                -1.8890998551350282,
                2.3654078188011614,
                -0.30765171468430474,
                0.6640214673993464,
                -3.076797237813797
            ]
        },
        {
            "positions": [
                0.7072363728031068,
                -1.906925283688474,
                2.3909099420091424,
                -0.4558907284042134,
                0.7178238554281102,
                -3.1361155376376346
            ]
        }
    ]
}