{
    "goal": {
        "global_pose": {
            "orientation": {
                "w": 0.005598929693374612,
                "x": 0.007748599140229565,
                "y": 0.7110244013736278,
                "z": -0.7031023480610252
            },
            "position": {
                "x": -0.8858502320852131,
                "y": -0.7141253447532654,
                "z": 0.3711530566215515
            }
        },
        "name": "move_to_auspresseinheit_C"
    },
    "id": "RRT_move_to_auspresseinheit_C_68",
    "joint_names": [
        "shoulder_pan_joint",
        "shoulder_lift_joint",
        "elbow_joint",
        "wrist_1_joint",
        "wrist_2_joint",
        "wrist_3_joint"
    ],
    "metrics": {
        "cart_traj_len": 0.49321867289269944,
        "distance_elbow_joint": 1.0054275449183305,
        "distance_shoulder_lift_joint": 0.3276114218220231,
        "distance_shoulder_pan_joint": 0.2563073305136916,
        "distance_wrist_1_joint": 0.6918318237204252,
        "distance_wrist_2_joint": 1.3153847825511786,
        "distance_wrist_3_joint": 0.06852583779075916,
        "smoothness": 3.2297397080004555e-16,
        "time": 0.012516455999999999,
        "traj_len": 1.9144421488560077,
        "weighted_distance": 2.4102607790796267
    },
    "planner": "RRT",
    "start": {
        "state": {
            "elbow_joint": 1.7527959577737207,
            "shoulder_lift_joint": -0.9740617694225068,
            "shoulder_pan_joint": -2.967991417825858,
            "wrist_1_joint": -0.759517768980727,
            "wrist_2_joint": 1.7443932448377408,
            "wrist_3_joint": -3.0840537646736568
        }
    },
    "waypoints": [
        {
            "positions": [
                -2.967991417825858,
                -0.9740617694225068,
                1.7527959577737207,
                -0.759517768980727,
                1.7443932448377408,
                -3.0840537646736568
            ]
        },
        {
            "positions": [
                -2.942360684774489,
                -0.9413006272403045,
                1.6522532032818875,
                -0.6903345866086845,
                1.612854766582623,
                -3.090906348452733
            ]
        },
        {
            "positions": [
                -2.9167299517231196,
                -0.9085394850581021,
                1.5517104487900546,
                -0.621151404236642,
                1.481316288327505,
                -3.0977589322318084
            ]
        },
        {
            "positions": [
                -2.8910992186717506,
                -0.8757783428758998,
                1.4511676942982215,
                -0.5519682218645994,
                1.3497778100723872,
                -3.1046115160108845
            ]
        },
        {
            "positions": [
                -2.865468485620381,
                -0.8430172006936976,
                1.3506249398063885,
                -0.4827850394925569,
                1.2182393318172693,
                -3.1114640997899605
            ]
        },
        {
            "positions": [
                -2.839837752569012,
                -0.8102560585114953,
                1.2500821853145554,
                -0.4136018571205144,
                1.0867008535621516,
                -3.118316683569036
            ]
        },
        {
            "positions": [
                -2.814207019517643,
                -0.7774949163292929,
                1.1495394308227223,
                -0.3444186747484719,
                0.9551623753070336,
                -3.125169267348112
            ]
        },
        {
            "positions": [
                -2.7885762864662738,
                -0.7447337741470906,
                1.0489966763308893,
                -0.2752354923764294,
                0.8236238970519159,
                -3.1320218511271882
            ]
        },
        {
            "positions": [
                -2.7629455534149048,
                -0.7119726319648882,
                0.9484539218390562,
                -0.20605231000438684,
                0.692085418796798,
                -3.1388744349062643
            ]
        },
        {
            "positions": [
                -2.7373148203635354,
                -0.679211489782686,
                0.8479111673472232,
                -0.13686912763234427,
                0.5605469405416801,
                -3.14572701868534
            ]
        },
        {
            "positions": [
                -2.7116840873121664,
                -0.6464503476004837,
                0.7473684128553901,
                -0.06768594526030185,
                0.42900846228656225,
                -3.152579602464416
            ]
        }
    ]
}