{
    "goal": {
        "global_pose": {
            "orientation": {
                "w": 0.7031023502349854,
                "x": -0.7110244035720825,
                "y": 0.007748599164187908,
                "z": 0.005598929710686207
            },
            "position": {
                "x": 0.11585023208521307,
                "y": 0.44412534475326537,
                "z": 0.3711530566215515
            }
        },
        "name": "move_to_auspresseinheit_A"
    },
    "id": "RRT_move_to_auspresseinheit_A_40",
    "joint_names": [
        "shoulder_pan_joint",
        "shoulder_lift_joint",
        "elbow_joint",
        "wrist_1_joint",
        "wrist_2_joint",
        "wrist_3_joint"
    ],
    "metrics": {
        "cart_traj_len": 2.209011177863592,
        "distance_elbow_joint": 2.720088935444046,
        "distance_shoulder_lift_joint": 1.0059549776037633,
        "distance_shoulder_pan_joint": 1.7093619280678471,
        "distance_wrist_1_joint": 2.9138082424576623,
        "distance_wrist_2_joint": 1.886644435733181,
        "distance_wrist_3_joint": 4.834951419953648,
        "smoothness": 0.32881631109908166,
        "time": 0.60077041,
        "traj_len": 3.882114106934538,
        "weighted_distance": 5.435178512004761
    },
    "planner": "RRT",
    "start": {
        "state": {
            "elbow_joint": 2.4225746658250005,
            "shoulder_lift_joint": -1.3736534386056498,
            "shoulder_pan_joint": -0.3378633547517467,
            "wrist_1_joint": -1.0288598680537169,
            "wrist_2_joint": 1.233022673432363,
            "wrist_3_joint": -3.0940220416140027
        }
    },
    "waypoints": [
        {
            "positions": [
                -0.3378633547517467,
                -1.3736534386056498,
                2.4225746658250005,
                -1.0288598680537169,
                1.233022673432363,
                -3.0940220416140027
            ]
        },
        {
            "positions": [
                -0.3011270734957446,
                -1.3676914808223664,
                2.330843070379577,
                -0.9691396285933752,
                1.1829427616526418,
                -2.9527464202004303
            ]
        },
        {
            "positions": [
                -0.26439079223974243,
                -1.361729523039083,
                2.2391114749341536,
                -0.9094193891330334,
                1.1328628498729207,
                -2.811470798786858
            ]
        },
        {
            "positions": [
                -0.22765451098374026,
                -1.3557675652557992,
                2.14737987948873,
                -0.8496991496726918,
                1.0827829380931995,
                -2.6701951773732855
            ]
        },
        {
            "positions": [
                -0.19091822972773811,
                -1.3498056074725158,
                2.055648284043307,
                -0.7899789102123501,
                1.0327030263134784,
                -2.528919555959713
            ]
        },
        {
            "positions": [
                -0.15418194847173597,
                -1.3438436496892323,
                1.9639166885978834,
                -0.7302586707520085,
                0.9826231145337573,
                -2.3876439345461407
            ]
        },
        {
            "positions": [
                -0.1174456672157338,
                -1.3378816919059489,
                1.87218509315246,
                -0.6705384312916667,
                0.9325432027540361,
                -2.2463683131325682
            ]
        },
        {
            "positions": [
                -0.08070938595973165,
                -1.3319197341226654,
                1.7804534977070365,
                -0.6108181918313249,
                0.8824632909743149,
                -2.105092691718996
            ]
        },
        {
            "positions": [
                -0.043973104703729504,
                -1.3259577763393817,
                1.6887219022616131,
                -0.5510979523709834,
                0.8323833791945938,
                -1.9638170703054232
            ]
        },
        {
            "positions": [
                -0.0072368234477273585,
                -1.3199958185560983,
                1.5969903068161897,
                -0.4913777129106416,
                0.7823034674148726,
                -1.8225414488918508
            ]
        },
        {
            "positions": [
                0.029499457808274787,
                -1.3140338607728148,
                1.5052587113707663,
                -0.4316574734502999,
                0.7322235556351515,
                -1.6812658274782784
            ]
        },
        {
            "positions": [
                0.06623573906427693,
                -1.3080719029895314,
                1.4135271159253429,
                -0.37193723398995826,
                0.6821436438554304,
                -1.539990206064706
            ]
        },
        {
            "positions": [
                0.10297202032027913,
                -1.302109945206248,
                1.3217955204799194,
                -0.3122169945296165,
                0.6320637320757091,
                -1.3987145846511333
            ]
        },
        {
            "positions": [
                0.13970830157628128,
                -1.2961479874229642,
                1.230063925034496,
                -0.2524967550692747,
                0.5819838202959879,
                -1.2574389632375609
            ]
        },
        {
            "positions": [
                0.17644458283228343,
                -1.2901860296396808,
                1.1383323295890726,
                -0.19277651560893305,
                0.5319039085162668,
                -1.1161633418239885
            ]
        },
        {
            "positions": [
                0.21318086408828557,
                -1.2842240718563973,
                1.0466007341436492,
                -0.13305627614859145,
                0.48182399673654563,
                -0.974887720410416
            ]
        },
        {
            "positions": [
                0.2998844606574863,
                -1.321224826827808,
                1.0679216411509127,
                -0.015479099045713485,
                0.41724879318027,
                -0.9285304049339578
            ]
        },
        {
            "positions": [
                0.3865880572266871,
                -1.3582255817992184,
                1.0892425481581762,
                0.10209807805716448,
                0.3526735896239943,
                -0.8821730894574994
            ]
        },
        {
            "positions": [
                0.47329165379588783,
                -1.3952263367706288,
                1.1105634551654398,
                0.21967525516004244,
                0.2880983860677186,
                -0.8358157739810411
            ]
        },
        {
            "positions": [
                0.5599952503650886,
                -1.4322270917420394,
                1.1318843621727033,
                0.3372524322629204,
                0.22352318251144293,
                -0.7894584585045828
            ]
        },
        {
            "positions": [
                0.6466988469342894,
                -1.46922784671345,
                1.1532052691799668,
                0.45482960936579836,
                0.1589479789551672,
                -0.7431011430281245
            ]
        },
        {
            "positions": [
                0.73340244350349,
                -1.5062286016848605,
                1.1745261761872303,
                0.5724067864686764,
                0.09437277539889155,
                -0.6967438275516662
            ]
        },
        {
            "positions": [
                0.7944622344490856,
                -1.548932014022133,
                1.2439368409795353,
                0.6192004132636368,
                0.07011436029795512,
                -0.7569517641456199
            ]
        },
        {
            "positions": [
                0.8555220253946811,
                -1.5916354263594052,
                1.3133475057718405,
                0.6659940400585973,
                0.04585594519701869,
                -0.8171597007395736
            ]
        },
        {
            "positions": [
                0.9165818163402767,
                -1.6343388386966777,
                1.3827581705641454,
                0.7127876668535578,
                0.02159753009608226,
                -0.8773676373335273
            ]
        },
        {
            "positions": [
                0.946818019474293,
                -1.6754558335640992,
                1.4737487661389503,
                0.693997442151691,
                0.03266565290832753,
                -1.0121338108493494
            ]
        },
        {
            "positions": [
                0.9770542226083092,
                -1.716572828431521,
                1.5647393617137553,
                0.6752072174498243,
                0.0437337757205728,
                -1.1468999843651717
            ]
        },
        {
            "positions": [
                1.0072904257423256,
                -1.7576898232989424,
                1.6557299572885602,
                0.6564169927479576,
                0.054801898532818055,
                -1.281666157880994
            ]
        },
        {
            "positions": [
                1.0375266288763418,
                -1.798806818166364,
                1.7467205528633651,
                0.6376267680460909,
                0.06587002134506333,
                -1.4164323313968161
            ]
        },
        {
            "positions": [
                1.0175942729386118,
                -1.8220460862951147,
                1.8039928623629093,
                0.5485124157902223,
                0.09902979816522205,
                -1.5642015734196786
            ]
        },
        {
            "positions": [
                0.9976619170008818,
                -1.8452853544238652,
                1.8612651718624533,
                0.4593980635343537,
                0.13218957498538075,
                -1.711970815442541
            ]
        },
        {
            "positions": [
                0.9777295610631519,
                -1.868524622552616,
                1.9185374813619975,
                0.37028371127848514,
                0.1653493518055395,
                -1.8597400574654033
            ]
        },
        {
            "positions": [
                0.9577972051254219,
                -1.8917638906813667,
                1.9758097908615415,
                0.2811693590226165,
                0.1985091286256982,
                -2.007509299488266
            ]
        },
        {
            "positions": [
                0.9378648491876919,
                -1.9150031588101175,
                2.0330821003610855,
                0.19205500676674797,
                0.23166890544585694,
                -2.1552785415111284
            ]
        },
        {
            "positions": [
                0.9179324932499618,
                -1.938242426938868,
                2.09035440986063,
                0.10294065451087941,
                0.26482868226601564,
                -2.3030477835339904
            ]
        },
        {
            "positions": [
                0.8980001373122318,
                -1.9614816950676188,
                2.147626719360174,
                0.013826302255010803,
                0.2979884590861744,
                -2.4508170255568533
            ]
        },
        {
            "positions": [
                0.8780677813745019,
                -1.9847209631963696,
                2.204899028859718,
                -0.07528805000085781,
                0.3311482359063331,
                -2.598586267579716
            ]
        },
        {
            "positions": [
                0.8581354254367719,
                -2.00796023132512,
                2.262171338359262,
                -0.16440240225672642,
                0.3643080127264918,
                -2.7463555096025782
            ]
        },
        {
            "positions": [
                0.8382030694990419,
                -2.031199499453871,
                2.3194436478588063,
                -0.2535167545125949,
                0.3974677895466505,
                -2.8941247516254403
            ]
        },
        {
            "positions": [
                0.8182707135613119,
                -2.0544387675826217,
                2.3767159573583503,
                -0.34263110676846353,
                0.43062756636680927,
                -3.0418939936483027
            ]
        },
        {
            "positions": [
                0.7609126989989474,
                -1.9812833100184783,
                2.383715847632347,
                -0.40100207373264724,
                0.5637221944298955,
                -3.08815551354564
            ]
        },
        {
            "positions": [
                0.703554684436583,
                -1.9081278524543352,
                2.390715737906344,
                -0.45937304069683094,
                0.6968168224929817,
                -3.134417033442978
            ]
        }
    ]
}