{
    "goal": {
        "global_pose": {
            "orientation": {
                "w": 0.5084816262002911,
                "x": -0.4908360881923452,
                "y": 0.5182115481033761,
                "z": -0.48164630358495003
            },
            "position": {
                "x": 0.5540239810943604,
                "y": -0.46912469901144505,
                "z": 0.16403168439865112
            }
        },
        "name": "move_to_storage_B"
    },
    "id": "RRT_move_to_storage_B_84",
    "joint_names": [
        "shoulder_pan_joint",
        "shoulder_lift_joint",
        "elbow_joint",
        "wrist_1_joint",
        "wrist_2_joint",
        "wrist_3_joint"
    ],
    "metrics": {
        "cart_traj_len": 0.9963032773023123,
        "distance_elbow_joint": 0.7830336701394232,
        "distance_shoulder_lift_joint": 0.4631275751300057,
        "distance_shoulder_pan_joint": 0.6005103033602787,
        "distance_wrist_1_joint": 3.0238956832976203,
        "distance_wrist_2_joint": 2.719134430618047,
        "distance_wrist_3_joint": 3.2030894281629414,
        "smoothness": 0.1318787037422833,
        "time": 0.120844848,
        "traj_len": 3.2852383613230134,
        "weighted_distance": 4.789780794665856
    },
    "planner": "RRT",
    "start": {
        "state": {
            "elbow_joint": 1.664937868594044,
            "shoulder_lift_joint": -0.661644460510453,
            "shoulder_pan_joint": -0.9139846352900073,
            "wrist_1_joint": 2.146753192139373,
            "wrist_2_joint": -2.2341966793290973,
            "wrist_3_joint": 0.005466555786416001
        }
    },
    "waypoints": [
        {
            "positions": [
                -0.9139846352900073,
                -0.661644460510453,
                1.664937868594044,
                2.146753192139373,
                -2.2341966793290973,
                0.005466555786416001
            ]
        },
        {
            "positions": [
                -0.8440779763814138,
                -0.7328598072853038,
                1.5945505317334414,
                2.1389855785217096,
                -2.0952126051174584,
                -1.6123488019072034e-05
            ]
        },
        {
            "positions": [
                -0.7741713174728204,
                -0.8040751540601544,
                1.5241631948728387,
                2.1312179649040464,
                -1.9562285309058192,
                -0.005498802762454145
            ]
        },
        {
            "positions": [
                -0.7042646585642269,
                -0.8752905008350051,
                1.4537758580122362,
                2.1234503512863827,
                -1.81724445669418,
                -0.010981482036889218
            ]
        },
        {
            "positions": [
                -0.7198962716296069,
                -0.8852697622272233,
                1.4766507243945408,
                2.0034266375885976,
                -1.7251571683748548,
                0.11648417357669626
            ]
        },
        {
            "positions": [
                -0.7355278846949868,
                -0.8952490236194415,
                1.4995255907768454,
                1.8834029238908123,
                -1.6330698800555297,
                0.24394982919028171
            ]
        },
        {
            "positions": [
                -0.7511594977603667,
                -0.9052282850116595,
                1.52240045715915,
                1.763379210193027,
                -1.5409825917362046,
                0.37141548480386716
            ]
        },
        {
            "positions": [
                -0.7667911108257467,
                -0.9152075464038777,
                1.5452753235414547,
                1.643355496495242,
                -1.4488953034168792,
                0.4988811404174527
            ]
        },
        {
            "positions": [
                -0.7824227238911265,
                -0.9251868077960959,
                1.5681501899237593,
                1.5233317827974568,
                -1.3568080150975539,
                0.6263467960310382
            ]
        },
        {
            "positions": [
                -0.7980543369565065,
                -0.935166069188314,
                1.591025056306064,
                1.4033080690996715,
                -1.2647207267782288,
                0.7538124516446235
            ]
        },
        {
            "positions": [
                -0.8136859500218865,
                -0.9451453305805322,
                1.6138999226883686,
                1.2832843554018862,
                -1.1726334384589037,
                0.8812781072582091
            ]
        },
        {
            "positions": [
                -0.8293175630872665,
                -0.9551245919727502,
                1.6367747890706732,
                1.1632606417041012,
                -1.0805461501395783,
                1.0087437628717946
            ]
        },
        {
            "positions": [
                -0.8449491761526463,
                -0.9651038533649684,
                1.6596496554529778,
                1.043236928006316,
                -0.9884588618202532,
                1.13620941848538
            ]
        },
        {
            "positions": [
                -0.8605807892180263,
                -0.9750831147571866,
                1.6825245218352824,
                0.9232132143085308,
                -0.8963715735009279,
                1.2636750740989655
            ]
        },
        {
            "positions": [
                -0.8762124022834061,
                -0.9850623761494047,
                1.7053993882175869,
                0.8031895006107457,
                -0.8042842851816028,
                1.3911407297125509
            ]
        },
        {
            "positions": [
                -0.8918440153487861,
                -0.9950416375416229,
                1.7282742545998917,
                0.6831657869129604,
                -0.7121969968622774,
                1.5186063853261362
            ]
        },
        {
            "positions": [
                -0.9074756284141661,
                -1.005020898933841,
                1.751149120982196,
                0.5631420732151753,
                -0.6201097085429523,
                1.6460720409397218
            ]
        },
        {
            "positions": [
                -0.923107241479546,
                -1.0150001603260592,
                1.774023987364501,
                0.44311835951739,
                -0.528022420223627,
                1.7735376965533074
            ]
        },
        {
            "positions": [
                -0.9387388545449259,
                -1.0249794217182773,
                1.7968988537468054,
                0.3230946458196049,
                -0.4359351319043019,
                1.9010033521668925
            ]
        },
        {
            "positions": [
                -0.9543704676103059,
                -1.0349586831104953,
                1.8197737201291102,
                0.2030709321218196,
                -0.34384784358497655,
                2.0284690077804783
            ]
        },
        {
            "positions": [
                -0.9700020806756857,
                -1.0449379445027136,
                1.8426485865114146,
                0.08304721842403451,
                -0.2517605552656512,
                2.155934663394064
            ]
        },
        {
            "positions": [
                -0.9856336937410657,
                -1.0549172058949317,
                1.8655234528937192,
                -0.036976495273750576,
                -0.15967326694632633,
                2.283400319007649
            ]
        },
        {
            "positions": [
                -1.0012653068064457,
                -1.06489646728715,
                1.8883983192760239,
                -0.1570002089715361,
                -0.067585978627001,
                2.4108659746212346
            ]
        },
        {
            "positions": [
                -1.0168969198718256,
                -1.074875728679368,
                1.9112731856583285,
                -0.2770239226693212,
                0.024501309692324336,
                2.5383316302348202
            ]
        },
        {
            "positions": [
                -1.0325285329372056,
                -1.084854990071586,
                1.9341480520406331,
                -0.39704763636710627,
                0.11658859801164945,
                2.6657972858484054
            ]
        },
        {
            "positions": [
                -1.0481601460025853,
                -1.0948342514638043,
                1.9570229184229377,
                -0.5170713500648914,
                0.20867588633097456,
                2.793262941461991
            ]
        },
        {
            "positions": [
                -1.0637917590679655,
                -1.1048135128560224,
                1.9798977848052424,
                -0.6370950637626769,
                0.3007631746503001,
                2.9207285970755765
            ]
        },
        {
            "positions": [
                -1.0794233721333453,
                -1.1147927742482406,
                2.0027726511875468,
                -0.757118777460462,
                0.3928504629696252,
                3.0481942526891617
            ]
        },
        {
            "positions": [
                -1.0950549851987252,
                -1.1247720356404587,
                2.0256475175698516,
                -0.8771424911582469,
                0.48493775128895017,
                3.1756599083027472
            ]
        }
    ]
}