{
    "goal": {
        "global_pose": {
            "orientation": {
                "w": -0.00223480608172531,
                "x": 0.0024358444001904467,
                "y": 0.7094548369677653,
                "z": -0.704743149386269
            },
            "position": {
                "x": -0.37947507619857795,
                "y": -0.6371506643295288,
                "z": 0.19426114857196808
            }
        },
        "name": "move_to_magneteinheit_C"
    },
    "id": "RRT_move_to_magneteinheit_C_59",
    "joint_names": [
        "shoulder_pan_joint",
        "shoulder_lift_joint",
        "elbow_joint",
        "wrist_1_joint",
        "wrist_2_joint",
        "wrist_3_joint"
    ],
    "metrics": {
        "cart_traj_len": 3.3852808812021795,
        "distance_elbow_joint": 1.3398519826439972,
        "distance_shoulder_lift_joint": 3.3691988224553917,
        "distance_shoulder_pan_joint": 1.167644061834179,
        "distance_wrist_1_joint": 8.080423656453467,
        "distance_wrist_2_joint": 2.4812902945325392,
        "distance_wrist_3_joint": 2.7934264108775912,
        "smoothness": 0.866154101341974,
        "time": 2.987135574,
        "traj_len": 4.385411637326326,
        "weighted_distance": 5.948142735471163
    },
    "planner": "RRT",
    "start": {
        "state": {
            "elbow_joint": 1.9565354010623817,
            "shoulder_lift_joint": -1.4165861575791021,
            "shoulder_pan_joint": -1.6717766225146293,
            "wrist_1_joint": -0.5286633292919765,
            "wrist_2_joint": 1.472756589071564,
            "wrist_3_joint": -3.1238370188695823
        }
    },
    "waypoints": [
        {
            "positions": [
                -1.6717766225146293,
                -1.4165861575791021,
                1.9565354010623817,
                -0.5286633292919765,
                1.472756589071564,
                -3.1238370188695823
            ]
        },
        {
            "positions": [
                -1.658058024904225,
                -1.4171252319192247,
                1.9622744993412775,
                -0.5267829871791067,
                1.4417555819356362,
                -3.1277602880152813
            ]
        },
        {
            "positions": [
                -1.6413824439447033,
                -1.443728520183787,
                1.9665592028357692,
                -0.5788461351657751,
                1.2207121517633002,
                -3.0831517567704716
            ]
        },
        {
            "positions": [
                -1.624706862985182,
                -1.4703318084483494,
                1.970843906330261,
                -0.6309092831524434,
                0.9996687215909641,
                -3.038543225525662
            ]
        },
        {
            "positions": [
                -1.6080312820256604,
                -1.4969350967129116,
                1.9751286098247527,
                -0.6829724311391119,
                0.778625291418628,
                -2.993934694280852
            ]
        },
        {
            "positions": [
                -1.591355701066139,
                -1.523538384977474,
                1.9794133133192444,
                -0.7350355791257803,
                0.5575818612462919,
                -2.949326163036042
            ]
        },
        {
            "positions": [
                -1.5746801201066174,
                -1.5501416732420363,
                1.9836980168137361,
                -0.7870987271124487,
                0.33653843107395587,
                -2.9047176317912324
            ]
        },
        {
            "positions": [
                -1.6175142015621986,
                -1.6120817797363876,
                1.955787043335802,
                -0.6182616117195295,
                0.37304943689080344,
                -2.8541550261869997
            ]
        },
        {
            "positions": [
                -1.66034828301778,
                -1.6740218862307386,
                1.9278760698578679,
                -0.44942449632661047,
                0.409560442707651,
                -2.803592420582767
            ]
        },
        {
            "positions": [
                -1.7031823644733612,
                -1.7359619927250898,
                1.8999650963799337,
                -0.2805873809336914,
                0.44607144852449865,
                -2.7530298149785337
            ]
        },
        {
            "positions": [
                -1.7460164459289427,
                -1.7979020992194408,
                1.8720541229019996,
                -0.11175026554077228,
                0.4825824543413462,
                -2.702467209374301
            ]
        },
        {
            "positions": [
                -1.7888505273845239,
                -1.859842205713792,
                1.8441431494240654,
                0.05708684985214685,
                0.5190934601581938,
                -2.651904603770068
            ]
        },
        {
            "positions": [
                -1.831684608840105,
                -1.9217823122081432,
                1.8162321759461313,
                0.22592396524506586,
                0.5556044659750414,
                -2.6013419981658354
            ]
        },
        {
            "positions": [
                -1.8745186902956865,
                -1.9837224187024942,
                1.7883212024681971,
                0.3947610806379852,
                0.5921154717918891,
                -2.5507793925616027
            ]
        },
        {
            "positions": [
                -1.9173527717512677,
                -2.045662525196845,
                1.7604102289902632,
                0.5635981960309041,
                0.6286264776087366,
                -2.5002167869573695
            ]
        },
        {
            "positions": [
                -1.960186853206849,
                -2.1076026316911967,
                1.732499255512329,
                0.7324353114238235,
                0.6651374834255842,
                -2.4496541813531367
            ]
        },
        {
            "positions": [
                -2.0030209346624304,
                -2.1695427381855477,
                1.704588282034395,
                0.9012724268167424,
                0.7016484892424317,
                -2.399091575748904
            ]
        },
        {
            "positions": [
                -2.045855016118012,
                -2.231482844679899,
                1.6766773085564608,
                1.0701095422096616,
                0.7381594950592794,
                -2.348528970144671
            ]
        },
        {
            "positions": [
                -2.088689097573593,
                -2.29342295117425,
                1.6487663350785267,
                1.2389466576025803,
                0.774670500876127,
                -2.2979663645404385
            ]
        },
        {
            "positions": [
                -2.131523179029174,
                -2.355363057668601,
                1.6208553616005925,
                1.4077837729954994,
                0.8111815066929745,
                -2.2474037589362057
            ]
        },
        {
            "positions": [
                -2.1743572604847556,
                -2.417303164162952,
                1.5929443881226584,
                1.576620888388419,
                0.8476925125098221,
                -2.1968411533319725
            ]
        },
        {
            "positions": [
                -2.217191341940337,
                -2.479243270657303,
                1.5650334146447242,
                1.7454580037813376,
                0.8842035183266698,
                -2.1462785477277397
            ]
        },
        {
            "positions": [
                -2.260025423395918,
                -2.5411833771516545,
                1.5371224411667903,
                1.9142951191742568,
                0.9207145241435173,
                -2.095715942123507
            ]
        },
        {
            "positions": [
                -2.3028595048514995,
                -2.6031234836460055,
                1.5092114676888562,
                2.083132234567176,
                0.9572255299603649,
                -2.0451533365192742
            ]
        },
        {
            "positions": [
                -2.345693586307081,
                -2.665063590140357,
                1.481300494210922,
                2.2519693499600955,
                0.9937365357772125,
                -1.9945907309150412
            ]
        },
        {
            "positions": [
                -2.388527667762662,
                -2.727003696634708,
                1.4533895207329879,
                2.420806465353014,
                1.03024754159406,
                -1.9440281253108083
            ]
        },
        {
            "positions": [
                -2.4313617492182433,
                -2.788943803129059,
                1.4254785472550537,
                2.5896435807459333,
                1.0667585474109078,
                -1.8934655197065755
            ]
        },
        {
            "positions": [
                -2.4741958306738248,
                -2.85088390962341,
                1.3975675737771196,
                2.7584806961388524,
                1.1032695532277552,
                -1.8429029141023427
            ]
        },
        {
            "positions": [
                -2.5170299121294057,
                -2.9128240161177614,
                1.3696566002991855,
                2.9273178115317715,
                1.139780559044603,
                -1.7923403084981098
            ]
        },
        {
            "positions": [
                -2.559863993584987,
                -2.9747641226121124,
                1.3417456268212513,
                3.0961549269246906,
                1.1762915648614505,
                -1.741777702893877
            ]
        },
        {
            "positions": [
                -2.5559838260419054,
                -2.892444992729277,
                1.3722336712258039,
                2.917292475998776,
                1.1533225192820213,
                -1.8055740918307173
            ]
        },
        {
            "positions": [
                -2.5521036584988237,
                -2.8101258628464416,
                1.4027217156303566,
                2.7384300250728617,
                1.1303534737025924,
                -1.8693704807675577
            ]
        },
        {
            "positions": [
                -2.548223490955742,
                -2.727806732963606,
                1.4332097600349092,
                2.5595675741469472,
                1.1073844281231633,
                -1.933166869704398
            ]
        },
        {
            "positions": [
                -2.5443433234126602,
                -2.6454876030807704,
                1.463697804439462,
                2.380705123221033,
                1.0844153825437344,
                -1.9969632586412385
            ]
        },
        {
            "positions": [
                -2.5404631558695785,
                -2.5631684731979347,
                1.4941858488440145,
                2.2018426722951183,
                1.0614463369643052,
                -2.0607596475780787
            ]
        },
        {
            "positions": [
                -2.536582988326497,
                -2.4808493433150995,
                1.524673893248567,
                2.0229802213692043,
                1.038477291384876,
                -2.124556036514919
            ]
        },
        {
            "positions": [
                -2.5327028207834155,
                -2.398530213432264,
                1.5551619376531196,
                1.8441177704432896,
                1.0155082458054472,
                -2.1883524254517597
            ]
        },
        {
            "positions": [
                -2.5288226532403337,
                -2.3162110835494283,
                1.5856499820576724,
                1.6652553195173752,
                0.992539200226018,
                -2.2521488143886
            ]
        },
        {
            "positions": [
                -2.524942485697252,
                -2.2338919536665927,
                1.616138026462225,
                1.4863928685914605,
                0.969570154646589,
                -2.31594520332544
            ]
        },
        {
            "positions": [
                -2.5210623181541703,
                -2.1515728237837575,
                1.6466260708667777,
                1.3075304176655462,
                0.94660110906716,
                -2.3797415922622807
            ]
        },
        {
            "positions": [
                -2.5171821506110885,
                -2.069253693900922,
                1.6771141152713303,
                1.1286679667396318,
                0.923632063487731,
                -2.443537981199121
            ]
        },
        {
            "positions": [
                -2.513301983068007,
                -1.9869345640180864,
                1.7076021596758828,
                0.9498055158137175,
                0.9006630179083019,
                -2.507334370135961
            ]
        },
        {
            "positions": [
                -2.509421815524925,
                -1.9046154341352508,
                1.7380902040804356,
                0.7709430648878026,
                0.8776939723288728,
                -2.5711307590728016
            ]
        },
        {
            "positions": [
                -2.5055416479818433,
                -1.8222963042524154,
                1.7685782484849881,
                0.5920806139618886,
                0.8547249267494439,
                -2.634927148009642
            ]
        },
        {
            "positions": [
                -2.5016614804387616,
                -1.73997717436958,
                1.7990662928895407,
                0.41321816303597414,
                0.8317558811700148,
                -2.698723536946482
            ]
        },
        {
            "positions": [
                -2.49778131289568,
                -1.6576580444867444,
                1.8295543372940934,
                0.23435571211005968,
                0.8087868355905857,
                -2.762519925883323
            ]
        },
        {
            "positions": [
                -2.4939011453525985,
                -1.5753389146039087,
                1.860042381698646,
                0.055493261184145215,
                0.7858177900111567,
                -2.826316314820163
            ]
        },
        {
            "positions": [
                -2.490020977809517,
                -1.493019784721073,
                1.8905304261031985,
                -0.12336918974176969,
                0.7628487444317276,
                -2.8901127037570036
            ]
        },
        {
            "positions": [
                -2.486140810266435,
                -1.4107006548382377,
                1.9210184705077513,
                -0.3022316406676837,
                0.7398796988522987,
                -2.953909092693844
            ]
        },
        {
            "positions": [
                -2.4822606427233533,
                -1.3283815249554023,
                1.9515065149123039,
                -0.48109409159359817,
                0.7169106532728695,
                -3.017705481630684
            ]
        },
        {
            "positions": [
                -2.4783804751802716,
                -1.2460623950725667,
                1.9819945593168566,
                -0.6599565425195126,
                0.6939416076934405,
                -3.081501870567525
            ]
        },
        {
            "positions": [
                -2.47450030763719,
                -1.1637432651897313,
                2.012482603721409,
                -0.838818993445427,
                0.6709725621140115,
                -3.145298259504365
            ]
        }
    ]
}