{
    "goal": {
        "global_pose": {
            "orientation": {
                "w": -0.4816463035849501,
                "x": 0.5182115481033762,
                "y": 0.4908360881923453,
                "z": -0.5084816262002911
            },
            "position": {
                "x": -0.8240239810943604,
                "y": -0.300875300988555,
                "z": 0.16403168439865112
            }
        },
        "name": "move_to_storage_C"
    },
    "id": "RRT_move_to_storage_C_117",
    "joint_names": [
        "shoulder_pan_joint",
        "shoulder_lift_joint",
        "elbow_joint",
        "wrist_1_joint",
        "wrist_2_joint",
        "wrist_3_joint"
    ],
    "metrics": {
        "cart_traj_len": 0.5772420745580652,
        "distance_elbow_joint": 0.2557442266640644,
        "distance_shoulder_lift_joint": 0.18986711835687853,
        "distance_shoulder_pan_joint": 0.49433293427920244,
        "distance_wrist_1_joint": 0.06730288262645423,
        "distance_wrist_2_joint": 1.076537954008319,
        "distance_wrist_3_joint": 0.060026465288065545,
        "smoothness": 0.0,
        "time": 0.016522013,
        "traj_len": 1.4641760758948985,
        "weighted_distance": 1.8459971149581704
    },
    "planner": "RRT",
    "start": {
        "state": {
            "elbow_joint": 2.010868314990456,
            "shoulder_lift_joint": -1.1634956873337592,
            "shoulder_pan_joint": -2.4736205022346125,
            "wrist_1_joint": -0.8367026794202681,
            "wrist_2_joint": 0.6746043897044499,
            "wrist_3_joint": -3.1496632123970403
        }
    },
    "waypoints": [
        {
            "positions": [
                -2.4736205022346125,
                -1.1634956873337592,
                2.010868314990456,
                -0.8367026794202681,
                0.6746043897044499,
                -3.1496632123970403
            ]
        },
        {
            "positions": [
                -2.5560093246144797,
                -1.1318511676076128,
                1.9682442772131117,
                -0.8254855323158591,
                0.8540273820391697,
                -3.139658801515696
            ]
        },
        {
            "positions": [
                -2.6383981469943465,
                -1.1002066478814663,
                1.9256202394357678,
                -0.8142683852114501,
                1.0334503743738896,
                -3.129654390634352
            ]
        },
        {
            "positions": [
                -2.7207869693742137,
                -1.06856212815532,
                1.8829962016584236,
                -0.8030512381070409,
                1.2128733667086093,
                -3.1196499797530075
            ]
        },
        {
            "positions": [
                -2.803175791754081,
                -1.0369176084291736,
                1.8403721638810795,
                -0.7918340910026319,
                1.3922963590433293,
                -3.109645568871663
            ]
        },
        {
            "positions": [
                -2.8855646141339477,
                -1.005273088703027,
                1.7977481261037356,
                -0.7806169438982229,
                1.5717193513780492,
                -3.099641157990319
            ]
        },
        {
            "positions": [
                -2.967953436513815,
                -0.9736285689768807,
                1.7551240883263914,
                -0.7693997967938139,
                1.751142343712769,
                -3.0896367471089747
            ]
        }
    ]
}