{
    "goal": {
        "global_pose": {
            "orientation": {
                "w": 0.005598929693374612,
                "x": 0.007748599140229565,
                "y": 0.7110244013736278,
                "z": -0.7031023480610252
            },
            "position": {
                "x": 0.1141497679147869,
                "y": -0.7141253447532654,
                "z": 0.3711530566215515
            }
        },
        "name": "move_to_auspresseinheit_B"
    },
    "id": "RRT_move_to_auspresseinheit_B_120",
    "joint_names": [
        "shoulder_pan_joint",
        "shoulder_lift_joint",
        "elbow_joint",
        "wrist_1_joint",
        "wrist_2_joint",
        "wrist_3_joint"
    ],
    "metrics": {
        "cart_traj_len": 0.5652854052325739,
        "distance_elbow_joint": 0.06449810226922881,
        "distance_shoulder_lift_joint": 0.2941157897274158,
        "distance_shoulder_pan_joint": 0.5762141199693787,
        "distance_wrist_1_joint": 0.33310629350382415,
        "distance_wrist_2_joint": 1.0028338044151466,
        "distance_wrist_3_joint": 0.008703485409235157,
        "smoothness": 2.5376526478085547e-16,
        "time": 0.018010668,
        "traj_len": 1.5097919046326316,
        "weighted_distance": 1.905995452258916
    },
    "planner": "RRT",
    "start": {
        "state": {
            "elbow_joint": 2.0193083361928714,
            "shoulder_lift_joint": -1.1220246554650708,
            "shoulder_pan_joint": -1.0952077554168747,
            "wrist_1_joint": -0.8559753972642168,
            "wrist_2_joint": 0.4759566250798843,
            "wrist_3_joint": -3.1240929996934557
        }
    },
    "waypoints": [
        {
            "positions": [
                -1.0952077554168747,
                -1.1220246554650708,
                2.0193083361928714,
                -0.8559753972642168,
                0.4759566250798843,
                -3.1240929996934557
            ]
        },
        {
            "positions": [
                -1.1912434420784377,
                -1.1710439537529735,
                2.0085586524813333,
                -0.8004576816802461,
                0.6430955924824087,
                -3.1255435805949947
            ]
        },
        {
            "positions": [
                -1.287279128740001,
                -1.220063252040876,
                1.997808968769795,
                -0.7449399660962754,
                0.8102345598849332,
                -3.126994161496534
            ]
        },
        {
            "positions": [
                -1.383314815401564,
                -1.2690825503287786,
                1.987059285058257,
                -0.6894222505123047,
                0.9773735272874575,
                -3.1284447423980732
            ]
        },
        {
            "positions": [
                -1.479350502063127,
                -1.3181018486166813,
                1.976309601346719,
                -0.6339045349283341,
                1.144512494689982,
                -3.1298953232996123
            ]
        },
        {
            "positions": [
                -1.5753861887246903,
                -1.367121146904584,
                1.9655599176351808,
                -0.5783868193443633,
                1.3116514620925064,
                -3.1313459042011518
            ]
        },
        {
            "positions": [
                -1.6714218753862533,
                -1.4161404451924866,
                1.9548102339236426,
                -0.5228691037603926,
                1.478790429495031,
                -3.132796485102691
            ]
        }
    ]
}