{
    "goal": {
        "global_pose": {
            "orientation": {
                "w": -0.00223480608172531,
                "x": 0.0024358444001904467,
                "y": 0.7094548369677653,
                "z": -0.704743149386269
            },
            "position": {
                "x": 0.6205249238014221,
                "y": -0.6371506643295288,
                "z": 0.19426114857196808
            }
        },
        "name": "move_to_magneteinheit_B"
    },
    "id": "RRT_move_to_magneteinheit_B_73",
    "joint_names": [
        "shoulder_pan_joint",
        "shoulder_lift_joint",
        "elbow_joint",
        "wrist_1_joint",
        "wrist_2_joint",
        "wrist_3_joint"
    ],
    "metrics": {
        "cart_traj_len": 1.3330526488536358,
        "distance_elbow_joint": 0.9586182635701048,
        "distance_shoulder_lift_joint": 0.7584698590631026,
        "distance_shoulder_pan_joint": 1.6213591006285006,
        "distance_wrist_1_joint": 1.1869683669653264,
        "distance_wrist_2_joint": 1.5191673616067842,
        "distance_wrist_3_joint": 0.6306706372451008,
        "smoothness": 0.4520662575279942,
        "time": 0.06150735,
        "traj_len": 2.5836512127372995,
        "weighted_distance": 3.2623198175747925
    },
    "planner": "RRT",
    "start": {
        "state": {
            "elbow_joint": 2.6216224122426386,
            "shoulder_lift_joint": -1.4174107377796124,
            "shoulder_pan_joint": 0.7066234856936794,
            "wrist_1_joint": 1.9546482284002225,
            "wrist_2_joint": -0.7096286983471962,
            "wrist_3_joint": 0.005740856962016249
        }
    },
    "waypoints": [
        {
            "positions": [
                0.7066234856936794,
                -1.4174107377796124,
                2.6216224122426386,
                1.9546482284002225,
                -0.7096286983471962,
                0.005740856962016249
            ]
        },
        {
            "positions": [
                0.5357160009136814,
                -1.3761045562861947,
                2.590744566246116,
                1.8919508215651786,
                -0.7116615079401407,
                -0.0337210525575351
            ]
        },
        {
            "positions": [
                0.3648085161336836,
                -1.3347983747927772,
                2.5598667202495937,
                1.8292534147301345,
                -0.7136943175330852,
                -0.07318296207708645
            ]
        },
        {
            "positions": [
                0.19390103135368564,
                -1.2934921932993597,
                2.5289888742530713,
                1.7665560078950904,
                -0.7157271271260296,
                -0.1126448715966378
            ]
        },
        {
            "positions": [
                0.022993546573687795,
                -1.252186011805942,
                2.498111028256549,
                1.7038586010600465,
                -0.7177599367189741,
                -0.15210678111618914
            ]
        },
        {
            "positions": [
                -0.14791393820631005,
                -1.2108798303125243,
                2.467233182260026,
                1.6411611942250026,
                -0.7197927463119186,
                -0.1915686906357405
            ]
        },
        {
            "positions": [
                -0.3188214229863081,
                -1.1695736488191069,
                2.4363553362635035,
                1.5784637873899585,
                -0.721825555904863,
                -0.23103060015529184
            ]
        },
        {
            "positions": [
                -0.48972890776630595,
                -1.1282674673256894,
                2.405477490266981,
                1.5157663805549144,
                -0.7238583654978075,
                -0.2704925096748432
            ]
        },
        {
            "positions": [
                -0.6606363925463037,
                -1.0869612858322717,
                2.3745996442704587,
                1.4530689737198705,
                -0.725891175090752,
                -0.30995441919439454
            ]
        },
        {
            "positions": [
                -0.6860463147851553,
                -1.0441592451206956,
                2.303440094710666,
                1.521607884948368,
                -0.8761816635770748,
                -0.2784568830855255
            ]
        },
        {
            "positions": [
                -0.7114562370240071,
                -1.0013572044091192,
                2.2322805451508736,
                1.5901467961768654,
                -1.0264721520633977,
                -0.24695934697665653
            ]
        },
        {
            "positions": [
                -0.7368661592628587,
                -0.9585551636975431,
                2.161120995591081,
                1.658685707405363,
                -1.1767626405497205,
                -0.21546181086778754
            ]
        },
        {
            "positions": [
                -0.7622760815017103,
                -0.9157531229859669,
                2.0899614460312885,
                1.7272246186338602,
                -1.3270531290360434,
                -0.18396427475891852
            ]
        },
        {
            "positions": [
                -0.787686003740562,
                -0.8729510822743907,
                2.018801896471496,
                1.7957635298623578,
                -1.4773436175223662,
                -0.15246673865004953
            ]
        },
        {
            "positions": [
                -0.8130959259794137,
                -0.8301490415628145,
                1.9476423469117037,
                1.8643024410908553,
                -1.627634106008689,
                -0.12096920254118054
            ]
        },
        {
            "positions": [
                -0.8385058482182653,
                -0.7873470008512384,
                1.8764827973519114,
                1.9328413523193526,
                -1.7779245944950117,
                -0.08947166643231155
            ]
        },
        {
            "positions": [
                -0.863915770457117,
                -0.7445449601396621,
                1.8053232477921188,
                2.0013802635478504,
                -1.928215082981335,
                -0.05797413032344251
            ]
        },
        {
            "positions": [
                -0.8893256926959687,
                -0.701742919428086,
                1.7341636982323263,
                2.0699191747763477,
                -2.078505571467658,
                -0.026476594214573546
            ]
        },
        {
            "positions": [
                -0.9147356149348204,
                -0.6589408787165097,
                1.6630041486725338,
                2.138458086004845,
                -2.2287960599539804,
                0.005020941894295458
            ]
        }
    ]
}