{
    "goal": {
        "global_pose": {
            "orientation": {
                "w": 0.7031023480610252,
                "x": -0.7110244013736278,
                "y": 0.0077485991402295624,
                "z": 0.005598929693374583
            },
            "position": {
                "x": -0.8841497679147869,
                "y": 0.44412534475326537,
                "z": 0.3711530566215515
            }
        },
        "name": "move_to_auspresseinheit_D"
    },
    "id": "RRT_move_to_auspresseinheit_D_114",
    "joint_names": [
        "shoulder_pan_joint",
        "shoulder_lift_joint",
        "elbow_joint",
        "wrist_1_joint",
        "wrist_2_joint",
        "wrist_3_joint"
    ],
    "metrics": {
        "cart_traj_len": 0.3443103208602581,
        "distance_elbow_joint": 0.6618068229541683,
        "distance_shoulder_lift_joint": 0.13413600544337356,
        "distance_shoulder_pan_joint": 0.13369823576160467,
        "distance_wrist_1_joint": 0.6066006138347113,
        "distance_wrist_2_joint": 1.4355144349817692,
        "distance_wrist_3_joint": 0.07127796222793314,
        "smoothness": 0.0,
        "time": 0.015174189,
        "traj_len": 1.7444294411650936,
        "weighted_distance": 2.286417514032795
    },
    "planner": "RRT",
    "start": {
        "state": {
            "elbow_joint": -1.8275523626775212,
            "shoulder_lift_joint": -2.126789852344167,
            "shoulder_pan_joint": -0.03513704404078235,
            "wrist_1_joint": -2.347782403156801,
            "wrist_2_joint": -1.6058999987535132,
            "wrist_3_joint": -3.0880379163319196
        }
    },
    "waypoints": [
        {
            "positions": [
                -0.03513704404078235,
                -2.126789852344167,
                -1.8275523626775212,
                -2.347782403156801,
                -1.6058999987535132,
                -3.0880379163319196
            ]
        },
        {
            "positions": [
                -0.05184932351098293,
                -2.1435568530245885,
                -1.74482650980825,
                -2.42360747988614,
                -1.426460694380792,
                -3.079128171053428
            ]
        },
        {
            "positions": [
                -0.06856160298118352,
                -2.1603238537050102,
                -1.6621006569389791,
                -2.4994325566154787,
                -1.2470213900080709,
                -3.0702184257749363
            ]
        },
        {
            "positions": [
                -0.08527388245138409,
                -2.177090854385432,
                -1.5793748040697082,
                -2.5752576333448176,
                -1.0675820856353497,
                -3.0613086804964444
            ]
        },
        {
            "positions": [
                -0.10198616192158469,
                -2.1938578550658536,
                -1.496648951200437,
                -2.6510827100741565,
                -0.8881427812626286,
                -3.052398935217953
            ]
        },
        {
            "positions": [
                -0.11869844139178526,
                -2.2106248557462753,
                -1.413923098331166,
                -2.7269077868034954,
                -0.7087034768899074,
                -3.0434891899394616
            ]
        },
        {
            "positions": [
                -0.13541072086198586,
                -2.227391856426697,
                -1.331197245461895,
                -2.8027328635328344,
                -0.5292641725171863,
                -3.0345794446609697
            ]
        },
        {
            "positions": [
                -0.15212300033218643,
                -2.2441588571071187,
                -1.248471392592624,
                -2.8785579402621733,
                -0.3498248681444651,
                -3.025669699382478
            ]
        },
        {
            "positions": [
                -0.16883527980238702,
                -2.2609258577875404,
                -1.165745539723353,
                -2.954383016991512,
                -0.17038556377174388,
                -3.0167599541039865
            ]
        }
    ]
}