{
    "goal": {
        "global_pose": {
            "orientation": {
                "w": 0.005598929693374612,
                "x": 0.007748599140229565,
                "y": 0.7110244013736278,
                "z": -0.7031023480610252
            },
            "position": {
                "x": 0.1141497679147869,
                "y": -0.7141253447532654,
                "z": 0.3711530566215515
            }
        },
        "name": "move_to_auspresseinheit_B"
    },
    "id": "RRT_move_to_auspresseinheit_B_51",
    "joint_names": [
        "shoulder_pan_joint",
        "shoulder_lift_joint",
        "elbow_joint",
        "wrist_1_joint",
        "wrist_2_joint",
        "wrist_3_joint"
    ],
    "metrics": {
        "cart_traj_len": 0.5651239759976036,
        "distance_elbow_joint": 0.06428416196641829,
        "distance_shoulder_lift_joint": 0.29443471677476807,
        "distance_shoulder_pan_joint": 0.5784389502052609,
        "distance_wrist_1_joint": 0.3295933792496818,
        "distance_wrist_2_joint": 0.9856735040154105,
        "distance_wrist_3_joint": 0.0033725548117158333,
        "smoothness": 5.075305255429287e-16,
        "time": 0.011385834999999999,
        "traj_len": 1.5019311791900638,
        "weighted_distance": 1.8915097831921936
    },
    "planner": "RRT",
    "start": {
        "state": {
            "elbow_joint": 2.0193083361928714,
            "shoulder_lift_joint": -1.1220246554650708,
            "shoulder_pan_joint": -1.0952077554168747,
            "wrist_1_joint": -0.8559753972642168,
            "wrist_2_joint": 0.4759566250798843,
            "wrist_3_joint": -3.1240929996934557
        }
    },
    "waypoints": [
        {
            "positions": [
                -1.0952077554168747,
                -1.1220246554650708,
                2.0193083361928714,
                -0.8559753972642168,
                0.4759566250798843,
                -3.1240929996934557
            ]
        },
        {
            "positions": [
                -1.1916142471177515,
                -1.1710971082608654,
                2.008594309198468,
                -0.8010431673892698,
                0.6402355424157861,
                -3.124655092162075
            ]
        },
        {
            "positions": [
                -1.2880207388186282,
                -1.22016956105666,
                1.9978802822040653,
                -0.7461109375143229,
                0.8045144597516878,
                -3.1252171846306944
            ]
        },
        {
            "positions": [
                -1.3844272305195051,
                -1.269242013852455,
                1.9871662552096623,
                -0.6911787076393758,
                0.9687933770875896,
                -3.125779277099314
            ]
        },
        {
            "positions": [
                -1.4808337222203818,
                -1.3183144666482496,
                1.9764522282152592,
                -0.636246477764429,
                1.1330722944234912,
                -3.1263413695679327
            ]
        },
        {
            "positions": [
                -1.5772402139212587,
                -1.3673869194440442,
                1.9657382012208562,
                -0.5813142478894819,
                1.297351211759393,
                -3.126903462036552
            ]
        },
        {
            "positions": [
                -1.6736467056221356,
                -1.4164593722398389,
                1.9550241742264531,
                -0.526382018014535,
                1.4616301290952949,
                -3.1274655545051715
            ]
        }
    ]
}