{
    "goal": {
        "global_pose": {
            "orientation": {
                "w": -0.4816463035849501,
                "x": 0.5182115481033762,
                "y": 0.4908360881923453,
                "z": -0.5084816262002911
            },
            "position": {
                "x": -0.8240239810943604,
                "y": 0.19912469901144506,
                "z": 0.16403168439865112
            }
        },
        "name": "move_to_storage_D"
    },
    "id": "RRT_move_to_storage_D_24",
    "joint_names": [
        "shoulder_pan_joint",
        "shoulder_lift_joint",
        "elbow_joint",
        "wrist_1_joint",
        "wrist_2_joint",
        "wrist_3_joint"
    ],
    "metrics": {
        "cart_traj_len": 4.350741744718593,
        "distance_elbow_joint": 4.210939027010644,
        "distance_shoulder_lift_joint": 1.2651716247234703,
        "distance_shoulder_pan_joint": 2.8129601770349293,
        "distance_wrist_1_joint": 2.2702261069432916,
        "distance_wrist_2_joint": 0.8985537756142713,
        "distance_wrist_3_joint": 3.136355518204091,
        "smoothness": 0.0012528047773763872,
        "time": 0.154063562,
        "traj_len": 3.8202364101624258,
        "weighted_distance": 4.902621456781712
    },
    "planner": "RRT",
    "start": {
        "state": {
            "elbow_joint": -2.384821988534728,
            "shoulder_lift_joint": -2.2788054721415256,
            "shoulder_pan_joint": -0.1854694642142757,
            "wrist_1_joint": 1.4845938289331202,
            "wrist_2_joint": 0.17898776772866878,
            "wrist_3_joint": 0.037105688729662994
        }
    },
    "waypoints": [
        {
            "positions": [
                -0.1854694642142757,
                -2.2788054721415256,
                -2.384821988534728,
                1.4845938289331202,
                0.17898776772866878,
                0.037105688729662994
            ]
        },
        {
            "positions": [
                -0.08914428584670098,
                -2.2349250158820553,
                -2.310888788677222,
                1.3857050725160975,
                0.22569382907965552,
                0.014322193713156559
            ]
        },
        {
            "positions": [
                0.007180892520873755,
                -2.191044559622585,
                -2.2369555888197166,
                1.2868163160990749,
                0.2723998904306423,
                -0.008461301303349877
            ]
        },
        {
            "positions": [
                0.10350607088844851,
                -2.1471641033631146,
                -2.1630223889622107,
                1.187927559682052,
                0.319105951781629,
                -0.031244796319856313
            ]
        },
        {
            "positions": [
                0.19983124925602322,
                -2.103283647103644,
                -2.089089189104705,
                1.0890388032650293,
                0.3658120131326157,
                -0.05402829133636275
            ]
        },
        {
            "positions": [
                0.29615642762359795,
                -2.0594031908441734,
                -2.0151559892471993,
                0.9901500468480067,
                0.41251807448360245,
                -0.07681178635286919
            ]
        },
        {
            "positions": [
                0.39248160599117277,
                -2.015522734584703,
                -1.9412227893896936,
                0.8912612904309839,
                0.4592241358345892,
                -0.09959528136937562
            ]
        },
        {
            "positions": [
                0.48880678435874747,
                -1.9716422783252328,
                -1.867289589532188,
                0.7923725340139612,
                0.505930197185576,
                -0.12237877638588207
            ]
        },
        {
            "positions": [
                0.5851319627263222,
                -1.9277618220657624,
                -1.7933563896746822,
                0.6934837775969385,
                0.5526362585365626,
                -0.1451622714023885
            ]
        },
        {
            "positions": [
                0.6814571410938969,
                -1.883881365806292,
                -1.7194231898171766,
                0.5945950211799158,
                0.5993423198875494,
                -0.16794576641889494
            ]
        },
        {
            "positions": [
                0.7777823194614717,
                -1.8400009095468217,
                -1.6454899899596707,
                0.49570626476289303,
                0.6460483812385361,
                -0.19072926143540136
            ]
        },
        {
            "positions": [
                0.8741074978290465,
                -1.7961204532873511,
                -1.571556790102165,
                0.39681750834587026,
                0.6927544425895229,
                -0.21351275645190784
            ]
        },
        {
            "positions": [
                0.9704326761966212,
                -1.7522399970278808,
                -1.4976235902446593,
                0.2979287519288476,
                0.7394605039405096,
                -0.23629625146841424
            ]
        },
        {
            "positions": [
                1.0667578545641958,
                -1.7083595407684102,
                -1.4236903903871536,
                0.19903999551182472,
                0.7861665652914963,
                -0.2590797464849207
            ]
        },
        {
            "positions": [
                1.1630830329317705,
                -1.6644790845089399,
                -1.349757190529648,
                0.10015123909480228,
                0.8328726266424831,
                -0.28186324150142716
            ]
        },
        {
            "positions": [
                1.2594082112993452,
                -1.6205986282494695,
                -1.2758239906721422,
                0.0012624826777793974,
                0.8795786879934698,
                -0.3046467365179336
            ]
        },
        {
            "positions": [
                1.35573338966692,
                -1.5767181719899992,
                -1.2018907908146366,
                -0.09762627373924326,
                0.9262847493444565,
                -0.32743023153443995
            ]
        },
        {
            "positions": [
                1.4520585680344948,
                -1.5328377157305288,
                -1.1279575909571307,
                -0.19651503015626615,
                0.9729908106954432,
                -0.3502137265509464
            ]
        },
        {
            "positions": [
                1.5483837464020693,
                -1.4889572594710585,
                -1.054024391099625,
                -0.2954037865732886,
                1.0196968720464301,
                -0.37299722156745285
            ]
        },
        {
            "positions": [
                1.6447089247696443,
                -1.445076803211588,
                -0.9800911912421192,
                -0.39429254299031136,
                1.0664029333974168,
                -0.3957807165839593
            ]
        },
        {
            "positions": [
                1.6964342820354867,
                -1.4223692792224547,
                -0.8323960212569594,
                -0.41488937114925145,
                1.065816690768705,
                -0.5380685646308261
            ]
        },
        {
            "positions": [
                1.7481596393013294,
                -1.3996617552333213,
                -0.6847008512717998,
                -0.43548619930819155,
                1.0652304481399932,
                -0.6803564126776929
            ]
        },
        {
            "positions": [
                1.799884996567172,
                -1.376954231244188,
                -0.5370056812866401,
                -0.45608302746713164,
                1.0646442055112815,
                -0.8226442607245597
            ]
        },
        {
            "positions": [
                1.8516103538330146,
                -1.3542467072550548,
                -0.3893105113014803,
                -0.47667985562607174,
                1.0640579628825697,
                -0.9649321087714263
            ]
        },
        {
            "positions": [
                1.9033357110988571,
                -1.3315391832659214,
                -0.24161534131632068,
                -0.49727668378501183,
                1.063471720253858,
                -1.1072199568182932
            ]
        },
        {
            "positions": [
                1.9550610683646998,
                -1.3088316592767881,
                -0.09392017133116093,
                -0.5178735119439519,
                1.0628854776251462,
                -1.2495078048651598
            ]
        },
        {
            "positions": [
                2.0067864256305423,
                -1.286124135287655,
                0.05377499865399871,
                -0.5384703401028921,
                1.0622992349964344,
                -1.3917956529120268
            ]
        },
        {
            "positions": [
                2.058511782896385,
                -1.2634166112985215,
                0.20147016863915856,
                -0.5590671682618321,
                1.0617129923677227,
                -1.5340835009588933
            ]
        },
        {
            "positions": [
                2.1102371401622277,
                -1.2407090873093882,
                0.3491653386243182,
                -0.5796639964207723,
                1.0611267497390109,
                -1.6763713490057601
            ]
        },
        {
            "positions": [
                2.1619624974280702,
                -1.218001563320255,
                0.49686050860947784,
                -0.6002608245797123,
                1.0605405071102993,
                -1.818659197052627
            ]
        },
        {
            "positions": [
                2.2136878546939127,
                -1.1952940393311215,
                0.6445556785946377,
                -0.6208576527386525,
                1.0599542644815876,
                -1.960947045099494
            ]
        },
        {
            "positions": [
                2.265413211959755,
                -1.1725865153419883,
                0.7922508485797973,
                -0.6414544808975925,
                1.0593680218528758,
                -2.1032348931463605
            ]
        },
        {
            "positions": [
                2.317138569225598,
                -1.149878991352855,
                0.9399460185649572,
                -0.6620513090565326,
                1.058781779224164,
                -2.2455227411932275
            ]
        },
        {
            "positions": [
                2.3688639264914406,
                -1.1271714673637219,
                1.0876411885501165,
                -0.6826481372154727,
                1.0581955365954523,
                -2.387810589240094
            ]
        },
        {
            "positions": [
                2.420589283757283,
                -1.1044639433745884,
                1.2353363585352763,
                -0.7032449653744128,
                1.0576092939667405,
                -2.530098437286961
            ]
        },
        {
            "positions": [
                2.4723146410231256,
                -1.0817564193854552,
                1.3830315285204362,
                -0.723841793533353,
                1.0570230513380288,
                -2.672386285333827
            ]
        },
        {
            "positions": [
                2.524039998288968,
                -1.0590488953963217,
                1.530726698505596,
                -0.744438621692293,
                1.056436808709317,
                -2.814674133380694
            ]
        },
        {
            "positions": [
                2.575765355554811,
                -1.0363413714071887,
                1.6784218684907555,
                -0.7650354498512331,
                1.0558505660806052,
                -2.956961981427561
            ]
        },
        {
            "positions": [
                2.6274907128206535,
                -1.0136338474180553,
                1.8261170384759156,
                -0.7856322780101732,
                1.0552643234518935,
                -3.099249829474428
            ]
        }
    ]
}