{
    "goal": {
        "global_pose": {
            "orientation": {
                "w": 0.7031023502349854,
                "x": -0.7110244035720825,
                "y": 0.007748599164187908,
                "z": 0.005598929710686207
            },
            "position": {
                "x": 0.11585023208521307,
                "y": 0.44412534475326537,
                "z": 0.3711530566215515
            }
        },
        "name": "move_to_auspresseinheit_A"
    },
    "id": "RRT_move_to_auspresseinheit_A_13",
    "joint_names": [
        "shoulder_pan_joint",
        "shoulder_lift_joint",
        "elbow_joint",
        "wrist_1_joint",
        "wrist_2_joint",
        "wrist_3_joint"
    ],
    "metrics": {
        "cart_traj_len": 3.702400669644463,
        "distance_elbow_joint": 2.3105412466374937,
        "distance_shoulder_lift_joint": 0.6991368989402398,
        "distance_shoulder_pan_joint": 4.637471545325056,
        "distance_wrist_1_joint": 1.846433482433072,
        "distance_wrist_2_joint": 1.2101737379113553,
        "distance_wrist_3_joint": 4.671139973362591,
        "smoothness": 0.6712509151190371,
        "time": 3.417608465,
        "traj_len": 3.9210836365231754,
        "weighted_distance": 5.270083875203451
    },
    "planner": "RRT",
    "start": {
        "state": {
            "elbow_joint": 2.4225746658250005,
            "shoulder_lift_joint": -1.3736534386056498,
            "shoulder_pan_joint": -0.3378633547517467,
            "wrist_1_joint": -1.0288598680537169,
            "wrist_2_joint": 1.233022673432363,
            "wrist_3_joint": -3.0940220416140027
        }
    },
    "waypoints": [
        {
            "positions": [
                -0.3378633547517467,
                -1.3736534386056498,
                2.4225746658250005,
                -1.0288598680537169,
                1.233022673432363,
                -3.0940220416140027
            ]
        },
        {
            "positions": [
                -0.265162137961422,
                -1.39148815771783,
                2.357124196463304,
                -1.062775263366271,
                1.222051088947444,
                -2.9024357919449346
            ]
        },
        {
            "positions": [
                -0.19246092117109728,
                -1.4093228768300103,
                2.291673727101608,
                -1.096690658678825,
                1.211079504462525,
                -2.7108495422758665
            ]
        },
        {
            "positions": [
                -0.11975970438077255,
                -1.4271575959421905,
                2.2262232577399117,
                -1.1306060539913791,
                1.2001079199776061,
                -2.5192632926067984
            ]
        },
        {
            "positions": [
                -0.04705848759044784,
                -1.4449923150543706,
                2.1607727883782153,
                -1.1645214493039333,
                1.189136335492687,
                -2.3276770429377303
            ]
        },
        {
            "positions": [
                0.025642729199876924,
                -1.4628270341665508,
                2.0953223190165193,
                -1.1984368446164875,
                1.178164751007768,
                -2.1360907932686617
            ]
        },
        {
            "positions": [
                0.09834394599020163,
                -1.480661753278731,
                2.029871849654823,
                -1.2323522399290416,
                1.167193166522849,
                -1.9445045435995938
            ]
        },
        {
            "positions": [
                0.17104516278052634,
                -1.4984964723909113,
                1.9644213802931265,
                -1.2662676352415956,
                1.15622158203793,
                -1.7529182939305255
            ]
        },
        {
            "positions": [
                0.24374637957085105,
                -1.5163311915030915,
                1.8989709109314306,
                -1.3001830305541497,
                1.145249997553011,
                -1.5613320442614576
            ]
        },
        {
            "positions": [
                0.31644759636117586,
                -1.5341659106152716,
                1.8335204415697341,
                -1.334098425866704,
                1.1342784130680919,
                -1.3697457945923892
            ]
        },
        {
            "positions": [
                0.38914881315150057,
                -1.552000629727452,
                1.7680699722080377,
                -1.3680138211792578,
                1.1233068285831729,
                -1.178159544923321
            ]
        },
        {
            "positions": [
                0.4618500299418253,
                -1.5698353488396322,
                1.7026195028463418,
                -1.401929216491812,
                1.112335244098254,
                -0.986573295254253
            ]
        },
        {
            "positions": [
                0.5345512467321499,
                -1.5876700679518123,
                1.6371690334846454,
                -1.4358446118043662,
                1.101363659613335,
                -0.7949870455851848
            ]
        },
        {
            "positions": [
                0.657435961100149,
                -1.5820695267462583,
                1.598458402652295,
                -1.3663533604731066,
                1.0519789844102372,
                -0.8851968576052108
            ]
        },
        {
            "positions": [
                0.780320675468148,
                -1.5764689855407044,
                1.5597477718199448,
                -1.296862109141847,
                1.0025943092071394,
                -0.9754066696252368
            ]
        },
        {
            "positions": [
                0.903205389836147,
                -1.5708684443351504,
                1.5210371409875945,
                -1.2273708578105875,
                0.9532096340040418,
                -1.065616481645263
            ]
        },
        {
            "positions": [
                1.0260901042041461,
                -1.5652679031295964,
                1.4823265101552443,
                -1.157879606479328,
                0.9038249588009442,
                -1.1558262936652888
            ]
        },
        {
            "positions": [
                1.1489748185721451,
                -1.5596673619240424,
                1.443615879322894,
                -1.0883883551480684,
                0.8544402835978464,
                -1.2460361056853149
            ]
        },
        {
            "positions": [
                1.2720810756493266,
                -1.5547593835731806,
                1.4262980458764731,
                -1.0278950251040757,
                0.8097873451714991,
                -1.3754982576691535
            ]
        },
        {
            "positions": [
                1.395187332726508,
                -1.549851405222319,
                1.4089802124300523,
                -0.9674016950600832,
                0.7651344067451518,
                -1.504960409652992
            ]
        },
        {
            "positions": [
                1.5182935898036893,
                -1.544943426871457,
                1.3916623789836315,
                -0.9069083650160905,
                0.7204814683188046,
                -1.6344225616368306
            ]
        },
        {
            "positions": [
                1.6413998468808708,
                -1.5400354485205952,
                1.3743445455372107,
                -0.8464150349720979,
                0.6758285298924572,
                -1.7638847136206695
            ]
        },
        {
            "positions": [
                1.7645061039580523,
                -1.5351274701697333,
                1.35702671209079,
                -0.7859217049281053,
                0.6311755914661099,
                -1.893346865604508
            ]
        },
        {
            "positions": [
                1.8876123610352336,
                -1.5302194918188716,
                1.3397088786443692,
                -0.7254283748841127,
                0.5865226530397627,
                -2.0228090175883464
            ]
        },
        {
            "positions": [
                2.0107186181124153,
                -1.5253115134680097,
                1.3223910451979481,
                -0.6649350448401201,
                0.5418697146134153,
                -2.1522711695721854
            ]
        },
        {
            "positions": [
                2.1338248751895965,
                -1.5204035351171479,
                1.3050732117515274,
                -0.6044417147961274,
                0.497216776187068,
                -2.281733321556024
            ]
        },
        {
            "positions": [
                2.2569311322667778,
                -1.515495556766286,
                1.2877553783051066,
                -0.5439483847521348,
                0.4525638377607207,
                -2.4111954735398626
            ]
        },
        {
            "positions": [
                2.3800373893439595,
                -1.5105875784154243,
                1.2704375448586858,
                -0.4834550547081422,
                0.4079108993343734,
                -2.5406576255237012
            ]
        },
        {
            "positions": [
                2.5031436464211407,
                -1.5056796000645625,
                1.253119711412265,
                -0.4229617246641496,
                0.3632579609080261,
                -2.67011977750754
            ]
        },
        {
            "positions": [
                2.449054705519495,
                -1.5429055087609138,
                1.386786862399461,
                -0.4528425895939434,
                0.40369392866441817,
                -2.7305874601259505
            ]
        },
        {
            "positions": [
                2.3949657646178495,
                -1.5801314174572652,
                1.5204540133866573,
                -0.4827234545237372,
                0.44412989642081024,
                -2.7910551427443617
            ]
        },
        {
            "positions": [
                2.340876823716204,
                -1.6173573261536165,
                1.6541211643738536,
                -0.512604319453531,
                0.48456586417720227,
                -2.851522825362773
            ]
        },
        {
            "positions": [
                2.286787882814558,
                -1.654583234849968,
                1.7877883153610497,
                -0.5424851843833249,
                0.5250018319335943,
                -2.9119905079811836
            ]
        },
        {
            "positions": [
                2.232698941912912,
                -1.6918091435463194,
                1.9214554663482457,
                -0.5723660493131186,
                0.5654377996899864,
                -2.9724581905995944
            ]
        },
        {
            "positions": [
                2.1786100010112666,
                -1.7290350522426707,
                2.055122617335442,
                -0.6022469142429125,
                0.6058737674463784,
                -3.0329258732180056
            ]
        },
        {
            "positions": [
                2.124521060109621,
                -1.766260960939022,
                2.1887897683226383,
                -0.6321277791727063,
                0.6463097352027705,
                -3.0933935558364167
            ]
        },
        {
            "positions": [
                2.0704321192079753,
                -1.8034868696353734,
                2.3224569193098343,
                -0.6620086441025002,
                0.6867457029591626,
                -3.1538612384548275
            ]
        },
        {
            "positions": [
                1.7976815158201747,
                -1.8245513760625767,
                2.336806736175272,
                -0.6245048576817291,
                0.690129959626339,
                -3.1512150815620013
            ]
        },
        {
            "positions": [
                1.524930912432374,
                -1.84561588248978,
                2.3511565530407097,
                -0.5870010712609582,
                0.6935142162935154,
                -3.1485689246691746
            ]
        },
        {
            "positions": [
                1.2521803090445733,
                -1.8666803889169834,
                2.365506369906148,
                -0.5494972848401873,
                0.6968984729606919,
                -3.1459227677763484
            ]
        },
        {
            "positions": [
                0.9794297056567727,
                -1.8877448953441867,
                2.3798561867715855,
                -0.5119934984194163,
                0.7002827296278682,
                -3.1432766108835217
            ]
        },
        {
            "positions": [
                0.706679102268972,
                -1.90880940177139,
                2.394206003637023,
                -0.47448971199864537,
                0.7036669862950446,
                -3.1406304539906955
            ]
        }
    ]
}