{
    "goal": {
        "global_pose": {
            "orientation": {
                "w": -0.4816463035849501,
                "x": 0.5182115481033762,
                "y": 0.4908360881923453,
                "z": -0.5084816262002911
            },
            "position": {
                "x": -0.8240239810943604,
                "y": -0.300875300988555,
                "z": 0.16403168439865112
            }
        },
        "name": "move_to_storage_C"
    },
    "id": "RRT_move_to_storage_C_80",
    "joint_names": [
        "shoulder_pan_joint",
        "shoulder_lift_joint",
        "elbow_joint",
        "wrist_1_joint",
        "wrist_2_joint",
        "wrist_3_joint"
    ],
    "metrics": {
        "cart_traj_len": 0.5763207518942982,
        "distance_elbow_joint": 0.25920284882938516,
        "distance_shoulder_lift_joint": 0.19072147037701181,
        "distance_shoulder_pan_joint": 0.4925069738988843,
        "distance_wrist_1_joint": 0.07903145480486118,
        "distance_wrist_2_joint": 1.079174576186853,
        "distance_wrist_3_joint": 0.06861102477930148,
        "smoothness": 0.0,
        "time": 0.025118054,
        "traj_len": 1.4728368371534903,
        "weighted_distance": 1.8613641313366427
    },
    "planner": "RRT",
    "start": {
        "state": {
            "elbow_joint": 2.010868314990456,
            "shoulder_lift_joint": -1.1634956873337592,
            "shoulder_pan_joint": -2.4736205022346125,
            "wrist_1_joint": -0.8367026794202681,
            "wrist_2_joint": 0.6746043897044499,
            "wrist_3_joint": -3.1496632123970403
        }
    },
    "waypoints": [
        {
            "positions": [
                -2.4736205022346125,
                -1.1634956873337592,
                2.010868314990456,
                -0.8367026794202681,
                0.6746043897044499,
                -3.1496632123970403
            ]
        },
        {
            "positions": [
                -2.5557049978844266,
                -1.1317087756042572,
                1.9676678401855583,
                -0.8235307702861245,
                0.8544668190689254,
                -3.13822804160049
            ]
        },
        {
            "positions": [
                -2.6377894935342407,
                -1.0999218638747552,
                1.9244673653806608,
                -0.8103588611519811,
                1.034329248433401,
                -3.1267928708039396
            ]
        },
        {
            "positions": [
                -2.7198739891840544,
                -1.0681349521452532,
                1.8812668905757632,
                -0.7971869520178375,
                1.2141916777978765,
                -3.1153577000073893
            ]
        },
        {
            "positions": [
                -2.8019584848338686,
                -1.0363480404157512,
                1.8380664157708657,
                -0.784015042883694,
                1.394054107162352,
                -3.1039225292108394
            ]
        },
        {
            "positions": [
                -2.8840429804836827,
                -1.0045611286862492,
                1.7948659409659682,
                -0.7708431337495505,
                1.5739165365268275,
                -3.092487358414289
            ]
        },
        {
            "positions": [
                -2.966127476133497,
                -0.9727742169567474,
                1.7516654661610707,
                -0.7576712246154069,
                1.753778965891303,
                -3.081052187617739
            ]
        }
    ]
}