{
    "goal": {
        "global_pose": {
            "orientation": {
                "w": 0.7031023502349854,
                "x": -0.7110244035720825,
                "y": 0.007748599164187908,
                "z": 0.005598929710686207
            },
            "position": {
                "x": 0.11585023208521307,
                "y": 0.44412534475326537,
                "z": 0.3711530566215515
            }
        },
        "name": "move_to_auspresseinheit_A"
    },
    "id": "RRT_move_to_auspresseinheit_A_63",
    "joint_names": [
        "shoulder_pan_joint",
        "shoulder_lift_joint",
        "elbow_joint",
        "wrist_1_joint",
        "wrist_2_joint",
        "wrist_3_joint"
    ],
    "metrics": {
        "cart_traj_len": 0.8604713442070109,
        "distance_elbow_joint": 0.16345818268764845,
        "distance_shoulder_lift_joint": 0.8667962636619306,
        "distance_shoulder_pan_joint": 1.0415730487680221,
        "distance_wrist_1_joint": 1.2739455203678063,
        "distance_wrist_2_joint": 1.4115923618824366,
        "distance_wrist_3_joint": 1.5721582877797142,
        "smoothness": 1.3934907833299448,
        "time": 0.526843827,
        "traj_len": 2.515854460247563,
        "weighted_distance": 3.4870299859561333
    },
    "planner": "RRT",
    "start": {
        "state": {
            "elbow_joint": 2.4225746658250005,
            "shoulder_lift_joint": -1.3736534386056498,
            "shoulder_pan_joint": -0.3378633547517467,
            "wrist_1_joint": -1.0288598680537169,
            "wrist_2_joint": 1.233022673432363,
            "wrist_3_joint": -3.0940220416140027
        }
    },
    "waypoints": [
        {
            "positions": [
                -0.3378633547517467,
                -1.3736534386056498,
                2.4225746658250005,
                -1.0288598680537169,
                1.233022673432363,
                -3.0940220416140027
            ]
        },
        {
            "positions": [
                -0.2588807347438582,
                -1.4320344994958034,
                2.4145677450630254,
                -0.9524552982149276,
                1.1519814612672363,
                -3.029834338055172
            ]
        },
        {
            "positions": [
                -0.17989811473596962,
                -1.4904155603859568,
                2.4065608243010503,
                -0.8760507283761383,
                1.0709402491021096,
                -2.9656466344963417
            ]
        },
        {
            "positions": [
                -0.10091549472808103,
                -1.5487966212761104,
                2.3985539035390753,
                -0.799646158537349,
                0.9898990369369829,
                -2.901458930937511
            ]
        },
        {
            "positions": [
                -0.021932874720192508,
                -1.607177682166264,
                2.3905469827771,
                -0.7232415886985597,
                0.9088578247718562,
                -2.83727122737868
            ]
        },
        {
            "positions": [
                0.05704974528769613,
                -1.6655587430564176,
                2.382540062015125,
                -0.6468370188597703,
                0.8278166126067295,
                -2.77308352381985
            ]
        },
        {
            "positions": [
                0.13603236529558466,
                -1.7239398039465712,
                2.37453314125315,
                -0.5704324490209811,
                0.7467754004416027,
                -2.708895820261019
            ]
        },
        {
            "positions": [
                0.21501498530347324,
                -1.7823208648367246,
                2.3665262204911746,
                -0.4940278791821917,
                0.665734188276476,
                -2.6447081167021884
            ]
        },
        {
            "positions": [
                0.2939976053113617,
                -1.8407019257268782,
                2.3585192997291995,
                -0.4176233093434025,
                0.5846929761113494,
                -2.580520413143358
            ]
        },
        {
            "positions": [
                0.3729802253192504,
                -1.8990829866170318,
                2.3505123789672244,
                -0.3412187395046131,
                0.5036517639462227,
                -2.5163327095845274
            ]
        },
        {
            "positions": [
                0.451962845327139,
                -1.9574640475071852,
                2.3425054582052494,
                -0.26481416966582383,
                0.42261055178109597,
                -2.4521450060256966
            ]
        },
        {
            "positions": [
                0.5309454653350274,
                -2.0158451083973388,
                2.3344985374432743,
                -0.18840959982703454,
                0.34156933961596925,
                -2.3879573024668663
            ]
        },
        {
            "positions": [
                0.609928085342916,
                -2.0742261692874924,
                2.3264916166812992,
                -0.11200502998824527,
                0.26052812745084253,
                -2.3237695989080356
            ]
        },
        {
            "positions": [
                0.6286844070775879,
                -2.040981462691475,
                2.3399666433900888,
                -0.1834231664487122,
                0.3483476906310258,
                -2.484150767922785
            ]
        },
        {
            "positions": [
                0.6474407288122598,
                -2.0077367560954573,
                2.3534416700988783,
                -0.25484130290917917,
                0.436167253811209,
                -2.6445319369375344
            ]
        },
        {
            "positions": [
                0.6661970505469317,
                -1.9744920494994396,
                2.3669166968076674,
                -0.3262594393696461,
                0.5239868169913923,
                -2.804913105952284
            ]
        },
        {
            "positions": [
                0.6849533722816036,
                -1.9412473429034218,
                2.380391723516457,
                -0.397677575830113,
                0.6118063801715755,
                -2.9652942749670332
            ]
        },
        {
            "positions": [
                0.7037096940162755,
                -1.9080026363074043,
                2.3938667502252464,
                -0.46909571229057995,
                0.6996259433517588,
                -3.1256754439817827
            ]
        }
    ]
}