{
    "goal": {
        "global_pose": {
            "orientation": {
                "w": 0.5084816217422485,
                "x": -0.49083608388900757,
                "y": 0.5182115435600281,
                "z": -0.4816462993621826
            },
            "position": {
                "x": 0.5540239810943604,
                "y": 0.030875300988554955,
                "z": 0.16403168439865112
            }
        },
        "name": "move_to_storage_A"
    },
    "id": "RRT_move_to_storage_A_137",
    "joint_names": [
        "shoulder_pan_joint",
        "shoulder_lift_joint",
        "elbow_joint",
        "wrist_1_joint",
        "wrist_2_joint",
        "wrist_3_joint"
    ],
    "metrics": {
        "cart_traj_len": 0.3533698415249654,
        "distance_elbow_joint": 0.45328329915692245,
        "distance_shoulder_lift_joint": 0.2350877861690026,
        "distance_shoulder_pan_joint": 0.4603662562617602,
        "distance_wrist_1_joint": 0.25351670726061426,
        "distance_wrist_2_joint": 1.1076619999487178,
        "distance_wrist_3_joint": 0.09558585455229895,
        "smoothness": 0.0,
        "time": 0.014430792000000001,
        "traj_len": 1.6141567158579482,
        "weighted_distance": 2.0390812440075177
    },
    "planner": "RRT",
    "start": {
        "state": {
            "elbow_joint": 1.971548259319323,
            "shoulder_lift_joint": -1.1394851275133948,
            "shoulder_pan_joint": 0.1228115487234821,
            "wrist_1_joint": -0.7804723859257726,
            "wrist_2_joint": 0.12958671773740124,
            "wrist_3_joint": -3.192489227718131
        }
    },
    "waypoints": [
        {
            "positions": [
                0.1228115487234821,
                -1.1394851275133948,
                1.971548259319323,
                -0.7804723859257726,
                0.12958671773740124,
                -3.192489227718131
            ]
        },
        {
            "positions": [
                0.057044940686087786,
                -1.1730690969661095,
                2.0363030163417406,
                -0.8166890583915747,
                0.28782414630150377,
                -3.1788341056392313
            ]
        },
        {
            "positions": [
                -0.008721667351306528,
                -1.2066530664188242,
                2.101057773364158,
                -0.8529057308573766,
                0.44606157486560627,
                -3.1651789835603314
            ]
        },
        {
            "positions": [
                -0.07448827538870084,
                -1.2402370358715389,
                2.1658125303865754,
                -0.8891224033231787,
                0.6042990034297089,
                -3.1515238614814316
            ]
        },
        {
            "positions": [
                -0.14025488342609516,
                -1.2738210053242534,
                2.230567287408993,
                -0.9253390757889808,
                0.7625364319938114,
                -3.1378687394025317
            ]
        },
        {
            "positions": [
                -0.20602149146348947,
                -1.307404974776968,
                2.2953220444314106,
                -0.9615557482547827,
                0.920773860557914,
                -3.124213617323632
            ]
        },
        {
            "positions": [
                -0.2717880995008838,
                -1.3409889442296827,
                2.360076801453828,
                -0.9977724207205848,
                1.0790112891220165,
                -3.110558495244732
            ]
        },
        {
            "positions": [
                -0.3375547075382781,
                -1.3745729136823974,
                2.4248315584762454,
                -1.0339890931863869,
                1.237248717686119,
                -3.096903373165832
            ]
        }
    ]
}{
    "goal": {
        "global_pose": {
            "orientation": {
                "w": 0.5084816217422485,
                "x": -0.49083608388900757,
                "y": 0.5182115435600281,
                "z": -0.4816462993621826
            },
            "position": {
                "x": 0.5540239810943604,
                "y": 0.030875300988554955,
                "z": 0.16403168439865112
            }
        },
        "name": "move_to_storage_A"
    },
    "id": "RRT_move_to_storage_A_137",
    "joint_names": [
        "shoulder_pan_joint",
        "shoulder_lift_joint",
        "elbow_joint",
        "wrist_1_joint",
        "wrist_2_joint",
        "wrist_3_joint"
    ],
    "metrics": {
        "cart_traj_len": 0.35304906835051486,
        "distance_elbow_joint": 0.45144493095233473,
        "distance_shoulder_lift_joint": 0.23429496260037186,
        "distance_shoulder_pan_joint": 0.4574746615320753,
        "distance_wrist_1_joint": 0.2555018830660485,
        "distance_wrist_2_joint": 1.1163023975870348,
        "distance_wrist_3_joint": 0.10895163546705966,
        "smoothness": 8.881784197001252e-16,
        "time": 0.032298684999999994,
        "traj_len": 1.6198674239594193,
        "weighted_distance": 2.0527245365104707
    },
    "planner": "RRT",
    "start": {
        "state": {
            "elbow_joint": 1.97154746011099,
            "shoulder_lift_joint": -1.13948474672311,
            "shoulder_pan_joint": 0.12281154466712228,
            "wrist_1_joint": -0.7804688027058302,
            "wrist_2_joint": 0.12958655903071145,
            "wrist_3_joint": 3.0906928834467795
        }
    },
    "waypoints": [
        {
            "positions": [
                0.12281154466712228,
                -1.13948474672311,
                1.97154746011099,
                -0.7804688027058302,
                0.12958655903071145,
                3.0906928834467795
            ]
        },
        {
            "positions": [
                0.05745802159111153,
                -1.1729554556660202,
                2.0360395931041806,
                -0.8169690717152657,
                0.28905833011457355,
                3.1062574027992165
            ]
        },
        {
            "positions": [
                -0.007895501484899217,
                -1.2064261646089305,
                2.1005317260973713,
                -0.8534693407247012,
                0.4485301011984356,
                3.121821922151654
            ]
        },
        {
            "positions": [
                -0.07324902456090997,
                -1.2398968735518408,
                2.165023859090562,
                -0.8899696097341366,
                0.6080018722822977,
                3.137386441504091
            ]
        },
        {
            "positions": [
                -0.1386025476369207,
                -1.273367582494751,
                2.2295159920837526,
                -0.9264698787435721,
                0.7674736433661599,
                3.152950960856528
            ]
        },
        {
            "positions": [
                -0.20395607071293148,
                -1.3068382914376613,
                2.2940081250769433,
                -0.9629701477530077,
                0.926945414450022,
                3.168515480208965
            ]
        },
        {
            "positions": [
                -0.2693095937889422,
                -1.3403090003805715,
                2.358500258070134,
                -0.9994704167624432,
                1.086417185533884,
                3.184079999561402
            ]
        },
        {
            "positions": [
                -0.334663116864953,
                -1.3737797093234818,
                2.4229923910633246,
                -1.0359706857718787,
                1.2458889566177462,
                3.199644518913839
            ]
        }
    ]
}{
    "goal": {
        "global_pose": {
            "orientation": {
                "w": 0.5084816217422485,
                "x": -0.49083608388900757,
                "y": 0.5182115435600281,
                "z": -0.4816462993621826
            },
            "position": {
                "x": 0.5540239810943604,
                "y": 0.030875300988554955,
                "z": 0.16403168439865112
            }
        },
        "name": "move_to_storage_A"
    },
    "id": "RRT_move_to_storage_A_137",
    "joint_names": [
        "shoulder_pan_joint",
        "shoulder_lift_joint",
        "elbow_joint",
        "wrist_1_joint",
        "wrist_2_joint",
        "wrist_3_joint"
    ],
    "metrics": {
        "cart_traj_len": 0.35323106316321257,
        "distance_elbow_joint": 0.4497338583554984,
        "distance_shoulder_lift_joint": 0.23300058881357089,
        "distance_shoulder_pan_joint": 0.45883770596325785,
        "distance_wrist_1_joint": 0.24504873551166506,
        "distance_wrist_2_joint": 1.1115011802276051,
        "distance_wrist_3_joint": 0.08793682609751974,
        "smoothness": 8.881784197001252e-16,
        "time": 0.012000038000000001,
        "traj_len": 1.6081227860362892,
        "weighted_distance": 2.0294044601565817
    },
    "planner": "RRT",
    "start": {
        "state": {
            "elbow_joint": 1.9715472970024885,
            "shoulder_lift_joint": -1.1394870060712896,
            "shoulder_pan_joint": 0.12281152778156021,
            "wrist_1_joint": -0.780463741449964,
            "wrist_2_joint": 0.12958659822042276,
            "wrist_3_joint": 3.090690232415272
        }
    },
    "waypoints": [
        {
            "positions": [
                0.12281152778156021,
                -1.1394870060712896,
                1.9715472970024885,
                -0.780463741449964,
                0.12958659822042276,
                3.090690232415272
            ]
        },
        {
            "positions": [
                0.05726328407252339,
                -1.1727728044732284,
                2.035794991053274,
                -0.8154707036659161,
                0.2883724811100806,
                3.103252636143489
            ]
        },
        {
            "positions": [
                -0.008284959636513434,
                -1.206058602875167,
                2.1000426851040594,
                -0.8504776658818682,
                0.4471583639997385,
                3.115815039871706
            ]
        },
        {
            "positions": [
                -0.07383320334555027,
                -1.2393444012771058,
                2.164290379154845,
                -0.8854846280978205,
                0.6059442468893964,
                3.128377443599923
            ]
        },
        {
            "positions": [
                -0.13938144705458708,
                -1.2726301996790443,
                2.2285380732056304,
                -0.9204915903137726,
                0.7647301297790542,
                3.1409398473281405
            ]
        },
        {
            "positions": [
                -0.2049296907636239,
                -1.3059159980809831,
                2.292785767256416,
                -0.9554985525297248,
                0.9235160126687121,
                3.1535022510563575
            ]
        },
        {
            "positions": [
                -0.2704779344726608,
                -1.3392017964829217,
                2.3570334613072013,
                -0.9905055147456769,
                1.08230189555837,
                3.1660646547845746
            ]
        },
        {
            "positions": [
                -0.3360261781816976,
                -1.3724875948848605,
                2.421281155357987,
                -1.025512476961629,
                1.2410877784480279,
                3.1786270585127916
            ]
        }
    ]
}