{
    "goal": {
        "global_pose": {
            "orientation": {
                "w": 0.7031023502349854,
                "x": -0.7110244035720825,
                "y": 0.007748599164187908,
                "z": 0.005598929710686207
            },
            "position": {
                "x": 0.11585023208521307,
                "y": 0.44412534475326537,
                "z": 0.3711530566215515
            }
        },
        "name": "move_to_auspresseinheit_A"
    },
    "id": "RRT_move_to_auspresseinheit_A_136",
    "joint_names": [
        "shoulder_pan_joint",
        "shoulder_lift_joint",
        "elbow_joint",
        "wrist_1_joint",
        "wrist_2_joint",
        "wrist_3_joint"
    ],
    "metrics": {
        "cart_traj_len": 0.6885421002907699,
        "distance_elbow_joint": 0.033003131589248724,
        "distance_shoulder_lift_joint": 0.5330369844658482,
        "distance_shoulder_pan_joint": 1.043098566765636,
        "distance_wrist_1_joint": 0.5749091505007354,
        "distance_wrist_2_joint": 0.5318661098777165,
        "distance_wrist_3_joint": 0.057756070472151144,
        "smoothness": 9.868649119015117e-16,
        "time": 0.028648544,
        "traj_len": 1.6654338815069591,
        "weighted_distance": 1.9989890982679446
    },
    "planner": "RRT",
    "start": {
        "state": {
            "elbow_joint": 2.4225746658250005,
            "shoulder_lift_joint": -1.3736534386056498,
            "shoulder_pan_joint": -0.3378633547517467,
            "wrist_1_joint": -1.0288598680537169,
            "wrist_2_joint": 1.233022673432363,
            "wrist_3_joint": -3.0940220416140027
        }
    },
    "waypoints": [
        {
            "positions": [
                -0.3378633547517467,
                -1.3736534386056498,
                2.4225746658250005,
                -1.0288598680537169,
                1.233022673432363,
                -3.0940220416140027
            ]
        },
        {
            "positions": [
                -0.20747603390604222,
                -1.4402830616638809,
                2.4184492743763446,
                -0.956996224241125,
                1.1665394096976485,
                -3.1012415504230217
            ]
        },
        {
            "positions": [
                -0.07708871306033771,
                -1.506912684722112,
                2.4143238829276883,
                -0.885132580428533,
                1.1000561459629339,
                -3.1084610592320407
            ]
        },
        {
            "positions": [
                0.053298607785366825,
                -1.573542307780343,
                2.410198491479032,
                -0.8132689366159411,
                1.0335728822282193,
                -3.1156805680410593
            ]
        },
        {
            "positions": [
                0.1836859286310713,
                -1.6401719308385738,
                2.406073100030376,
                -0.7414052928033492,
                0.9670896184935047,
                -3.1229000768500783
            ]
        },
        {
            "positions": [
                0.3140732494767758,
                -1.7068015538968049,
                2.4019477085817202,
                -0.6695416489907573,
                0.9006063547587901,
                -3.1301195856590973
            ]
        },
        {
            "positions": [
                0.4444605703224804,
                -1.773431176955036,
                2.397822317133064,
                -0.5976780051781653,
                0.8341230910240757,
                -3.137339094468116
            ]
        },
        {
            "positions": [
                0.5748478911681849,
                -1.840060800013267,
                2.3936969256844076,
                -0.5258143613655734,
                0.7676398272893611,
                -3.144558603277135
            ]
        },
        {
            "positions": [
                0.7052352120138894,
                -1.906690423071498,
                2.3895715342357517,
                -0.45395071755298144,
                0.7011565635546465,
                -3.151778112086154
            ]
        }
    ]
}