{
    "goal": {
        "global_pose": {
            "orientation": {
                "w": 0.5084816262002911,
                "x": -0.4908360881923452,
                "y": 0.5182115481033761,
                "z": -0.48164630358495003
            },
            "position": {
                "x": 0.5540239810943604,
                "y": -0.46912469901144505,
                "z": 0.16403168439865112
            }
        },
        "name": "move_to_storage_B"
    },
    "id": "RRT_move_to_storage_B_61",
    "joint_names": [
        "shoulder_pan_joint",
        "shoulder_lift_joint",
        "elbow_joint",
        "wrist_1_joint",
        "wrist_2_joint",
        "wrist_3_joint"
    ],
    "metrics": {
        "cart_traj_len": 1.718614077619894,
        "distance_elbow_joint": 1.921308868521085,
        "distance_shoulder_lift_joint": 0.4582778441483015,
        "distance_shoulder_pan_joint": 1.4493324723446652,
        "distance_wrist_1_joint": 2.9813899300817557,
        "distance_wrist_2_joint": 2.699590434278404,
        "distance_wrist_3_joint": 3.137332984867009,
        "smoothness": 0.20074340011890565,
        "time": 0.088840273,
        "traj_len": 3.5562947760613466,
        "weighted_distance": 4.960128916503622
    },
    "planner": "RRT",
    "start": {
        "state": {
            "elbow_joint": 1.664937868594044,
            "shoulder_lift_joint": -0.661644460510453,
            "shoulder_pan_joint": -0.9139846352900073,
            "wrist_1_joint": 2.146753192139373,
            "wrist_2_joint": -2.2341966793290973,
            "wrist_3_joint": 0.005466555786416001
        }
    },
    "waypoints": [
        {
            "positions": [
                -0.9139846352900073,
                -0.661644460510453,
                1.664937868594044,
                2.146753192139373,
                -2.2341966793290973,
                0.005466555786416001
            ]
        },
        {
            "positions": [
                -0.8348496458626233,
                -0.6770967366768569,
                1.5666734445190078,
                2.1295450409650383,
                -2.1237491076921247,
                -0.04603157794261909
            ]
        },
        {
            "positions": [
                -0.7557146564352395,
                -0.6925490128432608,
                1.4684090204439717,
                2.1123368897907033,
                -2.013301536055152,
                -0.09752971167165418
            ]
        },
        {
            "positions": [
                -0.6765796670078557,
                -0.7080012890096646,
                1.3701445963689358,
                2.095128738616369,
                -1.9028539644181797,
                -0.14902784540068928
            ]
        },
        {
            "positions": [
                -0.5974446775804717,
                -0.7234535651760685,
                1.2718801722938997,
                2.077920587442034,
                -1.792406392781207,
                -0.20052597912972436
            ]
        },
        {
            "positions": [
                -0.5183096881530878,
                -0.7389058413424724,
                1.1736157482188636,
                2.060712436267699,
                -1.6819588211442345,
                -0.2520241128587594
            ]
        },
        {
            "positions": [
                -0.4391746987257039,
                -0.7543581175088763,
                1.0753513241438277,
                2.0435042850933645,
                -1.571511249507262,
                -0.30352224658779453
            ]
        },
        {
            "positions": [
                -0.36003970929831997,
                -0.7698103936752801,
                0.9770869000687916,
                2.0262961339190295,
                -1.4610636778702895,
                -0.3550203803168296
            ]
        },
        {
            "positions": [
                -0.2809047198709362,
                -0.785262669841684,
                0.8788224759937555,
                2.0090879827446946,
                -1.3506161062333168,
                -0.4065185140458647
            ]
        },
        {
            "positions": [
                -0.31355482214795993,
                -0.7986490552343668,
                0.9242302150305873,
                1.8953389939172114,
                -1.2779757117860118,
                -0.5155324306472538
            ]
        },
        {
            "positions": [
                -0.3462049244249837,
                -0.8120354406270497,
                0.9696379540674193,
                1.7815900050897284,
                -1.205335317338707,
                -0.624546347248643
            ]
        },
        {
            "positions": [
                -0.37885502670200744,
                -0.8254218260197325,
                1.015045693104251,
                1.6678410162622455,
                -1.1326949228914018,
                -0.733560263850032
            ]
        },
        {
            "positions": [
                -0.4115051289790312,
                -0.8388082114124153,
                1.060453432141083,
                1.5540920274347623,
                -1.060054528444097,
                -0.8425741804514213
            ]
        },
        {
            "positions": [
                -0.44415523125605494,
                -0.8521945968050981,
                1.105861171177915,
                1.440343038607279,
                -0.9874141339967919,
                -0.9515880970528103
            ]
        },
        {
            "positions": [
                -0.4768053335330787,
                -0.8655809821977809,
                1.1512689102147466,
                1.3265940497797961,
                -0.9147737395494868,
                -1.0606020136541994
            ]
        },
        {
            "positions": [
                -0.5094554358101024,
                -0.8789673675904638,
                1.1966766492515786,
                1.212845060952313,
                -0.8421333451021819,
                -1.1696159302555886
            ]
        },
        {
            "positions": [
                -0.5421055380871262,
                -0.8923537529831466,
                1.2420843882884105,
                1.09909607212483,
                -0.7694929506548769,
                -1.278629846856978
            ]
        },
        {
            "positions": [
                -0.5747556403641499,
                -0.9057401383758295,
                1.2874921273252422,
                0.9853470832973468,
                -0.6968525562075719,
                -1.387643763458367
            ]
        },
        {
            "positions": [
                -0.6074057426411738,
                -0.9191265237685122,
                1.3328998663620741,
                0.8715980944698638,
                -0.6242121617602668,
                -1.496657680059756
            ]
        },
        {
            "positions": [
                -0.6400558449181974,
                -0.932512909161195,
                1.378307605398906,
                0.7578491056423806,
                -0.5515717673129619,
                -1.605671596661145
            ]
        },
        {
            "positions": [
                -0.6727059471952213,
                -0.9458992945538779,
                1.4237153444357378,
                0.6441001168148976,
                -0.4789313728656569,
                -1.7146855132625343
            ]
        },
        {
            "positions": [
                -0.7053560494722451,
                -0.9592856799465607,
                1.46912308347257,
                0.5303511279874145,
                -0.4062909784183518,
                -1.8236994298639233
            ]
        },
        {
            "positions": [
                -0.7380061517492688,
                -0.9726720653392436,
                1.5145308225094016,
                0.4166021391599313,
                -0.33365058397104685,
                -1.9327133464653126
            ]
        },
        {
            "positions": [
                -0.7706562540262925,
                -0.9860584507319263,
                1.5599385615462333,
                0.3028531503324483,
                -0.261010189523742,
                -2.0417272630667016
            ]
        },
        {
            "positions": [
                -0.8033063563033163,
                -0.9994448361246091,
                1.6053463005830655,
                0.18910416150496534,
                -0.18836979507643692,
                -2.150741179668091
            ]
        },
        {
            "positions": [
                -0.8359564585803401,
                -1.0128312215172919,
                1.6507540396198972,
                0.07535517267748215,
                -0.11572940062913184,
                -2.2597550962694797
            ]
        },
        {
            "positions": [
                -0.8686065608573637,
                -1.0262176069099747,
                1.6961617786567291,
                -0.03839381615000104,
                -0.04308900618182698,
                -2.368769012870869
            ]
        },
        {
            "positions": [
                -0.9012566631343875,
                -1.0396039923026577,
                1.741569517693561,
                -0.15214280497748378,
                0.029551388265478096,
                -2.477782929472258
            ]
        },
        {
            "positions": [
                -0.9339067654114113,
                -1.0529903776953404,
                1.7869772567303928,
                -0.26589179380496697,
                0.10219178271278317,
                -2.5867968460736472
            ]
        },
        {
            "positions": [
                -0.9665568676884351,
                -1.0663767630880232,
                1.8323849957672247,
                -0.37964078263245016,
                0.17483217716008803,
                -2.6958107626750363
            ]
        },
        {
            "positions": [
                -0.9992069699654587,
                -1.0797631484807062,
                1.8777927348040566,
                -0.49338977145993335,
                0.2474725716073931,
                -2.8048246792764253
            ]
        },
        {
            "positions": [
                -1.0318570722424825,
                -1.093149533873389,
                1.9232004738408885,
                -0.6071387602874165,
                0.3201129660546982,
                -2.913838595877815
            ]
        },
        {
            "positions": [
                -1.0645071745195063,
                -1.1065359192660718,
                1.9686082128777203,
                -0.7208877491148993,
                0.39275336050200305,
                -3.022852512479204
            ]
        },
        {
            "positions": [
                -1.09715727679653,
                -1.1199223046587545,
                2.014015951914552,
                -0.8346367379423824,
                0.46539375494930807,
                -3.131866429080593
            ]
        }
    ]
}