{
    "goal": {
        "global_pose": {
            "orientation": {
                "w": -0.4816463035849501,
                "x": 0.5182115481033762,
                "y": 0.4908360881923453,
                "z": -0.5084816262002911
            },
            "position": {
                "x": -0.8240239810943604,
                "y": 0.19912469901144506,
                "z": 0.16403168439865112
            }
        },
        "name": "move_to_storage_D"
    },
    "id": "RRT_move_to_storage_D_107",
    "joint_names": [
        "shoulder_pan_joint",
        "shoulder_lift_joint",
        "elbow_joint",
        "wrist_1_joint",
        "wrist_2_joint",
        "wrist_3_joint"
    ],
    "metrics": {
        "cart_traj_len": 3.8771651962217684,
        "distance_elbow_joint": 4.210101171997227,
        "distance_shoulder_lift_joint": 1.2646955686144157,
        "distance_shoulder_pan_joint": 2.811658019613967,
        "distance_wrist_1_joint": 2.270233190717469,
        "distance_wrist_2_joint": 0.8703644446098825,
        "distance_wrist_3_joint": 3.1366231021445707,
        "smoothness": 7.287617834678934e-16,
        "time": 0.057661735,
        "traj_len": 3.8162383963397164,
        "weighted_distance": 4.896684524993827
    },
    "planner": "RRT",
    "start": {
        "state": {
            "elbow_joint": -2.384821988534728,
            "shoulder_lift_joint": -2.2788054721415256,
            "shoulder_pan_joint": -0.1854694642142757,
            "wrist_1_joint": 1.4845938289331202,
            "wrist_2_joint": 0.17898776772866878,
            "wrist_3_joint": 0.037105688729662994
        }
    },
    "waypoints": [
        {
            "positions": [
                -0.1854694642142757,
                -2.2788054721415256,
                -2.384821988534728,
                1.4845938289331202,
                0.17898776772866878,
                0.037105688729662994
            ]
        },
        {
            "positions": [
                -0.08695954639028865,
                -2.265969887429383,
                -2.235996636807671,
                1.4520365727867022,
                0.21547359478773884,
                0.08878428885986459
            ]
        },
        {
            "positions": [
                0.011550371433698414,
                -2.2531343027172404,
                -2.087171285080615,
                1.4194793166402841,
                0.25195942184680886,
                0.14046288899006618
            ]
        },
        {
            "positions": [
                0.11006028925768549,
                -2.240298718005098,
                -1.938345933353558,
                1.386922060493866,
                0.2884452489058789,
                0.19214148912026777
            ]
        },
        {
            "positions": [
                0.20857020708167254,
                -2.2274631332929555,
                -1.7895205816265012,
                1.3543648043474479,
                0.32493107596494897,
                0.24382008925046936
            ]
        },
        {
            "positions": [
                0.3070801249056596,
                -2.214627548580813,
                -1.6406952298994444,
                1.3218075482010299,
                0.361416903024019,
                0.2954986893806709
            ]
        },
        {
            "positions": [
                0.4055900427296467,
                -2.2017919638686703,
                -1.4918698781723878,
                1.2892502920546118,
                0.3979027300830891,
                0.34717728951087257
            ]
        },
        {
            "positions": [
                0.5040999605536338,
                -2.1889563791565276,
                -1.343044526445331,
                1.2566930359081938,
                0.43438855714215907,
                0.3988558896410741
            ]
        },
        {
            "positions": [
                0.6026098783776208,
                -2.176120794444385,
                -1.1942191747182744,
                1.2241357797617756,
                0.4708743842012292,
                0.45053448977127575
            ]
        },
        {
            "positions": [
                0.7011197962016079,
                -2.1632852097322424,
                -1.0453938229912176,
                1.1915785236153575,
                0.5073602112602992,
                0.5022130899014773
            ]
        },
        {
            "positions": [
                0.799629714025595,
                -2.1504496250201,
                -0.8965684712641608,
                1.1590212674689395,
                0.5438460383193693,
                0.5538916900316789
            ]
        },
        {
            "positions": [
                0.8981396318495821,
                -2.1376140403079575,
                -0.747743119537104,
                1.1264640113225215,
                0.5803318653784393,
                0.6055702901618806
            ]
        },
        {
            "positions": [
                0.9966495496735691,
                -2.124778455595815,
                -0.5989177678100477,
                1.0939067551761035,
                0.6168176924375093,
                0.6572488902920821
            ]
        },
        {
            "positions": [
                1.095159467497556,
                -2.1119428708836723,
                -0.4500924160829909,
                1.0613494990296855,
                0.6533035194965794,
                0.7089274904222836
            ]
        },
        {
            "positions": [
                1.1936693853215432,
                -2.0991072861715296,
                -0.3012670643559341,
                1.0287922428832672,
                0.6897893465556494,
                0.7606060905524853
            ]
        },
        {
            "positions": [
                1.2921793031455302,
                -2.0862717014593875,
                -0.1524417126288773,
                0.9962349867368492,
                0.7262751736147195,
                0.8122846906826869
            ]
        },
        {
            "positions": [
                1.3906892209695172,
                -2.073436116747245,
                -0.0036163609018209364,
                0.9636777305904312,
                0.7627610006737895,
                0.8639632908128885
            ]
        },
        {
            "positions": [
                1.4891991387935042,
                -2.060600532035102,
                0.14520899082523586,
                0.9311204744440131,
                0.7992468277328595,
                0.91564189094309
            ]
        },
        {
            "positions": [
                1.5877090566174914,
                -2.0477649473229596,
                0.2940343425522929,
                0.898563218297595,
                0.8357326547919296,
                0.9673204910732917
            ]
        },
        {
            "positions": [
                1.6396330315566015,
                -1.996082195133167,
                0.37059658459780315,
                0.8143530892934978,
                0.8464136326692607,
                1.0776409060633387
            ]
        },
        {
            "positions": [
                1.6915570064957113,
                -1.9443994429433746,
                0.4471588266433134,
                0.7301429602894006,
                0.8570946105465918,
                1.187961321053386
            ]
        },
        {
            "positions": [
                1.7434809814348213,
                -1.8927166907535822,
                0.5237210686888236,
                0.6459328312853034,
                0.8677755884239229,
                1.2982817360434329
            ]
        },
        {
            "positions": [
                1.7954049563739312,
                -1.8410339385637897,
                0.6002833107343339,
                0.5617227022812062,
                0.8784565663012539,
                1.40860215103348
            ]
        },
        {
            "positions": [
                1.8473289313130412,
                -1.789351186373997,
                0.6768455527798442,
                0.4775125732771091,
                0.889137544178585,
                1.518922566023527
            ]
        },
        {
            "positions": [
                1.8992529062521513,
                -1.7376684341842048,
                0.7534077948253544,
                0.393302444273012,
                0.8998185220559161,
                1.6292429810135742
            ]
        },
        {
            "positions": [
                1.951176881191261,
                -1.6859856819944121,
                0.8299700368708646,
                0.3090923152689148,
                0.9104994999332472,
                1.7395633960036214
            ]
        },
        {
            "positions": [
                2.003100856130371,
                -1.6343029298046197,
                0.906532278916375,
                0.22488218626481749,
                0.9211804778105783,
                1.8498838109936684
            ]
        },
        {
            "positions": [
                2.055024831069481,
                -1.5826201776148272,
                0.9830945209618852,
                0.1406720572607204,
                0.9318614556879093,
                1.9602042259837156
            ]
        },
        {
            "positions": [
                2.106948806008591,
                -1.5309374254250347,
                1.0596567630073954,
                0.05646192825662322,
                0.9425424335652404,
                2.0705246409737628
            ]
        },
        {
            "positions": [
                2.158872780947701,
                -1.4792546732352423,
                1.1362190050529057,
                -0.027748200747474083,
                0.9532234114425715,
                2.1808450559638097
            ]
        },
        {
            "positions": [
                2.210796755886811,
                -1.4275719210454498,
                1.2127812470984158,
                -0.11195832975157105,
                0.9639043893199026,
                2.2911654709538567
            ]
        },
        {
            "positions": [
                2.262720730825921,
                -1.3758891688556574,
                1.2893434891439264,
                -0.19616845875566835,
                0.9745853671972337,
                2.401485885943904
            ]
        },
        {
            "positions": [
                2.314644705765031,
                -1.324206416665865,
                1.3659057311894363,
                -0.28037858775976543,
                0.9852663450745647,
                2.511806300933951
            ]
        },
        {
            "positions": [
                2.366568680704141,
                -1.2725236644760725,
                1.4424679732349468,
                -0.36458871676386273,
                0.9959473229518958,
                2.622126715923998
            ]
        },
        {
            "positions": [
                2.418492655643251,
                -1.2208409122862798,
                1.5190302152804571,
                -0.44879884576796003,
                1.006628300829227,
                2.7324471309140455
            ]
        },
        {
            "positions": [
                2.4704166305823607,
                -1.1691581600964875,
                1.5955924573259672,
                -0.5330089747720569,
                1.017309278706558,
                2.8427675459040924
            ]
        },
        {
            "positions": [
                2.522340605521471,
                -1.1174754079066949,
                1.6721546993714775,
                -0.6172191037761542,
                1.0279902565838892,
                2.9530879608941394
            ]
        },
        {
            "positions": [
                2.5742645804605804,
                -1.0657926557169026,
                1.7487169414169876,
                -0.7014292327802513,
                1.0386712344612201,
                3.0634083758841864
            ]
        },
        {
            "positions": [
                2.6261885553996906,
                -1.01410990352711,
                1.825279183462498,
                -0.7856393617843486,
                1.0493522123385512,
                3.1737287908742338
            ]
        }
    ]
}