{
    "goal": {
        "global_pose": {
            "orientation": {
                "w": -0.4816463035849501,
                "x": 0.5182115481033762,
                "y": 0.4908360881923453,
                "z": -0.5084816262002911
            },
            "position": {
                "x": -0.8240239810943604,
                "y": 0.19912469901144506,
                "z": 0.16403168439865112
            }
        },
        "name": "move_to_storage_D"
    },
    "id": "RRT_move_to_storage_D_93",
    "joint_names": [
        "shoulder_pan_joint",
        "shoulder_lift_joint",
        "elbow_joint",
        "wrist_1_joint",
        "wrist_2_joint",
        "wrist_3_joint"
    ],
    "metrics": {
        "cart_traj_len": 3.758150185348289,
        "distance_elbow_joint": 4.210077505058087,
        "distance_shoulder_lift_joint": 1.264816302473496,
        "distance_shoulder_pan_joint": 2.8123509280523695,
        "distance_wrist_1_joint": 2.3193005884600977,
        "distance_wrist_2_joint": 0.9788259899804461,
        "distance_wrist_3_joint": 3.2072595715792733,
        "smoothness": 0.23627659142187837,
        "time": 0.089680829,
        "traj_len": 3.846118938046998,
        "weighted_distance": 4.950280457428938
    },
    "planner": "RRT",
    "start": {
        "state": {
            "elbow_joint": -2.384821988534728,
            "shoulder_lift_joint": -2.2788054721415256,
            "shoulder_pan_joint": -0.1854694642142757,
            "wrist_1_joint": 1.4845938289331202,
            "wrist_2_joint": 0.17898776772866878,
            "wrist_3_joint": 0.037105688729662994
        }
    },
    "waypoints": [
        {
            "positions": [
                -0.1854694642142757,
                -2.2788054721415256,
                -2.384821988534728,
                1.4845938289331202,
                0.17898776772866878,
                0.037105688729662994
            ]
        },
        {
            "positions": [
                -0.1374732758015308,
                -2.261218223690097,
                -2.359227064224897,
                1.5078921400533514,
                0.1243834209302707,
                0.004905756957950459
            ]
        },
        {
            "positions": [
                -0.059876855377157756,
                -2.2262296580825924,
                -2.245162779768312,
                1.4476202140344134,
                0.1422253601076844,
                0.09253742526437578
            ]
        },
        {
            "positions": [
                0.01771956504721528,
                -2.191241092475088,
                -2.131098495311727,
                1.3873482880154753,
                0.16006729928509814,
                0.18016909357080108
            ]
        },
        {
            "positions": [
                0.09531598547158832,
                -2.156252526867583,
                -2.0170342108551416,
                1.3270763619965373,
                0.17790923846251183,
                0.2678007618772264
            ]
        },
        {
            "positions": [
                0.17291240589596135,
                -2.121263961260079,
                -1.9029699263985564,
                1.2668044359775994,
                0.19575117763992556,
                0.3554324301836517
            ]
        },
        {
            "positions": [
                0.2505088263203344,
                -2.0862753956525744,
                -1.7889056419419713,
                1.2065325099586612,
                0.21359311681733928,
                0.44306409849007705
            ]
        },
        {
            "positions": [
                0.3281052467447074,
                -2.0512868300450697,
                -1.674841357485386,
                1.1462605839397233,
                0.231435055994753,
                0.5306957667965023
            ]
        },
        {
            "positions": [
                0.4057016671690804,
                -2.016298264437565,
                -1.5607770730288009,
                1.0859886579207854,
                0.2492769951721667,
                0.6183274351029276
            ]
        },
        {
            "positions": [
                0.4832980875934535,
                -1.9813096988300605,
                -1.4467127885722157,
                1.0257167319018474,
                0.2671189343495804,
                0.705959103409353
            ]
        },
        {
            "positions": [
                0.5608945080178266,
                -1.9463211332225558,
                -1.3326485041156304,
                0.9654448058829094,
                0.2849608735269941,
                0.7935907717157783
            ]
        },
        {
            "positions": [
                0.6384909284421996,
                -1.9113325676150514,
                -1.2185842196590453,
                0.9051728798639713,
                0.30280281270440784,
                0.8812224400222036
            ]
        },
        {
            "positions": [
                0.7160873488665725,
                -1.8763440020075468,
                -1.1045199352024602,
                0.8449009538450334,
                0.32064475188182157,
                0.968854108328629
            ]
        },
        {
            "positions": [
                0.7936837692909456,
                -1.8413554364000424,
                -0.9904556507458748,
                0.7846290278260953,
                0.3384866910592353,
                1.0564857766350542
            ]
        },
        {
            "positions": [
                0.8712801897153187,
                -1.8063668707925378,
                -0.8763913662892897,
                0.7243571018071574,
                0.35632863023664896,
                1.1441174449414795
            ]
        },
        {
            "positions": [
                0.9488766101396916,
                -1.7713783051850331,
                -0.7623270818327046,
                0.6640851757882194,
                0.3741705694140627,
                1.2317491132479048
            ]
        },
        {
            "positions": [
                1.0264730305640648,
                -1.7363897395775285,
                -0.6482627973761192,
                0.6038132497692814,
                0.3920125085914764,
                1.3193807815543301
            ]
        },
        {
            "positions": [
                1.1040694509884377,
                -1.7014011739700239,
                -0.5341985129195341,
                0.5435413237503434,
                0.40985444776889013,
                1.4070124498607555
            ]
        },
        {
            "positions": [
                1.181665871412811,
                -1.6664126083625195,
                -0.420134228462949,
                0.4832693977314053,
                0.42769638694630385,
                1.4946441181671808
            ]
        },
        {
            "positions": [
                1.2592622918371839,
                -1.6314240427550148,
                -0.30606994400636367,
                0.4229974717124674,
                0.4455383261237176,
                1.5822757864736061
            ]
        },
        {
            "positions": [
                1.3368587122615567,
                -1.5964354771475104,
                -0.19200565954977877,
                0.36272554569352944,
                0.46338026530113124,
                1.6699074547800314
            ]
        },
        {
            "positions": [
                1.41445513268593,
                -1.5614469115400058,
                -0.07794137509319343,
                0.3024536196745913,
                0.48122220447854497,
                1.7575391230864568
            ]
        },
        {
            "positions": [
                1.492051553110303,
                -1.5264583459325012,
                0.03612290936339191,
                0.24218169365565334,
                0.4990641436559587,
                1.845170791392882
            ]
        },
        {
            "positions": [
                1.5696479735346758,
                -1.4914697803249966,
                0.1501871938199768,
                0.1819097676367154,
                0.5169060828333724,
                1.9328024596993074
            ]
        },
        {
            "positions": [
                1.647244393959049,
                -1.456481214717492,
                0.26425147827656215,
                0.12163784161777746,
                0.5347480220107861,
                2.0204341280057325
            ]
        },
        {
            "positions": [
                1.724840814383422,
                -1.4214926491099875,
                0.3783157627331475,
                0.061365915598839305,
                0.5525899611881998,
                2.108065796312158
            ]
        },
        {
            "positions": [
                1.8024372348077953,
                -1.3865040835024829,
                0.4923800471897324,
                0.0010939895799013666,
                0.5704319003656135,
                2.195697464618583
            ]
        },
        {
            "positions": [
                1.8800336552321681,
                -1.3515155178949785,
                0.6064443316463177,
                -0.05917793643903657,
                0.5882738395430273,
                2.2833291329250085
            ]
        },
        {
            "positions": [
                1.957630075656541,
                -1.3165269522874739,
                0.7205086161029031,
                -0.11944986245797473,
                0.606115778720441,
                2.370960801231434
            ]
        },
        {
            "positions": [
                2.035226496080914,
                -1.2815383866799692,
                0.834572900559488,
                -0.17972178847691267,
                0.6239577178978547,
                2.458592469537859
            ]
        },
        {
            "positions": [
                2.112822916505287,
                -1.2465498210724646,
                0.9486371850160733,
                -0.2399937144958506,
                0.6417996570752683,
                2.5462241378442845
            ]
        },
        {
            "positions": [
                2.19041933692966,
                -1.21156125546496,
                1.0627014694726586,
                -0.30026564051478855,
                0.659641596252682,
                2.63385580615071
            ]
        },
        {
            "positions": [
                2.2680157573540334,
                -1.1765726898574556,
                1.1767657539292435,
                -0.3605375665337267,
                0.6774835354300958,
                2.721487474457135
            ]
        },
        {
            "positions": [
                2.3456121777784062,
                -1.141584124249951,
                1.2908300383858289,
                -0.42080949255266464,
                0.6953254746075095,
                2.8091191427635605
            ]
        },
        {
            "positions": [
                2.3924903921216876,
                -1.1203182984862974,
                1.3799009514087506,
                -0.48202626667497317,
                0.7542054061916443,
                2.8709268517638855
            ]
        },
        {
            "positions": [
                2.439368606464969,
                -1.0990524727226438,
                1.4689718644316723,
                -0.5432430407972817,
                0.8130853377757793,
                2.9327345607642106
            ]
        },
        {
            "positions": [
                2.48624682080825,
                -1.0777866469589903,
                1.558042777454594,
                -0.6044598149195903,
                0.8719652693599141,
                2.9945422697645356
            ]
        },
        {
            "positions": [
                2.533125035151531,
                -1.0565208211953367,
                1.6471136904775154,
                -0.6656765890418987,
                0.930845200944049,
                3.0563499787648607
            ]
        },
        {
            "positions": [
                2.5800032494948124,
                -1.0352549954316832,
                1.7361846035004371,
                -0.7268933631642074,
                0.989725132528184,
                3.1181576877651858
            ]
        },
        {
            "positions": [
                2.6268814638380937,
                -1.0139891696680297,
                1.8252555165233588,
                -0.7881101372865159,
                1.0486050641123188,
                3.179965396765511
            ]
        }
    ]
}