{
    "goal": {
        "global_pose": {
            "orientation": {
                "w": -0.4816463035849501,
                "x": 0.5182115481033762,
                "y": 0.4908360881923453,
                "z": -0.5084816262002911
            },
            "position": {
                "x": -0.8240239810943604,
                "y": 0.19912469901144506,
                "z": 0.16403168439865112
            }
        },
        "name": "move_to_storage_D"
    },
    "id": "RRT_move_to_storage_D_145",
    "joint_names": [
        "shoulder_pan_joint",
        "shoulder_lift_joint",
        "elbow_joint",
        "wrist_1_joint",
        "wrist_2_joint",
        "wrist_3_joint"
    ],
    "metrics": {
        "cart_traj_len": 3.9589555517864636,
        "distance_elbow_joint": 4.90689072929351,
        "distance_shoulder_lift_joint": 1.2636769871675864,
        "distance_shoulder_pan_joint": 2.8129449855476993,
        "distance_wrist_1_joint": 2.2816179843372084,
        "distance_wrist_2_joint": 2.2263415798002875,
        "distance_wrist_3_joint": 3.754871165671666,
        "smoothness": 0.2769129064219463,
        "time": 0.105691297,
        "traj_len": 4.1528717090488065,
        "weighted_distance": 5.409625248323472
    },
    "planner": "RRT",
    "start": {
        "state": {
            "elbow_joint": -2.384821988534728,
            "shoulder_lift_joint": -2.2788054721415256,
            "shoulder_pan_joint": -0.1854694642142757,
            "wrist_1_joint": 1.4845938289331202,
            "wrist_2_joint": 0.17898776772866878,
            "wrist_3_joint": 0.037105688729662994
        }
    },
    "waypoints": [
        {
            "positions": [
                -0.1854694642142757,
                -2.2788054721415256,
                -2.384821988534728,
                1.4845938289331202,
                0.17898776772866878,
                0.037105688729662994
            ]
        },
        {
            "positions": [
                -0.11665868032375713,
                -2.2618419352369914,
                -2.434418276825069,
                1.4200574066917662,
                0.08261738676968909,
                0.08220695898398979
            ]
        },
        {
            "positions": [
                -0.04784789643323856,
                -2.2448783983324576,
                -2.48401456511541,
                1.3555209844504124,
                -0.013752994189290602,
                0.12730822923831658
            ]
        },
        {
            "positions": [
                0.020962887457280033,
                -2.2279148614279234,
                -2.5336108534057513,
                1.2909845622090583,
                -0.11012337514827028,
                0.1724094994926434
            ]
        },
        {
            "positions": [
                0.0897736713477986,
                -2.2109513245233896,
                -2.583207141696092,
                1.2264481399677045,
                -0.20649375610725,
                0.21751076974697017
            ]
        },
        {
            "positions": [
                0.15858445523831718,
                -2.1939877876188554,
                -2.632803429986433,
                1.1619117177263505,
                -0.3028641370662297,
                0.262612040001297
            ]
        },
        {
            "positions": [
                0.22739523912883577,
                -2.1770242507143216,
                -2.6823997182767743,
                1.0973752954849967,
                -0.3992345180252094,
                0.30771331025562376
            ]
        },
        {
            "positions": [
                0.2962060230193544,
                -2.1600607138097874,
                -2.7319960065671154,
                1.0328388732436427,
                -0.49560489898418914,
                0.3528145805099506
            ]
        },
        {
            "positions": [
                0.3575552203434088,
                -2.1299309183141073,
                -2.612003461533928,
                0.9846845830160708,
                -0.45476940127136206,
                0.26231031014438805
            ]
        },
        {
            "positions": [
                0.4189044176674633,
                -2.099801122818427,
                -2.4920109165007407,
                0.936530292788499,
                -0.41393390355853493,
                0.17180603977882544
            ]
        },
        {
            "positions": [
                0.48025361499151775,
                -2.0696713273227467,
                -2.372018371467553,
                0.8883760025609271,
                -0.37309840584570786,
                0.08130176941326284
            ]
        },
        {
            "positions": [
                0.5416028123155722,
                -2.0395415318270667,
                -2.2520258264343656,
                0.8402217123333553,
                -0.33226290813288073,
                -0.009202500952299741
            ]
        },
        {
            "positions": [
                0.6029520096396266,
                -2.009411736331386,
                -2.132033281401178,
                0.7920674221057834,
                -0.2914274104200537,
                -0.09970677131786232
            ]
        },
        {
            "positions": [
                0.6643012069636811,
                -1.979281940835706,
                -2.012040736367991,
                0.7439131318782115,
                -0.2505919127072266,
                -0.19021104168342495
            ]
        },
        {
            "positions": [
                0.7256504042877354,
                -1.949152145340026,
                -1.8920481913348035,
                0.6957588416506397,
                -0.2097564149943995,
                -0.2807153120489875
            ]
        },
        {
            "positions": [
                0.78699960161179,
                -1.9190223498443457,
                -1.772055646301616,
                0.6476045514230678,
                -0.16892091728157238,
                -0.3712195824145501
            ]
        },
        {
            "positions": [
                0.8483487989358444,
                -1.8888925543486654,
                -1.6520631012684284,
                0.5994502611954959,
                -0.1280854195687453,
                -0.46172385278011263
            ]
        },
        {
            "positions": [
                0.9096979962598988,
                -1.8587627588529854,
                -1.532070556235241,
                0.5512959709679242,
                -0.08724992185591823,
                -0.5522281231456753
            ]
        },
        {
            "positions": [
                0.9710471935839533,
                -1.828632963357305,
                -1.4120780112020535,
                0.5031416807403523,
                -0.046414424143091104,
                -0.6427323935112379
            ]
        },
        {
            "positions": [
                1.0323963909080076,
                -1.7985031678616248,
                -1.292085466168866,
                0.4549873905127805,
                -0.005578926430264031,
                -0.7332366638768005
            ]
        },
        {
            "positions": [
                1.0937455882320624,
                -1.7683733723659447,
                -1.1720929211356785,
                0.4068331002852086,
                0.0352565712825631,
                -0.823740934242363
            ]
        },
        {
            "positions": [
                1.1550947855561167,
                -1.7382435768702644,
                -1.0521003761024914,
                0.3586788100576367,
                0.07609206899539012,
                -0.9142452046079256
            ]
        },
        {
            "positions": [
                1.216443982880171,
                -1.7081137813745841,
                -0.9321078310693038,
                0.3105245198300648,
                0.11692756670821725,
                -1.0047494749734884
            ]
        },
        {
            "positions": [
                1.2777931802042255,
                -1.677983985878904,
                -0.8121152860361165,
                0.262370229602493,
                0.15776306442104437,
                -1.095253745339051
            ]
        },
        {
            "positions": [
                1.33914237752828,
                -1.6478541903832238,
                -0.6921227410029287,
                0.21421593937492112,
                0.1985985621338715,
                -1.1857580157046135
            ]
        },
        {
            "positions": [
                1.4004915748523343,
                -1.6177243948875435,
                -0.5721301959697414,
                0.16606164914734933,
                0.23943405984669852,
                -1.276262286070176
            ]
        },
        {
            "positions": [
                1.4618407721763889,
                -1.5875945993918634,
                -0.452137650936554,
                0.11790735891977744,
                0.28026955755952565,
                -1.3667665564357385
            ]
        },
        {
            "positions": [
                1.5231899695004432,
                -1.5574648038961831,
                -0.33214510590336666,
                0.06975306869220566,
                0.32110505527235267,
                -1.457270826801301
            ]
        },
        {
            "positions": [
                1.584539166824498,
                -1.5273350084005028,
                -0.21215256087017886,
                0.02159877846463365,
                0.3619405529851799,
                -1.547775097166864
            ]
        },
        {
            "positions": [
                1.6458883641485522,
                -1.4972052129048228,
                -0.09216001583699152,
                -0.026555511762938133,
                0.4027760506980069,
                -1.6382793675324265
            ]
        },
        {
            "positions": [
                1.7072375614726065,
                -1.4670754174091425,
                0.027832529196195832,
                -0.07470980199050992,
                0.44361154841083406,
                -1.728783637897989
            ]
        },
        {
            "positions": [
                1.768586758796661,
                -1.4369456219134622,
                0.14782507422938318,
                -0.1228640922180817,
                0.4844470461236611,
                -1.8192879082635516
            ]
        },
        {
            "positions": [
                1.8299359561207156,
                -1.4068158264177821,
                0.26781761926257097,
                -0.1710183824456537,
                0.5252825438364882,
                -1.909792178629114
            ]
        },
        {
            "positions": [
                1.89128515344477,
                -1.3766860309221018,
                0.3878101642957583,
                -0.2191726726732255,
                0.5661180415493153,
                -2.0002964489946766
            ]
        },
        {
            "positions": [
                1.9526343507688244,
                -1.3465562354264216,
                0.5078027093289457,
                -0.26732696290079727,
                0.6069535392621425,
                -2.090800719360239
            ]
        },
        {
            "positions": [
                2.0139835480928787,
                -1.3164264399307415,
                0.6277952543621326,
                -0.3154812531283693,
                0.6477890369749694,
                -2.1813049897258017
            ]
        },
        {
            "positions": [
                2.0753327454169335,
                -1.286296644435061,
                0.7477877993953208,
                -0.36363554335594106,
                0.6886245346877967,
                -2.2718092600913646
            ]
        },
        {
            "positions": [
                2.1366819427409878,
                -1.256166848939381,
                0.8677803444285077,
                -0.41178983358351307,
                0.7294600324006236,
                -2.362313530456927
            ]
        },
        {
            "positions": [
                2.198031140065042,
                -1.2260370534437008,
                0.9877728894616951,
                -0.45994412381108485,
                0.7702955301134508,
                -2.4528178008224897
            ]
        },
        {
            "positions": [
                2.2593803373890964,
                -1.1959072579480206,
                1.1077654344948824,
                -0.5080984140386566,
                0.8111310278262779,
                -2.543322071188052
            ]
        },
        {
            "positions": [
                2.320729534713151,
                -1.1657774624523403,
                1.2277579795280702,
                -0.5562527042662286,
                0.851966525539105,
                -2.6338263415536147
            ]
        },
        {
            "positions": [
                2.382078732037206,
                -1.1356476669566602,
                1.347750524561258,
                -0.6044069944938004,
                0.8928020232519321,
                -2.7243306119191772
            ]
        },
        {
            "positions": [
                2.4434279293612597,
                -1.10551787146098,
                1.4677430695944453,
                -0.6525612847213722,
                0.933637520964759,
                -2.8148348822847398
            ]
        },
        {
            "positions": [
                2.5047771266853145,
                -1.0753880759652998,
                1.5877356146276327,
                -0.700715574948944,
                0.9744730186775862,
                -2.9053391526503023
            ]
        },
        {
            "positions": [
                2.5661263240093692,
                -1.0452582804696195,
                1.70772815966082,
                -0.748869865176516,
                1.0153085163904132,
                -2.9958434230158653
            ]
        },
        {
            "positions": [
                2.6274755213334235,
                -1.0151284849739393,
                1.827720704694007,
                -0.7970241554040877,
                1.0561440141032403,
                -3.086347693381428
            ]
        }
    ]
}