{
    "goal": {
        "global_pose": {
            "orientation": {
                "w": 0.7031023480610252,
                "x": -0.7110244013736278,
                "y": 0.0077485991402295624,
                "z": 0.005598929693374583
            },
            "position": {
                "x": -0.8841497679147869,
                "y": 0.44412534475326537,
                "z": 0.3711530566215515
            }
        },
        "name": "move_to_auspresseinheit_D"
    },
    "id": "RRT_move_to_auspresseinheit_D_98",
    "joint_names": [
        "shoulder_pan_joint",
        "shoulder_lift_joint",
        "elbow_joint",
        "wrist_1_joint",
        "wrist_2_joint",
        "wrist_3_joint"
    ],
    "metrics": {
        "cart_traj_len": 0.3442083239252866,
        "distance_elbow_joint": 0.6691606854744672,
        "distance_shoulder_lift_joint": 0.13864944818330027,
        "distance_shoulder_pan_joint": 0.1332499176175483,
        "distance_wrist_1_joint": 0.6314187503906217,
        "distance_wrist_2_joint": 1.4356824967634683,
        "distance_wrist_3_joint": 0.07962443220199278,
        "smoothness": 1.9737298371844314e-16,
        "time": 0.014057919,
        "traj_len": 1.757209643335535,
        "weighted_distance": 2.3052409510047913
    },
    "planner": "RRT",
    "start": {
        "state": {
            "elbow_joint": -1.8275523626775212,
            "shoulder_lift_joint": -2.126789852344167,
            "shoulder_pan_joint": -0.03513704404078235,
            "wrist_1_joint": -2.347782403156801,
            "wrist_2_joint": -1.6058999987535132,
            "wrist_3_joint": -3.0880379163319196
        }
    },
    "waypoints": [
        {
            "positions": [
                -0.03513704404078235,
                -2.126789852344167,
                -1.8275523626775212,
                -2.347782403156801,
                -1.6058999987535132,
                -3.0880379163319196
            ]
        },
        {
            "positions": [
                -0.051793283742975885,
                -2.1441210333670795,
                -1.743907276993213,
                -2.4267097469556287,
                -1.4264396866580797,
                -3.0780848623066706
            ]
        },
        {
            "positions": [
                -0.06844952344516943,
                -2.1614522143899917,
                -1.6602621913089044,
                -2.5056370907544565,
                -1.246979374562646,
                -3.0681318082814215
            ]
        },
        {
            "positions": [
                -0.08510576314736296,
                -2.1787833954129043,
                -1.576617105624596,
                -2.584564434553284,
                -1.0675190624672126,
                -3.0581787542561725
            ]
        },
        {
            "positions": [
                -0.1017620028495565,
                -2.196114576435817,
                -1.4929720199402876,
                -2.6634917783521117,
                -0.8880587503717791,
                -3.0482257002309234
            ]
        },
        {
            "positions": [
                -0.11841824255175004,
                -2.2134457574587296,
                -1.4093269342559793,
                -2.7424191221509395,
                -0.7085984382763455,
                -3.038272646205674
            ]
        },
        {
            "positions": [
                -0.13507448225394358,
                -2.2307769384816423,
                -1.3256818485716708,
                -2.821346465949767,
                -0.529138126180912,
                -3.028319592180425
            ]
        },
        {
            "positions": [
                -0.15173072195613713,
                -2.2481081195045545,
                -1.2420367628873623,
                -2.9002738097485947,
                -0.3496778140854784,
                -3.018366538155176
            ]
        },
        {
            "positions": [
                -0.16838696165833067,
                -2.265439300527467,
                -1.158391677203054,
                -2.9792011535474225,
                -0.17021750199004487,
                -3.008413484129927
            ]
        }
    ]
}