{
    "goal": {
        "global_pose": {
            "orientation": {
                "w": 0.005598929693374612,
                "x": 0.007748599140229565,
                "y": 0.7110244013736278,
                "z": -0.7031023480610252
            },
            "position": {
                "x": -0.8858502320852131,
                "y": -0.7141253447532654,
                "z": 0.3711530566215515
            }
        },
        "name": "move_to_auspresseinheit_C"
    },
    "id": "RRT_move_to_auspresseinheit_C_95",
    "joint_names": [
        "shoulder_pan_joint",
        "shoulder_lift_joint",
        "elbow_joint",
        "wrist_1_joint",
        "wrist_2_joint",
        "wrist_3_joint"
    ],
    "metrics": {
        "cart_traj_len": 0.4926398842479207,
        "distance_elbow_joint": 1.0009388624884252,
        "distance_shoulder_lift_joint": 0.32503238534535706,
        "distance_shoulder_pan_joint": 0.25605296325082394,
        "distance_wrist_1_joint": 0.6866818103330907,
        "distance_wrist_2_joint": 1.3097393667835462,
        "distance_wrist_3_joint": 0.060209397284944455,
        "smoothness": 3.2297397080004555e-16,
        "time": 0.017784928000000002,
        "traj_len": 1.9075258282618843,
        "weighted_distance": 2.399061224140125
    },
    "planner": "RRT",
    "start": {
        "state": {
            "elbow_joint": 1.7527959577737207,
            "shoulder_lift_joint": -0.9740617694225068,
            "shoulder_pan_joint": -2.967991417825858,
            "wrist_1_joint": -0.759517768980727,
            "wrist_2_joint": 1.7443932448377408,
            "wrist_3_joint": -3.0840537646736568
        }
    },
    "waypoints": [
        {
            "positions": [
                -2.967991417825858,
                -0.9740617694225068,
                1.7527959577737207,
                -0.759517768980727,
                1.7443932448377408,
                -3.0840537646736568
            ]
        },
        {
            "positions": [
                -2.9423861215007756,
                -0.941558530887971,
                1.6527020715248781,
                -0.6908495879474179,
                1.6134193081593862,
                -3.0900747044021513
            ]
        },
        {
            "positions": [
                -2.9167808251756933,
                -0.9090552923534354,
                1.5526081852760356,
                -0.6221814069141088,
                1.4824453714810315,
                -3.0960956441306458
            ]
        },
        {
            "positions": [
                -2.891175528850611,
                -0.8765520538188997,
                1.452514299027193,
                -0.5535132258807998,
                1.351471434802677,
                -3.1021165838591402
            ]
        },
        {
            "positions": [
                -2.8655702325255286,
                -0.8440488152843639,
                1.3524204127783506,
                -0.4848450448474907,
                1.2204974981243222,
                -3.1081375235876347
            ]
        },
        {
            "positions": [
                -2.839964936200446,
                -0.8115455767498283,
                1.252326526529508,
                -0.4161768638141816,
                1.0895235614459677,
                -3.1141584633161292
            ]
        },
        {
            "positions": [
                -2.8143596398753634,
                -0.7790423382152926,
                1.1522326402806655,
                -0.34750868278087255,
                0.9585496247676132,
                -3.1201794030446233
            ]
        },
        {
            "positions": [
                -2.788754343550281,
                -0.7465390996807568,
                1.052138754031823,
                -0.27884050174756353,
                0.8275756880892585,
                -3.1262003427731178
            ]
        },
        {
            "positions": [
                -2.7631490472251987,
                -0.7140358611462212,
                0.9520448677829805,
                -0.2101723207142544,
                0.6966017514109037,
                -3.1322212825016122
            ]
        },
        {
            "positions": [
                -2.7375437509001164,
                -0.6815326226116853,
                0.851950981534138,
                -0.14150413968094533,
                0.5656278147325493,
                -3.1382422222301067
            ]
        },
        {
            "positions": [
                -2.711938454575034,
                -0.6490293840771497,
                0.7518570952852953,
                -0.07283595864763626,
                0.43465387805419453,
                -3.1442631619586012
            ]
        }
    ]
}