{
    "goal": {
        "global_pose": {
            "orientation": {
                "w": 0.7031023480610252,
                "x": -0.7110244013736278,
                "y": 0.0077485991402295624,
                "z": 0.005598929693374583
            },
            "position": {
                "x": -0.8841497679147869,
                "y": 0.44412534475326537,
                "z": 0.3711530566215515
            }
        },
        "name": "move_to_auspresseinheit_D"
    },
    "id": "RRT_move_to_auspresseinheit_D_45",
    "joint_names": [
        "shoulder_pan_joint",
        "shoulder_lift_joint",
        "elbow_joint",
        "wrist_1_joint",
        "wrist_2_joint",
        "wrist_3_joint"
    ],
    "metrics": {
        "cart_traj_len": 0.34410213131076905,
        "distance_elbow_joint": 0.6547191061075002,
        "distance_shoulder_lift_joint": 0.13089489123539,
        "distance_shoulder_pan_joint": 0.1344089963195837,
        "distance_wrist_1_joint": 0.5802246645489695,
        "distance_wrist_2_joint": 1.4458640247112664,
        "distance_wrist_3_joint": 0.0338803795185556,
        "smoothness": 1.9737298371844314e-16,
        "time": 0.022071266,
        "traj_len": 1.7262653511095174,
        "weighted_distance": 2.252518925722626
    },
    "planner": "RRT",
    "start": {
        "state": {
            "elbow_joint": -1.8275523626775212,
            "shoulder_lift_joint": -2.126789852344167,
            "shoulder_pan_joint": -0.03513704404078235,
            "wrist_1_joint": -2.347782403156801,
            "wrist_2_joint": -1.6058999987535132,
            "wrist_3_joint": -3.0880379163319196
        }
    },
    "waypoints": [
        {
            "positions": [
                -0.03513704404078235,
                -2.126789852344167,
                -1.8275523626775212,
                -2.347782403156801,
                -1.6058999987535132,
                -3.0880379163319196
            ]
        },
        {
            "positions": [
                -0.05193816858073031,
                -2.1431517137485905,
                -1.7457124744140837,
                -2.420310486225422,
                -1.425166995664605,
                -3.0838028688921
            ]
        },
        {
            "positions": [
                -0.06873929312067828,
                -2.1595135751530146,
                -1.6638725861506463,
                -2.4928385692940433,
                -1.2444339925756966,
                -3.079567821452281
            ]
        },
        {
            "positions": [
                -0.08554041766062623,
                -2.175875436557438,
                -1.5820326978872086,
                -2.5653666523626644,
                -1.0637009894867884,
                -3.075332774012461
            ]
        },
        {
            "positions": [
                -0.1023415422005742,
                -2.192237297961862,
                -1.500192809623771,
                -2.637894735431286,
                -0.88296798639788,
                -3.071097726572642
            ]
        },
        {
            "positions": [
                -0.11914266674052215,
                -2.2085991593662855,
                -1.4183529213603336,
                -2.710422818499907,
                -0.7022349833089717,
                -3.0668626791328224
            ]
        },
        {
            "positions": [
                -0.13594379128047013,
                -2.224961020770709,
                -1.336513033096896,
                -2.782950901568528,
                -0.5215019802200633,
                -3.062627631693003
            ]
        },
        {
            "positions": [
                -0.15274491582041808,
                -2.241322882175133,
                -1.2546731448334585,
                -2.8554789846371493,
                -0.34076897713115506,
                -3.0583925842531836
            ]
        },
        {
            "positions": [
                -0.16954604036036605,
                -2.257684743579557,
                -1.172833256570021,
                -2.9280070677057703,
                -0.16003597404224681,
                -3.054157536813364
            ]
        }
    ]
}