{
    "goal": {
        "global_pose": {
            "orientation": {
                "w": 0.5084816262002911,
                "x": -0.4908360881923452,
                "y": 0.5182115481033761,
                "z": -0.48164630358495003
            },
            "position": {
                "x": 0.5540239810943604,
                "y": -0.46912469901144505,
                "z": 0.16403168439865112
            }
        },
        "name": "move_to_storage_B"
    },
    "id": "RRT_move_to_storage_B_83",
    "joint_names": [
        "shoulder_pan_joint",
        "shoulder_lift_joint",
        "elbow_joint",
        "wrist_1_joint",
        "wrist_2_joint",
        "wrist_3_joint"
    ],
    "metrics": {
        "cart_traj_len": 0.7709998817789621,
        "distance_elbow_joint": 0.3474993346604003,
        "distance_shoulder_lift_joint": 0.4584999020484013,
        "distance_shoulder_pan_joint": 0.5052564900136952,
        "distance_wrist_1_joint": 3.2545703763096316,
        "distance_wrist_2_joint": 2.8359976686499135,
        "distance_wrist_3_joint": 3.2006703293871164,
        "smoothness": 0.44719930929062945,
        "time": 0.071857583,
        "traj_len": 3.2561471252185696,
        "weighted_distance": 4.805663617524944
    },
    "planner": "RRT",
    "start": {
        "state": {
            "elbow_joint": 1.664937868594044,
            "shoulder_lift_joint": -0.661644460510453,
            "shoulder_pan_joint": -0.9139846352900073,
            "wrist_1_joint": 2.146753192139373,
            "wrist_2_joint": -2.2341966793290973,
            "wrist_3_joint": 0.005466555786416001
        }
    },
    "waypoints": [
        {
            "positions": [
                -0.9139846352900073,
                -0.661644460510453,
                1.664937868594044,
                2.146753192139373,
                -2.2341966793290973,
                0.005466555786416001
            ]
        },
        {
            "positions": [
                -0.8331664457090637,
                -0.7400544633201047,
                1.7047281335728492,
                2.2160945968051085,
                -2.2673809648366605,
                0.02072753345320795
            ]
        },
        {
            "positions": [
                -0.7523482561281203,
                -0.8184644661297564,
                1.7445183985516546,
                2.285436001470844,
                -2.3005652503442233,
                0.0359885111199999
            ]
        },
        {
            "positions": [
                -0.7655644142378052,
                -0.8300675390693372,
                1.7548229679633003,
                2.165594171971684,
                -2.194041054281347,
                -0.08594027249744365
            ]
        },
        {
            "positions": [
                -0.7787805723474901,
                -0.8416706120089178,
                1.765127537374946,
                2.045752342472524,
                -2.0875168582184704,
                -0.2078690561148872
            ]
        },
        {
            "positions": [
                -0.7919967304571751,
                -0.8532736849484985,
                1.775432106786592,
                1.925910512973364,
                -1.980992662155594,
                -0.3297978397323308
            ]
        },
        {
            "positions": [
                -0.80521288856686,
                -0.8648767578880792,
                1.7857366761982376,
                1.8060686834742041,
                -1.8744684660927176,
                -0.4517266233497743
            ]
        },
        {
            "positions": [
                -0.8184290466765449,
                -0.8764798308276599,
                1.7960412456098833,
                1.686226853975044,
                -1.7679442700298411,
                -0.5736554069672178
            ]
        },
        {
            "positions": [
                -0.8316452047862298,
                -0.8880829037672405,
                1.806345815021529,
                1.566385024475884,
                -1.6614200739669647,
                -0.6955841905846615
            ]
        },
        {
            "positions": [
                -0.8448613628959148,
                -0.8996859767068213,
                1.816650384433175,
                1.4465431949767242,
                -1.5548958779040882,
                -0.8175129742021049
            ]
        },
        {
            "positions": [
                -0.8580775210055998,
                -0.9112890496464019,
                1.8269549538448207,
                1.3267013654775641,
                -1.4483716818412118,
                -0.9394417578195485
            ]
        },
        {
            "positions": [
                -0.8712936791152847,
                -0.9228921225859826,
                1.8372595232564664,
                1.206859535978404,
                -1.3418474857783353,
                -1.0613705414369918
            ]
        },
        {
            "positions": [
                -0.8845098372249696,
                -0.9344951955255634,
                1.847564092668112,
                1.087017706479244,
                -1.235323289715459,
                -1.1832993250544357
            ]
        },
        {
            "positions": [
                -0.8977259953346546,
                -0.946098268465144,
                1.857868662079758,
                0.967175876980084,
                -1.1287990936525825,
                -1.305228108671879
            ]
        },
        {
            "positions": [
                -0.9109421534443395,
                -0.9577013414047246,
                1.8681732314914037,
                0.8473340474809239,
                -1.022274897589706,
                -1.427156892289323
            ]
        },
        {
            "positions": [
                -0.9241583115540244,
                -0.9693044143443054,
                1.8784778009030494,
                0.727492217981764,
                -0.9157507015268296,
                -1.5490856759067664
            ]
        },
        {
            "positions": [
                -0.9373744696637093,
                -0.9809074872838861,
                1.888782370314695,
                0.6076503884826041,
                -0.8092265054639531,
                -1.6710144595242098
            ]
        },
        {
            "positions": [
                -0.9505906277733942,
                -0.9925105602234667,
                1.8990869397263408,
                0.4878085589834442,
                -0.7027023094010769,
                -1.7929432431416532
            ]
        },
        {
            "positions": [
                -0.9638067858830792,
                -1.0041136331630474,
                1.9093915091379867,
                0.3679667294842839,
                -0.5961781133382003,
                -1.914872026759097
            ]
        },
        {
            "positions": [
                -0.9770229439927641,
                -1.0157167061026282,
                1.9196960785496324,
                0.248124899985124,
                -0.4896539172753238,
                -2.0368008103765405
            ]
        },
        {
            "positions": [
                -0.990239102102449,
                -1.0273197790422088,
                1.9300006479612781,
                0.12828307048596388,
                -0.38312972121244737,
                -2.158729593993984
            ]
        },
        {
            "positions": [
                -1.003455260212134,
                -1.0389228519817895,
                1.9403052173729238,
                0.00844124098680421,
                -0.27660552514957093,
                -2.2806583776114278
            ]
        },
        {
            "positions": [
                -1.0166714183218188,
                -1.05052592492137,
                1.9506097867845698,
                -0.11140058851235635,
                -0.1700813290866945,
                -2.402587161228871
            ]
        },
        {
            "positions": [
                -1.0298875764315039,
                -1.062128997860951,
                1.9609143561962155,
                -0.23124241801151602,
                -0.06355713302381805,
                -2.524515944846315
            ]
        },
        {
            "positions": [
                -1.0431037345411887,
                -1.0737320708005316,
                1.9712189256078612,
                -0.35108424751067613,
                0.042967063039058395,
                -2.6464447284637584
            ]
        },
        {
            "positions": [
                -1.0563198926508737,
                -1.0853351437401122,
                1.9815234950195069,
                -0.4709260770098358,
                0.14949125910193484,
                -2.768373512081202
            ]
        },
        {
            "positions": [
                -1.0695360507605587,
                -1.096938216679693,
                1.9918280644311528,
                -0.5907679065089964,
                0.2560154551648113,
                -2.8903022956986457
            ]
        },
        {
            "positions": [
                -1.0827522088702435,
                -1.1085412896192737,
                2.0021326338427983,
                -0.710609736008156,
                0.3625396512276877,
                -3.012231079316089
            ]
        },
        {
            "positions": [
                -1.0959683669799285,
                -1.1201443625588543,
                2.012437203254444,
                -0.8304515655073161,
                0.46906384729056433,
                -3.1341598629335325
            ]
        }
    ]
}