{
    "goal": {
        "global_pose": {
            "orientation": {
                "w": 0.5084816262002911,
                "x": -0.4908360881923452,
                "y": 0.5182115481033761,
                "z": -0.48164630358495003
            },
            "position": {
                "x": 0.5540239810943604,
                "y": -0.46912469901144505,
                "z": 0.16403168439865112
            }
        },
        "name": "move_to_storage_B"
    },
    "id": "RRT_move_to_storage_B_124",
    "joint_names": [
        "shoulder_pan_joint",
        "shoulder_lift_joint",
        "elbow_joint",
        "wrist_1_joint",
        "wrist_2_joint",
        "wrist_3_joint"
    ],
    "metrics": {
        "cart_traj_len": 3.43616626517794,
        "distance_elbow_joint": 1.5700313928154874,
        "distance_shoulder_lift_joint": 1.7813439832340547,
        "distance_shoulder_pan_joint": 2.8056582872971867,
        "distance_wrist_1_joint": 2.977967123557277,
        "distance_wrist_2_joint": 2.7146722315732443,
        "distance_wrist_3_joint": 3.1343066491520024,
        "smoothness": 0.27677153278120165,
        "time": 0.06819531399999999,
        "traj_len": 3.8709145776714386,
        "weighted_distance": 5.1908797251587115
    },
    "planner": "RRT",
    "start": {
        "state": {
            "elbow_joint": 1.664937868594044,
            "shoulder_lift_joint": -0.661644460510453,
            "shoulder_pan_joint": -0.9139846352900073,
            "wrist_1_joint": 2.146753192139373,
            "wrist_2_joint": -2.2341966793290973,
            "wrist_3_joint": 0.005466555786416001
        }
    },
    "waypoints": [
        {
            "positions": [
                -0.9139846352900073,
                -0.661644460510453,
                1.664937868594044,
                2.146753192139373,
                -2.2341966793290973,
                0.005466555786416001
            ]
        },
        {
            "positions": [
                -0.820237006424835,
                -0.7416489386273345,
                1.6213049384661073,
                2.1126232418827406,
                -2.152993025756204,
                0.045750489328876605
            ]
        },
        {
            "positions": [
                -0.7264893775596626,
                -0.821653416744216,
                1.5776720083381706,
                2.078493291626108,
                -2.0717893721833116,
                0.08603442287133721
            ]
        },
        {
            "positions": [
                -0.6327417486944904,
                -0.9016578948610975,
                1.534039078210234,
                2.044363341369476,
                -1.9905857186104188,
                0.12631835641379782
            ]
        },
        {
            "positions": [
                -0.538994119829318,
                -0.981662372977979,
                1.4904061480822972,
                2.0102333911128434,
                -1.909382065037526,
                0.16660228995625842
            ]
        },
        {
            "positions": [
                -0.44524649096414565,
                -1.0616668510948606,
                1.4467732179543606,
                1.9761034408562108,
                -1.828178411464633,
                0.20688622349871905
            ]
        },
        {
            "positions": [
                -0.3514988620989734,
                -1.141671329211742,
                1.403140287826424,
                1.9419734905995785,
                -1.7469747578917403,
                0.24717015704117964
            ]
        },
        {
            "positions": [
                -0.257751233233801,
                -1.2216758073286234,
                1.3595073576984873,
                1.907843540342946,
                -1.6657711043188472,
                0.2874540905836403
            ]
        },
        {
            "positions": [
                -0.1640036043686287,
                -1.301680285445505,
                1.3158744275705507,
                1.8737135900863136,
                -1.5845674507459546,
                0.32773802412610087
            ]
        },
        {
            "positions": [
                -0.0702559755034563,
                -1.3816847635623866,
                1.272241497442614,
                1.839583639829681,
                -1.5033637971730616,
                0.36802195766856155
            ]
        },
        {
            "positions": [
                0.02349165336171599,
                -1.461689241679268,
                1.2286085673146774,
                1.8054536895730484,
                -1.4221601436001687,
                0.4083058912110221
            ]
        },
        {
            "positions": [
                0.11723928222688829,
                -1.5416937197961493,
                1.1849756371867406,
                1.771323739316416,
                -1.340956490027276,
                0.44858982475348275
            ]
        },
        {
            "positions": [
                0.21098691109206047,
                -1.621698197913031,
                1.141342707058804,
                1.7371937890597835,
                -1.2597528364543833,
                0.4888737582959433
            ]
        },
        {
            "positions": [
                0.3047345399572331,
                -1.7017026760299125,
                1.0977097769308672,
                1.7030638388031512,
                -1.1785491828814902,
                0.5291576918384039
            ]
        },
        {
            "positions": [
                0.3984821688224052,
                -1.781707154146794,
                1.0540768468029307,
                1.6689338885465186,
                -1.0973455293085974,
                0.5694416253808645
            ]
        },
        {
            "positions": [
                0.3387545094950143,
                -1.7552559025628853,
                1.0924436616439057,
                1.5689279757479417,
                -1.0342326860464877,
                0.6722548885631667
            ]
        },
        {
            "positions": [
                0.27902685016762335,
                -1.7288046509789767,
                1.1308104764848805,
                1.4689220629493647,
                -0.9711198427843778,
                0.7750681517454688
            ]
        },
        {
            "positions": [
                0.21929919084023242,
                -1.7023533993950684,
                1.1691772913258556,
                1.3689161501507878,
                -0.908006999522268,
                0.8778814149277709
            ]
        },
        {
            "positions": [
                0.15957153151284148,
                -1.6759021478111598,
                1.2075441061668306,
                1.268910237352211,
                -0.8448941562601582,
                0.9806946781100732
            ]
        },
        {
            "positions": [
                0.09984387218545054,
                -1.6494508962272512,
                1.2459109210078054,
                1.1689043245536341,
                -0.7817813129980484,
                1.0835079412923754
            ]
        },
        {
            "positions": [
                0.04011621285805961,
                -1.6229996446433426,
                1.2842777358487805,
                1.068898411755057,
                -0.7186684697359387,
                1.1863212044746776
            ]
        },
        {
            "positions": [
                -0.019611446469331384,
                -1.596548393059434,
                1.3226445506897555,
                0.9688924989564801,
                -0.6555556264738288,
                1.2891344676569798
            ]
        },
        {
            "positions": [
                -0.07933910579672226,
                -1.5700971414755256,
                1.3610113655307305,
                0.8688865861579033,
                -0.5924427832117191,
                1.391947730839282
            ]
        },
        {
            "positions": [
                -0.13906676512411326,
                -1.543645889891617,
                1.3993781803717054,
                0.7688806733593264,
                -0.5293299399496093,
                1.494760994021584
            ]
        },
        {
            "positions": [
                -0.19879442445150414,
                -1.5171946383077084,
                1.4377449952126804,
                0.6688747605607495,
                -0.46621709668749944,
                1.5975742572038862
            ]
        },
        {
            "positions": [
                -0.25852208377889513,
                -1.4907433867237998,
                1.4761118100536552,
                0.5688688477621726,
                -0.4031042534253897,
                1.7003875203861885
            ]
        },
        {
            "positions": [
                -0.318249743106286,
                -1.4642921351398912,
                1.5144786248946303,
                0.46886293496359577,
                -0.33999141016327983,
                1.8032007835684905
            ]
        },
        {
            "positions": [
                -0.377977402433677,
                -1.4378408835559826,
                1.5528454397356053,
                0.3688570221650187,
                -0.2768785669011701,
                1.906014046750793
            ]
        },
        {
            "positions": [
                -0.437705061761068,
                -1.4113896319720742,
                1.5912122545765803,
                0.26885110936644163,
                -0.2137657236390602,
                2.0088273099330953
            ]
        },
        {
            "positions": [
                -0.4974327210884589,
                -1.3849383803881656,
                1.6295790694175551,
                0.168845196567865,
                -0.15065288037695046,
                2.1116405731153973
            ]
        },
        {
            "positions": [
                -0.5571603804158498,
                -1.358487128804257,
                1.6679458842585302,
                0.06883928376928794,
                -0.08754003711484071,
                2.2144538362976993
            ]
        },
        {
            "positions": [
                -0.6168880397432408,
                -1.3320358772203484,
                1.7063126990995052,
                -0.031166629029288906,
                -0.024427193852730733,
                2.3172670994800013
            ]
        },
        {
            "positions": [
                -0.6766156990706318,
                -1.30558462563644,
                1.74467951394048,
                -0.13117254182786575,
                0.0386856494093788,
                2.4200803626623033
            ]
        },
        {
            "positions": [
                -0.7363433583980226,
                -1.2791333740525315,
                1.783046328781455,
                -0.2311784546264426,
                0.10179849267148877,
                2.5228936258446057
            ]
        },
        {
            "positions": [
                -0.7960710177254136,
                -1.2526821224686229,
                1.8214131436224301,
                -0.33118436742501967,
                0.16491133593359852,
                2.625706889026908
            ]
        },
        {
            "positions": [
                -0.8557986770528045,
                -1.2262308708847143,
                1.859779958463405,
                -0.4311902802235963,
                0.22802417919570828,
                2.72852015220921
            ]
        },
        {
            "positions": [
                -0.9155263363801955,
                -1.1997796193008057,
                1.89814677330438,
                -0.5311961930221734,
                0.29113702245781803,
                2.831333415391512
            ]
        },
        {
            "positions": [
                -0.9752539957075865,
                -1.173328367716897,
                1.936513588145355,
                -0.6312021058207504,
                0.354249865719928,
                2.934146678573814
            ]
        },
        {
            "positions": [
                -1.0349816550349773,
                -1.1468771161329887,
                1.9748804029863298,
                -0.731208018619327,
                0.41736270898203776,
                3.036959941756116
            ]
        },
        {
            "positions": [
                -1.0947093143623683,
                -1.12042586454908,
                2.013247217827305,
                -0.8312139314179039,
                0.4804755522441475,
                3.1397732049384186
            ]
        }
    ]
}