{
    "goal": {
        "global_pose": {
            "orientation": {
                "w": 0.005598929693374612,
                "x": 0.007748599140229565,
                "y": 0.7110244013736278,
                "z": -0.7031023480610252
            },
            "position": {
                "x": 0.1141497679147869,
                "y": -0.7141253447532654,
                "z": 0.3711530566215515
            }
        },
        "name": "move_to_auspresseinheit_B"
    },
    "id": "RRT_move_to_auspresseinheit_B_32",
    "joint_names": [
        "shoulder_pan_joint",
        "shoulder_lift_joint",
        "elbow_joint",
        "wrist_1_joint",
        "wrist_2_joint",
        "wrist_3_joint"
    ],
    "metrics": {
        "cart_traj_len": 0.5640334353142299,
        "distance_elbow_joint": 0.06007100331185411,
        "distance_shoulder_lift_joint": 0.2960642405224192,
        "distance_shoulder_pan_joint": 0.5748561321615608,
        "distance_wrist_1_joint": 0.3203606527661286,
        "distance_wrist_2_joint": 1.0030915676394399,
        "distance_wrist_3_joint": 0.007973975565326086,
        "smoothness": 0.0,
        "time": 0.014027234000000001,
        "traj_len": 1.504133495394185,
        "weighted_distance": 1.8978455531214729
    },
    "planner": "RRT",
    "start": {
        "state": {
            "elbow_joint": 2.0193083361928714,
            "shoulder_lift_joint": -1.1220246554650708,
            "shoulder_pan_joint": -1.0952077554168747,
            "wrist_1_joint": -0.8559753972642168,
            "wrist_2_joint": 0.4759566250798843,
            "wrist_3_joint": -3.1240929996934557
        }
    },
    "waypoints": [
        {
            "positions": [
                -1.0952077554168747,
                -1.1220246554650708,
                2.0193083361928714,
                -0.8559753972642168,
                0.4759566250798843,
                -3.1240929996934557
            ]
        },
        {
            "positions": [
                -1.1910171107771348,
                -1.1713686955521407,
                2.0092965023075626,
                -0.8025819551365287,
                0.643138553019791,
                -3.1227640037659015
            ]
        },
        {
            "positions": [
                -1.286826466137395,
                -1.2207127356392105,
                1.9992846684222534,
                -0.7491885130088406,
                0.8103204809596976,
                -3.121435007838347
            ]
        },
        {
            "positions": [
                -1.382635821497655,
                -1.2700567757262804,
                1.9892728345369444,
                -0.6957950708811524,
                0.9775024088996043,
                -3.1201060119107926
            ]
        },
        {
            "positions": [
                -1.4784451768579152,
                -1.3194008158133503,
                1.9792610006516353,
                -0.6424016287534644,
                1.1446843368395108,
                -3.1187770159832384
            ]
        },
        {
            "positions": [
                -1.5742545322181754,
                -1.36874485590042,
                1.9692491667663263,
                -0.5890081866257764,
                1.3118662647794175,
                -3.1174480200556838
            ]
        },
        {
            "positions": [
                -1.6700638875784355,
                -1.41808889598749,
                1.9592373328810173,
                -0.5356147444980882,
                1.4790481927193242,
                -3.1161190241281296
            ]
        }
    ]
}