{
    "goal": {
        "global_pose": {
            "orientation": {
                "w": 0.7047431468963623,
                "x": -0.7094548344612122,
                "y": 0.0024358443915843964,
                "z": -0.0022348060738295317
            },
            "position": {
                "x": 0.6094750761985779,
                "y": 0.3671506643295288,
                "z": 0.19426114857196808
            }
        },
        "name": "move_to_magneteinheit_A"
    },
    "id": "RRT_move_to_magneteinheit_A_72",
    "joint_names": [
        "shoulder_pan_joint",
        "shoulder_lift_joint",
        "elbow_joint",
        "wrist_1_joint",
        "wrist_2_joint",
        "wrist_3_joint"
    ],
    "metrics": {
        "cart_traj_len": 3.644926303453227,
        "distance_elbow_joint": 3.898378822048242,
        "distance_shoulder_lift_joint": 0.10741909834903085,
        "distance_shoulder_pan_joint": 3.0113239824451825,
        "distance_wrist_1_joint": 0.7336200954609394,
        "distance_wrist_2_joint": 1.6971958923345911,
        "distance_wrist_3_joint": 3.6078600802200853,
        "smoothness": 0.08269394685220657,
        "time": 0.064377494,
        "traj_len": 3.613280776643032,
        "weighted_distance": 4.764696645023036
    },
    "planner": "RRT",
    "start": {
        "state": {
            "elbow_joint": -1.9196185241190666,
            "shoulder_lift_joint": -1.2443396400964142,
            "shoulder_pan_joint": 2.6996025414629847,
            "wrist_1_joint": -1.5485510000780065,
            "wrist_2_joint": -1.5709468930060704,
            "wrist_3_joint": 0.4420197071253992
        }
    },
    "waypoints": [
        {
            "positions": [
                2.6996025414629847,
                -1.2443396400964142,
                -1.9196185241190666,
                -1.5485510000780065,
                -1.5709468930060704,
                0.4420197071253992
            ]
        },
        {
            "positions": [
                2.5998100121870555,
                -1.2444283783047065,
                -1.800708551331871,
                -1.540597624191002,
                -1.5143915271162485,
                0.336412666363167
            ]
        },
        {
            "positions": [
                2.500017482911127,
                -1.244517116512999,
                -1.6817985785446754,
                -1.5326442483039973,
                -1.4578361612264266,
                0.23080562560093493
            ]
        },
        {
            "positions": [
                2.4002249536351976,
                -1.2446058547212913,
                -1.5628886057574796,
                -1.5246908724169927,
                -1.4012807953366044,
                0.12519858483870278
            ]
        },
        {
            "positions": [
                2.3004324243592684,
                -1.2446945929295836,
                -1.443978632970284,
                -1.516737496529988,
                -1.3447254294467825,
                0.01959154407647068
            ]
        },
        {
            "positions": [
                2.2006398950833397,
                -1.244783331137876,
                -1.325068660183088,
                -1.5087841206429835,
                -1.2881700635569606,
                -0.08601549668576147
            ]
        },
        {
            "positions": [
                2.1008473658074105,
                -1.2448720693461683,
                -1.2061586873958925,
                -1.5008307447559788,
                -1.2316146976671387,
                -0.19162253744799362
            ]
        },
        {
            "positions": [
                2.0010548365314813,
                -1.244960807554461,
                -1.0872487146086969,
                -1.4928773688689743,
                -1.1750593317773168,
                -0.2972295782102258
            ]
        },
        {
            "positions": [
                1.9012623072555526,
                -1.2450495457627533,
                -0.9683387418215013,
                -1.4849239929819695,
                -1.118503965887495,
                -0.4028366189724578
            ]
        },
        {
            "positions": [
                1.8014697779796234,
                -1.2451382839710456,
                -0.8494287690343054,
                -1.476970617094965,
                -1.0619485999976728,
                -0.5084436597346901
            ]
        },
        {
            "positions": [
                1.7016772487036942,
                -1.245227022179338,
                -0.7305187962471098,
                -1.4690172412079603,
                -1.0053932341078509,
                -0.6140507004969221
            ]
        },
        {
            "positions": [
                1.6018847194277652,
                -1.2453157603876304,
                -0.6116088234599142,
                -1.4610638653209558,
                -0.9488378682180288,
                -0.7196577412591544
            ]
        },
        {
            "positions": [
                1.5020921901518363,
                -1.2454044985959227,
                -0.49269885067271857,
                -1.453110489433951,
                -0.8922825023282069,
                -0.8252647820213864
            ]
        },
        {
            "positions": [
                1.402299660875907,
                -1.245493236804215,
                -0.37378887788552273,
                -1.4451571135469465,
                -0.8357271364383849,
                -0.9308718227836187
            ]
        },
        {
            "positions": [
                1.302507131599978,
                -1.2455819750125074,
                -0.2548789050983271,
                -1.4372037376599418,
                -0.779171770548563,
                -1.0364788635458506
            ]
        },
        {
            "positions": [
                1.2027146023240491,
                -1.2456707132207998,
                -0.1359689323111315,
                -1.4292503617729373,
                -0.7226164046587411,
                -1.1420859043080829
            ]
        },
        {
            "positions": [
                1.1029220730481202,
                -1.2457594514290922,
                -0.01705895952393588,
                -1.4212969858859328,
                -0.6660610387689192,
                -1.2476929450703147
            ]
        },
        {
            "positions": [
                1.0031295437721912,
                -1.2458481896373845,
                0.10185101326325974,
                -1.413343609998928,
                -0.6095056728790972,
                -1.353299985832547
            ]
        },
        {
            "positions": [
                0.9033370144962618,
                -1.245936927845677,
                0.2207609860504558,
                -1.4053902341119235,
                -0.5529503069892752,
                -1.4589070265947792
            ]
        },
        {
            "positions": [
                0.8035444852203328,
                -1.2460256660539692,
                0.3396709588376514,
                -1.3974368582249188,
                -0.49639494109945326,
                -1.5645140673570115
            ]
        },
        {
            "positions": [
                0.7037519559444039,
                -1.2461144042622616,
                0.45858093162484703,
                -1.3894834823379143,
                -0.43983957520963135,
                -1.6701211081192433
            ]
        },
        {
            "positions": [
                0.6039594266684749,
                -1.246203142470554,
                0.5774909044120426,
                -1.3815301064509096,
                -0.38328420931980944,
                -1.7757281488814756
            ]
        },
        {
            "positions": [
                0.5041668973925457,
                -1.2462918806788466,
                0.6964008771992383,
                -1.373576730563905,
                -0.3267288434299873,
                -1.8813351896437078
            ]
        },
        {
            "positions": [
                0.404374368116617,
                -1.246380618887139,
                0.8153108499864339,
                -1.3656233546769003,
                -0.2701734775401654,
                -1.9869422304059396
            ]
        },
        {
            "positions": [
                0.3045818388406878,
                -1.2464693570954313,
                0.9342208227736295,
                -1.3576699787898958,
                -0.2136181116503435,
                -2.092549271168172
            ]
        },
        {
            "positions": [
                0.2047893095647586,
                -1.2465580953037236,
                1.0531307955608256,
                -1.349716602902891,
                -0.15706274576052137,
                -2.198156311930404
            ]
        },
        {
            "positions": [
                0.10499678028882942,
                -1.246646833512016,
                1.1720407683480212,
                -1.3417632270158866,
                -0.10050737987069946,
                -2.3037633526926364
            ]
        },
        {
            "positions": [
                0.005204251012900674,
                -1.2467355717203084,
                1.2909507411352168,
                -1.333809851128882,
                -0.04395201398087756,
                -2.4093703934548683
            ]
        },
        {
            "positions": [
                -0.09458827826302861,
                -1.2468243099286007,
                1.4098607139224124,
                -1.3258564752418773,
                0.012603351908944384,
                -2.5149774342171005
            ]
        },
        {
            "positions": [
                -0.061885340604387246,
                -1.2309277796573574,
                1.4976784069647873,
                -1.2477771820093353,
                0.03036959380477275,
                -2.614550755500978
            ]
        },
        {
            "positions": [
                -0.02918240294574588,
                -1.215031249386114,
                1.5854961000071621,
                -1.1696978887767933,
                0.048135835700601114,
                -2.714124076784856
            ]
        },
        {
            "positions": [
                0.0035205347128954984,
                -1.1991347191148707,
                1.673313793049537,
                -1.0916185955442512,
                0.06590207759642949,
                -2.813697398068733
            ]
        },
        {
            "positions": [
                0.03622347237153685,
                -1.1832381888436274,
                1.7611314860919118,
                -1.0135393023117092,
                0.08366831949225784,
                -2.9132707193526106
            ]
        },
        {
            "positions": [
                0.06892641003017826,
                -1.167341658572384,
                1.848949179134287,
                -0.9354600090791669,
                0.10143456138808624,
                -3.0128440406364883
            ]
        },
        {
            "positions": [
                0.1016293476888196,
                -1.1514451283011407,
                1.9367668721766618,
                -0.8573807158466249,
                0.1192008032839146,
                -3.112417361920366
            ]
        },
        {
            "positions": [
                0.12254488445614044,
                -1.1418898814117564,
                1.9787602979291756,
                -0.8149309046170671,
                0.1262489993285204,
                -3.165840373094686
            ]
        }
    ]
}