{
    "goal": {
        "global_pose": {
            "orientation": {
                "w": 0.7031023480610252,
                "x": -0.7110244013736278,
                "y": 0.0077485991402295624,
                "z": 0.005598929693374583
            },
            "position": {
                "x": -0.8841497679147869,
                "y": 0.44412534475326537,
                "z": 0.3711530566215515
            }
        },
        "name": "move_to_auspresseinheit_D"
    },
    "id": "RRT_move_to_auspresseinheit_D_14",
    "joint_names": [
        "shoulder_pan_joint",
        "shoulder_lift_joint",
        "elbow_joint",
        "wrist_1_joint",
        "wrist_2_joint",
        "wrist_3_joint"
    ],
    "metrics": {
        "cart_traj_len": 0.3433388323677127,
        "distance_elbow_joint": 0.6391331677477807,
        "distance_shoulder_lift_joint": 0.12261410588200139,
        "distance_shoulder_pan_joint": 0.13435967828573325,
        "distance_wrist_1_joint": 0.5212883952432334,
        "distance_wrist_2_joint": 1.4464287949526144,
        "distance_wrist_3_joint": 0.016343463738758057,
        "smoothness": 3.947459674368863e-16,
        "time": 0.014975402,
        "traj_len": 1.6971056554764412,
        "weighted_distance": 2.209201603186881
    },
    "planner": "RRT",
    "start": {
        "state": {
            "elbow_joint": -1.8275523626775212,
            "shoulder_lift_joint": -2.126789852344167,
            "shoulder_pan_joint": -0.03513704404078235,
            "wrist_1_joint": -2.347782403156801,
            "wrist_2_joint": -1.6058999987535132,
            "wrist_3_joint": -3.0880379163319196
        }
    },
    "waypoints": [
        {
            "positions": [
                -0.03513704404078235,
                -2.126789852344167,
                -1.8275523626775212,
                -2.347782403156801,
                -1.6058999987535132,
                -3.0880379163319196
            ]
        },
        {
            "positions": [
                -0.051932003826499006,
                -2.142116615579417,
                -1.7476607167090485,
                -2.412943452562205,
                -1.4250963993844363,
                -3.090080849299264
            ]
        },
        {
            "positions": [
                -0.06872696361221567,
                -2.1574433788146674,
                -1.667769070740576,
                -2.4781045019676093,
                -1.2442928000153595,
                -3.0921237822666092
            ]
        },
        {
            "positions": [
                -0.08552192339793233,
                -2.1727701420499175,
                -1.5878774247721035,
                -2.5432655513730134,
                -1.0634892006462828,
                -3.094166715233954
            ]
        },
        {
            "positions": [
                -0.10231688318364898,
                -2.1880969052851675,
                -1.5079857788036308,
                -2.608426600778418,
                -0.882685601277206,
                -3.096209648201299
            ]
        },
        {
            "positions": [
                -0.11911184296936564,
                -2.2034236685204176,
                -1.4280941328351582,
                -2.673587650183822,
                -0.7018820019081291,
                -3.0982525811686434
            ]
        },
        {
            "positions": [
                -0.1359068027550823,
                -2.2187504317556677,
                -1.3482024868666858,
                -2.738748699589226,
                -0.5210784025390525,
                -3.100295514135988
            ]
        },
        {
            "positions": [
                -0.15270176254079895,
                -2.234077194990918,
                -1.268310840898213,
                -2.8039097489946303,
                -0.3402748031699756,
                -3.102338447103333
            ]
        },
        {
            "positions": [
                -0.1694967223265156,
                -2.2494039582261682,
                -1.1884191949297405,
                -2.8690707984000343,
                -0.15947120380089863,
                -3.1043813800706777
            ]
        }
    ]
}