{
    "goal": {
        "global_pose": {
            "orientation": {
                "w": 0.005598929693374612,
                "x": 0.007748599140229565,
                "y": 0.7110244013736278,
                "z": -0.7031023480610252
            },
            "position": {
                "x": 0.1141497679147869,
                "y": -0.7141253447532654,
                "z": 0.3711530566215515
            }
        },
        "name": "move_to_auspresseinheit_B"
    },
    "id": "RRT_move_to_auspresseinheit_B_82",
    "joint_names": [
        "shoulder_pan_joint",
        "shoulder_lift_joint",
        "elbow_joint",
        "wrist_1_joint",
        "wrist_2_joint",
        "wrist_3_joint"
    ],
    "metrics": {
        "cart_traj_len": 0.5652593786833829,
        "distance_elbow_joint": 0.06650035745284555,
        "distance_shoulder_lift_joint": 0.29494249065151923,
        "distance_shoulder_pan_joint": 0.5762968401572348,
        "distance_wrist_1_joint": 0.3413481162042007,
        "distance_wrist_2_joint": 1.0004137460424483,
        "distance_wrist_3_joint": 0.008429502299521108,
        "smoothness": 6.344131586469082e-16,
        "time": 0.012755954,
        "traj_len": 1.5125908411754216,
        "weighted_distance": 1.9095947003627396
    },
    "planner": "RRT",
    "start": {
        "state": {
            "elbow_joint": 2.0193083361928714,
            "shoulder_lift_joint": -1.1220246554650708,
            "shoulder_pan_joint": -1.0952077554168747,
            "wrist_1_joint": -0.8559753972642168,
            "wrist_2_joint": 0.4759566250798843,
            "wrist_3_joint": -3.1240929996934557
        }
    },
    "waypoints": [
        {
            "positions": [
                -1.0952077554168747,
                -1.1220246554650708,
                2.0193083361928714,
                -0.8559753972642168,
                0.4759566250798843,
                -3.1240929996934557
            ]
        },
        {
            "positions": [
                -1.1912572287764138,
                -1.171181737240324,
                2.008224943284064,
                -0.7990840445635167,
                0.6426922494202923,
                -3.1226880826435357
            ]
        },
        {
            "positions": [
                -1.287306702135953,
                -1.2203388190155773,
                1.9971415503752563,
                -0.7421926918628166,
                0.8094278737607004,
                -3.1212831655936153
            ]
        },
        {
            "positions": [
                -1.383356175495492,
                -1.2694959007908304,
                1.9860581574664486,
                -0.6853013391621164,
                0.9761634981011085,
                -3.119878248543695
            ]
        },
        {
            "positions": [
                -1.4794056488550311,
                -1.3186529825660835,
                1.974974764557641,
                -0.6284099864614163,
                1.1428991224415164,
                -3.118473331493775
            ]
        },
        {
            "positions": [
                -1.5754551222145703,
                -1.367810064341337,
                1.9638913716488335,
                -0.5715186337607162,
                1.3096347467819245,
                -3.117068414443855
            ]
        },
        {
            "positions": [
                -1.6715045955741095,
                -1.41696714611659,
                1.9528079787400259,
                -0.5146272810600161,
                1.4763703711223326,
                -3.1156634973939346
            ]
        }
    ]
}