{
    "goal": {
        "global_pose": {
            "orientation": {
                "w": 0.005598929693374612,
                "x": 0.007748599140229565,
                "y": 0.7110244013736278,
                "z": -0.7031023480610252
            },
            "position": {
                "x": 0.1141497679147869,
                "y": -0.7141253447532654,
                "z": 0.3711530566215515
            }
        },
        "name": "move_to_auspresseinheit_B"
    },
    "id": "RRT_move_to_auspresseinheit_B_75",
    "joint_names": [
        "shoulder_pan_joint",
        "shoulder_lift_joint",
        "elbow_joint",
        "wrist_1_joint",
        "wrist_2_joint",
        "wrist_3_joint"
    ],
    "metrics": {
        "cart_traj_len": 0.5639353634370903,
        "distance_elbow_joint": 0.06372190889760976,
        "distance_shoulder_lift_joint": 0.2937414679639727,
        "distance_shoulder_pan_joint": 0.575934089601287,
        "distance_wrist_1_joint": 0.32959266976837476,
        "distance_wrist_2_joint": 0.9934336914268822,
        "distance_wrist_3_joint": 0.002010971753727997,
        "smoothness": 5.075305255429287e-16,
        "time": 0.012535076000000001,
        "traj_len": 1.5028089697003588,
        "weighted_distance": 1.8935371937499847
    },
    "planner": "RRT",
    "start": {
        "state": {
            "elbow_joint": 2.0193083361928714,
            "shoulder_lift_joint": -1.1220246554650708,
            "shoulder_pan_joint": -1.0952077554168747,
            "wrist_1_joint": -0.8559753972642168,
            "wrist_2_joint": 0.4759566250798843,
            "wrist_3_joint": -3.1240929996934557
        }
    },
    "waypoints": [
        {
            "positions": [
                -1.0952077554168747,
                -1.1220246554650708,
                2.0193083361928714,
                -0.8559753972642168,
                0.4759566250798843,
                -3.1240929996934557
            ]
        },
        {
            "positions": [
                -1.1911967703504225,
                -1.1709815667923995,
                2.00868801804327,
                -0.8010432856361543,
                0.6415289069843646,
                -3.1244281616524106
            ]
        },
        {
            "positions": [
                -1.2871857852839703,
                -1.2199384781197284,
                1.9980676998936682,
                -0.7461111740080919,
                0.8071011888888451,
                -3.124763323611365
            ]
        },
        {
            "positions": [
                -1.3831748002175182,
                -1.2688953894470572,
                1.9874473817440665,
                -0.6911790623800294,
                0.9726734707933253,
                -3.1250984855703194
            ]
        },
        {
            "positions": [
                -1.479163815151066,
                -1.3178523007743859,
                1.976827063594465,
                -0.636246950751967,
                1.1382457526978058,
                -3.1254336475292743
            ]
        },
        {
            "positions": [
                -1.5751528300846138,
                -1.3668092121017148,
                1.9662067454448633,
                -0.5813148391239045,
                1.303818034602286,
                -3.125768809488229
            ]
        },
        {
            "positions": [
                -1.6711418450181617,
                -1.4157661234290435,
                1.9555864272952617,
                -0.526382727495842,
                1.4693903165067665,
                -3.1261039714471837
            ]
        }
    ]
}