{
    "goal": {
        "global_pose": {
            "orientation": {
                "w": -0.4816463035849501,
                "x": 0.5182115481033762,
                "y": 0.4908360881923453,
                "z": -0.5084816262002911
            },
            "position": {
                "x": -0.8240239810943604,
                "y": -0.300875300988555,
                "z": 0.16403168439865112
            }
        },
        "name": "move_to_storage_C"
    },
    "id": "RRT_move_to_storage_C_49",
    "joint_names": [
        "shoulder_pan_joint",
        "shoulder_lift_joint",
        "elbow_joint",
        "wrist_1_joint",
        "wrist_2_joint",
        "wrist_3_joint"
    ],
    "metrics": {
        "cart_traj_len": 0.5760262319792437,
        "distance_elbow_joint": 0.2574184449513819,
        "distance_shoulder_lift_joint": 0.18903186901186297,
        "distance_shoulder_pan_joint": 0.49359009001124976,
        "distance_wrist_1_joint": 0.07951807780254194,
        "distance_wrist_2_joint": 1.074287561834975,
        "distance_wrist_3_joint": 0.056339545154270976,
        "smoothness": 0.0,
        "time": 0.020438342999999998,
        "traj_len": 1.4663511137399128,
        "weighted_distance": 1.848423738949579
    },
    "planner": "RRT",
    "start": {
        "state": {
            "elbow_joint": 2.010868314990456,
            "shoulder_lift_joint": -1.1634956873337592,
            "shoulder_pan_joint": -2.4736205022346125,
            "wrist_1_joint": -0.8367026794202681,
            "wrist_2_joint": 0.6746043897044499,
            "wrist_3_joint": -3.1496632123970403
        }
    },
    "waypoints": [
        {
            "positions": [
                -2.4736205022346125,
                -1.1634956873337592,
                2.010868314990456,
                -0.8367026794202681,
                0.6746043897044499,
                -3.1496632123970403
            ]
        },
        {
            "positions": [
                -2.5558855172364874,
                -1.131990375831782,
                1.9679652408318922,
                -0.8234496664531777,
                0.8536523166769457,
                -3.1402732882046616
            ]
        },
        {
            "positions": [
                -2.6381505322383623,
                -1.100485064329805,
                1.9250621666733285,
                -0.8101966534860875,
                1.0327002436494417,
                -3.1308833640122833
            ]
        },
        {
            "positions": [
                -2.720415547240237,
                -1.0689797528278278,
                1.8821590925147649,
                -0.7969436405189971,
                1.2117481706219375,
                -3.121493439819905
            ]
        },
        {
            "positions": [
                -2.8026805622421125,
                -1.0374744413258505,
                1.8392560183562012,
                -0.7836906275519068,
                1.3907960975944333,
                -3.1121035156275263
            ]
        },
        {
            "positions": [
                -2.8849455772439874,
                -1.0059691298238733,
                1.7963529441976376,
                -0.7704376145848165,
                1.5698440245669292,
                -3.1027135914351476
            ]
        },
        {
            "positions": [
                -2.9672105922458623,
                -0.9744638183218962,
                1.753449870039074,
                -0.7571846016177262,
                1.748891951539425,
                -3.0933236672427693
            ]
        }
    ]
}