{
    "goal": {
        "global_pose": {
            "orientation": {
                "w": 0.005598929693374612,
                "x": 0.007748599140229565,
                "y": 0.7110244013736278,
                "z": -0.7031023480610252
            },
            "position": {
                "x": 0.1141497679147869,
                "y": -0.7141253447532654,
                "z": 0.3711530566215515
            }
        },
        "name": "move_to_auspresseinheit_B"
    },
    "id": "RRT_move_to_auspresseinheit_B_146",
    "joint_names": [
        "shoulder_pan_joint",
        "shoulder_lift_joint",
        "elbow_joint",
        "wrist_1_joint",
        "wrist_2_joint",
        "wrist_3_joint"
    ],
    "metrics": {
        "cart_traj_len": 0.5648754326729865,
        "distance_elbow_joint": 0.06464906554011396,
        "distance_shoulder_lift_joint": 0.2947424218909729,
        "distance_shoulder_pan_joint": 0.5778921589960229,
        "distance_wrist_1_joint": 0.33739869405657996,
        "distance_wrist_2_joint": 0.9920180708407558,
        "distance_wrist_3_joint": 0.004802752527228282,
        "smoothness": 5.075305295617109e-16,
        "time": 0.011698227,
        "traj_len": 1.507150677222312,
        "weighted_distance": 1.9001382670225517
    },
    "planner": "RRT",
    "start": {
        "state": {
            "elbow_joint": 2.0193083361928714,
            "shoulder_lift_joint": -1.1220246554650708,
            "shoulder_pan_joint": -1.0952077554168747,
            "wrist_1_joint": -0.8559753972642168,
            "wrist_2_joint": 0.4759566250798843,
            "wrist_3_joint": -3.1240929996934557
        }
    },
    "waypoints": [
        {
            "positions": [
                -1.0952077554168747,
                -1.1220246554650708,
                2.0193083361928714,
                -0.8559753972642168,
                0.4759566250798843,
                -3.1240929996934557
            ]
        },
        {
            "positions": [
                -1.1915231152495451,
                -1.1711483924468995,
                2.008533491936186,
                -0.7997422815881201,
                0.6412929702200103,
                -3.123292540938918
            ]
        },
        {
            "positions": [
                -1.2878384750822156,
                -1.2202721294287284,
                1.9977586476795002,
                -0.7435091659120234,
                0.8066293153601363,
                -3.1224920821843796
            ]
        },
        {
            "positions": [
                -1.384153834914886,
                -1.2693958664105573,
                1.9869838034228144,
                -0.6872760502359267,
                0.9719656605002622,
                -3.1216916234298413
            ]
        },
        {
            "positions": [
                -1.4804691947475566,
                -1.318519603392386,
                1.9762089591661287,
                -0.6310429345598302,
                1.1373020056403882,
                -3.1208911646753035
            ]
        },
        {
            "positions": [
                -1.576784554580227,
                -1.3676433403742148,
                1.9654341149094432,
                -0.5748098188837334,
                1.3026383507805142,
                -3.1200907059207657
            ]
        },
        {
            "positions": [
                -1.6730999144128975,
                -1.4167670773560437,
                1.9546592706527575,
                -0.5185767032076368,
                1.4679746959206401,
                -3.1192902471662274
            ]
        }
    ]
}