{
    "goal": {
        "global_pose": {
            "orientation": {
                "w": -0.00223480608172531,
                "x": 0.0024358444001904467,
                "y": 0.7094548369677653,
                "z": -0.704743149386269
            },
            "position": {
                "x": -0.37947507619857795,
                "y": -0.6371506643295288,
                "z": 0.19426114857196808
            }
        },
        "name": "move_to_magneteinheit_C"
    },
    "id": "RRT_move_to_magneteinheit_C_119",
    "joint_names": [
        "shoulder_pan_joint",
        "shoulder_lift_joint",
        "elbow_joint",
        "wrist_1_joint",
        "wrist_2_joint",
        "wrist_3_joint"
    ],
    "metrics": {
        "cart_traj_len": 1.9649720802751638,
        "distance_elbow_joint": 1.5203574836545606,
        "distance_shoulder_lift_joint": 0.6467078745952033,
        "distance_shoulder_pan_joint": 1.305462746096912,
        "distance_wrist_1_joint": 0.3906480013159307,
        "distance_wrist_2_joint": 1.0734702616144398,
        "distance_wrist_3_joint": 2.0582142670775045,
        "smoothness": 1.216637046820322,
        "time": 3.115920291,
        "traj_len": 2.6447798839136976,
        "weighted_distance": 3.546182092256393
    },
    "planner": "RRT",
    "start": {
        "state": {
            "elbow_joint": 1.9565354010623817,
            "shoulder_lift_joint": -1.4165861575791021,
            "shoulder_pan_joint": -1.6717766225146293,
            "wrist_1_joint": -0.5286633292919765,
            "wrist_2_joint": 1.472756589071564,
            "wrist_3_joint": -3.1238370188695823
        }
    },
    "waypoints": [
        {
            "positions": [
                -1.6717766225146293,
                -1.4165861575791021,
                1.9565354010623817,
                -0.5286633292919765,
                1.472756589071564,
                -3.1238370188695823
            ]
        },
        {
            "positions": [
                -1.5656203525483954,
                -1.4180514034079912,
                1.9853966563989902,
                -0.5099482033102375,
                1.414612657288483,
                -3.0022975149555426
            ]
        },
        {
            "positions": [
                -1.4594640825821616,
                -1.41951664923688,
                2.0142579117355988,
                -0.4912330773284985,
                1.356468725505402,
                -2.8807580110415025
            ]
        },
        {
            "positions": [
                -1.4544006635427045,
                -1.438112359182153,
                1.8676801836770225,
                -0.4896199733228737,
                1.385243771894044,
                -2.726579900314682
            ]
        },
        {
            "positions": [
                -1.4493372445032473,
                -1.456708069127426,
                1.721102455618446,
                -0.4880068693172489,
                1.414018818282686,
                -2.572401789587861
            ]
        },
        {
            "positions": [
                -1.4442738254637904,
                -1.4753037790726988,
                1.5745247275598697,
                -0.48639376531162404,
                1.4427938646713283,
                -2.4182236788610405
            ]
        },
        {
            "positions": [
                -1.4392104064243332,
                -1.4938994890179718,
                1.4279469995012932,
                -0.4847806613059992,
                1.4715689110599703,
                -2.26404556813422
            ]
        },
        {
            "positions": [
                -1.434146987384876,
                -1.5124951989632447,
                1.281369271442717,
                -0.4831675573003744,
                1.5003439574486124,
                -2.1098674574073994
            ]
        },
        {
            "positions": [
                -1.5617550464475956,
                -1.5251544596429991,
                1.3429931480403499,
                -0.5036212092030503,
                1.4235596374908577,
                -2.202467344237517
            ]
        },
        {
            "positions": [
                -1.6893631055103149,
                -1.5378137203227535,
                1.4046170246379828,
                -0.5240748611057263,
                1.346775317533103,
                -2.295067231067635
            ]
        },
        {
            "positions": [
                -1.8169711645730344,
                -1.550472981002508,
                1.4662409012356157,
                -0.5445285130084022,
                1.2699909975753485,
                -2.387667117897753
            ]
        },
        {
            "positions": [
                -1.944579223635754,
                -1.5631322416822626,
                1.5278647778332486,
                -0.5649821649110782,
                1.1932066776175938,
                -2.480267004727871
            ]
        },
        {
            "positions": [
                -2.072187282698473,
                -1.575791502362017,
                1.5894886544308815,
                -0.5854358168137541,
                1.116422357659839,
                -2.5728668915579886
            ]
        },
        {
            "positions": [
                -2.1997953417611926,
                -1.5884507630417715,
                1.6511125310285144,
                -0.60588946871643,
                1.0396380377020846,
                -2.6654667783881063
            ]
        },
        {
            "positions": [
                -2.327403400823912,
                -1.6011100237215259,
                1.7127364076261473,
                -0.6263431206191059,
                0.9628537177443299,
                -2.758066665218224
            ]
        },
        {
            "positions": [
                -2.4550114598866317,
                -1.6137692844012803,
                1.7743602842237802,
                -0.6467967725217819,
                0.8860693977865752,
                -2.850666552048342
            ]
        },
        {
            "positions": [
                -2.465525818252146,
                -1.55590697620396,
                1.8531796862751306,
                -0.6826523278061745,
                0.8330649605043529,
                -2.926924382078395
            ]
        },
        {
            "positions": [
                -2.47604017661766,
                -1.4980446680066397,
                1.9319990883264808,
                -0.718507883090567,
                0.7800605232221306,
                -3.003182212108447
            ]
        },
        {
            "positions": [
                -2.486554534983174,
                -1.4401823598093193,
                2.0108184903778312,
                -0.7543634383749596,
                0.7270560859399082,
                -3.0794400421384998
            ]
        },
        {
            "positions": [
                -2.478841753298744,
                -1.3022134482187873,
                2.0106699335011573,
                -0.7913416124998314,
                0.7070464386417266,
                -3.1167761025806104
            ]
        },
        {
            "positions": [
                -2.4711289716143137,
                -1.1642445366282552,
                2.010521376624484,
                -0.8283197866247031,
                0.6870367913435448,
                -3.154112163022721
            ]
        }
    ]
}