{
    "goal": {
        "global_pose": {
            "orientation": {
                "w": 0.7031023502349854,
                "x": -0.7110244035720825,
                "y": 0.007748599164187908,
                "z": 0.005598929710686207
            },
            "position": {
                "x": 0.11585023208521307,
                "y": 0.44412534475326537,
                "z": 0.3711530566215515
            }
        },
        "name": "move_to_auspresseinheit_A"
    },
    "id": "RRT_move_to_auspresseinheit_A_52",
    "joint_names": [
        "shoulder_pan_joint",
        "shoulder_lift_joint",
        "elbow_joint",
        "wrist_1_joint",
        "wrist_2_joint",
        "wrist_3_joint"
    ],
    "metrics": {
        "cart_traj_len": 0.828284067408933,
        "distance_elbow_joint": 0.026509085282458766,
        "distance_shoulder_lift_joint": 1.0216803384754451,
        "distance_shoulder_pan_joint": 1.0443121686742654,
        "distance_wrist_1_joint": 0.5526336289845493,
        "distance_wrist_2_joint": 2.8283232487636454,
        "distance_wrist_3_joint": 1.4065743322496216,
        "smoothness": 1.160386901655766,
        "time": 0.653261933,
        "traj_len": 2.6229816626179425,
        "weighted_distance": 3.6158177974944237
    },
    "planner": "RRT",
    "start": {
        "state": {
            "elbow_joint": 2.4225746658250005,
            "shoulder_lift_joint": -1.3736534386056498,
            "shoulder_pan_joint": -0.3378633547517467,
            "wrist_1_joint": -1.0288598680537169,
            "wrist_2_joint": 1.233022673432363,
            "wrist_3_joint": -3.0940220416140027
        }
    },
    "waypoints": [
        {
            "positions": [
                -0.3378633547517467,
                -1.3736534386056498,
                2.4225746658250005,
                -1.0288598680537169,
                1.233022673432363,
                -3.0940220416140027
            ]
        },
        {
            "positions": [
                -0.2755374615215642,
                -1.438569498952937,
                2.420550614109984,
                -0.9900075196330728,
                1.0934011510613293,
                -3.036681891593042
            ]
        },
        {
            "positions": [
                -0.21321156829138171,
                -1.5034855593002243,
                2.418526562394968,
                -0.9511551712124287,
                0.9537796286902958,
                -2.979341741572081
            ]
        },
        {
            "positions": [
                -0.1508856750611992,
                -1.5684016196475115,
                2.416502510679951,
                -0.9123028227917845,
                0.814158106319262,
                -2.92200159155112
            ]
        },
        {
            "positions": [
                -0.0885597818310167,
                -1.6333176799947986,
                2.414478458964935,
                -0.8734504743711404,
                0.6745365839482284,
                -2.864661441530159
            ]
        },
        {
            "positions": [
                -0.0262338886008342,
                -1.6982337403420857,
                2.4124544072499186,
                -0.8345981259504962,
                0.5349150615771946,
                -2.807321291509198
            ]
        },
        {
            "positions": [
                0.03609200462934831,
                -1.7631498006893729,
                2.4104303555349023,
                -0.7957457775298522,
                0.39529353920616095,
                -2.749981141488237
            ]
        },
        {
            "positions": [
                0.09841789785953081,
                -1.8280658610366602,
                2.408406303819886,
                -0.756893429109208,
                0.2556720168351272,
                -2.692640991467276
            ]
        },
        {
            "positions": [
                0.16074379108971332,
                -1.8929819213839474,
                2.4063822521048697,
                -0.718041080688564,
                0.11605049446409366,
                -2.6353008414463157
            ]
        },
        {
            "positions": [
                0.22306968431989577,
                -1.9578979817312345,
                2.4043582003898534,
                -0.6791887322679198,
                -0.0235710279069401,
                -2.5779606914253548
            ]
        },
        {
            "positions": [
                0.2853955775500783,
                -2.022814042078522,
                2.4023341486748366,
                -0.6403363838472756,
                -0.16319255027797386,
                -2.520620541404394
            ]
        },
        {
            "positions": [
                0.3477214707802608,
                -2.087730102425809,
                2.4003100969598203,
                -0.6014840354266315,
                -0.3028140726490074,
                -2.463280391383433
            ]
        },
        {
            "positions": [
                0.4100473640104434,
                -2.152646162773096,
                2.398286045244804,
                -0.5626316870059874,
                -0.44243559502004115,
                -2.405940241362472
            ]
        },
        {
            "positions": [
                0.452390428283597,
                -2.117976503586239,
                2.3979688360016236,
                -0.5502880515864418,
                -0.2777405978327211,
                -2.5085820316479137
            ]
        },
        {
            "positions": [
                0.49473349255675053,
                -2.0833068443993823,
                2.3976516267584436,
                -0.537944416166896,
                -0.11304560064540109,
                -2.611223821933355
            ]
        },
        {
            "positions": [
                0.5370765568299041,
                -2.048637185212525,
                2.397334417515263,
                -0.5256007807473504,
                0.05164939654191897,
                -2.7138656122187967
            ]
        },
        {
            "positions": [
                0.5794196211030577,
                -2.0139675260256684,
                2.3970172082720826,
                -0.5132571453278048,
                0.21634439372923897,
                -2.816507402504238
            ]
        },
        {
            "positions": [
                0.6217626853762113,
                -1.9792978668388113,
                2.396699999028902,
                -0.500913509908259,
                0.38103939091655903,
                -2.9191491927896798
            ]
        },
        {
            "positions": [
                0.6641057496493649,
                -1.9446282076519543,
                2.396382789785722,
                -0.48856987448871336,
                0.5457343881038791,
                -3.021790983075121
            ]
        },
        {
            "positions": [
                0.7064488139225185,
                -1.9099585484650974,
                2.3960655805425417,
                -0.47622623906916767,
                0.7104293852911991,
                -3.124432773360563
            ]
        }
    ]
}