{
    "goal": {
        "global_pose": {
            "orientation": {
                "w": 0.7031023502349854,
                "x": -0.7110244035720825,
                "y": 0.007748599164187908,
                "z": 0.005598929710686207
            },
            "position": {
                "x": 0.11585023208521307,
                "y": 0.44412534475326537,
                "z": 0.3711530566215515
            }
        },
        "name": "move_to_auspresseinheit_A"
    },
    "id": "RRT_move_to_auspresseinheit_A_42",
    "joint_names": [
        "shoulder_pan_joint",
        "shoulder_lift_joint",
        "elbow_joint",
        "wrist_1_joint",
        "wrist_2_joint",
        "wrist_3_joint"
    ],
    "metrics": {
        "cart_traj_len": 2.0884299505041852,
        "distance_elbow_joint": 0.801145336910249,
        "distance_shoulder_lift_joint": 1.1457977914247424,
        "distance_shoulder_pan_joint": 2.884552461316094,
        "distance_wrist_1_joint": 1.0062988582354828,
        "distance_wrist_2_joint": 0.688806305795299,
        "distance_wrist_3_joint": 2.314807496348459,
        "smoothness": 0.7661185888548488,
        "time": 1.419727738,
        "traj_len": 2.9734505629033627,
        "weighted_distance": 3.8943713750434776
    },
    "planner": "RRT",
    "start": {
        "state": {
            "elbow_joint": 2.4225746658250005,
            "shoulder_lift_joint": -1.3736534386056498,
            "shoulder_pan_joint": -0.3378633547517467,
            "wrist_1_joint": -1.0288598680537169,
            "wrist_2_joint": 1.233022673432363,
            "wrist_3_joint": -3.0940220416140027
        }
    },
    "waypoints": [
        {
            "positions": [
                -0.3378633547517467,
                -1.3736534386056498,
                2.4225746658250005,
                -1.0288598680537169,
                1.233022673432363,
                -3.0940220416140027
            ]
        },
        {
            "positions": [
                -0.2717112266289375,
                -1.4139423062832652,
                2.4058468327929337,
                -1.0654904349286523,
                1.2507824770784384,
                -3.092359210593399
            ]
        },
        {
            "positions": [
                -0.11722567073859239,
                -1.489473090871254,
                2.3792392009763876,
                -1.0823991104819464,
                1.257619203213273,
                -3.0014184123468852
            ]
        },
        {
            "positions": [
                0.037259885151752714,
                -1.5650038754592428,
                2.352631569159842,
                -1.0993077860352405,
                1.2644559293481077,
                -2.9104776141003716
            ]
        },
        {
            "positions": [
                0.1917454410420978,
                -1.6405346600472317,
                2.326023937343296,
                -1.1162164615885346,
                1.2712926554829422,
                -2.819536815853858
            ]
        },
        {
            "positions": [
                0.3462309969324429,
                -1.7160654446352204,
                2.2994163055267505,
                -1.1331251371418287,
                1.2781293816177768,
                -2.7285960176073445
            ]
        },
        {
            "positions": [
                0.5007165528227879,
                -1.791596229223209,
                2.2728086737102045,
                -1.1500338126951228,
                1.2849661077526116,
                -2.6376552193608314
            ]
        },
        {
            "positions": [
                0.655202108713133,
                -1.867127013811198,
                2.2462010418936584,
                -1.1669424882484167,
                1.291802833887446,
                -2.546714421114318
            ]
        },
        {
            "positions": [
                0.8096876646034781,
                -1.9426577983991868,
                2.219593410077113,
                -1.1838511638017108,
                1.2986395600222806,
                -2.455773622867804
            ]
        },
        {
            "positions": [
                0.9641732204938234,
                -2.0181885829871753,
                2.192985778260567,
                -1.200759839355005,
                1.3054762861571152,
                -2.3648328246212906
            ]
        },
        {
            "positions": [
                1.1186587763841684,
                -2.093719367575164,
                2.1663781464440213,
                -1.217668514908299,
                1.31231301229195,
                -2.273892026374777
            ]
        },
        {
            "positions": [
                1.2731443322745135,
                -2.169250152163153,
                2.1397705146274753,
                -1.2345771904615932,
                1.3191497384267845,
                -2.1829512281282635
            ]
        },
        {
            "positions": [
                1.370622198188377,
                -2.191737801970001,
                2.137032234962373,
                -1.1798446725062548,
                1.29364905816636,
                -2.0713207503167554
            ]
        },
        {
            "positions": [
                1.4681000641022406,
                -2.2142254517768487,
                2.134293955297271,
                -1.1251121545509166,
                1.2681483779059357,
                -1.9596902725052476
            ]
        },
        {
            "positions": [
                1.4944775378130533,
                -2.184120393807128,
                2.1942894485746858,
                -1.0154012266393104,
                1.239636340289698,
                -2.0357694344777424
            ]
        },
        {
            "positions": [
                1.520855011523866,
                -2.1540153358374066,
                2.254284941852101,
                -0.9056902987277043,
                1.2111243026734602,
                -2.1118485964502374
            ]
        },
        {
            "positions": [
                1.5472324852346786,
                -2.1239102778676857,
                2.3142804351295156,
                -0.7959793708160983,
                1.1826122650572226,
                -2.1879277584227323
            ]
        },
        {
            "positions": [
                1.5736099589454913,
                -2.093805219897965,
                2.3742759284069304,
                -0.6862684429044921,
                1.1541002274409848,
                -2.264006920395227
            ]
        },
        {
            "positions": [
                1.599987432656304,
                -2.0637001619282436,
                2.4342714216843455,
                -0.5765575149928859,
                1.125588189824747,
                -2.340086082367722
            ]
        },
        {
            "positions": [
                1.6263649063671166,
                -2.0335951039585227,
                2.4942669149617602,
                -0.4668465870812798,
                1.0970761522085093,
                -2.416165244340217
            ]
        },
        {
            "positions": [
                1.5784346329213008,
                -2.0248162780797694,
                2.5205592329090214,
                -0.44913004606177404,
                1.0916292938356038,
                -2.462431100620109
            ]
        },
        {
            "positions": [
                1.4330356451293984,
                -2.005513510653692,
                2.4994593414472264,
                -0.4516524446330719,
                1.0291028278006544,
                -2.575386917140916
            ]
        },
        {
            "positions": [
                1.287636657337496,
                -1.9862107432276146,
                2.478359449985432,
                -0.4541748432043698,
                0.9665763617657048,
                -2.6883427336617234
            ]
        },
        {
            "positions": [
                1.1422376695455934,
                -1.9669079758015373,
                2.4572595585236368,
                -0.4566972417756677,
                0.9040498957307554,
                -2.8012985501825303
            ]
        },
        {
            "positions": [
                0.9968386817536911,
                -1.94760520837546,
                2.4361596670618417,
                -0.45921964034696555,
                0.841523429695806,
                -2.914254366703337
            ]
        },
        {
            "positions": [
                0.8514396939617885,
                -1.9283024409493825,
                2.415059775600047,
                -0.46174203891826343,
                0.7789969636608565,
                -3.0272101832241445
            ]
        },
        {
            "positions": [
                0.7060407061698861,
                -1.9089996735233052,
                2.393959884138252,
                -0.4642644374895613,
                0.716470497625907,
                -3.1401659997449514
            ]
        }
    ]
}