{
    "goal": {
        "global_pose": {
            "orientation": {
                "w": 0.5084816262002911,
                "x": -0.4908360881923452,
                "y": 0.5182115481033761,
                "z": -0.48164630358495003
            },
            "position": {
                "x": 0.5540239810943604,
                "y": -0.46912469901144505,
                "z": 0.16403168439865112
            }
        },
        "name": "move_to_storage_B"
    },
    "id": "RRT_move_to_storage_B_126",
    "joint_names": [
        "shoulder_pan_joint",
        "shoulder_lift_joint",
        "elbow_joint",
        "wrist_1_joint",
        "wrist_2_joint",
        "wrist_3_joint"
    ],
    "metrics": {
        "cart_traj_len": 3.192569156744158,
        "distance_elbow_joint": 3.0572155277299045,
        "distance_shoulder_lift_joint": 0.6973402701327998,
        "distance_shoulder_pan_joint": 2.5747163322055053,
        "distance_wrist_1_joint": 2.990121203902161,
        "distance_wrist_2_joint": 2.702960580335868,
        "distance_wrist_3_joint": 3.860476968433628,
        "smoothness": 0.2973929698027174,
        "time": 0.125590141,
        "traj_len": 3.9853269480357407,
        "weighted_distance": 5.412657998049124
    },
    "planner": "RRT",
    "start": {
        "state": {
            "elbow_joint": 1.664937868594044,
            "shoulder_lift_joint": -0.661644460510453,
            "shoulder_pan_joint": -0.9139846352900073,
            "wrist_1_joint": 2.146753192139373,
            "wrist_2_joint": -2.2341966793290973,
            "wrist_3_joint": 0.005466555786416001
        }
    },
    "waypoints": [
        {
            "positions": [
                -0.9139846352900073,
                -0.661644460510453,
                1.664937868594044,
                2.146753192139373,
                -2.2341966793290973,
                0.005466555786416001
            ]
        },
        {
            "positions": [
                -0.8285303566424987,
                -0.7029212887475923,
                1.5683095302605452,
                2.0910575474168915,
                -2.1699489813899207,
                0.03154564893610014
            ]
        },
        {
            "positions": [
                -0.7430760779949901,
                -0.7441981169847316,
                1.4716811919270463,
                2.0353619026944094,
                -2.105701283450744,
                0.057624742085784275
            ]
        },
        {
            "positions": [
                -0.6576217993474816,
                -0.7854749452218709,
                1.3750528535935476,
                1.9796662579719277,
                -2.041453585511567,
                0.08370383523546841
            ]
        },
        {
            "positions": [
                -0.572167520699973,
                -0.8267517734590102,
                1.2784245152600486,
                1.923970613249446,
                -1.9772058875723904,
                0.10978292838515255
            ]
        },
        {
            "positions": [
                -0.4867132420524644,
                -0.8680286016961496,
                1.18179617692655,
                1.8682749685269642,
                -1.9129581896332137,
                0.1358620215348367
            ]
        },
        {
            "positions": [
                -0.4012589634049559,
                -0.9093054299332889,
                1.0851678385930512,
                1.8125793238044825,
                -1.8487104916940371,
                0.16194111468452083
            ]
        },
        {
            "positions": [
                -0.3158046847574473,
                -0.9505822581704282,
                0.9885395002595523,
                1.7568836790820006,
                -1.7844627937548603,
                0.18802020783420498
            ]
        },
        {
            "positions": [
                -0.23035040610993873,
                -0.9918590864075675,
                0.8919111619260536,
                1.701188034359519,
                -1.7202150958156834,
                0.2140993009838891
            ]
        },
        {
            "positions": [
                -0.14489612746243008,
                -1.0331359146447068,
                0.7952828235925546,
                1.6454923896370368,
                -1.6559673978765068,
                0.24017839413357328
            ]
        },
        {
            "positions": [
                -0.05944184881492154,
                -1.0744127428818462,
                0.6986544852590558,
                1.5897967449145551,
                -1.5917196999373302,
                0.26625748728325743
            ]
        },
        {
            "positions": [
                0.026012429832587003,
                -1.1156895711189854,
                0.602026146925557,
                1.5341011001920735,
                -1.5274720019981536,
                0.2923365804329416
            ]
        },
        {
            "positions": [
                0.11146670848009543,
                -1.1569663993561248,
                0.5053978085920583,
                1.4784054554695918,
                -1.4632243040589767,
                0.3184156735826257
            ]
        },
        {
            "positions": [
                0.1969209871276042,
                -1.198243227593264,
                0.40876947025855936,
                1.4227098107471097,
                -1.3989766061198,
                0.34449476673230983
            ]
        },
        {
            "positions": [
                0.2823752657751126,
                -1.2395200558304034,
                0.31214113192506066,
                1.367014166024628,
                -1.3347289081806233,
                0.370573859881994
            ]
        },
        {
            "positions": [
                0.23314825037724177,
                -1.235253460301373,
                0.37301323160580785,
                1.2880719453893632,
                -1.270318450709645,
                0.24573922901277792
            ]
        },
        {
            "positions": [
                0.1839212349793709,
                -1.2309868647723428,
                0.43388533128655504,
                1.2091297247540982,
                -1.2059079932386665,
                0.12090459814356186
            ]
        },
        {
            "positions": [
                0.13469421958150002,
                -1.2267202692433123,
                0.49475743096730224,
                1.1301875041188334,
                -1.1414975357676882,
                -0.003930032725654231
            ]
        },
        {
            "positions": [
                0.08546720418362916,
                -1.222453673714282,
                0.5556295306480494,
                1.0512452834835684,
                -1.07708707829671,
                -0.12876466359487027
            ]
        },
        {
            "positions": [
                0.03624018878575827,
                -1.2181870781852517,
                0.6165016303287967,
                0.9723030628483036,
                -1.0126766208257314,
                -0.25359929446408636
            ]
        },
        {
            "positions": [
                -0.01298682661211259,
                -1.2139204826562213,
                0.6773737300095438,
                0.8933608422130387,
                -0.9482661633547531,
                -0.37843392533330245
            ]
        },
        {
            "positions": [
                -0.06221384200998348,
                -1.2096538871271911,
                0.7382458296902911,
                0.8144186215777738,
                -0.8838557058837748,
                -0.5032685562025185
            ]
        },
        {
            "positions": [
                -0.11144085740785431,
                -1.2053872915981607,
                0.7991179293710382,
                0.7354764009425089,
                -0.8194452484127964,
                -0.6281031870717345
            ]
        },
        {
            "positions": [
                -0.16066787280572525,
                -1.2011206960691303,
                0.8599900290517856,
                0.656534180307244,
                -0.755034790941818,
                -0.7529378179409508
            ]
        },
        {
            "positions": [
                -0.20989488820359609,
                -1.1968541005401,
                0.9208621287325327,
                0.5775919596719791,
                -0.6906243334708396,
                -0.8777724488101667
            ]
        },
        {
            "positions": [
                -0.2591219036014669,
                -1.1925875050110697,
                0.9817342284132798,
                0.4986497390367143,
                -0.6262138759998613,
                -1.002607079679383
            ]
        },
        {
            "positions": [
                -0.3083489189993378,
                -1.1883209094820393,
                1.042606328094027,
                0.4197075184014494,
                -0.561803418528883,
                -1.1274417105485988
            ]
        },
        {
            "positions": [
                -0.3575759343972087,
                -1.184054313953009,
                1.1034784277747742,
                0.34076529776618436,
                -0.49739296105790454,
                -1.252276341417815
            ]
        },
        {
            "positions": [
                -0.4068029497950796,
                -1.1797877184239787,
                1.1643505274555215,
                0.26182307713091957,
                -0.43298250358692625,
                -1.377110972287031
            ]
        },
        {
            "positions": [
                -0.45602996519295047,
                -1.1755211228949483,
                1.2252226271362687,
                0.18288085649565478,
                -0.36857204611594796,
                -1.5019456031562473
            ]
        },
        {
            "positions": [
                -0.5052569805908212,
                -1.171254527365918,
                1.2860947268170158,
                0.10393863586038976,
                -0.30416158864496956,
                -1.6267802340254631
            ]
        },
        {
            "positions": [
                -0.5544839959886921,
                -1.1669879318368876,
                1.346966826497763,
                0.02499641522512497,
                -0.23975113117399127,
                -1.7516148648946794
            ]
        },
        {
            "positions": [
                -0.6037110113865631,
                -1.1627213363078572,
                1.4078389261785105,
                -0.053945805410140046,
                -0.17534067370301276,
                -1.8764494957638957
            ]
        },
        {
            "positions": [
                -0.652938026784434,
                -1.158454740778827,
                1.4687110258592575,
                -0.13288802604540484,
                -0.11093021623203447,
                -2.0012841266331116
            ]
        },
        {
            "positions": [
                -0.7021650421823048,
                -1.1541881452497966,
                1.5295831255400048,
                -0.21183024668066985,
                -0.04651975876105596,
                -2.1261187575023275
            ]
        },
        {
            "positions": [
                -0.7513920575801758,
                -1.1499215497207662,
                1.5904552252207518,
                -0.29077246731593465,
                0.017890698709922326,
                -2.250953388371544
            ]
        },
        {
            "positions": [
                -0.8006190729780465,
                -1.145654954191736,
                1.651327324901499,
                -0.36971468795119944,
                0.08230115618090061,
                -2.3757880192407597
            ]
        },
        {
            "positions": [
                -0.8498460883759174,
                -1.1413883586627056,
                1.7121994245822463,
                -0.44865690858646445,
                0.1467116136518789,
                -2.5006226501099755
            ]
        },
        {
            "positions": [
                -0.8990731037737882,
                -1.1371217631336754,
                1.7730715242629933,
                -0.5275991292217292,
                0.2111220711228572,
                -2.625457280979192
            ]
        },
        {
            "positions": [
                -0.9483001191716594,
                -1.132855167604645,
                1.8339436239437408,
                -0.6065413498569943,
                0.2755325285938357,
                -2.750291911848408
            ]
        },
        {
            "positions": [
                -0.99752713456953,
                -1.1285885720756146,
                1.894815723624488,
                -0.6854835704922593,
                0.3399429860648142,
                -2.875126542717624
            ]
        },
        {
            "positions": [
                -1.046754149967401,
                -1.1243219765465844,
                1.955687823305235,
                -0.7644257911275241,
                0.4043534435357925,
                -2.9999611735868403
            ]
        },
        {
            "positions": [
                -1.0959811653652718,
                -1.120055381017554,
                2.0165599229859823,
                -0.8433680117627889,
                0.46876390100677084,
                -3.124795804456056
            ]
        }
    ]
}