{
    "goal": {
        "global_pose": {
            "orientation": {
                "w": 0.005598929693374612,
                "x": 0.007748599140229565,
                "y": 0.7110244013736278,
                "z": -0.7031023480610252
            },
            "position": {
                "x": -0.8858502320852131,
                "y": -0.7141253447532654,
                "z": 0.3711530566215515
            }
        },
        "name": "move_to_auspresseinheit_C"
    },
    "id": "RRT_move_to_auspresseinheit_C_126",
    "joint_names": [
        "shoulder_pan_joint",
        "shoulder_lift_joint",
        "elbow_joint",
        "wrist_1_joint",
        "wrist_2_joint",
        "wrist_3_joint"
    ],
    "metrics": {
        "cart_traj_len": 0.49323146700346304,
        "distance_elbow_joint": 0.9914146465134763,
        "distance_shoulder_lift_joint": 0.3203631823481119,
        "distance_shoulder_pan_joint": 0.256429716272931,
        "distance_wrist_1_joint": 0.6555185956338431,
        "distance_wrist_2_joint": 1.3165169512998944,
        "distance_wrist_3_joint": 0.05042458572652864,
        "smoothness": 4.844609574787718e-16,
        "time": 0.013720689,
        "traj_len": 1.8949057173893338,
        "weighted_distance": 2.37982192530903
    },
    "planner": "RRT",
    "start": {
        "state": {
            "elbow_joint": 1.7527959577737207,
            "shoulder_lift_joint": -0.9740617694225068,
            "shoulder_pan_joint": -2.967991417825858,
            "wrist_1_joint": -0.759517768980727,
            "wrist_2_joint": 1.7443932448377408,
            "wrist_3_joint": -3.0840537646736568
        }
    },
    "waypoints": [
        {
            "positions": [
                -2.967991417825858,
                -0.9740617694225068,
                1.7527959577737207,
                -0.759517768980727,
                1.7443932448377408,
                -3.0840537646736568
            ]
        },
        {
            "positions": [
                -2.9423484461985647,
                -0.9420254511876955,
                1.6536544931223731,
                -0.6939659094173427,
                1.6127415497077513,
                -3.0890962232463095
            ]
        },
        {
            "positions": [
                -2.916705474571272,
                -0.9099891329528844,
                1.5545130284710253,
                -0.6284140498539583,
                1.481089854577762,
                -3.0941386818189627
            ]
        },
        {
            "positions": [
                -2.8910625029439787,
                -0.8779528147180732,
                1.4553715638196778,
                -0.562862190290574,
                1.3494381594477725,
                -3.0991811403916154
            ]
        },
        {
            "positions": [
                -2.8654195313166855,
                -0.845916496483262,
                1.35623009916833,
                -0.4973103307271897,
                1.2177864643177831,
                -3.104223598964268
            ]
        },
        {
            "positions": [
                -2.8397765596893922,
                -0.8138801782484508,
                1.2570886345169825,
                -0.43175847116380545,
                1.0861347691877936,
                -3.109266057536921
            ]
        },
        {
            "positions": [
                -2.8141335880620995,
                -0.7818438600136397,
                1.157947169865635,
                -0.3662066116004212,
                0.9544830740578042,
                -3.114308516109574
            ]
        },
        {
            "positions": [
                -2.7884906164348062,
                -0.7498075417788285,
                1.0588057052142874,
                -0.30065475203703684,
                0.8228313789278148,
                -3.1193509746822268
            ]
        },
        {
            "positions": [
                -2.762847644807513,
                -0.7177712235440172,
                0.9596642405629395,
                -0.23510289247365246,
                0.6911796837978252,
                -3.1243934332548795
            ]
        },
        {
            "positions": [
                -2.73720467318022,
                -0.6857349053092061,
                0.860522775911592,
                -0.16955103291026818,
                0.5595279886678357,
                -3.1294358918275327
            ]
        },
        {
            "positions": [
                -2.711561701552927,
                -0.6536985870743949,
                0.7613813112602443,
                -0.10399917334688395,
                0.4278762935378465,
                -3.1344783504001854
            ]
        }
    ]
}