{
    "goal": {
        "global_pose": {
            "orientation": {
                "w": 0.7031023502349854,
                "x": -0.7110244035720825,
                "y": 0.007748599164187908,
                "z": 0.005598929710686207
            },
            "position": {
                "x": 0.11585023208521307,
                "y": 0.44412534475326537,
                "z": 0.3711530566215515
            }
        },
        "name": "move_to_auspresseinheit_A"
    },
    "id": "RRT_move_to_auspresseinheit_A_67",
    "joint_names": [
        "shoulder_pan_joint",
        "shoulder_lift_joint",
        "elbow_joint",
        "wrist_1_joint",
        "wrist_2_joint",
        "wrist_3_joint"
    ],
    "metrics": {
        "cart_traj_len": 3.4548035439182105,
        "distance_elbow_joint": 2.4676396445594255,
        "distance_shoulder_lift_joint": 2.011326445367028,
        "distance_shoulder_pan_joint": 3.564751775363,
        "distance_wrist_1_joint": 0.885214056937974,
        "distance_wrist_2_joint": 2.304098125473917,
        "distance_wrist_3_joint": 3.686419406258314,
        "smoothness": 0.8228393069302058,
        "time": 0.29200855800000003,
        "traj_len": 3.8625703170246175,
        "weighted_distance": 5.047930313394607
    },
    "planner": "RRT",
    "start": {
        "state": {
            "elbow_joint": 2.4225746658250005,
            "shoulder_lift_joint": -1.3736534386056498,
            "shoulder_pan_joint": -0.3378633547517467,
            "wrist_1_joint": -1.0288598680537169,
            "wrist_2_joint": 1.233022673432363,
            "wrist_3_joint": -3.0940220416140027
        }
    },
    "waypoints": [
        {
            "positions": [
                -0.3378633547517467,
                -1.3736534386056498,
                2.4225746658250005,
                -1.0288598680537169,
                1.233022673432363,
                -3.0940220416140027
            ]
        },
        {
            "positions": [
                -0.31287872859669497,
                -1.3621725943923533,
                2.336632110922272,
                -1.0295194730037764,
                1.1389669132938551,
                -2.9710577147660944
            ]
        },
        {
            "positions": [
                -0.28789410244164315,
                -1.3506917501790565,
                2.2506895560195432,
                -1.0301790779538358,
                1.044911153155347,
                -2.848093387918186
            ]
        },
        {
            "positions": [
                -0.2629094762865914,
                -1.3392109059657598,
                2.1647470011168144,
                -1.0308386829038954,
                0.950855393016839,
                -2.725129061070277
            ]
        },
        {
            "positions": [
                -0.2379248501315396,
                -1.3277300617524632,
                2.078804446214086,
                -1.031498287853955,
                0.8567996328783309,
                -2.602164734222369
            ]
        },
        {
            "positions": [
                -0.1828973195988364,
                -1.334925294042429,
                1.9887532385881754,
                -1.0286684070430163,
                0.7506566803441583,
                -2.4690336289719985
            ]
        },
        {
            "positions": [
                -0.12786978906613322,
                -1.3421205263323948,
                1.898702030962265,
                -1.0258385262320777,
                0.6445137278099857,
                -2.3359025237216287
            ]
        },
        {
            "positions": [
                -0.07284225853343002,
                -1.3493157586223605,
                1.8086508233363547,
                -1.0230086454211393,
                0.5383707752758131,
                -2.2027714184712583
            ]
        },
        {
            "positions": [
                -0.01781472800072681,
                -1.3565109909123263,
                1.7185996157104442,
                -1.0201787646102007,
                0.43222782274164046,
                -2.069640313220888
            ]
        },
        {
            "positions": [
                0.037212802531976424,
                -1.3637062232022918,
                1.6285484080845336,
                -1.0173488837992621,
                0.3260848702074678,
                -1.936509207970518
            ]
        },
        {
            "positions": [
                0.09224033306467957,
                -1.3709014554922576,
                1.5384972004586233,
                -1.0145190029883235,
                0.21994191767329518,
                -1.8033781027201479
            ]
        },
        {
            "positions": [
                0.14726786359738278,
                -1.3780966877822234,
                1.4484459928327127,
                -1.0116891221773852,
                0.11379896513912247,
                -1.6702469974697776
            ]
        },
        {
            "positions": [
                0.202295394130086,
                -1.3852919200721892,
                1.3583947852068023,
                -1.0088592413664466,
                0.007656012604949969,
                -1.5371158922194077
            ]
        },
        {
            "positions": [
                0.2573229246627892,
                -1.392487152362155,
                1.2683435775808918,
                -1.006029360555508,
                -0.0984869399292228,
                -1.4039847869690374
            ]
        },
        {
            "positions": [
                0.3998648230201383,
                -1.4560349402997566,
                1.3243489343434214,
                -0.9804736742159427,
                -0.08564958099122634,
                -1.4722991750400658
            ]
        },
        {
            "positions": [
                0.5424067213774875,
                -1.519582728237358,
                1.3803542911059512,
                -0.9549179878763774,
                -0.07281222205322987,
                -1.5406135631110942
            ]
        },
        {
            "positions": [
                0.6849486197348365,
                -1.5831305161749594,
                1.4363596478684808,
                -0.9293623015368121,
                -0.0599748631152334,
                -1.6089279511821224
            ]
        },
        {
            "positions": [
                0.8274905180921857,
                -1.646678304112561,
                1.4923650046310104,
                -0.9038066151972468,
                -0.04713750417723694,
                -1.6772423392531508
            ]
        },
        {
            "positions": [
                0.9700324164495346,
                -1.7102260920501626,
                1.5483703613935402,
                -0.8782509288576815,
                -0.034300145239240465,
                -1.7455567273241792
            ]
        },
        {
            "positions": [
                1.1125743148068838,
                -1.773773879987764,
                1.6043757181560698,
                -0.8526952425181162,
                -0.021462786301244,
                -1.8138711153952076
            ]
        },
        {
            "positions": [
                1.255116213164233,
                -1.8373216679253657,
                1.6603810749185994,
                -0.827139556178551,
                -0.00862542736324752,
                -1.882185503466236
            ]
        },
        {
            "positions": [
                1.397658111521582,
                -1.900869455862967,
                1.716386431681129,
                -0.8015838698389857,
                0.004211931574748931,
                -1.9504998915372642
            ]
        },
        {
            "positions": [
                1.540200009878931,
                -1.9644172438005687,
                1.7723917884436589,
                -0.7760281834994204,
                0.017049290512745396,
                -2.018814279608293
            ]
        },
        {
            "positions": [
                1.6827419082362802,
                -2.0279650317381703,
                1.8283971452061887,
                -0.7504724971598551,
                0.029886649450741876,
                -2.087128667679321
            ]
        },
        {
            "positions": [
                1.8252838065936292,
                -2.0915128196757715,
                1.8844025019687183,
                -0.7249168108202898,
                0.04272400838873833,
                -2.1554430557503492
            ]
        },
        {
            "positions": [
                1.9678257049509784,
                -2.155060607613373,
                1.9404078587312479,
                -0.6993611244807245,
                0.055561367326734806,
                -2.223757443821378
            ]
        },
        {
            "positions": [
                1.9563637999172592,
                -2.0781306295438284,
                2.0010483694139607,
                -0.6550656882688172,
                0.13778188018180765,
                -2.339775863926334
            ]
        },
        {
            "positions": [
                1.9449018948835401,
                -2.0012006514742837,
                2.061688880096673,
                -0.6107702520569098,
                0.22000239303688046,
                -2.4557942840312896
            ]
        },
        {
            "positions": [
                1.933439989849821,
                -1.9242706734047388,
                2.122329390779386,
                -0.5664748158450024,
                0.30222290589195333,
                -2.5718127041362457
            ]
        },
        {
            "positions": [
                1.9219780848161019,
                -1.8473406953351938,
                2.1829699014620987,
                -0.522179379633095,
                0.38444341874702614,
                -2.687831124241202
            ]
        },
        {
            "positions": [
                1.9105161797823826,
                -1.7704107172656491,
                2.243610412144811,
                -0.4778839434211877,
                0.46666393160209907,
                -2.803849544346158
            ]
        },
        {
            "positions": [
                1.8990542747486636,
                -1.6934807391961044,
                2.304250922827524,
                -0.4335885072092803,
                0.5488844444571718,
                -2.9198679644511136
            ]
        },
        {
            "positions": [
                1.8875923697149444,
                -1.6165507611265595,
                2.3648914335102367,
                -0.3892930709973729,
                0.6311049573122447,
                -3.0358863845560697
            ]
        },
        {
            "positions": [
                1.8761304646812254,
                -1.5396207830570146,
                2.425531944192949,
                -0.3449976347854656,
                0.7133254701673174,
                -3.1519048046610254
            ]
        },
        {
            "positions": [
                1.864668559647506,
                -1.4626908049874698,
                2.486172454875662,
                -0.3007021985735582,
                0.7955459830223903,
                -3.2679232247659815
            ]
        },
        {
            "positions": [
                1.672017631254706,
                -1.5369745916586413,
                2.4702425083722375,
                -0.3259987898831147,
                0.7824533848289372,
                -3.2458492724632473
            ]
        },
        {
            "positions": [
                1.4793667028619057,
                -1.6112583783298124,
                2.454312561868813,
                -0.3512953811926713,
                0.7693607866354842,
                -3.2237753201605135
            ]
        },
        {
            "positions": [
                1.2867157744691056,
                -1.6855421650009839,
                2.4383826153653887,
                -0.3765919725022278,
                0.7562681884420313,
                -3.2017013678577797
            ]
        },
        {
            "positions": [
                1.0940648460763054,
                -1.759825951672155,
                2.422452668861964,
                -0.40188856381178434,
                0.7431755902485782,
                -3.1796274155550455
            ]
        },
        {
            "positions": [
                0.9014139176835052,
                -1.8341097383433267,
                2.4065227223585395,
                -0.4271851551213409,
                0.7300829920551251,
                -3.1575534632523112
            ]
        },
        {
            "positions": [
                0.7087629892907049,
                -1.9083935250144979,
                2.390592775855115,
                -0.45248174643089745,
                0.7169903938616721,
                -3.1354795109495774
            ]
        }
    ]
}