{
    "goal": {
        "global_pose": {
            "orientation": {
                "w": -0.4816463035849501,
                "x": 0.5182115481033762,
                "y": 0.4908360881923453,
                "z": -0.5084816262002911
            },
            "position": {
                "x": -0.8240239810943604,
                "y": -0.300875300988555,
                "z": 0.16403168439865112
            }
        },
        "name": "move_to_storage_C"
    },
    "id": "RRT_move_to_storage_C_115",
    "joint_names": [
        "shoulder_pan_joint",
        "shoulder_lift_joint",
        "elbow_joint",
        "wrist_1_joint",
        "wrist_2_joint",
        "wrist_3_joint"
    ],
    "metrics": {
        "cart_traj_len": 0.5766093614847454,
        "distance_elbow_joint": 0.2609308215884609,
        "distance_shoulder_lift_joint": 0.1897431470196348,
        "distance_shoulder_pan_joint": 0.49312603484899764,
        "distance_wrist_1_joint": 0.08387129256953774,
        "distance_wrist_2_joint": 1.0750184460674337,
        "distance_wrist_3_joint": 0.06946464817241882,
        "smoothness": 0.0,
        "time": 0.017192406,
        "traj_len": 1.4738230525631237,
        "weighted_distance": 1.8627864679689654
    },
    "planner": "RRT",
    "start": {
        "state": {
            "elbow_joint": 2.010868314990456,
            "shoulder_lift_joint": -1.1634956873337592,
            "shoulder_pan_joint": -2.4736205022346125,
            "wrist_1_joint": -0.8367026794202681,
            "wrist_2_joint": 0.6746043897044499,
            "wrist_3_joint": -3.1496632123970403
        }
    },
    "waypoints": [
        {
            "positions": [
                -2.4736205022346125,
                -1.1634956873337592,
                2.010868314990456,
                -0.8367026794202681,
                0.6746043897044499,
                -3.1496632123970403
            ]
        },
        {
            "positions": [
                -2.5558081747094454,
                -1.1318718294971535,
                1.9673798447257123,
                -0.8227241306586784,
                0.8537741307156889,
                -3.1380857710349703
            ]
        },
        {
            "positions": [
                -2.6379958471842784,
                -1.1002479716605476,
                1.923891374460969,
                -0.8087455818970889,
                1.032943871726928,
                -3.126508329672901
            ]
        },
        {
            "positions": [
                -2.7201835196591113,
                -1.0686241138239418,
                1.8804029041962254,
                -0.7947670331354992,
                1.2121136127381669,
                -3.114930888310831
            ]
        },
        {
            "positions": [
                -2.8023711921339443,
                -1.037000255987336,
                1.8369144339314818,
                -0.7807884843739096,
                1.3912833537494058,
                -3.103353446948761
            ]
        },
        {
            "positions": [
                -2.884558864608777,
                -1.0053763981507302,
                1.7934259636667385,
                -0.76680993561232,
                1.5704530947606448,
                -3.0917760055866914
            ]
        },
        {
            "positions": [
                -2.96674653708361,
                -0.9737525403141244,
                1.749937493401995,
                -0.7528313868507304,
                1.7496228357718837,
                -3.0801985642246215
            ]
        }
    ]
}