{
    "goal": {
        "global_pose": {
            "orientation": {
                "w": 0.7047431493862688,
                "x": -0.7094548369677653,
                "y": 0.0024358444001904,
                "z": -0.0022348060817251984
            },
            "position": {
                "x": -0.39052492380142206,
                "y": 0.3671506643295288,
                "z": 0.19426114857196808
            }
        },
        "name": "move_to_magneteinheit_D"
    },
    "id": "RRT_move_to_magneteinheit_D_14",
    "joint_names": [
        "shoulder_pan_joint",
        "shoulder_lift_joint",
        "elbow_joint",
        "wrist_1_joint",
        "wrist_2_joint",
        "wrist_3_joint"
    ],
    "metrics": {
        "cart_traj_len": 3.6007465265342193,
        "distance_elbow_joint": 3.1356999810992514,
        "distance_shoulder_lift_joint": 1.6291640958117133,
        "distance_shoulder_pan_joint": 2.8598834496827252,
        "distance_wrist_1_joint": 2.236156685351067,
        "distance_wrist_2_joint": 0.9258113680324103,
        "distance_wrist_3_joint": 3.2038660028096086,
        "smoothness": 0.3025206983627528,
        "time": 0.37550453,
        "traj_len": 3.740398586085014,
        "weighted_distance": 4.8538934518373456
    },
    "planner": "RRT",
    "start": {
        "state": {
            "elbow_joint": 0.749534889911806,
            "shoulder_lift_joint": -0.6476975780787326,
            "shoulder_pan_joint": -2.711696901376241,
            "wrist_1_joint": -0.07506478083263063,
            "wrist_2_joint": 0.43296659715538205,
            "wrist_3_joint": -3.14703540197715
        }
    },
    "waypoints": [
        {
            "positions": [
                -2.711696901376241,
                -0.6476975780787326,
                0.749534889911806,
                -0.07506478083263063,
                0.43296659715538205,
                -3.14703540197715
            ]
        },
        {
            "positions": [
                -2.709764132921008,
                -0.6664838922809517,
                0.7181843853526095,
                -0.09903931626358206,
                0.43284274281086366,
                -3.0961950485301806
            ]
        },
        {
            "positions": [
                -2.7052543398587967,
                -0.7103186254194631,
                0.645033208047818,
                -0.15497989893580208,
                0.4325537493403208,
                -2.9775675571539186
            ]
        },
        {
            "positions": [
                -2.700744546796585,
                -0.7541533585579745,
                0.5718820307430267,
                -0.21092048160802213,
                0.432264755869778,
                -2.8589400657776562
            ]
        },
        {
            "positions": [
                -2.696234753734374,
                -0.7979880916964859,
                0.4987308534382352,
                -0.26686106428024214,
                0.43197576239923513,
                -2.7403125744013943
            ]
        },
        {
            "positions": [
                -2.649636691712791,
                -0.8255818747218518,
                0.40286722602748926,
                -0.22442591559272013,
                0.3896881376297082,
                -2.6255241661417004
            ]
        },
        {
            "positions": [
                -2.6030386296912082,
                -0.8531756577472178,
                0.3070035986167433,
                -0.1819907669051981,
                0.3474005128601813,
                -2.5107357578820064
            ]
        },
        {
            "positions": [
                -2.5564405676696254,
                -0.8807694407725838,
                0.2111399712059973,
                -0.13955561821767612,
                0.3051128880906544,
                -2.3959473496223125
            ]
        },
        {
            "positions": [
                -2.5098425056480425,
                -0.9083632237979498,
                0.11527634379525137,
                -0.0971204695301541,
                0.2628252633211275,
                -2.2811589413626185
            ]
        },
        {
            "positions": [
                -2.4632444436264596,
                -0.9359570068233157,
                0.01941271638450537,
                -0.054685320842632085,
                0.22053763855160058,
                -2.166370533102924
            ]
        },
        {
            "positions": [
                -2.4166463816048767,
                -0.9635507898486817,
                -0.07645091102624058,
                -0.012250172155110095,
                0.17825001378207367,
                -2.0515821248432307
            ]
        },
        {
            "positions": [
                -2.3700483195832938,
                -0.9911445728740477,
                -0.17231453843698652,
                0.030184976532411922,
                0.13596238901254676,
                -1.9367937165835363
            ]
        },
        {
            "positions": [
                -2.323450257561711,
                -1.0187383558994136,
                -0.26817816584773246,
                0.07262012521993394,
                0.09367476424301985,
                -1.8220053083238423
            ]
        },
        {
            "positions": [
                -2.276852195540128,
                -1.0463321389247797,
                -0.3640417932584785,
                0.11505527390745596,
                0.05138713947349288,
                -1.7072169000641484
            ]
        },
        {
            "positions": [
                -2.230254133518545,
                -1.0739259219501456,
                -0.45990542066922446,
                0.15749042259497797,
                0.009099514703966027,
                -1.5924284918044544
            ]
        },
        {
            "positions": [
                -2.183656071496962,
                -1.1015197049755114,
                -0.5557690480799703,
                0.19992557128249994,
                -0.03318811006556088,
                -1.4776400835447605
            ]
        },
        {
            "positions": [
                -2.1370580094753793,
                -1.1291134880008775,
                -0.6516326754907164,
                0.24236071997002195,
                -0.0754757348350878,
                -1.3628516752850666
            ]
        },
        {
            "positions": [
                -2.0904599474537964,
                -1.1567072710262436,
                -0.7474963029014624,
                0.284795868657544,
                -0.11776335960461476,
                -1.2480632670253724
            ]
        },
        {
            "positions": [
                -2.0438618854322135,
                -1.1843010540516095,
                -0.8433599303122081,
                0.32723101734506593,
                -0.16005098437414164,
                -1.1332748587656785
            ]
        },
        {
            "positions": [
                -1.9172413099788943,
                -1.2046558831976002,
                -0.9289914479899309,
                0.4083239807028147,
                -0.1504277677528636,
                -1.0672499530732633
            ]
        },
        {
            "positions": [
                -1.7906207345255754,
                -1.2250107123435907,
                -1.0146229656676538,
                0.4894169440605635,
                -0.14080455113158558,
                -1.001225047380848
            ]
        },
        {
            "positions": [
                -1.6640001590722564,
                -1.2453655414895815,
                -1.1002544833453765,
                0.5705099074183123,
                -0.13118133451030756,
                -0.9352001416884328
            ]
        },
        {
            "positions": [
                -1.5373795836189372,
                -1.2657203706355722,
                -1.1858860010230994,
                0.651602870776061,
                -0.12155811788902951,
                -0.8691752359960176
            ]
        },
        {
            "positions": [
                -1.410759008165618,
                -1.2860751997815627,
                -1.271517518700822,
                0.7326958341338099,
                -0.11193490126775148,
                -0.8031503303036025
            ]
        },
        {
            "positions": [
                -1.284138432712299,
                -1.3064300289275534,
                -1.3571490363785448,
                0.8137887974915587,
                -0.10231168464647344,
                -0.7371254246111872
            ]
        },
        {
            "positions": [
                -1.1575178572589802,
                -1.3267848580735442,
                -1.4427805540562675,
                0.8948817608493074,
                -0.09268846802519541,
                -0.671100518918772
            ]
        },
        {
            "positions": [
                -1.030897281805661,
                -1.347139687219535,
                -1.5284120717339904,
                0.9759747242070562,
                -0.08306525140391738,
                -0.6050756132263568
            ]
        },
        {
            "positions": [
                -0.9042767063523418,
                -1.3674945163655254,
                -1.6140435894117133,
                1.057067687564805,
                -0.07344203478263935,
                -0.5390507075339417
            ]
        },
        {
            "positions": [
                -0.7776561308990229,
                -1.3878493455115162,
                -1.699675107089436,
                1.138160650922554,
                -0.06381881816136131,
                -0.4730258018415264
            ]
        },
        {
            "positions": [
                -0.6510355554457039,
                -1.4082041746575067,
                -1.7853066247671587,
                1.2192536142803025,
                -0.05419560154008328,
                -0.40700089614911117
            ]
        },
        {
            "positions": [
                -0.5244149799923847,
                -1.4285590038034974,
                -1.8709381424448814,
                1.3003465776380514,
                -0.04457238491880525,
                -0.340975990456696
            ]
        },
        {
            "positions": [
                -0.39779440453906556,
                -1.4489138329494882,
                -1.9565696601226044,
                1.3814395409958002,
                -0.03494916829752723,
                -0.2749510847642809
            ]
        },
        {
            "positions": [
                -0.2711738290857466,
                -1.469268662095479,
                -2.042201177800327,
                1.4625325043535489,
                -0.02532595167624918,
                -0.20892617907186561
            ]
        },
        {
            "positions": [
                -0.14455325363242766,
                -1.4896234912414694,
                -2.12783269547805,
                1.5436254677112977,
                -0.015702735054971134,
                -0.14290127337945036
            ]
        },
        {
            "positions": [
                -0.0179326781791085,
                -1.5099783203874602,
                -2.2134642131557727,
                1.6247184310690466,
                -0.006079518433693101,
                -0.0768763676870351
            ]
        },
        {
            "positions": [
                -0.059462484800506824,
                -1.7016991587632067,
                -2.256639432663691,
                1.586523204430505,
                0.03862606170691629,
                -0.04344962555716177
            ]
        },
        {
            "positions": [
                -0.10099229142190515,
                -1.893419997138953,
                -2.2998146521716087,
                1.5483279777919634,
                0.08333164184752569,
                -0.010022883427288437
            ]
        },
        {
            "positions": [
                -0.14252209804330346,
                -2.085140835514699,
                -2.342989871679527,
                1.5101327511534217,
                0.1280372219881351,
                0.023403858702584893
            ]
        },
        {
            "positions": [
                -0.18405190466470178,
                -2.276861673890446,
                -2.3861650911874452,
                1.4719375245148802,
                0.1727428021287445,
                0.05683060083245822
            ]
        }
    ]
}