{
    "goal": {
        "global_pose": {
            "orientation": {
                "w": -0.00223480608172531,
                "x": 0.0024358444001904467,
                "y": 0.7094548369677653,
                "z": -0.704743149386269
            },
            "position": {
                "x": 0.6205249238014221,
                "y": -0.6371506643295288,
                "z": 0.19426114857196808
            }
        },
        "name": "move_to_magneteinheit_B"
    },
    "id": "RRT_move_to_magneteinheit_B_135",
    "joint_names": [
        "shoulder_pan_joint",
        "shoulder_lift_joint",
        "elbow_joint",
        "wrist_1_joint",
        "wrist_2_joint",
        "wrist_3_joint"
    ],
    "metrics": {
        "cart_traj_len": 1.7146457312876273,
        "distance_elbow_joint": 1.398937926889351,
        "distance_shoulder_lift_joint": 0.7561623475594939,
        "distance_shoulder_pan_joint": 2.030010574684523,
        "distance_wrist_1_joint": 0.674889224469656,
        "distance_wrist_2_joint": 1.5170713499254747,
        "distance_wrist_3_joint": 0.26303378653948983,
        "smoothness": 0.7640709213911165,
        "time": 1.861419532,
        "traj_len": 2.576840159976553,
        "weighted_distance": 3.059106627357422
    },
    "planner": "RRT",
    "start": {
        "state": {
            "elbow_joint": 2.6216224122426386,
            "shoulder_lift_joint": -1.4174107377796124,
            "shoulder_pan_joint": 0.7066234856936794,
            "wrist_1_joint": 1.9546482284002225,
            "wrist_2_joint": -0.7096286983471962,
            "wrist_3_joint": 0.005740856962016249
        }
    },
    "waypoints": [
        {
            "positions": [
                0.7066234856936794,
                -1.4174107377796124,
                2.6216224122426386,
                1.9546482284002225,
                -0.7096286983471962,
                0.005740856962016249
            ]
        },
        {
            "positions": [
                0.7577720641289926,
                -1.3920488567816016,
                2.6770259631957316,
                1.8936147183014134,
                -0.809508690444886,
                0.037340499740702984
            ]
        },
        {
            "positions": [
                0.8089206425643058,
                -1.3666869757835909,
                2.7324295141488246,
                1.8325812082026043,
                -0.9093886825425758,
                0.06894014251938972
            ]
        },
        {
            "positions": [
                0.860069220999619,
                -1.3413250947855804,
                2.7878330651019176,
                1.7715476981037952,
                -1.0092686746402655,
                0.10053978529807646
            ]
        },
        {
            "positions": [
                0.9112177994349322,
                -1.3159632137875696,
                2.8432366160550107,
                1.7105141880049861,
                -1.1091486667379553,
                0.1321394280767632
            ]
        },
        {
            "positions": [
                0.78083092365327,
                -1.2691978692470374,
                2.759142064406655,
                1.7412824154388733,
                -1.1889737654190065,
                0.12237976983213872
            ]
        },
        {
            "positions": [
                0.6504440478716078,
                -1.222432524706505,
                2.6750475127582996,
                1.7720506428727603,
                -1.2687988641000576,
                0.11262011158751424
            ]
        },
        {
            "positions": [
                0.5200571720899457,
                -1.175667180165973,
                2.5909529611099438,
                1.8028188703066474,
                -1.3486239627811085,
                0.10286045334288976
            ]
        },
        {
            "positions": [
                0.38967029630828354,
                -1.1289018356254408,
                2.506858409461588,
                1.8335870977405346,
                -1.4284490614621597,
                0.09310079509826527
            ]
        },
        {
            "positions": [
                0.25928342052662134,
                -1.0821364910849085,
                2.4227638578132327,
                1.8643553251744218,
                -1.5082741601432108,
                0.08334113685364078
            ]
        },
        {
            "positions": [
                0.12889654474495926,
                -1.0353711465443762,
                2.338669306164877,
                1.8951235526083088,
                -1.588099258824262,
                0.0735814786090163
            ]
        },
        {
            "positions": [
                -0.0014903310367029299,
                -0.9886058020038441,
                2.254574754516521,
                1.925891780042196,
                -1.667924357505313,
                0.06382182036439181
            ]
        },
        {
            "positions": [
                -0.13187720681836512,
                -0.9418404574633119,
                2.170480202868166,
                1.9566600074760832,
                -1.747749456186364,
                0.05406216211976733
            ]
        },
        {
            "positions": [
                -0.2622640826000273,
                -0.8950751129227796,
                2.08638565121981,
                1.9874282349099701,
                -1.8275745548674154,
                0.044302503875142826
            ]
        },
        {
            "positions": [
                -0.3926509583816895,
                -0.8483097683822474,
                2.0022910995714542,
                2.0181964623438575,
                -1.9073996535484663,
                0.03454284563051835
            ]
        },
        {
            "positions": [
                -0.5230378341633515,
                -0.8015444238417152,
                1.9181965479230987,
                2.0489646897777445,
                -1.9872247522295177,
                0.02478318738589387
            ]
        },
        {
            "positions": [
                -0.6534247099450137,
                -0.7547790793011829,
                1.8341019962747431,
                2.0797329172116314,
                -2.0670498509105686,
                0.015023529141269393
            ]
        },
        {
            "positions": [
                -0.7838115857266759,
                -0.7080137347606507,
                1.7500074446263874,
                2.110501144645519,
                -2.14687494959162,
                0.005263870896644901
            ]
        },
        {
            "positions": [
                -0.914198461508338,
                -0.6612483902201185,
                1.6659128929780318,
                2.141269372079406,
                -2.226700048272671,
                -0.0044957873479796
            ]
        }
    ]
}