{
    "goal": {
        "global_pose": {
            "orientation": {
                "w": 0.005598929693374612,
                "x": 0.007748599140229565,
                "y": 0.7110244013736278,
                "z": -0.7031023480610252
            },
            "position": {
                "x": -0.8858502320852131,
                "y": -0.7141253447532654,
                "z": 0.3711530566215515
            }
        },
        "name": "move_to_auspresseinheit_C"
    },
    "id": "RRT_move_to_auspresseinheit_C_80",
    "joint_names": [
        "shoulder_pan_joint",
        "shoulder_lift_joint",
        "elbow_joint",
        "wrist_1_joint",
        "wrist_2_joint",
        "wrist_3_joint"
    ],
    "metrics": {
        "cart_traj_len": 0.4928264539423877,
        "distance_elbow_joint": 1.0062170714530254,
        "distance_shoulder_lift_joint": 0.3277391946365299,
        "distance_shoulder_pan_joint": 0.25593803057984266,
        "distance_wrist_1_joint": 0.696526490012546,
        "distance_wrist_2_joint": 1.3028957541481772,
        "distance_wrist_3_joint": 0.0817214532457835,
        "smoothness": 1.130408897695056e-15,
        "time": 0.011237485,
        "traj_len": 1.9159953011622717,
        "weighted_distance": 2.4153474169833613
    },
    "planner": "RRT",
    "start": {
        "state": {
            "elbow_joint": 1.7527959577737207,
            "shoulder_lift_joint": -0.9740617694225068,
            "shoulder_pan_joint": -2.967991417825858,
            "wrist_1_joint": -0.759517768980727,
            "wrist_2_joint": 1.7443932448377408,
            "wrist_3_joint": -3.0840537646736568
        }
    },
    "waypoints": [
        {
            "positions": [
                -2.967991417825858,
                -0.9740617694225068,
                1.7527959577737207,
                -0.759517768980727,
                1.7443932448377408,
                -3.0840537646736568
            ]
        },
        {
            "positions": [
                -2.9423976147678736,
                -0.9412878499588537,
                1.652174250628418,
                -0.6898651199794724,
                1.6141036694229232,
                -3.092225909998235
            ]
        },
        {
            "positions": [
                -2.9168038117098893,
                -0.9085139304952008,
                1.5515525434831154,
                -0.6202124709782177,
                1.4838140940081055,
                -3.1003980553228137
            ]
        },
        {
            "positions": [
                -2.891210008651905,
                -0.8757400110315479,
                1.450930836337813,
                -0.5505598219769632,
                1.3535245185932876,
                -3.108570200647392
            ]
        },
        {
            "positions": [
                -2.8656162055939207,
                -0.8429660915678948,
                1.3503091291925104,
                -0.48090717297570856,
                1.22323494317847,
                -3.11674234597197
            ]
        },
        {
            "positions": [
                -2.8400224025359364,
                -0.8101921721042418,
                1.249687422047208,
                -0.411254523974454,
                1.0929453677636523,
                -3.1249144912965487
            ]
        },
        {
            "positions": [
                -2.8144285994779525,
                -0.7774182526405888,
                1.1490657149019055,
                -0.34160187497319944,
                0.9626557923488346,
                -3.133086636621127
            ]
        },
        {
            "positions": [
                -2.7888347964199682,
                -0.7446443331769359,
                1.0484440077566028,
                -0.2719492259719448,
                0.8323662169340169,
                -3.141258781945705
            ]
        },
        {
            "positions": [
                -2.763240993361984,
                -0.7118704137132829,
                0.9478223006113002,
                -0.20229657697069015,
                0.702076641519199,
                -3.1494309272702834
            ]
        },
        {
            "positions": [
                -2.7376471903039996,
                -0.6790964942496298,
                0.8472005934659977,
                -0.13264392796943558,
                0.5717870661043813,
                -3.157603072594862
            ]
        },
        {
            "positions": [
                -2.7120533872460153,
                -0.6463225747859769,
                0.7465788863206952,
                -0.06299127896818099,
                0.4414974906895637,
                -3.1657752179194403
            ]
        }
    ]
}