{
    "goal": {
        "global_pose": {
            "orientation": {
                "w": 0.005598929693374612,
                "x": 0.007748599140229565,
                "y": 0.7110244013736278,
                "z": -0.7031023480610252
            },
            "position": {
                "x": -0.8858502320852131,
                "y": -0.7141253447532654,
                "z": 0.3711530566215515
            }
        },
        "name": "move_to_auspresseinheit_C"
    },
    "id": "RRT_move_to_auspresseinheit_C_8",
    "joint_names": [
        "shoulder_pan_joint",
        "shoulder_lift_joint",
        "elbow_joint",
        "wrist_1_joint",
        "wrist_2_joint",
        "wrist_3_joint"
    ],
    "metrics": {
        "cart_traj_len": 0.4927600319080275,
        "distance_elbow_joint": 0.9988568478836903,
        "distance_shoulder_lift_joint": 0.3242257696564895,
        "distance_shoulder_pan_joint": 0.255746164109774,
        "distance_wrist_1_joint": 0.6747534753015434,
        "distance_wrist_2_joint": 1.3159480317933778,
        "distance_wrist_3_joint": 0.05924552735009314,
        "smoothness": 0.0,
        "time": 0.036070513000000005,
        "traj_len": 1.9049345962775122,
        "weighted_distance": 2.395405681276154
    },
    "planner": "RRT",
    "start": {
        "state": {
            "elbow_joint": 1.7527959577737207,
            "shoulder_lift_joint": -0.9740617694225068,
            "shoulder_pan_joint": -2.967991417825858,
            "wrist_1_joint": -0.759517768980727,
            "wrist_2_joint": 1.7443932448377408,
            "wrist_3_joint": -3.0840537646736568
        }
    },
    "waypoints": [
        {
            "positions": [
                -2.967991417825858,
                -0.9740617694225068,
                1.7527959577737207,
                -0.759517768980727,
                1.7443932448377408,
                -3.0840537646736568
            ]
        },
        {
            "positions": [
                -2.9424168014148804,
                -0.9416391924568578,
                1.6529102729853515,
                -0.6920424214505726,
                1.6127984416584031,
                -3.089978317408666
            ]
        },
        {
            "positions": [
                -2.9168421850039032,
                -0.9092166154912089,
                1.5530245881969826,
                -0.6245670739204183,
                1.4812036384790652,
                -3.0959028701436755
            ]
        },
        {
            "positions": [
                -2.8912675685929257,
                -0.8767940385255599,
                1.4531389034086135,
                -0.5570917263902639,
                1.3496088352997275,
                -3.1018274228786846
            ]
        },
        {
            "positions": [
                -2.8656929521819485,
                -0.8443714615599109,
                1.3532532186202446,
                -0.4896163788601096,
                1.2180140321203896,
                -3.107751975613694
            ]
        },
        {
            "positions": [
                -2.840118335770971,
                -0.811948884594262,
                1.2533675338318755,
                -0.4221410313299553,
                1.086419228941052,
                -3.1136765283487033
            ]
        },
        {
            "positions": [
                -2.8145437193599934,
                -0.7795263076286131,
                1.1534818490435064,
                -0.35466568379980096,
                0.9548244257617141,
                -3.1196010810837125
            ]
        },
        {
            "positions": [
                -2.7889691029490162,
                -0.7471037306629641,
                1.0535961642551375,
                -0.28719033626964663,
                0.8232296225823764,
                -3.125525633818722
            ]
        },
        {
            "positions": [
                -2.7633944865380387,
                -0.7146811536973152,
                0.9537104794667683,
                -0.21971498873949225,
                0.6916348194030386,
                -3.131450186553731
            ]
        },
        {
            "positions": [
                -2.7378198701270615,
                -0.6822585767316662,
                0.8538247946783993,
                -0.15223964120933786,
                0.5600400162237007,
                -3.1373747392887408
            ]
        },
        {
            "positions": [
                -2.712245253716084,
                -0.6498359997660172,
                0.7539391098900303,
                -0.08476429367918364,
                0.4284452130443631,
                -3.14329929202375
            ]
        }
    ]
}