{
    "goal": {
        "global_pose": {
            "orientation": {
                "w": -0.4816463035849501,
                "x": 0.5182115481033762,
                "y": 0.4908360881923453,
                "z": -0.5084816262002911
            },
            "position": {
                "x": -0.8240239810943604,
                "y": -0.300875300988555,
                "z": 0.16403168439865112
            }
        },
        "name": "move_to_storage_C"
    },
    "id": "RRT_move_to_storage_C_21",
    "joint_names": [
        "shoulder_pan_joint",
        "shoulder_lift_joint",
        "elbow_joint",
        "wrist_1_joint",
        "wrist_2_joint",
        "wrist_3_joint"
    ],
    "metrics": {
        "cart_traj_len": 0.5771624873553909,
        "distance_elbow_joint": 0.25787975761687676,
        "distance_shoulder_lift_joint": 0.18831719518643264,
        "distance_shoulder_pan_joint": 0.4961550850316634,
        "distance_wrist_1_joint": 0.0804192694894591,
        "distance_wrist_2_joint": 1.0636697122652485,
        "distance_wrist_3_joint": 0.06476717113315988,
        "smoothness": 5.075305295617109e-16,
        "time": 0.015450802999999999,
        "traj_len": 1.4666997616154578,
        "weighted_distance": 1.850630031838851
    },
    "planner": "RRT",
    "start": {
        "state": {
            "elbow_joint": 2.010868314990456,
            "shoulder_lift_joint": -1.1634956873337592,
            "shoulder_pan_joint": -2.4736205022346125,
            "wrist_1_joint": -0.8367026794202681,
            "wrist_2_joint": 0.6746043897044499,
            "wrist_3_joint": -3.1496632123970403
        }
    },
    "waypoints": [
        {
            "positions": [
                -2.4736205022346125,
                -1.1634956873337592,
                2.010868314990456,
                -0.8367026794202681,
                0.6746043897044499,
                -3.1496632123970403
            ]
        },
        {
            "positions": [
                -2.5563130164065564,
                -1.1321094881360203,
                1.967888355387643,
                -0.8232994678386916,
                0.8518826750819913,
                -3.138868683874847
            ]
        },
        {
            "positions": [
                -2.6390055305785003,
                -1.1007232889382816,
                1.9249083957848303,
                -0.809896256257115,
                1.0291609604595329,
                -3.1280741553526537
            ]
        },
        {
            "positions": [
                -2.721698044750444,
                -1.069337089740543,
                1.8819284361820174,
                -0.7964930446755385,
                1.2064392458370743,
                -3.1172796268304603
            ]
        },
        {
            "positions": [
                -2.804390558922388,
                -1.037950890542804,
                1.8389484765792046,
                -0.7830898330939621,
                1.3837175312146157,
                -3.106485098308267
            ]
        },
        {
            "positions": [
                -2.887083073094332,
                -1.0065646913450652,
                1.795968516976392,
                -0.7696866215123855,
                1.5609958165921571,
                -3.0956905697860737
            ]
        },
        {
            "positions": [
                -2.969775587266276,
                -0.9751784921473265,
                1.752988557373579,
                -0.756283409930809,
                1.7382741019696986,
                -3.0848960412638804
            ]
        }
    ]
}