{
    "goal": {
        "global_pose": {
            "orientation": {
                "w": 0.005598929693374612,
                "x": 0.007748599140229565,
                "y": 0.7110244013736278,
                "z": -0.7031023480610252
            },
            "position": {
                "x": 0.1141497679147869,
                "y": -0.7141253447532654,
                "z": 0.3711530566215515
            }
        },
        "name": "move_to_auspresseinheit_B"
    },
    "id": "RRT_move_to_auspresseinheit_B_59",
    "joint_names": [
        "shoulder_pan_joint",
        "shoulder_lift_joint",
        "elbow_joint",
        "wrist_1_joint",
        "wrist_2_joint",
        "wrist_3_joint"
    ],
    "metrics": {
        "cart_traj_len": 0.5650411135389817,
        "distance_elbow_joint": 0.063688197481504,
        "distance_shoulder_lift_joint": 0.2950752765328448,
        "distance_shoulder_pan_joint": 0.5783319296694687,
        "distance_wrist_1_joint": 0.3323750386293157,
        "distance_wrist_2_joint": 0.989584419179043,
        "distance_wrist_3_joint": 0.009232029335282999,
        "smoothness": 5.075305295617109e-16,
        "time": 0.017740959,
        "traj_len": 1.5060832947840102,
        "weighted_distance": 1.8996606031884706
    },
    "planner": "RRT",
    "start": {
        "state": {
            "elbow_joint": 2.0193083361928714,
            "shoulder_lift_joint": -1.1220246554650708,
            "shoulder_pan_joint": -1.0952077554168747,
            "wrist_1_joint": -0.8559753972642168,
            "wrist_2_joint": 0.4759566250798843,
            "wrist_3_joint": -3.1240929996934557
        }
    },
    "waypoints": [
        {
            "positions": [
                -1.0952077554168747,
                -1.1220246554650708,
                2.0193083361928714,
                -0.8559753972642168,
                0.4759566250798843,
                -3.1240929996934557
            ]
        },
        {
            "positions": [
                -1.191596410361786,
                -1.171203868220545,
                2.008693636612621,
                -0.8005795574926642,
                0.6408873616097248,
                -3.122554328137575
            ]
        },
        {
            "positions": [
                -1.2879850653066975,
                -1.220383080976019,
                1.9980789370323702,
                -0.7451837177211116,
                0.8058180981395653,
                -3.1210156565816947
            ]
        },
        {
            "positions": [
                -1.384373720251609,
                -1.2695622937314932,
                1.9874642374521194,
                -0.689787877949559,
                0.9707488346694058,
                -3.1194769850258144
            ]
        },
        {
            "positions": [
                -1.4807623751965204,
                -1.3187415064869674,
                1.9768495378718687,
                -0.6343920381780064,
                1.1356795711992462,
                -3.1179383134699337
            ]
        },
        {
            "positions": [
                -1.5771510301414318,
                -1.3679207192424414,
                1.9662348382916182,
                -0.5789961984064537,
                1.300610307729087,
                -3.116399641914053
            ]
        },
        {
            "positions": [
                -1.6735396850863433,
                -1.4170999319979156,
                1.9556201387113674,
                -0.5236003586349011,
                1.4655410442589274,
                -3.1148609703581727
            ]
        }
    ]
}