{
    "goal": {
        "global_pose": {
            "orientation": {
                "w": 0.005598929693374612,
                "x": 0.007748599140229565,
                "y": 0.7110244013736278,
                "z": -0.7031023480610252
            },
            "position": {
                "x": 0.1141497679147869,
                "y": -0.7141253447532654,
                "z": 0.3711530566215515
            }
        },
        "name": "move_to_auspresseinheit_B"
    },
    "id": "RRT_move_to_auspresseinheit_B_92",
    "joint_names": [
        "shoulder_pan_joint",
        "shoulder_lift_joint",
        "elbow_joint",
        "wrist_1_joint",
        "wrist_2_joint",
        "wrist_3_joint"
    ],
    "metrics": {
        "cart_traj_len": 0.5645537701363905,
        "distance_elbow_joint": 0.05977584728852592,
        "distance_shoulder_lift_joint": 0.29606374759490106,
        "distance_shoulder_pan_joint": 0.575430826933832,
        "distance_wrist_1_joint": 0.31951866812304386,
        "distance_wrist_2_joint": 1.0045951017058088,
        "distance_wrist_3_joint": 0.00437357192655341,
        "smoothness": 0.0,
        "time": 0.014714561000000001,
        "traj_len": 1.5032490690410105,
        "weighted_distance": 1.8954204486748119
    },
    "planner": "RRT",
    "start": {
        "state": {
            "elbow_joint": 2.0193083361928714,
            "shoulder_lift_joint": -1.1220246554650708,
            "shoulder_pan_joint": -1.0952077554168747,
            "wrist_1_joint": -0.8559753972642168,
            "wrist_2_joint": 0.4759566250798843,
            "wrist_3_joint": -3.1240929996934557
        }
    },
    "waypoints": [
        {
            "positions": [
                -1.0952077554168747,
                -1.1220246554650708,
                2.0193083361928714,
                -0.8559753972642168,
                0.4759566250798843,
                -3.1240929996934557
            ]
        },
        {
            "positions": [
                -1.19111289323918,
                -1.1713686133975543,
                2.009345694978117,
                -0.8027222859103762,
                0.6433891420308524,
                -3.1233640710390302
            ]
        },
        {
            "positions": [
                -1.2870180310614854,
                -1.2207125713300377,
                1.9993830537633628,
                -0.7494691745565355,
                0.8108216589818205,
                -3.1226351423846044
            ]
        },
        {
            "positions": [
                -1.3829231688837906,
                -1.2700565292625212,
                1.9894204125486086,
                -0.6962160632026948,
                0.9782541759327887,
                -3.121906213730179
            ]
        },
        {
            "positions": [
                -1.4788283067060959,
                -1.319400487195005,
                1.9794577713338541,
                -0.6429629518488542,
                1.1456866928837568,
                -3.1211772850757535
            ]
        },
        {
            "positions": [
                -1.5747334445284014,
                -1.3687444451274884,
                1.9694951301190997,
                -0.5897098404950136,
                1.313119209834725,
                -3.1204483564213277
            ]
        },
        {
            "positions": [
                -1.6706385823507066,
                -1.4180884030599719,
                1.9595324889043455,
                -0.5364567291411729,
                1.4805517267856931,
                -3.1197194277669023
            ]
        }
    ]
}