{
    "goal": {
        "global_pose": {
            "orientation": {
                "w": 0.005598929693374612,
                "x": 0.007748599140229565,
                "y": 0.7110244013736278,
                "z": -0.7031023480610252
            },
            "position": {
                "x": -0.8858502320852131,
                "y": -0.7141253447532654,
                "z": 0.3711530566215515
            }
        },
        "name": "move_to_auspresseinheit_C"
    },
    "id": "RRT_move_to_auspresseinheit_C_116",
    "joint_names": [
        "shoulder_pan_joint",
        "shoulder_lift_joint",
        "elbow_joint",
        "wrist_1_joint",
        "wrist_2_joint",
        "wrist_3_joint"
    ],
    "metrics": {
        "cart_traj_len": 0.4943288827032112,
        "distance_elbow_joint": 1.0141219230023766,
        "distance_shoulder_lift_joint": 0.33092702801592844,
        "distance_shoulder_pan_joint": 0.2558300530152535,
        "distance_wrist_1_joint": 0.7016640204818884,
        "distance_wrist_2_joint": 1.3211723228667471,
        "distance_wrist_3_joint": 0.07786187358576413,
        "smoothness": 1.534126355493537e-15,
        "time": 0.046944573999999996,
        "traj_len": 1.9239483415538885,
        "weighted_distance": 2.4248994435827895
    },
    "planner": "RRT",
    "start": {
        "state": {
            "elbow_joint": 1.7527959577737207,
            "shoulder_lift_joint": -0.9740617694225068,
            "shoulder_pan_joint": -2.967991417825858,
            "wrist_1_joint": -0.759517768980727,
            "wrist_2_joint": 1.7443932448377408,
            "wrist_3_joint": -3.0840537646736568
        }
    },
    "waypoints": [
        {
            "positions": [
                -2.967991417825858,
                -0.9740617694225068,
                1.7527959577737207,
                -0.759517768980727,
                1.7443932448377408,
                -3.0840537646736568
            ]
        },
        {
            "positions": [
                -2.9424084125243324,
                -0.940969066620914,
                1.651383765473483,
                -0.6893513669325382,
                1.612276012551066,
                -3.0918399520322333
            ]
        },
        {
            "positions": [
                -2.9168254072228073,
                -0.9078763638193211,
                1.5499715731732453,
                -0.6191849648843493,
                1.4801587802643914,
                -3.0996261393908098
            ]
        },
        {
            "positions": [
                -2.891242401921282,
                -0.8747836610177282,
                1.4485593808730077,
                -0.5490185628361605,
                1.3480415479777168,
                -3.107412326749386
            ]
        },
        {
            "positions": [
                -2.8656593966197565,
                -0.8416909582161354,
                1.34714718857277,
                -0.4788521607879716,
                1.215924315691042,
                -3.1151985141079623
            ]
        },
        {
            "positions": [
                -2.840076391318231,
                -0.8085982554145426,
                1.2457349962725324,
                -0.4086857587397828,
                1.0838070834043672,
                -3.122984701466539
            ]
        },
        {
            "positions": [
                -2.814493386016706,
                -0.7755055526129497,
                1.1443228039722948,
                -0.338519356691594,
                0.9516898511176926,
                -3.1307708888251153
            ]
        },
        {
            "positions": [
                -2.7889103807151807,
                -0.7424128498113569,
                1.042910611672057,
                -0.26835295464340514,
                0.819572618831018,
                -3.138557076183692
            ]
        },
        {
            "positions": [
                -2.763327375413655,
                -0.7093201470097641,
                0.9414984193718193,
                -0.19818655259521623,
                0.6874553865443431,
                -3.146343263542268
            ]
        },
        {
            "positions": [
                -2.7377443701121296,
                -0.6762274442081712,
                0.8400862270715818,
                -0.12802015054702742,
                0.5553381542576683,
                -3.1541294509008444
            ]
        },
        {
            "positions": [
                -2.7121613648106044,
                -0.6431347414065783,
                0.7386740347713441,
                -0.05785374849883859,
                0.42322092197099365,
                -3.161915638259421
            ]
        }
    ]
}