{
    "goal": {
        "global_pose": {
            "orientation": {
                "w": 0.7031023480610252,
                "x": -0.7110244013736278,
                "y": 0.0077485991402295624,
                "z": 0.005598929693374583
            },
            "position": {
                "x": -0.8841497679147869,
                "y": 0.44412534475326537,
                "z": 0.3711530566215515
            }
        },
        "name": "move_to_auspresseinheit_D"
    },
    "id": "RRT_move_to_auspresseinheit_D_116",
    "joint_names": [
        "shoulder_pan_joint",
        "shoulder_lift_joint",
        "elbow_joint",
        "wrist_1_joint",
        "wrist_2_joint",
        "wrist_3_joint"
    ],
    "metrics": {
        "cart_traj_len": 0.34370322846198,
        "distance_elbow_joint": 0.6519344859986389,
        "distance_shoulder_lift_joint": 0.12983750752950796,
        "distance_shoulder_pan_joint": 0.13420771045908295,
        "distance_wrist_1_joint": 0.5659451744842632,
        "distance_wrist_2_joint": 1.4465713247537506,
        "distance_wrist_3_joint": 0.019298256258136526,
        "smoothness": 0.0,
        "time": 0.014255178,
        "traj_len": 1.7169142260122898,
        "weighted_distance": 2.235823667295269
    },
    "planner": "RRT",
    "start": {
        "state": {
            "elbow_joint": -1.8275523626775212,
            "shoulder_lift_joint": -2.126789852344167,
            "shoulder_pan_joint": -0.03513704404078235,
            "wrist_1_joint": -2.347782403156801,
            "wrist_2_joint": -1.6058999987535132,
            "wrist_3_joint": -3.0880379163319196
        }
    },
    "waypoints": [
        {
            "positions": [
                -0.03513704404078235,
                -2.126789852344167,
                -1.8275523626775212,
                -2.347782403156801,
                -1.6058999987535132,
                -3.0880379163319196
            ]
        },
        {
            "positions": [
                -0.051913007848167714,
                -2.1430195407853554,
                -1.7460605519276913,
                -2.4185255499673337,
                -1.4250785831592943,
                -3.0856256342996526
            ]
        },
        {
            "positions": [
                -0.06868897165555309,
                -2.159249229226544,
                -1.6645687411778614,
                -2.4892686967778666,
                -1.2442571675650755,
                -3.0832133522673857
            ]
        },
        {
            "positions": [
                -0.08546493546293846,
                -2.1754789176677325,
                -1.5830769304280317,
                -2.5600118435883994,
                -1.0634357519708568,
                -3.0808010702351183
            ]
        },
        {
            "positions": [
                -0.10224089927032382,
                -2.1917086061089206,
                -1.5015851196782017,
                -2.6307549903989322,
                -0.8826143363766379,
                -3.0783887882028513
            ]
        },
        {
            "positions": [
                -0.1190168630777092,
                -2.207938294550109,
                -1.4200933089283718,
                -2.7014981372094655,
                -0.7017929207824191,
                -3.0759765061705844
            ]
        },
        {
            "positions": [
                -0.13579282688509456,
                -2.2241679829912977,
                -1.3386014981785421,
                -2.7722412840199984,
                -0.5209715051882002,
                -3.073564224138317
            ]
        },
        {
            "positions": [
                -0.15256879069247992,
                -2.2403976714324862,
                -1.2571096874287122,
                -2.842984430830531,
                -0.3401500895939815,
                -3.07115194210605
            ]
        },
        {
            "positions": [
                -0.1693447544998653,
                -2.256627359873675,
                -1.1756178766788823,
                -2.913727577641064,
                -0.15932867399976264,
                -3.068739660073783
            ]
        }
    ]
}