{
    "goal": {
        "global_pose": {
            "orientation": {
                "w": 0.7047431468963623,
                "x": -0.7094548344612122,
                "y": 0.0024358443915843964,
                "z": -0.0022348060738295317
            },
            "position": {
                "x": 0.6094750761985779,
                "y": 0.3671506643295288,
                "z": 0.19426114857196808
            }
        },
        "name": "move_to_magneteinheit_A"
    },
    "id": "RRT_move_to_magneteinheit_A_124",
    "joint_names": [
        "shoulder_pan_joint",
        "shoulder_lift_joint",
        "elbow_joint",
        "wrist_1_joint",
        "wrist_2_joint",
        "wrist_3_joint"
    ],
    "metrics": {
        "cart_traj_len": 3.244112170860738,
        "distance_elbow_joint": 3.9572842473463474,
        "distance_shoulder_lift_joint": 0.9434206806598051,
        "distance_shoulder_pan_joint": 2.8772638637840227,
        "distance_wrist_1_joint": 0.7517637567834278,
        "distance_wrist_2_joint": 1.9864109279949802,
        "distance_wrist_3_joint": 3.6031302308577975,
        "smoothness": 0.15892158531508782,
        "time": 0.052921278,
        "traj_len": 3.757562202735489,
        "weighted_distance": 4.905477433840703
    },
    "planner": "RRT",
    "start": {
        "state": {
            "elbow_joint": -1.9196185241190666,
            "shoulder_lift_joint": -1.2443396400964142,
            "shoulder_pan_joint": 2.6996025414629847,
            "wrist_1_joint": -1.5485510000780065,
            "wrist_2_joint": -1.5709468930060704,
            "wrist_3_joint": 0.4420197071253992
        }
    },
    "waypoints": [
        {
            "positions": [
                2.6996025414629847,
                -1.2443396400964142,
                -1.9196185241190666,
                -1.5485510000780065,
                -1.5709468930060704,
                0.4420197071253992
            ]
        },
        {
            "positions": [
                2.602206635037121,
                -1.259361092611742,
                -1.8085034971465292,
                -1.5219222853058412,
                -1.5125403245482463,
                0.36302556602517466
            ]
        },
        {
            "positions": [
                2.504810728611257,
                -1.2743825451270698,
                -1.6973884701739916,
                -1.4952935705336756,
                -1.4541337560904222,
                0.2840314249249501
            ]
        },
        {
            "positions": [
                2.4074148221853937,
                -1.2894039976423977,
                -1.586273443201454,
                -1.4686648557615103,
                -1.395727187632598,
                0.20503728382472555
            ]
        },
        {
            "positions": [
                2.31001891575953,
                -1.3044254501577255,
                -1.4751584162289166,
                -1.4420361409893447,
                -1.337320619174774,
                0.126043142724501
            ]
        },
        {
            "positions": [
                2.212623009333666,
                -1.3194469026730533,
                -1.3640433892563792,
                -1.4154074262171794,
                -1.2789140507169499,
                0.04704900162427644
            ]
        },
        {
            "positions": [
                2.1152271029078022,
                -1.3344683551883811,
                -1.2529283622838416,
                -1.3887787114450139,
                -1.2205074822591258,
                -0.03194513947594807
            ]
        },
        {
            "positions": [
                2.0178311964819384,
                -1.349489807703709,
                -1.141813335311304,
                -1.3621499966728485,
                -1.1621009138013016,
                -0.11093928057617264
            ]
        },
        {
            "positions": [
                1.920435290056075,
                -1.364511260219037,
                -1.0306983083387666,
                -1.3355212819006832,
                -1.1036943453434778,
                -0.18993342167639715
            ]
        },
        {
            "positions": [
                1.8230393836302112,
                -1.3795327127343648,
                -0.919583281366229,
                -1.3088925671285176,
                -1.0452877768856534,
                -0.2689275627766218
            ]
        },
        {
            "positions": [
                1.7256434772043474,
                -1.3945541652496927,
                -0.8084682543936916,
                -1.2822638523563523,
                -0.9868812084278294,
                -0.3479217038768463
            ]
        },
        {
            "positions": [
                1.6282475707784838,
                -1.4095756177650205,
                -0.6973532274211542,
                -1.2556351375841868,
                -0.9284746399700053,
                -0.4269158449770708
            ]
        },
        {
            "positions": [
                1.53085166435262,
                -1.4245970702803483,
                -0.5862382004486166,
                -1.2290064228120214,
                -0.8700680715121812,
                -0.5059099860772953
            ]
        },
        {
            "positions": [
                1.4334557579267562,
                -1.4396185227956761,
                -0.475123173476079,
                -1.2023777080398559,
                -0.8116615030543571,
                -0.58490412717752
            ]
        },
        {
            "positions": [
                1.3360598515008926,
                -1.454639975311004,
                -0.36400814650354163,
                -1.1757489932676906,
                -0.753254934596533,
                -0.6638982682777445
            ]
        },
        {
            "positions": [
                1.238663945075029,
                -1.4696614278263318,
                -0.25289311953100424,
                -1.1491202784955252,
                -0.6948483661387089,
                -0.7428924093779689
            ]
        },
        {
            "positions": [
                1.1412680386491652,
                -1.4846828803416596,
                -0.14177809255846663,
                -1.1224915637233597,
                -0.6364417976808849,
                -0.8218865504781935
            ]
        },
        {
            "positions": [
                1.0438721322233016,
                -1.4997043328569875,
                -0.03066306558592924,
                -1.0958628489511943,
                -0.5780352292230608,
                -0.9008806915784179
            ]
        },
        {
            "positions": [
                0.9464762257974375,
                -1.5147257853723155,
                0.0804519613866086,
                -1.0692341341790288,
                -0.5196286607652365,
                -0.9798748326786427
            ]
        },
        {
            "positions": [
                0.8490803193715739,
                -1.5297472378876433,
                0.19156698835914598,
                -1.0426054194068635,
                -0.4612220923074124,
                -1.0588689737788672
            ]
        },
        {
            "positions": [
                0.7516844129457101,
                -1.5447686904029712,
                0.3026820153316834,
                -1.015976704634698,
                -0.4028155238495885,
                -1.1378631148790919
            ]
        },
        {
            "positions": [
                0.6542885065198463,
                -1.559790142918299,
                0.41379704230422076,
                -0.9893479898625326,
                -0.3444089553917644,
                -1.216857255979316
            ]
        },
        {
            "positions": [
                0.5568926000939829,
                -1.5748115954336268,
                0.5249120692767582,
                -0.9627192750903671,
                -0.2860023869339403,
                -1.2958513970795407
            ]
        },
        {
            "positions": [
                0.45949669366811907,
                -1.5898330479489546,
                0.636027096249296,
                -0.9360905603182017,
                -0.2275958184761162,
                -1.3748455381797653
            ]
        },
        {
            "positions": [
                0.36210078724225525,
                -1.6048545004642825,
                0.7471421232218334,
                -0.9094618455460364,
                -0.1691892500182921,
                -1.45383967927999
            ]
        },
        {
            "positions": [
                0.26470488081639143,
                -1.6198759529796103,
                0.8582571501943712,
                -0.8828331307738708,
                -0.110782681560468,
                -1.5328338203802145
            ]
        },
        {
            "positions": [
                0.1673089743905276,
                -1.6348974054949381,
                0.9693721771669086,
                -0.8562044160017055,
                -0.052376113102643895,
                -1.6118279614804392
            ]
        },
        {
            "positions": [
                0.06991306796466423,
                -1.649918858010266,
                1.080487204139446,
                -0.82957570122954,
                0.006030455355180209,
                -1.6908221025806633
            ]
        },
        {
            "positions": [
                -0.027482838461199484,
                -1.6649403105255938,
                1.1916022311119834,
                -0.8029469864573746,
                0.06443702381300434,
                -1.769816243680888
            ]
        },
        {
            "positions": [
                -0.02213475972607177,
                -1.6259894217735271,
                1.308107132148729,
                -0.8037370640786443,
                0.09410633494782926,
                -1.9533241420085339
            ]
        },
        {
            "positions": [
                -0.016786680990944054,
                -1.5870385330214607,
                1.4246120331854746,
                -0.804527141699914,
                0.12377564608265418,
                -2.13683204033618
            ]
        },
        {
            "positions": [
                -0.011438602255816336,
                -1.548087644269394,
                1.5411169342222202,
                -0.8053172193211837,
                0.1534449572174791,
                -2.3203399386638255
            ]
        },
        {
            "positions": [
                -0.006090523520688621,
                -1.5091367555173276,
                1.6576218352589658,
                -0.8061072969424535,
                0.18311426835230404,
                -2.503847836991471
            ]
        },
        {
            "positions": [
                -0.0007424447855609029,
                -1.470185866765261,
                1.7741267362957114,
                -0.8068973745637232,
                0.21278357948712898,
                -2.6873557353191173
            ]
        },
        {
            "positions": [
                0.004605633949566812,
                -1.4312349780131945,
                1.890631637332457,
                -0.8076874521849929,
                0.24245289062195388,
                -2.8708636336467634
            ]
        },
        {
            "positions": [
                0.009953712684694527,
                -1.392284089261128,
                2.0071365383692026,
                -0.8084775298062626,
                0.2721222017567788,
                -3.054371531974409
            ]
        },
        {
            "positions": [
                0.06632467904166614,
                -1.267202194778048,
                1.9918719459401633,
                -0.8087921297132166,
                0.20045128514071342,
                -3.107741027853404
            ]
        },
        {
            "positions": [
                0.12269564539863775,
                -1.1421203002949682,
                1.9766073535111242,
                -0.8091067296201705,
                0.12878036852464805,
                -3.161110523732398
            ]
        }
    ]
}