{
    "goal": {
        "global_pose": {
            "orientation": {
                "w": 0.7031023480610252,
                "x": -0.7110244013736278,
                "y": 0.0077485991402295624,
                "z": 0.005598929693374583
            },
            "position": {
                "x": -0.8841497679147869,
                "y": 0.44412534475326537,
                "z": 0.3711530566215515
            }
        },
        "name": "move_to_auspresseinheit_D"
    },
    "id": "RRT_move_to_auspresseinheit_D_43",
    "joint_names": [
        "shoulder_pan_joint",
        "shoulder_lift_joint",
        "elbow_joint",
        "wrist_1_joint",
        "wrist_2_joint",
        "wrist_3_joint"
    ],
    "metrics": {
        "cart_traj_len": 0.34228099932493555,
        "distance_elbow_joint": 0.6319067630892237,
        "distance_shoulder_lift_joint": 0.1182571760002058,
        "distance_shoulder_pan_joint": 0.13327950667762126,
        "distance_wrist_1_joint": 0.5073042832180104,
        "distance_wrist_2_joint": 1.4459381427296385,
        "distance_wrist_3_joint": 0.01753113546531404,
        "smoothness": 1.381610878086344e-15,
        "time": 0.015801299,
        "traj_len": 1.6894428096801661,
        "weighted_distance": 2.2005730399280754
    },
    "planner": "RRT",
    "start": {
        "state": {
            "elbow_joint": -1.8275523626775212,
            "shoulder_lift_joint": -2.126789852344167,
            "shoulder_pan_joint": -0.03513704404078235,
            "wrist_1_joint": -2.347782403156801,
            "wrist_2_joint": -1.6058999987535132,
            "wrist_3_joint": -3.0880379163319196
        }
    },
    "waypoints": [
        {
            "positions": [
                -0.03513704404078235,
                -2.126789852344167,
                -1.8275523626775212,
                -2.347782403156801,
                -1.6058999987535132,
                -3.0880379163319196
            ]
        },
        {
            "positions": [
                -0.05179698237548501,
                -2.1415719993441926,
                -1.7485640172913683,
                -2.4111954385590524,
                -1.4251577309123085,
                -3.090229308265084
            ]
        },
        {
            "positions": [
                -0.06845692071018766,
                -2.1563541463442184,
                -1.6695756719052153,
                -2.4746084739613035,
                -1.2444154630711035,
                -3.092420700198248
            ]
        },
        {
            "positions": [
                -0.08511685904489033,
                -2.171136293344244,
                -1.5905873265190622,
                -2.5380215093635545,
                -1.0636731952298988,
                -3.0946120921314124
            ]
        },
        {
            "positions": [
                -0.10177679737959297,
                -2.1859184403442695,
                -1.5115989811329094,
                -2.601434544765806,
                -0.8829309273886939,
                -3.0968034840645764
            ]
        },
        {
            "positions": [
                -0.11843673571429564,
                -2.2007005873442953,
                -1.4326106357467565,
                -2.6648475801680576,
                -0.7021886595474891,
                -3.098994875997741
            ]
        },
        {
            "positions": [
                -0.1350966740489983,
                -2.215482734344321,
                -1.3536222903606034,
                -2.7282606155703086,
                -0.5214463917062844,
                -3.1011862679309052
            ]
        },
        {
            "positions": [
                -0.15175661238370095,
                -2.230264881344347,
                -1.2746339449744504,
                -2.7916736509725597,
                -0.3407041238650794,
                -3.103377659864069
            ]
        },
        {
            "positions": [
                -0.1684165507184036,
                -2.2450470283443726,
                -1.1956455995882975,
                -2.8550866863748112,
                -0.1599618560238746,
                -3.1055690517972336
            ]
        }
    ]
}