{
    "goal": {
        "global_pose": {
            "orientation": {
                "w": 0.005598929693374612,
                "x": 0.007748599140229565,
                "y": 0.7110244013736278,
                "z": -0.7031023480610252
            },
            "position": {
                "x": -0.8858502320852131,
                "y": -0.7141253447532654,
                "z": 0.3711530566215515
            }
        },
        "name": "move_to_auspresseinheit_C"
    },
    "id": "RRT_move_to_auspresseinheit_C_82",
    "joint_names": [
        "shoulder_pan_joint",
        "shoulder_lift_joint",
        "elbow_joint",
        "wrist_1_joint",
        "wrist_2_joint",
        "wrist_3_joint"
    ],
    "metrics": {
        "cart_traj_len": 0.49307994291060603,
        "distance_elbow_joint": 1.0021841280602355,
        "distance_shoulder_lift_joint": 0.32519365535077227,
        "distance_shoulder_pan_joint": 0.25643163083419607,
        "distance_wrist_1_joint": 0.6903557135664586,
        "distance_wrist_2_joint": 1.304311538558054,
        "distance_wrist_3_joint": 0.07119995787449351,
        "smoothness": 3.2297397335745243e-16,
        "time": 0.014125529,
        "traj_len": 1.910412684276413,
        "weighted_distance": 2.4055651710393775
    },
    "planner": "RRT",
    "start": {
        "state": {
            "elbow_joint": 1.7527959577737207,
            "shoulder_lift_joint": -0.9740617694225068,
            "shoulder_pan_joint": -2.967991417825858,
            "wrist_1_joint": -0.759517768980727,
            "wrist_2_joint": 1.7443932448377408,
            "wrist_3_joint": -3.0840537646736568
        }
    },
    "waypoints": [
        {
            "positions": [
                -2.967991417825858,
                -0.9740617694225068,
                1.7527959577737207,
                -0.759517768980727,
                1.7443932448377408,
                -3.0840537646736568
            ]
        },
        {
            "positions": [
                -2.942348254742438,
                -0.9415424038874296,
                1.6525775449676972,
                -0.6904821976240811,
                1.6139620909819354,
                -3.091173760461106
            ]
        },
        {
            "positions": [
                -2.916705091659019,
                -0.9090230383523523,
                1.5523591321616736,
                -0.6214466262674352,
                1.48353093712613,
                -3.0982937562485553
            ]
        },
        {
            "positions": [
                -2.891061928575599,
                -0.876503672817275,
                1.4521407193556501,
                -0.5524110549107895,
                1.3530997832703247,
                -3.105413752036005
            ]
        },
        {
            "positions": [
                -2.8654187654921794,
                -0.8439843072821979,
                1.3519223065496264,
                -0.4833754835541435,
                1.2226686294145193,
                -3.1125337478234543
            ]
        },
        {
            "positions": [
                -2.8397756024087597,
                -0.8114649417471207,
                1.251703893743603,
                -0.41433991219749766,
                1.0922374755587139,
                -3.1196537436109035
            ]
        },
        {
            "positions": [
                -2.8141324393253404,
                -0.7789455762120434,
                1.1514854809375794,
                -0.3453043408408518,
                0.9618063217029085,
                -3.126773739398353
            ]
        },
        {
            "positions": [
                -2.7884892762419207,
                -0.7464262106769662,
                1.051267068131556,
                -0.276268769484206,
                0.8313751678471032,
                -3.133893735185802
            ]
        },
        {
            "positions": [
                -2.762846113158501,
                -0.713906845141889,
                0.9510486553255322,
                -0.20723319812756003,
                0.7009440139912977,
                -3.1410137309732518
            ]
        },
        {
            "positions": [
                -2.7372029500750816,
                -0.6813874796068118,
                0.8508302425195087,
                -0.13819762677091418,
                0.5705128601354923,
                -3.148133726760701
            ]
        },
        {
            "positions": [
                -2.711559786991662,
                -0.6488681140717345,
                0.7506118297134853,
                -0.06916205541426831,
                0.4400817062796868,
                -3.1552537225481503
            ]
        }
    ]
}