{
    "goal": {
        "global_pose": {
            "orientation": {
                "w": -0.4816463035849501,
                "x": 0.5182115481033762,
                "y": 0.4908360881923453,
                "z": -0.5084816262002911
            },
            "position": {
                "x": -0.8240239810943604,
                "y": -0.300875300988555,
                "z": 0.16403168439865112
            }
        },
        "name": "move_to_storage_C"
    },
    "id": "RRT_move_to_storage_C_127",
    "joint_names": [
        "shoulder_pan_joint",
        "shoulder_lift_joint",
        "elbow_joint",
        "wrist_1_joint",
        "wrist_2_joint",
        "wrist_3_joint"
    ],
    "metrics": {
        "cart_traj_len": 0.5759971778675466,
        "distance_elbow_joint": 0.258591134912024,
        "distance_shoulder_lift_joint": 0.18923047776783708,
        "distance_shoulder_pan_joint": 0.4934714789113399,
        "distance_wrist_1_joint": 0.08156748856114104,
        "distance_wrist_2_joint": 1.0722583482582189,
        "distance_wrist_3_joint": 0.07266330422004597,
        "smoothness": 0.0,
        "time": 0.012617024000000001,
        "traj_len": 1.472339034540145,
        "weighted_distance": 1.861970643670318
    },
    "planner": "RRT",
    "start": {
        "state": {
            "elbow_joint": 2.010868314990456,
            "shoulder_lift_joint": -1.1634956873337592,
            "shoulder_pan_joint": -2.4736205022346125,
            "wrist_1_joint": -0.8367026794202681,
            "wrist_2_joint": 0.6746043897044499,
            "wrist_3_joint": -3.1496632123970403
        }
    },
    "waypoints": [
        {
            "positions": [
                -2.4736205022346125,
                -1.1634956873337592,
                2.010868314990456,
                -0.8367026794202681,
                0.6746043897044499,
                -3.1496632123970403
            ]
        },
        {
            "positions": [
                -2.5558657487198357,
                -1.131957274372453,
                1.9677697925051185,
                -0.8231080979934112,
                0.8533141144141531,
                -3.1375526616936993
            ]
        },
        {
            "positions": [
                -2.638110995205059,
                -1.1004188614111468,
                1.9246712700197812,
                -0.8095135165665545,
                1.0320238391238563,
                -3.1254421109903583
            ]
        },
        {
            "positions": [
                -2.7203562416902827,
                -1.0688804484498406,
                1.881572747534444,
                -0.7959189351396976,
                1.2107335638335592,
                -3.1133315602870173
            ]
        },
        {
            "positions": [
                -2.802601488175506,
                -1.0373420354885345,
                1.8384742250491064,
                -0.7823243537128407,
                1.3894432885432626,
                -3.1012210095836763
            ]
        },
        {
            "positions": [
                -2.884846734660729,
                -1.0058036225272282,
                1.795375702563769,
                -0.7687297722859839,
                1.5681530132529655,
                -3.0891104588803353
            ]
        },
        {
            "positions": [
                -2.9670919811459524,
                -0.9742652095659221,
                1.7522771800784318,
                -0.7551351908591271,
                1.7468627379626687,
                -3.0769999081769943
            ]
        }
    ]
}