{
    "goal": {
        "global_pose": {
            "orientation": {
                "w": 0.7031023502349854,
                "x": -0.7110244035720825,
                "y": 0.007748599164187908,
                "z": 0.005598929710686207
            },
            "position": {
                "x": 0.11585023208521307,
                "y": 0.44412534475326537,
                "z": 0.3711530566215515
            }
        },
        "name": "move_to_auspresseinheit_A"
    },
    "id": "RRT_move_to_auspresseinheit_A_18",
    "joint_names": [
        "shoulder_pan_joint",
        "shoulder_lift_joint",
        "elbow_joint",
        "wrist_1_joint",
        "wrist_2_joint",
        "wrist_3_joint"
    ],
    "metrics": {
        "cart_traj_len": 1.679517930013762,
        "distance_elbow_joint": 1.6255997288267898,
        "distance_shoulder_lift_joint": 0.7130792014585214,
        "distance_shoulder_pan_joint": 1.3094673365145848,
        "distance_wrist_1_joint": 1.079142718306968,
        "distance_wrist_2_joint": 2.783650138114954,
        "distance_wrist_3_joint": 1.0343821535059696,
        "smoothness": 0.5462219861722339,
        "time": 1.672848503,
        "traj_len": 2.9232381491640034,
        "weighted_distance": 3.8048493321236316
    },
    "planner": "RRT",
    "start": {
        "state": {
            "elbow_joint": 2.4225746658250005,
            "shoulder_lift_joint": -1.3736534386056498,
            "shoulder_pan_joint": -0.3378633547517467,
            "wrist_1_joint": -1.0288598680537169,
            "wrist_2_joint": 1.233022673432363,
            "wrist_3_joint": -3.0940220416140027
        }
    },
    "waypoints": [
        {
            "positions": [
                -0.3378633547517467,
                -1.3736534386056498,
                2.4225746658250005,
                -1.0288598680537169,
                1.233022673432363,
                -3.0940220416140027
            ]
        },
        {
            "positions": [
                -0.28793913154447737,
                -1.3956250722072934,
                2.323901837785429,
                -0.9541848281817261,
                1.1630601772265015,
                -3.033833606416203
            ]
        },
        {
            "positions": [
                -0.23801490833720795,
                -1.4175967058089367,
                2.2252290097458567,
                -0.8795097883097354,
                1.0930976810206396,
                -2.9736451712184033
            ]
        },
        {
            "positions": [
                -0.1880906851299386,
                -1.4395683394105803,
                2.1265561817062846,
                -0.8048347484377446,
                1.023135184814778,
                -2.9134567360206036
            ]
        },
        {
            "positions": [
                -0.1381664619226692,
                -1.4615399730122238,
                2.027883353666713,
                -0.7301597085657539,
                0.9531726886089165,
                -2.853268300822804
            ]
        },
        {
            "positions": [
                -0.08609794786153131,
                -1.4906188144447656,
                1.9560535025639367,
                -0.6674910087101864,
                0.8747801340883641,
                -2.809307017820088
            ]
        },
        {
            "positions": [
                -0.034029433800393416,
                -1.5196976558773077,
                1.8842236514611606,
                -0.6048223088546191,
                0.7963875795678118,
                -2.765345734817372
            ]
        },
        {
            "positions": [
                0.018039080260744494,
                -1.5487764973098495,
                1.8123938003583844,
                -0.5421536089990517,
                0.7179950250472594,
                -2.721384451814656
            ]
        },
        {
            "positions": [
                0.07010759432188238,
                -1.5778553387423913,
                1.7405639492556082,
                -0.4794849091434843,
                0.6396024705267072,
                -2.67742316881194
            ]
        },
        {
            "positions": [
                0.12217610838302032,
                -1.6069341801749333,
                1.668734098152832,
                -0.4168162092879169,
                0.5612099160061548,
                -2.633461885809224
            ]
        },
        {
            "positions": [
                0.1742446224441582,
                -1.636013021607475,
                1.5969042470500558,
                -0.3541475094323495,
                0.48281736148560245,
                -2.589500602806508
            ]
        },
        {
            "positions": [
                0.2655659898378171,
                -1.6956570461101397,
                1.6197273155438836,
                -0.3263904130753553,
                0.34371746352037336,
                -2.59886614294021
            ]
        },
        {
            "positions": [
                0.356887357231476,
                -1.7553010706128043,
                1.6425503840377114,
                -0.29863331671836113,
                0.20461756555514432,
                -2.6082316830739116
            ]
        },
        {
            "positions": [
                0.44820872462513495,
                -1.814945095115469,
                1.665373452531539,
                -0.27087622036136694,
                0.06551766758991528,
                -2.6175972232076137
            ]
        },
        {
            "positions": [
                0.5395300920187939,
                -1.8745891196181337,
                1.6881965210253667,
                -0.2431191240043727,
                -0.0735822303753138,
                -2.6269627633413153
            ]
        },
        {
            "positions": [
                0.6308514594124528,
                -1.9342331441207983,
                1.7110195895191944,
                -0.2153620276473785,
                -0.2126821283405429,
                -2.6363283034750173
            ]
        },
        {
            "positions": [
                0.6825506728455704,
                -1.950521204319437,
                1.8107980290518375,
                -0.2576624233338589,
                -0.26606942442515136,
                -2.6882188728029366
            ]
        },
        {
            "positions": [
                0.7342498862786878,
                -1.9668092645180757,
                1.9105764685844804,
                -0.2999628190203393,
                -0.31945672050975976,
                -2.740109442130856
            ]
        },
        {
            "positions": [
                0.7859490997118053,
                -1.9830973247167143,
                2.0103549081171237,
                -0.3422632147068197,
                -0.37284401659436817,
                -2.792000011458775
            ]
        },
        {
            "positions": [
                0.8376483131449228,
                -1.9993853849153531,
                2.1101333476497666,
                -0.3845636103933001,
                -0.4262313126789766,
                -2.8438905807866943
            ]
        },
        {
            "positions": [
                0.8186655468411916,
                -1.9840488177895383,
                2.175858182612499,
                -0.405002226419638,
                -0.2206621369093792,
                -2.906199332516908
            ]
        },
        {
            "positions": [
                0.7996827805374604,
                -1.9687122506637236,
                2.2415830175752323,
                -0.42544084244597596,
                -0.015092961139781758,
                -2.968508084247122
            ]
        },
        {
            "positions": [
                0.7807000142337291,
                -1.953375683537909,
                2.307307852537965,
                -0.4458794584723139,
                0.19047621462981568,
                -3.0308168359773364
            ]
        },
        {
            "positions": [
                0.761717247929998,
                -1.9380391164120943,
                2.3730326875006975,
                -0.4663180744986518,
                0.3960453903994131,
                -3.0931255877075503
            ]
        },
        {
            "positions": [
                0.7327049462285029,
                -1.9250386230893146,
                2.384933122301299,
                -0.47366249002332994,
                0.5471051148620247,
                -3.1062434526062663
            ]
        },
        {
            "positions": [
                0.7036926445270079,
                -1.912038129766535,
                2.396833557101901,
                -0.4810069055480081,
                0.6981648393246365,
                -3.119361317504983
            ]
        }
    ]
}