{
    "goal": {
        "global_pose": {
            "orientation": {
                "w": 0.005598929693374612,
                "x": 0.007748599140229565,
                "y": 0.7110244013736278,
                "z": -0.7031023480610252
            },
            "position": {
                "x": 0.1141497679147869,
                "y": -0.7141253447532654,
                "z": 0.3711530566215515
            }
        },
        "name": "move_to_auspresseinheit_B"
    },
    "id": "RRT_move_to_auspresseinheit_B_125",
    "joint_names": [
        "shoulder_pan_joint",
        "shoulder_lift_joint",
        "elbow_joint",
        "wrist_1_joint",
        "wrist_2_joint",
        "wrist_3_joint"
    ],
    "metrics": {
        "cart_traj_len": 0.5647499075617656,
        "distance_elbow_joint": 0.060775506498671916,
        "distance_shoulder_lift_joint": 0.2955148604967077,
        "distance_shoulder_pan_joint": 0.5786315610220671,
        "distance_wrist_1_joint": 0.3209015788992001,
        "distance_wrist_2_joint": 0.9858154584231948,
        "distance_wrist_3_joint": 0.0070590725099553,
        "smoothness": 2.5376526478085547e-16,
        "time": 0.014655904,
        "traj_len": 1.4995659498167453,
        "weighted_distance": 1.8893208356952247
    },
    "planner": "RRT",
    "start": {
        "state": {
            "elbow_joint": 2.0193083361928714,
            "shoulder_lift_joint": -1.1220246554650708,
            "shoulder_pan_joint": -1.0952077554168747,
            "wrist_1_joint": -0.8559753972642168,
            "wrist_2_joint": 0.4759566250798843,
            "wrist_3_joint": -3.1240929996934557
        }
    },
    "waypoints": [
        {
            "positions": [
                -1.0952077554168747,
                -1.1220246554650708,
                2.0193083361928714,
                -0.8559753972642168,
                0.4759566250798843,
                -3.1240929996934557
            ]
        },
        {
            "positions": [
                -1.1916463489205524,
                -1.1712771322145221,
                2.0091790851097593,
                -0.8024918007810168,
                0.64025920148375,
                -3.1252695117784484
            ]
        },
        {
            "positions": [
                -1.2880849424242304,
                -1.2205296089639734,
                1.9990498340266474,
                -0.7490082042978168,
                0.804561777887616,
                -3.1264460238634406
            ]
        },
        {
            "positions": [
                -1.3845235359279082,
                -1.2697820857134245,
                1.9889205829435355,
                -0.6955246078146167,
                0.9688643542914817,
                -3.1276225359484333
            ]
        },
        {
            "positions": [
                -1.480962129431586,
                -1.3190345624628759,
                1.9787913318604236,
                -0.6420410113314168,
                1.1331669306953476,
                -3.128799048033426
            ]
        },
        {
            "positions": [
                -1.577400722935264,
                -1.3682870392123272,
                1.9686620807773114,
                -0.5885574148482167,
                1.2974695070992133,
                -3.1299755601184183
            ]
        },
        {
            "positions": [
                -1.6738393164389418,
                -1.4175395159617785,
                1.9585328296941995,
                -0.5350738183650167,
                1.4617720835030792,
                -3.131152072203411
            ]
        }
    ]
}