{
    "goal": {
        "global_pose": {
            "orientation": {
                "w": 0.5084816217422485,
                "x": -0.49083608388900757,
                "y": 0.5182115435600281,
                "z": -0.4816462993621826
            },
            "position": {
                "x": 0.5540239810943604,
                "y": 0.030875300988554955,
                "z": 0.16403168439865112
            }
        },
        "name": "move_to_storage_A"
    },
    "id": "RRT_move_to_storage_A_83",
    "joint_names": [
        "shoulder_pan_joint",
        "shoulder_lift_joint",
        "elbow_joint",
        "wrist_1_joint",
        "wrist_2_joint",
        "wrist_3_joint"
    ],
    "metrics": {
        "cart_traj_len": 0.3529645170519957,
        "distance_elbow_joint": 0.45171722452052143,
        "distance_shoulder_lift_joint": 0.23533623600104647,
        "distance_shoulder_pan_joint": 0.4626156326475914,
        "distance_wrist_1_joint": 0.2492005904537743,
        "distance_wrist_2_joint": 1.094600331085502,
        "distance_wrist_3_joint": 0.10613324395307577,
        "smoothness": 2.2204460668324854e-16,
        "time": 0.01354583,
        "traj_len": 1.6123285206996467,
        "weighted_distance": 2.0385462143662427
    },
    "planner": "RRT",
    "start": {
        "state": {
            "elbow_joint": 1.971548259319323,
            "shoulder_lift_joint": -1.1394851275133948,
            "shoulder_pan_joint": 0.1228115487234821,
            "wrist_1_joint": -0.7804723859257726,
            "wrist_2_joint": 0.12958671773740124,
            "wrist_3_joint": -3.192489227718131
        }
    },
    "waypoints": [
        {
            "positions": [
                0.1228115487234821,
                -1.1394851275133948,
                1.971548259319323,
                -0.7804723859257726,
                0.12958671773740124,
                -3.192489227718131
            ]
        },
        {
            "positions": [
                0.05672360120239761,
                -1.1731045897992587,
                2.0360792913936834,
                -0.8160724702763118,
                0.28595819360675867,
                -3.1773273357248346
            ]
        },
        {
            "positions": [
                -0.009364346318686878,
                -1.2067240520851223,
                2.1006103234680435,
                -0.851672554626851,
                0.44232966947611607,
                -3.162165443731538
            ]
        },
        {
            "positions": [
                -0.07545229383977137,
                -1.2403435143709862,
                2.1651413555424037,
                -0.8872726389773902,
                0.5987011453454735,
                -3.1470035517382415
            ]
        },
        {
            "positions": [
                -0.14154024136085586,
                -1.2739629766568499,
                2.229672387616764,
                -0.9228727233279294,
                0.7550726212148309,
                -3.131841659744945
            ]
        },
        {
            "positions": [
                -0.20762818888194035,
                -1.3075824389427138,
                2.294203419691124,
                -0.9584728076784685,
                0.9114440970841884,
                -3.1166797677516485
            ]
        },
        {
            "positions": [
                -0.27371613640302483,
                -1.3412019012285774,
                2.3587344517654842,
                -0.9940728920290077,
                1.0678155729535457,
                -3.101517875758352
            ]
        },
        {
            "positions": [
                -0.3398040839241093,
                -1.3748213635144413,
                2.4232654838398444,
                -1.029672976379547,
                1.2241870488229032,
                -3.0863559837650554
            ]
        }
    ]
}{
    "goal": {
        "global_pose": {
            "orientation": {
                "w": 0.5084816217422485,
                "x": -0.49083608388900757,
                "y": 0.5182115435600281,
                "z": -0.4816462993621826
            },
            "position": {
                "x": 0.5540239810943604,
                "y": 0.030875300988554955,
                "z": 0.16403168439865112
            }
        },
        "name": "move_to_storage_A"
    },
    "id": "RRT_move_to_storage_A_83",
    "joint_names": [
        "shoulder_pan_joint",
        "shoulder_lift_joint",
        "elbow_joint",
        "wrist_1_joint",
        "wrist_2_joint",
        "wrist_3_joint"
    ],
    "metrics": {
        "cart_traj_len": 0.3541452792394166,
        "distance_elbow_joint": 0.4520007640620074,
        "distance_shoulder_lift_joint": 0.23365726486269067,
        "distance_shoulder_pan_joint": 0.4616672523755433,
        "distance_wrist_1_joint": 0.25263840412826344,
        "distance_wrist_2_joint": 1.1068115982850344,
        "distance_wrist_3_joint": 0.1030142265716969,
        "smoothness": 6.661338165333112e-16,
        "time": 0.016869526,
        "traj_len": 1.6154842958955795,
        "weighted_distance": 2.0433472455365798
    },
    "planner": "RRT",
    "start": {
        "state": {
            "elbow_joint": 1.97154746011099,
            "shoulder_lift_joint": -1.13948474672311,
            "shoulder_pan_joint": 0.12281154466712228,
            "wrist_1_joint": -0.7804688027058302,
            "wrist_2_joint": 0.12958655903071145,
            "wrist_3_joint": 3.0906928834467795
        }
    },
    "waypoints": [
        {
            "positions": [
                0.12281154466712228,
                -1.13948474672311,
                1.97154746011099,
                -0.7804688027058302,
                0.12958655903071145,
                3.0906928834467795
            ]
        },
        {
            "positions": [
                0.05685908004204468,
                -1.1728643559892087,
                2.0361189978341336,
                -0.8165600032955821,
                0.2877025016428592,
                3.1054092015284507
            ]
        },
        {
            "positions": [
                -0.009093384583032924,
                -1.2062439652553072,
                2.100690535557278,
                -0.852651203885334,
                0.44581844425500694,
                3.1201255196101214
            ]
        },
        {
            "positions": [
                -0.07504584920811054,
                -1.239623574521406,
                2.1652620732804215,
                -0.8887424044750859,
                0.6039343868671547,
                3.1348418376917926
            ]
        },
        {
            "positions": [
                -0.14099831383318812,
                -1.2730031837875047,
                2.2298336110035657,
                -0.9248336050648378,
                0.7620503294793025,
                3.1495581557734633
            ]
        },
        {
            "positions": [
                -0.20695077845826576,
                -1.3063827930536034,
                2.2944051487267094,
                -0.9609248056545898,
                0.9201662720914503,
                3.1642744738551345
            ]
        },
        {
            "positions": [
                -0.27290324308334335,
                -1.339762402319702,
                2.3589766864498536,
                -0.9970160062443417,
                1.078282214703598,
                3.1789907919368052
            ]
        },
        {
            "positions": [
                -0.338855707708421,
                -1.3731420115858006,
                2.4235482241729973,
                -1.0331072068340936,
                1.2363981573157459,
                3.1937071100184764
            ]
        }
    ]
}{
    "goal": {
        "global_pose": {
            "orientation": {
                "w": 0.5084816217422485,
                "x": -0.49083608388900757,
                "y": 0.5182115435600281,
                "z": -0.4816462993621826
            },
            "position": {
                "x": 0.5540239810943604,
                "y": 0.030875300988554955,
                "z": 0.16403168439865112
            }
        },
        "name": "move_to_storage_A"
    },
    "id": "RRT_move_to_storage_A_83",
    "joint_names": [
        "shoulder_pan_joint",
        "shoulder_lift_joint",
        "elbow_joint",
        "wrist_1_joint",
        "wrist_2_joint",
        "wrist_3_joint"
    ],
    "metrics": {
        "cart_traj_len": 0.35270628242450053,
        "distance_elbow_joint": 0.45308941472418374,
        "distance_shoulder_lift_joint": 0.23442062153499266,
        "distance_shoulder_pan_joint": 0.461765394880763,
        "distance_wrist_1_joint": 0.2583518803778213,
        "distance_wrist_2_joint": 1.0958218578151036,
        "distance_wrist_3_joint": 0.0931595675614254,
        "smoothness": 8.881784197001252e-16,
        "time": 0.012046761999999999,
        "traj_len": 1.6113996204834757,
        "weighted_distance": 2.033986629801205
    },
    "planner": "RRT",
    "start": {
        "state": {
            "elbow_joint": 1.9715472970024885,
            "shoulder_lift_joint": -1.1394870060712896,
            "shoulder_pan_joint": 0.12281152778156021,
            "wrist_1_joint": -0.780463741449964,
            "wrist_2_joint": 0.12958659822042276,
            "wrist_3_joint": 3.090690232415272
        }
    },
    "waypoints": [
        {
            "positions": [
                0.12281152778156021,
                -1.1394870060712896,
                1.9715472970024885,
                -0.780463741449964,
                0.12958659822042276,
                3.090690232415272
            ]
        },
        {
            "positions": [
                0.05684504279859408,
                -1.1729756662905744,
                2.0362743562488004,
                -0.81737115293251,
                0.2861325779082947,
                3.103998742066904
            ]
        },
        {
            "positions": [
                -0.009121442184372053,
                -1.206464326509859,
                2.1010014154951127,
                -0.8542785644150558,
                0.4426785575961666,
                3.117307251718536
            ]
        },
        {
            "positions": [
                -0.0750879271673382,
                -1.2399529867291437,
                2.1657284747414245,
                -0.8911859758976017,
                0.5992245372840386,
                3.1306157613701684
            ]
        },
        {
            "positions": [
                -0.14105441215030431,
                -1.2734416469484282,
                2.2304555339877363,
                -0.9280933873801476,
                0.7557705169719104,
                3.1439242710218007
            ]
        },
        {
            "positions": [
                -0.20702089713327046,
                -1.306930307167713,
                2.295182593234048,
                -0.9650007988626935,
                0.9123164966597824,
                3.157232780673433
            ]
        },
        {
            "positions": [
                -0.27298738211623663,
                -1.3404189673869975,
                2.3599096524803604,
                -1.0019082103452395,
                1.0688624763476544,
                3.170541290325065
            ]
        },
        {
            "positions": [
                -0.3389538670992028,
                -1.3739076276062823,
                2.4246367117266723,
                -1.0388156218277853,
                1.2254084560355263,
                3.1838497999766973
            ]
        }
    ]
}