{
    "goal": {
        "global_pose": {
            "orientation": {
                "w": -0.4816463035849501,
                "x": 0.5182115481033762,
                "y": 0.4908360881923453,
                "z": -0.5084816262002911
            },
            "position": {
                "x": -0.8240239810943604,
                "y": 0.19912469901144506,
                "z": 0.16403168439865112
            }
        },
        "name": "move_to_storage_D"
    },
    "id": "RRT_move_to_storage_D_29",
    "joint_names": [
        "shoulder_pan_joint",
        "shoulder_lift_joint",
        "elbow_joint",
        "wrist_1_joint",
        "wrist_2_joint",
        "wrist_3_joint"
    ],
    "metrics": {
        "cart_traj_len": 3.8573491958511226,
        "distance_elbow_joint": 4.2107893572415485,
        "distance_shoulder_lift_joint": 1.2652008412858962,
        "distance_shoulder_pan_joint": 2.814173469943366,
        "distance_wrist_1_joint": 2.2712556730745606,
        "distance_wrist_2_joint": 1.5396693029115307,
        "distance_wrist_3_joint": 3.139384098896033,
        "smoothness": 0.08163315600332112,
        "time": 0.118456454,
        "traj_len": 3.9039048071582045,
        "weighted_distance": 5.032908296117772
    },
    "planner": "RRT",
    "start": {
        "state": {
            "elbow_joint": -2.384821988534728,
            "shoulder_lift_joint": -2.2788054721415256,
            "shoulder_pan_joint": -0.1854694642142757,
            "wrist_1_joint": 1.4845938289331202,
            "wrist_2_joint": 0.17898776772866878,
            "wrist_3_joint": 0.037105688729662994
        }
    },
    "waypoints": [
        {
            "positions": [
                -0.1854694642142757,
                -2.2788054721415256,
                -2.384821988534728,
                1.4845938289331202,
                0.17898776772866878,
                0.037105688729662994
            ]
        },
        {
            "positions": [
                -0.10272967134311527,
                -2.2536217378134453,
                -2.266688391486778,
                1.4271411811532593,
                0.21680012292648737,
                -0.030570966457818538
            ]
        },
        {
            "positions": [
                -0.019989878471954825,
                -2.2284380034853655,
                -2.1485547944388275,
                1.3696885333733986,
                0.254612478124306,
                -0.09824762164530007
            ]
        },
        {
            "positions": [
                0.0627499143992056,
                -2.203254269157285,
                -2.0304211973908775,
                1.3122358855935377,
                0.2924248333221246,
                -0.1659242768327816
            ]
        },
        {
            "positions": [
                0.14548970727036606,
                -2.178070534829205,
                -1.9122876003429274,
                1.2547832378136767,
                0.3302371885199432,
                -0.23360093202026314
            ]
        },
        {
            "positions": [
                0.22822950014152651,
                -2.152886800501125,
                -1.7941540032949774,
                1.197330590033816,
                0.3680495437177618,
                -0.30127758720774467
            ]
        },
        {
            "positions": [
                0.31096929301268694,
                -2.1277030661730447,
                -1.6760204062470272,
                1.1398779422539551,
                0.4058618989155804,
                -0.36895424239522623
            ]
        },
        {
            "positions": [
                0.39370908588384745,
                -2.1025193318449644,
                -1.557886809199077,
                1.0824252944740942,
                0.443674254113399,
                -0.4366308975827077
            ]
        },
        {
            "positions": [
                0.47644887875500785,
                -2.0773355975168846,
                -1.439753212151127,
                1.0249726466942335,
                0.48148660931121756,
                -0.5043075527701892
            ]
        },
        {
            "positions": [
                0.5591886716261683,
                -2.0521518631888043,
                -1.321619615103177,
                0.9675199989143726,
                0.5192989645090362,
                -0.5719842079576708
            ]
        },
        {
            "positions": [
                0.6419284644973288,
                -2.026968128860724,
                -1.2034860180552267,
                0.9100673511345118,
                0.5571113197068548,
                -0.6396608631451524
            ]
        },
        {
            "positions": [
                0.7246682573684892,
                -2.0017843945326437,
                -1.0853524210072765,
                0.852614703354651,
                0.5949236749046733,
                -0.7073375183326338
            ]
        },
        {
            "positions": [
                0.8074080502396496,
                -1.9766006602045638,
                -0.9672188239593265,
                0.79516205557479,
                0.632736030102492,
                -0.7750141735201154
            ]
        },
        {
            "positions": [
                0.89014784311081,
                -1.9514169258764835,
                -0.8490852269113764,
                0.7377094077949292,
                0.6705483853003106,
                -0.8426908287075969
            ]
        },
        {
            "positions": [
                0.9728876359819706,
                -1.9262331915484034,
                -0.7309516298634262,
                0.6802567600150684,
                0.7083607404981291,
                -0.9103674838950784
            ]
        },
        {
            "positions": [
                1.0556274288531309,
                -1.9010494572203234,
                -0.612818032815476,
                0.6228041122352075,
                0.7461730956959478,
                -0.97804413908256
            ]
        },
        {
            "positions": [
                1.1383672217242913,
                -1.875865722892243,
                -0.49468443576752597,
                0.5653514644553467,
                0.7839854508937664,
                -1.0457207942700415
            ]
        },
        {
            "positions": [
                1.2211070145954517,
                -1.8506819885641628,
                -0.37655083871957595,
                0.5078988166754859,
                0.8217978060915849,
                -1.113397449457523
            ]
        },
        {
            "positions": [
                1.303846807466612,
                -1.8254982542360827,
                -0.25841724167162594,
                0.45044616889562494,
                0.8596101612894036,
                -1.1810741046450046
            ]
        },
        {
            "positions": [
                1.3865866003377727,
                -1.8003145199080026,
                -0.14028364462367549,
                0.39299352111576424,
                0.8974225164872222,
                -1.248750759832486
            ]
        },
        {
            "positions": [
                1.469326393208933,
                -1.7751307855799223,
                -0.022150047575725473,
                0.3355408733359033,
                0.9352348716850408,
                -1.3164274150199677
            ]
        },
        {
            "positions": [
                1.5520661860800935,
                -1.7499470512518422,
                0.09598354947222454,
                0.2780882255560424,
                0.9730472268828594,
                -1.3841040702074492
            ]
        },
        {
            "positions": [
                1.634805978951254,
                -1.7247633169237622,
                0.214117146520175,
                0.2206355777761817,
                1.010859582080678,
                -1.4517807253949306
            ]
        },
        {
            "positions": [
                1.7175457718224143,
                -1.6995795825956819,
                0.332250743568125,
                0.16318292999632078,
                1.0486719372784967,
                -1.5194573805824123
            ]
        },
        {
            "positions": [
                1.8002855646935747,
                -1.6743958482676018,
                0.450384340616075,
                0.10573028221645986,
                1.0864842924763152,
                -1.5871340357698938
            ]
        },
        {
            "positions": [
                1.883025357564735,
                -1.6492121139395217,
                0.568517937664025,
                0.04827763443659916,
                1.1242966476741338,
                -1.6548106909573752
            ]
        },
        {
            "positions": [
                1.9657651504358955,
                -1.6240283796114414,
                0.686651534711975,
                -0.009175013343261762,
                1.1621090028719525,
                -1.7224873461448569
            ]
        },
        {
            "positions": [
                2.0485049433070563,
                -1.5988446452833613,
                0.8047851317599255,
                -0.06662766112312268,
                1.1999213580697712,
                -1.7901640013323383
            ]
        },
        {
            "positions": [
                2.1312447361782167,
                -1.5736609109552813,
                0.9229187288078755,
                -0.12408030890298338,
                1.2377337132675896,
                -1.8578406565198198
            ]
        },
        {
            "positions": [
                2.213984529049377,
                -1.548477176627201,
                1.0410523258558255,
                -0.1815329566828443,
                1.2755460684654083,
                -1.9255173117073014
            ]
        },
        {
            "positions": [
                2.2967243219205375,
                -1.523293442299121,
                1.159185922903776,
                -0.23898560446270523,
                1.313358423663227,
                -1.9931939668947831
            ]
        },
        {
            "positions": [
                2.379464114791698,
                -1.4981097079710408,
                1.277319519951726,
                -0.2964382522425659,
                1.3511707788610454,
                -2.0608706220822643
            ]
        },
        {
            "positions": [
                2.4622039076628583,
                -1.4729259736429605,
                1.395453116999676,
                -0.3538909000224269,
                1.388983134058864,
                -2.128547277269746
            ]
        },
        {
            "positions": [
                2.4830164199211375,
                -1.4155108057945442,
                1.449267398463069,
                -0.40798726803730356,
                1.3477738919861972,
                -2.250263668881824
            ]
        },
        {
            "positions": [
                2.5038289321794163,
                -1.3580956379461278,
                1.5030816799264621,
                -0.4620836360521802,
                1.3065646499135304,
                -2.371980060493902
            ]
        },
        {
            "positions": [
                2.5246414444376954,
                -1.3006804700977113,
                1.5568959613898552,
                -0.5161800040670569,
                1.2653554078408633,
                -2.49369645210598
            ]
        },
        {
            "positions": [
                2.545453956695974,
                -1.243265302249295,
                1.6107102428532483,
                -0.5702763720819336,
                1.2241461657681965,
                -2.615412843718058
            ]
        },
        {
            "positions": [
                2.5662664689542534,
                -1.1858501344008787,
                1.6645245243166413,
                -0.6243727400968102,
                1.1829369236955296,
                -2.737129235330136
            ]
        },
        {
            "positions": [
                2.5870789812125325,
                -1.1284349665524622,
                1.7183388057800346,
                -0.6784691081116869,
                1.1417276816228625,
                -2.858845626942214
            ]
        },
        {
            "positions": [
                2.6078914934708113,
                -1.0710197987040457,
                1.7721530872434277,
                -0.7325654761265636,
                1.1005184395501957,
                -2.980562018554292
            ]
        },
        {
            "positions": [
                2.6287040057290905,
                -1.0136046308556295,
                1.8259673687068207,
                -0.7866618441414402,
                1.0593091974775288,
                -3.10227841016637
            ]
        }
    ]
}