{
    "goal": {
        "global_pose": {
            "orientation": {
                "w": -0.4816463035849501,
                "x": 0.5182115481033762,
                "y": 0.4908360881923453,
                "z": -0.5084816262002911
            },
            "position": {
                "x": -0.8240239810943604,
                "y": -0.300875300988555,
                "z": 0.16403168439865112
            }
        },
        "name": "move_to_storage_C"
    },
    "id": "RRT_move_to_storage_C_87",
    "joint_names": [
        "shoulder_pan_joint",
        "shoulder_lift_joint",
        "elbow_joint",
        "wrist_1_joint",
        "wrist_2_joint",
        "wrist_3_joint"
    ],
    "metrics": {
        "cart_traj_len": 0.5769936472706857,
        "distance_elbow_joint": 0.25384638931301917,
        "distance_shoulder_lift_joint": 0.18865777511849346,
        "distance_shoulder_pan_joint": 0.49652074145179004,
        "distance_wrist_1_joint": 0.06398667835834859,
        "distance_wrist_2_joint": 1.059362057503097,
        "distance_wrist_3_joint": 0.068252383349094,
        "smoothness": 5.075305295617109e-16,
        "time": 0.015454644,
        "traj_len": 1.459666408839308,
        "weighted_distance": 1.84132548118291
    },
    "planner": "RRT",
    "start": {
        "state": {
            "elbow_joint": 2.010868314990456,
            "shoulder_lift_joint": -1.1634956873337592,
            "shoulder_pan_joint": -2.4736205022346125,
            "wrist_1_joint": -0.8367026794202681,
            "wrist_2_joint": 0.6746043897044499,
            "wrist_3_joint": -3.1496632123970403
        }
    },
    "waypoints": [
        {
            "positions": [
                -2.4736205022346125,
                -1.1634956873337592,
                2.010868314990456,
                -0.8367026794202681,
                0.6746043897044499,
                -3.1496632123970403
            ]
        },
        {
            "positions": [
                -2.556373959143244,
                -1.1320527248140102,
                1.968560583438286,
                -0.82603823302721,
                0.8511647326216327,
                -3.138287815172191
            ]
        },
        {
            "positions": [
                -2.639127416051876,
                -1.1006097622942614,
                1.9262528518861162,
                -0.8153737866341519,
                1.0277250755388156,
                -3.1269124179473424
            ]
        },
        {
            "positions": [
                -2.7218808729605075,
                -1.0691667997745125,
                1.8839451203339461,
                -0.8047093402410939,
                1.2042854184559983,
                -3.1155370207224933
            ]
        },
        {
            "positions": [
                -2.804634329869139,
                -1.0377238372547635,
                1.8416373887817763,
                -0.7940448938480357,
                1.3808457613731813,
                -3.104161623497644
            ]
        },
        {
            "positions": [
                -2.887387786777771,
                -1.0062808747350147,
                1.7993296572296065,
                -0.7833804474549776,
                1.5574061042903642,
                -3.0927862262727954
            ]
        },
        {
            "positions": [
                -2.9701412436864025,
                -0.9748379122152657,
                1.7570219256774366,
                -0.7727160010619195,
                1.733966447207547,
                -3.0814108290479463
            ]
        }
    ]
}