{
    "goal": {
        "global_pose": {
            "orientation": {
                "w": 0.5084816217422485,
                "x": -0.49083608388900757,
                "y": 0.5182115435600281,
                "z": -0.4816462993621826
            },
            "position": {
                "x": 0.5540239810943604,
                "y": 0.030875300988554955,
                "z": 0.16403168439865112
            }
        },
        "name": "move_to_storage_A"
    },
    "id": "RRTConnect_move_to_storage_A_123",
    "joint_names": [
        "shoulder_pan_joint",
        "shoulder_lift_joint",
        "elbow_joint",
        "wrist_1_joint",
        "wrist_2_joint",
        "wrist_3_joint"
    ],
    "metrics": {
        "cart_traj_len": 0.35317303254930504,
        "distance_elbow_joint": 0.4515674681791093,
        "distance_shoulder_lift_joint": 0.2328654408554851,
        "distance_shoulder_pan_joint": 0.46275189646699033,
        "distance_wrist_1_joint": 0.24843445882176496,
        "distance_wrist_2_joint": 1.0947294493402044,
        "distance_wrist_3_joint": 0.10349402007599728,
        "smoothness": 1.3322676330666221e-15,
        "time": 0.037133795,
        "traj_len": 1.610541130719595,
        "weighted_distance": 2.0356803978162965
    },
    "planner": "RRTConnect",
    "start": {
        "state": {
            "elbow_joint": 1.971548259319323,
            "shoulder_lift_joint": -1.1394851275133948,
            "shoulder_pan_joint": 0.1228115487234821,
            "wrist_1_joint": -0.7804723859257726,
            "wrist_2_joint": 0.12958671773740124,
            "wrist_3_joint": -3.192489227718131
        }
    },
    "waypoints": [
        {
            "positions": [
                0.1228115487234821,
                -1.1394851275133948,
                1.971548259319323,
                -0.7804723859257726,
                0.12958671773740124,
                -3.192489227718131
            ]
        },
        {
            "positions": [
                0.05670413494248348,
                -1.1727516190641785,
                2.0360578976306245,
                -0.8159630229003104,
                0.28597663907171617,
                -3.1777043677072743
            ]
        },
        {
            "positions": [
                -0.009403278838515133,
                -1.206018110614962,
                2.100567535941926,
                -0.8514536598748483,
                0.44236656040603106,
                -3.162919507696418
            ]
        },
        {
            "positions": [
                -0.07551069261951374,
                -1.2392846021657455,
                2.165077174253227,
                -0.8869442968493861,
                0.598756481740346,
                -3.148134647685561
            ]
        },
        {
            "positions": [
                -0.14161810640051237,
                -1.2725510937165292,
                2.2295868125645284,
                -0.922434933823924,
                0.755146403074661,
                -3.133349787674704
            ]
        },
        {
            "positions": [
                -0.20772552018151103,
                -1.3058175852673128,
                2.2940964508758297,
                -0.9579255707984619,
                0.9115363244089759,
                -3.118564927663847
            ]
        },
        {
            "positions": [
                -0.2738329339625096,
                -1.3390840768180963,
                2.358606089187131,
                -0.9934162077729998,
                1.0679262457432908,
                -3.1037800676529907
            ]
        },
        {
            "positions": [
                -0.33994034774350823,
                -1.37235056836888,
                2.4231157274984323,
                -1.0289068447475376,
                1.2243161670776057,
                -3.088995207642134
            ]
        }
    ]
}{
    "goal": {
        "global_pose": {
            "orientation": {
                "w": 0.5084816217422485,
                "x": -0.49083608388900757,
                "y": 0.5182115435600281,
                "z": -0.4816462993621826
            },
            "position": {
                "x": 0.5540239810943604,
                "y": 0.030875300988554955,
                "z": 0.16403168439865112
            }
        },
        "name": "move_to_storage_A"
    },
    "id": "RRTConnect_move_to_storage_A_123",
    "joint_names": [
        "shoulder_pan_joint",
        "shoulder_lift_joint",
        "elbow_joint",
        "wrist_1_joint",
        "wrist_2_joint",
        "wrist_3_joint"
    ],
    "metrics": {
        "cart_traj_len": 0.35303121062685877,
        "distance_elbow_joint": 0.4466836621199821,
        "distance_shoulder_lift_joint": 0.23317889076230047,
        "distance_shoulder_pan_joint": 0.4601033522181226,
        "distance_wrist_1_joint": 0.23455373415772862,
        "distance_wrist_2_joint": 1.104054355005318,
        "distance_wrist_3_joint": 0.08761207976823915,
        "smoothness": 1.1102230263833737e-15,
        "time": 0.047437225,
        "traj_len": 1.601931981711986,
        "weighted_distance": 2.019905523219147
    },
    "planner": "RRTConnect",
    "start": {
        "state": {
            "elbow_joint": 1.97154746011099,
            "shoulder_lift_joint": -1.13948474672311,
            "shoulder_pan_joint": 0.12281154466712228,
            "wrist_1_joint": -0.7804688027058302,
            "wrist_2_joint": 0.12958655903071145,
            "wrist_3_joint": 3.0906928834467795
        }
    },
    "waypoints": [
        {
            "positions": [
                0.12281154466712228,
                -1.13948474672311,
                1.97154746011099,
                -0.7804688027058302,
                0.12958655903071145,
                3.0906928834467795
            ]
        },
        {
            "positions": [
                0.057082494350247634,
                -1.17279601683201,
                2.035359411842416,
                -0.8139764790140771,
                0.2873086097457569,
                3.103208894842242
            ]
        },
        {
            "positions": [
                -0.008646555966627015,
                -1.2061072869409102,
                2.099171363573842,
                -0.847484155322324,
                0.4450306604608023,
                3.115724906237705
            ]
        },
        {
            "positions": [
                -0.07437560628350166,
                -1.2394185570498102,
                2.1629833153052678,
                -0.880991831630571,
                0.6027527111758477,
                3.1282409176331676
            ]
        },
        {
            "positions": [
                -0.1401046566003763,
                -1.2727298271587102,
                2.226795267036694,
                -0.914499507938818,
                0.7604747618908931,
                3.1407569290286306
            ]
        },
        {
            "positions": [
                -0.205833706917251,
                -1.3060410972676104,
                2.29060721876812,
                -0.948007184247065,
                0.9181968126059386,
                3.153272940424093
            ]
        },
        {
            "positions": [
                -0.2715627572341256,
                -1.3393523673765104,
                2.354419170499546,
                -0.9815148605553119,
                1.075918863320984,
                3.165788951819556
            ]
        },
        {
            "positions": [
                -0.3372918075510003,
                -1.3726636374854104,
                2.418231122230972,
                -1.0150225368635588,
                1.2336409140360294,
                3.1783049632150187
            ]
        }
    ]
}{
    "goal": {
        "global_pose": {
            "orientation": {
                "w": 0.5084816217422485,
                "x": -0.49083608388900757,
                "y": 0.5182115435600281,
                "z": -0.4816462993621826
            },
            "position": {
                "x": 0.5540239810943604,
                "y": 0.030875300988554955,
                "z": 0.16403168439865112
            }
        },
        "name": "move_to_storage_A"
    },
    "id": "RRTConnect_move_to_storage_A_123",
    "joint_names": [
        "shoulder_pan_joint",
        "shoulder_lift_joint",
        "elbow_joint",
        "wrist_1_joint",
        "wrist_2_joint",
        "wrist_3_joint"
    ],
    "metrics": {
        "cart_traj_len": 0.3531467528152417,
        "distance_elbow_joint": 0.44838201680972434,
        "distance_shoulder_lift_joint": 0.2333149008469988,
        "distance_shoulder_pan_joint": 0.46144140388125876,
        "distance_wrist_1_joint": 0.23805710517588774,
        "distance_wrist_2_joint": 1.0997269003197274,
        "distance_wrist_3_joint": 0.08745939606478359,
        "smoothness": 1.5543122362334363e-15,
        "time": 0.038439857,
        "traj_len": 1.6026171480108342,
        "weighted_distance": 2.0201694287171965
    },
    "planner": "RRTConnect",
    "start": {
        "state": {
            "elbow_joint": 1.9715472970024885,
            "shoulder_lift_joint": -1.1394870060712896,
            "shoulder_pan_joint": 0.12281152778156021,
            "wrist_1_joint": -0.780463741449964,
            "wrist_2_joint": 0.12958659822042276,
            "wrist_3_joint": 3.090690232415272
        }
    },
    "waypoints": [
        {
            "positions": [
                0.12281152778156021,
                -1.1394870060712896,
                1.9715472970024885,
                -0.780463741449964,
                0.12958659822042276,
                3.090690232415272
            ]
        },
        {
            "positions": [
                0.05689132722709468,
                -1.1728177061922895,
                2.035601870832449,
                -0.8144718993322336,
                0.28669044112324094,
                3.103184431853098
            ]
        },
        {
            "positions": [
                -0.009028873327370845,
                -1.2061484063132892,
                2.09965644466241,
                -0.8484800572145034,
                0.44379428402605914,
                3.1156786312909244
            ]
        },
        {
            "positions": [
                -0.07494907388183639,
                -1.2394791064342892,
                2.1637110184923705,
                -0.882488215096773,
                0.6008981269288773,
                3.1281728307287504
            ]
        },
        {
            "positions": [
                -0.1408692744363019,
                -1.2728098065552889,
                2.227765592322331,
                -0.9164963729790427,
                0.7580019698316955,
                3.140667030166577
            ]
        },
        {
            "positions": [
                -0.20678947499076747,
                -1.3061405066762888,
                2.2918201661522914,
                -0.9505045308613124,
                0.9151058127345137,
                3.153161229604403
            ]
        },
        {
            "positions": [
                -0.27270967554523295,
                -1.3394712067972885,
                2.3558747399822524,
                -0.984512688743582,
                1.072209655637332,
                3.1656554290422294
            ]
        },
        {
            "positions": [
                -0.3386298760996985,
                -1.3728019069182884,
                2.419929313812213,
                -1.0185208466258517,
                1.2293134985401502,
                3.1781496284800554
            ]
        }
    ]
}