{
    "goal": {
        "global_pose": {
            "orientation": {
                "w": 0.7047431493862688,
                "x": -0.7094548369677653,
                "y": 0.0024358444001904,
                "z": -0.0022348060817251984
            },
            "position": {
                "x": -0.39052492380142206,
                "y": 0.3671506643295288,
                "z": 0.19426114857196808
            }
        },
        "name": "move_to_magneteinheit_D"
    },
    "id": "RRTConnect_move_to_magneteinheit_D_4",
    "joint_names": [
        "shoulder_pan_joint",
        "shoulder_lift_joint",
        "elbow_joint",
        "wrist_1_joint",
        "wrist_2_joint",
        "wrist_3_joint"
    ],
    "metrics": {
        "cart_traj_len": 4.819897578135231,
        "distance_elbow_joint": 3.1440775701763273,
        "distance_shoulder_lift_joint": 1.6287868304226267,
        "distance_shoulder_pan_joint": 3.2857875869574795,
        "distance_wrist_1_joint": 2.440557557368858,
        "distance_wrist_2_joint": 0.7819496751921179,
        "distance_wrist_3_joint": 5.729712751206989,
        "smoothness": 0.3030884205017619,
        "time": 0.195789318,
        "traj_len": 4.124423835073742,
        "weighted_distance": 5.629636285436152
    },
    "planner": "RRTConnect",
    "start": {
        "state": {
            "elbow_joint": 0.749534889911806,
            "shoulder_lift_joint": -0.6476975780787326,
            "shoulder_pan_joint": -2.711696901376241,
            "wrist_1_joint": -0.07506478083263063,
            "wrist_2_joint": 0.43296659715538205,
            "wrist_3_joint": -3.14703540197715
        }
    },
    "waypoints": [
        {
            "positions": [
                -2.711696901376241,
                -0.6476975780787326,
                0.749534889911806,
                -0.07506478083263063,
                0.43296659715538205,
                -3.14703540197715
            ]
        },
        {
            "positions": [
                -2.725701259395955,
                -0.6567244210086465,
                0.7345735826907637,
                -0.08286578436014073,
                0.39955705106999034,
                -2.9551298297557795
            ]
        },
        {
            "positions": [
                -2.739705617415668,
                -0.6657512639385602,
                0.7196122754697215,
                -0.09066678788765085,
                0.3661475049845987,
                -2.763224257534409
            ]
        },
        {
            "positions": [
                -2.753709975435382,
                -0.6747781068684741,
                0.7046509682486792,
                -0.09846779141516096,
                0.332737958899207,
                -2.5713186853130385
            ]
        },
        {
            "positions": [
                -2.760436567627821,
                -0.6889536177643527,
                0.6824722086623938,
                -0.11230224356914467,
                0.29216171218828646,
                -2.311880212696897
            ]
        },
        {
            "positions": [
                -2.76716315982026,
                -0.7031291286602313,
                0.6602934490761083,
                -0.12613669572312836,
                0.25158546547736593,
                -2.052441740080755
            ]
        },
        {
            "positions": [
                -2.7738897520126993,
                -0.7173046395561099,
                0.6381146894898229,
                -0.13997114787711207,
                0.21100921876644538,
                -1.7930032674646132
            ]
        },
        {
            "positions": [
                -2.7806163442051384,
                -0.7314801504519886,
                0.6159359299035374,
                -0.15380560003109578,
                0.17043297205552485,
                -1.5335647948484716
            ]
        },
        {
            "positions": [
                -2.6634585083834836,
                -0.7659109156928694,
                0.5646128378327139,
                -0.17357122505257003,
                0.1845038944299917,
                -1.3828611607983314
            ]
        },
        {
            "positions": [
                -2.546300672561829,
                -0.8003416809337504,
                0.5132897457618905,
                -0.19333685007404428,
                0.19857481680445857,
                -1.2321575267481912
            ]
        },
        {
            "positions": [
                -2.4291428367401737,
                -0.8347724461746312,
                0.46196665369106693,
                -0.2131024750955185,
                0.21264573917892543,
                -1.0814538926980513
            ]
        },
        {
            "positions": [
                -2.311985000918519,
                -0.869203211415512,
                0.4106435616202434,
                -0.23286810011699274,
                0.2267166615533923,
                -0.930750258647911
            ]
        },
        {
            "positions": [
                -2.1948271650968643,
                -0.903633976656393,
                0.35932046954941993,
                -0.252633725138467,
                0.24078758392785915,
                -0.780046624597771
            ]
        },
        {
            "positions": [
                -2.077669329275209,
                -0.9380647418972738,
                0.30799737747859646,
                -0.2723993501599412,
                0.254858506302326,
                -0.6293429905476309
            ]
        },
        {
            "positions": [
                -1.9605114934535544,
                -0.9724955071381547,
                0.256674285407773,
                -0.2921649751814155,
                0.26892942867679287,
                -0.4786393564974907
            ]
        },
        {
            "positions": [
                -1.8433536576318996,
                -1.0069262723790355,
                0.20535119333694946,
                -0.3119306002028897,
                0.28300035105125976,
                -0.3279357224473505
            ]
        },
        {
            "positions": [
                -1.726195821810245,
                -1.0413570376199164,
                0.15402810126612598,
                -0.3316962252243639,
                0.2970712734257266,
                -0.1772320883972105
            ]
        },
        {
            "positions": [
                -1.60903798598859,
                -1.0757878028607974,
                0.10270500919530245,
                -0.3514618502458382,
                0.3111421958001934,
                -0.026528454347070296
            ]
        },
        {
            "positions": [
                -1.491880150166935,
                -1.1102185681016783,
                0.051381917124478926,
                -0.3712274752673124,
                0.32521311817466036,
                0.1241751797030699
            ]
        },
        {
            "positions": [
                -1.3747223143452802,
                -1.1446493333425591,
                5.882505365550905e-05,
                -0.39099310028878664,
                0.3392840405491272,
                0.2748788137532099
            ]
        },
        {
            "positions": [
                -1.2575644785236253,
                -1.17908009858344,
                -0.05126426701716802,
                -0.4107587253102609,
                0.35335496292359403,
                0.4255824478033503
            ]
        },
        {
            "positions": [
                -1.1404066427019706,
                -1.2135108638243208,
                -0.10258735908799144,
                -0.43052435033173514,
                0.36742588529806086,
                0.5762860818534903
            ]
        },
        {
            "positions": [
                -1.0232488068803156,
                -1.2479416290652017,
                -0.15391045115881496,
                -0.4502899753532094,
                0.3814968076725278,
                0.7269897159036307
            ]
        },
        {
            "positions": [
                -0.9060909710586609,
                -1.2823723943060825,
                -0.2052335432296385,
                -0.47005560037468364,
                0.39556773004699464,
                0.8776933499537707
            ]
        },
        {
            "positions": [
                -0.7889331352370059,
                -1.3168031595469634,
                -0.256556635300462,
                -0.48982122539615786,
                0.40963865242146147,
                1.0283969840039107
            ]
        },
        {
            "positions": [
                -0.6717752994153514,
                -1.3512339247878442,
                -0.30787972737128544,
                -0.5095868504176321,
                0.4237095747959283,
                1.1791006180540506
            ]
        },
        {
            "positions": [
                -0.5546174635936962,
                -1.3856646900287253,
                -0.35920281944210897,
                -0.5293524754391064,
                0.43778049717039524,
                1.329804252104191
            ]
        },
        {
            "positions": [
                -0.51456487704884,
                -1.4313535991588322,
                -0.46943554039865637,
                -0.42259545950591726,
                0.4240195584351176,
                1.264769585114251
            ]
        },
        {
            "positions": [
                -0.4745122905039839,
                -1.4770425082889393,
                -0.5796682613552038,
                -0.3158384435727282,
                0.41025861969984007,
                1.1997349181243109
            ]
        },
        {
            "positions": [
                -0.43445970395912775,
                -1.5227314174190463,
                -0.6899009823117512,
                -0.20908142763953913,
                0.39649768096456245,
                1.134700251134371
            ]
        },
        {
            "positions": [
                -0.3944071174142716,
                -1.5684203265491532,
                -0.8001337032682987,
                -0.1023244117063501,
                0.3827367422292849,
                1.069665584144431
            ]
        },
        {
            "positions": [
                -0.3543545308694154,
                -1.6141092356792601,
                -0.910366424224846,
                0.004432604226838999,
                0.36897580349400727,
                1.0046309171544907
            ]
        },
        {
            "positions": [
                -0.31430194432455927,
                -1.6597981448093673,
                -1.0205991451813934,
                0.11118962016002809,
                0.3552148647587297,
                0.9395962501645507
            ]
        },
        {
            "positions": [
                -0.2742493577797031,
                -1.7054870539394742,
                -1.1308318661379408,
                0.21794663609321707,
                0.34145392602345215,
                0.8745615831746107
            ]
        },
        {
            "positions": [
                -0.23419677123484695,
                -1.7511759630695811,
                -1.2410645870944883,
                0.32470365202640616,
                0.32769298728817453,
                0.8095269161846707
            ]
        },
        {
            "positions": [
                -0.19414418468999073,
                -1.7968648721996883,
                -1.3512973080510358,
                0.43146066795959537,
                0.3139320485528969,
                0.7444922491947307
            ]
        },
        {
            "positions": [
                -0.15409159814513457,
                -1.8425537813297952,
                -1.4615300290075832,
                0.5382176838927843,
                0.3001711098176193,
                0.6794575822047906
            ]
        },
        {
            "positions": [
                -0.1140390116002784,
                -1.8882426904599021,
                -1.5717627499641305,
                0.6449746998259736,
                0.28641017108234174,
                0.6144229152148505
            ]
        },
        {
            "positions": [
                -0.07398642505542224,
                -1.933931599590009,
                -1.6819954709206781,
                0.7517317157591625,
                0.2726492323470642,
                0.5493882482249104
            ]
        },
        {
            "positions": [
                -0.03393383851056608,
                -1.979620508720116,
                -1.7922281918772254,
                0.8584887316923515,
                0.25888829361178656,
                0.4843535812349705
            ]
        },
        {
            "positions": [
                0.0061187480342900225,
                -2.025309417850223,
                -1.9024609128337726,
                0.9652457476255405,
                0.245127354876509,
                0.4193189142450304
            ]
        },
        {
            "positions": [
                0.04617133457914624,
                -2.0709983269803303,
                -2.0126936337903203,
                1.0720027635587297,
                0.23136641614123138,
                0.35428424725509033
            ]
        },
        {
            "positions": [
                0.08622392112400235,
                -2.116687236110437,
                -2.1229263547468675,
                1.1787597794919187,
                0.2176054774059538,
                0.28924958026515024
            ]
        },
        {
            "positions": [
                0.1262765076688586,
                -2.162376145240544,
                -2.233159075703415,
                1.2855167954251079,
                0.2038445386706762,
                0.2242149132752102
            ]
        },
        {
            "positions": [
                0.0365739954316493,
                -2.195340388002011,
                -2.28012004902642,
                1.3358376085025694,
                0.19797158278929597,
                0.18100221732058616
            ]
        },
        {
            "positions": [
                -0.053128516805559994,
                -2.228304630763477,
                -2.327081022349425,
                1.3861584215800309,
                0.19209862690791576,
                0.13778952136596212
            ]
        },
        {
            "positions": [
                -0.1428310290427693,
                -2.2612688735249438,
                -2.37404199567243,
                1.4364792346574924,
                0.18622567102653553,
                0.09457682541133805
            ]
        },
        {
            "positions": [
                -0.1836987845857282,
                -2.2764844085013594,
                -2.3945426802645216,
                1.4569173873232761,
                0.18571197219300492,
                0.07693115497854705
            ]
        }
    ]
}