{
    "goal": {
        "global_pose": {
            "orientation": {
                "w": 0.5084816217422485,
                "x": -0.49083608388900757,
                "y": 0.5182115435600281,
                "z": -0.4816462993621826
            },
            "position": {
                "x": 0.5540239810943604,
                "y": 0.030875300988554955,
                "z": 0.16403168439865112
            }
        },
        "name": "move_to_storage_A"
    },
    "id": "RRTConnect_move_to_storage_A_26",
    "joint_names": [
        "shoulder_pan_joint",
        "shoulder_lift_joint",
        "elbow_joint",
        "wrist_1_joint",
        "wrist_2_joint",
        "wrist_3_joint"
    ],
    "metrics": {
        "cart_traj_len": 0.35366097077022784,
        "distance_elbow_joint": 0.45143838202089737,
        "distance_shoulder_lift_joint": 0.23606850945366564,
        "distance_shoulder_pan_joint": 0.4630565761743265,
        "distance_wrist_1_joint": 0.2442900070436883,
        "distance_wrist_2_joint": 1.098539235384448,
        "distance_wrist_3_joint": 0.10578472236732184,
        "smoothness": 2.2204460668324854e-16,
        "time": 0.047963275,
        "traj_len": 1.612196462111348,
        "weighted_distance": 2.0380324137773487
    },
    "planner": "RRTConnect",
    "start": {
        "state": {
            "elbow_joint": 1.971548259319323,
            "shoulder_lift_joint": -1.1394851275133948,
            "shoulder_pan_joint": 0.1228115487234821,
            "wrist_1_joint": -0.7804723859257726,
            "wrist_2_joint": 0.12958671773740124,
            "wrist_3_joint": -3.192489227718131
        }
    },
    "waypoints": [
        {
            "positions": [
                0.1228115487234821,
                -1.1394851275133948,
                1.971548259319323,
                -0.7804723859257726,
                0.12958671773740124,
                -3.192489227718131
            ]
        },
        {
            "positions": [
                0.05666060927000689,
                -1.1732092002924899,
                2.03603945675088,
                -0.8153709583605853,
                0.28652089422089383,
                -3.1773771245227995
            ]
        },
        {
            "positions": [
                -0.009490330183468315,
                -1.206933273071585,
                2.1005306541824367,
                -0.8502695307953978,
                0.4434550707043864,
                -3.162265021327468
            ]
        },
        {
            "positions": [
                -0.07564126963694354,
                -1.24065734585068,
                2.1650218516139934,
                -0.8851681032302104,
                0.600389247187879,
                -3.1471529181321363
            ]
        },
        {
            "positions": [
                -0.14179220909041873,
                -1.2743814186297753,
                2.22951304904555,
                -0.9200666756650231,
                0.7573234236713716,
                -3.132040814936804
            ]
        },
        {
            "positions": [
                -0.20794314854389395,
                -1.3081054914088703,
                2.294004246477107,
                -0.9549652480998356,
                0.9142576001548642,
                -3.1169287117414726
            ]
        },
        {
            "positions": [
                -0.2740940879973692,
                -1.3418295641879654,
                2.3584954439086636,
                -0.9898638205346483,
                1.0711917766383567,
                -3.101816608546141
            ]
        },
        {
            "positions": [
                -0.3402450274508444,
                -1.3755536369670605,
                2.4229866413402203,
                -1.024762392969461,
                1.2281259531218494,
                -3.0867045053508093
            ]
        }
    ]
}{
    "goal": {
        "global_pose": {
            "orientation": {
                "w": 0.5084816217422485,
                "x": -0.49083608388900757,
                "y": 0.5182115435600281,
                "z": -0.4816462993621826
            },
            "position": {
                "x": 0.5540239810943604,
                "y": 0.030875300988554955,
                "z": 0.16403168439865112
            }
        },
        "name": "move_to_storage_A"
    },
    "id": "RRTConnect_move_to_storage_A_26",
    "joint_names": [
        "shoulder_pan_joint",
        "shoulder_lift_joint",
        "elbow_joint",
        "wrist_1_joint",
        "wrist_2_joint",
        "wrist_3_joint"
    ],
    "metrics": {
        "cart_traj_len": 0.3532470758387414,
        "distance_elbow_joint": 0.4482809500961089,
        "distance_shoulder_lift_joint": 0.23626832057732172,
        "distance_shoulder_pan_joint": 0.458433457778617,
        "distance_wrist_1_joint": 0.2353935827461553,
        "distance_wrist_2_joint": 1.1146751210943104,
        "distance_wrist_3_joint": 0.08627737693141802,
        "smoothness": 1.1102230263833737e-15,
        "time": 0.0423141,
        "traj_len": 1.6060288942680736,
        "weighted_distance": 2.0253276937145834
    },
    "planner": "RRTConnect",
    "start": {
        "state": {
            "elbow_joint": 1.97154746011099,
            "shoulder_lift_joint": -1.13948474672311,
            "shoulder_pan_joint": 0.12281154466712228,
            "wrist_1_joint": -0.7804688027058302,
            "wrist_2_joint": 0.12958655903071145,
            "wrist_3_joint": 3.0906928834467795
        }
    },
    "waypoints": [
        {
            "positions": [
                0.12281154466712228,
                -1.13948474672311,
                1.97154746011099,
                -0.7804688027058302,
                0.12958655903071145,
                3.0906928834467795
            ]
        },
        {
            "positions": [
                0.05732105069874843,
                -1.1732373639484417,
                2.0355875958390053,
                -0.8140964573838524,
                0.28882586204418437,
                3.1030182230084105
            ]
        },
        {
            "positions": [
                -0.008169443269625418,
                -1.2069899811737732,
                2.099627731567021,
                -0.8477241120618746,
                0.44806516505765726,
                3.115343562570042
            ]
        },
        {
            "positions": [
                -0.07365993723799928,
                -1.240742598399105,
                2.1636678672950365,
                -0.8813517667398967,
                0.6073044680711301,
                3.127668902131673
            ]
        },
        {
            "positions": [
                -0.1391504312063731,
                -1.2744952156244367,
                2.2277080030230523,
                -0.9149794214179189,
                0.7665437710846031,
                3.139994241693304
            ]
        },
        {
            "positions": [
                -0.20464092517474697,
                -1.3082478328497684,
                2.2917481387510676,
                -0.9486070760959411,
                0.9257830740980761,
                3.152319581254935
            ]
        },
        {
            "positions": [
                -0.27013141914312083,
                -1.3420004500751,
                2.3557882744790835,
                -0.9822347307739633,
                1.0850223771115488,
                3.1646449208165666
            ]
        },
        {
            "positions": [
                -0.3356219131114947,
                -1.3757530673004317,
                2.419828410207099,
                -1.0158623854519855,
                1.244261680125022,
                3.1769702603781975
            ]
        }
    ]
}{
    "goal": {
        "global_pose": {
            "orientation": {
                "w": 0.5084816217422485,
                "x": -0.49083608388900757,
                "y": 0.5182115435600281,
                "z": -0.4816462993621826
            },
            "position": {
                "x": 0.5540239810943604,
                "y": 0.030875300988554955,
                "z": 0.16403168439865112
            }
        },
        "name": "move_to_storage_A"
    },
    "id": "RRTConnect_move_to_storage_A_26",
    "joint_names": [
        "shoulder_pan_joint",
        "shoulder_lift_joint",
        "elbow_joint",
        "wrist_1_joint",
        "wrist_2_joint",
        "wrist_3_joint"
    ],
    "metrics": {
        "cart_traj_len": 0.35307435898203593,
        "distance_elbow_joint": 0.44969083981422164,
        "distance_shoulder_lift_joint": 0.2365076320840911,
        "distance_shoulder_pan_joint": 0.462401987367397,
        "distance_wrist_1_joint": 0.23502337116743321,
        "distance_wrist_2_joint": 1.097111567651542,
        "distance_wrist_3_joint": 0.08873531944568924,
        "smoothness": 4.440892098500626e-16,
        "time": 0.042582475,
        "traj_len": 1.6029568670211853,
        "weighted_distance": 2.019672323729948
    },
    "planner": "RRTConnect",
    "start": {
        "state": {
            "elbow_joint": 1.9715472970024885,
            "shoulder_lift_joint": -1.1394870060712896,
            "shoulder_pan_joint": 0.12281152778156021,
            "wrist_1_joint": -0.780463741449964,
            "wrist_2_joint": 0.12958659822042276,
            "wrist_3_joint": 3.090690232415272
        }
    },
    "waypoints": [
        {
            "positions": [
                0.12281152778156021,
                -1.1394870060712896,
                1.9715472970024885,
                -0.780463741449964,
                0.12958659822042276,
                3.090690232415272
            ]
        },
        {
            "positions": [
                0.05675410101478921,
                -1.1732738106547311,
                2.035788845547377,
                -0.8140385087595973,
                0.286316822170643,
                3.1033667066217987
            ]
        },
        {
            "positions": [
                -0.009303325751981784,
                -1.2070606152381729,
                2.100030394092266,
                -0.8476132760692306,
                0.4430470461208633,
                3.116043180828326
            ]
        },
        {
            "positions": [
                -0.0753607525187528,
                -1.2408474198216144,
                2.164271942637155,
                -0.8811880433788639,
                0.5997772700710836,
                3.128719655034853
            ]
        },
        {
            "positions": [
                -0.14141817928552378,
                -1.274634224405056,
                2.228513491182044,
                -0.9147628106884973,
                0.7565074940213038,
                3.14139612924138
            ]
        },
        {
            "positions": [
                -0.2074756060522948,
                -1.3084210289884974,
                2.2927550397269325,
                -0.9483375779981306,
                0.9132377179715241,
                3.154072603447907
            ]
        },
        {
            "positions": [
                -0.2735330328190658,
                -1.3422078335719392,
                2.356996588271821,
                -0.9819123453077638,
                1.0699679419217445,
                3.1667490776544343
            ]
        },
        {
            "positions": [
                -0.3395904595858368,
                -1.3759946381553807,
                2.42123813681671,
                -1.0154871126173972,
                1.2266981658719647,
                3.179425551860961
            ]
        }
    ]
}