{
    "goal": {
        "global_pose": {
            "orientation": {
                "w": 0.5084816262002911,
                "x": -0.4908360881923452,
                "y": 0.5182115481033761,
                "z": -0.48164630358495003
            },
            "position": {
                "x": 0.5540239810943604,
                "y": -0.46912469901144505,
                "z": 0.16403168439865112
            }
        },
        "name": "move_to_storage_B"
    },
    "id": "RRTConnect_move_to_storage_B_9",
    "joint_names": [
        "shoulder_pan_joint",
        "shoulder_lift_joint",
        "elbow_joint",
        "wrist_1_joint",
        "wrist_2_joint",
        "wrist_3_joint"
    ],
    "metrics": {
        "cart_traj_len": 0.7416665219603136,
        "distance_elbow_joint": 0.43047386884011996,
        "distance_shoulder_lift_joint": 0.4581322426440302,
        "distance_shoulder_pan_joint": 0.48785864839178694,
        "distance_wrist_1_joint": 2.992896778926826,
        "distance_wrist_2_joint": 2.8223927414156207,
        "distance_wrist_3_joint": 3.137821578470326,
        "smoothness": 0.2394381538925023,
        "time": 0.125818765,
        "traj_len": 3.2139657525693566,
        "weighted_distance": 4.735029940345869
    },
    "planner": "RRTConnect",
    "start": {
        "state": {
            "elbow_joint": 1.664937868594044,
            "shoulder_lift_joint": -0.661644460510453,
            "shoulder_pan_joint": -0.9139846352900073,
            "wrist_1_joint": 2.146753192139373,
            "wrist_2_joint": -2.2341966793290973,
            "wrist_3_joint": 0.005466555786416001
        }
    },
    "waypoints": [
        {
            "positions": [
                -0.9139846352900073,
                -0.661644460510453,
                1.664937868594044,
                2.146753192139373,
                -2.2341966793290973,
                0.005466555786416001
            ]
        },
        {
            "positions": [
                -0.837225391887024,
                -0.7128456754060585,
                1.6448200040327832,
                2.11678796914728,
                -2.264594739970125,
                -0.022836216548185864
            ]
        },
        {
            "positions": [
                -0.7604661484840409,
                -0.764046890301664,
                1.6247021394715226,
                2.086822746155187,
                -2.2949928006111526,
                -0.05113898888278773
            ]
        },
        {
            "positions": [
                -0.7738397549474737,
                -0.7782760828157768,
                1.6403116650602265,
                1.9695040928374816,
                -2.18452893580581,
                -0.1743876302348326
            ]
        },
        {
            "positions": [
                -0.7872133614109066,
                -0.7925052753298895,
                1.6559211906489306,
                1.8521854395197759,
                -2.0740650710004673,
                -0.29763627158687755
            ]
        },
        {
            "positions": [
                -0.8005869678743394,
                -0.8067344678440023,
                1.6715307162376345,
                1.7348667862020704,
                -1.963601206195125,
                -0.4208849129389224
            ]
        },
        {
            "positions": [
                -0.8139605743377722,
                -0.8209636603581151,
                1.6871402418263384,
                1.6175481328843646,
                -1.8531373413897823,
                -0.5441335542909673
            ]
        },
        {
            "positions": [
                -0.827334180801205,
                -0.8351928528722278,
                1.7027497674150425,
                1.500229479566659,
                -1.7426734765844396,
                -0.6673821956430122
            ]
        },
        {
            "positions": [
                -0.8407077872646379,
                -0.8494220453863406,
                1.7183592930037463,
                1.3829108262489536,
                -1.6322096117790972,
                -0.790630836995057
            ]
        },
        {
            "positions": [
                -0.8540813937280707,
                -0.8636512379004534,
                1.7339688185924502,
                1.2655921729312478,
                -1.5217457469737545,
                -0.913879478347102
            ]
        },
        {
            "positions": [
                -0.8674550001915036,
                -0.8778804304145661,
                1.7495783441811543,
                1.1482735196135423,
                -1.4112818821684119,
                -1.0371281196991469
            ]
        },
        {
            "positions": [
                -0.8808286066549363,
                -0.8921096229286789,
                1.7651878697698582,
                1.0309548662958368,
                -1.3008180173630692,
                -1.1603767610511917
            ]
        },
        {
            "positions": [
                -0.8942022131183691,
                -0.9063388154427916,
                1.780797395358562,
                0.913636212978131,
                -1.1903541525577266,
                -1.2836254024032367
            ]
        },
        {
            "positions": [
                -0.907575819581802,
                -0.9205680079569044,
                1.7964069209472662,
                0.7963175596604255,
                -1.0798902877523842,
                -1.4068740437552816
            ]
        },
        {
            "positions": [
                -0.9209494260452348,
                -0.9347972004710172,
                1.81201644653597,
                0.67899890634272,
                -0.9694264229470415,
                -1.5301226851073264
            ]
        },
        {
            "positions": [
                -0.9343230325086677,
                -0.9490263929851299,
                1.827625972124674,
                0.5616802530250142,
                -0.8589625581416989,
                -1.6533713264593715
            ]
        },
        {
            "positions": [
                -0.9476966389721004,
                -0.9632555854992427,
                1.843235497713378,
                0.4443615997073085,
                -0.7484986933363562,
                -1.7766199678114165
            ]
        },
        {
            "positions": [
                -0.9610702454355333,
                -0.9774847780133555,
                1.858845023302082,
                0.3270429463896032,
                -0.6380348285310138,
                -1.8998686091634611
            ]
        },
        {
            "positions": [
                -0.9744438518989661,
                -0.9917139705274682,
                1.8744545488907858,
                0.20972429307189744,
                -0.5275709637256711,
                -2.023117250515506
            ]
        },
        {
            "positions": [
                -0.987817458362399,
                -1.005943163041581,
                1.8900640744794899,
                0.09240563975419169,
                -0.41710709892032827,
                -2.146365891867551
            ]
        },
        {
            "positions": [
                -1.0011910648258318,
                -1.0201723555556939,
                1.9056736000681938,
                -0.02491301356351361,
                -0.30664323411498606,
                -2.2696145332195954
            ]
        },
        {
            "positions": [
                -1.0145646712892646,
                -1.0344015480698066,
                1.9212831256568976,
                -0.14223166688121935,
                -0.1961793693096432,
                -2.3928631745716404
            ]
        },
        {
            "positions": [
                -1.0279382777526975,
                -1.0486307405839193,
                1.9368926512456017,
                -0.2595503201989251,
                -0.08571550450430054,
                -2.5161118159236855
            ]
        },
        {
            "positions": [
                -1.0413118842161302,
                -1.0628599330980322,
                1.9525021768343056,
                -0.3768689735166304,
                0.02474836030104166,
                -2.63936045727573
            ]
        },
        {
            "positions": [
                -1.054685490679563,
                -1.0770891256121449,
                1.9681117024230095,
                -0.49418762683433615,
                0.1352122251063843,
                -2.762609098627775
            ]
        },
        {
            "positions": [
                -1.0680590971429957,
                -1.0913183181262576,
                1.9837212280117136,
                -0.6115062801520419,
                0.24567608991172696,
                -2.88585773997982
            ]
        },
        {
            "positions": [
                -1.0814327036064286,
                -1.1055475106403705,
                1.9993307536004172,
                -0.7288249334697472,
                0.3561399547170696,
                -3.009106381331865
            ]
        },
        {
            "positions": [
                -1.0948063100698615,
                -1.1197767031544832,
                2.0149402791891213,
                -0.8461435867874527,
                0.46660381952241237,
                -3.13235502268391
            ]
        }
    ]
}