{
    "goal": {
        "global_pose": {
            "orientation": {
                "w": 0.005598929693374612,
                "x": 0.007748599140229565,
                "y": 0.7110244013736278,
                "z": -0.7031023480610252
            },
            "position": {
                "x": -0.8858502320852131,
                "y": -0.7141253447532654,
                "z": 0.3711530566215515
            }
        },
        "name": "move_to_auspresseinheit_C"
    },
    "id": "RRTConnect_move_to_auspresseinheit_C_148",
    "joint_names": [
        "shoulder_pan_joint",
        "shoulder_lift_joint",
        "elbow_joint",
        "wrist_1_joint",
        "wrist_2_joint",
        "wrist_3_joint"
    ],
    "metrics": {
        "cart_traj_len": 0.49246189745442853,
        "distance_elbow_joint": 0.9992586483992207,
        "distance_shoulder_lift_joint": 0.3244465907966786,
        "distance_shoulder_pan_joint": 0.25644229294447474,
        "distance_wrist_1_joint": 0.6868148981644099,
        "distance_wrist_2_joint": 1.304744156385391,
        "distance_wrist_3_joint": 0.07169295952877208,
        "smoothness": 8.074349282788172e-16,
        "time": 0.051275395,
        "traj_len": 1.9087691181017536,
        "weighted_distance": 2.4038187368905946
    },
    "planner": "RRTConnect",
    "start": {
        "state": {
            "elbow_joint": 1.7527959577737207,
            "shoulder_lift_joint": -0.9740617694225068,
            "shoulder_pan_joint": -2.967991417825858,
            "wrist_1_joint": -0.759517768980727,
            "wrist_2_joint": 1.7443932448377408,
            "wrist_3_joint": -3.0840537646736568
        }
    },
    "waypoints": [
        {
            "positions": [
                -2.967991417825858,
                -0.9740617694225068,
                1.7527959577737207,
                -0.759517768980727,
                1.7443932448377408,
                -3.0840537646736568
            ]
        },
        {
            "positions": [
                -2.9423471885314103,
                -0.9416171103428389,
                1.6528700929337985,
                -0.690836279164286,
                1.6139188291992017,
                -3.091223060626534
            ]
        },
        {
            "positions": [
                -2.916702959236963,
                -0.909172451263171,
                1.5529442280938766,
                -0.622154789347845,
                1.4834444135606626,
                -3.0983923565794114
            ]
        },
        {
            "positions": [
                -2.8910587299425154,
                -0.8767277921835032,
                1.4530183632539544,
                -0.553473299531404,
                1.3529699979221235,
                -3.1055616525322884
            ]
        },
        {
            "positions": [
                -2.8654145006480682,
                -0.8442831331038353,
                1.3530924984140325,
                -0.484791809714963,
                1.2224955822835843,
                -3.1127309484851655
            ]
        },
        {
            "positions": [
                -2.8397702713536206,
                -0.8118384740241675,
                1.2531666335741103,
                -0.41611031989852204,
                1.0920211666450452,
                -3.1199002444380426
            ]
        },
        {
            "positions": [
                -2.814126042059173,
                -0.7793938149444997,
                1.1532407687341881,
                -0.3474288300820811,
                0.9615467510065062,
                -3.12706954039092
            ]
        },
        {
            "positions": [
                -2.7884818127647257,
                -0.7469491558648318,
                1.0533149038942662,
                -0.2787473402656401,
                0.8310723353679672,
                -3.134238836343797
            ]
        },
        {
            "positions": [
                -2.762837583470278,
                -0.7145044967851639,
                0.953389039054344,
                -0.210065850449199,
                0.7005979197294281,
                -3.1414081322966743
            ]
        },
        {
            "positions": [
                -2.737193354175831,
                -0.682059837705496,
                0.853463174214422,
                -0.14138436063275805,
                0.570123504090889,
                -3.148577428249552
            ]
        },
        {
            "positions": [
                -2.711549124881383,
                -0.6496151786258282,
                0.7535373093744999,
                -0.07270287081631714,
                0.43964908845234985,
                -3.155746724202429
            ]
        }
    ]
}