{
    "goal": {
        "global_pose": {
            "orientation": {
                "w": -0.00223480608172531,
                "x": 0.0024358444001904467,
                "y": 0.7094548369677653,
                "z": -0.704743149386269
            },
            "position": {
                "x": 0.6205249238014221,
                "y": -0.6371506643295288,
                "z": 0.19426114857196808
            }
        },
        "name": "move_to_magneteinheit_B"
    },
    "id": "RRTConnect_move_to_magneteinheit_B_16",
    "joint_names": [
        "shoulder_pan_joint",
        "shoulder_lift_joint",
        "elbow_joint",
        "wrist_1_joint",
        "wrist_2_joint",
        "wrist_3_joint"
    ],
    "metrics": {
        "cart_traj_len": 4.347114812285262,
        "distance_elbow_joint": 4.436654189035851,
        "distance_shoulder_lift_joint": 0.7746025045068219,
        "distance_shoulder_pan_joint": 4.450749418797228,
        "distance_wrist_1_joint": 4.612801562646123,
        "distance_wrist_2_joint": 1.6685842085367044,
        "distance_wrist_3_joint": 3.4978591740688385,
        "smoothness": 0.383786119518324,
        "time": 0.314554678,
        "traj_len": 4.409223407539198,
        "weighted_distance": 5.719996081896566
    },
    "planner": "RRTConnect",
    "start": {
        "state": {
            "elbow_joint": 2.6216224122426386,
            "shoulder_lift_joint": -1.4174107377796124,
            "shoulder_pan_joint": 0.7066234856936794,
            "wrist_1_joint": 1.9546482284002225,
            "wrist_2_joint": -0.7096286983471962,
            "wrist_3_joint": 0.005740856962016249
        }
    },
    "waypoints": [
        {
            "positions": [
                0.7066234856936794,
                -1.4174107377796124,
                2.6216224122426386,
                1.9546482284002225,
                -0.7096286983471962,
                0.005740856962016249
            ]
        },
        {
            "positions": [
                0.6185679064537482,
                -1.4147055728032742,
                2.610633692806031,
                1.932264605121695,
                -0.7178759422807638,
                -0.05111959365462451
            ]
        },
        {
            "positions": [
                0.4352640228312014,
                -1.4342811868090066,
                2.5676468262319028,
                1.8601248566297537,
                -0.6842129166293236,
                -0.07272005106561887
            ]
        },
        {
            "positions": [
                0.2519601392086547,
                -1.453856800814739,
                2.5246599596577743,
                1.7879851081378124,
                -0.6505498909778833,
                -0.09432050847661322
            ]
        },
        {
            "positions": [
                0.06865625558610788,
                -1.4734324148204714,
                2.481673093083646,
                1.7158453596458711,
                -0.6168868653264431,
                -0.11592096588760757
            ]
        },
        {
            "positions": [
                -0.1146476280364388,
                -1.4930080288262038,
                2.4386862265095175,
                1.6437056111539299,
                -0.5832238396750029,
                -0.13752142329860192
            ]
        },
        {
            "positions": [
                -0.2979515116589857,
                -1.5125836428319361,
                2.395699359935389,
                1.5715658626619886,
                -0.5495608140235626,
                -0.15912188070959626
            ]
        },
        {
            "positions": [
                -0.4812553952815325,
                -1.5321592568376685,
                2.3527124933612606,
                1.4994261141700473,
                -0.5158977883721224,
                -0.18072233812059063
            ]
        },
        {
            "positions": [
                -0.39824176055137894,
                -1.5327855629080067,
                2.239955017475065,
                1.3855116742302613,
                -0.4930979241104405,
                -0.12270617564723713
            ]
        },
        {
            "positions": [
                -0.3152281258212254,
                -1.5334118689783447,
                2.127197541588869,
                1.2715972342904753,
                -0.4702980598487586,
                -0.06469001317388362
            ]
        },
        {
            "positions": [
                -0.23221449109107184,
                -1.534038175048683,
                2.0144400657026735,
                1.1576827943506893,
                -0.4474981955870767,
                -0.006673850700530115
            ]
        },
        {
            "positions": [
                -0.1492008563609183,
                -1.534664481119021,
                1.9016825898164775,
                1.0437683544109033,
                -0.4246983313253948,
                0.05134231177282339
            ]
        },
        {
            "positions": [
                -0.06618722163076474,
                -1.535290787189359,
                1.788925113930282,
                0.9298539144711173,
                -0.4018984670637129,
                0.1093584742461769
            ]
        },
        {
            "positions": [
                0.016826413099388815,
                -1.5359170932596973,
                1.6761676380440862,
                0.8159394745313312,
                -0.379098602802031,
                0.1673746367195304
            ]
        },
        {
            "positions": [
                0.09984004782954237,
                -1.5365433993300355,
                1.5634101621578904,
                0.7020250345915452,
                -0.35629873854034916,
                0.2253907991928839
            ]
        },
        {
            "positions": [
                0.18285368255969592,
                -1.5371697054003735,
                1.4506526862716946,
                0.5881105946517592,
                -0.33349887427866726,
                0.2834069616662374
            ]
        },
        {
            "positions": [
                0.26586731728984947,
                -1.5377960114707117,
                1.337895210385499,
                0.4741961547119733,
                -0.3106990100169854,
                0.3414231241395909
            ]
        },
        {
            "positions": [
                0.348880952020003,
                -1.5384223175410499,
                1.225137734499303,
                0.3602817147721873,
                -0.28789914575530345,
                0.3994392866129444
            ]
        },
        {
            "positions": [
                0.4318945867501566,
                -1.5390486236113878,
                1.1123802586131075,
                0.24636727483240128,
                -0.2650992814936216,
                0.4574554490862979
            ]
        },
        {
            "positions": [
                0.5149082214803101,
                -1.539674929681726,
                0.9996227827269117,
                0.13245283489261506,
                -0.24229941723193965,
                0.5154716115596514
            ]
        },
        {
            "positions": [
                0.5979218562104637,
                -1.5403012357520642,
                0.886865306840716,
                0.018538394952829274,
                -0.2194995529702578,
                0.5734877740330049
            ]
        },
        {
            "positions": [
                0.6809354909406172,
                -1.5409275418224022,
                0.7741078309545202,
                -0.09537604498695695,
                -0.1966996887085759,
                0.6315039365063584
            ]
        },
        {
            "positions": [
                0.7639491256707708,
                -1.5415538478927404,
                0.6613503550683246,
                -0.20929048492674274,
                -0.173899824446894,
                0.6895200989797119
            ]
        },
        {
            "positions": [
                0.8469627604009243,
                -1.5421801539630786,
                0.5485928791821286,
                -0.32320492486652896,
                -0.1510999601852121,
                0.7475362614530654
            ]
        },
        {
            "positions": [
                0.9299763951310779,
                -1.5428064600334166,
                0.43583540329593307,
                -0.43711936480631475,
                -0.1283000959235302,
                0.8055524239264189
            ]
        },
        {
            "positions": [
                1.0129900298612315,
                -1.5434327661037548,
                0.3230779274097375,
                -0.5510338047461008,
                -0.10550023166184835,
                0.8635685863997724
            ]
        },
        {
            "positions": [
                1.096003664591385,
                -1.544059072174093,
                0.2103204515235415,
                -0.664948244685887,
                -0.0827003674001664,
                0.9215847488731259
            ]
        },
        {
            "positions": [
                1.1790172993215386,
                -1.544685378244431,
                0.0975629756373455,
                -0.7788626846256728,
                -0.059900503138484495,
                0.9796009113464794
            ]
        },
        {
            "positions": [
                1.2620309340516922,
                -1.5453116843147692,
                -0.015194500248850051,
                -0.892777124565459,
                -0.03710063887680265,
                1.037617073819833
            ]
        },
        {
            "positions": [
                1.3450445687818458,
                -1.5459379903851074,
                -0.1279519761350456,
                -1.0066915645052448,
                -0.014300774615120804,
                1.0956332362931864
            ]
        },
        {
            "positions": [
                1.4280582035119993,
                -1.5465642964554454,
                -0.2407094520212416,
                -1.120606004445031,
                0.008499089646561209,
                1.15364939876654
            ]
        },
        {
            "positions": [
                1.5110718382421529,
                -1.5471906025257836,
                -0.35346692790743717,
                -1.2345204443848172,
                0.03129895390824311,
                1.2116655612398934
            ]
        },
        {
            "positions": [
                1.5940854729723064,
                -1.5478169085961218,
                -0.46622440379363317,
                -1.348434884324603,
                0.0540988181699249,
                1.269681723713247
            ]
        },
        {
            "positions": [
                1.67709910770246,
                -1.5484432146664597,
                -0.5789818796798287,
                -1.4623493242643888,
                0.0768986824316068,
                1.3276978861866005
            ]
        },
        {
            "positions": [
                1.7601127424326135,
                -1.549069520736798,
                -0.6917393555660247,
                -1.576263764204175,
                0.09969854669328881,
                1.385714048659954
            ]
        },
        {
            "positions": [
                1.843126377162767,
                -1.5496958268071361,
                -0.8044968314522203,
                -1.6901782041439612,
                0.1224984109549706,
                1.4437302111333075
            ]
        },
        {
            "positions": [
                1.9261400118929206,
                -1.5503221328774741,
                -0.9172543073384158,
                -1.804092644083747,
                0.1452982752166525,
                1.501746373606661
            ]
        },
        {
            "positions": [
                2.009153646623074,
                -1.5509484389478123,
                -1.0300117832246114,
                -1.9180070840235328,
                0.1680981394783344,
                1.5597625360800145
            ]
        },
        {
            "positions": [
                2.0921672813532277,
                -1.5515747450181505,
                -1.1427692591108078,
                -2.031921523963319,
                0.1908980037400163,
                1.617778698553368
            ]
        },
        {
            "positions": [
                2.1751809160833813,
                -1.5522010510884885,
                -1.2555267349970034,
                -2.1458359639031053,
                0.2136978680016982,
                1.6757948610267215
            ]
        },
        {
            "positions": [
                2.258194550813535,
                -1.5528273571588267,
                -1.3682842108831992,
                -2.259750403842891,
                0.2364977322633801,
                1.733811023500075
            ]
        },
        {
            "positions": [
                2.3161239720017175,
                -1.5977252011542264,
                -1.4139048573025383,
                -2.296081144590091,
                0.16606935568865033,
                1.8523207465864564
            ]
        },
        {
            "positions": [
                2.3740533931898997,
                -1.6426230451496264,
                -1.4595255037218775,
                -2.3324118853372915,
                0.09564097911392053,
                1.9708304696728378
            ]
        },
        {
            "positions": [
                2.4319828143780824,
                -1.6875208891450262,
                -1.5051461501412167,
                -2.3687426260844915,
                0.02521260253919072,
                2.0893401927592192
            ]
        },
        {
            "positions": [
                2.4899122355662646,
                -1.7324187331404262,
                -1.550766796560556,
                -2.405073366831692,
                -0.04521577403553906,
                2.2078499158456006
            ]
        },
        {
            "positions": [
                2.5478416567544473,
                -1.777316577135826,
                -1.5963874429798952,
                -2.441404107578892,
                -0.11564415061026884,
                2.326359638931982
            ]
        },
        {
            "positions": [
                2.60577107794263,
                -1.8222144211312257,
                -1.6420080893992344,
                -2.477734848326092,
                -0.18607252718499867,
                2.444869362018363
            ]
        },
        {
            "positions": [
                2.663700499130812,
                -1.8671122651266256,
                -1.6876287358185735,
                -2.5140655890732924,
                -0.25650090375972845,
                2.5633790851047444
            ]
        },
        {
            "positions": [
                2.721629920318995,
                -1.9120101091220254,
                -1.7332493822379127,
                -2.5503963298204924,
                -0.3269292803344582,
                2.681888808191126
            ]
        },
        {
            "positions": [
                2.701634846245165,
                -2.0035410435259364,
                -1.7059885840528128,
                -2.5144773283453565,
                -0.3744413728215099,
                2.831483752415964
            ]
        },
        {
            "positions": [
                2.681639772171335,
                -2.0950719779298472,
                -1.678727785867713,
                -2.4785583268702203,
                -0.42195346530856154,
                2.981078696640803
            ]
        },
        {
            "positions": [
                2.661644698097505,
                -2.186602912333758,
                -1.6514669876826131,
                -2.4426393253950844,
                -0.4694655577956132,
                3.1306736408656413
            ]
        }
    ]
}