{
    "goal": {
        "global_pose": {
            "orientation": {
                "w": 0.7031023502349854,
                "x": -0.7110244035720825,
                "y": 0.007748599164187908,
                "z": 0.005598929710686207
            },
            "position": {
                "x": 0.11585023208521307,
                "y": 0.44412534475326537,
                "z": 0.3711530566215515
            }
        },
        "name": "move_to_auspresseinheit_A"
    },
    "id": "RRTConnect_move_to_auspresseinheit_A_41",
    "joint_names": [
        "shoulder_pan_joint",
        "shoulder_lift_joint",
        "elbow_joint",
        "wrist_1_joint",
        "wrist_2_joint",
        "wrist_3_joint"
    ],
    "metrics": {
        "cart_traj_len": 3.3946495972056567,
        "distance_elbow_joint": 3.105506847872125,
        "distance_shoulder_lift_joint": 2.3380204386555477,
        "distance_shoulder_pan_joint": 2.006475521198525,
        "distance_wrist_1_joint": 5.86092218645216,
        "distance_wrist_2_joint": 5.215129983927632,
        "distance_wrist_3_joint": 4.973905318736239,
        "smoothness": 0.5242537896829184,
        "time": 0.13601137600000002,
        "traj_len": 4.847675762346553,
        "weighted_distance": 6.6726174103341584
    },
    "planner": "RRTConnect",
    "start": {
        "state": {
            "elbow_joint": 2.4225746658250005,
            "shoulder_lift_joint": -1.3736534386056498,
            "shoulder_pan_joint": -0.3378633547517467,
            "wrist_1_joint": -1.0288598680537169,
            "wrist_2_joint": 1.233022673432363,
            "wrist_3_joint": -3.0940220416140027
        }
    },
    "waypoints": [
        {
            "positions": [
                -0.3378633547517467,
                -1.3736534386056498,
                2.4225746658250005,
                -1.0288598680537169,
                1.233022673432363,
                -3.0940220416140027
            ]
        },
        {
            "positions": [
                -0.35138734772487185,
                -1.4174119671580039,
                2.3702855476541487,
                -0.9217390375857859,
                1.1372085496769395,
                -3.0118488303845297
            ]
        },
        {
            "positions": [
                -0.36491134069799697,
                -1.4611704957103577,
                2.317996429483297,
                -0.8146182071178549,
                1.041394425921516,
                -2.929675619155056
            ]
        },
        {
            "positions": [
                -0.37843533367112214,
                -1.5049290242627118,
                2.265707311312445,
                -0.707497376649924,
                0.9455803021660923,
                -2.847502407925583
            ]
        },
        {
            "positions": [
                -0.39195932664424726,
                -1.5486875528150659,
                2.2134181931415933,
                -0.600376546181993,
                0.8497661784106688,
                -2.7653291966961095
            ]
        },
        {
            "positions": [
                -0.4054833196173724,
                -1.5924460813674197,
                2.1611290749707415,
                -0.493255715714062,
                0.7539520546552453,
                -2.6831559854666365
            ]
        },
        {
            "positions": [
                -0.4190073125904975,
                -1.6362046099197738,
                2.1088399567998897,
                -0.38613488524613104,
                0.6581379308998216,
                -2.6009827742371634
            ]
        },
        {
            "positions": [
                -0.4325313055636226,
                -1.6799631384721279,
                2.056550838629038,
                -0.27901405477820007,
                0.5623238071443981,
                -2.5188095630076903
            ]
        },
        {
            "positions": [
                -0.44605529853674775,
                -1.7237216670244817,
                2.004261720458186,
                -0.1718932243102691,
                0.4665096833889746,
                -2.436636351778217
            ]
        },
        {
            "positions": [
                -0.45957929150987287,
                -1.7674801955768358,
                1.9519726022873345,
                -0.06477239384233813,
                0.37069555963355105,
                -2.3544631405487437
            ]
        },
        {
            "positions": [
                -0.473103284482998,
                -1.8112387241291896,
                1.899683484116483,
                0.042348436625592845,
                0.2748814358781275,
                -2.27228992931927
            ]
        },
        {
            "positions": [
                -0.4866272774561231,
                -1.8549972526815437,
                1.8473943659456311,
                0.14946926709352382,
                0.179067312122704,
                -2.190116718089797
            ]
        },
        {
            "positions": [
                -0.5001512704292483,
                -1.8987557812338975,
                1.7951052477747793,
                0.2565900975614548,
                0.08325318836728024,
                -2.107943506860324
            ]
        },
        {
            "positions": [
                -0.5136752634023735,
                -1.9425143097862518,
                1.7428161296039275,
                0.36371092802938576,
                -0.01256093538814329,
                -2.0257702956308505
            ]
        },
        {
            "positions": [
                -0.5271992563754986,
                -1.9862728383386057,
                1.6905270114330757,
                0.47083175849731673,
                -0.10837505914356682,
                -1.9435970844013775
            ]
        },
        {
            "positions": [
                -0.5407232493486237,
                -2.0300313668909595,
                1.638237893262224,
                0.5779525889652477,
                -0.20418918289899035,
                -1.8614238731719042
            ]
        },
        {
            "positions": [
                -0.5542472423217488,
                -2.073789895443314,
                1.585948775091372,
                0.6850734194331787,
                -0.3000033066544139,
                -1.7792506619424309
            ]
        },
        {
            "positions": [
                -0.5677712352948739,
                -2.1175484239956677,
                1.5336596569205203,
                0.7921942499011096,
                -0.3958174304098374,
                -1.6970774507129578
            ]
        },
        {
            "positions": [
                -0.5812952282679991,
                -2.1613069525480215,
                1.4813705387496685,
                0.8993150803690406,
                -0.49163155416526094,
                -1.6149042394834845
            ]
        },
        {
            "positions": [
                -0.5948192212411242,
                -2.205065481100376,
                1.4290814205788167,
                1.0064359108369716,
                -0.5874456779206845,
                -1.5327310282540112
            ]
        },
        {
            "positions": [
                -0.6083432142142493,
                -2.2488240096527297,
                1.3767923024079651,
                1.1135567413049026,
                -0.683259801676108,
                -1.4505578170245381
            ]
        },
        {
            "positions": [
                -0.6218672071873744,
                -2.2925825382050835,
                1.3245031842371133,
                1.2206775717728335,
                -0.7790739254315315,
                -1.3683846057950648
            ]
        },
        {
            "positions": [
                -0.6353912001604995,
                -2.3363410667574374,
                1.2722140660662615,
                1.3277984022407645,
                -0.8748880491869551,
                -1.2862113945655915
            ]
        },
        {
            "positions": [
                -0.6489151931336248,
                -2.3800995953097916,
                1.2199249478954097,
                1.4349192327086955,
                -0.970702172942379,
                -1.2040381833361182
            ]
        },
        {
            "positions": [
                -0.6624391861067498,
                -2.4238581238621455,
                1.167635829724558,
                1.5420400631766265,
                -1.0665162966978026,
                -1.121864972106645
            ]
        },
        {
            "positions": [
                -0.675963179079875,
                -2.4676166524145,
                1.1153467115537061,
                1.6491608936445574,
                -1.162330420453226,
                -1.0396917608771719
            ]
        },
        {
            "positions": [
                -0.6894871720530001,
                -2.5113751809668536,
                1.0630575933828543,
                1.7562817241124884,
                -1.2581445442086496,
                -0.9575185496476983
            ]
        },
        {
            "positions": [
                -0.7030111650261253,
                -2.5551337095192075,
                1.0107684752120025,
                1.8634025545804194,
                -1.3539586679640732,
                -0.8753453384182253
            ]
        },
        {
            "positions": [
                -0.7165351579992504,
                -2.5988922380715618,
                0.958479357041151,
                1.9705233850483503,
                -1.4497727917194967,
                -0.7931721271887522
            ]
        },
        {
            "positions": [
                -0.7300591509723755,
                -2.642650766623915,
                0.9061902388702991,
                2.0776442155162815,
                -1.5455869154749202,
                -0.7109989159592787
            ]
        },
        {
            "positions": [
                -0.7435831439455006,
                -2.6864092951762695,
                0.8539011206994475,
                2.1847650459842125,
                -1.641401039230344,
                -0.6288257047298056
            ]
        },
        {
            "positions": [
                -0.6709639097799017,
                -2.6433881075240255,
                0.8987904127805529,
                2.1178337204871847,
                -1.5717126142881828,
                -0.7112880671500005
            ]
        },
        {
            "positions": [
                -0.5983446756143028,
                -2.600366919871781,
                0.9436797048616584,
                2.050902394990157,
                -1.5020241893460216,
                -0.7937504295701954
            ]
        },
        {
            "positions": [
                -0.5257254414487038,
                -2.557345732219537,
                0.9885689969427639,
                1.9839710694931292,
                -1.4323357644038603,
                -0.8762127919903901
            ]
        },
        {
            "positions": [
                -0.45310620728310497,
                -2.514324544567293,
                1.0334582890238693,
                1.9170397439961013,
                -1.3626473394616991,
                -0.958675154410585
            ]
        },
        {
            "positions": [
                -0.380486973117506,
                -2.471303356915049,
                1.0783475811049748,
                1.8501084184990735,
                -1.292958914519538,
                -1.04113751683078
            ]
        },
        {
            "positions": [
                -0.3078677389519071,
                -2.428282169262805,
                1.1232368731860802,
                1.7831770930020459,
                -1.2232704895773767,
                -1.1235998792509747
            ]
        },
        {
            "positions": [
                -0.2352485047863082,
                -2.3852609816105605,
                1.1681261652671857,
                1.716245767505018,
                -1.1535820646352155,
                -1.2060622416711695
            ]
        },
        {
            "positions": [
                -0.1626292706207093,
                -2.3422397939583166,
                1.2130154573482912,
                1.6493144420079902,
                -1.0838936396930543,
                -1.2885246040913645
            ]
        },
        {
            "positions": [
                -0.09001003645511041,
                -2.2992186063060727,
                1.2579047494293967,
                1.5823831165109623,
                -1.014205214750893,
                -1.3709869665115593
            ]
        },
        {
            "positions": [
                -0.017390802289511398,
                -2.2561974186538283,
                1.3027940415105022,
                1.5154517910139345,
                -0.9445167898087318,
                -1.4534493289317543
            ]
        },
        {
            "positions": [
                0.0552284318760875,
                -2.2131762310015843,
                1.3476833335916076,
                1.4485204655169066,
                -0.8748283648665706,
                -1.535911691351949
            ]
        },
        {
            "positions": [
                0.1278476660416864,
                -2.1701550433493404,
                1.3925726256727131,
                1.381589140019879,
                -0.8051399399244094,
                -1.6183740537721438
            ]
        },
        {
            "positions": [
                0.20046690020728541,
                -2.127133855697096,
                1.4374619177538186,
                1.3146578145228511,
                -0.735451514982248,
                -1.7008364161923388
            ]
        },
        {
            "positions": [
                0.2730861343728842,
                -2.084112668044852,
                1.482351209834924,
                1.2477264890258235,
                -0.6657630900400869,
                -1.7832987786125336
            ]
        },
        {
            "positions": [
                0.3457053685384833,
                -2.0410914803926077,
                1.5272405019160296,
                1.1807951635287954,
                -0.5960746650979256,
                -1.8657611410327286
            ]
        },
        {
            "positions": [
                0.418324602704082,
                -1.9980702927403637,
                1.572129793997135,
                1.1138638380317678,
                -0.5263862401557646,
                -1.9482235034529234
            ]
        },
        {
            "positions": [
                0.4909438368696811,
                -1.9550491050881196,
                1.6170190860782405,
                1.04693251253474,
                -0.4566978152136032,
                -2.030685865873118
            ]
        },
        {
            "positions": [
                0.5635630710352798,
                -1.9120279174358754,
                1.661908378159346,
                0.9800011870377123,
                -0.387009390271442,
                -2.113148228293313
            ]
        },
        {
            "positions": [
                0.6361823052008789,
                -1.8690067297836315,
                1.7067976702404515,
                0.9130698615406843,
                -0.3173209653292808,
                -2.1956105907135077
            ]
        },
        {
            "positions": [
                0.7088015393664778,
                -1.8259855421313873,
                1.751686962321557,
                0.8461385360436566,
                -0.24763254038711957,
                -2.2780729531337025
            ]
        },
        {
            "positions": [
                0.7814207735320768,
                -1.7829643544791431,
                1.7965762544026624,
                0.7792072105466288,
                -0.17794411544495836,
                -2.3605353155538977
            ]
        },
        {
            "positions": [
                0.7804079933688084,
                -1.796466548998323,
                1.862231042814419,
                0.6563237388238615,
                -0.08362694702203789,
                -2.445954326086536
            ]
        },
        {
            "positions": [
                0.7793952132055401,
                -1.8099687435175025,
                1.9278858312261757,
                0.5334402671010943,
                0.010690221400882577,
                -2.5313733366191737
            ]
        },
        {
            "positions": [
                0.7783824330422717,
                -1.823470938036682,
                1.9935406196379326,
                0.410556795378327,
                0.10500738982380303,
                -2.616792347151812
            ]
        },
        {
            "positions": [
                0.7773696528790033,
                -1.8369731325558618,
                2.059195408049689,
                0.28767332365555975,
                0.19932455824672352,
                -2.70221135768445
            ]
        },
        {
            "positions": [
                0.7763568727157348,
                -1.8504753270750416,
                2.124850196461446,
                0.1647898519327925,
                0.293641726669644,
                -2.7876303682170884
            ]
        },
        {
            "positions": [
                0.7753440925524665,
                -1.8639775215942211,
                2.1905049848732028,
                0.04190638021002524,
                0.3879588950925644,
                -2.8730493787497267
            ]
        },
        {
            "positions": [
                0.7743313123891982,
                -1.8774797161134007,
                2.2561597732849594,
                -0.08097709151274202,
                0.4822760635154849,
                -2.9584683892823644
            ]
        },
        {
            "positions": [
                0.7733185322259297,
                -1.8909819106325805,
                2.321814561696716,
                -0.20386056323550922,
                0.5765932319384054,
                -3.0438873998150027
            ]
        },
        {
            "positions": [
                0.7394937456154068,
                -1.8978829532497623,
                2.3562744925713677,
                -0.33319639483276275,
                0.6379492319864944,
                -3.090711043198427
            ]
        },
        {
            "positions": [
                0.7056689590048839,
                -1.9047839958669444,
                2.3907344234460193,
                -0.4625322264300163,
                0.6993052320345835,
                -3.137534686581851
            ]
        }
    ]
}