{
    "goal": {
        "global_pose": {
            "orientation": {
                "w": -0.00223480608172531,
                "x": 0.0024358444001904467,
                "y": 0.7094548369677653,
                "z": -0.704743149386269
            },
            "position": {
                "x": 0.6205249238014221,
                "y": -0.6371506643295288,
                "z": 0.19426114857196808
            }
        },
        "name": "move_to_magneteinheit_B"
    },
    "id": "RRTConnect_move_to_magneteinheit_B_49",
    "joint_names": [
        "shoulder_pan_joint",
        "shoulder_lift_joint",
        "elbow_joint",
        "wrist_1_joint",
        "wrist_2_joint",
        "wrist_3_joint"
    ],
    "metrics": {
        "cart_traj_len": 3.6333149579042656,
        "distance_elbow_joint": 4.680642946261842,
        "distance_shoulder_lift_joint": 1.0637276840411545,
        "distance_shoulder_pan_joint": 3.509318205797422,
        "distance_wrist_1_joint": 3.079860548120537,
        "distance_wrist_2_joint": 2.9090320362824964,
        "distance_wrist_3_joint": 1.7256668514103395,
        "smoothness": 0.4682745726416252,
        "time": 0.263642218,
        "traj_len": 4.119253363403833,
        "weighted_distance": 5.138917644712503
    },
    "planner": "RRTConnect",
    "start": {
        "state": {
            "elbow_joint": 2.6216224122426386,
            "shoulder_lift_joint": -1.4174107377796124,
            "shoulder_pan_joint": 0.7066234856936794,
            "wrist_1_joint": 1.9546482284002225,
            "wrist_2_joint": -0.7096286983471962,
            "wrist_3_joint": 0.005740856962016249
        }
    },
    "waypoints": [
        {
            "positions": [
                0.7066234856936794,
                -1.4174107377796124,
                2.6216224122426386,
                1.9546482284002225,
                -0.7096286983471962,
                0.005740856962016249
            ]
        },
        {
            "positions": [
                0.5510857119590914,
                -1.425501368044927,
                2.638703087718977,
                1.9408327885191126,
                -0.6616831760965456,
                -0.11944152268183165
            ]
        },
        {
            "positions": [
                0.39554793822450346,
                -1.4335919983102419,
                2.6557837631953154,
                1.927017348638003,
                -0.613737653845895,
                -0.24462390232567954
            ]
        },
        {
            "positions": [
                0.24001016448991558,
                -1.4416826285755566,
                2.6728644386716542,
                1.913201908756893,
                -0.5657921315952443,
                -0.36980628196952736
            ]
        },
        {
            "positions": [
                0.08447239075532753,
                -1.4497732588408714,
                2.6899451141479926,
                1.8993864688757833,
                -0.5178466093445937,
                -0.49498866161337535
            ]
        },
        {
            "positions": [
                -0.07106538297926035,
                -1.4578638891061861,
                2.707025789624331,
                1.8855710289946734,
                -0.46990108709394307,
                -0.6201710412572232
            ]
        },
        {
            "positions": [
                -0.0035546249074755454,
                -1.4718245733585773,
                2.5233383693994424,
                1.8042852285185864,
                -0.5058860364171929,
                -0.6300719952093372
            ]
        },
        {
            "positions": [
                0.06395613316430926,
                -1.4857852576109682,
                2.339650949174554,
                1.7229994280424994,
                -0.5418709857404427,
                -0.6399729491614511
            ]
        },
        {
            "positions": [
                0.13146689123609406,
                -1.4997459418633594,
                2.1559635289496653,
                1.6417136275664121,
                -0.5778559350636925,
                -0.6498739031135651
            ]
        },
        {
            "positions": [
                0.19897764930787887,
                -1.5137066261157504,
                1.972276108724777,
                1.5604278270903251,
                -0.6138408843869423,
                -0.659774857065679
            ]
        },
        {
            "positions": [
                0.26648840737966367,
                -1.5276673103681415,
                1.7885886884998885,
                1.4791420266142379,
                -0.6498258337101921,
                -0.6696758110177929
            ]
        },
        {
            "positions": [
                0.3339991654514485,
                -1.5416279946205327,
                1.604901268275,
                1.3978562261381509,
                -0.6858107830334419,
                -0.6795767649699068
            ]
        },
        {
            "positions": [
                0.40150992352323334,
                -1.5555886788729236,
                1.4212138480501113,
                1.3165704256620638,
                -0.7217957323566917,
                -0.6894777189220208
            ]
        },
        {
            "positions": [
                0.4690206815950181,
                -1.5695493631253148,
                1.237526427825223,
                1.2352846251859768,
                -0.7577806816799414,
                -0.6993786728741347
            ]
        },
        {
            "positions": [
                0.536531439666803,
                -1.5835100473777057,
                1.0538390076003343,
                1.1539988247098898,
                -0.7937656310031912,
                -0.7092796268262487
            ]
        },
        {
            "positions": [
                0.6040421977385877,
                -1.597470731630097,
                0.8701515873754457,
                1.0727130242338025,
                -0.8297505803264411,
                -0.7191805807783627
            ]
        },
        {
            "positions": [
                0.6715529558103724,
                -1.6114314158824878,
                0.6864641671505574,
                0.9914272237577155,
                -0.8657355296496908,
                -0.7290815347304765
            ]
        },
        {
            "positions": [
                0.7390637138821573,
                -1.625392100134879,
                0.5027767469256688,
                0.9101414232816284,
                -0.9017204789729406,
                -0.7389824886825904
            ]
        },
        {
            "positions": [
                0.806574471953942,
                -1.63935278438727,
                0.3190893267007806,
                0.8288556228055415,
                -0.9377054282961903,
                -0.7488834426347044
            ]
        },
        {
            "positions": [
                0.874085230025727,
                -1.653313468639661,
                0.13540190647589156,
                0.7475698223294542,
                -0.9736903776194402,
                -0.7587843965868184
            ]
        },
        {
            "positions": [
                0.9415959880975117,
                -1.6672741528920523,
                -0.04828551374899703,
                0.6662840218533672,
                -1.00967532694269,
                -0.7686853505389323
            ]
        },
        {
            "positions": [
                1.0091067461692966,
                -1.6812348371444432,
                -0.2319729339738852,
                0.5849982213772802,
                -1.0456602762659397,
                -0.7785863044910462
            ]
        },
        {
            "positions": [
                1.0766175042410815,
                -1.6951955213968344,
                -0.41566035419877423,
                0.503712420901193,
                -1.0816452255891895,
                -0.7884872584431601
            ]
        },
        {
            "positions": [
                1.1441282623128664,
                -1.7091562056492253,
                -0.5993477744236624,
                0.4224266204251059,
                -1.1176301749124393,
                -0.7983882123952741
            ]
        },
        {
            "positions": [
                1.2116390203846508,
                -1.7231168899016165,
                -0.7830351946485505,
                0.3411408199490189,
                -1.1536151242356891,
                -0.808289166347388
            ]
        },
        {
            "positions": [
                1.2791497784564356,
                -1.7370775741540077,
                -0.9667226148734396,
                0.25985501947293166,
                -1.189600073558939,
                -0.818190120299502
            ]
        },
        {
            "positions": [
                1.3466605365282205,
                -1.7510382584063986,
                -1.1504100350983277,
                0.17856921899684464,
                -1.2255850228821887,
                -0.8280910742516159
            ]
        },
        {
            "positions": [
                1.4141712946000053,
                -1.7649989426587898,
                -1.3340974553232163,
                0.09728341852075761,
                -1.2615699722054385,
                -0.8379920282037299
            ]
        },
        {
            "positions": [
                1.4816820526717902,
                -1.7789596269111807,
                -1.517784875548105,
                0.01599761804467037,
                -1.2975549215286883,
                -0.8478929821558439
            ]
        },
        {
            "positions": [
                1.549192810743575,
                -1.7929203111635719,
                -1.7014722957729935,
                -0.06528818243141665,
                -1.3335398708519381,
                -0.8577939361079577
            ]
        },
        {
            "positions": [
                1.6354547075570682,
                -1.8459284822523578,
                -1.7082430096831294,
                0.002238524240957593,
                -1.217105520956602,
                -0.7949404077642939
            ]
        },
        {
            "positions": [
                1.7217166043705616,
                -1.898936653341144,
                -1.715013723593265,
                0.06976523091333184,
                -1.1006711710612658,
                -0.73208687942063
            ]
        },
        {
            "positions": [
                1.8079785011840548,
                -1.95194482442993,
                -1.7217844375034008,
                0.13729193758570607,
                -0.9842368211659296,
                -0.6692333510769661
            ]
        },
        {
            "positions": [
                1.8942403979975482,
                -2.004952995518716,
                -1.7285551514135367,
                0.20481864425808033,
                -0.8678024712705934,
                -0.6063798227333024
            ]
        },
        {
            "positions": [
                1.9805022948110413,
                -2.057961166607502,
                -1.7353258653236725,
                0.2723453509304546,
                -0.7513681213752572,
                -0.5435262943896384
            ]
        },
        {
            "positions": [
                2.0667641916245345,
                -2.110969337696288,
                -1.7420965792338081,
                0.3398720576028288,
                -0.634933771479921,
                -0.48067276604597464
            ]
        },
        {
            "positions": [
                2.1530260884380277,
                -2.163977508785074,
                -1.748867293143944,
                0.4073987642752031,
                -0.5184994215845848,
                -0.4178192377023107
            ]
        },
        {
            "positions": [
                2.2392879852515213,
                -2.2169856798738605,
                -1.7556380070540798,
                0.4749254709475773,
                -0.40206507168924865,
                -0.3549657093586469
            ]
        },
        {
            "positions": [
                2.3255498820650145,
                -2.2699938509626465,
                -1.7624087209642156,
                0.5424521776199517,
                -0.28563072179391247,
                -0.29211218101498304
            ]
        },
        {
            "positions": [
                2.4118117788785076,
                -2.3230020220514325,
                -1.7691794348743513,
                0.6099788842923258,
                -0.16919637189857628,
                -0.22925865267131917
            ]
        },
        {
            "positions": [
                2.498073675692001,
                -2.3760101931402184,
                -1.775950148784487,
                0.6775055909647001,
                -0.05276202200324015,
                -0.16640512432765528
            ]
        },
        {
            "positions": [
                2.538696245305306,
                -2.4022922503103556,
                -1.7478842411666546,
                0.7567881819378951,
                0.07845992610239733,
                -0.12371931268763958
            ]
        },
        {
            "positions": [
                2.5793188149186115,
                -2.428574307480493,
                -1.719818333548822,
                0.8360707729110901,
                0.2096818742080348,
                -0.08103350104762388
            ]
        },
        {
            "positions": [
                2.6199413845319164,
                -2.4548563646506296,
                -1.6917524259309893,
                0.915353363884285,
                0.3409038223136723,
                -0.03834768940760819
            ]
        },
        {
            "positions": [
                2.6605639541452217,
                -2.481138421820767,
                -1.6636865183131568,
                0.99463595485748,
                0.47212577041930975,
                0.004338122232407519
            ]
        }
    ]
}