{
    "goal": {
        "global_pose": {
            "orientation": {
                "w": -0.00223480608172531,
                "x": 0.0024358444001904467,
                "y": 0.7094548369677653,
                "z": -0.704743149386269
            },
            "position": {
                "x": 0.6205249238014221,
                "y": -0.6371506643295288,
                "z": 0.19426114857196808
            }
        },
        "name": "move_to_magneteinheit_B"
    },
    "id": "RRTConnect_move_to_magneteinheit_B_82",
    "joint_names": [
        "shoulder_pan_joint",
        "shoulder_lift_joint",
        "elbow_joint",
        "wrist_1_joint",
        "wrist_2_joint",
        "wrist_3_joint"
    ],
    "metrics": {
        "cart_traj_len": 1.794762117886791,
        "distance_elbow_joint": 0.9538277737662035,
        "distance_shoulder_lift_joint": 0.7539932412314577,
        "distance_shoulder_pan_joint": 1.6755437419839943,
        "distance_wrist_1_joint": 1.7449063851144948,
        "distance_wrist_2_joint": 1.7448003140953894,
        "distance_wrist_3_joint": 0.3294984885150345,
        "smoothness": 0.8128001004181,
        "time": 0.127427581,
        "traj_len": 2.68376041119668,
        "weighted_distance": 3.369165122244163
    },
    "planner": "RRTConnect",
    "start": {
        "state": {
            "elbow_joint": 2.6216224122426386,
            "shoulder_lift_joint": -1.4174107377796124,
            "shoulder_pan_joint": 0.7066234856936794,
            "wrist_1_joint": 1.9546482284002225,
            "wrist_2_joint": -0.7096286983471962,
            "wrist_3_joint": 0.005740856962016249
        }
    },
    "waypoints": [
        {
            "positions": [
                0.7066234856936794,
                -1.4174107377796124,
                2.6216224122426386,
                1.9546482284002225,
                -0.7096286983471962,
                0.005740856962016249
            ]
        },
        {
            "positions": [
                0.6410648268817869,
                -1.4095273193125801,
                2.5978094331125714,
                1.8939809191505566,
                -0.7220006260888315,
                -0.02845049032625755
            ]
        },
        {
            "positions": [
                0.5529786968126873,
                -1.3940752685750821,
                2.4958950895182785,
                1.774871611587055,
                -0.7294896088767149,
                -0.07020202694626336
            ]
        },
        {
            "positions": [
                0.4648925667435877,
                -1.3786232178375841,
                2.3939807459239852,
                1.6557623040235534,
                -0.7369785916645982,
                -0.11195356356626918
            ]
        },
        {
            "positions": [
                0.3768064366744881,
                -1.3631711671000861,
                2.2920664023296924,
                1.536652996460052,
                -0.7444675744524816,
                -0.15370510018627498
            ]
        },
        {
            "positions": [
                0.38597818481388313,
                -1.3612049251805736,
                2.1203106637073024,
                1.417990266177544,
                -0.706387080814857,
                -0.10956484115697727
            ]
        },
        {
            "positions": [
                0.3951499329532781,
                -1.359238683261061,
                1.9485549250849121,
                1.2993275358950362,
                -0.6683065871772325,
                -0.06542458212767957
            ]
        },
        {
            "positions": [
                0.40432168109267314,
                -1.3572724413415485,
                1.7767991864625219,
                1.1806648056125284,
                -0.6302260935396079,
                -0.021284323098381866
            ]
        },
        {
            "positions": [
                0.2944707270471216,
                -1.299451195942099,
                1.767715474130348,
                1.261575052473095,
                -0.7632027566293771,
                -0.01814834357514437
            ]
        },
        {
            "positions": [
                0.18461977300157018,
                -1.2416299505426496,
                1.7586317617981742,
                1.3424852993336618,
                -0.8961794197191463,
                -0.015012364051906877
            ]
        },
        {
            "positions": [
                0.07476881895601867,
                -1.1838087051432,
                1.749548049466,
                1.4233955461942287,
                -1.0291560828089155,
                -0.011876384528669381
            ]
        },
        {
            "positions": [
                -0.035082135089532784,
                -1.1259874597437505,
                1.7404643371338262,
                1.5043057930547952,
                -1.1621327458986848,
                -0.008740405005431887
            ]
        },
        {
            "positions": [
                -0.14493308913508435,
                -1.0681662143443011,
                1.7313806248016523,
                1.585216039915362,
                -1.2951094089884538,
                -0.005604425482194392
            ]
        },
        {
            "positions": [
                -0.2547840431806358,
                -1.0103449689448516,
                1.7222969124694785,
                1.6661262867759288,
                -1.428086072078223,
                -0.002468445958956896
            ]
        },
        {
            "positions": [
                -0.36463499722618736,
                -0.952523723545402,
                1.7132132001373046,
                1.7470365336364955,
                -1.5610627351679924,
                0.0006675335642805993
            ]
        },
        {
            "positions": [
                -0.4744859512717387,
                -0.8947024781459526,
                1.7041294878051307,
                1.8279467804970622,
                -1.6940393982577615,
                0.0038035130875180914
            ]
        },
        {
            "positions": [
                -0.5843369053172902,
                -0.8368812327465031,
                1.6950457754729569,
                1.9088570273576289,
                -1.8270160613475306,
                0.00693949261075559
            ]
        },
        {
            "positions": [
                -0.6941878593628419,
                -0.7790599873470536,
                1.6859620631407828,
                1.9897672742181958,
                -1.9599927244372997,
                0.010075472133993083
            ]
        },
        {
            "positions": [
                -0.8040388134083933,
                -0.7212387419476042,
                1.676878350808609,
                2.0706775210787622,
                -2.0929693875270687,
                0.013211451657230575
            ]
        },
        {
            "positions": [
                -0.9138897674539448,
                -0.6634174965481546,
                1.667794638476435,
                2.151587767939329,
                -2.2259460506168383,
                0.016347431180468074
            ]
        }
    ]
}