{
    "goal": {
        "global_pose": {
            "orientation": {
                "w": 0.7047431468963623,
                "x": -0.7094548344612122,
                "y": 0.0024358443915843964,
                "z": -0.0022348060738295317
            },
            "position": {
                "x": 0.6094750761985779,
                "y": 0.3671506643295288,
                "z": 0.19426114857196808
            }
        },
        "name": "move_to_magneteinheit_A"
    },
    "id": "RRTConnect_move_to_magneteinheit_A_66",
    "joint_names": [
        "shoulder_pan_joint",
        "shoulder_lift_joint",
        "elbow_joint",
        "wrist_1_joint",
        "wrist_2_joint",
        "wrist_3_joint"
    ],
    "metrics": {
        "cart_traj_len": 3.2943720781837835,
        "distance_elbow_joint": 3.912643690961704,
        "distance_shoulder_lift_joint": 0.578223170377417,
        "distance_shoulder_pan_joint": 3.0872865235223412,
        "distance_wrist_1_joint": 3.460836568188388,
        "distance_wrist_2_joint": 1.4763441318499237,
        "distance_wrist_3_joint": 0.4375607978679014,
        "smoothness": 0.13071786188030685,
        "time": 0.113869088,
        "traj_len": 3.599013042872681,
        "weighted_distance": 4.331881482513319
    },
    "planner": "RRTConnect",
    "start": {
        "state": {
            "elbow_joint": -1.9196185241190666,
            "shoulder_lift_joint": -1.2443396400964142,
            "shoulder_pan_joint": 2.6996025414629847,
            "wrist_1_joint": -1.5485510000780065,
            "wrist_2_joint": -1.5709468930060704,
            "wrist_3_joint": 0.4420197071253992
        }
    },
    "waypoints": [
        {
            "positions": [
                2.6996025414629847,
                -1.2443396400964142,
                -1.9196185241190666,
                -1.5485510000780065,
                -1.5709468930060704,
                0.4420197071253992
            ]
        },
        {
            "positions": [
                2.543004133097315,
                -1.2499232655122794,
                -1.849766647998169,
                -1.4343450846441705,
                -1.5520668103926967,
                0.41895797491599446
            ]
        },
        {
            "positions": [
                2.3864057247316457,
                -1.2555068909281444,
                -1.7799147718772712,
                -1.3201391692103344,
                -1.533186727779323,
                0.39589624270658974
            ]
        },
        {
            "positions": [
                2.229807316365976,
                -1.2610905163440096,
                -1.7100628957563735,
                -1.2059332537764984,
                -1.5143066451659493,
                0.372834510497185
            ]
        },
        {
            "positions": [
                2.0732089080003067,
                -1.2666741417598746,
                -1.6402110196354758,
                -1.0917273383426624,
                -1.4954265625525753,
                0.3497727782877803
            ]
        },
        {
            "positions": [
                1.9166104996346371,
                -1.2722577671757398,
                -1.5703591435145783,
                -0.9775214229088263,
                -1.4765464799392016,
                0.3267110460783756
            ]
        },
        {
            "positions": [
                1.7600120912689676,
                -1.277841392591605,
                -1.5005072673936806,
                -0.8633155074749903,
                -1.457666397325828,
                0.30364931386897087
            ]
        },
        {
            "positions": [
                1.603413682903298,
                -1.28342501800747,
                -1.4306553912727829,
                -0.7491095920411542,
                -1.4387863147124542,
                0.28058758165956615
            ]
        },
        {
            "positions": [
                1.4468152745376286,
                -1.2890086434233352,
                -1.3608035151518851,
                -0.6349036766073182,
                -1.4199062320990805,
                0.25752584945016144
            ]
        },
        {
            "positions": [
                1.3678656564860219,
                -1.2628500077769695,
                -1.240439919237658,
                -0.5380265418569835,
                -1.3551813410822757,
                0.25713335936763465
            ]
        },
        {
            "positions": [
                1.2889160384344152,
                -1.236691372130604,
                -1.1200763233234308,
                -0.4411494071066489,
                -1.290456450065471,
                0.2567408692851078
            ]
        },
        {
            "positions": [
                1.2099664203828084,
                -1.2105327364842384,
                -0.9997127274092037,
                -0.3442722723563143,
                -1.2257315590486662,
                0.256348379202581
            ]
        },
        {
            "positions": [
                1.1310168023312017,
                -1.184374100837873,
                -0.8793491314949764,
                -0.24739513760597964,
                -1.1610066680318614,
                0.25595588912005424
            ]
        },
        {
            "positions": [
                1.0520671842795948,
                -1.1582154651915073,
                -0.7589855355807493,
                -0.15051800285564504,
                -1.0962817770150566,
                0.2555633990375274
            ]
        },
        {
            "positions": [
                0.9731175662279882,
                -1.1320568295451416,
                -0.6386219396665221,
                -0.053640868105310435,
                -1.0315568859982518,
                0.2551709089550006
            ]
        },
        {
            "positions": [
                0.8941679481763815,
                -1.1058981938987762,
                -0.5182583437522951,
                0.043236266645024224,
                -0.9668319949814469,
                0.2547784188724738
            ]
        },
        {
            "positions": [
                0.8152183301247746,
                -1.0797395582524105,
                -0.3978947478380678,
                0.14011340139535888,
                -0.902107103964642,
                0.254385928789947
            ]
        },
        {
            "positions": [
                0.7362687120731679,
                -1.053580922606045,
                -0.2775311519238406,
                0.23699053614569343,
                -0.8373822129478372,
                0.2539934387074202
            ]
        },
        {
            "positions": [
                0.6573190940215612,
                -1.0274222869596794,
                -0.15716755600961352,
                0.3338676708960281,
                -0.7726573219310324,
                0.25360094862489335
            ]
        },
        {
            "positions": [
                0.5783694759699544,
                -1.0012636513133137,
                -0.03680396009538622,
                0.43074480564636275,
                -0.7079324309142275,
                0.25320845854236657
            ]
        },
        {
            "positions": [
                0.49941985791834775,
                -0.9751050156669483,
                0.08355963581884085,
                0.5276219403966973,
                -0.6432075398974229,
                0.2528159684598398
            ]
        },
        {
            "positions": [
                0.42047023986674104,
                -0.9489463800205826,
                0.20392323173306792,
                0.6244990751470321,
                -0.578482648880618,
                0.25242347837731294
            ]
        },
        {
            "positions": [
                0.3415206218151343,
                -0.9227877443742172,
                0.324286827647295,
                0.7213762098973666,
                -0.5137577578638133,
                0.25203098829478615
            ]
        },
        {
            "positions": [
                0.2625710037635276,
                -0.8966291087278515,
                0.4446504235615223,
                0.8182533446477012,
                -0.4490328668470084,
                0.25163849821225936
            ]
        },
        {
            "positions": [
                0.18362138571192066,
                -0.8704704730814858,
                0.5650140194757496,
                0.9151304793980359,
                -0.3843079758302035,
                0.2512460081297325
            ]
        },
        {
            "positions": [
                0.10467176766031394,
                -0.8443118374351204,
                0.6853776153899764,
                1.0120076141483705,
                -0.3195830848133987,
                0.25085351804720574
            ]
        },
        {
            "positions": [
                0.025722149608707223,
                -0.8181532017887547,
                0.805741211304204,
                1.108884748898705,
                -0.2548581937965939,
                0.25046102796467895
            ]
        },
        {
            "positions": [
                -0.053227468442899495,
                -0.7919945661423893,
                0.926104807218431,
                1.2057618836490396,
                -0.19013330277978913,
                0.2500685378821521
            ]
        },
        {
            "positions": [
                -0.1321770864945061,
                -0.7658359304960236,
                1.0464684031326579,
                1.3026390183993743,
                -0.1254084117629844,
                0.24967604779962532
            ]
        },
        {
            "positions": [
                -0.08736878799356854,
                -0.7665755538140493,
                1.2183622498907567,
                1.415215126240001,
                -0.12351660030498754,
                0.20385353079858798
            ]
        },
        {
            "positions": [
                -0.04256048949263097,
                -0.7673151771320751,
                1.3902560966488555,
                1.5277912340806274,
                -0.12162478884699067,
                0.15803101379755063
            ]
        },
        {
            "positions": [
                0.002247809008306595,
                -0.7680548004501008,
                1.5621499434069541,
                1.640367341921254,
                -0.11973297738899381,
                0.11220849679651329
            ]
        },
        {
            "positions": [
                0.04705610750924416,
                -0.7687944237681266,
                1.7340437901650532,
                1.7529434497618808,
                -0.11784116593099694,
                0.06638597979547592
            ]
        },
        {
            "positions": [
                0.09186440601018173,
                -0.7695340470861523,
                1.9059376369231518,
                1.8655195576025072,
                -0.11594935447300009,
                0.020563462794438582
            ]
        },
        {
            "positions": [
                0.12332980907034383,
                -0.776217384619208,
                1.9930251668426364,
                1.9122855681103825,
                -0.13729594778985363,
                0.004458909257497772
            ]
        }
    ]
}