{
    "goal": {
        "global_pose": {
            "orientation": {
                "w": 0.7031023502349854,
                "x": -0.7110244035720825,
                "y": 0.007748599164187908,
                "z": 0.005598929710686207
            },
            "position": {
                "x": 0.11585023208521307,
                "y": 0.44412534475326537,
                "z": 0.3711530566215515
            }
        },
        "name": "move_to_auspresseinheit_A"
    },
    "id": "RRTConnect_move_to_auspresseinheit_A_64",
    "joint_names": [
        "shoulder_pan_joint",
        "shoulder_lift_joint",
        "elbow_joint",
        "wrist_1_joint",
        "wrist_2_joint",
        "wrist_3_joint"
    ],
    "metrics": {
        "cart_traj_len": 0.7229675546758786,
        "distance_elbow_joint": 0.5495641061304579,
        "distance_shoulder_lift_joint": 0.5333622031136618,
        "distance_shoulder_pan_joint": 1.0455971135596056,
        "distance_wrist_1_joint": 1.7035299402556068,
        "distance_wrist_2_joint": 0.5229917651147427,
        "distance_wrist_3_joint": 0.393981661358211,
        "smoothness": 1.005576747379189,
        "time": 0.055569939,
        "traj_len": 2.179226190539267,
        "weighted_distance": 2.786307918665677
    },
    "planner": "RRTConnect",
    "start": {
        "state": {
            "elbow_joint": 2.4225746658250005,
            "shoulder_lift_joint": -1.3736534386056498,
            "shoulder_pan_joint": -0.3378633547517467,
            "wrist_1_joint": -1.0288598680537169,
            "wrist_2_joint": 1.233022673432363,
            "wrist_3_joint": -3.0940220416140027
        }
    },
    "waypoints": [
        {
            "positions": [
                -0.3378633547517467,
                -1.3736534386056498,
                2.4225746658250005,
                -1.0288598680537169,
                1.233022673432363,
                -3.0940220416140027
            ]
        },
        {
            "positions": [
                -0.326449958262218,
                -1.3819865549022727,
                2.37405637519404,
                -0.8393272174293089,
                1.1883123282647408,
                -3.065056475356193
            ]
        },
        {
            "positions": [
                -0.31503656177268935,
                -1.3903196711988957,
                2.325538084563079,
                -0.6497945668049009,
                1.1436019830971185,
                -3.036090909098383
            ]
        },
        {
            "positions": [
                -0.3036231652831607,
                -1.3986527874955188,
                2.2770197939321184,
                -0.46026191618049284,
                1.0988916379294962,
                -3.007125342840573
            ]
        },
        {
            "positions": [
                -0.292209768793632,
                -1.4069859037921417,
                2.2285015033011573,
                -0.2707292655560849,
                1.054181292761874,
                -2.9781597765827628
            ]
        },
        {
            "positions": [
                -0.28079637230410326,
                -1.4153190200887646,
                2.1799832126701966,
                -0.08119661493167674,
                1.0094709475942516,
                -2.949194210324953
            ]
        },
        {
            "positions": [
                -0.2693829758145746,
                -1.4236521363853876,
                2.131464922039236,
                0.10833603569273123,
                0.9647606024266293,
                -2.920228644067143
            ]
        },
        {
            "positions": [
                -0.12979487086851269,
                -1.4927040657188053,
                2.1683869738027637,
                0.027431173334279996,
                0.9283706461253424,
                -2.9516841103259073
            ]
        },
        {
            "positions": [
                0.009793234077549229,
                -1.561755995052223,
                2.205309025566291,
                -0.05347368902417124,
                0.8919806898240553,
                -2.983139576584672
            ]
        },
        {
            "positions": [
                0.14938133902361111,
                -1.6308079243856408,
                2.242231077329819,
                -0.13437855138262247,
                0.8555907335227684,
                -3.0145950428434363
            ]
        },
        {
            "positions": [
                0.28896944396967306,
                -1.6998598537190583,
                2.279153129093346,
                -0.2152834137410737,
                0.8192007772214813,
                -3.046050509102201
            ]
        },
        {
            "positions": [
                0.42855754891573505,
                -1.768911783052476,
                2.316075180856874,
                -0.296188276099525,
                0.7828108209201944,
                -3.0775059753609653
            ]
        },
        {
            "positions": [
                0.5681456538617968,
                -1.8379637123858938,
                2.3529972326204014,
                -0.3770931384579762,
                0.7464208646189074,
                -3.10896144161973
            ]
        },
        {
            "positions": [
                0.7077337588078588,
                -1.9070156417193116,
                2.389919284383929,
                -0.4579980008164275,
                0.7100309083176204,
                -3.1404169078784943
            ]
        }
    ]
}