{
    "goal": {
        "global_pose": {
            "orientation": {
                "w": -0.4816463035849501,
                "x": 0.5182115481033762,
                "y": 0.4908360881923453,
                "z": -0.5084816262002911
            },
            "position": {
                "x": -0.8240239810943604,
                "y": 0.19912469901144506,
                "z": 0.16403168439865112
            }
        },
        "name": "move_to_storage_D"
    },
    "id": "RRTConnect_move_to_storage_D_109",
    "joint_names": [
        "shoulder_pan_joint",
        "shoulder_lift_joint",
        "elbow_joint",
        "wrist_1_joint",
        "wrist_2_joint",
        "wrist_3_joint"
    ],
    "metrics": {
        "cart_traj_len": 0.852956451243055,
        "distance_elbow_joint": 0.5533054053146287,
        "distance_shoulder_lift_joint": 0.33896209896992646,
        "distance_shoulder_pan_joint": 0.6905792420017651,
        "distance_wrist_1_joint": 3.837553718896795,
        "distance_wrist_2_joint": 1.7740616819749462,
        "distance_wrist_3_joint": 3.155132771017989,
        "smoothness": 0.07117448331721117,
        "time": 0.087730398,
        "traj_len": 3.217078631021637,
        "weighted_distance": 4.7192664537069495
    },
    "planner": "RRTConnect",
    "start": {
        "state": {
            "elbow_joint": -2.384821988534728,
            "shoulder_lift_joint": -2.2788054721415256,
            "shoulder_pan_joint": -0.1854694642142757,
            "wrist_1_joint": 1.4845938289331202,
            "wrist_2_joint": 0.17898776772866878,
            "wrist_3_joint": 0.037105688729662994
        }
    },
    "waypoints": [
        {
            "positions": [
                -0.1854694642142757,
                -2.2788054721415256,
                -2.384821988534728,
                1.4845938289331202,
                0.17898776772866878,
                0.037105688729662994
            ]
        },
        {
            "positions": [
                -0.15953031469304207,
                -2.26206401616706,
                -2.3578358744871526,
                1.4917127798535428,
                0.17288265158257274,
                0.03794737182005232
            ]
        },
        {
            "positions": [
                -0.06061659831395197,
                -2.204800994838637,
                -2.2565683253528555,
                1.4893430262177474,
                0.13950826540162065,
                0.04805098452698753
            ]
        },
        {
            "positions": [
                0.038297118065138136,
                -2.147537973510213,
                -2.1553007762185583,
                1.4869732725819522,
                0.10613387922066853,
                0.05815459723392273
            ]
        },
        {
            "positions": [
                0.13721083444422827,
                -2.0902749521817894,
                -2.054033227084261,
                1.484603518946157,
                0.07275949303971642,
                0.06825820994085793
            ]
        },
        {
            "positions": [
                0.23612455082331835,
                -2.033011930853366,
                -1.9527656779499638,
                1.4822337653103617,
                0.03938510685876433,
                0.07836182264779315
            ]
        },
        {
            "positions": [
                0.2244295409553109,
                -2.037062737709095,
                -1.9474939781791,
                1.3161052542915272,
                -0.03167832884145487,
                0.21374776339126528
            ]
        },
        {
            "positions": [
                0.21273453108730345,
                -2.041113544564824,
                -1.9422222784082364,
                1.1499767432726928,
                -0.10274176454167407,
                0.34913370413473743
            ]
        },
        {
            "positions": [
                0.201039521219296,
                -2.045164351420553,
                -1.9369505786373729,
                0.9838482322538584,
                -0.17380520024189328,
                0.48451964487820953
            ]
        },
        {
            "positions": [
                0.18934451135128855,
                -2.049215158276282,
                -1.9316788788665091,
                0.817719721235024,
                -0.24486863594211244,
                0.6199055856216816
            ]
        },
        {
            "positions": [
                0.17764950148328107,
                -2.053265965132011,
                -1.9264071790956454,
                0.6515912102161896,
                -0.31593207164233167,
                0.7552915263651537
            ]
        },
        {
            "positions": [
                0.16595449161527365,
                -2.05731677198774,
                -1.9211354793247817,
                0.4854626991973552,
                -0.38699550734255084,
                0.8906774671086258
            ]
        },
        {
            "positions": [
                0.15425948174726617,
                -2.061367578843469,
                -1.9158637795539182,
                0.3193341881785208,
                -0.4580589430427701,
                1.026063407852098
            ]
        },
        {
            "positions": [
                0.14256447187925872,
                -2.065418385699198,
                -1.9105920797830545,
                0.15320567715968636,
                -0.5291223787429893,
                1.1614493485955701
            ]
        },
        {
            "positions": [
                0.13086946201125127,
                -2.069469192554927,
                -1.9053203800121907,
                -0.012922833859148053,
                -0.6001858144432085,
                1.2968352893390422
            ]
        },
        {
            "positions": [
                0.11917445214324382,
                -2.073519999410656,
                -1.900048680241327,
                -0.17905134487798247,
                -0.6712492501434277,
                1.4322212300825143
            ]
        },
        {
            "positions": [
                0.10747944227523634,
                -2.077570806266385,
                -1.8947769804704633,
                -0.3451798558968169,
                -0.742312685843647,
                1.5676071708259867
            ]
        },
        {
            "positions": [
                0.09578443240722892,
                -2.081621613122114,
                -1.8895052806995998,
                -0.5113083669156513,
                -0.8133761215438661,
                1.7029931115694585
            ]
        },
        {
            "positions": [
                0.08408942253922147,
                -2.085672419977843,
                -1.884233580928736,
                -0.6774368779344857,
                -0.8844395572440853,
                1.8383790523129306
            ]
        },
        {
            "positions": [
                0.07239441267121399,
                -2.089723226833572,
                -1.8789618811578723,
                -0.8435653889533201,
                -0.9555029929443046,
                1.973764993056403
            ]
        },
        {
            "positions": [
                0.06069940280320654,
                -2.093774033689301,
                -1.8736901813870086,
                -1.0096938999721545,
                -1.0265664286445237,
                2.1091509337998753
            ]
        },
        {
            "positions": [
                0.04900439293519909,
                -2.09782484054503,
                -1.8684184816161449,
                -1.175822410990989,
                -1.0976298643447429,
                2.244536874543347
            ]
        },
        {
            "positions": [
                0.03730938306719164,
                -2.101875647400759,
                -1.8631467818452814,
                -1.3419509220098234,
                -1.168693300044962,
                2.379922815286819
            ]
        },
        {
            "positions": [
                0.025614373199184165,
                -2.105926454256488,
                -1.8578750820744176,
                -1.5080794330286578,
                -1.2397567357451813,
                2.5153087560302914
            ]
        },
        {
            "positions": [
                0.013919363331176715,
                -2.109977261112217,
                -1.852603382303554,
                -1.6742079440474922,
                -1.3108201714454004,
                2.6506946967737637
            ]
        },
        {
            "positions": [
                0.002224353463169293,
                -2.114028067967946,
                -1.8473316825326902,
                -1.8403364550663266,
                -1.3818836071456198,
                2.7860806375172356
            ]
        },
        {
            "positions": [
                -0.009470656404838157,
                -2.118078874823675,
                -1.8420599827618267,
                -2.006464966085161,
                -1.4529470428458389,
                2.9214665782607074
            ]
        },
        {
            "positions": [
                -0.021165666272845662,
                -2.122129681679404,
                -1.836788282990963,
                -2.1725934771039954,
                -1.5240104785460582,
                3.05685251900418
            ]
        },
        {
            "positions": [
                -0.032860676140853085,
                -2.126180488535133,
                -1.8315165832200992,
                -2.33872198812283,
                -1.5950739142462773,
                3.192238459747652
            ]
        }
    ]
}