{
    "goal": {
        "global_pose": {
            "orientation": {
                "w": 0.7031023480610252,
                "x": -0.7110244013736278,
                "y": 0.0077485991402295624,
                "z": 0.005598929693374583
            },
            "position": {
                "x": -0.8841497679147869,
                "y": 0.44412534475326537,
                "z": 0.3711530566215515
            }
        },
        "name": "move_to_auspresseinheit_D"
    },
    "id": "RRTConnect_move_to_auspresseinheit_D_80",
    "joint_names": [
        "shoulder_pan_joint",
        "shoulder_lift_joint",
        "elbow_joint",
        "wrist_1_joint",
        "wrist_2_joint",
        "wrist_3_joint"
    ],
    "metrics": {
        "cart_traj_len": 0.3446103587038573,
        "distance_elbow_joint": 0.6614259102126518,
        "distance_shoulder_lift_joint": 0.13367575338962867,
        "distance_shoulder_pan_joint": 0.13396515552785604,
        "distance_wrist_1_joint": 0.6050359431955683,
        "distance_wrist_2_joint": 1.4370848139940042,
        "distance_wrist_3_joint": 0.06129409300112698,
        "smoothness": 1.381610860894979e-15,
        "time": 0.068733025,
        "traj_len": 1.7414022135396625,
        "weighted_distance": 2.279734768018565
    },
    "planner": "RRTConnect",
    "start": {
        "state": {
            "elbow_joint": -1.8275523626775212,
            "shoulder_lift_joint": -2.126789852344167,
            "shoulder_pan_joint": -0.03513704404078235,
            "wrist_1_joint": -2.347782403156801,
            "wrist_2_joint": -1.6058999987535132,
            "wrist_3_joint": -3.0880379163319196
        }
    },
    "waypoints": [
        {
            "positions": [
                -0.03513704404078235,
                -2.126789852344167,
                -1.8275523626775212,
                -2.347782403156801,
                -1.6058999987535132,
                -3.0880379163319196
            ]
        },
        {
            "positions": [
                -0.051882688481764354,
                -2.1434993215178704,
                -1.7448741239009398,
                -2.4234118960562467,
                -1.4262643970042626,
                -3.0803761547067787
            ]
        },
        {
            "positions": [
                -0.06862833292274637,
                -2.160208790691574,
                -1.6621958851243583,
                -2.499041388955693,
                -1.2466287952550121,
                -3.072714393081638
            ]
        },
        {
            "positions": [
                -0.08537397736372837,
                -2.1769182598652774,
                -1.5795176463477767,
                -2.574670881855139,
                -1.0669931935057617,
                -3.065052631456497
            ]
        },
        {
            "positions": [
                -0.10211962180471038,
                -2.1936277290389814,
                -1.4968394075711953,
                -2.6503003747545852,
                -0.8873575917565111,
                -3.057390869831356
            ]
        },
        {
            "positions": [
                -0.11886526624569238,
                -2.210337198212685,
                -1.4141611687946138,
                -2.725929867654031,
                -0.7077219900072605,
                -3.0497291082062152
            ]
        },
        {
            "positions": [
                -0.13561091068667439,
                -2.2270466673863885,
                -1.3314829300180322,
                -2.801559360553477,
                -0.52808638825801,
                -3.0420673465810744
            ]
        },
        {
            "positions": [
                -0.1523565551276564,
                -2.243756136560092,
                -1.2488046912414508,
                -2.877188853452923,
                -0.3484507865087596,
                -3.0344055849559335
            ]
        },
        {
            "positions": [
                -0.1691021995686384,
                -2.2604656057337955,
                -1.1661264524648693,
                -2.952818346352369,
                -0.168815184759509,
                -3.0267438233307926
            ]
        }
    ]
}