{
    "goal": {
        "global_pose": {
            "orientation": {
                "w": -0.00223480608172531,
                "x": 0.0024358444001904467,
                "y": 0.7094548369677653,
                "z": -0.704743149386269
            },
            "position": {
                "x": 0.6205249238014221,
                "y": -0.6371506643295288,
                "z": 0.19426114857196808
            }
        },
        "name": "move_to_magneteinheit_B"
    },
    "id": "RRTConnect_move_to_magneteinheit_B_138",
    "joint_names": [
        "shoulder_pan_joint",
        "shoulder_lift_joint",
        "elbow_joint",
        "wrist_1_joint",
        "wrist_2_joint",
        "wrist_3_joint"
    ],
    "metrics": {
        "cart_traj_len": 3.86799709010403,
        "distance_elbow_joint": 4.510388183626082,
        "distance_shoulder_lift_joint": 0.8256229129499149,
        "distance_shoulder_pan_joint": 2.6798126373705773,
        "distance_wrist_1_joint": 4.394866264703925,
        "distance_wrist_2_joint": 3.6115232054571096,
        "distance_wrist_3_joint": 4.333564888435922,
        "smoothness": 0.17776054824896612,
        "time": 0.366218676,
        "traj_len": 4.511737812921262,
        "weighted_distance": 6.085170280244951
    },
    "planner": "RRTConnect",
    "start": {
        "state": {
            "elbow_joint": 2.6216224122426386,
            "shoulder_lift_joint": -1.4174107377796124,
            "shoulder_pan_joint": 0.7066234856936794,
            "wrist_1_joint": 1.9546482284002225,
            "wrist_2_joint": -0.7096286983471962,
            "wrist_3_joint": 0.005740856962016249
        }
    },
    "waypoints": [
        {
            "positions": [
                0.7066234856936794,
                -1.4174107377796124,
                2.6216224122426386,
                1.9546482284002225,
                -0.7096286983471962,
                0.005740856962016249
            ]
        },
        {
            "positions": [
                0.632122210437648,
                -1.4418642140851239,
                2.602889174938839,
                1.8545728381239648,
                -0.6216149182105288,
                0.00682440346198148
            ]
        },
        {
            "positions": [
                0.5576209351816168,
                -1.4663176903906352,
                2.5841559376350403,
                1.7544974478477073,
                -0.5336011380738614,
                0.00790794996194671
            ]
        },
        {
            "positions": [
                0.4831196599255855,
                -1.4907711666961467,
                2.565422700331241,
                1.6544220575714497,
                -0.44558735793719395,
                0.008991496461911943
            ]
        },
        {
            "positions": [
                0.4677616335603026,
                -1.4987230919141414,
                2.4602508015169553,
                1.544899888155771,
                -0.3490084445580044,
                0.02551787507312351
            ]
        },
        {
            "positions": [
                0.4524036071950197,
                -1.5066750171321361,
                2.3550789027026697,
                1.435377718740092,
                -0.2524295311788149,
                0.04204425368433508
            ]
        },
        {
            "positions": [
                0.4370455808297368,
                -1.514626942350131,
                2.249907003888384,
                1.3258555493244133,
                -0.1558506177996254,
                0.05857063229554664
            ]
        },
        {
            "positions": [
                0.42168755446445394,
                -1.5225788675681258,
                2.1447351050740986,
                1.2163333799087344,
                -0.05927170442043583,
                0.07509701090675822
            ]
        },
        {
            "positions": [
                0.40632952809917106,
                -1.5305307927861205,
                2.039563206259813,
                1.1068112104930556,
                0.037307208958753654,
                0.09162338951796978
            ]
        },
        {
            "positions": [
                0.43763111852811254,
                -1.5328319125909502,
                1.886428635165224,
                0.9919336337596767,
                0.12409711020518148,
                0.08863510473551973
            ]
        },
        {
            "positions": [
                0.4689327089570541,
                -1.53513303239578,
                1.7332940640706351,
                0.8770560570262977,
                0.21088701145160932,
                0.08564681995306969
            ]
        },
        {
            "positions": [
                0.5002342993859955,
                -1.5374341522006099,
                1.5801594929760463,
                0.7621784802929188,
                0.29767691269803714,
                0.08265853517061963
            ]
        },
        {
            "positions": [
                0.531535889814937,
                -1.5397352720054396,
                1.4270249218814572,
                0.6473009035595398,
                0.38446681394446497,
                0.07967025038816959
            ]
        },
        {
            "positions": [
                0.6039727952917014,
                -1.5382828221214204,
                1.2751722355814488,
                0.5609540553814993,
                0.42581526650974066,
                0.050461397784510975
            ]
        },
        {
            "positions": [
                0.6764097007684658,
                -1.5368303722374015,
                1.1233195492814403,
                0.47460720720345884,
                0.46716371907501636,
                0.02125254518085235
            ]
        },
        {
            "positions": [
                0.7488466062452303,
                -1.5353779223533826,
                0.9714668629814319,
                0.3882603590254184,
                0.508512171640292,
                -0.007956307422806258
            ]
        },
        {
            "positions": [
                0.8212835117219947,
                -1.5339254724693634,
                0.8196141766814233,
                0.3019135108473779,
                0.5498606242055677,
                -0.03716516002646489
            ]
        },
        {
            "positions": [
                0.893720417198759,
                -1.5324730225853442,
                0.667761490381415,
                0.21556666266933744,
                0.5912090767708433,
                -0.0663740126301235
            ]
        },
        {
            "positions": [
                0.9661573226755235,
                -1.5310205727013253,
                0.5159088040814066,
                0.12921981449129694,
                0.6325575293361191,
                -0.09558286523378211
            ]
        },
        {
            "positions": [
                1.038594228152288,
                -1.5295681228173064,
                0.3640561177813981,
                0.042872966313256544,
                0.6739059819013947,
                -0.12479171783744074
            ]
        },
        {
            "positions": [
                1.1110311336290524,
                -1.5281156729332872,
                0.21220343148138943,
                -0.04347388186478407,
                0.7152544344666705,
                -0.15400057044109938
            ]
        },
        {
            "positions": [
                1.1834680391058168,
                -1.526663223049268,
                0.06035074518138117,
                -0.12982073004282446,
                0.7566028870319461,
                -0.18320942304475796
            ]
        },
        {
            "positions": [
                1.2559049445825812,
                -1.5252107731652491,
                -0.0915019411186273,
                -0.21616757822086496,
                0.7979513395972218,
                -0.2124182756484166
            ]
        },
        {
            "positions": [
                1.3283418500593456,
                -1.5237583232812302,
                -0.243354627418636,
                -0.30251442639890547,
                0.8392997921624975,
                -0.24162712825207522
            ]
        },
        {
            "positions": [
                1.40077875553611,
                -1.522305873397211,
                -0.39520731371864404,
                -0.38886127457694597,
                0.8806482447277731,
                -0.2708359808557338
            ]
        },
        {
            "positions": [
                1.4732156610128744,
                -1.5208534235131919,
                -0.5470600000186527,
                -0.4752081227549865,
                0.9219966972930489,
                -0.3000448334593925
            ]
        },
        {
            "positions": [
                1.5456525664896388,
                -1.519400973629173,
                -0.698912686318661,
                -0.5615549709330268,
                0.9633451498583245,
                -0.32925368606305105
            ]
        },
        {
            "positions": [
                1.6180894719664032,
                -1.517948523745154,
                -0.8507653726186697,
                -0.6479018191110673,
                1.0046936024236002,
                -0.3584625386667097
            ]
        },
        {
            "positions": [
                1.6905263774431676,
                -1.5164960738611348,
                -1.0026180589186784,
                -0.734248667289108,
                1.046042054988876,
                -0.3876713912703683
            ]
        },
        {
            "positions": [
                1.762963282919932,
                -1.5150436239771157,
                -1.1544707452186862,
                -0.8205955154671483,
                1.0873905075541517,
                -0.4168802438740269
            ]
        },
        {
            "positions": [
                1.8354001883966964,
                -1.5135911740930967,
                -1.306323431518695,
                -0.9069423636451888,
                1.1287389601194273,
                -0.4460890964776855
            ]
        },
        {
            "positions": [
                1.9078370938734608,
                -1.5121387242090778,
                -1.4581761178187032,
                -0.9932892118232293,
                1.170087412684703,
                -0.4752979490813441
            ]
        },
        {
            "positions": [
                1.9802739993502252,
                -1.5106862743250586,
                -1.6100288041187119,
                -1.0796360600012698,
                1.2114358652499786,
                -0.5045068016850028
            ]
        },
        {
            "positions": [
                2.023973128875001,
                -1.5415269012925612,
                -1.6195610096261857,
                -1.1415293015870953,
                1.1236459710931666,
                -0.3529820940049603
            ]
        },
        {
            "positions": [
                2.067672258399777,
                -1.5723675282600638,
                -1.6290932151336595,
                -1.203422543172921,
                1.0358560769363545,
                -0.20145738632491778
            ]
        },
        {
            "positions": [
                2.111371387924553,
                -1.6032081552275665,
                -1.638625420641133,
                -1.2653157847587466,
                0.9480661827795422,
                -0.04993267864487516
            ]
        },
        {
            "positions": [
                2.155070517449329,
                -1.634048782195069,
                -1.6481576261486068,
                -1.3272090263445724,
                0.8602762886227302,
                0.10159202903516729
            ]
        },
        {
            "positions": [
                2.198769646974105,
                -1.6648894091625717,
                -1.6576898316560806,
                -1.389102267930398,
                0.7724863944659182,
                0.25311673671520996
            ]
        },
        {
            "positions": [
                2.242468776498881,
                -1.6957300361300742,
                -1.6672220371635544,
                -1.4509955095162237,
                0.684696500309106,
                0.4046414443952525
            ]
        },
        {
            "positions": [
                2.286167906023657,
                -1.726570663097577,
                -1.6767542426710282,
                -1.5128887511020492,
                0.596906606152294,
                0.5561661520752949
            ]
        },
        {
            "positions": [
                2.3298670355484328,
                -1.7574112900650796,
                -1.686286448178502,
                -1.5747819926878748,
                0.5091167119954818,
                0.7076908597553374
            ]
        },
        {
            "positions": [
                2.3735661650732087,
                -1.7882519170325821,
                -1.6958186536859756,
                -1.6366752342737003,
                0.42132681783866976,
                0.8592155674353802
            ]
        },
        {
            "positions": [
                2.4172652945979847,
                -1.819092544000085,
                -1.7053508591934494,
                -1.698568475859526,
                0.3335369236818576,
                1.0107402751154226
            ]
        },
        {
            "positions": [
                2.46096442412276,
                -1.8499331709675875,
                -1.7148830647009232,
                -1.7604617174453518,
                0.24574702952504546,
                1.1622649827954654
            ]
        },
        {
            "positions": [
                2.504663553647536,
                -1.88077379793509,
                -1.724415270208397,
                -1.8223549590311774,
                0.15795713536823341,
                1.3137896904755078
            ]
        },
        {
            "positions": [
                2.548362683172312,
                -1.9116144249025926,
                -1.7339474757158708,
                -1.884248200617003,
                0.07016724121142137,
                1.46531439815555
            ]
        },
        {
            "positions": [
                2.592061812697088,
                -1.9424550518700952,
                -1.7434796812233446,
                -1.9461414422028285,
                -0.01762265294539067,
                1.6168391058355924
            ]
        },
        {
            "positions": [
                2.635760942221864,
                -1.973295678837598,
                -1.7530118867308182,
                -2.0080346837886545,
                -0.10541254710220271,
                1.7683638135156352
            ]
        },
        {
            "positions": [
                2.67946007174664,
                -2.0041363058051003,
                -1.762544092238292,
                -2.06992792537448,
                -0.19320244125901498,
                1.9198885211956775
            ]
        },
        {
            "positions": [
                2.723159201271416,
                -2.034976932772603,
                -1.7720762977457658,
                -2.1318211669603055,
                -0.2809923354158269,
                2.0714132288757203
            ]
        },
        {
            "positions": [
                2.710621399950651,
                -2.0649686772918354,
                -1.7487384030182307,
                -2.193500540828985,
                -0.320598423654653,
                2.286539655698975
            ]
        },
        {
            "positions": [
                2.698083598629886,
                -2.094960421811068,
                -1.7254005082906956,
                -2.2551799146976643,
                -0.36020451189347913,
                2.5016660825222297
            ]
        },
        {
            "positions": [
                2.6855457973091217,
                -2.1249521663303006,
                -1.7020626135631607,
                -2.316859288566344,
                -0.3998106001323052,
                2.7167925093454843
            ]
        },
        {
            "positions": [
                2.673007995988357,
                -2.154943910849533,
                -1.6787247188356256,
                -2.3785386624350235,
                -0.43941668837113135,
                2.931918936168739
            ]
        },
        {
            "positions": [
                2.660470194667592,
                -2.1849356553687653,
                -1.6553868241080905,
                -2.440218036303703,
                -0.4790227766099574,
                3.1470453629919937
            ]
        }
    ]
}