{
    "goal": {
        "global_pose": {
            "orientation": {
                "w": -0.4816463035849501,
                "x": 0.5182115481033762,
                "y": 0.4908360881923453,
                "z": -0.5084816262002911
            },
            "position": {
                "x": -0.8240239810943604,
                "y": -0.300875300988555,
                "z": 0.16403168439865112
            }
        },
        "name": "move_to_storage_C"
    },
    "id": "RRTConnect_move_to_storage_C_64",
    "joint_names": [
        "shoulder_pan_joint",
        "shoulder_lift_joint",
        "elbow_joint",
        "wrist_1_joint",
        "wrist_2_joint",
        "wrist_3_joint"
    ],
    "metrics": {
        "cart_traj_len": 0.5770675734801123,
        "distance_elbow_joint": 0.25789664539188206,
        "distance_shoulder_lift_joint": 0.1896863266353257,
        "distance_shoulder_pan_joint": 0.4960915699613295,
        "distance_wrist_1_joint": 0.07996563960998959,
        "distance_wrist_2_joint": 1.062126587154168,
        "distance_wrist_3_joint": 0.061726987162703306,
        "smoothness": 2.5376526478085547e-16,
        "time": 0.082069851,
        "traj_len": 1.4654329585195627,
        "weighted_distance": 1.8474414624027908
    },
    "planner": "RRTConnect",
    "start": {
        "state": {
            "elbow_joint": 2.010868314990456,
            "shoulder_lift_joint": -1.1634956873337592,
            "shoulder_pan_joint": -2.4736205022346125,
            "wrist_1_joint": -0.8367026794202681,
            "wrist_2_joint": 0.6746043897044499,
            "wrist_3_joint": -3.1496632123970403
        }
    },
    "waypoints": [
        {
            "positions": [
                -2.4736205022346125,
                -1.1634956873337592,
                2.010868314990456,
                -0.8367026794202681,
                0.6746043897044499,
                -3.1496632123970403
            ]
        },
        {
            "positions": [
                -2.5563024305615007,
                -1.1318812995612049,
                1.9678855407584754,
                -0.8233750728186031,
                0.8516254875634779,
                -3.1393753812032563
            ]
        },
        {
            "positions": [
                -2.638984358888389,
                -1.1002669117886505,
                1.924902766526495,
                -0.8100474662169382,
                1.028646585422506,
                -3.1290875500094724
            ]
        },
        {
            "positions": [
                -2.7216662872152773,
                -1.0686525240160965,
                1.881919992294515,
                -0.7967198596152734,
                1.205667683281534,
                -3.118799718815689
            ]
        },
        {
            "positions": [
                -2.8043482155421655,
                -1.0370381362435421,
                1.8389372180625345,
                -0.7833922530136084,
                1.382688781140562,
                -3.108511887621905
            ]
        },
        {
            "positions": [
                -2.8870301438690538,
                -1.0054237484709878,
                1.7959544438305541,
                -0.7700646464119434,
                1.55970987899959,
                -3.098224056428121
            ]
        },
        {
            "positions": [
                -2.969712072195942,
                -0.9738093606984335,
                1.7529716695985738,
                -0.7567370398102785,
                1.7367309768586179,
                -3.087936225234337
            ]
        }
    ]
}