{
    "goal": {
        "global_pose": {
            "orientation": {
                "w": 0.5084816217422485,
                "x": -0.49083608388900757,
                "y": 0.5182115435600281,
                "z": -0.4816462993621826
            },
            "position": {
                "x": 0.5540239810943604,
                "y": 0.030875300988554955,
                "z": 0.16403168439865112
            }
        },
        "name": "move_to_storage_A"
    },
    "id": "RRTConnect_move_to_storage_A_8",
    "joint_names": [
        "shoulder_pan_joint",
        "shoulder_lift_joint",
        "elbow_joint",
        "wrist_1_joint",
        "wrist_2_joint",
        "wrist_3_joint"
    ],
    "metrics": {
        "cart_traj_len": 0.35347456306991104,
        "distance_elbow_joint": 0.44980836548984926,
        "distance_shoulder_lift_joint": 0.2338741196786045,
        "distance_shoulder_pan_joint": 0.4644121005514994,
        "distance_wrist_1_joint": 0.23761775516115946,
        "distance_wrist_2_joint": 1.090333087749497,
        "distance_wrist_3_joint": 0.10048277251347448,
        "smoothness": 8.881784232165597e-16,
        "time": 0.043953795000000004,
        "traj_len": 1.6051567528263662,
        "weighted_distance": 2.0261896725335684
    },
    "planner": "RRTConnect",
    "start": {
        "state": {
            "elbow_joint": 1.971548259319323,
            "shoulder_lift_joint": -1.1394851275133948,
            "shoulder_pan_joint": 0.1228115487234821,
            "wrist_1_joint": -0.7804723859257726,
            "wrist_2_joint": 0.12958671773740124,
            "wrist_3_joint": -3.192489227718131
        }
    },
    "waypoints": [
        {
            "positions": [
                0.1228115487234821,
                -1.1394851275133948,
                1.971548259319323,
                -0.7804723859257726,
                0.12958671773740124,
                -3.192489227718131
            ]
        },
        {
            "positions": [
                0.05646696293041076,
                -1.1728957160389097,
                2.0358065972464443,
                -0.814417779520224,
                0.2853485874159008,
                -3.178134545930492
            ]
        },
        {
            "positions": [
                -0.009877622862660584,
                -1.2063063045644247,
                2.100064935173566,
                -0.8483631731146754,
                0.44111045709440033,
                -3.1637798641428527
            ]
        },
        {
            "positions": [
                -0.07622220865573193,
                -1.2397168930899396,
                2.164323273100687,
                -0.8823085667091266,
                0.5968723267728999,
                -3.1494251823552135
            ]
        },
        {
            "positions": [
                -0.14256679444880327,
                -1.2731274816154545,
                2.228581611027808,
                -0.916253960303578,
                0.7526341964513995,
                -3.1350705005675743
            ]
        },
        {
            "positions": [
                -0.2089113802418746,
                -1.3065380701409695,
                2.2928399489549296,
                -0.9501993538980293,
                0.9083960661298991,
                -3.120715818779935
            ]
        },
        {
            "positions": [
                -0.27525596603494595,
                -1.3399486586664844,
                2.357098286882051,
                -0.9841447474924807,
                1.0641579358083986,
                -3.106361136992296
            ]
        },
        {
            "positions": [
                -0.3416005518280173,
                -1.3733592471919993,
                2.4213566248091722,
                -1.018090141086932,
                1.2199198054868983,
                -3.0920064552046567
            ]
        }
    ]
}{
    "goal": {
        "global_pose": {
            "orientation": {
                "w": 0.5084816217422485,
                "x": -0.49083608388900757,
                "y": 0.5182115435600281,
                "z": -0.4816462993621826
            },
            "position": {
                "x": 0.5540239810943604,
                "y": 0.030875300988554955,
                "z": 0.16403168439865112
            }
        },
        "name": "move_to_storage_A"
    },
    "id": "RRTConnect_move_to_storage_A_8",
    "joint_names": [
        "shoulder_pan_joint",
        "shoulder_lift_joint",
        "elbow_joint",
        "wrist_1_joint",
        "wrist_2_joint",
        "wrist_3_joint"
    ],
    "metrics": {
        "cart_traj_len": 0.3537358405783892,
        "distance_elbow_joint": 0.44966322287256233,
        "distance_shoulder_lift_joint": 0.2356454565768471,
        "distance_shoulder_pan_joint": 0.46468604341850667,
        "distance_wrist_1_joint": 0.23768637800482906,
        "distance_wrist_2_joint": 1.0916445484013697,
        "distance_wrist_3_joint": 0.10002796313731555,
        "smoothness": 1.1102230298998083e-15,
        "time": 0.055120238,
        "traj_len": 1.6060366161490311,
        "weighted_distance": 2.027002828091826
    },
    "planner": "RRTConnect",
    "start": {
        "state": {
            "elbow_joint": 1.97154746011099,
            "shoulder_lift_joint": -1.13948474672311,
            "shoulder_pan_joint": 0.12281154466712228,
            "wrist_1_joint": -0.7804688027058302,
            "wrist_2_joint": 0.12958655903071145,
            "wrist_3_joint": 3.0906928834467795
        }
    },
    "waypoints": [
        {
            "positions": [
                0.12281154466712228,
                -1.13948474672311,
                1.97154746011099,
                -0.7804688027058302,
                0.12958655903071145,
                3.0906928834467795
            ]
        },
        {
            "positions": [
                0.056427824178764185,
                -1.1731483833769452,
                2.0357850633784986,
                -0.814423999563663,
                0.2855357802309071,
                3.104982592466396
            ]
        },
        {
            "positions": [
                -0.009955896309593912,
                -1.2068120200307806,
                2.100022666646008,
                -0.8483791964214956,
                0.4414850014311028,
                3.1192723014860126
            ]
        },
        {
            "positions": [
                -0.076339616797952,
                -1.2404756566846158,
                2.1642602699135165,
                -0.8823343932793284,
                0.5974342226312984,
                3.133562010505629
            ]
        },
        {
            "positions": [
                -0.1427233372863101,
                -1.2741392933384512,
                2.2284978731810257,
                -0.916289590137161,
                0.7533834438314941,
                3.1478517195252453
            ]
        },
        {
            "positions": [
                -0.2091070577746682,
                -1.3078029299922864,
                2.2927354764485344,
                -0.9502447869949938,
                0.9093326650316899,
                3.162141428544862
            ]
        },
        {
            "positions": [
                -0.27549077826302626,
                -1.3414665666461216,
                2.3569730797160435,
                -0.9841999838528265,
                1.0652818862318854,
                3.1764311375644785
            ]
        },
        {
            "positions": [
                -0.34187449875138437,
                -1.375130203299957,
                2.4212106829835522,
                -1.0181551807106592,
                1.2212311074320812,
                3.190720846584095
            ]
        }
    ]
}{
    "goal": {
        "global_pose": {
            "orientation": {
                "w": 0.5084816217422485,
                "x": -0.49083608388900757,
                "y": 0.5182115435600281,
                "z": -0.4816462993621826
            },
            "position": {
                "x": 0.5540239810943604,
                "y": 0.030875300988554955,
                "z": 0.16403168439865112
            }
        },
        "name": "move_to_storage_A"
    },
    "id": "RRTConnect_move_to_storage_A_8",
    "joint_names": [
        "shoulder_pan_joint",
        "shoulder_lift_joint",
        "elbow_joint",
        "wrist_1_joint",
        "wrist_2_joint",
        "wrist_3_joint"
    ],
    "metrics": {
        "cart_traj_len": 0.3524508685839571,
        "distance_elbow_joint": 0.44809802824409983,
        "distance_shoulder_lift_joint": 0.23312463284668072,
        "distance_shoulder_pan_joint": 0.46172311810943684,
        "distance_wrist_1_joint": 0.23882378936686544,
        "distance_wrist_2_joint": 1.0929698723736305,
        "distance_wrist_3_joint": 0.09511138771706706,
        "smoothness": 8.881784197001252e-16,
        "time": 0.03358869,
        "traj_len": 1.6030754282496442,
        "weighted_distance": 2.0228364407021173
    },
    "planner": "RRTConnect",
    "start": {
        "state": {
            "elbow_joint": 1.9715472970024885,
            "shoulder_lift_joint": -1.1394870060712896,
            "shoulder_pan_joint": 0.12281152778156021,
            "wrist_1_joint": -0.780463741449964,
            "wrist_2_joint": 0.12958659822042276,
            "wrist_3_joint": 3.090690232415272
        }
    },
    "waypoints": [
        {
            "positions": [
                0.12281152778156021,
                -1.1394870060712896,
                1.9715472970024885,
                -0.780463741449964,
                0.12958659822042276,
                3.090690232415272
            ]
        },
        {
            "positions": [
                0.05685108233735496,
                -1.1727905250493869,
                2.03556130103736,
                -0.8145814256452305,
                0.28572515141665566,
                3.10427757351771
            ]
        },
        {
            "positions": [
                -0.009109363106850288,
                -1.206094044027484,
                2.0995753050722312,
                -0.848699109840497,
                0.4418637046128886,
                3.117864914620148
            ]
        },
        {
            "positions": [
                -0.07506980855105555,
                -1.2393975630055813,
                2.1635893091071026,
                -0.8828167940357634,
                0.5980022578091215,
                3.131452255722586
            ]
        },
        {
            "positions": [
                -0.14103025399526078,
                -1.2727010819836786,
                2.227603313141974,
                -0.9169344782310299,
                0.7541408110053545,
                3.1450395968250247
            ]
        },
        {
            "positions": [
                -0.20699069943946605,
                -1.3060046009617758,
                2.2916173171768457,
                -0.9510521624262964,
                0.9102793642015874,
                3.1586269379274627
            ]
        },
        {
            "positions": [
                -0.27295114488367134,
                -1.339308119939873,
                2.355631321211717,
                -0.9851698466215629,
                1.0664179173978203,
                3.172214279029901
            ]
        },
        {
            "positions": [
                -0.3389115903278766,
                -1.3726116389179703,
                2.4196453252465884,
                -1.0192875308168294,
                1.2225564705940533,
                3.185801620132339
            ]
        }
    ]
}