{
    "goal": {
        "global_pose": {
            "orientation": {
                "w": -0.4816463035849501,
                "x": 0.5182115481033762,
                "y": 0.4908360881923453,
                "z": -0.5084816262002911
            },
            "position": {
                "x": -0.8240239810943604,
                "y": -0.300875300988555,
                "z": 0.16403168439865112
            }
        },
        "name": "move_to_storage_C"
    },
    "id": "RRTConnect_move_to_storage_C_47",
    "joint_names": [
        "shoulder_pan_joint",
        "shoulder_lift_joint",
        "elbow_joint",
        "wrist_1_joint",
        "wrist_2_joint",
        "wrist_3_joint"
    ],
    "metrics": {
        "cart_traj_len": 0.5770371838732465,
        "distance_elbow_joint": 0.2567614301034524,
        "distance_shoulder_lift_joint": 0.18934270335546366,
        "distance_shoulder_pan_joint": 0.49587848308457083,
        "distance_wrist_1_joint": 0.07412682643989121,
        "distance_wrist_2_joint": 1.0629774449282277,
        "distance_wrist_3_joint": 0.06965614054790903,
        "smoothness": 0.0,
        "time": 0.108719874,
        "traj_len": 1.465859143458032,
        "weighted_distance": 1.8507186660655508
    },
    "planner": "RRTConnect",
    "start": {
        "state": {
            "elbow_joint": 2.010868314990456,
            "shoulder_lift_joint": -1.1634956873337592,
            "shoulder_pan_joint": -2.4736205022346125,
            "wrist_1_joint": -0.8367026794202681,
            "wrist_2_joint": 0.6746043897044499,
            "wrist_3_joint": -3.1496632123970403
        }
    },
    "waypoints": [
        {
            "positions": [
                -2.4736205022346125,
                -1.1634956873337592,
                2.010868314990456,
                -0.8367026794202681,
                0.6746043897044499,
                -3.1496632123970403
            ]
        },
        {
            "positions": [
                -2.556266916082041,
                -1.1319385701078486,
                1.968074743306547,
                -0.8243482083469529,
                0.8517672971924879,
                -3.1380538556390554
            ]
        },
        {
            "positions": [
                -2.6389133299294696,
                -1.100381452881938,
                1.9252811716226383,
                -0.8119937372736377,
                1.0289302046805258,
                -3.1264444988810705
            ]
        },
        {
            "positions": [
                -2.721559743776898,
                -1.0688243356560274,
                1.8824875999387296,
                -0.7996392662003224,
                1.2060931121685639,
                -3.114835142123086
            ]
        },
        {
            "positions": [
                -2.8042061576243262,
                -1.0372672184301168,
                1.8396940282548209,
                -0.7872847951270073,
                1.3832560196566015,
                -3.103225785365101
            ]
        },
        {
            "positions": [
                -2.886852571471755,
                -1.005710101204206,
                1.7969004565709121,
                -0.7749303240536921,
                1.5604189271446396,
                -3.091616428607116
            ]
        },
        {
            "positions": [
                -2.9694989853191833,
                -0.9741529839782955,
                1.7541068848870034,
                -0.7625758529803769,
                1.7375818346326775,
                -3.0800070718491313
            ]
        }
    ]
}