{
    "goal": {
        "global_pose": {
            "orientation": {
                "w": 0.005598929693374612,
                "x": 0.007748599140229565,
                "y": 0.7110244013736278,
                "z": -0.7031023480610252
            },
            "position": {
                "x": 0.1141497679147869,
                "y": -0.7141253447532654,
                "z": 0.3711530566215515
            }
        },
        "name": "move_to_auspresseinheit_B"
    },
    "id": "RRTConnect_move_to_auspresseinheit_B_148",
    "joint_names": [
        "shoulder_pan_joint",
        "shoulder_lift_joint",
        "elbow_joint",
        "wrist_1_joint",
        "wrist_2_joint",
        "wrist_3_joint"
    ],
    "metrics": {
        "cart_traj_len": 0.565317277174274,
        "distance_elbow_joint": 0.06520510292523807,
        "distance_shoulder_lift_joint": 0.29519710801741295,
        "distance_shoulder_pan_joint": 0.5790339627012837,
        "distance_wrist_1_joint": 0.3401085090630921,
        "distance_wrist_2_joint": 0.9887265496216502,
        "distance_wrist_3_joint": 0.008000131855061987,
        "smoothness": 2.5376526478085547e-16,
        "time": 0.05448266,
        "traj_len": 1.508731707157949,
        "weighted_distance": 1.9029205675956642
    },
    "planner": "RRTConnect",
    "start": {
        "state": {
            "elbow_joint": 2.0193083361928714,
            "shoulder_lift_joint": -1.1220246554650708,
            "shoulder_pan_joint": -1.0952077554168747,
            "wrist_1_joint": -0.8559753972642168,
            "wrist_2_joint": 0.4759566250798843,
            "wrist_3_joint": -3.1240929996934557
        }
    },
    "waypoints": [
        {
            "positions": [
                -1.0952077554168747,
                -1.1220246554650708,
                2.0193083361928714,
                -0.8559753972642168,
                0.4759566250798843,
                -3.1240929996934557
            ]
        },
        {
            "positions": [
                -1.1917134158670886,
                -1.171224173467973,
                2.008440819038665,
                -0.7992906457537015,
                0.6407443833501594,
                -3.1227596443842787
            ]
        },
        {
            "positions": [
                -1.2882190763173025,
                -1.220423691470875,
                1.9975733018844588,
                -0.7426058942431861,
                0.8055321416204344,
                -3.1214262890751017
            ]
        },
        {
            "positions": [
                -1.3847247367675166,
                -1.2696232094737772,
                1.9867057847302525,
                -0.6859211427326708,
                0.9703198998907094,
                -3.1200929337659247
            ]
        },
        {
            "positions": [
                -1.4812303972177303,
                -1.3188227274766795,
                1.975838267576046,
                -0.6292363912221555,
                1.1351076581609845,
                -3.1187595784567477
            ]
        },
        {
            "positions": [
                -1.5777360576679444,
                -1.3680222454795816,
                1.9649707504218397,
                -0.57255163971164,
                1.2998954164312595,
                -3.1174262231475707
            ]
        },
        {
            "positions": [
                -1.6742417181181584,
                -1.4172217634824837,
                1.9541032332676334,
                -0.5158668882011247,
                1.4646831747015345,
                -3.1160928678383937
            ]
        }
    ]
}