{
    "goal": {
        "global_pose": {
            "orientation": {
                "w": 0.005598929693374612,
                "x": 0.007748599140229565,
                "y": 0.7110244013736278,
                "z": -0.7031023480610252
            },
            "position": {
                "x": -0.8858502320852131,
                "y": -0.7141253447532654,
                "z": 0.3711530566215515
            }
        },
        "name": "move_to_auspresseinheit_C"
    },
    "id": "RRTConnect_move_to_auspresseinheit_C_113",
    "joint_names": [
        "shoulder_pan_joint",
        "shoulder_lift_joint",
        "elbow_joint",
        "wrist_1_joint",
        "wrist_2_joint",
        "wrist_3_joint"
    ],
    "metrics": {
        "cart_traj_len": 0.4940938939534647,
        "distance_elbow_joint": 1.0189381497201824,
        "distance_shoulder_lift_joint": 0.3345125861537387,
        "distance_shoulder_pan_joint": 0.25539832854584743,
        "distance_wrist_1_joint": 0.7064867673130812,
        "distance_wrist_2_joint": 1.3220459305523677,
        "distance_wrist_3_joint": 0.08166537591445655,
        "smoothness": 6.459479416000911e-16,
        "time": 0.06697022799999999,
        "traj_len": 1.928483118463751,
        "weighted_distance": 2.431236431919783
    },
    "planner": "RRTConnect",
    "start": {
        "state": {
            "elbow_joint": 1.7527959577737207,
            "shoulder_lift_joint": -0.9740617694225068,
            "shoulder_pan_joint": -2.967991417825858,
            "wrist_1_joint": -0.759517768980727,
            "wrist_2_joint": 1.7443932448377408,
            "wrist_3_joint": -3.0840537646736568
        }
    },
    "waypoints": [
        {
            "positions": [
                -2.967991417825858,
                -0.9740617694225068,
                1.7527959577737207,
                -0.759517768980727,
                1.7443932448377408,
                -3.0840537646736568
            ]
        },
        {
            "positions": [
                -2.9424515849712733,
                -0.9406105108071329,
                1.6509021428017023,
                -0.6888690922494188,
                1.6121886517825041,
                -3.0922203022651025
            ]
        },
        {
            "positions": [
                -2.9169117521166883,
                -0.9071592521917591,
                1.5490083278296842,
                -0.6182204155181107,
                1.4799840587272672,
                -3.100386839856548
            ]
        },
        {
            "positions": [
                -2.8913719192621037,
                -0.8737079935763852,
                1.447114512857666,
                -0.5475717387868027,
                1.3477794656720306,
                -3.108553377447994
            ]
        },
        {
            "positions": [
                -2.865832086407519,
                -0.8402567349610113,
                1.3452206978856478,
                -0.47692306205549445,
                1.2155748726167936,
                -3.1167199150394396
            ]
        },
        {
            "positions": [
                -2.840292253552934,
                -0.8068054763456374,
                1.2433268829136295,
                -0.40627438532418636,
                1.083370279561557,
                -3.124886452630885
            ]
        },
        {
            "positions": [
                -2.8147524206983494,
                -0.7733542177302636,
                1.1414330679416111,
                -0.33562570859287827,
                0.9511656865063202,
                -3.1330529902223305
            ]
        },
        {
            "positions": [
                -2.789212587843765,
                -0.7399029591148897,
                1.039539252969593,
                -0.2649770318615701,
                0.8189610934510835,
                -3.1412195278137762
            ]
        },
        {
            "positions": [
                -2.76367275498918,
                -0.7064517004995159,
                0.9376454379975747,
                -0.19432835513026192,
                0.6867565003958467,
                -3.149386065405222
            ]
        },
        {
            "positions": [
                -2.738132922134595,
                -0.673000441884142,
                0.8357516230255565,
                -0.12367967839895389,
                0.5545519073406098,
                -3.1575526029966676
            ]
        },
        {
            "positions": [
                -2.7125930892800105,
                -0.6395491832687681,
                0.7338578080535383,
                -0.05303100166764574,
                0.4223473142853731,
                -3.1657191405881133
            ]
        }
    ]
}