{
    "goal": {
        "global_pose": {
            "orientation": {
                "w": 0.7047431468963623,
                "x": -0.7094548344612122,
                "y": 0.0024358443915843964,
                "z": -0.0022348060738295317
            },
            "position": {
                "x": 0.6094750761985779,
                "y": 0.3671506643295288,
                "z": 0.19426114857196808
            }
        },
        "name": "move_to_magneteinheit_A"
    },
    "id": "RRTConnect_move_to_magneteinheit_A_13",
    "joint_names": [
        "shoulder_pan_joint",
        "shoulder_lift_joint",
        "elbow_joint",
        "wrist_1_joint",
        "wrist_2_joint",
        "wrist_3_joint"
    ],
    "metrics": {
        "cart_traj_len": 2.6937537247125847,
        "distance_elbow_joint": 3.9200532631817007,
        "distance_shoulder_lift_joint": 2.3422007899634747,
        "distance_shoulder_pan_joint": 3.213859884440913,
        "distance_wrist_1_joint": 3.91208265462161,
        "distance_wrist_2_joint": 1.9624709906839315,
        "distance_wrist_3_joint": 1.1869677140276593,
        "smoothness": 0.27741126245506126,
        "time": 0.067810564,
        "traj_len": 4.066649148490596,
        "weighted_distance": 4.978566497525182
    },
    "planner": "RRTConnect",
    "start": {
        "state": {
            "elbow_joint": -1.9196185241190666,
            "shoulder_lift_joint": -1.2443396400964142,
            "shoulder_pan_joint": 2.6996025414629847,
            "wrist_1_joint": -1.5485510000780065,
            "wrist_2_joint": -1.5709468930060704,
            "wrist_3_joint": 0.4420197071253992
        }
    },
    "waypoints": [
        {
            "positions": [
                2.6996025414629847,
                -1.2443396400964142,
                -1.9196185241190666,
                -1.5485510000780065,
                -1.5709468930060704,
                0.4420197071253992
            ]
        },
        {
            "positions": [
                2.6144558463666265,
                -1.2719602345168666,
                -1.807180274041764,
                -1.4396349424966888,
                -1.5210170059322736,
                0.452659699448752
            ]
        },
        {
            "positions": [
                2.529309151270269,
                -1.299580828937319,
                -1.6947420239644613,
                -1.3307188849153708,
                -1.4710871188584767,
                0.46329969177210484
            ]
        },
        {
            "positions": [
                2.4441624561739106,
                -1.3272014233577711,
                -1.5823037738871588,
                -1.221802827334053,
                -1.42115723178468,
                0.4739396840954577
            ]
        },
        {
            "positions": [
                2.359015761077553,
                -1.3548220177782235,
                -1.4698655238098561,
                -1.1128867697527354,
                -1.3712273447108831,
                0.48457967641881056
            ]
        },
        {
            "positions": [
                2.2738690659811946,
                -1.382442612198676,
                -1.3574272737325535,
                -1.0039707121714174,
                -1.3212974576370862,
                0.4952196687421634
            ]
        },
        {
            "positions": [
                2.188722370884837,
                -1.4100632066191283,
                -1.2449890236552508,
                -0.8950546545900996,
                -1.2713675705632892,
                0.5058596610655163
            ]
        },
        {
            "positions": [
                2.1035756757884787,
                -1.4376838010395807,
                -1.1325507735779483,
                -0.7861385970087819,
                -1.2214376834894924,
                0.516499653388869
            ]
        },
        {
            "positions": [
                2.0184289806921205,
                -1.465304395460033,
                -1.0201125235006456,
                -0.677222539427464,
                -1.1715077964156957,
                0.5271396457122219
            ]
        },
        {
            "positions": [
                1.9332822855957628,
                -1.4929249898804853,
                -0.907674273423343,
                -0.5683064818461463,
                -1.121577909341899,
                0.5377796380355748
            ]
        },
        {
            "positions": [
                1.8481355904994046,
                -1.5205455843009377,
                -0.7952360233460403,
                -0.45939042426482835,
                -1.071648022268102,
                0.5484196303589276
            ]
        },
        {
            "positions": [
                1.7629888954030468,
                -1.54816617872139,
                -0.6827977732687376,
                -0.3504743666835106,
                -1.021718135194305,
                0.5590596226822805
            ]
        },
        {
            "positions": [
                1.6778422003066886,
                -1.5757867731418425,
                -0.5703595231914349,
                -0.24155830910219267,
                -0.9717882481205082,
                0.5696996150056333
            ]
        },
        {
            "positions": [
                1.5926955052103309,
                -1.6034073675622946,
                -0.45792127311413267,
                -0.13264225152087517,
                -0.9218583610467115,
                0.5803396073289862
            ]
        },
        {
            "positions": [
                1.507548810113973,
                -1.6310279619827472,
                -0.34548302303683,
                -0.023726193939557216,
                -0.8719284739729147,
                0.590979599652339
            ]
        },
        {
            "positions": [
                1.4224021150176147,
                -1.6586485564031994,
                -0.2330447729595273,
                0.08518986364176051,
                -0.8219985868991179,
                0.6016195919756918
            ]
        },
        {
            "positions": [
                1.3372554199212567,
                -1.6862691508236518,
                -0.12060652288222462,
                0.19410592122307846,
                -0.772068699825321,
                0.6122595842990447
            ]
        },
        {
            "positions": [
                1.2521087248248988,
                -1.7138897452441042,
                -0.008168272804921939,
                0.3030219788043962,
                -0.7221388127515241,
                0.6228995766223975
            ]
        },
        {
            "positions": [
                1.1669620297285408,
                -1.7415103396645566,
                0.10426997727238074,
                0.4119380363857139,
                -0.6722089256777273,
                0.6335395689457504
            ]
        },
        {
            "positions": [
                1.0818153346321828,
                -1.769130934085009,
                0.2167082273496832,
                0.5208540939670316,
                -0.6222790386039304,
                0.6441795612691033
            ]
        },
        {
            "positions": [
                0.9966686395358246,
                -1.7967515285054612,
                0.3291464774269861,
                0.6297701515483498,
                -0.5723491515301335,
                0.6548195535924561
            ]
        },
        {
            "positions": [
                0.9115219444394667,
                -1.8243721229259138,
                0.44158472750428857,
                0.7386862091296675,
                -0.5224192644563368,
                0.6654595459158089
            ]
        },
        {
            "positions": [
                0.8263752493431087,
                -1.851992717346366,
                0.5540229775815915,
                0.8476022667109853,
                -0.4724893773825398,
                0.6760995382391618
            ]
        },
        {
            "positions": [
                0.7412285542467507,
                -1.8796133117668183,
                0.6664612276588939,
                0.956518324292303,
                -0.42255949030874307,
                0.6867395305625146
            ]
        },
        {
            "positions": [
                0.6560818591503925,
                -1.9072339061872707,
                0.7788994777361968,
                1.0654343818736212,
                -0.3726296032349461,
                0.6973795228858675
            ]
        },
        {
            "positions": [
                0.5709351640540348,
                -1.9348545006077231,
                0.8913377278134993,
                1.1743504394549389,
                -0.32269971616114934,
                0.7080195152092204
            ]
        },
        {
            "positions": [
                0.485788468957677,
                -1.9624750950281753,
                1.0037759778908013,
                1.2832664970362562,
                -0.2727698290873526,
                0.7186595075325731
            ]
        },
        {
            "positions": [
                0.40064177386131883,
                -1.9900956894486277,
                1.1162142279681042,
                1.392182554617574,
                -0.22283994201355584,
                0.7292994998559259
            ]
        },
        {
            "positions": [
                0.3154950787649611,
                -2.0177162838690803,
                1.2286524780454067,
                1.501098612198892,
                -0.17291005493975908,
                0.7399394921792788
            ]
        },
        {
            "positions": [
                0.23034838366860289,
                -2.0453368782895325,
                1.3410907281227096,
                1.6100146697802098,
                -0.12298016786596211,
                0.7505794845026317
            ]
        },
        {
            "positions": [
                0.1452016885722447,
                -2.0729574727099846,
                1.453528978200012,
                1.7189307273615275,
                -0.07305028079216536,
                0.7612194768259846
            ]
        },
        {
            "positions": [
                0.06005499347588694,
                -2.1005780671304373,
                1.565967228277315,
                1.8278467849428452,
                -0.02312039371836838,
                0.7718594691493373
            ]
        },
        {
            "positions": [
                -0.025091701620471252,
                -2.1281986615508894,
                1.6784054783546174,
                1.9367628425241634,
                0.02680949335542837,
                0.7824994614726901
            ]
        },
        {
            "positions": [
                -0.110238396716829,
                -2.155819255971342,
                1.7908437284319203,
                2.0456789001054814,
                0.07673938042922535,
                0.793139453796043
            ]
        },
        {
            "positions": [
                -0.1953850918131872,
                -2.1834398503917942,
                1.9032819785092228,
                2.154594957686799,
                0.1266692675030221,
                0.8037794461193959
            ]
        },
        {
            "positions": [
                -0.1555260604175946,
                -2.0080522779332823,
                1.9154260735783992,
                2.1284778705796983,
                0.09356241373116717,
                0.7006284492401881
            ]
        },
        {
            "positions": [
                -0.11566702902200199,
                -1.8326647054747705,
                1.9275701686475757,
                2.102360783472598,
                0.06045555995931222,
                0.5974774523609803
            ]
        },
        {
            "positions": [
                -0.07580799762640938,
                -1.6572771330162586,
                1.939714263716752,
                2.0762436963654975,
                0.027348706187457272,
                0.4943264554817725
            ]
        },
        {
            "positions": [
                -0.03594896623081678,
                -1.4818895605577467,
                1.9518583587859284,
                2.0501266092583967,
                -0.00575814758439766,
                0.3911754586025647
            ]
        },
        {
            "positions": [
                0.003910065164775822,
                -1.3065019880992348,
                1.9640024538551049,
                2.024009522151296,
                -0.03886500135625259,
                0.28802446172335694
            ]
        },
        {
            "positions": [
                0.043769096560368426,
                -1.1311144156407231,
                1.976146548924281,
                1.9978924350441956,
                -0.07197185512810755,
                0.18487346484414913
            ]
        },
        {
            "positions": [
                0.08362812795596103,
                -0.9557268431822112,
                1.9882906439934576,
                1.971775347937095,
                -0.10507870889996249,
                0.08172246796494131
            ]
        },
        {
            "positions": [
                0.12348715935155366,
                -0.7803392707236994,
                2.000434739062634,
                1.9456582608299944,
                -0.13818556267181742,
                -0.0214285289142665
            ]
        }
    ]
}