{
    "goal": {
        "global_pose": {
            "orientation": {
                "w": 0.5084816217422485,
                "x": -0.49083608388900757,
                "y": 0.5182115435600281,
                "z": -0.4816462993621826
            },
            "position": {
                "x": 0.5540239810943604,
                "y": 0.030875300988554955,
                "z": 0.16403168439865112
            }
        },
        "name": "move_to_storage_A"
    },
    "id": "RRTConnect_move_to_storage_A_119",
    "joint_names": [
        "shoulder_pan_joint",
        "shoulder_lift_joint",
        "elbow_joint",
        "wrist_1_joint",
        "wrist_2_joint",
        "wrist_3_joint"
    ],
    "metrics": {
        "cart_traj_len": 0.3530892929239214,
        "distance_elbow_joint": 0.4528033538463674,
        "distance_shoulder_lift_joint": 0.23433051954215456,
        "distance_shoulder_pan_joint": 0.46347218414911995,
        "distance_wrist_1_joint": 0.25529537973242633,
        "distance_wrist_2_joint": 1.091449702425962,
        "distance_wrist_3_joint": 0.10529607993233325,
        "smoothness": 1.1102230298998083e-15,
        "time": 0.040538079000000005,
        "traj_len": 1.6132722087820033,
        "weighted_distance": 2.039603996282469
    },
    "planner": "RRTConnect",
    "start": {
        "state": {
            "elbow_joint": 1.971548259319323,
            "shoulder_lift_joint": -1.1394851275133948,
            "shoulder_pan_joint": 0.1228115487234821,
            "wrist_1_joint": -0.7804723859257726,
            "wrist_2_joint": 0.12958671773740124,
            "wrist_3_joint": -3.192489227718131
        }
    },
    "waypoints": [
        {
            "positions": [
                0.1228115487234821,
                -1.1394851275133948,
                1.971548259319323,
                -0.7804723859257726,
                0.12958671773740124,
                -3.192489227718131
            ]
        },
        {
            "positions": [
                0.05660123670217926,
                -1.172960916019417,
                2.036234452725947,
                -0.8169431544589764,
                0.285508103798253,
                -3.177446930584941
            ]
        },
        {
            "positions": [
                -0.009609075319123583,
                -1.206436704525439,
                2.100920646132571,
                -0.8534139229921801,
                0.4414294898591047,
                -3.16240463345175
            ]
        },
        {
            "positions": [
                -0.07581938734042643,
                -1.2399124930314611,
                2.1656068395391945,
                -0.8898846915253839,
                0.5973508759199564,
                -3.14736233631856
            ]
        },
        {
            "positions": [
                -0.14202969936172927,
                -1.273388281537483,
                2.2302930329458186,
                -0.9263554600585877,
                0.7532722619808081,
                -3.132320039185369
            ]
        },
        {
            "positions": [
                -0.20824001138303216,
                -1.3068640700435052,
                2.2949792263524427,
                -0.9628262285917915,
                0.9091936480416598,
                -3.117277742052179
            ]
        },
        {
            "positions": [
                -0.27445032340433495,
                -1.3403398585495272,
                2.3596654197590663,
                -0.9992969971249952,
                1.0651150341025115,
                -3.102235444918988
            ]
        },
        {
            "positions": [
                -0.34066063542563785,
                -1.3738156470555494,
                2.4243516131656904,
                -1.035767765658199,
                1.2210364201633632,
                -3.087193147785798
            ]
        }
    ]
}{
    "goal": {
        "global_pose": {
            "orientation": {
                "w": 0.5084816217422485,
                "x": -0.49083608388900757,
                "y": 0.5182115435600281,
                "z": -0.4816462993621826
            },
            "position": {
                "x": 0.5540239810943604,
                "y": 0.030875300988554955,
                "z": 0.16403168439865112
            }
        },
        "name": "move_to_storage_A"
    },
    "id": "RRTConnect_move_to_storage_A_119",
    "joint_names": [
        "shoulder_pan_joint",
        "shoulder_lift_joint",
        "elbow_joint",
        "wrist_1_joint",
        "wrist_2_joint",
        "wrist_3_joint"
    ],
    "metrics": {
        "cart_traj_len": 0.35284450428263825,
        "distance_elbow_joint": 0.4476634739876366,
        "distance_shoulder_lift_joint": 0.2339649337931724,
        "distance_shoulder_pan_joint": 0.4608306157735579,
        "distance_wrist_1_joint": 0.23704680455093774,
        "distance_wrist_2_joint": 1.1000396847244214,
        "distance_wrist_3_joint": 0.08628843214258763,
        "smoothness": 0.0,
        "time": 0.065210199,
        "traj_len": 1.6018220703225166,
        "weighted_distance": 2.0187860952891588
    },
    "planner": "RRTConnect",
    "start": {
        "state": {
            "elbow_joint": 1.97154746011099,
            "shoulder_lift_joint": -1.13948474672311,
            "shoulder_pan_joint": 0.12281154466712228,
            "wrist_1_joint": -0.7804688027058302,
            "wrist_2_joint": 0.12958655903071145,
            "wrist_3_joint": 3.0906928834467795
        }
    },
    "waypoints": [
        {
            "positions": [
                0.12281154466712228,
                -1.13948474672311,
                1.97154746011099,
                -0.7804688027058302,
                0.12958655903071145,
                3.0906928834467795
            ]
        },
        {
            "positions": [
                0.056978599556614024,
                -1.1729083086935632,
                2.0354993849663665,
                -0.8143326319273927,
                0.2867350854199145,
                3.103019802324292
            ]
        },
        {
            "positions": [
                -0.008854345553894236,
                -1.2063318706640163,
                2.099451309821743,
                -0.8481964611489552,
                0.4438836118091175,
                3.1153467212018047
            ]
        },
        {
            "positions": [
                -0.07468729066440251,
                -1.2397554326344695,
                2.1634032346771197,
                -0.8820602903705178,
                0.6010321381983206,
                3.1276736400793173
            ]
        },
        {
            "positions": [
                -0.14052023577491074,
                -1.2731789946049228,
                2.2273551595324967,
                -0.9159241195920803,
                0.7581806645875236,
                3.1400005589568294
            ]
        },
        {
            "positions": [
                -0.20635318088541904,
                -1.306602556575376,
                2.2913070843878733,
                -0.9497879488136429,
                0.9153291909767267,
                3.152327477834342
            ]
        },
        {
            "positions": [
                -0.2721861259959273,
                -1.340026118545829,
                2.35525900924325,
                -0.9836517780352054,
                1.0724777173659297,
                3.1646543967118546
            ]
        },
        {
            "positions": [
                -0.3380190711064356,
                -1.3734496805162824,
                2.4192109340986265,
                -1.017515607256768,
                1.2296262437551329,
                3.176981315589367
            ]
        }
    ]
}{
    "goal": {
        "global_pose": {
            "orientation": {
                "w": 0.5084816217422485,
                "x": -0.49083608388900757,
                "y": 0.5182115435600281,
                "z": -0.4816462993621826
            },
            "position": {
                "x": 0.5540239810943604,
                "y": 0.030875300988554955,
                "z": 0.16403168439865112
            }
        },
        "name": "move_to_storage_A"
    },
    "id": "RRTConnect_move_to_storage_A_119",
    "joint_names": [
        "shoulder_pan_joint",
        "shoulder_lift_joint",
        "elbow_joint",
        "wrist_1_joint",
        "wrist_2_joint",
        "wrist_3_joint"
    ],
    "metrics": {
        "cart_traj_len": 0.35393067405748885,
        "distance_elbow_joint": 0.4496414469934136,
        "distance_shoulder_lift_joint": 0.23404019188123604,
        "distance_shoulder_pan_joint": 0.46278144910452657,
        "distance_wrist_1_joint": 0.24446256174729686,
        "distance_wrist_2_joint": 1.1000975586159394,
        "distance_wrist_3_joint": 0.0974723403221942,
        "smoothness": 0.0,
        "time": 0.035143598,
        "traj_len": 1.6088802157602058,
        "weighted_distance": 2.0317481019241117
    },
    "planner": "RRTConnect",
    "start": {
        "state": {
            "elbow_joint": 1.9715472970024885,
            "shoulder_lift_joint": -1.1394870060712896,
            "shoulder_pan_joint": 0.12281152778156021,
            "wrist_1_joint": -0.780463741449964,
            "wrist_2_joint": 0.12958659822042276,
            "wrist_3_joint": 3.090690232415272
        }
    },
    "waypoints": [
        {
            "positions": [
                0.12281152778156021,
                -1.1394870060712896,
                1.9715472970024885,
                -0.780463741449964,
                0.12958659822042276,
                3.090690232415272
            ]
        },
        {
            "positions": [
                0.056699892195199275,
                -1.1729213191971806,
                2.035781789430119,
                -0.8153869645567207,
                0.28674339230841406,
                3.1046148524612995
            ]
        },
        {
            "positions": [
                -0.009411743391161659,
                -1.2063556323230713,
                2.1000162818577497,
                -0.8503101876634773,
                0.4439001863964054,
                3.118539472507327
            ]
        },
        {
            "positions": [
                -0.07552337897752259,
                -1.2397899454489623,
                2.1642507742853803,
                -0.8852334107702341,
                0.6010569804843967,
                3.132464092553355
            ]
        },
        {
            "positions": [
                -0.14163501456388353,
                -1.273224258574853,
                2.2284852667130104,
                -0.9201566338769908,
                0.758213774572388,
                3.146388712599383
            ]
        },
        {
            "positions": [
                -0.2077466501502445,
                -1.306658571700744,
                2.292719759140641,
                -0.9550798569837475,
                0.9153705686603795,
                3.1603133326454107
            ]
        },
        {
            "positions": [
                -0.2738582857366054,
                -1.3400928848266347,
                2.3569542515682715,
                -0.9900030800905042,
                1.0725273627483707,
                3.1742379526914384
            ]
        },
        {
            "positions": [
                -0.33996992132296633,
                -1.3735271979525256,
                2.421188743995902,
                -1.0249263031972609,
                1.2296841568363621,
                3.188162572737466
            ]
        }
    ]
}