{
    "goal": {
        "global_pose": {
            "orientation": {
                "w": 0.5084816217422485,
                "x": -0.49083608388900757,
                "y": 0.5182115435600281,
                "z": -0.4816462993621826
            },
            "position": {
                "x": 0.5540239810943604,
                "y": 0.030875300988554955,
                "z": 0.16403168439865112
            }
        },
        "name": "move_to_storage_A"
    },
    "id": "RRTConnect_move_to_storage_A_140",
    "joint_names": [
        "shoulder_pan_joint",
        "shoulder_lift_joint",
        "elbow_joint",
        "wrist_1_joint",
        "wrist_2_joint",
        "wrist_3_joint"
    ],
    "metrics": {
        "cart_traj_len": 0.3539447811530051,
        "distance_elbow_joint": 0.45517879950206575,
        "distance_shoulder_lift_joint": 0.23448308315986588,
        "distance_shoulder_pan_joint": 0.4626594548173361,
        "distance_wrist_1_joint": 0.2625356620016456,
        "distance_wrist_2_joint": 1.1019827894157086,
        "distance_wrist_3_joint": 0.09747420341795543,
        "smoothness": 8.881784267329941e-16,
        "time": 0.038202758,
        "traj_len": 1.6168840379923903,
        "weighted_distance": 2.0429833211673176
    },
    "planner": "RRTConnect",
    "start": {
        "state": {
            "elbow_joint": 1.971548259319323,
            "shoulder_lift_joint": -1.1394851275133948,
            "shoulder_pan_joint": 0.1228115487234821,
            "wrist_1_joint": -0.7804723859257726,
            "wrist_2_joint": 0.12958671773740124,
            "wrist_3_joint": -3.192489227718131
        }
    },
    "waypoints": [
        {
            "positions": [
                0.1228115487234821,
                -1.1394851275133948,
                1.971548259319323,
                -0.7804723859257726,
                0.12958671773740124,
                -3.192489227718131
            ]
        },
        {
            "positions": [
                0.05671734089243409,
                -1.172982710821947,
                2.0365738021053326,
                -0.8179774804974362,
                0.2870128305110739,
                -3.178564341515566
            ]
        },
        {
            "positions": [
                -0.00937686693861392,
                -1.2064802941304993,
                2.101599344891342,
                -0.8554825750691,
                0.44443894328474653,
                -3.164639455313001
            ]
        },
        {
            "positions": [
                -0.07547107476966194,
                -1.2399778774390515,
                2.1666248876773513,
                -0.8929876696407636,
                0.6018650560584192,
                -3.150714569110436
            ]
        },
        {
            "positions": [
                -0.14156528260070994,
                -1.273475460747604,
                2.2316504304633606,
                -0.9304927642124272,
                0.7592911688320919,
                -3.136789682907871
            ]
        },
        {
            "positions": [
                -0.20765949043175796,
                -1.3069730440561562,
                2.29667597324937,
                -0.967997858784091,
                0.9167172816057646,
                -3.122864796705306
            ]
        },
        {
            "positions": [
                -0.273753698262806,
                -1.3404706273647085,
                2.3617015160353794,
                -1.0055029533557545,
                1.0741433943794372,
                -3.1089399105027407
            ]
        },
        {
            "positions": [
                -0.339847906093854,
                -1.3739682106732607,
                2.4267270588213887,
                -1.0430080479274182,
                1.2315695071531099,
                -3.0950150243001757
            ]
        }
    ]
}{
    "goal": {
        "global_pose": {
            "orientation": {
                "w": 0.5084816217422485,
                "x": -0.49083608388900757,
                "y": 0.5182115435600281,
                "z": -0.4816462993621826
            },
            "position": {
                "x": 0.5540239810943604,
                "y": 0.030875300988554955,
                "z": 0.16403168439865112
            }
        },
        "name": "move_to_storage_A"
    },
    "id": "RRTConnect_move_to_storage_A_140",
    "joint_names": [
        "shoulder_pan_joint",
        "shoulder_lift_joint",
        "elbow_joint",
        "wrist_1_joint",
        "wrist_2_joint",
        "wrist_3_joint"
    ],
    "metrics": {
        "cart_traj_len": 0.352232494436569,
        "distance_elbow_joint": 0.44750031829587433,
        "distance_shoulder_lift_joint": 0.23526985072397233,
        "distance_shoulder_pan_joint": 0.45968423456140267,
        "distance_wrist_1_joint": 0.23505089933321166,
        "distance_wrist_2_joint": 1.1009508725823254,
        "distance_wrist_3_joint": 0.0932631184802406,
        "smoothness": 8.881784197001252e-16,
        "time": 0.054339439,
        "traj_len": 1.603658097593445,
        "weighted_distance": 2.023424647189276
    },
    "planner": "RRTConnect",
    "start": {
        "state": {
            "elbow_joint": 1.97154746011099,
            "shoulder_lift_joint": -1.13948474672311,
            "shoulder_pan_joint": 0.12281154466712228,
            "wrist_1_joint": -0.7804688027058302,
            "wrist_2_joint": 0.12958655903071145,
            "wrist_3_joint": 3.0906928834467795
        }
    },
    "waypoints": [
        {
            "positions": [
                0.12281154466712228,
                -1.13948474672311,
                1.97154746011099,
                -0.7804688027058302,
                0.12958655903071145,
                3.0906928834467795
            ]
        },
        {
            "positions": [
                0.05714236830120761,
                -1.1730947253979631,
                2.0354760770104003,
                -0.8140475026105747,
                0.2868652551139008,
                3.104016186086814
            ]
        },
        {
            "positions": [
                -0.008526808064707056,
                -1.2067047040728163,
                2.099404693909811,
                -0.8476262025153192,
                0.44414395119709016,
                3.117339488726848
            ]
        },
        {
            "positions": [
                -0.07419598443062171,
                -1.2403146827476694,
                2.1633333108092216,
                -0.8812049024200638,
                0.6014226472802795,
                3.1306627913668827
            ]
        },
        {
            "positions": [
                -0.13986516079653638,
                -1.2739246614225226,
                2.2272619277086325,
                -0.9147836023248083,
                0.7587013433634688,
                3.143986094006917
            ]
        },
        {
            "positions": [
                -0.20553433716245106,
                -1.307534640097376,
                2.291190544608043,
                -0.9483623022295529,
                0.9159800394466582,
                3.1573093966469514
            ]
        },
        {
            "positions": [
                -0.2712035135283657,
                -1.3411446187722291,
                2.355119161507454,
                -0.9819410021342974,
                1.0732587355298475,
                3.1706326992869855
            ]
        },
        {
            "positions": [
                -0.3368726898942804,
                -1.3747545974470823,
                2.4190477784068642,
                -1.0155197020390418,
                1.2305374316130369,
                3.18395600192702
            ]
        }
    ]
}{
    "goal": {
        "global_pose": {
            "orientation": {
                "w": 0.5084816217422485,
                "x": -0.49083608388900757,
                "y": 0.5182115435600281,
                "z": -0.4816462993621826
            },
            "position": {
                "x": 0.5540239810943604,
                "y": 0.030875300988554955,
                "z": 0.16403168439865112
            }
        },
        "name": "move_to_storage_A"
    },
    "id": "RRTConnect_move_to_storage_A_140",
    "joint_names": [
        "shoulder_pan_joint",
        "shoulder_lift_joint",
        "elbow_joint",
        "wrist_1_joint",
        "wrist_2_joint",
        "wrist_3_joint"
    ],
    "metrics": {
        "cart_traj_len": 0.3536434874759751,
        "distance_elbow_joint": 0.44875259608943585,
        "distance_shoulder_lift_joint": 0.23308477573552433,
        "distance_shoulder_pan_joint": 0.46425787823305326,
        "distance_wrist_1_joint": 0.24059053212249748,
        "distance_wrist_2_joint": 1.0911350198098957,
        "distance_wrist_3_joint": 0.08902699193621544,
        "smoothness": 1.3322676295501878e-15,
        "time": 0.038135721,
        "traj_len": 1.6021385064739633,
        "weighted_distance": 2.019065954774991
    },
    "planner": "RRTConnect",
    "start": {
        "state": {
            "elbow_joint": 1.9715472970024885,
            "shoulder_lift_joint": -1.1394870060712896,
            "shoulder_pan_joint": 0.12281152778156021,
            "wrist_1_joint": -0.780463741449964,
            "wrist_2_joint": 0.12958659822042276,
            "wrist_3_joint": 3.090690232415272
        }
    },
    "waypoints": [
        {
            "positions": [
                0.12281152778156021,
                -1.1394870060712896,
                1.9715472970024885,
                -0.780463741449964,
                0.12958659822042276,
                3.090690232415272
            ]
        },
        {
            "positions": [
                0.056488973748266905,
                -1.1727848311763645,
                2.0356548107295507,
                -0.8148338174674636,
                0.28546302962183645,
                3.1034083741204457
            ]
        },
        {
            "positions": [
                -0.0098335802850264,
                -1.2060826562814395,
                2.0997623244566133,
                -0.8492038934849633,
                0.44133946102325006,
                3.116126515825619
            ]
        },
        {
            "positions": [
                -0.07615613431831972,
                -1.2393804813865144,
                2.1638698381836754,
                -0.8835739695024629,
                0.5972158924246638,
                3.128844657530793
            ]
        },
        {
            "positions": [
                -0.142478688351613,
                -1.2726783064915892,
                2.2279773519107375,
                -0.9179440455199626,
                0.7530923238260774,
                3.1415627992359663
            ]
        },
        {
            "positions": [
                -0.20880124238490635,
                -1.305976131596664,
                2.2920848656377997,
                -0.9523141215374622,
                0.9089687552274911,
                3.15428094094114
            ]
        },
        {
            "positions": [
                -0.2751237964181996,
                -1.339273956701739,
                2.3561923793648623,
                -0.9866841975549618,
                1.0648451866289048,
                3.1669990826463135
            ]
        },
        {
            "positions": [
                -0.341446350451493,
                -1.372571781806814,
                2.4202998930919244,
                -1.0210542735724615,
                1.2207216180303184,
                3.1797172243514873
            ]
        }
    ]
}