{
    "goal": {
        "global_pose": {
            "orientation": {
                "w": 0.7031023502349854,
                "x": -0.7110244035720825,
                "y": 0.007748599164187908,
                "z": 0.005598929710686207
            },
            "position": {
                "x": 0.11585023208521307,
                "y": 0.44412534475326537,
                "z": 0.3711530566215515
            }
        },
        "name": "move_to_auspresseinheit_A"
    },
    "id": "RRTConnect_move_to_auspresseinheit_A_23",
    "joint_names": [
        "shoulder_pan_joint",
        "shoulder_lift_joint",
        "elbow_joint",
        "wrist_1_joint",
        "wrist_2_joint",
        "wrist_3_joint"
    ],
    "metrics": {
        "cart_traj_len": 0.7452133187448718,
        "distance_elbow_joint": 0.39301877898093673,
        "distance_shoulder_lift_joint": 0.7705514602076278,
        "distance_shoulder_pan_joint": 1.3859744609706692,
        "distance_wrist_1_joint": 0.6075807214161114,
        "distance_wrist_2_joint": 2.775578758297157,
        "distance_wrist_3_joint": 3.647699379946193,
        "smoothness": 0.986125889224915,
        "time": 0.065792537,
        "traj_len": 3.0952226995514707,
        "weighted_distance": 4.5009956453460775
    },
    "planner": "RRTConnect",
    "start": {
        "state": {
            "elbow_joint": 2.4225746658250005,
            "shoulder_lift_joint": -1.3736534386056498,
            "shoulder_pan_joint": -0.3378633547517467,
            "wrist_1_joint": -1.0288598680537169,
            "wrist_2_joint": 1.233022673432363,
            "wrist_3_joint": -3.0940220416140027
        }
    },
    "waypoints": [
        {
            "positions": [
                -0.3378633547517467,
                -1.3736534386056498,
                2.4225746658250005,
                -1.0288598680537169,
                1.233022673432363,
                -3.0940220416140027
            ]
        },
        {
            "positions": [
                -0.35224803187295317,
                -1.3638017779067875,
                2.404924127239954,
                -0.9798461799111766,
                1.0949924922039678,
                -2.9441175551794374
            ]
        },
        {
            "positions": [
                -0.3666327089941596,
                -1.3539501172079251,
                2.3872735886549075,
                -0.9308324917686365,
                0.9569623109755723,
                -2.7942130687448725
            ]
        },
        {
            "positions": [
                -0.38101738611536606,
                -1.3440984565090628,
                2.369623050069861,
                -0.8818188036260962,
                0.8189321297471768,
                -2.644308582310307
            ]
        },
        {
            "positions": [
                -0.3954020632365725,
                -1.3342467958102004,
                2.351972511484814,
                -0.8328051154835561,
                0.6809019485187815,
                -2.4944040958757423
            ]
        },
        {
            "positions": [
                -0.40978674035777896,
                -1.324395135111338,
                2.3343219728997675,
                -0.7837914273410158,
                0.542871767290386,
                -2.344499609441177
            ]
        },
        {
            "positions": [
                -0.42417141747898535,
                -1.314543474412476,
                2.316671434314721,
                -0.7347777391984756,
                0.4048415860619906,
                -2.1945951230066116
            ]
        },
        {
            "positions": [
                -0.43855609460019185,
                -1.3046918137136136,
                2.2990208957296745,
                -0.6857640510559353,
                0.2668114048335951,
                -2.0446906365720467
            ]
        },
        {
            "positions": [
                -0.45294077172139824,
                -1.2948401530147513,
                2.281370357144628,
                -0.6367503629133952,
                0.12878122360519995,
                -1.8947861501374816
            ]
        },
        {
            "positions": [
                -0.4673254488426047,
                -1.284988492315889,
                2.263719818559581,
                -0.5877366747708549,
                -0.009248957623195553,
                -1.7448816637029165
            ]
        },
        {
            "positions": [
                -0.48171012596381113,
                -1.2751368316170266,
                2.2460692799745345,
                -0.5387229866283146,
                -0.14727913885159105,
                -1.5949771772683512
            ]
        },
        {
            "positions": [
                -0.4960948030850176,
                -1.2652851709181643,
                2.228418741389488,
                -0.4897092984857745,
                -0.28530932007998633,
                -1.445072690833786
            ]
        },
        {
            "positions": [
                -0.510479480206224,
                -1.255433510219302,
                2.2107682028044415,
                -0.4406956103432343,
                -0.4233395013083818,
                -1.295168204399221
            ]
        },
        {
            "positions": [
                -0.4171442236280554,
                -1.3056128588209388,
                2.2247076117244706,
                -0.4421891844744365,
                -0.3372459179578885,
                -1.4373870923016372
            ]
        },
        {
            "positions": [
                -0.3238089670498868,
                -1.3557922074225757,
                2.2386470206444997,
                -0.44368275860563877,
                -0.25115233460739517,
                -1.5796059802040534
            ]
        },
        {
            "positions": [
                -0.23047371047171822,
                -1.4059715560242128,
                2.252586429564529,
                -0.445176332736841,
                -0.16505875125690184,
                -1.7218248681064696
            ]
        },
        {
            "positions": [
                -0.13713845389354967,
                -1.4561509046258496,
                2.266525838484558,
                -0.44666990686804325,
                -0.0789651679064085,
                -1.864043756008886
            ]
        },
        {
            "positions": [
                -0.04380319731538107,
                -1.5063302532274865,
                2.280465247404587,
                -0.44816348099924547,
                0.0071284154440848235,
                -2.0062626439113025
            ]
        },
        {
            "positions": [
                0.04953205926278759,
                -1.5565096018291236,
                2.294404656324616,
                -0.44965705513044774,
                0.09322199879457815,
                -2.1484815318137187
            ]
        },
        {
            "positions": [
                0.14286731584095602,
                -1.6066889504307604,
                2.3083440652446447,
                -0.45115062926164995,
                0.17931558214507137,
                -2.290700419716135
            ]
        },
        {
            "positions": [
                0.23620257241912468,
                -1.6568682990323973,
                2.322283474164674,
                -0.4526442033928522,
                0.2654091654955648,
                -2.432919307618551
            ]
        },
        {
            "positions": [
                0.3295378289972932,
                -1.7070476476340342,
                2.336222883084703,
                -0.45413777752405443,
                0.35150274884605803,
                -2.5751381955209673
            ]
        },
        {
            "positions": [
                0.4228730855754619,
                -1.757226996235671,
                2.350162292004732,
                -0.4556313516552567,
                0.4375963321965515,
                -2.7173570834233836
            ]
        },
        {
            "positions": [
                0.5162083421536305,
                -1.8074063448373079,
                2.364101700924761,
                -0.4571249257864589,
                0.5236899155470447,
                -2.8595759713257998
            ]
        },
        {
            "positions": [
                0.6095435987317992,
                -1.857585693438945,
                2.3780411098447902,
                -0.4586184999176612,
                0.6097834988975381,
                -3.001794859228216
            ]
        },
        {
            "positions": [
                0.7028788553099677,
                -1.9077650420405818,
                2.3919805187648193,
                -0.4601120740488634,
                0.6958770822480314,
                -3.144013747130632
            ]
        }
    ]
}