{
    "goal": {
        "global_pose": {
            "orientation": {
                "w": 0.005598929693374612,
                "x": 0.007748599140229565,
                "y": 0.7110244013736278,
                "z": -0.7031023480610252
            },
            "position": {
                "x": 0.1141497679147869,
                "y": -0.7141253447532654,
                "z": 0.3711530566215515
            }
        },
        "name": "move_to_auspresseinheit_B"
    },
    "id": "RRTConnect_move_to_auspresseinheit_B_39",
    "joint_names": [
        "shoulder_pan_joint",
        "shoulder_lift_joint",
        "elbow_joint",
        "wrist_1_joint",
        "wrist_2_joint",
        "wrist_3_joint"
    ],
    "metrics": {
        "cart_traj_len": 0.5647806583347437,
        "distance_elbow_joint": 0.0647161159313907,
        "distance_shoulder_lift_joint": 0.2956413823645567,
        "distance_shoulder_pan_joint": 0.5784320868688586,
        "distance_wrist_1_joint": 0.33636106436965263,
        "distance_wrist_2_joint": 0.9854710815273375,
        "distance_wrist_3_joint": 0.008829908371784878,
        "smoothness": 0.0,
        "time": 0.059155012,
        "traj_len": 1.5064699264949104,
        "weighted_distance": 1.8997219802050354
    },
    "planner": "RRTConnect",
    "start": {
        "state": {
            "elbow_joint": 2.0193083361928714,
            "shoulder_lift_joint": -1.1220246554650708,
            "shoulder_pan_joint": -1.0952077554168747,
            "wrist_1_joint": -0.8559753972642168,
            "wrist_2_joint": 0.4759566250798843,
            "wrist_3_joint": -3.1240929996934557
        }
    },
    "waypoints": [
        {
            "positions": [
                -1.0952077554168747,
                -1.1220246554650708,
                2.0193083361928714,
                -0.8559753972642168,
                0.4759566250798843,
                -3.1240929996934557
            ]
        },
        {
            "positions": [
                -1.191613103228351,
                -1.171298219192497,
                2.008522316870973,
                -0.7999152198692747,
                0.6402018053344405,
                -3.122621348298158
            ]
        },
        {
            "positions": [
                -1.2880184510398276,
                -1.220571782919923,
                1.9977362975490744,
                -0.7438550424743325,
                0.8044469855889969,
                -3.1211496969028607
            ]
        },
        {
            "positions": [
                -1.384423798851304,
                -1.2698453466473492,
                1.9869502782271762,
                -0.6877948650793905,
                0.968692165843553,
                -3.1196780455075634
            ]
        },
        {
            "positions": [
                -1.4808291466627803,
                -1.3191189103747754,
                1.9761642589052777,
                -0.6317346876844484,
                1.1329373460981094,
                -3.1182063941122657
            ]
        },
        {
            "positions": [
                -1.577234494474257,
                -1.3683924741022013,
                1.9653782395833792,
                -0.5756745102895062,
                1.2971825263526655,
                -3.116734742716968
            ]
        },
        {
            "positions": [
                -1.6736398422857333,
                -1.4176660378296275,
                1.9545922202614807,
                -0.5196143328945642,
                1.4614277066072219,
                -3.115263091321671
            ]
        }
    ]
}