{
    "goal": {
        "global_pose": {
            "orientation": {
                "w": 0.005598929693374612,
                "x": 0.007748599140229565,
                "y": 0.7110244013736278,
                "z": -0.7031023480610252
            },
            "position": {
                "x": -0.8858502320852131,
                "y": -0.7141253447532654,
                "z": 0.3711530566215515
            }
        },
        "name": "move_to_auspresseinheit_C"
    },
    "id": "RRTConnect_move_to_auspresseinheit_C_11",
    "joint_names": [
        "shoulder_pan_joint",
        "shoulder_lift_joint",
        "elbow_joint",
        "wrist_1_joint",
        "wrist_2_joint",
        "wrist_3_joint"
    ],
    "metrics": {
        "cart_traj_len": 0.4928373746569537,
        "distance_elbow_joint": 0.9906418104894996,
        "distance_shoulder_lift_joint": 0.32012657774476505,
        "distance_shoulder_pan_joint": 0.25681913212888485,
        "distance_wrist_1_joint": 0.6618787045896709,
        "distance_wrist_2_joint": 1.3084923239431392,
        "distance_wrist_3_joint": 0.04294649283472385,
        "smoothness": 1.6148698667872622e-16,
        "time": 0.070294773,
        "traj_len": 1.8923279424377486,
        "weighted_distance": 2.3742723213508894
    },
    "planner": "RRTConnect",
    "start": {
        "state": {
            "elbow_joint": 1.7527959577737207,
            "shoulder_lift_joint": -0.9740617694225068,
            "shoulder_pan_joint": -2.967991417825858,
            "wrist_1_joint": -0.759517768980727,
            "wrist_2_joint": 1.7443932448377408,
            "wrist_3_joint": -3.0840537646736568
        }
    },
    "waypoints": [
        {
            "positions": [
                -2.967991417825858,
                -0.9740617694225068,
                1.7527959577737207,
                -0.759517768980727,
                1.7443932448377408,
                -3.0840537646736568
            ]
        },
        {
            "positions": [
                -2.9423095046129695,
                -0.9420491116480303,
                1.6537317767247708,
                -0.6933298985217599,
                1.6135440124434268,
                -3.0883484139571293
            ]
        },
        {
            "positions": [
                -2.916627591400081,
                -0.9100364538735538,
                1.5546675956758207,
                -0.6271420280627928,
                1.482694780049113,
                -3.0926430632406015
            ]
        },
        {
            "positions": [
                -2.8909456781871925,
                -0.8780237960990772,
                1.4556034146268708,
                -0.5609541576038257,
                1.351845547654799,
                -3.096937712524074
            ]
        },
        {
            "positions": [
                -2.865263764974304,
                -0.8460111383246007,
                1.3565392335779207,
                -0.4947662871448586,
                1.2209963152604852,
                -3.101232361807546
            ]
        },
        {
            "positions": [
                -2.8395818517614155,
                -0.8139984805501242,
                1.2574750525289708,
                -0.42857841668589153,
                1.0901470828661712,
                -3.1055270110910187
            ]
        },
        {
            "positions": [
                -2.813899938548527,
                -0.7819858227756478,
                1.158410871480021,
                -0.36239054622692446,
                0.9592978504718573,
                -3.1098216603744913
            ]
        },
        {
            "positions": [
                -2.7882180253356386,
                -0.7499731650011713,
                1.059346690431071,
                -0.2962026757679574,
                0.8284486180775434,
                -3.1141163096579634
            ]
        },
        {
            "positions": [
                -2.76253611212275,
                -0.7179605072266948,
                0.9602825093821209,
                -0.2300148053089902,
                0.6975993856832294,
                -3.118410958941436
            ]
        },
        {
            "positions": [
                -2.7368541989098616,
                -0.6859478494522182,
                0.861218328333171,
                -0.1638269348500232,
                0.5667501532889154,
                -3.122705608224908
            ]
        },
        {
            "positions": [
                -2.711172285696973,
                -0.6539351916777417,
                0.762154147284221,
                -0.09763906439105607,
                0.4359009208946016,
                -3.1270002575083806
            ]
        }
    ]
}