{
    "goal": {
        "global_pose": {
            "orientation": {
                "w": -0.00223480608172531,
                "x": 0.0024358444001904467,
                "y": 0.7094548369677653,
                "z": -0.704743149386269
            },
            "position": {
                "x": 0.6205249238014221,
                "y": -0.6371506643295288,
                "z": 0.19426114857196808
            }
        },
        "name": "move_to_magneteinheit_B"
    },
    "id": "RRTConnect_move_to_magneteinheit_B_53",
    "joint_names": [
        "shoulder_pan_joint",
        "shoulder_lift_joint",
        "elbow_joint",
        "wrist_1_joint",
        "wrist_2_joint",
        "wrist_3_joint"
    ],
    "metrics": {
        "cart_traj_len": 3.6245281217822845,
        "distance_elbow_joint": 5.650202180102777,
        "distance_shoulder_lift_joint": 1.0601073349408119,
        "distance_shoulder_pan_joint": 2.4762996104444195,
        "distance_wrist_1_joint": 2.620763878919629,
        "distance_wrist_2_joint": 1.9098859830297419,
        "distance_wrist_3_joint": 2.281802122227006,
        "smoothness": 0.3741364226121932,
        "time": 0.198492864,
        "traj_len": 3.999882636986289,
        "weighted_distance": 5.009322830090687
    },
    "planner": "RRTConnect",
    "start": {
        "state": {
            "elbow_joint": 2.6216224122426386,
            "shoulder_lift_joint": -1.4174107377796124,
            "shoulder_pan_joint": 0.7066234856936794,
            "wrist_1_joint": 1.9546482284002225,
            "wrist_2_joint": -0.7096286983471962,
            "wrist_3_joint": 0.005740856962016249
        }
    },
    "waypoints": [
        {
            "positions": [
                0.7066234856936794,
                -1.4174107377796124,
                2.6216224122426386,
                1.9546482284002225,
                -0.7096286983471962,
                0.005740856962016249
            ]
        },
        {
            "positions": [
                0.622632249970281,
                -1.4364832462597508,
                2.6269038779555167,
                1.9691551261212656,
                -0.7287481731910906,
                -0.0650508287695256
            ]
        },
        {
            "positions": [
                0.5338895133932328,
                -1.4619855847205647,
                2.5242590597483683,
                1.9223165164732778,
                -0.7101825675512969,
                -0.12814147168961187
            ]
        },
        {
            "positions": [
                0.4451467768161845,
                -1.4874879231813785,
                2.42161424154122,
                1.8754779068252903,
                -0.6916169619115031,
                -0.1912321146096982
            ]
        },
        {
            "positions": [
                0.48229218202726315,
                -1.4888677863311313,
                2.233091538487932,
                1.801593226866303,
                -0.6279683662174289,
                -0.2205920178923622
            ]
        },
        {
            "positions": [
                0.5194375872383419,
                -1.4902476494808838,
                2.044568835434644,
                1.7277085469073157,
                -0.5643197705233547,
                -0.24995192117502624
            ]
        },
        {
            "positions": [
                0.5565829924494206,
                -1.4916275126306366,
                1.8560461323813562,
                1.6538238669483283,
                -0.5006711748292805,
                -0.27931182445769026
            ]
        },
        {
            "positions": [
                0.5937283976604992,
                -1.4930073757803892,
                1.667523429328068,
                1.579939186989341,
                -0.4370225791352063,
                -0.30867172774035423
            ]
        },
        {
            "positions": [
                0.6308738028715779,
                -1.494387238930142,
                1.4790007262747802,
                1.506054507030354,
                -0.3733739834411321,
                -0.33803163102301825
            ]
        },
        {
            "positions": [
                0.6680192080826566,
                -1.4957671020798948,
                1.2904780232214923,
                1.4321698270713665,
                -0.3097253877470579,
                -0.3673915343056823
            ]
        },
        {
            "positions": [
                0.7051646132937354,
                -1.4971469652296474,
                1.1019553201682042,
                1.3582851471123791,
                -0.24607679205298366,
                -0.3967514375883463
            ]
        },
        {
            "positions": [
                0.742310018504814,
                -1.4985268283794002,
                0.9134326171149163,
                1.284400467153392,
                -0.1824281963589095,
                -0.4261113408710103
            ]
        },
        {
            "positions": [
                0.7794554237158927,
                -1.4999066915291528,
                0.7249099140616282,
                1.2105157871944046,
                -0.11877960066483528,
                -0.45547124415367435
            ]
        },
        {
            "positions": [
                0.8166008289269714,
                -1.5012865546789056,
                0.5363872110083405,
                1.1366311072354174,
                -0.055131004970761066,
                -0.48483114743633837
            ]
        },
        {
            "positions": [
                0.8537462341380502,
                -1.5026664178286584,
                0.3478645079550522,
                1.06274642727643,
                0.008517590723313151,
                -0.5141910507190024
            ]
        },
        {
            "positions": [
                0.8908916393491288,
                -1.504046280978411,
                0.15934180490176475,
                0.9888617473174428,
                0.07216618641738737,
                -0.5435509540016664
            ]
        },
        {
            "positions": [
                0.9280370445602075,
                -1.5054261441281638,
                -0.029180898151523138,
                0.9149770673584555,
                0.13581478211146147,
                -0.5729108572843304
            ]
        },
        {
            "positions": [
                0.9651824497712862,
                -1.5068060072779166,
                -0.21770360120481147,
                0.841092387399468,
                0.1994633778055358,
                -0.6022707605669945
            ]
        },
        {
            "positions": [
                1.0023278549823649,
                -1.5081858704276692,
                -0.40622630425809936,
                0.7672077074404808,
                0.26311197349961,
                -0.6316306638496585
            ]
        },
        {
            "positions": [
                1.0394732601934435,
                -1.509565733577422,
                -0.5947490073113872,
                0.6933230274814937,
                0.3267605691936841,
                -0.6609905671323224
            ]
        },
        {
            "positions": [
                1.0766186654045222,
                -1.5109455967271745,
                -0.7832717103646751,
                0.6194383475225063,
                0.39040916488775834,
                -0.6903504704149865
            ]
        },
        {
            "positions": [
                1.113764070615601,
                -1.5123254598769273,
                -0.9717944134179635,
                0.5455536675635189,
                0.45405776058183256,
                -0.7197103736976505
            ]
        },
        {
            "positions": [
                1.1509094758266796,
                -1.5137053230266801,
                -1.1603171164712514,
                0.4716689876045317,
                0.5177063562759068,
                -0.7490702769803146
            ]
        },
        {
            "positions": [
                1.1880548810377582,
                -1.5150851861764327,
                -1.3488398195245388,
                0.3977843076455445,
                0.581354951969981,
                -0.7784301802629785
            ]
        },
        {
            "positions": [
                1.225200286248837,
                -1.5164650493261855,
                -1.5373625225778267,
                0.3238996276865571,
                0.6450035476640552,
                -0.8077900835456426
            ]
        },
        {
            "positions": [
                1.2623456914599158,
                -1.5178449124759381,
                -1.7258852256311155,
                0.2500149477275697,
                0.7086521433581294,
                -0.8371499868283065
            ]
        },
        {
            "positions": [
                1.2994910966709945,
                -1.519224775625691,
                -1.9144079286844027,
                0.17613026776858257,
                0.7723007390522036,
                -0.8665098901109707
            ]
        },
        {
            "positions": [
                1.4480172255340615,
                -1.5504128244937703,
                -2.0100989063909975,
                0.21025955986569703,
                0.7845816441721487,
                -0.9249044188243827
            ]
        },
        {
            "positions": [
                1.5965433543971286,
                -1.5816008733618494,
                -2.105789884097592,
                0.24438885196281146,
                0.7968625492920938,
                -0.9832989475377947
            ]
        },
        {
            "positions": [
                1.7450694832601954,
                -1.6127889222299285,
                -2.201480861804187,
                0.2785181440599259,
                0.8091434544120389,
                -1.0416934762512067
            ]
        },
        {
            "positions": [
                1.8935956121232624,
                -1.6439769710980079,
                -2.2971718395107814,
                0.3126474361570404,
                0.821424359531984,
                -1.1000880049646187
            ]
        },
        {
            "positions": [
                1.9997410775882787,
                -1.7057768698299975,
                -2.320525252266443,
                0.3728706156180793,
                0.8079376346485627,
                -1.1177207292508666
            ]
        },
        {
            "positions": [
                2.1058865430532947,
                -1.7675767685619874,
                -2.343878665022104,
                0.43309379507911827,
                0.7944509097651413,
                -1.1353534535371146
            ]
        },
        {
            "positions": [
                2.180379845489238,
                -1.8386153033929082,
                -2.303311153819181,
                0.491594965557919,
                0.7665804119090662,
                -1.0570653557221767
            ]
        },
        {
            "positions": [
                2.254873147925181,
                -1.909653838223829,
                -2.2627436426162575,
                0.5500961360367197,
                0.7387099140529912,
                -0.9787772579072391
            ]
        },
        {
            "positions": [
                2.2881330331087524,
                -1.9537092448456792,
                -2.2192313046435146,
                0.5834563270716482,
                0.7180584302663373,
                -0.9033924529131978
            ]
        },
        {
            "positions": [
                2.3213929182923234,
                -1.9977646514675291,
                -2.1757189666707717,
                0.6168165181065766,
                0.6974069464796833,
                -0.8280076479191565
            ]
        },
        {
            "positions": [
                2.3697610268767213,
                -2.066300854503657,
                -2.1034363276620645,
                0.6700373570362776,
                0.6664674375639016,
                -0.708955932760597
            ]
        },
        {
            "positions": [
                2.418129135461119,
                -2.134837057539785,
                -2.0311536886533577,
                0.7232581959659787,
                0.6355279286481199,
                -0.5899042176020375
            ]
        },
        {
            "positions": [
                2.466497244045517,
                -2.203373260575913,
                -1.9588710496446506,
                0.7764790348956798,
                0.6045884197323381,
                -0.47085250244347804
            ]
        },
        {
            "positions": [
                2.5148653526299154,
                -2.2719094636120407,
                -1.8865884106359436,
                0.8296998738253809,
                0.5736489108165564,
                -0.3518007872849186
            ]
        },
        {
            "positions": [
                2.5632334612143133,
                -2.3404456666481686,
                -1.8143057716272364,
                0.882920712755082,
                0.5427094019007748,
                -0.2327490721263591
            ]
        },
        {
            "positions": [
                2.611601569798711,
                -2.4089818696842964,
                -1.7420231326185294,
                0.9361415516847831,
                0.5117698929849931,
                -0.11369735696779959
            ]
        },
        {
            "positions": [
                2.659969678383109,
                -2.4775180727204242,
                -1.6697404936098224,
                0.9893623906144842,
                0.48083038406921136,
                0.005354358190759957
            ]
        }
    ]
}