{
    "goal": {
        "global_pose": {
            "orientation": {
                "w": 0.005598929693374612,
                "x": 0.007748599140229565,
                "y": 0.7110244013736278,
                "z": -0.7031023480610252
            },
            "position": {
                "x": -0.8858502320852131,
                "y": -0.7141253447532654,
                "z": 0.3711530566215515
            }
        },
        "name": "move_to_auspresseinheit_C"
    },
    "id": "RRTConnect_move_to_auspresseinheit_C_64",
    "joint_names": [
        "shoulder_pan_joint",
        "shoulder_lift_joint",
        "elbow_joint",
        "wrist_1_joint",
        "wrist_2_joint",
        "wrist_3_joint"
    ],
    "metrics": {
        "cart_traj_len": 0.4934999017257384,
        "distance_elbow_joint": 0.9963919135220757,
        "distance_shoulder_lift_joint": 0.322290841598035,
        "distance_shoulder_pan_joint": 0.2569774257704944,
        "distance_wrist_1_joint": 0.6742178977229989,
        "distance_wrist_2_joint": 1.3052823712929744,
        "distance_wrist_3_joint": 0.04828188287689672,
        "smoothness": 6.459479467149049e-16,
        "time": 0.034724548,
        "traj_len": 1.898273513691711,
        "weighted_distance": 2.3831714935256425
    },
    "planner": "RRTConnect",
    "start": {
        "state": {
            "elbow_joint": 1.7527959577737207,
            "shoulder_lift_joint": -0.9740617694225068,
            "shoulder_pan_joint": -2.967991417825858,
            "wrist_1_joint": -0.759517768980727,
            "wrist_2_joint": 1.7443932448377408,
            "wrist_3_joint": -3.0840537646736568
        }
    },
    "waypoints": [
        {
            "positions": [
                -2.967991417825858,
                -0.9740617694225068,
                1.7527959577737207,
                -0.759517768980727,
                1.7443932448377408,
                -3.0840537646736568
            ]
        },
        {
            "positions": [
                -2.9422936752488087,
                -0.9418326852627033,
                1.653156766421513,
                -0.6920959792084271,
                1.6138650077084433,
                -3.0888819529613465
            ]
        },
        {
            "positions": [
                -2.916595932671759,
                -0.9096036011028997,
                1.5535175750693055,
                -0.6246741894361272,
                1.4833367705791458,
                -3.093710141249036
            ]
        },
        {
            "positions": [
                -2.8908981900947097,
                -0.8773745169430963,
                1.453878383717098,
                -0.5572523996638273,
                1.3528085334498485,
                -3.098538329536726
            ]
        },
        {
            "positions": [
                -2.86520044751766,
                -0.8451454327832928,
                1.3542391923648904,
                -0.48983060989152744,
                1.222280296320551,
                -3.1033665178244156
            ]
        },
        {
            "positions": [
                -2.8395027049406107,
                -0.8129163486234893,
                1.2546000010126828,
                -0.42240882011922753,
                1.0917520591912537,
                -3.108194706112105
            ]
        },
        {
            "positions": [
                -2.8138049623635615,
                -0.7806872644636857,
                1.1549608096604753,
                -0.35498703034692763,
                0.9612238220619562,
                -3.1130228943997946
            ]
        },
        {
            "positions": [
                -2.7881072197865118,
                -0.7484581803038823,
                1.0553216183082679,
                -0.2875652405746278,
                0.8306955849326588,
                -3.1178510826874843
            ]
        },
        {
            "positions": [
                -2.7624094772094625,
                -0.7162290961440787,
                0.9556824269560601,
                -0.2201434508023279,
                0.7001673478033612,
                -3.122679270975174
            ]
        },
        {
            "positions": [
                -2.736711734632413,
                -0.6840000119842753,
                0.8560432356038525,
                -0.15272166103002793,
                0.5696391106740639,
                -3.1275074592628638
            ]
        },
        {
            "positions": [
                -2.7110139920553635,
                -0.6517709278244718,
                0.756404044251645,
                -0.08529987125772814,
                0.43911087354476647,
                -3.1323356475505535
            ]
        }
    ]
}