{
    "goal": {
        "global_pose": {
            "orientation": {
                "w": -0.00223480608172531,
                "x": 0.0024358444001904467,
                "y": 0.7094548369677653,
                "z": -0.704743149386269
            },
            "position": {
                "x": 0.6205249238014221,
                "y": -0.6371506643295288,
                "z": 0.19426114857196808
            }
        },
        "name": "move_to_magneteinheit_B"
    },
    "id": "RRTConnect_move_to_magneteinheit_B_32",
    "joint_names": [
        "shoulder_pan_joint",
        "shoulder_lift_joint",
        "elbow_joint",
        "wrist_1_joint",
        "wrist_2_joint",
        "wrist_3_joint"
    ],
    "metrics": {
        "cart_traj_len": 3.8627276827932246,
        "distance_elbow_joint": 4.263544099289895,
        "distance_shoulder_lift_joint": 1.5975213058484954,
        "distance_shoulder_pan_joint": 2.6102982986563337,
        "distance_wrist_1_joint": 4.5617558885614615,
        "distance_wrist_2_joint": 2.296548721576433,
        "distance_wrist_3_joint": 5.459537344809089,
        "smoothness": 0.09786119455509171,
        "time": 0.253282822,
        "traj_len": 4.559518138876268,
        "weighted_distance": 6.210200073950741
    },
    "planner": "RRTConnect",
    "start": {
        "state": {
            "elbow_joint": 2.6216224122426386,
            "shoulder_lift_joint": -1.4174107377796124,
            "shoulder_pan_joint": 0.7066234856936794,
            "wrist_1_joint": 1.9546482284002225,
            "wrist_2_joint": -0.7096286983471962,
            "wrist_3_joint": 0.005740856962016249
        }
    },
    "waypoints": [
        {
            "positions": [
                0.7066234856936794,
                -1.4174107377796124,
                2.6216224122426386,
                1.9546482284002225,
                -0.7096286983471962,
                0.005740856962016249
            ]
        },
        {
            "positions": [
                0.6735381926006322,
                -1.4433064373250364,
                2.5982877227134837,
                1.9081226591079643,
                -0.6579430349154325,
                0.05473737355348389
            ]
        },
        {
            "positions": [
                0.649083202472214,
                -1.4776017669070745,
                2.5494893634914866,
                1.7575605918263695,
                -0.6456852680440281,
                0.1772572988813816
            ]
        },
        {
            "positions": [
                0.6246282123437957,
                -1.5118970964891125,
                2.50069100426949,
                1.6069985245447749,
                -0.6334275011726237,
                0.29977722420927927
            ]
        },
        {
            "positions": [
                0.6001732222153776,
                -1.5461924260711508,
                2.4518926450474927,
                1.45643645726318,
                -0.6211697343012194,
                0.42229714953717695
            ]
        },
        {
            "positions": [
                0.5757182320869594,
                -1.5804877556531889,
                2.403094285825496,
                1.3058743899815854,
                -0.6089119674298149,
                0.5448170748650746
            ]
        },
        {
            "positions": [
                0.5512632419585412,
                -1.614783085235227,
                2.354295926603499,
                1.1553123226999906,
                -0.5966542005584106,
                0.6673370001929723
            ]
        },
        {
            "positions": [
                0.628903358490724,
                -1.6488368209246211,
                2.2635889162185645,
                1.0296871048538918,
                -0.5573282103117313,
                0.6847693194484185
            ]
        },
        {
            "positions": [
                0.7065434750229067,
                -1.6828905566140153,
                2.1728819058336306,
                0.9040618870077929,
                -0.518002220065052,
                0.7022016387038647
            ]
        },
        {
            "positions": [
                0.7841835915550895,
                -1.7169442923034095,
                2.0821748954486963,
                0.7784366691616941,
                -0.47867622981837277,
                0.719633957959311
            ]
        },
        {
            "positions": [
                0.8618237080872724,
                -1.7509980279928037,
                1.991467885063762,
                0.6528114513155951,
                -0.4393502395716935,
                0.7370662772147571
            ]
        },
        {
            "positions": [
                0.9394638246194551,
                -1.785051763682198,
                1.9007608746788278,
                0.5271862334694963,
                -0.40002424932501424,
                0.7544985964702033
            ]
        },
        {
            "positions": [
                1.017103941151638,
                -1.8191054993715923,
                1.8100538642938937,
                0.4015610156233975,
                -0.36069825907833497,
                0.7719309157256495
            ]
        },
        {
            "positions": [
                1.0947440576838208,
                -1.8531592350609865,
                1.7193468539089594,
                0.2759357977772986,
                -0.3213722688316557,
                0.7893632349810957
            ]
        },
        {
            "positions": [
                1.1723841742160035,
                -1.8872129707503806,
                1.6286398435240252,
                0.15031057993119967,
                -0.2820462785849765,
                0.8067955542365419
            ]
        },
        {
            "positions": [
                1.2500242907481862,
                -1.9212667064397748,
                1.5379328331390911,
                0.02468536208510086,
                -0.24272028833829717,
                0.8242278734919881
            ]
        },
        {
            "positions": [
                1.3276644072803692,
                -1.955320442129169,
                1.4472258227541568,
                -0.10093985576099795,
                -0.2033942980916179,
                0.8416601927474344
            ]
        },
        {
            "positions": [
                1.4053045238125519,
                -1.9893741778185632,
                1.3565188123692227,
                -0.22656507360709677,
                -0.1640683078449387,
                0.8590925120028806
            ]
        },
        {
            "positions": [
                1.4829446403447348,
                -2.0234279135079576,
                1.2658118019842886,
                -0.3521902914531956,
                -0.12474231759825943,
                0.8765248312583268
            ]
        },
        {
            "positions": [
                1.5605847568769176,
                -2.0574816491973515,
                1.1751047915993542,
                -0.4778155092992946,
                -0.08541632735158011,
                0.893957150513773
            ]
        },
        {
            "positions": [
                1.6382248734091003,
                -2.091535384886746,
                1.0843977812144199,
                -0.6034407271453934,
                -0.04609033710490085,
                0.9113894697692193
            ]
        },
        {
            "positions": [
                1.7158649899412834,
                -2.12558912057614,
                0.9936907708294858,
                -0.7290659449914925,
                -0.0067643468582215815,
                0.9288217890246655
            ]
        },
        {
            "positions": [
                1.7935051064734657,
                -2.1596428562655343,
                0.9029837604445516,
                -0.8546911628375913,
                0.03256164338845757,
                0.9462541082801117
            ]
        },
        {
            "positions": [
                1.8711452230056485,
                -2.1936965919549283,
                0.8122767500596175,
                -0.9803163806836896,
                0.07188763363513684,
                0.9636864275355579
            ]
        },
        {
            "positions": [
                1.9487853395378316,
                -2.2277503276443227,
                0.7215697396746832,
                -1.105941598529789,
                0.11121362388181621,
                0.9811187467910041
            ]
        },
        {
            "positions": [
                2.0264254560700143,
                -2.2618040633337166,
                0.6308627292897491,
                -1.2315668163758877,
                0.15053961412849537,
                0.9985510660464503
            ]
        },
        {
            "positions": [
                2.104065572602197,
                -2.295857799023111,
                0.5401557189048147,
                -1.3571920342219865,
                0.18986560437517475,
                1.0159833853018965
            ]
        },
        {
            "positions": [
                2.18170568913438,
                -2.3299115347125054,
                0.4494487085198806,
                -1.4828172520680853,
                0.2291915946218539,
                1.0334157045573427
            ]
        },
        {
            "positions": [
                2.2593458056665625,
                -2.3639652704018994,
                0.3587416981349465,
                -1.6084424699141842,
                0.26851758486853317,
                1.0508480238127889
            ]
        },
        {
            "positions": [
                2.3369859221987457,
                -2.398019006091294,
                0.26803468775001216,
                -1.7340676877602834,
                0.30784357511521254,
                1.0682803430682353
            ]
        },
        {
            "positions": [
                2.4146260387309284,
                -2.4320727417806878,
                0.17732767736507826,
                -1.8596929056063818,
                0.3471695653618917,
                1.0857126623236812
            ]
        },
        {
            "positions": [
                2.492266155263111,
                -2.466126477470082,
                0.08662066698014392,
                -1.9853181234524806,
                0.38649555560857096,
                1.1031449815791277
            ]
        },
        {
            "positions": [
                2.5699062717952943,
                -2.500180213159476,
                -0.004086343404790416,
                -2.11094334129858,
                0.42582154585525034,
                1.1205773008345739
            ]
        },
        {
            "positions": [
                2.647546388327477,
                -2.5342339488488705,
                -0.09479335378972431,
                -2.2365685591446787,
                0.4651475361019295,
                1.13800962009002
            ]
        },
        {
            "positions": [
                2.7251865048596597,
                -2.568287684538265,
                -0.1855003641746591,
                -2.3621937769907775,
                0.5044735263486089,
                1.1554419393454662
            ]
        },
        {
            "positions": [
                2.8028266213918425,
                -2.602341420227659,
                -0.2762073745595931,
                -2.4878189948368763,
                0.543799516595288,
                1.1728742586009124
            ]
        },
        {
            "positions": [
                2.807923202205584,
                -2.5875269712747193,
                -0.35899111192074507,
                -2.4973461364249854,
                0.5457959521596418,
                0.919087286517659
            ]
        },
        {
            "positions": [
                2.8130197830193255,
                -2.5727125223217793,
                -0.44177484928189703,
                -2.5068732780130945,
                0.5477923877239956,
                0.6653003144344056
            ]
        },
        {
            "positions": [
                2.818116363833067,
                -2.5578980733688397,
                -0.5245585866430491,
                -2.5164004196012035,
                0.5497888232883494,
                0.4115133423511521
            ]
        },
        {
            "positions": [
                2.8232129446468086,
                -2.5430836244159,
                -0.6073423240042011,
                -2.525927561189313,
                0.5517852588527031,
                0.15772637026789882
            ]
        },
        {
            "positions": [
                2.82830952546055,
                -2.52826917546296,
                -0.690126061365353,
                -2.535454702777422,
                0.5537816944170569,
                -0.09606060181535492
            ]
        },
        {
            "positions": [
                2.8334061062742917,
                -2.5134547265100204,
                -0.772909798726505,
                -2.544981844365531,
                0.5557781299814107,
                -0.3498475738986081
            ]
        },
        {
            "positions": [
                2.8260393055389423,
                -2.4923868826533857,
                -0.8410166650023675,
                -2.5445831199388897,
                0.5067871607965042,
                -0.5618377086932432
            ]
        },
        {
            "positions": [
                2.818672504803593,
                -2.4713190387967505,
                -0.90912353127823,
                -2.5441843955122487,
                0.45779619161159774,
                -0.7738278434878784
            ]
        },
        {
            "positions": [
                2.8113057040682436,
                -2.450251194940116,
                -0.9772303975540926,
                -2.5437856710856073,
                0.40880522242669126,
                -0.9858179782825135
            ]
        },
        {
            "positions": [
                2.8039389033328943,
                -2.4291833510834806,
                -1.0453372638299552,
                -2.5433869466589663,
                0.35981425324178473,
                -1.1978081130771487
            ]
        },
        {
            "positions": [
                2.796572102597545,
                -2.408115507226846,
                -1.1134441301058176,
                -2.542988222232325,
                0.31082328405687826,
                -1.4097982478717839
            ]
        },
        {
            "positions": [
                2.7822190871637003,
                -2.384265633503864,
                -1.171377389758541,
                -2.536152527259222,
                0.22969364958382682,
                -1.593889192743708
            ]
        },
        {
            "positions": [
                2.767866071729855,
                -2.360415759780883,
                -1.2293106494112647,
                -2.5293168322861197,
                0.1485640151107754,
                -1.7779801376156321
            ]
        },
        {
            "positions": [
                2.7535130562960104,
                -2.336565886057901,
                -1.2872439090639882,
                -2.522481137313017,
                0.06743438063772397,
                -1.9620710824875565
            ]
        },
        {
            "positions": [
                2.7380293661914834,
                -2.3120967045194525,
                -1.3463568720611994,
                -2.5158769525224844,
                -0.023031976679632638,
                -2.154980849501177
            ]
        },
        {
            "positions": [
                2.722545676086956,
                -2.287627522981004,
                -1.4054698350584107,
                -2.509272767731952,
                -0.11349833399698925,
                -2.347890616514798
            ]
        },
        {
            "positions": [
                2.7070619859824285,
                -2.263158341442556,
                -1.4645827980556219,
                -2.5026685829414195,
                -0.2039646913143459,
                -2.5408003835284187
            ]
        },
        {
            "positions": [
                2.6915782958779015,
                -2.238689159904107,
                -1.523695761052833,
                -2.496064398150887,
                -0.29443104863170244,
                -2.7337101505420396
            ]
        },
        {
            "positions": [
                2.6760946057733745,
                -2.2142199783656586,
                -1.5828087240500444,
                -2.4894602133603545,
                -0.3848974059490592,
                -2.92661991755566
            ]
        },
        {
            "positions": [
                2.660610915668847,
                -2.18975079682721,
                -1.6419216870472555,
                -2.482856028569822,
                -0.4753637632664157,
                -3.119529684569281
            ]
        }
    ]
}