{
    "goal": {
        "global_pose": {
            "orientation": {
                "w": 0.5084816217422485,
                "x": -0.49083608388900757,
                "y": 0.5182115435600281,
                "z": -0.4816462993621826
            },
            "position": {
                "x": 0.5540239810943604,
                "y": 0.030875300988554955,
                "z": 0.16403168439865112
            }
        },
        "name": "move_to_storage_A"
    },
    "id": "RRTConnect_move_to_storage_A_143",
    "joint_names": [
        "shoulder_pan_joint",
        "shoulder_lift_joint",
        "elbow_joint",
        "wrist_1_joint",
        "wrist_2_joint",
        "wrist_3_joint"
    ],
    "metrics": {
        "cart_traj_len": 0.3524511571754882,
        "distance_elbow_joint": 0.4505407632986358,
        "distance_shoulder_lift_joint": 0.23574931090048423,
        "distance_shoulder_pan_joint": 0.461979496723745,
        "distance_wrist_1_joint": 0.24466294504081854,
        "distance_wrist_2_joint": 1.093458024371268,
        "distance_wrist_3_joint": 0.09796478424807464,
        "smoothness": 4.440892098500626e-16,
        "time": 0.036932965,
        "traj_len": 1.6075930220621841,
        "weighted_distance": 2.029385587435582
    },
    "planner": "RRTConnect",
    "start": {
        "state": {
            "elbow_joint": 1.971548259319323,
            "shoulder_lift_joint": -1.1394851275133948,
            "shoulder_pan_joint": 0.1228115487234821,
            "wrist_1_joint": -0.7804723859257726,
            "wrist_2_joint": 0.12958671773740124,
            "wrist_3_joint": -3.192489227718131
        }
    },
    "waypoints": [
        {
            "positions": [
                0.1228115487234821,
                -1.1394851275133948,
                1.971548259319323,
                -0.7804723859257726,
                0.12958671773740124,
                -3.192489227718131
            ]
        },
        {
            "positions": [
                0.05681447776294711,
                -1.1731636004991783,
                2.0359112255048424,
                -0.8154242352173181,
                0.2857950069332966,
                -3.1784942585398346
            ]
        },
        {
            "positions": [
                -0.00918259319758788,
                -1.2068420734849616,
                2.100274191690362,
                -0.8503760845088636,
                0.4420032961291921,
                -3.1644992893615385
            ]
        },
        {
            "positions": [
                -0.07517966415812288,
                -1.2405205464707452,
                2.164637157875881,
                -0.8853279338004091,
                0.5982115853250874,
                -3.150504320183242
            ]
        },
        {
            "positions": [
                -0.14117673511865786,
                -1.2741990194565287,
                2.2290001240614004,
                -0.9202797830919547,
                0.7544198745209829,
                -3.1365093510049458
            ]
        },
        {
            "positions": [
                -0.2071738060791929,
                -1.3078774924423122,
                2.29336309024692,
                -0.9552316323835002,
                0.9106281637168784,
                -3.122514381826649
            ]
        },
        {
            "positions": [
                -0.27317087703972787,
                -1.3415559654280955,
                2.3577260564324396,
                -0.9901834816750457,
                1.0668364529127736,
                -3.108519412648353
            ]
        },
        {
            "positions": [
                -0.3391679480002629,
                -1.375234438413879,
                2.4220890226179588,
                -1.0251353309665912,
                1.2230447421086692,
                -3.0945244434700565
            ]
        }
    ]
}{
    "goal": {
        "global_pose": {
            "orientation": {
                "w": 0.5084816217422485,
                "x": -0.49083608388900757,
                "y": 0.5182115435600281,
                "z": -0.4816462993621826
            },
            "position": {
                "x": 0.5540239810943604,
                "y": 0.030875300988554955,
                "z": 0.16403168439865112
            }
        },
        "name": "move_to_storage_A"
    },
    "id": "RRTConnect_move_to_storage_A_143",
    "joint_names": [
        "shoulder_pan_joint",
        "shoulder_lift_joint",
        "elbow_joint",
        "wrist_1_joint",
        "wrist_2_joint",
        "wrist_3_joint"
    ],
    "metrics": {
        "cart_traj_len": 0.35259001400010304,
        "distance_elbow_joint": 0.44824022455564405,
        "distance_shoulder_lift_joint": 0.23600926226257424,
        "distance_shoulder_pan_joint": 0.4615497043471747,
        "distance_wrist_1_joint": 0.2372975777894626,
        "distance_wrist_2_joint": 1.0959815562140696,
        "distance_wrist_3_joint": 0.09107542150667847,
        "smoothness": 4.440892098500626e-16,
        "time": 0.053544074999999997,
        "traj_len": 1.6031699057416229,
        "weighted_distance": 2.021282692671288
    },
    "planner": "RRTConnect",
    "start": {
        "state": {
            "elbow_joint": 1.97154746011099,
            "shoulder_lift_joint": -1.13948474672311,
            "shoulder_pan_joint": 0.12281154466712228,
            "wrist_1_joint": -0.7804688027058302,
            "wrist_2_joint": 0.12958655903071145,
            "wrist_3_joint": 3.0906928834467795
        }
    },
    "waypoints": [
        {
            "positions": [
                0.12281154466712228,
                -1.13948474672311,
                1.97154746011099,
                -0.7804688027058302,
                0.12958655903071145,
                3.0906928834467795
            ]
        },
        {
            "positions": [
                0.0568758726175259,
                -1.1732003556177635,
                2.0355817779046532,
                -0.8143684566757534,
                0.2861553527755785,
                3.1037036579477335
            ]
        },
        {
            "positions": [
                -0.009059799432070484,
                -1.2069159645124168,
                2.099616095698317,
                -0.8482681106456766,
                0.44272414652044556,
                3.1167144324486875
            ]
        },
        {
            "positions": [
                -0.07499547148166687,
                -1.2406315734070703,
                2.1636504134919803,
                -0.8821677646155999,
                0.5992929402653127,
                3.1297252069496415
            ]
        },
        {
            "positions": [
                -0.14093114353126324,
                -1.2743471823017238,
                2.2276847312856436,
                -0.9160674185855231,
                0.7558617340101798,
                3.142735981450596
            ]
        },
        {
            "positions": [
                -0.20686681558085962,
                -1.3080627911963774,
                2.2917190490793073,
                -0.9499670725554463,
                0.9124305277550468,
                3.15574675595155
            ]
        },
        {
            "positions": [
                -0.272802487630456,
                -1.3417784000910307,
                2.3557533668729707,
                -0.9838667265253696,
                1.0689993214999138,
                3.168757530452504
            ]
        },
        {
            "positions": [
                -0.3387381596800524,
                -1.3754940089856842,
                2.419787684666634,
                -1.0177663804952928,
                1.225568115244781,
                3.181768304953458
            ]
        }
    ]
}{
    "goal": {
        "global_pose": {
            "orientation": {
                "w": 0.5084816217422485,
                "x": -0.49083608388900757,
                "y": 0.5182115435600281,
                "z": -0.4816462993621826
            },
            "position": {
                "x": 0.5540239810943604,
                "y": 0.030875300988554955,
                "z": 0.16403168439865112
            }
        },
        "name": "move_to_storage_A"
    },
    "id": "RRTConnect_move_to_storage_A_143",
    "joint_names": [
        "shoulder_pan_joint",
        "shoulder_lift_joint",
        "elbow_joint",
        "wrist_1_joint",
        "wrist_2_joint",
        "wrist_3_joint"
    ],
    "metrics": {
        "cart_traj_len": 0.3535725893559828,
        "distance_elbow_joint": 0.45150475733687045,
        "distance_shoulder_lift_joint": 0.23556292600539575,
        "distance_shoulder_pan_joint": 0.46406925073753663,
        "distance_wrist_1_joint": 0.24958930949491376,
        "distance_wrist_2_joint": 1.0928177687524634,
        "distance_wrist_3_joint": 0.09055071259555092,
        "smoothness": 4.440892098500626e-16,
        "time": 0.071371748,
        "traj_len": 1.6075119672720108,
        "weighted_distance": 2.026722286935536
    },
    "planner": "RRTConnect",
    "start": {
        "state": {
            "elbow_joint": 1.9715472970024885,
            "shoulder_lift_joint": -1.1394870060712896,
            "shoulder_pan_joint": 0.12281152778156021,
            "wrist_1_joint": -0.780463741449964,
            "wrist_2_joint": 0.12958659822042276,
            "wrist_3_joint": 3.090690232415272
        }
    },
    "waypoints": [
        {
            "positions": [
                0.12281152778156021,
                -1.1394870060712896,
                1.9715472970024885,
                -0.780463741449964,
                0.12958659822042276,
                3.090690232415272
            ]
        },
        {
            "positions": [
                0.0565159205333407,
                -1.173138852643489,
                2.0360479766220414,
                -0.8161193570920945,
                0.2857034223279175,
                3.1036260485003506
            ]
        },
        {
            "positions": [
                -0.009779686714878805,
                -1.2067906992156885,
                2.1005486562415943,
                -0.8517749727342251,
                0.4418202464354123,
                3.1165618645854294
            ]
        },
        {
            "positions": [
                -0.07607529396309831,
                -1.2404425457878878,
                2.165049335861147,
                -0.8874305883763556,
                0.597937070542907,
                3.129497680670508
            ]
        },
        {
            "positions": [
                -0.14237090121131782,
                -1.2740943923600871,
                2.2295500154807,
                -0.9230862040184862,
                0.7540538946504017,
                3.1424334967555865
            ]
        },
        {
            "positions": [
                -0.20866650845953735,
                -1.3077462389322867,
                2.2940506951002533,
                -0.9587418196606167,
                0.9101707187578966,
                3.1553693128406652
            ]
        },
        {
            "positions": [
                -0.27496211570775686,
                -1.341398085504486,
                2.358551374719806,
                -0.9943974353027472,
                1.0662875428653913,
                3.168305128925744
            ]
        },
        {
            "positions": [
                -0.3412577229559764,
                -1.3750499320766854,
                2.423052054339359,
                -1.0300530509448778,
                1.2224043669728861,
                3.1812409450108228
            ]
        }
    ]
}