{
    "goal": {
        "global_pose": {
            "orientation": {
                "w": 0.5084816217422485,
                "x": -0.49083608388900757,
                "y": 0.5182115435600281,
                "z": -0.4816462993621826
            },
            "position": {
                "x": 0.5540239810943604,
                "y": 0.030875300988554955,
                "z": 0.16403168439865112
            }
        },
        "name": "move_to_storage_A"
    },
    "id": "RRTConnect_move_to_storage_A_114",
    "joint_names": [
        "shoulder_pan_joint",
        "shoulder_lift_joint",
        "elbow_joint",
        "wrist_1_joint",
        "wrist_2_joint",
        "wrist_3_joint"
    ],
    "metrics": {
        "cart_traj_len": 0.353449934375545,
        "distance_elbow_joint": 0.45251167621455424,
        "distance_shoulder_lift_joint": 0.23458824571215664,
        "distance_shoulder_pan_joint": 0.4638251417079117,
        "distance_wrist_1_joint": 0.2557848270158153,
        "distance_wrist_2_joint": 1.0925226443692932,
        "distance_wrist_3_joint": 0.10565020400180858,
        "smoothness": 6.661338165333112e-16,
        "time": 0.044552273,
        "traj_len": 1.6139649125744773,
        "weighted_distance": 2.040708361920014
    },
    "planner": "RRTConnect",
    "start": {
        "state": {
            "elbow_joint": 1.971548259319323,
            "shoulder_lift_joint": -1.1394851275133948,
            "shoulder_pan_joint": 0.1228115487234821,
            "wrist_1_joint": -0.7804723859257726,
            "wrist_2_joint": 0.12958671773740124,
            "wrist_3_joint": -3.192489227718131
        }
    },
    "waypoints": [
        {
            "positions": [
                0.1228115487234821,
                -1.1394851275133948,
                1.971548259319323,
                -0.7804723859257726,
                0.12958671773740124,
                -3.192489227718131
            ]
        },
        {
            "positions": [
                0.05655081419378043,
                -1.172997734043703,
                2.036192784492831,
                -0.8170130754994606,
                0.28566138121872886,
                -3.1773963414321584
            ]
        },
        {
            "positions": [
                -0.009709920335921246,
                -1.206510340574011,
                2.1008373096663386,
                -0.8535537650731484,
                0.44173604470005645,
                -3.1623034551461857
            ]
        },
        {
            "positions": [
                -0.0759706548656229,
                -1.2400229471043192,
                2.1654818348398464,
                -0.8900944546468363,
                0.597810708181384,
                -3.147210568860213
            ]
        },
        {
            "positions": [
                -0.1422313893953246,
                -1.2735355536346271,
                2.230126360013354,
                -0.9266351442205242,
                0.7538853716627116,
                -3.1321176825742407
            ]
        },
        {
            "positions": [
                -0.2084921239250263,
                -1.3070481601649353,
                2.294770885186862,
                -0.9631758337942121,
                0.9099600351440393,
                -3.117024796288268
            ]
        },
        {
            "positions": [
                -0.2747528584547279,
                -1.3405607666952433,
                2.3594154103603695,
                -0.9997165233679,
                1.0660346986253668,
                -3.1019319100022953
            ]
        },
        {
            "positions": [
                -0.3410135929844296,
                -1.3740733732255515,
                2.424059935533877,
                -1.036257212941588,
                1.2221093621066945,
                -3.0868390237163226
            ]
        }
    ]
}{
    "goal": {
        "global_pose": {
            "orientation": {
                "w": 0.5084816217422485,
                "x": -0.49083608388900757,
                "y": 0.5182115435600281,
                "z": -0.4816462993621826
            },
            "position": {
                "x": 0.5540239810943604,
                "y": 0.030875300988554955,
                "z": 0.16403168439865112
            }
        },
        "name": "move_to_storage_A"
    },
    "id": "RRTConnect_move_to_storage_A_114",
    "joint_names": [
        "shoulder_pan_joint",
        "shoulder_lift_joint",
        "elbow_joint",
        "wrist_1_joint",
        "wrist_2_joint",
        "wrist_3_joint"
    ],
    "metrics": {
        "cart_traj_len": 0.35304477924216615,
        "distance_elbow_joint": 0.45330062215885913,
        "distance_shoulder_lift_joint": 0.2351519425293902,
        "distance_shoulder_pan_joint": 0.4637579438315824,
        "distance_wrist_1_joint": 0.2507757428740447,
        "distance_wrist_2_joint": 1.0908755124141565,
        "distance_wrist_3_joint": 0.09582346799260755,
        "smoothness": 4.440892133664971e-16,
        "time": 0.053110242,
        "traj_len": 1.6092498972504674,
        "weighted_distance": 2.030513093549031
    },
    "planner": "RRTConnect",
    "start": {
        "state": {
            "elbow_joint": 1.97154746011099,
            "shoulder_lift_joint": -1.13948474672311,
            "shoulder_pan_joint": 0.12281154466712228,
            "wrist_1_joint": -0.7804688027058302,
            "wrist_2_joint": 0.12958655903071145,
            "wrist_3_joint": 3.0906928834467795
        }
    },
    "waypoints": [
        {
            "positions": [
                0.12281154466712228,
                -1.13948474672311,
                1.97154746011099,
                -0.7804688027058302,
                0.12958655903071145,
                3.0906928834467795
            ]
        },
        {
            "positions": [
                0.05656040983403908,
                -1.1730778813701657,
                2.03630469184797,
                -0.8162939088306937,
                0.28542591794701955,
                3.1043819503028662
            ]
        },
        {
            "positions": [
                -0.009690724999044123,
                -1.2066710160172214,
                2.1010619235849495,
                -0.8521190149555572,
                0.4412652768633276,
                3.118071017158953
            ]
        },
        {
            "positions": [
                -0.07594185983212733,
                -1.240264150664277,
                2.1658191553219295,
                -0.8879441210804208,
                0.5971046357796357,
                3.1317600840150397
            ]
        },
        {
            "positions": [
                -0.14219299466521051,
                -1.2738572853113328,
                2.2305763870589095,
                -0.9237692272052843,
                0.7529439946959438,
                3.145449150871127
            ]
        },
        {
            "positions": [
                -0.20844412949829372,
                -1.3074504199583887,
                2.2953336187958895,
                -0.9595943333301478,
                0.9087833536122518,
                3.1591382177272136
            ]
        },
        {
            "positions": [
                -0.2746952643313769,
                -1.3410435546054444,
                2.360090850532869,
                -0.9954194394550113,
                1.0646227125285599,
                3.1728272845833003
            ]
        },
        {
            "positions": [
                -0.3409463991644601,
                -1.3746366892525002,
                2.424848082269849,
                -1.0312445455798749,
                1.220462071444868,
                3.186516351439387
            ]
        }
    ]
}{
    "goal": {
        "global_pose": {
            "orientation": {
                "w": 0.5084816217422485,
                "x": -0.49083608388900757,
                "y": 0.5182115435600281,
                "z": -0.4816462993621826
            },
            "position": {
                "x": 0.5540239810943604,
                "y": 0.030875300988554955,
                "z": 0.16403168439865112
            }
        },
        "name": "move_to_storage_A"
    },
    "id": "RRTConnect_move_to_storage_A_114",
    "joint_names": [
        "shoulder_pan_joint",
        "shoulder_lift_joint",
        "elbow_joint",
        "wrist_1_joint",
        "wrist_2_joint",
        "wrist_3_joint"
    ],
    "metrics": {
        "cart_traj_len": 0.3536711981063828,
        "distance_elbow_joint": 0.45252234798828317,
        "distance_shoulder_lift_joint": 0.23252032181507887,
        "distance_shoulder_pan_joint": 0.4602916163877748,
        "distance_wrist_1_joint": 0.2612930843467678,
        "distance_wrist_2_joint": 1.1082035259913312,
        "distance_wrist_3_joint": 0.10424051839278681,
        "smoothness": 9.992007271825419e-16,
        "time": 0.047752517999999994,
        "traj_len": 1.618354539315172,
        "weighted_distance": 2.048670071545366
    },
    "planner": "RRTConnect",
    "start": {
        "state": {
            "elbow_joint": 1.9715472970024885,
            "shoulder_lift_joint": -1.1394870060712896,
            "shoulder_pan_joint": 0.12281152778156021,
            "wrist_1_joint": -0.780463741449964,
            "wrist_2_joint": 0.12958659822042276,
            "wrist_3_joint": 3.090690232415272
        }
    },
    "waypoints": [
        {
            "positions": [
                0.12281152778156021,
                -1.1394870060712896,
                1.9715472970024885,
                -0.780463741449964,
                0.12958659822042276,
                3.090690232415272
            ]
        },
        {
            "positions": [
                0.05705558258330666,
                -1.1727041949020152,
                2.0361933467151005,
                -0.8177913249280737,
                0.28790138764775575,
                3.1055817350428128
            ]
        },
        {
            "positions": [
                -0.008700362614946888,
                -1.2059213837327407,
                2.100839396427712,
                -0.8551189084061833,
                0.44621617707508876,
                3.1204732376703537
            ]
        },
        {
            "positions": [
                -0.07445630781320042,
                -1.2391385725634663,
                2.165485446140324,
                -0.892446491884293,
                0.6045309665024218,
                3.1353647402978946
            ]
        },
        {
            "positions": [
                -0.14021225301145399,
                -1.2723557613941918,
                2.230131495852936,
                -0.9297740753624028,
                0.7628457559297548,
                3.150256242925436
            ]
        },
        {
            "positions": [
                -0.20596819820970755,
                -1.3055729502249174,
                2.294777545565548,
                -0.9671016588405124,
                0.9211605453570879,
                3.165147745552977
            ]
        },
        {
            "positions": [
                -0.271724143407961,
                -1.338790139055643,
                2.3594235952781597,
                -1.004429242318622,
                1.0794753347844208,
                3.1800392481805178
            ]
        },
        {
            "positions": [
                -0.3374800886062146,
                -1.3720073278863685,
                2.4240696449907717,
                -1.0417568257967318,
                1.237790124211754,
                3.1949307508080587
            ]
        }
    ]
}