{
    "goal": {
        "global_pose": {
            "orientation": {
                "w": 0.005598929693374612,
                "x": 0.007748599140229565,
                "y": 0.7110244013736278,
                "z": -0.7031023480610252
            },
            "position": {
                "x": 0.1141497679147869,
                "y": -0.7141253447532654,
                "z": 0.3711530566215515
            }
        },
        "name": "move_to_auspresseinheit_B"
    },
    "id": "RRTConnect_move_to_auspresseinheit_B_122",
    "joint_names": [
        "shoulder_pan_joint",
        "shoulder_lift_joint",
        "elbow_joint",
        "wrist_1_joint",
        "wrist_2_joint",
        "wrist_3_joint"
    ],
    "metrics": {
        "cart_traj_len": 0.5649406983406133,
        "distance_elbow_joint": 0.06157876855983768,
        "distance_shoulder_lift_joint": 0.2937148947454047,
        "distance_shoulder_pan_joint": 0.57603405548062,
        "distance_wrist_1_joint": 0.3182521133961076,
        "distance_wrist_2_joint": 0.9995724469511569,
        "distance_wrist_3_joint": 0.009975820926957812,
        "smoothness": 7.612957943425664e-16,
        "time": 0.035153057,
        "traj_len": 1.5030396202562608,
        "weighted_distance": 1.8965506326648032
    },
    "planner": "RRTConnect",
    "start": {
        "state": {
            "elbow_joint": 2.0193083361928714,
            "shoulder_lift_joint": -1.1220246554650708,
            "shoulder_pan_joint": -1.0952077554168747,
            "wrist_1_joint": -0.8559753972642168,
            "wrist_2_joint": 0.4759566250798843,
            "wrist_3_joint": -3.1240929996934557
        }
    },
    "waypoints": [
        {
            "positions": [
                -1.0952077554168747,
                -1.1220246554650708,
                2.0193083361928714,
                -0.8559753972642168,
                0.4759566250798843,
                -3.1240929996934557
            ]
        },
        {
            "positions": [
                -1.1912134313303113,
                -1.1709771379226384,
                2.009045208099565,
                -0.8029333783648656,
                0.6425520329050771,
                -3.1224303628722963
            ]
        },
        {
            "positions": [
                -1.287219107243748,
                -1.2199296203802057,
                1.9987820800062588,
                -0.7498913594655142,
                0.8091474407302699,
                -3.1207677260511364
            ]
        },
        {
            "positions": [
                -1.3832247831571847,
                -1.268882102837773,
                1.9885189519129525,
                -0.696849340566163,
                0.9757428485554627,
                -3.1191050892299765
            ]
        },
        {
            "positions": [
                -1.4792304590706213,
                -1.3178345852953406,
                1.9782558238196464,
                -0.6438073216668118,
                1.1423382563806554,
                -3.117442452408817
            ]
        },
        {
            "positions": [
                -1.575236134984058,
                -1.3667870677529081,
                1.96799269572634,
                -0.5907653027674604,
                1.3089336642058484,
                -3.1157798155876577
            ]
        },
        {
            "positions": [
                -1.6712418108974947,
                -1.4157395502104755,
                1.9577295676330337,
                -0.5377232838681092,
                1.4755290720310412,
                -3.114117178766498
            ]
        }
    ]
}