{
    "goal": {
        "global_pose": {
            "orientation": {
                "w": 0.005598929693374612,
                "x": 0.007748599140229565,
                "y": 0.7110244013736278,
                "z": -0.7031023480610252
            },
            "position": {
                "x": -0.8858502320852131,
                "y": -0.7141253447532654,
                "z": 0.3711530566215515
            }
        },
        "name": "move_to_auspresseinheit_C"
    },
    "id": "RRTConnect_move_to_auspresseinheit_C_50",
    "joint_names": [
        "shoulder_pan_joint",
        "shoulder_lift_joint",
        "elbow_joint",
        "wrist_1_joint",
        "wrist_2_joint",
        "wrist_3_joint"
    ],
    "metrics": {
        "cart_traj_len": 0.4942161523979191,
        "distance_elbow_joint": 1.0197922143900027,
        "distance_shoulder_lift_joint": 0.33371185928621705,
        "distance_shoulder_pan_joint": 0.2554541793021401,
        "distance_wrist_1_joint": 0.7153779469338329,
        "distance_wrist_2_joint": 1.3197564471227539,
        "distance_wrist_3_joint": 0.0797160240060939,
        "smoothness": 6.45947944157498e-16,
        "time": 0.075622405,
        "traj_len": 1.9297172515788525,
        "weighted_distance": 2.432771077004537
    },
    "planner": "RRTConnect",
    "start": {
        "state": {
            "elbow_joint": 1.7527959577737207,
            "shoulder_lift_joint": -0.9740617694225068,
            "shoulder_pan_joint": -2.967991417825858,
            "wrist_1_joint": -0.759517768980727,
            "wrist_2_joint": 1.7443932448377408,
            "wrist_3_joint": -3.0840537646736568
        }
    },
    "waypoints": [
        {
            "positions": [
                -2.967991417825858,
                -0.9740617694225068,
                1.7527959577737207,
                -0.759517768980727,
                1.7443932448377408,
                -3.0840537646736568
            ]
        },
        {
            "positions": [
                -2.942445999895644,
                -0.940690583493885,
                1.6508167363347204,
                -0.6879799742873437,
                1.6124176001254655,
                -3.092025367074266
            ]
        },
        {
            "positions": [
                -2.91690058196543,
                -0.9073193975652634,
                1.54883751489572,
                -0.6164421795939604,
                1.48044195541319,
                -3.0999969694748755
            ]
        },
        {
            "positions": [
                -2.891355164035216,
                -0.8739482116366417,
                1.4468582934567198,
                -0.5449043849005771,
                1.3484663107009147,
                -3.107968571875485
            ]
        },
        {
            "positions": [
                -2.865809746105002,
                -0.84057702570802,
                1.3448790720177195,
                -0.4733665902071938,
                1.2164906659886392,
                -3.115940174276094
            ]
        },
        {
            "positions": [
                -2.840264328174788,
                -0.8072058397793982,
                1.2428998505787194,
                -0.4018287955138105,
                1.084515021276364,
                -3.123911776676704
            ]
        },
        {
            "positions": [
                -2.814718910244574,
                -0.7738346538507765,
                1.140920629139719,
                -0.3302910008204272,
                0.9525393765640885,
                -3.1318833790773133
            ]
        },
        {
            "positions": [
                -2.78917349231436,
                -0.7404634679221549,
                1.0389414077007189,
                -0.258753206127044,
                0.8205637318518132,
                -3.1398549814779226
            ]
        },
        {
            "positions": [
                -2.7636280743841457,
                -0.7070922819935331,
                0.9369621862617185,
                -0.1872154114336606,
                0.6885880871395378,
                -3.147826583878532
            ]
        },
        {
            "positions": [
                -2.738082656453932,
                -0.6737210960649114,
                0.8349829648227183,
                -0.11567761674027732,
                0.5566124424272623,
                -3.1557981862791413
            ]
        },
        {
            "positions": [
                -2.712537238523718,
                -0.6403499101362897,
                0.733003743383718,
                -0.04413982204689401,
                0.4246367977149871,
                -3.1637697886797507
            ]
        }
    ]
}