{
    "goal": {
        "global_pose": {
            "orientation": {
                "w": 0.5084816217422485,
                "x": -0.49083608388900757,
                "y": 0.5182115435600281,
                "z": -0.4816462993621826
            },
            "position": {
                "x": 0.5540239810943604,
                "y": 0.030875300988554955,
                "z": 0.16403168439865112
            }
        },
        "name": "move_to_storage_A"
    },
    "id": "RRTConnect_move_to_storage_A_126",
    "joint_names": [
        "shoulder_pan_joint",
        "shoulder_lift_joint",
        "elbow_joint",
        "wrist_1_joint",
        "wrist_2_joint",
        "wrist_3_joint"
    ],
    "metrics": {
        "cart_traj_len": 0.3537980552382072,
        "distance_elbow_joint": 0.4500385765688375,
        "distance_shoulder_lift_joint": 0.2361272061420021,
        "distance_shoulder_pan_joint": 0.464531237253592,
        "distance_wrist_1_joint": 0.2395185522980684,
        "distance_wrist_2_joint": 1.092958976829622,
        "distance_wrist_3_joint": 0.09583032473681552,
        "smoothness": 6.661338146305771e-16,
        "time": 0.06333261800000001,
        "traj_len": 1.6059280412985313,
        "weighted_distance": 2.0256216459226186
    },
    "planner": "RRTConnect",
    "start": {
        "state": {
            "elbow_joint": 1.971548259319323,
            "shoulder_lift_joint": -1.1394851275133948,
            "shoulder_pan_joint": 0.1228115487234821,
            "wrist_1_joint": -0.7804723859257726,
            "wrist_2_joint": 0.12958671773740124,
            "wrist_3_joint": -3.192489227718131
        }
    },
    "waypoints": [
        {
            "positions": [
                0.1228115487234821,
                -1.1394851275133948,
                1.971548259319323,
                -0.7804723859257726,
                0.12958671773740124,
                -3.192489227718131
            ]
        },
        {
            "positions": [
                0.05644994340154039,
                -1.1732175855336808,
                2.0358394845434424,
                -0.8146893219683539,
                0.28572371442734723,
                -3.1787991813271574
            ]
        },
        {
            "positions": [
                -0.009911661920401327,
                -1.2069500435539668,
                2.100130709767562,
                -0.848906258010935,
                0.4418607111172932,
                -3.1651091349361837
            ]
        },
        {
            "positions": [
                -0.07627326724234304,
                -1.2406825015742529,
                2.164421934991682,
                -0.8831231940535162,
                0.5979977078072392,
                -3.15141908854521
            ]
        },
        {
            "positions": [
                -0.14263487256428475,
                -1.2744149595945389,
                2.2287131602158015,
                -0.9173401300960974,
                0.7541347044971852,
                -3.1377290421542368
            ]
        },
        {
            "positions": [
                -0.2089964778862265,
                -1.308147417614825,
                2.293004385439921,
                -0.9515570661386786,
                0.9102717011871313,
                -3.124038995763263
            ]
        },
        {
            "positions": [
                -0.2753580832081682,
                -1.341879875635111,
                2.357295610664041,
                -0.9857740021812598,
                1.066408697877077,
                -3.1103489493722893
            ]
        },
        {
            "positions": [
                -0.3417196885301099,
                -1.375612333655397,
                2.4215868358881605,
                -1.019990938223841,
                1.2225456945670232,
                -3.0966589029813156
            ]
        }
    ]
}{
    "goal": {
        "global_pose": {
            "orientation": {
                "w": 0.5084816217422485,
                "x": -0.49083608388900757,
                "y": 0.5182115435600281,
                "z": -0.4816462993621826
            },
            "position": {
                "x": 0.5540239810943604,
                "y": 0.030875300988554955,
                "z": 0.16403168439865112
            }
        },
        "name": "move_to_storage_A"
    },
    "id": "RRTConnect_move_to_storage_A_126",
    "joint_names": [
        "shoulder_pan_joint",
        "shoulder_lift_joint",
        "elbow_joint",
        "wrist_1_joint",
        "wrist_2_joint",
        "wrist_3_joint"
    ],
    "metrics": {
        "cart_traj_len": 0.35326713519420827,
        "distance_elbow_joint": 0.45257298271017676,
        "distance_shoulder_lift_joint": 0.23156894729731814,
        "distance_shoulder_pan_joint": 0.4578951852905135,
        "distance_wrist_1_joint": 0.261218153729015,
        "distance_wrist_2_joint": 1.1152094105037975,
        "distance_wrist_3_joint": 0.09722182302485516,
        "smoothness": 8.881784197001252e-16,
        "time": 0.050800437000000004,
        "traj_len": 1.6173084129366533,
        "weighted_distance": 2.046107942616469
    },
    "planner": "RRTConnect",
    "start": {
        "state": {
            "elbow_joint": 1.97154746011099,
            "shoulder_lift_joint": -1.13948474672311,
            "shoulder_pan_joint": 0.12281154466712228,
            "wrist_1_joint": -0.7804688027058302,
            "wrist_2_joint": 0.12958655903071145,
            "wrist_3_joint": 3.0906928834467795
        }
    },
    "waypoints": [
        {
            "positions": [
                0.12281154466712228,
                -1.13948474672311,
                1.97154746011099,
                -0.7804688027058302,
                0.12958655903071145,
                3.0906928834467795
            ]
        },
        {
            "positions": [
                0.05739794676847751,
                -1.172566024908441,
                2.036200743355301,
                -0.8177856818099752,
                0.2889021891026825,
                3.1045817153074733
            ]
        },
        {
            "positions": [
                -0.008015651130167264,
                -1.2056473030937722,
                2.100854026599612,
                -0.8551025609141202,
                0.44821781917465353,
                3.1184705471681666
            ]
        },
        {
            "positions": [
                -0.07342924902881205,
                -1.2387285812791033,
                2.165507309843923,
                -0.8924194400182652,
                0.6075334492466247,
                3.1323593790288604
            ]
        },
        {
            "positions": [
                -0.1388428469274568,
                -1.2718098594644345,
                2.2301605930882338,
                -0.9297363191224102,
                0.7668490793185957,
                3.1462482108895538
            ]
        },
        {
            "positions": [
                -0.2042564448261016,
                -1.3048911376497658,
                2.2948138763325447,
                -0.9670531982265552,
                0.9261647093905668,
                3.1601370427502475
            ]
        },
        {
            "positions": [
                -0.2696700427247464,
                -1.337972415835097,
                2.3594671595768557,
                -1.0043700773307003,
                1.0854803394625379,
                3.174025874610941
            ]
        },
        {
            "positions": [
                -0.3350836406233912,
                -1.371053694020428,
                2.4241204428211667,
                -1.0416869564348452,
                1.244795969534509,
                3.1879147064716347
            ]
        }
    ]
}{
    "goal": {
        "global_pose": {
            "orientation": {
                "w": 0.5084816217422485,
                "x": -0.49083608388900757,
                "y": 0.5182115435600281,
                "z": -0.4816462993621826
            },
            "position": {
                "x": 0.5540239810943604,
                "y": 0.030875300988554955,
                "z": 0.16403168439865112
            }
        },
        "name": "move_to_storage_A"
    },
    "id": "RRTConnect_move_to_storage_A_126",
    "joint_names": [
        "shoulder_pan_joint",
        "shoulder_lift_joint",
        "elbow_joint",
        "wrist_1_joint",
        "wrist_2_joint",
        "wrist_3_joint"
    ],
    "metrics": {
        "cart_traj_len": 0.3526526137715916,
        "distance_elbow_joint": 0.45014154825955455,
        "distance_shoulder_lift_joint": 0.23389980909155095,
        "distance_shoulder_pan_joint": 0.46073969409120075,
        "distance_wrist_1_joint": 0.25034907893876235,
        "distance_wrist_2_joint": 1.0989293177541242,
        "distance_wrist_3_joint": 0.09703878479423089,
        "smoothness": 2.2204460668324854e-16,
        "time": 0.071328648,
        "traj_len": 1.609688862149895,
        "weighted_distance": 2.0333357320449497
    },
    "planner": "RRTConnect",
    "start": {
        "state": {
            "elbow_joint": 1.9715472970024885,
            "shoulder_lift_joint": -1.1394870060712896,
            "shoulder_pan_joint": 0.12281152778156021,
            "wrist_1_joint": -0.780463741449964,
            "wrist_2_joint": 0.12958659822042276,
            "wrist_3_joint": 3.090690232415272
        }
    },
    "waypoints": [
        {
            "positions": [
                0.12281152778156021,
                -1.1394870060712896,
                1.9715472970024885,
                -0.780463741449964,
                0.12958659822042276,
                3.090690232415272
            ]
        },
        {
            "positions": [
                0.05699157148281725,
                -1.1729012645129397,
                2.0358532324681393,
                -0.8162278955840729,
                0.2865765007567262,
                3.1045529159573046
            ]
        },
        {
            "positions": [
                -0.00882838481592571,
                -1.2063155229545899,
                2.1001591679337897,
                -0.8519920497181818,
                0.44356640329302965,
                3.118415599499338
            ]
        },
        {
            "positions": [
                -0.07464834111466867,
                -1.23972978139624,
                2.1644651033994404,
                -0.8877562038522907,
                0.6005563058293331,
                3.1322782830413707
            ]
        },
        {
            "positions": [
                -0.14046829741341163,
                -1.2731440398378902,
                2.228771038865091,
                -0.9235203579863996,
                0.7575462083656365,
                3.146140966583404
            ]
        },
        {
            "positions": [
                -0.20628825371215462,
                -1.3065582982795403,
                2.293076974330742,
                -0.9592845121205085,
                0.91453611090194,
                3.1600036501254367
            ]
        },
        {
            "positions": [
                -0.2721082100108976,
                -1.3399725567211904,
                2.3573829097963923,
                -0.9950486662546174,
                1.0715260134382434,
                3.17386633366747
            ]
        },
        {
            "positions": [
                -0.3379281663096405,
                -1.3733868151628406,
                2.421688845262043,
                -1.0308128203887263,
                1.228515915974547,
                3.1877290172095027
            ]
        }
    ]
}