{
    "goal": {
        "global_pose": {
            "orientation": {
                "w": -0.4816463035849501,
                "x": 0.5182115481033762,
                "y": 0.4908360881923453,
                "z": -0.5084816262002911
            },
            "position": {
                "x": -0.8240239810943604,
                "y": -0.300875300988555,
                "z": 0.16403168439865112
            }
        },
        "name": "move_to_storage_C"
    },
    "id": "RRTConnect_move_to_storage_C_143",
    "joint_names": [
        "shoulder_pan_joint",
        "shoulder_lift_joint",
        "elbow_joint",
        "wrist_1_joint",
        "wrist_2_joint",
        "wrist_3_joint"
    ],
    "metrics": {
        "cart_traj_len": 0.5767398418548175,
        "distance_elbow_joint": 0.25675803792626395,
        "distance_shoulder_lift_joint": 0.19000846830883122,
        "distance_shoulder_pan_joint": 0.4943336588221041,
        "distance_wrist_1_joint": 0.06913245059262174,
        "distance_wrist_2_joint": 1.0685906666271614,
        "distance_wrist_3_joint": 0.07234710827389579,
        "smoothness": 0.0,
        "time": 0.120456238,
        "traj_len": 1.4666868754273619,
        "weighted_distance": 1.8529942591164315
    },
    "planner": "RRTConnect",
    "start": {
        "state": {
            "elbow_joint": 2.010868314990456,
            "shoulder_lift_joint": -1.1634956873337592,
            "shoulder_pan_joint": -2.4736205022346125,
            "wrist_1_joint": -0.8367026794202681,
            "wrist_2_joint": 0.6746043897044499,
            "wrist_3_joint": -3.1496632123970403
        }
    },
    "waypoints": [
        {
            "positions": [
                -2.4736205022346125,
                -1.1634956873337592,
                2.010868314990456,
                -0.8367026794202681,
                0.6746043897044499,
                -3.1496632123970403
            ]
        },
        {
            "positions": [
                -2.5560094453716298,
                -1.1318276092822872,
                1.9680753086694118,
                -0.8251806043214978,
                0.8527028341423102,
                -3.137605361018058
            ]
        },
        {
            "positions": [
                -2.638398388508647,
                -1.1001595312308154,
                1.9252823023483678,
                -0.8136585292227275,
                1.0308012785801703,
                -3.125547509639075
            ]
        },
        {
            "positions": [
                -2.7207873316456643,
                -1.0684914531793437,
                1.8824892960273238,
                -0.8021364541239573,
                1.2088997230180305,
                -3.113489658260092
            ]
        },
        {
            "positions": [
                -2.803176274782682,
                -1.0368233751278717,
                1.8396962897062799,
                -0.7906143790251869,
                1.3869981674558907,
                -3.1014318068811098
            ]
        },
        {
            "positions": [
                -2.8855652179196993,
                -1.0051552970763997,
                1.7969032833852359,
                -0.7790923039264166,
                1.5650966118937513,
                -3.0893739555021273
            ]
        },
        {
            "positions": [
                -2.9679541610567166,
                -0.973487219024928,
                1.7541102770641919,
                -0.7675702288276464,
                1.7431950563316112,
                -3.0773161041231445
            ]
        }
    ]
}