{
    "goal": {
        "global_pose": {
            "orientation": {
                "w": 0.5084816262002911,
                "x": -0.4908360881923452,
                "y": 0.5182115481033761,
                "z": -0.48164630358495003
            },
            "position": {
                "x": 0.5540239810943604,
                "y": -0.46912469901144505,
                "z": 0.16403168439865112
            }
        },
        "name": "move_to_storage_B"
    },
    "id": "RRTConnect_move_to_storage_B_12",
    "joint_names": [
        "shoulder_pan_joint",
        "shoulder_lift_joint",
        "elbow_joint",
        "wrist_1_joint",
        "wrist_2_joint",
        "wrist_3_joint"
    ],
    "metrics": {
        "cart_traj_len": 2.603413457673365,
        "distance_elbow_joint": 1.3545646740377477,
        "distance_shoulder_lift_joint": 1.328627547986065,
        "distance_shoulder_pan_joint": 1.8429047219666217,
        "distance_wrist_1_joint": 2.9983687711121383,
        "distance_wrist_2_joint": 2.706044109662205,
        "distance_wrist_3_joint": 3.249107214529499,
        "smoothness": 0.22091518730769633,
        "time": 0.11059907499999999,
        "traj_len": 3.671459796769437,
        "weighted_distance": 5.06776522237639
    },
    "planner": "RRTConnect",
    "start": {
        "state": {
            "elbow_joint": 1.664937868594044,
            "shoulder_lift_joint": -0.661644460510453,
            "shoulder_pan_joint": -0.9139846352900073,
            "wrist_1_joint": 2.146753192139373,
            "wrist_2_joint": -2.2341966793290973,
            "wrist_3_joint": 0.005466555786416001
        }
    },
    "waypoints": [
        {
            "positions": [
                -0.9139846352900073,
                -0.661644460510453,
                1.664937868594044,
                2.146753192139373,
                -2.2341966793290973,
                0.005466555786416001
            ]
        },
        {
            "positions": [
                -0.8101225056378563,
                -0.7734252603105417,
                1.602382280223156,
                2.134163854244477,
                -2.139531937210008,
                0.012695864286426297
            ]
        },
        {
            "positions": [
                -0.7062603759857053,
                -0.8852060601106304,
                1.5398266918522678,
                2.1215745163495807,
                -2.0448671950909194,
                0.019925172786436594
            ]
        },
        {
            "positions": [
                -0.6023982463335543,
                -0.9969868599107191,
                1.47727110348138,
                2.1089851784546845,
                -1.9502024529718303,
                0.02715448128644689
            ]
        },
        {
            "positions": [
                -0.49853611668140335,
                -1.1087676597108078,
                1.4147155151104918,
                2.0963958405597882,
                -1.8555377108527413,
                0.03438378978645719
            ]
        },
        {
            "positions": [
                -0.3946739870292524,
                -1.2205484595108964,
                1.3521599267396038,
                2.083806502664892,
                -1.7608729687336524,
                0.04161309828646749
            ]
        },
        {
            "positions": [
                -0.29081185737710136,
                -1.3323292593109852,
                1.289604338368716,
                2.0712171647699957,
                -1.6662082266145632,
                0.048842406786477784
            ]
        },
        {
            "positions": [
                -0.18694972772495044,
                -1.444110059111074,
                1.2270487499978278,
                2.0586278268750995,
                -1.5715434844954743,
                0.05607171528648808
            ]
        },
        {
            "positions": [
                -0.08308759807279942,
                -1.5558908589111626,
                1.1644931616269398,
                2.0460384889802032,
                -1.4768787423763854,
                0.06330102378649838
            ]
        },
        {
            "positions": [
                -0.12056936417462959,
                -1.539802668185779,
                1.196127234481408,
                1.938717967944908,
                -1.4047036989427004,
                -0.05489426312199852
            ]
        },
        {
            "positions": [
                -0.15805113027645976,
                -1.5237144774603957,
                1.2277613073358764,
                1.831397446909613,
                -1.3325286555090154,
                -0.17308955003049542
            ]
        },
        {
            "positions": [
                -0.1955328963782899,
                -1.507626286735012,
                1.2593953801903446,
                1.7240769258743178,
                -1.2603536120753305,
                -0.2912848369389923
            ]
        },
        {
            "positions": [
                -0.2330146624801201,
                -1.4915380960096285,
                1.291029453044813,
                1.6167564048390228,
                -1.1881785686416455,
                -0.4094801238474892
            ]
        },
        {
            "positions": [
                -0.2704964285819502,
                -1.475449905284245,
                1.3226635258992812,
                1.5094358838037276,
                -1.1160035252079608,
                -0.5276754107559861
            ]
        },
        {
            "positions": [
                -0.3079781946837804,
                -1.4593617145588615,
                1.3542975987537496,
                1.4021153627684324,
                -1.0438284817742756,
                -0.645870697664483
            ]
        },
        {
            "positions": [
                -0.3454599607856106,
                -1.443273523833478,
                1.3859316716082177,
                1.2947948417331374,
                -0.9716534383405907,
                -0.7640659845729799
            ]
        },
        {
            "positions": [
                -0.38294172688744077,
                -1.4271853331080944,
                1.4175657444626861,
                1.1874743206978424,
                -0.8994783949069057,
                -0.8822612714814768
            ]
        },
        {
            "positions": [
                -0.42042349298927095,
                -1.4110971423827108,
                1.4491998173171543,
                1.0801537996625472,
                -0.8273033514732209,
                -1.0004565583899738
            ]
        },
        {
            "positions": [
                -0.4579052590911011,
                -1.3950089516573274,
                1.4808338901716227,
                0.972833278627252,
                -0.7551283080395359,
                -1.1186518452984706
            ]
        },
        {
            "positions": [
                -0.49538702519293126,
                -1.3789207609319438,
                1.5124679630260909,
                0.865512757591957,
                -0.6829532646058509,
                -1.2368471322069676
            ]
        },
        {
            "positions": [
                -0.5328687912947614,
                -1.3628325702065602,
                1.5441020358805593,
                0.7581922365566618,
                -0.610778221172166,
                -1.3550424191154644
            ]
        },
        {
            "positions": [
                -0.5703505573965917,
                -1.3467443794811766,
                1.5757361087350275,
                0.6508717155213668,
                -0.538603177738481,
                -1.4732377060239614
            ]
        },
        {
            "positions": [
                -0.6078323234984218,
                -1.3306561887557933,
                1.6073701815894959,
                0.5435511944860716,
                -0.466428134304796,
                -1.5914329929324582
            ]
        },
        {
            "positions": [
                -0.645314089600252,
                -1.3145679980304097,
                1.639004254443964,
                0.4362306734507764,
                -0.39425309087111104,
                -1.7096282798409554
            ]
        },
        {
            "positions": [
                -0.6827958557020821,
                -1.298479807305026,
                1.6706383272984322,
                0.3289101524154814,
                -0.3220780474374261,
                -1.827823566749452
            ]
        },
        {
            "positions": [
                -0.7202776218039123,
                -1.2823916165796425,
                1.7022724001529008,
                0.22158963138018617,
                -0.2499030040037411,
                -1.946018853657949
            ]
        },
        {
            "positions": [
                -0.7577593879057425,
                -1.2663034258542591,
                1.733906473007369,
                0.11426911034489118,
                -0.17772796057005635,
                -2.0642141405664463
            ]
        },
        {
            "positions": [
                -0.7952411540075727,
                -1.2502152351288756,
                1.7655405458618372,
                0.006948589309595743,
                -0.10555291713637116,
                -2.1824094274749433
            ]
        },
        {
            "positions": [
                -0.8327229201094027,
                -1.234127044403492,
                1.7971746187163053,
                -0.10037193172569925,
                -0.03337787370268641,
                -2.3006047143834394
            ]
        },
        {
            "positions": [
                -0.870204686211233,
                -1.2180388536781086,
                1.8288086915707737,
                -0.20769245276099424,
                0.03879716973099878,
                -2.4188000012919364
            ]
        },
        {
            "positions": [
                -0.9076864523130631,
                -1.201950662952725,
                1.8604427644252421,
                -0.31501297379628923,
                0.11097221316468353,
                -2.5369952882004334
            ]
        },
        {
            "positions": [
                -0.9451682184148934,
                -1.1858624722273414,
                1.8920768372797103,
                -0.42233349483158467,
                0.1831472565983685,
                -2.6551905751089304
            ]
        },
        {
            "positions": [
                -0.9826499845167235,
                -1.1697742815019578,
                1.9237109101341785,
                -0.5296540158668797,
                0.2553223000320535,
                -2.7733858620174274
            ]
        },
        {
            "positions": [
                -1.0201317506185537,
                -1.1536860907765742,
                1.955344982988647,
                -0.6369745369021746,
                0.32749734346573844,
                -2.8915811489259244
            ]
        },
        {
            "positions": [
                -1.0576135167203837,
                -1.1375979000511909,
                1.9869790558431153,
                -0.7442950579374696,
                0.3996723868994234,
                -3.0097764358344214
            ]
        },
        {
            "positions": [
                -1.095095282822214,
                -1.1215097093258073,
                2.0186131286975835,
                -0.8516155789727652,
                0.4718474303331084,
                -3.127971722742918
            ]
        }
    ]
}