{
    "goal": {
        "global_pose": {
            "orientation": {
                "w": -0.4816463035849501,
                "x": 0.5182115481033762,
                "y": 0.4908360881923453,
                "z": -0.5084816262002911
            },
            "position": {
                "x": -0.8240239810943604,
                "y": 0.19912469901144506,
                "z": 0.16403168439865112
            }
        },
        "name": "move_to_storage_D"
    },
    "id": "RRTConnect_move_to_storage_D_13",
    "joint_names": [
        "shoulder_pan_joint",
        "shoulder_lift_joint",
        "elbow_joint",
        "wrist_1_joint",
        "wrist_2_joint",
        "wrist_3_joint"
    ],
    "metrics": {
        "cart_traj_len": 0.7632491467415017,
        "distance_elbow_joint": 0.5559672178549877,
        "distance_shoulder_lift_joint": 0.6762118615470429,
        "distance_shoulder_pan_joint": 0.1502110828165271,
        "distance_wrist_1_joint": 3.8293133238083272,
        "distance_wrist_2_joint": 1.7891910314311588,
        "distance_wrist_3_joint": 4.039963664779032,
        "smoothness": 0.25207979831061916,
        "time": 0.076760671,
        "traj_len": 3.3227786839085565,
        "weighted_distance": 4.9738606601949185
    },
    "planner": "RRTConnect",
    "start": {
        "state": {
            "elbow_joint": -2.384821988534728,
            "shoulder_lift_joint": -2.2788054721415256,
            "shoulder_pan_joint": -0.1854694642142757,
            "wrist_1_joint": 1.4845938289331202,
            "wrist_2_joint": 0.17898776772866878,
            "wrist_3_joint": 0.037105688729662994
        }
    },
    "waypoints": [
        {
            "positions": [
                -0.1854694642142757,
                -2.2788054721415256,
                -2.384821988534728,
                1.4845938289331202,
                0.17898776772866878,
                0.037105688729662994
            ]
        },
        {
            "positions": [
                -0.1629141164155862,
                -2.2098298937600127,
                -2.372569059445621,
                1.3764306459809275,
                0.09716552351099657,
                -0.0368334667691389
            ]
        },
        {
            "positions": [
                -0.1403587686168967,
                -2.1408543153785002,
                -2.3603161303565137,
                1.2682674630287345,
                0.015343279293324352,
                -0.1107726222679408
            ]
        },
        {
            "positions": [
                -0.11780342081820719,
                -2.0718787369969878,
                -2.3480632012674065,
                1.1601042800765415,
                -0.06647896492434788,
                -0.18471177776674272
            ]
        },
        {
            "positions": [
                -0.09524807301951768,
                -2.002903158615475,
                -2.3358102721782994,
                1.0519410971243488,
                -0.14830120914202008,
                -0.25865093326554456
            ]
        },
        {
            "positions": [
                -0.07269272522082817,
                -1.9339275802339622,
                -2.3235573430891923,
                0.943777914172156,
                -0.23012345335969234,
                -0.3325900887643466
            ]
        },
        {
            "positions": [
                -0.05013737742213867,
                -1.8649520018524495,
                -2.311304414000085,
                0.8356147312199631,
                -0.31194569757736457,
                -0.4065292442631484
            ]
        },
        {
            "positions": [
                -0.049490464551513014,
                -1.8763588884288829,
                -2.2903283425513745,
                0.6973393300853905,
                -0.3683916787132396,
                -0.25016712548983444
            ]
        },
        {
            "positions": [
                -0.04884355168088736,
                -1.887765775005316,
                -2.269352271102664,
                0.5590639289508179,
                -0.4248376598491146,
                -0.09380500671652053
            ]
        },
        {
            "positions": [
                -0.048196638810261705,
                -1.8991726615817495,
                -2.2483761996539533,
                0.42078852781624526,
                -0.48128364098498966,
                0.06255711205679343
            ]
        },
        {
            "positions": [
                -0.04754972593963605,
                -1.9105795481581829,
                -2.2274001282052427,
                0.2825131266816726,
                -0.5377296221208646,
                0.21891923083010734
            ]
        },
        {
            "positions": [
                -0.046902813069010396,
                -1.921986434734616,
                -2.206424056756532,
                0.14423772554710002,
                -0.5941756032567397,
                0.3752813496034213
            ]
        },
        {
            "positions": [
                -0.04625590019838474,
                -1.9333933213110495,
                -2.185447985307821,
                0.00596232441252742,
                -0.6506215843926146,
                0.5316434683767353
            ]
        },
        {
            "positions": [
                -0.04560898732775908,
                -1.9448002078874829,
                -2.1644719138591104,
                -0.1323130767220453,
                -0.7070675655284897,
                0.6880055871500493
            ]
        },
        {
            "positions": [
                -0.044962074457133426,
                -1.9562070944639163,
                -2.1434958424104,
                -0.2705884778566179,
                -0.7635135466643648,
                0.8443677059233631
            ]
        },
        {
            "positions": [
                -0.04431516158650777,
                -1.9676139810403495,
                -2.122519770961689,
                -0.4088638789911905,
                -0.8199595278002397,
                1.000729824696677
            ]
        },
        {
            "positions": [
                -0.04366824871588212,
                -1.9790208676167829,
                -2.1015436995129786,
                -0.5471392801257631,
                -0.8764055089361148,
                1.157091943469991
            ]
        },
        {
            "positions": [
                -0.04302133584525646,
                -1.9904277541932163,
                -2.080567628064268,
                -0.6854146812603359,
                -0.9328514900719898,
                1.3134540622433049
            ]
        },
        {
            "positions": [
                -0.04237442297463081,
                -2.0018346407696495,
                -2.0595915566155574,
                -0.8236900823949083,
                -0.9892974712078648,
                1.4698161810166188
            ]
        },
        {
            "positions": [
                -0.041727510104005154,
                -2.013241527346083,
                -2.0386154851668468,
                -0.9619654835294809,
                -1.0457434523437397,
                1.6261782997899328
            ]
        },
        {
            "positions": [
                -0.0410805972333795,
                -2.0246484139225163,
                -2.017639413718136,
                -1.1002408846640537,
                -1.102189433479615,
                1.7825404185632472
            ]
        },
        {
            "positions": [
                -0.040433684362753845,
                -2.0360553004989494,
                -1.9966633422694253,
                -1.2385162857986265,
                -1.1586354146154898,
                1.9389025373365607
            ]
        },
        {
            "positions": [
                -0.03978677149212819,
                -2.047462187075383,
                -1.9756872708207147,
                -1.3767916869331989,
                -1.2150813957513649,
                2.0952646561098747
            ]
        },
        {
            "positions": [
                -0.039139858621502537,
                -2.0588690736518163,
                -1.954711199372004,
                -1.5150670880677712,
                -1.27152737688724,
                2.2516267748831886
            ]
        },
        {
            "positions": [
                -0.038492945750876875,
                -2.0702759602282494,
                -1.9337351279232935,
                -1.653342489202344,
                -1.3279733580231148,
                2.4079888936565026
            ]
        },
        {
            "positions": [
                -0.03784603288025122,
                -2.081682846804683,
                -1.9127590564745829,
                -1.7916178903369169,
                -1.38441933915899,
                2.5643510124298166
            ]
        },
        {
            "positions": [
                -0.037199120009625566,
                -2.0930897333811163,
                -1.891782985025872,
                -1.9298932914714892,
                -1.440865320294865,
                2.7207131312031305
            ]
        },
        {
            "positions": [
                -0.03655220713899991,
                -2.1044966199575494,
                -1.8708069135771614,
                -2.0681686926060614,
                -1.4973113014307398,
                2.8770752499764445
            ]
        },
        {
            "positions": [
                -0.03590529426837426,
                -2.115903506533983,
                -1.8498308421284508,
                -2.206444093740635,
                -1.553757282566615,
                3.0334373687497584
            ]
        },
        {
            "positions": [
                -0.0352583813977486,
                -2.1273103931104163,
                -1.8288547706797402,
                -2.3447194948752075,
                -1.6102032637024901,
                3.1897994875230724
            ]
        }
    ]
}