{
    "goal": {
        "global_pose": {
            "orientation": {
                "w": 0.5084816262002911,
                "x": -0.4908360881923452,
                "y": 0.5182115481033761,
                "z": -0.48164630358495003
            },
            "position": {
                "x": 0.5540239810943604,
                "y": -0.46912469901144505,
                "z": 0.16403168439865112
            }
        },
        "name": "move_to_storage_B"
    },
    "id": "RRTConnect_move_to_storage_B_78",
    "joint_names": [
        "shoulder_pan_joint",
        "shoulder_lift_joint",
        "elbow_joint",
        "wrist_1_joint",
        "wrist_2_joint",
        "wrist_3_joint"
    ],
    "metrics": {
        "cart_traj_len": 1.2406275983985109,
        "distance_elbow_joint": 0.4193930817365046,
        "distance_shoulder_lift_joint": 0.45785202811745407,
        "distance_shoulder_pan_joint": 1.0989932425504794,
        "distance_wrist_1_joint": 2.9887875708133937,
        "distance_wrist_2_joint": 2.7014661584058035,
        "distance_wrist_3_joint": 3.1488621784659907,
        "smoothness": 0.10394856094691952,
        "time": 0.132569579,
        "traj_len": 3.288670591605311,
        "weighted_distance": 4.775283483338011
    },
    "planner": "RRTConnect",
    "start": {
        "state": {
            "elbow_joint": 1.664937868594044,
            "shoulder_lift_joint": -0.661644460510453,
            "shoulder_pan_joint": -0.9139846352900073,
            "wrist_1_joint": 2.146753192139373,
            "wrist_2_joint": -2.2341966793290973,
            "wrist_3_joint": 0.005466555786416001
        }
    },
    "waypoints": [
        {
            "positions": [
                -0.9139846352900073,
                -0.661644460510453,
                1.664937868594044,
                2.146753192139373,
                -2.2341966793290973,
                0.005466555786416001
            ]
        },
        {
            "positions": [
                -0.8221646209667487,
                -0.7280914469948089,
                1.6579462620893917,
                2.133177671377114,
                -2.1047015259848876,
                0.0574457911352626
            ]
        },
        {
            "positions": [
                -0.7303446066434901,
                -0.7945384334791648,
                1.6509546555847394,
                2.1196021506148544,
                -1.9752063726406774,
                0.1094250264841092
            ]
        },
        {
            "positions": [
                -0.6385245923202315,
                -0.8609854199635207,
                1.6439630490800874,
                2.106026629852595,
                -1.8457112192964678,
                0.16140426183295578
            ]
        },
        {
            "positions": [
                -0.5467045779969728,
                -0.9274324064478766,
                1.6369714425754351,
                2.0924511090903355,
                -1.7162160659522576,
                0.2133834971818024
            ]
        },
        {
            "positions": [
                -0.45488456367371427,
                -0.9938793929322325,
                1.629979836070783,
                2.078875588328076,
                -1.586720912608048,
                0.265362732530649
            ]
        },
        {
            "positions": [
                -0.48270600588824414,
                -0.9993410057885662,
                1.6466944034278805,
                1.951879502806246,
                -1.4974169825347978,
                0.39096994999681234
            ]
        },
        {
            "positions": [
                -0.510527448102774,
                -1.0048026186449,
                1.663408970784978,
                1.8248834172844155,
                -1.4081130524615475,
                0.5165771674629758
            ]
        },
        {
            "positions": [
                -0.5383488903173038,
                -1.0102642315012336,
                1.6801235381420756,
                1.697887331762585,
                -1.3188091223882974,
                0.6421843849291391
            ]
        },
        {
            "positions": [
                -0.5661703325318337,
                -1.0157258443575672,
                1.696838105499173,
                1.570891246240755,
                -1.2295051923150473,
                0.7677916023953024
            ]
        },
        {
            "positions": [
                -0.5939917747463634,
                -1.0211874572139008,
                1.7135526728562707,
                1.4438951607189248,
                -1.140201262241797,
                0.8933988198614659
            ]
        },
        {
            "positions": [
                -0.6218132169608933,
                -1.0266490700702346,
                1.730267240213368,
                1.3168990751970944,
                -1.0508973321685469,
                1.019006037327629
            ]
        },
        {
            "positions": [
                -0.6496346591754232,
                -1.0321106829265683,
                1.7469818075704657,
                1.189902989675264,
                -0.9615934020952966,
                1.1446132547937926
            ]
        },
        {
            "positions": [
                -0.677456101389953,
                -1.0375722957829019,
                1.7636963749275631,
                1.0629069041534338,
                -0.8722894720220465,
                1.2702204722599557
            ]
        },
        {
            "positions": [
                -0.7052775436044829,
                -1.0430339086392355,
                1.7804109422846608,
                0.9359108186316034,
                -0.7829855419487962,
                1.3958276897261195
            ]
        },
        {
            "positions": [
                -0.7330989858190127,
                -1.0484955214955693,
                1.7971255096417584,
                0.8089147331097732,
                -0.6936816118755461,
                1.5214349071922828
            ]
        },
        {
            "positions": [
                -0.7609204280335425,
                -1.053957134351903,
                1.8138400769988559,
                0.6819186475879428,
                -0.6043776818022959,
                1.6470421246584461
            ]
        },
        {
            "positions": [
                -0.7887418702480724,
                -1.0594187472082366,
                1.8305546443559535,
                0.5549225620661127,
                -0.5150737517290458,
                1.7726493421246095
            ]
        },
        {
            "positions": [
                -0.8165633124626022,
                -1.0648803600645702,
                1.847269211713051,
                0.4279264765442825,
                -0.4257698216557957,
                1.8982565595907728
            ]
        },
        {
            "positions": [
                -0.8443847546771321,
                -1.070341972920904,
                1.8639837790701486,
                0.3009303910224519,
                -0.33646589158254536,
                2.023863777056936
            ]
        },
        {
            "positions": [
                -0.8722061968916619,
                -1.0758035857772377,
                1.8806983464272462,
                0.17393430550062172,
                -0.24716196150929526,
                2.1494709945230994
            ]
        },
        {
            "positions": [
                -0.9000276391061918,
                -1.0812651986335713,
                1.8974129137843436,
                0.04693821997879155,
                -0.15785803143604515,
                2.2750782119892627
            ]
        },
        {
            "positions": [
                -0.9278490813207216,
                -1.086726811489905,
                1.914127481141441,
                -0.08005786554303862,
                -0.06855410136279505,
                2.400685429455426
            ]
        },
        {
            "positions": [
                -0.9556705235352514,
                -1.0921884243462388,
                1.9308420484985387,
                -0.20705395106486923,
                0.020749828710455498,
                2.52629264692159
            ]
        },
        {
            "positions": [
                -0.9834919657497814,
                -1.0976500372025724,
                1.9475566158556363,
                -0.3340500365866994,
                0.1100537587837056,
                2.651899864387753
            ]
        },
        {
            "positions": [
                -1.0113134079643111,
                -1.103111650058906,
                1.9642711832127338,
                -0.4610461221085296,
                0.1993576888569557,
                2.7775070818539165
            ]
        },
        {
            "positions": [
                -1.0391348501788409,
                -1.1085732629152396,
                1.9809857505698314,
                -0.5880422076303597,
                0.2886616189302058,
                2.9031142993200794
            ]
        },
        {
            "positions": [
                -1.0669562923933709,
                -1.1140348757715735,
                1.9977003179269288,
                -0.7150382931521904,
                0.37796554900345614,
                3.028721516786243
            ]
        },
        {
            "positions": [
                -1.0947777346079006,
                -1.119496488627907,
                2.0144148852840265,
                -0.8420343786740204,
                0.46726947907670635,
                3.1543287342524065
            ]
        }
    ]
}