{
    "goal": {
        "global_pose": {
            "orientation": {
                "w": -0.4816463035849501,
                "x": 0.5182115481033762,
                "y": 0.4908360881923453,
                "z": -0.5084816262002911
            },
            "position": {
                "x": -0.8240239810943604,
                "y": 0.19912469901144506,
                "z": 0.16403168439865112
            }
        },
        "name": "move_to_storage_D"
    },
    "id": "RRTConnect_move_to_storage_D_150",
    "joint_names": [
        "shoulder_pan_joint",
        "shoulder_lift_joint",
        "elbow_joint",
        "wrist_1_joint",
        "wrist_2_joint",
        "wrist_3_joint"
    ],
    "metrics": {
        "cart_traj_len": 4.807305924686984,
        "distance_elbow_joint": 4.209102985146,
        "distance_shoulder_lift_joint": 1.361309641013213,
        "distance_shoulder_pan_joint": 2.8129067866334463,
        "distance_wrist_1_joint": 2.262941097962811,
        "distance_wrist_2_joint": 2.0619626790767622,
        "distance_wrist_3_joint": 3.1339206094351986,
        "smoothness": 0.0547074002685478,
        "time": 0.098620043,
        "traj_len": 3.9802190642309414,
        "weighted_distance": 5.141487021784399
    },
    "planner": "RRTConnect",
    "start": {
        "state": {
            "elbow_joint": -2.384821988534728,
            "shoulder_lift_joint": -2.2788054721415256,
            "shoulder_pan_joint": -0.1854694642142757,
            "wrist_1_joint": 1.4845938289331202,
            "wrist_2_joint": 0.17898776772866878,
            "wrist_3_joint": 0.037105688729662994
        }
    },
    "waypoints": [
        {
            "positions": [
                -0.1854694642142757,
                -2.2788054721415256,
                -2.384821988534728,
                1.4845938289331202,
                0.17898776772866878,
                0.037105688729662994
            ]
        },
        {
            "positions": [
                -0.117247299732087,
                -2.2816700011119604,
                -2.263636421915518,
                1.3899241798547155,
                0.26552266745226955,
                0.05756106310272579
            ]
        },
        {
            "positions": [
                -0.049025135249898294,
                -2.2845345300823947,
                -2.142450855296308,
                1.2952545307763106,
                0.35205756717587033,
                0.07801643747578858
            ]
        },
        {
            "positions": [
                0.01919702923229044,
                -2.2873990590528295,
                -2.0212652886770983,
                1.200584881697906,
                0.43859246689947107,
                0.09847181184885137
            ]
        },
        {
            "positions": [
                0.08741919371447912,
                -2.290263588023264,
                -1.9000797220578884,
                1.105915232619501,
                0.5251273666230718,
                0.11892718622191417
            ]
        },
        {
            "positions": [
                0.15564135819666783,
                -2.2931281169936986,
                -1.7788941554386786,
                1.011245583541096,
                0.6116622663466726,
                0.13938256059497695
            ]
        },
        {
            "positions": [
                0.2238635226788566,
                -2.295992645964133,
                -1.6577085888194687,
                0.9165759344626914,
                0.6981971660702734,
                0.15983793496803977
            ]
        },
        {
            "positions": [
                0.2920856871610452,
                -2.2988571749345676,
                -1.536523022200259,
                0.8219062853842867,
                0.7847320657938741,
                0.18029330934110255
            ]
        },
        {
            "positions": [
                0.360307851643234,
                -2.301721703905002,
                -1.4153374555810492,
                0.7272366363058819,
                0.8712669655174748,
                0.20074868371416535
            ]
        },
        {
            "positions": [
                0.42853001612542274,
                -2.3045862328754367,
                -1.2941518889618393,
                0.632566987227477,
                0.9578018652410757,
                0.22120405808722812
            ]
        },
        {
            "positions": [
                0.4967521806076114,
                -2.307450761845871,
                -1.1729663223426294,
                0.5378973381490721,
                1.0443367649646764,
                0.24165943246029092
            ]
        },
        {
            "positions": [
                0.5649743450898002,
                -2.310315290816306,
                -1.0517807557234196,
                0.44322768907066745,
                1.1308716646882773,
                0.26211480683335375
            ]
        },
        {
            "positions": [
                0.6331965095719889,
                -2.31317981978674,
                -0.9305951891042097,
                0.34855803999226254,
                1.2174065644118781,
                0.2825701812064165
            ]
        },
        {
            "positions": [
                0.7014186740541775,
                -2.316044348757175,
                -0.809409622485,
                0.25388839091385784,
                1.3039414641354787,
                0.3030255555794793
            ]
        },
        {
            "positions": [
                0.7696408385363662,
                -2.3189088777276092,
                -0.6882240558657902,
                0.15921874183545315,
                1.3904763638590796,
                0.3234809299525421
            ]
        },
        {
            "positions": [
                0.8378630030185549,
                -2.321773406698044,
                -0.5670384892465803,
                0.06454909275704823,
                1.4770112635826804,
                0.34393630432560485
            ]
        },
        {
            "positions": [
                0.9060851675007436,
                -2.3246379356684783,
                -0.4458529226273704,
                -0.030120556321356462,
                1.563546163306281,
                0.36439167869866773
            ]
        },
        {
            "positions": [
                0.9743073319829324,
                -2.327502464638913,
                -0.32466735600816043,
                -0.12479020539976143,
                1.650081063029882,
                0.3848470530717305
            ]
        },
        {
            "positions": [
                1.043187748251109,
                -2.2728102709507536,
                -0.2351278413156841,
                -0.15202174971767513,
                1.6254615053725674,
                0.5009378549506109
            ]
        },
        {
            "positions": [
                1.1120681645192856,
                -2.218118077262594,
                -0.14558832662320773,
                -0.17925329403558882,
                1.6008419477152527,
                0.6170286568294914
            ]
        },
        {
            "positions": [
                1.1809485807874622,
                -2.163425883574435,
                -0.05604881193073136,
                -0.20648483835350254,
                1.5762223900579382,
                0.7331194587083719
            ]
        },
        {
            "positions": [
                1.2498289970556389,
                -2.1087336898862756,
                0.033490702761744984,
                -0.23371638267141623,
                1.5516028324006237,
                0.8492102605872524
            ]
        },
        {
            "positions": [
                1.3187094133238153,
                -2.054041496198116,
                0.12303021745422138,
                -0.26094792698932995,
                1.526983274743309,
                0.9653010624661329
            ]
        },
        {
            "positions": [
                1.387589829591992,
                -1.9993493025099567,
                0.21256973214669772,
                -0.28817947130724364,
                1.5023637170859945,
                1.0813918643450133
            ]
        },
        {
            "positions": [
                1.4564702458601686,
                -1.9446571088217972,
                0.3021092468391742,
                -0.3154110156251574,
                1.47774415942868,
                1.1974826662238938
            ]
        },
        {
            "positions": [
                1.525350662128345,
                -1.889964915133638,
                0.3916487615316504,
                -0.342642559943071,
                1.4531246017713653,
                1.3135734681027742
            ]
        },
        {
            "positions": [
                1.594231078396522,
                -1.8352727214454785,
                0.48118827622412674,
                -0.36987410426098477,
                1.4285050441140508,
                1.4296642699816549
            ]
        },
        {
            "positions": [
                1.6631114946646983,
                -1.780580527757319,
                0.5707277909166032,
                -0.39710564857889846,
                1.4038854864567363,
                1.5457550718605353
            ]
        },
        {
            "positions": [
                1.7319919109328747,
                -1.7258883340691598,
                0.6602673056090794,
                -0.42433719289681215,
                1.3792659287994216,
                1.6618458737394157
            ]
        },
        {
            "positions": [
                1.8008723272010516,
                -1.6711961403810003,
                0.7498068203015559,
                -0.45156873721472585,
                1.354646371142107,
                1.7779366756182962
            ]
        },
        {
            "positions": [
                1.869752743469228,
                -1.6165039466928408,
                0.8393463349940321,
                -0.47880028153263954,
                1.3300268134847926,
                1.8940274774971766
            ]
        },
        {
            "positions": [
                1.938633159737405,
                -1.5618117530046813,
                0.9288858496865088,
                -0.5060318258505533,
                1.3054072558274779,
                2.0101182793760572
            ]
        },
        {
            "positions": [
                2.0075135760055813,
                -1.507119559316522,
                1.018425364378985,
                -0.533263370168467,
                1.2807876981701634,
                2.1262090812549372
            ]
        },
        {
            "positions": [
                2.0763939922737578,
                -1.4524273656283628,
                1.1079648790714614,
                -0.5604949144863807,
                1.2561681405128489,
                2.2422998831338177
            ]
        },
        {
            "positions": [
                2.1452744085419346,
                -1.3977351719402034,
                1.1975043937639378,
                -0.5877264588042943,
                1.2315485828555341,
                2.3583906850126986
            ]
        },
        {
            "positions": [
                2.214154824810111,
                -1.3430429782520439,
                1.2870439084564138,
                -0.614958003122208,
                1.2069290251982197,
                2.4744814868915794
            ]
        },
        {
            "positions": [
                2.2830352410782875,
                -1.2883507845638846,
                1.3765834231488903,
                -0.6421895474401218,
                1.1823094675409052,
                2.590572288770459
            ]
        },
        {
            "positions": [
                2.3519156573464644,
                -1.233658590875725,
                1.4661229378413667,
                -0.6694210917580354,
                1.1576899098835904,
                2.7066630906493403
            ]
        },
        {
            "positions": [
                2.4207960736146408,
                -1.1789663971875657,
                1.5556624525338432,
                -0.6966526360759491,
                1.133070352226276,
                2.8227538925282207
            ]
        },
        {
            "positions": [
                2.489676489882817,
                -1.1242742034994064,
                1.6452019672263192,
                -0.7238841803938629,
                1.1084507945689615,
                2.938844694407101
            ]
        },
        {
            "positions": [
                2.558556906150994,
                -1.0695820098112467,
                1.7347414819187956,
                -0.7511157247117766,
                1.0838312369116467,
                3.0549354962859816
            ]
        },
        {
            "positions": [
                2.6274373224191705,
                -1.0148898161230875,
                1.8242809966112723,
                -0.7783472690296903,
                1.0592116792543322,
                3.1710262981648616
            ]
        }
    ]
}