{
    "goal": {
        "global_pose": {
            "orientation": {
                "w": 0.5084816217422485,
                "x": -0.49083608388900757,
                "y": 0.5182115435600281,
                "z": -0.4816462993621826
            },
            "position": {
                "x": 0.5540239810943604,
                "y": 0.030875300988554955,
                "z": 0.16403168439865112
            }
        },
        "name": "move_to_storage_A"
    },
    "id": "RRTConnect_move_to_storage_A_81",
    "joint_names": [
        "shoulder_pan_joint",
        "shoulder_lift_joint",
        "elbow_joint",
        "wrist_1_joint",
        "wrist_2_joint",
        "wrist_3_joint"
    ],
    "metrics": {
        "cart_traj_len": 0.3536948285665761,
        "distance_elbow_joint": 0.4495489510387205,
        "distance_shoulder_lift_joint": 0.2348561766866888,
        "distance_shoulder_pan_joint": 0.46450248418608125,
        "distance_wrist_1_joint": 0.24308684610327036,
        "distance_wrist_2_joint": 1.0912392000510134,
        "distance_wrist_3_joint": 0.09452063991449755,
        "smoothness": 6.661338165333112e-16,
        "time": 0.049701164,
        "traj_len": 1.6055386317308817,
        "weighted_distance": 2.025122619488398
    },
    "planner": "RRTConnect",
    "start": {
        "state": {
            "elbow_joint": 1.971548259319323,
            "shoulder_lift_joint": -1.1394851275133948,
            "shoulder_pan_joint": 0.1228115487234821,
            "wrist_1_joint": -0.7804723859257726,
            "wrist_2_joint": 0.12958671773740124,
            "wrist_3_joint": -3.192489227718131
        }
    },
    "waypoints": [
        {
            "positions": [
                0.1228115487234821,
                -1.1394851275133948,
                1.971548259319323,
                -0.7804723859257726,
                0.12958671773740124,
                -3.192489227718131
            ]
        },
        {
            "positions": [
                0.05645405098261336,
                -1.1730360098972075,
                2.03576953803914,
                -0.8151990782262398,
                0.2854780320304031,
                -3.1789862791589174
            ]
        },
        {
            "positions": [
                -0.009903446758255385,
                -1.2065868922810201,
                2.0999908167589574,
                -0.849925770526707,
                0.4413693463234051,
                -3.165483330599703
            ]
        },
        {
            "positions": [
                -0.07626094449912413,
                -1.2401377746648328,
                2.1642120954787747,
                -0.8846524628271741,
                0.5972606606164069,
                -3.1519803820404895
            ]
        },
        {
            "positions": [
                -0.14261844223999287,
                -1.2736886570486456,
                2.228433374198592,
                -0.9193791551276413,
                0.7531519749094089,
                -3.1384774334812753
            ]
        },
        {
            "positions": [
                -0.20897593998086167,
                -1.3072395394324583,
                2.292654652918409,
                -0.9541058474281086,
                0.9090432892024108,
                -3.1249744849220615
            ]
        },
        {
            "positions": [
                -0.27533343772173036,
                -1.340790421816271,
                2.356875931638226,
                -0.9888325397285758,
                1.0649346034954126,
                -3.1114715363628473
            ]
        },
        {
            "positions": [
                -0.34169093546259915,
                -1.3743413042000836,
                2.4210972103580435,
                -1.023559232029043,
                1.2208259177884146,
                -3.0979685878036336
            ]
        }
    ]
}{
    "goal": {
        "global_pose": {
            "orientation": {
                "w": 0.5084816217422485,
                "x": -0.49083608388900757,
                "y": 0.5182115435600281,
                "z": -0.4816462993621826
            },
            "position": {
                "x": 0.5540239810943604,
                "y": 0.030875300988554955,
                "z": 0.16403168439865112
            }
        },
        "name": "move_to_storage_A"
    },
    "id": "RRTConnect_move_to_storage_A_81",
    "joint_names": [
        "shoulder_pan_joint",
        "shoulder_lift_joint",
        "elbow_joint",
        "wrist_1_joint",
        "wrist_2_joint",
        "wrist_3_joint"
    ],
    "metrics": {
        "cart_traj_len": 0.35363291569265454,
        "distance_elbow_joint": 0.45078565841266327,
        "distance_shoulder_lift_joint": 0.2361257302957318,
        "distance_shoulder_pan_joint": 0.4620045151912008,
        "distance_wrist_1_joint": 0.23914491767509194,
        "distance_wrist_2_joint": 1.103060307569601,
        "distance_wrist_3_joint": 0.08955592137994195,
        "smoothness": 0.0,
        "time": 0.042880255,
        "traj_len": 1.606448583218346,
        "weighted_distance": 2.025338025745038
    },
    "planner": "RRTConnect",
    "start": {
        "state": {
            "elbow_joint": 1.97154746011099,
            "shoulder_lift_joint": -1.13948474672311,
            "shoulder_pan_joint": 0.12281154466712228,
            "wrist_1_joint": -0.7804688027058302,
            "wrist_2_joint": 0.12958655903071145,
            "wrist_3_joint": 3.0906928834467795
        }
    },
    "waypoints": [
        {
            "positions": [
                0.12281154466712228,
                -1.13948474672311,
                1.97154746011099,
                -0.7804688027058302,
                0.12958655903071145,
                3.0906928834467795
            ]
        },
        {
            "positions": [
                0.056810899639807885,
                -1.1732169939082144,
                2.035945411312799,
                -0.8146323623737005,
                0.2871666029692259,
                3.103486586501057
            ]
        },
        {
            "positions": [
                -0.009189745387506512,
                -1.2069492410933191,
                2.100343362514608,
                -0.8487959220415707,
                0.44474664690774035,
                3.1162802895553345
            ]
        },
        {
            "positions": [
                -0.07519039041482091,
                -1.2406814882784236,
                2.164741313716417,
                -0.882959481709441,
                0.6023266908462548,
                3.129073992609612
            ]
        },
        {
            "positions": [
                -0.1411910354421353,
                -1.274413735463528,
                2.229139264918226,
                -0.9171230413773113,
                0.7599067347847692,
                3.141867695663889
            ]
        },
        {
            "positions": [
                -0.2071916804694497,
                -1.3081459826486328,
                2.2935372161200354,
                -0.9512866010451816,
                0.9174867787232837,
                3.1546613987181664
            ]
        },
        {
            "positions": [
                -0.2731923254967641,
                -1.3418782298337373,
                2.3579351673218443,
                -0.9854501607130518,
                1.075066822661798,
                3.167455101772444
            ]
        },
        {
            "positions": [
                -0.3391929705240785,
                -1.3756104770188418,
                2.422333118523653,
                -1.0196137203809221,
                1.2326468666003125,
                3.1802488048267215
            ]
        }
    ]
}{
    "goal": {
        "global_pose": {
            "orientation": {
                "w": 0.5084816217422485,
                "x": -0.49083608388900757,
                "y": 0.5182115435600281,
                "z": -0.4816462993621826
            },
            "position": {
                "x": 0.5540239810943604,
                "y": 0.030875300988554955,
                "z": 0.16403168439865112
            }
        },
        "name": "move_to_storage_A"
    },
    "id": "RRTConnect_move_to_storage_A_81",
    "joint_names": [
        "shoulder_pan_joint",
        "shoulder_lift_joint",
        "elbow_joint",
        "wrist_1_joint",
        "wrist_2_joint",
        "wrist_3_joint"
    ],
    "metrics": {
        "cart_traj_len": 0.3529331008112929,
        "distance_elbow_joint": 0.4484316919477003,
        "distance_shoulder_lift_joint": 0.2346643841002587,
        "distance_shoulder_pan_joint": 0.46135354462041767,
        "distance_wrist_1_joint": 0.23848535385982195,
        "distance_wrist_2_joint": 1.0989446765457291,
        "distance_wrist_3_joint": 0.09199945521712305,
        "smoothness": 6.661338165333112e-16,
        "time": 0.043420505,
        "traj_len": 1.604331358009015,
        "weighted_distance": 2.0236867462951986
    },
    "planner": "RRTConnect",
    "start": {
        "state": {
            "elbow_joint": 1.9715472970024885,
            "shoulder_lift_joint": -1.1394870060712896,
            "shoulder_pan_joint": 0.12281152778156021,
            "wrist_1_joint": -0.780463741449964,
            "wrist_2_joint": 0.12958659822042276,
            "wrist_3_joint": 3.090690232415272
        }
    },
    "waypoints": [
        {
            "positions": [
                0.12281152778156021,
                -1.1394870060712896,
                1.9715472970024885,
                -0.780463741449964,
                0.12958659822042276,
                3.090690232415272
            ]
        },
        {
            "positions": [
                0.05690387855007198,
                -1.1730104895141837,
                2.0356089672807314,
                -0.8145330777156529,
                0.28657869486981263,
                3.1038330117320037
            ]
        },
        {
            "positions": [
                -0.009003770681416251,
                -1.2065339729570779,
                2.099670637558974,
                -0.8486024139813417,
                0.44357079151920253,
                3.1169757910487355
            ]
        },
        {
            "positions": [
                -0.07491141991290448,
                -1.240057456399972,
                2.163732307837217,
                -0.8826717502470305,
                0.6005628881685924,
                3.1301185703654673
            ]
        },
        {
            "positions": [
                -0.1408190691443927,
                -1.273580939842866,
                2.22779397811546,
                -0.9167410865127193,
                0.7575549848179822,
                3.1432613496821995
            ]
        },
        {
            "positions": [
                -0.206726718375881,
                -1.30710442328576,
                2.291855648393703,
                -0.9508104227784082,
                0.9145470814673722,
                3.1564041289989313
            ]
        },
        {
            "positions": [
                -0.27263436760736914,
                -1.3406279067286542,
                2.355917318671946,
                -0.9848797590440971,
                1.071539178116762,
                3.169546908315663
            ]
        },
        {
            "positions": [
                -0.33854201683885743,
                -1.3741513901715483,
                2.419978988950189,
                -1.018949095309786,
                1.2285312747661519,
                3.182689687632395
            ]
        }
    ]
}