{
    "goal": {
        "global_pose": {
            "orientation": {
                "w": -0.00223480608172531,
                "x": 0.0024358444001904467,
                "y": 0.7094548369677653,
                "z": -0.704743149386269
            },
            "position": {
                "x": -0.37947507619857795,
                "y": -0.6371506643295288,
                "z": 0.19426114857196808
            }
        },
        "name": "move_to_magneteinheit_C"
    },
    "id": "RRTConnect_move_to_magneteinheit_C_150",
    "joint_names": [
        "shoulder_pan_joint",
        "shoulder_lift_joint",
        "elbow_joint",
        "wrist_1_joint",
        "wrist_2_joint",
        "wrist_3_joint"
    ],
    "metrics": {
        "cart_traj_len": 1.2565931400795833,
        "distance_elbow_joint": 0.29408207499590366,
        "distance_shoulder_lift_joint": 0.5377110134374701,
        "distance_shoulder_pan_joint": 1.6437104529751358,
        "distance_wrist_1_joint": 0.727498456328527,
        "distance_wrist_2_joint": 1.788597616881994,
        "distance_wrist_3_joint": 4.1346150809694215,
        "smoothness": 0.6505635031433689,
        "time": 0.12346645,
        "traj_len": 3.0209625445523898,
        "weighted_distance": 4.462234970363821
    },
    "planner": "RRTConnect",
    "start": {
        "state": {
            "elbow_joint": 1.9565354010623817,
            "shoulder_lift_joint": -1.4165861575791021,
            "shoulder_pan_joint": -1.6717766225146293,
            "wrist_1_joint": -0.5286633292919765,
            "wrist_2_joint": 1.472756589071564,
            "wrist_3_joint": -3.1238370188695823
        }
    },
    "waypoints": [
        {
            "positions": [
                -1.6717766225146293,
                -1.4165861575791021,
                1.9565354010623817,
                -0.5286633292919765,
                1.472756589071564,
                -3.1238370188695823
            ]
        },
        {
            "positions": [
                -1.600423276913783,
                -1.4410816200116776,
                1.9732126993747081,
                -0.503581544891898,
                1.4279928442453773,
                -2.9589528187500536
            ]
        },
        {
            "positions": [
                -1.5290699313129366,
                -1.4655770824442529,
                1.9898899976870348,
                -0.4784997604918195,
                1.3832290994191907,
                -2.7940686186305244
            ]
        },
        {
            "positions": [
                -1.45771658571209,
                -1.4900725448768284,
                2.0065672959993615,
                -0.45341797609174106,
                1.3384653545930043,
                -2.6291844185109956
            ]
        },
        {
            "positions": [
                -1.3863632401112436,
                -1.5145680073094037,
                2.023244594311688,
                -0.4283361916916626,
                1.2937016097668177,
                -2.4643002183914664
            ]
        },
        {
            "positions": [
                -1.3150098945103972,
                -1.5390634697419792,
                2.0399218926240144,
                -0.4032544072915841,
                1.248937864940631,
                -2.2994160182719376
            ]
        },
        {
            "positions": [
                -1.3251766308495876,
                -1.5422589175915373,
                2.050207936646136,
                -0.3883050705786874,
                1.1288053374934315,
                -2.0942128385201144
            ]
        },
        {
            "positions": [
                -1.3353433671887782,
                -1.5454543654410957,
                2.0604939806682574,
                -0.37335573386579074,
                1.0086728100462319,
                -1.8890096587682907
            ]
        },
        {
            "positions": [
                -1.3455101035279686,
                -1.5486498132906539,
                2.070780024690379,
                -0.358406397152894,
                0.8885402825990322,
                -1.6838064790164673
            ]
        },
        {
            "positions": [
                -1.355676839867159,
                -1.551845261140212,
                2.081066068712501,
                -0.3434570604399973,
                0.7684077551518326,
                -1.4786032992646438
            ]
        },
        {
            "positions": [
                -1.3658435762063497,
                -1.5550407089897704,
                2.091352112734622,
                -0.3285077237271006,
                0.6482752277046329,
                -1.2734001195128204
            ]
        },
        {
            "positions": [
                -1.37601031254554,
                -1.5582361568393286,
                2.101638156756744,
                -0.3135583870142039,
                0.5281427002574333,
                -1.068196939760997
            ]
        },
        {
            "positions": [
                -1.5040058405459817,
                -1.5186787103307153,
                2.0881334103648346,
                -0.34981254128629385,
                0.48877694963628,
                -1.1693403067619978
            ]
        },
        {
            "positions": [
                -1.6320013685464234,
                -1.4791212638221019,
                2.0746286639729257,
                -0.3860666955583838,
                0.4494111990151267,
                -1.270483673762999
            ]
        },
        {
            "positions": [
                -1.7599968965468649,
                -1.4395638173134886,
                2.0611239175810163,
                -0.4223208498304738,
                0.4100454483939734,
                -1.3716270407639999
            ]
        },
        {
            "positions": [
                -1.8879924245473068,
                -1.4000063708048753,
                2.0476191711891074,
                -0.45857500410256374,
                0.37067969777282017,
                -1.4727704077650008
            ]
        },
        {
            "positions": [
                -2.015987952547748,
                -1.3604489242962619,
                2.034114424797198,
                -0.49482915837465374,
                0.33131394715166684,
                -1.573913774766002
            ]
        },
        {
            "positions": [
                -2.14398348054819,
                -1.3208914777876486,
                2.020609678405289,
                -0.5310833126467437,
                0.29194819653051357,
                -1.6750571417670028
            ]
        },
        {
            "positions": [
                -2.2719790085486316,
                -1.2813340312790353,
                2.00710493201338,
                -0.5673374669188336,
                0.25258244590936024,
                -1.776200508768004
            ]
        },
        {
            "positions": [
                -2.399974536549073,
                -1.241776584770422,
                1.9936001856214707,
                -0.6035916211909236,
                0.21321669528820703,
                -1.8773438757690046
            ]
        },
        {
            "positions": [
                -2.527970064549515,
                -1.2022191382618086,
                1.9800954392295615,
                -0.6398457754630136,
                0.1738509446670537,
                -1.9784872427700058
            ]
        },
        {
            "positions": [
                -2.533286270290575,
                -1.1909804002770406,
                1.9827743829596551,
                -0.6754022320281903,
                0.25527238033434946,
                -2.1916914253047723
            ]
        },
        {
            "positions": [
                -2.5386024760316355,
                -1.1797416622922727,
                1.9854533266897487,
                -0.7109586885933671,
                0.3366938160016452,
                -2.4048956078395394
            ]
        },
        {
            "positions": [
                -2.522764690169219,
                -1.175350032384726,
                1.9909730052682917,
                -0.7397069917112649,
                0.41840609128736816,
                -2.5904646912851126
            ]
        },
        {
            "positions": [
                -2.5069269043068028,
                -1.1709584024771789,
                1.9964926838468346,
                -0.7684552948291627,
                0.5001183665730912,
                -2.776033774730686
            ]
        },
        {
            "positions": [
                -2.4910891184443864,
                -1.1665667725696318,
                2.0020123624253774,
                -0.7972035979470606,
                0.5818306418588142,
                -2.961602858176259
            ]
        },
        {
            "positions": [
                -2.47525133258197,
                -1.162175142662085,
                2.0075320410039206,
                -0.8259519010649584,
                0.6635429171445371,
                -3.1471719416218322
            ]
        }
    ]
}