{
    "goal": {
        "global_pose": {
            "orientation": {
                "w": 0.5084816217422485,
                "x": -0.49083608388900757,
                "y": 0.5182115435600281,
                "z": -0.4816462993621826
            },
            "position": {
                "x": 0.5540239810943604,
                "y": 0.030875300988554955,
                "z": 0.16403168439865112
            }
        },
        "name": "move_to_storage_A"
    },
    "id": "RRTConnect_move_to_storage_A_50",
    "joint_names": [
        "shoulder_pan_joint",
        "shoulder_lift_joint",
        "elbow_joint",
        "wrist_1_joint",
        "wrist_2_joint",
        "wrist_3_joint"
    ],
    "metrics": {
        "cart_traj_len": 0.35357658805264586,
        "distance_elbow_joint": 0.4498152594842997,
        "distance_shoulder_lift_joint": 0.23416189801717624,
        "distance_shoulder_pan_joint": 0.4637405874441243,
        "distance_wrist_1_joint": 0.24700605589765778,
        "distance_wrist_2_joint": 1.0931492586989568,
        "distance_wrist_3_joint": 0.09719382153456424,
        "smoothness": 5.551115138160447e-16,
        "time": 0.0353853,
        "traj_len": 1.6078143179723146,
        "weighted_distance": 2.0296822014154143
    },
    "planner": "RRTConnect",
    "start": {
        "state": {
            "elbow_joint": 1.971548259319323,
            "shoulder_lift_joint": -1.1394851275133948,
            "shoulder_pan_joint": 0.1228115487234821,
            "wrist_1_joint": -0.7804723859257726,
            "wrist_2_joint": 0.12958671773740124,
            "wrist_3_joint": -3.192489227718131
        }
    },
    "waypoints": [
        {
            "positions": [
                0.1228115487234821,
                -1.1394851275133948,
                1.971548259319323,
                -0.7804723859257726,
                0.12958671773740124,
                -3.192489227718131
            ]
        },
        {
            "positions": [
                0.05656289337432149,
                -1.1729368272301344,
                2.0358075821027946,
                -0.8157589653397237,
                0.28575089755153793,
                -3.178604396070336
            ]
        },
        {
            "positions": [
                -0.009685761974839113,
                -1.2063885269468737,
                2.100066904886266,
                -0.8510455447536749,
                0.4419150773656746,
                -3.1647195644225414
            ]
        },
        {
            "positions": [
                -0.07593441732399972,
                -1.2398402266636133,
                2.1643262276697373,
                -0.886332124167626,
                0.5980792571798113,
                -3.1508347327747463
            ]
        },
        {
            "positions": [
                -0.14218307267316033,
                -1.2732919263803526,
                2.2285855504532086,
                -0.921618703581577,
                0.754243436993948,
                -3.1369499011269517
            ]
        },
        {
            "positions": [
                -0.20843172802232096,
                -1.3067436260970922,
                2.29284487323668,
                -0.9569052829955282,
                0.9104076168080848,
                -3.1230650694791566
            ]
        },
        {
            "positions": [
                -0.27468038337148154,
                -1.3401953258138315,
                2.3571041960201513,
                -0.9921918624094792,
                1.0665717966222212,
                -3.109180237831362
            ]
        },
        {
            "positions": [
                -0.3409290387206422,
                -1.373647025530571,
                2.4213635188036227,
                -1.0274784418234304,
                1.2227359764363581,
                -3.095295406183567
            ]
        }
    ]
}{
    "goal": {
        "global_pose": {
            "orientation": {
                "w": 0.5084816217422485,
                "x": -0.49083608388900757,
                "y": 0.5182115435600281,
                "z": -0.4816462993621826
            },
            "position": {
                "x": 0.5540239810943604,
                "y": 0.030875300988554955,
                "z": 0.16403168439865112
            }
        },
        "name": "move_to_storage_A"
    },
    "id": "RRTConnect_move_to_storage_A_50",
    "joint_names": [
        "shoulder_pan_joint",
        "shoulder_lift_joint",
        "elbow_joint",
        "wrist_1_joint",
        "wrist_2_joint",
        "wrist_3_joint"
    ],
    "metrics": {
        "cart_traj_len": 0.35268621911211034,
        "distance_elbow_joint": 0.450552554409934,
        "distance_shoulder_lift_joint": 0.2331634855109994,
        "distance_shoulder_pan_joint": 0.4599851975416944,
        "distance_wrist_1_joint": 0.2485949481152787,
        "distance_wrist_2_joint": 1.1025843007099836,
        "distance_wrist_3_joint": 0.0885758213566259,
        "smoothness": 4.440892133664971e-16,
        "time": 0.044925123,
        "traj_len": 1.6073133819030176,
        "weighted_distance": 2.027754225536968
    },
    "planner": "RRTConnect",
    "start": {
        "state": {
            "elbow_joint": 1.97154746011099,
            "shoulder_lift_joint": -1.13948474672311,
            "shoulder_pan_joint": 0.12281154466712228,
            "wrist_1_joint": -0.7804688027058302,
            "wrist_2_joint": 0.12958655903071145,
            "wrist_3_joint": 3.0906928834467795
        }
    },
    "waypoints": [
        {
            "positions": [
                0.12281154466712228,
                -1.13948474672311,
                1.97154746011099,
                -0.7804688027058302,
                0.12958655903071145,
                3.0906928834467795
            ]
        },
        {
            "positions": [
                0.057099373589737365,
                -1.172793816081824,
                2.0359121107409806,
                -0.8159823667222986,
                0.2870986019892805,
                3.1033465722120117
            ]
        },
        {
            "positions": [
                -0.008612797487647553,
                -1.2061028854405385,
                2.100276761370971,
                -0.851495930738767,
                0.44461064494784963,
                3.116000260977244
            ]
        },
        {
            "positions": [
                -0.07432496856503247,
                -1.2394119547992526,
                2.164641412000962,
                -0.8870094947552354,
                0.6021226879064187,
                3.128653949742476
            ]
        },
        {
            "positions": [
                -0.14003713964241737,
                -1.2727210241579667,
                2.229006062630952,
                -0.9225230587717037,
                0.7596347308649878,
                3.1413076385077088
            ]
        },
        {
            "positions": [
                -0.2057493107198023,
                -1.3060300935166809,
                2.2933707132609427,
                -0.9580366227881721,
                0.9171467738235569,
                3.153961327272941
            ]
        },
        {
            "positions": [
                -0.2714614817971872,
                -1.3393391628753952,
                2.3577353638909333,
                -0.9935501868046405,
                1.0746588167821258,
                3.166615016038173
            ]
        },
        {
            "positions": [
                -0.3371736528745721,
                -1.3726482322341094,
                2.422100014520924,
                -1.029063750821109,
                1.232170859740695,
                3.1792687048034054
            ]
        }
    ]
}{
    "goal": {
        "global_pose": {
            "orientation": {
                "w": 0.5084816217422485,
                "x": -0.49083608388900757,
                "y": 0.5182115435600281,
                "z": -0.4816462993621826
            },
            "position": {
                "x": 0.5540239810943604,
                "y": 0.030875300988554955,
                "z": 0.16403168439865112
            }
        },
        "name": "move_to_storage_A"
    },
    "id": "RRTConnect_move_to_storage_A_50",
    "joint_names": [
        "shoulder_pan_joint",
        "shoulder_lift_joint",
        "elbow_joint",
        "wrist_1_joint",
        "wrist_2_joint",
        "wrist_3_joint"
    ],
    "metrics": {
        "cart_traj_len": 0.35327506300624106,
        "distance_elbow_joint": 0.44994642190432144,
        "distance_shoulder_lift_joint": 0.23552257570704405,
        "distance_shoulder_pan_joint": 0.4590576487062158,
        "distance_wrist_1_joint": 0.23730605082752532,
        "distance_wrist_2_joint": 1.1126106613652924,
        "distance_wrist_3_joint": 0.0894356162879304,
        "smoothness": 1.3322676292611541e-15,
        "time": 0.046120716000000006,
        "traj_len": 1.6074448590226444,
        "weighted_distance": 2.0279711338100963
    },
    "planner": "RRTConnect",
    "start": {
        "state": {
            "elbow_joint": 1.9715472970024885,
            "shoulder_lift_joint": -1.1394870060712896,
            "shoulder_pan_joint": 0.12281152778156021,
            "wrist_1_joint": -0.780463741449964,
            "wrist_2_joint": 0.12958659822042276,
            "wrist_3_joint": 3.090690232415272
        }
    },
    "waypoints": [
        {
            "positions": [
                0.12281152778156021,
                -1.1394870060712896,
                1.9715472970024885,
                -0.780463741449964,
                0.12958659822042276,
                3.090690232415272
            ]
        },
        {
            "positions": [
                0.05723186368067225,
                -1.173133088315153,
                2.0358253572745344,
                -0.8143646058538961,
                0.2885309784154645,
                3.103466749027833
            ]
        },
        {
            "positions": [
                -0.008347800420215712,
                -1.2067791705590165,
                2.1001034175465803,
                -0.8482654702578284,
                0.44747535861050625,
                3.116243265640395
            ]
        },
        {
            "positions": [
                -0.07392746452110369,
                -1.2404252528028799,
                2.164381477818626,
                -0.8821663346617605,
                0.606419738805548,
                3.129019782252956
            ]
        },
        {
            "positions": [
                -0.13950712862199163,
                -1.2740713350467434,
                2.228659538090672,
                -0.9160671990656928,
                0.7653641190005898,
                3.141796298865518
            ]
        },
        {
            "positions": [
                -0.20508679272287964,
                -1.3077174172906068,
                2.2929375983627183,
                -0.9499680634696249,
                0.9243084991956316,
                3.154572815478079
            ]
        },
        {
            "positions": [
                -0.27066645682376755,
                -1.34136349953447,
                2.357215658634764,
                -0.9838689278735571,
                1.0832528793906733,
                3.167349332090641
            ]
        },
        {
            "positions": [
                -0.33624612092465556,
                -1.3750095817783337,
                2.42149371890681,
                -1.0177697922774893,
                1.2421972595857151,
                3.1801258487032023
            ]
        }
    ]
}