{
    "goal": {
        "global_pose": {
            "orientation": {
                "w": 0.7031023502349854,
                "x": -0.7110244035720825,
                "y": 0.007748599164187908,
                "z": 0.005598929710686207
            },
            "position": {
                "x": 0.11585023208521307,
                "y": 0.44412534475326537,
                "z": 0.3711530566215515
            }
        },
        "name": "move_to_auspresseinheit_A"
    },
    "id": "RRTConnect_move_to_auspresseinheit_A_100",
    "joint_names": [
        "shoulder_pan_joint",
        "shoulder_lift_joint",
        "elbow_joint",
        "wrist_1_joint",
        "wrist_2_joint",
        "wrist_3_joint"
    ],
    "metrics": {
        "cart_traj_len": 0.9297322608200833,
        "distance_elbow_joint": 0.13762181547967156,
        "distance_shoulder_lift_joint": 1.152649404886103,
        "distance_shoulder_pan_joint": 1.0428003911324477,
        "distance_wrist_1_joint": 0.548369751107818,
        "distance_wrist_2_joint": 0.7312021691927658,
        "distance_wrist_3_joint": 0.6941641712219462,
        "smoothness": 1.2154354938671441,
        "time": 0.259632199,
        "traj_len": 2.0752849691116526,
        "weighted_distance": 2.640967240570248
    },
    "planner": "RRTConnect",
    "start": {
        "state": {
            "elbow_joint": 2.4225746658250005,
            "shoulder_lift_joint": -1.3736534386056498,
            "shoulder_pan_joint": -0.3378633547517467,
            "wrist_1_joint": -1.0288598680537169,
            "wrist_2_joint": 1.233022673432363,
            "wrist_3_joint": -3.0940220416140027
        }
    },
    "waypoints": [
        {
            "positions": [
                -0.3378633547517467,
                -1.3736534386056498,
                2.4225746658250005,
                -1.0288598680537169,
                1.233022673432363,
                -3.0940220416140027
            ]
        },
        {
            "positions": [
                -0.22212431341873493,
                -1.4792757827057907,
                2.4149972421120944,
                -1.0076506942150585,
                1.1542893931379892,
                -3.052166526609488
            ]
        },
        {
            "positions": [
                -0.10638527208572313,
                -1.5848981268059315,
                2.4074198183991884,
                -0.9864415203764003,
                1.0755561128436153,
                -3.0103110116049736
            ]
        },
        {
            "positions": [
                0.009353769247288646,
                -1.6905204709060724,
                2.3998423946862824,
                -0.965232346537742,
                0.9968228325492415,
                -2.968455496600459
            ]
        },
        {
            "positions": [
                0.12509281058030047,
                -1.7961428150062133,
                2.3922649709733763,
                -0.9440231726990838,
                0.9180895522548677,
                -2.9265999815959445
            ]
        },
        {
            "positions": [
                0.2408318519133123,
                -1.901765159106354,
                2.3846875472604707,
                -0.9228139988604254,
                0.8393562719604938,
                -2.88474446659143
            ]
        },
        {
            "positions": [
                0.356570893246324,
                -2.0073875032064947,
                2.3771101235475647,
                -0.9016048250217671,
                0.76062299166612,
                -2.8428889515869153
            ]
        },
        {
            "positions": [
                0.47230993457933584,
                -2.113009847306636,
                2.3695326998346586,
                -0.8803956511831088,
                0.6818897113717461,
                -2.801033436582401
            ]
        },
        {
            "positions": [
                0.5880489759123477,
                -2.2186321914067766,
                2.3619552761217526,
                -0.8591864773444505,
                0.6031564310773723,
                -2.759177921577886
            ]
        },
        {
            "positions": [
                0.6235882676268136,
                -2.1347952836540145,
                2.3550656723387142,
                -0.7617610856838065,
                0.6292632600342628,
                -2.8365597024499354
            ]
        },
        {
            "positions": [
                0.6591275593412795,
                -2.050958375901252,
                2.3481760685556763,
                -0.6643356940231625,
                0.6553700889911533,
                -2.913941483321985
            ]
        },
        {
            "positions": [
                0.6946668510557454,
                -1.9671214681484896,
                2.341286464772638,
                -0.5669103023625185,
                0.6814769179480439,
                -2.991323264194034
            ]
        },
        {
            "positions": [
                0.704937036380701,
                -1.9109615393218005,
                2.397620079199947,
                -0.4804901169458988,
                0.7044923579151473,
                -3.118497972763716
            ]
        }
    ]
}