{
    "goal": {
        "global_pose": {
            "orientation": {
                "w": -0.00223480608172531,
                "x": 0.0024358444001904467,
                "y": 0.7094548369677653,
                "z": -0.704743149386269
            },
            "position": {
                "x": 0.6205249238014221,
                "y": -0.6371506643295288,
                "z": 0.19426114857196808
            }
        },
        "name": "move_to_magneteinheit_B"
    },
    "id": "RRTConnect_move_to_magneteinheit_B_125",
    "joint_names": [
        "shoulder_pan_joint",
        "shoulder_lift_joint",
        "elbow_joint",
        "wrist_1_joint",
        "wrist_2_joint",
        "wrist_3_joint"
    ],
    "metrics": {
        "cart_traj_len": 1.8626267780928385,
        "distance_elbow_joint": 0.9548062328783353,
        "distance_shoulder_lift_joint": 1.191272038377139,
        "distance_shoulder_pan_joint": 1.6216889092498366,
        "distance_wrist_1_joint": 0.4748303527783122,
        "distance_wrist_2_joint": 2.374261031400054,
        "distance_wrist_3_joint": 0.33044458709777363,
        "smoothness": 0.50791807654214,
        "time": 0.143436501,
        "traj_len": 2.6357737292456367,
        "weighted_distance": 3.233772365234659
    },
    "planner": "RRTConnect",
    "start": {
        "state": {
            "elbow_joint": 2.6216224122426386,
            "shoulder_lift_joint": -1.4174107377796124,
            "shoulder_pan_joint": 0.7066234856936794,
            "wrist_1_joint": 1.9546482284002225,
            "wrist_2_joint": -0.7096286983471962,
            "wrist_3_joint": 0.005740856962016249
        }
    },
    "waypoints": [
        {
            "positions": [
                0.7066234856936794,
                -1.4174107377796124,
                2.6216224122426386,
                1.9546482284002225,
                -0.7096286983471962,
                0.005740856962016249
            ]
        },
        {
            "positions": [
                0.609299317612434,
                -1.436082813549718,
                2.6084904862877223,
                1.9274954472188117,
                -0.6355576506592076,
                -0.03917848352231543
            ]
        },
        {
            "positions": [
                0.5119751495311887,
                -1.4547548893198237,
                2.595358560332806,
                1.900342666037401,
                -0.5614866029712189,
                -0.0840978240066471
            ]
        },
        {
            "positions": [
                0.4146509814499434,
                -1.4734269650899292,
                2.5822266343778897,
                1.8731898848559903,
                -0.4874155552832303,
                -0.12901716449097878
            ]
        },
        {
            "positions": [
                0.3406906327778791,
                -1.5140196414678346,
                2.3949305254433377,
                1.8582376106541825,
                -0.43632210952655015,
                -0.13682993303142882
            ]
        },
        {
            "positions": [
                0.2667302841058148,
                -1.5546123178457403,
                2.2076344165087853,
                1.8432853364523747,
                -0.3852286637698701,
                -0.14464270157187886
            ]
        },
        {
            "positions": [
                0.19276993543375054,
                -1.595204994223646,
                2.0203383075742334,
                1.828333062250567,
                -0.33413521801318996,
                -0.1524554701123289
            ]
        },
        {
            "positions": [
                0.11880958676168624,
                -1.6357976706015513,
                1.8330421986396812,
                1.8133807880487591,
                -0.28304177225650984,
                -0.16026823865277895
            ]
        },
        {
            "positions": [
                0.032653335901865976,
                -1.5547239118052847,
                1.819190030366733,
                1.8411776974176632,
                -0.44534794769895714,
                -0.14656528102919741
            ]
        },
        {
            "positions": [
                -0.053502914957954284,
                -1.473650153009018,
                1.805337862093785,
                1.8689746067865673,
                -0.6076541231414044,
                -0.13286232340561588
            ]
        },
        {
            "positions": [
                -0.13965916581777454,
                -1.3925763942127514,
                1.7914856938208368,
                1.8967715161554715,
                -0.7699602985838517,
                -0.11915936578203433
            ]
        },
        {
            "positions": [
                -0.2258154166775948,
                -1.3115026354164847,
                1.7776335255478886,
                1.9245684255243753,
                -0.932266474026299,
                -0.1054564081584528
            ]
        },
        {
            "positions": [
                -0.31197166753741506,
                -1.230428876620218,
                1.7637813572749403,
                1.9523653348932795,
                -1.0945726494687462,
                -0.09175345053487124
            ]
        },
        {
            "positions": [
                -0.3981279183972353,
                -1.1493551178239514,
                1.7499291890019921,
                1.9801622442621836,
                -1.2568788249111935,
                -0.07805049291128971
            ]
        },
        {
            "positions": [
                -0.4842841692570556,
                -1.0682813590276847,
                1.7360770207290441,
                2.0079591536310875,
                -1.4191850003536408,
                -0.06434753528770816
            ]
        },
        {
            "positions": [
                -0.5704404201168758,
                -0.9872076002314182,
                1.722224852456096,
                2.0357560629999916,
                -1.5814911757960881,
                -0.05064457766412664
            ]
        },
        {
            "positions": [
                -0.6565966709766962,
                -0.9061338414351515,
                1.7083726841831477,
                2.0635529723688957,
                -1.7437973512385354,
                -0.03694162004054509
            ]
        },
        {
            "positions": [
                -0.7427529218365163,
                -0.8250600826388849,
                1.6945205159101997,
                2.0913498817378,
                -1.9061035266809827,
                -0.02323866241696354
            ]
        },
        {
            "positions": [
                -0.8289091726963367,
                -0.7439863238426182,
                1.6806683476372515,
                2.119146791106704,
                -2.06840970212343,
                -0.009535704793382005
            ]
        },
        {
            "positions": [
                -0.9150654235561569,
                -0.6629125650463515,
                1.6668161793643033,
                2.146943700475608,
                -2.2307158775658773,
                0.00416725283019954
            ]
        }
    ]
}