{
    "goal": {
        "global_pose": {
            "orientation": {
                "w": -0.00223480608172531,
                "x": 0.0024358444001904467,
                "y": 0.7094548369677653,
                "z": -0.704743149386269
            },
            "position": {
                "x": -0.37947507619857795,
                "y": -0.6371506643295288,
                "z": 0.19426114857196808
            }
        },
        "name": "move_to_magneteinheit_C"
    },
    "id": "RRTConnect_move_to_magneteinheit_C_72",
    "joint_names": [
        "shoulder_pan_joint",
        "shoulder_lift_joint",
        "elbow_joint",
        "wrist_1_joint",
        "wrist_2_joint",
        "wrist_3_joint"
    ],
    "metrics": {
        "cart_traj_len": 1.4317338407985991,
        "distance_elbow_joint": 1.03739607321423,
        "distance_shoulder_lift_joint": 0.720332517513868,
        "distance_shoulder_pan_joint": 1.4650242135426275,
        "distance_wrist_1_joint": 1.5356776778233152,
        "distance_wrist_2_joint": 1.036876378243031,
        "distance_wrist_3_joint": 2.162501717489254,
        "smoothness": 0.9455531991137718,
        "time": 0.189592135,
        "traj_len": 2.8209588047021046,
        "weighted_distance": 3.8542659572052345
    },
    "planner": "RRTConnect",
    "start": {
        "state": {
            "elbow_joint": 1.9565354010623817,
            "shoulder_lift_joint": -1.4165861575791021,
            "shoulder_pan_joint": -1.6717766225146293,
            "wrist_1_joint": -0.5286633292919765,
            "wrist_2_joint": 1.472756589071564,
            "wrist_3_joint": -3.1238370188695823
        }
    },
    "waypoints": [
        {
            "positions": [
                -1.6717766225146293,
                -1.4165861575791021,
                1.9565354010623817,
                -0.5286633292919765,
                1.472756589071564,
                -3.1238370188695823
            ]
        },
        {
            "positions": [
                -1.6260323824525917,
                -1.4387475987044294,
                1.9160877713112923,
                -0.4659158587785549,
                1.3920466941885334,
                -3.0328518473140345
            ]
        },
        {
            "positions": [
                -1.580288142390554,
                -1.4609090398297568,
                1.8756401415602026,
                -0.40316838826513335,
                1.3113367993055032,
                -2.9418666757584866
            ]
        },
        {
            "positions": [
                -1.5345439023285161,
                -1.483070480955084,
                1.835192511809113,
                -0.3404209177517118,
                1.230626904422473,
                -2.8508815042029387
            ]
        },
        {
            "positions": [
                -1.4887996622664785,
                -1.5052319220804113,
                1.7947448820580236,
                -0.27767344723829024,
                1.1499170095394424,
                -2.759896332647391
            ]
        },
        {
            "positions": [
                -1.541403231208263,
                -1.5293889965373768,
                1.7396544533910265,
                -0.21613845797079745,
                1.1081737006847958,
                -2.6426781632929086
            ]
        },
        {
            "positions": [
                -1.5940068001500476,
                -1.5535460709943423,
                1.6845640247240297,
                -0.15460346870330463,
                1.066430391830149,
                -2.525459993938426
            ]
        },
        {
            "positions": [
                -1.6466103690918321,
                -1.577703145451308,
                1.6294735960570326,
                -0.09306847943581181,
                1.0246870829755022,
                -2.4082418245839436
            ]
        },
        {
            "positions": [
                -1.6992139380336164,
                -1.6018602199082734,
                1.5743831673900355,
                -0.03153349016831902,
                0.9829437741208555,
                -2.2910236552294614
            ]
        },
        {
            "positions": [
                -1.751817506975401,
                -1.626017294365239,
                1.5192927387230384,
                0.030001499099173823,
                0.9412004652662088,
                -2.1738054858749787
            ]
        },
        {
            "positions": [
                -1.8044210759171855,
                -1.6501743688222044,
                1.4642023100560415,
                0.09153648836666659,
                0.8994571564115621,
                -2.0565873165204964
            ]
        },
        {
            "positions": [
                -1.9405709198663088,
                -1.6385170420904152,
                1.5488291608523594,
                0.08426375776545542,
                0.842743115982876,
                -2.1224947456801493
            ]
        },
        {
            "positions": [
                -2.076720763815432,
                -1.626859715358626,
                1.6334560116486772,
                0.07699102716424426,
                0.78602907555419,
                -2.1884021748398017
            ]
        },
        {
            "positions": [
                -2.2128706077645552,
                -1.615202388626837,
                1.718082862444995,
                0.06971829656303309,
                0.7293150351255039,
                -2.2543096039994546
            ]
        },
        {
            "positions": [
                -2.3490204517136783,
                -1.6035450618950478,
                1.8027097132413128,
                0.06244556596182193,
                0.6726009946968179,
                -2.3202170331591074
            ]
        },
        {
            "positions": [
                -2.485170295662802,
                -1.5918877351632585,
                1.8873365640376307,
                0.05517283536061076,
                0.6158869542681318,
                -2.38612446231876
            ]
        },
        {
            "positions": [
                -2.621320139611925,
                -1.5802304084314693,
                1.9719634148339487,
                0.0479001047593996,
                0.5591729138394457,
                -2.4520318914784127
            ]
        },
        {
            "positions": [
                -2.5963990102870866,
                -1.510763684118131,
                1.9781803944056124,
                -0.09740680800016796,
                0.5797216976745978,
                -2.5686664648421216
            ]
        },
        {
            "positions": [
                -2.5714778809622483,
                -1.4412969598047924,
                1.9843973739772762,
                -0.24271372075973552,
                0.6002704815097499,
                -2.68530103820583
            ]
        },
        {
            "positions": [
                -2.54655675163741,
                -1.371830235491454,
                1.99061435354894,
                -0.3880206335193031,
                0.6208192653449021,
                -2.8019356115695384
            ]
        },
        {
            "positions": [
                -2.5216356223125715,
                -1.3023635111781156,
                1.9968313331206038,
                -0.5333275462788707,
                0.6413680491800543,
                -2.9185701849332473
            ]
        },
        {
            "positions": [
                -2.496714492987733,
                -1.232896786864777,
                2.0030483126922674,
                -0.6786344590384383,
                0.6619168330152064,
                -3.035204758296956
            ]
        },
        {
            "positions": [
                -2.471793363662895,
                -1.1634300625514387,
                2.0092652922639314,
                -0.8239413717980058,
                0.6824656168503586,
                -3.1518393316606645
            ]
        }
    ]
}