{
    "goal": {
        "global_pose": {
            "orientation": {
                "w": 0.7031023502349854,
                "x": -0.7110244035720825,
                "y": 0.007748599164187908,
                "z": 0.005598929710686207
            },
            "position": {
                "x": 0.11585023208521307,
                "y": 0.44412534475326537,
                "z": 0.3711530566215515
            }
        },
        "name": "move_to_auspresseinheit_A"
    },
    "id": "RRTConnect_move_to_auspresseinheit_A_145",
    "joint_names": [
        "shoulder_pan_joint",
        "shoulder_lift_joint",
        "elbow_joint",
        "wrist_1_joint",
        "wrist_2_joint",
        "wrist_3_joint"
    ],
    "metrics": {
        "cart_traj_len": 0.6767078269010119,
        "distance_elbow_joint": 0.047091105292412117,
        "distance_shoulder_lift_joint": 0.5330600594983301,
        "distance_shoulder_pan_joint": 1.0468255014387093,
        "distance_wrist_1_joint": 0.8470689395182767,
        "distance_wrist_2_joint": 0.5197716535024208,
        "distance_wrist_3_joint": 0.7787506171962018,
        "smoothness": 0.8480901807698774,
        "time": 0.046787539,
        "traj_len": 1.942309933158545,
        "weighted_distance": 2.587838809481659
    },
    "planner": "RRTConnect",
    "start": {
        "state": {
            "elbow_joint": 2.4225746658250005,
            "shoulder_lift_joint": -1.3736534386056498,
            "shoulder_pan_joint": -0.3378633547517467,
            "wrist_1_joint": -1.0288598680537169,
            "wrist_2_joint": 1.233022673432363,
            "wrist_3_joint": -3.0940220416140027
        }
    },
    "waypoints": [
        {
            "positions": [
                -0.3378633547517467,
                -1.3736534386056498,
                2.4225746658250005,
                -1.0288598680537169,
                1.233022673432363,
                -3.0940220416140027
            ]
        },
        {
            "positions": [
                -0.2363855947942195,
                -1.4381828618567405,
                2.4176210401206677,
                -0.9400626559148288,
                1.1682192073200572,
                -3.048660895497422
            ]
        },
        {
            "positions": [
                -0.13490783483669228,
                -1.5027122851078312,
                2.412667414416335,
                -0.8512654437759407,
                1.1034157412077517,
                -3.003299749380841
            ]
        },
        {
            "positions": [
                -0.03343007487916505,
                -1.5672417083589218,
                2.4077137887120026,
                -0.7624682316370526,
                1.0386122750954458,
                -2.9579386032642603
            ]
        },
        {
            "positions": [
                0.06804768507836217,
                -1.6317711316100125,
                2.40276016300767,
                -0.6736710194981645,
                0.97380880898314,
                -2.9125774571476795
            ]
        },
        {
            "positions": [
                0.16952544503588934,
                -1.6963005548611032,
                2.397806537303337,
                -0.5848738073592765,
                0.9090053428708342,
                -2.8672163110310986
            ]
        },
        {
            "positions": [
                0.2710032049934166,
                -1.7608299781121939,
                2.3928529115990047,
                -0.4960765952203884,
                0.8442018767585285,
                -2.821855164914518
            ]
        },
        {
            "positions": [
                0.3724809649509439,
                -1.8253594013632846,
                2.387899285894672,
                -0.40727938308150025,
                0.7793984106462228,
                -2.776494018797937
            ]
        },
        {
            "positions": [
                0.47395872490847113,
                -1.8898888246143752,
                2.382945660190339,
                -0.3184821709426122,
                0.714594944533917,
                -2.731132872681356
            ]
        },
        {
            "positions": [
                0.5522931988346349,
                -1.8954970491109102,
                2.385433026742923,
                -0.3640459184116696,
                0.7150429194019087,
                -2.8697533554358747
            ]
        },
        {
            "positions": [
                0.6306276727607987,
                -1.901105273607445,
                2.387920393295506,
                -0.409609665880727,
                0.7154908942699002,
                -3.008373838190393
            ]
        },
        {
            "positions": [
                0.7089621466869626,
                -1.90671349810398,
                2.39040775984809,
                -0.4551734133497844,
                0.7159388691378918,
                -3.1469943209449114
            ]
        }
    ]
}