{
    "goal": {
        "global_pose": {
            "orientation": {
                "w": -0.00223480608172531,
                "x": 0.0024358444001904467,
                "y": 0.7094548369677653,
                "z": -0.704743149386269
            },
            "position": {
                "x": -0.37947507619857795,
                "y": -0.6371506643295288,
                "z": 0.19426114857196808
            }
        },
        "name": "move_to_magneteinheit_C"
    },
    "id": "RRTConnect_move_to_magneteinheit_C_75",
    "joint_names": [
        "shoulder_pan_joint",
        "shoulder_lift_joint",
        "elbow_joint",
        "wrist_1_joint",
        "wrist_2_joint",
        "wrist_3_joint"
    ],
    "metrics": {
        "cart_traj_len": 1.8224542460480302,
        "distance_elbow_joint": 1.695224819965707,
        "distance_shoulder_lift_joint": 0.6489333964074417,
        "distance_shoulder_pan_joint": 1.3880669514451929,
        "distance_wrist_1_joint": 1.4315375825429957,
        "distance_wrist_2_joint": 2.0704238270630944,
        "distance_wrist_3_joint": 7.292067781710054,
        "smoothness": 0.9716720156819992,
        "time": 0.193055096,
        "traj_len": 3.811332360098563,
        "weighted_distance": 5.710722487755878
    },
    "planner": "RRTConnect",
    "start": {
        "state": {
            "elbow_joint": 1.9565354010623817,
            "shoulder_lift_joint": -1.4165861575791021,
            "shoulder_pan_joint": -1.6717766225146293,
            "wrist_1_joint": -0.5286633292919765,
            "wrist_2_joint": 1.472756589071564,
            "wrist_3_joint": -3.1238370188695823
        }
    },
    "waypoints": [
        {
            "positions": [
                -1.6717766225146293,
                -1.4165861575791021,
                1.9565354010623817,
                -0.5286633292919765,
                1.472756589071564,
                -3.1238370188695823
            ]
        },
        {
            "positions": [
                -1.6718710681517652,
                -1.4262484385246315,
                1.9442737719387084,
                -0.5131245478126769,
                1.3794102480524881,
                -2.981538713810634
            ]
        },
        {
            "positions": [
                -1.6719655137889011,
                -1.435910719470161,
                1.932012142815035,
                -0.49758576633337737,
                1.2860639070334123,
                -2.839240408751686
            ]
        },
        {
            "positions": [
                -1.672059959426037,
                -1.4455730004156904,
                1.9197505136913617,
                -0.4820469848540778,
                1.1927175660143365,
                -2.696942103692738
            ]
        },
        {
            "positions": [
                -1.6843046643648623,
                -1.4563960616621663,
                1.8887764652401489,
                -0.46229431686389383,
                1.100572197649357,
                -2.5056263011572097
            ]
        },
        {
            "positions": [
                -1.6965493693036875,
                -1.467219122908642,
                1.8578024167889358,
                -0.4425416488737099,
                1.0084268292843772,
                -2.314310498621682
            ]
        },
        {
            "positions": [
                -1.7087940742425127,
                -1.478042184155118,
                1.8268283683377229,
                -0.4227889808835259,
                0.9162814609193976,
                -2.122994696086154
            ]
        },
        {
            "positions": [
                -1.7396654458888061,
                -1.486762372672537,
                1.7734132379608696,
                -0.40186751387312075,
                0.8667503261361688,
                -1.919977613063503
            ]
        },
        {
            "positions": [
                -1.7705368175350997,
                -1.495482561189956,
                1.7199981075840163,
                -0.38094604686271555,
                0.8172191913529399,
                -1.716960530040852
            ]
        },
        {
            "positions": [
                -1.8014081891813931,
                -1.504202749707375,
                1.666582977207163,
                -0.3600245798523104,
                0.7676880565697111,
                -1.513943447018201
            ]
        },
        {
            "positions": [
                -1.8322795608276867,
                -1.5129229382247942,
                1.6131678468303097,
                -0.3391031128419052,
                0.7181569217864823,
                -1.3109263639955497
            ]
        },
        {
            "positions": [
                -1.8631509324739801,
                -1.5216431267422132,
                1.5597527164534561,
                -0.31818164583150005,
                0.6686257870032534,
                -1.1079092809728985
            ]
        },
        {
            "positions": [
                -1.8940223041202735,
                -1.5303633152596323,
                1.5063375860766028,
                -0.2972601788210949,
                0.6190946522200245,
                -0.9048921979502478
            ]
        },
        {
            "positions": [
                -1.9248936757665671,
                -1.5390835037770514,
                1.4529224556997495,
                -0.2763387118106897,
                0.5695635174367957,
                -0.7018751149275966
            ]
        },
        {
            "positions": [
                -2.0234758892413574,
                -1.5499145548291986,
                1.453277265319689,
                -0.3093517909104098,
                0.6315839771047258,
                -0.5285082937748327
            ]
        },
        {
            "positions": [
                -2.122058102716148,
                -1.5607456058813458,
                1.4536320749396283,
                -0.34236487001012994,
                0.6936044367726559,
                -0.35514147262206863
            ]
        },
        {
            "positions": [
                -2.2206403161909383,
                -1.571576656933493,
                1.4539868845595678,
                -0.37537794910985006,
                0.7556248964405862,
                -0.18177465146930472
            ]
        },
        {
            "positions": [
                -2.319222529665729,
                -1.5824077079856402,
                1.4543416941795073,
                -0.4083910282095702,
                0.8176453561085163,
                -0.008407830316540688
            ]
        },
        {
            "positions": [
                -2.417804743140519,
                -1.5932387590377874,
                1.4546965037994468,
                -0.44140410730929036,
                0.8796658157764465,
                0.16495899083622334
            ]
        },
        {
            "positions": [
                -2.5163869566153094,
                -1.6040698100899347,
                1.455051313419386,
                -0.4744171864090104,
                0.9416862754443767,
                0.33832581198898715
            ]
        },
        {
            "positions": [
                -2.6149691700901,
                -1.6149008611420819,
                1.4554061230393256,
                -0.5074302655087306,
                1.0037067351123068,
                0.5116926331417513
            ]
        },
        {
            "positions": [
                -2.627660275241924,
                -1.6010029534323267,
                1.5281021372610413,
                -0.5606153626221597,
                0.9590725155740802,
                0.31317122427838656
            ]
        },
        {
            "positions": [
                -2.6403513803937475,
                -1.5871050457225717,
                1.6007981514827572,
                -0.6138004597355887,
                0.9144382960358537,
                0.11464981541502184
            ]
        },
        {
            "positions": [
                -2.653042485545571,
                -1.5732071380128165,
                1.6734941657044728,
                -0.6669855568490178,
                0.869804076497627,
                -0.08387159344834294
            ]
        },
        {
            "positions": [
                -2.665733590697395,
                -1.5593092303030616,
                1.7461901799261885,
                -0.7201706539624468,
                0.8251698569594005,
                -0.2823930023117076
            ]
        },
        {
            "positions": [
                -2.678424695849219,
                -1.5454113225933064,
                1.8188861941479042,
                -0.773355751075876,
                0.7805356374211739,
                -0.4809144111750725
            ]
        },
        {
            "positions": [
                -2.6911158010010423,
                -1.5315134148835514,
                1.8915822083696199,
                -0.8265408481893051,
                0.7359014178829473,
                -0.6794358200384372
            ]
        },
        {
            "positions": [
                -2.703806906152866,
                -1.5176155071737962,
                1.9642782225913358,
                -0.8797259453027342,
                0.6912671983447207,
                -0.8779572289018021
            ]
        },
        {
            "positions": [
                -2.7164980113046897,
                -1.503717599464041,
                2.0369742368130517,
                -0.9329110424161632,
                0.6466329788064942,
                -1.0764786377651665
            ]
        },
        {
            "positions": [
                -2.7291891164565136,
                -1.489819691754286,
                2.109670251034767,
                -0.9860961395295923,
                0.6019987592682676,
                -1.2750000466285314
            ]
        },
        {
            "positions": [
                -2.741880221608337,
                -1.475921784044531,
                2.182366265256483,
                -1.0392812366430215,
                0.5573645397300411,
                -1.4735214554918963
            ]
        },
        {
            "positions": [
                -2.7545713267601606,
                -1.462023876334776,
                2.2550622794781985,
                -1.0924663337564504,
                0.5127303201918145,
                -1.6720428643552607
            ]
        },
        {
            "positions": [
                -2.7672624319119845,
                -1.4481259686250207,
                2.3277582936999144,
                -1.1456514308698795,
                0.46809610065358787,
                -1.8705642732186256
            ]
        },
        {
            "positions": [
                -2.7254651259051506,
                -1.4075768542925349,
                2.282504574185213,
                -1.101379967155234,
                0.49630708683845876,
                -2.052604447981246
            ]
        },
        {
            "positions": [
                -2.6836678198983166,
                -1.367027739960049,
                2.2372508546705117,
                -1.0571085034405883,
                0.5245180730233296,
                -2.2346446227438665
            ]
        },
        {
            "positions": [
                -2.6418705138914826,
                -1.3264786256275631,
                2.1919971351558103,
                -1.0128370397259427,
                0.5527290592082006,
                -2.4166847975064867
            ]
        },
        {
            "positions": [
                -2.6000732078846487,
                -1.2859295112950775,
                2.1467434156411085,
                -0.9685655760112971,
                0.5809400453930714,
                -2.5987249722691073
            ]
        },
        {
            "positions": [
                -2.5582759018778147,
                -1.2453803969625916,
                2.101489696126407,
                -0.9242941122966515,
                0.6091510315779424,
                -2.780765147031728
            ]
        },
        {
            "positions": [
                -2.5164785958709808,
                -1.2048312826301057,
                2.0562359766117058,
                -0.8800226485820059,
                0.6373620177628132,
                -2.962805321794348
            ]
        },
        {
            "positions": [
                -2.474681289864147,
                -1.1642821682976199,
                2.0109822570970044,
                -0.8357511848673602,
                0.6655730039476841,
                -3.1448454965569685
            ]
        }
    ]
}