{
    "goal": {
        "global_pose": {
            "orientation": {
                "w": -0.4816463035849501,
                "x": 0.5182115481033762,
                "y": 0.4908360881923453,
                "z": -0.5084816262002911
            },
            "position": {
                "x": -0.8240239810943604,
                "y": -0.300875300988555,
                "z": 0.16403168439865112
            }
        },
        "name": "move_to_storage_C"
    },
    "id": "RRTConnect_move_to_storage_C_88",
    "joint_names": [
        "shoulder_pan_joint",
        "shoulder_lift_joint",
        "elbow_joint",
        "wrist_1_joint",
        "wrist_2_joint",
        "wrist_3_joint"
    ],
    "metrics": {
        "cart_traj_len": 0.5772672045803482,
        "distance_elbow_joint": 0.2607907265321172,
        "distance_shoulder_lift_joint": 0.19065585604160795,
        "distance_shoulder_pan_joint": 0.495165730549747,
        "distance_wrist_1_joint": 0.08624075743572124,
        "distance_wrist_2_joint": 1.066592192297934,
        "distance_wrist_3_joint": 0.07171832911969167,
        "smoothness": 2.5376526478085547e-16,
        "time": 0.039373554,
        "traj_len": 1.4734868821868823,
        "weighted_distance": 1.8621045083318652
    },
    "planner": "RRTConnect",
    "start": {
        "state": {
            "elbow_joint": 2.010868314990456,
            "shoulder_lift_joint": -1.1634956873337592,
            "shoulder_pan_joint": -2.4736205022346125,
            "wrist_1_joint": -0.8367026794202681,
            "wrist_2_joint": 0.6746043897044499,
            "wrist_3_joint": -3.1496632123970403
        }
    },
    "waypoints": [
        {
            "positions": [
                -2.4736205022346125,
                -1.1634956873337592,
                2.010868314990456,
                -0.8367026794202681,
                0.6746043897044499,
                -3.1496632123970403
            ]
        },
        {
            "positions": [
                -2.556148123992904,
                -1.1317197113268245,
                1.9674031939017695,
                -0.822329219847648,
                0.852369755087439,
                -3.1377101575437583
            ]
        },
        {
            "positions": [
                -2.6386757457511947,
                -1.09994373531989,
                1.9239380728130835,
                -0.8079557602750277,
                1.0301351204704279,
                -3.1257571026904762
            ]
        },
        {
            "positions": [
                -2.721203367509486,
                -1.0681677593129553,
                1.8804729517243972,
                -0.7935823007024074,
                1.207900485853417,
                -3.1138040478371947
            ]
        },
        {
            "positions": [
                -2.8037309892677773,
                -1.0363917833060206,
                1.837007830635711,
                -0.7792088411297873,
                1.3856658512364057,
                -3.1018509929839126
            ]
        },
        {
            "positions": [
                -2.886258611026068,
                -1.0046158072990858,
                1.7935427095470249,
                -0.7648353815571671,
                1.5634312166193949,
                -3.0898979381306306
            ]
        },
        {
            "positions": [
                -2.9687862327843595,
                -0.9728398312921512,
                1.7500775884583386,
                -0.7504619219845469,
                1.741196582002384,
                -3.0779448832773486
            ]
        }
    ]
}