{
    "goal": {
        "global_pose": {
            "orientation": {
                "w": -0.4816463035849501,
                "x": 0.5182115481033762,
                "y": 0.4908360881923453,
                "z": -0.5084816262002911
            },
            "position": {
                "x": -0.8240239810943604,
                "y": -0.300875300988555,
                "z": 0.16403168439865112
            }
        },
        "name": "move_to_storage_C"
    },
    "id": "RRTConnect_move_to_storage_C_84",
    "joint_names": [
        "shoulder_pan_joint",
        "shoulder_lift_joint",
        "elbow_joint",
        "wrist_1_joint",
        "wrist_2_joint",
        "wrist_3_joint"
    ],
    "metrics": {
        "cart_traj_len": 0.5764668517803291,
        "distance_elbow_joint": 0.2562118123830295,
        "distance_shoulder_lift_joint": 0.18840665777059906,
        "distance_shoulder_pan_joint": 0.49585733999181025,
        "distance_wrist_1_joint": 0.07604336316873517,
        "distance_wrist_2_joint": 1.061028640388265,
        "distance_wrist_3_joint": 0.0606830665632998,
        "smoothness": 2.5376526478085547e-16,
        "time": 0.075525791,
        "traj_len": 1.4622690861348806,
        "weighted_distance": 1.8430054305262744
    },
    "planner": "RRTConnect",
    "start": {
        "state": {
            "elbow_joint": 2.010868314990456,
            "shoulder_lift_joint": -1.1634956873337592,
            "shoulder_pan_joint": -2.4736205022346125,
            "wrist_1_joint": -0.8367026794202681,
            "wrist_2_joint": 0.6746043897044499,
            "wrist_3_joint": -3.1496632123970403
        }
    },
    "waypoints": [
        {
            "positions": [
                -2.4736205022346125,
                -1.1634956873337592,
                2.010868314990456,
                -0.8367026794202681,
                0.6746043897044499,
                -3.1496632123970403
            ]
        },
        {
            "positions": [
                -2.5562633922332476,
                -1.132094577705326,
                1.968166346259951,
                -0.8240287855588122,
                0.8514424964358274,
                -3.1395493679698236
            ]
        },
        {
            "positions": [
                -2.6389062822318827,
                -1.100693468076893,
                1.925464377529446,
                -0.8113548916973564,
                1.028280603167205,
                -3.129435523542607
            ]
        },
        {
            "positions": [
                -2.7215491722305174,
                -1.0692923584484597,
                1.882762408798941,
                -0.7986809978359005,
                1.2051187098985823,
                -3.1193216791153904
            ]
        },
        {
            "positions": [
                -2.8041920622291525,
                -1.0378912488200265,
                1.8400604400684362,
                -0.7860071039744446,
                1.3819568166299598,
                -3.1092078346881737
            ]
        },
        {
            "positions": [
                -2.8868349522277876,
                -1.0064901391915932,
                1.7973584713379314,
                -0.7733332101129888,
                1.5587949233613374,
                -3.099093990260957
            ]
        },
        {
            "positions": [
                -2.9694778422264227,
                -0.9750890295631601,
                1.7546565026074263,
                -0.7606593162515329,
                1.7356330300927147,
                -3.0889801458337405
            ]
        }
    ]
}