{
    "goal": {
        "global_pose": {
            "orientation": {
                "w": 0.7047431493862688,
                "x": -0.7094548369677653,
                "y": 0.0024358444001904,
                "z": -0.0022348060817251984
            },
            "position": {
                "x": -0.39052492380142206,
                "y": 0.3671506643295288,
                "z": 0.19426114857196808
            }
        },
        "name": "move_to_magneteinheit_D"
    },
    "id": "RRTConnect_move_to_magneteinheit_D_98",
    "joint_names": [
        "shoulder_pan_joint",
        "shoulder_lift_joint",
        "elbow_joint",
        "wrist_1_joint",
        "wrist_2_joint",
        "wrist_3_joint"
    ],
    "metrics": {
        "cart_traj_len": 3.584226048938787,
        "distance_elbow_joint": 3.92592964428418,
        "distance_shoulder_lift_joint": 2.9295989677576806,
        "distance_shoulder_pan_joint": 2.824802419099081,
        "distance_wrist_1_joint": 3.0035488905631933,
        "distance_wrist_2_joint": 1.8784392155536738,
        "distance_wrist_3_joint": 3.138355409935552,
        "smoothness": 0.47720349055964545,
        "time": 0.11463422000000001,
        "traj_len": 4.207216959843331,
        "weighted_distance": 5.3720920946295525
    },
    "planner": "RRTConnect",
    "start": {
        "state": {
            "elbow_joint": 0.749534889911806,
            "shoulder_lift_joint": -0.6476975780787326,
            "shoulder_pan_joint": -2.711696901376241,
            "wrist_1_joint": -0.07506478083263063,
            "wrist_2_joint": 0.43296659715538205,
            "wrist_3_joint": -3.14703540197715
        }
    },
    "waypoints": [
        {
            "positions": [
                -2.711696901376241,
                -0.6476975780787326,
                0.749534889911806,
                -0.07506478083263063,
                0.43296659715538205,
                -3.14703540197715
            ]
        },
        {
            "positions": [
                -2.7230499807820294,
                -0.5912410149131372,
                0.6478563938073724,
                -0.1119658952600561,
                0.37496831884347137,
                -3.0364698950972078
            ]
        },
        {
            "positions": [
                -2.7344030601878173,
                -0.5347844517475419,
                0.5461778977029388,
                -0.14886700968748157,
                0.31697004053156075,
                -2.9259043882172655
            ]
        },
        {
            "positions": [
                -2.745756139593605,
                -0.4783278885819464,
                0.44449940159850526,
                -0.18576812411490704,
                0.25897176221965007,
                -2.8153388813373232
            ]
        },
        {
            "positions": [
                -2.7571092189993935,
                -0.421871325416351,
                0.3428209054940717,
                -0.2226692385423325,
                0.2009734839077394,
                -2.704773374457381
            ]
        },
        {
            "positions": [
                -2.768462298405182,
                -0.3654147622507556,
                0.24114240938963816,
                -0.25957035296975794,
                0.1429752055958287,
                -2.5942078675774387
            ]
        },
        {
            "positions": [
                -2.7798153778109698,
                -0.3089581990851602,
                0.13946391328520458,
                -0.29647146739718344,
                0.08497692728391809,
                -2.4836423606974964
            ]
        },
        {
            "positions": [
                -2.7911684572167577,
                -0.25250163591956476,
                0.037785417180771,
                -0.3333725818246089,
                0.026978648972007413,
                -2.373076853817554
            ]
        },
        {
            "positions": [
                -2.802521536622546,
                -0.19604507275396937,
                -0.06389307892366258,
                -0.3702736962520344,
                -0.03101962933990325,
                -2.262511346937612
            ]
        },
        {
            "positions": [
                -2.814084964734308,
                -0.1566875457872528,
                -0.1564131349954866,
                -0.3771044865703129,
                -0.08484963461434293,
                -2.1388135060500697
            ]
        },
        {
            "positions": [
                -2.82564839284607,
                -0.11733001882053622,
                -0.2489331910673106,
                -0.38393527688859147,
                -0.13867963988878262,
                -2.015115665162527
            ]
        },
        {
            "positions": [
                -2.837211820957832,
                -0.07797249185381964,
                -0.3414532471391346,
                -0.39076606720686996,
                -0.19250964516322228,
                -1.8914178242749848
            ]
        },
        {
            "positions": [
                -2.848775249069594,
                -0.03861496488710306,
                -0.4339733032109586,
                -0.3975968575251485,
                -0.24633965043766198,
                -1.7677199833874426
            ]
        },
        {
            "positions": [
                -2.860338677181356,
                0.0007425620796135055,
                -0.5264933592827826,
                -0.40442764784342705,
                -0.30016965571210164,
                -1.6440221424999002
            ]
        },
        {
            "positions": [
                -2.786739199577029,
                -0.07120785154184561,
                -0.6336835664116852,
                -0.31021759734575893,
                -0.27603330218900546,
                -1.636890215402887
            ]
        },
        {
            "positions": [
                -2.7131397219727025,
                -0.1431582651633047,
                -0.7408737735405879,
                -0.2160075468480908,
                -0.2518969486659093,
                -1.629758288305874
            ]
        },
        {
            "positions": [
                -2.6395402443683755,
                -0.21510867878476383,
                -0.8480639806694905,
                -0.1217974963504227,
                -0.22776059514281305,
                -1.622626361208861
            ]
        },
        {
            "positions": [
                -2.565940766764049,
                -0.28705909240622296,
                -0.9552541877983931,
                -0.027587445852754522,
                -0.20362424161971687,
                -1.6154944341118478
            ]
        },
        {
            "positions": [
                -2.492341289159722,
                -0.35900950602768206,
                -1.062444394927296,
                0.0666226046449136,
                -0.1794878880966207,
                -1.6083625070148349
            ]
        },
        {
            "positions": [
                -2.418741811555395,
                -0.4309599196491412,
                -1.1696346020561985,
                0.16083265514258166,
                -0.1553515345735245,
                -1.6012305799178217
            ]
        },
        {
            "positions": [
                -2.3451423339510686,
                -0.5029103332706002,
                -1.276824809185101,
                0.25504270564024983,
                -0.1312151810504283,
                -1.5940986528208085
            ]
        },
        {
            "positions": [
                -2.2715428563467417,
                -0.5748607468920593,
                -1.3840150163140037,
                0.349252756137918,
                -0.10707882752733211,
                -1.5869667257237956
            ]
        },
        {
            "positions": [
                -2.1979433787424147,
                -0.6468111605135185,
                -1.4912052234429063,
                0.44346280663558607,
                -0.0829424740042359,
                -1.5798347986267824
            ]
        },
        {
            "positions": [
                -2.1243439011380882,
                -0.7187615741349775,
                -1.5983954305718089,
                0.5376728571332543,
                -0.05880612048113973,
                -1.5727028715297693
            ]
        },
        {
            "positions": [
                -2.0507444235337613,
                -0.7907119877564368,
                -1.7055856377007115,
                0.6318829076309225,
                -0.034669766958043524,
                -1.5655709444327564
            ]
        },
        {
            "positions": [
                -1.9771449459294348,
                -0.8626624013778958,
                -1.812775844829614,
                0.7260929581285904,
                -0.010533413434947347,
                -1.5584390173357432
            ]
        },
        {
            "positions": [
                -1.9035454683251078,
                -0.934612814999355,
                -1.919966051958517,
                0.8203030086262588,
                0.013602940088148885,
                -1.55130709023873
            ]
        },
        {
            "positions": [
                -1.8299459907207811,
                -1.006563228620814,
                -2.0271562590874193,
                0.9145130591239268,
                0.03773929361124506,
                -1.544175163141717
            ]
        },
        {
            "positions": [
                -1.7563465131164542,
                -1.0785136422422732,
                -2.1343464662163223,
                1.008723109621595,
                0.06187564713434124,
                -1.537043236044704
            ]
        },
        {
            "positions": [
                -1.6827470355121275,
                -1.1504640558637322,
                -2.241536673345225,
                1.1029331601192631,
                0.08601200065743742,
                -1.5299113089476908
            ]
        },
        {
            "positions": [
                -1.6091475579078007,
                -1.2224144694851915,
                -2.3487268804741275,
                1.1971432106169313,
                0.11014835418053365,
                -1.5227793818506778
            ]
        },
        {
            "positions": [
                -1.535548080303474,
                -1.2943648831066505,
                -2.45591708760303,
                1.2913532611145992,
                0.13428470770362982,
                -1.5156474547536647
            ]
        },
        {
            "positions": [
                -1.461948602699147,
                -1.3663152967281096,
                -2.5631072947319327,
                1.3855633116122674,
                0.158421061226726,
                -1.5085155276566515
            ]
        },
        {
            "positions": [
                -1.3883491250948206,
                -1.4382657103495686,
                -2.6702975018608353,
                1.4797733621099356,
                0.18255741474982218,
                -1.5013836005596386
            ]
        },
        {
            "positions": [
                -1.3147496474904936,
                -1.510216123971028,
                -2.777487708989738,
                1.5739834126076038,
                0.2066937682729184,
                -1.4942516734626254
            ]
        },
        {
            "positions": [
                -1.2189473490063798,
                -1.5767724675100014,
                -2.7389539662309614,
                1.5365670485141418,
                0.17367577511373847,
                -1.3731841500572932
            ]
        },
        {
            "positions": [
                -1.1231450505222662,
                -1.6433288110489748,
                -2.7004202234721855,
                1.4991506844206797,
                0.14065778195455853,
                -1.252116626651961
            ]
        },
        {
            "positions": [
                -1.0273427520381526,
                -1.7098851545879483,
                -2.661886480713409,
                1.4617343203272177,
                0.10763978879537857,
                -1.1310491032466288
            ]
        },
        {
            "positions": [
                -0.9315404535540388,
                -1.7764414981269216,
                -2.623352737954633,
                1.4243179562337556,
                0.07462179563619861,
                -1.0099815798412966
            ]
        },
        {
            "positions": [
                -0.8357381550699252,
                -1.8429978416658952,
                -2.5848189951958567,
                1.3869015921402936,
                0.04160380247701867,
                -0.8889140564359643
            ]
        },
        {
            "positions": [
                -0.7399358565858115,
                -1.9095541852048687,
                -2.5462852524370803,
                1.3494852280468317,
                0.008585809317838727,
                -0.7678465330306321
            ]
        },
        {
            "positions": [
                -0.6441335581016978,
                -1.976110528743842,
                -2.5077515096783043,
                1.3120688639533695,
                -0.024432183841341215,
                -0.6467790096252999
            ]
        },
        {
            "positions": [
                -0.548331259617584,
                -2.0426668722828154,
                -2.469217766919528,
                1.2746524998599076,
                -0.057450177000521185,
                -0.5257114862199677
            ]
        },
        {
            "positions": [
                -0.4525289611334704,
                -2.109223215821789,
                -2.430684024160752,
                1.2372361357664454,
                -0.09046817015970116,
                -0.40464396281463544
            ]
        },
        {
            "positions": [
                -0.3567266626493567,
                -2.1757795593607625,
                -2.3921502814019755,
                1.1998197716729835,
                -0.12348616331888104,
                -0.2835764394093032
            ]
        },
        {
            "positions": [
                -0.31358950545886505,
                -2.2019387359005016,
                -2.388757876953257,
                1.2802226022146699,
                -0.04642126154153814,
                -0.21485232756737735
            ]
        },
        {
            "positions": [
                -0.27045234826837333,
                -2.228097912440241,
                -2.385365472504539,
                1.3606254327563565,
                0.030643640235804764,
                -0.14612821572545148
            ]
        },
        {
            "positions": [
                -0.22731519107788167,
                -2.2542570889799807,
                -2.38197306805582,
                1.4410282632980431,
                0.10770854201314767,
                -0.07740410388352562
            ]
        },
        {
            "positions": [
                -0.18417803388738999,
                -2.2804162655197198,
                -2.3785806636071016,
                1.5214310938397295,
                0.1847734437904906,
                -0.00867999204159975
            ]
        }
    ]
}