{
    "goal": {
        "global_pose": {
            "orientation": {
                "w": 0.5084816262002911,
                "x": -0.4908360881923452,
                "y": 0.5182115481033761,
                "z": -0.48164630358495003
            },
            "position": {
                "x": 0.5540239810943604,
                "y": -0.46912469901144505,
                "z": 0.16403168439865112
            }
        },
        "name": "move_to_storage_B"
    },
    "id": "RRTConnect_move_to_storage_B_13",
    "joint_names": [
        "shoulder_pan_joint",
        "shoulder_lift_joint",
        "elbow_joint",
        "wrist_1_joint",
        "wrist_2_joint",
        "wrist_3_joint"
    ],
    "metrics": {
        "cart_traj_len": 0.8019245980097478,
        "distance_elbow_joint": 0.37014588109437696,
        "distance_shoulder_lift_joint": 0.45911230452031093,
        "distance_shoulder_pan_joint": 0.497923962727458,
        "distance_wrist_1_joint": 2.989059783059788,
        "distance_wrist_2_joint": 2.7087333199750456,
        "distance_wrist_3_joint": 3.165393610172359,
        "smoothness": 0.08514292365421457,
        "time": 0.091318503,
        "traj_len": 3.192235715223633,
        "weighted_distance": 4.713698037096658
    },
    "planner": "RRTConnect",
    "start": {
        "state": {
            "elbow_joint": 1.664937868594044,
            "shoulder_lift_joint": -0.661644460510453,
            "shoulder_pan_joint": -0.9139846352900073,
            "wrist_1_joint": 2.146753192139373,
            "wrist_2_joint": -2.2341966793290973,
            "wrist_3_joint": 0.005466555786416001
        }
    },
    "waypoints": [
        {
            "positions": [
                -0.9139846352900073,
                -0.661644460510453,
                1.664937868594044,
                2.146753192139373,
                -2.2341966793290973,
                0.005466555786416001
            ]
        },
        {
            "positions": [
                -0.8611912637077516,
                -0.7072763180439796,
                1.6616181345645726,
                2.1351971833734225,
                -2.0876102179693428,
                0.011253764132168304
            ]
        },
        {
            "positions": [
                -0.808397892125496,
                -0.7529081755775062,
                1.6582984005351014,
                2.1236411746074713,
                -1.9410237566095883,
                0.017040972477920607
            ]
        },
        {
            "positions": [
                -0.7556045205432402,
                -0.7985400331110328,
                1.65497866650563,
                2.1120851658415205,
                -1.7944372952498338,
                0.02282818082367291
            ]
        },
        {
            "positions": [
                -0.769752180875769,
                -0.8119657302743549,
                1.6699864447975452,
                1.9889855093097732,
                -1.6998967145875095,
                -0.10833981855695635
            ]
        },
        {
            "positions": [
                -0.7838998412082978,
                -0.8253914274376771,
                1.6849942230894603,
                1.865885852778026,
                -1.6053561339251852,
                -0.2395078179375856
            ]
        },
        {
            "positions": [
                -0.7980475015408266,
                -0.8388171246009992,
                1.7000020013813755,
                1.7427861962462785,
                -1.5108155532628609,
                -0.37067581731821486
            ]
        },
        {
            "positions": [
                -0.8121951618733554,
                -0.8522428217643213,
                1.7150097796732906,
                1.6196865397145315,
                -1.4162749726005368,
                -0.5018438166988441
            ]
        },
        {
            "positions": [
                -0.8263428222058842,
                -0.8656685189276435,
                1.7300175579652057,
                1.496586883182784,
                -1.3217343919382125,
                -0.6330118160794734
            ]
        },
        {
            "positions": [
                -0.840490482538413,
                -0.8790942160909656,
                1.7450253362571209,
                1.3734872266510367,
                -1.2271938112758882,
                -0.7641798154601027
            ]
        },
        {
            "positions": [
                -0.8546381428709418,
                -0.8925199132542877,
                1.760033114549036,
                1.2503875701192895,
                -1.132653230613564,
                -0.895347814840732
            ]
        },
        {
            "positions": [
                -0.8687858032034705,
                -0.9059456104176099,
                1.7750408928409511,
                1.1272879135875422,
                -1.0381126499512399,
                -1.026515814221361
            ]
        },
        {
            "positions": [
                -0.8829334635359993,
                -0.919371307580932,
                1.7900486711328663,
                1.004188257055795,
                -0.9435720692889155,
                -1.1576838136019905
            ]
        },
        {
            "positions": [
                -0.8970811238685281,
                -0.9327970047442542,
                1.8050564494247814,
                0.8810886005240475,
                -0.8490314886265912,
                -1.2888518129826196
            ]
        },
        {
            "positions": [
                -0.9112287842010569,
                -0.9462227019075762,
                1.8200642277166965,
                0.7579889439923002,
                -0.754490907964267,
                -1.4200198123632488
            ]
        },
        {
            "positions": [
                -0.9253764445335857,
                -0.9596483990708984,
                1.8350720060086116,
                0.634889287460553,
                -0.6599503273019427,
                -1.5511878117438782
            ]
        },
        {
            "positions": [
                -0.9395241048661145,
                -0.9730740962342205,
                1.8500797843005268,
                0.5117896309288057,
                -0.5654097466396186,
                -1.6823558111245074
            ]
        },
        {
            "positions": [
                -0.9536717651986433,
                -0.9864997933975427,
                1.865087562592442,
                0.3886899743970582,
                -0.4708691659772941,
                -1.8135238105051368
            ]
        },
        {
            "positions": [
                -0.9678194255311721,
                -0.9999254905608648,
                1.880095340884357,
                0.26559031786531095,
                -0.3763285853149698,
                -1.944691809885766
            ]
        },
        {
            "positions": [
                -0.9819670858637009,
                -1.013351187724187,
                1.8951031191762722,
                0.14249066133356392,
                -0.28178800465264575,
                -2.075859809266395
            ]
        },
        {
            "positions": [
                -0.9961147461962296,
                -1.026776884887509,
                1.9101108974681873,
                0.019391004801816436,
                -0.18724742399032124,
                -2.2070278086470245
            ]
        },
        {
            "positions": [
                -1.0102624065287584,
                -1.0402025820508312,
                1.9251186757601024,
                -0.1037086517299306,
                -0.09270684332799717,
                -2.338195808027654
            ]
        },
        {
            "positions": [
                -1.0244100668612872,
                -1.0536282792141534,
                1.9401264540520176,
                -0.22680830826167808,
                0.0018337373343269014,
                -2.469363807408283
            ]
        },
        {
            "positions": [
                -1.038557727193816,
                -1.0670539763774753,
                1.9551342323439327,
                -0.34990796479342556,
                0.09637431799665142,
                -2.6005318067889123
            ]
        },
        {
            "positions": [
                -1.0527053875263448,
                -1.0804796735407975,
                1.9701420106358478,
                -0.4730076213251726,
                0.19091489865897548,
                -2.7316998061695417
            ]
        },
        {
            "positions": [
                -1.0668530478588736,
                -1.0939053707041198,
                1.985149788927763,
                -0.5961072778569201,
                0.2854554793212998,
                -2.8628678055501706
            ]
        },
        {
            "positions": [
                -1.0810007081914024,
                -1.1073310678674417,
                2.000157567219678,
                -0.7192069343886676,
                0.37999605998362407,
                -2.9940358049308005
            ]
        },
        {
            "positions": [
                -1.0951483685239312,
                -1.120756765030764,
                2.015165345511593,
                -0.8423065909204147,
                0.47453664064594825,
                -3.1252038043114294
            ]
        }
    ]
}