{
    "goal": {
        "global_pose": {
            "orientation": {
                "w": 0.7047431493862688,
                "x": -0.7094548369677653,
                "y": 0.0024358444001904,
                "z": -0.0022348060817251984
            },
            "position": {
                "x": -0.39052492380142206,
                "y": 0.3671506643295288,
                "z": 0.19426114857196808
            }
        },
        "name": "move_to_magneteinheit_D"
    },
    "id": "RRTConnect_move_to_magneteinheit_D_9",
    "joint_names": [
        "shoulder_pan_joint",
        "shoulder_lift_joint",
        "elbow_joint",
        "wrist_1_joint",
        "wrist_2_joint",
        "wrist_3_joint"
    ],
    "metrics": {
        "cart_traj_len": 4.443209626114035,
        "distance_elbow_joint": 3.1510047973018516,
        "distance_shoulder_lift_joint": 1.13835908767648,
        "distance_shoulder_pan_joint": 2.8476664629771977,
        "distance_wrist_1_joint": 3.460246736346559,
        "distance_wrist_2_joint": 1.0351854441479609,
        "distance_wrist_3_joint": 6.272017912053741,
        "smoothness": 0.2360201801855362,
        "time": 0.22388951499999998,
        "traj_len": 4.231368624984568,
        "weighted_distance": 5.91134066393621
    },
    "planner": "RRTConnect",
    "start": {
        "state": {
            "elbow_joint": 0.749534889911806,
            "shoulder_lift_joint": -0.6476975780787326,
            "shoulder_pan_joint": -2.711696901376241,
            "wrist_1_joint": -0.07506478083263063,
            "wrist_2_joint": 0.43296659715538205,
            "wrist_3_joint": -3.14703540197715
        }
    },
    "waypoints": [
        {
            "positions": [
                -2.711696901376241,
                -0.6476975780787326,
                0.749534889911806,
                -0.07506478083263063,
                0.43296659715538205,
                -3.14703540197715
            ]
        },
        {
            "positions": [
                -2.7235512334609164,
                -0.6967851262628794,
                0.7368765768824928,
                -0.014001140512478964,
                0.46483774986074355,
                -3.0381107382959427
            ]
        },
        {
            "positions": [
                -2.7354055655455918,
                -0.7458726744470261,
                0.7242182638531796,
                0.0470624998076727,
                0.4967089025661051,
                -2.9291860746147353
            ]
        },
        {
            "positions": [
                -2.728250819714825,
                -0.8134227919308712,
                0.7331974673707253,
                0.1318418079983717,
                0.5291910791262124,
                -2.789045173056797
            ]
        },
        {
            "positions": [
                -2.721096073884058,
                -0.8809729094147163,
                0.7421766708882711,
                0.21662111618907065,
                0.5616732556863197,
                -2.6489042714988584
            ]
        },
        {
            "positions": [
                -2.624465009908688,
                -0.9466714397541031,
                0.7415785023755229,
                0.24690355414874898,
                0.5638866209639181,
                -2.450480003054549
            ]
        },
        {
            "positions": [
                -2.527833945933318,
                -1.0123699700934898,
                0.7409803338627747,
                0.2771859921084273,
                0.5660999862415165,
                -2.2520557346102392
            ]
        },
        {
            "positions": [
                -2.431202881957948,
                -1.0780685004328767,
                0.7403821653500267,
                0.30746843006810565,
                0.5683133515191149,
                -2.053631466165929
            ]
        },
        {
            "positions": [
                -2.3345718179825776,
                -1.1437670307722634,
                0.7397839968372785,
                0.33775086802778403,
                0.5705267167967133,
                -1.8552071977216196
            ]
        },
        {
            "positions": [
                -2.237940754007208,
                -1.2094655611116503,
                0.7391858283245303,
                0.36803330598746237,
                0.5727400820743117,
                -1.65678292927731
            ]
        },
        {
            "positions": [
                -2.1413096900318376,
                -1.275164091451037,
                0.7385876598117821,
                0.3983157439471407,
                0.5749534473519101,
                -1.4583586608330004
            ]
        },
        {
            "positions": [
                -2.0446786260564673,
                -1.3408626217904238,
                0.737989491299034,
                0.42859818190681903,
                0.5771668126295086,
                -1.2599343923886908
            ]
        },
        {
            "positions": [
                -1.9480475620810975,
                -1.4065611521298105,
                0.7373913227862858,
                0.4588806198664974,
                0.579380177907107,
                -1.061510123944381
            ]
        },
        {
            "positions": [
                -1.8514164981057273,
                -1.4722596824691974,
                0.7367931542735376,
                0.4891630578261757,
                0.5815935431847055,
                -0.8630858555000713
            ]
        },
        {
            "positions": [
                -1.754785434130357,
                -1.5379582128085842,
                0.7361949857607895,
                0.5194454957858541,
                0.5838069084623039,
                -0.6646615870557615
            ]
        },
        {
            "positions": [
                -1.6581543701549872,
                -1.603656743147971,
                0.7355968172480414,
                0.5497279337455324,
                0.5860202737399023,
                -0.4662373186114519
            ]
        },
        {
            "positions": [
                -1.561523306179617,
                -1.6693552734873576,
                0.7349986487352932,
                0.5800103717052107,
                0.5882336390175007,
                -0.2678130501671423
            ]
        },
        {
            "positions": [
                -1.464892242204247,
                -1.7350538038267445,
                0.734400480222545,
                0.6102928096648891,
                0.5904470042950991,
                -0.0693887817228327
            ]
        },
        {
            "positions": [
                -1.4143184328440905,
                -1.7360770099919454,
                0.6352279666514534,
                0.5115715999096313,
                0.5610363534349184,
                0.03744744626596852
            ]
        },
        {
            "positions": [
                -1.363744623483934,
                -1.7371002161571465,
                0.5360554530803618,
                0.41285039015437347,
                0.5316257025747377,
                0.14428367425476973
            ]
        },
        {
            "positions": [
                -1.313170814123778,
                -1.7381234223223474,
                0.4368829395092703,
                0.3141291803991157,
                0.502215051714557,
                0.25111990224357095
            ]
        },
        {
            "positions": [
                -1.2625970047636215,
                -1.7391466284875483,
                0.3377104259381788,
                0.21540797064385786,
                0.47280440085437636,
                0.35795613023237216
            ]
        },
        {
            "positions": [
                -1.212023195403465,
                -1.7401698346527494,
                0.23853791236708716,
                0.11668676088860003,
                0.4433937499941957,
                0.4647923582211734
            ]
        },
        {
            "positions": [
                -1.1614493860433086,
                -1.7411930408179503,
                0.13936539879599563,
                0.017965551133342306,
                0.413983099134015,
                0.5716285862099746
            ]
        },
        {
            "positions": [
                -1.1108755766831522,
                -1.7422162469831513,
                0.04019288522490405,
                -0.08075565862191558,
                0.3845724482738343,
                0.6784648141987758
            ]
        },
        {
            "positions": [
                -1.0603017673229957,
                -1.7432394531483524,
                -0.05897962834618742,
                -0.17947686837717336,
                0.35516179741365367,
                0.785301042187577
            ]
        },
        {
            "positions": [
                -1.0097279579628395,
                -1.7442626593135533,
                -0.1581521419172791,
                -0.27819807813243125,
                0.3257511465534729,
                0.8921372701763783
            ]
        },
        {
            "positions": [
                -0.959154148602683,
                -1.7452858654787542,
                -0.2573246554883707,
                -0.376919287887689,
                0.2963404956932923,
                0.9989734981651794
            ]
        },
        {
            "positions": [
                -0.9085803392425267,
                -1.7463090716439553,
                -0.35649716905946227,
                -0.4756404976429468,
                0.2669298448331116,
                1.1058097261539805
            ]
        },
        {
            "positions": [
                -0.8580065298823704,
                -1.7473322778091562,
                -0.45566968263055374,
                -0.5743617073982045,
                0.23751919397293092,
                1.2126459541427819
            ]
        },
        {
            "positions": [
                -0.8074327205222138,
                -1.7483554839743571,
                -0.5548421962016454,
                -0.6730829171534626,
                0.20810854311275023,
                1.3194821821315832
            ]
        },
        {
            "positions": [
                -0.7568589111620575,
                -1.749378690139558,
                -0.6540147097727369,
                -0.7718041269087202,
                0.17869789225256955,
                1.4263184101203843
            ]
        },
        {
            "positions": [
                -0.7062851018019012,
                -1.7504018963047592,
                -0.7531872233438284,
                -0.8705253366639779,
                0.14928724139238886,
                1.5331546381091854
            ]
        },
        {
            "positions": [
                -0.6557112924417448,
                -1.75142510246996,
                -0.8523597369149198,
                -0.9692465464192358,
                0.11987659053220823,
                1.6399908660979867
            ]
        },
        {
            "positions": [
                -0.6051374830815884,
                -1.752448308635161,
                -0.9515322504860115,
                -1.0679677561744936,
                0.09046593967202754,
                1.7468270940867878
            ]
        },
        {
            "positions": [
                -0.5545636737214319,
                -1.7534715148003621,
                -1.0507047640571032,
                -1.1666889659297515,
                0.06105528881184674,
                1.8536633220755894
            ]
        },
        {
            "positions": [
                -0.5039898643612755,
                -1.754494720965563,
                -1.149877277628195,
                -1.2654101756850094,
                0.031644637951666055,
                1.9604995500643905
            ]
        },
        {
            "positions": [
                -0.45341605500111903,
                -1.755517927130764,
                -1.2490497911992864,
                -1.3641313854402672,
                0.0022339870914854787,
                2.0673357780531916
            ]
        },
        {
            "positions": [
                -0.4028422456409628,
                -1.756541133295965,
                -1.3482223047703779,
                -1.4628525951955247,
                -0.02717666376869521,
                2.1741720060419927
            ]
        },
        {
            "positions": [
                -0.3522684362808064,
                -1.757564339461166,
                -1.4473948183414695,
                -1.5615738049507826,
                -0.056587314628875895,
                2.281008234030794
            ]
        },
        {
            "positions": [
                -0.30169462692064997,
                -1.7585875456263669,
                -1.5465673319125608,
                -1.6602950147060405,
                -0.08599796548905658,
                2.3878444620195953
            ]
        },
        {
            "positions": [
                -0.25112081756049376,
                -1.759610751791568,
                -1.6457398454836525,
                -1.759016224461298,
                -0.11540861634923727,
                2.4946806900083964
            ]
        },
        {
            "positions": [
                -0.2005470082003371,
                -1.760633957956769,
                -1.7449123590547442,
                -1.8577374342165562,
                -0.14481926720941796,
                2.601516917997198
            ]
        },
        {
            "positions": [
                -0.14997319884018068,
                -1.7616571641219698,
                -1.8440848726258359,
                -1.9564586439718141,
                -0.17422991806959864,
                2.708353145985999
            ]
        },
        {
            "positions": [
                -0.09939938948002447,
                -1.762680370287171,
                -1.9432573861969271,
                -2.0551798537270716,
                -0.20364056892977933,
                2.8151893739748
            ]
        },
        {
            "positions": [
                -0.04882558011986801,
                -1.7637035764523719,
                -2.042429899768019,
                -2.1539010634823295,
                -0.23305121978996002,
                2.9220256019636013
            ]
        },
        {
            "positions": [
                -0.11751448681092956,
                -1.7525270318009514,
                -2.203991496543941,
                -2.159248699833239,
                -0.20594781332836765,
                3.0235040560200965
            ]
        },
        {
            "positions": [
                -0.1862033935019911,
                -1.7413504871495311,
                -2.3655530933198627,
                -2.1645963361841494,
                -0.1788444068667753,
                3.124982510076592
            ]
        }
    ]
}