{
    "goal": {
        "global_pose": {
            "orientation": {
                "w": 0.7031023480610252,
                "x": -0.7110244013736278,
                "y": 0.0077485991402295624,
                "z": 0.005598929693374583
            },
            "position": {
                "x": -0.8841497679147869,
                "y": 0.44412534475326537,
                "z": 0.3711530566215515
            }
        },
        "name": "move_to_auspresseinheit_D"
    },
    "id": "RRTConnect_move_to_auspresseinheit_D_112",
    "joint_names": [
        "shoulder_pan_joint",
        "shoulder_lift_joint",
        "elbow_joint",
        "wrist_1_joint",
        "wrist_2_joint",
        "wrist_3_joint"
    ],
    "metrics": {
        "cart_traj_len": 0.3451828295314469,
        "distance_elbow_joint": 0.6635067810720228,
        "distance_shoulder_lift_joint": 0.1346186143573873,
        "distance_shoulder_pan_joint": 0.13451234664822273,
        "distance_wrist_1_joint": 0.610649643216651,
        "distance_wrist_2_joint": 1.4344003437211665,
        "distance_wrist_3_joint": 0.0740062681126159,
        "smoothness": 9.868649032415994e-16,
        "time": 0.053852201,
        "traj_len": 1.746909842300989,
        "weighted_distance": 2.2901433405555895
    },
    "planner": "RRTConnect",
    "start": {
        "state": {
            "elbow_joint": -1.8275523626775212,
            "shoulder_lift_joint": -2.126789852344167,
            "shoulder_pan_joint": -0.03513704404078235,
            "wrist_1_joint": -2.347782403156801,
            "wrist_2_joint": -1.6058999987535132,
            "wrist_3_joint": -3.0880379163319196
        }
    },
    "waypoints": [
        {
            "positions": [
                -0.03513704404078235,
                -2.126789852344167,
                -1.8275523626775212,
                -2.347782403156801,
                -1.6058999987535132,
                -3.0880379163319196
            ]
        },
        {
            "positions": [
                -0.05195108737181019,
                -2.14361717913884,
                -1.7446140150435183,
                -2.424113608558882,
                -1.4265999557883673,
                -3.0787871328178427
            ]
        },
        {
            "positions": [
                -0.06876513070283803,
                -2.160444505933514,
                -1.6616756674095154,
                -2.5004448139609634,
                -1.2472999128232216,
                -3.0695363493037657
            ]
        },
        {
            "positions": [
                -0.08557917403386586,
                -2.177271832728187,
                -1.5787373197755126,
                -2.576776019363045,
                -1.0679998698580757,
                -3.060285565789689
            ]
        },
        {
            "positions": [
                -0.10239321736489371,
                -2.1940991595228603,
                -1.4957989721415097,
                -2.6531072247651264,
                -0.8886998268929299,
                -3.051034782275612
            ]
        },
        {
            "positions": [
                -0.11920726069592155,
                -2.210926486317534,
                -1.4128606245075068,
                -2.7294384301672077,
                -0.7093997839277841,
                -3.0417839987615345
            ]
        },
        {
            "positions": [
                -0.1360213040269494,
                -2.227753813112207,
                -1.3299222768735042,
                -2.8057696355692894,
                -0.5300997409626382,
                -3.0325332152474576
            ]
        },
        {
            "positions": [
                -0.15283534735797724,
                -2.244581139906881,
                -1.2469839292395013,
                -2.8821008409713706,
                -0.35079969799749255,
                -3.0232824317333806
            ]
        },
        {
            "positions": [
                -0.1696493906890051,
                -2.261408466701554,
                -1.1640455816054984,
                -2.958432046373452,
                -0.1714996550323466,
                -3.0140316482193037
            ]
        }
    ]
}