{
    "goal": {
        "global_pose": {
            "orientation": {
                "w": -0.00223480608172531,
                "x": 0.0024358444001904467,
                "y": 0.7094548369677653,
                "z": -0.704743149386269
            },
            "position": {
                "x": -0.37947507619857795,
                "y": -0.6371506643295288,
                "z": 0.19426114857196808
            }
        },
        "name": "move_to_magneteinheit_C"
    },
    "id": "RRTConnect_move_to_magneteinheit_C_65",
    "joint_names": [
        "shoulder_pan_joint",
        "shoulder_lift_joint",
        "elbow_joint",
        "wrist_1_joint",
        "wrist_2_joint",
        "wrist_3_joint"
    ],
    "metrics": {
        "cart_traj_len": 1.62805591312448,
        "distance_elbow_joint": 0.2502923269958601,
        "distance_shoulder_lift_joint": 0.8057004832976735,
        "distance_shoulder_pan_joint": 1.9603597606111267,
        "distance_wrist_1_joint": 1.2848921519910377,
        "distance_wrist_2_joint": 1.6547271346705208,
        "distance_wrist_3_joint": 0.04325007691561611,
        "smoothness": 1.2590559122574259,
        "time": 0.055835257,
        "traj_len": 2.449330915675102,
        "weighted_distance": 3.0042205935940567
    },
    "planner": "RRTConnect",
    "start": {
        "state": {
            "elbow_joint": 1.9565354010623817,
            "shoulder_lift_joint": -1.4165861575791021,
            "shoulder_pan_joint": -1.6717766225146293,
            "wrist_1_joint": -0.5286633292919765,
            "wrist_2_joint": 1.472756589071564,
            "wrist_3_joint": -3.1238370188695823
        }
    },
    "waypoints": [
        {
            "positions": [
                -1.6717766225146293,
                -1.4165861575791021,
                1.9565354010623817,
                -0.5286633292919765,
                1.472756589071564,
                -3.1238370188695823
            ]
        },
        {
            "positions": [
                -1.5890372301951736,
                -1.4560282718310724,
                1.9779999208991212,
                -0.4575986184795191,
                1.3156314458541711,
                -3.1278892244580896
            ]
        },
        {
            "positions": [
                -1.506297837875718,
                -1.495470386083043,
                1.9994644407358606,
                -0.3865339076670618,
                1.1585063026367786,
                -3.1319414300465964
            ]
        },
        {
            "positions": [
                -1.4235584455562624,
                -1.5349125003350133,
                2.0209289605726,
                -0.3154691968546045,
                1.0013811594193858,
                -3.1359936356351037
            ]
        },
        {
            "positions": [
                -1.3408190532368067,
                -1.5743546145869836,
                2.0423934804093395,
                -0.24440448604214715,
                0.8442560162019931,
                -3.140045841223611
            ]
        },
        {
            "positions": [
                -1.258079660917351,
                -1.6137967288389539,
                2.063858000246079,
                -0.1733397752296898,
                0.6871308729846003,
                -3.1440980468121182
            ]
        },
        {
            "positions": [
                -1.1753402685978953,
                -1.6532388430909244,
                2.0853225200828187,
                -0.1022750644172325,
                0.5300057297672076,
                -3.148150252400625
            ]
        },
        {
            "positions": [
                -1.0926008762784396,
                -1.6926809573428947,
                2.106787039919558,
                -0.031210353604775157,
                0.37288058654981493,
                -3.1522024579891323
            ]
        },
        {
            "positions": [
                -1.2673257395474025,
                -1.6291783157124242,
                2.101381856275382,
                -0.12092640133123755,
                0.34814334020948867,
                -3.1538511525457205
            ]
        },
        {
            "positions": [
                -1.4420506028163655,
                -1.5656756740819535,
                2.0959766726312057,
                -0.21064244905769997,
                0.3234060938691624,
                -3.1554998471023086
            ]
        },
        {
            "positions": [
                -1.6167754660853284,
                -1.502173032451483,
                2.0905714889870297,
                -0.3003584967841623,
                0.29866884752883616,
                -3.1571485416588962
            ]
        },
        {
            "positions": [
                -1.7915003293542915,
                -1.4386703908210123,
                2.0851663053428533,
                -0.39007454451062473,
                0.2739316011885099,
                -3.1587972362154844
            ]
        },
        {
            "positions": [
                -1.9662251926232543,
                -1.3751677491905419,
                2.0797611216986773,
                -0.4797905922370871,
                0.24919435484818364,
                -3.1604459307720725
            ]
        },
        {
            "positions": [
                -2.093115117130785,
                -1.3221446303451598,
                2.0615074292192266,
                -0.5645053266549681,
                0.3569855799599687,
                -3.1587856395187908
            ]
        },
        {
            "positions": [
                -2.2200050416383155,
                -1.2691215114997778,
                2.043253736739776,
                -0.6492200610728491,
                0.4647768050717538,
                -3.1571253482655095
            ]
        },
        {
            "positions": [
                -2.346894966145846,
                -1.2160983926543958,
                2.025000044260325,
                -0.7339347954907303,
                0.5725680301835389,
                -3.1554650570122282
            ]
        },
        {
            "positions": [
                -2.4737848906533766,
                -1.1630752738090138,
                2.0067463517808743,
                -0.8186495299086113,
                0.6803592552953239,
                -3.1538047657589465
            ]
        }
    ]
}