{
    "goal": {
        "global_pose": {
            "orientation": {
                "w": -0.00223480608172531,
                "x": 0.0024358444001904467,
                "y": 0.7094548369677653,
                "z": -0.704743149386269
            },
            "position": {
                "x": 0.6205249238014221,
                "y": -0.6371506643295288,
                "z": 0.19426114857196808
            }
        },
        "name": "move_to_magneteinheit_B"
    },
    "id": "RRTConnect_move_to_magneteinheit_B_81",
    "joint_names": [
        "shoulder_pan_joint",
        "shoulder_lift_joint",
        "elbow_joint",
        "wrist_1_joint",
        "wrist_2_joint",
        "wrist_3_joint"
    ],
    "metrics": {
        "cart_traj_len": 1.438995572403814,
        "distance_elbow_joint": 0.9607135527397292,
        "distance_shoulder_lift_joint": 0.7592896783057898,
        "distance_shoulder_pan_joint": 1.6207772660009603,
        "distance_wrist_1_joint": 1.6294363376312702,
        "distance_wrist_2_joint": 2.0841731236298555,
        "distance_wrist_3_joint": 3.2848506334340364,
        "smoothness": 0.5631102433845016,
        "time": 0.138215723,
        "traj_len": 3.215468953627393,
        "weighted_distance": 4.541205932334586
    },
    "planner": "RRTConnect",
    "start": {
        "state": {
            "elbow_joint": 2.6216224122426386,
            "shoulder_lift_joint": -1.4174107377796124,
            "shoulder_pan_joint": 0.7066234856936794,
            "wrist_1_joint": 1.9546482284002225,
            "wrist_2_joint": -0.7096286983471962,
            "wrist_3_joint": 0.005740856962016249
        }
    },
    "waypoints": [
        {
            "positions": [
                0.7066234856936794,
                -1.4174107377796124,
                2.6216224122426386,
                1.9546482284002225,
                -0.7096286983471962,
                0.005740856962016249
            ]
        },
        {
            "positions": [
                0.6592070788989781,
                -1.4013471821813372,
                2.607963884062547,
                1.874128511361984,
                -0.6788856906681666,
                -0.17686177985162463
            ]
        },
        {
            "positions": [
                0.6117906721042768,
                -1.3852836265830621,
                2.5943053558824554,
                1.7936087943237458,
                -0.648142682989137,
                -0.3594644166652655
            ]
        },
        {
            "positions": [
                0.5643742653095756,
                -1.369220070984787,
                2.5806468277023638,
                1.7130890772855072,
                -0.6173996753101074,
                -0.5420670534789065
            ]
        },
        {
            "positions": [
                0.5169578585148742,
                -1.353156515386512,
                2.566988299522272,
                1.6325693602472688,
                -0.5866566676310778,
                -0.7246696902925474
            ]
        },
        {
            "positions": [
                0.4695414517201729,
                -1.3370929597882368,
                2.55332977134218,
                1.5520496432090305,
                -0.5559136599520482,
                -0.9072723271061884
            ]
        },
        {
            "positions": [
                0.42212504492547165,
                -1.3210294041899617,
                2.5396712431620885,
                1.4715299261707921,
                -0.5251706522730186,
                -1.089874963919829
            ]
        },
        {
            "positions": [
                0.3747086381307704,
                -1.3049658485916866,
                2.526012714981997,
                1.3910102091325536,
                -0.49442764459398897,
                -1.2724776007334702
            ]
        },
        {
            "positions": [
                0.3272922313360691,
                -1.2889022929934115,
                2.5123541868019053,
                1.3104904920943152,
                -0.4636846369149594,
                -1.4550802375471108
            ]
        },
        {
            "positions": [
                0.2798758245413678,
                -1.2728387373951364,
                2.4986956586218136,
                1.2299707750560769,
                -0.43294162923592977,
                -1.6376828743607519
            ]
        },
        {
            "positions": [
                0.21354084649422067,
                -1.2386877552883968,
                2.4521519475596523,
                1.2802351575164728,
                -0.5333575211536291,
                -1.5464924909101259
            ]
        },
        {
            "positions": [
                0.14720586844707353,
                -1.2045367731816572,
                2.405608236497491,
                1.3304995399768684,
                -0.6337734130713285,
                -1.4553021074595
            ]
        },
        {
            "positions": [
                0.0808708903999264,
                -1.1703857910749174,
                2.3590645254353295,
                1.3807639224372643,
                -0.7341893049890279,
                -1.364111724008874
            ]
        },
        {
            "positions": [
                0.01453591235277929,
                -1.1362348089681777,
                2.312520814373168,
                1.4310283048976602,
                -0.8346051969067273,
                -1.272921340558248
            ]
        },
        {
            "positions": [
                -0.051799065694367874,
                -1.1020838268614381,
                2.2659771033110068,
                1.481292687358056,
                -0.9350210888244268,
                -1.181730957107622
            ]
        },
        {
            "positions": [
                -0.11813404374151498,
                -1.0679328447546985,
                2.2194333922488454,
                1.5315570698184517,
                -1.035436980742126,
                -1.0905405736569962
            ]
        },
        {
            "positions": [
                -0.1844690217886621,
                -1.033781862647959,
                2.172889681186684,
                1.5818214522788476,
                -1.1358528726598254,
                -0.9993501902063702
            ]
        },
        {
            "positions": [
                -0.2508039998358092,
                -0.9996308805412192,
                2.1263459701245226,
                1.6320858347392433,
                -1.2362687645775248,
                -0.9081598067557443
            ]
        },
        {
            "positions": [
                -0.31713897788295636,
                -0.9654798984344795,
                2.0798022590623617,
                1.6823502171996392,
                -1.3366846564952242,
                -0.8169694233051182
            ]
        },
        {
            "positions": [
                -0.3834739559301035,
                -0.9313289163277398,
                2.0332585480002,
                1.732614599660035,
                -1.4371005484129238,
                -0.7257790398544922
            ]
        },
        {
            "positions": [
                -0.4498089339772507,
                -0.8971779342210002,
                1.9867148369380387,
                1.782878982120431,
                -1.5375164403306232,
                -0.6345886564038663
            ]
        },
        {
            "positions": [
                -0.5161439120243978,
                -0.8630269521142606,
                1.9401711258758776,
                1.8331433645808266,
                -1.6379323322483224,
                -0.5433982729532405
            ]
        },
        {
            "positions": [
                -0.582478890071545,
                -0.8288759700075209,
                1.8936274148137162,
                1.8834077470412223,
                -1.7383482241660217,
                -0.4522078895026145
            ]
        },
        {
            "positions": [
                -0.6488138681186919,
                -0.7947249879007812,
                1.8470837037515548,
                1.9336721295016184,
                -1.8387641160837211,
                -0.36101750605198846
            ]
        },
        {
            "positions": [
                -0.7151488461658391,
                -0.7605740057940416,
                1.8005399926893935,
                1.983936511962014,
                -1.9391800080014205,
                -0.26982712260136243
            ]
        },
        {
            "positions": [
                -0.7814838242129862,
                -0.7264230236873019,
                1.753996281627232,
                2.0342008944224097,
                -2.03959589991912,
                -0.17863673915073663
            ]
        },
        {
            "positions": [
                -0.8478188022601334,
                -0.6922720415805623,
                1.7074525705650707,
                2.0844652768828054,
                -2.140011791836819,
                -0.08744635570011061
            ]
        },
        {
            "positions": [
                -0.9141537803072806,
                -0.6581210594738226,
                1.6609088595029093,
                2.1347296593432015,
                -2.2404276837545187,
                0.0037440277505155074
            ]
        }
    ]
}