{
    "goal": {
        "global_pose": {
            "orientation": {
                "w": 0.7031023480610252,
                "x": -0.7110244013736278,
                "y": 0.0077485991402295624,
                "z": 0.005598929693374583
            },
            "position": {
                "x": -0.8841497679147869,
                "y": 0.44412534475326537,
                "z": 0.3711530566215515
            }
        },
        "name": "move_to_auspresseinheit_D"
    },
    "id": "RRTConnect_move_to_auspresseinheit_D_103",
    "joint_names": [
        "shoulder_pan_joint",
        "shoulder_lift_joint",
        "elbow_joint",
        "wrist_1_joint",
        "wrist_2_joint",
        "wrist_3_joint"
    ],
    "metrics": {
        "cart_traj_len": 0.3430963648121922,
        "distance_elbow_joint": 0.6332012624339156,
        "distance_shoulder_lift_joint": 0.11812913790099477,
        "distance_shoulder_pan_joint": 0.13424534911860703,
        "distance_wrist_1_joint": 0.5207328091586181,
        "distance_wrist_2_joint": 1.4372841536033385,
        "distance_wrist_3_joint": 0.002838860850945757,
        "smoothness": 0.0,
        "time": 0.044670631,
        "traj_len": 1.6871370937379155,
        "weighted_distance": 2.1932000039965045
    },
    "planner": "RRTConnect",
    "start": {
        "state": {
            "elbow_joint": -1.8275523626775212,
            "shoulder_lift_joint": -2.126789852344167,
            "shoulder_pan_joint": -0.03513704404078235,
            "wrist_1_joint": -2.347782403156801,
            "wrist_2_joint": -1.6058999987535132,
            "wrist_3_joint": -3.0880379163319196
        }
    },
    "waypoints": [
        {
            "positions": [
                -0.03513704404078235,
                -2.126789852344167,
                -1.8275523626775212,
                -2.347782403156801,
                -1.6058999987535132,
                -3.0880379163319196
            ]
        },
        {
            "positions": [
                -0.05191771268060823,
                -2.141555994581791,
                -1.7484022048732817,
                -2.412874004301628,
                -1.426239479553096,
                -3.088392773938288
            ]
        },
        {
            "positions": [
                -0.0686983813204341,
                -2.1563221368194156,
                -1.6692520470690422,
                -2.4779656054464554,
                -1.2465789603526787,
                -3.0887476315446563
            ]
        },
        {
            "positions": [
                -0.08547904996025998,
                -2.17108827905704,
                -1.590101889264803,
                -2.543057206591283,
                -1.0669184411522612,
                -3.089102489151024
            ]
        },
        {
            "positions": [
                -0.10225971860008587,
                -2.185854421294664,
                -1.5109517314605634,
                -2.60814880773611,
                -0.8872579219518439,
                -3.0894573467573925
            ]
        },
        {
            "positions": [
                -0.11904038723991175,
                -2.2006205635322886,
                -1.4318015736563239,
                -2.673240408880937,
                -0.7075974027514267,
                -3.089812204363761
            ]
        },
        {
            "positions": [
                -0.1358210558797376,
                -2.215386705769913,
                -1.3526514158520846,
                -2.7383320100257644,
                -0.5279368835510092,
                -3.0901670619701287
            ]
        },
        {
            "positions": [
                -0.1526017245195635,
                -2.2301528480075374,
                -1.273501258047845,
                -2.803423611170592,
                -0.34827636435059195,
                -3.090521919576497
            ]
        },
        {
            "positions": [
                -0.16938239315938938,
                -2.2449189902451616,
                -1.1943511002436056,
                -2.868515212315419,
                -0.16861584515017458,
                -3.0908767771828654
            ]
        }
    ]
}