{
    "goal": {
        "global_pose": {
            "orientation": {
                "w": -0.00223480608172531,
                "x": 0.0024358444001904467,
                "y": 0.7094548369677653,
                "z": -0.704743149386269
            },
            "position": {
                "x": -0.37947507619857795,
                "y": -0.6371506643295288,
                "z": 0.19426114857196808
            }
        },
        "name": "move_to_magneteinheit_C"
    },
    "id": "RRTConnect_move_to_magneteinheit_C_53",
    "joint_names": [
        "shoulder_pan_joint",
        "shoulder_lift_joint",
        "elbow_joint",
        "wrist_1_joint",
        "wrist_2_joint",
        "wrist_3_joint"
    ],
    "metrics": {
        "cart_traj_len": 2.040289119889003,
        "distance_elbow_joint": 1.0554956544360485,
        "distance_shoulder_lift_joint": 0.49956416239269785,
        "distance_shoulder_pan_joint": 1.491956392295499,
        "distance_wrist_1_joint": 2.047102934723121,
        "distance_wrist_2_joint": 1.2850132710148117,
        "distance_wrist_3_joint": 5.313644218009044,
        "smoothness": 0.4698758462296439,
        "time": 0.150697463,
        "traj_len": 3.4194702269315385,
        "weighted_distance": 5.064798246191772
    },
    "planner": "RRTConnect",
    "start": {
        "state": {
            "elbow_joint": 1.9565354010623817,
            "shoulder_lift_joint": -1.4165861575791021,
            "shoulder_pan_joint": -1.6717766225146293,
            "wrist_1_joint": -0.5286633292919765,
            "wrist_2_joint": 1.472756589071564,
            "wrist_3_joint": -3.1238370188695823
        }
    },
    "waypoints": [
        {
            "positions": [
                -1.6717766225146293,
                -1.4165861575791021,
                1.9565354010623817,
                -0.5286633292919765,
                1.472756589071564,
                -3.1238370188695823
            ]
        },
        {
            "positions": [
                -1.6230805598462688,
                -1.415496015394842,
                1.9427567172662903,
                -0.5025479139316629,
                1.4117343712360964,
                -2.9746503137807796
            ]
        },
        {
            "positions": [
                -1.574384497177908,
                -1.4144058732105815,
                1.928978033470199,
                -0.4764324985713493,
                1.3507121534006286,
                -2.825463608691977
            ]
        },
        {
            "positions": [
                -1.5256884345095474,
                -1.4133157310263214,
                1.9151993496741075,
                -0.4503170832110357,
                1.289689935565161,
                -2.676276903603174
            ]
        },
        {
            "positions": [
                -1.5399662645603287,
                -1.4308769000782844,
                1.8644792318554657,
                -0.46504780318539957,
                1.2433729859753233,
                -2.473506598420153
            ]
        },
        {
            "positions": [
                -1.5542440946111098,
                -1.4484380691302474,
                1.8137591140368237,
                -0.47977852315976344,
                1.1970560363854854,
                -2.2707362932371313
            ]
        },
        {
            "positions": [
                -1.568521924661891,
                -1.4659992381822105,
                1.7630389962181818,
                -0.4945092431341273,
                1.1507390867956477,
                -2.06796598805411
            ]
        },
        {
            "positions": [
                -1.5827997547126722,
                -1.4835604072341735,
                1.71231887839954,
                -0.5092399631084912,
                1.1044221372058098,
                -1.865195682871089
            ]
        },
        {
            "positions": [
                -1.5970775847634535,
                -1.5011215762861365,
                1.661598760580898,
                -0.5239706830828551,
                1.0581051876159722,
                -1.6624253776880673
            ]
        },
        {
            "positions": [
                -1.6113554148142346,
                -1.5186827453380995,
                1.6108786427622561,
                -0.5387014030572189,
                1.0117882380261345,
                -1.4596550725050461
            ]
        },
        {
            "positions": [
                -1.625633244865016,
                -1.5362439143900626,
                1.5601585249436143,
                -0.5534321230315828,
                0.9654712884362966,
                -1.2568847673220247
            ]
        },
        {
            "positions": [
                -1.7419902372497693,
                -1.5331745793019589,
                1.5545544962664912,
                -0.6735155795593099,
                0.9092410630221033,
                -1.1699648509435863
            ]
        },
        {
            "positions": [
                -1.8583472296345227,
                -1.5301052442138552,
                1.5489504675893684,
                -0.7935990360870369,
                0.8530108376079099,
                -1.0830449345651476
            ]
        },
        {
            "positions": [
                -1.974704222019276,
                -1.5270359091257515,
                1.5433464389122453,
                -0.913682492614764,
                0.7967806121937164,
                -0.9961250181867092
            ]
        },
        {
            "positions": [
                -2.0910612144040295,
                -1.5239665740376478,
                1.5377424102351225,
                -1.033765949142491,
                0.7405503867795231,
                -0.9092051018082705
            ]
        },
        {
            "positions": [
                -2.207418206788783,
                -1.5208972389495439,
                1.5321383815579994,
                -1.153849405670218,
                0.6843201613653297,
                -0.8222851854298321
            ]
        },
        {
            "positions": [
                -2.3237751991735363,
                -1.5178279038614402,
                1.5265343528808766,
                -1.273932862197945,
                0.6280899359511364,
                -0.7353652690513935
            ]
        },
        {
            "positions": [
                -2.44013219155829,
                -1.5147585687733365,
                1.5209303242037535,
                -1.3940163187256722,
                0.571859710536943,
                -0.648445352672955
            ]
        },
        {
            "positions": [
                -2.556489183943043,
                -1.5116892336852328,
                1.5153262955266307,
                -1.5140997752533991,
                0.5156294851227496,
                -0.5615254362945165
            ]
        },
        {
            "positions": [
                -2.6728461763277966,
                -1.508619898597129,
                1.5097222668495076,
                -1.6341832317811262,
                0.4593992597085562,
                -0.47460551991607786
            ]
        },
        {
            "positions": [
                -2.6681220363680866,
                -1.4593686701208146,
                1.589033706342407,
                -1.6080376413287432,
                0.4549566115704676,
                -0.6528526351331825
            ]
        },
        {
            "positions": [
                -2.6633978964083767,
                -1.4101174416445004,
                1.668345145835306,
                -1.58189205087636,
                0.45051396343237887,
                -0.831099750350287
            ]
        },
        {
            "positions": [
                -2.6586737564486667,
                -1.360866213168186,
                1.7476565853282053,
                -1.555746460423977,
                0.4460713152942902,
                -1.0093468655673916
            ]
        },
        {
            "positions": [
                -2.653949616488956,
                -1.3116149846918717,
                1.8269680248211047,
                -1.5296008699715942,
                0.4416286671562016,
                -1.1875939807844962
            ]
        },
        {
            "positions": [
                -2.6492254765292462,
                -1.2623637562155572,
                1.9062794643140037,
                -1.503455279519211,
                0.43718601901811294,
                -1.365841096001601
            ]
        },
        {
            "positions": [
                -2.6445013365695362,
                -1.213112527739243,
                1.985590903806903,
                -1.477309689066828,
                0.43274337088002424,
                -1.5440882112187055
            ]
        },
        {
            "positions": [
                -2.6397771966098262,
                -1.1638612992629285,
                2.0649023432998024,
                -1.451164098614445,
                0.4283007227419356,
                -1.72233532643581
            ]
        },
        {
            "positions": [
                -2.616114127644941,
                -1.1637208796416367,
                2.057259137046534,
                -1.3651824690565295,
                0.46266606626839046,
                -1.9247185996552112
            ]
        },
        {
            "positions": [
                -2.5924510586800555,
                -1.1635804600203452,
                2.0496159307932653,
                -1.279200839498614,
                0.4970314097948453,
                -2.1271018728746123
            ]
        },
        {
            "positions": [
                -2.56878798971517,
                -1.1634400403990535,
                2.041972724539997,
                -1.1932192099406986,
                0.5313967533213002,
                -2.329485146094014
            ]
        },
        {
            "positions": [
                -2.545124920750285,
                -1.1632996207777617,
                2.0343295182867283,
                -1.1072375803827832,
                0.565762096847755,
                -2.531868419313415
            ]
        },
        {
            "positions": [
                -2.5214618517853995,
                -1.16315920115647,
                2.0266863120334597,
                -1.0212559508248678,
                0.6001274403742098,
                -2.7342516925328164
            ]
        },
        {
            "positions": [
                -2.497798782820514,
                -1.1630187815351785,
                2.019043105780191,
                -0.9352743212669523,
                0.6344927839006647,
                -2.9366349657522175
            ]
        },
        {
            "positions": [
                -2.474135713855629,
                -1.1628783619138867,
                2.0113998995269227,
                -0.8492926917090369,
                0.6688581274271196,
                -3.1390182389716186
            ]
        }
    ]
}