{
    "goal": {
        "global_pose": {
            "orientation": {
                "w": 0.7047431468963623,
                "x": -0.7094548344612122,
                "y": 0.0024358443915843964,
                "z": -0.0022348060738295317
            },
            "position": {
                "x": 0.6094750761985779,
                "y": 0.3671506643295288,
                "z": 0.19426114857196808
            }
        },
        "name": "move_to_magneteinheit_A"
    },
    "id": "RRTConnect_move_to_magneteinheit_A_52",
    "joint_names": [
        "shoulder_pan_joint",
        "shoulder_lift_joint",
        "elbow_joint",
        "wrist_1_joint",
        "wrist_2_joint",
        "wrist_3_joint"
    ],
    "metrics": {
        "cart_traj_len": 3.5328220819648033,
        "distance_elbow_joint": 3.9399084151478996,
        "distance_shoulder_lift_joint": 0.6000408929822185,
        "distance_shoulder_pan_joint": 3.64092006468635,
        "distance_wrist_1_joint": 3.5627959277956407,
        "distance_wrist_2_joint": 2.004109990986981,
        "distance_wrist_3_joint": 1.8200367027337994,
        "smoothness": 0.2645759387610873,
        "time": 0.097704994,
        "traj_len": 3.945606669998023,
        "weighted_distance": 4.977428183166796
    },
    "planner": "RRTConnect",
    "start": {
        "state": {
            "elbow_joint": -1.9196185241190666,
            "shoulder_lift_joint": -1.2443396400964142,
            "shoulder_pan_joint": 2.6996025414629847,
            "wrist_1_joint": -1.5485510000780065,
            "wrist_2_joint": -1.5709468930060704,
            "wrist_3_joint": 0.4420197071253992
        }
    },
    "waypoints": [
        {
            "positions": [
                2.6996025414629847,
                -1.2443396400964142,
                -1.9196185241190666,
                -1.5485510000780065,
                -1.5709468930060704,
                0.4420197071253992
            ]
        },
        {
            "positions": [
                2.562841837840612,
                -1.2485941034965802,
                -1.8159553412230407,
                -1.5101169429493841,
                -1.5039752149287275,
                0.47950206766141196
            ]
        },
        {
            "positions": [
                2.4260811342182396,
                -1.2528485668967462,
                -1.7122921583270145,
                -1.4716828858207618,
                -1.4370035368513847,
                0.5169844281974247
            ]
        },
        {
            "positions": [
                2.289320430595867,
                -1.2571030302969122,
                -1.6086289754309886,
                -1.4332488286921394,
                -1.3700318587740419,
                0.5544667887334376
            ]
        },
        {
            "positions": [
                2.1525597269734944,
                -1.2613574936970782,
                -1.5049657925349627,
                -1.394814771563517,
                -1.303060180696699,
                0.5919491492694503
            ]
        },
        {
            "positions": [
                2.015799023351122,
                -1.2656119570972442,
                -1.4013026096389365,
                -1.3563807144348947,
                -1.2360885026193562,
                0.6294315098054631
            ]
        },
        {
            "positions": [
                1.8790383197287492,
                -1.2698664204974102,
                -1.2976394267429106,
                -1.3179466573062724,
                -1.1691168245420134,
                0.666913870341476
            ]
        },
        {
            "positions": [
                1.7422776161063769,
                -1.2741208838975762,
                -1.1939762438468846,
                -1.27951260017765,
                -1.1021451464646705,
                0.7043962308774887
            ]
        },
        {
            "positions": [
                1.6055169124840043,
                -1.2783753472977422,
                -1.0903130609508587,
                -1.2410785430490274,
                -1.0351734683873277,
                0.7418785914135015
            ]
        },
        {
            "positions": [
                1.4687562088616317,
                -1.282629810697908,
                -0.9866498780548326,
                -1.202644485920405,
                -0.9682017903099849,
                0.7793609519495144
            ]
        },
        {
            "positions": [
                1.3319955052392591,
                -1.286884274098074,
                -0.8829866951588066,
                -1.1642104287917827,
                -0.901230112232642,
                0.8168433124855271
            ]
        },
        {
            "positions": [
                1.1952348016168866,
                -1.29113873749824,
                -0.7793235122627806,
                -1.1257763716631604,
                -0.8342584341552992,
                0.8543256730215398
            ]
        },
        {
            "positions": [
                1.058474097994514,
                -1.295393200898406,
                -0.6756603293667545,
                -1.087342314534538,
                -0.7672867560779564,
                0.8918080335575527
            ]
        },
        {
            "positions": [
                0.9217133943721416,
                -1.299647664298572,
                -0.5719971464707287,
                -1.0489082574059156,
                -0.7003150780006137,
                0.9292903940935655
            ]
        },
        {
            "positions": [
                0.784952690749769,
                -1.303902127698738,
                -0.4683339635747026,
                -1.0104742002772933,
                -0.6333433999232707,
                0.9667727546295782
            ]
        },
        {
            "positions": [
                0.6481919871273965,
                -1.308156591098904,
                -0.36467078067867664,
                -0.9720401431486709,
                -0.5663717218459279,
                1.004255115165591
            ]
        },
        {
            "positions": [
                0.5114312835050239,
                -1.31241105449907,
                -0.2610075977826505,
                -0.9336060860200486,
                -0.49940004376858504,
                1.0417374757016038
            ]
        },
        {
            "positions": [
                0.3746705798826512,
                -1.316665517899236,
                -0.15734441488662446,
                -0.8951720288914262,
                -0.4324283656912423,
                1.0792198362376166
            ]
        },
        {
            "positions": [
                0.3256866188614792,
                -1.3025688900014356,
                -0.046913471427807885,
                -0.7689369466888933,
                -0.3958613083759519,
                1.032453704630678
            ]
        },
        {
            "positions": [
                0.2767026578403072,
                -1.2884722621036353,
                0.06351747203100869,
                -0.6427018644863605,
                -0.35929425106066154,
                0.9856875730237395
            ]
        },
        {
            "positions": [
                0.2277186968191352,
                -1.274375634205835,
                0.1739484154898253,
                -0.5164667822838277,
                -0.3227271937453712,
                0.938921441416801
            ]
        },
        {
            "positions": [
                0.1787347357979632,
                -1.2602790063080347,
                0.28437935894864186,
                -0.3902317000812948,
                -0.28616013643008076,
                0.8921553098098625
            ]
        },
        {
            "positions": [
                0.1297507747767912,
                -1.2461823784102344,
                0.3948103024074584,
                -0.26399661787876194,
                -0.24959307911479037,
                0.8453891782029239
            ]
        },
        {
            "positions": [
                0.08076681375561923,
                -1.232085750512434,
                0.5052412458662751,
                -0.13776153567622917,
                -0.21302602179949998,
                0.7986230465959854
            ]
        },
        {
            "positions": [
                0.0317828527344472,
                -1.2179891226146338,
                0.6156721893250916,
                -0.011526453473696296,
                -0.1764589644842096,
                0.7518569149890468
            ]
        },
        {
            "positions": [
                -0.017201108286724776,
                -1.2038924947168335,
                0.7261031327839081,
                0.11470862872883658,
                -0.1398919071689192,
                0.7050907833821083
            ]
        },
        {
            "positions": [
                -0.06618506930789675,
                -1.1897958668190332,
                0.8365340762427247,
                0.24094371093136946,
                -0.10332484985362878,
                0.6583246517751697
            ]
        },
        {
            "positions": [
                -0.11516903032906878,
                -1.175699238921233,
                0.9469650197015412,
                0.36717879313390234,
                -0.06675779253833841,
                0.6115585201682312
            ]
        },
        {
            "positions": [
                -0.16415299135024075,
                -1.1616026110234328,
                1.0573959631603578,
                0.4934138753364352,
                -0.03019073522304805,
                0.5647923885612927
            ]
        },
        {
            "positions": [
                -0.21313695237141272,
                -1.1475059831256325,
                1.1678269066191744,
                0.6196489575389679,
                0.00637632209224237,
                0.5180262569543541
            ]
        },
        {
            "positions": [
                -0.2621209133925847,
                -1.1334093552278321,
                1.2782578500779909,
                0.7458840397415007,
                0.04294337940753279,
                0.47126012534741557
            ]
        },
        {
            "positions": [
                -0.3111048744137568,
                -1.1193127273300318,
                1.3886887935368075,
                0.8721191219440336,
                0.0795104367228231,
                0.424493993740477
            ]
        },
        {
            "positions": [
                -0.36008883543492876,
                -1.1052160994322315,
                1.499119736995624,
                0.9983542041465665,
                0.11607749403811352,
                0.3777278621335385
            ]
        },
        {
            "positions": [
                -0.40907279645610073,
                -1.0911194715344312,
                1.6095506804544406,
                1.1245892863490994,
                0.15264455135340393,
                0.3309617305266
            ]
        },
        {
            "positions": [
                -0.34254220561019294,
                -1.053348350432607,
                1.6608930817762397,
                1.2357962415201662,
                0.11757973302496563,
                0.27663942203777936
            ]
        },
        {
            "positions": [
                -0.27601161476428515,
                -1.0155772293307832,
                1.712235483098039,
                1.3470031966912333,
                0.08251491469652733,
                0.22231711354895878
            ]
        },
        {
            "positions": [
                -0.20948102391837736,
                -0.9778061082289592,
                1.7635778844198382,
                1.4582101518623003,
                0.04745009636808903,
                0.16799480506013817
            ]
        },
        {
            "positions": [
                -0.14295043307246957,
                -0.9400349871271352,
                1.8149202857416373,
                1.5694171070333671,
                0.012385278039650727,
                0.11367249657131756
            ]
        },
        {
            "positions": [
                -0.07641984222656178,
                -0.9022638660253112,
                1.8662626870634367,
                1.680624062204434,
                -0.022679540288787575,
                0.05935018808249698
            ]
        },
        {
            "positions": [
                -0.009889251380653996,
                -0.8644927449234872,
                1.9176050883852358,
                1.791831017375501,
                -0.05774435861722588,
                0.005027879593676343
            ]
        },
        {
            "positions": [
                0.05664133946525379,
                -0.8267216238216631,
                1.968947489707035,
                1.903037972546568,
                -0.09280917694566418,
                -0.04929442889514429
            ]
        },
        {
            "positions": [
                0.12317193031116155,
                -0.7889505027198391,
                2.0202898910288343,
                2.014244927717635,
                -0.12787399527410245,
                -0.10361673738396485
            ]
        }
    ]
}