{
    "goal": {
        "global_pose": {
            "orientation": {
                "w": 0.5084816217422485,
                "x": -0.49083608388900757,
                "y": 0.5182115435600281,
                "z": -0.4816462993621826
            },
            "position": {
                "x": 0.5540239810943604,
                "y": 0.030875300988554955,
                "z": 0.16403168439865112
            }
        },
        "name": "move_to_storage_A"
    },
    "id": "RRTConnect_move_to_storage_A_38",
    "joint_names": [
        "shoulder_pan_joint",
        "shoulder_lift_joint",
        "elbow_joint",
        "wrist_1_joint",
        "wrist_2_joint",
        "wrist_3_joint"
    ],
    "metrics": {
        "cart_traj_len": 0.3530102358143898,
        "distance_elbow_joint": 0.44840322535270016,
        "distance_shoulder_lift_joint": 0.23622141726168566,
        "distance_shoulder_pan_joint": 0.4627872331339758,
        "distance_wrist_1_joint": 0.2336985925347962,
        "distance_wrist_2_joint": 1.0943200270946356,
        "distance_wrist_3_joint": 0.09763568535915779,
        "smoothness": 1.998401447697199e-15,
        "time": 0.048394592,
        "traj_len": 1.6040779846182516,
        "weighted_distance": 2.023945693709369
    },
    "planner": "RRTConnect",
    "start": {
        "state": {
            "elbow_joint": 1.971548259319323,
            "shoulder_lift_joint": -1.1394851275133948,
            "shoulder_pan_joint": 0.1228115487234821,
            "wrist_1_joint": -0.7804723859257726,
            "wrist_2_joint": 0.12958671773740124,
            "wrist_3_joint": -3.192489227718131
        }
    },
    "waypoints": [
        {
            "positions": [
                0.1228115487234821,
                -1.1394851275133948,
                1.971548259319323,
                -0.7804723859257726,
                0.12958671773740124,
                -3.192489227718131
            ]
        },
        {
            "positions": [
                0.05669908684719985,
                -1.1732310442650642,
                2.035605862941137,
                -0.8138578991450293,
                0.28591815017949207,
                -3.178541272666823
            ]
        },
        {
            "positions": [
                -0.009413375029082405,
                -1.2069769610167336,
                2.0996634665629514,
                -0.8472434123642858,
                0.44224958262158287,
                -3.1645933176155148
            ]
        },
        {
            "positions": [
                -0.07552583690536466,
                -1.240722877768403,
                2.163721070184766,
                -0.8806289255835424,
                0.5985810150636737,
                -3.1506453625642066
            ]
        },
        {
            "positions": [
                -0.1416382987816469,
                -1.2744687945200723,
                2.22777867380658,
                -0.914014438802799,
                0.7549124475057645,
                -3.136697407512898
            ]
        },
        {
            "positions": [
                -0.2077507606579292,
                -1.3082147112717417,
                2.2918362774283945,
                -0.9473999520220556,
                0.9112438799478553,
                -3.1227494524615897
            ]
        },
        {
            "positions": [
                -0.2738632225342114,
                -1.341960628023411,
                2.355893881050209,
                -0.9807854652413122,
                1.067575312389946,
                -3.1088014974102816
            ]
        },
        {
            "positions": [
                -0.3399756844104937,
                -1.3757065447750805,
                2.419951484672023,
                -1.0141709784605688,
                1.2239067448320369,
                -3.0948535423589734
            ]
        }
    ]
}{
    "goal": {
        "global_pose": {
            "orientation": {
                "w": 0.5084816217422485,
                "x": -0.49083608388900757,
                "y": 0.5182115435600281,
                "z": -0.4816462993621826
            },
            "position": {
                "x": 0.5540239810943604,
                "y": 0.030875300988554955,
                "z": 0.16403168439865112
            }
        },
        "name": "move_to_storage_A"
    },
    "id": "RRTConnect_move_to_storage_A_38",
    "joint_names": [
        "shoulder_pan_joint",
        "shoulder_lift_joint",
        "elbow_joint",
        "wrist_1_joint",
        "wrist_2_joint",
        "wrist_3_joint"
    ],
    "metrics": {
        "cart_traj_len": 0.3536113968789409,
        "distance_elbow_joint": 0.44961485410961766,
        "distance_shoulder_lift_joint": 0.23559035341946655,
        "distance_shoulder_pan_joint": 0.4627089599392845,
        "distance_wrist_1_joint": 0.2369019476670282,
        "distance_wrist_2_joint": 1.099290507812155,
        "distance_wrist_3_joint": 0.08914388709061649,
        "smoothness": 6.661338200497456e-16,
        "time": 0.046174915,
        "traj_len": 1.6041354400542895,
        "weighted_distance": 2.0218137252720845
    },
    "planner": "RRTConnect",
    "start": {
        "state": {
            "elbow_joint": 1.97154746011099,
            "shoulder_lift_joint": -1.13948474672311,
            "shoulder_pan_joint": 0.12281154466712228,
            "wrist_1_joint": -0.7804688027058302,
            "wrist_2_joint": 0.12958655903071145,
            "wrist_3_joint": 3.0906928834467795
        }
    },
    "waypoints": [
        {
            "positions": [
                0.12281154466712228,
                -1.13948474672311,
                1.97154746011099,
                -0.7804688027058302,
                0.12958655903071145,
                3.0906928834467795
            ]
        },
        {
            "positions": [
                0.05671026467579593,
                -1.1731405114973195,
                2.035778153555221,
                -0.8143119380868342,
                0.2866280601467336,
                3.1034277244597246
            ]
        },
        {
            "positions": [
                -0.009391015315530424,
                -1.206796276271529,
                2.1000088469994522,
                -0.8481550734678382,
                0.4436695612627557,
                3.11616256547267
            ]
        },
        {
            "positions": [
                -0.07549229530685679,
                -1.2404520410457385,
                2.1642395404436834,
                -0.8819982088488423,
                0.6007110623787779,
                3.128897406485615
            ]
        },
        {
            "positions": [
                -0.14159357529818312,
                -1.274107805819948,
                2.228470233887914,
                -0.9158413442298463,
                0.7577525634948,
                3.1416322474985603
            ]
        },
        {
            "positions": [
                -0.20769485528950948,
                -1.3077635705941575,
                2.2927009273321453,
                -0.9496844796108503,
                0.9147940646108222,
                3.1543670885115054
            ]
        },
        {
            "positions": [
                -0.27379613528083585,
                -1.341419335368367,
                2.3569316207763764,
                -0.9835276149918544,
                1.0718355657268444,
                3.167101929524451
            ]
        },
        {
            "positions": [
                -0.3398974152721622,
                -1.3750751001425765,
                2.4211623142206076,
                -1.0173707503728584,
                1.2288770668428666,
                3.179836770537396
            ]
        }
    ]
}{
    "goal": {
        "global_pose": {
            "orientation": {
                "w": 0.5084816217422485,
                "x": -0.49083608388900757,
                "y": 0.5182115435600281,
                "z": -0.4816462993621826
            },
            "position": {
                "x": 0.5540239810943604,
                "y": 0.030875300988554955,
                "z": 0.16403168439865112
            }
        },
        "name": "move_to_storage_A"
    },
    "id": "RRTConnect_move_to_storage_A_38",
    "joint_names": [
        "shoulder_pan_joint",
        "shoulder_lift_joint",
        "elbow_joint",
        "wrist_1_joint",
        "wrist_2_joint",
        "wrist_3_joint"
    ],
    "metrics": {
        "cart_traj_len": 0.35276062320736046,
        "distance_elbow_joint": 0.4518034190175677,
        "distance_shoulder_lift_joint": 0.23206372037857137,
        "distance_shoulder_pan_joint": 0.4608053763719135,
        "distance_wrist_1_joint": 0.259116374800336,
        "distance_wrist_2_joint": 1.098820685125173,
        "distance_wrist_3_joint": 0.09655554620884255,
        "smoothness": 4.440892098500626e-16,
        "time": 0.050446649,
        "traj_len": 1.6121926441658279,
        "weighted_distance": 2.03720722417863
    },
    "planner": "RRTConnect",
    "start": {
        "state": {
            "elbow_joint": 1.9715472970024885,
            "shoulder_lift_joint": -1.1394870060712896,
            "shoulder_pan_joint": 0.12281152778156021,
            "wrist_1_joint": -0.780463741449964,
            "wrist_2_joint": 0.12958659822042276,
            "wrist_3_joint": 3.090690232415272
        }
    },
    "waypoints": [
        {
            "positions": [
                0.12281152778156021,
                -1.1394870060712896,
                1.9715472970024885,
                -0.780463741449964,
                0.12958659822042276,
                3.090690232415272
            ]
        },
        {
            "positions": [
                0.056982188299858294,
                -1.1726389661253713,
                2.036090642576427,
                -0.8174803664214406,
                0.28656098180973316,
                3.1044838818736777
            ]
        },
        {
            "positions": [
                -0.008847151181843621,
                -1.2057909261794528,
                2.100633988150365,
                -0.8544969913929171,
                0.4435353653990436,
                3.118277531332084
            ]
        },
        {
            "positions": [
                -0.07467649066354554,
                -1.2389428862335345,
                2.165177333724303,
                -0.8915136163643937,
                0.600509748988354,
                3.13207118079049
            ]
        },
        {
            "positions": [
                -0.14050583014524745,
                -1.272094846287616,
                2.2297206792982416,
                -0.9285302413358703,
                0.7574841325776643,
                3.1458648302488963
            ]
        },
        {
            "positions": [
                -0.2063351696269494,
                -1.3052468063416978,
                2.29426402487218,
                -0.9655468663073469,
                0.9144585161669748,
                3.159658479707302
            ]
        },
        {
            "positions": [
                -0.2721645091086513,
                -1.3383987663957793,
                2.358807370446118,
                -1.0025634912788235,
                1.0714328997562852,
                3.1734521291657085
            ]
        },
        {
            "positions": [
                -0.33799384859035325,
                -1.371550726449861,
                2.4233507160200563,
                -1.0395801162503,
                1.2284072833455957,
                3.1872457786241144
            ]
        }
    ]
}