{
    "goal": {
        "global_pose": {
            "orientation": {
                "w": 0.5084816262002911,
                "x": -0.4908360881923452,
                "y": 0.5182115481033761,
                "z": -0.48164630358495003
            },
            "position": {
                "x": 0.5540239810943604,
                "y": -0.46912469901144505,
                "z": 0.16403168439865112
            }
        },
        "name": "move_to_storage_B"
    },
    "id": "RRTConnect_move_to_storage_B_134",
    "joint_names": [
        "shoulder_pan_joint",
        "shoulder_lift_joint",
        "elbow_joint",
        "wrist_1_joint",
        "wrist_2_joint",
        "wrist_3_joint"
    ],
    "metrics": {
        "cart_traj_len": 1.531654005263595,
        "distance_elbow_joint": 1.7353629989485917,
        "distance_shoulder_lift_joint": 2.0616770736540486,
        "distance_shoulder_pan_joint": 1.0524139563644919,
        "distance_wrist_1_joint": 2.9878083355261578,
        "distance_wrist_2_joint": 2.7012998702161513,
        "distance_wrist_3_joint": 5.626085799694812,
        "smoothness": 0.6216304033250418,
        "time": 0.112555832,
        "traj_len": 4.0205283277704,
        "weighted_distance": 5.753775094625805
    },
    "planner": "RRTConnect",
    "start": {
        "state": {
            "elbow_joint": 1.664937868594044,
            "shoulder_lift_joint": -0.661644460510453,
            "shoulder_pan_joint": -0.9139846352900073,
            "wrist_1_joint": 2.146753192139373,
            "wrist_2_joint": -2.2341966793290973,
            "wrist_3_joint": 0.005466555786416001
        }
    },
    "waypoints": [
        {
            "positions": [
                -0.9139846352900073,
                -0.661644460510453,
                1.664937868594044,
                2.146753192139373,
                -2.2341966793290973,
                0.005466555786416001
            ]
        },
        {
            "positions": [
                -0.8208371632793112,
                -0.7569921786420721,
                1.6732905246577099,
                2.1368748498604635,
                -2.2158568192413526,
                0.06765281774984015
            ]
        },
        {
            "positions": [
                -0.7276896912686153,
                -0.8523398967736913,
                1.6816431807213756,
                2.1269965075815542,
                -2.1975169591536083,
                0.1298390797132643
            ]
        },
        {
            "positions": [
                -0.7791479431720228,
                -0.9414459970141147,
                1.767041525798512,
                2.127479500438179,
                -2.1425987281324366,
                0.02579313580138609
            ]
        },
        {
            "positions": [
                -0.8306061950754305,
                -1.030552097254538,
                1.8524398708756482,
                2.127962493294804,
                -2.0876804971112644,
                -0.07825280811049212
            ]
        },
        {
            "positions": [
                -0.8820644469788381,
                -1.1196581974949613,
                1.9378382159527845,
                2.1284454861514286,
                -2.032762266090092,
                -0.18229875202237034
            ]
        },
        {
            "positions": [
                -0.9335226988822457,
                -1.2087642977353847,
                2.023236561029921,
                2.1289284790080534,
                -1.9778440350689204,
                -0.28634469593424855
            ]
        },
        {
            "positions": [
                -0.9849809507856534,
                -1.2978703979758082,
                2.1086349061070573,
                2.129411471864678,
                -1.9229258040477484,
                -0.3903906398461268
            ]
        },
        {
            "positions": [
                -1.036439202689061,
                -1.3869764982162316,
                2.1940332511841936,
                2.1298944647213034,
                -1.8680075730265764,
                -0.494436583758005
            ]
        },
        {
            "positions": [
                -1.0878974545924687,
                -1.4760825984566548,
                2.27943159626133,
                2.130377457577928,
                -1.8130893420054044,
                -0.5984825276698833
            ]
        },
        {
            "positions": [
                -1.1393557064958761,
                -1.5651886986970782,
                2.364829941338466,
                2.130860450434553,
                -1.7581711109842324,
                -0.7025284715817615
            ]
        },
        {
            "positions": [
                -1.1908139583992838,
                -1.6542947989375016,
                2.4502282864156024,
                2.1313434432911778,
                -1.7032528799630604,
                -0.8065744154936396
            ]
        },
        {
            "positions": [
                -1.2422722103026915,
                -1.7434008991779248,
                2.5356266314927387,
                2.1318264361478025,
                -1.6483346489418884,
                -0.910620359405518
            ]
        },
        {
            "positions": [
                -1.293730462206099,
                -1.8325069994183483,
                2.621024976569875,
                2.1323094290044273,
                -1.5934164179207164,
                -1.0146663033173962
            ]
        },
        {
            "positions": [
                -1.3451887141095067,
                -1.9216130996587717,
                2.7064233216470113,
                2.132792421861052,
                -1.5384981868995444,
                -1.1187122472292743
            ]
        },
        {
            "positions": [
                -1.336309428770142,
                -1.8929806555692814,
                2.6816419807221674,
                2.026997574122165,
                -1.4668695662643088,
                -0.9668136061997948
            ]
        },
        {
            "positions": [
                -1.3274301434307776,
                -1.8643482114797911,
                2.656860639797324,
                1.9212027263832778,
                -1.395240945629073,
                -0.8149149651703154
            ]
        },
        {
            "positions": [
                -1.318550858091413,
                -1.8357157673903006,
                2.63207929887248,
                1.8154078786443906,
                -1.3236123249938374,
                -0.6630163241408359
            ]
        },
        {
            "positions": [
                -1.3096715727520483,
                -1.8070833233008103,
                2.6072979579476363,
                1.7096130309055035,
                -1.2519837043586017,
                -0.5111176831113564
            ]
        },
        {
            "positions": [
                -1.3007922874126838,
                -1.77845087921132,
                2.5825166170227924,
                1.603818183166616,
                -1.180355083723366,
                -0.3592190420818768
            ]
        },
        {
            "positions": [
                -1.2919130020733192,
                -1.7498184351218296,
                2.557735276097949,
                1.498023335427729,
                -1.1087264630881304,
                -0.20732040105239746
            ]
        },
        {
            "positions": [
                -1.2830337167339545,
                -1.7211859910323393,
                2.532953935173105,
                1.392228487688842,
                -1.0370978424528947,
                -0.055421760022917876
            ]
        },
        {
            "positions": [
                -1.27415443139459,
                -1.692553546942849,
                2.5081725942482613,
                1.2864336399499547,
                -0.9654692218176592,
                0.09647688100656149
            ]
        },
        {
            "positions": [
                -1.2652751460552254,
                -1.6639211028533587,
                2.483391253323418,
                1.1806387922110675,
                -0.8938406011824235,
                0.2483755220360413
            ]
        },
        {
            "positions": [
                -1.2563958607158607,
                -1.6352886587638684,
                2.458609912398574,
                1.0748439444721802,
                -0.8222119805471878,
                0.40027416306552066
            ]
        },
        {
            "positions": [
                -1.2475165753764963,
                -1.606656214674378,
                2.43382857147373,
                0.9690490967332932,
                -0.7505833599119522,
                0.552172804095
            ]
        },
        {
            "positions": [
                -1.2386372900371316,
                -1.5780237705848876,
                2.409047230548887,
                0.8632542489944062,
                -0.6789547392767166,
                0.7040714451244794
            ]
        },
        {
            "positions": [
                -1.229758004697767,
                -1.5493913264953973,
                2.384265889624043,
                0.7574594012555187,
                -0.6073261186414809,
                0.8559700861539592
            ]
        },
        {
            "positions": [
                -1.2208787193584025,
                -1.5207588824059068,
                2.359484548699199,
                0.6516645535166317,
                -0.5356974980062452,
                1.0078687271834386
            ]
        },
        {
            "positions": [
                -1.2119994340190379,
                -1.4921264383164166,
                2.3347032077743552,
                0.5458697057777446,
                -0.46406887737100955,
                1.159767368212918
            ]
        },
        {
            "positions": [
                -1.2031201486796732,
                -1.4634939942269263,
                2.309921866849512,
                0.4400748580388574,
                -0.3924402567357739,
                1.3116660092423973
            ]
        },
        {
            "positions": [
                -1.1942408633403088,
                -1.434861550137436,
                2.285140525924668,
                0.33428001029997034,
                -0.3208116361005384,
                1.4635646502718767
            ]
        },
        {
            "positions": [
                -1.185361578000944,
                -1.4062291060479457,
                2.260359184999824,
                0.22848516256108287,
                -0.24918301546530253,
                1.615463291301357
            ]
        },
        {
            "positions": [
                -1.1764822926615794,
                -1.3775966619584552,
                2.2355778440749803,
                0.12269031482219583,
                -0.17755439483006685,
                1.7673619323308363
            ]
        },
        {
            "positions": [
                -1.1676030073222148,
                -1.348964217868965,
                2.210796503150137,
                0.016895467083308358,
                -0.10592577419483118,
                1.9192605733603156
            ]
        },
        {
            "positions": [
                -1.1587237219828503,
                -1.3203317737794746,
                2.186015162225293,
                -0.08889938065557867,
                -0.03429715355959573,
                2.071159214389795
            ]
        },
        {
            "positions": [
                -1.1498444366434857,
                -1.2916993296899841,
                2.161233821300449,
                -0.1946942283944657,
                0.037331467075639946,
                2.2230578554192744
            ]
        },
        {
            "positions": [
                -1.140965151304121,
                -1.263066885600494,
                2.1364524803756053,
                -0.30048907613335274,
                0.10896008771087562,
                2.3749564964487537
            ]
        },
        {
            "positions": [
                -1.1320858659647566,
                -1.2344344415110036,
                2.111671139450762,
                -0.40628392387223977,
                0.1805887083461113,
                2.526855137478233
            ]
        },
        {
            "positions": [
                -1.123206580625392,
                -1.205801997421513,
                2.086889798525918,
                -0.5120787716111272,
                0.2522173289813472,
                2.6787537785077133
            ]
        },
        {
            "positions": [
                -1.1143272952860273,
                -1.177169553332023,
                2.0621084576010746,
                -0.6178736193500147,
                0.32384594961658264,
                2.8306524195371927
            ]
        },
        {
            "positions": [
                -1.1054480099466628,
                -1.1485371092425325,
                2.037327116676231,
                -0.7236684670889018,
                0.3954745702518183,
                2.982551060566672
            ]
        },
        {
            "positions": [
                -1.0965687246072982,
                -1.1199046651530422,
                2.012545775751387,
                -0.8294633148277889,
                0.4671031908870541,
                3.1344497015961514
            ]
        }
    ]
}