{
    "goal": {
        "global_pose": {
            "orientation": {
                "w": 0.5084816262002911,
                "x": -0.4908360881923452,
                "y": 0.5182115481033761,
                "z": -0.48164630358495003
            },
            "position": {
                "x": 0.5540239810943604,
                "y": -0.46912469901144505,
                "z": 0.16403168439865112
            }
        },
        "name": "move_to_storage_B"
    },
    "id": "RRTConnect_move_to_storage_B_109",
    "joint_names": [
        "shoulder_pan_joint",
        "shoulder_lift_joint",
        "elbow_joint",
        "wrist_1_joint",
        "wrist_2_joint",
        "wrist_3_joint"
    ],
    "metrics": {
        "cart_traj_len": 1.8203607786131655,
        "distance_elbow_joint": 1.3815609574951777,
        "distance_shoulder_lift_joint": 0.7053721923921952,
        "distance_shoulder_pan_joint": 1.4248193352061673,
        "distance_wrist_1_joint": 2.993517636790261,
        "distance_wrist_2_joint": 2.7015038693424334,
        "distance_wrist_3_joint": 3.512183500321904,
        "smoothness": 0.1986424366938111,
        "time": 0.076164827,
        "traj_len": 3.5663647446031286,
        "weighted_distance": 5.0436441189208265
    },
    "planner": "RRTConnect",
    "start": {
        "state": {
            "elbow_joint": 1.664937868594044,
            "shoulder_lift_joint": -0.661644460510453,
            "shoulder_pan_joint": -0.9139846352900073,
            "wrist_1_joint": 2.146753192139373,
            "wrist_2_joint": -2.2341966793290973,
            "wrist_3_joint": 0.005466555786416001
        }
    },
    "waypoints": [
        {
            "positions": [
                -0.9139846352900073,
                -0.661644460510453,
                1.664937868594044,
                2.146753192139373,
                -2.2341966793290973,
                0.005466555786416001
            ]
        },
        {
            "positions": [
                -0.8251896900142651,
                -0.7263359969974785,
                1.591203807037527,
                2.0711731675690026,
                -2.1671237313047063,
                -0.020722662256977848
            ]
        },
        {
            "positions": [
                -0.736394744738523,
                -0.7910275334845042,
                1.51746974548101,
                1.9955931429986322,
                -2.100050783280315,
                -0.046911880300371696
            ]
        },
        {
            "positions": [
                -0.6475997994627807,
                -0.8557190699715298,
                1.4437356839244933,
                1.9200131184282616,
                -2.032977835255924,
                -0.07310109834376555
            ]
        },
        {
            "positions": [
                -0.5588048541870385,
                -0.9204106064585553,
                1.3700016223679763,
                1.844433093857891,
                -1.9659048872315328,
                -0.09929031638715939
            ]
        },
        {
            "positions": [
                -0.47000990891129635,
                -0.985102142945581,
                1.2962675608114593,
                1.7688530692875206,
                -1.8988319392071416,
                -0.12547953443055326
            ]
        },
        {
            "positions": [
                -0.3812149636355542,
                -1.0497936794326064,
                1.2225334992549424,
                1.69327304471715,
                -1.8317589911827505,
                -0.1516687524739471
            ]
        },
        {
            "positions": [
                -0.292420018359812,
                -1.1144852159196321,
                1.1487994376984254,
                1.6176930201467794,
                -1.7646860431583593,
                -0.17785797051734095
            ]
        },
        {
            "positions": [
                -0.3157717610276802,
                -1.120623947692081,
                1.172688074735667,
                1.5174654125691631,
                -1.6689425938316,
                -0.04484295362131657
            ]
        },
        {
            "positions": [
                -0.3391235036955483,
                -1.12676267946453,
                1.1965767117729083,
                1.4172378049915468,
                -1.5731991445048408,
                0.08817206327470781
            ]
        },
        {
            "positions": [
                -0.36247524636341644,
                -1.1329014112369789,
                1.2204653488101498,
                1.3170101974139308,
                -1.4774556951780813,
                0.22118708017073216
            ]
        },
        {
            "positions": [
                -0.38582698903128454,
                -1.1390401430094277,
                1.244353985847391,
                1.2167825898363145,
                -1.381712245851322,
                0.35420209706675654
            ]
        },
        {
            "positions": [
                -0.4091787316991527,
                -1.1451788747818765,
                1.2682426228846326,
                1.1165549822586982,
                -1.2859687965245628,
                0.4872171139627809
            ]
        },
        {
            "positions": [
                -0.43253047436702086,
                -1.1513176065543256,
                1.2921312599218742,
                1.0163273746810821,
                -1.1902253471978033,
                0.6202321308588052
            ]
        },
        {
            "positions": [
                -0.45588221703488896,
                -1.1574563383267744,
                1.3160198969591155,
                0.9160997671034659,
                -1.0944818978710442,
                0.7532471477548296
            ]
        },
        {
            "positions": [
                -0.4792339597027571,
                -1.1635950700992232,
                1.339908533996357,
                0.8158721595258496,
                -0.9987384485442848,
                0.8862621646508541
            ]
        },
        {
            "positions": [
                -0.5025857023706253,
                -1.1697338018716723,
                1.3637971710335983,
                0.7156445519482334,
                -0.9029949992175255,
                1.0192771815468784
            ]
        },
        {
            "positions": [
                -0.5259374450384934,
                -1.1758725336441211,
                1.3876858080708399,
                0.6154169443706172,
                -0.8072515498907662,
                1.1522921984429029
            ]
        },
        {
            "positions": [
                -0.5492891877063616,
                -1.18201126541657,
                1.4115744451080814,
                0.5151893367930007,
                -0.7115081005640067,
                1.2853072153389273
            ]
        },
        {
            "positions": [
                -0.5726409303742297,
                -1.1881499971890188,
                1.4354630821453227,
                0.41496172921538466,
                -0.6157646512372474,
                1.4183222322349516
            ]
        },
        {
            "positions": [
                -0.5959926730420979,
                -1.1942887289614679,
                1.4593517191825642,
                0.31473412163776837,
                -0.5200212019104882,
                1.551337249130976
            ]
        },
        {
            "positions": [
                -0.6193444157099659,
                -1.2004274607339167,
                1.4832403562198055,
                0.2145065140601523,
                -0.4242777525837289,
                1.6843522660270003
            ]
        },
        {
            "positions": [
                -0.6426961583778341,
                -1.2065661925063655,
                1.507128993257047,
                0.1142789064825358,
                -0.3285343032569694,
                1.8173672829230247
            ]
        },
        {
            "positions": [
                -0.6660479010457022,
                -1.2127049242788146,
                1.5310176302942886,
                0.01405129890491974,
                -0.23279085393021037,
                1.9503822998190492
            ]
        },
        {
            "positions": [
                -0.6893996437135703,
                -1.2188436560512634,
                1.5549062673315301,
                -0.08617630867269654,
                -0.13704740460345088,
                2.0833973167150734
            ]
        },
        {
            "positions": [
                -0.7127513863814385,
                -1.2249823878237123,
                1.5787949043687715,
                -0.1864039162503126,
                -0.04130395527669162,
                2.2164123336110975
            ]
        },
        {
            "positions": [
                -0.7361031290493067,
                -1.231121119596161,
                1.602683541406013,
                -0.2866315238279291,
                0.05443949405006787,
                2.349427350507122
            ]
        },
        {
            "positions": [
                -0.7594548717171747,
                -1.2372598513686102,
                1.6265721784432543,
                -0.38685913140554495,
                0.15018294337682692,
                2.4824423674031464
            ]
        },
        {
            "positions": [
                -0.782806614385043,
                -1.243398583141059,
                1.6504608154804958,
                -0.4870867389831614,
                0.2459263927035862,
                2.615457384299171
            ]
        },
        {
            "positions": [
                -0.8453802388351912,
                -1.218674969188741,
                1.7232130452439935,
                -0.5590222801167067,
                0.2902025521655359,
                2.722566108139498
            ]
        },
        {
            "positions": [
                -0.9079538632853394,
                -1.1939513552364234,
                1.7959652750074913,
                -0.6309578212502521,
                0.3344787116274856,
                2.8296748319798253
            ]
        },
        {
            "positions": [
                -0.9705274877354877,
                -1.1692277412841054,
                1.8687175047709892,
                -0.7028933623837974,
                0.3787548710894353,
                2.9367835558201523
            ]
        },
        {
            "positions": [
                -1.033101112185636,
                -1.1445041273317877,
                1.941469734534487,
                -0.7748289035173428,
                0.423031030551385,
                3.0438922796604797
            ]
        },
        {
            "positions": [
                -1.0956747366357842,
                -1.1197805133794698,
                2.0142219642979846,
                -0.8467644446508882,
                0.4673071900133347,
                3.1510010035008067
            ]
        }
    ]
}