{
    "goal": {
        "global_pose": {
            "orientation": {
                "w": 0.7047431493862688,
                "x": -0.7094548369677653,
                "y": 0.0024358444001904,
                "z": -0.0022348060817251984
            },
            "position": {
                "x": -0.39052492380142206,
                "y": 0.3671506643295288,
                "z": 0.19426114857196808
            }
        },
        "name": "move_to_magneteinheit_D"
    },
    "id": "RRTConnect_move_to_magneteinheit_D_119",
    "joint_names": [
        "shoulder_pan_joint",
        "shoulder_lift_joint",
        "elbow_joint",
        "wrist_1_joint",
        "wrist_2_joint",
        "wrist_3_joint"
    ],
    "metrics": {
        "cart_traj_len": 5.1410339674008245,
        "distance_elbow_joint": 3.4768616550495595,
        "distance_shoulder_lift_joint": 2.242879073250581,
        "distance_shoulder_pan_joint": 3.399553695005739,
        "distance_wrist_1_joint": 2.851746979421396,
        "distance_wrist_2_joint": 0.8111125714249978,
        "distance_wrist_3_joint": 3.9000405847439024,
        "smoothness": 0.7013725454625932,
        "time": 0.168498661,
        "traj_len": 4.084384232524675,
        "weighted_distance": 5.305198891580823
    },
    "planner": "RRTConnect",
    "start": {
        "state": {
            "elbow_joint": 0.749534889911806,
            "shoulder_lift_joint": -0.6476975780787326,
            "shoulder_pan_joint": -2.711696901376241,
            "wrist_1_joint": -0.07506478083263063,
            "wrist_2_joint": 0.43296659715538205,
            "wrist_3_joint": -3.14703540197715
        }
    },
    "waypoints": [
        {
            "positions": [
                -2.711696901376241,
                -0.6476975780787326,
                0.749534889911806,
                -0.07506478083263063,
                0.43296659715538205,
                -3.14703540197715
            ]
        },
        {
            "positions": [
                -2.7298879938019387,
                -0.6224304852948614,
                0.7042780036819128,
                -0.05266710578043034,
                0.47925607645285667,
                -2.9429404773717973
            ]
        },
        {
            "positions": [
                -2.7480790862276363,
                -0.5971633925109903,
                0.6590211174520197,
                -0.030269430728230046,
                0.5255455557503314,
                -2.7388455527664446
            ]
        },
        {
            "positions": [
                -2.766270178653334,
                -0.571896299727119,
                0.6137642312221268,
                -0.007871755676029754,
                0.571835035047806,
                -2.534750628161092
            ]
        },
        {
            "positions": [
                -2.7844612710790315,
                -0.5466292069432478,
                0.5685073449922337,
                0.014525919376170537,
                0.6181245143452806,
                -2.330655703555739
            ]
        },
        {
            "positions": [
                -2.7717951452562337,
                -0.5652252535813833,
                0.5458898437884007,
                -0.022830603793314266,
                0.622608952395776,
                -2.2390314685411488
            ]
        },
        {
            "positions": [
                -2.7383705407236714,
                -0.6139377965545524,
                0.5056598549304867,
                -0.11358905155528844,
                0.621246690116712,
                -2.0812533256469883
            ]
        },
        {
            "positions": [
                -2.7049459361911086,
                -0.6626503395277216,
                0.46542986607257275,
                -0.2043474993172626,
                0.619884427837648,
                -1.923475182752828
            ]
        },
        {
            "positions": [
                -2.671521331658546,
                -0.7113628825008906,
                0.4251998772146588,
                -0.29510594707923676,
                0.618522165558584,
                -1.7656970398586675
            ]
        },
        {
            "positions": [
                -2.5566369703288743,
                -0.7756863988593263,
                0.3420338813963806,
                -0.25401661570827544,
                0.6115112268031236,
                -1.6874932132611533
            ]
        },
        {
            "positions": [
                -2.4417526089992023,
                -0.8400099152177619,
                0.2588678855781023,
                -0.2129272843373141,
                0.6045002880476632,
                -1.6092893866636389
            ]
        },
        {
            "positions": [
                -2.3268682476695304,
                -0.9043334315761976,
                0.17570188975982404,
                -0.17183795296635274,
                0.5974893492922029,
                -1.5310855600661246
            ]
        },
        {
            "positions": [
                -2.2119838863398584,
                -0.9686569479346332,
                0.09253589394154582,
                -0.1307486215953914,
                0.5904784105367425,
                -1.4528817334686104
            ]
        },
        {
            "positions": [
                -2.0970995250101865,
                -1.032980464293069,
                0.009369898123267495,
                -0.08965929022443006,
                0.5834674717812822,
                -1.374677906871096
            ]
        },
        {
            "positions": [
                -1.9822151636805148,
                -1.0973039806515046,
                -0.07379609769501072,
                -0.04856995885346874,
                0.5764565330258218,
                -1.2964740802735815
            ]
        },
        {
            "positions": [
                -1.8673308023508428,
                -1.1616274970099403,
                -0.15696209351328905,
                -0.007480627482507385,
                0.5694455942703615,
                -1.2182702536760672
            ]
        },
        {
            "positions": [
                -1.752446441021171,
                -1.2259510133683758,
                -0.24012808933156715,
                0.03360870388845394,
                0.5624346555149011,
                -1.140066427078553
            ]
        },
        {
            "positions": [
                -1.6375620796914991,
                -1.2902745297268114,
                -0.3232940851498455,
                0.07469803525941526,
                0.5554237167594407,
                -1.0618626004810385
            ]
        },
        {
            "positions": [
                -1.522677718361827,
                -1.3545980460852471,
                -0.4064600809681238,
                0.11578736663037664,
                0.5484127780039804,
                -0.9836587738835242
            ]
        },
        {
            "positions": [
                -1.4077933570321552,
                -1.4189215624436828,
                -0.4896260767864019,
                0.1568766980013379,
                0.54140183924852,
                -0.90545494728601
            ]
        },
        {
            "positions": [
                -1.2929089957024833,
                -1.4832450788021183,
                -0.5727920726046802,
                0.1979660293722993,
                0.5343909004930596,
                -0.8272511206884956
            ]
        },
        {
            "positions": [
                -1.1780246343728116,
                -1.547568595160554,
                -0.6559580684229585,
                0.23905536074326061,
                0.5273799617375993,
                -0.7490472940909814
            ]
        },
        {
            "positions": [
                -1.0631402730431394,
                -1.6118921115189897,
                -0.7391240642412369,
                0.280144692114222,
                0.5203690229821389,
                -0.6708434674934669
            ]
        },
        {
            "positions": [
                -0.9482559117134675,
                -1.6762156278774254,
                -0.8222900600595149,
                0.32123402348518326,
                0.5133580842266786,
                -0.5926396408959527
            ]
        },
        {
            "positions": [
                -0.8333715503837957,
                -1.7405391442358609,
                -0.9054560558777931,
                0.36232335485614464,
                0.5063471454712182,
                -0.5144358142984384
            ]
        },
        {
            "positions": [
                -0.7184871890541236,
                -1.8048626605942968,
                -0.9886220516960715,
                0.403412686227106,
                0.49933620671575785,
                -0.436231987700924
            ]
        },
        {
            "positions": [
                -0.6036028277244521,
                -1.8691861769527323,
                -1.0717880475143498,
                0.4445020175980673,
                0.4923252679602975,
                -0.3580281611034095
            ]
        },
        {
            "positions": [
                -0.4887184663947801,
                -1.933509693311168,
                -1.154954043332628,
                0.48559134896902867,
                0.48531432920483714,
                -0.2798243345058953
            ]
        },
        {
            "positions": [
                -0.3738341050651077,
                -1.9978332096696036,
                -1.2381200391509064,
                0.52668068033999,
                0.47830339044937675,
                -0.20162050790838082
            ]
        },
        {
            "positions": [
                -0.2589497437354362,
                -2.0621567260280393,
                -1.3212860349691846,
                0.5677700117109513,
                0.4712924516939164,
                -0.12341668131086658
            ]
        },
        {
            "positions": [
                -0.14406538240576428,
                -2.126480242386475,
                -1.4044520307874626,
                0.6088593430819126,
                0.4642815129384561,
                -0.045212854713352346
            ]
        },
        {
            "positions": [
                -0.02918102107609233,
                -2.1908037587449103,
                -1.487618026605741,
                0.6499486744528741,
                0.45727057418299566,
                0.03299097188416211
            ]
        },
        {
            "positions": [
                0.08570334025357983,
                -2.255127275103346,
                -1.5707840224240193,
                0.6910380058238353,
                0.45025963542753533,
                0.1111947984816763
            ]
        },
        {
            "positions": [
                0.09891527768732927,
                -2.2262085166942853,
                -1.710618076413895,
                0.8550982947128922,
                0.46240764685085217,
                0.14816531231926067
            ]
        },
        {
            "positions": [
                0.1121272151210787,
                -2.197289758285224,
                -1.8504521304037704,
                1.019158583601949,
                0.474555658274169,
                0.18513582615684507
            ]
        },
        {
            "positions": [
                0.12533915255482814,
                -2.168370999876163,
                -1.9902861843936461,
                1.183218872491006,
                0.4867036696974858,
                0.22210633999442947
            ]
        },
        {
            "positions": [
                0.1385510899885776,
                -2.1394522414671022,
                -2.1301202383835216,
                1.347279161380063,
                0.49885168112080264,
                0.25907685383201384
            ]
        },
        {
            "positions": [
                0.15176302742232706,
                -2.1105334830580413,
                -2.2699542923733973,
                1.5113394502691198,
                0.5109996925441195,
                0.29604736766959827
            ]
        },
        {
            "positions": [
                0.1649749648560765,
                -2.08161472464898,
                -2.409788346363273,
                1.6753997391581765,
                0.5231477039674364,
                0.3330178815071826
            ]
        },
        {
            "positions": [
                0.17818690228982592,
                -2.052695966239919,
                -2.5496224003531487,
                1.8394600280472337,
                0.5352957153907532,
                0.369988395344767
            ]
        },
        {
            "positions": [
                0.10535867190300767,
                -2.098872231258233,
                -2.5140815273962276,
                1.7758683405210902,
                0.4624787515401241,
                0.2933850378603693
            ]
        },
        {
            "positions": [
                0.03253044151618942,
                -2.1450484962765475,
                -2.478540654439307,
                1.7122766529949467,
                0.38966178768949494,
                0.21678168037597154
            ]
        },
        {
            "positions": [
                -0.04029778887062882,
                -2.1912247612948614,
                -2.442999781482386,
                1.6486849654688032,
                0.31684482383886586,
                0.1401783228915738
            ]
        },
        {
            "positions": [
                -0.11312601925744709,
                -2.237401026313176,
                -2.407458908525465,
                1.5850932779426596,
                0.24402785998823673,
                0.06357496540717605
            ]
        },
        {
            "positions": [
                -0.1859542496442653,
                -2.28357729133149,
                -2.371918035568544,
                1.5215015904165161,
                0.17121089613760768,
                -0.013028392077221677
            ]
        }
    ]
}