{
    "goal": {
        "global_pose": {
            "orientation": {
                "w": 0.7047431468963623,
                "x": -0.7094548344612122,
                "y": 0.0024358443915843964,
                "z": -0.0022348060738295317
            },
            "position": {
                "x": 0.6094750761985779,
                "y": 0.3671506643295288,
                "z": 0.19426114857196808
            }
        },
        "name": "move_to_magneteinheit_A"
    },
    "id": "RRTConnect_move_to_magneteinheit_A_117",
    "joint_names": [
        "shoulder_pan_joint",
        "shoulder_lift_joint",
        "elbow_joint",
        "wrist_1_joint",
        "wrist_2_joint",
        "wrist_3_joint"
    ],
    "metrics": {
        "cart_traj_len": 3.9091531957508137,
        "distance_elbow_joint": 3.886343553585528,
        "distance_shoulder_lift_joint": 0.11753632937906011,
        "distance_shoulder_pan_joint": 3.766419472430864,
        "distance_wrist_1_joint": 1.0764286719631997,
        "distance_wrist_2_joint": 1.7379047218873274,
        "distance_wrist_3_joint": 3.7143737879957803,
        "smoothness": 0.3396574753606478,
        "time": 0.078831072,
        "traj_len": 3.781402720848675,
        "weighted_distance": 4.953997124250664
    },
    "planner": "RRTConnect",
    "start": {
        "state": {
            "elbow_joint": -1.9196185241190666,
            "shoulder_lift_joint": -1.2443396400964142,
            "shoulder_pan_joint": 2.6996025414629847,
            "wrist_1_joint": -1.5485510000780065,
            "wrist_2_joint": -1.5709468930060704,
            "wrist_3_joint": 0.4420197071253992
        }
    },
    "waypoints": [
        {
            "positions": [
                2.6996025414629847,
                -1.2443396400964142,
                -1.9196185241190666,
                -1.5485510000780065,
                -1.5709468930060704,
                0.4420197071253992
            ]
        },
        {
            "positions": [
                2.600479841159549,
                -1.2444812751532037,
                -1.8225892054109623,
                -1.5192695752100045,
                -1.5171785615040287,
                0.326827385779432
            ]
        },
        {
            "positions": [
                2.5013571408561135,
                -1.2446229102099935,
                -1.7255598867028579,
                -1.4899881503420025,
                -1.4634102300019873,
                0.21163506443346483
            ]
        },
        {
            "positions": [
                2.402234440552678,
                -1.244764545266783,
                -1.6285305679947535,
                -1.4607067254740007,
                -1.4096418984999457,
                0.09644274308749767
            ]
        },
        {
            "positions": [
                2.3031117402492423,
                -1.2449061803235728,
                -1.531501249286649,
                -1.4314253006059987,
                -1.355873566997904,
                -0.018749578258469513
            ]
        },
        {
            "positions": [
                2.2039890399458066,
                -1.2450478153803624,
                -1.4344719305785447,
                -1.4021438757379967,
                -1.3021052354958624,
                -0.1339418996044367
            ]
        },
        {
            "positions": [
                2.104866339642371,
                -1.245189450437152,
                -1.3374426118704403,
                -1.3728624508699947,
                -1.2483369039938208,
                -0.24913422095040383
            ]
        },
        {
            "positions": [
                2.0057436393389354,
                -1.2453310854939417,
                -1.240413293162336,
                -1.343581026001993,
                -1.1945685724917794,
                -0.36432654229637107
            ]
        },
        {
            "positions": [
                1.9066209390354998,
                -1.2454727205507312,
                -1.1433839744542316,
                -1.314299601133991,
                -1.1408002409897378,
                -0.4795188636423382
            ]
        },
        {
            "positions": [
                1.8074982387320642,
                -1.2456143556075208,
                -1.0463546557461272,
                -1.285018176265989,
                -1.0870319094876961,
                -0.5947111849883054
            ]
        },
        {
            "positions": [
                1.7083755384286285,
                -1.2457559906643105,
                -0.9493253370380229,
                -1.255736751397987,
                -1.0332635779856547,
                -0.7099035063342726
            ]
        },
        {
            "positions": [
                1.609252838125193,
                -1.2458976257211,
                -0.8522960183299186,
                -1.226455326529985,
                -0.9794952464836131,
                -0.8250958276802397
            ]
        },
        {
            "positions": [
                1.5101301378217573,
                -1.2460392607778896,
                -0.7552666996218143,
                -1.1971739016619831,
                -0.9257269149815714,
                -0.9402881490262068
            ]
        },
        {
            "positions": [
                1.4110074375183217,
                -1.2461808958346794,
                -0.6582373809137099,
                -1.1678924767939811,
                -0.8719585834795298,
                -1.0554804703721739
            ]
        },
        {
            "positions": [
                1.311884737214886,
                -1.246322530891469,
                -0.5612080622056055,
                -1.1386110519259791,
                -0.8181902519774883,
                -1.1706727917181414
            ]
        },
        {
            "positions": [
                1.2127620369114505,
                -1.2464641659482587,
                -0.4641787434975011,
                -1.1093296270579773,
                -0.7644219204754468,
                -1.2858651130641086
            ]
        },
        {
            "positions": [
                1.1136393366080148,
                -1.2466058010050483,
                -0.3671494247893967,
                -1.0800482021899753,
                -0.7106535889734051,
                -1.4010574344100757
            ]
        },
        {
            "positions": [
                1.0145166363045792,
                -1.2467474360618378,
                -0.27012010608129233,
                -1.0507667773219733,
                -0.6568852574713635,
                -1.5162497557560428
            ]
        },
        {
            "positions": [
                0.9153939360011436,
                -1.2468890711186276,
                -0.17309078737318795,
                -1.0214853524539713,
                -0.603116925969322,
                -1.63144207710201
            ]
        },
        {
            "positions": [
                0.816271235697708,
                -1.2470307061754171,
                -0.07606146866508356,
                -0.9922039275859694,
                -0.5493485944672805,
                -1.746634398447977
            ]
        },
        {
            "positions": [
                0.7171485353942724,
                -1.2471723412322069,
                0.02096785004302082,
                -0.9629225027179674,
                -0.4955802629652388,
                -1.8618267197939442
            ]
        },
        {
            "positions": [
                0.6180258350908368,
                -1.2473139762889964,
                0.11799716875112498,
                -0.9336410778499655,
                -0.4418119314631972,
                -1.9770190411399113
            ]
        },
        {
            "positions": [
                0.5189031347874011,
                -1.247455611345786,
                0.21502648745922937,
                -0.9043596529819635,
                -0.3880435999611558,
                -2.0922113624858785
            ]
        },
        {
            "positions": [
                0.4197804344839655,
                -1.2475972464025757,
                0.31205580616733375,
                -0.8750782281139616,
                -0.33427526845911415,
                -2.2074036838318456
            ]
        },
        {
            "positions": [
                0.3206577341805299,
                -1.2477388814593653,
                0.40908512487543813,
                -0.8457968032459596,
                -0.2805069369570725,
                -2.3225960051778127
            ]
        },
        {
            "positions": [
                0.22153503387709428,
                -1.2478805165161548,
                0.5061144435835425,
                -0.8165153783779577,
                -0.22673860545503088,
                -2.43778832652378
            ]
        },
        {
            "positions": [
                0.12241233357365866,
                -1.2480221515729446,
                0.6031437622916469,
                -0.7872339535099557,
                -0.17297027395298925,
                -2.552980647869747
            ]
        },
        {
            "positions": [
                0.023289633270223042,
                -1.2481637866297342,
                0.7001730809997513,
                -0.7579525286419538,
                -0.11920194245094784,
                -2.6681729692157146
            ]
        },
        {
            "positions": [
                -0.07583306703321258,
                -1.2483054216865237,
                0.7972023997078557,
                -0.7286711037739518,
                -0.0654336109489062,
                -2.7833652905616817
            ]
        },
        {
            "positions": [
                -0.1749557673366482,
                -1.2484470567433135,
                0.89423171841596,
                -0.6993896789059499,
                -0.011665279446864574,
                -2.898557611907649
            ]
        },
        {
            "positions": [
                -0.2740784676400838,
                -1.248588691800103,
                0.9912610371240644,
                -0.6701082540379479,
                0.04210305205517684,
                -3.013749933253616
            ]
        },
        {
            "positions": [
                -0.37320116794351943,
                -1.2487303268568928,
                1.0882903558321688,
                -0.640826829169946,
                0.09587138355721847,
                -3.128942254599583
            ]
        },
        {
            "positions": [
                -0.47232386824695505,
                -1.2488719619136823,
                1.1853196745402732,
                -0.611545404301944,
                0.14963971505926005,
                -3.24413457594555
            ]
        },
        {
            "positions": [
                -0.3534252557027704,
                -1.226271160401324,
                1.3416007455255108,
                -0.6394300195393715,
                0.14617609229486062,
                -3.238490674960584
            ]
        },
        {
            "positions": [
                -0.23452664315858573,
                -1.2036703588889655,
                1.4978818165107486,
                -0.667314634776799,
                0.14271246953046118,
                -3.2328467739756177
            ]
        },
        {
            "positions": [
                -0.11562803061440108,
                -1.1810695573766072,
                1.6541628874959862,
                -0.6951992500142263,
                0.13924884676606172,
                -3.227202872990652
            ]
        },
        {
            "positions": [
                0.003270581929783578,
                -1.1584687558642488,
                1.810443958481224,
                -0.7230838652516538,
                0.1357852240016623,
                -3.2215589720056856
            ]
        },
        {
            "positions": [
                0.12216919447396828,
                -1.1358679543518904,
                1.9667250294664615,
                -0.7509684804890813,
                0.13232160123726286,
                -3.2159150710207194
            ]
        }
    ]
}