{
    "goal": {
        "global_pose": {
            "orientation": {
                "w": 0.5084816262002911,
                "x": -0.4908360881923452,
                "y": 0.5182115481033761,
                "z": -0.48164630358495003
            },
            "position": {
                "x": 0.5540239810943604,
                "y": -0.46912469901144505,
                "z": 0.16403168439865112
            }
        },
        "name": "move_to_storage_B"
    },
    "id": "RRTConnect_move_to_storage_B_149",
    "joint_names": [
        "shoulder_pan_joint",
        "shoulder_lift_joint",
        "elbow_joint",
        "wrist_1_joint",
        "wrist_2_joint",
        "wrist_3_joint"
    ],
    "metrics": {
        "cart_traj_len": 0.6868759884600009,
        "distance_elbow_joint": 0.3511208269119592,
        "distance_shoulder_lift_joint": 0.46023433502495115,
        "distance_shoulder_pan_joint": 0.36214988895090394,
        "distance_wrist_1_joint": 2.9857768086464778,
        "distance_wrist_2_joint": 2.709101981989919,
        "distance_wrist_3_joint": 3.1345662497101845,
        "smoothness": 0.045137204701784214,
        "time": 0.12858282,
        "traj_len": 3.162744076151973,
        "weighted_distance": 4.6868925079727575
    },
    "planner": "RRTConnect",
    "start": {
        "state": {
            "elbow_joint": 1.664937868594044,
            "shoulder_lift_joint": -0.661644460510453,
            "shoulder_pan_joint": -0.9139846352900073,
            "wrist_1_joint": 2.146753192139373,
            "wrist_2_joint": -2.2341966793290973,
            "wrist_3_joint": 0.005466555786416001
        }
    },
    "waypoints": [
        {
            "positions": [
                -0.9139846352900073,
                -0.661644460510453,
                1.664937868594044,
                2.146753192139373,
                -2.2341966793290973,
                0.005466555786416001
            ]
        },
        {
            "positions": [
                -0.8687466012121419,
                -0.7075908058656795,
                1.6854519012217057,
                2.134192745512408,
                -2.200570684652395,
                -0.05417809730719734
            ]
        },
        {
            "positions": [
                -0.8235085671342763,
                -0.7535371512209059,
                1.7059659338493678,
                2.121632298885443,
                -2.1669446899756926,
                -0.11382275040081068
            ]
        },
        {
            "positions": [
                -0.8343755199660833,
                -0.7682708169934859,
                1.718369644315633,
                2.003206062269741,
                -2.061270690270232,
                -0.234433828141729
            ]
        },
        {
            "positions": [
                -0.8452424727978902,
                -0.7830044827660658,
                1.7307733547818986,
                1.8847798256540391,
                -1.9555966905647715,
                -0.3550449058826473
            ]
        },
        {
            "positions": [
                -0.856109425629697,
                -0.7977381485386457,
                1.743177065248164,
                1.7663535890383373,
                -1.849922690859311,
                -0.47565598362356565
            ]
        },
        {
            "positions": [
                -0.866976378461504,
                -0.8124718143112256,
                1.7555807757144295,
                1.6479273524226354,
                -1.7442486911538504,
                -0.5962670613644839
            ]
        },
        {
            "positions": [
                -0.8778433312933109,
                -0.8272054800838056,
                1.7679844861806948,
                1.5295011158069336,
                -1.6385746914483899,
                -0.7168781391054023
            ]
        },
        {
            "positions": [
                -0.8887102841251179,
                -0.8419391458563855,
                1.7803881966469604,
                1.4110748791912315,
                -1.5329006917429293,
                -0.8374892168463206
            ]
        },
        {
            "positions": [
                -0.8995772369569248,
                -0.8566728116289655,
                1.7927919071132257,
                1.2926486425755295,
                -1.4272266920374685,
                -0.958100294587239
            ]
        },
        {
            "positions": [
                -0.9104441897887317,
                -0.8714064774015453,
                1.805195617579491,
                1.1742224059598279,
                -1.3215526923320082,
                -1.0787113723281572
            ]
        },
        {
            "positions": [
                -0.9213111426205386,
                -0.8861401431741253,
                1.8175993280457565,
                1.055796169344126,
                -1.2158786926265477,
                -1.1993224500690756
            ]
        },
        {
            "positions": [
                -0.9321780954523455,
                -0.9008738089467052,
                1.8300030385120218,
                0.937369932728424,
                -1.110204692921087,
                -1.319933527809994
            ]
        },
        {
            "positions": [
                -0.9430450482841525,
                -0.9156074747192852,
                1.8424067489782874,
                0.8189436961127221,
                -1.0045306932156264,
                -1.4405446055509123
            ]
        },
        {
            "positions": [
                -0.9539120011159594,
                -0.9303411404918651,
                1.8548104594445527,
                0.7005174594970203,
                -0.8988566935101658,
                -1.5611556832918305
            ]
        },
        {
            "positions": [
                -0.9647789539477662,
                -0.945074806264445,
                1.8672141699108182,
                0.5820912228813182,
                -0.7931826938047053,
                -1.681766761032749
            ]
        },
        {
            "positions": [
                -0.9756459067795732,
                -0.959808472037025,
                1.8796178803770835,
                0.46366498626561614,
                -0.6875086940992445,
                -1.8023778387736673
            ]
        },
        {
            "positions": [
                -0.9865128596113801,
                -0.9745421378096049,
                1.892021590843349,
                0.3452387496499145,
                -0.5818346943937842,
                -1.9229889165145855
            ]
        },
        {
            "positions": [
                -0.9973798124431871,
                -0.9892758035821848,
                1.9044253013096144,
                0.22681251303421246,
                -0.47616069468832367,
                -2.0435999942555036
            ]
        },
        {
            "positions": [
                -1.008246765274994,
                -1.0040094693547648,
                1.9168290117758797,
                0.10838627641851062,
                -0.3704866949828629,
                -2.1642110719964225
            ]
        },
        {
            "positions": [
                -1.0191137181068008,
                -1.0187431351273446,
                1.9292327222421453,
                -0.010039960197191,
                -0.2648126952774026,
                -2.2848221497373404
            ]
        },
        {
            "positions": [
                -1.029980670938608,
                -1.0334768008999244,
                1.9416364327084106,
                -0.12846619681289306,
                -0.15913869557194182,
                -2.405433227478259
            ]
        },
        {
            "positions": [
                -1.0408476237704147,
                -1.0482104666725045,
                1.9540401431746761,
                -0.24689243342859513,
                -0.05346469586648128,
                -2.5260443052191772
            ]
        },
        {
            "positions": [
                -1.0517145766022216,
                -1.0629441324450843,
                1.9664438536409414,
                -0.36531867004429674,
                0.05220930383897926,
                -2.646655382960095
            ]
        },
        {
            "positions": [
                -1.0625815294340286,
                -1.0776777982176644,
                1.978847564107207,
                -0.4837449066599988,
                0.1578833035444398,
                -2.767266460701014
            ]
        },
        {
            "positions": [
                -1.0734484822658354,
                -1.0924114639902442,
                1.9912512745734723,
                -0.6021711432757009,
                0.26355730324990034,
                -2.8878775384419324
            ]
        },
        {
            "positions": [
                -1.0843154350976425,
                -1.107145129762824,
                2.003654985039738,
                -0.7205973798914025,
                0.3692313029553609,
                -3.0084886161828504
            ]
        },
        {
            "positions": [
                -1.0951823879294493,
                -1.1218787955354041,
                2.016058695506003,
                -0.8390236165071046,
                0.47490530266082165,
                -3.1290996939237687
            ]
        }
    ]
}