{
    "goal": {
        "global_pose": {
            "orientation": {
                "w": 0.005598929693374612,
                "x": 0.007748599140229565,
                "y": 0.7110244013736278,
                "z": -0.7031023480610252
            },
            "position": {
                "x": 0.1141497679147869,
                "y": -0.7141253447532654,
                "z": 0.3711530566215515
            }
        },
        "name": "move_to_auspresseinheit_B"
    },
    "id": "RRTConnect_move_to_auspresseinheit_B_144",
    "joint_names": [
        "shoulder_pan_joint",
        "shoulder_lift_joint",
        "elbow_joint",
        "wrist_1_joint",
        "wrist_2_joint",
        "wrist_3_joint"
    ],
    "metrics": {
        "cart_traj_len": 0.5643874546887552,
        "distance_elbow_joint": 0.060879069350886494,
        "distance_shoulder_lift_joint": 0.29553492847133533,
        "distance_shoulder_pan_joint": 0.5768893401154462,
        "distance_wrist_1_joint": 0.31896789302698225,
        "distance_wrist_2_joint": 0.9905847067049043,
        "distance_wrist_3_joint": 0.0035193108571744958,
        "smoothness": 0.0,
        "time": 0.042736031,
        "traj_len": 1.4987912624934565,
        "weighted_distance": 1.8875821756874493
    },
    "planner": "RRTConnect",
    "start": {
        "state": {
            "elbow_joint": 2.0193083361928714,
            "shoulder_lift_joint": -1.1220246554650708,
            "shoulder_pan_joint": -1.0952077554168747,
            "wrist_1_joint": -0.8559753972642168,
            "wrist_2_joint": 0.4759566250798843,
            "wrist_3_joint": -3.1240929996934557
        }
    },
    "waypoints": [
        {
            "positions": [
                -1.0952077554168747,
                -1.1220246554650708,
                2.0193083361928714,
                -0.8559753972642168,
                0.4759566250798843,
                -3.1240929996934557
            ]
        },
        {
            "positions": [
                -1.191355978769449,
                -1.17128047687696,
                2.0091618246343903,
                -0.8028140817597198,
                0.6410540761973683,
                -3.1246795515029846
            ]
        },
        {
            "positions": [
                -1.2875042021220233,
                -1.2205362982888492,
                1.9990153130759092,
                -0.7496527662552227,
                0.8061515273148523,
                -3.125266103312514
            ]
        },
        {
            "positions": [
                -1.3836524254745979,
                -1.2697921197007385,
                1.988868801517428,
                -0.6964914507507256,
                0.9712489784323364,
                -3.125852655122043
            ]
        },
        {
            "positions": [
                -1.479800648827172,
                -1.3190479411126277,
                1.9787222899589472,
                -0.6433301352462286,
                1.1363464295498205,
                -3.126439206931572
            ]
        },
        {
            "positions": [
                -1.5759488721797466,
                -1.368303762524517,
                1.968575778400466,
                -0.5901688197417316,
                1.3014438806673045,
                -3.1270257587411012
            ]
        },
        {
            "positions": [
                -1.6720970955323209,
                -1.4175595839364061,
                1.958429266841985,
                -0.5370075042372345,
                1.4665413317847886,
                -3.12761231055063
            ]
        }
    ]
}