{
    "goal": {
        "global_pose": {
            "orientation": {
                "w": 0.7047431493862688,
                "x": -0.7094548369677653,
                "y": 0.0024358444001904,
                "z": -0.0022348060817251984
            },
            "position": {
                "x": -0.39052492380142206,
                "y": 0.3671506643295288,
                "z": 0.19426114857196808
            }
        },
        "name": "move_to_magneteinheit_D"
    },
    "id": "RRTConnect_move_to_magneteinheit_D_139",
    "joint_names": [
        "shoulder_pan_joint",
        "shoulder_lift_joint",
        "elbow_joint",
        "wrist_1_joint",
        "wrist_2_joint",
        "wrist_3_joint"
    ],
    "metrics": {
        "cart_traj_len": 4.46894158357057,
        "distance_elbow_joint": 3.127398654464413,
        "distance_shoulder_lift_joint": 1.8396064205487923,
        "distance_shoulder_pan_joint": 4.087326159675589,
        "distance_wrist_1_joint": 3.1346802289526563,
        "distance_wrist_2_joint": 2.364831698806222,
        "distance_wrist_3_joint": 3.1476414052787254,
        "smoothness": 0.3263789344273736,
        "time": 0.197614818,
        "traj_len": 4.207313224342394,
        "weighted_distance": 5.431047717157597
    },
    "planner": "RRTConnect",
    "start": {
        "state": {
            "elbow_joint": 0.749534889911806,
            "shoulder_lift_joint": -0.6476975780787326,
            "shoulder_pan_joint": -2.711696901376241,
            "wrist_1_joint": -0.07506478083263063,
            "wrist_2_joint": 0.43296659715538205,
            "wrist_3_joint": -3.14703540197715
        }
    },
    "waypoints": [
        {
            "positions": [
                -2.711696901376241,
                -0.6476975780787326,
                0.749534889911806,
                -0.07506478083263063,
                0.43296659715538205,
                -3.14703540197715
            ]
        },
        {
            "positions": [
                -2.707002685858802,
                -0.6517736810065589,
                0.7378042737846431,
                0.08578171144442459,
                0.33276179338114265,
                -3.109640215434715
            ]
        },
        {
            "positions": [
                -2.7023084703413627,
                -0.6558497839343852,
                0.7260736576574802,
                0.2466282037214798,
                0.2325569896069033,
                -3.0722450288922807
            ]
        },
        {
            "positions": [
                -2.6976142548239235,
                -0.6599258868622115,
                0.7143430415303174,
                0.40747469599853503,
                0.1323521858326639,
                -3.0348498423498462
            ]
        },
        {
            "positions": [
                -2.6929200393064843,
                -0.6640019897900378,
                0.7026124254031545,
                0.5683211882755903,
                0.032147382058424545,
                -2.9974546558074113
            ]
        },
        {
            "positions": [
                -2.6628325473183283,
                -0.6710153453476153,
                0.681531036059555,
                0.742959165715666,
                -0.0812511609720287,
                -2.9509994907016535
            ]
        },
        {
            "positions": [
                -2.6327450553301723,
                -0.6780287009051928,
                0.6604496467159555,
                0.9175971431557416,
                -0.19464970400248194,
                -2.9045443255958956
            ]
        },
        {
            "positions": [
                -2.602657563342016,
                -0.6850420564627703,
                0.6393682573723559,
                1.0922351205958172,
                -0.30804824703293515,
                -2.8580891604901377
            ]
        },
        {
            "positions": [
                -2.57257007135386,
                -0.6920554120203478,
                0.6182868680287564,
                1.2668730980358929,
                -0.4214467900633884,
                -2.81163399538438
            ]
        },
        {
            "positions": [
                -2.542482579365704,
                -0.6990687675779254,
                0.5972054786851569,
                1.4415110754759686,
                -0.5348453330938416,
                -2.7651788302786215
            ]
        },
        {
            "positions": [
                -2.5123950873775476,
                -0.7060821231355028,
                0.5761240893415573,
                1.616149052916044,
                -0.6482438761242948,
                -2.7187236651728637
            ]
        },
        {
            "positions": [
                -2.4823075953893916,
                -0.7130954786930803,
                0.5550426999979579,
                1.7907870303561197,
                -0.7616424191547482,
                -2.672268500067106
            ]
        },
        {
            "positions": [
                -2.4522201034012356,
                -0.7201088342506579,
                0.5339613106543584,
                1.9654250077961954,
                -0.8750409621852013,
                -2.625813334961348
            ]
        },
        {
            "positions": [
                -2.3196952916238818,
                -0.7723781907684046,
                0.4689773076845512,
                1.9387132572478447,
                -0.8541715236626147,
                -2.5276304307067496
            ]
        },
        {
            "positions": [
                -2.1871704798465283,
                -0.8246475472861514,
                0.40399330471474404,
                1.912001506699494,
                -0.833302085140028,
                -2.4294475264521513
            ]
        },
        {
            "positions": [
                -2.0546456680691745,
                -0.8769169038038982,
                0.3390093017449368,
                1.885289756151143,
                -0.8124326466174414,
                -2.3312646221975526
            ]
        },
        {
            "positions": [
                -1.9221208562918208,
                -0.929186260321645,
                0.2740252987751297,
                1.8585780056027923,
                -0.7915632080948548,
                -2.2330817179429543
            ]
        },
        {
            "positions": [
                -1.7895960445144672,
                -0.9814556168393918,
                0.20904129580532255,
                1.8318662550544416,
                -0.7706937695722681,
                -2.134898813688356
            ]
        },
        {
            "positions": [
                -1.6570712327371133,
                -1.0337249733571385,
                0.14405729283551533,
                1.8051545045060908,
                -0.7498243310496815,
                -2.0367159094337577
            ]
        },
        {
            "positions": [
                -1.5245464209597595,
                -1.0859943298748853,
                0.07907328986570816,
                1.7784427539577399,
                -0.7289548925270948,
                -1.9385330051791592
            ]
        },
        {
            "positions": [
                -1.392021609182406,
                -1.1382636863926319,
                0.014089286895901054,
                1.7517310034093891,
                -0.7080854540045082,
                -1.8403501009245606
            ]
        },
        {
            "positions": [
                -1.2594967974050522,
                -1.1905330429103789,
                -0.050894716073906165,
                1.7250192528610384,
                -0.6872160154819216,
                -1.7421671966699623
            ]
        },
        {
            "positions": [
                -1.1269719856276985,
                -1.2428023994281254,
                -0.11587871904371327,
                1.6983075023126877,
                -0.6663465769593349,
                -1.643984292415364
            ]
        },
        {
            "positions": [
                -0.9944471738503446,
                -1.2950717559458722,
                -0.1808627220135205,
                1.671595751764337,
                -0.6454771384367483,
                -1.5458013881607655
            ]
        },
        {
            "positions": [
                -0.8619223620729912,
                -1.347341112463619,
                -0.2458467249833277,
                1.6448840012159862,
                -0.6246076999141617,
                -1.4476184839061672
            ]
        },
        {
            "positions": [
                -0.7293975502956376,
                -1.3996104689813658,
                -0.3108307279531348,
                1.6181722506676353,
                -0.6037382613915749,
                -1.349435579651569
            ]
        },
        {
            "positions": [
                -0.5968727385182835,
                -1.4518798254991125,
                -0.37581473092294204,
                1.5914605001192845,
                -0.5828688228689883,
                -1.2512526753969704
            ]
        },
        {
            "positions": [
                -0.46434792674092984,
                -1.5041491820168593,
                -0.44079873389274926,
                1.5647487495709338,
                -0.5619993843464017,
                -1.1530697711423719
            ]
        },
        {
            "positions": [
                -0.3318231149635764,
                -1.556418538534606,
                -0.5057827368625563,
                1.5380369990225828,
                -0.541129945823815,
                -1.0548868668877736
            ]
        },
        {
            "positions": [
                -0.19929830318622255,
                -1.6086878950523529,
                -0.5707667398323635,
                1.511325248474232,
                -0.5202605073012285,
                -0.9567039626331753
            ]
        },
        {
            "positions": [
                -0.06677349140886868,
                -1.6609572515700997,
                -0.6357507428021707,
                1.4846134979258814,
                -0.49939106877864176,
                -0.8585210583785767
            ]
        },
        {
            "positions": [
                0.06575132036848474,
                -1.7132266080878464,
                -0.7007347457719779,
                1.4579017473775306,
                -0.47852163025605515,
                -0.7603381541239784
            ]
        },
        {
            "positions": [
                0.1982761321458386,
                -1.7654959646055932,
                -0.7657187487417849,
                1.43118999682918,
                -0.4576521917334685,
                -0.6621552498693801
            ]
        },
        {
            "positions": [
                0.33080094392319204,
                -1.81776532112334,
                -0.8307027517115921,
                1.4044782462808292,
                -0.4367827532108819,
                -0.5639723456147818
            ]
        },
        {
            "positions": [
                0.46332575570054635,
                -1.8700346776410868,
                -0.8956867546813994,
                1.3777664957324782,
                -0.4159133146882952,
                -0.4657894413601831
            ]
        },
        {
            "positions": [
                0.5958505674778999,
                -1.9223040341588336,
                -0.9606707576512067,
                1.3510547451841275,
                -0.3950438761657086,
                -0.36760653710558455
            ]
        },
        {
            "positions": [
                0.5594202380254585,
                -1.9093925283356674,
                -1.1237782072168636,
                1.3912730026702005,
                -0.33617430137693705,
                -0.3239927128815507
            ]
        },
        {
            "positions": [
                0.5229899085730171,
                -1.896481022512501,
                -1.2868856567825206,
                1.4314912601562733,
                -0.2773047265881655,
                -0.2803788886575168
            ]
        },
        {
            "positions": [
                0.4865595791205756,
                -1.883569516689335,
                -1.4499931063481777,
                1.4717095176423463,
                -0.21843515179939402,
                -0.23676506443348289
            ]
        },
        {
            "positions": [
                0.4501292496681342,
                -1.8706580108661686,
                -1.6131005559138347,
                1.5119277751284192,
                -0.1595655770106225,
                -0.19315124020944902
            ]
        },
        {
            "positions": [
                0.4136989202156928,
                -1.8577465050430024,
                -1.7762080054794915,
                1.5521460326144922,
                -0.10069600222185099,
                -0.14953741598541515
            ]
        },
        {
            "positions": [
                0.37726859076325137,
                -1.8448349992198363,
                -1.9393154550451486,
                1.5923642901005652,
                -0.04182642743307946,
                -0.10592359176138122
            ]
        },
        {
            "positions": [
                0.34083826131080996,
                -1.83192349339667,
                -2.1024229046108056,
                1.632582547586638,
                0.017043147355692068,
                -0.06230976753734735
            ]
        },
        {
            "positions": [
                0.30440793185836856,
                -1.8190119875735038,
                -2.2655303541764624,
                1.672800805072711,
                0.0759127221444636,
                -0.01869594331331348
            ]
        },
        {
            "positions": [
                0.18232391805788956,
                -1.9344389670443443,
                -2.2936137067704987,
                1.633282275616916,
                0.102380335928457,
                -0.01387045665959147
            ]
        },
        {
            "positions": [
                0.060239904257410576,
                -2.0498659465151845,
                -2.321697059364535,
                1.5937637461611212,
                0.1288479497124504,
                -0.00904497000586946
            ]
        },
        {
            "positions": [
                -0.061844109543068404,
                -2.165292925986025,
                -2.3497804119585712,
                1.5542452167053262,
                0.15531556349644382,
                -0.004219483352147451
            ]
        },
        {
            "positions": [
                -0.1839281233435474,
                -2.2807199054568654,
                -2.3778637645526075,
                1.5147266872495313,
                0.18178317728043722,
                0.0006060033015745594
            ]
        }
    ]
}