{
    "goal": {
        "global_pose": {
            "orientation": {
                "w": -0.00223480608172531,
                "x": 0.0024358444001904467,
                "y": 0.7094548369677653,
                "z": -0.704743149386269
            },
            "position": {
                "x": -0.37947507619857795,
                "y": -0.6371506643295288,
                "z": 0.19426114857196808
            }
        },
        "name": "move_to_magneteinheit_C"
    },
    "id": "RRTConnect_move_to_magneteinheit_C_105",
    "joint_names": [
        "shoulder_pan_joint",
        "shoulder_lift_joint",
        "elbow_joint",
        "wrist_1_joint",
        "wrist_2_joint",
        "wrist_3_joint"
    ],
    "metrics": {
        "cart_traj_len": 0.539218617391271,
        "distance_elbow_joint": 0.05311203044500479,
        "distance_shoulder_lift_joint": 0.25367640086393717,
        "distance_shoulder_pan_joint": 0.802611777449868,
        "distance_wrist_1_joint": 0.30785420531921626,
        "distance_wrist_2_joint": 0.9711942494252993,
        "distance_wrist_3_joint": 0.3281428015591161,
        "smoothness": 0.715436286305834,
        "time": 0.172968686,
        "traj_len": 1.6482085623677731,
        "weighted_distance": 2.156832289012103
    },
    "planner": "RRTConnect",
    "start": {
        "state": {
            "elbow_joint": 1.9565354010623817,
            "shoulder_lift_joint": -1.4165861575791021,
            "shoulder_pan_joint": -1.6717766225146293,
            "wrist_1_joint": -0.5286633292919765,
            "wrist_2_joint": 1.472756589071564,
            "wrist_3_joint": -3.1238370188695823
        }
    },
    "waypoints": [
        {
            "positions": [
                -1.6717766225146293,
                -1.4165861575791021,
                1.9565354010623817,
                -0.5286633292919765,
                1.472756589071564,
                -3.1238370188695823
            ]
        },
        {
            "positions": [
                -1.7544491198187524,
                -1.3985588558962736,
                1.9634906879939078,
                -0.5510388289247019,
                1.251195815901986,
                -3.084862242643871
            ]
        },
        {
            "positions": [
                -1.8371216171228757,
                -1.380531554213445,
                1.9704459749254337,
                -0.5734143285574275,
                1.0296350427324081,
                -3.0458874664181597
            ]
        },
        {
            "positions": [
                -1.9197941144269988,
                -1.3625042525306166,
                1.9774012618569596,
                -0.595789828190153,
                0.8080742695628305,
                -3.006912690192448
            ]
        },
        {
            "positions": [
                -2.002466611731122,
                -1.344476950847788,
                1.9843565487884858,
                -0.6181653278228785,
                0.5865134963932526,
                -2.9679379139667366
            ]
        },
        {
            "positions": [
                -2.1597738744755803,
                -1.2839545528035803,
                1.9927868430281193,
                -0.6909493967523166,
                0.6148305486422485,
                -3.0253524795188267
            ]
        },
        {
            "positions": [
                -2.317081137220039,
                -1.2234321547593727,
                2.0012171372677527,
                -0.7637334656817546,
                0.6431476008912446,
                -3.082767045070917
            ]
        },
        {
            "positions": [
                -2.4743883999644973,
                -1.162909756715165,
                2.0096474315073865,
                -0.8365175346111927,
                0.6714646531402405,
                -3.140181610623007
            ]
        }
    ]
}