{
    "goal": {
        "global_pose": {
            "orientation": {
                "w": -0.00223480608172531,
                "x": 0.0024358444001904467,
                "y": 0.7094548369677653,
                "z": -0.704743149386269
            },
            "position": {
                "x": 0.6205249238014221,
                "y": -0.6371506643295288,
                "z": 0.19426114857196808
            }
        },
        "name": "move_to_magneteinheit_B"
    },
    "id": "RRTConnect_move_to_magneteinheit_B_21",
    "joint_names": [
        "shoulder_pan_joint",
        "shoulder_lift_joint",
        "elbow_joint",
        "wrist_1_joint",
        "wrist_2_joint",
        "wrist_3_joint"
    ],
    "metrics": {
        "cart_traj_len": 1.513607801680093,
        "distance_elbow_joint": 0.9540539794762457,
        "distance_shoulder_lift_joint": 0.7552747624838156,
        "distance_shoulder_pan_joint": 1.6212514334479022,
        "distance_wrist_1_joint": 0.6243351268646244,
        "distance_wrist_2_joint": 4.127087218534751,
        "distance_wrist_3_joint": 1.417517874193241,
        "smoothness": 0.782769664529805,
        "time": 0.076017905,
        "traj_len": 3.0821291982979204,
        "weighted_distance": 4.1335188990479335
    },
    "planner": "RRTConnect",
    "start": {
        "state": {
            "elbow_joint": 2.6216224122426386,
            "shoulder_lift_joint": -1.4174107377796124,
            "shoulder_pan_joint": 0.7066234856936794,
            "wrist_1_joint": 1.9546482284002225,
            "wrist_2_joint": -0.7096286983471962,
            "wrist_3_joint": 0.005740856962016249
        }
    },
    "waypoints": [
        {
            "positions": [
                0.7066234856936794,
                -1.4174107377796124,
                2.6216224122426386,
                1.9546482284002225,
                -0.7096286983471962,
                0.005740856962016249
            ]
        },
        {
            "positions": [
                0.6436342076470011,
                -1.4174567891485421,
                2.609735997214549,
                2.0061763533841717,
                -0.5466088598415271,
                0.09500095056862709
            ]
        },
        {
            "positions": [
                0.5806449296003229,
                -1.417502840517472,
                2.597849582186459,
                2.0577044783681204,
                -0.3835890213358579,
                0.18426104417523795
            ]
        },
        {
            "positions": [
                0.5176556515536446,
                -1.417548891886402,
                2.5859631671583694,
                2.1092326033520696,
                -0.22056918283018878,
                0.2735211377818488
            ]
        },
        {
            "positions": [
                0.45466637350696626,
                -1.4175949432553319,
                2.5740767521302796,
                2.160760728336019,
                -0.057549344324519636,
                0.36278123138845964
            ]
        },
        {
            "positions": [
                0.39167709546028795,
                -1.4176409946242616,
                2.5621903371021895,
                2.2122888533199676,
                0.10547049418114951,
                0.4520413249950705
            ]
        },
        {
            "positions": [
                0.3286878174136097,
                -1.4176870459931916,
                2.5503039220740997,
                2.263816978303917,
                0.26849033268681866,
                0.5413014186016812
            ]
        },
        {
            "positions": [
                0.26569853936693144,
                -1.4177330973621216,
                2.53841750704601,
                2.3153451032878656,
                0.4315101711924878,
                0.6305615122082922
            ]
        },
        {
            "positions": [
                0.20270926132025313,
                -1.4177791487310514,
                2.5265310920179203,
                2.366873228271815,
                0.5945300096981571,
                0.719821605814903
            ]
        },
        {
            "positions": [
                0.1369835431394016,
                -1.3733728927585587,
                2.4760038767678303,
                2.354396161978107,
                0.4284753914340748,
                0.6784429513831174
            ]
        },
        {
            "positions": [
                0.07125782495855004,
                -1.328966636786066,
                2.4254766615177408,
                2.3419190956843994,
                0.26242077316999257,
                0.6370642969513319
            ]
        },
        {
            "positions": [
                0.005532106777698498,
                -1.284560380813573,
                2.374949446267651,
                2.3294420293906914,
                0.09636615490591033,
                0.5956856425195464
            ]
        },
        {
            "positions": [
                -0.06019361140315305,
                -1.2401541248410803,
                2.324422231017561,
                2.3169649630969835,
                -0.06968846335817191,
                0.5543069880877608
            ]
        },
        {
            "positions": [
                -0.1259193295840046,
                -1.1957478688685876,
                2.273895015767471,
                2.304487896803276,
                -0.2357430816222541,
                0.5129283336559753
            ]
        },
        {
            "positions": [
                -0.19164504776485614,
                -1.151341612896095,
                2.223367800517381,
                2.292010830509568,
                -0.4017976998863364,
                0.4715496792241897
            ]
        },
        {
            "positions": [
                -0.2573707659457076,
                -1.1069353569236022,
                2.1728405852672914,
                2.27953376421586,
                -0.5678523181504186,
                0.4301710247924042
            ]
        },
        {
            "positions": [
                -0.3230964841265592,
                -1.0625291009511093,
                2.1223133700172014,
                2.2670566979221527,
                -0.7339069364145009,
                0.3887923703606187
            ]
        },
        {
            "positions": [
                -0.3888222023074107,
                -1.0181228449786168,
                2.0717861547671115,
                2.2545796316284448,
                -0.899961554678583,
                0.34741371592883313
            ]
        },
        {
            "positions": [
                -0.4545479204882623,
                -0.9737165890061239,
                2.021258939517022,
                2.2421025653347373,
                -1.0660161729426654,
                0.3060350614970476
            ]
        },
        {
            "positions": [
                -0.5202736386691139,
                -0.9293103330336312,
                1.970731724266932,
                2.2296254990410294,
                -1.2320707912067475,
                0.26465640706526206
            ]
        },
        {
            "positions": [
                -0.5859993568499654,
                -0.8849040770611384,
                1.920204509016842,
                2.2171484327473214,
                -1.39812540947083,
                0.2232777526334765
            ]
        },
        {
            "positions": [
                -0.6517250750308169,
                -0.8404978210886458,
                1.8696772937667523,
                2.204671366453614,
                -1.5641800277349116,
                0.18189909820169103
            ]
        },
        {
            "positions": [
                -0.7174507932116684,
                -0.796091565116153,
                1.8191500785166625,
                2.192194300159906,
                -1.7302346459989941,
                0.14052044376990547
            ]
        },
        {
            "positions": [
                -0.78317651139252,
                -0.7516853091436603,
                1.7686228632665726,
                2.179717233866198,
                -1.8962892642630762,
                0.09914178933812001
            ]
        },
        {
            "positions": [
                -0.8489022295733716,
                -0.7072790531711675,
                1.7180956480164826,
                2.1672401675724906,
                -2.0623438825271587,
                0.057763134906334446
            ]
        },
        {
            "positions": [
                -0.9146279477542231,
                -0.6628727971986748,
                1.6675684327663929,
                2.1547631012787827,
                -2.228398500791241,
                0.016384480474548862
            ]
        }
    ]
}