{
    "goal": {
        "global_pose": {
            "orientation": {
                "w": 0.005598929693374612,
                "x": 0.007748599140229565,
                "y": 0.7110244013736278,
                "z": -0.7031023480610252
            },
            "position": {
                "x": 0.1141497679147869,
                "y": -0.7141253447532654,
                "z": 0.3711530566215515
            }
        },
        "name": "move_to_auspresseinheit_B"
    },
    "id": "RRTConnect_move_to_auspresseinheit_B_98",
    "joint_names": [
        "shoulder_pan_joint",
        "shoulder_lift_joint",
        "elbow_joint",
        "wrist_1_joint",
        "wrist_2_joint",
        "wrist_3_joint"
    ],
    "metrics": {
        "cart_traj_len": 0.5655420930285786,
        "distance_elbow_joint": 0.06140302873050385,
        "distance_shoulder_lift_joint": 0.29460893357414175,
        "distance_shoulder_pan_joint": 0.5759211992824003,
        "distance_wrist_1_joint": 0.3173470754602259,
        "distance_wrist_2_joint": 1.0038317073705614,
        "distance_wrist_3_joint": 0.0013953280805147905,
        "smoothness": 0.0,
        "time": 0.047470456,
        "traj_len": 1.5015016724926908,
        "weighted_distance": 1.8916862085161388
    },
    "planner": "RRTConnect",
    "start": {
        "state": {
            "elbow_joint": 2.0193083361928714,
            "shoulder_lift_joint": -1.1220246554650708,
            "shoulder_pan_joint": -1.0952077554168747,
            "wrist_1_joint": -0.8559753972642168,
            "wrist_2_joint": 0.4759566250798843,
            "wrist_3_joint": -3.1240929996934557
        }
    },
    "waypoints": [
        {
            "positions": [
                -1.0952077554168747,
                -1.1220246554650708,
                2.0193083361928714,
                -0.8559753972642168,
                0.4759566250798843,
                -3.1240929996934557
            ]
        },
        {
            "positions": [
                -1.1911946219639413,
                -1.1711261443940943,
                2.009074498071121,
                -0.8030842180208458,
                0.6432619096416445,
                -3.12386044501337
            ]
        },
        {
            "positions": [
                -1.287181488511008,
                -1.2202276333231181,
                1.9988406599493702,
                -0.7501930387774748,
                0.8105671942034047,
                -3.123627890333284
            ]
        },
        {
            "positions": [
                -1.383168355058075,
                -1.2693291222521417,
                1.9886068218276196,
                -0.6973018595341038,
                0.9778724787651649,
                -3.123395335653198
            ]
        },
        {
            "positions": [
                -1.4791552216051413,
                -1.3184306111811652,
                1.9783729837058688,
                -0.6444106802907329,
                1.1451777633269251,
                -3.1231627809731126
            ]
        },
        {
            "positions": [
                -1.5751420881522082,
                -1.367532100110189,
                1.9681391455841182,
                -0.5915195010473618,
                1.3124830478886855,
                -3.1229302262930267
            ]
        },
        {
            "positions": [
                -1.671128954699275,
                -1.4166335890392125,
                1.9579053074623676,
                -0.5386283218039909,
                1.4797883324504457,
                -3.122697671612941
            ]
        }
    ]
}