{
    "goal": {
        "global_pose": {
            "orientation": {
                "w": 0.005598929693374612,
                "x": 0.007748599140229565,
                "y": 0.7110244013736278,
                "z": -0.7031023480610252
            },
            "position": {
                "x": 0.1141497679147869,
                "y": -0.7141253447532654,
                "z": 0.3711530566215515
            }
        },
        "name": "move_to_auspresseinheit_B"
    },
    "id": "RRTConnect_move_to_auspresseinheit_B_100",
    "joint_names": [
        "shoulder_pan_joint",
        "shoulder_lift_joint",
        "elbow_joint",
        "wrist_1_joint",
        "wrist_2_joint",
        "wrist_3_joint"
    ],
    "metrics": {
        "cart_traj_len": 0.5641530824939137,
        "distance_elbow_joint": 0.06485588193198955,
        "distance_shoulder_lift_joint": 0.294624902154353,
        "distance_shoulder_pan_joint": 0.5758256311208327,
        "distance_wrist_1_joint": 0.33777977160866945,
        "distance_wrist_2_joint": 0.9975581643478417,
        "distance_wrist_3_joint": 0.005352460579091556,
        "smoothness": 2.5376526478085547e-16,
        "time": 0.051940816,
        "traj_len": 1.5086407165865499,
        "weighted_distance": 1.9031656966374397
    },
    "planner": "RRTConnect",
    "start": {
        "state": {
            "elbow_joint": 2.0193083361928714,
            "shoulder_lift_joint": -1.1220246554650708,
            "shoulder_pan_joint": -1.0952077554168747,
            "wrist_1_joint": -0.8559753972642168,
            "wrist_2_joint": 0.4759566250798843,
            "wrist_3_joint": -3.1240929996934557
        }
    },
    "waypoints": [
        {
            "positions": [
                -1.0952077554168747,
                -1.1220246554650708,
                2.0193083361928714,
                -0.8559753972642168,
                0.4759566250798843,
                -3.1240929996934557
            ]
        },
        {
            "positions": [
                -1.1911786939370135,
                -1.1711288058241296,
                2.00849902253754,
                -0.7996787686627719,
                0.6422163191378579,
                -3.1232009229302737
            ]
        },
        {
            "positions": [
                -1.2871496324571523,
                -1.2202329561831884,
                1.9976897088822083,
                -0.743382140061327,
                0.8084760131958315,
                -3.122308846167092
            ]
        },
        {
            "positions": [
                -1.3831205709772911,
                -1.2693371065422472,
                1.9868803952268768,
                -0.6870855114598821,
                0.9747357072538052,
                -3.12141676940391
            ]
        },
        {
            "positions": [
                -1.4790915094974297,
                -1.3184412569013062,
                1.976071081571545,
                -0.6307888828584371,
                1.1409954013117787,
                -3.120524692640728
            ]
        },
        {
            "positions": [
                -1.5750624480175686,
                -1.367545407260365,
                1.9652617679162134,
                -0.5744922542569922,
                1.3072550953697524,
                -3.119632615877546
            ]
        },
        {
            "positions": [
                -1.6710333865377074,
                -1.4166495576194238,
                1.9544524542608819,
                -0.5181956256555473,
                1.473514789427726,
                -3.118740539114364
            ]
        }
    ]
}