{
    "goal": {
        "global_pose": {
            "orientation": {
                "w": 0.7031023480610252,
                "x": -0.7110244013736278,
                "y": 0.0077485991402295624,
                "z": 0.005598929693374583
            },
            "position": {
                "x": -0.8841497679147869,
                "y": 0.44412534475326537,
                "z": 0.3711530566215515
            }
        },
        "name": "move_to_auspresseinheit_D"
    },
    "id": "RRTConnect_move_to_auspresseinheit_D_110",
    "joint_names": [
        "shoulder_pan_joint",
        "shoulder_lift_joint",
        "elbow_joint",
        "wrist_1_joint",
        "wrist_2_joint",
        "wrist_3_joint"
    ],
    "metrics": {
        "cart_traj_len": 0.34387875661858885,
        "distance_elbow_joint": 0.6672980204778274,
        "distance_shoulder_lift_joint": 0.13792154325591266,
        "distance_shoulder_pan_joint": 0.13342092072399447,
        "distance_wrist_1_joint": 0.6302236574371385,
        "distance_wrist_2_joint": 1.433443176584324,
        "distance_wrist_3_joint": 0.09058555143728997,
        "smoothness": 2.9605947279411004e-16,
        "time": 0.059868904,
        "traj_len": 1.7586622387247892,
        "weighted_distance": 2.310352961521795
    },
    "planner": "RRTConnect",
    "start": {
        "state": {
            "elbow_joint": -1.8275523626775212,
            "shoulder_lift_joint": -2.126789852344167,
            "shoulder_pan_joint": -0.03513704404078235,
            "wrist_1_joint": -2.347782403156801,
            "wrist_2_joint": -1.6058999987535132,
            "wrist_3_joint": -3.0880379163319196
        }
    },
    "waypoints": [
        {
            "positions": [
                -0.03513704404078235,
                -2.126789852344167,
                -1.8275523626775212,
                -2.347782403156801,
                -1.6058999987535132,
                -3.0880379163319196
            ]
        },
        {
            "positions": [
                -0.05181465913128166,
                -2.144030045251156,
                -1.7441401101177927,
                -2.426560360336443,
                -1.4267196016804726,
                -3.0767147224022584
            ]
        },
        {
            "positions": [
                -0.06849227422178097,
                -2.161270238158145,
                -1.6607278575580644,
                -2.5053383175160855,
                -1.247539204607432,
                -3.065391528472597
            ]
        },
        {
            "positions": [
                -0.08516988931228028,
                -2.178510431065134,
                -1.577315604998336,
                -2.584116274695728,
                -1.0683588075343917,
                -3.054068334542936
            ]
        },
        {
            "positions": [
                -0.10184750440277959,
                -2.195750623972123,
                -1.4939033524386076,
                -2.66289423187537,
                -0.8891784104613512,
                -3.042745140613275
            ]
        },
        {
            "positions": [
                -0.1185251194932789,
                -2.2129908168791124,
                -1.410491099878879,
                -2.7416721890550124,
                -0.7099980133883106,
                -3.031421946683613
            ]
        },
        {
            "positions": [
                -0.1352027345837782,
                -2.2302310097861016,
                -1.3270788473191506,
                -2.8204501462346547,
                -0.5308176163152702,
                -3.020098752753952
            ]
        },
        {
            "positions": [
                -0.15188034967427752,
                -2.2474712026930903,
                -1.2436665947594223,
                -2.899228103414297,
                -0.3516372192422297,
                -3.008775558824291
            ]
        },
        {
            "positions": [
                -0.16855796476477683,
                -2.2647113956000795,
                -1.1602543421996938,
                -2.9780060605939394,
                -0.1724568221691892,
                -2.9974523648946296
            ]
        }
    ]
}