{
    "goal": {
        "global_pose": {
            "orientation": {
                "w": -0.00223480608172531,
                "x": 0.0024358444001904467,
                "y": 0.7094548369677653,
                "z": -0.704743149386269
            },
            "position": {
                "x": -0.37947507619857795,
                "y": -0.6371506643295288,
                "z": 0.19426114857196808
            }
        },
        "name": "move_to_magneteinheit_C"
    },
    "id": "RRTConnect_move_to_magneteinheit_C_59",
    "joint_names": [
        "shoulder_pan_joint",
        "shoulder_lift_joint",
        "elbow_joint",
        "wrist_1_joint",
        "wrist_2_joint",
        "wrist_3_joint"
    ],
    "metrics": {
        "cart_traj_len": 1.4273751129792567,
        "distance_elbow_joint": 0.10921147358824657,
        "distance_shoulder_lift_joint": 0.4568946263357212,
        "distance_shoulder_pan_joint": 1.647873438002524,
        "distance_wrist_1_joint": 1.1728204403794689,
        "distance_wrist_2_joint": 1.690047253527343,
        "distance_wrist_3_joint": 0.15089450034246932,
        "smoothness": 1.492039527136968,
        "time": 0.145332242,
        "traj_len": 2.286425536109972,
        "weighted_distance": 2.8969636564457493
    },
    "planner": "RRTConnect",
    "start": {
        "state": {
            "elbow_joint": 1.9565354010623817,
            "shoulder_lift_joint": -1.4165861575791021,
            "shoulder_pan_joint": -1.6717766225146293,
            "wrist_1_joint": -0.5286633292919765,
            "wrist_2_joint": 1.472756589071564,
            "wrist_3_joint": -3.1238370188695823
        }
    },
    "waypoints": [
        {
            "positions": [
                -1.6717766225146293,
                -1.4165861575791021,
                1.9565354010623817,
                -0.5286633292919765,
                1.472756589071564,
                -3.1238370188695823
            ]
        },
        {
            "positions": [
                -1.601204450624521,
                -1.4336541161833711,
                1.9516846171175821,
                -0.4549241148778314,
                1.2659988725901024,
                -3.113612496840155
            ]
        },
        {
            "positions": [
                -1.530632278734413,
                -1.4507220747876404,
                1.9468338331727828,
                -0.38118490046368636,
                1.0592411561086408,
                -3.103387974810728
            ]
        },
        {
            "positions": [
                -1.4600601068443049,
                -1.4677900333919096,
                1.9419830492279835,
                -0.30744568604954126,
                0.852483439627179,
                -3.093163452781301
            ]
        },
        {
            "positions": [
                -1.3894879349541966,
                -1.4848579919961786,
                1.937132265283184,
                -0.2337064716353962,
                0.6457257231457174,
                -3.0829389307518738
            ]
        },
        {
            "positions": [
                -1.3189157630640884,
                -1.5019259506004476,
                1.9322814813383844,
                -0.1599672572212511,
                0.4389680066642556,
                -3.0727144087224465
            ]
        },
        {
            "positions": [
                -1.2483435911739804,
                -1.5189939092047169,
                1.927430697393585,
                -0.08622804280710608,
                0.23221029018279393,
                -3.0624898866930192
            ]
        },
        {
            "positions": [
                -1.4013986420067148,
                -1.4746830498659536,
                1.9374440436335163,
                -0.1775261870439309,
                0.2883979095126155,
                -3.0736833077137575
            ]
        },
        {
            "positions": [
                -1.5544536928394492,
                -1.4303721905271902,
                1.9474573898734475,
                -0.26882433128075567,
                0.3445855288424371,
                -3.084876728734496
            ]
        },
        {
            "positions": [
                -1.7075087436721836,
                -1.386061331188427,
                1.9574707361133787,
                -0.3601224755175805,
                0.40077314817225873,
                -3.096070149755234
            ]
        },
        {
            "positions": [
                -1.8605637945049178,
                -1.3417504718496636,
                1.9674840823533102,
                -0.4514206197544053,
                0.4569607675020803,
                -3.1072635707759724
            ]
        },
        {
            "positions": [
                -2.0136188453376525,
                -1.2974396125109005,
                1.9774974285932414,
                -0.5427187639912301,
                0.5131483868319019,
                -3.1184569917967107
            ]
        },
        {
            "positions": [
                -2.1666738961703866,
                -1.2531287531721371,
                1.9875107748331726,
                -0.6340169082280549,
                0.5693360061617235,
                -3.129650412817449
            ]
        },
        {
            "positions": [
                -2.319728947003121,
                -1.2088178938333738,
                1.9975241210731038,
                -0.7253150524648797,
                0.625523625491545,
                -3.140843833838187
            ]
        },
        {
            "positions": [
                -2.4727839978358555,
                -1.1645070344946105,
                2.007537467313035,
                -0.8166131967017045,
                0.6817112448213667,
                -3.1520372548589255
            ]
        }
    ]
}