{
    "goal": {
        "global_pose": {
            "orientation": {
                "w": 0.7031023480610252,
                "x": -0.7110244013736278,
                "y": 0.0077485991402295624,
                "z": 0.005598929693374583
            },
            "position": {
                "x": -0.8841497679147869,
                "y": 0.44412534475326537,
                "z": 0.3711530566215515
            }
        },
        "name": "move_to_auspresseinheit_D"
    },
    "id": "RRTConnect_move_to_auspresseinheit_D_89",
    "joint_names": [
        "shoulder_pan_joint",
        "shoulder_lift_joint",
        "elbow_joint",
        "wrist_1_joint",
        "wrist_2_joint",
        "wrist_3_joint"
    ],
    "metrics": {
        "cart_traj_len": 0.34309040617496483,
        "distance_elbow_joint": 0.6432190582966506,
        "distance_shoulder_lift_joint": 0.1240897307413662,
        "distance_shoulder_pan_joint": 0.13343718797752424,
        "distance_wrist_1_joint": 0.5457687483014246,
        "distance_wrist_2_joint": 1.4458462259268337,
        "distance_wrist_3_joint": 0.00850194045235897,
        "smoothness": 0.0,
        "time": 0.049462362,
        "traj_len": 1.703191971474783,
        "weighted_distance": 2.215735035339094
    },
    "planner": "RRTConnect",
    "start": {
        "state": {
            "elbow_joint": -1.8275523626775212,
            "shoulder_lift_joint": -2.126789852344167,
            "shoulder_pan_joint": -0.03513704404078235,
            "wrist_1_joint": -2.347782403156801,
            "wrist_2_joint": -1.6058999987535132,
            "wrist_3_joint": -3.0880379163319196
        }
    },
    "waypoints": [
        {
            "positions": [
                -0.03513704404078235,
                -2.126789852344167,
                -1.8275523626775212,
                -2.347782403156801,
                -1.6058999987535132,
                -3.0880379163319196
            ]
        },
        {
            "positions": [
                -0.05181669253797288,
                -2.142301068686838,
                -1.7471499803904398,
                -2.416003496694479,
                -1.425169220512659,
                -3.086975173775375
            ]
        },
        {
            "positions": [
                -0.06849634103516342,
                -2.1578122850295083,
                -1.6667475981033586,
                -2.484224590232157,
                -1.2444384422718047,
                -3.08591243121883
            ]
        },
        {
            "positions": [
                -0.08517598953235395,
                -2.1733235013721792,
                -1.5863452158162772,
                -2.552445683769835,
                -1.0637076640309506,
                -3.084849688662285
            ]
        },
        {
            "positions": [
                -0.10185563802954448,
                -2.18883471771485,
                -1.505942833529196,
                -2.6206667773075134,
                -0.8829768857900964,
                -3.0837869461057403
            ]
        },
        {
            "positions": [
                -0.118535286526735,
                -2.2043459340575207,
                -1.4255404512421146,
                -2.6888878708451913,
                -0.7022461075492421,
                -3.082724203549195
            ]
        },
        {
            "positions": [
                -0.13521493502392554,
                -2.2198571504001916,
                -1.3451380689550332,
                -2.7571089643828692,
                -0.5215153293083881,
                -3.0816614609926503
            ]
        },
        {
            "positions": [
                -0.15189458352111607,
                -2.235368366742862,
                -1.2647356866679518,
                -2.8253300579205476,
                -0.3407845510675338,
                -3.0805987184361054
            ]
        },
        {
            "positions": [
                -0.1685742320183066,
                -2.250879583085533,
                -1.1843333043808706,
                -2.8935511514582255,
                -0.16005377282667946,
                -3.0795359758795606
            ]
        }
    ]
}