{
    "goal": {
        "global_pose": {
            "orientation": {
                "w": 0.005598929693374612,
                "x": 0.007748599140229565,
                "y": 0.7110244013736278,
                "z": -0.7031023480610252
            },
            "position": {
                "x": 0.1141497679147869,
                "y": -0.7141253447532654,
                "z": 0.3711530566215515
            }
        },
        "name": "move_to_auspresseinheit_B"
    },
    "id": "RRTConnect_move_to_auspresseinheit_B_31",
    "joint_names": [
        "shoulder_pan_joint",
        "shoulder_lift_joint",
        "elbow_joint",
        "wrist_1_joint",
        "wrist_2_joint",
        "wrist_3_joint"
    ],
    "metrics": {
        "cart_traj_len": 0.5649733796036686,
        "distance_elbow_joint": 0.06575917380198892,
        "distance_shoulder_lift_joint": 0.29515704163244183,
        "distance_shoulder_pan_joint": 0.5767292574585188,
        "distance_wrist_1_joint": 0.3394327381111961,
        "distance_wrist_2_joint": 0.9963562467172062,
        "distance_wrist_3_joint": 0.008644103873724163,
        "smoothness": 5.075305295617109e-16,
        "time": 0.037456991,
        "traj_len": 1.510655010780117,
        "weighted_distance": 1.9066084428038512
    },
    "planner": "RRTConnect",
    "start": {
        "state": {
            "elbow_joint": 2.0193083361928714,
            "shoulder_lift_joint": -1.1220246554650708,
            "shoulder_pan_joint": -1.0952077554168747,
            "wrist_1_joint": -0.8559753972642168,
            "wrist_2_joint": 0.4759566250798843,
            "wrist_3_joint": -3.1240929996934557
        }
    },
    "waypoints": [
        {
            "positions": [
                -1.0952077554168747,
                -1.1220246554650708,
                2.0193083361928714,
                -0.8559753972642168,
                0.4759566250798843,
                -3.1240929996934557
            ]
        },
        {
            "positions": [
                -1.1913292983266277,
                -1.1712174957371444,
                2.00834847389254,
                -0.7994032742456841,
                0.642015999532752,
                -3.1226523157145016
            ]
        },
        {
            "positions": [
                -1.287450841236381,
                -1.220410336009218,
                1.9973886115922084,
                -0.7428311512271514,
                0.8080753739856197,
                -3.1212116317355476
            ]
        },
        {
            "positions": [
                -1.383572384146134,
                -1.2696031762812918,
                1.986428749291877,
                -0.6862590282086187,
                0.9741347484384875,
                -3.1197709477565936
            ]
        },
        {
            "positions": [
                -1.479693927055887,
                -1.3187960165533654,
                1.9754688869915455,
                -0.6296869051900861,
                1.140194122891355,
                -3.1183302637776396
            ]
        },
        {
            "positions": [
                -1.5758154699656404,
                -1.367988856825439,
                1.964509024691214,
                -0.5731147821715533,
                1.3062534973442228,
                -3.1168895797986855
            ]
        },
        {
            "positions": [
                -1.6719370128753934,
                -1.4171816970975126,
                1.9535491623908825,
                -0.5165426591530207,
                1.4723128717970906,
                -3.1154488958197315
            ]
        }
    ]
}