{
    "goal": {
        "global_pose": {
            "orientation": {
                "w": -0.4816463035849501,
                "x": 0.5182115481033762,
                "y": 0.4908360881923453,
                "z": -0.5084816262002911
            },
            "position": {
                "x": -0.8240239810943604,
                "y": -0.300875300988555,
                "z": 0.16403168439865112
            }
        },
        "name": "move_to_storage_C"
    },
    "id": "RRTConnect_move_to_storage_C_71",
    "joint_names": [
        "shoulder_pan_joint",
        "shoulder_lift_joint",
        "elbow_joint",
        "wrist_1_joint",
        "wrist_2_joint",
        "wrist_3_joint"
    ],
    "metrics": {
        "cart_traj_len": 0.57600254184762,
        "distance_elbow_joint": 0.25417573657485715,
        "distance_shoulder_lift_joint": 0.1881643786886913,
        "distance_shoulder_pan_joint": 0.49517770717073395,
        "distance_wrist_1_joint": 0.06742486555982008,
        "distance_wrist_2_joint": 1.0621250576532324,
        "distance_wrist_3_joint": 0.05945535676798519,
        "smoothness": 0.0,
        "time": 0.06553956,
        "traj_len": 1.4582602999517336,
        "weighted_distance": 1.8371128814431472
    },
    "planner": "RRTConnect",
    "start": {
        "state": {
            "elbow_joint": 2.010868314990456,
            "shoulder_lift_joint": -1.1634956873337592,
            "shoulder_pan_joint": -2.4736205022346125,
            "wrist_1_joint": -0.8367026794202681,
            "wrist_2_joint": 0.6746043897044499,
            "wrist_3_joint": -3.1496632123970403
        }
    },
    "waypoints": [
        {
            "positions": [
                -2.4736205022346125,
                -1.1634956873337592,
                2.010868314990456,
                -0.8367026794202681,
                0.6746043897044499,
                -3.1496632123970403
            ]
        },
        {
            "positions": [
                -2.5561501200964014,
                -1.1321349575523105,
                1.9685056922279796,
                -0.8254652018269648,
                0.8516252326466554,
                -3.1397539862690427
            ]
        },
        {
            "positions": [
                -2.6386797379581903,
                -1.100774227770862,
                1.9261430694655035,
                -0.8142277242336614,
                1.0286460755888607,
                -3.129844760141045
            ]
        },
        {
            "positions": [
                -2.7212093558199797,
                -1.0694134979894137,
                1.8837804467030272,
                -0.802990246640358,
                1.2056669185310662,
                -3.119935534013048
            ]
        },
        {
            "positions": [
                -2.8037389736817686,
                -1.038052768207965,
                1.841417823940551,
                -0.7917527690470547,
                1.3826877614732713,
                -3.1100263078850503
            ]
        },
        {
            "positions": [
                -2.8862685915435575,
                -1.0066920384265163,
                1.799055201178075,
                -0.7805152914537514,
                1.5597086044154769,
                -3.1001170817570527
            ]
        },
        {
            "positions": [
                -2.9687982094053464,
                -0.9753313086450679,
                1.7566925784155987,
                -0.769277813860448,
                1.7367294473576822,
                -3.090207855629055
            ]
        }
    ]
}