{
    "goal": {
        "global_pose": {
            "orientation": {
                "w": 0.7047431468963623,
                "x": -0.7094548344612122,
                "y": 0.0024358443915843964,
                "z": -0.0022348060738295317
            },
            "position": {
                "x": 0.6094750761985779,
                "y": 0.3671506643295288,
                "z": 0.19426114857196808
            }
        },
        "name": "move_to_magneteinheit_A"
    },
    "id": "RRTConnect_move_to_magneteinheit_A_130",
    "joint_names": [
        "shoulder_pan_joint",
        "shoulder_lift_joint",
        "elbow_joint",
        "wrist_1_joint",
        "wrist_2_joint",
        "wrist_3_joint"
    ],
    "metrics": {
        "cart_traj_len": 3.112437639374084,
        "distance_elbow_joint": 3.87294568611139,
        "distance_shoulder_lift_joint": 0.4771221159027512,
        "distance_shoulder_pan_joint": 2.8045627620830818,
        "distance_wrist_1_joint": 2.4416009439893362,
        "distance_wrist_2_joint": 1.7022102762938311,
        "distance_wrist_3_joint": 4.125592386629368,
        "smoothness": 0.1849377165945546,
        "time": 0.157054374,
        "traj_len": 3.927344417161519,
        "weighted_distance": 5.274374860071253
    },
    "planner": "RRTConnect",
    "start": {
        "state": {
            "elbow_joint": -1.9196185241190666,
            "shoulder_lift_joint": -1.2443396400964142,
            "shoulder_pan_joint": 2.6996025414629847,
            "wrist_1_joint": -1.5485510000780065,
            "wrist_2_joint": -1.5709468930060704,
            "wrist_3_joint": 0.4420197071253992
        }
    },
    "waypoints": [
        {
            "positions": [
                2.6996025414629847,
                -1.2443396400964142,
                -1.9196185241190666,
                -1.5485510000780065,
                -1.5709468930060704,
                0.4420197071253992
            ]
        },
        {
            "positions": [
                2.5733075920819792,
                -1.2278827629862017,
                -1.85716642195362,
                -1.4570707925156328,
                -1.531248760746128,
                0.3988732277510387
            ]
        },
        {
            "positions": [
                2.4470126427009733,
                -1.2114258858759892,
                -1.7947143197881732,
                -1.365590584953259,
                -1.4915506284861857,
                0.35572674837667817
            ]
        },
        {
            "positions": [
                2.320717693319968,
                -1.1949690087657767,
                -1.7322622176227265,
                -1.2741103773908853,
                -1.4518524962262433,
                0.3125802690023177
            ]
        },
        {
            "positions": [
                2.1944227439389623,
                -1.1785121316555642,
                -1.6698101154572798,
                -1.1826301698285115,
                -1.4121543639663008,
                0.26943378962795717
            ]
        },
        {
            "positions": [
                2.068127794557957,
                -1.1620552545453517,
                -1.607358013291833,
                -1.0911499622661378,
                -1.3724562317063584,
                0.2262873102535967
            ]
        },
        {
            "positions": [
                1.941832845176951,
                -1.1455983774351393,
                -1.5449059111263863,
                -0.9996697547037641,
                -1.332758099446416,
                0.18314083087923622
            ]
        },
        {
            "positions": [
                1.8155378957959454,
                -1.1291415003249268,
                -1.4824538089609396,
                -0.9081895471413903,
                -1.2930599671864738,
                0.1399943515048757
            ]
        },
        {
            "positions": [
                1.6892429464149399,
                -1.1126846232147143,
                -1.4200017067954929,
                -0.8167093395790166,
                -1.2533618349265314,
                0.09684787213051521
            ]
        },
        {
            "positions": [
                1.5629479970339342,
                -1.0962277461045018,
                -1.3575496046300461,
                -0.7252291320166429,
                -1.2136637026665889,
                0.05370139275615471
            ]
        },
        {
            "positions": [
                1.4366530476529284,
                -1.0797708689942893,
                -1.2950975024645994,
                -0.6337489244542691,
                -1.1739655704066465,
                0.010554913381794206
            ]
        },
        {
            "positions": [
                1.3103580982719227,
                -1.0633139918840768,
                -1.2326454002991525,
                -0.5422687168918954,
                -1.1342674381467042,
                -0.032591565992566296
            ]
        },
        {
            "positions": [
                1.1840631488909175,
                -1.0468571147738643,
                -1.170193298133706,
                -0.45078850932952164,
                -1.0945693058867618,
                -0.07573804536692674
            ]
        },
        {
            "positions": [
                1.0577681995099117,
                -1.0304002376636519,
                -1.1077411959682593,
                -0.3593083017671479,
                -1.0548711736268195,
                -0.1188845247412873
            ]
        },
        {
            "positions": [
                0.931473250128906,
                -1.0139433605534394,
                -1.0452890938028123,
                -0.26782809420477416,
                -1.015173041366877,
                -0.16203100411564775
            ]
        },
        {
            "positions": [
                0.8051783007479003,
                -0.9974864834432269,
                -0.9828369916373656,
                -0.17634788664240042,
                -0.9754749091069347,
                -0.2051774834900083
            ]
        },
        {
            "positions": [
                0.678883351366895,
                -0.9810296063330144,
                -0.920384889471919,
                -0.08486767908002668,
                -0.9357767768469923,
                -0.24832396286436875
            ]
        },
        {
            "positions": [
                0.5525884019858891,
                -0.9645727292228019,
                -0.8579327873064722,
                0.006612528482347058,
                -0.8960786445870499,
                -0.2914704422387292
            ]
        },
        {
            "positions": [
                0.42629345260488377,
                -0.9481158521125894,
                -0.7954806851410254,
                0.0980927360447208,
                -0.8563805123271075,
                -0.3346169216130897
            ]
        },
        {
            "positions": [
                0.40435948312215697,
                -0.9512386550993528,
                -0.670208225067036,
                0.07705127630975415,
                -0.8096304388677531,
                -0.16178926057170567
            ]
        },
        {
            "positions": [
                0.3824255136394301,
                -0.954361458086116,
                -0.5449357649930467,
                0.05600981657478752,
                -0.7628803654083987,
                0.011038400469678356
            ]
        },
        {
            "positions": [
                0.3604915441567033,
                -0.9574842610728794,
                -0.4196633049190574,
                0.034968356839820885,
                -0.7161302919490442,
                0.18386606151106238
            ]
        },
        {
            "positions": [
                0.33855757467397646,
                -0.9606070640596428,
                -0.29439084484506806,
                0.013926897104854244,
                -0.6693802184896896,
                0.3566937225524464
            ]
        },
        {
            "positions": [
                0.31662360519124966,
                -0.9637298670464061,
                -0.16911838477107866,
                -0.007114562630112398,
                -0.6226301450303352,
                0.5295213835938304
            ]
        },
        {
            "positions": [
                0.2946896357085228,
                -0.9668526700331694,
                -0.04384592469708937,
                -0.028156022365079025,
                -0.5758800715709808,
                0.7023490446352145
            ]
        },
        {
            "positions": [
                0.272755666225796,
                -0.9699754730199328,
                0.08142653537690003,
                -0.04919748210004568,
                -0.5291299981116262,
                0.8751767056765987
            ]
        },
        {
            "positions": [
                0.2508216967430692,
                -0.9730982760066961,
                0.20669899545088932,
                -0.07023894183501231,
                -0.4823799246522718,
                1.0480043667179826
            ]
        },
        {
            "positions": [
                0.22888772726034234,
                -0.9762210789934594,
                0.3319714555248787,
                -0.09128040156997894,
                -0.43562985119291736,
                1.2208320277593667
            ]
        },
        {
            "positions": [
                0.20695375777761552,
                -0.9793438819802228,
                0.4572439155988681,
                -0.11232186130494559,
                -0.38887977773356286,
                1.3936596888007506
            ]
        },
        {
            "positions": [
                0.18501978829488866,
                -0.9824666849669862,
                0.5825163756728575,
                -0.13336332103991225,
                -0.3421297042742083,
                1.566487349842135
            ]
        },
        {
            "positions": [
                0.1630858188121619,
                -0.9855894879537495,
                0.7077888357468467,
                -0.15440478077487885,
                -0.29537963081485397,
                1.7393150108835187
            ]
        },
        {
            "positions": [
                0.14115184932943503,
                -0.9887122909405128,
                0.8330612958208361,
                -0.17544624050984553,
                -0.2486295573554994,
                1.9121426719249028
            ]
        },
        {
            "positions": [
                0.11921787984670823,
                -0.9918350939272762,
                0.9583337558948255,
                -0.19648770024481216,
                -0.20187948389614496,
                2.0849703329662868
            ]
        },
        {
            "positions": [
                0.09728391036398137,
                -0.9949578969140395,
                1.083606215968815,
                -0.21752915997977879,
                -0.15512941043679052,
                2.257797994007671
            ]
        },
        {
            "positions": [
                0.07534994088125457,
                -0.9980806999008028,
                1.208878676042804,
                -0.2385706197147454,
                -0.10837933697743607,
                2.4306256550490546
            ]
        },
        {
            "positions": [
                0.05341597139852772,
                -1.001203502887566,
                1.3341511361167935,
                -0.2596120794497121,
                -0.06162926351808151,
                2.6034533160904387
            ]
        },
        {
            "positions": [
                0.03148200191580092,
                -1.0043263058743295,
                1.4594235961907829,
                -0.28065353918467867,
                -0.014879190058727176,
                2.776280977131823
            ]
        },
        {
            "positions": [
                0.009548032433074054,
                -1.0074491088610928,
                1.584696056264772,
                -0.30169499891964535,
                0.03187088340062737,
                2.949108638173207
            ]
        },
        {
            "positions": [
                0.04771745011746481,
                -1.047970799251234,
                1.7075730915072889,
                -0.4334181565537263,
                0.0650017166963385,
                2.9708520375414014
            ]
        },
        {
            "positions": [
                0.08588686780185556,
                -1.0884924896413748,
                1.8304501267498057,
                -0.5651413141878072,
                0.09813254999204965,
                2.9925954369095953
            ]
        },
        {
            "positions": [
                0.12405628548624634,
                -1.1290141800315159,
                1.9533271619923225,
                -0.6968644718218882,
                0.1312633832877608,
                3.0143388362777896
            ]
        }
    ]
}