{
    "goal": {
        "global_pose": {
            "orientation": {
                "w": -0.00223480608172531,
                "x": 0.0024358444001904467,
                "y": 0.7094548369677653,
                "z": -0.704743149386269
            },
            "position": {
                "x": 0.6205249238014221,
                "y": -0.6371506643295288,
                "z": 0.19426114857196808
            }
        },
        "name": "move_to_magneteinheit_B"
    },
    "id": "RRTConnect_move_to_magneteinheit_B_95",
    "joint_names": [
        "shoulder_pan_joint",
        "shoulder_lift_joint",
        "elbow_joint",
        "wrist_1_joint",
        "wrist_2_joint",
        "wrist_3_joint"
    ],
    "metrics": {
        "cart_traj_len": 1.4859748721540094,
        "distance_elbow_joint": 1.0590616266857846,
        "distance_shoulder_lift_joint": 1.0430611707015582,
        "distance_shoulder_pan_joint": 1.6208445136602831,
        "distance_wrist_1_joint": 0.6672881560632722,
        "distance_wrist_2_joint": 2.1090842476293035,
        "distance_wrist_3_joint": 0.47293860548351574,
        "smoothness": 0.9865326957183997,
        "time": 0.094728518,
        "traj_len": 2.64050720889448,
        "weighted_distance": 3.270248910233489
    },
    "planner": "RRTConnect",
    "start": {
        "state": {
            "elbow_joint": 2.6216224122426386,
            "shoulder_lift_joint": -1.4174107377796124,
            "shoulder_pan_joint": 0.7066234856936794,
            "wrist_1_joint": 1.9546482284002225,
            "wrist_2_joint": -0.7096286983471962,
            "wrist_3_joint": 0.005740856962016249
        }
    },
    "waypoints": [
        {
            "positions": [
                0.7066234856936794,
                -1.4174107377796124,
                2.6216224122426386,
                1.9546482284002225,
                -0.7096286983471962,
                0.005740856962016249
            ]
        },
        {
            "positions": [
                0.6475799249167382,
                -1.4271182777468034,
                2.597271326910038,
                1.833343073638082,
                -0.6086568800819965,
                -0.019329835488742224
            ]
        },
        {
            "positions": [
                0.588536364139797,
                -1.4368258177139945,
                2.572920241577437,
                1.7120379188759414,
                -0.5076850618167967,
                -0.0444005279395007
            ]
        },
        {
            "positions": [
                0.517032273341905,
                -1.4778858866709261,
                2.5896165153780855,
                1.7530137979447507,
                -0.47603564325959463,
                0.034873860885058
            ]
        },
        {
            "positions": [
                0.44552818254401305,
                -1.5189459556278575,
                2.6063127891787334,
                1.7939896770135597,
                -0.4443862247023926,
                0.1141482497096167
            ]
        },
        {
            "positions": [
                0.37402409174612106,
                -1.560006024584789,
                2.623009062979382,
                1.834965556082369,
                -0.4127368061451905,
                0.1934226385341754
            ]
        },
        {
            "positions": [
                0.28200658319521216,
                -1.4956870328779046,
                2.554418303363765,
                1.8565191424632663,
                -0.5421791172471403,
                0.18021020609786664
            ]
        },
        {
            "positions": [
                0.18998907464430323,
                -1.4313680411710203,
                2.485827543748148,
                1.8780727288441639,
                -0.6716214283490902,
                0.16699777366155788
            ]
        },
        {
            "positions": [
                0.0979715660933943,
                -1.3670490494641359,
                2.417236784132531,
                1.8996263152250612,
                -0.80106373945104,
                0.15378534122524914
            ]
        },
        {
            "positions": [
                0.0059540575424854025,
                -1.3027300577572516,
                2.348646024516914,
                1.9211799016059585,
                -0.9305060505529898,
                0.14057290878894038
            ]
        },
        {
            "positions": [
                -0.08606345100842355,
                -1.238411066050367,
                2.280055264901297,
                1.9427334879868559,
                -1.0599483616549397,
                0.12736047635263162
            ]
        },
        {
            "positions": [
                -0.17808095955933245,
                -1.1740920743434828,
                2.21146450528568,
                1.9642870743677534,
                -1.1893906727568895,
                0.11414804391632287
            ]
        },
        {
            "positions": [
                -0.2700984681102414,
                -1.1097730826365984,
                2.142873745670063,
                1.9858406607486507,
                -1.3188329838588393,
                0.1009356114800141
            ]
        },
        {
            "positions": [
                -0.36211597666115025,
                -1.0454540909297139,
                2.074282986054446,
                2.007394247129548,
                -1.4482752949607893,
                0.08772317904370536
            ]
        },
        {
            "positions": [
                -0.4541334852120593,
                -0.9811350992228295,
                2.0056922264388284,
                2.0289478335104456,
                -1.5777176060627394,
                0.07451074660739658
            ]
        },
        {
            "positions": [
                -0.5461509937629682,
                -0.9168161075159451,
                1.9371014668232116,
                2.0505014198913427,
                -1.707159917164689,
                0.06129831417108783
            ]
        },
        {
            "positions": [
                -0.638168502313877,
                -0.8524971158090608,
                1.8685107072075948,
                2.0720550062722403,
                -1.8366022282666385,
                0.04808588173477907
            ]
        },
        {
            "positions": [
                -0.730186010864786,
                -0.7881781241021765,
                1.7999199475919778,
                2.093608592653138,
                -1.9660445393685886,
                0.03487344929847033
            ]
        },
        {
            "positions": [
                -0.8222035194156949,
                -0.723859132395292,
                1.7313291879763606,
                2.115162179034035,
                -2.0954868504705386,
                0.02166101686216157
            ]
        },
        {
            "positions": [
                -0.9142210279666038,
                -0.6595401406884076,
                1.6627384283607436,
                2.1367157654149325,
                -2.224929161572488,
                0.008448584425852803
            ]
        }
    ]
}