{
    "goal": {
        "global_pose": {
            "orientation": {
                "w": -0.00223480608172531,
                "x": 0.0024358444001904467,
                "y": 0.7094548369677653,
                "z": -0.704743149386269
            },
            "position": {
                "x": -0.37947507619857795,
                "y": -0.6371506643295288,
                "z": 0.19426114857196808
            }
        },
        "name": "move_to_magneteinheit_C"
    },
    "id": "RRTConnect_move_to_magneteinheit_C_82",
    "joint_names": [
        "shoulder_pan_joint",
        "shoulder_lift_joint",
        "elbow_joint",
        "wrist_1_joint",
        "wrist_2_joint",
        "wrist_3_joint"
    ],
    "metrics": {
        "cart_traj_len": 0.862005822665858,
        "distance_elbow_joint": 0.3425317965488657,
        "distance_shoulder_lift_joint": 0.4449826580709426,
        "distance_shoulder_pan_joint": 0.917068680244834,
        "distance_wrist_1_joint": 3.1123478519639676,
        "distance_wrist_2_joint": 1.929729242309035,
        "distance_wrist_3_joint": 0.7025155676010586,
        "smoothness": 1.1535466249098627,
        "time": 0.059051728,
        "traj_len": 2.729317826259651,
        "weighted_distance": 3.7277719922513803
    },
    "planner": "RRTConnect",
    "start": {
        "state": {
            "elbow_joint": 1.9565354010623817,
            "shoulder_lift_joint": -1.4165861575791021,
            "shoulder_pan_joint": -1.6717766225146293,
            "wrist_1_joint": -0.5286633292919765,
            "wrist_2_joint": 1.472756589071564,
            "wrist_3_joint": -3.1238370188695823
        }
    },
    "waypoints": [
        {
            "positions": [
                -1.6717766225146293,
                -1.4165861575791021,
                1.9565354010623817,
                -0.5286633292919765,
                1.472756589071564,
                -3.1238370188695823
            ]
        },
        {
            "positions": [
                -1.7390942869732056,
                -1.425184385205039,
                1.9432134218993622,
                -0.4004235469409347,
                1.3485734193579535,
                -3.0935042235772903
            ]
        },
        {
            "positions": [
                -1.806411951431782,
                -1.4337826128309759,
                1.9298914427363427,
                -0.2721837645898929,
                1.224390249644343,
                -3.0631714282849978
            ]
        },
        {
            "positions": [
                -1.8737296158903582,
                -1.4423808404569127,
                1.9165694635733233,
                -0.14394398223885113,
                1.1002070799307324,
                -3.0328386329927057
            ]
        },
        {
            "positions": [
                -1.9410472803489345,
                -1.4509790680828496,
                1.9032474844103038,
                -0.015704199887809356,
                0.976023910217122,
                -3.0025058377004137
            ]
        },
        {
            "positions": [
                -2.0083649448075107,
                -1.4595772957087865,
                1.8899255052472843,
                0.11253558246323248,
                0.8518407405035116,
                -2.972173042408121
            ]
        },
        {
            "positions": [
                -2.075682609266087,
                -1.4681755233347233,
                1.8766035260842648,
                0.2407753648142742,
                0.7276575707899011,
                -2.941840247115829
            ]
        },
        {
            "positions": [
                -2.143000273724663,
                -1.4767737509606602,
                1.8632815469212454,
                0.369015147165316,
                0.6034744010762907,
                -2.9115074518235367
            ]
        },
        {
            "positions": [
                -2.2103179381832394,
                -1.485371978586597,
                1.849959567758226,
                0.49725492951635775,
                0.47929123136268015,
                -2.8811746565312446
            ]
        },
        {
            "positions": [
                -2.277635602641816,
                -1.493970206212534,
                1.8366375885952064,
                0.6254947118673997,
                0.3551080616490696,
                -2.8508418612389526
            ]
        },
        {
            "positions": [
                -2.3449532671003923,
                -1.5025684338384708,
                1.823315609432187,
                0.7537344942184414,
                0.23092489193545918,
                -2.82050906594666
            ]
        },
        {
            "positions": [
                -2.4122709315589685,
                -1.5111666614644077,
                1.8099936302691675,
                0.8819742765694831,
                0.10674172222184872,
                -2.790176270654368
            ]
        },
        {
            "positions": [
                -2.432124669924555,
                -1.4757766642350214,
                1.835167784840217,
                0.6669930879389978,
                0.16558734137052253,
                -2.831855435873282
            ]
        },
        {
            "positions": [
                -2.451978408290141,
                -1.440386667005635,
                1.8603419394112664,
                0.4520118993085124,
                0.22443296051919634,
                -2.8735346010921963
            ]
        },
        {
            "positions": [
                -2.471832146655727,
                -1.4049966697762484,
                1.885516093982316,
                0.23703071067802695,
                0.2832785796678702,
                -2.91521376631111
            ]
        },
        {
            "positions": [
                -2.4916858850213135,
                -1.369606672546862,
                1.9106902485533654,
                0.022049522047541625,
                0.342124198816544,
                -2.956892931530024
            ]
        },
        {
            "positions": [
                -2.5115396233868994,
                -1.3342166753174758,
                1.9358644031244148,
                -0.19293166658294392,
                0.4009698179652178,
                -2.9985720967489384
            ]
        },
        {
            "positions": [
                -2.5313933617524857,
                -1.2988266780880893,
                1.9610385576954643,
                -0.4079128552134291,
                0.4598154371138916,
                -3.0402512619678523
            ]
        },
        {
            "positions": [
                -2.51224271475016,
                -1.252805954484983,
                1.9760202571385825,
                -0.5451872266532944,
                0.5300289906363171,
                -3.0798445379919723
            ]
        },
        {
            "positions": [
                -2.493092067747834,
                -1.206785230881877,
                1.9910019565817008,
                -0.6824615980931599,
                0.6002425441587426,
                -3.1194378140160923
            ]
        },
        {
            "positions": [
                -2.473941420745508,
                -1.1607645072787707,
                2.005983656024819,
                -0.8197359695330252,
                0.6704560976811681,
                -3.1590310900402123
            ]
        }
    ]
}