{
    "goal": {
        "global_pose": {
            "orientation": {
                "w": 0.7047431468963623,
                "x": -0.7094548344612122,
                "y": 0.0024358443915843964,
                "z": -0.0022348060738295317
            },
            "position": {
                "x": 0.6094750761985779,
                "y": 0.3671506643295288,
                "z": 0.19426114857196808
            }
        },
        "name": "move_to_magneteinheit_A"
    },
    "id": "RRTConnect_move_to_magneteinheit_A_43",
    "joint_names": [
        "shoulder_pan_joint",
        "shoulder_lift_joint",
        "elbow_joint",
        "wrist_1_joint",
        "wrist_2_joint",
        "wrist_3_joint"
    ],
    "metrics": {
        "cart_traj_len": 3.1229271185332625,
        "distance_elbow_joint": 3.9183175700267014,
        "distance_shoulder_lift_joint": 1.2305544554503336,
        "distance_shoulder_pan_joint": 2.5756997089501983,
        "distance_wrist_1_joint": 3.4853280573295295,
        "distance_wrist_2_joint": 1.4367084832016237,
        "distance_wrist_3_joint": 1.8240408791943774,
        "smoothness": 0.1389748183150743,
        "time": 0.10271380899999999,
        "traj_len": 3.804030645795688,
        "weighted_distance": 4.8000799423626965
    },
    "planner": "RRTConnect",
    "start": {
        "state": {
            "elbow_joint": -1.9196185241190666,
            "shoulder_lift_joint": -1.2443396400964142,
            "shoulder_pan_joint": 2.6996025414629847,
            "wrist_1_joint": -1.5485510000780065,
            "wrist_2_joint": -1.5709468930060704,
            "wrist_3_joint": 0.4420197071253992
        }
    },
    "waypoints": [
        {
            "positions": [
                2.6996025414629847,
                -1.2443396400964142,
                -1.9196185241190666,
                -1.5485510000780065,
                -1.5709468930060704,
                0.4420197071253992
            ]
        },
        {
            "positions": [
                2.5737949538926337,
                -1.201957356745771,
                -1.8521271691047294,
                -1.4597477554080727,
                -1.5606814239725466,
                0.38503428228043285
            ]
        },
        {
            "positions": [
                2.447987366322283,
                -1.159575073395128,
                -1.7846358140903922,
                -1.3709445107381386,
                -1.5504159549390228,
                0.3280488574354665
            ]
        },
        {
            "positions": [
                2.3221797787519325,
                -1.1171927900444851,
                -1.717144459076055,
                -1.2821412660682048,
                -1.540150485905499,
                0.27106343259050025
            ]
        },
        {
            "positions": [
                2.1963721911815814,
                -1.0748105066938418,
                -1.6496531040617175,
                -1.193338021398271,
                -1.5298850168719753,
                0.2140780077455339
            ]
        },
        {
            "positions": [
                2.0705646036112304,
                -1.032428223343199,
                -1.5821617490473803,
                -1.1045347767283369,
                -1.5196195478384515,
                0.1570925829005676
            ]
        },
        {
            "positions": [
                1.9447570160408798,
                -0.9900459399925559,
                -1.514670394033043,
                -1.015731532058403,
                -1.5093540788049278,
                0.10010715805560128
            ]
        },
        {
            "positions": [
                1.8189494284705292,
                -0.9476636566419128,
                -1.4471790390187058,
                -0.9269282873884691,
                -1.499088609771404,
                0.043121733210635005
            ]
        },
        {
            "positions": [
                1.6931418409001782,
                -0.9052813732912697,
                -1.3796876840043684,
                -0.8381250427185352,
                -1.4888231407378802,
                -0.013863691634331377
            ]
        },
        {
            "positions": [
                1.5673342533298273,
                -0.8628990899406266,
                -1.3121963289900314,
                -0.7493217980486013,
                -1.4785576717043565,
                -0.0708491164792977
            ]
        },
        {
            "positions": [
                1.4415266657594765,
                -0.8205168065899836,
                -1.244704973975694,
                -0.6605185533786674,
                -1.468292202670833,
                -0.12783454132426397
            ]
        },
        {
            "positions": [
                1.3157190781891255,
                -0.7781345232393405,
                -1.1772136189613567,
                -0.5717153087087334,
                -1.458026733637309,
                -0.18481996616923035
            ]
        },
        {
            "positions": [
                1.1899114906187749,
                -0.7357522398886975,
                -1.1097222639470194,
                -0.4829120640387996,
                -1.4477612646037854,
                -0.24180539101419662
            ]
        },
        {
            "positions": [
                1.064103903048424,
                -0.6933699565380544,
                -1.0422309089326822,
                -0.39410881936886555,
                -1.4374957955702616,
                -0.2987908158591629
            ]
        },
        {
            "positions": [
                0.9382963154780735,
                -0.6509876731874115,
                -0.974739553918345,
                -0.3053055746989317,
                -1.4272303265367379,
                -0.35577624070412917
            ]
        },
        {
            "positions": [
                0.8124887279077224,
                -0.6086053898367683,
                -0.9072481989040078,
                -0.21650233002899788,
                -1.416964857503214,
                -0.41276166554909555
            ]
        },
        {
            "positions": [
                0.6866811403373716,
                -0.5662231064861252,
                -0.8397568438896703,
                -0.12769908535906382,
                -1.4066993884696903,
                -0.46974709039406193
            ]
        },
        {
            "positions": [
                0.560873552767021,
                -0.5238408231354822,
                -0.7722654888753333,
                -0.03889584068912999,
                -1.3964339194361666,
                -0.5267325152390282
            ]
        },
        {
            "positions": [
                0.43506596519666996,
                -0.4814585397848391,
                -0.7047741338609959,
                0.049907403980803844,
                -1.3861684504026428,
                -0.5837179400839946
            ]
        },
        {
            "positions": [
                0.30925837762631936,
                -0.4390762564341961,
                -0.6372827788466586,
                0.13871064865073768,
                -1.375902981369119,
                -0.6407033649289607
            ]
        },
        {
            "positions": [
                0.18345079005596837,
                -0.3966939730835531,
                -0.5697914238323214,
                0.22751389332067173,
                -1.3656375123355953,
                -0.697688789773927
            ]
        },
        {
            "positions": [
                0.17994796902401672,
                -0.41921801946222786,
                -0.41870374914173575,
                0.3280587853166041,
                -1.2932022710102336,
                -0.657433943756571
            ]
        },
        {
            "positions": [
                0.17644514799206507,
                -0.4417420658409027,
                -0.2676160744511501,
                0.42860367731253646,
                -1.2207670296848718,
                -0.6171790977392152
            ]
        },
        {
            "positions": [
                0.1729423269601134,
                -0.4642661122195775,
                -0.11652839976056445,
                0.5291485693084689,
                -1.1483317883595103,
                -0.5769242517218592
            ]
        },
        {
            "positions": [
                0.16943950592816176,
                -0.48679015859825225,
                0.0345592749300212,
                0.6296934613044012,
                -1.0758965470341486,
                -0.5366694057045033
            ]
        },
        {
            "positions": [
                0.1659366848962101,
                -0.509314204976927,
                0.1856469496206069,
                0.7302383533003336,
                -1.0034613057087869,
                -0.49641455968714737
            ]
        },
        {
            "positions": [
                0.16243386386425845,
                -0.5318382513556019,
                0.3367346243111925,
                0.830783245296266,
                -0.9310260643834252,
                -0.4561597136697914
            ]
        },
        {
            "positions": [
                0.1589310428323068,
                -0.5543622977342766,
                0.487822299001778,
                0.9313281372921982,
                -0.8585908230580637,
                -0.4159048676524355
            ]
        },
        {
            "positions": [
                0.15542822180035515,
                -0.5768863441129515,
                0.6389099736923638,
                1.0318730292881306,
                -0.786155581732702,
                -0.3756500216350796
            ]
        },
        {
            "positions": [
                0.1519254007684035,
                -0.5994103904916263,
                0.7899976483829494,
                1.132417921284063,
                -0.7137203404073402,
                -0.33539517561772364
            ]
        },
        {
            "positions": [
                0.14842257973645184,
                -0.621934436870301,
                0.9410853230735352,
                1.2329628132799955,
                -0.6412850990819785,
                -0.29514032960036773
            ]
        },
        {
            "positions": [
                0.1449197587045002,
                -0.6444584832489758,
                1.0921729977641208,
                1.3335077052759279,
                -0.5688498577566169,
                -0.2548854835830118
            ]
        },
        {
            "positions": [
                0.14141693767254854,
                -0.6669825296276506,
                1.2432606724547064,
                1.4340525972718603,
                -0.4964146164312552,
                -0.2146306375656558
            ]
        },
        {
            "positions": [
                0.13791411664059688,
                -0.6895065760063254,
                1.3943483471452918,
                1.5345974892677925,
                -0.4239793751058937,
                -0.17437579154829996
            ]
        },
        {
            "positions": [
                0.13441129560864523,
                -0.7120306223850001,
                1.5454360218358774,
                1.6351423812637247,
                -0.35154413378053206,
                -0.134120945530944
            ]
        },
        {
            "positions": [
                0.13090847457669358,
                -0.734554668763675,
                1.6965236965264634,
                1.735687273259657,
                -0.27910889245517034,
                -0.09386609951358815
            ]
        },
        {
            "positions": [
                0.12740565354474193,
                -0.7570787151423498,
                1.847611371217049,
                1.8362321652555895,
                -0.20667365112980862,
                -0.05361125349623219
            ]
        },
        {
            "positions": [
                0.12390283251279026,
                -0.7796027615210246,
                1.9986990459076348,
                1.936777057251522,
                -0.13423840980444698,
                -0.013356407478876241
            ]
        }
    ]
}