{
    "goal": {
        "global_pose": {
            "orientation": {
                "w": 0.5084816217422485,
                "x": -0.49083608388900757,
                "y": 0.5182115435600281,
                "z": -0.4816462993621826
            },
            "position": {
                "x": 0.5540239810943604,
                "y": 0.030875300988554955,
                "z": 0.16403168439865112
            }
        },
        "name": "move_to_storage_A"
    },
    "id": "RRTConnect_move_to_storage_A_30",
    "joint_names": [
        "shoulder_pan_joint",
        "shoulder_lift_joint",
        "elbow_joint",
        "wrist_1_joint",
        "wrist_2_joint",
        "wrist_3_joint"
    ],
    "metrics": {
        "cart_traj_len": 0.3526507629568316,
        "distance_elbow_joint": 0.44768987130630333,
        "distance_shoulder_lift_joint": 0.2353766357358964,
        "distance_shoulder_pan_joint": 0.46009084571703424,
        "distance_wrist_1_joint": 0.23485003332009702,
        "distance_wrist_2_joint": 1.1024962130615936,
        "distance_wrist_3_joint": 0.09638811826734361,
        "smoothness": 6.661338165333112e-16,
        "time": 0.038968388,
        "traj_len": 1.6052699827157637,
        "weighted_distance": 2.0265769662967767
    },
    "planner": "RRTConnect",
    "start": {
        "state": {
            "elbow_joint": 1.971548259319323,
            "shoulder_lift_joint": -1.1394851275133948,
            "shoulder_pan_joint": 0.1228115487234821,
            "wrist_1_joint": -0.7804723859257726,
            "wrist_2_joint": 0.12958671773740124,
            "wrist_3_joint": -3.192489227718131
        }
    },
    "waypoints": [
        {
            "positions": [
                0.1228115487234821,
                -1.1394851275133948,
                1.971548259319323,
                -0.7804723859257726,
                0.12958671773740124,
                -3.192489227718131
            ]
        },
        {
            "positions": [
                0.05708428504962007,
                -1.1731103611899514,
                2.0355039552202236,
                -0.8140223906857865,
                0.2870861767462003,
                -3.178719496537082
            ]
        },
        {
            "positions": [
                -0.00864297862424196,
                -1.2067355948665082,
                2.099459651121124,
                -0.8475723954458003,
                0.44458563575499943,
                -3.164949765356033
            ]
        },
        {
            "positions": [
                -0.07437024229810399,
                -1.2403608285430647,
                2.1634153470220245,
                -0.8811224002058142,
                0.6020850947637985,
                -3.151180034174984
            ]
        },
        {
            "positions": [
                -0.14009750597196602,
                -1.2739860622196213,
                2.227371042922925,
                -0.914672404965828,
                0.7595845537725976,
                -3.137410302993935
            ]
        },
        {
            "positions": [
                -0.20582476964582808,
                -1.3076112958961779,
                2.2913267388238254,
                -0.9482224097258419,
                0.9170840127813967,
                -3.123640571812886
            ]
        },
        {
            "positions": [
                -0.2715520333196901,
                -1.3412365295727346,
                2.355282434724726,
                -0.9817724144858557,
                1.0745834717901956,
                -3.1098708406318365
            ]
        },
        {
            "positions": [
                -0.33727929699355214,
                -1.3748617632492912,
                2.4192381306256263,
                -1.0153224192458696,
                1.232082930798995,
                -3.0961011094507875
            ]
        }
    ]
}{
    "goal": {
        "global_pose": {
            "orientation": {
                "w": 0.5084816217422485,
                "x": -0.49083608388900757,
                "y": 0.5182115435600281,
                "z": -0.4816462993621826
            },
            "position": {
                "x": 0.5540239810943604,
                "y": 0.030875300988554955,
                "z": 0.16403168439865112
            }
        },
        "name": "move_to_storage_A"
    },
    "id": "RRTConnect_move_to_storage_A_30",
    "joint_names": [
        "shoulder_pan_joint",
        "shoulder_lift_joint",
        "elbow_joint",
        "wrist_1_joint",
        "wrist_2_joint",
        "wrist_3_joint"
    ],
    "metrics": {
        "cart_traj_len": 0.35358621633191245,
        "distance_elbow_joint": 0.44933217273053305,
        "distance_shoulder_lift_joint": 0.23446016621773613,
        "distance_shoulder_pan_joint": 0.46352797071492485,
        "distance_wrist_1_joint": 0.24119170938027557,
        "distance_wrist_2_joint": 1.0945872237725882,
        "distance_wrist_3_joint": 0.09619239341198282,
        "smoothness": 4.440892098500626e-16,
        "time": 0.05302356799999999,
        "traj_len": 1.6060173212727316,
        "weighted_distance": 2.026685805990872
    },
    "planner": "RRTConnect",
    "start": {
        "state": {
            "elbow_joint": 1.97154746011099,
            "shoulder_lift_joint": -1.13948474672311,
            "shoulder_pan_joint": 0.12281154466712228,
            "wrist_1_joint": -0.7804688027058302,
            "wrist_2_joint": 0.12958655903071145,
            "wrist_3_joint": 3.0906928834467795
        }
    },
    "waypoints": [
        {
            "positions": [
                0.12281154466712228,
                -1.13948474672311,
                1.97154746011099,
                -0.7804688027058302,
                0.12958655903071145,
                3.0906928834467795
            ]
        },
        {
            "positions": [
                0.05659326313641874,
                -1.1729790561827866,
                2.035737770501066,
                -0.8149247611887267,
                0.28595616242679545,
                3.104434653934206
            ]
        },
        {
            "positions": [
                -0.009625018394284798,
                -1.206473365642463,
                2.099928080891142,
                -0.8493807196716232,
                0.4423257658228795,
                3.1181764244216317
            ]
        },
        {
            "positions": [
                -0.07584329992498835,
                -1.2399676751021398,
                2.1641183912812183,
                -0.8838366781545197,
                0.5986953692189635,
                3.131918194909058
            ]
        },
        {
            "positions": [
                -0.14206158145569187,
                -1.2734619845618163,
                2.2283087016712946,
                -0.9182926366374162,
                0.7550649726150476,
                3.145659965396484
            ]
        },
        {
            "positions": [
                -0.20827986298639545,
                -1.306956294021493,
                2.292499012061371,
                -0.9527485951203127,
                0.9114345760111316,
                3.15940173588391
            ]
        },
        {
            "positions": [
                -0.274498144517099,
                -1.3404506034811694,
                2.3566893224514467,
                -0.9872045536032092,
                1.0678041794072155,
                3.173143506371336
            ]
        },
        {
            "positions": [
                -0.34071642604780256,
                -1.373944912940846,
                2.420879632841523,
                -1.0216605120861058,
                1.2241737828032997,
                3.1868852768587623
            ]
        }
    ]
}{
    "goal": {
        "global_pose": {
            "orientation": {
                "w": 0.5084816217422485,
                "x": -0.49083608388900757,
                "y": 0.5182115435600281,
                "z": -0.4816462993621826
            },
            "position": {
                "x": 0.5540239810943604,
                "y": 0.030875300988554955,
                "z": 0.16403168439865112
            }
        },
        "name": "move_to_storage_A"
    },
    "id": "RRTConnect_move_to_storage_A_30",
    "joint_names": [
        "shoulder_pan_joint",
        "shoulder_lift_joint",
        "elbow_joint",
        "wrist_1_joint",
        "wrist_2_joint",
        "wrist_3_joint"
    ],
    "metrics": {
        "cart_traj_len": 0.3530503379277316,
        "distance_elbow_joint": 0.45247989676099953,
        "distance_shoulder_lift_joint": 0.23482402093489974,
        "distance_shoulder_pan_joint": 0.46286927921832405,
        "distance_wrist_1_joint": 0.25198309246348627,
        "distance_wrist_2_joint": 1.0940991182997084,
        "distance_wrist_3_joint": 0.0894145628650338,
        "smoothness": 2.2204460668324854e-16,
        "time": 0.044022114,
        "traj_len": 1.6080018565108845,
        "weighted_distance": 2.027456857009715
    },
    "planner": "RRTConnect",
    "start": {
        "state": {
            "elbow_joint": 1.9715472970024885,
            "shoulder_lift_joint": -1.1394870060712896,
            "shoulder_pan_joint": 0.12281152778156021,
            "wrist_1_joint": -0.780463741449964,
            "wrist_2_joint": 0.12958659822042276,
            "wrist_3_joint": 3.090690232415272
        }
    },
    "waypoints": [
        {
            "positions": [
                0.12281152778156021,
                -1.1394870060712896,
                1.9715472970024885,
                -0.780463741449964,
                0.12958659822042276,
                3.090690232415272
            ]
        },
        {
            "positions": [
                0.05668734503608536,
                -1.1730332947762754,
                2.03618728225406,
                -0.8164613260876049,
                0.28588647226323827,
                3.103463741395991
            ]
        },
        {
            "positions": [
                -0.009436837709389495,
                -1.206579583481261,
                2.100827267505631,
                -0.8524589107252458,
                0.4421863463060537,
                3.11623725037671
            ]
        },
        {
            "positions": [
                -0.07556102045486435,
                -1.2401258721862467,
                2.1654672527572028,
                -0.8884564953628866,
                0.5984862203488692,
                3.129010759357429
            ]
        },
        {
            "positions": [
                -0.1416852032003392,
                -1.2736721608912323,
                2.230107238008774,
                -0.9244540800005275,
                0.7547860943916846,
                3.1417842683381485
            ]
        },
        {
            "positions": [
                -0.20780938594581408,
                -1.307218449596218,
                2.2947472232603454,
                -0.9604516646381684,
                0.9110859684345002,
                3.1545577773188676
            ]
        },
        {
            "positions": [
                -0.27393356869128893,
                -1.3407647383012036,
                2.3593872085119165,
                -0.9964492492758094,
                1.0673858424773157,
                3.1673312862995866
            ]
        },
        {
            "positions": [
                -0.3400577514367638,
                -1.3743110270061893,
                2.424027193763488,
                -1.0324468339134503,
                1.2236857165201311,
                3.1801047952803057
            ]
        }
    ]
}