{
    "goal": {
        "global_pose": {
            "orientation": {
                "w": 0.005598929693374612,
                "x": 0.007748599140229565,
                "y": 0.7110244013736278,
                "z": -0.7031023480610252
            },
            "position": {
                "x": 0.1141497679147869,
                "y": -0.7141253447532654,
                "z": 0.3711530566215515
            }
        },
        "name": "move_to_auspresseinheit_B"
    },
    "id": "RRTConnect_move_to_auspresseinheit_B_118",
    "joint_names": [
        "shoulder_pan_joint",
        "shoulder_lift_joint",
        "elbow_joint",
        "wrist_1_joint",
        "wrist_2_joint",
        "wrist_3_joint"
    ],
    "metrics": {
        "cart_traj_len": 0.5653603140419126,
        "distance_elbow_joint": 0.06714116481775267,
        "distance_shoulder_lift_joint": 0.29414164700929835,
        "distance_shoulder_pan_joint": 0.5782474728594038,
        "distance_wrist_1_joint": 0.34039995559571024,
        "distance_wrist_2_joint": 0.9877371773498742,
        "distance_wrist_3_joint": 0.00631683245489878,
        "smoothness": 0.0,
        "time": 0.07569355900000001,
        "traj_len": 1.507973557489301,
        "weighted_distance": 1.9012509166184037
    },
    "planner": "RRTConnect",
    "start": {
        "state": {
            "elbow_joint": 2.0193083361928714,
            "shoulder_lift_joint": -1.1220246554650708,
            "shoulder_pan_joint": -1.0952077554168747,
            "wrist_1_joint": -0.8559753972642168,
            "wrist_2_joint": 0.4759566250798843,
            "wrist_3_joint": -3.1240929996934557
        }
    },
    "waypoints": [
        {
            "positions": [
                -1.0952077554168747,
                -1.1220246554650708,
                2.0193083361928714,
                -0.8559753972642168,
                0.4759566250798843,
                -3.1240929996934557
            ]
        },
        {
            "positions": [
                -1.1915823342267753,
                -1.171048263299954,
                2.0081181420565795,
                -0.7992420713315984,
                0.64057948797153,
                -3.123040194284306
            ]
        },
        {
            "positions": [
                -1.287956913036676,
                -1.2200718711348368,
                1.9969279479202873,
                -0.74250874539898,
                0.8052023508631756,
                -3.121987388875156
            ]
        },
        {
            "positions": [
                -1.3843314918465766,
                -1.26909547896972,
                1.985737753783995,
                -0.6857754194663617,
                0.9698252137548213,
                -3.1209345834660063
            ]
        },
        {
            "positions": [
                -1.4807060706564772,
                -1.318119086804603,
                1.974547559647703,
                -0.6290420935337433,
                1.134448076646467,
                -3.1198817780568566
            ]
        },
        {
            "positions": [
                -1.5770806494663778,
                -1.367142694639486,
                1.963357365511411,
                -0.5723087676011249,
                1.2990709395381128,
                -3.1188289726477065
            ]
        },
        {
            "positions": [
                -1.6734552282762785,
                -1.4161663024743691,
                1.9521671713751187,
                -0.5155754416685066,
                1.4636938024297586,
                -3.117776167238557
            ]
        }
    ]
}