{
    "goal": {
        "global_pose": {
            "orientation": {
                "w": -0.4816463035849501,
                "x": 0.5182115481033762,
                "y": 0.4908360881923453,
                "z": -0.5084816262002911
            },
            "position": {
                "x": -0.8240239810943604,
                "y": 0.19912469901144506,
                "z": 0.16403168439865112
            }
        },
        "name": "move_to_storage_D"
    },
    "id": "RRTConnect_move_to_storage_D_87",
    "joint_names": [
        "shoulder_pan_joint",
        "shoulder_lift_joint",
        "elbow_joint",
        "wrist_1_joint",
        "wrist_2_joint",
        "wrist_3_joint"
    ],
    "metrics": {
        "cart_traj_len": 3.5158387448471786,
        "distance_elbow_joint": 4.364548004795811,
        "distance_shoulder_lift_joint": 1.264759041149264,
        "distance_shoulder_pan_joint": 2.812410672339819,
        "distance_wrist_1_joint": 2.539309790926853,
        "distance_wrist_2_joint": 1.0693652374367233,
        "distance_wrist_3_joint": 3.1311827760047,
        "smoothness": 0.240019103337287,
        "time": 0.119251145,
        "traj_len": 3.8963541320897876,
        "weighted_distance": 5.005258844757797
    },
    "planner": "RRTConnect",
    "start": {
        "state": {
            "elbow_joint": -2.384821988534728,
            "shoulder_lift_joint": -2.2788054721415256,
            "shoulder_pan_joint": -0.1854694642142757,
            "wrist_1_joint": 1.4845938289331202,
            "wrist_2_joint": 0.17898776772866878,
            "wrist_3_joint": 0.037105688729662994
        }
    },
    "waypoints": [
        {
            "positions": [
                -0.1854694642142757,
                -2.2788054721415256,
                -2.384821988534728,
                1.4845938289331202,
                0.17898776772866878,
                0.037105688729662994
            ]
        },
        {
            "positions": [
                -0.1271795214458766,
                -2.1739967221471925,
                -2.4235069214917555,
                1.5521702960638863,
                0.12979068935733992,
                0.007571251213899732
            ]
        },
        {
            "positions": [
                -0.0688895786774775,
                -2.0691879721528594,
                -2.4621918544487826,
                1.6197467631946525,
                0.08059361098601105,
                -0.02196318630186353
            ]
        },
        {
            "positions": [
                0.017901575900022573,
                -2.040357537255562,
                -2.3407575039964343,
                1.5600291946803613,
                0.08823082687286997,
                -0.09720632735150236
            ]
        },
        {
            "positions": [
                0.10469273047752264,
                -2.0115271023582646,
                -2.219323153544086,
                1.5003116261660698,
                0.09586804275972889,
                -0.1724494684011412
            ]
        },
        {
            "positions": [
                0.1914838850550227,
                -1.982696667460967,
                -2.0978888030917378,
                1.4405940576517786,
                0.10350525864658781,
                -0.24769260945078003
            ]
        },
        {
            "positions": [
                0.27827503963252276,
                -1.9538662325636693,
                -1.9764544526393895,
                1.3808764891374874,
                0.11114247453344674,
                -0.3229357505004189
            ]
        },
        {
            "positions": [
                0.36506619421002284,
                -1.925035797666372,
                -1.8550201021870412,
                1.321158920623196,
                0.11877969042030566,
                -0.3981788915500577
            ]
        },
        {
            "positions": [
                0.45185734878752293,
                -1.8962053627690745,
                -1.733585751734693,
                1.2614413521089047,
                0.12641690630716457,
                -0.4734220325996965
            ]
        },
        {
            "positions": [
                0.538648503365023,
                -1.867374927871777,
                -1.6121514012823446,
                1.2017237835946135,
                0.13405412219402352,
                -0.5486651736493354
            ]
        },
        {
            "positions": [
                0.6254396579425231,
                -1.8385444929744794,
                -1.4907170508299963,
                1.1420062150803223,
                0.1416913380808824,
                -0.6239083146989742
            ]
        },
        {
            "positions": [
                0.7122308125200233,
                -1.809714058077182,
                -1.3692827003776482,
                1.0822886465660309,
                0.14932855396774136,
                -0.6991514557486131
            ]
        },
        {
            "positions": [
                0.7990219670975233,
                -1.7808836231798844,
                -1.2478483499253,
                1.0225710780517396,
                0.15696576985460026,
                -0.774394596798252
            ]
        },
        {
            "positions": [
                0.8858131216750234,
                -1.752053188282587,
                -1.1264139994729516,
                0.9628535095374483,
                0.1646029857414592,
                -0.8496377378478908
            ]
        },
        {
            "positions": [
                0.9726042762525233,
                -1.7232227533852895,
                -1.0049796490206035,
                0.9031359410231571,
                0.1722402016283181,
                -0.9248808788975296
            ]
        },
        {
            "positions": [
                1.0593954308300235,
                -1.6943923184879919,
                -0.883545298568255,
                0.8434183725088656,
                0.17987741751517705,
                -1.0001240199471684
            ]
        },
        {
            "positions": [
                1.1461865854075235,
                -1.6655618835906945,
                -0.7621109481159067,
                0.7837008039945744,
                0.18751463340203595,
                -1.0753671609968072
            ]
        },
        {
            "positions": [
                1.2329777399850235,
                -1.636731448693397,
                -0.6406765976635587,
                0.7239832354802832,
                0.19515184928889487,
                -1.150610302046446
            ]
        },
        {
            "positions": [
                1.3197688945625237,
                -1.6079010137960994,
                -0.5192422472112102,
                0.6642656669659919,
                0.2027890651757538,
                -1.2258534430960848
            ]
        },
        {
            "positions": [
                1.4065600491400239,
                -1.579070578898802,
                -0.3978078967588621,
                0.6045480984517007,
                0.21042628106261274,
                -1.3010965841457236
            ]
        },
        {
            "positions": [
                1.493351203717524,
                -1.5502401440015046,
                -0.2763735463065138,
                0.5448305299374092,
                0.21806349694947164,
                -1.3763397251953626
            ]
        },
        {
            "positions": [
                1.580142358295024,
                -1.521409709104207,
                -0.1549391958541655,
                0.485112961423118,
                0.22570071283633059,
                -1.4515828662450014
            ]
        },
        {
            "positions": [
                1.666933512872524,
                -1.4925792742069095,
                -0.033504845401817196,
                0.4253953929088268,
                0.23333792872318948,
                -1.5268260072946402
            ]
        },
        {
            "positions": [
                1.7537246674500242,
                -1.4637488393096119,
                0.0879295050505311,
                0.36567782439453533,
                0.24097514461004843,
                -1.602069148344279
            ]
        },
        {
            "positions": [
                1.8405158220275242,
                -1.4349184044123144,
                0.20936385550287948,
                0.30596025588024417,
                0.24861236049690733,
                -1.6773122893939179
            ]
        },
        {
            "positions": [
                1.8896674086586502,
                -1.4086139060735612,
                0.3103402573110103,
                0.23781210904581218,
                0.2987968811958554,
                -1.7658600892614877
            ]
        },
        {
            "positions": [
                1.9388189952897765,
                -1.382309407734808,
                0.41131665911914106,
                0.16966396221138022,
                0.34898140189480353,
                -1.8544078891290576
            ]
        },
        {
            "positions": [
                1.9879705819209028,
                -1.3560049093960544,
                0.5122930609272719,
                0.10151581537694826,
                0.3991659225937516,
                -1.9429556889966277
            ]
        },
        {
            "positions": [
                2.037122168552029,
                -1.3297004110573012,
                0.6132694627354026,
                0.03336766854251627,
                0.4493504432926997,
                -2.031503488864198
            ]
        },
        {
            "positions": [
                2.086273755183155,
                -1.303395912718548,
                0.7142458645435334,
                -0.03478047829191572,
                0.49953496399164776,
                -2.1200512887317675
            ]
        },
        {
            "positions": [
                2.1354253418142815,
                -1.2770914143797947,
                0.8152222663516643,
                -0.10292862512634765,
                0.549719484690596,
                -2.2085990885993376
            ]
        },
        {
            "positions": [
                2.1845769284454075,
                -1.2507869160410414,
                0.916198668159795,
                -0.17107677196077964,
                0.5999040053895439,
                -2.2971468884669077
            ]
        },
        {
            "positions": [
                2.2337285150765336,
                -1.224482417702288,
                1.0171750699679258,
                -0.23922491879521163,
                0.6500885260884921,
                -2.3856946883344774
            ]
        },
        {
            "positions": [
                2.2828801017076596,
                -1.1981779193635347,
                1.1181514717760566,
                -0.30737306562964356,
                0.7002730467874401,
                -2.474242488202047
            ]
        },
        {
            "positions": [
                2.3320316883387857,
                -1.1718734210247814,
                1.2191278735841873,
                -0.3755212124640756,
                0.7504575674863883,
                -2.562790288069617
            ]
        },
        {
            "positions": [
                2.3811832749699122,
                -1.1455689226860282,
                1.320104275392318,
                -0.44366935929850754,
                0.8006420881853362,
                -2.6513380879371873
            ]
        },
        {
            "positions": [
                2.4303348616010383,
                -1.119264424347275,
                1.421080677200449,
                -0.5118175061329395,
                0.8508266088842844,
                -2.739885887804757
            ]
        },
        {
            "positions": [
                2.4794864482321644,
                -1.0929599260085214,
                1.5220570790085797,
                -0.5799656529673716,
                0.9010111295832326,
                -2.828433687672327
            ]
        },
        {
            "positions": [
                2.528638034863291,
                -1.0666554276697684,
                1.6230334808167104,
                -0.6481137998018034,
                0.9511956502821806,
                -2.916981487539897
            ]
        },
        {
            "positions": [
                2.577789621494417,
                -1.040350929331015,
                1.7240098826248413,
                -0.7162619466362354,
                1.0013801709811287,
                -3.005529287407467
            ]
        },
        {
            "positions": [
                2.626941208125543,
                -1.0140464309922617,
                1.824986284432972,
                -0.7844100934706674,
                1.0515646916800767,
                -3.094077087275037
            ]
        }
    ]
}