{
    "goal": {
        "global_pose": {
            "orientation": {
                "w": -0.4816463035849501,
                "x": 0.5182115481033762,
                "y": 0.4908360881923453,
                "z": -0.5084816262002911
            },
            "position": {
                "x": -0.8240239810943604,
                "y": 0.19912469901144506,
                "z": 0.16403168439865112
            }
        },
        "name": "move_to_storage_D"
    },
    "id": "RRTConnect_move_to_storage_D_43",
    "joint_names": [
        "shoulder_pan_joint",
        "shoulder_lift_joint",
        "elbow_joint",
        "wrist_1_joint",
        "wrist_2_joint",
        "wrist_3_joint"
    ],
    "metrics": {
        "cart_traj_len": 4.2624793913353125,
        "distance_elbow_joint": 4.2129569138839,
        "distance_shoulder_lift_joint": 1.2632859619590242,
        "distance_shoulder_pan_joint": 2.813654776103645,
        "distance_wrist_1_joint": 2.2743610414139326,
        "distance_wrist_2_joint": 0.8839014007551108,
        "distance_wrist_3_joint": 3.1295372259084817,
        "smoothness": 1.366428348819991e-16,
        "time": 0.106004456,
        "traj_len": 3.8180750804592742,
        "weighted_distance": 4.898472640937182
    },
    "planner": "RRTConnect",
    "start": {
        "state": {
            "elbow_joint": -2.384821988534728,
            "shoulder_lift_joint": -2.2788054721415256,
            "shoulder_pan_joint": -0.1854694642142757,
            "wrist_1_joint": 1.4845938289331202,
            "wrist_2_joint": 0.17898776772866878,
            "wrist_3_joint": 0.037105688729662994
        }
    },
    "waypoints": [
        {
            "positions": [
                -0.1854694642142757,
                -2.2788054721415256,
                -2.384821988534728,
                1.4845938289331202,
                0.17898776772866878,
                0.037105688729662994
            ]
        },
        {
            "positions": [
                -0.07756678565962155,
                -2.258086019728506,
                -2.2470545312146473,
                1.4025041727121346,
                0.22070293602056318,
                0.03597943444538398
            ]
        },
        {
            "positions": [
                0.030335892895032607,
                -2.237366567315486,
                -2.1092870738945666,
                1.320414516491149,
                0.2624181043124576,
                0.03485318016110496
            ]
        },
        {
            "positions": [
                0.13823857144968674,
                -2.2166471149024662,
                -1.971519616574486,
                1.238324860270163,
                0.30413327260435197,
                0.03372692587682594
            ]
        },
        {
            "positions": [
                0.24614125000434092,
                -2.1959276624894466,
                -1.8337521592544053,
                1.1562352040491775,
                0.34584844089624645,
                0.032600671592546926
            ]
        },
        {
            "positions": [
                0.35404392855899514,
                -2.175208210076427,
                -1.6959847019343246,
                1.0741455478281918,
                0.3875636091881408,
                0.0314744173082679
            ]
        },
        {
            "positions": [
                0.4619466071136492,
                -2.154488757663407,
                -1.558217244614244,
                0.9920558916072062,
                0.4292787774800352,
                0.030348163023988888
            ]
        },
        {
            "positions": [
                0.5698492856683035,
                -2.133769305250387,
                -1.4204497872941633,
                0.9099662353862205,
                0.47099394577192966,
                0.029221908739709868
            ]
        },
        {
            "positions": [
                0.6777519642229576,
                -2.1130498528373676,
                -1.2826823299740826,
                0.8278765791652348,
                0.512709114063824,
                0.02809565445543085
            ]
        },
        {
            "positions": [
                0.7856546427776118,
                -2.0923304004243475,
                -1.144914872654002,
                0.7457869229442491,
                0.5544242823557185,
                0.026969400171151833
            ]
        },
        {
            "positions": [
                0.893557321332266,
                -2.071610948011328,
                -1.0071474153339213,
                0.6636972667232633,
                0.5961394506476129,
                0.025843145886872816
            ]
        },
        {
            "positions": [
                1.00145999988692,
                -2.050891495598308,
                -0.8693799580138404,
                0.5816076105022776,
                0.6378546189395073,
                0.0247168916025938
            ]
        },
        {
            "positions": [
                1.109362678441574,
                -2.0301720431852885,
                -0.7316125006937599,
                0.4995179542812921,
                0.6795697872314016,
                0.023590637318314782
            ]
        },
        {
            "positions": [
                1.2172653569962282,
                -2.0094525907722685,
                -0.5938450433736793,
                0.41742829806030635,
                0.7212849555232961,
                0.02246438303403576
            ]
        },
        {
            "positions": [
                1.3251680355508826,
                -1.9887331383592488,
                -0.4560775860535986,
                0.3353386418393207,
                0.7630001238151906,
                0.021338128749756744
            ]
        },
        {
            "positions": [
                1.4330707141055368,
                -1.9680136859462292,
                -0.31831012873351794,
                0.25324898561833487,
                0.8047152921070849,
                0.020211874465477724
            ]
        },
        {
            "positions": [
                1.5409733926601907,
                -1.9472942335332093,
                -0.18054267141343727,
                0.17115932939734946,
                0.8464304603989793,
                0.01908562018119871
            ]
        },
        {
            "positions": [
                1.648876071214845,
                -1.9265747811201894,
                -0.042775214093356606,
                0.0890696731763636,
                0.8881456286908737,
                0.01795936589691969
            ]
        },
        {
            "positions": [
                1.756778749769499,
                -1.9058553287071698,
                0.09499224322672398,
                0.0069800169553778935,
                0.9298607969827681,
                0.016833111612640672
            ]
        },
        {
            "positions": [
                1.8003490778754927,
                -1.8613385377809364,
                0.18164937733284636,
                -0.03285734451643164,
                0.9365122155578187,
                -0.1386301208269323
            ]
        },
        {
            "positions": [
                1.843919405981486,
                -1.816821746854703,
                0.2683065114389688,
                -0.07269470598824117,
                0.9431636341328693,
                -0.29409335326650526
            ]
        },
        {
            "positions": [
                1.8874897340874797,
                -1.7723049559284696,
                0.3549636455450911,
                -0.11253206746005069,
                0.9498150527079199,
                -0.4495565857060782
            ]
        },
        {
            "positions": [
                1.931060062193473,
                -1.7277881650022362,
                0.4416207796512135,
                -0.15236942893186023,
                0.9564664712829705,
                -0.6050198181456512
            ]
        },
        {
            "positions": [
                1.9746303902994666,
                -1.6832713740760026,
                0.5282779137573359,
                -0.19220679040366975,
                0.963117889858021,
                -0.7604830505852241
            ]
        },
        {
            "positions": [
                2.0182007184054602,
                -1.6387545831497694,
                0.6149350478634582,
                -0.23204415187547928,
                0.9697693084330715,
                -0.9159462830247971
            ]
        },
        {
            "positions": [
                2.0617710465114536,
                -1.5942377922235358,
                0.7015921819695806,
                -0.27188151334728883,
                0.9764207270081221,
                -1.07140951546437
            ]
        },
        {
            "positions": [
                2.1053413746174474,
                -1.5497210012973024,
                0.788249316075703,
                -0.3117188748190983,
                0.9830721455831727,
                -1.226872747903943
            ]
        },
        {
            "positions": [
                2.148911702723441,
                -1.505204210371069,
                0.8749064501818253,
                -0.35155623629090793,
                0.9897235641582233,
                -1.382335980343516
            ]
        },
        {
            "positions": [
                2.192482030829434,
                -1.4606874194448356,
                0.9615635842879477,
                -0.3913935977627174,
                0.9963749827332739,
                -1.537799212783089
            ]
        },
        {
            "positions": [
                2.2360523589354275,
                -1.4161706285186022,
                1.0482207183940702,
                -0.4312309592345269,
                1.0030264013083245,
                -1.6932624452226621
            ]
        },
        {
            "positions": [
                2.279622687041421,
                -1.3716538375923688,
                1.1348778525001926,
                -0.4710683207063364,
                1.009677819883375,
                -1.8487256776622347
            ]
        },
        {
            "positions": [
                2.3231930151474147,
                -1.3271370466661354,
                1.221534986606315,
                -0.510905682178146,
                1.0163292384584255,
                -2.004188910101808
            ]
        },
        {
            "positions": [
                2.366763343253408,
                -1.282620255739902,
                1.3081921207124374,
                -0.5507430436499555,
                1.022980657033476,
                -2.159652142541381
            ]
        },
        {
            "positions": [
                2.4103336713594015,
                -1.2381034648136686,
                1.3948492548185598,
                -0.590580405121765,
                1.0296320756085267,
                -2.315115374980954
            ]
        },
        {
            "positions": [
                2.4539039994653953,
                -1.193586673887435,
                1.4815063889246822,
                -0.6304177665935746,
                1.0362834941835772,
                -2.470578607420527
            ]
        },
        {
            "positions": [
                2.4974743275713887,
                -1.1490698829612018,
                1.5681635230308044,
                -0.6702551280653841,
                1.0429349127586278,
                -2.6260418398600995
            ]
        },
        {
            "positions": [
                2.541044655677382,
                -1.1045530920349682,
                1.6548206571369268,
                -0.7100924895371937,
                1.0495863313336784,
                -2.781505072299673
            ]
        },
        {
            "positions": [
                2.584614983783376,
                -1.060036301108735,
                1.7414777912430492,
                -0.7499298510090031,
                1.056237749908729,
                -2.9369683047392456
            ]
        },
        {
            "positions": [
                2.628185311889369,
                -1.0155195101825014,
                1.8281349253491717,
                -0.7897672124808127,
                1.0628891684837796,
                -3.0924315371788187
            ]
        }
    ]
}