{
    "goal": {
        "global_pose": {
            "orientation": {
                "w": -0.4816463035849501,
                "x": 0.5182115481033762,
                "y": 0.4908360881923453,
                "z": -0.5084816262002911
            },
            "position": {
                "x": -0.8240239810943604,
                "y": 0.19912469901144506,
                "z": 0.16403168439865112
            }
        },
        "name": "move_to_storage_D"
    },
    "id": "RRTConnect_move_to_storage_D_133",
    "joint_names": [
        "shoulder_pan_joint",
        "shoulder_lift_joint",
        "elbow_joint",
        "wrist_1_joint",
        "wrist_2_joint",
        "wrist_3_joint"
    ],
    "metrics": {
        "cart_traj_len": 3.4893662174136817,
        "distance_elbow_joint": 4.2097565620904565,
        "distance_shoulder_lift_joint": 1.2639768713519612,
        "distance_shoulder_pan_joint": 2.8139408325806787,
        "distance_wrist_1_joint": 2.26462872157258,
        "distance_wrist_2_joint": 1.17145782434758,
        "distance_wrist_3_joint": 3.1408332811117163,
        "smoothness": 0.012334043690408287,
        "time": 0.097909954,
        "traj_len": 3.8554628895963936,
        "weighted_distance": 4.958058813809953
    },
    "planner": "RRTConnect",
    "start": {
        "state": {
            "elbow_joint": -2.384821988534728,
            "shoulder_lift_joint": -2.2788054721415256,
            "shoulder_pan_joint": -0.1854694642142757,
            "wrist_1_joint": 1.4845938289331202,
            "wrist_2_joint": 0.17898776772866878,
            "wrist_3_joint": 0.037105688729662994
        }
    },
    "waypoints": [
        {
            "positions": [
                -0.1854694642142757,
                -2.2788054721415256,
                -2.384821988534728,
                1.4845938289331202,
                0.17898776772866878,
                0.037105688729662994
            ]
        },
        {
            "positions": [
                -0.0829691631876476,
                -2.2379338678349723,
                -2.228360581305578,
                1.414076449072798,
                0.1731674478648661,
                0.048333206120941406
            ]
        },
        {
            "positions": [
                0.0195311378389805,
                -2.1970622635284185,
                -2.0718991740764277,
                1.343559069212476,
                0.1673471280010634,
                0.05956072351221982
            ]
        },
        {
            "positions": [
                0.1220314388656086,
                -2.156190659221865,
                -1.9154377668472775,
                1.2730416893521537,
                0.16152680813726072,
                0.07078824090349822
            ]
        },
        {
            "positions": [
                0.2245317398922367,
                -2.115319054915312,
                -1.7589763596181274,
                1.2025243094918316,
                0.155706488273458,
                0.08201575829477664
            ]
        },
        {
            "positions": [
                0.32703204091886484,
                -2.074447450608758,
                -1.602514952388977,
                1.1320069296315094,
                0.14988616840965532,
                0.09324327568605506
            ]
        },
        {
            "positions": [
                0.42953234194549295,
                -2.0335758463022047,
                -1.4460535451598269,
                1.0614895497711874,
                0.14406584854585264,
                0.10447079307733347
            ]
        },
        {
            "positions": [
                0.5320326429721212,
                -1.992704241995651,
                -1.2895921379306765,
                0.9909721699108651,
                0.13824552868204995,
                0.11569831046861188
            ]
        },
        {
            "positions": [
                0.6345329439987492,
                -1.9518326376890975,
                -1.1331307307015266,
                0.920454790050543,
                0.13242520881824726,
                0.1269258278598903
            ]
        },
        {
            "positions": [
                0.7370332450253773,
                -1.9109610333825442,
                -0.9766693234723764,
                0.8499374101902208,
                0.12660488895444458,
                0.13815334525116868
            ]
        },
        {
            "positions": [
                0.8395335460520054,
                -1.8700894290759906,
                -0.8202079162432261,
                0.7794200303298986,
                0.12078456909064189,
                0.14938086264244713
            ]
        },
        {
            "positions": [
                0.9420338470786335,
                -1.829217824769437,
                -0.663746509014076,
                0.7089026504695766,
                0.11496424922683919,
                0.16060838003372552
            ]
        },
        {
            "positions": [
                1.0445341481052615,
                -1.7883462204628837,
                -0.5072851017849258,
                0.6383852706092544,
                0.1091439293630365,
                0.17183589742500394
            ]
        },
        {
            "positions": [
                1.1470344491318896,
                -1.74747461615633,
                -0.35082369455577567,
                0.5678678907489322,
                0.10332360949923382,
                0.18306341481628235
            ]
        },
        {
            "positions": [
                1.249534750158518,
                -1.7066030118497766,
                -0.19436228732662508,
                0.49735051088860993,
                0.09750328963543112,
                0.19429093220756077
            ]
        },
        {
            "positions": [
                1.3520350511851458,
                -1.6657314075432232,
                -0.03790088009747539,
                0.426833131028288,
                0.09168296977162844,
                0.20551844959883916
            ]
        },
        {
            "positions": [
                1.4545353522117739,
                -1.6248598032366695,
                0.11856052713167475,
                0.35631575116796577,
                0.08586264990782574,
                0.21674596699011758
            ]
        },
        {
            "positions": [
                1.5570356532384022,
                -1.583988198930116,
                0.27502193436082534,
                0.2857983713076435,
                0.08004233004402304,
                0.227973484381396
            ]
        },
        {
            "positions": [
                1.65953595426503,
                -1.5431165946235625,
                0.43148334158997503,
                0.2152809914473215,
                0.07422201018022037,
                0.2392010017726744
            ]
        },
        {
            "positions": [
                1.7620362552916582,
                -1.502244990317009,
                0.5879447488191256,
                0.14476361158699924,
                0.06840169031641767,
                0.2504285191639528
            ]
        },
        {
            "positions": [
                1.8645365563182863,
                -1.4613733860104556,
                0.7444061560482758,
                0.07424623172667699,
                0.06258137045261498,
                0.2616560365552313
            ]
        },
        {
            "positions": [
                1.9670368573449144,
                -1.420501781703902,
                0.9008675632774255,
                0.0037288518663549652,
                0.0567610505888123,
                0.27288355394650965
            ]
        },
        {
            "positions": [
                2.0695371583715425,
                -1.3796301773973485,
                1.057328970506576,
                -0.06678852799396706,
                0.0509407307250096,
                0.28411107133778807
            ]
        },
        {
            "positions": [
                2.1720374593981706,
                -1.3387585730907952,
                1.2137903777357262,
                -0.1373059078542893,
                0.04512041086120691,
                0.2953385887290665
            ]
        },
        {
            "positions": [
                2.2745377604247987,
                -1.2978869687842416,
                1.3702517849648763,
                -0.20782328771461134,
                0.039300090997404225,
                0.30656610612034485
            ]
        },
        {
            "positions": [
                2.377038061451427,
                -1.257015364477688,
                1.5267131921940262,
                -0.2783406675749335,
                0.03347977113360155,
                0.3177936235116233
            ]
        },
        {
            "positions": [
                2.394997583373925,
                -1.2397163099285364,
                1.5480147194341478,
                -0.31417596936525677,
                0.10676190168735246,
                0.5220897196780345
            ]
        },
        {
            "positions": [
                2.4129571052964236,
                -1.2224172553793846,
                1.5693162466742694,
                -0.3500112711555801,
                0.18004403224110338,
                0.7263858158444456
            ]
        },
        {
            "positions": [
                2.4309166272189215,
                -1.205118200830233,
                1.5906177739143912,
                -0.3858465729459034,
                0.25332616279485426,
                0.9306819120108567
            ]
        },
        {
            "positions": [
                2.44887614914142,
                -1.1878191462810812,
                1.6119193011545128,
                -0.42168187473622676,
                0.3266082933486052,
                1.134978008177268
            ]
        },
        {
            "positions": [
                2.4668356710639183,
                -1.1705200917319296,
                1.6332208283946343,
                -0.45751717652655005,
                0.39989042390235613,
                1.339274104343679
            ]
        },
        {
            "positions": [
                2.4847951929864167,
                -1.1532210371827778,
                1.654522355634756,
                -0.49335247831687334,
                0.473172554456107,
                1.5435702005100902
            ]
        },
        {
            "positions": [
                2.5027547149089147,
                -1.1359219826336262,
                1.6758238828748775,
                -0.5291877801071967,
                0.5464546850098579,
                1.7478662966765013
            ]
        },
        {
            "positions": [
                2.520714236831413,
                -1.1186229280844746,
                1.6971254101149993,
                -0.5650230818975199,
                0.6197368155636088,
                1.9521623928429124
            ]
        },
        {
            "positions": [
                2.5386737587539114,
                -1.1013238735353228,
                1.7184269373551209,
                -0.6008583836878434,
                0.6930189461173598,
                2.156458489009324
            ]
        },
        {
            "positions": [
                2.55663328067641,
                -1.0840248189861712,
                1.7397284645952424,
                -0.6366936854781666,
                0.7663010766711107,
                2.360754585175735
            ]
        },
        {
            "positions": [
                2.574592802598908,
                -1.0667257644370194,
                1.761029991835364,
                -0.67252898726849,
                0.8395832072248616,
                2.5650506813421456
            ]
        },
        {
            "positions": [
                2.592552324521406,
                -1.0494267098878678,
                1.7823315190754858,
                -0.7083642890588133,
                0.9128653377786125,
                2.7693467775085567
            ]
        },
        {
            "positions": [
                2.6105118464439045,
                -1.032127655338716,
                1.8036330463156074,
                -0.7441995908491366,
                0.9861474683323634,
                2.9736428736749683
            ]
        },
        {
            "positions": [
                2.628471368366403,
                -1.0148286007895644,
                1.824934573555729,
                -0.7800348926394599,
                1.0594295988861142,
                3.1779389698413794
            ]
        }
    ]
}