{
    "goal": {
        "global_pose": {
            "orientation": {
                "w": 0.005598929693374612,
                "x": 0.007748599140229565,
                "y": 0.7110244013736278,
                "z": -0.7031023480610252
            },
            "position": {
                "x": -0.8858502320852131,
                "y": -0.7141253447532654,
                "z": 0.3711530566215515
            }
        },
        "name": "move_to_auspresseinheit_C"
    },
    "id": "RRTConnect_move_to_auspresseinheit_C_61",
    "joint_names": [
        "shoulder_pan_joint",
        "shoulder_lift_joint",
        "elbow_joint",
        "wrist_1_joint",
        "wrist_2_joint",
        "wrist_3_joint"
    ],
    "metrics": {
        "cart_traj_len": 0.49424316124343004,
        "distance_elbow_joint": 1.0118189618535003,
        "distance_shoulder_lift_joint": 0.3307858433358031,
        "distance_shoulder_pan_joint": 0.2561262616618598,
        "distance_wrist_1_joint": 0.6932618395677779,
        "distance_wrist_2_joint": 1.320644738723948,
        "distance_wrist_3_joint": 0.06268600555524007,
        "smoothness": 0.0,
        "time": 0.083139459,
        "traj_len": 1.9171133640706093,
        "weighted_distance": 2.411348635121088
    },
    "planner": "RRTConnect",
    "start": {
        "state": {
            "elbow_joint": 1.7527959577737207,
            "shoulder_lift_joint": -0.9740617694225068,
            "shoulder_pan_joint": -2.967991417825858,
            "wrist_1_joint": -0.759517768980727,
            "wrist_2_joint": 1.7443932448377408,
            "wrist_3_joint": -3.0840537646736568
        }
    },
    "waypoints": [
        {
            "positions": [
                -2.967991417825858,
                -0.9740617694225068,
                1.7527959577737207,
                -0.759517768980727,
                1.7443932448377408,
                -3.0840537646736568
            ]
        },
        {
            "positions": [
                -2.9423787916596718,
                -0.9409831850889264,
                1.6516140615883705,
                -0.6901915850239492,
                1.612328770965346,
                -3.0903223652291807
            ]
        },
        {
            "positions": [
                -2.916766165493486,
                -0.9079046007553462,
                1.5504321654030206,
                -0.6208654010671714,
                1.4802642970929512,
                -3.0965909657847046
            ]
        },
        {
            "positions": [
                -2.8911535393273002,
                -0.8748260164217658,
                1.4492502692176705,
                -0.5515392171103937,
                1.3481998232205565,
                -3.102859566340229
            ]
        },
        {
            "positions": [
                -2.865540913161114,
                -0.8417474320881855,
                1.3480683730323206,
                -0.4822130331536158,
                1.2161353493481615,
                -3.109128166895753
            ]
        },
        {
            "positions": [
                -2.839928286994928,
                -0.8086688477546052,
                1.2468864768469705,
                -0.41288684919683805,
                1.0840708754757669,
                -3.115396767451277
            ]
        },
        {
            "positions": [
                -2.814315660828742,
                -0.775590263421025,
                1.1457045806616204,
                -0.3435606652400603,
                0.9520064016033721,
                -3.1216653680068007
            ]
        },
        {
            "positions": [
                -2.7887030346625563,
                -0.7425116790874446,
                1.0445226844762705,
                -0.2742344812832825,
                0.8199419277309773,
                -3.1279339685623246
            ]
        },
        {
            "positions": [
                -2.76309040849637,
                -0.7094330947538643,
                0.9433407882909204,
                -0.20490829732650462,
                0.6878774538585823,
                -3.134202569117849
            ]
        },
        {
            "positions": [
                -2.737477782330184,
                -0.6763545104202839,
                0.8421588921055704,
                -0.13558211336972692,
                0.5558129799861877,
                -3.140471169673373
            ]
        },
        {
            "positions": [
                -2.711865156163998,
                -0.6432759260867037,
                0.7409769959202205,
                -0.0662559294129491,
                0.42374850611379294,
                -3.146739770228897
            ]
        }
    ]
}