{
    "goal": {
        "global_pose": {
            "orientation": {
                "w": 0.7047431468963623,
                "x": -0.7094548344612122,
                "y": 0.0024358443915843964,
                "z": -0.0022348060738295317
            },
            "position": {
                "x": 0.6094750761985779,
                "y": 0.3671506643295288,
                "z": 0.19426114857196808
            }
        },
        "name": "move_to_magneteinheit_A"
    },
    "id": "RRTConnect_move_to_magneteinheit_A_62",
    "joint_names": [
        "shoulder_pan_joint",
        "shoulder_lift_joint",
        "elbow_joint",
        "wrist_1_joint",
        "wrist_2_joint",
        "wrist_3_joint"
    ],
    "metrics": {
        "cart_traj_len": 3.860725093752725,
        "distance_elbow_joint": 3.875616165713258,
        "distance_shoulder_lift_joint": 0.11494702175470084,
        "distance_shoulder_pan_joint": 4.147171318974868,
        "distance_wrist_1_joint": 2.358791206440313,
        "distance_wrist_2_joint": 1.6922525702453697,
        "distance_wrist_3_joint": 3.6862655400283777,
        "smoothness": 0.24250916978093495,
        "time": 0.09229426,
        "traj_len": 3.9843498620423485,
        "weighted_distance": 5.224808004118363
    },
    "planner": "RRTConnect",
    "start": {
        "state": {
            "elbow_joint": -1.9196185241190666,
            "shoulder_lift_joint": -1.2443396400964142,
            "shoulder_pan_joint": 2.6996025414629847,
            "wrist_1_joint": -1.5485510000780065,
            "wrist_2_joint": -1.5709468930060704,
            "wrist_3_joint": 0.4420197071253992
        }
    },
    "waypoints": [
        {
            "positions": [
                2.6996025414629847,
                -1.2443396400964142,
                -1.9196185241190666,
                -1.5485510000780065,
                -1.5709468930060704,
                0.4420197071253992
            ]
        },
        {
            "positions": [
                2.5795127350572566,
                -1.2402633247863912,
                -1.8275939964683938,
                -1.491629683808596,
                -1.5264138993972083,
                0.3754648505007557
            ]
        },
        {
            "positions": [
                2.4594229286515286,
                -1.2361870094763683,
                -1.735569468817721,
                -1.4347083675391856,
                -1.4818809057883464,
                0.3089099938761122
            ]
        },
        {
            "positions": [
                2.3393331222458005,
                -1.2321106941663453,
                -1.6435449411670484,
                -1.3777870512697752,
                -1.4373479121794843,
                0.24235513725146868
            ]
        },
        {
            "positions": [
                2.2192433158400724,
                -1.2280343788563224,
                -1.5515204135163756,
                -1.3208657350003647,
                -1.3928149185706222,
                0.17580028062682518
            ]
        },
        {
            "positions": [
                2.099153509434344,
                -1.2239580635462994,
                -1.4594958858657028,
                -1.2639444187309543,
                -1.3482819249617604,
                0.10924542400218162
            ]
        },
        {
            "positions": [
                1.9790637030286162,
                -1.2198817482362765,
                -1.3674713582150302,
                -1.207023102461544,
                -1.3037489313528983,
                0.04269056737753818
            ]
        },
        {
            "positions": [
                1.858973896622888,
                -1.2158054329262535,
                -1.2754468305643574,
                -1.1501017861921334,
                -1.2592159377440362,
                -0.023864289247105375
            ]
        },
        {
            "positions": [
                1.7388840902171598,
                -1.2117291176162306,
                -1.1834223029136846,
                -1.0931804699227232,
                -1.2146829441351743,
                -0.09041914587174882
            ]
        },
        {
            "positions": [
                1.6187942838114315,
                -1.2076528023062076,
                -1.0913977752630117,
                -1.0362591536533126,
                -1.1701499505263122,
                -0.15697400249639248
            ]
        },
        {
            "positions": [
                1.4987044774057035,
                -1.2035764869961847,
                -0.9993732476123389,
                -0.9793378373839022,
                -1.1256169569174501,
                -0.22352885912103593
            ]
        },
        {
            "positions": [
                1.3786146709999756,
                -1.1995001716861617,
                -0.9073487199616661,
                -0.9224165211144919,
                -1.081083963308588,
                -0.29008371574567937
            ]
        },
        {
            "positions": [
                1.2585248645942475,
                -1.1954238563761388,
                -0.8153241923109935,
                -0.8654952048450815,
                -1.0365509696997262,
                -0.3566385723703228
            ]
        },
        {
            "positions": [
                1.1384350581885192,
                -1.1913475410661158,
                -0.7232996646603207,
                -0.808573888575671,
                -0.9920179760908641,
                -0.4231934289949665
            ]
        },
        {
            "positions": [
                1.0183452517827911,
                -1.187271225756093,
                -0.6312751370096479,
                -0.7516525723062606,
                -0.9474849824820021,
                -0.4897482856196099
            ]
        },
        {
            "positions": [
                0.898255445377063,
                -1.18319491044607,
                -0.5392506093589751,
                -0.6947312560368502,
                -0.9029519888731401,
                -0.5563031422442534
            ]
        },
        {
            "positions": [
                0.778165638971335,
                -1.179118595136047,
                -0.44722608170830247,
                -0.6378099397674398,
                -0.8584189952642781,
                -0.6228579988688968
            ]
        },
        {
            "positions": [
                0.6580758325656069,
                -1.175042279826024,
                -0.35520155405762965,
                -0.5808886234980294,
                -0.813886001655416,
                -0.6894128554935403
            ]
        },
        {
            "positions": [
                0.5379860261598783,
                -1.170965964516001,
                -0.2631770264069566,
                -0.5239673072286188,
                -0.7693530080465539,
                -0.7559677121181841
            ]
        },
        {
            "positions": [
                0.41789621975415026,
                -1.1668896492059782,
                -0.17115249875628402,
                -0.4670459909592084,
                -0.724820014437692,
                -0.8225225687428276
            ]
        },
        {
            "positions": [
                0.29780641334842217,
                -1.1628133338959552,
                -0.0791279711056112,
                -0.41012467468979796,
                -0.68028702082883,
                -0.889077425367471
            ]
        },
        {
            "positions": [
                0.1777166069426941,
                -1.1587370185859323,
                0.01289655654506161,
                -0.3532033584203875,
                -0.635754027219968,
                -0.9556322819921145
            ]
        },
        {
            "positions": [
                0.05762680053696645,
                -1.1546607032759093,
                0.10492108419573443,
                -0.2962820421509773,
                -0.5912210336111059,
                -1.0221871386167578
            ]
        },
        {
            "positions": [
                -0.062463005868761634,
                -1.1505843879658864,
                0.1969456118464068,
                -0.23936072588156687,
                -0.546688040002244,
                -1.0887419952414015
            ]
        },
        {
            "positions": [
                -0.18255281227448972,
                -1.1465080726558634,
                0.2889701394970796,
                -0.18243940961215643,
                -0.5021550463933819,
                -1.1552968518660447
            ]
        },
        {
            "positions": [
                -0.30264261868021824,
                -1.1424317573458405,
                0.3809946671477529,
                -0.12551809334274577,
                -0.45762205278451984,
                -1.2218517084906888
            ]
        },
        {
            "positions": [
                -0.42273242508594633,
                -1.1383554420358175,
                0.47301919479842525,
                -0.06859677707333556,
                -0.41308905917565775,
                -1.288406565115332
            ]
        },
        {
            "positions": [
                -0.5428222314916744,
                -1.1342791267257946,
                0.5650437224490981,
                -0.01167546080392512,
                -0.3685560655667959,
                -1.3549614217399757
            ]
        },
        {
            "positions": [
                -0.6629120378974026,
                -1.1302028114157716,
                0.6570682500997709,
                0.04524585546548533,
                -0.3240230719579338,
                -1.421516278364619
            ]
        },
        {
            "positions": [
                -0.6025538271578271,
                -1.13026513395993,
                0.7569858955993417,
                -0.013599863834270087,
                -0.2897670143273774,
                -1.5617262440983388
            ]
        },
        {
            "positions": [
                -0.5421956164182516,
                -1.1303274565040882,
                0.8569035410989125,
                -0.0724455831340255,
                -0.25551095669682106,
                -1.7019362098320587
            ]
        },
        {
            "positions": [
                -0.48183740567867617,
                -1.1303897790482467,
                0.9568211865984833,
                -0.13129130243378095,
                -0.22125489906626467,
                -1.8421461755657786
            ]
        },
        {
            "positions": [
                -0.42147919493910074,
                -1.130452101592405,
                1.0567388320980542,
                -0.19013702173353636,
                -0.1869988414357083,
                -1.9823561412994986
            ]
        },
        {
            "positions": [
                -0.36112098419952526,
                -1.1305144241365632,
                1.156656477597625,
                -0.24898274103329177,
                -0.15274278380515194,
                -2.1225661070332187
            ]
        },
        {
            "positions": [
                -0.3007627734599498,
                -1.1305767466807215,
                1.2565741230971956,
                -0.3078284603330472,
                -0.11848672617459555,
                -2.2627760727669384
            ]
        },
        {
            "positions": [
                -0.24040456272037442,
                -1.13063906922488,
                1.3564917685967663,
                -0.3666741796328026,
                -0.08423066854403921,
                -2.402986038500658
            ]
        },
        {
            "positions": [
                -0.18004635198079888,
                -1.1307013917690383,
                1.4564094140963375,
                -0.42551989893255804,
                -0.04997461091348282,
                -2.543196004234378
            ]
        },
        {
            "positions": [
                -0.11968814124122351,
                -1.1307637143131966,
                1.5563270595959082,
                -0.4843656182323134,
                -0.015718553282926484,
                -2.683405969968098
            ]
        },
        {
            "positions": [
                -0.05932993050164792,
                -1.1308260368573548,
                1.656244705095479,
                -0.5432113375320688,
                0.018537504347629907,
                -2.823615935701818
            ]
        },
        {
            "positions": [
                0.001028280237927448,
                -1.1308883594015133,
                1.7561623505950497,
                -0.6020570568318243,
                0.0527935619781863,
                -2.9638259014355377
            ]
        },
        {
            "positions": [
                0.06138649097750304,
                -1.1309506819456716,
                1.8560799960946206,
                -0.6609027761315798,
                0.08704961960874269,
                -3.104035867169258
            ]
        },
        {
            "positions": [
                0.12174470171707845,
                -1.1310130044898299,
                1.9559976415941913,
                -0.7197484954313351,
                0.12130567723929901,
                -3.2442458329029775
            ]
        }
    ]
}