{
    "goal": {
        "global_pose": {
            "orientation": {
                "w": 0.7047431468963623,
                "x": -0.7094548344612122,
                "y": 0.0024358443915843964,
                "z": -0.0022348060738295317
            },
            "position": {
                "x": 0.6094750761985779,
                "y": 0.3671506643295288,
                "z": 0.19426114857196808
            }
        },
        "name": "move_to_magneteinheit_A"
    },
    "id": "RRTConnect_move_to_magneteinheit_A_135",
    "joint_names": [
        "shoulder_pan_joint",
        "shoulder_lift_joint",
        "elbow_joint",
        "wrist_1_joint",
        "wrist_2_joint",
        "wrist_3_joint"
    ],
    "metrics": {
        "cart_traj_len": 3.6055870750814574,
        "distance_elbow_joint": 3.8908331086575174,
        "distance_shoulder_lift_joint": 0.2948664693866945,
        "distance_shoulder_pan_joint": 3.3440616139342545,
        "distance_wrist_1_joint": 2.7952518700485793,
        "distance_wrist_2_joint": 3.016233730539714,
        "distance_wrist_3_joint": 3.648606844793662,
        "smoothness": 0.27801623173482154,
        "time": 0.086457956,
        "traj_len": 4.121875014766995,
        "weighted_distance": 5.486214808730701
    },
    "planner": "RRTConnect",
    "start": {
        "state": {
            "elbow_joint": -1.9196185241190666,
            "shoulder_lift_joint": -1.2443396400964142,
            "shoulder_pan_joint": 2.6996025414629847,
            "wrist_1_joint": -1.5485510000780065,
            "wrist_2_joint": -1.5709468930060704,
            "wrist_3_joint": 0.4420197071253992
        }
    },
    "waypoints": [
        {
            "positions": [
                2.6996025414629847,
                -1.2443396400964142,
                -1.9196185241190666,
                -1.5485510000780065,
                -1.5709468930060704,
                0.4420197071253992
            ]
        },
        {
            "positions": [
                2.604105875160849,
                -1.2474164985240483,
                -1.8092541086239393,
                -1.490877910213479,
                -1.494735687392495,
                0.3944919176872541
            ]
        },
        {
            "positions": [
                2.5086092088587133,
                -1.2504933569516827,
                -1.6988896931288122,
                -1.4332048203489514,
                -1.4185244817789195,
                0.3469641282491091
            ]
        },
        {
            "positions": [
                2.4131125425565774,
                -1.253570215379317,
                -1.588525277633685,
                -1.375531730484424,
                -1.3423132761653442,
                0.29943633881096404
            ]
        },
        {
            "positions": [
                2.317615876254442,
                -1.2566470738069513,
                -1.4781608621385576,
                -1.3178586406198962,
                -1.266102070551769,
                0.25190854937281904
            ]
        },
        {
            "positions": [
                2.222119209952306,
                -1.2597239322345855,
                -1.3677964466434305,
                -1.2601855507553688,
                -1.1898908649381936,
                0.20438075993467394
            ]
        },
        {
            "positions": [
                2.12662254365017,
                -1.2628007906622198,
                -1.2574320311483032,
                -1.202512460890841,
                -1.113679659324618,
                0.1568529704965289
            ]
        },
        {
            "positions": [
                2.0311258773480345,
                -1.265877649089854,
                -1.1470676156531758,
                -1.1448393710263136,
                -1.0374684537110428,
                0.10932518105838385
            ]
        },
        {
            "positions": [
                1.9356292110458986,
                -1.2689545075174884,
                -1.0367032001580485,
                -1.087166281161786,
                -0.9612572480974674,
                0.06179739162023884
            ]
        },
        {
            "positions": [
                1.8401325447437626,
                -1.2720313659451226,
                -0.9263387846629213,
                -1.0294931912972585,
                -0.885046042483892,
                0.014269602182093721
            ]
        },
        {
            "positions": [
                1.7446358784416272,
                -1.275108224372757,
                -0.8159743691677941,
                -0.9718201014327308,
                -0.8088348368703167,
                -0.033258187256051286
            ]
        },
        {
            "positions": [
                1.6491392121394912,
                -1.2781850828003911,
                -0.7056099536726668,
                -0.9141470115682032,
                -0.7326236312567412,
                -0.0807859766941963
            ]
        },
        {
            "positions": [
                1.5536425458373555,
                -1.2812619412280253,
                -0.5952455381775397,
                -0.8564739217036758,
                -0.6564124256431658,
                -0.12831376613234136
            ]
        },
        {
            "positions": [
                1.4581458795352198,
                -1.2843387996556597,
                -0.48488112268241235,
                -0.7988008318391481,
                -0.5802012200295904,
                -0.17584155557048642
            ]
        },
        {
            "positions": [
                1.362649213233084,
                -1.2874156580832938,
                -0.37451670718728525,
                -0.7411277419746206,
                -0.5039900144160152,
                -0.22336934500863148
            ]
        },
        {
            "positions": [
                1.2671525469309481,
                -1.2904925165109282,
                -0.2641522916921579,
                -0.6834546521100929,
                -0.4277788088024397,
                -0.27089713444677654
            ]
        },
        {
            "positions": [
                1.1716558806288127,
                -1.2935693749385624,
                -0.1537878761970306,
                -0.6257815622455655,
                -0.3515676031888644,
                -0.3184249238849215
            ]
        },
        {
            "positions": [
                1.076159214326677,
                -1.2966462333661968,
                -0.043423460701903505,
                -0.5681084723810379,
                -0.27535639757528907,
                -0.36595271332306656
            ]
        },
        {
            "positions": [
                0.9806625480245408,
                -1.299723091793831,
                0.06694095479322404,
                -0.5104353825165102,
                -0.19914519196171354,
                -0.41348050276121173
            ]
        },
        {
            "positions": [
                0.8851658817224053,
                -1.3027999502214653,
                0.17730537028835114,
                -0.45276229265198276,
                -0.12293398634813824,
                -0.4610082921993567
            ]
        },
        {
            "positions": [
                0.7896692154202696,
                -1.3058768086490995,
                0.28766978578347846,
                -0.3950892027874551,
                -0.04672278073456293,
                -0.5085360816375017
            ]
        },
        {
            "positions": [
                0.6941725491181336,
                -1.3089536670767337,
                0.39803420127860534,
                -0.3374161129229276,
                0.029488424879012376,
                -0.5560638710756467
            ]
        },
        {
            "positions": [
                0.5986758828159977,
                -1.312030525504368,
                0.5083986167737331,
                -0.27974302305839993,
                0.1056996304925879,
                -0.6035916605137918
            ]
        },
        {
            "positions": [
                0.5031792165138622,
                -1.3151073839320022,
                0.61876303226886,
                -0.22206993319387247,
                0.1819108361061632,
                -0.6511194499519369
            ]
        },
        {
            "positions": [
                0.4076825502117263,
                -1.3181842423596366,
                0.7291274477639873,
                -0.164396843329345,
                0.25812204171973874,
                -0.6986472393900819
            ]
        },
        {
            "positions": [
                0.3121858839095908,
                -1.3212611007872708,
                0.8394918632591146,
                -0.10672375346481733,
                0.33433324733331404,
                -0.7461750288282268
            ]
        },
        {
            "positions": [
                0.21668921760745485,
                -1.3243379592149052,
                0.949856278754242,
                -0.049050663600289646,
                0.41054445294688957,
                -0.793702818266372
            ]
        },
        {
            "positions": [
                0.12119255130531892,
                -1.3274148176425393,
                1.0602206942493693,
                0.008622426264237815,
                0.48675565856046465,
                -0.841230607704517
            ]
        },
        {
            "positions": [
                0.025695885003183427,
                -1.3304916760701737,
                1.1705851097444961,
                0.06629551612876527,
                0.56296686417404,
                -0.8887583971426621
            ]
        },
        {
            "positions": [
                -0.06980078129895206,
                -1.3335685344978079,
                1.2809495252396235,
                0.12396860599329296,
                0.6391780697876153,
                -0.9362861865808071
            ]
        },
        {
            "positions": [
                -0.16529744760108844,
                -1.3366453929254423,
                1.3913139407347508,
                0.18164169585782064,
                0.715389275401191,
                -0.9838139760189523
            ]
        },
        {
            "positions": [
                -0.2607941139032238,
                -1.3397222513530764,
                1.5016783562298783,
                0.23931478572234818,
                0.7916004810147665,
                -1.031341765457097
            ]
        },
        {
            "positions": [
                -0.23260539443965228,
                -1.3202872646585462,
                1.5401545031235337,
                0.16860035428887638,
                0.7413892597253792,
                -1.1947302898319854
            ]
        },
        {
            "positions": [
                -0.20441667497608076,
                -1.3008522779640157,
                1.5786306500171894,
                0.09788592285540454,
                0.6911780384359917,
                -1.3581188142068736
            ]
        },
        {
            "positions": [
                -0.17622795551250925,
                -1.2814172912694854,
                1.6171067969108448,
                0.027171491421932703,
                0.6409668171466043,
                -1.521507338581762
            ]
        },
        {
            "positions": [
                -0.1480392360489377,
                -1.261982304574955,
                1.6555829438045002,
                -0.043542940011539105,
                0.5907555958572169,
                -1.6848958629566502
            ]
        },
        {
            "positions": [
                -0.11985051658536616,
                -1.2425473178804247,
                1.6940590906981559,
                -0.11425737144501094,
                0.5405443745678296,
                -1.8482843873315384
            ]
        },
        {
            "positions": [
                -0.09166179712179465,
                -1.2231123311858945,
                1.7325352375918113,
                -0.18497180287848278,
                0.4903331532784421,
                -2.0116729117064267
            ]
        },
        {
            "positions": [
                -0.0634730776582231,
                -1.203677344491364,
                1.7710113844854667,
                -0.2556862343119546,
                0.4401219319890547,
                -2.175061436081315
            ]
        },
        {
            "positions": [
                -0.03528435819465156,
                -1.1842423577968337,
                1.8094875313791223,
                -0.32640066574542637,
                0.38991071069966726,
                -2.3384499604562032
            ]
        },
        {
            "positions": [
                -0.007095638731080045,
                -1.1648073711023033,
                1.8479636782727777,
                -0.39711509717889826,
                0.33969948941027983,
                -2.5018384848310915
            ]
        },
        {
            "positions": [
                0.021093080732491495,
                -1.145372384407773,
                1.8864398251664332,
                -0.46782952861237004,
                0.28948826812089246,
                -2.6652270092059798
            ]
        },
        {
            "positions": [
                0.05501900204326857,
                -1.1436610540128633,
                1.9146980782904388,
                -0.5679101185835391,
                0.23896355357922414,
                -2.8456803853600743
            ]
        },
        {
            "positions": [
                0.08894492335404564,
                -1.1419497236179539,
                1.9429563314144442,
                -0.6679907085547082,
                0.18843883903755582,
                -3.0261337615141684
            ]
        },
        {
            "positions": [
                0.12287084466482272,
                -1.1402383932230442,
                1.9712145845384499,
                -0.7680712985258773,
                0.13791412449588747,
                -3.206587137668263
            ]
        }
    ]
}