{
    "goal": {
        "global_pose": {
            "orientation": {
                "w": 0.7031023480610252,
                "x": -0.7110244013736278,
                "y": 0.0077485991402295624,
                "z": 0.005598929693374583
            },
            "position": {
                "x": -0.8841497679147869,
                "y": 0.44412534475326537,
                "z": 0.3711530566215515
            }
        },
        "name": "move_to_auspresseinheit_D"
    },
    "id": "RRTConnect_move_to_auspresseinheit_D_86",
    "joint_names": [
        "shoulder_pan_joint",
        "shoulder_lift_joint",
        "elbow_joint",
        "wrist_1_joint",
        "wrist_2_joint",
        "wrist_3_joint"
    ],
    "metrics": {
        "cart_traj_len": 0.3450107330043446,
        "distance_elbow_joint": 0.6681497443618631,
        "distance_shoulder_lift_joint": 0.13722345797744628,
        "distance_shoulder_pan_joint": 0.1333333194638557,
        "distance_wrist_1_joint": 0.6194645151156664,
        "distance_wrist_2_joint": 1.4474218049343193,
        "distance_wrist_3_joint": 0.079171708273571,
        "smoothness": 0.0,
        "time": 0.053646024,
        "traj_len": 1.7563497801197578,
        "weighted_distance": 2.3043424846849154
    },
    "planner": "RRTConnect",
    "start": {
        "state": {
            "elbow_joint": -1.8275523626775212,
            "shoulder_lift_joint": -2.126789852344167,
            "shoulder_pan_joint": -0.03513704404078235,
            "wrist_1_joint": -2.347782403156801,
            "wrist_2_joint": -1.6058999987535132,
            "wrist_3_joint": -3.0880379163319196
        }
    },
    "waypoints": [
        {
            "positions": [
                -0.03513704404078235,
                -2.126789852344167,
                -1.8275523626775212,
                -2.347782403156801,
                -1.6058999987535132,
                -3.0880379163319196
            ]
        },
        {
            "positions": [
                -0.05180370897376431,
                -2.1439427845913475,
                -1.7440336446322884,
                -2.425215467546259,
                -1.4249722731367234,
                -3.0781414527977233
            ]
        },
        {
            "positions": [
                -0.06847037390674628,
                -2.1610957168385285,
                -1.6605149265870554,
                -2.5026485319357175,
                -1.2440445475199333,
                -3.068244989263527
            ]
        },
        {
            "positions": [
                -0.08513703883972823,
                -2.178248649085709,
                -1.5769962085418225,
                -2.5800815963251758,
                -1.0631168219031435,
                -3.0583485257293304
            ]
        },
        {
            "positions": [
                -0.1018037037727102,
                -2.1954015813328898,
                -1.4934774904965895,
                -2.657514660714634,
                -0.8821890962863536,
                -3.048452062195134
            ]
        },
        {
            "positions": [
                -0.11847036870569216,
                -2.212554513580071,
                -1.4099587724513567,
                -2.7349477251040923,
                -0.7012613706695636,
                -3.038555598660938
            ]
        },
        {
            "positions": [
                -0.13513703363867413,
                -2.2297074458272514,
                -1.326440054406124,
                -2.8123807894935506,
                -0.5203336450527738,
                -3.028659135126741
            ]
        },
        {
            "positions": [
                -0.1518036985716561,
                -2.2468603780744325,
                -1.242921336360891,
                -2.889813853883009,
                -0.33940591943598375,
                -3.018762671592545
            ]
        },
        {
            "positions": [
                -0.16847036350463807,
                -2.264013310321613,
                -1.159402618315658,
                -2.9672469182724672,
                -0.158478193819194,
                -3.0088662080583486
            ]
        }
    ]
}