{
    "goal": {
        "global_pose": {
            "orientation": {
                "w": 0.7031023502349854,
                "x": -0.7110244035720825,
                "y": 0.007748599164187908,
                "z": 0.005598929710686207
            },
            "position": {
                "x": 0.11585023208521307,
                "y": 0.44412534475326537,
                "z": 0.3711530566215515
            }
        },
        "name": "move_to_auspresseinheit_A"
    },
    "id": "RRTConnect_move_to_auspresseinheit_A_47",
    "joint_names": [
        "shoulder_pan_joint",
        "shoulder_lift_joint",
        "elbow_joint",
        "wrist_1_joint",
        "wrist_2_joint",
        "wrist_3_joint"
    ],
    "metrics": {
        "cart_traj_len": 2.3511649958780048,
        "distance_elbow_joint": 1.2201642099828587,
        "distance_shoulder_lift_joint": 1.932178619254298,
        "distance_shoulder_pan_joint": 1.8893670559885871,
        "distance_wrist_1_joint": 0.5481551074149458,
        "distance_wrist_2_joint": 1.0147235411330606,
        "distance_wrist_3_joint": 1.449229999209817,
        "smoothness": 1.0539069669624899,
        "time": 0.116981482,
        "traj_len": 2.8379250400571836,
        "weighted_distance": 3.5376768054686973
    },
    "planner": "RRTConnect",
    "start": {
        "state": {
            "elbow_joint": 2.4225746658250005,
            "shoulder_lift_joint": -1.3736534386056498,
            "shoulder_pan_joint": -0.3378633547517467,
            "wrist_1_joint": -1.0288598680537169,
            "wrist_2_joint": 1.233022673432363,
            "wrist_3_joint": -3.0940220416140027
        }
    },
    "waypoints": [
        {
            "positions": [
                -0.3378633547517467,
                -1.3736534386056498,
                2.4225746658250005,
                -1.0288598680537169,
                1.233022673432363,
                -3.0940220416140027
            ]
        },
        {
            "positions": [
                -0.21554002661004582,
                -1.4765585088174102,
                2.370705216208196,
                -1.0135139383499705,
                1.2537419840178268,
                -3.0350401662201234
            ]
        },
        {
            "positions": [
                -0.0932166984683449,
                -1.579463579029171,
                2.3188357665913912,
                -0.998168008646224,
                1.2744612946032903,
                -2.976058290826244
            ]
        },
        {
            "positions": [
                0.029106629673356033,
                -1.6823686492409313,
                2.266966316974587,
                -0.9828220789424775,
                1.295180605188754,
                -2.917076415432365
            ]
        },
        {
            "positions": [
                0.15142995781505691,
                -1.7852737194526918,
                2.2150968673577824,
                -0.967476149238731,
                1.3158999157742177,
                -2.858094540038486
            ]
        },
        {
            "positions": [
                0.2737532859567579,
                -1.8881787896644524,
                2.163227417740978,
                -0.9521302195349847,
                1.3366192263596814,
                -2.7991126646446065
            ]
        },
        {
            "positions": [
                0.3960766140984588,
                -1.991083859876213,
                2.111357968124173,
                -0.9367842898312382,
                1.3573385369451452,
                -2.7401307892507276
            ]
        },
        {
            "positions": [
                0.5183999422401597,
                -2.0939889300879733,
                2.0594885185073686,
                -0.9214383601274917,
                1.3780578475306087,
                -2.6811489138568483
            ]
        },
        {
            "positions": [
                0.6407232703818606,
                -2.196894000299734,
                2.0076190688905644,
                -0.9060924304237453,
                1.3987771581160724,
                -2.622167038462969
            ]
        },
        {
            "positions": [
                0.7630465985235615,
                -2.2997990705114946,
                1.9557496192737598,
                -0.8907465007199988,
                1.4194964687015361,
                -2.5631851630690896
            ]
        },
        {
            "positions": [
                0.8853699266652626,
                -2.4027041407232552,
                1.9038801696569552,
                -0.8754005710162523,
                1.4402157792869996,
                -2.5042032876752103
            ]
        },
        {
            "positions": [
                1.0076932548069635,
                -2.5056092109350154,
                1.8520107200401505,
                -0.860054641312506,
                1.4609350898724633,
                -2.4452214122813314
            ]
        },
        {
            "positions": [
                1.1300165829486644,
                -2.608514281146776,
                1.8001412704233462,
                -0.8447087116087595,
                1.481654400457927,
                -2.386239536887452
            ]
        },
        {
            "positions": [
                1.0878678711198468,
                -2.538782503475459,
                1.8599143518814665,
                -0.8083083165117606,
                1.4050452190471774,
                -2.4603842863357785
            ]
        },
        {
            "positions": [
                1.045719159291029,
                -2.469050725804142,
                1.919687433339587,
                -0.7719079214147618,
                1.3284360376364277,
                -2.5345290357841055
            ]
        },
        {
            "positions": [
                1.0035704474622116,
                -2.3993189481328248,
                1.9794605147977076,
                -0.735507526317763,
                1.251826856225678,
                -2.608673785232432
            ]
        },
        {
            "positions": [
                0.961421735633394,
                -2.329587170461507,
                2.039233596255828,
                -0.6991071312207641,
                1.1752176748149283,
                -2.6828185346807585
            ]
        },
        {
            "positions": [
                0.9192730238045763,
                -2.25985539279019,
                2.099006677713948,
                -0.6627067361237653,
                1.0986084934041787,
                -2.7569632841290854
            ]
        },
        {
            "positions": [
                0.8771243119757588,
                -2.190123615118873,
                2.1587797591720688,
                -0.6263063410267664,
                1.021999311993429,
                -2.831108033577412
            ]
        },
        {
            "positions": [
                0.8349756001469413,
                -2.120391837447556,
                2.2185528406301893,
                -0.5899059459297675,
                0.9453901305826794,
                -2.9052527830257384
            ]
        },
        {
            "positions": [
                0.7928268883181235,
                -2.0506600597762388,
                2.2783259220883094,
                -0.5535055508327686,
                0.8687809491719296,
                -2.9793975324740654
            ]
        },
        {
            "positions": [
                0.750678176489306,
                -1.9809282821049214,
                2.33809900354643,
                -0.5171051557357699,
                0.79217176776118,
                -3.053542281922392
            ]
        },
        {
            "positions": [
                0.7085294646604884,
                -1.9111965044336043,
                2.3978720850045505,
                -0.48070476063877104,
                0.7155625863504304,
                -3.1276870313707184
            ]
        }
    ]
}