{
    "goal": {
        "global_pose": {
            "orientation": {
                "w": -0.4816463035849501,
                "x": 0.5182115481033762,
                "y": 0.4908360881923453,
                "z": -0.5084816262002911
            },
            "position": {
                "x": -0.8240239810943604,
                "y": 0.19912469901144506,
                "z": 0.16403168439865112
            }
        },
        "name": "move_to_storage_D"
    },
    "id": "RRTConnect_move_to_storage_D_117",
    "joint_names": [
        "shoulder_pan_joint",
        "shoulder_lift_joint",
        "elbow_joint",
        "wrist_1_joint",
        "wrist_2_joint",
        "wrist_3_joint"
    ],
    "metrics": {
        "cart_traj_len": 3.894885011097766,
        "distance_elbow_joint": 4.291297015425978,
        "distance_shoulder_lift_joint": 1.2642556557076232,
        "distance_shoulder_pan_joint": 2.8119754063388247,
        "distance_wrist_1_joint": 2.2726444702062834,
        "distance_wrist_2_joint": 1.1851279999041882,
        "distance_wrist_3_joint": 3.4012193275634792,
        "smoothness": 0.21697453760852703,
        "time": 0.11569359300000001,
        "traj_len": 3.902117357941247,
        "weighted_distance": 5.048438471486388
    },
    "planner": "RRTConnect",
    "start": {
        "state": {
            "elbow_joint": -2.384821988534728,
            "shoulder_lift_joint": -2.2788054721415256,
            "shoulder_pan_joint": -0.1854694642142757,
            "wrist_1_joint": 1.4845938289331202,
            "wrist_2_joint": 0.17898776772866878,
            "wrist_3_joint": 0.037105688729662994
        }
    },
    "waypoints": [
        {
            "positions": [
                -0.1854694642142757,
                -2.2788054721415256,
                -2.384821988534728,
                1.4845938289331202,
                0.17898776772866878,
                0.037105688729662994
            ]
        },
        {
            "positions": [
                -0.12170599028454435,
                -2.261303057744868,
                -2.398232353604802,
                1.4047732949838003,
                0.1264170239113006,
                0.08232371831382967
            ]
        },
        {
            "positions": [
                -0.057942516354812984,
                -2.2438006433482105,
                -2.4116427186748766,
                1.3249527610344805,
                0.07384628009393243,
                0.12754174789799638
            ]
        },
        {
            "positions": [
                0.005820957574918378,
                -2.2262982289515527,
                -2.4250530837449507,
                1.2451322270851606,
                0.021275536276564255,
                0.17275977748216306
            ]
        },
        {
            "positions": [
                0.07598260972632005,
                -2.19715327261097,
                -2.3083865706430604,
                1.1880286655904004,
                0.04877938020526944,
                0.08841773669292446
            ]
        },
        {
            "positions": [
                0.14614426187772173,
                -2.1680083162703867,
                -2.19172005754117,
                1.1309251040956403,
                0.07628322413397462,
                0.004075695903685866
            ]
        },
        {
            "positions": [
                0.2163059140291234,
                -2.138863359929804,
                -2.07505354443928,
                1.0738215426008801,
                0.1037870680626798,
                -0.08026634488555276
            ]
        },
        {
            "positions": [
                0.28646756618052505,
                -2.1097184035892207,
                -1.9583870313373901,
                1.01671798110612,
                0.13129091199138498,
                -0.16460838567479133
            ]
        },
        {
            "positions": [
                0.35662921833192673,
                -2.080573447248638,
                -1.8417205182354999,
                0.9596144196113598,
                0.15879475592009018,
                -0.24895042646402996
            ]
        },
        {
            "positions": [
                0.4267908704833284,
                -2.0514284909080547,
                -1.7250540051336096,
                0.9025108581165997,
                0.18629859984879535,
                -0.33329246725326855
            ]
        },
        {
            "positions": [
                0.4969525226347301,
                -2.022283534567472,
                -1.6083874920317194,
                0.8454072966218396,
                0.21380244377750054,
                -0.4176345080425071
            ]
        },
        {
            "positions": [
                0.5671141747861318,
                -1.993138578226889,
                -1.4917209789298294,
                0.7883037351270794,
                0.2413062877062057,
                -0.5019765488317457
            ]
        },
        {
            "positions": [
                0.6372758269375334,
                -1.9639936218863059,
                -1.3750544658279393,
                0.7312001736323194,
                0.26881013163491085,
                -0.5863185896209843
            ]
        },
        {
            "positions": [
                0.7074374790889351,
                -1.9348486655457229,
                -1.2583879527260489,
                0.6740966121375591,
                0.2963139755636161,
                -0.670660630410223
            ]
        },
        {
            "positions": [
                0.7775991312403367,
                -1.9057037092051399,
                -1.1417214396241588,
                0.6169930506427991,
                0.32381781949232125,
                -0.7550026711994614
            ]
        },
        {
            "positions": [
                0.8477607833917384,
                -1.8765587528645569,
                -1.0250549265222686,
                0.5598894891480389,
                0.35132166342102644,
                -0.8393447119887002
            ]
        },
        {
            "positions": [
                0.91792243554314,
                -1.8474137965239739,
                -0.9083884134203786,
                0.5027859276532788,
                0.37882550734973164,
                -0.9236867527779385
            ]
        },
        {
            "positions": [
                0.9880840876945418,
                -1.8182688401833909,
                -0.7917219003184883,
                0.44568236615851864,
                0.40632935127843683,
                -1.0080287935671775
            ]
        },
        {
            "positions": [
                1.0582457398459433,
                -1.7891238838428078,
                -0.6750553872165983,
                0.3885788046637585,
                0.433833195207142,
                -1.092370834356416
            ]
        },
        {
            "positions": [
                1.1284073919973452,
                -1.759978927502225,
                -0.5583888741147081,
                0.33147524316899835,
                0.46133703913584717,
                -1.1767128751456546
            ]
        },
        {
            "positions": [
                1.1985690441487467,
                -1.7308339711616418,
                -0.4417223610128178,
                0.2743716816742382,
                0.48884088306455237,
                -1.2610549159348932
            ]
        },
        {
            "positions": [
                1.2687306963001483,
                -1.701689014821059,
                -0.325055847910928,
                0.21726812017947816,
                0.5163447269932575,
                -1.3453969567241317
            ]
        },
        {
            "positions": [
                1.3388923484515503,
                -1.6725440584804758,
                -0.20838933480903732,
                0.1601645586847178,
                0.5438485709219627,
                -1.4297389975133705
            ]
        },
        {
            "positions": [
                1.4090540006029517,
                -1.643399102139893,
                -0.09172282170714707,
                0.10306099718995765,
                0.5713524148506679,
                -1.514081038302609
            ]
        },
        {
            "positions": [
                1.4792156527543534,
                -1.61425414579931,
                0.02494369139474273,
                0.045957435695197724,
                0.5988562587793731,
                -1.5984230790918474
            ]
        },
        {
            "positions": [
                1.549377304905755,
                -1.585109189458727,
                0.14161020449663297,
                -0.011146125799562423,
                0.6263601027080783,
                -1.682765119881086
            ]
        },
        {
            "positions": [
                1.6195389570571568,
                -1.555964233118144,
                0.2582767175985232,
                -0.06824968729432279,
                0.6538639466367835,
                -1.7671071606703248
            ]
        },
        {
            "positions": [
                1.6897006092085585,
                -1.526819276777561,
                0.37494323070041347,
                -0.12535324878908272,
                0.6813677905654887,
                -1.8514492014595636
            ]
        },
        {
            "positions": [
                1.7598622613599602,
                -1.4976743204369782,
                0.49160974380230327,
                -0.18245681028384286,
                0.7088716344941939,
                -1.9357912422488017
            ]
        },
        {
            "positions": [
                1.8300239135113616,
                -1.468529364096395,
                0.6082762569041935,
                -0.239560371778603,
                0.7363754784228991,
                -2.02013328303804
            ]
        },
        {
            "positions": [
                1.9001855656627635,
                -1.439384407755812,
                0.7249427700060842,
                -0.2966639332733634,
                0.7638793223516043,
                -2.104475323827279
            ]
        },
        {
            "positions": [
                1.9703472178141652,
                -1.410239451415229,
                0.841609283107974,
                -0.3537674947681233,
                0.7913831662803095,
                -2.1888173646165177
            ]
        },
        {
            "positions": [
                2.0405088699655667,
                -1.3810944950746462,
                0.9582757962098643,
                -0.41087105626288345,
                0.8188870102090144,
                -2.2731594054057562
            ]
        },
        {
            "positions": [
                2.110670522116968,
                -1.3519495387340632,
                1.074942309311754,
                -0.4679746177576436,
                0.8463908541377196,
                -2.357501446194995
            ]
        },
        {
            "positions": [
                2.18083217426837,
                -1.3228045823934802,
                1.1916088224136447,
                -0.525078179252404,
                0.8738946980664251,
                -2.4418434869842334
            ]
        },
        {
            "positions": [
                2.250993826419772,
                -1.2936596260528972,
                1.3082753355155345,
                -0.5821817407471639,
                0.90139854199513,
                -2.526185527773472
            ]
        },
        {
            "positions": [
                2.3211554785711734,
                -1.2645146697123142,
                1.4249418486174246,
                -0.639285302241924,
                0.9289023859238353,
                -2.6105275685627105
            ]
        },
        {
            "positions": [
                2.3822255712818485,
                -1.2145216990566319,
                1.5051560461881008,
                -0.6690383700481719,
                0.9528601696847978,
                -2.7069831471159316
            ]
        },
        {
            "positions": [
                2.4432956639925236,
                -1.1645287284009496,
                1.585370243758777,
                -0.6987914378544198,
                0.9768179534457602,
                -2.8034387256691526
            ]
        },
        {
            "positions": [
                2.5043657567031983,
                -1.114535757745267,
                1.6655844413294534,
                -0.7285445056606675,
                1.0007757372067225,
                -2.899894304222374
            ]
        },
        {
            "positions": [
                2.5654358494138734,
                -1.0645427870895847,
                1.7457986389001297,
                -0.7582975734669154,
                1.024733520967685,
                -2.996349882775595
            ]
        },
        {
            "positions": [
                2.6265059421245485,
                -1.0145498164339024,
                1.826012836470806,
                -0.7880506412731633,
                1.0486913047286475,
                -3.0928054613288163
            ]
        }
    ]
}