{
    "goal": {
        "global_pose": {
            "orientation": {
                "w": 0.7031023480610252,
                "x": -0.7110244013736278,
                "y": 0.0077485991402295624,
                "z": 0.005598929693374583
            },
            "position": {
                "x": -0.8841497679147869,
                "y": 0.44412534475326537,
                "z": 0.3711530566215515
            }
        },
        "name": "move_to_auspresseinheit_D"
    },
    "id": "RRTConnect_move_to_auspresseinheit_D_31",
    "joint_names": [
        "shoulder_pan_joint",
        "shoulder_lift_joint",
        "elbow_joint",
        "wrist_1_joint",
        "wrist_2_joint",
        "wrist_3_joint"
    ],
    "metrics": {
        "cart_traj_len": 0.34551970871573406,
        "distance_elbow_joint": 0.6715107710724129,
        "distance_shoulder_lift_joint": 0.139479604202577,
        "distance_shoulder_pan_joint": 0.13417416458903145,
        "distance_wrist_1_joint": 0.6275253256322486,
        "distance_wrist_2_joint": 1.4426484214958295,
        "distance_wrist_3_joint": 0.08597344518687366,
        "smoothness": 0.0,
        "time": 0.055882729,
        "traj_len": 1.7610541536758526,
        "weighted_distance": 2.3115865481700655
    },
    "planner": "RRTConnect",
    "start": {
        "state": {
            "elbow_joint": -1.8275523626775212,
            "shoulder_lift_joint": -2.126789852344167,
            "shoulder_pan_joint": -0.03513704404078235,
            "wrist_1_joint": -2.347782403156801,
            "wrist_2_joint": -1.6058999987535132,
            "wrist_3_joint": -3.0880379163319196
        }
    },
    "waypoints": [
        {
            "positions": [
                -0.03513704404078235,
                -2.126789852344167,
                -1.8275523626775212,
                -2.347782403156801,
                -1.6058999987535132,
                -3.0880379163319196
            ]
        },
        {
            "positions": [
                -0.05190881461441128,
                -2.144224802869489,
                -1.7436135162934696,
                -2.426223068860832,
                -1.4255689460665346,
                -3.0772912356835604
            ]
        },
        {
            "positions": [
                -0.06868058518804021,
                -2.161659753394811,
                -1.659674669909418,
                -2.504663734564863,
                -1.2452378933795558,
                -3.0665445550352013
            ]
        },
        {
            "positions": [
                -0.08545235576166915,
                -2.1790947039201334,
                -1.5757358235253665,
                -2.583104400268894,
                -1.064906840692577,
                -3.055797874386842
            ]
        },
        {
            "positions": [
                -0.10222412633529807,
                -2.196529654445455,
                -1.4917969771413149,
                -2.661545065972925,
                -0.8845757880055984,
                -3.045051193738483
            ]
        },
        {
            "positions": [
                -0.118995896908927,
                -2.2139646049707773,
                -1.4078581307572633,
                -2.7399857316769562,
                -0.7042447353186198,
                -3.0343045130901234
            ]
        },
        {
            "positions": [
                -0.13576766748255595,
                -2.2313995554960995,
                -1.3239192843732115,
                -2.8184263973809873,
                -0.5239136826316411,
                -3.0235578324417642
            ]
        },
        {
            "positions": [
                -0.15253943805618486,
                -2.2488345060214217,
                -1.23998043798916,
                -2.8968670630850184,
                -0.34358262994466227,
                -3.012811151793405
            ]
        },
        {
            "positions": [
                -0.1693112086298138,
                -2.266269456546744,
                -1.1560415916051083,
                -2.9753077287890495,
                -0.16325157725768358,
                -3.002064471145046
            ]
        }
    ]
}