{
    "goal": {
        "global_pose": {
            "orientation": {
                "w": -0.4816463035849501,
                "x": 0.5182115481033762,
                "y": 0.4908360881923453,
                "z": -0.5084816262002911
            },
            "position": {
                "x": -0.8240239810943604,
                "y": -0.300875300988555,
                "z": 0.16403168439865112
            }
        },
        "name": "move_to_storage_C"
    },
    "id": "RRTConnect_move_to_storage_C_81",
    "joint_names": [
        "shoulder_pan_joint",
        "shoulder_lift_joint",
        "elbow_joint",
        "wrist_1_joint",
        "wrist_2_joint",
        "wrist_3_joint"
    ],
    "metrics": {
        "cart_traj_len": 0.5767504046295923,
        "distance_elbow_joint": 0.25860087655994723,
        "distance_shoulder_lift_joint": 0.18905421769582664,
        "distance_shoulder_pan_joint": 0.4947876689552704,
        "distance_wrist_1_joint": 0.08003138722286063,
        "distance_wrist_2_joint": 1.0677090091229715,
        "distance_wrist_3_joint": 0.06444032224941587,
        "smoothness": 0.0,
        "time": 0.13078287,
        "traj_len": 1.4678635773825484,
        "weighted_distance": 1.8523618768078112
    },
    "planner": "RRTConnect",
    "start": {
        "state": {
            "elbow_joint": 2.010868314990456,
            "shoulder_lift_joint": -1.1634956873337592,
            "shoulder_pan_joint": -2.4736205022346125,
            "wrist_1_joint": -0.8367026794202681,
            "wrist_2_joint": 0.6746043897044499,
            "wrist_3_joint": -3.1496632123970403
        }
    },
    "waypoints": [
        {
            "positions": [
                -2.4736205022346125,
                -1.1634956873337592,
                2.010868314990456,
                -0.8367026794202681,
                0.6746043897044499,
                -3.1496632123970403
            ]
        },
        {
            "positions": [
                -2.5560851137271574,
                -1.1319866510511214,
                1.9677681688971314,
                -0.8233641148831247,
                0.8525558912249451,
                -3.1389231586888044
            ]
        },
        {
            "positions": [
                -2.6385497252197028,
                -1.1004776147684836,
                1.9246680228038067,
                -0.8100255503459812,
                1.0305073927454405,
                -3.128183104980568
            ]
        },
        {
            "positions": [
                -2.7210143367122477,
                -1.0689685784858458,
                1.8815678767104822,
                -0.7966869858088378,
                1.2084588942659358,
                -3.1174430512723323
            ]
        },
        {
            "positions": [
                -2.8034789482047926,
                -1.037459542203208,
                1.8384677306171577,
                -0.7833484212716944,
                1.3864103957864309,
                -3.1067029975640965
            ]
        },
        {
            "positions": [
                -2.885943559697338,
                -1.0059505059205702,
                1.795367584523833,
                -0.7700098567345509,
                1.5643618973069262,
                -3.0959629438558602
            ]
        },
        {
            "positions": [
                -2.968408171189883,
                -0.9744414696379325,
                1.7522674384305086,
                -0.7566712921974075,
                1.7423133988274215,
                -3.0852228901476244
            ]
        }
    ]
}