{
    "goal": {
        "global_pose": {
            "orientation": {
                "w": 0.7031023502349854,
                "x": -0.7110244035720825,
                "y": 0.007748599164187908,
                "z": 0.005598929710686207
            },
            "position": {
                "x": 0.11585023208521307,
                "y": 0.44412534475326537,
                "z": 0.3711530566215515
            }
        },
        "name": "move_to_auspresseinheit_A"
    },
    "id": "RRTConnect_move_to_auspresseinheit_A_42",
    "joint_names": [
        "shoulder_pan_joint",
        "shoulder_lift_joint",
        "elbow_joint",
        "wrist_1_joint",
        "wrist_2_joint",
        "wrist_3_joint"
    ],
    "metrics": {
        "cart_traj_len": 2.752180687264764,
        "distance_elbow_joint": 2.9322928804009596,
        "distance_shoulder_lift_joint": 0.590612254605501,
        "distance_shoulder_pan_joint": 2.642611797088331,
        "distance_wrist_1_joint": 0.8855323354112132,
        "distance_wrist_2_joint": 0.5310050659696661,
        "distance_wrist_3_joint": 0.8900702046087194,
        "smoothness": 1.0709703856217343,
        "time": 0.053348299,
        "traj_len": 2.910691419248078,
        "weighted_distance": 3.4159628728489877
    },
    "planner": "RRTConnect",
    "start": {
        "state": {
            "elbow_joint": 2.4225746658250005,
            "shoulder_lift_joint": -1.3736534386056498,
            "shoulder_pan_joint": -0.3378633547517467,
            "wrist_1_joint": -1.0288598680537169,
            "wrist_2_joint": 1.233022673432363,
            "wrist_3_joint": -3.0940220416140027
        }
    },
    "waypoints": [
        {
            "positions": [
                -0.3378633547517467,
                -1.3736534386056498,
                2.4225746658250005,
                -1.0288598680537169,
                1.233022673432363,
                -3.0940220416140027
            ]
        },
        {
            "positions": [
                -0.41056269293344316,
                -1.4247481623758893,
                2.2878287738313365,
                -0.9626777755513554,
                1.2190495853364578,
                -3.0553809232438844
            ]
        },
        {
            "positions": [
                -0.48326203111513966,
                -1.4758428861461288,
                2.153082881837672,
                -0.896495683048994,
                1.2050764972405525,
                -3.016739804873766
            ]
        },
        {
            "positions": [
                -0.555961369296836,
                -1.5269376099163683,
                2.0183369898440082,
                -0.8303135905466326,
                1.191103409144647,
                -2.9780986865036474
            ]
        },
        {
            "positions": [
                -0.6286607074785325,
                -1.578032333686608,
                1.8835910978503438,
                -0.764131498044271,
                1.1771303210487418,
                -2.939457568133529
            ]
        },
        {
            "positions": [
                -0.7013600456602289,
                -1.6291270574568475,
                1.74884520585668,
                -0.6979494055419097,
                1.1631572329528366,
                -2.900816449763411
            ]
        },
        {
            "positions": [
                -0.7740593838419254,
                -1.680221781227087,
                1.6140993138630157,
                -0.6317673130395483,
                1.1491841448569313,
                -2.8621753313932925
            ]
        },
        {
            "positions": [
                -0.8467587220236219,
                -1.7313165049973265,
                1.4793534218693516,
                -0.5655852205371867,
                1.135211056761026,
                -2.823534213023174
            ]
        },
        {
            "positions": [
                -0.9194580602053184,
                -1.782411228767566,
                1.3446075298756874,
                -0.49940312803482523,
                1.1212379686651208,
                -2.7848930946530555
            ]
        },
        {
            "positions": [
                -0.9921573983870149,
                -1.8335059525378057,
                1.209861637882023,
                -0.4332210355324638,
                1.1072648805692153,
                -2.746251976282937
            ]
        },
        {
            "positions": [
                -1.0648567365687112,
                -1.884600676308045,
                1.0751157458883591,
                -0.3670389430301024,
                1.09329179247331,
                -2.707610857912819
            ]
        },
        {
            "positions": [
                -1.1375560747504077,
                -1.9356954000782847,
                0.9403698538946951,
                -0.3008568505277409,
                1.0793187043774048,
                -2.6689697395427006
            ]
        },
        {
            "positions": [
                -0.9700179768331649,
                -1.9330981007025696,
                1.0721960419374819,
                -0.31517769760821707,
                1.045018604657886,
                -2.7112440943188294
            ]
        },
        {
            "positions": [
                -0.8024798789159222,
                -1.9305008013268545,
                1.2040222299802685,
                -0.3294985446886932,
                1.0107185049383671,
                -2.7535184490949582
            ]
        },
        {
            "positions": [
                -0.6349417809986795,
                -1.9279035019511392,
                1.3358484180230552,
                -0.3438193917691693,
                0.9764184052188482,
                -2.795792803871087
            ]
        },
        {
            "positions": [
                -0.46740368308143676,
                -1.9253062025754242,
                1.4676746060658419,
                -0.35814023884964546,
                0.9421183054993292,
                -2.838067158647216
            ]
        },
        {
            "positions": [
                -0.29986558516419404,
                -1.922708903199709,
                1.5995007941086286,
                -0.3724610859301216,
                0.9078182057798103,
                -2.8803415134233448
            ]
        },
        {
            "positions": [
                -0.13232748724695131,
                -1.920111603823994,
                1.7313269821514152,
                -0.38678193301059777,
                0.8735181060602915,
                -2.9226158681994736
            ]
        },
        {
            "positions": [
                0.03521061067029141,
                -1.917514304448279,
                1.863153170194202,
                -0.4011027800910739,
                0.8392180063407726,
                -2.9648902229756025
            ]
        },
        {
            "positions": [
                0.20274870858753413,
                -1.914917005072564,
                1.9949793582369888,
                -0.41542362717155,
                0.8049179066212536,
                -3.0071645777517313
            ]
        },
        {
            "positions": [
                0.37028680650477686,
                -1.9123197056968486,
                2.1268055462797752,
                -0.4297444742520262,
                0.7706178069017346,
                -3.04943893252786
            ]
        },
        {
            "positions": [
                0.5378249044220196,
                -1.9097224063211335,
                2.258631734322562,
                -0.4440653213325023,
                0.7363177071822158,
                -3.091713287303989
            ]
        },
        {
            "positions": [
                0.7053630023392622,
                -1.9071251069454185,
                2.3904579223653486,
                -0.45838616841297847,
                0.7020176074626969,
                -3.133987642080118
            ]
        }
    ]
}