{
    "goal": {
        "global_pose": {
            "orientation": {
                "w": 0.005598929693374612,
                "x": 0.007748599140229565,
                "y": 0.7110244013736278,
                "z": -0.7031023480610252
            },
            "position": {
                "x": -0.8858502320852131,
                "y": -0.7141253447532654,
                "z": 0.3711530566215515
            }
        },
        "name": "move_to_auspresseinheit_C"
    },
    "id": "RRTConnect_move_to_auspresseinheit_C_100",
    "joint_names": [
        "shoulder_pan_joint",
        "shoulder_lift_joint",
        "elbow_joint",
        "wrist_1_joint",
        "wrist_2_joint",
        "wrist_3_joint"
    ],
    "metrics": {
        "cart_traj_len": 0.493585946627902,
        "distance_elbow_joint": 0.9956942997462223,
        "distance_shoulder_lift_joint": 0.32325073673723126,
        "distance_shoulder_pan_joint": 0.2568206716200785,
        "distance_wrist_1_joint": 0.6618824875386563,
        "distance_wrist_2_joint": 1.3170817639735461,
        "distance_wrist_3_joint": 0.038812651258491204,
        "smoothness": 3.2297397080004555e-16,
        "time": 0.064292937,
        "traj_len": 1.8956641608877416,
        "weighted_distance": 2.3770006657347427
    },
    "planner": "RRTConnect",
    "start": {
        "state": {
            "elbow_joint": 1.7527959577737207,
            "shoulder_lift_joint": -0.9740617694225068,
            "shoulder_pan_joint": -2.967991417825858,
            "wrist_1_joint": -0.759517768980727,
            "wrist_2_joint": 1.7443932448377408,
            "wrist_3_joint": -3.0840537646736568
        }
    },
    "waypoints": [
        {
            "positions": [
                -2.967991417825858,
                -0.9740617694225068,
                1.7527959577737207,
                -0.759517768980727,
                1.7443932448377408,
                -3.0840537646736568
            ]
        },
        {
            "positions": [
                -2.9423093506638502,
                -0.9417366957487836,
                1.6532265277990985,
                -0.6933295202268613,
                1.6126850684403862,
                -3.087935029799506
            ]
        },
        {
            "positions": [
                -2.916627283501842,
                -0.9094116220750605,
                1.5536570978244761,
                -0.6271412714729957,
                1.4809768920430315,
                -3.091816294925355
            ]
        },
        {
            "positions": [
                -2.8909452163398344,
                -0.8770865484013374,
                1.454087667849854,
                -0.5609530227191301,
                1.349268715645677,
                -3.095697560051204
            ]
        },
        {
            "positions": [
                -2.8652631491778267,
                -0.8447614747276142,
                1.3545182378752316,
                -0.49476477396526447,
                1.2175605392483222,
                -3.099578825177053
            ]
        },
        {
            "positions": [
                -2.839581082015819,
                -0.8124364010538911,
                1.2549488079006095,
                -0.42857652521139883,
                1.0858523628509678,
                -3.103460090302902
            ]
        },
        {
            "positions": [
                -2.8138990148538108,
                -0.7801113273801681,
                1.1553793779259873,
                -0.3623882764575332,
                0.9541441864536132,
                -3.1073413554287517
            ]
        },
        {
            "positions": [
                -2.788216947691803,
                -0.7477862537064449,
                1.055809947951365,
                -0.2962000277036676,
                0.8224360100562585,
                -3.1112226205546007
            ]
        },
        {
            "positions": [
                -2.7625348805297953,
                -0.7154611800327217,
                0.9562405179767428,
                -0.23001177894980196,
                0.6907278336589038,
                -3.11510388568045
            ]
        },
        {
            "positions": [
                -2.736852813367787,
                -0.6831361063589987,
                0.8566710880021207,
                -0.16382353019593632,
                0.5590196572615493,
                -3.118985150806299
            ]
        },
        {
            "positions": [
                -2.7111707462057795,
                -0.6508110326852755,
                0.7571016580274984,
                -0.09763528144207063,
                0.4273114808641948,
                -3.122866415932148
            ]
        }
    ]
}