{
    "goal": {
        "global_pose": {
            "orientation": {
                "w": 0.5084816262002911,
                "x": -0.4908360881923452,
                "y": 0.5182115481033761,
                "z": -0.48164630358495003
            },
            "position": {
                "x": 0.5540239810943604,
                "y": -0.46912469901144505,
                "z": 0.16403168439865112
            }
        },
        "name": "move_to_storage_B"
    },
    "id": "RRTConnect_move_to_storage_B_18",
    "joint_names": [
        "shoulder_pan_joint",
        "shoulder_lift_joint",
        "elbow_joint",
        "wrist_1_joint",
        "wrist_2_joint",
        "wrist_3_joint"
    ],
    "metrics": {
        "cart_traj_len": 1.7723984744551595,
        "distance_elbow_joint": 1.1051229014371748,
        "distance_shoulder_lift_joint": 0.6979545810859851,
        "distance_shoulder_pan_joint": 1.2223921016376353,
        "distance_wrist_1_joint": 3.124054849818698,
        "distance_wrist_2_joint": 2.704322082695729,
        "distance_wrist_3_joint": 3.15354319912603,
        "smoothness": 0.19903416761046236,
        "time": 0.12692119200000002,
        "traj_len": 3.4651680645823304,
        "weighted_distance": 4.913537732282895
    },
    "planner": "RRTConnect",
    "start": {
        "state": {
            "elbow_joint": 1.664937868594044,
            "shoulder_lift_joint": -0.661644460510453,
            "shoulder_pan_joint": -0.9139846352900073,
            "wrist_1_joint": 2.146753192139373,
            "wrist_2_joint": -2.2341966793290973,
            "wrist_3_joint": 0.005466555786416001
        }
    },
    "waypoints": [
        {
            "positions": [
                -0.9139846352900073,
                -0.661644460510453,
                1.664937868594044,
                2.146753192139373,
                -2.2341966793290973,
                0.005466555786416001
            ]
        },
        {
            "positions": [
                -0.8272735709876049,
                -0.7579359768573609,
                1.6020533430409931,
                2.1578447298046437,
                -2.1600501155134877,
                0.04263704317208552
            ]
        },
        {
            "positions": [
                -0.7405625066852026,
                -0.8542274932042688,
                1.5391688174879425,
                2.1689362674699137,
                -2.085903551697878,
                0.07980753055775504
            ]
        },
        {
            "positions": [
                -0.6538514423828004,
                -0.9505190095511767,
                1.4762842919348917,
                2.1800278051351842,
                -2.0117569878822685,
                0.11697801794342456
            ]
        },
        {
            "positions": [
                -0.567140378080398,
                -1.0468105258980847,
                1.4133997663818412,
                2.1911193428004547,
                -1.9376104240666594,
                0.15414850532909408
            ]
        },
        {
            "positions": [
                -0.48042931377799564,
                -1.1431020422449927,
                1.3505152408287904,
                2.2022108804657248,
                -1.8634638602510498,
                0.1913189927147636
            ]
        },
        {
            "positions": [
                -0.3937182494755933,
                -1.2393935585919005,
                1.2876307152757396,
                2.2133024181309953,
                -1.7893172964354402,
                0.22848948010043313
            ]
        },
        {
            "positions": [
                -0.42180327810852214,
                -1.234585339271719,
                1.3167433452004944,
                2.0910021931779124,
                -1.6989395884433574,
                0.3457102910929136
            ]
        },
        {
            "positions": [
                -0.449888306741451,
                -1.2297771199515375,
                1.3458559751252492,
                1.9687019682248292,
                -1.6085618804512745,
                0.4629311020853941
            ]
        },
        {
            "positions": [
                -0.47797333537437986,
                -1.224968900631356,
                1.374968605050004,
                1.846401743271746,
                -1.5181841724591918,
                0.5801519130778746
            ]
        },
        {
            "positions": [
                -0.5060583640073087,
                -1.2201606813111745,
                1.404081234974759,
                1.7241015183186632,
                -1.427806464467109,
                0.6973727240703551
            ]
        },
        {
            "positions": [
                -0.5341433926402376,
                -1.215352461990993,
                1.4331938648995137,
                1.6018012933655799,
                -1.337428756475026,
                0.8145935350628357
            ]
        },
        {
            "positions": [
                -0.5622284212731664,
                -1.2105442426708115,
                1.4623064948242686,
                1.479501068412497,
                -1.2470510484829433,
                0.9318143460553161
            ]
        },
        {
            "positions": [
                -0.5903134499060952,
                -1.20573602335063,
                1.4914191247490234,
                1.3572008434594138,
                -1.1566733404908605,
                1.049035157047797
            ]
        },
        {
            "positions": [
                -0.6183984785390241,
                -1.2009278040304485,
                1.5205317546737782,
                1.234900618506331,
                -1.0662956324987776,
                1.1662559680402773
            ]
        },
        {
            "positions": [
                -0.646483507171953,
                -1.196119584710267,
                1.5496443845985328,
                1.1126003935532478,
                -0.9759179245066948,
                1.2834767790327577
            ]
        },
        {
            "positions": [
                -0.6745685358048819,
                -1.1913113653900855,
                1.5787570145232879,
                0.9903001686001647,
                -0.8855402165146118,
                1.4006975900252383
            ]
        },
        {
            "positions": [
                -0.7026535644378107,
                -1.186503146069904,
                1.6078696444480425,
                0.8679999436470818,
                -0.795162508522529,
                1.5179184010177187
            ]
        },
        {
            "positions": [
                -0.7307385930707395,
                -1.1816949267497225,
                1.6369822743727975,
                0.7456997186939989,
                -0.7047848005304462,
                1.635139212010199
            ]
        },
        {
            "positions": [
                -0.7588236217036683,
                -1.1768867074295408,
                1.6660949042975521,
                0.6233994937409155,
                -0.6144070925383633,
                1.75236002300268
            ]
        },
        {
            "positions": [
                -0.7869086503365972,
                -1.1720784881093593,
                1.6952075342223072,
                0.5010992687878324,
                -0.5240293845462805,
                1.8695808339951605
            ]
        },
        {
            "positions": [
                -0.814993678969526,
                -1.1672702687891778,
                1.7243201641470618,
                0.3787990438347497,
                -0.4336516765541978,
                1.9868016449876407
            ]
        },
        {
            "positions": [
                -0.8430787076024548,
                -1.1624620494689963,
                1.7534327940718168,
                0.2564988188816666,
                -0.3432739685621149,
                2.1040224559801213
            ]
        },
        {
            "positions": [
                -0.8711637362353838,
                -1.1576538301488148,
                1.7825454239965715,
                0.13419859392858324,
                -0.252896260570032,
                2.2212432669726017
            ]
        },
        {
            "positions": [
                -0.8992487648683126,
                -1.1528456108286333,
                1.8116580539213263,
                0.01189836897550034,
                -0.16251855257794934,
                2.3384640779650825
            ]
        },
        {
            "positions": [
                -0.9273337935012415,
                -1.1480373915084519,
                1.8407706838460811,
                -0.11040185597758256,
                -0.07214084458586623,
                2.4556848889575624
            ]
        },
        {
            "positions": [
                -0.9554188221341703,
                -1.1432291721882704,
                1.8698833137708362,
                -0.2327020809306659,
                0.018236863406216663,
                2.5729056999500433
            ]
        },
        {
            "positions": [
                -0.9835038507670991,
                -1.1384209528680889,
                1.8989959436955908,
                -0.3550023058837488,
                0.10861457139829933,
                2.690126510942524
            ]
        },
        {
            "positions": [
                -1.011588879400028,
                -1.1336127335479074,
                1.9281085736203456,
                -0.4773025308368317,
                0.19899227939038222,
                2.807347321935004
            ]
        },
        {
            "positions": [
                -1.039673908032957,
                -1.1288045142277259,
                1.9572212035451004,
                -0.5996027557899151,
                0.2893699873824649,
                2.924568132927485
            ]
        },
        {
            "positions": [
                -1.0677589366658857,
                -1.1239962949075444,
                1.9863338334698553,
                -0.7219029807429975,
                0.3797476953745478,
                3.041788943919965
            ]
        },
        {
            "positions": [
                -1.0958439652988146,
                -1.1191880755873629,
                2.01544646339461,
                -0.844203205696081,
                0.4701254033666308,
                3.1590097549124456
            ]
        }
    ]
}