{
    "goal": {
        "global_pose": {
            "orientation": {
                "w": 0.005598929693374612,
                "x": 0.007748599140229565,
                "y": 0.7110244013736278,
                "z": -0.7031023480610252
            },
            "position": {
                "x": 0.1141497679147869,
                "y": -0.7141253447532654,
                "z": 0.3711530566215515
            }
        },
        "name": "move_to_auspresseinheit_B"
    },
    "id": "RRTConnect_move_to_auspresseinheit_B_139",
    "joint_names": [
        "shoulder_pan_joint",
        "shoulder_lift_joint",
        "elbow_joint",
        "wrist_1_joint",
        "wrist_2_joint",
        "wrist_3_joint"
    ],
    "metrics": {
        "cart_traj_len": 0.5645667985488756,
        "distance_elbow_joint": 0.06570259112464383,
        "distance_shoulder_lift_joint": 0.2926655739714461,
        "distance_shoulder_pan_joint": 0.5782652713307745,
        "distance_wrist_1_joint": 0.33797732444457607,
        "distance_wrist_2_joint": 0.9867243287888559,
        "distance_wrist_3_joint": 0.008988944283474964,
        "smoothness": 0.0,
        "time": 0.079612088,
        "traj_len": 1.5067594479357915,
        "weighted_distance": 1.9007902503285716
    },
    "planner": "RRTConnect",
    "start": {
        "state": {
            "elbow_joint": 2.0193083361928714,
            "shoulder_lift_joint": -1.1220246554650708,
            "shoulder_pan_joint": -1.0952077554168747,
            "wrist_1_joint": -0.8559753972642168,
            "wrist_2_joint": 0.4759566250798843,
            "wrist_3_joint": -3.1240929996934557
        }
    },
    "waypoints": [
        {
            "positions": [
                -1.0952077554168747,
                -1.1220246554650708,
                2.0193083361928714,
                -0.8559753972642168,
                0.4759566250798843,
                -3.1240929996934557
            ]
        },
        {
            "positions": [
                -1.1915853006386703,
                -1.1708022511269784,
                2.008357904338764,
                -0.7996458431901208,
                0.6404106798780269,
                -3.1225948423128767
            ]
        },
        {
            "positions": [
                -1.2879628458604662,
                -1.219579846788886,
                1.9974074724846569,
                -0.7433162891160248,
                0.8048647346761695,
                -3.121096684932297
            ]
        },
        {
            "positions": [
                -1.384340391082262,
                -1.2683574424507937,
                1.9864570406305495,
                -0.6869867350419288,
                0.9693187894743123,
                -3.119598527551718
            ]
        },
        {
            "positions": [
                -1.4807179363040577,
                -1.3171350381127016,
                1.9755066087764421,
                -0.6306571809678327,
                1.1337728442724548,
                -3.118100370171139
            ]
        },
        {
            "positions": [
                -1.5770954815258533,
                -1.3659126337746093,
                1.964556176922335,
                -0.5743276268937367,
                1.2982268990705976,
                -3.1166022127905597
            ]
        },
        {
            "positions": [
                -1.6734730267476492,
                -1.414690229436517,
                1.9536057450682276,
                -0.5179980728196407,
                1.4626809538687402,
                -3.1151040554099807
            ]
        }
    ]
}