{
    "goal": {
        "global_pose": {
            "orientation": {
                "w": -0.4816463035849501,
                "x": 0.5182115481033762,
                "y": 0.4908360881923453,
                "z": -0.5084816262002911
            },
            "position": {
                "x": -0.8240239810943604,
                "y": -0.300875300988555,
                "z": 0.16403168439865112
            }
        },
        "name": "move_to_storage_C"
    },
    "id": "RRTConnect_move_to_storage_C_66",
    "joint_names": [
        "shoulder_pan_joint",
        "shoulder_lift_joint",
        "elbow_joint",
        "wrist_1_joint",
        "wrist_2_joint",
        "wrist_3_joint"
    ],
    "metrics": {
        "cart_traj_len": 0.5757965382561682,
        "distance_elbow_joint": 0.2587859811444331,
        "distance_shoulder_lift_joint": 0.1885704526605575,
        "distance_shoulder_pan_joint": 0.49414756306300367,
        "distance_wrist_1_joint": 0.0872992381407417,
        "distance_wrist_2_joint": 1.0687013123657407,
        "distance_wrist_3_joint": 0.0768508325832351,
        "smoothness": 0.0,
        "time": 0.056128830000000005,
        "traj_len": 1.4745695575176208,
        "weighted_distance": 1.866563043572508
    },
    "planner": "RRTConnect",
    "start": {
        "state": {
            "elbow_joint": 2.010868314990456,
            "shoulder_lift_joint": -1.1634956873337592,
            "shoulder_pan_joint": -2.4736205022346125,
            "wrist_1_joint": -0.8367026794202681,
            "wrist_2_joint": 0.6746043897044499,
            "wrist_3_joint": -3.1496632123970403
        }
    },
    "waypoints": [
        {
            "positions": [
                -2.4736205022346125,
                -1.1634956873337592,
                2.010868314990456,
                -0.8367026794202681,
                0.6746043897044499,
                -3.1496632123970403
            ]
        },
        {
            "positions": [
                -2.5559784294117796,
                -1.1320672785569996,
                1.9677373181330502,
                -0.8221528063968111,
                0.8527212750987401,
                -3.1368547402998344
            ]
        },
        {
            "positions": [
                -2.638336356588947,
                -1.10063886978024,
                1.9246063212756448,
                -0.8076029333733542,
                1.0308381604930301,
                -3.1240462682026284
            ]
        },
        {
            "positions": [
                -2.7206942837661146,
                -1.0692104610034805,
                1.8814753244182394,
                -0.7930530603498973,
                1.2089550458873202,
                -3.1112377961054225
            ]
        },
        {
            "positions": [
                -2.8030522109432816,
                -1.037782052226721,
                1.8383443275608338,
                -0.7785031873264403,
                1.3870719312816102,
                -3.098429324008217
            ]
        },
        {
            "positions": [
                -2.8854101381204487,
                -1.0063536434499611,
                1.7952133307034281,
                -0.7639533143029833,
                1.5651888166759007,
                -3.085620851911011
            ]
        },
        {
            "positions": [
                -2.967768065297616,
                -0.9749252346732017,
                1.7520823338460227,
                -0.7494034412795264,
                1.7433057020701908,
                -3.072812379813805
            ]
        }
    ]
}