{
    "goal": {
        "global_pose": {
            "orientation": {
                "w": 0.7047431493862688,
                "x": -0.7094548369677653,
                "y": 0.0024358444001904,
                "z": -0.0022348060817251984
            },
            "position": {
                "x": -0.39052492380142206,
                "y": 0.3671506643295288,
                "z": 0.19426114857196808
            }
        },
        "name": "move_to_magneteinheit_D"
    },
    "id": "RRTConnect_move_to_magneteinheit_D_21",
    "joint_names": [
        "shoulder_pan_joint",
        "shoulder_lift_joint",
        "elbow_joint",
        "wrist_1_joint",
        "wrist_2_joint",
        "wrist_3_joint"
    ],
    "metrics": {
        "cart_traj_len": 4.265652815142535,
        "distance_elbow_joint": 3.133757637266792,
        "distance_shoulder_lift_joint": 1.693521285684015,
        "distance_shoulder_pan_joint": 3.0865109125447545,
        "distance_wrist_1_joint": 1.5529688581649532,
        "distance_wrist_2_joint": 0.4958221508389281,
        "distance_wrist_3_joint": 3.1827600986247893,
        "smoothness": 0.13655568040173147,
        "time": 0.152730475,
        "traj_len": 3.6256504165631074,
        "weighted_distance": 4.6432372488790294
    },
    "planner": "RRTConnect",
    "start": {
        "state": {
            "elbow_joint": 0.749534889911806,
            "shoulder_lift_joint": -0.6476975780787326,
            "shoulder_pan_joint": -2.711696901376241,
            "wrist_1_joint": -0.07506478083263063,
            "wrist_2_joint": 0.43296659715538205,
            "wrist_3_joint": -3.14703540197715
        }
    },
    "waypoints": [
        {
            "positions": [
                -2.711696901376241,
                -0.6476975780787326,
                0.749534889911806,
                -0.07506478083263063,
                0.43296659715538205,
                -3.14703540197715
            ]
        },
        {
            "positions": [
                -2.725749673400331,
                -0.6400415193642529,
                0.6430991258917238,
                -0.008779973765855459,
                0.3739953609316821,
                -3.083548657028807
            ]
        },
        {
            "positions": [
                -2.739802445424421,
                -0.6323854606497732,
                0.5366633618716417,
                0.05750483330091971,
                0.3150241247079822,
                -3.0200619120804633
            ]
        },
        {
            "positions": [
                -2.753855217448511,
                -0.6247294019352935,
                0.4302275978515594,
                0.12378964036769488,
                0.25605288848428226,
                -2.9565751671321197
            ]
        },
        {
            "positions": [
                -2.767907989472601,
                -0.6170733432208138,
                0.32379183383147725,
                0.19007444743447008,
                0.19708165226058233,
                -2.8930884221837765
            ]
        },
        {
            "positions": [
                -2.6489550797665915,
                -0.6702148542669365,
                0.24679328840040027,
                0.22461415962410183,
                0.19056130075534317,
                -2.792551826105142
            ]
        },
        {
            "positions": [
                -2.5300021700605817,
                -0.7233563653130591,
                0.16979474296932331,
                0.2591538718137336,
                0.184040949250104,
                -2.6920152300265077
            ]
        },
        {
            "positions": [
                -2.4110492603545723,
                -0.7764978763591819,
                0.09279619753824636,
                0.29369358400336537,
                0.17752059774486484,
                -2.5914786339478733
            ]
        },
        {
            "positions": [
                -2.292096350648563,
                -0.8296393874053045,
                0.01579765210716938,
                0.3282332961929971,
                0.17100024623962568,
                -2.490942037869239
            ]
        },
        {
            "positions": [
                -2.1731434409425536,
                -0.8827808984514273,
                -0.0612008933239076,
                0.3627730083826289,
                0.1644798947343865,
                -2.3904054417906044
            ]
        },
        {
            "positions": [
                -2.054190531236544,
                -0.93592240949755,
                -0.13819943875498453,
                0.39731272057226064,
                0.15795954322914738,
                -2.2898688457119705
            ]
        },
        {
            "positions": [
                -1.9352376215305345,
                -0.9890639205436726,
                -0.2151979841860615,
                0.4318524327618924,
                0.1514391917239082,
                -2.189332249633336
            ]
        },
        {
            "positions": [
                -1.8162847118245251,
                -1.0422054315897955,
                -0.2921965296171385,
                0.46639214495152415,
                0.14491884021866905,
                -2.0887956535547016
            ]
        },
        {
            "positions": [
                -1.6973318021185155,
                -1.0953469426359181,
                -0.3691950750482156,
                0.500931857141156,
                0.13839848871342988,
                -1.9882590574760672
            ]
        },
        {
            "positions": [
                -1.5783788924125062,
                -1.1484884536820408,
                -0.44619362047929245,
                0.5354715693307877,
                0.13187813720819072,
                -1.8877224613974328
            ]
        },
        {
            "positions": [
                -1.4594259827064966,
                -1.2016299647281636,
                -0.5231921659103694,
                0.5700112815204195,
                0.12535778570295156,
                -1.7871858653187984
            ]
        },
        {
            "positions": [
                -1.3404730730004872,
                -1.254771475774286,
                -0.6001907113414463,
                0.6045509937100512,
                0.11883743419771241,
                -1.6866492692401642
            ]
        },
        {
            "positions": [
                -1.2215201632944777,
                -1.307912986820409,
                -0.6771892567725234,
                0.639090705899683,
                0.11231708269247323,
                -1.5861126731615296
            ]
        },
        {
            "positions": [
                -1.102567253588468,
                -1.3610544978665318,
                -0.7541878022036003,
                0.6736304180893147,
                0.10579673118723408,
                -1.4855760770828954
            ]
        },
        {
            "positions": [
                -0.9836143438824587,
                -1.4141960089126542,
                -0.8311863476346771,
                0.7081701302789465,
                0.09927637968199492,
                -1.385039481004261
            ]
        },
        {
            "positions": [
                -0.8646614341764491,
                -1.467337519958777,
                -0.9081848930657542,
                0.7427098424685783,
                0.09275602817675575,
                -1.2845028849256266
            ]
        },
        {
            "positions": [
                -0.7457085244704396,
                -1.5204790310049,
                -0.9851834384968313,
                0.77724955465821,
                0.08623567667151659,
                -1.1839662888469922
            ]
        },
        {
            "positions": [
                -0.6267556147644302,
                -1.5736205420510225,
                -1.0621819839279083,
                0.8117892668478418,
                0.07971532516627743,
                -1.0834296927683578
            ]
        },
        {
            "positions": [
                -0.5078027050584208,
                -1.6267620530971452,
                -1.1391805293589852,
                0.8463289790374735,
                0.07319497366103826,
                -0.9828930966897234
            ]
        },
        {
            "positions": [
                -0.3888497953524115,
                -1.6799035641432678,
                -1.216179074790062,
                0.8808686912271053,
                0.06667462215579911,
                -0.8823565006110892
            ]
        },
        {
            "positions": [
                -0.2698968856464017,
                -1.7330450751893907,
                -1.2931776202211394,
                0.9154084034167371,
                0.06015427065055995,
                -0.7818199045324548
            ]
        },
        {
            "positions": [
                -0.15094397594039222,
                -1.7861865862355133,
                -1.3701761656522162,
                0.9499481156063688,
                0.05363391914532077,
                -0.6812833084538205
            ]
        },
        {
            "positions": [
                -0.12382610398480443,
                -1.8468955073675433,
                -1.4796426707807186,
                1.008900929510107,
                0.06719898176217007,
                -0.5946657683729069
            ]
        },
        {
            "positions": [
                -0.09670823202921665,
                -1.9076044284995732,
                -1.589109175909221,
                1.067853743413845,
                0.08076404437901938,
                -0.5080482282919931
            ]
        },
        {
            "positions": [
                -0.06959036007362886,
                -1.968313349631603,
                -1.6985756810377237,
                1.1268065573175832,
                0.09432910699586869,
                -0.42143068821107954
            ]
        },
        {
            "positions": [
                -0.04247248811804108,
                -2.029022270763633,
                -1.8080421861662261,
                1.1857593712213212,
                0.10789416961271799,
                -0.3348131481301659
            ]
        },
        {
            "positions": [
                -0.015354616162453288,
                -2.089731191895663,
                -1.9175086912947288,
                1.2447121851250595,
                0.1214592322295673,
                -0.24819560804925223
            ]
        },
        {
            "positions": [
                0.011763255793134503,
                -2.1504401130276927,
                -2.026975196423231,
                1.3036649990287976,
                0.1350242948464166,
                -0.16157806796833862
            ]
        },
        {
            "positions": [
                0.038881127748722294,
                -2.211149034159723,
                -2.1364417015517336,
                1.3626178129325357,
                0.1485893574632659,
                -0.07496052788742497
            ]
        },
        {
            "positions": [
                -0.07287422586481361,
                -2.245559714103316,
                -2.26033222445336,
                1.420260945132429,
                0.15935637471872674,
                -0.019617915619893254
            ]
        },
        {
            "positions": [
                -0.18462957947834951,
                -2.27997039404691,
                -2.3842227473549857,
                1.4779040773323227,
                0.17012339197418758,
                0.03572469664763846
            ]
        }
    ]
}