{
    "goal": {
        "global_pose": {
            "orientation": {
                "w": 0.7031023480610252,
                "x": -0.7110244013736278,
                "y": 0.0077485991402295624,
                "z": 0.005598929693374583
            },
            "position": {
                "x": -0.8841497679147869,
                "y": 0.44412534475326537,
                "z": 0.3711530566215515
            }
        },
        "name": "move_to_auspresseinheit_D"
    },
    "id": "RRTConnect_move_to_auspresseinheit_D_77",
    "joint_names": [
        "shoulder_pan_joint",
        "shoulder_lift_joint",
        "elbow_joint",
        "wrist_1_joint",
        "wrist_2_joint",
        "wrist_3_joint"
    ],
    "metrics": {
        "cart_traj_len": 0.3449268873046588,
        "distance_elbow_joint": 0.6656062181185163,
        "distance_shoulder_lift_joint": 0.13634602685777653,
        "distance_shoulder_pan_joint": 0.1340173438088961,
        "distance_wrist_1_joint": 0.6121505716870241,
        "distance_wrist_2_joint": 1.4468209487713692,
        "distance_wrist_3_joint": 0.07110093753800273,
        "smoothness": 1.9737298371844314e-16,
        "time": 0.048841553999999995,
        "traj_len": 1.7510117209149643,
        "weighted_distance": 2.295041490325607
    },
    "planner": "RRTConnect",
    "start": {
        "state": {
            "elbow_joint": -1.8275523626775212,
            "shoulder_lift_joint": -2.126789852344167,
            "shoulder_pan_joint": -0.03513704404078235,
            "wrist_1_joint": -2.347782403156801,
            "wrist_2_joint": -1.6058999987535132,
            "wrist_3_joint": -3.0880379163319196
        }
    },
    "waypoints": [
        {
            "positions": [
                -0.03513704404078235,
                -2.126789852344167,
                -1.8275523626775212,
                -2.347782403156801,
                -1.6058999987535132,
                -3.0880379163319196
            ]
        },
        {
            "positions": [
                -0.051889212016894365,
                -2.143833105701389,
                -1.7443515854127067,
                -2.424301224617679,
                -1.425047380157092,
                -3.0791502991396693
            ]
        },
        {
            "positions": [
                -0.06864137999300637,
                -2.160876359058611,
                -1.661150808147892,
                -2.500820046078557,
                -1.2441947615606708,
                -3.070262681947419
            ]
        },
        {
            "positions": [
                -0.08539354796911838,
                -2.177919612415833,
                -1.5779500308830776,
                -2.577338867539435,
                -1.0633421429642498,
                -3.0613750647551687
            ]
        },
        {
            "positions": [
                -0.10214571594523039,
                -2.1949628657730553,
                -1.494749253618263,
                -2.653857689000313,
                -0.8824895243678286,
                -3.0524874475629185
            ]
        },
        {
            "positions": [
                -0.1188978839213424,
                -2.2120061191302773,
                -1.4115484763534485,
                -2.730376510461191,
                -0.7016369057714074,
                -3.0435998303706677
            ]
        },
        {
            "positions": [
                -0.13565005189745444,
                -2.2290493724874993,
                -1.328347699088634,
                -2.806895331922069,
                -0.5207842871749864,
                -3.0347122131784174
            ]
        },
        {
            "positions": [
                -0.15240221987356645,
                -2.2460926258447214,
                -1.2451469218238196,
                -2.883414153382947,
                -0.33993166857856516,
                -3.025824595986167
            ]
        },
        {
            "positions": [
                -0.16915438784967846,
                -2.2631358792019434,
                -1.161946144559005,
                -2.959932974843825,
                -0.15907904998214403,
                -3.016936978793917
            ]
        }
    ]
}