{
    "goal": {
        "global_pose": {
            "orientation": {
                "w": -0.00223480608172531,
                "x": 0.0024358444001904467,
                "y": 0.7094548369677653,
                "z": -0.704743149386269
            },
            "position": {
                "x": 0.6205249238014221,
                "y": -0.6371506643295288,
                "z": 0.19426114857196808
            }
        },
        "name": "move_to_magneteinheit_B"
    },
    "id": "RRTConnect_move_to_magneteinheit_B_14",
    "joint_names": [
        "shoulder_pan_joint",
        "shoulder_lift_joint",
        "elbow_joint",
        "wrist_1_joint",
        "wrist_2_joint",
        "wrist_3_joint"
    ],
    "metrics": {
        "cart_traj_len": 3.935875372037533,
        "distance_elbow_joint": 4.273228851842951,
        "distance_shoulder_lift_joint": 0.7962868834460037,
        "distance_shoulder_pan_joint": 3.6622432037028783,
        "distance_wrist_1_joint": 4.400949991428557,
        "distance_wrist_2_joint": 2.757949546240621,
        "distance_wrist_3_joint": 4.40237678151105,
        "smoothness": 0.24474780909004543,
        "time": 0.297095997,
        "traj_len": 4.504779157536145,
        "weighted_distance": 6.0213527017492785
    },
    "planner": "RRTConnect",
    "start": {
        "state": {
            "elbow_joint": 2.6216224122426386,
            "shoulder_lift_joint": -1.4174107377796124,
            "shoulder_pan_joint": 0.7066234856936794,
            "wrist_1_joint": 1.9546482284002225,
            "wrist_2_joint": -0.7096286983471962,
            "wrist_3_joint": 0.005740856962016249
        }
    },
    "waypoints": [
        {
            "positions": [
                0.7066234856936794,
                -1.4174107377796124,
                2.6216224122426386,
                1.9546482284002225,
                -0.7096286983471962,
                0.005740856962016249
            ]
        },
        {
            "positions": [
                0.6419398843357652,
                -1.4647022163609988,
                2.5917160865188356,
                1.84280563386573,
                -0.6340510433723892,
                -0.05774640191593494
            ]
        },
        {
            "positions": [
                0.577256282977851,
                -1.5119936949423851,
                2.561809760795032,
                1.7309630393312374,
                -0.5584733883975822,
                -0.12123366079388613
            ]
        },
        {
            "positions": [
                0.5125726816199369,
                -1.5592851735237716,
                2.531903435071229,
                1.619120444796745,
                -0.4828957334227752,
                -0.18472091967183726
            ]
        },
        {
            "positions": [
                0.4478890802620227,
                -1.606576652105158,
                2.501997109347426,
                1.5072778502622526,
                -0.4073180784479682,
                -0.2482081785497885
            ]
        },
        {
            "positions": [
                0.3832054789041085,
                -1.6538681306865444,
                2.4720907836236226,
                1.39543525572776,
                -0.3317404234731612,
                -0.31169543742773964
            ]
        },
        {
            "positions": [
                0.3185218775461943,
                -1.7011596092679309,
                2.4421844578998195,
                1.2835926611932678,
                -0.2561627684983542,
                -0.3751826963056908
            ]
        },
        {
            "positions": [
                0.2538382761882802,
                -1.7484510878493174,
                2.4122781321760165,
                1.1717500666587752,
                -0.18058511352354722,
                -0.438669955183642
            ]
        },
        {
            "positions": [
                0.18915467483036597,
                -1.7957425664307038,
                2.3823718064522135,
                1.0599074721242827,
                -0.10500745854874016,
                -0.5021572140615933
            ]
        },
        {
            "positions": [
                0.12447107347245179,
                -1.8430340450120901,
                2.35246548072841,
                0.9480648775897902,
                -0.0294298035739331,
                -0.5656444729395445
            ]
        },
        {
            "positions": [
                0.05978747211453756,
                -1.8903255235934766,
                2.322559155004607,
                0.8362222830552978,
                0.04614785140087381,
                -0.6291317318174956
            ]
        },
        {
            "positions": [
                0.16737582145783894,
                -1.8982389016215166,
                2.1991144756290333,
                0.7588151997211972,
                0.08337043379427443,
                -0.5975156427745132
            ]
        },
        {
            "positions": [
                0.27496417080114033,
                -1.9061522796495567,
                2.07566979625346,
                0.6814081163870966,
                0.12059301618767505,
                -0.5658995537315309
            ]
        },
        {
            "positions": [
                0.38255252014444163,
                -1.9140656576775967,
                1.9522251168778864,
                0.604001033052996,
                0.1578155985810757,
                -0.5342834646885486
            ]
        },
        {
            "positions": [
                0.49014086948774305,
                -1.9219790357056366,
                1.8287804375023127,
                0.5265939497188954,
                0.19503818097447628,
                -0.5026673756455662
            ]
        },
        {
            "positions": [
                0.5977292188310445,
                -1.9298924137336766,
                1.705335758126739,
                0.4491868663847948,
                0.23226076336787693,
                -0.47105128660258383
            ]
        },
        {
            "positions": [
                0.7053175681743458,
                -1.9378057917617166,
                1.5818910787511655,
                0.37177978305069426,
                0.2694833457612775,
                -0.4394351975596015
            ]
        },
        {
            "positions": [
                0.8129059175176472,
                -1.9457191697897567,
                1.458446399375592,
                0.29437269971659363,
                0.3067059281546781,
                -0.4078191085166192
            ]
        },
        {
            "positions": [
                0.9204942668609486,
                -1.9536325478177967,
                1.3350017200000184,
                0.216965616382493,
                0.34392851054807877,
                -0.37620301947363677
            ]
        },
        {
            "positions": [
                1.02808261620425,
                -1.9615459258458368,
                1.2115570406244447,
                0.1395585330483925,
                0.3811510929414794,
                -0.3445869304306544
            ]
        },
        {
            "positions": [
                1.1356709655475512,
                -1.9694593038738768,
                1.0881123612488712,
                0.06215144971429187,
                0.41837367533488,
                -0.31297084138767206
            ]
        },
        {
            "positions": [
                1.2432593148908526,
                -1.9773726819019166,
                0.9646676818732975,
                -0.01525563361980875,
                0.45559625772828066,
                -0.28135475234468965
            ]
        },
        {
            "positions": [
                1.3508476642341538,
                -1.9852860599299567,
                0.8412230024977241,
                -0.09266271695390926,
                0.49281884012168126,
                -0.24973866330170735
            ]
        },
        {
            "positions": [
                1.4584360135774554,
                -1.9931994379579967,
                0.7177783231221504,
                -0.17006980028801,
                0.5300414225150819,
                -0.218122574258725
            ]
        },
        {
            "positions": [
                1.5660243629207566,
                -2.0011128159860365,
                0.5943336437465769,
                -0.2474768836221105,
                0.5672640049084825,
                -0.1865064852157427
            ]
        },
        {
            "positions": [
                1.673612712264058,
                -2.009026194014077,
                0.47088896437100347,
                -0.324883966956211,
                0.6044865873018832,
                -0.1548903961727603
            ]
        },
        {
            "positions": [
                1.7812010616073595,
                -2.0169395720421166,
                0.3474442849954298,
                -0.40229105029031176,
                0.6417091696952838,
                -0.12327430712977794
            ]
        },
        {
            "positions": [
                1.8887894109506607,
                -2.024852950070157,
                0.2239996056198561,
                -0.47969813362441227,
                0.6789317520886844,
                -0.09165821808679564
            ]
        },
        {
            "positions": [
                1.9963777602939623,
                -2.0327663280981967,
                0.10055492624428242,
                -0.5571052169585128,
                0.7161543344820851,
                -0.06004212904381323
            ]
        },
        {
            "positions": [
                2.1039661096372635,
                -2.040679706126237,
                -0.022889753131290824,
                -0.6345123002926133,
                0.7533769168754856,
                -0.028426040000830932
            ]
        },
        {
            "positions": [
                2.211554458980565,
                -2.0485930841542768,
                -0.14633443250686462,
                -0.711919383626714,
                0.7905994992688863,
                0.0031900490421515014
            ]
        },
        {
            "positions": [
                2.309431284593008,
                -2.04592366893668,
                -0.2804095076596127,
                -0.8103887076862912,
                0.7568868109100242,
                0.001856040955072849
            ]
        },
        {
            "positions": [
                2.4073081102054505,
                -2.043254253719083,
                -0.41448458281236084,
                -0.9088580317458685,
                0.7231741225511621,
                0.0005220328679941964
            ]
        },
        {
            "positions": [
                2.505184935817893,
                -2.040584838501487,
                -0.5485596579651089,
                -1.0073273558054456,
                0.6894614341922999,
                -0.0008119752190844558
            ]
        },
        {
            "positions": [
                2.6030617614303355,
                -2.03791542328389,
                -0.682634733117857,
                -1.1057966798650232,
                0.6557487458334378,
                -0.0021459833061631085
            ]
        },
        {
            "positions": [
                2.7009385870427782,
                -2.0352460080662933,
                -0.8167098082706051,
                -1.2042660039246003,
                0.6220360574745757,
                -0.0034799913932417603
            ]
        },
        {
            "positions": [
                2.7288526716847206,
                -2.0474786370369706,
                -0.9210835453424502,
                -1.2898621355985544,
                0.5716774671160226,
                -0.11299993130207574
            ]
        },
        {
            "positions": [
                2.756766756326663,
                -2.0597112660076475,
                -1.0254572824142953,
                -1.3754582672725084,
                0.5213188767574697,
                -0.22251987121090971
            ]
        },
        {
            "positions": [
                2.7846808409686052,
                -2.071943894978325,
                -1.1298310194861405,
                -1.4610543989464624,
                0.4709602863989166,
                -0.3320398111197437
            ]
        },
        {
            "positions": [
                2.8125949256105476,
                -2.084176523949002,
                -1.2342047565579857,
                -1.5466505306204166,
                0.4206016960403636,
                -0.4415597510285777
            ]
        },
        {
            "positions": [
                2.84050901025249,
                -2.096409152919679,
                -1.3385784936298308,
                -1.6322466622943708,
                0.37024310568181057,
                -0.5510796909374117
            ]
        },
        {
            "positions": [
                2.8684230948944323,
                -2.1086417818903564,
                -1.4429522307016758,
                -1.7178427939683247,
                0.31988451532325757,
                -0.6605996308462456
            ]
        },
        {
            "positions": [
                2.851192130949112,
                -2.1151719224869643,
                -1.4603400814432286,
                -1.778547708056659,
                0.2543006516000151,
                -0.8665490251782034
            ]
        },
        {
            "positions": [
                2.833961167003792,
                -2.121702063083572,
                -1.4777279321847812,
                -1.8392526221449932,
                0.18871678787677262,
                -1.0724984195101612
            ]
        },
        {
            "positions": [
                2.816730203058472,
                -2.1282322036801795,
                -1.495115782926334,
                -1.8999575362333274,
                0.12313292415353014,
                -1.2784478138421191
            ]
        },
        {
            "positions": [
                2.799499239113152,
                -2.1347623442767873,
                -1.5125036336678865,
                -1.9606624503216616,
                0.05754906043028768,
                -1.484397208174077
            ]
        },
        {
            "positions": [
                2.782268275167832,
                -2.141292484873395,
                -1.5298914844094393,
                -2.021367364409996,
                -0.008034803292954806,
                -1.690346602506035
            ]
        },
        {
            "positions": [
                2.7650373112225117,
                -2.1478226254700026,
                -1.547279335150992,
                -2.0820722784983303,
                -0.07361866701619729,
                -1.8962959968379927
            ]
        },
        {
            "positions": [
                2.7478063472771916,
                -2.1543527660666104,
                -1.5646671858925447,
                -2.1427771925866645,
                -0.13920253073943978,
                -2.1022453911699506
            ]
        },
        {
            "positions": [
                2.7305753833318716,
                -2.1608829066632183,
                -1.5820550366340975,
                -2.2034821066749988,
                -0.2047863944626822,
                -2.3081947855019083
            ]
        },
        {
            "positions": [
                2.7133444193865515,
                -2.167413047259826,
                -1.59944288737565,
                -2.264187020763333,
                -0.27037025818592475,
                -2.514144179833866
            ]
        },
        {
            "positions": [
                2.6961134554412314,
                -2.173943187856434,
                -1.616830738117203,
                -2.3248919348516672,
                -0.3359541219091672,
                -2.7200935741658245
            ]
        },
        {
            "positions": [
                2.6788824914959113,
                -2.1804733284530413,
                -1.6342185888587555,
                -2.3855968489400015,
                -0.4015379856324096,
                -2.9260429684977813
            ]
        },
        {
            "positions": [
                2.661651527550591,
                -2.187003469049649,
                -1.6516064396003083,
                -2.4463017630283357,
                -0.46712184935565215,
                -3.13199236282974
            ]
        }
    ]
}