{
    "goal": {
        "global_pose": {
            "orientation": {
                "w": 0.7047431468963623,
                "x": -0.7094548344612122,
                "y": 0.0024358443915843964,
                "z": -0.0022348060738295317
            },
            "position": {
                "x": 0.6094750761985779,
                "y": 0.3671506643295288,
                "z": 0.19426114857196808
            }
        },
        "name": "move_to_magneteinheit_A"
    },
    "id": "RRTConnect_move_to_magneteinheit_A_111",
    "joint_names": [
        "shoulder_pan_joint",
        "shoulder_lift_joint",
        "elbow_joint",
        "wrist_1_joint",
        "wrist_2_joint",
        "wrist_3_joint"
    ],
    "metrics": {
        "cart_traj_len": 3.2626440230709095,
        "distance_elbow_joint": 3.878379054030934,
        "distance_shoulder_lift_joint": 0.4543448146756275,
        "distance_shoulder_pan_joint": 3.6561563731164606,
        "distance_wrist_1_joint": 3.278596009780485,
        "distance_wrist_2_joint": 1.695380029145805,
        "distance_wrist_3_joint": 2.6002296277024297,
        "smoothness": 0.2745031748442066,
        "time": 0.075702624,
        "traj_len": 3.945007719694822,
        "weighted_distance": 5.07321606111773
    },
    "planner": "RRTConnect",
    "start": {
        "state": {
            "elbow_joint": -1.9196185241190666,
            "shoulder_lift_joint": -1.2443396400964142,
            "shoulder_pan_joint": 2.6996025414629847,
            "wrist_1_joint": -1.5485510000780065,
            "wrist_2_joint": -1.5709468930060704,
            "wrist_3_joint": 0.4420197071253992
        }
    },
    "waypoints": [
        {
            "positions": [
                2.6996025414629847,
                -1.2443396400964142,
                -1.9196185241190666,
                -1.5485510000780065,
                -1.5709468930060704,
                0.4420197071253992
            ]
        },
        {
            "positions": [
                2.5957247838696262,
                -1.2500504984676548,
                -1.808683826380061,
                -1.4801577927268292,
                -1.5322851933483324,
                0.5061981415874492
            ]
        },
        {
            "positions": [
                2.4918470262762678,
                -1.2557613568388952,
                -1.6977491286410558,
                -1.411764585375652,
                -1.4936234936905946,
                0.5703765760494992
            ]
        },
        {
            "positions": [
                2.387969268682909,
                -1.2614722152101359,
                -1.5868144309020502,
                -1.3433713780244747,
                -1.4549617940328565,
                0.6345550105115493
            ]
        },
        {
            "positions": [
                2.2840915110895503,
                -1.2671830735813765,
                -1.4758797331630447,
                -1.2749781706732974,
                -1.4163000943751187,
                0.6987334449735992
            ]
        },
        {
            "positions": [
                2.180213753496192,
                -1.272893931952617,
                -1.3649450354240393,
                -1.2065849633221202,
                -1.3776383947173807,
                0.7629118794356493
            ]
        },
        {
            "positions": [
                2.0763359959028334,
                -1.2786047903238575,
                -1.2540103376850338,
                -1.138191755970943,
                -1.3389766950596427,
                0.8270903138976993
            ]
        },
        {
            "positions": [
                1.9724582383094744,
                -1.2843156486950982,
                -1.1430756399460282,
                -1.0697985486197656,
                -1.3003149954019049,
                0.8912687483597493
            ]
        },
        {
            "positions": [
                1.868580480716116,
                -1.2900265070663386,
                -1.0321409422070227,
                -1.0014053412685886,
                -1.2616532957441668,
                0.9554471828217993
            ]
        },
        {
            "positions": [
                1.7647027231227574,
                -1.2957373654375792,
                -0.9212062444680174,
                -0.9330121339174112,
                -1.222991596086429,
                1.0196256172838494
            ]
        },
        {
            "positions": [
                1.660824965529399,
                -1.3014482238088199,
                -0.810271546729012,
                -0.8646189265662341,
                -1.184329896428691,
                1.0838040517458993
            ]
        },
        {
            "positions": [
                1.5569472079360402,
                -1.3071590821800603,
                -0.6993368489900065,
                -0.7962257192150568,
                -1.145668196770953,
                1.1479824862079493
            ]
        },
        {
            "positions": [
                1.4530694503426815,
                -1.312869940551301,
                -0.5884021512510009,
                -0.7278325118638794,
                -1.1070064971132152,
                1.2121609206699995
            ]
        },
        {
            "positions": [
                1.349191692749323,
                -1.3185807989225415,
                -0.4774674535119954,
                -0.6594393045127022,
                -1.0683447974554772,
                1.2763393551320494
            ]
        },
        {
            "positions": [
                1.2453139351559643,
                -1.324291657293782,
                -0.36653275577299005,
                -0.591046097161525,
                -1.0296830977977391,
                1.3405177895940996
            ]
        },
        {
            "positions": [
                1.1414361775626058,
                -1.3300025156650226,
                -0.2555980580339845,
                -0.5226528898103477,
                -0.9910213981400013,
                1.4046962240561496
            ]
        },
        {
            "positions": [
                1.0375584199692474,
                -1.3357133740362632,
                -0.14466336029497895,
                -0.4542596824591705,
                -0.9523596984822634,
                1.4688746585181995
            ]
        },
        {
            "positions": [
                0.9336806623758886,
                -1.3414242324075036,
                -0.03372866255597362,
                -0.3858664751079932,
                -0.9136979988245255,
                1.5330530929802495
            ]
        },
        {
            "positions": [
                0.8298029047825302,
                -1.3471350907787443,
                0.07720603518303193,
                -0.31747326775681595,
                -0.8750362991667876,
                1.5972315274422995
            ]
        },
        {
            "positions": [
                0.7259251471891717,
                -1.352845949149985,
                0.18814073292203748,
                -0.2490800604056389,
                -0.8363745995090497,
                1.6614099619043494
            ]
        },
        {
            "positions": [
                0.6220473895958132,
                -1.3585568075212253,
                0.2990754306610426,
                -0.18068685305446164,
                -0.7977128998513117,
                1.7255883963663994
            ]
        },
        {
            "positions": [
                0.5181696320024543,
                -1.364267665892466,
                0.41001012840004813,
                -0.11229364570328437,
                -0.7590512001935737,
                1.7897668308284493
            ]
        },
        {
            "positions": [
                0.41429187440909576,
                -1.3699785242637066,
                0.5209448261390537,
                -0.04390043835210711,
                -0.7203895005358358,
                1.8539452652904993
            ]
        },
        {
            "positions": [
                0.31041411681573683,
                -1.375689382634947,
                0.6318795238780597,
                0.02449276899907038,
                -0.6817278008780978,
                1.9181236997525497
            ]
        },
        {
            "positions": [
                0.20653635922237834,
                -1.3814002410061876,
                0.7428142216170648,
                0.09288597635024765,
                -0.6430661012203599,
                1.9823021342145997
            ]
        },
        {
            "positions": [
                0.10265860162901985,
                -1.3871110993774283,
                0.8537489193560703,
                0.1612791837014249,
                -0.604404401562622,
                2.0464805686766496
            ]
        },
        {
            "positions": [
                -0.0012191559643386363,
                -1.3928219577486687,
                0.9646836170950759,
                0.22967239105260218,
                -0.565742701904884,
                2.1106590031386996
            ]
        },
        {
            "positions": [
                -0.10509691355769712,
                -1.3985328161199093,
                1.0756183148340814,
                0.2980655984037792,
                -0.5270810022471462,
                2.1748374376007495
            ]
        },
        {
            "positions": [
                -0.20897467115105606,
                -1.40424367449115,
                1.1865530125730865,
                0.3664588057549565,
                -0.48841930258940813,
                2.2390158720628
            ]
        },
        {
            "positions": [
                -0.31285242874441455,
                -1.4099545328623904,
                1.297487710312092,
                0.43485201310613375,
                -0.44975760293167033,
                2.30319430652485
            ]
        },
        {
            "positions": [
                -0.41673018633777287,
                -1.415665391233631,
                1.4084224080510976,
                0.503245220457311,
                -0.4110959032739322,
                2.3673727409869
            ]
        },
        {
            "positions": [
                -0.36274782180620246,
                -1.38736348487979,
                1.4634562202371746,
                0.38056524153279425,
                -0.35754299933256545,
                2.434860400370993
            ]
        },
        {
            "positions": [
                -0.3087654572746321,
                -1.3590615785259488,
                1.5184900324232515,
                0.2578852626082775,
                -0.3039900953911987,
                2.502348059755086
            ]
        },
        {
            "positions": [
                -0.25478309274306177,
                -1.3307596721721078,
                1.5735238446093287,
                0.13520528368376072,
                -0.250437191449832,
                2.5698357191391787
            ]
        },
        {
            "positions": [
                -0.20080072821149136,
                -1.3024577658182668,
                1.6285576567954057,
                0.01252530475924396,
                -0.19688428750846523,
                2.6373233785232717
            ]
        },
        {
            "positions": [
                -0.14681836367992102,
                -1.2741558594644258,
                1.6835914689814826,
                -0.1101546741652728,
                -0.1433313835670985,
                2.7048110379073647
            ]
        },
        {
            "positions": [
                -0.09283599914835067,
                -1.2458539531105846,
                1.7386252811675595,
                -0.23283465308978957,
                -0.08977847962573177,
                2.772298697291457
            ]
        },
        {
            "positions": [
                -0.03885363461678032,
                -1.2175520467567436,
                1.7936590933536365,
                -0.35551463201430633,
                -0.036225575684365074,
                2.83978635667555
            ]
        },
        {
            "positions": [
                0.01512872991479014,
                -1.1892501404029026,
                1.8486929055397137,
                -0.4781946109388231,
                0.01732732825700173,
                2.907274016059643
            ]
        },
        {
            "positions": [
                0.06911109444636049,
                -1.1609482340490613,
                1.9037267177257906,
                -0.6008745898633399,
                0.07088023219836842,
                2.974761675443736
            ]
        },
        {
            "positions": [
                0.12309345897793086,
                -1.1326463276952203,
                1.9587605299118676,
                -0.7235545687878566,
                0.12443313613973511,
                3.042249334827829
            ]
        }
    ]
}