{
    "goal": {
        "global_pose": {
            "orientation": {
                "w": -0.4816463035849501,
                "x": 0.5182115481033762,
                "y": 0.4908360881923453,
                "z": -0.5084816262002911
            },
            "position": {
                "x": -0.8240239810943604,
                "y": -0.300875300988555,
                "z": 0.16403168439865112
            }
        },
        "name": "move_to_storage_C"
    },
    "id": "RRTConnect_move_to_storage_C_73",
    "joint_names": [
        "shoulder_pan_joint",
        "shoulder_lift_joint",
        "elbow_joint",
        "wrist_1_joint",
        "wrist_2_joint",
        "wrist_3_joint"
    ],
    "metrics": {
        "cart_traj_len": 0.5763610304113167,
        "distance_elbow_joint": 0.2602530035143953,
        "distance_shoulder_lift_joint": 0.18943559900534102,
        "distance_shoulder_pan_joint": 0.4952846335871972,
        "distance_wrist_1_joint": 0.08840188063184462,
        "distance_wrist_2_joint": 1.0599927193869725,
        "distance_wrist_3_joint": 0.06917108510941183,
        "smoothness": 0.0,
        "time": 0.09810485499999999,
        "traj_len": 1.470557350542699,
        "weighted_distance": 1.857222574564719
    },
    "planner": "RRTConnect",
    "start": {
        "state": {
            "elbow_joint": 2.010868314990456,
            "shoulder_lift_joint": -1.1634956873337592,
            "shoulder_pan_joint": -2.4736205022346125,
            "wrist_1_joint": -0.8367026794202681,
            "wrist_2_joint": 0.6746043897044499,
            "wrist_3_joint": -3.1496632123970403
        }
    },
    "waypoints": [
        {
            "positions": [
                -2.4736205022346125,
                -1.1634956873337592,
                2.010868314990456,
                -0.8367026794202681,
                0.6746043897044499,
                -3.1496632123970403
            ]
        },
        {
            "positions": [
                -2.5561679411658123,
                -1.1319230874995356,
                1.9674928144047232,
                -0.821969032648294,
                0.851269842935612,
                -3.1381346982121383
            ]
        },
        {
            "positions": [
                -2.6387153800970116,
                -1.1003504876653123,
                1.9241173138189906,
                -0.8072353858763199,
                1.027935296166774,
                -3.1266061840272363
            ]
        },
        {
            "positions": [
                -2.721262819028211,
                -1.0687778878310887,
                1.880741813233258,
                -0.7925017391043458,
                1.2046007493979363,
                -3.1150776698423344
            ]
        },
        {
            "positions": [
                -2.8038102579594106,
                -1.0372052879968652,
                1.8373663126475257,
                -0.7777680923323717,
                1.381266202629098,
                -3.1035491556574324
            ]
        },
        {
            "positions": [
                -2.8863576968906104,
                -1.0056326881626416,
                1.7939908120617931,
                -0.7630344455603976,
                1.5579316558602603,
                -3.0920206414725304
            ]
        },
        {
            "positions": [
                -2.9689051358218097,
                -0.9740600883284182,
                1.7506153114760605,
                -0.7483007987884235,
                1.7345971090914223,
                -3.0804921272876284
            ]
        }
    ]
}