{
    "goal": {
        "global_pose": {
            "orientation": {
                "w": 0.005598929693374612,
                "x": 0.007748599140229565,
                "y": 0.7110244013736278,
                "z": -0.7031023480610252
            },
            "position": {
                "x": -0.8858502320852131,
                "y": -0.7141253447532654,
                "z": 0.3711530566215515
            }
        },
        "name": "move_to_auspresseinheit_C"
    },
    "id": "RRTConnect_move_to_auspresseinheit_C_7",
    "joint_names": [
        "shoulder_pan_joint",
        "shoulder_lift_joint",
        "elbow_joint",
        "wrist_1_joint",
        "wrist_2_joint",
        "wrist_3_joint"
    ],
    "metrics": {
        "cart_traj_len": 0.4936316662634781,
        "distance_elbow_joint": 0.9982728015484894,
        "distance_shoulder_lift_joint": 0.32381559624979483,
        "distance_shoulder_pan_joint": 0.2562186617309723,
        "distance_wrist_1_joint": 0.6664360016292392,
        "distance_wrist_2_joint": 1.3169714914816146,
        "distance_wrist_3_joint": 0.04421031990078994,
        "smoothness": 4.844609600361787e-16,
        "time": 0.042665666000000005,
        "traj_len": 1.8989272952224634,
        "weighted_distance": 2.3828036019473644
    },
    "planner": "RRTConnect",
    "start": {
        "state": {
            "elbow_joint": 1.7527959577737207,
            "shoulder_lift_joint": -0.9740617694225068,
            "shoulder_pan_joint": -2.967991417825858,
            "wrist_1_joint": -0.759517768980727,
            "wrist_2_joint": 1.7443932448377408,
            "wrist_3_joint": -3.0840537646736568
        }
    },
    "waypoints": [
        {
            "positions": [
                -2.967991417825858,
                -0.9740617694225068,
                1.7527959577737207,
                -0.759517768980727,
                1.7443932448377408,
                -3.0840537646736568
            ]
        },
        {
            "positions": [
                -2.9423695516527606,
                -0.9416802097975273,
                1.6529686776188717,
                -0.6928741688178031,
                1.6126960956895793,
                -3.0884747966637356
            ]
        },
        {
            "positions": [
                -2.9167476854796637,
                -0.9092986501725479,
                1.5531413974640227,
                -0.6262305686548791,
                1.480998946541418,
                -3.092895828653815
            ]
        },
        {
            "positions": [
                -2.8911258193065663,
                -0.8769170905475683,
                1.453314117309174,
                -0.5595869684919552,
                1.3493017973932564,
                -3.0973168606438937
            ]
        },
        {
            "positions": [
                -2.865503953133469,
                -0.8445355309225888,
                1.353486837154325,
                -0.4929433683290313,
                1.217604648245095,
                -3.101737892633973
            ]
        },
        {
            "positions": [
                -2.8398820869603716,
                -0.8121539712976094,
                1.253659556999476,
                -0.4262997681661074,
                1.0859074990969335,
                -3.1061589246240517
            ]
        },
        {
            "positions": [
                -2.8142602207872747,
                -0.7797724116726299,
                1.1538322768446272,
                -0.35965616800318345,
                0.9542103499487721,
                -3.1105799566141306
            ]
        },
        {
            "positions": [
                -2.7886383546141773,
                -0.7473908520476504,
                1.0540049966897782,
                -0.2930125678402596,
                0.8225132008006106,
                -3.11500098860421
            ]
        },
        {
            "positions": [
                -2.76301648844108,
                -0.715009292422671,
                0.9541777165349291,
                -0.2263689676773356,
                0.6908160516524491,
                -3.1194220205942886
            ]
        },
        {
            "positions": [
                -2.737394622267983,
                -0.6826277327976914,
                0.8543504363800801,
                -0.1597253675144117,
                0.5591189025042875,
                -3.123843052584368
            ]
        },
        {
            "positions": [
                -2.7117727560948857,
                -0.6502461731727119,
                0.7545231562252313,
                -0.09308176735148774,
                0.4274217533561261,
                -3.1282640845744467
            ]
        }
    ]
}