{
    "goal": {
        "global_pose": {
            "orientation": {
                "w": -0.4816463035849501,
                "x": 0.5182115481033762,
                "y": 0.4908360881923453,
                "z": -0.5084816262002911
            },
            "position": {
                "x": -0.8240239810943604,
                "y": 0.19912469901144506,
                "z": 0.16403168439865112
            }
        },
        "name": "move_to_storage_D"
    },
    "id": "RRTConnect_move_to_storage_D_18",
    "joint_names": [
        "shoulder_pan_joint",
        "shoulder_lift_joint",
        "elbow_joint",
        "wrist_1_joint",
        "wrist_2_joint",
        "wrist_3_joint"
    ],
    "metrics": {
        "cart_traj_len": 3.9744713242089156,
        "distance_elbow_joint": 4.20635164708213,
        "distance_shoulder_lift_joint": 1.265417296232301,
        "distance_shoulder_pan_joint": 2.8127735707413293,
        "distance_wrist_1_joint": 2.396660585428841,
        "distance_wrist_2_joint": 0.8684432827124692,
        "distance_wrist_3_joint": 3.1371509666329245,
        "smoothness": 0.05149476681523918,
        "time": 0.095051092,
        "traj_len": 3.832335756275798,
        "weighted_distance": 4.922012103828794
    },
    "planner": "RRTConnect",
    "start": {
        "state": {
            "elbow_joint": -2.384821988534728,
            "shoulder_lift_joint": -2.2788054721415256,
            "shoulder_pan_joint": -0.1854694642142757,
            "wrist_1_joint": 1.4845938289331202,
            "wrist_2_joint": 0.17898776772866878,
            "wrist_3_joint": 0.037105688729662994
        }
    },
    "waypoints": [
        {
            "positions": [
                -0.1854694642142757,
                -2.2788054721415256,
                -2.384821988534728,
                1.4845938289331202,
                0.17898776772866878,
                0.037105688729662994
            ]
        },
        {
            "positions": [
                -0.07958793223722463,
                -2.256088377188486,
                -2.3282211676618423,
                1.4659040926319316,
                0.26547481525909344,
                -0.041650860703767764
            ]
        },
        {
            "positions": [
                0.02629359973982645,
                -2.2333712822354466,
                -2.271620346788956,
                1.447214356330743,
                0.351961862789518,
                -0.12040741013719852
            ]
        },
        {
            "positions": [
                0.13217513171687753,
                -2.210654187282407,
                -2.2150195259160705,
                1.428524620029554,
                0.4384489103199426,
                -0.19916395957062927
            ]
        },
        {
            "positions": [
                0.2380566636939286,
                -2.1879370923293675,
                -2.1584187050431844,
                1.4098348837283654,
                0.5249359578503673,
                -0.27792050900406007
            ]
        },
        {
            "positions": [
                0.3439381956709797,
                -2.1652199973763278,
                -2.101817884170299,
                1.3911451474271768,
                0.6114230053807919,
                -0.35667705843749076
            ]
        },
        {
            "positions": [
                0.4147269128334886,
                -2.135588266645145,
                -1.9720032670855872,
                1.316621573011176,
                0.6240858987297192,
                -0.43378376857013956
            ]
        },
        {
            "positions": [
                0.4855156299959975,
                -2.1059565359139625,
                -1.8421886500008755,
                1.2420979985951754,
                0.6367487920786465,
                -0.5108904787027884
            ]
        },
        {
            "positions": [
                0.5563043471585064,
                -2.0763248051827796,
                -1.7123740329161639,
                1.1675744241791748,
                0.649411685427574,
                -0.5879971888354371
            ]
        },
        {
            "positions": [
                0.6270930643210153,
                -2.0466930744515968,
                -1.5825594158314522,
                1.0930508497631741,
                0.6620745787765013,
                -0.6651038989680859
            ]
        },
        {
            "positions": [
                0.6978817814835242,
                -2.0170613437204143,
                -1.4527447987467406,
                1.0185272753471735,
                0.6747374721254287,
                -0.7422106091007346
            ]
        },
        {
            "positions": [
                0.7686704986460331,
                -1.9874296129892315,
                -1.322930181662029,
                0.9440037009311728,
                0.687400365474356,
                -0.8193173192333834
            ]
        },
        {
            "positions": [
                0.8394592158085421,
                -1.9577978822580488,
                -1.193115564577317,
                0.8694801265151721,
                0.7000632588232834,
                -0.8964240293660322
            ]
        },
        {
            "positions": [
                0.9102479329710509,
                -1.928166151526866,
                -1.0633009474926056,
                0.7949565520991715,
                0.7127261521722107,
                -0.973530739498681
            ]
        },
        {
            "positions": [
                0.9810366501335598,
                -1.8985344207956834,
                -0.933486330407894,
                0.7204329776831708,
                0.725389045521138,
                -1.0506374496313295
            ]
        },
        {
            "positions": [
                1.0518253672960687,
                -1.8689026900645007,
                -0.8036717133231823,
                0.6459094032671702,
                0.7380519388700655,
                -1.1277441597639783
            ]
        },
        {
            "positions": [
                1.1226140844585775,
                -1.839270959333318,
                -0.6738570962384707,
                0.5713858288511696,
                0.7507148322189928,
                -1.2048508698966272
            ]
        },
        {
            "positions": [
                1.1934028016210867,
                -1.8096392286021352,
                -0.5440424791537588,
                0.49686225443516885,
                0.7633777255679202,
                -1.281957580029276
            ]
        },
        {
            "positions": [
                1.2641915187835955,
                -1.7800074978709524,
                -0.41422786206904716,
                0.4223386800191682,
                0.7760406189168475,
                -1.3590642901619248
            ]
        },
        {
            "positions": [
                1.3349802359461043,
                -1.7503757671397697,
                -0.2844132449843355,
                0.34781510560316753,
                0.7887035122657748,
                -1.4361710002945736
            ]
        },
        {
            "positions": [
                1.4057689531086133,
                -1.720744036408587,
                -0.15459862789962386,
                0.27329153118716687,
                0.8013664056147023,
                -1.5132777104272224
            ]
        },
        {
            "positions": [
                1.476557670271122,
                -1.6911123056774044,
                -0.02478401081491244,
                0.1987679567711662,
                0.8140292989636296,
                -1.5903844205598712
            ]
        },
        {
            "positions": [
                1.547346387433631,
                -1.6614805749462218,
                0.10503060626979943,
                0.12424438235516555,
                0.826692192312557,
                -1.66749113069252
            ]
        },
        {
            "positions": [
                1.6181351045961399,
                -1.631848844215039,
                0.23484522335451086,
                0.04972080793916489,
                0.8393550856614843,
                -1.7445978408251686
            ]
        },
        {
            "positions": [
                1.6889238217586489,
                -1.6022171134838563,
                0.3646598404392227,
                -0.02480276647683577,
                0.8520179790104117,
                -1.8217045509578174
            ]
        },
        {
            "positions": [
                1.7597125389211576,
                -1.5725853827526737,
                0.49447445752393415,
                -0.09932634089283643,
                0.864680872359339,
                -1.8988112610904662
            ]
        },
        {
            "positions": [
                1.8305012560836667,
                -1.5429536520214908,
                0.624289074608646,
                -0.1738499153088371,
                0.8773437657082663,
                -1.975917971223115
            ]
        },
        {
            "positions": [
                1.9012899732461754,
                -1.5133219212903082,
                0.7541036916933574,
                -0.24837348972483753,
                0.8900066590571938,
                -2.0530246813557635
            ]
        },
        {
            "positions": [
                1.9720786904086847,
                -1.4836901905591253,
                0.8839183087780698,
                -0.32289706414083863,
                0.9026695524061211,
                -2.130131391488413
            ]
        },
        {
            "positions": [
                2.0428674075711934,
                -1.4540584598279427,
                1.0137329258627812,
                -0.39742063855683907,
                0.9153324457550485,
                -2.207238101621061
            ]
        },
        {
            "positions": [
                2.1136561247337022,
                -1.4244267290967598,
                1.143547542947493,
                -0.4719442129728397,
                0.9279953391039759,
                -2.2843448117537104
            ]
        },
        {
            "positions": [
                2.1844448418962115,
                -1.3947949983655772,
                1.2733621600322045,
                -0.5464677873888404,
                0.9406582324529031,
                -2.3614515218863588
            ]
        },
        {
            "positions": [
                2.2552335590587202,
                -1.3651632676343946,
                1.4031767771169164,
                -0.620991361804841,
                0.9533211258018306,
                -2.4385582320190076
            ]
        },
        {
            "positions": [
                2.326022276221229,
                -1.3355315369032117,
                1.5329913942016278,
                -0.6955149362208417,
                0.9659840191507578,
                -2.5156649421516564
            ]
        },
        {
            "positions": [
                2.3968109933837383,
                -1.3058998061720293,
                1.6628060112863396,
                -0.7700385106368424,
                0.9786469124996853,
                -2.592771652284305
            ]
        },
        {
            "positions": [
                2.4675997105462466,
                -1.2762680754408464,
                1.7926206283710513,
                -0.8445620850528428,
                0.9913098058486126,
                -2.669878362416954
            ]
        },
        {
            "positions": [
                2.520834509206516,
                -1.188641442263639,
                1.8022569717631678,
                -0.8220605279052171,
                1.0100168873794544,
                -2.8132673342457233
            ]
        },
        {
            "positions": [
                2.5740693078667847,
                -1.101014809086432,
                1.8118933151552845,
                -0.7995589707575913,
                1.0287239689102963,
                -2.956656306074492
            ]
        },
        {
            "positions": [
                2.627304106527054,
                -1.0133881759092247,
                1.821529658547401,
                -0.7770574136099656,
                1.047431050441138,
                -3.1000452779032615
            ]
        }
    ]
}