{
    "goal": {
        "global_pose": {
            "orientation": {
                "w": 0.7047431493862688,
                "x": -0.7094548369677653,
                "y": 0.0024358444001904,
                "z": -0.0022348060817251984
            },
            "position": {
                "x": -0.39052492380142206,
                "y": 0.3671506643295288,
                "z": 0.19426114857196808
            }
        },
        "name": "move_to_magneteinheit_D"
    },
    "id": "RRTConnect_move_to_magneteinheit_D_88",
    "joint_names": [
        "shoulder_pan_joint",
        "shoulder_lift_joint",
        "elbow_joint",
        "wrist_1_joint",
        "wrist_2_joint",
        "wrist_3_joint"
    ],
    "metrics": {
        "cart_traj_len": 4.3279594677949556,
        "distance_elbow_joint": 3.128729315371528,
        "distance_shoulder_lift_joint": 1.8730619216092357,
        "distance_shoulder_pan_joint": 2.8526818087913663,
        "distance_wrist_1_joint": 3.392727777511065,
        "distance_wrist_2_joint": 3.3016487933487912,
        "distance_wrist_3_joint": 6.02242069325112,
        "smoothness": 0.372572665816027,
        "time": 0.16136561900000002,
        "traj_len": 4.535556229381696,
        "weighted_distance": 6.269807673864106
    },
    "planner": "RRTConnect",
    "start": {
        "state": {
            "elbow_joint": 0.749534889911806,
            "shoulder_lift_joint": -0.6476975780787326,
            "shoulder_pan_joint": -2.711696901376241,
            "wrist_1_joint": -0.07506478083263063,
            "wrist_2_joint": 0.43296659715538205,
            "wrist_3_joint": -3.14703540197715
        }
    },
    "waypoints": [
        {
            "positions": [
                -2.711696901376241,
                -0.6476975780787326,
                0.749534889911806,
                -0.07506478083263063,
                0.43296659715538205,
                -3.14703540197715
            ]
        },
        {
            "positions": [
                -2.7376796904346348,
                -0.5957970132303573,
                0.6362011876924334,
                -0.13743913138779934,
                0.5142483083026724,
                -3.1157003893473023
            ]
        },
        {
            "positions": [
                -2.75684227760029,
                -0.5618594422218197,
                0.532367502986327,
                -0.1989071254787433,
                0.5866222646652661,
                -3.0585163954951304
            ]
        },
        {
            "positions": [
                -2.7760048647659454,
                -0.527921871213282,
                0.4285338182802206,
                -0.2603751195696873,
                0.6589962210278599,
                -3.0013324016429586
            ]
        },
        {
            "positions": [
                -2.7575891727185184,
                -0.5845479075518892,
                0.37657423999637984,
                -0.31717068755809225,
                0.6733122085774768,
                -2.814747209003303
            ]
        },
        {
            "positions": [
                -2.7391734806710915,
                -0.6411739438904965,
                0.32461466171253905,
                -0.37396625554649715,
                0.6876281961270937,
                -2.6281620163636474
            ]
        },
        {
            "positions": [
                -2.720757788623665,
                -0.6977999802291037,
                0.2726550834286983,
                -0.4307618235349021,
                0.7019441836767105,
                -2.4415768237239917
            ]
        },
        {
            "positions": [
                -2.702342096576238,
                -0.7544260165677109,
                0.22069550514485758,
                -0.487557391523307,
                0.7162601712263273,
                -2.2549916310843363
            ]
        },
        {
            "positions": [
                -2.683926404528811,
                -0.8110520529063182,
                0.1687359268610168,
                -0.544352959511712,
                0.7305761587759443,
                -2.068406438444681
            ]
        },
        {
            "positions": [
                -2.665510712481384,
                -0.8676780892449254,
                0.11677634857717603,
                -0.6011485275001169,
                0.7448921463255611,
                -1.8818212458050252
            ]
        },
        {
            "positions": [
                -2.5774243630016715,
                -0.8945878013566481,
                0.038168362994050284,
                -0.6146864256209378,
                0.6812972894146654,
                -1.7630549895770309
            ]
        },
        {
            "positions": [
                -2.4893380135219596,
                -0.9214975134683708,
                -0.040439622589075463,
                -0.6282243237417587,
                0.6177024325037695,
                -1.6442887333490364
            ]
        },
        {
            "positions": [
                -2.401251664042247,
                -0.9484072255800935,
                -0.1190476081722012,
                -0.6417622218625796,
                0.5541075755928738,
                -1.525522477121042
            ]
        },
        {
            "positions": [
                -2.313165314562535,
                -0.9753169376918163,
                -0.19765559375532696,
                -0.6553001199834004,
                0.49051271868197804,
                -1.4067562208930477
            ]
        },
        {
            "positions": [
                -2.2250789650828224,
                -1.002226649803539,
                -0.2762635793384527,
                -0.6688380181042214,
                0.42691786177108226,
                -1.2879899646650532
            ]
        },
        {
            "positions": [
                -2.13699261560311,
                -1.0291363619152616,
                -0.35487156492157845,
                -0.6823759162250422,
                0.36332300486018654,
                -1.169223708437059
            ]
        },
        {
            "positions": [
                -2.048906266123398,
                -1.0560460740269844,
                -0.4334795505047042,
                -0.6959138143458631,
                0.29972814794929076,
                -1.0504574522090646
            ]
        },
        {
            "positions": [
                -1.9608199166436857,
                -1.0829557861387071,
                -0.51208753608783,
                -0.7094517124666839,
                0.23613329103839498,
                -0.9316911959810702
            ]
        },
        {
            "positions": [
                -1.8727335671639733,
                -1.10986549825043,
                -0.5906955216709557,
                -0.7229896105875049,
                0.17253843412749914,
                -0.8129249397530756
            ]
        },
        {
            "positions": [
                -1.7846472176842612,
                -1.1367752103621525,
                -0.6693035072540815,
                -0.7365275087083257,
                0.10894357721660342,
                -0.6941586835250813
            ]
        },
        {
            "positions": [
                -1.696560868204549,
                -1.1636849224738752,
                -0.7479114928372071,
                -0.7500654068291466,
                0.04534872030570769,
                -0.575392427297087
            ]
        },
        {
            "positions": [
                -1.6084745187248366,
                -1.1905946345855978,
                -0.8265194784203329,
                -0.7636033049499675,
                -0.018246136605188035,
                -0.45662617106909265
            ]
        },
        {
            "positions": [
                -1.5203881692451242,
                -1.2175043466973205,
                -0.9051274640034588,
                -0.7771412030707884,
                -0.08184099351608387,
                -0.3378599148410981
            ]
        },
        {
            "positions": [
                -1.432301819765412,
                -1.2444140588090433,
                -0.9837354495865844,
                -0.7906791011916092,
                -0.1454358504269796,
                -0.21909365861310381
            ]
        },
        {
            "positions": [
                -1.3442154702856999,
                -1.271323770920766,
                -1.06234343516971,
                -0.8042169993124302,
                -0.20903070733787532,
                -0.10032740238510951
            ]
        },
        {
            "positions": [
                -1.2561291208059875,
                -1.2982334830324886,
                -1.140951420752836,
                -0.817754897433251,
                -0.27262556424877116,
                0.018438853842884795
            ]
        },
        {
            "positions": [
                -1.1680427713262753,
                -1.3251431951442114,
                -1.2195594063359616,
                -0.8312927955540719,
                -0.3362204211596669,
                0.13720511007087932
            ]
        },
        {
            "positions": [
                -1.0799564218465627,
                -1.3520529072559342,
                -1.2981673919190875,
                -0.8448306936748928,
                -0.39981527807056283,
                0.25597136629887407
            ]
        },
        {
            "positions": [
                -0.9918700723668505,
                -1.3789626193676567,
                -1.3767753775022131,
                -0.8583685917957137,
                -0.46341013498145855,
                0.3747376225268684
            ]
        },
        {
            "positions": [
                -0.9037837228871384,
                -1.4058723314793795,
                -1.455383363085339,
                -0.8719064899165345,
                -0.5270049918923543,
                0.4935038787548627
            ]
        },
        {
            "positions": [
                -0.815697373407426,
                -1.4327820435911023,
                -1.5339913486684646,
                -0.8854443880373555,
                -0.59059984880325,
                0.612270134982857
            ]
        },
        {
            "positions": [
                -0.7276110239277138,
                -1.459691755702825,
                -1.6125993342515903,
                -0.8989822861581763,
                -0.6541947057141457,
                0.7310363912108513
            ]
        },
        {
            "positions": [
                -0.6395246744480017,
                -1.4866014678145478,
                -1.6912073198347162,
                -0.9125201842789972,
                -0.7177895626250415,
                0.8498026474388456
            ]
        },
        {
            "positions": [
                -0.5514383249682893,
                -1.5135111799262704,
                -1.7698153054178418,
                -0.9260580823998181,
                -0.7813844195359372,
                0.9685689036668399
            ]
        },
        {
            "positions": [
                -0.4633519754885769,
                -1.5404208920379932,
                -1.8484232910009677,
                -0.939595980520639,
                -0.8449792764468331,
                1.0873351598948346
            ]
        },
        {
            "positions": [
                -0.3752656260088645,
                -1.5673306041497157,
                -1.9270312765840936,
                -0.9531338786414598,
                -0.9085741333577289,
                1.206101416122829
            ]
        },
        {
            "positions": [
                -0.28717927652915254,
                -1.5942403162614385,
                -2.005639262167219,
                -0.9666717767622808,
                -0.9721689902686246,
                1.3248676723508233
            ]
        },
        {
            "positions": [
                -0.19909292704944023,
                -1.6211500283731612,
                -2.0842472477503446,
                -0.9802096748831016,
                -1.0357638471795203,
                1.4436339285788176
            ]
        },
        {
            "positions": [
                -0.18499748411171926,
                -1.6606491805840355,
                -2.1097573188026977,
                -0.8364322600380087,
                -0.9752323281597327,
                1.3698680021545
            ]
        },
        {
            "positions": [
                -0.1709020411739983,
                -1.7001483327949098,
                -2.135267389855051,
                -0.692654845192916,
                -0.9147008091399451,
                1.2961020757301824
            ]
        },
        {
            "positions": [
                -0.15680659823627735,
                -1.7396474850057844,
                -2.160777460907404,
                -0.5488774303478232,
                -0.8541692901201574,
                1.2223361493058649
            ]
        },
        {
            "positions": [
                -0.14271115529855638,
                -1.7791466372166587,
                -2.1862875319597572,
                -0.40510001550273034,
                -0.7936377711003699,
                1.1485702228815473
            ]
        },
        {
            "positions": [
                -0.1286157123608354,
                -1.818645789427533,
                -2.2117976030121103,
                -0.26132260065763757,
                -0.7331062520805822,
                1.0748042964572297
            ]
        },
        {
            "positions": [
                -0.11452026942311444,
                -1.8581449416384075,
                -2.2373076740644633,
                -0.1175451858125447,
                -0.6725747330607946,
                1.0010383700329122
            ]
        },
        {
            "positions": [
                -0.10042482648539348,
                -1.8976440938492818,
                -2.2628177451168168,
                0.026232229032548182,
                -0.612043214041007,
                0.9272724436085946
            ]
        },
        {
            "positions": [
                -0.08632938354767251,
                -1.937143246060156,
                -2.28832781616917,
                0.17000964387764084,
                -0.5515116950212194,
                0.8535065171842771
            ]
        },
        {
            "positions": [
                -0.09729586845693777,
                -1.9753726727153684,
                -2.2984241060903425,
                0.3186055955109578,
                -0.47097668407508264,
                0.7599927448175421
            ]
        },
        {
            "positions": [
                -0.10826235336620303,
                -2.0136020993705808,
                -2.308520396011515,
                0.4672015471442748,
                -0.3904416731289459,
                0.666478972450807
            ]
        },
        {
            "positions": [
                -0.11922883827546829,
                -2.051831526025793,
                -2.3186166859326875,
                0.6157974987775918,
                -0.30990666218280916,
                0.572965200084072
            ]
        },
        {
            "positions": [
                -0.13019532318473356,
                -2.0900609526810054,
                -2.32871297585386,
                0.7643934504109088,
                -0.22937165123667236,
                0.479451427717337
            ]
        },
        {
            "positions": [
                -0.14116180809399884,
                -2.128290379336218,
                -2.3388092657750326,
                0.9129894020442259,
                -0.14883664029053556,
                0.3859376553506019
            ]
        },
        {
            "positions": [
                -0.15212829300326408,
                -2.16651980599143,
                -2.348905555696205,
                1.0615853536775428,
                -0.06830162934439882,
                0.292423882983867
            ]
        },
        {
            "positions": [
                -0.16309477791252935,
                -2.2047492326466425,
                -2.3590018456173776,
                1.2101813053108599,
                0.012233381601738036,
                0.19891011061713193
            ]
        },
        {
            "positions": [
                -0.1740612628217946,
                -2.242978659301855,
                -2.36909813553855,
                1.3587772569441767,
                0.09276839254787472,
                0.10539633825039696
            ]
        },
        {
            "positions": [
                -0.18502774773105987,
                -2.281208085957067,
                -2.3791944254597226,
                1.5073732085774938,
                0.1733034034940115,
                0.011882565883661843
            ]
        }
    ]
}