{
    "goal": {
        "global_pose": {
            "orientation": {
                "w": -0.00223480608172531,
                "x": 0.0024358444001904467,
                "y": 0.7094548369677653,
                "z": -0.704743149386269
            },
            "position": {
                "x": -0.37947507619857795,
                "y": -0.6371506643295288,
                "z": 0.19426114857196808
            }
        },
        "name": "move_to_magneteinheit_C"
    },
    "id": "RRTConnect_move_to_magneteinheit_C_104",
    "joint_names": [
        "shoulder_pan_joint",
        "shoulder_lift_joint",
        "elbow_joint",
        "wrist_1_joint",
        "wrist_2_joint",
        "wrist_3_joint"
    ],
    "metrics": {
        "cart_traj_len": 1.4522114056146025,
        "distance_elbow_joint": 0.42666842307181385,
        "distance_shoulder_lift_joint": 1.3169389835932146,
        "distance_shoulder_pan_joint": 1.5096948839231497,
        "distance_wrist_1_joint": 1.6128465065247446,
        "distance_wrist_2_joint": 2.806589062227551,
        "distance_wrist_3_joint": 3.9855007503531485,
        "smoothness": 0.7378531390062139,
        "time": 0.12212652800000001,
        "traj_len": 3.414416291211958,
        "weighted_distance": 4.903944909881454
    },
    "planner": "RRTConnect",
    "start": {
        "state": {
            "elbow_joint": 1.9565354010623817,
            "shoulder_lift_joint": -1.4165861575791021,
            "shoulder_pan_joint": -1.6717766225146293,
            "wrist_1_joint": -0.5286633292919765,
            "wrist_2_joint": 1.472756589071564,
            "wrist_3_joint": -3.1238370188695823
        }
    },
    "waypoints": [
        {
            "positions": [
                -1.6717766225146293,
                -1.4165861575791021,
                1.9565354010623817,
                -0.5286633292919765,
                1.472756589071564,
                -3.1238370188695823
            ]
        },
        {
            "positions": [
                -1.6167219321492223,
                -1.4357514736578634,
                1.9639246365752214,
                -0.5533301672856541,
                1.391824482421086,
                -3.064182499374507
            ]
        },
        {
            "positions": [
                -1.600533283930876,
                -1.4699582679175127,
                1.9786978858231514,
                -0.6161300459488814,
                1.2769177274777095,
                -2.935818663287941
            ]
        },
        {
            "positions": [
                -1.5843446357125293,
                -1.5041650621771618,
                1.9934711350710812,
                -0.6789299246121087,
                1.1620109725343333,
                -2.8074548272013753
            ]
        },
        {
            "positions": [
                -1.5681559874941828,
                -1.5383718564368112,
                2.008244384319011,
                -0.7417298032753359,
                1.0471042175909568,
                -2.6790909911148093
            ]
        },
        {
            "positions": [
                -1.5519673392758362,
                -1.5725786506964605,
                2.023017633566941,
                -0.8045296819385632,
                0.9321974626475806,
                -2.5507271550282438
            ]
        },
        {
            "positions": [
                -1.5357786910574898,
                -1.6067854449561099,
                2.0377908828148708,
                -0.8673295606017905,
                0.8172907077042042,
                -2.422363318941678
            ]
        },
        {
            "positions": [
                -1.5195900428391431,
                -1.640992239215759,
                2.052564132062801,
                -0.9301294392650178,
                0.7023839527608278,
                -2.293999482855112
            ]
        },
        {
            "positions": [
                -1.5034013946207967,
                -1.6751990334754083,
                2.0673373813107307,
                -0.992929317928245,
                0.5874771978174514,
                -2.1656356467685463
            ]
        },
        {
            "positions": [
                -1.48721274640245,
                -1.7094058277350577,
                2.0821106305586605,
                -1.0557291965914724,
                0.47257044287407524,
                -2.0372718106819803
            ]
        },
        {
            "positions": [
                -1.4710240981841036,
                -1.743612621994707,
                2.0968838798065903,
                -1.1185290752546995,
                0.3576636879306989,
                -1.9089079745954145
            ]
        },
        {
            "positions": [
                -1.454835449965757,
                -1.7778194162543561,
                2.1116571290545205,
                -1.1813289539179268,
                0.24275693298732248,
                -1.7805441385088487
            ]
        },
        {
            "positions": [
                -1.4386468017474106,
                -1.8120262105140055,
                2.1264303783024503,
                -1.2441288325811541,
                0.12785017804394627,
                -1.652180302422283
            ]
        },
        {
            "positions": [
                -1.422458153529064,
                -1.8462330047736548,
                2.14120362755038,
                -1.3069287112443815,
                0.012943423100569618,
                -1.5238164663357168
            ]
        },
        {
            "positions": [
                -1.4062695053107175,
                -1.880439799033304,
                2.1559768767983103,
                -1.3697285899076088,
                -0.10196333184280659,
                -1.395452630249151
            ]
        },
        {
            "positions": [
                -1.390080857092371,
                -1.9146465932929533,
                2.17075012604624,
                -1.432528468570836,
                -0.21687008678618303,
                -1.2670887941625852
            ]
        },
        {
            "positions": [
                -1.3738922088740244,
                -1.9488533875526026,
                2.18552337529417,
                -1.4953283472340633,
                -0.3317768417295592,
                -1.1387249580760195
            ]
        },
        {
            "positions": [
                -1.50090441422526,
                -1.8954713476137381,
                2.1869391056970726,
                -1.46560340586068,
                -0.27603895968080494,
                -1.2497488453165546
            ]
        },
        {
            "positions": [
                -1.6279166195764958,
                -1.8420893076748737,
                2.188354836099975,
                -1.4358784644872966,
                -0.22030107763205076,
                -1.3607727325570897
            ]
        },
        {
            "positions": [
                -1.7549288249277313,
                -1.7887072677360092,
                2.1897705665028777,
                -1.406153523113913,
                -0.16456319558329652,
                -1.4717966197976249
            ]
        },
        {
            "positions": [
                -1.881941030278967,
                -1.7353252277971447,
                2.1911862969057805,
                -1.3764285817405297,
                -0.1088253135345423,
                -1.58282050703816
            ]
        },
        {
            "positions": [
                -2.0089532356302024,
                -1.6819431878582805,
                2.192602027308683,
                -1.3467036403671464,
                -0.05308743148578804,
                -1.6938443942786954
            ]
        },
        {
            "positions": [
                -2.135965440981438,
                -1.628561147919416,
                2.1940177577115856,
                -1.316978698993763,
                0.0026504505629661446,
                -1.8048682815192305
            ]
        },
        {
            "positions": [
                -2.262977646332674,
                -1.5751791079805515,
                2.1954334881144884,
                -1.2872537576203795,
                0.058388332611720384,
                -1.9158921687597656
            ]
        },
        {
            "positions": [
                -2.3899898516839095,
                -1.521797068041687,
                2.1968492185173907,
                -1.2575288162469962,
                0.11412621466047457,
                -2.026916056000301
            ]
        },
        {
            "positions": [
                -2.5170020570351452,
                -1.4684150281028225,
                2.1982649489202934,
                -1.2278038748736129,
                0.16986409670922878,
                -2.137939943240836
            ]
        },
        {
            "positions": [
                -2.520294368298285,
                -1.4192194928803508,
                2.171389879447441,
                -1.1685493014935568,
                0.24934033928780844,
                -2.2954125628342683
            ]
        },
        {
            "positions": [
                -2.523586679561425,
                -1.3700239576578788,
                2.1445148099745888,
                -1.109294728113501,
                0.32881658186638807,
                -2.4528851824277007
            ]
        },
        {
            "positions": [
                -2.5268789908245646,
                -1.3208284224354068,
                2.1176397405017364,
                -1.050040154733445,
                0.40829282444496773,
                -2.6103578020211327
            ]
        },
        {
            "positions": [
                -2.5301713020877044,
                -1.271632887212935,
                2.090764671028884,
                -0.9907855813533891,
                0.48776906702354744,
                -2.767830421614565
            ]
        },
        {
            "positions": [
                -2.5116608430647496,
                -1.235815802786253,
                2.06495180525472,
                -0.9435726737860612,
                0.5486056412479882,
                -2.891591496954912
            ]
        },
        {
            "positions": [
                -2.4931503840417943,
                -1.1999987183595706,
                2.0391389394805555,
                -0.8963597662187335,
                0.6094422154724289,
                -3.0153525722952588
            ]
        },
        {
            "positions": [
                -2.4746399250188396,
                -1.1641816339328885,
                2.0133260737063914,
                -0.8491468586514056,
                0.6702787896968697,
                -3.1391136476356056
            ]
        }
    ]
}