{
    "goal": {
        "global_pose": {
            "orientation": {
                "w": 0.005598929693374612,
                "x": 0.007748599140229565,
                "y": 0.7110244013736278,
                "z": -0.7031023480610252
            },
            "position": {
                "x": 0.1141497679147869,
                "y": -0.7141253447532654,
                "z": 0.3711530566215515
            }
        },
        "name": "move_to_auspresseinheit_B"
    },
    "id": "RRTConnect_move_to_auspresseinheit_B_146",
    "joint_names": [
        "shoulder_pan_joint",
        "shoulder_lift_joint",
        "elbow_joint",
        "wrist_1_joint",
        "wrist_2_joint",
        "wrist_3_joint"
    ],
    "metrics": {
        "cart_traj_len": 0.5652069047293098,
        "distance_elbow_joint": 0.06477473984246784,
        "distance_shoulder_lift_joint": 0.29424060097742766,
        "distance_shoulder_pan_joint": 0.5782065023035372,
        "distance_wrist_1_joint": 0.3337940308219365,
        "distance_wrist_2_joint": 0.9899390658123604,
        "distance_wrist_3_joint": 0.006276469383747152,
        "smoothness": 2.5376526478085547e-16,
        "time": 0.062146622,
        "traj_len": 1.505732847865609,
        "weighted_distance": 1.8982932978186662
    },
    "planner": "RRTConnect",
    "start": {
        "state": {
            "elbow_joint": 2.0193083361928714,
            "shoulder_lift_joint": -1.1220246554650708,
            "shoulder_pan_joint": -1.0952077554168747,
            "wrist_1_joint": -0.8559753972642168,
            "wrist_2_joint": 0.4759566250798843,
            "wrist_3_joint": -3.1240929996934557
        }
    },
    "waypoints": [
        {
            "positions": [
                -1.0952077554168747,
                -1.1220246554650708,
                2.0193083361928714,
                -0.8559753972642168,
                0.4759566250798843,
                -3.1240929996934557
            ]
        },
        {
            "positions": [
                -1.1915755058007975,
                -1.1710647556279754,
                2.008512546219127,
                -0.800343058793894,
                0.6409464693819443,
                -3.123046921462831
            ]
        },
        {
            "positions": [
                -1.2879432561847204,
                -1.22010485579088,
                1.9977167562453821,
                -0.7447107203235713,
                0.8059363136840043,
                -3.1220008432322066
            ]
        },
        {
            "positions": [
                -1.3843110065686433,
                -1.2691449559537846,
                1.9869209662716374,
                -0.6890783818532485,
                0.9709261579860644,
                -3.1209547650015823
            ]
        },
        {
            "positions": [
                -1.4806787569525661,
                -1.3181850561166892,
                1.9761251762978929,
                -0.6334460433829259,
                1.1359160022881245,
                -3.1199086867709576
            ]
        },
        {
            "positions": [
                -1.577046507336489,
                -1.3672251562795938,
                1.9653293863241483,
                -0.5778137049126031,
                1.3009058465901846,
                -3.118862608540333
            ]
        },
        {
            "positions": [
                -1.6734142577204119,
                -1.4162652564424985,
                1.9545335963504036,
                -0.5221813664422803,
                1.4658956908922447,
                -3.1178165303097085
            ]
        }
    ]
}