{
    "goal": {
        "global_pose": {
            "orientation": {
                "w": 0.7047431493862688,
                "x": -0.7094548369677653,
                "y": 0.0024358444001904,
                "z": -0.0022348060817251984
            },
            "position": {
                "x": -0.39052492380142206,
                "y": 0.3671506643295288,
                "z": 0.19426114857196808
            }
        },
        "name": "move_to_magneteinheit_D"
    },
    "id": "RRTConnect_move_to_magneteinheit_D_23",
    "joint_names": [
        "shoulder_pan_joint",
        "shoulder_lift_joint",
        "elbow_joint",
        "wrist_1_joint",
        "wrist_2_joint",
        "wrist_3_joint"
    ],
    "metrics": {
        "cart_traj_len": 4.651253325407689,
        "distance_elbow_joint": 3.2311252855887913,
        "distance_shoulder_lift_joint": 1.6981876929574804,
        "distance_shoulder_pan_joint": 3.5008184245895237,
        "distance_wrist_1_joint": 1.5441027347433953,
        "distance_wrist_2_joint": 0.44878880339156113,
        "distance_wrist_3_joint": 3.7677892093310206,
        "smoothness": 0.45339122193630343,
        "time": 0.13596385,
        "traj_len": 3.7670694379851524,
        "weighted_distance": 4.870244563407341
    },
    "planner": "RRTConnect",
    "start": {
        "state": {
            "elbow_joint": 0.749534889911806,
            "shoulder_lift_joint": -0.6476975780787326,
            "shoulder_pan_joint": -2.711696901376241,
            "wrist_1_joint": -0.07506478083263063,
            "wrist_2_joint": 0.43296659715538205,
            "wrist_3_joint": -3.14703540197715
        }
    },
    "waypoints": [
        {
            "positions": [
                -2.711696901376241,
                -0.6476975780787326,
                0.749534889911806,
                -0.07506478083263063,
                0.43296659715538205,
                -3.14703540197715
            ]
        },
        {
            "positions": [
                -2.7040211309276048,
                -0.7057807697206178,
                0.6516866037222263,
                -0.08253421228651221,
                0.47091641903103243,
                -3.024318251674776
            ]
        },
        {
            "positions": [
                -2.6963453604789684,
                -0.7638639613625029,
                0.5538383175326467,
                -0.0900036437403938,
                0.5088662409066828,
                -2.901601101372402
            ]
        },
        {
            "positions": [
                -2.5853252255477925,
                -0.8061075205936512,
                0.4657037833138396,
                -0.059646783552333334,
                0.5029414862573629,
                -2.7837377086746335
            ]
        },
        {
            "positions": [
                -2.4743050906166166,
                -0.8483510798247994,
                0.37756924909503253,
                -0.02928992336427287,
                0.4970167316080431,
                -2.665874315976865
            ]
        },
        {
            "positions": [
                -2.363284955685441,
                -0.8905946390559477,
                0.2894347148762254,
                0.0010669368237875981,
                0.4910919769587233,
                -2.548010923279097
            ]
        },
        {
            "positions": [
                -2.2522648207542653,
                -0.932838198287096,
                0.20130018065741834,
                0.031423797011848054,
                0.48516722230940346,
                -2.4301475305813285
            ]
        },
        {
            "positions": [
                -2.1412446858230894,
                -0.9750817575182442,
                0.11316564643861121,
                0.06178065719990852,
                0.47924246766008366,
                -2.31228413788356
            ]
        },
        {
            "positions": [
                -2.0302245508919134,
                -1.0173253167493925,
                0.02503111221980414,
                0.09213751738796899,
                0.47331771301076386,
                -2.1944207451857918
            ]
        },
        {
            "positions": [
                -1.9192044159607378,
                -1.0595688759805408,
                -0.06310342199900298,
                0.12249437757602943,
                0.467392958361444,
                -2.0765573524880234
            ]
        },
        {
            "positions": [
                -1.8081842810295619,
                -1.1018124352116891,
                -0.15123795621781,
                0.1528512377640899,
                0.4614682037121242,
                -1.9586939597902553
            ]
        },
        {
            "positions": [
                -1.6971641460983862,
                -1.1440559944428372,
                -0.23937249043661712,
                0.18320809795215034,
                0.45554344906280436,
                -1.840830567092487
            ]
        },
        {
            "positions": [
                -1.5861440111672103,
                -1.1862995536739858,
                -0.32750702465542425,
                0.21356495814021084,
                0.44961869441348457,
                -1.7229671743947186
            ]
        },
        {
            "positions": [
                -1.4751238762360344,
                -1.2285431129051338,
                -0.41564155887423127,
                0.24392181832827128,
                0.4436939397641647,
                -1.6051037816969502
            ]
        },
        {
            "positions": [
                -1.3641037413048587,
                -1.2707866721362822,
                -0.5037760930930384,
                0.2742786785163318,
                0.4377691851148449,
                -1.4872403889991819
            ]
        },
        {
            "positions": [
                -1.2530836063736828,
                -1.3130302313674305,
                -0.5919106273118455,
                0.3046355387043922,
                0.4318444304655251,
                -1.3693769963014135
            ]
        },
        {
            "positions": [
                -1.142063471442507,
                -1.3552737905985788,
                -0.6800451615306526,
                0.3349923988924527,
                0.42591967581620527,
                -1.2515136036036452
            ]
        },
        {
            "positions": [
                -1.031043336511331,
                -1.397517349829727,
                -0.7681796957494598,
                0.3653492590805132,
                0.41999492116688547,
                -1.1336502109058768
            ]
        },
        {
            "positions": [
                -0.9200232015801553,
                -1.4397609090608752,
                -0.8563142299682667,
                0.3957061192685736,
                0.4140701665175657,
                -1.0157868182081087
            ]
        },
        {
            "positions": [
                -0.8090030666489794,
                -1.4820044682920237,
                -0.944448764187074,
                0.42606297945663407,
                0.4081454118682458,
                -0.8979234255103399
            ]
        },
        {
            "positions": [
                -0.6979829317178037,
                -1.5242480275231718,
                -1.032583298405881,
                0.45641983964469446,
                0.402220657218926,
                -0.780060032812572
            ]
        },
        {
            "positions": [
                -0.5869627967866275,
                -1.5664915867543203,
                -1.120717832624688,
                0.48677669983275496,
                0.3962959025696062,
                -0.6621966401148036
            ]
        },
        {
            "positions": [
                -0.4759426618554521,
                -1.6087351459854684,
                -1.2088523668434952,
                0.5171335600208155,
                0.3903711479202864,
                -0.5443332474170353
            ]
        },
        {
            "positions": [
                -0.3649225269242762,
                -1.6509787052166167,
                -1.2969869010623023,
                0.547490420208876,
                0.3844463932709665,
                -0.4264698547192669
            ]
        },
        {
            "positions": [
                -0.2539023919931003,
                -1.693222264447765,
                -1.3851214352811092,
                0.5778472803969363,
                0.3785216386216467,
                -0.30860646202149855
            ]
        },
        {
            "positions": [
                -0.14288225706192437,
                -1.7354658236789131,
                -1.4732559694999163,
                0.6082041405849968,
                0.37259688397232693,
                -0.1907430693237302
            ]
        },
        {
            "positions": [
                -0.031862122130748904,
                -1.7777093829100614,
                -1.5613905037187235,
                0.6385610007730573,
                0.3666721293230071,
                -0.07287967662596184
            ]
        },
        {
            "positions": [
                0.079158012800427,
                -1.8199529421412097,
                -1.6495250379375306,
                0.6689178609611178,
                0.3607473746736873,
                0.04498371607180651
            ]
        },
        {
            "positions": [
                0.1901781477316029,
                -1.862196501372358,
                -1.7376595721563377,
                0.6992747211491782,
                0.3548226200243675,
                0.16284710876957487
            ]
        },
        {
            "positions": [
                0.3011982826627789,
                -1.9044400606035063,
                -1.825794106375145,
                0.7296315813372387,
                0.34889786537504763,
                0.2807105014673432
            ]
        },
        {
            "positions": [
                0.2574512114440414,
                -1.9721694959528429,
                -1.9277422381439497,
                0.8463639723417953,
                0.35199599951252164,
                0.2366092073369975
            ]
        },
        {
            "positions": [
                0.21370414022530376,
                -2.0398989313021794,
                -2.029690369912754,
                0.9630963633463518,
                0.35509413364999565,
                0.19250791320665178
            ]
        },
        {
            "positions": [
                0.16995706900656618,
                -2.1076283666515163,
                -2.131638501681559,
                1.0798287543509084,
                0.35819226778746965,
                0.14840661907630606
            ]
        },
        {
            "positions": [
                0.1262099977878286,
                -2.175357802000853,
                -2.2335866334503636,
                1.196561145355465,
                0.36129040192494366,
                0.10430532494596034
            ]
        },
        {
            "positions": [
                0.08246292656909102,
                -2.2430872373501893,
                -2.3355347652191685,
                1.3132935363600218,
                0.36438853606241767,
                0.06020403081561462
            ]
        },
        {
            "positions": [
                0.038715855350353434,
                -2.310816672699526,
                -2.437482896987973,
                1.4300259273645783,
                0.3674866701998917,
                0.016102736685268904
            ]
        },
        {
            "positions": [
                -0.07400455126868531,
                -2.2932823735311825,
                -2.415429147643467,
                1.4345930777299083,
                0.27032068055800107,
                0.05382050723749524
            ]
        },
        {
            "positions": [
                -0.18672495788772406,
                -2.2757480743628387,
                -2.393375398298961,
                1.4391602280952382,
                0.17315469091611044,
                0.09153827778972158
            ]
        }
    ]
}