{
    "goal": {
        "global_pose": {
            "orientation": {
                "w": 0.7031023480610252,
                "x": -0.7110244013736278,
                "y": 0.0077485991402295624,
                "z": 0.005598929693374583
            },
            "position": {
                "x": -0.8841497679147869,
                "y": 0.44412534475326537,
                "z": 0.3711530566215515
            }
        },
        "name": "move_to_auspresseinheit_D"
    },
    "id": "RRTConnect_move_to_auspresseinheit_D_100",
    "joint_names": [
        "shoulder_pan_joint",
        "shoulder_lift_joint",
        "elbow_joint",
        "wrist_1_joint",
        "wrist_2_joint",
        "wrist_3_joint"
    ],
    "metrics": {
        "cart_traj_len": 0.34283176768454565,
        "distance_elbow_joint": 0.6338743098637782,
        "distance_shoulder_lift_joint": 0.11896909176635795,
        "distance_shoulder_pan_joint": 0.13407865854099563,
        "distance_wrist_1_joint": 0.5207549759328467,
        "distance_wrist_2_joint": 1.4405569073515945,
        "distance_wrist_3_joint": 0.00917653980265598,
        "smoothness": 0.0,
        "time": 0.053244777,
        "traj_len": 1.6903876724758227,
        "weighted_distance": 2.199335228233291
    },
    "planner": "RRTConnect",
    "start": {
        "state": {
            "elbow_joint": -1.8275523626775212,
            "shoulder_lift_joint": -2.126789852344167,
            "shoulder_pan_joint": -0.03513704404078235,
            "wrist_1_joint": -2.347782403156801,
            "wrist_2_joint": -1.6058999987535132,
            "wrist_3_joint": -3.0880379163319196
        }
    },
    "waypoints": [
        {
            "positions": [
                -0.03513704404078235,
                -2.126789852344167,
                -1.8275523626775212,
                -2.347782403156801,
                -1.6058999987535132,
                -3.0880379163319196
            ]
        },
        {
            "positions": [
                -0.0518968763584068,
                -2.1416609888149614,
                -1.748318073944549,
                -2.4128767751484066,
                -1.425830385334564,
                -3.0891849838072516
            ]
        },
        {
            "positions": [
                -0.06865670867603126,
                -2.1565321252857563,
                -1.6690837852115767,
                -2.4779711471400123,
                -1.2457607719156145,
                -3.0903320512825836
            ]
        },
        {
            "positions": [
                -0.0854165409936557,
                -2.1714032617565513,
                -1.5898494964786043,
                -2.5430655191316185,
                -1.0656911584966653,
                -3.0914791187579156
            ]
        },
        {
            "positions": [
                -0.10217637331128016,
                -2.186274398227346,
                -1.510615207745632,
                -2.608159891123224,
                -0.885621545077716,
                -3.0926261862332476
            ]
        },
        {
            "positions": [
                -0.11893620562890461,
                -2.2011455346981403,
                -1.4313809190126598,
                -2.67325426311483,
                -0.7055519316587666,
                -3.0937732537085796
            ]
        },
        {
            "positions": [
                -0.13569603794652907,
                -2.2160166711689353,
                -1.3521466302796874,
                -2.738348635106436,
                -0.5254823182398174,
                -3.0949203211839116
            ]
        },
        {
            "positions": [
                -0.15245587026415353,
                -2.2308878076397303,
                -1.2729123415467152,
                -2.803443007098042,
                -0.34541270482086794,
                -3.0960673886592436
            ]
        },
        {
            "positions": [
                -0.16921570258177798,
                -2.245758944110525,
                -1.193678052813743,
                -2.8685373790896476,
                -0.16534309140191877,
                -3.0972144561345756
            ]
        }
    ]
}