{
    "goal": {
        "global_pose": {
            "orientation": {
                "w": 0.7047431468963623,
                "x": -0.7094548344612122,
                "y": 0.0024358443915843964,
                "z": -0.0022348060738295317
            },
            "position": {
                "x": 0.6094750761985779,
                "y": 0.3671506643295288,
                "z": 0.19426114857196808
            }
        },
        "name": "move_to_magneteinheit_A"
    },
    "id": "RRTConnect_move_to_magneteinheit_A_139",
    "joint_names": [
        "shoulder_pan_joint",
        "shoulder_lift_joint",
        "elbow_joint",
        "wrist_1_joint",
        "wrist_2_joint",
        "wrist_3_joint"
    ],
    "metrics": {
        "cart_traj_len": 3.2256990854910974,
        "distance_elbow_joint": 3.9208087862555985,
        "distance_shoulder_lift_joint": 0.6650164771472502,
        "distance_shoulder_pan_joint": 3.1443676672857324,
        "distance_wrist_1_joint": 3.4948201371889795,
        "distance_wrist_2_joint": 1.4334880446684855,
        "distance_wrist_3_joint": 1.9139353349685455,
        "smoothness": 0.11856893438935853,
        "time": 0.103381674,
        "traj_len": 3.817386075250261,
        "weighted_distance": 4.829970527788874
    },
    "planner": "RRTConnect",
    "start": {
        "state": {
            "elbow_joint": -1.9196185241190666,
            "shoulder_lift_joint": -1.2443396400964142,
            "shoulder_pan_joint": 2.6996025414629847,
            "wrist_1_joint": -1.5485510000780065,
            "wrist_2_joint": -1.5709468930060704,
            "wrist_3_joint": 0.4420197071253992
        }
    },
    "waypoints": [
        {
            "positions": [
                2.6996025414629847,
                -1.2443396400964142,
                -1.9196185241190666,
                -1.5485510000780065,
                -1.5709468930060704,
                0.4420197071253992
            ]
        },
        {
            "positions": [
                2.562969373548154,
                -1.2496180067807032,
                -1.8221182724113378,
                -1.5102590406191028,
                -1.5320549366866607,
                0.37908814801163515
            ]
        },
        {
            "positions": [
                2.426336205633323,
                -1.2548963734649923,
                -1.724618020703609,
                -1.4719670811601993,
                -1.4931629803672513,
                0.3161565888978711
            ]
        },
        {
            "positions": [
                2.289703037718492,
                -1.2601747401492813,
                -1.6271177689958805,
                -1.4336751217012955,
                -1.4542710240478418,
                0.2532250297841071
            ]
        },
        {
            "positions": [
                2.1530698698036614,
                -1.2654531068335704,
                -1.5296175172881514,
                -1.3953831622423918,
                -1.4153790677284321,
                0.19029347067034308
            ]
        },
        {
            "positions": [
                2.0164367018888307,
                -1.2707314735178594,
                -1.4321172655804228,
                -1.3570912027834883,
                -1.3764871114090225,
                0.12736191155657905
            ]
        },
        {
            "positions": [
                1.8798035339739998,
                -1.2760098402021485,
                -1.334617013872694,
                -1.3187992433245845,
                -1.337595155089613,
                0.06443035244281503
            ]
        },
        {
            "positions": [
                1.7431703660591689,
                -1.2812882068864375,
                -1.2371167621649652,
                -1.2805072838656808,
                -1.2987031987702036,
                0.001498793329051007
            ]
        },
        {
            "positions": [
                1.6065371981443382,
                -1.2865665735707266,
                -1.1396165104572364,
                -1.2422153244067773,
                -1.259811242450794,
                -0.06143276578471302
            ]
        },
        {
            "positions": [
                1.4699040302295074,
                -1.2918449402550156,
                -1.0421162587495076,
                -1.2039233649478736,
                -1.2209192861313842,
                -0.12436432489847704
            ]
        },
        {
            "positions": [
                1.3332708623146765,
                -1.2971233069393047,
                -0.944616007041779,
                -1.1656314054889698,
                -1.1820273298119748,
                -0.18729588401224107
            ]
        },
        {
            "positions": [
                1.1966376943998456,
                -1.3024016736235937,
                -0.84711575533405,
                -1.1273394460300663,
                -1.1431353734925653,
                -0.2502274431260051
            ]
        },
        {
            "positions": [
                1.0600045264850149,
                -1.3076800403078828,
                -0.7496155036263215,
                -1.0890474865711626,
                -1.1042434171731557,
                -0.3131590022397691
            ]
        },
        {
            "positions": [
                0.9233713585701839,
                -1.3129584069921718,
                -0.6521152519185924,
                -1.0507555271122588,
                -1.065351460853746,
                -0.37609056135353314
            ]
        },
        {
            "positions": [
                0.7867381906553532,
                -1.3182367736764609,
                -0.5546150002108639,
                -1.0124635676533553,
                -1.0264595045343365,
                -0.43902212046729716
            ]
        },
        {
            "positions": [
                0.6501050227405223,
                -1.32351514036075,
                -0.4571147485031348,
                -0.9741716081944516,
                -0.987567548214927,
                -0.5019536795810612
            ]
        },
        {
            "positions": [
                0.5134718548256916,
                -1.328793507045039,
                -0.35961449679540625,
                -0.935879648735548,
                -0.9486755918955174,
                -0.5648852386948252
            ]
        },
        {
            "positions": [
                0.3768386869108604,
                -1.334071873729328,
                -0.26211424508767744,
                -0.8975876892766443,
                -0.9097836355761079,
                -0.6278167978085892
            ]
        },
        {
            "positions": [
                0.24020551899603015,
                -1.339350240413617,
                -0.16461399337994864,
                -0.8592957298177407,
                -0.8708916792566983,
                -0.6907483569223533
            ]
        },
        {
            "positions": [
                0.10357235108119922,
                -1.344628607097906,
                -0.06711374167221978,
                -0.821003770358837,
                -0.8319997229372887,
                -0.7536799160361172
            ]
        },
        {
            "positions": [
                0.08153056787208698,
                -1.319601046460983,
                0.05515588439294217,
                -0.678989422106477,
                -0.7968820431394965,
                -0.7261232107115809
            ]
        },
        {
            "positions": [
                0.05948878466297475,
                -1.29457348582406,
                0.17742551045810412,
                -0.536975073854117,
                -0.7617643633417044,
                -0.6985665053870446
            ]
        },
        {
            "positions": [
                0.03744700145386251,
                -1.269545925187137,
                0.29969513652326607,
                -0.394960725601757,
                -0.7266466835439123,
                -0.6710098000625083
            ]
        },
        {
            "positions": [
                0.015405218244750274,
                -1.2445183645502138,
                0.421964762588428,
                -0.25294637734939707,
                -0.69152900374612,
                -0.6434530947379721
            ]
        },
        {
            "positions": [
                -0.006636564964361963,
                -1.2194908039132908,
                0.5442343886535901,
                -0.11093202909703692,
                -0.6564113239483278,
                -0.6158963894134357
            ]
        },
        {
            "positions": [
                -0.0286783481734742,
                -1.1944632432763678,
                0.666504014718752,
                0.031082319155323,
                -0.6212936441505357,
                -0.5883396840888995
            ]
        },
        {
            "positions": [
                -0.050720131382586436,
                -1.1694356826394448,
                0.7887736407839139,
                0.17309666740768304,
                -0.5861759643527434,
                -0.5607829787643632
            ]
        },
        {
            "positions": [
                -0.07276191459169867,
                -1.1444081220025217,
                0.9110432668490758,
                0.31511101566004285,
                -0.5510582845549513,
                -0.533226273439827
            ]
        },
        {
            "positions": [
                -0.09480369780081091,
                -1.1193805613655985,
                1.0333128929142377,
                0.457125363912403,
                -0.5159406047571591,
                -0.5056695681152907
            ]
        },
        {
            "positions": [
                -0.11684548100992315,
                -1.0943530007286755,
                1.1555825189793998,
                0.5991397121647631,
                -0.48082292495936696,
                -0.4781128627907544
            ]
        },
        {
            "positions": [
                -0.13888726421903538,
                -1.0693254400917525,
                1.2778521450445617,
                0.7411540604171228,
                -0.4457052451615748,
                -0.45055615746621813
            ]
        },
        {
            "positions": [
                -0.16092904742814762,
                -1.0442978794548294,
                1.4001217711097236,
                0.8831684086694831,
                -0.4105875653637826,
                -0.42299945214168183
            ]
        },
        {
            "positions": [
                -0.12690936580064707,
                -1.0107793960715232,
                1.4809169544935314,
                1.0219549552275784,
                -0.3756459345577471,
                -0.374045000474049
            ]
        },
        {
            "positions": [
                -0.09288968417314654,
                -0.9772609126882171,
                1.5617121378773393,
                1.1607415017856735,
                -0.34070430375171157,
                -0.3250905488064162
            ]
        },
        {
            "positions": [
                -0.05887000254564599,
                -0.9437424293049109,
                1.6425073212611472,
                1.2995280483437686,
                -0.305762672945676,
                -0.2761360971387833
            ]
        },
        {
            "positions": [
                -0.024850320918145458,
                -0.9102239459216047,
                1.723302504644955,
                1.4383145949018639,
                -0.2708210421396405,
                -0.2271816454711505
            ]
        },
        {
            "positions": [
                0.00916936070935509,
                -0.8767054625382986,
                1.8040976880287631,
                1.5771011414599592,
                -0.23587941133360493,
                -0.17822719380351762
            ]
        },
        {
            "positions": [
                0.04318904233685564,
                -0.8431869791549924,
                1.884892871412571,
                1.7158876880180542,
                -0.20093778052756942,
                -0.1292727421358848
            ]
        },
        {
            "positions": [
                0.07720872396435619,
                -0.8096684957716862,
                1.9656880547963789,
                1.8546742345761495,
                -0.16599614972153387,
                -0.08031829046825198
            ]
        },
        {
            "positions": [
                0.12290703096645059,
                -0.7799010969521478,
                2.0011902621365323,
                1.9462691371109726,
                -0.13745884833758482,
                -0.03544420422908737
            ]
        }
    ]
}