{
    "goal": {
        "global_pose": {
            "orientation": {
                "w": -0.4816463035849501,
                "x": 0.5182115481033762,
                "y": 0.4908360881923453,
                "z": -0.5084816262002911
            },
            "position": {
                "x": -0.8240239810943604,
                "y": -0.300875300988555,
                "z": 0.16403168439865112
            }
        },
        "name": "move_to_storage_C"
    },
    "id": "RRTConnect_move_to_storage_C_45",
    "joint_names": [
        "shoulder_pan_joint",
        "shoulder_lift_joint",
        "elbow_joint",
        "wrist_1_joint",
        "wrist_2_joint",
        "wrist_3_joint"
    ],
    "metrics": {
        "cart_traj_len": 0.5766505749955748,
        "distance_elbow_joint": 0.2598073516127952,
        "distance_shoulder_lift_joint": 0.1883981070270283,
        "distance_shoulder_pan_joint": 0.49471498206049613,
        "distance_wrist_1_joint": 0.09017018753995931,
        "distance_wrist_2_joint": 1.0719414611710185,
        "distance_wrist_3_joint": 0.07192415634623961,
        "smoothness": 0.0,
        "time": 0.066060955,
        "traj_len": 1.4754512007374345,
        "weighted_distance": 1.866257272500497
    },
    "planner": "RRTConnect",
    "start": {
        "state": {
            "elbow_joint": 2.010868314990456,
            "shoulder_lift_joint": -1.1634956873337592,
            "shoulder_pan_joint": -2.4736205022346125,
            "wrist_1_joint": -0.8367026794202681,
            "wrist_2_joint": 0.6746043897044499,
            "wrist_3_joint": -3.1496632123970403
        }
    },
    "waypoints": [
        {
            "positions": [
                -2.4736205022346125,
                -1.1634956873337592,
                2.010868314990456,
                -0.8367026794202681,
                0.6746043897044499,
                -3.1496632123970403
            ]
        },
        {
            "positions": [
                -2.5560729992446953,
                -1.1320960028292544,
                1.9675670897216566,
                -0.8216743148302749,
                0.8532612998996196,
                -3.1376758530060003
            ]
        },
        {
            "positions": [
                -2.6385254962547777,
                -1.1006963183247498,
                1.9242658644528574,
                -0.8066459502402816,
                1.0319182100947895,
                -3.1256884936149603
            ]
        },
        {
            "positions": [
                -2.7209779932648606,
                -1.069296633820245,
                1.8809646391840582,
                -0.7916175856502885,
                1.2105751202899593,
                -3.1137011342239207
            ]
        },
        {
            "positions": [
                -2.8034304902749434,
                -1.0378969493157404,
                1.837663413915259,
                -0.7765892210602953,
                1.3892320304851289,
                -3.1017137748328807
            ]
        },
        {
            "positions": [
                -2.885882987285026,
                -1.0064972648112356,
                1.7943621886464598,
                -0.761560856470302,
                1.5678889406802987,
                -3.0897264154418407
            ]
        },
        {
            "positions": [
                -2.9683354842951086,
                -0.9750975803067309,
                1.7510609633776606,
                -0.7465324918803088,
                1.7465458508754685,
                -3.0777390560508007
            ]
        }
    ]
}