{
    "goal": {
        "global_pose": {
            "orientation": {
                "w": -0.00223480608172531,
                "x": 0.0024358444001904467,
                "y": 0.7094548369677653,
                "z": -0.704743149386269
            },
            "position": {
                "x": -0.37947507619857795,
                "y": -0.6371506643295288,
                "z": 0.19426114857196808
            }
        },
        "name": "move_to_magneteinheit_C"
    },
    "id": "RRTConnect_move_to_magneteinheit_C_114",
    "joint_names": [
        "shoulder_pan_joint",
        "shoulder_lift_joint",
        "elbow_joint",
        "wrist_1_joint",
        "wrist_2_joint",
        "wrist_3_joint"
    ],
    "metrics": {
        "cart_traj_len": 6.808431320805304,
        "distance_elbow_joint": 1.7527876320372147,
        "distance_shoulder_lift_joint": 2.651696563117193,
        "distance_shoulder_pan_joint": 10.56790788382781,
        "distance_wrist_1_joint": 3.6729106427883136,
        "distance_wrist_2_joint": 2.765282369747817,
        "distance_wrist_3_joint": 5.355926616524969,
        "smoothness": 0.49965700638252836,
        "time": 0.20967871400000002,
        "traj_len": 5.1736362172115795,
        "weighted_distance": 6.626956915027391
    },
    "planner": "RRTConnect",
    "start": {
        "state": {
            "elbow_joint": 1.9565354010623817,
            "shoulder_lift_joint": -1.4165861575791021,
            "shoulder_pan_joint": -1.6717766225146293,
            "wrist_1_joint": -0.5286633292919765,
            "wrist_2_joint": 1.472756589071564,
            "wrist_3_joint": -3.1238370188695823
        }
    },
    "waypoints": [
        {
            "positions": [
                -1.6717766225146293,
                -1.4165861575791021,
                1.9565354010623817,
                -0.5286633292919765,
                1.472756589071564,
                -3.1238370188695823
            ]
        },
        {
            "positions": [
                -1.5392746606586456,
                -1.449619540871358,
                1.9824785878887476,
                -0.4368781644835074,
                1.420668294463585,
                -3.0669238809133925
            ]
        },
        {
            "positions": [
                -1.4067726988026619,
                -1.4826529241636137,
                2.0084217747151136,
                -0.34509299967503837,
                1.368579999855606,
                -3.0100107429572027
            ]
        },
        {
            "positions": [
                -1.274270736946678,
                -1.5156863074558693,
                2.03436496154148,
                -0.2533078348665693,
                1.316491705247627,
                -2.9530976050010134
            ]
        },
        {
            "positions": [
                -1.1417687750906942,
                -1.548719690748125,
                2.0603081483678456,
                -0.16152267005810034,
                1.264403410639648,
                -2.8961844670448236
            ]
        },
        {
            "positions": [
                -1.0092668132347105,
                -1.581753074040381,
                2.086251335194212,
                -0.06973750524963129,
                1.2123151160316692,
                -2.8392713290886338
            ]
        },
        {
            "positions": [
                -0.8767648513787267,
                -1.6147864573326367,
                2.1121945220205776,
                0.022047659558837807,
                1.1602268214236902,
                -2.782358191132444
            ]
        },
        {
            "positions": [
                -0.744262889522743,
                -1.6478198406248923,
                2.1381377088469438,
                0.11383282436730668,
                1.1081385268157113,
                -2.7254450531762546
            ]
        },
        {
            "positions": [
                -0.6117609276667593,
                -1.680853223917148,
                2.1640808956733095,
                0.20561798917577578,
                1.0560502322077323,
                -2.668531915220065
            ]
        },
        {
            "positions": [
                -0.47925896581077554,
                -1.713886607209404,
                2.1900240824996757,
                0.2974031539842448,
                1.0039619375997533,
                -2.611618777263875
            ]
        },
        {
            "positions": [
                -0.3467570039547916,
                -1.7469199905016597,
                2.2159672693260415,
                0.38918831879271387,
                0.9518736429917743,
                -2.5547056393076852
            ]
        },
        {
            "positions": [
                -0.21425504209880786,
                -1.7799533737939153,
                2.2419104561524077,
                0.48097348360118297,
                0.8997853483837954,
                -2.497792501351496
            ]
        },
        {
            "positions": [
                -0.08175308024282413,
                -1.812986757086171,
                2.267853642978774,
                0.5727586484096521,
                0.8476970537758164,
                -2.440879363395306
            ]
        },
        {
            "positions": [
                0.050748881613159685,
                -1.8460201403784269,
                2.2937968298051397,
                0.664543813218121,
                0.7956087591678375,
                -2.3839662254391163
            ]
        },
        {
            "positions": [
                0.20124575222427157,
                -1.8827029859759126,
                2.253303299995901,
                0.688167630565884,
                0.7431233307604175,
                -2.292467155873646
            ]
        },
        {
            "positions": [
                0.3517426228353835,
                -1.9193858315733983,
                2.212809770186662,
                0.7117914479136472,
                0.6906379023529976,
                -2.2009680863081758
            ]
        },
        {
            "positions": [
                0.5022394934464954,
                -1.9560686771708842,
                2.172316240377423,
                0.7354152652614103,
                0.6381524739455776,
                -2.1094690167427053
            ]
        },
        {
            "positions": [
                0.6527363640576073,
                -1.9927515227683699,
                2.1318227105681844,
                0.7590390826091734,
                0.5856670455381576,
                -2.017969947177235
            ]
        },
        {
            "positions": [
                0.8032332346687192,
                -2.0294343683658553,
                2.0913291807589456,
                0.7826628999569366,
                0.5331816171307378,
                -1.9264708776117647
            ]
        },
        {
            "positions": [
                0.9537301052798312,
                -2.0661172139633415,
                2.050835650949707,
                0.8062867173046997,
                0.48069618872331776,
                -1.8349718080462947
            ]
        },
        {
            "positions": [
                1.1042269758909429,
                -2.102800059560827,
                2.0103421211404684,
                0.8299105346524628,
                0.42821076031589783,
                -1.7434727384808242
            ]
        },
        {
            "positions": [
                1.2547238465020547,
                -2.139482905158313,
                1.9698485913312296,
                0.8535343520002259,
                0.3757253319084779,
                -1.651973668915354
            ]
        },
        {
            "positions": [
                1.4052207171131668,
                -2.1761657507557985,
                1.9293550615219908,
                0.8771581693479891,
                0.3232399035010579,
                -1.5604745993498836
            ]
        },
        {
            "positions": [
                1.5557175877242786,
                -2.2128485963532842,
                1.888861531712752,
                0.9007819866957522,
                0.27075447509363804,
                -1.4689755297844134
            ]
        },
        {
            "positions": [
                1.7062144583353906,
                -2.24953144195077,
                1.8483680019035131,
                0.9244058040435154,
                0.21826904668621794,
                -1.3774764602189429
            ]
        },
        {
            "positions": [
                1.8567113289465025,
                -2.2862142875482556,
                1.8078744720942743,
                0.9480296213912784,
                0.16578361827879806,
                -1.2859773906534728
            ]
        },
        {
            "positions": [
                2.0072081995576148,
                -2.3228971331457413,
                1.7673809422850355,
                0.9716534387390416,
                0.11329818987137807,
                -1.1944783210880023
            ]
        },
        {
            "positions": [
                2.1577050701687264,
                -2.359579978743227,
                1.726887412475797,
                0.9952772560868046,
                0.0608127614639582,
                -1.102979251522532
            ]
        },
        {
            "positions": [
                2.3082019407798384,
                -2.396262824340713,
                1.686393882666558,
                1.0189010734345678,
                0.008327333056538211,
                -1.0114801819570618
            ]
        },
        {
            "positions": [
                2.45869881139095,
                -2.4329456699381984,
                1.6459003528573193,
                1.0425248907823308,
                -0.044158095350881665,
                -0.9199811123915915
            ]
        },
        {
            "positions": [
                2.609195682002062,
                -2.4696285155356845,
                1.6054068230480805,
                1.066148708130094,
                -0.09664352375830165,
                -0.828482042826121
            ]
        },
        {
            "positions": [
                2.759692552613174,
                -2.50631136113317,
                1.5649132932388419,
                1.0897725254778572,
                -0.14912895216572164,
                -0.736982973260651
            ]
        },
        {
            "positions": [
                2.910189423224286,
                -2.542994206730656,
                1.524419763429603,
                1.1133963428256204,
                -0.20161438057314163,
                -0.6454839036951805
            ]
        },
        {
            "positions": [
                3.060686293835398,
                -2.5796770523281416,
                1.4839262336203642,
                1.1370201601733834,
                -0.2540998089805614,
                -0.5539848341297104
            ]
        },
        {
            "positions": [
                3.21118316444651,
                -2.6163598979256273,
                1.4434327038111254,
                1.1606439775211466,
                -0.3065852373879814,
                -0.46248576456423995
            ]
        },
        {
            "positions": [
                3.0439788086563135,
                -2.5736562854911957,
                1.4600551178493737,
                1.102302702933641,
                -0.277586986114797,
                -0.5417379811001113
            ]
        },
        {
            "positions": [
                2.8767744528661177,
                -2.5309526730567646,
                1.476677531887622,
                1.0439614283461354,
                -0.2485887348416126,
                -0.6209901976359827
            ]
        },
        {
            "positions": [
                2.7095700970759213,
                -2.488249060622333,
                1.4932999459258705,
                0.9856201537586298,
                -0.2195904835684282,
                -0.7002424141718541
            ]
        },
        {
            "positions": [
                2.5423657412857255,
                -2.445545448187902,
                1.5099223599641187,
                0.9272788791711242,
                -0.1905922322952438,
                -0.7794946307077255
            ]
        },
        {
            "positions": [
                2.375161385495529,
                -2.4028418357534704,
                1.526544774002367,
                0.8689376045836186,
                -0.16159398102205938,
                -0.8587468472435968
            ]
        },
        {
            "positions": [
                2.207957029705333,
                -2.3601382233190393,
                1.5431671880406153,
                0.810596329996113,
                -0.13259572974887499,
                -0.9379990637794682
            ]
        },
        {
            "positions": [
                2.040752673915137,
                -2.317434610884608,
                1.5597896020788635,
                0.7522550554086074,
                -0.10359747847569062,
                -1.0172512803153395
            ]
        },
        {
            "positions": [
                1.8735483181249408,
                -2.2747309984501767,
                1.5764120161171118,
                0.6939137808211018,
                -0.0745992272025062,
                -1.096503496851211
            ]
        },
        {
            "positions": [
                1.7063439623347445,
                -2.232027386015745,
                1.5930344301553603,
                0.6355725062335962,
                -0.045600975929321774,
                -1.1757557133870824
            ]
        },
        {
            "positions": [
                1.5391396065445484,
                -2.1893237735813136,
                1.6096568441936085,
                0.5772312316460906,
                -0.01660272465613738,
                -1.2550079299229537
            ]
        },
        {
            "positions": [
                1.3719352507543523,
                -2.1466201611468825,
                1.6262792582318568,
                0.518889957058585,
                0.012395526617047015,
                -1.334260146458825
            ]
        },
        {
            "positions": [
                1.2047308949641562,
                -2.103916548712451,
                1.642901672270105,
                0.4605486824710794,
                0.04139377789023141,
                -1.4135123629946964
            ]
        },
        {
            "positions": [
                1.0375265391739603,
                -2.06121293627802,
                1.6595240863083534,
                0.4022074078835738,
                0.07039202916341575,
                -1.4927645795305677
            ]
        },
        {
            "positions": [
                0.870322183383764,
                -2.0185093238435883,
                1.6761465003466016,
                0.3438661332960682,
                0.09939028043660014,
                -1.572016796066439
            ]
        },
        {
            "positions": [
                0.7031178275935677,
                -1.9758057114091572,
                1.69276891438485,
                0.2855248587085626,
                0.1283885317097846,
                -1.6512690126023104
            ]
        },
        {
            "positions": [
                0.5359134718033718,
                -1.9331020989747256,
                1.7093913284230984,
                0.227183584121057,
                0.157386782982969,
                -1.730521229138182
            ]
        },
        {
            "positions": [
                0.36870911601317546,
                -1.8903984865402943,
                1.7260137424613466,
                0.1688423095335514,
                0.18638503425615338,
                -1.8097734456740533
            ]
        },
        {
            "positions": [
                0.20150476022297914,
                -1.847694874105863,
                1.742636156499595,
                0.1105010349460458,
                0.21538328552933783,
                -1.8890256622099246
            ]
        },
        {
            "positions": [
                0.03430040443278326,
                -1.8049912616714314,
                1.7592585705378432,
                0.0521597603585402,
                0.24438153680252217,
                -1.9682778787457962
            ]
        },
        {
            "positions": [
                -0.13290395135741306,
                -1.7622876492370003,
                1.7758809845760917,
                -0.006181514228965401,
                0.2733797880757066,
                -2.0475300952816675
            ]
        },
        {
            "positions": [
                -0.3001083071476094,
                -1.7195840368025688,
                1.79250339861434,
                -0.064522788816471,
                0.30237803934889096,
                -2.126782311817539
            ]
        },
        {
            "positions": [
                -0.46731266293780527,
                -1.6768804243681374,
                1.8091258126525882,
                -0.1228640634039766,
                0.3313762906220754,
                -2.20603452835341
            ]
        },
        {
            "positions": [
                -0.6345170187280016,
                -1.6341768119337061,
                1.8257482266908365,
                -0.1812053379914822,
                0.36037454189525986,
                -2.285286744889282
            ]
        },
        {
            "positions": [
                -0.8017213745181975,
                -1.5914731994992748,
                1.8423706407290847,
                -0.2395466125789878,
                0.3893727931684442,
                -2.3645389614251533
            ]
        },
        {
            "positions": [
                -0.9689257303083938,
                -1.5487695870648435,
                1.8589930547673332,
                -0.2978878871664934,
                0.41837104444162865,
                -2.4437911779610246
            ]
        },
        {
            "positions": [
                -1.1361300860985892,
                -1.5060659746304121,
                1.8756154688055813,
                -0.356229161753999,
                0.4473692957148129,
                -2.5230433944968955
            ]
        },
        {
            "positions": [
                -1.3033344418887856,
                -1.4633623621959808,
                1.8922378828438298,
                -0.4145704363415046,
                0.4763675469879973,
                -2.602295611032767
            ]
        },
        {
            "positions": [
                -1.4705387976789819,
                -1.4206587497615495,
                1.908860296882078,
                -0.4729117109290102,
                0.5053657982611817,
                -2.681547827568638
            ]
        },
        {
            "positions": [
                -1.6377431534691782,
                -1.3779551373271182,
                1.9254827109203263,
                -0.5312529855165158,
                0.5343640495343661,
                -2.7608000441045095
            ]
        },
        {
            "positions": [
                -1.8049475092593745,
                -1.3352515248926868,
                1.9421051249585746,
                -0.5895942601040214,
                0.5633623008075506,
                -2.840052260640381
            ]
        },
        {
            "positions": [
                -1.97215186504957,
                -1.2925479124582553,
                1.9587275389968228,
                -0.647935534691527,
                0.5923605520807349,
                -2.9193044771762526
            ]
        },
        {
            "positions": [
                -2.1393562208397663,
                -1.249844300023824,
                1.9753499530350713,
                -0.7062768092790326,
                0.6213588033539194,
                -2.998556693712124
            ]
        },
        {
            "positions": [
                -2.3065605766299626,
                -1.2071406875893926,
                1.9919723670733196,
                -0.7646180838665382,
                0.6503570546271037,
                -3.0778089102479953
            ]
        },
        {
            "positions": [
                -2.473764932420159,
                -1.1644370751549613,
                2.008594781111568,
                -0.8229593584540438,
                0.6793553059002881,
                -3.1570611267838666
            ]
        }
    ]
}