{
    "goal": {
        "global_pose": {
            "orientation": {
                "w": -0.4816463035849501,
                "x": 0.5182115481033762,
                "y": 0.4908360881923453,
                "z": -0.5084816262002911
            },
            "position": {
                "x": -0.8240239810943604,
                "y": 0.19912469901144506,
                "z": 0.16403168439865112
            }
        },
        "name": "move_to_storage_D"
    },
    "id": "RRTConnect_move_to_storage_D_123",
    "joint_names": [
        "shoulder_pan_joint",
        "shoulder_lift_joint",
        "elbow_joint",
        "wrist_1_joint",
        "wrist_2_joint",
        "wrist_3_joint"
    ],
    "metrics": {
        "cart_traj_len": 0.6613331834088111,
        "distance_elbow_joint": 0.557305606250178,
        "distance_shoulder_lift_joint": 0.4357765592681715,
        "distance_shoulder_pan_joint": 0.24769806511152823,
        "distance_wrist_1_joint": 3.8287584214501282,
        "distance_wrist_2_joint": 1.7732986843952194,
        "distance_wrist_3_joint": 3.512437582053807,
        "smoothness": 0.17300118375816395,
        "time": 0.07612696699999999,
        "traj_len": 3.2179612984821664,
        "weighted_distance": 4.793976135577022
    },
    "planner": "RRTConnect",
    "start": {
        "state": {
            "elbow_joint": -2.384821988534728,
            "shoulder_lift_joint": -2.2788054721415256,
            "shoulder_pan_joint": -0.1854694642142757,
            "wrist_1_joint": 1.4845938289331202,
            "wrist_2_joint": 0.17898776772866878,
            "wrist_3_joint": 0.037105688729662994
        }
    },
    "waypoints": [
        {
            "positions": [
                -0.1854694642142757,
                -2.2788054721415256,
                -2.384821988534728,
                1.4845938289331202,
                0.17898776772866878,
                0.037105688729662994
            ]
        },
        {
            "positions": [
                -0.1355208134187577,
                -2.2054588908198367,
                -2.373099334978461,
                1.393559073773773,
                0.11118622446472151,
                -0.00822716230176964
            ]
        },
        {
            "positions": [
                -0.08557216262323974,
                -2.132112309498148,
                -2.361376681422194,
                1.3025243186144257,
                0.04338468120077424,
                -0.053560013333202275
            ]
        },
        {
            "positions": [
                -0.03562351182772175,
                -2.058765728176459,
                -2.349654027865927,
                1.2114895634550784,
                -0.024416862063173034,
                -0.0988928643646349
            ]
        },
        {
            "positions": [
                0.01432513896779622,
                -1.9854191468547697,
                -2.33793137430966,
                1.1204548082957313,
                -0.09221840532712028,
                -0.14422571539606754
            ]
        },
        {
            "positions": [
                0.012242379753472027,
                -1.991610026593092,
                -2.315739418134655,
                0.9698191821734383,
                -0.1575267753853564,
                0.0006049879921096735
            ]
        },
        {
            "positions": [
                0.010159620539147835,
                -1.9978009063314146,
                -2.2935474619596503,
                0.8191835560511452,
                -0.2228351454435925,
                0.1454356913802869
            ]
        },
        {
            "positions": [
                0.008076861324823645,
                -2.003991786069737,
                -2.2713555057846455,
                0.6685479299288521,
                -0.2881435155018286,
                0.2902663947684641
            ]
        },
        {
            "positions": [
                0.005994102110499453,
                -2.0101826658080593,
                -2.2491635496096407,
                0.5179123038065592,
                -0.35345188556006474,
                0.4350970981566413
            ]
        },
        {
            "positions": [
                0.003911342896175261,
                -2.0163735455463816,
                -2.226971593434636,
                0.3672766776842662,
                -0.4187602556183008,
                0.5799278015448185
            ]
        },
        {
            "positions": [
                0.0018285836818510703,
                -2.0225644252847044,
                -2.204779637259631,
                0.2166410515619731,
                -0.4840686256765369,
                0.7247585049329958
            ]
        },
        {
            "positions": [
                -0.00025417553247312347,
                -2.0287553050230267,
                -2.1825876810846263,
                0.06600542543968002,
                -0.5493769957347732,
                0.8695892083211729
            ]
        },
        {
            "positions": [
                -0.002336934746797314,
                -2.034946184761349,
                -2.1603957249096215,
                -0.08463020068261295,
                -0.6146853657930091,
                1.0144199117093502
            ]
        },
        {
            "positions": [
                -0.004419693961121508,
                -2.0411370644996714,
                -2.1382037687346167,
                -0.23526582680490615,
                -0.6799937358512453,
                1.1592506150975275
            ]
        },
        {
            "positions": [
                -0.006502453175445698,
                -2.0473279442379937,
                -2.116011812559612,
                -0.3859014529271989,
                -0.7453021059094813,
                1.3040813184857045
            ]
        },
        {
            "positions": [
                -0.008585212389769892,
                -2.0535188239763165,
                -2.093819856384607,
                -0.5365370790494921,
                -0.8106104759677175,
                1.4489120218738818
            ]
        },
        {
            "positions": [
                -0.010667971604094079,
                -2.059709703714639,
                -2.0716279002096023,
                -0.6871727051717851,
                -0.8759188460259535,
                1.593742725262059
            ]
        },
        {
            "positions": [
                -0.012750730818418269,
                -2.065900583452961,
                -2.049435944034598,
                -0.8378083312940781,
                -0.9412272160841897,
                1.7385734286502361
            ]
        },
        {
            "positions": [
                -0.014833490032742466,
                -2.0720914631912835,
                -2.027243987859593,
                -0.9884439574163713,
                -1.0065355861424259,
                1.8834041320384134
            ]
        },
        {
            "positions": [
                -0.016916249247066657,
                -2.078282342929606,
                -2.0050520316845883,
                -1.1390795835386642,
                -1.0718439562006619,
                2.0282348354265904
            ]
        },
        {
            "positions": [
                -0.018999008461390847,
                -2.0844732226679286,
                -1.9828600755095835,
                -1.2897152096609572,
                -1.137152326258898,
                2.173065538814768
            ]
        },
        {
            "positions": [
                -0.021081767675715034,
                -2.090664102406251,
                -1.9606681193345787,
                -1.4403508357832502,
                -1.202460696317134,
                2.317896242202945
            ]
        },
        {
            "positions": [
                -0.023164526890039235,
                -2.096854982144573,
                -1.938476163159574,
                -1.5909864619055436,
                -1.2677690663753702,
                2.4627269455911227
            ]
        },
        {
            "positions": [
                -0.02524728610436342,
                -2.1030458618828956,
                -1.9162842069845691,
                -1.7416220880278366,
                -1.3330774364336064,
                2.6075576489792995
            ]
        },
        {
            "positions": [
                -0.027330045318687615,
                -2.109236741621218,
                -1.8940922508095643,
                -1.8922577141501291,
                -1.3983858064918424,
                2.7523883523674764
            ]
        },
        {
            "positions": [
                -0.029412804533011802,
                -2.1154276213595407,
                -1.8719002946345595,
                -2.042893340272422,
                -1.4636941765500784,
                2.897219055755654
            ]
        },
        {
            "positions": [
                -0.031495563747336,
                -2.121618501097863,
                -1.8497083384595547,
                -2.1935289663947155,
                -1.5290025466083148,
                3.042049759143831
            ]
        },
        {
            "positions": [
                -0.03357832296166019,
                -2.1278093808361853,
                -1.82751638228455,
                -2.3441645925170085,
                -1.5943109166665508,
                3.1868804625320086
            ]
        }
    ]
}