{
    "goal": {
        "global_pose": {
            "orientation": {
                "w": 0.7047431493862688,
                "x": -0.7094548369677653,
                "y": 0.0024358444001904,
                "z": -0.0022348060817251984
            },
            "position": {
                "x": -0.39052492380142206,
                "y": 0.3671506643295288,
                "z": 0.19426114857196808
            }
        },
        "name": "move_to_magneteinheit_D"
    },
    "id": "RRTConnect_move_to_magneteinheit_D_42",
    "joint_names": [
        "shoulder_pan_joint",
        "shoulder_lift_joint",
        "elbow_joint",
        "wrist_1_joint",
        "wrist_2_joint",
        "wrist_3_joint"
    ],
    "metrics": {
        "cart_traj_len": 3.912745990158112,
        "distance_elbow_joint": 3.966976542322236,
        "distance_shoulder_lift_joint": 1.6331489699968242,
        "distance_shoulder_pan_joint": 3.0584244443047512,
        "distance_wrist_1_joint": 2.0522846208207834,
        "distance_wrist_2_joint": 2.0926093381216337,
        "distance_wrist_3_joint": 4.457139656146358,
        "smoothness": 0.635919373004234,
        "time": 0.143352862,
        "traj_len": 4.1545858483984395,
        "weighted_distance": 5.50633787947559
    },
    "planner": "RRTConnect",
    "start": {
        "state": {
            "elbow_joint": 0.749534889911806,
            "shoulder_lift_joint": -0.6476975780787326,
            "shoulder_pan_joint": -2.711696901376241,
            "wrist_1_joint": -0.07506478083263063,
            "wrist_2_joint": 0.43296659715538205,
            "wrist_3_joint": -3.14703540197715
        }
    },
    "waypoints": [
        {
            "positions": [
                -2.711696901376241,
                -0.6476975780787326,
                0.749534889911806,
                -0.07506478083263063,
                0.43296659715538205,
                -3.14703540197715
            ]
        },
        {
            "positions": [
                -2.724999300321212,
                -0.7478730375075886,
                0.7918046438185972,
                -0.09178207559465773,
                0.46277430883583304,
                -2.9730164910153807
            ]
        },
        {
            "positions": [
                -2.7383016992661826,
                -0.8480484969364446,
                0.8340743977253884,
                -0.10849937035668483,
                0.4925820205162841,
                -2.7989975800536113
            ]
        },
        {
            "positions": [
                -2.751604098211153,
                -0.9482239563653005,
                0.8763441516321796,
                -0.12521666511871193,
                0.522389732196735,
                -2.624978669091842
            ]
        },
        {
            "positions": [
                -2.7649064971561237,
                -1.0483994157941565,
                0.9186139055389708,
                -0.14193395988073904,
                0.5521974438771861,
                -2.4509597581300726
            ]
        },
        {
            "positions": [
                -2.672326022143655,
                -1.064407006144764,
                0.8294197487207882,
                -0.08708633653501252,
                0.5188863752569867,
                -2.347206433583239
            ]
        },
        {
            "positions": [
                -2.5797455471311856,
                -1.080414596495371,
                0.7402255919026055,
                -0.03223871318928599,
                0.48557530663678733,
                -2.2434531090364054
            ]
        },
        {
            "positions": [
                -2.487165072118717,
                -1.0964221868459783,
                0.6510314350844228,
                0.022608910156440565,
                0.452264238016588,
                -2.139699784489572
            ]
        },
        {
            "positions": [
                -2.394584597106248,
                -1.1124297771965856,
                0.5618372782662402,
                0.07745653350216705,
                0.4189531693963886,
                -2.0359464599427386
            ]
        },
        {
            "positions": [
                -2.302004122093779,
                -1.128437367547193,
                0.4726431214480575,
                0.1323041568478936,
                0.38564210077618927,
                -1.932193135395905
            ]
        },
        {
            "positions": [
                -2.20942364708131,
                -1.1444449578978002,
                0.38344896462987477,
                0.18715178019362017,
                0.3523310321559899,
                -1.8284398108490714
            ]
        },
        {
            "positions": [
                -2.116843172068841,
                -1.1604525482484074,
                0.2942548078116921,
                0.24199940353934668,
                0.31901996353579054,
                -1.724686486302238
            ]
        },
        {
            "positions": [
                -2.024262697056372,
                -1.1764601385990148,
                0.20506065099350945,
                0.29684702688507314,
                0.28570889491559115,
                -1.6209331617554046
            ]
        },
        {
            "positions": [
                -1.9316822220439032,
                -1.1924677289496222,
                0.1158664941753268,
                0.35169465023079965,
                0.2523978262953918,
                -1.517179837208571
            ]
        },
        {
            "positions": [
                -1.8391017470314344,
                -1.2084753193002293,
                0.026672337357144138,
                0.4065422735765262,
                0.21908675767519248,
                -1.4134265126617376
            ]
        },
        {
            "positions": [
                -1.7465212720189653,
                -1.2244829096508365,
                -0.06252181946103852,
                0.4613898969222527,
                0.1857756890549931,
                -1.309673188114904
            ]
        },
        {
            "positions": [
                -1.6539407970064963,
                -1.240490500001444,
                -0.1517159762792213,
                0.5162375202679794,
                0.1524646204347937,
                -1.2059198635680703
            ]
        },
        {
            "positions": [
                -1.5613603219940273,
                -1.2564980903520513,
                -0.24091013309740394,
                0.5710851436137059,
                0.11915355181459436,
                -1.102166539021237
            ]
        },
        {
            "positions": [
                -1.4687798469815585,
                -1.2725056807026585,
                -0.3301042899155866,
                0.6259327669594323,
                0.08584248319439497,
                -0.9984132144744033
            ]
        },
        {
            "positions": [
                -1.3761993719690895,
                -1.2885132710532656,
                -0.41929844673376926,
                0.6807803903051588,
                0.052531414574195634,
                -0.89465988992757
            ]
        },
        {
            "positions": [
                -1.2836188969566205,
                -1.304520861403873,
                -0.5084926035519519,
                0.7356280136508853,
                0.019220345953996243,
                -0.7909065653807366
            ]
        },
        {
            "positions": [
                -1.1910384219441517,
                -1.3205284517544804,
                -0.5976867603701346,
                0.7904756369966119,
                -0.014090722666203037,
                -0.687153240833903
            ]
        },
        {
            "positions": [
                -1.0984579469316826,
                -1.3365360421050876,
                -0.6868809171883172,
                0.8453232603423384,
                -0.04740179128640243,
                -0.5833999162870696
            ]
        },
        {
            "positions": [
                -1.0058774719192138,
                -1.3525436324556948,
                -0.7760750740064999,
                0.9001708836880649,
                -0.08071285990660182,
                -0.47964659174023594
            ]
        },
        {
            "positions": [
                -0.9132969969067448,
                -1.3685512228063021,
                -0.8652692308246825,
                0.9550185070337915,
                -0.1140239285268011,
                -0.37589326719340255
            ]
        },
        {
            "positions": [
                -0.820716521894276,
                -1.3845588131569095,
                -0.9544633876428652,
                1.009866130379518,
                -0.1473349971470005,
                -0.27213994264656893
            ]
        },
        {
            "positions": [
                -0.728136046881807,
                -1.4005664035075167,
                -1.0436575444610479,
                1.0647137537252445,
                -0.18064606576719988,
                -0.16838661809973532
            ]
        },
        {
            "positions": [
                -0.6355555718693378,
                -1.4165739938581239,
                -1.132851701279231,
                1.1195613770709711,
                -0.21395713438739927,
                -0.0646332935529017
            ]
        },
        {
            "positions": [
                -0.542975096856869,
                -1.4325815842087313,
                -1.2220458580974134,
                1.1744090004166978,
                -0.24726820300759866,
                0.03912003099393191
            ]
        },
        {
            "positions": [
                -0.4503946218443997,
                -1.4485891745593387,
                -1.3112400149155963,
                1.2292566237624243,
                -0.28057927162779805,
                0.14287335554076508
            ]
        },
        {
            "positions": [
                -0.3578141468319309,
                -1.4645967649099458,
                -1.4004341717337787,
                1.2841042471081507,
                -0.31389034024799733,
                0.2466266800875987
            ]
        },
        {
            "positions": [
                -0.2652336718194621,
                -1.480604355260553,
                -1.4896283285519616,
                1.3389518704538772,
                -0.3472014088681967,
                0.3503800046344323
            ]
        },
        {
            "positions": [
                -0.17265319680699331,
                -1.4966119456111604,
                -1.578822485370144,
                1.3937994937996039,
                -0.3805124774883961,
                0.4541333291812659
            ]
        },
        {
            "positions": [
                -0.08007272179452407,
                -1.5126195359617678,
                -1.668016642188327,
                1.4486471171453303,
                -0.4138235461085954,
                0.5578866537280991
            ]
        },
        {
            "positions": [
                0.012507753217944843,
                -1.528627126312375,
                -1.7572107990065091,
                1.5034947404910568,
                -0.44713461472879484,
                0.6616399782749327
            ]
        },
        {
            "positions": [
                0.014469529777249513,
                -1.6047371686484682,
                -1.8661082701753424,
                1.525379177768043,
                -0.347651978020022,
                0.6145316204900572
            ]
        },
        {
            "positions": [
                0.016431306336554184,
                -1.6808472109845611,
                -1.9750057413441757,
                1.5472636150450294,
                -0.24816934131124918,
                0.5674232627051817
            ]
        },
        {
            "positions": [
                0.01839308289585885,
                -1.7569572533206541,
                -2.0839032125130093,
                1.5691480523220156,
                -0.14868670460247635,
                0.5203149049203062
            ]
        },
        {
            "positions": [
                0.02035485945516352,
                -1.8330672956567473,
                -2.1928006836818428,
                1.591032489599002,
                -0.04920406789370352,
                0.4732065471354307
            ]
        },
        {
            "positions": [
                0.02231663601446819,
                -1.9091773379928405,
                -2.301698154850676,
                1.6129169268759882,
                0.05027856881506931,
                0.4260981893505552
            ]
        },
        {
            "positions": [
                0.024278412573772862,
                -1.9852873803289335,
                -2.4105956260195094,
                1.6348013641529744,
                0.14976120552384214,
                0.37898983156567967
            ]
        },
        {
            "positions": [
                0.026240189133077532,
                -2.0613974226650265,
                -2.5194930971883425,
                1.6566858014299608,
                0.24924384223261492,
                0.3318814737808042
            ]
        },
        {
            "positions": [
                0.028201965692382203,
                -2.1375074650011197,
                -2.628390568357176,
                1.678570238706947,
                0.34872647894138786,
                0.2847731159959287
            ]
        },
        {
            "positions": [
                -0.024824630726708874,
                -2.173342235769729,
                -2.565667305157445,
                1.6373424279106996,
                0.3041801441604714,
                0.21687376259211077
            ]
        },
        {
            "positions": [
                -0.07785122714579995,
                -2.2091770065383383,
                -2.502944041957714,
                1.5961146171144525,
                0.2596338093795549,
                0.14897440918829283
            ]
        },
        {
            "positions": [
                -0.13087782356489103,
                -2.2450117773069476,
                -2.440220778757983,
                1.554886806318205,
                0.21508747459863842,
                0.08107505578447488
            ]
        },
        {
            "positions": [
                -0.1839044199839821,
                -2.280846548075557,
                -2.377497515558252,
                1.5136589955219577,
                0.17054113981772193,
                0.013175702380656948
            ]
        }
    ]
}