{
    "goal": {
        "global_pose": {
            "orientation": {
                "w": -0.00223480608172531,
                "x": 0.0024358444001904467,
                "y": 0.7094548369677653,
                "z": -0.704743149386269
            },
            "position": {
                "x": 0.6205249238014221,
                "y": -0.6371506643295288,
                "z": 0.19426114857196808
            }
        },
        "name": "move_to_magneteinheit_B"
    },
    "id": "RRTConnect_move_to_magneteinheit_B_77",
    "joint_names": [
        "shoulder_pan_joint",
        "shoulder_lift_joint",
        "elbow_joint",
        "wrist_1_joint",
        "wrist_2_joint",
        "wrist_3_joint"
    ],
    "metrics": {
        "cart_traj_len": 3.615549487659234,
        "distance_elbow_joint": 4.4437584241437325,
        "distance_shoulder_lift_joint": 1.0572188477149806,
        "distance_shoulder_pan_joint": 2.7831317912925777,
        "distance_wrist_1_joint": 1.8594554237306191,
        "distance_wrist_2_joint": 1.9429233434935516,
        "distance_wrist_3_joint": 2.0621867073034856,
        "smoothness": 0.462660818992664,
        "time": 0.205279205,
        "traj_len": 3.761472389594126,
        "weighted_distance": 4.698449395227119
    },
    "planner": "RRTConnect",
    "start": {
        "state": {
            "elbow_joint": 2.6216224122426386,
            "shoulder_lift_joint": -1.4174107377796124,
            "shoulder_pan_joint": 0.7066234856936794,
            "wrist_1_joint": 1.9546482284002225,
            "wrist_2_joint": -0.7096286983471962,
            "wrist_3_joint": 0.005740856962016249
        }
    },
    "waypoints": [
        {
            "positions": [
                0.7066234856936794,
                -1.4174107377796124,
                2.6216224122426386,
                1.9546482284002225,
                -0.7096286983471962,
                0.005740856962016249
            ]
        },
        {
            "positions": [
                0.6542966291261257,
                -1.4356377068789614,
                2.5737951188233934,
                1.8673226770846056,
                -0.6168793106423819,
                0.03339730321497203
            ]
        },
        {
            "positions": [
                0.6019697725585722,
                -1.4538646759783105,
                2.5259678254041487,
                1.7799971257689888,
                -0.5241299229375675,
                0.06105374946792781
            ]
        },
        {
            "positions": [
                0.5496429159910186,
                -1.4720916450776598,
                2.4781405319849035,
                1.6926715744533718,
                -0.43138053523275316,
                0.08871019572088358
            ]
        },
        {
            "positions": [
                0.49731605942346496,
                -1.4903186141770088,
                2.4303132385656587,
                1.605346023137755,
                -0.33863114752793877,
                0.11636664197383938
            ]
        },
        {
            "positions": [
                0.44498920285591137,
                -1.508545583276358,
                2.3824859451464135,
                1.5180204718221382,
                -0.24588175982312444,
                0.14402308822679516
            ]
        },
        {
            "positions": [
                0.4254157548555449,
                -1.519100874427763,
                2.304498524917549,
                1.4386232303958513,
                -0.16024824963426204,
                0.13917134217522492
            ]
        },
        {
            "positions": [
                0.40584230685517836,
                -1.529656165579168,
                2.2265111046886847,
                1.3592259889695644,
                -0.07461473944539962,
                0.13431959612365466
            ]
        },
        {
            "positions": [
                0.3862688588548119,
                -1.5402114567305731,
                2.1485236844598203,
                1.2798287475432775,
                0.011018770743462802,
                0.12946785007208442
            ]
        },
        {
            "positions": [
                0.41369453342477486,
                -1.5436905904986604,
                2.015854244603419,
                1.2041935821372012,
                0.09102888750515145,
                0.09219457259144719
            ]
        },
        {
            "positions": [
                0.44112020799473783,
                -1.5471697242667477,
                1.8831848047470177,
                1.128558416731125,
                0.1710390042668401,
                0.05492129511080995
            ]
        },
        {
            "positions": [
                0.4685458825647008,
                -1.550648858034835,
                1.7505153648906164,
                1.0529232513250486,
                0.2510491210285287,
                0.017648017630172708
            ]
        },
        {
            "positions": [
                0.4959715571346638,
                -1.5541279918029223,
                1.617845925034215,
                0.9772880859189725,
                0.3310592377902174,
                -0.01962525985046451
            ]
        },
        {
            "positions": [
                0.5233972317046267,
                -1.5576071255710096,
                1.4851764851778135,
                0.9016529205128962,
                0.4110693545519061,
                -0.056898537331101784
            ]
        },
        {
            "positions": [
                0.5508229062745897,
                -1.5610862593390968,
                1.3525070453214123,
                0.82601775510682,
                0.4910794713135947,
                -0.094171814811739
            ]
        },
        {
            "positions": [
                0.6668109973120384,
                -1.5851652795211733,
                1.1893577644097453,
                0.810566495981906,
                0.4712123917199887,
                -0.04630341616203769
            ]
        },
        {
            "positions": [
                0.7827990883494871,
                -1.6092442997032497,
                1.026208483498078,
                0.795115236856992,
                0.45134531212638274,
                0.0015649824876636242
            ]
        },
        {
            "positions": [
                0.8987871793869359,
                -1.633323319885326,
                0.863059202586411,
                0.779663977732078,
                0.43147823253277673,
                0.04943338113736492
            ]
        },
        {
            "positions": [
                1.0147752704243844,
                -1.6574023400674025,
                0.6999099216747439,
                0.764212718607164,
                0.4116111529391707,
                0.09730177978706625
            ]
        },
        {
            "positions": [
                1.1307633614618333,
                -1.6814813602494787,
                0.5367606407630767,
                0.74876145948225,
                0.3917440733455647,
                0.14517017843676755
            ]
        },
        {
            "positions": [
                1.246751452499282,
                -1.7055603804315551,
                0.3736113598514096,
                0.733310200357336,
                0.3718769937519587,
                0.19303857708646885
            ]
        },
        {
            "positions": [
                1.3627395435367307,
                -1.7296394006136315,
                0.21046207893974245,
                0.717858941232422,
                0.3520099141583527,
                0.24090697573617018
            ]
        },
        {
            "positions": [
                1.4787276345741793,
                -1.753718420795708,
                0.04731279802807542,
                0.702407682107508,
                0.33214283456474675,
                0.28877537438587153
            ]
        },
        {
            "positions": [
                1.594715725611628,
                -1.7777974409777844,
                -0.11583648288359161,
                0.6869564229825941,
                0.31227575497114074,
                0.3366437730355728
            ]
        },
        {
            "positions": [
                1.7107038166490767,
                -1.8018764611598608,
                -0.27898576379525886,
                0.6715051638576801,
                0.2924086753775348,
                0.3845121716852741
            ]
        },
        {
            "positions": [
                1.8266919076865256,
                -1.8259554813419372,
                -0.4421350447069261,
                0.656053904732766,
                0.2725415957839287,
                0.43238057033497546
            ]
        },
        {
            "positions": [
                1.9426799987239742,
                -1.8500345015240136,
                -0.6052843256185931,
                0.6406026456078521,
                0.2526745161903228,
                0.4802489689846767
            ]
        },
        {
            "positions": [
                2.058668089761423,
                -1.87411352170609,
                -0.7684336065302604,
                0.6251513864829381,
                0.23280743659671677,
                0.5281173676343781
            ]
        },
        {
            "positions": [
                2.1746561807988716,
                -1.8981925418881662,
                -0.9315828874419274,
                0.609700127358024,
                0.21294035700311076,
                0.5759857662840794
            ]
        },
        {
            "positions": [
                2.29064427183632,
                -1.9222715620702426,
                -1.0947321683535944,
                0.5942488682331101,
                0.19307327740950475,
                0.6238541649337808
            ]
        },
        {
            "positions": [
                2.406632362873769,
                -1.946350582252319,
                -1.2578814492652615,
                0.5787976091081961,
                0.1732061978158988,
                0.671722563583482
            ]
        },
        {
            "positions": [
                2.522620453911218,
                -1.9704296024343955,
                -1.421030730176929,
                0.563346349983282,
                0.1533391182222928,
                0.7195909622331833
            ]
        },
        {
            "positions": [
                2.6386085449486663,
                -1.9945086226164719,
                -1.5841800110885955,
                0.5478950908583682,
                0.13347203862868678,
                0.7674593608828846
            ]
        },
        {
            "positions": [
                2.754596635986115,
                -2.0185876427985483,
                -1.7473292920002632,
                0.5324438317334541,
                0.11360495903508078,
                0.815327759532586
            ]
        },
        {
            "positions": [
                2.749352755192888,
                -2.0938771872164823,
                -1.7306211012496324,
                0.5475008172439882,
                0.1780153719614689,
                0.7250759270929682
            ]
        },
        {
            "positions": [
                2.744108874399661,
                -2.169166731634416,
                -1.7139129104990016,
                0.5625578027545224,
                0.24242578488785704,
                0.6348240946533504
            ]
        },
        {
            "positions": [
                2.7273165492524702,
                -2.230259302406451,
                -1.7056348428190877,
                0.6439852139630786,
                0.2896097520281511,
                0.515682827898028
            ]
        },
        {
            "positions": [
                2.7105242241052796,
                -2.2913518731784865,
                -1.6973567751391738,
                0.7254126251716347,
                0.33679371916844514,
                0.39654156114270556
            ]
        },
        {
            "positions": [
                2.6937318989580894,
                -2.3524444439505223,
                -1.68907870745926,
                0.806840036380191,
                0.3839776863087392,
                0.2774002943873831
            ]
        },
        {
            "positions": [
                2.6769395738108988,
                -2.4135370147225577,
                -1.680800639779346,
                0.8882674475887471,
                0.43116165344903323,
                0.15825902763206068
            ]
        },
        {
            "positions": [
                2.660147248663708,
                -2.474629585494593,
                -1.6725225720994321,
                0.9696948587973033,
                0.4783456205893273,
                0.03911776087673827
            ]
        }
    ]
}