{
    "goal": {
        "global_pose": {
            "orientation": {
                "w": 0.5084816217422485,
                "x": -0.49083608388900757,
                "y": 0.5182115435600281,
                "z": -0.4816462993621826
            },
            "position": {
                "x": 0.5540239810943604,
                "y": 0.030875300988554955,
                "z": 0.16403168439865112
            }
        },
        "name": "move_to_storage_A"
    },
    "id": "RRTConnect_move_to_storage_A_120",
    "joint_names": [
        "shoulder_pan_joint",
        "shoulder_lift_joint",
        "elbow_joint",
        "wrist_1_joint",
        "wrist_2_joint",
        "wrist_3_joint"
    ],
    "metrics": {
        "cart_traj_len": 0.35278803836195616,
        "distance_elbow_joint": 0.4523295331268471,
        "distance_shoulder_lift_joint": 0.23595883636407966,
        "distance_shoulder_pan_joint": 0.46202171233005673,
        "distance_wrist_1_joint": 0.2534534614628786,
        "distance_wrist_2_joint": 1.0959399445092024,
        "distance_wrist_3_joint": 0.09807148681610833,
        "smoothness": 1.6653345414481342e-15,
        "time": 0.031582667,
        "traj_len": 1.6117614509005893,
        "weighted_distance": 2.035512553194765
    },
    "planner": "RRTConnect",
    "start": {
        "state": {
            "elbow_joint": 1.971548259319323,
            "shoulder_lift_joint": -1.1394851275133948,
            "shoulder_pan_joint": 0.1228115487234821,
            "wrist_1_joint": -0.7804723859257726,
            "wrist_2_joint": 0.12958671773740124,
            "wrist_3_joint": -3.192489227718131
        }
    },
    "waypoints": [
        {
            "positions": [
                0.1228115487234821,
                -1.1394851275133948,
                1.971548259319323,
                -0.7804723859257726,
                0.12958671773740124,
                -3.192489227718131
            ]
        },
        {
            "positions": [
                0.05680844696204543,
                -1.1731935327082634,
                2.0361667640517296,
                -0.8166800232776125,
                0.2861495669530016,
                -3.1784790153158298
            ]
        },
        {
            "positions": [
                -0.009194654799391244,
                -1.2069019379031318,
                2.1007852687841364,
                -0.8528876606294522,
                0.4427124161686019,
                -3.164468802913529
            ]
        },
        {
            "positions": [
                -0.07519775656082792,
                -1.2406103430980004,
                2.1654037735165432,
                -0.889095297981292,
                0.5992752653842023,
                -3.1504585905112275
            ]
        },
        {
            "positions": [
                -0.1412008583222646,
                -1.2743187482928688,
                2.23002227824895,
                -0.9253029353331318,
                0.7558381145998027,
                -3.1364483781089265
            ]
        },
        {
            "positions": [
                -0.2072039600837013,
                -1.3080271534877375,
                2.2946407829813564,
                -0.9615105726849716,
                0.912400963815403,
                -3.122438165706625
            ]
        },
        {
            "positions": [
                -0.27320706184513793,
                -1.3417355586826059,
                2.3592592877137633,
                -0.9977182100368114,
                1.0689638130310033,
                -3.108427953304324
            ]
        },
        {
            "positions": [
                -0.33921016360657463,
                -1.3754439638774745,
                2.42387779244617,
                -1.0339258473886512,
                1.2255266622466037,
                -3.094417740902023
            ]
        }
    ]
}{
    "goal": {
        "global_pose": {
            "orientation": {
                "w": 0.5084816217422485,
                "x": -0.49083608388900757,
                "y": 0.5182115435600281,
                "z": -0.4816462993621826
            },
            "position": {
                "x": 0.5540239810943604,
                "y": 0.030875300988554955,
                "z": 0.16403168439865112
            }
        },
        "name": "move_to_storage_A"
    },
    "id": "RRTConnect_move_to_storage_A_120",
    "joint_names": [
        "shoulder_pan_joint",
        "shoulder_lift_joint",
        "elbow_joint",
        "wrist_1_joint",
        "wrist_2_joint",
        "wrist_3_joint"
    ],
    "metrics": {
        "cart_traj_len": 0.35250621080280675,
        "distance_elbow_joint": 0.4532473477209171,
        "distance_shoulder_lift_joint": 0.2329455813365744,
        "distance_shoulder_pan_joint": 0.45934581853587914,
        "distance_wrist_1_joint": 0.2587331680621139,
        "distance_wrist_2_joint": 1.1043064291412963,
        "distance_wrist_3_joint": 0.09835492371197274,
        "smoothness": 0.0,
        "time": 0.042961974,
        "traj_len": 1.6146000336023636,
        "weighted_distance": 2.041245382881762
    },
    "planner": "RRTConnect",
    "start": {
        "state": {
            "elbow_joint": 1.97154746011099,
            "shoulder_lift_joint": -1.13948474672311,
            "shoulder_pan_joint": 0.12281154466712228,
            "wrist_1_joint": -0.7804688027058302,
            "wrist_2_joint": 0.12958655903071145,
            "wrist_3_joint": 3.0906928834467795
        }
    },
    "waypoints": [
        {
            "positions": [
                0.12281154466712228,
                -1.13948474672311,
                1.97154746011099,
                -0.7804688027058302,
                0.12958655903071145,
                3.0906928834467795
            ]
        },
        {
            "positions": [
                0.057190713447710984,
                -1.172762686914049,
                2.036297081213978,
                -0.8174306838575608,
                0.2873446203366109,
                3.1047435868342044
            ]
        },
        {
            "positions": [
                -0.008430117771700316,
                -1.2060406271049884,
                2.101046702316966,
                -0.8543925650092913,
                0.4451026816425103,
                3.118794290221629
            ]
        },
        {
            "positions": [
                -0.07405094899111163,
                -1.2393185672959275,
                2.165796323419954,
                -0.8913544461610219,
                0.6028607429484099,
                3.1328449936090537
            ]
        },
        {
            "positions": [
                -0.1396717802105229,
                -1.2725965074868668,
                2.2305459445229427,
                -0.9283163273127524,
                0.7606188042543093,
                3.146895696996478
            ]
        },
        {
            "positions": [
                -0.2052926114299342,
                -1.305874447677806,
                2.295295565625931,
                -0.965278208464483,
                0.9183768655602088,
                3.160946400383903
            ]
        },
        {
            "positions": [
                -0.2709134426493455,
                -1.339152387868745,
                2.360045186728919,
                -1.0022400896162136,
                1.0761349268661082,
                3.1749971037713274
            ]
        },
        {
            "positions": [
                -0.33653427386875684,
                -1.3724303280596843,
                2.424794807831907,
                -1.039201970767944,
                1.2338929881720078,
                3.1890478071587522
            ]
        }
    ]
}{
    "goal": {
        "global_pose": {
            "orientation": {
                "w": 0.5084816217422485,
                "x": -0.49083608388900757,
                "y": 0.5182115435600281,
                "z": -0.4816462993621826
            },
            "position": {
                "x": 0.5540239810943604,
                "y": 0.030875300988554955,
                "z": 0.16403168439865112
            }
        },
        "name": "move_to_storage_A"
    },
    "id": "RRTConnect_move_to_storage_A_120",
    "joint_names": [
        "shoulder_pan_joint",
        "shoulder_lift_joint",
        "elbow_joint",
        "wrist_1_joint",
        "wrist_2_joint",
        "wrist_3_joint"
    ],
    "metrics": {
        "cart_traj_len": 0.3534546154412432,
        "distance_elbow_joint": 0.44827208744805924,
        "distance_shoulder_lift_joint": 0.2346117833232455,
        "distance_shoulder_pan_joint": 0.4618561008950586,
        "distance_wrist_1_joint": 0.23621219247443603,
        "distance_wrist_2_joint": 1.1008249889242705,
        "distance_wrist_3_joint": 0.0876238924101953,
        "smoothness": 4.440892098500626e-16,
        "time": 0.048247741000000004,
        "traj_len": 1.602935134518944,
        "weighted_distance": 2.0203182946492273
    },
    "planner": "RRTConnect",
    "start": {
        "state": {
            "elbow_joint": 1.9715472970024885,
            "shoulder_lift_joint": -1.1394870060712896,
            "shoulder_pan_joint": 0.12281152778156021,
            "wrist_1_joint": -0.780463741449964,
            "wrist_2_joint": 0.12958659822042276,
            "wrist_3_joint": 3.090690232415272
        }
    },
    "waypoints": [
        {
            "positions": [
                0.12281152778156021,
                -1.1394870060712896,
                1.9715472970024885,
                -0.780463741449964,
                0.12958659822042276,
                3.090690232415272
            ]
        },
        {
            "positions": [
                0.05683208479655184,
                -1.1730029751174675,
                2.0355861666379256,
                -0.8142083403748834,
                0.28684731092388993,
                3.103207931331014
            ]
        },
        {
            "positions": [
                -0.009147358188456522,
                -1.2065189441636455,
                2.0996250362733626,
                -0.8479529392998029,
                0.44410802362735713,
                3.1157256302467564
            ]
        },
        {
            "positions": [
                -0.07512680117346487,
                -1.2400349132098234,
                2.1636639059087996,
                -0.8816975382247223,
                0.6013687363308243,
                3.1282433291624985
            ]
        },
        {
            "positions": [
                -0.14110624415847325,
                -1.2735508822560013,
                2.2277027755442367,
                -0.9154421371496417,
                0.7586294490342915,
                3.1407610280782405
            ]
        },
        {
            "positions": [
                -0.20708568714348166,
                -1.3070668513021793,
                2.2917416451796737,
                -0.9491867360745612,
                0.9158901617377588,
                3.1532787269939826
            ]
        },
        {
            "positions": [
                -0.27306513012849,
                -1.3405828203483572,
                2.3557805148151107,
                -0.9829313349994806,
                1.073150874441226,
                3.165796425909725
            ]
        },
        {
            "positions": [
                -0.33904457311349834,
                -1.3740987893945351,
                2.419819384450548,
                -1.0166759339244,
                1.2304115871446932,
                3.178314124825467
            ]
        }
    ]
}