{
    "goal": {
        "global_pose": {
            "orientation": {
                "w": 0.5084816262002911,
                "x": -0.4908360881923452,
                "y": 0.5182115481033761,
                "z": -0.48164630358495003
            },
            "position": {
                "x": 0.5540239810943604,
                "y": -0.46912469901144505,
                "z": 0.16403168439865112
            }
        },
        "name": "move_to_storage_B"
    },
    "id": "RRTConnect_move_to_storage_B_19",
    "joint_names": [
        "shoulder_pan_joint",
        "shoulder_lift_joint",
        "elbow_joint",
        "wrist_1_joint",
        "wrist_2_joint",
        "wrist_3_joint"
    ],
    "metrics": {
        "cart_traj_len": 1.8653333415092697,
        "distance_elbow_joint": 0.9243570889574948,
        "distance_shoulder_lift_joint": 0.7711023135534636,
        "distance_shoulder_pan_joint": 1.556731658683418,
        "distance_wrist_1_joint": 4.143329191512164,
        "distance_wrist_2_joint": 2.705079717014614,
        "distance_wrist_3_joint": 3.1522456176698364,
        "smoothness": 0.36585672082815984,
        "time": 0.07456613200000001,
        "traj_len": 3.6404457951452853,
        "weighted_distance": 5.138652131761542
    },
    "planner": "RRTConnect",
    "start": {
        "state": {
            "elbow_joint": 1.664937868594044,
            "shoulder_lift_joint": -0.661644460510453,
            "shoulder_pan_joint": -0.9139846352900073,
            "wrist_1_joint": 2.146753192139373,
            "wrist_2_joint": -2.2341966793290973,
            "wrist_3_joint": 0.005466555786416001
        }
    },
    "waypoints": [
        {
            "positions": [
                -0.9139846352900073,
                -0.661644460510453,
                1.664937868594044,
                2.146753192139373,
                -2.2341966793290973,
                0.005466555786416001
            ]
        },
        {
            "positions": [
                -0.8157095426739216,
                -0.749485766009759,
                1.6240015626442454,
                2.2285676361946485,
                -2.1935027733572414,
                0.029041106606434067
            ]
        },
        {
            "positions": [
                -0.7174344500578358,
                -0.837327071509065,
                1.5830652566944468,
                2.310382080249924,
                -2.1528088673853856,
                0.052615657426452134
            ]
        },
        {
            "positions": [
                -0.61915935744175,
                -0.925168377008371,
                1.5421289507446483,
                2.3921965243051995,
                -2.1121149614135297,
                0.0761902082464702
            ]
        },
        {
            "positions": [
                -0.5208842648256643,
                -1.013009682507677,
                1.5011926447948498,
                2.474010968360475,
                -2.071421055441674,
                0.09976475906648827
            ]
        },
        {
            "positions": [
                -0.4226091722095785,
                -1.100850988006983,
                1.4602563388450513,
                2.5558254124157505,
                -2.030727149469818,
                0.12333930988650635
            ]
        },
        {
            "positions": [
                -0.3243340795934928,
                -1.1886922935062891,
                1.4193200328952527,
                2.6376398564710257,
                -1.9900332434979622,
                0.1469138607065244
            ]
        },
        {
            "positions": [
                -0.226058986977407,
                -1.276533599005595,
                1.3783837269454542,
                2.7194543005263014,
                -1.9493393375261063,
                0.17048841152654248
            ]
        },
        {
            "positions": [
                -0.2582369873615114,
                -1.2707479258552867,
                1.4020060583272655,
                2.5872088159661075,
                -1.8597014717775278,
                0.28112632863505027
            ]
        },
        {
            "positions": [
                -0.2904149877456158,
                -1.2649622527049786,
                1.4256283897090767,
                2.4549633314059136,
                -1.7700636060289492,
                0.39176424574355806
            ]
        },
        {
            "positions": [
                -0.3225929881297202,
                -1.2591765795546703,
                1.449250721090888,
                2.3227178468457197,
                -1.6804257402803704,
                0.5024021628520658
            ]
        },
        {
            "positions": [
                -0.3547709885138246,
                -1.2533909064043622,
                1.4728730524726994,
                2.1904723622855258,
                -1.5907878745317918,
                0.6130400799605735
            ]
        },
        {
            "positions": [
                -0.386948988897929,
                -1.247605233254054,
                1.4964953838545108,
                2.058226877725332,
                -1.5011500087832133,
                0.7236779970690814
            ]
        },
        {
            "positions": [
                -0.4191269892820334,
                -1.2418195601037458,
                1.5201177152363219,
                1.925981393165138,
                -1.4115121430346347,
                0.8343159141775891
            ]
        },
        {
            "positions": [
                -0.4513049896661378,
                -1.2360338869534375,
                1.5437400466181332,
                1.793735908604944,
                -1.321874277286056,
                0.9449538312860969
            ]
        },
        {
            "positions": [
                -0.4834829900502422,
                -1.2302482138031294,
                1.5673623779999446,
                1.6614904240447501,
                -1.2322364115374773,
                1.0555917483946047
            ]
        },
        {
            "positions": [
                -0.5156609904343465,
                -1.2244625406528211,
                1.590984709381756,
                1.5292449394845562,
                -1.142598545788899,
                1.1662296655031126
            ]
        },
        {
            "positions": [
                -0.547838990818451,
                -1.218676867502513,
                1.614607040763567,
                1.3969994549243623,
                -1.0529606800403202,
                1.2768675826116205
            ]
        },
        {
            "positions": [
                -0.5800169912025555,
                -1.2128911943522047,
                1.6382293721453784,
                1.2647539703641684,
                -0.9633228142917416,
                1.387505499720128
            ]
        },
        {
            "positions": [
                -0.6121949915866598,
                -1.2071055212018966,
                1.6618517035271898,
                1.1325084858039745,
                -0.873684948543163,
                1.4981434168286358
            ]
        },
        {
            "positions": [
                -0.6443729919707641,
                -1.2013198480515883,
                1.6854740349090012,
                1.0002630012437803,
                -0.7840470827945845,
                1.6087813339371437
            ]
        },
        {
            "positions": [
                -0.6765509923548686,
                -1.1955341749012802,
                1.7090963662908123,
                0.8680175166835864,
                -0.6944092170460059,
                1.7194192510456512
            ]
        },
        {
            "positions": [
                -0.708728992738973,
                -1.189748501750972,
                1.7327186976726237,
                0.7357720321233923,
                -0.6047713512974271,
                1.8300571681541595
            ]
        },
        {
            "positions": [
                -0.7409069931230774,
                -1.1839628286006638,
                1.756341029054435,
                0.6035265475631988,
                -0.5151334855488485,
                1.940695085262667
            ]
        },
        {
            "positions": [
                -0.7730849935071819,
                -1.1781771554503555,
                1.7799633604362464,
                0.47128106300300443,
                -0.42549561980026995,
                2.051333002371175
            ]
        },
        {
            "positions": [
                -0.8052629938912862,
                -1.1723914823000474,
                1.8035856918180575,
                0.33903557844281096,
                -0.3358577540516914,
                2.1619709194796823
            ]
        },
        {
            "positions": [
                -0.8374409942753906,
                -1.166605809149739,
                1.8272080231998689,
                0.2067900938826166,
                -0.2462198883031126,
                2.2726088365881902
            ]
        },
        {
            "positions": [
                -0.869618994659495,
                -1.160820135999431,
                1.8508303545816802,
                0.07454460932242313,
                -0.15658202255453424,
                2.383246753696698
            ]
        },
        {
            "positions": [
                -0.9017969950435994,
                -1.1550344628491227,
                1.8744526859634916,
                -0.05770087523777123,
                -0.06694415680595545,
                2.493884670805206
            ]
        },
        {
            "positions": [
                -0.9339749954277038,
                -1.1492487896988146,
                1.8980750173453027,
                -0.1899463597979647,
                0.022693708942623125,
                2.6045225879137135
            ]
        },
        {
            "positions": [
                -0.9661529958118082,
                -1.1434631165485063,
                1.921697348727114,
                -0.32219184435815906,
                0.11233157469120192,
                2.7151605050222214
            ]
        },
        {
            "positions": [
                -0.9983309961959126,
                -1.1376774433981982,
                1.9453196801089252,
                -0.45443732891835253,
                0.20196944043978027,
                2.825798422130729
            ]
        },
        {
            "positions": [
                -1.030508996580017,
                -1.13189177024789,
                1.9689420114907366,
                -0.5866828134785469,
                0.29160730618835906,
                2.936436339239237
            ]
        },
        {
            "positions": [
                -1.0626869969641213,
                -1.1261060970975816,
                1.992564342872548,
                -0.7189282980387408,
                0.3812451719369374,
                3.0470742563477446
            ]
        },
        {
            "positions": [
                -1.0948649973482258,
                -1.1203204239472735,
                2.0161866742543593,
                -0.8511737825989348,
                0.4708830376855161,
                3.1577121734562525
            ]
        }
    ]
}