{
    "goal": {
        "global_pose": {
            "orientation": {
                "w": 0.7047431468963623,
                "x": -0.7094548344612122,
                "y": 0.0024358443915843964,
                "z": -0.0022348060738295317
            },
            "position": {
                "x": 0.6094750761985779,
                "y": 0.3671506643295288,
                "z": 0.19426114857196808
            }
        },
        "name": "move_to_magneteinheit_A"
    },
    "id": "RRTConnect_move_to_magneteinheit_A_93",
    "joint_names": [
        "shoulder_pan_joint",
        "shoulder_lift_joint",
        "elbow_joint",
        "wrist_1_joint",
        "wrist_2_joint",
        "wrist_3_joint"
    ],
    "metrics": {
        "cart_traj_len": 3.2085559013984626,
        "distance_elbow_joint": 3.9219702482671464,
        "distance_shoulder_lift_joint": 1.202137969830284,
        "distance_shoulder_pan_joint": 4.074533636585647,
        "distance_wrist_1_joint": 3.5031248827653996,
        "distance_wrist_2_joint": 1.8667719566741714,
        "distance_wrist_3_joint": 1.402550836313678,
        "smoothness": 0.31241741042733534,
        "time": 0.069017687,
        "traj_len": 3.9963845573763703,
        "weighted_distance": 4.913866913389419
    },
    "planner": "RRTConnect",
    "start": {
        "state": {
            "elbow_joint": -1.9196185241190666,
            "shoulder_lift_joint": -1.2443396400964142,
            "shoulder_pan_joint": 2.6996025414629847,
            "wrist_1_joint": -1.5485510000780065,
            "wrist_2_joint": -1.5709468930060704,
            "wrist_3_joint": 0.4420197071253992
        }
    },
    "waypoints": [
        {
            "positions": [
                2.6996025414629847,
                -1.2443396400964142,
                -1.9196185241190666,
                -1.5485510000780065,
                -1.5709468930060704,
                0.4420197071253992
            ]
        },
        {
            "positions": [
                2.595674816239118,
                -1.255876992785641,
                -1.80825476859683,
                -1.4645199609293338,
                -1.5193204398373241,
                0.412671471148465
            ]
        },
        {
            "positions": [
                2.4917470910152506,
                -1.267414345474868,
                -1.6968910130745931,
                -1.380488921780661,
                -1.4676939866685779,
                0.3833232351715308
            ]
        },
        {
            "positions": [
                2.3878193657913838,
                -1.278951698164095,
                -1.5855272575523565,
                -1.2964578826319886,
                -1.4160675334998316,
                0.35397499919459663
            ]
        },
        {
            "positions": [
                2.283891640567517,
                -1.290489050853322,
                -1.4741635020301196,
                -1.2124268434833159,
                -1.3644410803310856,
                0.32462676321766243
            ]
        },
        {
            "positions": [
                2.1799639153436496,
                -1.3020264035425488,
                -1.362799746507883,
                -1.1283958043346431,
                -1.3128146271623393,
                0.29527852724072823
            ]
        },
        {
            "positions": [
                2.076036190119783,
                -1.3135637562317757,
                -1.2514359909856463,
                -1.0443647651859704,
                -1.261188173993593,
                0.2659302912637941
            ]
        },
        {
            "positions": [
                1.972108464895916,
                -1.3251011089210027,
                -1.1400722354634096,
                -0.9603337260372977,
                -1.2095617208248468,
                0.23658205528685988
            ]
        },
        {
            "positions": [
                1.8681807396720491,
                -1.3366384616102296,
                -1.0287084799411728,
                -0.876302686888625,
                -1.1579352676561006,
                0.20723381930992568
            ]
        },
        {
            "positions": [
                1.764253014448182,
                -1.3481758142994564,
                -0.9173447244189361,
                -0.7922716477399523,
                -1.1063088144873543,
                0.17788558333299148
            ]
        },
        {
            "positions": [
                1.660325289224315,
                -1.3597131669886835,
                -0.8059809688966992,
                -0.7082406085912796,
                -1.054682361318608,
                0.14853734735605728
            ]
        },
        {
            "positions": [
                1.5563975640004482,
                -1.3712505196779103,
                -0.6946172133744626,
                -0.624209569442607,
                -1.0030559081498618,
                0.11918911137912314
            ]
        },
        {
            "positions": [
                1.452469838776581,
                -1.3827878723671372,
                -0.5832534578522259,
                -0.5401785302939344,
                -0.9514294549811156,
                0.08984087540218894
            ]
        },
        {
            "positions": [
                1.3485421135527142,
                -1.3943252250563642,
                -0.47188970232998906,
                -0.45614749114526165,
                -0.8998030018123694,
                0.060492639425254735
            ]
        },
        {
            "positions": [
                1.2446143883288472,
                -1.405862577745591,
                -0.3605259468077524,
                -0.37211645199658894,
                -0.8481765486436232,
                0.03114440344832059
            ]
        },
        {
            "positions": [
                1.1406866631049803,
                -1.4173999304348182,
                -0.24916219128551553,
                -0.2880854128479162,
                -0.796550095474877,
                0.0017961674713863895
            ]
        },
        {
            "positions": [
                1.0367589378811133,
                -1.428937283124045,
                -0.13779843576327888,
                -0.2040543736992435,
                -0.7449236423061307,
                -0.02755206850554781
            ]
        },
        {
            "positions": [
                0.9328312126572462,
                -1.4404746358132718,
                -0.02643468024104223,
                -0.12002333455057079,
                -0.6932971891373845,
                -0.05690030448248201
            ]
        },
        {
            "positions": [
                0.8289034874333794,
                -1.452011988502499,
                0.08492907528119442,
                -0.03599229540189808,
                -0.6416707359686382,
                -0.08624854045941621
            ]
        },
        {
            "positions": [
                0.7249757622095123,
                -1.4635493411917258,
                0.19629283080343152,
                0.04803874374677464,
                -0.5900442827998921,
                -0.11559677643635036
            ]
        },
        {
            "positions": [
                0.6210480369856453,
                -1.4750866938809528,
                0.30765658632566817,
                0.13206978289544735,
                -0.5384178296311457,
                -0.1449450124132846
            ]
        },
        {
            "positions": [
                0.5171203117617784,
                -1.4866240465701797,
                0.4190203418479048,
                0.21610082204411984,
                -0.48679137646239967,
                -0.17429324839021876
            ]
        },
        {
            "positions": [
                0.4131925865379116,
                -1.4981613992594065,
                0.5303840973701415,
                0.30013186119279256,
                -0.4351649232936534,
                -0.2036414843671529
            ]
        },
        {
            "positions": [
                0.30926486131404474,
                -1.5096987519486333,
                0.6417478528923781,
                0.3841629003414653,
                -0.38353847012490716,
                -0.23298972034408716
            ]
        },
        {
            "positions": [
                0.20533713609017745,
                -1.5212361046378604,
                0.7531116084146148,
                0.46819393949013777,
                -0.3319120169561609,
                -0.2623379563210213
            ]
        },
        {
            "positions": [
                0.10140941086631061,
                -1.5327734573270875,
                0.8644753639368519,
                0.5522249786388105,
                -0.28028556378741465,
                -0.29168619229795545
            ]
        },
        {
            "positions": [
                -0.0025183143575562283,
                -1.5443108100163143,
                0.9758391194590885,
                0.6362560177874832,
                -0.2286591106186684,
                -0.3210344282748897
            ]
        },
        {
            "positions": [
                -0.10644603958142351,
                -1.5558481627055412,
                1.0872028749813252,
                0.7202870569361559,
                -0.17703265744992214,
                -0.35038266425182385
            ]
        },
        {
            "positions": [
                -0.21037376480529035,
                -1.567385515394768,
                1.1985666305035618,
                0.8043180960848286,
                -0.1254062042811761,
                -0.379730900228758
            ]
        },
        {
            "positions": [
                -0.3143014900291572,
                -1.578922868083995,
                1.3099303860257985,
                0.8883491352335013,
                -0.07377975111242985,
                -0.40907913620569225
            ]
        },
        {
            "positions": [
                -0.41822921525302403,
                -1.590460220773222,
                1.4212941415480356,
                0.9723801743821741,
                -0.022153297943683592,
                -0.4384273721826264
            ]
        },
        {
            "positions": [
                -0.5221569404768913,
                -1.601997573462449,
                1.5326578970702722,
                1.0564112135308468,
                0.029473155225062664,
                -0.46777560815956065
            ]
        },
        {
            "positions": [
                -0.626084665700758,
                -1.6135349261516758,
                1.6440216525925089,
                1.1404422526795193,
                0.08109960839380892,
                -0.4971238441364948
            ]
        },
        {
            "positions": [
                -0.5428795068761022,
                -1.5209857390655621,
                1.6838361049875723,
                1.2309013226803942,
                0.057241224474443075,
                -0.44563414579740773
            ]
        },
        {
            "positions": [
                -0.4596743480514463,
                -1.4284365519794486,
                1.7236505573826355,
                1.3213603926812691,
                0.033382840555077224,
                -0.39414444745832067
            ]
        },
        {
            "positions": [
                -0.3764691892267904,
                -1.3358873648933351,
                1.763465009777699,
                1.4118194626821439,
                0.009524456635711387,
                -0.3426547491192336
            ]
        },
        {
            "positions": [
                -0.29326403040213456,
                -1.2433381778072214,
                1.8032794621727621,
                1.5022785326830188,
                -0.014333927283654471,
                -0.29116505078014654
            ]
        },
        {
            "positions": [
                -0.2100588715774786,
                -1.1507889907211077,
                1.8430939145678256,
                1.5927376026838937,
                -0.038192311203020315,
                -0.23967535244105942
            ]
        },
        {
            "positions": [
                -0.12685371275282276,
                -1.0582398036349943,
                1.8829083669628888,
                1.6831966726847685,
                -0.062050695122386146,
                -0.1881856541019724
            ]
        },
        {
            "positions": [
                -0.04364855392816691,
                -0.9656906165488807,
                1.9227228193579522,
                1.7736557426856434,
                -0.08590907904175202,
                -0.1366959557628853
            ]
        },
        {
            "positions": [
                0.039556604896488934,
                -0.8731414294627671,
                1.9625372717530154,
                1.8641148126865184,
                -0.10976746296111786,
                -0.08520625742379828
            ]
        },
        {
            "positions": [
                0.12276176372114485,
                -0.7805922423766535,
                2.002351724148079,
                1.9545738826873933,
                -0.1336258468804837,
                -0.03371655908471116
            ]
        }
    ]
}