{
    "goal": {
        "global_pose": {
            "orientation": {
                "w": 0.5084816262002911,
                "x": -0.4908360881923452,
                "y": 0.5182115481033761,
                "z": -0.48164630358495003
            },
            "position": {
                "x": 0.5540239810943604,
                "y": -0.46912469901144505,
                "z": 0.16403168439865112
            }
        },
        "name": "move_to_storage_B"
    },
    "id": "RRTConnect_move_to_storage_B_51",
    "joint_names": [
        "shoulder_pan_joint",
        "shoulder_lift_joint",
        "elbow_joint",
        "wrist_1_joint",
        "wrist_2_joint",
        "wrist_3_joint"
    ],
    "metrics": {
        "cart_traj_len": 2.4495204697692503,
        "distance_elbow_joint": 1.5380365350381275,
        "distance_shoulder_lift_joint": 1.8021888037090654,
        "distance_shoulder_pan_joint": 1.2081429915670032,
        "distance_wrist_1_joint": 2.983763667003809,
        "distance_wrist_2_joint": 2.7035433836602465,
        "distance_wrist_3_joint": 3.278692294355515,
        "smoothness": 0.30426750807195035,
        "time": 0.09174422700000001,
        "traj_len": 3.6761892872013213,
        "weighted_distance": 5.075338344850405
    },
    "planner": "RRTConnect",
    "start": {
        "state": {
            "elbow_joint": 1.664937868594044,
            "shoulder_lift_joint": -0.661644460510453,
            "shoulder_pan_joint": -0.9139846352900073,
            "wrist_1_joint": 2.146753192139373,
            "wrist_2_joint": -2.2341966793290973,
            "wrist_3_joint": 0.005466555786416001
        }
    },
    "waypoints": [
        {
            "positions": [
                -0.9139846352900073,
                -0.661644460510453,
                1.664937868594044,
                2.146753192139373,
                -2.2341966793290973,
                0.005466555786416001
            ]
        },
        {
            "positions": [
                -0.840418543092414,
                -0.7348427755835492,
                1.6339355561765796,
                2.122324529340617,
                -2.1105530239917387,
                -0.03161285951570573
            ]
        },
        {
            "positions": [
                -0.7668524508948207,
                -0.8080410906566454,
                1.602933243759115,
                2.0978958665418608,
                -1.9869093686543802,
                -0.06869227481782746
            ]
        },
        {
            "positions": [
                -0.7494237772108798,
                -0.854914678790143,
                1.5775928692990073,
                2.0191276754149077,
                -1.8731312419918236,
                0.042744040713875206
            ]
        },
        {
            "positions": [
                -0.7319951035269391,
                -0.9017882669236408,
                1.5522524948388996,
                1.9403594842879546,
                -1.759353115329267,
                0.15418035624557785
            ]
        },
        {
            "positions": [
                -0.7145664298429982,
                -0.9486618550571384,
                1.5269121203787916,
                1.8615912931610015,
                -1.6455749886667106,
                0.2656166717772805
            ]
        },
        {
            "positions": [
                -0.6971377561590574,
                -0.995535443190636,
                1.501571745918684,
                1.7828231020340484,
                -1.531796862004154,
                0.3770529873089832
            ]
        },
        {
            "positions": [
                -0.6797090824751166,
                -1.0424090313241337,
                1.4762313714585762,
                1.7040549109070953,
                -1.4180187353415974,
                0.4884893028406858
            ]
        },
        {
            "positions": [
                -0.6622804087911758,
                -1.0892826194576313,
                1.4508909969984685,
                1.6252867197801422,
                -1.3042406086790408,
                0.5999256183723884
            ]
        },
        {
            "positions": [
                -0.6448517351072349,
                -1.136156207591129,
                1.4255506225383605,
                1.546518528653189,
                -1.1904624820164842,
                0.7113619339040912
            ]
        },
        {
            "positions": [
                -0.6274230614232941,
                -1.1830297957246267,
                1.4002102480782528,
                1.467750337526236,
                -1.0766843553539278,
                0.8227982494357938
            ]
        },
        {
            "positions": [
                -0.6099943877393533,
                -1.2299033838581244,
                1.374869873618145,
                1.3889821463992829,
                -0.9629062286913712,
                0.9342345649674965
            ]
        },
        {
            "positions": [
                -0.5925657140554125,
                -1.276776971991622,
                1.3495294991580373,
                1.3102139552723298,
                -0.8491281020288146,
                1.0456708804991992
            ]
        },
        {
            "positions": [
                -0.5751370403714716,
                -1.3236505601251198,
                1.3241891246979294,
                1.2314457641453767,
                -0.7353499753662578,
                1.157107196030902
            ]
        },
        {
            "positions": [
                -0.5577083666875309,
                -1.3705241482586175,
                1.2988487502378216,
                1.1526775730184236,
                -0.6215718487037014,
                1.2685435115626045
            ]
        },
        {
            "positions": [
                -0.54027969300359,
                -1.417397736392115,
                1.273508375777714,
                1.0739093818914704,
                -0.5077937220411448,
                1.3799798270943073
            ]
        },
        {
            "positions": [
                -0.5228510193196492,
                -1.4642713245256127,
                1.2481680013176062,
                0.9951411907645173,
                -0.3940155953785882,
                1.49141614262601
            ]
        },
        {
            "positions": [
                -0.5054223456357083,
                -1.5111449126591103,
                1.2228276268574985,
                0.9163729996375642,
                -0.2802374687160316,
                1.6028524581577126
            ]
        },
        {
            "positions": [
                -0.4879936719517675,
                -1.558018500792608,
                1.1974872523973905,
                0.8376048085106111,
                -0.16645934205347523,
                1.7142887736894152
            ]
        },
        {
            "positions": [
                -0.4705649982678267,
                -1.6048920889261056,
                1.1721468779372828,
                0.758836617383658,
                -0.05268121539091841,
                1.825725089221118
            ]
        },
        {
            "positions": [
                -0.4531363245838859,
                -1.6517656770596032,
                1.146806503477175,
                0.6800684262567049,
                0.061096911271637744,
                1.9371614047528205
            ]
        },
        {
            "positions": [
                -0.43570765089994506,
                -1.6986392651931008,
                1.121466129017067,
                0.6013002351297518,
                0.17487503793419457,
                2.048597720284523
            ]
        },
        {
            "positions": [
                -0.41827897721600427,
                -1.7455128533265984,
                1.0961257545569594,
                0.5225320440027987,
                0.28865316459675094,
                2.1600340358162256
            ]
        },
        {
            "positions": [
                -0.4008503035320634,
                -1.7923864414600963,
                1.0707853800968516,
                0.44376385287584563,
                0.402431291259308,
                2.2714703513479284
            ]
        },
        {
            "positions": [
                -0.45876769184948507,
                -1.7364325395634779,
                1.149442383975263,
                0.337032658897489,
                0.40800757568196133,
                2.3435012544800546
            ]
        },
        {
            "positions": [
                -0.5166850801669067,
                -1.6804786376668592,
                1.2280993878536741,
                0.2303014649191324,
                0.41358386010461473,
                2.415532157612181
            ]
        },
        {
            "positions": [
                -0.5746024684843283,
                -1.6245247357702408,
                1.3067563917320855,
                0.12357027094077577,
                0.4191601445272681,
                2.487563060744307
            ]
        },
        {
            "positions": [
                -0.6325198568017499,
                -1.5685708338736222,
                1.3854133956104966,
                0.016839076962419153,
                0.4247364289499215,
                2.559593963876434
            ]
        },
        {
            "positions": [
                -0.6904372451191716,
                -1.5126169319770038,
                1.4640703994889082,
                -0.08989211701593747,
                0.4303127133725748,
                2.63162486700856
            ]
        },
        {
            "positions": [
                -0.7483546334365933,
                -1.4566630300803851,
                1.5427274033673193,
                -0.1966233109942941,
                0.43588899779522816,
                2.7036557701406863
            ]
        },
        {
            "positions": [
                -0.8062720217540149,
                -1.4007091281837667,
                1.6213844072457306,
                -0.3033545049726507,
                0.44146528221788156,
                2.7756866732728125
            ]
        },
        {
            "positions": [
                -0.8641894100714365,
                -1.3447552262871483,
                1.7000414111241418,
                -0.4100856989510073,
                0.4470415666405349,
                2.8477175764049387
            ]
        },
        {
            "positions": [
                -0.9221067983888582,
                -1.2888013243905296,
                1.778698415002553,
                -0.516816892929364,
                0.4526178510631883,
                2.9197484795370654
            ]
        },
        {
            "positions": [
                -0.9800241867062799,
                -1.232847422493911,
                1.8573554188809644,
                -0.6235480869077206,
                0.45819413548584165,
                2.9917793826691916
            ]
        },
        {
            "positions": [
                -1.0379415750237015,
                -1.1768935205972926,
                1.9360124227593756,
                -0.7302792808860772,
                0.463770419908495,
                3.063810285801318
            ]
        },
        {
            "positions": [
                -1.095858963341123,
                -1.1209396187006742,
                2.014669426637787,
                -0.8370104748644337,
                0.4693467043311484,
                3.135841188933444
            ]
        }
    ]
}