{
    "goal": {
        "global_pose": {
            "orientation": {
                "w": 0.7047431493862688,
                "x": -0.7094548369677653,
                "y": 0.0024358444001904,
                "z": -0.0022348060817251984
            },
            "position": {
                "x": -0.39052492380142206,
                "y": 0.3671506643295288,
                "z": 0.19426114857196808
            }
        },
        "name": "move_to_magneteinheit_D"
    },
    "id": "RRTConnect_move_to_magneteinheit_D_125",
    "joint_names": [
        "shoulder_pan_joint",
        "shoulder_lift_joint",
        "elbow_joint",
        "wrist_1_joint",
        "wrist_2_joint",
        "wrist_3_joint"
    ],
    "metrics": {
        "cart_traj_len": 4.449661817788011,
        "distance_elbow_joint": 3.142244223293081,
        "distance_shoulder_lift_joint": 1.7312144485513892,
        "distance_shoulder_pan_joint": 3.0597731718968135,
        "distance_wrist_1_joint": 1.5514832651229036,
        "distance_wrist_2_joint": 1.3222545376697514,
        "distance_wrist_3_joint": 3.6835424186183303,
        "smoothness": 0.2689705715929243,
        "time": 0.173688592,
        "traj_len": 3.8066405221864947,
        "weighted_distance": 4.9730608990019
    },
    "planner": "RRTConnect",
    "start": {
        "state": {
            "elbow_joint": 0.749534889911806,
            "shoulder_lift_joint": -0.6476975780787326,
            "shoulder_pan_joint": -2.711696901376241,
            "wrist_1_joint": -0.07506478083263063,
            "wrist_2_joint": 0.43296659715538205,
            "wrist_3_joint": -3.14703540197715
        }
    },
    "waypoints": [
        {
            "positions": [
                -2.711696901376241,
                -0.6476975780787326,
                0.749534889911806,
                -0.07506478083263063,
                0.43296659715538205,
                -3.14703540197715
            ]
        },
        {
            "positions": [
                -2.767709316574569,
                -0.7485469600872214,
                0.7096155847446417,
                -0.0831534742994797,
                0.49892677123144047,
                -3.1183967999522855
            ]
        },
        {
            "positions": [
                -2.823721731772897,
                -0.8493963420957102,
                0.6696962795774776,
                -0.09124216776632876,
                0.5648869453074988,
                -3.0897581979274213
            ]
        },
        {
            "positions": [
                -2.725846264570764,
                -0.9008275886142935,
                0.5987110766201057,
                -0.08298128563329932,
                0.5434312209214892,
                -2.944896412973936
            ]
        },
        {
            "positions": [
                -2.627970797368632,
                -0.9522588351328767,
                0.5277258736627338,
                -0.07472040350026986,
                0.5219754965354797,
                -2.8000346280204504
            ]
        },
        {
            "positions": [
                -2.5300953301664992,
                -1.00369008165146,
                0.4567406707053619,
                -0.0664595213672404,
                0.5005197721494701,
                -2.655172843066965
            ]
        },
        {
            "positions": [
                -2.4322198629643665,
                -1.0551213281700431,
                0.38575546774799,
                -0.05819863923421095,
                0.4790640477634605,
                -2.5103110581134795
            ]
        },
        {
            "positions": [
                -2.3343443957622343,
                -1.1065525746886262,
                0.3147702647906181,
                -0.0499377571011815,
                0.45760832337745094,
                -2.365449273159994
            ]
        },
        {
            "positions": [
                -2.2364689285601016,
                -1.1579838212072096,
                0.24378506183324622,
                -0.04167687496815205,
                0.4361525989914413,
                -2.220587488206508
            ]
        },
        {
            "positions": [
                -2.138593461357969,
                -1.2094150677257929,
                0.17279985887587435,
                -0.03341599283512259,
                0.41469687460543175,
                -2.075725703253023
            ]
        },
        {
            "positions": [
                -2.0407179941558367,
                -1.260846314244376,
                0.10181465591850247,
                -0.025155110702093142,
                0.3932411502194222,
                -1.9308639182995375
            ]
        },
        {
            "positions": [
                -1.942842526953704,
                -1.312277560762959,
                0.0308294529611306,
                -0.016894228569063682,
                0.37178542583341256,
                -1.786002133346052
            ]
        },
        {
            "positions": [
                -1.8449670597515715,
                -1.3637088072815424,
                -0.040155749996241386,
                -0.008633346436034237,
                0.35032970144740305,
                -1.6411403483925664
            ]
        },
        {
            "positions": [
                -1.7470915925494388,
                -1.4151400538001258,
                -0.11114095295361326,
                -0.0003724643030047631,
                0.32887397706139343,
                -1.496278563439081
            ]
        },
        {
            "positions": [
                -1.6492161253473063,
                -1.4665713003187089,
                -0.18212615591098513,
                0.007888417830024669,
                0.30741825267538386,
                -1.3514167784855955
            ]
        },
        {
            "positions": [
                -1.5513406581451736,
                -1.5180025468372922,
                -0.2531113588683571,
                0.016149299963054142,
                0.28596252828937424,
                -1.2065549935321098
            ]
        },
        {
            "positions": [
                -1.4534651909430414,
                -1.5694337933558753,
                -0.3240965618257289,
                0.024410182096083588,
                0.2645068039033647,
                -1.0616932085786246
            ]
        },
        {
            "positions": [
                -1.3555897237409087,
                -1.6208650398744586,
                -0.395081764783101,
                0.03267106422911305,
                0.2430510795173551,
                -0.9168314236251387
            ]
        },
        {
            "positions": [
                -1.2577142565387762,
                -1.6722962863930417,
                -0.4660669677404726,
                0.04093194636214248,
                0.22159535513134554,
                -0.7719696386716537
            ]
        },
        {
            "positions": [
                -1.1598387893366435,
                -1.723727532911625,
                -0.5370521706978447,
                0.04919282849517195,
                0.20013963074533592,
                -0.6271078537181678
            ]
        },
        {
            "positions": [
                -1.061963322134511,
                -1.7751587794302082,
                -0.6080373736552164,
                0.0574537106282014,
                0.17868390635932635,
                -0.4822460687646828
            ]
        },
        {
            "positions": [
                -0.9640878549323786,
                -1.8265900259487915,
                -0.6790225766125885,
                0.06571459276123084,
                0.15722818197331678,
                -0.3373842838111969
            ]
        },
        {
            "positions": [
                -0.8662123877302461,
                -1.8780212724673746,
                -0.7500077795699603,
                0.07397547489426029,
                0.13577245758730722,
                -0.19252249885771144
            ]
        },
        {
            "positions": [
                -0.7683369205281135,
                -1.929452518985958,
                -0.8209929825273322,
                0.08223635702728975,
                0.11431673320129761,
                -0.0476607139042262
            ]
        },
        {
            "positions": [
                -0.6877510844033445,
                -1.9229941496612628,
                -0.9343057106285132,
                0.15898788913576362,
                0.07248531236360856,
                -0.0029793147313367865
            ]
        },
        {
            "positions": [
                -0.6071652482785754,
                -1.9165357803365675,
                -1.0476184387296943,
                0.23573942124423747,
                0.03065389152591949,
                0.04170208444155263
            ]
        },
        {
            "positions": [
                -0.5265794121538064,
                -1.9100774110118723,
                -1.1609311668308753,
                0.3124909533527113,
                -0.01117752931176956,
                0.08638348361444205
            ]
        },
        {
            "positions": [
                -0.44599357602903744,
                -1.9036190416871772,
                -1.2742438949320563,
                0.3892424854611852,
                -0.053008950149458625,
                0.13106488278733147
            ]
        },
        {
            "positions": [
                -0.36540773990426845,
                -1.8971606723624819,
                -1.3875566230332375,
                0.465994017569659,
                -0.09484037098714769,
                0.17574628196022085
            ]
        },
        {
            "positions": [
                -0.2848219037794994,
                -1.8907023030377867,
                -1.5008693511344182,
                0.5427455496781328,
                -0.13667179182483674,
                0.2204276811331103
            ]
        },
        {
            "positions": [
                -0.20423606765473035,
                -1.8842439337130914,
                -1.6141820792355994,
                0.6194970817866067,
                -0.17850321266252583,
                0.26510908030599967
            ]
        },
        {
            "positions": [
                -0.12365023152996131,
                -1.8777855643883963,
                -1.7274948073367804,
                0.6962486138950805,
                -0.22033463350021487,
                0.3097904794788891
            ]
        },
        {
            "positions": [
                -0.07743932845472844,
                -1.8919044060805041,
                -1.8642790572703598,
                0.8029431962299494,
                -0.2235942833839215,
                0.30279239400698
            ]
        },
        {
            "positions": [
                -0.03122842537949556,
                -1.906023247772612,
                -2.0010633072039394,
                0.9096377785648183,
                -0.22685393326762815,
                0.2957943085350708
            ]
        },
        {
            "positions": [
                -0.03277992453819295,
                -1.948169538631657,
                -2.0952318713123272,
                1.0051054571512847,
                -0.1857570729364817,
                0.2646034541032675
            ]
        },
        {
            "positions": [
                -0.03433142369689034,
                -1.9903158294907022,
                -2.189400435420715,
                1.1005731357377513,
                -0.14466021260533524,
                0.23341259967146422
            ]
        },
        {
            "positions": [
                -0.03588292285558772,
                -2.0324621203497473,
                -2.283568999529103,
                1.1960408143242178,
                -0.10356335227418875,
                0.20222174523966088
            ]
        },
        {
            "positions": [
                -0.08608310206580883,
                -2.113500786044831,
                -2.3199491108131607,
                1.2787151130237708,
                -0.011795775624499419,
                0.1625058109319736
            ]
        },
        {
            "positions": [
                -0.13628328127602996,
                -2.1945394517399146,
                -2.356329222097218,
                1.3613894117233236,
                0.07997180102518991,
                0.12278987662428634
            ]
        },
        {
            "positions": [
                -0.18648346048625106,
                -2.2755781174349985,
                -2.392709333381276,
                1.4440637104228766,
                0.17173937767487923,
                0.08307394231659905
            ]
        }
    ]
}