{
    "goal": {
        "global_pose": {
            "orientation": {
                "w": 0.5084816262002911,
                "x": -0.4908360881923452,
                "y": 0.5182115481033761,
                "z": -0.48164630358495003
            },
            "position": {
                "x": 0.5540239810943604,
                "y": -0.46912469901144505,
                "z": 0.16403168439865112
            }
        },
        "name": "move_to_storage_B"
    },
    "id": "RRTConnect_move_to_storage_B_29",
    "joint_names": [
        "shoulder_pan_joint",
        "shoulder_lift_joint",
        "elbow_joint",
        "wrist_1_joint",
        "wrist_2_joint",
        "wrist_3_joint"
    ],
    "metrics": {
        "cart_traj_len": 0.7662028184793261,
        "distance_elbow_joint": 0.35002073676560563,
        "distance_shoulder_lift_joint": 0.46004939713012294,
        "distance_shoulder_pan_joint": 0.45519484998439685,
        "distance_wrist_1_joint": 3.0776615696503242,
        "distance_wrist_2_joint": 2.718274922548592,
        "distance_wrist_3_joint": 3.15859906168776,
        "smoothness": 0.12182000214756122,
        "time": 0.116669904,
        "traj_len": 3.1968422760228257,
        "weighted_distance": 4.72577349788807
    },
    "planner": "RRTConnect",
    "start": {
        "state": {
            "elbow_joint": 1.664937868594044,
            "shoulder_lift_joint": -0.661644460510453,
            "shoulder_pan_joint": -0.9139846352900073,
            "wrist_1_joint": 2.146753192139373,
            "wrist_2_joint": -2.2341966793290973,
            "wrist_3_joint": 0.005466555786416001
        }
    },
    "waypoints": [
        {
            "positions": [
                -0.9139846352900073,
                -0.661644460510453,
                1.664937868594044,
                2.146753192139373,
                -2.2341966793290973,
                0.005466555786416001
            ]
        },
        {
            "positions": [
                -0.8456031868166316,
                -0.7203705738626345,
                1.6795235310702215,
                2.171912508323926,
                -2.063519473095368,
                -0.023528313312326285
            ]
        },
        {
            "positions": [
                -0.7772217383432558,
                -0.7790966872148158,
                1.694109193546399,
                2.197071824508479,
                -1.892842266861639,
                -0.05252318241106857
            ]
        },
        {
            "positions": [
                -0.790489736386491,
                -0.7933715693158891,
                1.7074779190386178,
                2.070932535455095,
                -1.793803912274925,
                -0.18171523755649668
            ]
        },
        {
            "positions": [
                -0.8037577344297262,
                -0.8076464514169626,
                1.7208466445308366,
                1.9447932464017108,
                -1.6947655576882112,
                -0.3109072927019248
            ]
        },
        {
            "positions": [
                -0.8170257324729615,
                -0.8219213335180359,
                1.7342153700230554,
                1.8186539573483267,
                -1.5957272031014973,
                -0.44009934784735294
            ]
        },
        {
            "positions": [
                -0.8302937305161967,
                -0.8361962156191092,
                1.7475840955152742,
                1.6925146682949428,
                -1.4966888485147836,
                -0.569291402992781
            ]
        },
        {
            "positions": [
                -0.8435617285594319,
                -0.8504710977201826,
                1.760952821007493,
                1.5663753792415585,
                -1.3976504939280696,
                -0.6984834581382092
            ]
        },
        {
            "positions": [
                -0.8568297266026672,
                -0.8647459798212559,
                1.7743215464997117,
                1.4402360901881746,
                -1.2986121393413557,
                -0.8276755132836373
            ]
        },
        {
            "positions": [
                -0.8700977246459024,
                -0.8790208619223292,
                1.7876902719919303,
                1.3140968011347904,
                -1.1995737847546417,
                -0.9568675684290655
            ]
        },
        {
            "positions": [
                -0.8833657226891376,
                -0.8932957440234025,
                1.801058997484149,
                1.1879575120814065,
                -1.100535430167928,
                -1.0860596235744935
            ]
        },
        {
            "positions": [
                -0.8966337207323728,
                -0.9075706261244758,
                1.814427722976368,
                1.0618182230280224,
                -1.001497075581214,
                -1.2152516787199217
            ]
        },
        {
            "positions": [
                -0.909901718775608,
                -0.9218455082255492,
                1.8277964484685867,
                0.9356789339746381,
                -0.9024587209945001,
                -1.3444437338653499
            ]
        },
        {
            "positions": [
                -0.9231697168188433,
                -0.9361203903266225,
                1.8411651739608055,
                0.8095396449212542,
                -0.8034203664077864,
                -1.4736357890107779
            ]
        },
        {
            "positions": [
                -0.9364377148620785,
                -0.9503952724276958,
                1.8545338994530243,
                0.6834003558678701,
                -0.7043820118210724,
                -1.602827844156206
            ]
        },
        {
            "positions": [
                -0.9497057129053137,
                -0.9646701545287693,
                1.867902624945243,
                0.5572610668144862,
                -0.6053436572343587,
                -1.732019899301634
            ]
        },
        {
            "positions": [
                -0.962973710948549,
                -0.9789450366298426,
                1.8812713504374619,
                0.43112177776110183,
                -0.5063053026476445,
                -1.8612119544470624
            ]
        },
        {
            "positions": [
                -0.9762417089917842,
                -0.9932199187309159,
                1.8946400759296806,
                0.3049824887077177,
                -0.4072669480609308,
                -1.9904040095924904
            ]
        },
        {
            "positions": [
                -0.9895097070350194,
                -1.0074948008319893,
                1.9080088014218994,
                0.17884319965433404,
                -0.30822859347421705,
                -2.1195960647379186
            ]
        },
        {
            "positions": [
                -1.0027777050782547,
                -1.0217696829330625,
                1.9213775269141182,
                0.05270391060094948,
                -0.20919023888750288,
                -2.248788119883347
            ]
        },
        {
            "positions": [
                -1.0160457031214898,
                -1.036044565034136,
                1.9347462524063368,
                -0.0734353784524342,
                -0.11015188430078915,
                -2.3779801750287746
            ]
        },
        {
            "positions": [
                -1.029313701164725,
                -1.0503194471352093,
                1.9481149778985556,
                -0.19957466750581832,
                -0.01111352971407542,
                -2.507172230174203
            ]
        },
        {
            "positions": [
                -1.0425816992079602,
                -1.0645943292362827,
                1.9614837033907744,
                -0.3257139565592029,
                0.08792482487263875,
                -2.6363642853196314
            ]
        },
        {
            "positions": [
                -1.0558496972511955,
                -1.078869211337356,
                1.9748524288829932,
                -0.45185324561258655,
                0.18696317945935226,
                -2.765556340465059
            ]
        },
        {
            "positions": [
                -1.0691176952944308,
                -1.0931440934384293,
                1.988221154375212,
                -0.5779925346659707,
                0.2860015340460662,
                -2.8947483956104874
            ]
        },
        {
            "positions": [
                -1.0823856933376659,
                -1.1074189755395025,
                2.001589879867431,
                -0.7041318237193548,
                0.38503988863278016,
                -3.0239404507559158
            ]
        },
        {
            "positions": [
                -1.0956536913809012,
                -1.121693857640576,
                2.0149586053596495,
                -0.8302711127727391,
                0.4840782432194943,
                -3.1531325059013438
            ]
        }
    ]
}