{
    "goal": {
        "global_pose": {
            "orientation": {
                "w": 0.7031023502349854,
                "x": -0.7110244035720825,
                "y": 0.007748599164187908,
                "z": 0.005598929710686207
            },
            "position": {
                "x": 0.11585023208521307,
                "y": 0.44412534475326537,
                "z": 0.3711530566215515
            }
        },
        "name": "move_to_auspresseinheit_A"
    },
    "id": "RRTConnect_move_to_auspresseinheit_A_103",
    "joint_names": [
        "shoulder_pan_joint",
        "shoulder_lift_joint",
        "elbow_joint",
        "wrist_1_joint",
        "wrist_2_joint",
        "wrist_3_joint"
    ],
    "metrics": {
        "cart_traj_len": 0.689377687674826,
        "distance_elbow_joint": 0.26939503137206744,
        "distance_shoulder_lift_joint": 0.5349813041724392,
        "distance_shoulder_pan_joint": 1.0423267856037817,
        "distance_wrist_1_joint": 1.3876747451887095,
        "distance_wrist_2_joint": 1.761916897557977,
        "distance_wrist_3_joint": 1.1717670714586177,
        "smoothness": 1.2416779661690993,
        "time": 0.145259246,
        "traj_len": 2.483558301178692,
        "weighted_distance": 3.4148481109732414
    },
    "planner": "RRTConnect",
    "start": {
        "state": {
            "elbow_joint": 2.4225746658250005,
            "shoulder_lift_joint": -1.3736534386056498,
            "shoulder_pan_joint": -0.3378633547517467,
            "wrist_1_joint": -1.0288598680537169,
            "wrist_2_joint": 1.233022673432363,
            "wrist_3_joint": -3.0940220416140027
        }
    },
    "waypoints": [
        {
            "positions": [
                -0.3378633547517467,
                -1.3736534386056498,
                2.4225746658250005,
                -1.0288598680537169,
                1.233022673432363,
                -3.0940220416140027
            ]
        },
        {
            "positions": [
                -0.30151394283914795,
                -1.4078912259078353,
                2.4061671803584312,
                -0.9212539465693279,
                1.1054409942561099,
                -3.030468807003193
            ]
        },
        {
            "positions": [
                -0.26516453092654924,
                -1.4421290132100208,
                2.389759694891862,
                -0.813648025084939,
                0.9778593150798566,
                -2.9669155723923835
            ]
        },
        {
            "positions": [
                -0.22881511901395046,
                -1.4763668005122064,
                2.3733522094252932,
                -0.7060421036005501,
                0.8502776359036033,
                -2.903362337781574
            ]
        },
        {
            "positions": [
                -0.19246570710135172,
                -1.5106045878143919,
                2.356944723958724,
                -0.5984361821161612,
                0.7226959567273501,
                -2.839809103170764
            ]
        },
        {
            "positions": [
                -0.15611629518875295,
                -1.5448423751165774,
                2.340537238492155,
                -0.49083026063177215,
                0.5951142775510967,
                -2.7762558685599545
            ]
        },
        {
            "positions": [
                -0.1197668832761542,
                -1.579080162418763,
                2.3241297530255856,
                -0.3832243391473833,
                0.4675325983748435,
                -2.712702633949145
            ]
        },
        {
            "positions": [
                -0.08341747136355543,
                -1.6133179497209484,
                2.3077222675590168,
                -0.27561841766299433,
                0.3399509191985902,
                -2.6491493993383353
            ]
        },
        {
            "positions": [
                -0.04706805945095671,
                -1.647555737023134,
                2.2913147820924475,
                -0.16801249617860547,
                0.21236924002233715,
                -2.5855961647275256
            ]
        },
        {
            "positions": [
                -0.01071864753835795,
                -1.6817935243253195,
                2.2749072966258783,
                -0.060406574694216474,
                0.08478756084608371,
                -2.522042930116716
            ]
        },
        {
            "positions": [
                0.09145022080312674,
                -1.7141994126757152,
                2.292296962650585,
                -0.12029535352696061,
                0.17245638727061197,
                -2.607726924396906
            ]
        },
        {
            "positions": [
                0.19361908914461146,
                -1.7466053010261107,
                2.309686628675291,
                -0.18018413235970476,
                0.26012521369514024,
                -2.6934109186770963
            ]
        },
        {
            "positions": [
                0.29578795748609615,
                -1.7790111893765064,
                2.3270762946999977,
                -0.2400729111924489,
                0.3477940401196685,
                -2.7790949129572864
            ]
        },
        {
            "positions": [
                0.39795682582758085,
                -1.811417077726902,
                2.3444659607247043,
                -0.299961690025193,
                0.43546286654419675,
                -2.8647789072374765
            ]
        },
        {
            "positions": [
                0.5001256941690656,
                -1.8438229660772978,
                2.361855626749411,
                -0.3598504688579372,
                0.5231316929687251,
                -2.9504629015176667
            ]
        },
        {
            "positions": [
                0.6022945625105502,
                -1.8762288544276933,
                2.379245292774117,
                -0.41973924769068127,
                0.6108005193932533,
                -3.036146895797857
            ]
        },
        {
            "positions": [
                0.704463430852035,
                -1.908634742778089,
                2.3966349587988236,
                -0.47962802652342545,
                0.6984693458177816,
                -3.121830890078047
            ]
        }
    ]
}