{
    "goal": {
        "global_pose": {
            "orientation": {
                "w": 0.5084816262002911,
                "x": -0.4908360881923452,
                "y": 0.5182115481033761,
                "z": -0.48164630358495003
            },
            "position": {
                "x": 0.5540239810943604,
                "y": -0.46912469901144505,
                "z": 0.16403168439865112
            }
        },
        "name": "move_to_storage_B"
    },
    "id": "RRTConnect_move_to_storage_B_40",
    "joint_names": [
        "shoulder_pan_joint",
        "shoulder_lift_joint",
        "elbow_joint",
        "wrist_1_joint",
        "wrist_2_joint",
        "wrist_3_joint"
    ],
    "metrics": {
        "cart_traj_len": 1.6104209822239421,
        "distance_elbow_joint": 0.35051161524041596,
        "distance_shoulder_lift_joint": 0.6015216651371316,
        "distance_shoulder_pan_joint": 1.5035565532154842,
        "distance_wrist_1_joint": 2.9836238757942075,
        "distance_wrist_2_joint": 2.7032759873304215,
        "distance_wrist_3_joint": 3.147973267211603,
        "smoothness": 0.12903037468582657,
        "time": 0.086724336,
        "traj_len": 3.360128414797456,
        "weighted_distance": 4.824241843178791
    },
    "planner": "RRTConnect",
    "start": {
        "state": {
            "elbow_joint": 1.664937868594044,
            "shoulder_lift_joint": -0.661644460510453,
            "shoulder_pan_joint": -0.9139846352900073,
            "wrist_1_joint": 2.146753192139373,
            "wrist_2_joint": -2.2341966793290973,
            "wrist_3_joint": 0.005466555786416001
        }
    },
    "waypoints": [
        {
            "positions": [
                -0.9139846352900073,
                -0.661644460510453,
                1.664937868594044,
                2.146753192139373,
                -2.2341966793290973,
                0.005466555786416001
            ]
        },
        {
            "positions": [
                -0.8478712990060354,
                -0.7146826206943431,
                1.66650949585176,
                2.1014532465686844,
                -2.1350273053550968,
                -0.09376973745116894
            ]
        },
        {
            "positions": [
                -0.7817579627220634,
                -0.7677207808782331,
                1.6680811231094759,
                2.056153300997996,
                -2.035857931381096,
                -0.19300603068875388
            ]
        },
        {
            "positions": [
                -0.7156446264380916,
                -0.8207589410621232,
                1.6696527503671916,
                2.010853355427307,
                -1.9366885574070951,
                -0.29224232392633875
            ]
        },
        {
            "positions": [
                -0.6495312901541197,
                -0.8737971012460134,
                1.6712243776249076,
                1.9655534098566185,
                -1.8375191834330944,
                -0.39147861716392374
            ]
        },
        {
            "positions": [
                -0.5834179538701477,
                -0.9268352614299035,
                1.6727960048826236,
                1.92025346428593,
                -1.7383498094590937,
                -0.49071491040150866
            ]
        },
        {
            "positions": [
                -0.5173046175861757,
                -0.9798734216137935,
                1.6743676321403396,
                1.874953518715241,
                -1.639180435485093,
                -0.5899512036390936
            ]
        },
        {
            "positions": [
                -0.45119128130220393,
                -1.0329115817976837,
                1.6759392593980555,
                1.8296535731445525,
                -1.5400110615110922,
                -0.6891874968766786
            ]
        },
        {
            "positions": [
                -0.385077945018232,
                -1.0859497419815738,
                1.6775108866557713,
                1.7843536275738638,
                -1.4408416875370915,
                -0.7884237901142636
            ]
        },
        {
            "positions": [
                -0.31896460873426,
                -1.1389879021654639,
                1.6790825139134873,
                1.739053682003175,
                -1.3416723135630908,
                -0.8876600833518485
            ]
        },
        {
            "positions": [
                -0.25285127245028816,
                -1.192026062349354,
                1.6806541411712033,
                1.6937537364324864,
                -1.24250293958909,
                -0.9868963765894334
            ]
        },
        {
            "positions": [
                -0.2949724319690764,
                -1.1884690591844425,
                1.697393908304366,
                1.5672225154281203,
                -1.1569238272095694,
                -1.094676893331221
            ]
        },
        {
            "positions": [
                -0.33709359148786466,
                -1.184912056019531,
                1.714133675437529,
                1.4406912944237542,
                -1.0713447148300488,
                -1.2024574100730088
            ]
        },
        {
            "positions": [
                -0.3792147510066529,
                -1.1813550528546193,
                1.7308734425706918,
                1.3141600734193883,
                -0.9857656024505281,
                -1.3102379268147963
            ]
        },
        {
            "positions": [
                -0.42133591052544117,
                -1.1777980496897078,
                1.7476132097038546,
                1.1876288524150223,
                -0.9001864900710075,
                -1.4180184435565841
            ]
        },
        {
            "positions": [
                -0.4634570700442294,
                -1.1742410465247963,
                1.7643529768370174,
                1.0610976314106562,
                -0.8146073776914868,
                -1.5257989602983717
            ]
        },
        {
            "positions": [
                -0.5055782295630176,
                -1.1706840433598846,
                1.7810927439701802,
                0.9345664104062902,
                -0.7290282653119662,
                -1.6335794770401595
            ]
        },
        {
            "positions": [
                -0.5476993890818058,
                -1.1671270401949732,
                1.797832511103343,
                0.8080351894019241,
                -0.6434491529324455,
                -1.741359993781947
            ]
        },
        {
            "positions": [
                -0.5898205486005942,
                -1.1635700370300617,
                1.814572278236506,
                0.6815039683975579,
                -0.5578700405529248,
                -1.8491405105237346
            ]
        },
        {
            "positions": [
                -0.6319417081193823,
                -1.1600130338651502,
                1.8313120453696687,
                0.554972747393192,
                -0.4722909281734041,
                -1.9569210272655222
            ]
        },
        {
            "positions": [
                -0.6740628676381706,
                -1.1564560307002387,
                1.8480518125028316,
                0.42844152638882593,
                -0.3867118157938835,
                -2.0647015440073098
            ]
        },
        {
            "positions": [
                -0.716184027156959,
                -1.152899027535327,
                1.8647915796359944,
                0.30191030538445984,
                -0.3011327034143627,
                -2.1724820607490978
            ]
        },
        {
            "positions": [
                -0.7583051866757471,
                -1.1493420243704155,
                1.8815313467691572,
                0.17537908438009397,
                -0.21555359103484228,
                -2.2802625774908853
            ]
        },
        {
            "positions": [
                -0.8004263461945355,
                -1.145785021205504,
                1.89827111390232,
                0.04884786337572766,
                -0.1299744786553214,
                -2.388043094232673
            ]
        },
        {
            "positions": [
                -0.8425475057133236,
                -1.1422280180405924,
                1.915010881035483,
                -0.0776833576286382,
                -0.044395366275800985,
                -2.4958236109744605
            ]
        },
        {
            "positions": [
                -0.8846686652321119,
                -1.138671014875681,
                1.9317506481686457,
                -0.2042145786330043,
                0.04118374610371989,
                -2.603604127716248
            ]
        },
        {
            "positions": [
                -0.9267898247509002,
                -1.1351140117107694,
                1.9484904153018086,
                -0.3307457996373706,
                0.12676285848324054,
                -2.711384644458036
            ]
        },
        {
            "positions": [
                -0.9689109842696884,
                -1.131557008545858,
                1.9652301824349714,
                -0.4572770206417365,
                0.2123419708627612,
                -2.8191651611998236
            ]
        },
        {
            "positions": [
                -1.0110321437884766,
                -1.1280000053809465,
                1.9819699495681342,
                -0.5838082416461023,
                0.29792108324228184,
                -2.926945677941611
            ]
        },
        {
            "positions": [
                -1.0531533033072649,
                -1.1244430022160348,
                1.998709716701297,
                -0.7103394626504682,
                0.3835001956218025,
                -3.034726194683399
            ]
        },
        {
            "positions": [
                -1.0952744628260531,
                -1.1208859990511233,
                2.01544948383446,
                -0.8368706836548346,
                0.4690793080013232,
                -3.142506711425187
            ]
        }
    ]
}