{
    "goal": {
        "global_pose": {
            "orientation": {
                "w": 0.5084816217422485,
                "x": -0.49083608388900757,
                "y": 0.5182115435600281,
                "z": -0.4816462993621826
            },
            "position": {
                "x": 0.5540239810943604,
                "y": 0.030875300988554955,
                "z": 0.16403168439865112
            }
        },
        "name": "move_to_storage_A"
    },
    "id": "RRTConnect_move_to_storage_A_4",
    "joint_names": [
        "shoulder_pan_joint",
        "shoulder_lift_joint",
        "elbow_joint",
        "wrist_1_joint",
        "wrist_2_joint",
        "wrist_3_joint"
    ],
    "metrics": {
        "cart_traj_len": 0.35318459860664864,
        "distance_elbow_joint": 0.4504095282842868,
        "distance_shoulder_lift_joint": 0.23306015237951305,
        "distance_shoulder_pan_joint": 0.4632874143252908,
        "distance_wrist_1_joint": 0.2510066460786876,
        "distance_wrist_2_joint": 1.0916888075375262,
        "distance_wrist_3_joint": 0.09888359212143882,
        "smoothness": 4.440892133664971e-16,
        "time": 0.052038872,
        "traj_len": 1.6088306749707202,
        "weighted_distance": 2.0319445805892036
    },
    "planner": "RRTConnect",
    "start": {
        "state": {
            "elbow_joint": 1.971548259319323,
            "shoulder_lift_joint": -1.1394851275133948,
            "shoulder_pan_joint": 0.1228115487234821,
            "wrist_1_joint": -0.7804723859257726,
            "wrist_2_joint": 0.12958671773740124,
            "wrist_3_joint": -3.192489227718131
        }
    },
    "waypoints": [
        {
            "positions": [
                0.1228115487234821,
                -1.1394851275133948,
                1.971548259319323,
                -0.7804723859257726,
                0.12958671773740124,
                -3.192489227718131
            ]
        },
        {
            "positions": [
                0.0566276323912977,
                -1.1727794349961824,
                2.0358924776456497,
                -0.816330478222728,
                0.28554226167133356,
                -3.178363000272211
            ]
        },
        {
            "positions": [
                -0.0095562839408867,
                -1.20607374247897,
                2.1002366959719763,
                -0.8521885705196833,
                0.44149780560526586,
                -3.1642367728262917
            ]
        },
        {
            "positions": [
                -0.0757402002730711,
                -1.2393680499617576,
                2.1645809142983032,
                -0.8880466628166387,
                0.5974533495391982,
                -3.1501105453803717
            ]
        },
        {
            "positions": [
                -0.1419241166052555,
                -1.272662357444545,
                2.2289251326246298,
                -0.9239047551135942,
                0.7534088934731304,
                -3.1359843179344518
            ]
        },
        {
            "positions": [
                -0.2081080329374399,
                -1.3059566649273326,
                2.2932693509509563,
                -0.9597628474105495,
                0.9093644374070629,
                -3.121858090488532
            ]
        },
        {
            "positions": [
                -0.2742919492696243,
                -1.3392509724101203,
                2.3576135692772833,
                -0.9956209397075049,
                1.065319981340995,
                -3.1077318630426123
            ]
        },
        {
            "positions": [
                -0.3404758656018087,
                -1.3725452798929079,
                2.42195778760361,
                -1.0314790320044602,
                1.2212755252749274,
                -3.0936056355966923
            ]
        }
    ]
}{
    "goal": {
        "global_pose": {
            "orientation": {
                "w": 0.5084816217422485,
                "x": -0.49083608388900757,
                "y": 0.5182115435600281,
                "z": -0.4816462993621826
            },
            "position": {
                "x": 0.5540239810943604,
                "y": 0.030875300988554955,
                "z": 0.16403168439865112
            }
        },
        "name": "move_to_storage_A"
    },
    "id": "RRTConnect_move_to_storage_A_4",
    "joint_names": [
        "shoulder_pan_joint",
        "shoulder_lift_joint",
        "elbow_joint",
        "wrist_1_joint",
        "wrist_2_joint",
        "wrist_3_joint"
    ],
    "metrics": {
        "cart_traj_len": 0.35269281365066246,
        "distance_elbow_joint": 0.44978246590758664,
        "distance_shoulder_lift_joint": 0.23311408844779713,
        "distance_shoulder_pan_joint": 0.4605975301415812,
        "distance_wrist_1_joint": 0.2407699386002049,
        "distance_wrist_2_joint": 1.1003419660591796,
        "distance_wrist_3_joint": 0.09372512399137856,
        "smoothness": 2.6645352591003757e-15,
        "time": 0.07687282000000001,
        "traj_len": 1.6057182545975268,
        "weighted_distance": 2.02654712893381
    },
    "planner": "RRTConnect",
    "start": {
        "state": {
            "elbow_joint": 1.97154746011099,
            "shoulder_lift_joint": -1.13948474672311,
            "shoulder_pan_joint": 0.12281154466712228,
            "wrist_1_joint": -0.7804688027058302,
            "wrist_2_joint": 0.12958655903071145,
            "wrist_3_joint": 3.0906928834467795
        }
    },
    "waypoints": [
        {
            "positions": [
                0.12281154466712228,
                -1.13948474672311,
                1.97154746011099,
                -0.7804688027058302,
                0.12958655903071145,
                3.0906928834467795
            ]
        },
        {
            "positions": [
                0.05701189750403926,
                -1.1727867593585095,
                2.035802098097788,
                -0.8148645082201452,
                0.28677826846773713,
                3.1040821868741193
            ]
        },
        {
            "positions": [
                -0.008787749659043761,
                -1.206088771993909,
                2.100056736084586,
                -0.8492602137344601,
                0.4439699779047628,
                3.117471490301459
            ]
        },
        {
            "positions": [
                -0.0745873968221268,
                -1.2393907846293086,
                2.164311374071384,
                -0.8836559192487752,
                0.6011616873417884,
                3.130860793728799
            ]
        },
        {
            "positions": [
                -0.1403870439852098,
                -1.2726927972647082,
                2.2285660120581823,
                -0.9180516247630901,
                0.7583533967788141,
                3.1442500971561387
            ]
        },
        {
            "positions": [
                -0.20618669114829286,
                -1.305994809900108,
                2.2928206500449804,
                -0.9524473302774051,
                0.9155451062158397,
                3.1576394005834785
            ]
        },
        {
            "positions": [
                -0.27198633831137586,
                -1.3392968225355075,
                2.3570752880317785,
                -0.9868430357917201,
                1.0727368156528654,
                3.1710287040108183
            ]
        },
        {
            "positions": [
                -0.3377859854744589,
                -1.372598835170907,
                2.4213299260185766,
                -1.021238741306035,
                1.229928525089891,
                3.184418007438158
            ]
        }
    ]
}{
    "goal": {
        "global_pose": {
            "orientation": {
                "w": 0.5084816217422485,
                "x": -0.49083608388900757,
                "y": 0.5182115435600281,
                "z": -0.4816462993621826
            },
            "position": {
                "x": 0.5540239810943604,
                "y": 0.030875300988554955,
                "z": 0.16403168439865112
            }
        },
        "name": "move_to_storage_A"
    },
    "id": "RRTConnect_move_to_storage_A_4",
    "joint_names": [
        "shoulder_pan_joint",
        "shoulder_lift_joint",
        "elbow_joint",
        "wrist_1_joint",
        "wrist_2_joint",
        "wrist_3_joint"
    ],
    "metrics": {
        "cart_traj_len": 0.3527404599856529,
        "distance_elbow_joint": 0.4486741397144547,
        "distance_shoulder_lift_joint": 0.23485792068249456,
        "distance_shoulder_pan_joint": 0.4609537754537705,
        "distance_wrist_1_joint": 0.24053459958933487,
        "distance_wrist_2_joint": 1.0992093356423056,
        "distance_wrist_3_joint": 0.10128851002554962,
        "smoothness": 2.2204460668324854e-16,
        "time": 0.046668665,
        "traj_len": 1.6079546887608214,
        "weighted_distance": 2.0317084526059954
    },
    "planner": "RRTConnect",
    "start": {
        "state": {
            "elbow_joint": 1.9715472970024885,
            "shoulder_lift_joint": -1.1394870060712896,
            "shoulder_pan_joint": 0.12281152778156021,
            "wrist_1_joint": -0.780463741449964,
            "wrist_2_joint": 0.12958659822042276,
            "wrist_3_joint": 3.090690232415272
        }
    },
    "waypoints": [
        {
            "positions": [
                0.12281152778156021,
                -1.1394870060712896,
                1.9715472970024885,
                -0.780463741449964,
                0.12958659822042276,
                3.090690232415272
            ]
        },
        {
            "positions": [
                0.05696098843102157,
                -1.1730381375973602,
                2.035643602675982,
                -0.8148258271055833,
                0.2866165033121807,
                3.105160019561779
            ]
        },
        {
            "positions": [
                -0.00888955091951707,
                -1.206589269123431,
                2.0997399083494757,
                -0.8491879127612025,
                0.44364640840393865,
                3.119629806708286
            ]
        },
        {
            "positions": [
                -0.07474009027005571,
                -1.2401404006495016,
                2.163836214022969,
                -0.8835499984168218,
                0.6006763134956966,
                3.1340995938547933
            ]
        },
        {
            "positions": [
                -0.14059062962059435,
                -1.2736915321755722,
                2.2279325196964628,
                -0.9179120840724411,
                0.7577062185874545,
                3.1485693810013
            ]
        },
        {
            "positions": [
                -0.206441168971133,
                -1.307242663701643,
                2.292028825369956,
                -0.9522741697280603,
                0.9147361236792124,
                3.163039168147807
            ]
        },
        {
            "positions": [
                -0.2722917083216716,
                -1.3407937952277136,
                2.3561251310434494,
                -0.9866362553836796,
                1.0717660287709705,
                3.1775089552943143
            ]
        },
        {
            "positions": [
                -0.33814224767221024,
                -1.3743449267537842,
                2.4202214367169432,
                -1.0209983410392989,
                1.2287959338627283,
                3.1919787424408215
            ]
        }
    ]
}