{
    "goal": {
        "global_pose": {
            "orientation": {
                "w": -0.4816463035849501,
                "x": 0.5182115481033762,
                "y": 0.4908360881923453,
                "z": -0.5084816262002911
            },
            "position": {
                "x": -0.8240239810943604,
                "y": 0.19912469901144506,
                "z": 0.16403168439865112
            }
        },
        "name": "move_to_storage_D"
    },
    "id": "RRTConnect_move_to_storage_D_115",
    "joint_names": [
        "shoulder_pan_joint",
        "shoulder_lift_joint",
        "elbow_joint",
        "wrist_1_joint",
        "wrist_2_joint",
        "wrist_3_joint"
    ],
    "metrics": {
        "cart_traj_len": 4.046422146010481,
        "distance_elbow_joint": 4.207025661202421,
        "distance_shoulder_lift_joint": 1.266081941142859,
        "distance_shoulder_pan_joint": 2.812989662109796,
        "distance_wrist_1_joint": 2.262721014417562,
        "distance_wrist_2_joint": 0.8676569874909117,
        "distance_wrist_3_joint": 3.159426957721177,
        "smoothness": 0.10936320871896385,
        "time": 0.111803776,
        "traj_len": 3.817839994562989,
        "weighted_distance": 4.901544056869789
    },
    "planner": "RRTConnect",
    "start": {
        "state": {
            "elbow_joint": -2.384821988534728,
            "shoulder_lift_joint": -2.2788054721415256,
            "shoulder_pan_joint": -0.1854694642142757,
            "wrist_1_joint": 1.4845938289331202,
            "wrist_2_joint": 0.17898776772866878,
            "wrist_3_joint": 0.037105688729662994
        }
    },
    "waypoints": [
        {
            "positions": [
                -0.1854694642142757,
                -2.2788054721415256,
                -2.384821988534728,
                1.4845938289331202,
                0.17898776772866878,
                0.037105688729662994
            ]
        },
        {
            "positions": [
                -0.17509362145349022,
                -2.2731028001478357,
                -2.3822610071372647,
                1.4796927519663674,
                0.17962971166263786,
                0.029899543328349806
            ]
        },
        {
            "positions": [
                -0.07773573994403636,
                -2.2405642623137023,
                -2.2877310182945796,
                1.4174678628802642,
                0.21012740964072743,
                0.10554907773292675
            ]
        },
        {
            "positions": [
                0.0196221415654175,
                -2.208025724479569,
                -2.1932010294518944,
                1.355242973794161,
                0.24062510761881697,
                0.1811986121375037
            ]
        },
        {
            "positions": [
                0.11698002307487138,
                -2.175487186645435,
                -2.0986710406092093,
                1.2930180847080575,
                0.27112280559690655,
                0.25684814654208066
            ]
        },
        {
            "positions": [
                0.21433790458432522,
                -2.1429486488113016,
                -2.004141051766524,
                1.2307931956219542,
                0.3016205035749961,
                0.3324976809466576
            ]
        },
        {
            "positions": [
                0.31169578609377907,
                -2.1104101109771682,
                -1.9096110629238392,
                1.168568306535851,
                0.3321182015530857,
                0.4081472153512346
            ]
        },
        {
            "positions": [
                0.409053667603233,
                -2.0778715731430344,
                -1.815081074081154,
                1.1063434174497477,
                0.36261589953117523,
                0.48379674975581155
            ]
        },
        {
            "positions": [
                0.5064115491126868,
                -2.045333035308901,
                -1.720551085238469,
                1.0441185283636445,
                0.3931135975092648,
                0.5594462841603884
            ]
        },
        {
            "positions": [
                0.6037694306221406,
                -2.0127944974747676,
                -1.626021096395784,
                0.9818936392775413,
                0.4236112954873543,
                0.6350958185649653
            ]
        },
        {
            "positions": [
                0.7011273121315946,
                -1.9802559596406342,
                -1.5314911075530988,
                0.9196687501914379,
                0.4541089934654439,
                0.7107453529695423
            ]
        },
        {
            "positions": [
                0.7984851936410484,
                -1.9477174218065005,
                -1.4369611187104137,
                0.8574438611053347,
                0.48460669144353347,
                0.7863948873741193
            ]
        },
        {
            "positions": [
                0.8958430751505022,
                -1.915178883972367,
                -1.3424311298677285,
                0.7952189720192313,
                0.5151043894216231,
                0.8620444217786962
            ]
        },
        {
            "positions": [
                0.9932009566599562,
                -1.8826403461382335,
                -1.2479011410250433,
                0.7329940829331281,
                0.5456020873997126,
                0.9376939561832732
            ]
        },
        {
            "positions": [
                1.09055883816941,
                -1.8501018083040999,
                -1.1533711521823582,
                0.6707691938470248,
                0.5760997853778022,
                1.0133434905878502
            ]
        },
        {
            "positions": [
                1.1879167196788638,
                -1.8175632704699665,
                -1.058841163339673,
                0.6085443047609215,
                0.6065974833558918,
                1.0889930249924271
            ]
        },
        {
            "positions": [
                1.2852746011883178,
                -1.7850247326358328,
                -0.9643111744969879,
                0.5463194156748181,
                0.6370951813339814,
                1.1646425593970042
            ]
        },
        {
            "positions": [
                1.3826324826977716,
                -1.7524861948016994,
                -0.869781185654303,
                0.484094526588715,
                0.6675928793120709,
                1.240292093801581
            ]
        },
        {
            "positions": [
                1.4799903642072256,
                -1.7199476569675658,
                -0.7752511968116176,
                0.42186963750261164,
                0.6980905772901604,
                1.315941628206158
            ]
        },
        {
            "positions": [
                1.5773482457166794,
                -1.6874091191334324,
                -0.6807212079689327,
                0.3596447484165084,
                0.72858827526825,
                1.391591162610735
            ]
        },
        {
            "positions": [
                1.6747061272261334,
                -1.6548705812992988,
                -0.5861912191262475,
                0.29741985933040493,
                0.7590859732463396,
                1.467240697015312
            ]
        },
        {
            "positions": [
                1.772064008735587,
                -1.6223320434651654,
                -0.49166123028356234,
                0.23519497024430192,
                0.7895836712244291,
                1.542890231419889
            ]
        },
        {
            "positions": [
                1.869421890245041,
                -1.5897935056310317,
                -0.3971312414408772,
                0.17297008115819845,
                0.8200813692025187,
                1.6185397658244658
            ]
        },
        {
            "positions": [
                1.9667797717544946,
                -1.5572549677968983,
                -0.30260125259819226,
                0.11074519207209521,
                0.8505790671806083,
                1.6941893002290427
            ]
        },
        {
            "positions": [
                2.0641376532639484,
                -1.5247164299627647,
                -0.2080712637555071,
                0.04852030298599197,
                0.8810767651586978,
                1.7698388346336198
            ]
        },
        {
            "positions": [
                2.1614955347734024,
                -1.4921778921286313,
                -0.11354127491282195,
                -0.013704586100111271,
                0.9115744631367874,
                1.8454883690381967
            ]
        },
        {
            "positions": [
                2.2588534162828564,
                -1.4596393542944976,
                -0.0190112860701368,
                -0.07592947518621473,
                0.942072161114877,
                1.9211379034427736
            ]
        },
        {
            "positions": [
                2.35621129779231,
                -1.427100816460364,
                0.07551870277254835,
                -0.13815436427231775,
                0.9725698590929664,
                1.9967874378473505
            ]
        },
        {
            "positions": [
                2.453569179301764,
                -1.3945622786262306,
                0.17004869161523348,
                -0.2003792533584213,
                1.003067557071056,
                2.0724369722519276
            ]
        },
        {
            "positions": [
                2.4709642811611396,
                -1.3563784038634743,
                0.3352641897204795,
                -0.25815404657102337,
                1.0074252768859084,
                2.183405310591556
            ]
        },
        {
            "positions": [
                2.4883593830205153,
                -1.3181945291007178,
                0.5004796878257255,
                -0.31592883978362546,
                1.011782996700761,
                2.2943736489311846
            ]
        },
        {
            "positions": [
                2.505754484879891,
                -1.2800106543379615,
                0.6656951859309714,
                -0.37370363299622755,
                1.0161407165156136,
                2.4053419872708135
            ]
        },
        {
            "positions": [
                2.5231495867392666,
                -1.241826779575205,
                0.8309106840362176,
                -0.43147842620882965,
                1.0204984363304659,
                2.516310325610442
            ]
        },
        {
            "positions": [
                2.5405446885986422,
                -1.2036429048124486,
                0.9961261821414635,
                -0.48925321942143174,
                1.0248561561453182,
                2.6272786639500705
            ]
        },
        {
            "positions": [
                2.557939790458018,
                -1.1654590300496923,
                1.1613416802467094,
                -0.5470280126340338,
                1.0292138759601708,
                2.738247002289699
            ]
        },
        {
            "positions": [
                2.5753348923173935,
                -1.1272751552869358,
                1.3265571783519554,
                -0.6048028058466358,
                1.0335715957750231,
                2.8492153406293275
            ]
        },
        {
            "positions": [
                2.592729994176769,
                -1.0890912805241795,
                1.4917726764572017,
                -0.662577599059238,
                1.0379293155898757,
                2.9601836789689564
            ]
        },
        {
            "positions": [
                2.610125096036145,
                -1.050907405761423,
                1.6569881745624475,
                -0.7203523922718401,
                1.042287035404728,
                3.071152017308585
            ]
        },
        {
            "positions": [
                2.6275201978955205,
                -1.0127235309986666,
                1.8222036726676936,
                -0.7781271854844422,
                1.0466447552195806,
                3.1821203556482134
            ]
        }
    ]
}