{
    "goal": {
        "global_pose": {
            "orientation": {
                "w": -0.4816463035849501,
                "x": 0.5182115481033762,
                "y": 0.4908360881923453,
                "z": -0.5084816262002911
            },
            "position": {
                "x": -0.8240239810943604,
                "y": 0.19912469901144506,
                "z": 0.16403168439865112
            }
        },
        "name": "move_to_storage_D"
    },
    "id": "RRTConnect_move_to_storage_D_36",
    "joint_names": [
        "shoulder_pan_joint",
        "shoulder_lift_joint",
        "elbow_joint",
        "wrist_1_joint",
        "wrist_2_joint",
        "wrist_3_joint"
    ],
    "metrics": {
        "cart_traj_len": 3.9561666780991045,
        "distance_elbow_joint": 4.213398868115134,
        "distance_shoulder_lift_joint": 1.2642827197708872,
        "distance_shoulder_pan_joint": 2.814820779443231,
        "distance_wrist_1_joint": 2.3867390012363514,
        "distance_wrist_2_joint": 0.8839048830933839,
        "distance_wrist_3_joint": 3.125893162467893,
        "smoothness": 0.01682752340538333,
        "time": 0.124763714,
        "traj_len": 3.832628264536867,
        "weighted_distance": 4.920515178656845
    },
    "planner": "RRTConnect",
    "start": {
        "state": {
            "elbow_joint": -2.384821988534728,
            "shoulder_lift_joint": -2.2788054721415256,
            "shoulder_pan_joint": -0.1854694642142757,
            "wrist_1_joint": 1.4845938289331202,
            "wrist_2_joint": 0.17898776772866878,
            "wrist_3_joint": 0.037105688729662994
        }
    },
    "waypoints": [
        {
            "positions": [
                -0.1854694642142757,
                -2.2788054721415256,
                -2.384821988534728,
                1.4845938289331202,
                0.17898776772866878,
                0.037105688729662994
            ]
        },
        {
            "positions": [
                -0.10434444295004705,
                -2.246324896685791,
                -2.266853830589985,
                1.4093192870706046,
                0.20725251772235842,
                -0.022097989778525534
            ]
        },
        {
            "positions": [
                -0.023219421685818392,
                -2.2138443212300563,
                -2.1488856726452417,
                1.334044745208089,
                0.23551726771604806,
                -0.08130166828671406
            ]
        },
        {
            "positions": [
                0.057905599578410266,
                -2.1813637457743216,
                -2.0309175147004987,
                1.2587702033455734,
                0.2637820177097377,
                -0.1405053467949026
            ]
        },
        {
            "positions": [
                0.13903062084263892,
                -2.148883170318587,
                -1.9129493567557556,
                1.1834956614830578,
                0.29204676770342736,
                -0.19970902530309112
            ]
        },
        {
            "positions": [
                0.22015564210686758,
                -2.116402594862852,
                -1.7949811988110125,
                1.1082211196205423,
                0.32031151769711697,
                -0.2589127038112796
            ]
        },
        {
            "positions": [
                0.30128066337109627,
                -2.0839220194071175,
                -1.6770130408662696,
                1.0329465777580267,
                0.34857626769080663,
                -0.31811638231946815
            ]
        },
        {
            "positions": [
                0.38240568463532487,
                -2.051441443951383,
                -1.5590448829215262,
                0.957672035895511,
                0.37684101768449624,
                -0.3773200608276567
            ]
        },
        {
            "positions": [
                0.4635307058995536,
                -2.018960868495648,
                -1.4410767249767833,
                0.8823974940329954,
                0.4051057676781859,
                -0.4365237393358452
            ]
        },
        {
            "positions": [
                0.5446557271637823,
                -1.9864802930399135,
                -1.3231085670320402,
                0.8071229521704797,
                0.4333705176718755,
                -0.49572741784403385
            ]
        },
        {
            "positions": [
                0.6257807484280109,
                -1.9539997175841788,
                -1.205140409087297,
                0.7318484103079642,
                0.4616352676655652,
                -0.5549310963522223
            ]
        },
        {
            "positions": [
                0.7069057696922396,
                -1.921519142128444,
                -1.087172251142554,
                0.6565738684454485,
                0.48990001765925484,
                -0.6141347748604109
            ]
        },
        {
            "positions": [
                0.7880307909564682,
                -1.8890385666727094,
                -0.969204093197811,
                0.581299326582933,
                0.5181647676529444,
                -0.6733384533685993
            ]
        },
        {
            "positions": [
                0.8691558122206969,
                -1.8565579912169747,
                -0.8512359352530678,
                0.5060247847204173,
                0.546429517646634,
                -0.732542131876788
            ]
        },
        {
            "positions": [
                0.9502808334849254,
                -1.82407741576124,
                -0.7332677773083247,
                0.43075024285790176,
                0.5746942676403237,
                -0.7917458103849764
            ]
        },
        {
            "positions": [
                1.031405854749154,
                -1.7915968403055054,
                -0.6152996193635816,
                0.35547570099538617,
                0.6029590176340134,
                -0.850949488893165
            ]
        },
        {
            "positions": [
                1.1125308760133827,
                -1.7591162648497707,
                -0.49733146141883866,
                0.2802011591328706,
                0.631223767627703,
                -0.9101531674013534
            ]
        },
        {
            "positions": [
                1.1936558972776112,
                -1.726635689394036,
                -0.37936330347409575,
                0.204926617270355,
                0.6594885176213926,
                -0.9693568459095419
            ]
        },
        {
            "positions": [
                1.2747809185418402,
                -1.6941551139383013,
                -0.2613951455293524,
                0.12965207540783918,
                0.6877532676150823,
                -1.0285605244177307
            ]
        },
        {
            "positions": [
                1.3559059398060687,
                -1.6616745384825666,
                -0.14342698758460948,
                0.05437753354532382,
                0.7160180176087719,
                -1.0877642029259191
            ]
        },
        {
            "positions": [
                1.4370309610702974,
                -1.629193963026832,
                -0.02545882963986612,
                -0.020897008317191768,
                0.7442827676024615,
                -1.1469678814341076
            ]
        },
        {
            "positions": [
                1.5181559823345259,
                -1.5967133875710973,
                0.09250932830487679,
                -0.09617155017970735,
                0.7725475175961511,
                -1.206171559942296
            ]
        },
        {
            "positions": [
                1.5992810035987548,
                -1.5642328121153626,
                0.21047748624962015,
                -0.17144609204222316,
                0.8008122675898408,
                -1.2653752384504848
            ]
        },
        {
            "positions": [
                1.6804060248629833,
                -1.531752236659628,
                0.32844564419436306,
                -0.24672063390473875,
                0.8290770175835305,
                -1.3245789169586732
            ]
        },
        {
            "positions": [
                1.761531046127212,
                -1.4992716612038932,
                0.446413802139106,
                -0.3219951757672541,
                0.85734176757722,
                -1.3837825954668617
            ]
        },
        {
            "positions": [
                1.8426560673914403,
                -1.4667910857481585,
                0.5643819600838489,
                -0.3972697176297697,
                0.8856065175709097,
                -1.44298627397505
            ]
        },
        {
            "positions": [
                1.9237810886556694,
                -1.4343105102924238,
                0.6823501180285922,
                -0.4725442594922855,
                0.9138712675645994,
                -1.502189952483239
            ]
        },
        {
            "positions": [
                2.004906109919898,
                -1.4018299348366892,
                0.8003182759733352,
                -0.5478188013548011,
                0.942136017558289,
                -1.5613936309914274
            ]
        },
        {
            "positions": [
                2.0860311311841264,
                -1.3693493593809545,
                0.9182864339180785,
                -0.6230933432173167,
                0.9704007675519786,
                -1.6205973094996158
            ]
        },
        {
            "positions": [
                2.167156152448355,
                -1.3368687839252198,
                1.0362545918628214,
                -0.6983678850798323,
                0.9986655175456682,
                -1.6798009880078044
            ]
        },
        {
            "positions": [
                2.248281173712584,
                -1.3043882084694851,
                1.1542227498075648,
                -0.7736424269423479,
                1.026930267539358,
                -1.739004666515993
            ]
        },
        {
            "positions": [
                2.3294061949768126,
                -1.2719076330137504,
                1.2721909077523077,
                -0.8489169688048632,
                1.0551950175330476,
                -1.7982083450241815
            ]
        },
        {
            "positions": [
                2.372255497869976,
                -1.2351383643504488,
                1.3516746180134647,
                -0.8413129397336679,
                1.056294679431477,
                -1.9825767919833313
            ]
        },
        {
            "positions": [
                2.415104800763139,
                -1.198369095687147,
                1.4311583282746214,
                -0.8337089106624728,
                1.057394341329906,
                -2.166945238942481
            ]
        },
        {
            "positions": [
                2.457954103656302,
                -1.1615998270238452,
                1.5106420385357784,
                -0.8261048815912775,
                1.0584940032283354,
                -2.351313685901631
            ]
        },
        {
            "positions": [
                2.5008034065494655,
                -1.1248305583605436,
                1.5901257487969354,
                -0.8185008525200822,
                1.0595936651267648,
                -2.5356821328607806
            ]
        },
        {
            "positions": [
                2.543652709442629,
                -1.088061289697242,
                1.6696094590580923,
                -0.8108968234488869,
                1.0606933270251941,
                -2.7200505798199304
            ]
        },
        {
            "positions": [
                2.586502012335792,
                -1.05129202103394,
                1.749093169319249,
                -0.8032927943776917,
                1.0617929889236233,
                -2.90441902677908
            ]
        },
        {
            "positions": [
                2.629351315228955,
                -1.0145227523706384,
                1.828576879580406,
                -0.7956887653064965,
                1.0628926508220526,
                -3.08878747373823
            ]
        }
    ]
}