{
    "goal": {
        "global_pose": {
            "orientation": {
                "w": 0.7031023480610252,
                "x": -0.7110244013736278,
                "y": 0.0077485991402295624,
                "z": 0.005598929693374583
            },
            "position": {
                "x": -0.8841497679147869,
                "y": 0.44412534475326537,
                "z": 0.3711530566215515
            }
        },
        "name": "move_to_auspresseinheit_D"
    },
    "id": "RRTConnect_move_to_auspresseinheit_D_23",
    "joint_names": [
        "shoulder_pan_joint",
        "shoulder_lift_joint",
        "elbow_joint",
        "wrist_1_joint",
        "wrist_2_joint",
        "wrist_3_joint"
    ],
    "metrics": {
        "cart_traj_len": 0.3436057713242574,
        "distance_elbow_joint": 0.6574498839603125,
        "distance_shoulder_lift_joint": 0.13224348865499502,
        "distance_shoulder_pan_joint": 0.1331322635389585,
        "distance_wrist_1_joint": 0.5891327070001342,
        "distance_wrist_2_joint": 1.4486194055969803,
        "distance_wrist_3_joint": 0.052415297688400475,
        "smoothness": 0.0,
        "time": 0.069455607,
        "traj_len": 1.735797524609302,
        "weighted_distance": 2.2705892967275467
    },
    "planner": "RRTConnect",
    "start": {
        "state": {
            "elbow_joint": -1.8275523626775212,
            "shoulder_lift_joint": -2.126789852344167,
            "shoulder_pan_joint": -0.03513704404078235,
            "wrist_1_joint": -2.347782403156801,
            "wrist_2_joint": -1.6058999987535132,
            "wrist_3_joint": -3.0880379163319196
        }
    },
    "waypoints": [
        {
            "positions": [
                -0.03513704404078235,
                -2.126789852344167,
                -1.8275523626775212,
                -2.347782403156801,
                -1.6058999987535132,
                -3.0880379163319196
            ]
        },
        {
            "positions": [
                -0.051778576983152164,
                -2.1433202884260414,
                -1.745371127182482,
                -2.4214239915318174,
                -1.4248225730538906,
                -3.0814860041208694
            ]
        },
        {
            "positions": [
                -0.06842010992552197,
                -2.1598507245079155,
                -1.663189891687443,
                -2.4950655799068344,
                -1.243745147354268,
                -3.0749340919098196
            ]
        },
        {
            "positions": [
                -0.08506164286789178,
                -2.17638116058979,
                -1.581008656192404,
                -2.5687071682818514,
                -1.0626677216546456,
                -3.0683821796987694
            ]
        },
        {
            "positions": [
                -0.10170317581026159,
                -2.1929115966716646,
                -1.4988274206973649,
                -2.642348756656868,
                -0.881590295955023,
                -3.0618302674877196
            ]
        },
        {
            "positions": [
                -0.1183447087526314,
                -2.2094420327535387,
                -1.416646185202326,
                -2.7159903450318845,
                -0.7005128702554004,
                -3.0552783552766694
            ]
        },
        {
            "positions": [
                -0.13498624169500123,
                -2.225972468835413,
                -1.334464949707287,
                -2.7896319334069015,
                -0.5194354445557781,
                -3.048726443065619
            ]
        },
        {
            "positions": [
                -0.15162777463737104,
                -2.2425029049172873,
                -1.2522837142122478,
                -2.8632735217819185,
                -0.33835801885615546,
                -3.0421745308545693
            ]
        },
        {
            "positions": [
                -0.16826930757974085,
                -2.259033340999162,
                -1.1701024787172087,
                -2.936915110156935,
                -0.15728059315653292,
                -3.035622618643519
            ]
        }
    ]
}