{
    "goal": {
        "global_pose": {
            "orientation": {
                "w": 0.5084816262002911,
                "x": -0.4908360881923452,
                "y": 0.5182115481033761,
                "z": -0.48164630358495003
            },
            "position": {
                "x": 0.5540239810943604,
                "y": -0.46912469901144505,
                "z": 0.16403168439865112
            }
        },
        "name": "move_to_storage_B"
    },
    "id": "RRTConnect_move_to_storage_B_34",
    "joint_names": [
        "shoulder_pan_joint",
        "shoulder_lift_joint",
        "elbow_joint",
        "wrist_1_joint",
        "wrist_2_joint",
        "wrist_3_joint"
    ],
    "metrics": {
        "cart_traj_len": 4.833292963587419,
        "distance_elbow_joint": 5.493732833060021,
        "distance_shoulder_lift_joint": 0.4605191637514532,
        "distance_shoulder_pan_joint": 4.606231994596035,
        "distance_wrist_1_joint": 2.991265708850937,
        "distance_wrist_2_joint": 2.7211008251900974,
        "distance_wrist_3_joint": 3.1455063433564137,
        "smoothness": 0.31070162230228526,
        "time": 0.09335963,
        "traj_len": 4.406626472575699,
        "weighted_distance": 5.605509440680554
    },
    "planner": "RRTConnect",
    "start": {
        "state": {
            "elbow_joint": 1.664937868594044,
            "shoulder_lift_joint": -0.661644460510453,
            "shoulder_pan_joint": -0.9139846352900073,
            "wrist_1_joint": 2.146753192139373,
            "wrist_2_joint": -2.2341966793290973,
            "wrist_3_joint": 0.005466555786416001
        }
    },
    "waypoints": [
        {
            "positions": [
                -0.9139846352900073,
                -0.661644460510453,
                1.664937868594044,
                2.146753192139373,
                -2.2341966793290973,
                0.005466555786416001
            ]
        },
        {
            "positions": [
                -0.8033224733936347,
                -0.6751246612658479,
                1.5364444067709482,
                2.112074430313023,
                -2.1917896887788992,
                0.0679318388726936
            ]
        },
        {
            "positions": [
                -0.6926603114972621,
                -0.6886048620212429,
                1.4079509449478524,
                2.0773956684866737,
                -2.1493826982287016,
                0.1303971219589712
            ]
        },
        {
            "positions": [
                -0.5819981496008897,
                -0.7020850627766378,
                1.2794574831247567,
                2.0427169066603237,
                -2.1069757076785036,
                0.1928624050452488
            ]
        },
        {
            "positions": [
                -0.47133598770451707,
                -0.7155652635320329,
                1.150964021301661,
                2.008038144833974,
                -2.0645687171283056,
                0.25532768813152645
            ]
        },
        {
            "positions": [
                -0.36067382580814455,
                -0.7290454642874278,
                1.022470559478565,
                1.9733593830076241,
                -2.0221617265781076,
                0.31779297121780403
            ]
        },
        {
            "positions": [
                -0.250011663911772,
                -0.7425256650428227,
                0.8939770976554694,
                1.9386806211812742,
                -1.9797547360279097,
                0.3802582543040816
            ]
        },
        {
            "positions": [
                -0.13934950201539953,
                -0.7560058657982177,
                0.7654836358323737,
                1.9040018593549244,
                -1.937347745477712,
                0.4427235373903592
            ]
        },
        {
            "positions": [
                -0.02868734011902685,
                -0.7694860665536126,
                0.6369901740092778,
                1.8693230975285746,
                -1.894940754927514,
                0.5051888204766368
            ]
        },
        {
            "positions": [
                0.08197482177734561,
                -0.7829662673090076,
                0.5084967121861821,
                1.8346443357022248,
                -1.8525337643773159,
                0.5676541035629143
            ]
        },
        {
            "positions": [
                0.19263698367371818,
                -0.7964464680644026,
                0.38000325036308635,
                1.799965573875875,
                -1.810126773827118,
                0.630119386649192
            ]
        },
        {
            "positions": [
                0.30329914557009074,
                -0.8099266688197975,
                0.2515097885399904,
                1.765286812049525,
                -1.76771978327692,
                0.6925846697354696
            ]
        },
        {
            "positions": [
                0.4139613074664633,
                -0.8234068695751925,
                0.12301632671689489,
                1.7306080502231753,
                -1.7253127927267222,
                0.7550499528217471
            ]
        },
        {
            "positions": [
                0.5246234693628359,
                -0.8368870703305874,
                -0.00547713510620107,
                1.6959292883968256,
                -1.6829058021765242,
                0.8175152359080248
            ]
        },
        {
            "positions": [
                0.6352856312592082,
                -0.8503672710859824,
                -0.13397059692929658,
                1.6612505265704758,
                -1.6404988116263264,
                0.8799805189943023
            ]
        },
        {
            "positions": [
                0.745947793155581,
                -0.8638474718413773,
                -0.2624640587523923,
                1.6265717647441258,
                -1.5980918210761286,
                0.9424458020805799
            ]
        },
        {
            "positions": [
                0.8566099550519536,
                -0.8773276725967722,
                -0.39095752057548827,
                1.591893002917776,
                -1.5556848305259305,
                1.0049110851668577
            ]
        },
        {
            "positions": [
                0.9672721169483259,
                -0.8908078733521673,
                -0.5194509823985838,
                1.5572142410914263,
                -1.5132778399757325,
                1.0673763682531352
            ]
        },
        {
            "positions": [
                1.0779342788446984,
                -0.9042880741075622,
                -0.6479444442216797,
                1.5225354792650765,
                -1.4708708494255347,
                1.1298416513394127
            ]
        },
        {
            "positions": [
                1.1885964407410707,
                -0.9177682748629572,
                -0.7764379060447753,
                1.4878567174387265,
                -1.428463858875337,
                1.1923069344256902
            ]
        },
        {
            "positions": [
                1.2992586026374435,
                -0.9312484756183521,
                -0.9049313678678713,
                1.4531779556123767,
                -1.3860568683251389,
                1.254772217511968
            ]
        },
        {
            "positions": [
                1.2194923107484907,
                -0.9376123139064706,
                -0.8074692479812678,
                1.3765882732015786,
                -1.3236248345189343,
                1.3179789068996635
            ]
        },
        {
            "positions": [
                1.139726018859538,
                -0.9439761521945891,
                -0.7100071280946645,
                1.2999985907907807,
                -1.2611928007127295,
                1.3811855962873587
            ]
        },
        {
            "positions": [
                1.0599597269705854,
                -0.9503399904827076,
                -0.612545008208061,
                1.2234089083799826,
                -1.198760766906525,
                1.4443922856750542
            ]
        },
        {
            "positions": [
                0.9801934350816326,
                -0.9567038287708259,
                -0.5150828883214575,
                1.1468192259691845,
                -1.1363287331003202,
                1.5075989750627494
            ]
        },
        {
            "positions": [
                0.9004271431926799,
                -0.9630676670589444,
                -0.4176207684348542,
                1.0702295435583866,
                -1.0738966992941157,
                1.570805664450445
            ]
        },
        {
            "positions": [
                0.8206608513037271,
                -0.9694315053470629,
                -0.3201586485482507,
                0.9936398611475885,
                -1.0114646654879111,
                1.6340123538381404
            ]
        },
        {
            "positions": [
                0.7408945594147744,
                -0.9757953436351814,
                -0.22269652866164735,
                0.9170501787367906,
                -0.9490326316817065,
                1.6972190432258356
            ]
        },
        {
            "positions": [
                0.6611282675258217,
                -0.9821591819232999,
                -0.12523440877504388,
                0.8404604963259925,
                -0.8866005978755018,
                1.760425732613531
            ]
        },
        {
            "positions": [
                0.581361975636869,
                -0.9885230202114184,
                -0.02777228888844052,
                0.7638708139151945,
                -0.8241685640692973,
                1.8236324220012263
            ]
        },
        {
            "positions": [
                0.5015956837479163,
                -0.9948868584995368,
                0.06968983099816295,
                0.6872811315043965,
                -0.7617365302630926,
                1.8868391113889218
            ]
        },
        {
            "positions": [
                0.4218293918589635,
                -1.0012506967876553,
                0.1671519508847662,
                0.6106914490935985,
                -0.699304496456888,
                1.9500458007766173
            ]
        },
        {
            "positions": [
                0.3420630999700107,
                -1.0076145350757737,
                0.2646140707713699,
                0.5341017666828004,
                -0.6368724626506833,
                2.0132524901643127
            ]
        },
        {
            "positions": [
                0.26229680808105793,
                -1.0139783733638923,
                0.36207619065797336,
                0.4575120842720024,
                -0.5744404288444787,
                2.0764591795520078
            ]
        },
        {
            "positions": [
                0.18253051619210536,
                -1.0203422116520107,
                0.4595383105445766,
                0.3809224018612045,
                -0.5120083950382741,
                2.1396658689397032
            ]
        },
        {
            "positions": [
                0.10276422430315257,
                -1.0267060499401293,
                0.5570004304311801,
                0.3043327194504064,
                -0.44957636123206945,
                2.2028725583273987
            ]
        },
        {
            "positions": [
                0.022997932414199784,
                -1.0330698882282476,
                0.6544625503177836,
                0.2277430370396083,
                -0.3871443274258648,
                2.266079247715094
            ]
        },
        {
            "positions": [
                -0.05676835947475278,
                -1.039433726516366,
                0.7519246702043868,
                0.1511533546288104,
                -0.32471229361966025,
                2.3292859371027896
            ]
        },
        {
            "positions": [
                -0.13653465136370557,
                -1.0457975648044846,
                0.8493867900909903,
                0.0745636722180123,
                -0.2622802598134557,
                2.392492626490485
            ]
        },
        {
            "positions": [
                -0.21630094325265836,
                -1.052161403092603,
                0.9468489099775937,
                -0.002026010192785588,
                -0.19984822600725094,
                2.45569931587818
            ]
        },
        {
            "positions": [
                -0.29606723514161093,
                -1.0585252413807216,
                1.0443110298641973,
                -0.0786156926035837,
                -0.1374161922010464,
                2.5189060052658756
            ]
        },
        {
            "positions": [
                -0.3758335270305637,
                -1.06488907966884,
                1.1417731497508008,
                -0.15520537501438159,
                -0.07498415839484185,
                2.5821126946535706
            ]
        },
        {
            "positions": [
                -0.4555998189195165,
                -1.0712529179569583,
                1.2392352696374038,
                -0.2317950574251797,
                -0.012552124588637081,
                2.645319384041266
            ]
        },
        {
            "positions": [
                -0.5353661108084693,
                -1.077616756245077,
                1.3366973895240077,
                -0.3083847398359778,
                0.049879909217567686,
                2.7085260734289616
            ]
        },
        {
            "positions": [
                -0.6151324026974221,
                -1.0839805945331955,
                1.4341595094106112,
                -0.3849744222467759,
                0.11231194302377223,
                2.771732762816657
            ]
        },
        {
            "positions": [
                -0.6948986945863749,
                -1.0903444328213139,
                1.5316216292972147,
                -0.4615641046575738,
                0.17474397682997678,
                2.8349394522043525
            ]
        },
        {
            "positions": [
                -0.7746649864753277,
                -1.0967082711094323,
                1.6290837491838182,
                -0.5381537870683719,
                0.23717601063618154,
                2.898146141592048
            ]
        },
        {
            "positions": [
                -0.8544312783642805,
                -1.1030721093975508,
                1.7265458690704212,
                -0.6147434694791698,
                0.2996080444423861,
                2.9613528309797434
            ]
        },
        {
            "positions": [
                -0.9341975702532328,
                -1.1094359476856692,
                1.8240079889570247,
                -0.6913331518899677,
                0.36204007824859064,
                3.024559520367439
            ]
        },
        {
            "positions": [
                -1.0139638621421856,
                -1.1157997859737878,
                1.9214701088436281,
                -0.767922834300766,
                0.4244721120547954,
                3.087766209755134
            ]
        },
        {
            "positions": [
                -1.0937301540311384,
                -1.1221636242619062,
                2.0189322287302316,
                -0.8445125167115638,
                0.48690414586099995,
                3.1509728991428294
            ]
        }
    ]
}