{
    "goal": {
        "global_pose": {
            "orientation": {
                "w": 0.5084816262002911,
                "x": -0.4908360881923452,
                "y": 0.5182115481033761,
                "z": -0.48164630358495003
            },
            "position": {
                "x": 0.5540239810943604,
                "y": -0.46912469901144505,
                "z": 0.16403168439865112
            }
        },
        "name": "move_to_storage_B"
    },
    "id": "RRTConnect_move_to_storage_B_54",
    "joint_names": [
        "shoulder_pan_joint",
        "shoulder_lift_joint",
        "elbow_joint",
        "wrist_1_joint",
        "wrist_2_joint",
        "wrist_3_joint"
    ],
    "metrics": {
        "cart_traj_len": 0.6433489965278485,
        "distance_elbow_joint": 0.3536348525171338,
        "distance_shoulder_lift_joint": 0.46101712895862756,
        "distance_shoulder_pan_joint": 0.2955186945310945,
        "distance_wrist_1_joint": 2.9987389733921415,
        "distance_wrist_2_joint": 2.7090561853626536,
        "distance_wrist_3_joint": 3.336174051602547,
        "smoothness": 0.2852160490548533,
        "time": 0.11687866499999999,
        "traj_len": 3.186556116933169,
        "weighted_distance": 4.747028875867945
    },
    "planner": "RRTConnect",
    "start": {
        "state": {
            "elbow_joint": 1.664937868594044,
            "shoulder_lift_joint": -0.661644460510453,
            "shoulder_pan_joint": -0.9139846352900073,
            "wrist_1_joint": 2.146753192139373,
            "wrist_2_joint": -2.2341966793290973,
            "wrist_3_joint": 0.005466555786416001
        }
    },
    "waypoints": [
        {
            "positions": [
                -0.9139846352900073,
                -0.661644460510453,
                1.664937868594044,
                2.146753192139373,
                -2.2341966793290973,
                0.005466555786416001
            ]
        },
        {
            "positions": [
                -0.8853095074573946,
                -0.689674378217005,
                1.6679549204606734,
                2.0930728972916355,
                -2.198211000897949,
                0.05882617142177601
            ]
        },
        {
            "positions": [
                -0.8566343796247818,
                -0.7177042959235569,
                1.6709719723273027,
                2.0393926024438978,
                -2.1622253224668007,
                0.11218578705713603
            ]
        },
        {
            "positions": [
                -0.8661611171794166,
                -0.7339025876653779,
                1.6848760022786577,
                1.9237374670960312,
                -2.0567419293267863,
                -0.01699240575613703
            ]
        },
        {
            "positions": [
                -0.8756878547340513,
                -0.7501008794071988,
                1.6987800322300126,
                1.8080823317481645,
                -1.951258536186772,
                -0.1461705985694101
            ]
        },
        {
            "positions": [
                -0.8852145922886862,
                -0.7662991711490197,
                1.7126840621813677,
                1.692427196400298,
                -1.8457751430467577,
                -0.2753487913826831
            ]
        },
        {
            "positions": [
                -0.8947413298433209,
                -0.7824974628908407,
                1.7265880921327226,
                1.5767720610524312,
                -1.7402917499067434,
                -0.40452698419595623
            ]
        },
        {
            "positions": [
                -0.9042680673979556,
                -0.7986957546326616,
                1.7404921220840777,
                1.4611169257045646,
                -1.634808356766729,
                -0.5337051770092294
            ]
        },
        {
            "positions": [
                -0.9137948049525904,
                -0.8148940463744826,
                1.7543961520354328,
                1.345461790356698,
                -1.529324963626715,
                -0.6628833698225023
            ]
        },
        {
            "positions": [
                -0.9233215425072252,
                -0.8310923381163036,
                1.7683001819867876,
                1.2298066550088314,
                -1.4238415704867007,
                -0.7920615626357755
            ]
        },
        {
            "positions": [
                -0.9328482800618599,
                -0.8472906298581244,
                1.7822042119381427,
                1.1141515196609646,
                -1.3183581773466864,
                -0.9212397554490485
            ]
        },
        {
            "positions": [
                -0.9423750176164947,
                -0.8634889215999454,
                1.7961082418894976,
                0.9984963843130983,
                -1.2128747842066723,
                -1.0504179482623215
            ]
        },
        {
            "positions": [
                -0.9519017551711295,
                -0.8796872133417664,
                1.8100122718408527,
                0.8828412489652315,
                -1.1073913910666577,
                -1.1795961410755946
            ]
        },
        {
            "positions": [
                -0.9614284927257642,
                -0.8958855050835873,
                1.8239163017922078,
                0.767186113617365,
                -1.0019079979266436,
                -1.3087743338888675
            ]
        },
        {
            "positions": [
                -0.970955230280399,
                -0.9120837968254083,
                1.8378203317435626,
                0.6515309782694982,
                -0.8964246047866293,
                -1.4379525267021405
            ]
        },
        {
            "positions": [
                -0.9804819678350337,
                -0.9282820885672292,
                1.8517243616949177,
                0.5358758429216317,
                -0.790941211646615,
                -1.5671307195154138
            ]
        },
        {
            "positions": [
                -0.9900087053896685,
                -0.9444803803090502,
                1.8656283916462728,
                0.42022070757376495,
                -0.6854578185066007,
                -1.696308912328687
            ]
        },
        {
            "positions": [
                -0.9995354429443033,
                -0.9606786720508711,
                1.8795324215976277,
                0.3045655722258984,
                -0.5799744253665866,
                -1.8254871051419597
            ]
        },
        {
            "positions": [
                -1.009062180498938,
                -0.9768769637926921,
                1.8934364515489828,
                0.18891043687803166,
                -0.4744910322265721,
                -1.9546652979552328
            ]
        },
        {
            "positions": [
                -1.0185889180535728,
                -0.993075255534513,
                1.9073404815003376,
                0.07325530153016513,
                -0.36900763908655776,
                -2.083843490768506
            ]
        },
        {
            "positions": [
                -1.0281156556082076,
                -1.009273547276334,
                1.9212445114516927,
                -0.04239983381770118,
                -0.26352424594654367,
                -2.213021683581779
            ]
        },
        {
            "positions": [
                -1.0376423931628422,
                -1.025471839018155,
                1.9351485414030476,
                -0.15805496916556816,
                -0.15804085280652913,
                -2.342199876395052
            ]
        },
        {
            "positions": [
                -1.047169130717477,
                -1.0416701307599758,
                1.9490525713544027,
                -0.2737101045134347,
                -0.052557459666514816,
                -2.4713780692083254
            ]
        },
        {
            "positions": [
                -1.056695868272112,
                -1.0578684225017967,
                1.9629566013057578,
                -0.3893652398613012,
                0.052925933473499054,
                -2.600556262021598
            ]
        },
        {
            "positions": [
                -1.0662226058267466,
                -1.0740667142436178,
                1.9768606312571126,
                -0.5050203752091678,
                0.15840932661351337,
                -2.729734454834871
            ]
        },
        {
            "positions": [
                -1.0757493433813814,
                -1.0902650059854386,
                1.9907646612084677,
                -0.6206755105570347,
                0.2638927197535277,
                -2.8589126476481446
            ]
        },
        {
            "positions": [
                -1.085276080936016,
                -1.1064632977272595,
                2.004668691159823,
                -0.7363306459049013,
                0.369376112893542,
                -2.988090840461417
            ]
        },
        {
            "positions": [
                -1.0948028184906509,
                -1.1226615894690806,
                2.0185727211111777,
                -0.8519857812527679,
                0.4748595060335562,
                -3.1172690332746904
            ]
        }
    ]
}