{
    "goal": {
        "global_pose": {
            "orientation": {
                "w": -0.00223480608172531,
                "x": 0.0024358444001904467,
                "y": 0.7094548369677653,
                "z": -0.704743149386269
            },
            "position": {
                "x": -0.37947507619857795,
                "y": -0.6371506643295288,
                "z": 0.19426114857196808
            }
        },
        "name": "move_to_magneteinheit_C"
    },
    "id": "RRTConnect_move_to_magneteinheit_C_123",
    "joint_names": [
        "shoulder_pan_joint",
        "shoulder_lift_joint",
        "elbow_joint",
        "wrist_1_joint",
        "wrist_2_joint",
        "wrist_3_joint"
    ],
    "metrics": {
        "cart_traj_len": 2.198993873462848,
        "distance_elbow_joint": 2.622699215220662,
        "distance_shoulder_lift_joint": 0.43353859918191384,
        "distance_shoulder_pan_joint": 1.8438220714456544,
        "distance_wrist_1_joint": 4.594590723612381,
        "distance_wrist_2_joint": 2.844699879713917,
        "distance_wrist_3_joint": 3.586132917482137,
        "smoothness": 0.39323802127150315,
        "time": 0.154035274,
        "traj_len": 3.9906745553423253,
        "weighted_distance": 5.526032921087898
    },
    "planner": "RRTConnect",
    "start": {
        "state": {
            "elbow_joint": 1.9565354010623817,
            "shoulder_lift_joint": -1.4165861575791021,
            "shoulder_pan_joint": -1.6717766225146293,
            "wrist_1_joint": -0.5286633292919765,
            "wrist_2_joint": 1.472756589071564,
            "wrist_3_joint": -3.1238370188695823
        }
    },
    "waypoints": [
        {
            "positions": [
                -1.6717766225146293,
                -1.4165861575791021,
                1.9565354010623817,
                -0.5286633292919765,
                1.472756589071564,
                -3.1238370188695823
            ]
        },
        {
            "positions": [
                -1.5924005091837135,
                -1.4060061627817284,
                1.8972458223474746,
                -0.45117116070215346,
                1.343250942416041,
                -3.0910891961132347
            ]
        },
        {
            "positions": [
                -1.5130243958527974,
                -1.395426167984355,
                1.8379562436325676,
                -0.3736789921123305,
                1.2137452957605182,
                -3.058341373356887
            ]
        },
        {
            "positions": [
                -1.4336482825218815,
                -1.3848461731869812,
                1.7786666649176603,
                -0.2961868235225076,
                1.084239649104995,
                -3.02559355060054
            ]
        },
        {
            "positions": [
                -1.3542721691909656,
                -1.3742661783896075,
                1.7193770862027533,
                -0.21869465493268458,
                0.9547340024494722,
                -2.9928457278441924
            ]
        },
        {
            "positions": [
                -1.3683695898545842,
                -1.354523604429926,
                1.6444855472223554,
                -0.10470465657123695,
                0.8952927720598172,
                -2.88249620994132
            ]
        },
        {
            "positions": [
                -1.3824670105182029,
                -1.3347810304702443,
                1.5695940082419575,
                0.009285341790210677,
                0.8358515416701622,
                -2.772146692038447
            ]
        },
        {
            "positions": [
                -1.3965644311818215,
                -1.3150384565105628,
                1.4947024692615596,
                0.12327534015165831,
                0.7764103112805072,
                -2.661797174135575
            ]
        },
        {
            "positions": [
                -1.4106618518454401,
                -1.2952958825508811,
                1.4198109302811615,
                0.23726533851310594,
                0.7169690808908522,
                -2.5514476562327024
            ]
        },
        {
            "positions": [
                -1.4247592725090588,
                -1.2755533085911996,
                1.3449193913007635,
                0.35125533687455357,
                0.6575278505011972,
                -2.4410981383298296
            ]
        },
        {
            "positions": [
                -1.4388566931726774,
                -1.255810734631518,
                1.2700278523203656,
                0.4652453352360012,
                0.5980866201115422,
                -2.330748620426957
            ]
        },
        {
            "positions": [
                -1.452954113836296,
                -1.2360681606718364,
                1.1951363133399677,
                0.5792353335974488,
                0.5386453897218872,
                -2.220399102524085
            ]
        },
        {
            "positions": [
                -1.4670515344999144,
                -1.216325586712155,
                1.1202447743595698,
                0.6932253319588965,
                0.47920415933223226,
                -2.110049584621212
            ]
        },
        {
            "positions": [
                -1.481148955163533,
                -1.1965830127524733,
                1.0453532353791717,
                0.8072153303203441,
                0.4197629289425773,
                -1.9997000667183396
            ]
        },
        {
            "positions": [
                -1.4952463758271517,
                -1.1768404387927918,
                0.9704616963987739,
                0.9212053286817917,
                0.3603216985529223,
                -1.889350548815467
            ]
        },
        {
            "positions": [
                -1.5093437964907703,
                -1.15709786483311,
                0.895570157418376,
                1.0351953270432395,
                0.3008804681632673,
                -1.7790010309125945
            ]
        },
        {
            "positions": [
                -1.523441217154389,
                -1.1373552908734286,
                0.8206786184379781,
                1.1491853254046869,
                0.24143923777361231,
                -1.6686515130097221
            ]
        },
        {
            "positions": [
                -1.5375386378180076,
                -1.1176127169137469,
                0.74578707945758,
                1.2631753237661347,
                0.18199800738395733,
                -1.5583019951068493
            ]
        },
        {
            "positions": [
                -1.5516360584816262,
                -1.0978701429540654,
                0.6708955404771821,
                1.3771653221275821,
                0.12255677699430237,
                -1.447952477203977
            ]
        },
        {
            "positions": [
                -1.7074468826979368,
                -1.0943969219168677,
                0.7466807221736275,
                1.4122227499388273,
                0.057504391151771056,
                -1.4331961847179953
            ]
        },
        {
            "positions": [
                -1.8632577069142473,
                -1.09092370087967,
                0.8224659038700729,
                1.4472801777500726,
                -0.007547994690760257,
                -1.4184398922320138
            ]
        },
        {
            "positions": [
                -2.0190685311305576,
                -1.0874504798424722,
                0.8982510855665182,
                1.4823376055613178,
                -0.07260038053329157,
                -1.4036835997460322
            ]
        },
        {
            "positions": [
                -2.174879355346868,
                -1.0839772588052743,
                0.9740362672629637,
                1.517395033372563,
                -0.13765276637582288,
                -1.3889273072600505
            ]
        },
        {
            "positions": [
                -2.3306901795631787,
                -1.0805040377680766,
                1.0498214489594089,
                1.5524524611838084,
                -0.20270515221835425,
                -1.3741710147740689
            ]
        },
        {
            "positions": [
                -2.4865010037794892,
                -1.0770308167308789,
                1.1256066306558543,
                1.5875098889950536,
                -0.26775753806088554,
                -1.3594147222880875
            ]
        },
        {
            "positions": [
                -2.6423118279957998,
                -1.0735575956936811,
                1.2013918123522997,
                1.6225673168062988,
                -0.3328099239034169,
                -1.3446584298021058
            ]
        },
        {
            "positions": [
                -2.67779830760849,
                -1.077812190331688,
                1.2600990422240366,
                1.59897183159902,
                -0.3519525941497346,
                -1.3849121937062105
            ]
        },
        {
            "positions": [
                -2.6701058181625714,
                -1.0833140152729512,
                1.3141762777218393,
                1.4539128086733388,
                -0.2958633592206698,
                -1.4949887780631304
            ]
        },
        {
            "positions": [
                -2.662413328716653,
                -1.0888158402142147,
                1.368253513219642,
                1.3088537857476576,
                -0.23977412429160497,
                -1.6050653624200502
            ]
        },
        {
            "positions": [
                -2.6547208392707344,
                -1.094317665155478,
                1.4223307487174446,
                1.1637947628219762,
                -0.18368488936254015,
                -1.71514194677697
            ]
        },
        {
            "positions": [
                -2.6470283498248164,
                -1.0998194900967413,
                1.4764079842152473,
                1.018735739896295,
                -0.12759565443347531,
                -1.8252185311338898
            ]
        },
        {
            "positions": [
                -2.639335860378898,
                -1.1053213150380046,
                1.53048521971305,
                0.8736767169706138,
                -0.07150641950441045,
                -1.9352951154908098
            ]
        },
        {
            "positions": [
                -2.6316433709329794,
                -1.110823139979268,
                1.5845624552108528,
                0.7286176940449326,
                -0.015417184575345688,
                -2.0453716998477294
            ]
        },
        {
            "positions": [
                -2.623950881487061,
                -1.1163249649205313,
                1.6386396907086556,
                0.5835586711192512,
                0.040672050353719166,
                -2.1554482842046494
            ]
        },
        {
            "positions": [
                -2.609056476128757,
                -1.1210992317274957,
                1.6755712111490544,
                0.4431235279365455,
                0.1034086555526358,
                -2.255064731605861
            ]
        },
        {
            "positions": [
                -2.5941620707704534,
                -1.1258734985344598,
                1.712502731589453,
                0.3026883847538399,
                0.16614526075155245,
                -2.354681179007073
            ]
        },
        {
            "positions": [
                -2.5792676654121496,
                -1.1306477653414242,
                1.7494342520298518,
                0.16225324157113424,
                0.22888186595046905,
                -2.4542976264082847
            ]
        },
        {
            "positions": [
                -2.564373260053846,
                -1.1354220321483883,
                1.7863657724702504,
                0.02181809838842863,
                0.2916184711493857,
                -2.5539140738094965
            ]
        },
        {
            "positions": [
                -2.5494788546955425,
                -1.1401962989553527,
                1.8232972929106492,
                -0.11861704479427704,
                0.3543550763483023,
                -2.6535305212107083
            ]
        },
        {
            "positions": [
                -2.5345844493372387,
                -1.144970565762317,
                1.860228813351048,
                -0.2590521879769827,
                0.41709168154721893,
                -2.7531469686119197
            ]
        },
        {
            "positions": [
                -2.519690043978935,
                -1.1497448325692812,
                1.8971603337914467,
                -0.39948733115968826,
                0.47982828674613553,
                -2.8527634160131314
            ]
        },
        {
            "positions": [
                -2.504795638620631,
                -1.1545190993762455,
                1.9340918542318455,
                -0.5399224743423939,
                0.5425648919450522,
                -2.952379863414343
            ]
        },
        {
            "positions": [
                -2.4899012332623274,
                -1.1592933661832097,
                1.971023374672244,
                -0.6803576175250997,
                0.6053014971439687,
                -3.051996310815555
            ]
        },
        {
            "positions": [
                -2.4750068279040236,
                -1.164067632990174,
                2.007954895112643,
                -0.8207927607078052,
                0.6680381023428854,
                -3.151612758216767
            ]
        }
    ]
}