{
    "goal": {
        "global_pose": {
            "orientation": {
                "w": -0.4816463035849501,
                "x": 0.5182115481033762,
                "y": 0.4908360881923453,
                "z": -0.5084816262002911
            },
            "position": {
                "x": -0.8240239810943604,
                "y": 0.19912469901144506,
                "z": 0.16403168439865112
            }
        },
        "name": "move_to_storage_D"
    },
    "id": "RRTConnect_move_to_storage_D_10",
    "joint_names": [
        "shoulder_pan_joint",
        "shoulder_lift_joint",
        "elbow_joint",
        "wrist_1_joint",
        "wrist_2_joint",
        "wrist_3_joint"
    ],
    "metrics": {
        "cart_traj_len": 3.9766651336663257,
        "distance_elbow_joint": 4.586899785368384,
        "distance_shoulder_lift_joint": 1.2650349154239355,
        "distance_shoulder_pan_joint": 2.8122404697050203,
        "distance_wrist_1_joint": 2.4977304013898967,
        "distance_wrist_2_joint": 0.8686830365386052,
        "distance_wrist_3_joint": 3.142917397603717,
        "smoothness": 0.3531780308494441,
        "time": 0.102347314,
        "traj_len": 3.895318472991594,
        "weighted_distance": 4.982544956060656
    },
    "planner": "RRTConnect",
    "start": {
        "state": {
            "elbow_joint": -2.384821988534728,
            "shoulder_lift_joint": -2.2788054721415256,
            "shoulder_pan_joint": -0.1854694642142757,
            "wrist_1_joint": 1.4845938289331202,
            "wrist_2_joint": 0.17898776772866878,
            "wrist_3_joint": 0.037105688729662994
        }
    },
    "waypoints": [
        {
            "positions": [
                -0.1854694642142757,
                -2.2788054721415256,
                -2.384821988534728,
                1.4845938289331202,
                0.17898776772866878,
                0.037105688729662994
            ]
        },
        {
            "positions": [
                -0.1392639893039283,
                -2.2740067690813364,
                -2.4796148933645927,
                1.5433725927743247,
                0.22705190592822744,
                0.14307433587963497
            ]
        },
        {
            "positions": [
                -0.09305851439358087,
                -2.2692080660211476,
                -2.574407798194458,
                1.6021513566155292,
                0.27511604412778606,
                0.24904298302960698
            ]
        },
        {
            "positions": [
                -0.01782067382562981,
                -2.234848322340324,
                -2.4555670789893753,
                1.5352144922064468,
                0.29203961796722466,
                0.32947885526940257
            ]
        },
        {
            "positions": [
                0.05741716674232125,
                -2.2004885786595003,
                -2.336726359784293,
                1.4682776277973641,
                0.30896319180666326,
                0.4099147275091982
            ]
        },
        {
            "positions": [
                0.13265500731027233,
                -2.166128834978677,
                -2.2178856405792104,
                1.4013407633882817,
                0.32588676564610186,
                0.4903505997489938
            ]
        },
        {
            "positions": [
                0.20789284787822337,
                -2.1317690912978535,
                -2.099044921374128,
                1.334403898979199,
                0.3428103394855404,
                0.5707864719887894
            ]
        },
        {
            "positions": [
                0.28313068844617445,
                -2.09740934761703,
                -1.9802042021690454,
                1.2674670345701167,
                0.359733913324979,
                0.6512223442285849
            ]
        },
        {
            "positions": [
                0.3583685290141255,
                -2.0630496039362063,
                -1.861363482963963,
                1.2005301701610342,
                0.3766574871644176,
                0.7316582164683807
            ]
        },
        {
            "positions": [
                0.4336063695820766,
                -2.028689860255383,
                -1.7425227637588803,
                1.1335933057519516,
                0.3935810610038562,
                0.8120940887081762
            ]
        },
        {
            "positions": [
                0.5088442101500277,
                -1.9943301165745593,
                -1.6236820445537976,
                1.0666564413428692,
                0.4105046348432948,
                0.8925299609479718
            ]
        },
        {
            "positions": [
                0.5840820507179787,
                -1.9599703728937359,
                -1.5048413253487154,
                0.9997195769337868,
                0.42742820868273335,
                0.9729658331877675
            ]
        },
        {
            "positions": [
                0.6593198912859297,
                -1.9256106292129123,
                -1.3860006061436327,
                0.9327827125247042,
                0.444351782522172,
                1.053401705427563
            ]
        },
        {
            "positions": [
                0.7345577318538807,
                -1.8912508855320889,
                -1.26715988693855,
                0.8658458481156217,
                0.46127535636161054,
                1.1338375776673586
            ]
        },
        {
            "positions": [
                0.809795572421832,
                -1.8568911418512652,
                -1.1483191677334676,
                0.7989089837065392,
                0.4781989302010492,
                1.2142734499071544
            ]
        },
        {
            "positions": [
                0.885033412989783,
                -1.8225313981704416,
                -1.029478448528385,
                0.7319721192974566,
                0.49512250404048774,
                1.2947093221469501
            ]
        },
        {
            "positions": [
                0.960271253557734,
                -1.7881716544896182,
                -0.9106377293233026,
                0.6650352548883741,
                0.5120460778799263,
                1.3751451943867457
            ]
        },
        {
            "positions": [
                1.035509094125685,
                -1.7538119108087946,
                -0.7917970101182201,
                0.5980983904792918,
                0.5289696517193649,
                1.4555810666265412
            ]
        },
        {
            "positions": [
                1.110746934693636,
                -1.719452167127971,
                -0.6729562909131375,
                0.5311615260702092,
                0.5458932255588036,
                1.5360169388663367
            ]
        },
        {
            "positions": [
                1.185984775261587,
                -1.6850924234471476,
                -0.554115571708055,
                0.46422466166112675,
                0.5628167993982421,
                1.6164528111061325
            ]
        },
        {
            "positions": [
                1.261222615829538,
                -1.6507326797663242,
                -0.4352748525029728,
                0.39728779725204433,
                0.5797403732376807,
                1.696888683345928
            ]
        },
        {
            "positions": [
                1.3364604563974891,
                -1.6163729360855006,
                -0.31643413329789016,
                0.3303509328429617,
                0.5966639470771193,
                1.7773245555857236
            ]
        },
        {
            "positions": [
                1.4116982969654404,
                -1.582013192404677,
                -0.1975934140928075,
                0.26341406843387927,
                0.6135875209165579,
                1.857760427825519
            ]
        },
        {
            "positions": [
                1.4869361375333914,
                -1.5476534487238536,
                -0.07875269488772485,
                0.19647720402479663,
                0.6305110947559964,
                1.9381963000653148
            ]
        },
        {
            "positions": [
                1.5621739781013424,
                -1.51329370504303,
                0.04008802431735781,
                0.1295403396157142,
                0.6474346685954351,
                2.0186321723051104
            ]
        },
        {
            "positions": [
                1.6374118186692936,
                -1.4789339613622063,
                0.15892874352244002,
                0.06260347520663156,
                0.6643582424348737,
                2.099068044544906
            ]
        },
        {
            "positions": [
                1.7126496592372447,
                -1.444574217681383,
                0.2777694627275227,
                -0.004333389202450855,
                0.6812818162743123,
                2.1795039167847015
            ]
        },
        {
            "positions": [
                1.7878874998051957,
                -1.4102144740005593,
                0.39661018193260533,
                -0.07127025361153327,
                0.6982053901137508,
                2.259939789024497
            ]
        },
        {
            "positions": [
                1.863125340373147,
                -1.3758547303197357,
                0.515450901137688,
                -0.13820711802061592,
                0.7151289639531895,
                2.340375661264293
            ]
        },
        {
            "positions": [
                1.9383631809410977,
                -1.3414949866389123,
                0.6342916203427706,
                -0.20514398242969833,
                0.7320525377926281,
                2.4208115335040885
            ]
        },
        {
            "positions": [
                2.013601021509049,
                -1.3071352429580887,
                0.7531323395478529,
                -0.272080846838781,
                0.7489761116320666,
                2.501247405743884
            ]
        },
        {
            "positions": [
                2.0888388620770004,
                -1.272775499277265,
                0.8719730587529355,
                -0.3390177112478634,
                0.7658996854715052,
                2.5816832779836796
            ]
        },
        {
            "positions": [
                2.1640767026449512,
                -1.2384157555964417,
                0.9908137779580177,
                -0.4059545756569456,
                0.7828232593109439,
                2.662119150223475
            ]
        },
        {
            "positions": [
                2.239314543212902,
                -1.2040560119156183,
                1.1096544971631004,
                -0.47289144006602823,
                0.7997468331503823,
                2.7425550224632707
            ]
        },
        {
            "positions": [
                2.3145523837808533,
                -1.1696962682347947,
                1.228495216368183,
                -0.5398283044751109,
                0.816670406989821,
                2.822990894703066
            ]
        },
        {
            "positions": [
                2.3897902243488045,
                -1.135336524553971,
                1.3473359355732653,
                -0.6067651688841935,
                0.8335939808292596,
                2.903426766942862
            ]
        },
        {
            "positions": [
                2.4650280649167553,
                -1.1009767808731477,
                1.466176654778348,
                -0.6737020332932757,
                0.8505175546686983,
                2.9838626391826577
            ]
        },
        {
            "positions": [
                2.5402659054847065,
                -1.066617037192324,
                1.5850173739834306,
                -0.7406388977023581,
                0.8674411285081368,
                3.0642985114224532
            ]
        },
        {
            "positions": [
                2.5835184554877255,
                -1.040193796954957,
                1.7039617757488137,
                -0.7593302073971584,
                0.9575559663877053,
                3.1221607988779168
            ]
        },
        {
            "positions": [
                2.626771005490745,
                -1.01377055671759,
                1.8229061775141968,
                -0.7780215170919588,
                1.047670804267274,
                3.18002308633338
            ]
        }
    ]
}