{
    "goal": {
        "global_pose": {
            "orientation": {
                "w": 0.5084816217422485,
                "x": -0.49083608388900757,
                "y": 0.5182115435600281,
                "z": -0.4816462993621826
            },
            "position": {
                "x": 0.5540239810943604,
                "y": 0.030875300988554955,
                "z": 0.16403168439865112
            }
        },
        "name": "move_to_storage_A"
    },
    "id": "RRTConnect_move_to_storage_A_79",
    "joint_names": [
        "shoulder_pan_joint",
        "shoulder_lift_joint",
        "elbow_joint",
        "wrist_1_joint",
        "wrist_2_joint",
        "wrist_3_joint"
    ],
    "metrics": {
        "cart_traj_len": 0.35314185663083864,
        "distance_elbow_joint": 0.45000239589980295,
        "distance_shoulder_lift_joint": 0.23653832846009681,
        "distance_shoulder_pan_joint": 0.4642176032466454,
        "distance_wrist_1_joint": 0.23616334914402948,
        "distance_wrist_2_joint": 1.0898278531782306,
        "distance_wrist_3_joint": 0.10084886585866704,
        "smoothness": 1.2212453191034883e-15,
        "time": 0.035975705,
        "traj_len": 1.6054900796291056,
        "weighted_distance": 2.026150865514971
    },
    "planner": "RRTConnect",
    "start": {
        "state": {
            "elbow_joint": 1.971548259319323,
            "shoulder_lift_joint": -1.1394851275133948,
            "shoulder_pan_joint": 0.1228115487234821,
            "wrist_1_joint": -0.7804723859257726,
            "wrist_2_joint": 0.12958671773740124,
            "wrist_3_joint": -3.192489227718131
        }
    },
    "waypoints": [
        {
            "positions": [
                0.1228115487234821,
                -1.1394851275133948,
                1.971548259319323,
                -0.7804723859257726,
                0.12958671773740124,
                -3.192489227718131
            ]
        },
        {
            "positions": [
                0.05649474825967561,
                -1.1732763172934086,
                2.035834315876438,
                -0.8142100072320625,
                0.28527641104857704,
                -3.178082246881179
            ]
        },
        {
            "positions": [
                -0.009822052204130877,
                -1.2070675070734225,
                2.1001203724335524,
                -0.8479476285383525,
                0.4409661043597528,
                -3.163675266044226
            ]
        },
        {
            "positions": [
                -0.07613885266793735,
                -1.2408586968534363,
                2.164406428990667,
                -0.8816852498446424,
                0.5966557976709286,
                -3.149268285207274
            ]
        },
        {
            "positions": [
                -0.14245565313174385,
                -1.2746498866334501,
                2.2286924855477817,
                -0.9154228711509323,
                0.7523454909821045,
                -3.1348613043703213
            ]
        },
        {
            "positions": [
                -0.20877245359555036,
                -1.308441076413464,
                2.2929785421048967,
                -0.9491604924572222,
                0.9080351842932803,
                -3.120454323533369
            ]
        },
        {
            "positions": [
                -0.2750892540593568,
                -1.3422322661934778,
                2.3572645986620113,
                -0.9828981137635122,
                1.0637248776044559,
                -3.1060473426964164
            ]
        },
        {
            "positions": [
                -0.3414060545231633,
                -1.3760234559734916,
                2.421550655219126,
                -1.016635735069802,
                1.2194145709156319,
                -3.091640361859464
            ]
        }
    ]
}{
    "goal": {
        "global_pose": {
            "orientation": {
                "w": 0.5084816217422485,
                "x": -0.49083608388900757,
                "y": 0.5182115435600281,
                "z": -0.4816462993621826
            },
            "position": {
                "x": 0.5540239810943604,
                "y": 0.030875300988554955,
                "z": 0.16403168439865112
            }
        },
        "name": "move_to_storage_A"
    },
    "id": "RRTConnect_move_to_storage_A_79",
    "joint_names": [
        "shoulder_pan_joint",
        "shoulder_lift_joint",
        "elbow_joint",
        "wrist_1_joint",
        "wrist_2_joint",
        "wrist_3_joint"
    ],
    "metrics": {
        "cart_traj_len": 0.35260278072911966,
        "distance_elbow_joint": 0.4521771582087619,
        "distance_shoulder_lift_joint": 0.23498289682698803,
        "distance_shoulder_pan_joint": 0.4621635358930016,
        "distance_wrist_1_joint": 0.2485302052175613,
        "distance_wrist_2_joint": 1.0940148017333267,
        "distance_wrist_3_joint": 0.09286551841150992,
        "smoothness": 1.3322676295501878e-15,
        "time": 0.051092751,
        "traj_len": 1.6077108310548727,
        "weighted_distance": 2.0280557586183514
    },
    "planner": "RRTConnect",
    "start": {
        "state": {
            "elbow_joint": 1.97154746011099,
            "shoulder_lift_joint": -1.13948474672311,
            "shoulder_pan_joint": 0.12281154466712228,
            "wrist_1_joint": -0.7804688027058302,
            "wrist_2_joint": 0.12958655903071145,
            "wrist_3_joint": 3.0906928834467795
        }
    },
    "waypoints": [
        {
            "positions": [
                0.12281154466712228,
                -1.13948474672311,
                1.97154746011099,
                -0.7804688027058302,
                0.12958655903071145,
                3.0906928834467795
            ]
        },
        {
            "positions": [
                0.05678818239669349,
                -1.1730537319841083,
                2.036144196997956,
                -0.8159731177369104,
                0.2858743878497581,
                3.1039593860769954
            ]
        },
        {
            "positions": [
                -0.009235179873735302,
                -1.2066227172451065,
                2.100740933884922,
                -0.8514774327679906,
                0.44216221666880473,
                3.117225888707211
            ]
        },
        {
            "positions": [
                -0.0752585421441641,
                -1.2401917025061049,
                2.165337670771888,
                -0.8869817477990707,
                0.5984500454878514,
                3.1304923913374267
            ]
        },
        {
            "positions": [
                -0.14128190441459287,
                -1.273760687767103,
                2.229934407658854,
                -0.9224860628301509,
                0.7547378743068981,
                3.143758893967642
            ]
        },
        {
            "positions": [
                -0.2073052666850217,
                -1.3073296730281014,
                2.29453114454582,
                -0.9579903778612311,
                0.9110257031259448,
                3.157025396597858
            ]
        },
        {
            "positions": [
                -0.27332862895545046,
                -1.3408986582890996,
                2.359127881432786,
                -0.9934946928923113,
                1.0673135319449913,
                3.1702918992280735
            ]
        },
        {
            "positions": [
                -0.3393519912258793,
                -1.374467643550098,
                2.423724618319752,
                -1.0289990079233915,
                1.2236013607640381,
                3.1835584018582894
            ]
        }
    ]
}{
    "goal": {
        "global_pose": {
            "orientation": {
                "w": 0.5084816217422485,
                "x": -0.49083608388900757,
                "y": 0.5182115435600281,
                "z": -0.4816462993621826
            },
            "position": {
                "x": 0.5540239810943604,
                "y": 0.030875300988554955,
                "z": 0.16403168439865112
            }
        },
        "name": "move_to_storage_A"
    },
    "id": "RRTConnect_move_to_storage_A_79",
    "joint_names": [
        "shoulder_pan_joint",
        "shoulder_lift_joint",
        "elbow_joint",
        "wrist_1_joint",
        "wrist_2_joint",
        "wrist_3_joint"
    ],
    "metrics": {
        "cart_traj_len": 0.35380107044316605,
        "distance_elbow_joint": 0.4493346580175257,
        "distance_shoulder_lift_joint": 0.23511743864057433,
        "distance_shoulder_pan_joint": 0.461082213702166,
        "distance_wrist_1_joint": 0.24063920941191919,
        "distance_wrist_2_joint": 1.1070546643788384,
        "distance_wrist_3_joint": 0.09957466657033498,
        "smoothness": 8.881784197001252e-16,
        "time": 0.038255582999999996,
        "traj_len": 1.61021826182706,
        "weighted_distance": 2.03461201649179
    },
    "planner": "RRTConnect",
    "start": {
        "state": {
            "elbow_joint": 1.9715472970024885,
            "shoulder_lift_joint": -1.1394870060712896,
            "shoulder_pan_joint": 0.12281152778156021,
            "wrist_1_joint": -0.780463741449964,
            "wrist_2_joint": 0.12958659822042276,
            "wrist_3_joint": 3.090690232415272
        }
    },
    "waypoints": [
        {
            "positions": [
                0.12281152778156021,
                -1.1394870060712896,
                1.9715472970024885,
                -0.780463741449964,
                0.12958659822042276,
                3.090690232415272
            ]
        },
        {
            "positions": [
                0.05694264010982222,
                -1.1730752115913716,
                2.0357379624335636,
                -0.8148407713659525,
                0.28773726456025683,
                3.1049151847824628
            ]
        },
        {
            "positions": [
                -0.008926247561915762,
                -1.2066634171114536,
                2.0999286278646387,
                -0.8492178012819409,
                0.4458879309000908,
                3.119140137149653
            ]
        },
        {
            "positions": [
                -0.07479513523365375,
                -1.2402516226315357,
                2.164119293295714,
                -0.8835948311979294,
                0.6040385972399249,
                3.133365089516844
            ]
        },
        {
            "positions": [
                -0.14066402290539173,
                -1.2738398281516177,
                2.228309958726789,
                -0.9179718611139178,
                0.7621892635797589,
                3.1475900418840346
            ]
        },
        {
            "positions": [
                -0.20653291057712977,
                -1.3074280336717,
                2.292500624157864,
                -0.9523488910299063,
                0.920339929919593,
                3.1618149942512255
            ]
        },
        {
            "positions": [
                -0.2724017982488677,
                -1.341016239191782,
                2.356691289588939,
                -0.9867259209458947,
                1.0784905962594271,
                3.176039946618416
            ]
        },
        {
            "positions": [
                -0.3382706859206058,
                -1.374604444711864,
                2.4208819550200142,
                -1.0211029508618832,
                1.236641262599261,
                3.190264898985607
            ]
        }
    ]
}