{
    "goal": {
        "global_pose": {
            "orientation": {
                "w": 0.005598929693374612,
                "x": 0.007748599140229565,
                "y": 0.7110244013736278,
                "z": -0.7031023480610252
            },
            "position": {
                "x": -0.8858502320852131,
                "y": -0.7141253447532654,
                "z": 0.3711530566215515
            }
        },
        "name": "move_to_auspresseinheit_C"
    },
    "id": "RRTConnect_move_to_auspresseinheit_C_3",
    "joint_names": [
        "shoulder_pan_joint",
        "shoulder_lift_joint",
        "elbow_joint",
        "wrist_1_joint",
        "wrist_2_joint",
        "wrist_3_joint"
    ],
    "metrics": {
        "cart_traj_len": 0.49358246800780065,
        "distance_elbow_joint": 0.9994013449575176,
        "distance_shoulder_lift_joint": 0.3243781785664729,
        "distance_shoulder_pan_joint": 0.25648346035638747,
        "distance_wrist_1_joint": 0.6729434999544202,
        "distance_wrist_2_joint": 1.313138579801811,
        "distance_wrist_3_joint": 0.05121700637337545,
        "smoothness": 4.844609574787718e-16,
        "time": 0.072940866,
        "traj_len": 1.9019889773629037,
        "weighted_distance": 2.388739869159672
    },
    "planner": "RRTConnect",
    "start": {
        "state": {
            "elbow_joint": 1.7527959577737207,
            "shoulder_lift_joint": -0.9740617694225068,
            "shoulder_pan_joint": -2.967991417825858,
            "wrist_1_joint": -0.759517768980727,
            "wrist_2_joint": 1.7443932448377408,
            "wrist_3_joint": -3.0840537646736568
        }
    },
    "waypoints": [
        {
            "positions": [
                -2.967991417825858,
                -0.9740617694225068,
                1.7527959577737207,
                -0.759517768980727,
                1.7443932448377408,
                -3.0840537646736568
            ]
        },
        {
            "positions": [
                -2.9423430717902193,
                -0.9416239515658595,
                1.6528558232779689,
                -0.6922234189852849,
                1.6130793868575597,
                -3.089175465310994
            ]
        },
        {
            "positions": [
                -2.9166947257545806,
                -0.9091861337092122,
                1.552915688782217,
                -0.6249290689898429,
                1.4817655288773786,
                -3.094297165948332
            ]
        },
        {
            "positions": [
                -2.891046379718942,
                -0.8767483158525649,
                1.4529755542864653,
                -0.557634718994401,
                1.3504516708971976,
                -3.0994188665856695
            ]
        },
        {
            "positions": [
                -2.865398033683303,
                -0.8443104979959176,
                1.3530354197907135,
                -0.4903403689989589,
                1.2191378129170163,
                -3.104540567223007
            ]
        },
        {
            "positions": [
                -2.8397496876476644,
                -0.8118726801392704,
                1.253095285294962,
                -0.4230460190035169,
                1.0878239549368354,
                -3.1096622678603447
            ]
        },
        {
            "positions": [
                -2.8141013416120253,
                -0.779434862282623,
                1.15315515079921,
                -0.3557516690080749,
                0.9565100969566543,
                -3.114783968497682
            ]
        },
        {
            "positions": [
                -2.7884529955763866,
                -0.7469970444259758,
                1.0532150163034584,
                -0.2884573190126329,
                0.8251962389764732,
                -3.1199056691350195
            ]
        },
        {
            "positions": [
                -2.762804649540748,
                -0.7145592265693285,
                0.9532748818077065,
                -0.2211629690171908,
                0.693882380996292,
                -3.125027369772357
            ]
        },
        {
            "positions": [
                -2.737156303505109,
                -0.6821214087126812,
                0.8533347473119548,
                -0.15386861902174886,
                0.562568523016111,
                -3.130149070409695
            ]
        },
        {
            "positions": [
                -2.7115079574694705,
                -0.6496835908560339,
                0.753394612816203,
                -0.08657426902630679,
                0.43125466503592996,
                -3.1352707710470322
            ]
        }
    ]
}