{
    "goal": {
        "global_pose": {
            "orientation": {
                "w": 0.7031023502349854,
                "x": -0.7110244035720825,
                "y": 0.007748599164187908,
                "z": 0.005598929710686207
            },
            "position": {
                "x": 0.11585023208521307,
                "y": 0.44412534475326537,
                "z": 0.3711530566215515
            }
        },
        "name": "move_to_auspresseinheit_A"
    },
    "id": "RRTConnect_move_to_auspresseinheit_A_16",
    "joint_names": [
        "shoulder_pan_joint",
        "shoulder_lift_joint",
        "elbow_joint",
        "wrist_1_joint",
        "wrist_2_joint",
        "wrist_3_joint"
    ],
    "metrics": {
        "cart_traj_len": 2.3174342644214105,
        "distance_elbow_joint": 0.2686809876168419,
        "distance_shoulder_lift_joint": 1.029514336282311,
        "distance_shoulder_pan_joint": 5.201490608997404,
        "distance_wrist_1_joint": 7.59871391038417,
        "distance_wrist_2_joint": 3.9578312149282455,
        "distance_wrist_3_joint": 0.6955941614896215,
        "smoothness": 0.6761972028047416,
        "time": 0.318551852,
        "traj_len": 4.330337772010238,
        "weighted_distance": 5.630236111211523
    },
    "planner": "RRTConnect",
    "start": {
        "state": {
            "elbow_joint": 2.4225746658250005,
            "shoulder_lift_joint": -1.3736534386056498,
            "shoulder_pan_joint": -0.3378633547517467,
            "wrist_1_joint": -1.0288598680537169,
            "wrist_2_joint": 1.233022673432363,
            "wrist_3_joint": -3.0940220416140027
        }
    },
    "waypoints": [
        {
            "positions": [
                -0.3378633547517467,
                -1.3736534386056498,
                2.4225746658250005,
                -1.0288598680537169,
                1.233022673432363,
                -3.0940220416140027
            ]
        },
        {
            "positions": [
                -0.4209781824214225,
                -1.404934452333729,
                2.4165590124650356,
                -0.865317297271222,
                1.1434951147307557,
                -3.081108942433467
            ]
        },
        {
            "positions": [
                -0.5040930100910983,
                -1.4362154660618083,
                2.410543359105071,
                -0.7017747264887271,
                1.0539675560291484,
                -3.068195843252931
            ]
        },
        {
            "positions": [
                -0.587207837760774,
                -1.4674964797898875,
                2.404527705745106,
                -0.5382321557062322,
                0.964439997327541,
                -3.0552827440723944
            ]
        },
        {
            "positions": [
                -0.6703226654304497,
                -1.4987774935179667,
                2.3985120523851418,
                -0.3746895849237373,
                0.8749124386259336,
                -3.0423696448918585
            ]
        },
        {
            "positions": [
                -0.7534374931001255,
                -1.530058507246046,
                2.392496399025177,
                -0.21114701414124237,
                0.7853848799243262,
                -3.0294565457113225
            ]
        },
        {
            "positions": [
                -0.8365523207698012,
                -1.5613395209741254,
                2.386480745665212,
                -0.047604443358747583,
                0.6958573212227189,
                -3.0165434465307865
            ]
        },
        {
            "positions": [
                -0.9196671484394772,
                -1.5926205347022047,
                2.3804650923052475,
                0.11593812742374743,
                0.6063297625211115,
                -3.0036303473502506
            ]
        },
        {
            "positions": [
                -1.0027819761091528,
                -1.623901548430284,
                2.3744494389452826,
                0.27948069820624233,
                0.5168022038195041,
                -2.990717248169714
            ]
        },
        {
            "positions": [
                -1.0858968037788286,
                -1.6551825621583631,
                2.368433785585318,
                0.443023268988737,
                0.4272746451178968,
                -2.9778041489891782
            ]
        },
        {
            "positions": [
                -1.1690116314485044,
                -1.6864635758864424,
                2.3624181322253532,
                0.6065658397712321,
                0.33774708641628937,
                -2.9648910498086423
            ]
        },
        {
            "positions": [
                -1.25212645911818,
                -1.7177445896145216,
                2.3564024788653883,
                0.770108410553727,
                0.24821952771468203,
                -2.9519779506281063
            ]
        },
        {
            "positions": [
                -1.3352412867878558,
                -1.7490256033426008,
                2.350386825505424,
                0.9336509813362217,
                0.1586919690130748,
                -2.9390648514475703
            ]
        },
        {
            "positions": [
                -1.4183561144575316,
                -1.78030661707068,
                2.344371172145459,
                1.0971935521187166,
                0.06916441031146725,
                -2.926151752267034
            ]
        },
        {
            "positions": [
                -1.5014709421272074,
                -1.8115876307987593,
                2.3383555187854945,
                1.2607361229012117,
                -0.020363148390140084,
                -2.913238653086498
            ]
        },
        {
            "positions": [
                -1.584585769796883,
                -1.8428686445268385,
                2.3323398654255296,
                1.4242786936837064,
                -0.10989070709174742,
                -2.900325553905962
            ]
        },
        {
            "positions": [
                -1.6677005974665589,
                -1.8741496582549177,
                2.3263242120655647,
                1.5878212644662015,
                -0.19941826579335475,
                -2.887412454725426
            ]
        },
        {
            "positions": [
                -1.7508154251362347,
                -1.9054306719829972,
                2.3203085587056003,
                1.7513638352486967,
                -0.2889458244949623,
                -2.87449935554489
            ]
        },
        {
            "positions": [
                -1.8339302528059103,
                -1.9367116857110762,
                2.3142929053456354,
                1.9149064060311909,
                -0.3784733831965694,
                -2.8615862563643537
            ]
        },
        {
            "positions": [
                -1.917045080475586,
                -1.9679926994391557,
                2.308277251985671,
                2.078448976813686,
                -0.46800094189817676,
                -2.8486731571838178
            ]
        },
        {
            "positions": [
                -2.000159908145262,
                -1.999273713167235,
                2.302261598625706,
                2.2419915475961814,
                -0.5575285005997843,
                -2.835760058003282
            ]
        },
        {
            "positions": [
                -2.0832747358149377,
                -2.030554726895314,
                2.296245945265741,
                2.405534118378676,
                -0.6470560593013914,
                -2.822846958822746
            ]
        },
        {
            "positions": [
                -2.1663895634846133,
                -2.061835740623393,
                2.2902302919057766,
                2.5690766891611707,
                -0.736583618002999,
                -2.80993385964221
            ]
        },
        {
            "positions": [
                -2.2495043911542894,
                -2.0931167543514726,
                2.2842146385458117,
                2.7326192599436654,
                -0.8261111767046063,
                -2.7970207604616735
            ]
        },
        {
            "positions": [
                -2.332619218823965,
                -2.124397768079552,
                2.2781989851858473,
                2.89616183072616,
                -0.9156387354062134,
                -2.7841076612811375
            ]
        },
        {
            "positions": [
                -2.4157340464936405,
                -2.155678781807631,
                2.2721833318258824,
                3.059704401508655,
                -1.0051662941078208,
                -2.7711945621006016
            ]
        },
        {
            "positions": [
                -2.2799244848738356,
                -2.1449183908041385,
                2.2773263602440443,
                2.9070891997337944,
                -0.9303992398735572,
                -2.787401809143046
            ]
        },
        {
            "positions": [
                -2.144114923254031,
                -2.134157999800646,
                2.2824693886622063,
                2.754473997958934,
                -0.8556321856392937,
                -2.8036090561854903
            ]
        },
        {
            "positions": [
                -2.0083053616342266,
                -2.1233976087971533,
                2.287612417080368,
                2.6018587961840733,
                -0.7808651314050302,
                -2.8198163032279346
            ]
        },
        {
            "positions": [
                -1.8724958000144216,
                -2.1126372177936608,
                2.29275544549853,
                2.4492435944092126,
                -0.7060980771707667,
                -2.836023550270379
            ]
        },
        {
            "positions": [
                -1.736686238394617,
                -2.101876826790168,
                2.297898473916692,
                2.296628392634352,
                -0.6313310229365032,
                -2.8522307973128234
            ]
        },
        {
            "positions": [
                -1.6008766767748122,
                -2.0911164357866756,
                2.3030415023348536,
                2.144013190859491,
                -0.5565639687022397,
                -2.8684380443552677
            ]
        },
        {
            "positions": [
                -1.4650671151550074,
                -2.080356044783183,
                2.3081845307530156,
                1.9913979890846305,
                -0.4817969144679761,
                -2.884645291397712
            ]
        },
        {
            "positions": [
                -1.3292575535352027,
                -2.0695956537796905,
                2.3133275591711775,
                1.83878278730977,
                -0.40702986023371257,
                -2.9008525384401564
            ]
        },
        {
            "positions": [
                -1.193447991915398,
                -2.058835262776198,
                2.3184705875893394,
                1.6861675855349092,
                -0.332262805999449,
                -2.917059785482601
            ]
        },
        {
            "positions": [
                -1.0576384302955935,
                -2.0480748717727053,
                2.3236136160075014,
                1.5335523837600487,
                -0.2574957517651856,
                -2.933267032525045
            ]
        },
        {
            "positions": [
                -0.9218288686757885,
                -2.0373144807692123,
                2.3287566444256633,
                1.380937181985188,
                -0.18272869753092202,
                -2.9494742795674895
            ]
        },
        {
            "positions": [
                -0.786019307055984,
                -2.02655408976572,
                2.3338996728438253,
                1.2283219802103271,
                -0.10796164329665847,
                -2.965681526609934
            ]
        },
        {
            "positions": [
                -0.6502097454361793,
                -2.015793698762227,
                2.339042701261987,
                1.0757067784354666,
                -0.03319458906239503,
                -2.9818887736523783
            ]
        },
        {
            "positions": [
                -0.5144001838163743,
                -2.0050333077587346,
                2.344185729680149,
                0.9230915766606058,
                0.04157246517186852,
                -2.9980960206948226
            ]
        },
        {
            "positions": [
                -0.3785906221965698,
                -1.9942729167552422,
                2.349328758098311,
                0.770476374885745,
                0.11633951940613207,
                -3.014303267737267
            ]
        },
        {
            "positions": [
                -0.24278106057676485,
                -1.9835125257517496,
                2.354471786516473,
                0.6178611731108847,
                0.19110657364039563,
                -3.0305105147797113
            ]
        },
        {
            "positions": [
                -0.10697149895696034,
                -1.972752134748257,
                2.359614814934635,
                0.46524597133602397,
                0.26587362787465896,
                -3.0467177618221557
            ]
        },
        {
            "positions": [
                0.02883806266284461,
                -1.9619917437447643,
                2.3647578433527965,
                0.3126307695611632,
                0.34064068210892273,
                -3.0629250088646
            ]
        },
        {
            "positions": [
                0.16464762428264912,
                -1.9512313527412717,
                2.3699008717709584,
                0.16001556778630244,
                0.4154077363431863,
                -3.0791322559070444
            ]
        },
        {
            "positions": [
                0.3004571859024536,
                -1.940470961737779,
                2.3750439001891204,
                0.007400366011442117,
                0.4901747905774496,
                -3.095339502949489
            ]
        },
        {
            "positions": [
                0.4362667475222586,
                -1.9297105707342865,
                2.3801869286072823,
                -0.14521483576341865,
                0.5649418448117132,
                -3.111546749991933
            ]
        },
        {
            "positions": [
                0.5720763091420635,
                -1.918950179730794,
                2.3853299570254443,
                -0.2978300375382794,
                0.6397088990459767,
                -3.1277539970343775
            ]
        },
        {
            "positions": [
                0.7078858707618679,
                -1.9081897887273014,
                2.390472985443606,
                -0.4504452393131402,
                0.7144759532802403,
                -3.143961244076822
            ]
        }
    ]
}