{
    "goal": {
        "global_pose": {
            "orientation": {
                "w": 0.7031023502349854,
                "x": -0.7110244035720825,
                "y": 0.007748599164187908,
                "z": 0.005598929710686207
            },
            "position": {
                "x": 0.11585023208521307,
                "y": 0.44412534475326537,
                "z": 0.3711530566215515
            }
        },
        "name": "move_to_auspresseinheit_A"
    },
    "id": "RRTConnect_move_to_auspresseinheit_A_46",
    "joint_names": [
        "shoulder_pan_joint",
        "shoulder_lift_joint",
        "elbow_joint",
        "wrist_1_joint",
        "wrist_2_joint",
        "wrist_3_joint"
    ],
    "metrics": {
        "cart_traj_len": 1.331316916783613,
        "distance_elbow_joint": 0.47250889299356924,
        "distance_shoulder_lift_joint": 0.8812168241507923,
        "distance_shoulder_pan_joint": 2.8489448608109087,
        "distance_wrist_1_joint": 2.2918050510757495,
        "distance_wrist_2_joint": 0.5323247519143623,
        "distance_wrist_3_joint": 4.485199376255585,
        "smoothness": 0.9205089702080961,
        "time": 0.054330172999999995,
        "traj_len": 3.392933797939619,
        "weighted_distance": 4.827683534854191
    },
    "planner": "RRTConnect",
    "start": {
        "state": {
            "elbow_joint": 2.4225746658250005,
            "shoulder_lift_joint": -1.3736534386056498,
            "shoulder_pan_joint": -0.3378633547517467,
            "wrist_1_joint": -1.0288598680537169,
            "wrist_2_joint": 1.233022673432363,
            "wrist_3_joint": -3.0940220416140027
        }
    },
    "waypoints": [
        {
            "positions": [
                -0.3378633547517467,
                -1.3736534386056498,
                2.4225746658250005,
                -1.0288598680537169,
                1.233022673432363,
                -3.0940220416140027
            ]
        },
        {
            "positions": [
                -0.4023784630377645,
                -1.424231805254353,
                2.4384179506158,
                -1.0909096652315295,
                1.2030114493722395,
                -2.9349280984201225
            ]
        },
        {
            "positions": [
                -0.4668935713237823,
                -1.474810171903056,
                2.4542612354065994,
                -1.152959462409342,
                1.173000225312116,
                -2.775834155226242
            ]
        },
        {
            "positions": [
                -0.5314086796098001,
                -1.5253885385517592,
                2.470104520197399,
                -1.2150092595871547,
                1.1429890012519923,
                -2.616740212032362
            ]
        },
        {
            "positions": [
                -0.5959237878958178,
                -1.5759669052004623,
                2.4859478049881982,
                -1.2770590567649673,
                1.1129777771918685,
                -2.4576462688384817
            ]
        },
        {
            "positions": [
                -0.6604388961818356,
                -1.6265452718491653,
                2.501791089778998,
                -1.33910885394278,
                1.082966553131745,
                -2.298552325644601
            ]
        },
        {
            "positions": [
                -0.7249540044678533,
                -1.6771236384978685,
                2.517634374569797,
                -1.4011586511205925,
                1.0529553290716214,
                -2.1394583824507207
            ]
        },
        {
            "positions": [
                -0.7894691127538711,
                -1.7277020051465715,
                2.5334776593605968,
                -1.4632084482984051,
                1.0229441050114978,
                -1.9803644392568405
            ]
        },
        {
            "positions": [
                -0.8539842210398889,
                -1.7782803717952747,
                2.5493209441513964,
                -1.5252582454762176,
                0.9929328809513742,
                -1.8212704960629602
            ]
        },
        {
            "positions": [
                -0.9184993293259067,
                -1.8288587384439778,
                2.5651642289421956,
                -1.5873080426540302,
                0.9629216568912505,
                -1.6621765528690797
            ]
        },
        {
            "positions": [
                -0.9830144376119245,
                -1.879437105092681,
                2.5810075137329953,
                -1.649357839831843,
                0.932910432831127,
                -1.5030826096751995
            ]
        },
        {
            "positions": [
                -1.0475295458979423,
                -1.930015471741384,
                2.5968507985237945,
                -1.7114076370096556,
                0.9028992087710034,
                -1.3439886664813192
            ]
        },
        {
            "positions": [
                -1.11204465418396,
                -1.980593838390087,
                2.612694083314594,
                -1.7734574341874683,
                0.8728879847108798,
                -1.184894723287439
            ]
        },
        {
            "positions": [
                -1.176559762469978,
                -2.03117220503879,
                2.6285373681053934,
                -1.835507231365281,
                0.8428767606507561,
                -1.0258007800935585
            ]
        },
        {
            "positions": [
                -1.2410748707559955,
                -2.0817505716874933,
                2.644380652896193,
                -1.8975570285430934,
                0.8128655365906325,
                -0.8667068368996781
            ]
        },
        {
            "positions": [
                -1.1194665367055792,
                -2.070930590995684,
                2.6287117212760447,
                -1.808612785381445,
                0.805855060648593,
                -1.0078245976210067
            ]
        },
        {
            "positions": [
                -0.997858202655163,
                -2.060110610303875,
                2.613042789655896,
                -1.7196685422197968,
                0.7988445847065535,
                -1.1489423583423357
            ]
        },
        {
            "positions": [
                -0.8762498686047467,
                -2.0492906296120657,
                2.5973738580357475,
                -1.6307242990581483,
                0.7918341087645141,
                -1.2900601190636642
            ]
        },
        {
            "positions": [
                -0.7546415345543305,
                -2.038470648920256,
                2.5817049264155987,
                -1.5417800558965,
                0.7848236328224746,
                -1.4311778797849932
            ]
        },
        {
            "positions": [
                -0.6330332005039142,
                -2.0276506682284468,
                2.5660359947954503,
                -1.4528358127348517,
                0.7778131568804351,
                -1.5722956405063218
            ]
        },
        {
            "positions": [
                -0.5114248664534979,
                -2.0168306875366375,
                2.550367063175302,
                -1.3638915695732035,
                0.7708026809383957,
                -1.7134134012276507
            ]
        },
        {
            "positions": [
                -0.3898165324030817,
                -2.0060107068448283,
                2.534698131555153,
                -1.2749473264115552,
                0.7637922049963561,
                -1.8545311619489793
            ]
        },
        {
            "positions": [
                -0.2682081983526654,
                -1.995190726153019,
                2.5190291999350047,
                -1.1860030832499069,
                0.7567817290543166,
                -1.9956489226703082
            ]
        },
        {
            "positions": [
                -0.14659986430224903,
                -1.9843707454612096,
                2.5033602683148564,
                -1.0970588400882586,
                0.7497712531122771,
                -2.136766683391637
            ]
        },
        {
            "positions": [
                -0.024991530251832872,
                -1.9735507647694004,
                2.4876913366947075,
                -1.0081145969266103,
                0.7427607771702376,
                -2.2778844441129658
            ]
        },
        {
            "positions": [
                0.09661680379858328,
                -1.9627307840775912,
                2.472022405074559,
                -0.9191703537649619,
                0.7357503012281982,
                -2.4190022048342943
            ]
        },
        {
            "positions": [
                0.21822513784899966,
                -1.9519108033857817,
                2.456353473454411,
                -0.8302261106033135,
                0.7287398252861587,
                -2.5601199655556233
            ]
        },
        {
            "positions": [
                0.33983347189941604,
                -1.9410908226939725,
                2.440684541834262,
                -0.7412818674416652,
                0.7217293493441191,
                -2.701237726276952
            ]
        },
        {
            "positions": [
                0.4614418059498322,
                -1.9302708420021633,
                2.4250156102141136,
                -0.652337624280017,
                0.7147188734020797,
                -2.8423554869982808
            ]
        },
        {
            "positions": [
                0.5830501400002484,
                -1.9194508613103538,
                2.409346678593965,
                -0.5633933811183687,
                0.7077083974600402,
                -2.9834732477196093
            ]
        },
        {
            "positions": [
                0.7046584740506646,
                -1.9086308806185446,
                2.3936777469738164,
                -0.47444913795672045,
                0.7006979215180007,
                -3.1245910084409383
            ]
        }
    ]
}