{
    "goal": {
        "global_pose": {
            "orientation": {
                "w": 0.7031023502349854,
                "x": -0.7110244035720825,
                "y": 0.007748599164187908,
                "z": 0.005598929710686207
            },
            "position": {
                "x": 0.11585023208521307,
                "y": 0.44412534475326537,
                "z": 0.3711530566215515
            }
        },
        "name": "move_to_auspresseinheit_A"
    },
    "id": "RRTConnect_move_to_auspresseinheit_A_83",
    "joint_names": [
        "shoulder_pan_joint",
        "shoulder_lift_joint",
        "elbow_joint",
        "wrist_1_joint",
        "wrist_2_joint",
        "wrist_3_joint"
    ],
    "metrics": {
        "cart_traj_len": 0.7125912033512405,
        "distance_elbow_joint": 0.16985982501756647,
        "distance_shoulder_lift_joint": 0.5363193437426754,
        "distance_shoulder_pan_joint": 1.042198439534498,
        "distance_wrist_1_joint": 0.5651281181134331,
        "distance_wrist_2_joint": 0.6779133748962762,
        "distance_wrist_3_joint": 0.9148489329036331,
        "smoothness": 0.7942741134976291,
        "time": 0.064352966,
        "traj_len": 1.9764280999338384,
        "weighted_distance": 2.641781102405167
    },
    "planner": "RRTConnect",
    "start": {
        "state": {
            "elbow_joint": 2.4225746658250005,
            "shoulder_lift_joint": -1.3736534386056498,
            "shoulder_pan_joint": -0.3378633547517467,
            "wrist_1_joint": -1.0288598680537169,
            "wrist_2_joint": 1.233022673432363,
            "wrist_3_joint": -3.0940220416140027
        }
    },
    "waypoints": [
        {
            "positions": [
                -0.3378633547517467,
                -1.3736534386056498,
                2.4225746658250005,
                -1.0288598680537169,
                1.233022673432363,
                -3.0940220416140027
            ]
        },
        {
            "positions": [
                -0.2596725304363452,
                -1.4457131363648497,
                2.40843117243319,
                -0.9484174603546457,
                1.146423001506812,
                -3.031469528886222
            ]
        },
        {
            "positions": [
                -0.18148170612094364,
                -1.5177728341240497,
                2.39428767904138,
                -0.8679750526555745,
                1.059823329581261,
                -2.9689170161584415
            ]
        },
        {
            "positions": [
                -0.10329088180554208,
                -1.5898325318832496,
                2.3801441856495695,
                -0.7875326449565033,
                0.9732236576557098,
                -2.9063645034306607
            ]
        },
        {
            "positions": [
                -0.025100057490140548,
                -1.6618922296424494,
                2.3660006922577597,
                -0.7070902372574321,
                0.8866239857301588,
                -2.84381199070288
            ]
        },
        {
            "positions": [
                0.05309076682526104,
                -1.7339519274016495,
                2.3518571988659493,
                -0.626647829558361,
                0.8000243138046077,
                -2.781259477975099
            ]
        },
        {
            "positions": [
                0.13128159114066257,
                -1.8060116251608491,
                2.337713705474139,
                -0.5462054218592898,
                0.7134246418790567,
                -2.7187069652473186
            ]
        },
        {
            "positions": [
                0.20947241545606415,
                -1.8780713229200492,
                2.3235702120823287,
                -0.4657630141602186,
                0.6268249699535057,
                -2.6561544525195377
            ]
        },
        {
            "positions": [
                0.3744266385649599,
                -1.8887051427294745,
                2.3471886691739603,
                -0.46644010223353016,
                0.650730193759312,
                -2.8151482337892606
            ]
        },
        {
            "positions": [
                0.5393808616738556,
                -1.8993389625388999,
                2.370807126265592,
                -0.4671171903068418,
                0.6746354175651182,
                -2.974142015058983
            ]
        },
        {
            "positions": [
                0.7043350847827514,
                -1.9099727823483252,
                2.3944255833572234,
                -0.46779427838015336,
                0.6985406413709245,
                -3.133135796328706
            ]
        }
    ]
}