{
    "goal": {
        "global_pose": {
            "orientation": {
                "w": 0.7047431468963623,
                "x": -0.7094548344612122,
                "y": 0.0024358443915843964,
                "z": -0.0022348060738295317
            },
            "position": {
                "x": 0.6094750761985779,
                "y": 0.3671506643295288,
                "z": 0.19426114857196808
            }
        },
        "name": "move_to_magneteinheit_A"
    },
    "id": "RRTConnect_move_to_magneteinheit_A_83",
    "joint_names": [
        "shoulder_pan_joint",
        "shoulder_lift_joint",
        "elbow_joint",
        "wrist_1_joint",
        "wrist_2_joint",
        "wrist_3_joint"
    ],
    "metrics": {
        "cart_traj_len": 3.651398817353725,
        "distance_elbow_joint": 3.911802008534684,
        "distance_shoulder_lift_joint": 0.9421221180729091,
        "distance_shoulder_pan_joint": 2.958454676897524,
        "distance_wrist_1_joint": 3.453894296975429,
        "distance_wrist_2_joint": 1.5324791018427821,
        "distance_wrist_3_joint": 2.508481153141595,
        "smoothness": 0.3548550244285606,
        "time": 0.078561034,
        "traj_len": 3.9124459555966946,
        "weighted_distance": 5.030961047410955
    },
    "planner": "RRTConnect",
    "start": {
        "state": {
            "elbow_joint": -1.9196185241190666,
            "shoulder_lift_joint": -1.2443396400964142,
            "shoulder_pan_joint": 2.6996025414629847,
            "wrist_1_joint": -1.5485510000780065,
            "wrist_2_joint": -1.5709468930060704,
            "wrist_3_joint": 0.4420197071253992
        }
    },
    "waypoints": [
        {
            "positions": [
                2.6996025414629847,
                -1.2443396400964142,
                -1.9196185241190666,
                -1.5485510000780065,
                -1.5709468930060704,
                0.4420197071253992
            ]
        },
        {
            "positions": [
                2.5950317723618315,
                -1.2154156662202007,
                -1.8309739121300792,
                -1.496397370185876,
                -1.5229000807760777,
                0.3781525296381495
            ]
        },
        {
            "positions": [
                2.4904610032606787,
                -1.1864916923439872,
                -1.7423293001410916,
                -1.4442437402937451,
                -1.4748532685460851,
                0.3142853521508998
            ]
        },
        {
            "positions": [
                2.3858902341595254,
                -1.1575677184677737,
                -1.6536846881521041,
                -1.3920901104016146,
                -1.4268064563160925,
                0.25041817466365013
            ]
        },
        {
            "positions": [
                2.2813194650583726,
                -1.1286437445915605,
                -1.5650400761631165,
                -1.339936480509484,
                -1.3787596440861,
                0.1865509971764004
            ]
        },
        {
            "positions": [
                2.1767486959572193,
                -1.099719770715347,
                -1.476395464174129,
                -1.2877828506173532,
                -1.3307128318561074,
                0.12268381968915071
            ]
        },
        {
            "positions": [
                2.0721779268560665,
                -1.0707957968391335,
                -1.3877508521851416,
                -1.2356292207252226,
                -1.2826660196261148,
                0.058816642201901026
            ]
        },
        {
            "positions": [
                1.9676071577549132,
                -1.04187182296292,
                -1.299106240196154,
                -1.1834755908330918,
                -1.2346192073961222,
                -0.005050535285348712
            ]
        },
        {
            "positions": [
                1.86303638865376,
                -1.0129478490867065,
                -1.2104616282071663,
                -1.1313219609409613,
                -1.1865723951661296,
                -0.0689177127725984
            ]
        },
        {
            "positions": [
                1.758465619552607,
                -0.9840238752104931,
                -1.1218170162181789,
                -1.0791683310488307,
                -1.138525582936137,
                -0.13278489025984808
            ]
        },
        {
            "positions": [
                1.653894850451454,
                -0.9550999013342796,
                -1.0331724042291914,
                -1.0270147011567,
                -1.0904787707061443,
                -0.19665206774709776
            ]
        },
        {
            "positions": [
                1.5493240813503006,
                -0.9261759274580662,
                -0.9445277922402038,
                -0.9748610712645692,
                -1.0424319584761519,
                -0.26051924523434744
            ]
        },
        {
            "positions": [
                1.4447533122491478,
                -0.8972519535818527,
                -0.8558831802512163,
                -0.9227074413724387,
                -0.9943851462461591,
                -0.3243864227215971
            ]
        },
        {
            "positions": [
                1.3401825431479948,
                -0.8683279797056394,
                -0.7672385682622289,
                -0.870553811480308,
                -0.9463383340161666,
                -0.3882536002088468
            ]
        },
        {
            "positions": [
                1.2356117740468415,
                -0.8394040058294259,
                -0.6785939562732413,
                -0.8184001815881773,
                -0.8982915217861739,
                -0.4521207776960966
            ]
        },
        {
            "positions": [
                1.1310410049456885,
                -0.8104800319532124,
                -0.5899493442842536,
                -0.7662465516960466,
                -0.8502447095561814,
                -0.5159879551833462
            ]
        },
        {
            "positions": [
                1.0264702358445355,
                -0.7815560580769989,
                -0.5013047322952662,
                -0.714092921803916,
                -0.8021978973261887,
                -0.579855132670596
            ]
        },
        {
            "positions": [
                0.9218994667433824,
                -0.7526320842007854,
                -0.41266012030627874,
                -0.6619392919117854,
                -0.7541510850961962,
                -0.6437223101578454
            ]
        },
        {
            "positions": [
                0.8173286976422292,
                -0.7237081103245719,
                -0.3240155083172911,
                -0.6097856620196547,
                -0.7061042728662035,
                -0.7075894876450953
            ]
        },
        {
            "positions": [
                0.7127579285410761,
                -0.6947841364483586,
                -0.23537089632830366,
                -0.557632032127524,
                -0.658057460636211,
                -0.771456665132345
            ]
        },
        {
            "positions": [
                0.6081871594399231,
                -0.6658601625721451,
                -0.14672628433931623,
                -0.5054784022353933,
                -0.6100106484062183,
                -0.8353238426195947
            ]
        },
        {
            "positions": [
                0.5036163903387703,
                -0.6369361886959317,
                -0.05808167235032857,
                -0.45332477234326274,
                -0.5619638361762258,
                -0.8991910201068444
            ]
        },
        {
            "positions": [
                0.39904562123761655,
                -0.6080122148197182,
                0.03056293963865908,
                -0.40117114245113195,
                -0.5139170239462332,
                -0.9630581975940941
            ]
        },
        {
            "positions": [
                0.2944748521364636,
                -0.5790882409435048,
                0.11920755162764649,
                -0.3490175125590014,
                -0.46587021171624043,
                -1.0269253750813436
            ]
        },
        {
            "positions": [
                0.2651799644457052,
                -0.5972751875899271,
                0.2251740194064326,
                -0.20268751181682285,
                -0.436672823671376,
                -0.9657094516977717
            ]
        },
        {
            "positions": [
                0.23588507675494674,
                -0.6154621342363495,
                0.3311404871852187,
                -0.05635751107464432,
                -0.40747543562651156,
                -0.9044935283141996
            ]
        },
        {
            "positions": [
                0.20659018906418827,
                -0.633649080882772,
                0.43710695496400487,
                0.08997248966753424,
                -0.3782780475816471,
                -0.8432776049306276
            ]
        },
        {
            "positions": [
                0.17729530137342983,
                -0.6518360275291945,
                0.5430734227427909,
                0.23630249040971274,
                -0.3490806595367827,
                -0.7820616815470557
            ]
        },
        {
            "positions": [
                0.14800041368267136,
                -0.6700229741756168,
                0.6490398905215772,
                0.38263249115189135,
                -0.3198832714919183,
                -0.7208457581634836
            ]
        },
        {
            "positions": [
                0.11870552599191292,
                -0.6882099208220394,
                0.7550063583003632,
                0.5289624918940699,
                -0.2906858834470538,
                -0.6596298347799117
            ]
        },
        {
            "positions": [
                0.08941063830115445,
                -0.7063968674684618,
                0.8609728260791494,
                0.6752924926362485,
                -0.26148849540218944,
                -0.5984139113963396
            ]
        },
        {
            "positions": [
                0.060115750610396035,
                -0.7245838141148842,
                0.9669392938579354,
                0.8216224933784269,
                -0.232291107357325,
                -0.5371979880127677
            ]
        },
        {
            "positions": [
                0.030820862919637593,
                -0.7427707607613065,
                1.0729057616367215,
                0.9679524941206055,
                -0.20309371931246056,
                -0.4759820646291957
            ]
        },
        {
            "positions": [
                0.001525975228879095,
                -0.760957707407729,
                1.1788722294155078,
                1.114282494862784,
                -0.17389633126759613,
                -0.4147661412456236
            ]
        },
        {
            "positions": [
                -0.027768912461879347,
                -0.7791446540541515,
                1.2848386971942938,
                1.2606124956049625,
                -0.1446989432227317,
                -0.35355021786205176
            ]
        },
        {
            "positions": [
                -0.05706380015263779,
                -0.7973316007005739,
                1.39080516497308,
                1.406942496347141,
                -0.11550155517786725,
                -0.2923342944784797
            ]
        },
        {
            "positions": [
                -0.009362797959939696,
                -0.7874163205989494,
                1.4999221906149893,
                1.4814863980711404,
                -0.12789840359807966,
                -0.240446512289638
            ]
        },
        {
            "positions": [
                0.0383382042327584,
                -0.7775010404973249,
                1.609039216256899,
                1.5560302997951396,
                -0.14029525201829207,
                -0.18855873010079632
            ]
        },
        {
            "positions": [
                0.08603920642545648,
                -0.7675857603957005,
                1.7181562418988086,
                1.630574201519139,
                -0.15269210043850448,
                -0.1366709479119546
            ]
        },
        {
            "positions": [
                0.13374020861815458,
                -0.757670480294076,
                1.827273267540718,
                1.7051181032431382,
                -0.1650889488587169,
                -0.08478316572311292
            ]
        },
        {
            "positions": [
                0.12824804536259954,
                -0.7671535996722925,
                1.909728375978168,
                1.8052307000702803,
                -0.15136576369185173,
                -0.036086234934802015
            ]
        },
        {
            "positions": [
                0.12275588210704447,
                -0.7766367190505088,
                1.9921834844156179,
                1.9053432968974227,
                -0.13764257852498654,
                0.012610695853508894
            ]
        }
    ]
}