{
    "goal": {
        "global_pose": {
            "orientation": {
                "w": 0.005598929693374612,
                "x": 0.007748599140229565,
                "y": 0.7110244013736278,
                "z": -0.7031023480610252
            },
            "position": {
                "x": -0.8858502320852131,
                "y": -0.7141253447532654,
                "z": 0.3711530566215515
            }
        },
        "name": "move_to_auspresseinheit_C"
    },
    "id": "RRTConnect_move_to_auspresseinheit_C_104",
    "joint_names": [
        "shoulder_pan_joint",
        "shoulder_lift_joint",
        "elbow_joint",
        "wrist_1_joint",
        "wrist_2_joint",
        "wrist_3_joint"
    ],
    "metrics": {
        "cart_traj_len": 0.49269584336678385,
        "distance_elbow_joint": 0.9928599910053547,
        "distance_shoulder_lift_joint": 0.3217786536458579,
        "distance_shoulder_pan_joint": 0.25679661079235405,
        "distance_wrist_1_joint": 0.6664743651556714,
        "distance_wrist_2_joint": 1.3087974875085195,
        "distance_wrist_3_joint": 0.059983283201793025,
        "smoothness": 8.074349282788172e-16,
        "time": 0.213669614,
        "traj_len": 1.8991288506337718,
        "weighted_distance": 2.38787118797839
    },
    "planner": "RRTConnect",
    "start": {
        "state": {
            "elbow_joint": 1.7527959577737207,
            "shoulder_lift_joint": -0.9740617694225068,
            "shoulder_pan_joint": -2.967991417825858,
            "wrist_1_joint": -0.759517768980727,
            "wrist_2_joint": 1.7443932448377408,
            "wrist_3_joint": -3.0840537646736568
        }
    },
    "waypoints": [
        {
            "positions": [
                -2.967991417825858,
                -0.9740617694225068,
                1.7527959577737207,
                -0.759517768980727,
                1.7443932448377408,
                -3.0840537646736568
            ]
        },
        {
            "positions": [
                -2.9423117567466224,
                -0.941883904057921,
                1.6535099586731852,
                -0.6928703324651598,
                1.6135134960868889,
                -3.090052092993836
            ]
        },
        {
            "positions": [
                -2.9166320956673872,
                -0.9097060386933352,
                1.5542239595726497,
                -0.6262228959495927,
                1.482633747336037,
                -3.096050421314015
            ]
        },
        {
            "positions": [
                -2.8909524345881517,
                -0.8775281733287494,
                1.4549379604721142,
                -0.5595754594340255,
                1.351753998585185,
                -3.1020487496341946
            ]
        },
        {
            "positions": [
                -2.8652727735089165,
                -0.8453503079641635,
                1.3556519613715787,
                -0.49292802291845844,
                1.220874249834333,
                -3.108047077954374
            ]
        },
        {
            "positions": [
                -2.839593112429681,
                -0.8131724425995779,
                1.2563659622710432,
                -0.4262805864028913,
                1.089994501083481,
                -3.1140454062745535
            ]
        },
        {
            "positions": [
                -2.8139134513504453,
                -0.780994577234992,
                1.1570799631705078,
                -0.35963314988732414,
                0.9591147523326291,
                -3.1200437345947325
            ]
        },
        {
            "positions": [
                -2.78823379027121,
                -0.7488167118704063,
                1.0577939640699725,
                -0.29298571337175705,
                0.8282350035817773,
                -3.126042062914912
            ]
        },
        {
            "positions": [
                -2.7625541291919746,
                -0.7166388465058204,
                0.9585079649694368,
                -0.2263382768561899,
                0.6973552548309252,
                -3.1320403912350914
            ]
        },
        {
            "positions": [
                -2.7368744681127395,
                -0.6844609811412347,
                0.8592219658689014,
                -0.15969084034062275,
                0.5664755060800732,
                -3.1380387195552704
            ]
        },
        {
            "positions": [
                -2.711194807033504,
                -0.6522831157766489,
                0.759935966768366,
                -0.0930434038250556,
                0.4355957573292213,
                -3.14403704787545
            ]
        }
    ]
}