{
    "goal": {
        "global_pose": {
            "orientation": {
                "w": -0.00223480608172531,
                "x": 0.0024358444001904467,
                "y": 0.7094548369677653,
                "z": -0.704743149386269
            },
            "position": {
                "x": 0.6205249238014221,
                "y": -0.6371506643295288,
                "z": 0.19426114857196808
            }
        },
        "name": "move_to_magneteinheit_B"
    },
    "id": "RRTConnect_move_to_magneteinheit_B_23",
    "joint_names": [
        "shoulder_pan_joint",
        "shoulder_lift_joint",
        "elbow_joint",
        "wrist_1_joint",
        "wrist_2_joint",
        "wrist_3_joint"
    ],
    "metrics": {
        "cart_traj_len": 4.271360806766597,
        "distance_elbow_joint": 4.411611385801184,
        "distance_shoulder_lift_joint": 1.5036582851645446,
        "distance_shoulder_pan_joint": 3.1391874045867048,
        "distance_wrist_1_joint": 2.421570768922825,
        "distance_wrist_2_joint": 3.643170145852425,
        "distance_wrist_3_joint": 3.160660636313507,
        "smoothness": 0.7108704715958956,
        "time": 0.156231922,
        "traj_len": 4.275495132337445,
        "weighted_distance": 5.537681898957671
    },
    "planner": "RRTConnect",
    "start": {
        "state": {
            "elbow_joint": 2.6216224122426386,
            "shoulder_lift_joint": -1.4174107377796124,
            "shoulder_pan_joint": 0.7066234856936794,
            "wrist_1_joint": 1.9546482284002225,
            "wrist_2_joint": -0.7096286983471962,
            "wrist_3_joint": 0.005740856962016249
        }
    },
    "waypoints": [
        {
            "positions": [
                0.7066234856936794,
                -1.4174107377796124,
                2.6216224122426386,
                1.9546482284002225,
                -0.7096286983471962,
                0.005740856962016249
            ]
        },
        {
            "positions": [
                0.6621804162701856,
                -1.4212385444930282,
                2.621944126142667,
                1.9521184910301774,
                -0.713963208547774,
                0.0439382367571473
            ]
        },
        {
            "positions": [
                0.5528561925796271,
                -1.4464717603210753,
                2.598268068853621,
                1.9580166847642326,
                -0.7438192016638212,
                0.1329223682137583
            ]
        },
        {
            "positions": [
                0.44353196888906854,
                -1.4717049761491225,
                2.574592011564575,
                1.963914878498288,
                -0.7736751947798686,
                0.2219064996703693
            ]
        },
        {
            "positions": [
                0.44915171056594005,
                -1.5466802677352707,
                2.5957768826991843,
                2.022400024016111,
                -0.7033660164720756,
                0.31337697373762174
            ]
        },
        {
            "positions": [
                0.45477145224281157,
                -1.6216555593214188,
                2.6169617538337935,
                2.080885169533934,
                -0.6330568381642827,
                0.40484744780487414
            ]
        },
        {
            "positions": [
                0.4603911939196831,
                -1.696630850907567,
                2.6381466249684027,
                2.1393703150517567,
                -0.5627476598564898,
                0.4963179218721266
            ]
        },
        {
            "positions": [
                0.43071335580397824,
                -1.7193081985574363,
                2.479101595326744,
                2.1470554437955576,
                -0.704760774080309,
                0.5277105400319727
            ]
        },
        {
            "positions": [
                0.4010355176882734,
                -1.7419855462073057,
                2.320056565685085,
                2.154740572539359,
                -0.8467738883041283,
                0.5591031581918189
            ]
        },
        {
            "positions": [
                0.37135767957256854,
                -1.7646628938571751,
                2.1610115360434263,
                2.1624257012831603,
                -0.9887870025279475,
                0.5904957763516651
            ]
        },
        {
            "positions": [
                0.3416798414568637,
                -1.7873402415070445,
                2.0019665064017675,
                2.170110830026961,
                -1.1308001167517667,
                0.6218883945115112
            ]
        },
        {
            "positions": [
                0.4657426882727157,
                -1.823959092123666,
                1.8798594910111714,
                2.197093438790313,
                -1.157367697057474,
                0.672801149415356
            ]
        },
        {
            "positions": [
                0.5898055350885677,
                -1.860577942740287,
                1.7577524756205753,
                2.224076047553665,
                -1.1839352773631815,
                0.7237139043192007
            ]
        },
        {
            "positions": [
                0.7138683819044198,
                -1.8971967933569085,
                1.6356454602299795,
                2.251058656317017,
                -1.2105028576688888,
                0.7746266592230455
            ]
        },
        {
            "positions": [
                0.8379312287202718,
                -1.93381564397353,
                1.5135384448393834,
                2.278041265080369,
                -1.2370704379745963,
                0.8255394141268902
            ]
        },
        {
            "positions": [
                0.9619940755361238,
                -1.970434494590151,
                1.3914314294487873,
                2.3050238738437208,
                -1.2636380182803035,
                0.876452169030735
            ]
        },
        {
            "positions": [
                1.0860569223519758,
                -2.0070533452067725,
                1.2693244140581914,
                2.3320064826070728,
                -1.2902055985860108,
                0.9273649239345798
            ]
        },
        {
            "positions": [
                1.2101197691678278,
                -2.043672195823394,
                1.1472173986675953,
                2.358989091370425,
                -1.3167731788917183,
                0.9782776788384244
            ]
        },
        {
            "positions": [
                1.3341826159836798,
                -2.0802910464400153,
                1.0251103832769992,
                2.385971700133777,
                -1.3433407591974256,
                1.0291904337422693
            ]
        },
        {
            "positions": [
                1.4582454627995318,
                -2.1169098970566367,
                0.9030033678864031,
                2.412954308897129,
                -1.369908339503133,
                1.080103188646114
            ]
        },
        {
            "positions": [
                1.5823083096153838,
                -2.1535287476732576,
                0.780896352495807,
                2.439936917660481,
                -1.3964759198088403,
                1.1310159435499587
            ]
        },
        {
            "positions": [
                1.7063711564312358,
                -2.190147598289879,
                0.6587893371052109,
                2.466919526423833,
                -1.4230435001145478,
                1.1819286984538036
            ]
        },
        {
            "positions": [
                1.8304340032470878,
                -2.2267664489065004,
                0.536682321714615,
                2.493902135187185,
                -1.449611080420255,
                1.2328414533576484
            ]
        },
        {
            "positions": [
                1.9544968500629403,
                -2.263385299523122,
                0.41457530632401896,
                2.520884743950537,
                -1.4761786607259624,
                1.283754208261493
            ]
        },
        {
            "positions": [
                2.078559696878792,
                -2.3000041501397432,
                0.29246829093342286,
                2.5478673527138884,
                -1.5027462410316699,
                1.3346669631653376
            ]
        },
        {
            "positions": [
                2.2026225436946443,
                -2.3366230007563646,
                0.17036127554282676,
                2.5748499614772404,
                -1.5293138213373771,
                1.3855797180691827
            ]
        },
        {
            "positions": [
                2.326685390510496,
                -2.3732418513729856,
                0.04825426015223089,
                2.6018325702405924,
                -1.5558814016430846,
                1.4364924729730273
            ]
        },
        {
            "positions": [
                2.4507482373263483,
                -2.409860701989607,
                -0.07385275523836521,
                2.6288151790039445,
                -1.582448981948792,
                1.4874052278768721
            ]
        },
        {
            "positions": [
                2.5748110841422003,
                -2.4464795526062284,
                -0.1959597706289613,
                2.6557977877672965,
                -1.6090165622544994,
                1.5383179827807167
            ]
        },
        {
            "positions": [
                2.6988739309580523,
                -2.48309840322285,
                -0.3180667860195574,
                2.6827803965306485,
                -1.6355841425602067,
                1.5892307376845616
            ]
        },
        {
            "positions": [
                2.7103863840918905,
                -2.468633672865798,
                -0.37641178856785595,
                2.586042577380509,
                -1.5028411944070417,
                1.5196749910766048
            ]
        },
        {
            "positions": [
                2.7218988372257287,
                -2.4541689425087463,
                -0.4347567911161545,
                2.48930475823037,
                -1.3700982462538764,
                1.450119244468648
            ]
        },
        {
            "positions": [
                2.733411290359567,
                -2.4397042121516943,
                -0.49310179366445306,
                2.3925669390802304,
                -1.2373552981007114,
                1.380563497860691
            ]
        },
        {
            "positions": [
                2.7449237434934055,
                -2.4252394817946428,
                -0.5514467962127516,
                2.295829119930091,
                -1.1046123499475464,
                1.3110077512527343
            ]
        },
        {
            "positions": [
                2.7564361966272437,
                -2.410774751437591,
                -0.60979179876105,
                2.199091300779952,
                -0.9718694017943813,
                1.2414520046447775
            ]
        },
        {
            "positions": [
                2.767948649761082,
                -2.3963100210805393,
                -0.6681368013093487,
                2.1023534816298124,
                -0.8391264536412162,
                1.1718962580368206
            ]
        },
        {
            "positions": [
                2.77946110289492,
                -2.3818452907234873,
                -0.7264818038576472,
                2.0056156624796735,
                -0.7063835054880511,
                1.1023405114288638
            ]
        },
        {
            "positions": [
                2.7909735560287583,
                -2.3673805603664357,
                -0.7848268064059457,
                1.9088778433295341,
                -0.573640557334886,
                1.032784764820907
            ]
        },
        {
            "positions": [
                2.8024860091625965,
                -2.3529158300093838,
                -0.8431718089542443,
                1.8121400241793948,
                -0.44089760918172094,
                0.9632290182129501
            ]
        },
        {
            "positions": [
                2.8139984622964347,
                -2.338451099652332,
                -0.9015168115025427,
                1.7154022050292554,
                -0.30815466102855593,
                0.8936732716049933
            ]
        },
        {
            "positions": [
                2.825510915430273,
                -2.3239863692952802,
                -0.9598618140508413,
                1.6186643858791163,
                -0.17541171287539092,
                0.8241175249970365
            ]
        },
        {
            "positions": [
                2.8370233685641115,
                -2.3095216389382287,
                -1.01820681659914,
                1.5219265667289767,
                -0.042668764722225694,
                0.7545617783890797
            ]
        },
        {
            "positions": [
                2.8485358216979497,
                -2.2950569085811767,
                -1.0765518191474386,
                1.4251887475788374,
                0.09007418343093954,
                0.6850060317811228
            ]
        },
        {
            "positions": [
                2.860048274831788,
                -2.2805921782241247,
                -1.134896821695737,
                1.3284509284286983,
                0.22281713158410454,
                0.615450285173166
            ]
        },
        {
            "positions": [
                2.871560727965626,
                -2.266127447867073,
                -1.1932418242440355,
                1.231713109278559,
                0.3555600797372695,
                0.5458945385652092
            ]
        },
        {
            "positions": [
                2.8298313327141753,
                -2.320808759140673,
                -1.283403445170919,
                1.2147647237666186,
                0.3311731210432537,
                0.45802736053806237
            ]
        },
        {
            "positions": [
                2.7881019374627245,
                -2.3754900704142727,
                -1.373565066097803,
                1.197816338254678,
                0.30678616234923783,
                0.3701601825109155
            ]
        },
        {
            "positions": [
                2.7463725422112737,
                -2.430171381687873,
                -1.4637266870246868,
                1.1808679527427377,
                0.28239920365522203,
                0.2822930044837686
            ]
        },
        {
            "positions": [
                2.704643146959823,
                -2.4848526929614727,
                -1.5538883079515704,
                1.1639195672307974,
                0.2580122449612062,
                0.19442582645662174
            ]
        },
        {
            "positions": [
                2.6827797255727757,
                -2.4837154833259074,
                -1.6080623134512018,
                1.0791604188545687,
                0.3613460323207641,
                0.10324290427511185
            ]
        },
        {
            "positions": [
                2.6609163041857284,
                -2.4825782736903417,
                -1.662236318950833,
                0.9944012704783399,
                0.464679819680322,
                0.012059982093601948
            ]
        }
    ]
}