{
    "goal": {
        "global_pose": {
            "orientation": {
                "w": 0.7047431468963623,
                "x": -0.7094548344612122,
                "y": 0.0024358443915843964,
                "z": -0.0022348060738295317
            },
            "position": {
                "x": 0.6094750761985779,
                "y": 0.3671506643295288,
                "z": 0.19426114857196808
            }
        },
        "name": "move_to_magneteinheit_A"
    },
    "id": "RRTConnect_move_to_magneteinheit_A_8",
    "joint_names": [
        "shoulder_pan_joint",
        "shoulder_lift_joint",
        "elbow_joint",
        "wrist_1_joint",
        "wrist_2_joint",
        "wrist_3_joint"
    ],
    "metrics": {
        "cart_traj_len": 3.934557361058901,
        "distance_elbow_joint": 3.8864978324733883,
        "distance_shoulder_lift_joint": 0.12754158132945603,
        "distance_shoulder_pan_joint": 4.275502618607293,
        "distance_wrist_1_joint": 0.7920745386313098,
        "distance_wrist_2_joint": 2.824677297159695,
        "distance_wrist_3_joint": 2.6193127131311957,
        "smoothness": 0.21163988178022008,
        "time": 0.056990981999999996,
        "traj_len": 3.811247378658638,
        "weighted_distance": 4.835388696204859
    },
    "planner": "RRTConnect",
    "start": {
        "state": {
            "elbow_joint": -1.9196185241190666,
            "shoulder_lift_joint": -1.2443396400964142,
            "shoulder_pan_joint": 2.6996025414629847,
            "wrist_1_joint": -1.5485510000780065,
            "wrist_2_joint": -1.5709468930060704,
            "wrist_3_joint": 0.4420197071253992
        }
    },
    "waypoints": [
        {
            "positions": [
                2.6996025414629847,
                -1.2443396400964142,
                -1.9196185241190666,
                -1.5485510000780065,
                -1.5709468930060704,
                0.4420197071253992
            ]
        },
        {
            "positions": [
                2.550662026225129,
                -1.239244726158376,
                -1.8575360968175474,
                -1.5268704111286928,
                -1.4723437216751294,
                0.4872799754497958
            ]
        },
        {
            "positions": [
                2.4017215109872736,
                -1.234149812220338,
                -1.7954536695160284,
                -1.505189822179379,
                -1.3737405503441884,
                0.5325402437741924
            ]
        },
        {
            "positions": [
                2.252780995749418,
                -1.2290548982823,
                -1.7333712422145091,
                -1.4835092332300652,
                -1.2751373790132474,
                0.577800512098589
            ]
        },
        {
            "positions": [
                2.103840480511563,
                -1.223959984344262,
                -1.67128881491299,
                -1.4618286442807515,
                -1.1765342076823067,
                0.6230607804229856
            ]
        },
        {
            "positions": [
                1.9548999652737071,
                -1.2188650704062238,
                -1.6092063876114708,
                -1.4401480553314376,
                -1.0779310363513657,
                0.6683210487473822
            ]
        },
        {
            "positions": [
                1.8059594500358516,
                -1.2137701564681855,
                -1.5471239603099518,
                -1.418467466382124,
                -0.9793278650204247,
                0.7135813170717789
            ]
        },
        {
            "positions": [
                1.657018934797996,
                -1.2086752425301475,
                -1.4850415330084326,
                -1.39678687743281,
                -0.8807246936894836,
                0.7588415853961754
            ]
        },
        {
            "positions": [
                1.5080784195601407,
                -1.2035803285921094,
                -1.4229591057069135,
                -1.3751062884834964,
                -0.7821215223585427,
                0.804101853720572
            ]
        },
        {
            "positions": [
                1.3591379043222849,
                -1.1984854146540713,
                -1.3608766784053943,
                -1.3534256995341827,
                -0.6835183510276017,
                0.8493621220449686
            ]
        },
        {
            "positions": [
                1.2101973890844295,
                -1.1933905007160333,
                -1.298794251103875,
                -1.331745110584869,
                -0.5849151796966608,
                0.8946223903693652
            ]
        },
        {
            "positions": [
                1.061256873846574,
                -1.1882955867779952,
                -1.2367118238023558,
                -1.310064521635555,
                -0.48631200836571975,
                0.9398826586937619
            ]
        },
        {
            "positions": [
                0.9123163586087184,
                -1.1832006728399571,
                -1.174629396500837,
                -1.2883839326862414,
                -0.387708837034779,
                0.9851429270181584
            ]
        },
        {
            "positions": [
                0.7633758433708631,
                -1.178105758901919,
                -1.1125469691993177,
                -1.2667033437369275,
                -0.289105665703838,
                1.030403195342555
            ]
        },
        {
            "positions": [
                0.6144353281330073,
                -1.173010844963881,
                -1.0504645418977985,
                -1.2450227547876138,
                -0.1905024943728968,
                1.0756634636669515
            ]
        },
        {
            "positions": [
                0.4654948128951517,
                -1.167915931025843,
                -0.9883821145962793,
                -1.2233421658383001,
                -0.09189932304195603,
                1.1209237319913483
            ]
        },
        {
            "positions": [
                0.3165542976572966,
                -1.1628210170878048,
                -0.9262996872947602,
                -1.2016615768889864,
                0.006703848288984959,
                1.1661840003157449
            ]
        },
        {
            "positions": [
                0.16761378241944103,
                -1.1577261031497668,
                -0.8642172599932412,
                -1.1799809879396725,
                0.10530701961992572,
                1.2114442686401414
            ]
        },
        {
            "positions": [
                0.018673267181585018,
                -1.1526311892117285,
                -0.8021348326917219,
                -1.1583003989903589,
                0.20391019095086693,
                1.2567045369645382
            ]
        },
        {
            "positions": [
                -0.1302672480562701,
                -1.1475362752736904,
                -0.7400524053902027,
                -1.136619810041045,
                0.3025133622818079,
                1.3019648052889345
            ]
        },
        {
            "positions": [
                -0.27920776329412567,
                -1.1424413613356523,
                -0.6779699780886836,
                -1.1149392210917313,
                0.4011165336127487,
                1.3472250736133313
            ]
        },
        {
            "positions": [
                -0.42814827853198123,
                -1.1373464473976143,
                -0.6158875507871644,
                -1.0932586321424176,
                0.49971970494368967,
                1.3924853419377279
            ]
        },
        {
            "positions": [
                -0.5770887937698368,
                -1.1322515334595762,
                -0.5538051234856451,
                -1.0715780431931037,
                0.5983228762746309,
                1.4377456102621244
            ]
        },
        {
            "positions": [
                -0.7260293090076921,
                -1.1271566195215381,
                -0.4917226961841261,
                -1.04989745424379,
                0.6969260476055716,
                1.4830058785865212
            ]
        },
        {
            "positions": [
                -0.6693712577985844,
                -1.12784719023851,
                -0.327815895881563,
                -1.0303360547239837,
                0.6598057571690347,
                1.5882276480311928
            ]
        },
        {
            "positions": [
                -0.6127132065894766,
                -1.128537760955482,
                -0.16390909557899985,
                -1.0107746552041776,
                0.6226854667324977,
                1.6934494174758643
            ]
        },
        {
            "positions": [
                -0.5560551553803689,
                -1.129228331672454,
                -2.2952764366923617e-06,
                -0.9912132556843714,
                0.5855651762959608,
                1.798671186920536
            ]
        },
        {
            "positions": [
                -0.4993971041712611,
                -1.129918902389426,
                0.1639045050261264,
                -0.9716518561645651,
                0.5484448858594239,
                1.9038929563652076
            ]
        },
        {
            "positions": [
                -0.4427390529621533,
                -1.130609473106398,
                0.3278113053286895,
                -0.9520904566447589,
                0.5113245954228869,
                2.009114725809879
            ]
        },
        {
            "positions": [
                -0.38608100175304555,
                -1.13130004382337,
                0.49171810563125273,
                -0.9325290571249527,
                0.4742043049863499,
                2.114336495254551
            ]
        },
        {
            "positions": [
                -0.3294229505439378,
                -1.131990614540342,
                0.6556249059338157,
                -0.9129676576051464,
                0.437084014549813,
                2.2195582646992222
            ]
        },
        {
            "positions": [
                -0.27276489933483006,
                -1.1326811852573142,
                0.8195317062363789,
                -0.8934062580853402,
                0.399963724113276,
                2.324780034143894
            ]
        },
        {
            "positions": [
                -0.21610684812572234,
                -1.1333717559742862,
                0.9834385065389419,
                -0.8738448585655341,
                0.3628434336767391,
                2.4300018035885653
            ]
        },
        {
            "positions": [
                -0.1594487969166145,
                -1.1340623266912582,
                1.1473453068415052,
                -0.8542834590457278,
                0.32572314324020213,
                2.535223573033237
            ]
        },
        {
            "positions": [
                -0.10279074570750679,
                -1.1347528974082302,
                1.3112521071440681,
                -0.8347220595259216,
                0.2886028528036652,
                2.640445342477909
            ]
        },
        {
            "positions": [
                -0.04613269449839896,
                -1.1354434681252021,
                1.4751589074466316,
                -0.8151606600061153,
                0.2514825623671282,
                2.7456671119225806
            ]
        },
        {
            "positions": [
                0.010525356710708755,
                -1.1361340388421741,
                1.6390657077491948,
                -0.7955992604863091,
                0.21436227193059126,
                2.850888881367252
            ]
        },
        {
            "positions": [
                0.06718340791981658,
                -1.136824609559146,
                1.8029725080517576,
                -0.7760378609665028,
                0.17724198149405435,
                2.9561106508119233
            ]
        },
        {
            "positions": [
                0.1238414591289243,
                -1.137515180276118,
                1.966879308354321,
                -0.7564764614466967,
                0.14012169105751732,
                3.061332420256595
            ]
        }
    ]
}