{
    "goal": {
        "global_pose": {
            "orientation": {
                "w": 0.7031023480610252,
                "x": -0.7110244013736278,
                "y": 0.0077485991402295624,
                "z": 0.005598929693374583
            },
            "position": {
                "x": -0.8841497679147869,
                "y": 0.44412534475326537,
                "z": 0.3711530566215515
            }
        },
        "name": "move_to_auspresseinheit_D"
    },
    "id": "RRTConnect_move_to_auspresseinheit_D_44",
    "joint_names": [
        "shoulder_pan_joint",
        "shoulder_lift_joint",
        "elbow_joint",
        "wrist_1_joint",
        "wrist_2_joint",
        "wrist_3_joint"
    ],
    "metrics": {
        "cart_traj_len": 0.3436678625271773,
        "distance_elbow_joint": 0.6378954091393969,
        "distance_shoulder_lift_joint": 0.12151122551376092,
        "distance_shoulder_pan_joint": 0.13454789575791487,
        "distance_wrist_1_joint": 0.5162291597345003,
        "distance_wrist_2_joint": 1.4463113928725257,
        "distance_wrist_3_joint": 0.01464146517303222,
        "smoothness": 3.9474596431116675e-16,
        "time": 0.048265216,
        "traj_len": 1.694442842999176,
        "weighted_distance": 2.205212015009945
    },
    "planner": "RRTConnect",
    "start": {
        "state": {
            "elbow_joint": -1.8275523626775212,
            "shoulder_lift_joint": -2.126789852344167,
            "shoulder_pan_joint": -0.03513704404078235,
            "wrist_1_joint": -2.347782403156801,
            "wrist_2_joint": -1.6058999987535132,
            "wrist_3_joint": -3.0880379163319196
        }
    },
    "waypoints": [
        {
            "positions": [
                -0.03513704404078235,
                -2.126789852344167,
                -1.8275523626775212,
                -2.347782403156801,
                -1.6058999987535132,
                -3.0880379163319196
            ]
        },
        {
            "positions": [
                -0.05195553101052171,
                -2.141978755533387,
                -1.7478154365350966,
                -2.4123110481236134,
                -1.4251110746444475,
                -3.0898680994785486
            ]
        },
        {
            "positions": [
                -0.06877401798026106,
                -2.157167658722607,
                -1.668078510392672,
                -2.476839693090426,
                -1.2443221505353819,
                -3.0916982826251775
            ]
        },
        {
            "positions": [
                -0.08559250495000043,
                -2.172356561911827,
                -1.5883415842502473,
                -2.5413683380572385,
                -1.063533226426316,
                -3.0935284657718065
            ]
        },
        {
            "positions": [
                -0.10241099191973979,
                -2.1875454651010475,
                -1.5086046581078227,
                -2.605896983024051,
                -0.8827443023172503,
                -3.0953586489184355
            ]
        },
        {
            "positions": [
                -0.11922947888947916,
                -2.2027343682902676,
                -1.4288677319653982,
                -2.6704256279908636,
                -0.7019553782081847,
                -3.097188832065065
            ]
        },
        {
            "positions": [
                -0.1360479658592185,
                -2.2179232714794876,
                -1.3491308058229734,
                -2.734954272957676,
                -0.5211664540991188,
                -3.099019015211694
            ]
        },
        {
            "positions": [
                -0.15286645282895786,
                -2.2331121746687077,
                -1.2693938796805488,
                -2.7994829179244887,
                -0.3403775299900531,
                -3.100849198358323
            ]
        },
        {
            "positions": [
                -0.16968493979869723,
                -2.2483010778579278,
                -1.1896569535381243,
                -2.864011562891301,
                -0.15958860588098753,
                -3.102679381504952
            ]
        }
    ]
}