{
    "goal": {
        "global_pose": {
            "orientation": {
                "w": 0.5084816217422485,
                "x": -0.49083608388900757,
                "y": 0.5182115435600281,
                "z": -0.4816462993621826
            },
            "position": {
                "x": 0.5540239810943604,
                "y": 0.030875300988554955,
                "z": 0.16403168439865112
            }
        },
        "name": "move_to_storage_A"
    },
    "id": "RRTConnect_move_to_storage_A_86",
    "joint_names": [
        "shoulder_pan_joint",
        "shoulder_lift_joint",
        "elbow_joint",
        "wrist_1_joint",
        "wrist_2_joint",
        "wrist_3_joint"
    ],
    "metrics": {
        "cart_traj_len": 0.35265885656155704,
        "distance_elbow_joint": 0.4508024277481819,
        "distance_shoulder_lift_joint": 0.23264290368645546,
        "distance_shoulder_pan_joint": 0.46068285735413517,
        "distance_wrist_1_joint": 0.2470937111671484,
        "distance_wrist_2_joint": 1.0994579176153558,
        "distance_wrist_3_joint": 0.08952012730282322,
        "smoothness": 0.0,
        "time": 0.039399990999999995,
        "traj_len": 1.6063000793357698,
        "weighted_distance": 2.0262753584501416
    },
    "planner": "RRTConnect",
    "start": {
        "state": {
            "elbow_joint": 1.971548259319323,
            "shoulder_lift_joint": -1.1394851275133948,
            "shoulder_pan_joint": 0.1228115487234821,
            "wrist_1_joint": -0.7804723859257726,
            "wrist_2_joint": 0.12958671773740124,
            "wrist_3_joint": -3.192489227718131
        }
    },
    "waypoints": [
        {
            "positions": [
                0.1228115487234821,
                -1.1394851275133948,
                1.971548259319323,
                -0.7804723859257726,
                0.12958671773740124,
                -3.192489227718131
            ]
        },
        {
            "positions": [
                0.05699971195860565,
                -1.1727198280400313,
                2.035948606140492,
                -0.8157714875210795,
                0.2866521345395949,
                -3.179700638103442
            ]
        },
        {
            "positions": [
                -0.008812124806270805,
                -1.2059545285666677,
                2.1003489529616606,
                -0.8510705891163864,
                0.4437175513417886,
                -3.166912048488753
            ]
        },
        {
            "positions": [
                -0.07462396157114726,
                -1.2391892290933042,
                2.1647492997828297,
                -0.8863696907116934,
                0.6007829681439822,
                -3.154123458874064
            ]
        },
        {
            "positions": [
                -0.1404357983360237,
                -1.2724239296199409,
                2.2291496466039984,
                -0.9216687923070003,
                0.757848384946176,
                -3.141334869259375
            ]
        },
        {
            "positions": [
                -0.20624763510090016,
                -1.3056586301465773,
                2.293549993425167,
                -0.9569678939023072,
                0.9149138017483698,
                -3.128546279644686
            ]
        },
        {
            "positions": [
                -0.2720594718657766,
                -1.3388933306732138,
                2.357950340246336,
                -0.9922669954976141,
                1.0719792185505632,
                -3.115757690029997
            ]
        },
        {
            "positions": [
                -0.33787130863065307,
                -1.3721280311998503,
                2.422350687067505,
                -1.027566097092921,
                1.229044635352757,
                -3.102969100415308
            ]
        }
    ]
}{
    "goal": {
        "global_pose": {
            "orientation": {
                "w": 0.5084816217422485,
                "x": -0.49083608388900757,
                "y": 0.5182115435600281,
                "z": -0.4816462993621826
            },
            "position": {
                "x": 0.5540239810943604,
                "y": 0.030875300988554955,
                "z": 0.16403168439865112
            }
        },
        "name": "move_to_storage_A"
    },
    "id": "RRTConnect_move_to_storage_A_86",
    "joint_names": [
        "shoulder_pan_joint",
        "shoulder_lift_joint",
        "elbow_joint",
        "wrist_1_joint",
        "wrist_2_joint",
        "wrist_3_joint"
    ],
    "metrics": {
        "cart_traj_len": 0.3524345090056702,
        "distance_elbow_joint": 0.44849962632383544,
        "distance_shoulder_lift_joint": 0.23569650340183546,
        "distance_shoulder_pan_joint": 0.4610651381641657,
        "distance_wrist_1_joint": 0.23861339746922372,
        "distance_wrist_2_joint": 1.0968066063948732,
        "distance_wrist_3_joint": 0.08808302104280363,
        "smoothness": 4.440892133664971e-16,
        "time": 0.048817150000000004,
        "traj_len": 1.6027365013615735,
        "weighted_distance": 2.019987707573103
    },
    "planner": "RRTConnect",
    "start": {
        "state": {
            "elbow_joint": 1.97154746011099,
            "shoulder_lift_joint": -1.13948474672311,
            "shoulder_pan_joint": 0.12281154466712228,
            "wrist_1_joint": -0.7804688027058302,
            "wrist_2_joint": 0.12958655903071145,
            "wrist_3_joint": 3.0906928834467795
        }
    },
    "waypoints": [
        {
            "positions": [
                0.12281154466712228,
                -1.13948474672311,
                1.97154746011099,
                -0.7804688027058302,
                0.12958655903071145,
                3.0906928834467795
            ]
        },
        {
            "positions": [
                0.05694509635795575,
                -1.173155675780515,
                2.0356188353001095,
                -0.8145564309157193,
                0.2862732170871219,
                3.10327617216718
            ]
        },
        {
            "positions": [
                -0.008921351951210785,
                -1.2068266048379201,
                2.0996902104892285,
                -0.8486440591256084,
                0.4429598751435323,
                3.1158594608875805
            ]
        },
        {
            "positions": [
                -0.0747878002603773,
                -1.2404975338953252,
                2.163761585678348,
                -0.8827316873354975,
                0.5996465331999428,
                3.128442749607981
            ]
        },
        {
            "positions": [
                -0.14065424856954384,
                -1.2741684629527301,
                2.227832960867467,
                -0.9168193155453865,
                0.7563331912563532,
                3.1410260383283815
            ]
        },
        {
            "positions": [
                -0.20652069687871039,
                -1.3078393920101352,
                2.2919043360565867,
                -0.9509069437552757,
                0.9130198493127637,
                3.153609327048782
            ]
        },
        {
            "positions": [
                -0.2723871451878769,
                -1.3415103210675403,
                2.355975711245706,
                -0.9849945719651648,
                1.069706507369174,
                3.1661926157691824
            ]
        },
        {
            "positions": [
                -0.3382535934970434,
                -1.3751812501249454,
                2.4200470864348254,
                -1.019082200175054,
                1.2263931654255846,
                3.178775904489583
            ]
        }
    ]
}{
    "goal": {
        "global_pose": {
            "orientation": {
                "w": 0.5084816217422485,
                "x": -0.49083608388900757,
                "y": 0.5182115435600281,
                "z": -0.4816462993621826
            },
            "position": {
                "x": 0.5540239810943604,
                "y": 0.030875300988554955,
                "z": 0.16403168439865112
            }
        },
        "name": "move_to_storage_A"
    },
    "id": "RRTConnect_move_to_storage_A_86",
    "joint_names": [
        "shoulder_pan_joint",
        "shoulder_lift_joint",
        "elbow_joint",
        "wrist_1_joint",
        "wrist_2_joint",
        "wrist_3_joint"
    ],
    "metrics": {
        "cart_traj_len": 0.35389737253384856,
        "distance_elbow_joint": 0.45109776657013567,
        "distance_shoulder_lift_joint": 0.23572458870842117,
        "distance_shoulder_pan_joint": 0.46431294303594584,
        "distance_wrist_1_joint": 0.2447784849003356,
        "distance_wrist_2_joint": 1.0945445699720615,
        "distance_wrist_3_joint": 0.08884014016148933,
        "smoothness": 2.2204460668324854e-16,
        "time": 0.039288559,
        "traj_len": 1.6060194560927301,
        "weighted_distance": 2.0239322687638945
    },
    "planner": "RRTConnect",
    "start": {
        "state": {
            "elbow_joint": 1.9715472970024885,
            "shoulder_lift_joint": -1.1394870060712896,
            "shoulder_pan_joint": 0.12281152778156021,
            "wrist_1_joint": -0.780463741449964,
            "wrist_2_joint": 0.12958659822042276,
            "wrist_3_joint": 3.090690232415272
        }
    },
    "waypoints": [
        {
            "positions": [
                0.12281152778156021,
                -1.1394870060712896,
                1.9715472970024885,
                -0.780463741449964,
                0.12958659822042276,
                3.090690232415272
            ]
        },
        {
            "positions": [
                0.056481107347853665,
                -1.1731619473153498,
                2.0359898350839365,
                -0.8154320964357262,
                0.2859501082164315,
                3.1033816810097705
            ]
        },
        {
            "positions": [
                -0.009849313085852879,
                -1.2068368885594098,
                2.1004323731653844,
                -0.8504004514214885,
                0.4423136182124403,
                3.1160731296042687
            ]
        },
        {
            "positions": [
                -0.07617973351955942,
                -1.24051182980347,
                2.1648749112468324,
                -0.8853688064072507,
                0.5986771282084491,
                3.1287645781987674
            ]
        },
        {
            "positions": [
                -0.14251015395326597,
                -1.2741867710475303,
                2.2293174493282804,
                -0.9203371613930129,
                0.7550406382044579,
                3.1414560267932656
            ]
        },
        {
            "positions": [
                -0.20884057438697254,
                -1.3078617122915905,
                2.2937599874097283,
                -0.9553055163787751,
                0.9114041482004667,
                3.1541474753877643
            ]
        },
        {
            "positions": [
                -0.2751709948206791,
                -1.3415366535356505,
                2.3582025254911763,
                -0.9902738713645374,
                1.0677676581964755,
                3.1668389239822625
            ]
        },
        {
            "positions": [
                -0.3415014152543856,
                -1.3752115947797108,
                2.422645063572624,
                -1.0252422263502996,
                1.2241311681924842,
                3.179530372576761
            ]
        }
    ]
}