{
    "goal": {
        "global_pose": {
            "orientation": {
                "w": 0.7047431493862688,
                "x": -0.7094548369677653,
                "y": 0.0024358444001904,
                "z": -0.0022348060817251984
            },
            "position": {
                "x": -0.39052492380142206,
                "y": 0.3671506643295288,
                "z": 0.19426114857196808
            }
        },
        "name": "move_to_magneteinheit_D"
    },
    "id": "RRTConnect_move_to_magneteinheit_D_100",
    "joint_names": [
        "shoulder_pan_joint",
        "shoulder_lift_joint",
        "elbow_joint",
        "wrist_1_joint",
        "wrist_2_joint",
        "wrist_3_joint"
    ],
    "metrics": {
        "cart_traj_len": 5.8980629361975705,
        "distance_elbow_joint": 5.675404849349443,
        "distance_shoulder_lift_joint": 2.3728204991435327,
        "distance_shoulder_pan_joint": 5.1512596807074535,
        "distance_wrist_1_joint": 3.786004476328049,
        "distance_wrist_2_joint": 3.2764149233009485,
        "distance_wrist_3_joint": 0.49627634209085913,
        "smoothness": 0.6358607881488976,
        "time": 0.301590213,
        "traj_len": 4.5561146573500855,
        "weighted_distance": 5.367788451003913
    },
    "planner": "RRTConnect",
    "start": {
        "state": {
            "elbow_joint": 0.749534889911806,
            "shoulder_lift_joint": -0.6476975780787326,
            "shoulder_pan_joint": -2.711696901376241,
            "wrist_1_joint": -0.07506478083263063,
            "wrist_2_joint": 0.43296659715538205,
            "wrist_3_joint": -3.14703540197715
        }
    },
    "waypoints": [
        {
            "positions": [
                -2.711696901376241,
                -0.6476975780787326,
                0.749534889911806,
                -0.07506478083263063,
                0.43296659715538205,
                -3.14703540197715
            ]
        },
        {
            "positions": [
                -2.7025793881163747,
                -0.7571751972813661,
                0.8928337301472946,
                0.013736171589403531,
                0.4533063860802153,
                -3.147583763227145
            ]
        },
        {
            "positions": [
                -2.6934618748565082,
                -0.8666528164839994,
                1.036132570382783,
                0.10253712401143769,
                0.47364617500504846,
                -3.1481321244771396
            ]
        },
        {
            "positions": [
                -2.6843443615966414,
                -0.9761304356866327,
                1.1794314106182717,
                0.19133807643347184,
                0.4939859639298817,
                -3.1486804857271347
            ]
        },
        {
            "positions": [
                -2.675226848336775,
                -1.0856080548892661,
                1.3227302508537604,
                0.280139028855506,
                0.5143257528547149,
                -3.1492288469771292
            ]
        },
        {
            "positions": [
                -2.6661093350769085,
                -1.1950856740918996,
                1.466029091089249,
                0.36893998127754024,
                0.5346655417795482,
                -3.1497772082271243
            ]
        },
        {
            "positions": [
                -2.656991821817042,
                -1.304563293294533,
                1.6093279313247377,
                0.4577409336995743,
                0.5550053307043814,
                -3.150325569477119
            ]
        },
        {
            "positions": [
                -2.647874308557175,
                -1.4140409124971662,
                1.7526267715602264,
                0.5465418861216085,
                0.5753451196292145,
                -3.150873930727114
            ]
        },
        {
            "positions": [
                -2.6387567952973088,
                -1.5235185316997997,
                1.8959256117957148,
                0.6353428385436426,
                0.5956849085540478,
                -3.1514222919771084
            ]
        },
        {
            "positions": [
                -2.6296392820374423,
                -1.632996150902433,
                2.0392244520312035,
                0.7241437909656768,
                0.616024697478881,
                -3.1519706532271035
            ]
        },
        {
            "positions": [
                -2.5001243829715376,
                -1.6111751016486853,
                1.9636168642898926,
                0.642251124842287,
                0.5488065331454551,
                -3.1419285087986566
            ]
        },
        {
            "positions": [
                -2.370609483905633,
                -1.5893540523949372,
                1.8880092765485816,
                0.5603584587188972,
                0.4815883688120294,
                -3.1318863643702097
            ]
        },
        {
            "positions": [
                -2.2410945848397286,
                -1.5675330031411894,
                1.8124016888072707,
                0.47846579259550737,
                0.4143702044786035,
                -3.121844219941763
            ]
        },
        {
            "positions": [
                -2.111579685773824,
                -1.5457119538874413,
                1.7367941010659598,
                0.3965731264721175,
                0.3471520401451777,
                -3.111802075513316
            ]
        },
        {
            "positions": [
                -1.982064786707919,
                -1.5238909046336935,
                1.6611865133246486,
                0.31468046034872765,
                0.27993387581175183,
                -3.101759931084869
            ]
        },
        {
            "positions": [
                -1.8525498876420148,
                -1.5020698553799456,
                1.5855789255833377,
                0.23278779422533785,
                0.21271571147832607,
                -3.0917177866564223
            ]
        },
        {
            "positions": [
                -1.72303498857611,
                -1.4802488061261976,
                1.5099713378420268,
                0.15089512810194794,
                0.1454975471449002,
                -3.0816756422279754
            ]
        },
        {
            "positions": [
                -1.5935200895102053,
                -1.4584277568724497,
                1.4343637501007158,
                0.0690024619785582,
                0.0782793828114744,
                -3.0716334977995285
            ]
        },
        {
            "positions": [
                -1.4640051904443008,
                -1.4366067076187017,
                1.3587561623594047,
                -0.012890204144831663,
                0.011061218478048529,
                -3.0615913533710817
            ]
        },
        {
            "positions": [
                -1.334490291378396,
                -1.4147856583649538,
                1.2831485746180937,
                -0.09478287026822152,
                -0.05615694585537734,
                -3.051549208942635
            ]
        },
        {
            "positions": [
                -1.2049753923124915,
                -1.392964609111206,
                1.2075409868767828,
                -0.17667553639161127,
                -0.12337511018880298,
                -3.041507064514188
            ]
        },
        {
            "positions": [
                -1.075460493246587,
                -1.371143559857458,
                1.1319333991354719,
                -0.2585682025150011,
                -0.19059327452222885,
                -3.031464920085741
            ]
        },
        {
            "positions": [
                -0.9459455941806822,
                -1.34932251060371,
                1.056325811394161,
                -0.3404608686383911,
                -0.2578114388556547,
                -3.0214227756572942
            ]
        },
        {
            "positions": [
                -0.8164306951147775,
                -1.327501461349962,
                0.98071822365285,
                -0.42235353476178095,
                -0.3250296031890806,
                -3.011380631228848
            ]
        },
        {
            "positions": [
                -0.686915796048873,
                -1.3056804120962142,
                0.9051106359115391,
                -0.5042462008851708,
                -0.39224776752250645,
                -3.0013384868004005
            ]
        },
        {
            "positions": [
                -0.5574008969829682,
                -1.2838593628424664,
                0.8295030481702281,
                -0.5861388670085604,
                -0.4594659318559322,
                -2.991296342371954
            ]
        },
        {
            "positions": [
                -0.42788599791706394,
                -1.2620383135887183,
                0.7538954604289172,
                -0.6680315331319503,
                -0.526684096189358,
                -2.981254197943507
            ]
        },
        {
            "positions": [
                -0.2983710988511592,
                -1.2402172643349703,
                0.678287872687606,
                -0.7499241992553402,
                -0.5939022605227839,
                -2.9712120535150603
            ]
        },
        {
            "positions": [
                -0.16885619978525446,
                -1.2183962150812224,
                0.6026802849462953,
                -0.83181686537873,
                -0.6611204248562097,
                -2.9611699090866135
            ]
        },
        {
            "positions": [
                -0.039341300719349714,
                -1.1965751658274746,
                0.5270726972049842,
                -0.9137095315021199,
                -0.7283385891896357,
                -2.9511277646581666
            ]
        },
        {
            "positions": [
                0.09017359834655458,
                -1.1747541165737265,
                0.45146510946367324,
                -0.9956021976255097,
                -0.7955567535230614,
                -2.9410856202297198
            ]
        },
        {
            "positions": [
                0.21968849741245933,
                -1.1529330673199787,
                0.3758575217223623,
                -1.0774948637488992,
                -0.862774917856487,
                -2.931043475801273
            ]
        },
        {
            "positions": [
                0.34920339647836407,
                -1.1311120180662306,
                0.3002499339810514,
                -1.1593875298722893,
                -0.929993082189913,
                -2.921001331372826
            ]
        },
        {
            "positions": [
                0.47871829554426837,
                -1.1092909688124828,
                0.22464234623974044,
                -1.241280195995679,
                -0.9972112465233387,
                -2.910959186944379
            ]
        },
        {
            "positions": [
                0.6082331946101731,
                -1.087469919558735,
                0.1490347584984295,
                -1.323172862119069,
                -1.0644294108567645,
                -2.9009170425159323
            ]
        },
        {
            "positions": [
                0.7377480936760779,
                -1.065648870304987,
                0.07342717075711835,
                -1.4050655282424591,
                -1.1316475751901904,
                -2.8908748980874854
            ]
        },
        {
            "positions": [
                0.8672629927419822,
                -1.043827821051239,
                -0.002180416984192579,
                -1.4869581943658488,
                -1.1988657395236162,
                -2.8808327536590386
            ]
        },
        {
            "positions": [
                0.9967778918078873,
                -1.022006771797491,
                -0.07778800472550351,
                -1.5688508604892388,
                -1.2660839038570422,
                -2.8707906092305917
            ]
        },
        {
            "positions": [
                1.1262927908737916,
                -1.0001857225437432,
                -0.15339559246681445,
                -1.6507435266126285,
                -1.333302068190468,
                -2.860748464802145
            ]
        },
        {
            "positions": [
                1.0442134165952028,
                -1.0473551911663146,
                -0.2904640451375661,
                -1.6889878132970932,
                -1.2618001896087119,
                -2.8732558962031414
            ]
        },
        {
            "positions": [
                0.962134042316614,
                -1.094524659788886,
                -0.42753249780831776,
                -1.7272320999815578,
                -1.1902983110269556,
                -2.8857633276041383
            ]
        },
        {
            "positions": [
                0.8800546680380252,
                -1.1416941284114575,
                -0.5646009504790694,
                -1.7654763866660226,
                -1.1187964324451996,
                -2.898270759005135
            ]
        },
        {
            "positions": [
                0.7979752937594364,
                -1.1888635970340289,
                -0.7016694031498211,
                -1.8037206733504871,
                -1.0472945538634433,
                -2.9107781904061314
            ]
        },
        {
            "positions": [
                0.7158959194808476,
                -1.2360330656566003,
                -0.8387378558205727,
                -1.841964960034952,
                -0.9757926752816872,
                -2.9232856218071284
            ]
        },
        {
            "positions": [
                0.6338165452022588,
                -1.2832025342791717,
                -0.9758063084913244,
                -1.8802092467194167,
                -0.9042907966999311,
                -2.935793053208125
            ]
        },
        {
            "positions": [
                0.55173717092367,
                -1.330372002901743,
                -1.1128747611620762,
                -1.9184535334038815,
                -0.8327889181181749,
                -2.948300484609122
            ]
        },
        {
            "positions": [
                0.4696577966450812,
                -1.3775414715243146,
                -1.2499432138328277,
                -1.956697820088346,
                -0.7612870395364187,
                -2.9608079160101184
            ]
        },
        {
            "positions": [
                0.3875784223664924,
                -1.4247109401468858,
                -1.3870116665035794,
                -1.9949421067728106,
                -0.6897851609546626,
                -2.973315347411115
            ]
        },
        {
            "positions": [
                0.3054990480879036,
                -1.4718804087694575,
                -1.524080119174331,
                -2.0331863934572754,
                -0.6182832823729064,
                -2.985822778812112
            ]
        },
        {
            "positions": [
                0.22341967380931482,
                -1.5190498773920287,
                -1.6611485718450827,
                -2.07143068014174,
                -0.5467814037911503,
                -2.9983302102131084
            ]
        },
        {
            "positions": [
                0.14134029953072602,
                -1.5662193460146001,
                -1.7982170245158344,
                -2.109674966826205,
                -0.4752795252093942,
                -3.0108376416141054
            ]
        },
        {
            "positions": [
                0.05926092525213722,
                -1.6133888146371715,
                -1.935285477186586,
                -2.1479192535106693,
                -0.40377764662763804,
                -3.023345073015102
            ]
        },
        {
            "positions": [
                -0.02281844902645158,
                -1.660558283259743,
                -2.0723539298573375,
                -2.1861635401951345,
                -0.3322757680458819,
                -3.0358525044160984
            ]
        },
        {
            "positions": [
                -0.10489782330504038,
                -1.7077277518823144,
                -2.209422382528089,
                -2.224407826879599,
                -0.2607738894641256,
                -3.0483599358170954
            ]
        },
        {
            "positions": [
                -0.18697719758362918,
                -1.7548972205048858,
                -2.346490835198841,
                -2.2626521135640636,
                -0.1892720108823695,
                -3.060867367218092
            ]
        }
    ]
}