{
    "goal": {
        "global_pose": {
            "orientation": {
                "w": -0.4816463035849501,
                "x": 0.5182115481033762,
                "y": 0.4908360881923453,
                "z": -0.5084816262002911
            },
            "position": {
                "x": -0.8240239810943604,
                "y": -0.300875300988555,
                "z": 0.16403168439865112
            }
        },
        "name": "move_to_storage_C"
    },
    "id": "RRTConnect_move_to_storage_C_86",
    "joint_names": [
        "shoulder_pan_joint",
        "shoulder_lift_joint",
        "elbow_joint",
        "wrist_1_joint",
        "wrist_2_joint",
        "wrist_3_joint"
    ],
    "metrics": {
        "cart_traj_len": 0.577256365537877,
        "distance_elbow_joint": 0.2583658380100311,
        "distance_shoulder_lift_joint": 0.18917619882666692,
        "distance_shoulder_pan_joint": 0.4966388767137917,
        "distance_wrist_1_joint": 0.07967260745490312,
        "distance_wrist_2_joint": 1.0575921971919842,
        "distance_wrist_3_joint": 0.07409547366687796,
        "smoothness": 0.0,
        "time": 0.051516943999999995,
        "traj_len": 1.4681761446993529,
        "weighted_distance": 1.854992437678628
    },
    "planner": "RRTConnect",
    "start": {
        "state": {
            "elbow_joint": 2.010868314990456,
            "shoulder_lift_joint": -1.1634956873337592,
            "shoulder_pan_joint": -2.4736205022346125,
            "wrist_1_joint": -0.8367026794202681,
            "wrist_2_joint": 0.6746043897044499,
            "wrist_3_joint": -3.1496632123970403
        }
    },
    "waypoints": [
        {
            "positions": [
                -2.4736205022346125,
                -1.1634956873337592,
                2.010868314990456,
                -0.8367026794202681,
                0.6746043897044499,
                -3.1496632123970403
            ]
        },
        {
            "positions": [
                -2.556393648353578,
                -1.131966320862648,
                1.967807341988784,
                -0.8234239115111176,
                0.850869755903114,
                -3.137313966785894
            ]
        },
        {
            "positions": [
                -2.639166794472543,
                -1.1004369543915369,
                1.924746368987112,
                -0.8101451436019671,
                1.027135122101778,
                -3.1249647211747478
            ]
        },
        {
            "positions": [
                -2.7219399405915086,
                -1.0689075879204257,
                1.8816853959854403,
                -0.7968663756928165,
                1.203400488300442,
                -3.1126154755636013
            ]
        },
        {
            "positions": [
                -2.8047130867104735,
                -1.0373782214493146,
                1.8386244229837685,
                -0.783587607783666,
                1.3796658544991058,
                -3.100266229952455
            ]
        },
        {
            "positions": [
                -2.887486232829439,
                -1.0058488549782034,
                1.7955634499820965,
                -0.7703088398745155,
                1.55593122069777,
                -3.087916984341309
            ]
        },
        {
            "positions": [
                -2.970259378948404,
                -0.9743194885070923,
                1.7525024769804247,
                -0.757030071965365,
                1.7321965868964342,
                -3.0755677387301623
            ]
        }
    ]
}