{
    "goal": {
        "global_pose": {
            "orientation": {
                "w": 0.005598929693374612,
                "x": 0.007748599140229565,
                "y": 0.7110244013736278,
                "z": -0.7031023480610252
            },
            "position": {
                "x": -0.8858502320852131,
                "y": -0.7141253447532654,
                "z": 0.3711530566215515
            }
        },
        "name": "move_to_auspresseinheit_C"
    },
    "id": "RRTConnect_move_to_auspresseinheit_C_109",
    "joint_names": [
        "shoulder_pan_joint",
        "shoulder_lift_joint",
        "elbow_joint",
        "wrist_1_joint",
        "wrist_2_joint",
        "wrist_3_joint"
    ],
    "metrics": {
        "cart_traj_len": 0.49251911523357406,
        "distance_elbow_joint": 0.9913802102736908,
        "distance_shoulder_lift_joint": 0.32068420389787666,
        "distance_shoulder_pan_joint": 0.2562886599867773,
        "distance_wrist_1_joint": 0.6613971026351716,
        "distance_wrist_2_joint": 1.3026186086062015,
        "distance_wrist_3_joint": 0.04972948919031683,
        "smoothness": 8.074349282788172e-16,
        "time": 0.085690908,
        "traj_len": 1.8926431979086904,
        "weighted_distance": 2.3760414483362955
    },
    "planner": "RRTConnect",
    "start": {
        "state": {
            "elbow_joint": 1.7527959577737207,
            "shoulder_lift_joint": -0.9740617694225068,
            "shoulder_pan_joint": -2.967991417825858,
            "wrist_1_joint": -0.759517768980727,
            "wrist_2_joint": 1.7443932448377408,
            "wrist_3_joint": -3.0840537646736568
        }
    },
    "waypoints": [
        {
            "positions": [
                -2.967991417825858,
                -0.9740617694225068,
                1.7527959577737207,
                -0.759517768980727,
                1.7443932448377408,
                -3.0840537646736568
            ]
        },
        {
            "positions": [
                -2.94236255182718,
                -0.9419933490327191,
                1.6536579367463515,
                -0.6933780587172098,
                1.6141313839771207,
                -3.0890267135926885
            ]
        },
        {
            "positions": [
                -2.9167336858285027,
                -0.9099249286429314,
                1.5545199157189824,
                -0.6272383484536926,
                1.4838695231165004,
                -3.0939996625117203
            ]
        },
        {
            "positions": [
                -2.891104819829825,
                -0.8778565082531438,
                1.4553818946916135,
                -0.5610986381901755,
                1.3536076622558804,
                -3.0989726114307516
            ]
        },
        {
            "positions": [
                -2.865475953831147,
                -0.8457880878633561,
                1.3562438736642444,
                -0.49495892792665835,
                1.22334580139526,
                -3.1039455603497834
            ]
        },
        {
            "positions": [
                -2.839847087832469,
                -0.8137196674735685,
                1.2571058526368752,
                -0.4288192176631412,
                1.09308394053464,
                -3.108918509268815
            ]
        },
        {
            "positions": [
                -2.8142182218337917,
                -0.7816512470837808,
                1.1579678316095063,
                -0.362679507399624,
                0.96282207967402,
                -3.113891458187847
            ]
        },
        {
            "positions": [
                -2.788589355835114,
                -0.7495828266939931,
                1.0588298105821372,
                -0.2965397971361069,
                0.8325602188133998,
                -3.1188644071068787
            ]
        },
        {
            "positions": [
                -2.762960489836436,
                -0.7175144063042054,
                0.959691789554768,
                -0.23040008687258973,
                0.7022983579527795,
                -3.12383735602591
            ]
        },
        {
            "positions": [
                -2.7373316238377585,
                -0.6854459859144177,
                0.8605537685273988,
                -0.16426037660907256,
                0.5720364970921594,
                -3.128810304944942
            ]
        },
        {
            "positions": [
                -2.7117027578390807,
                -0.6533775655246301,
                0.7614157475000298,
                -0.09812066634555543,
                0.4417746362315394,
                -3.1337832538639736
            ]
        }
    ]
}