{
    "goal": {
        "global_pose": {
            "orientation": {
                "w": 0.7031023502349854,
                "x": -0.7110244035720825,
                "y": 0.007748599164187908,
                "z": 0.005598929710686207
            },
            "position": {
                "x": 0.11585023208521307,
                "y": 0.44412534475326537,
                "z": 0.3711530566215515
            }
        },
        "name": "move_to_auspresseinheit_A"
    },
    "id": "RRTConnect_move_to_auspresseinheit_A_2",
    "joint_names": [
        "shoulder_pan_joint",
        "shoulder_lift_joint",
        "elbow_joint",
        "wrist_1_joint",
        "wrist_2_joint",
        "wrist_3_joint"
    ],
    "metrics": {
        "cart_traj_len": 2.8912449047986333,
        "distance_elbow_joint": 0.3072516782223276,
        "distance_shoulder_lift_joint": 2.961893065163964,
        "distance_shoulder_pan_joint": 4.076676143936199,
        "distance_wrist_1_joint": 5.559790909751565,
        "distance_wrist_2_joint": 4.713315003888889,
        "distance_wrist_3_joint": 0.6438720842601771,
        "smoothness": 0.7579501861274053,
        "time": 0.140991948,
        "traj_len": 4.273499606320694,
        "weighted_distance": 5.461103273825165
    },
    "planner": "RRTConnect",
    "start": {
        "state": {
            "elbow_joint": 2.4225746658250005,
            "shoulder_lift_joint": -1.3736534386056498,
            "shoulder_pan_joint": -0.3378633547517467,
            "wrist_1_joint": -1.0288598680537169,
            "wrist_2_joint": 1.233022673432363,
            "wrist_3_joint": -3.0940220416140027
        }
    },
    "waypoints": [
        {
            "positions": [
                -0.3378633547517467,
                -1.3736534386056498,
                2.4225746658250005,
                -1.0288598680537169,
                1.233022673432363,
                -3.0940220416140027
            ]
        },
        {
            "positions": [
                -0.24300397901162524,
                -1.438416385617236,
                2.427736681374739,
                -0.9156404297879426,
                1.1360167636210683,
                -3.1064990247015105
            ]
        },
        {
            "positions": [
                -0.14814460327150375,
                -1.5031793326288225,
                2.4328986969244775,
                -0.8024209915221684,
                1.0390108538097733,
                -3.118976007789018
            ]
        },
        {
            "positions": [
                -0.05328522753138226,
                -1.5679422796404088,
                2.438060712474216,
                -0.6892015532563942,
                0.9420049439984786,
                -3.1314529908765256
            ]
        },
        {
            "positions": [
                0.041574148208739226,
                -1.6327052266519952,
                2.443222728023955,
                -0.5759821149906199,
                0.8449990341871838,
                -3.1439299739640334
            ]
        },
        {
            "positions": [
                0.1364335239488607,
                -1.6974681736635815,
                2.4483847435736936,
                -0.4627626767248457,
                0.747993124375889,
                -3.1564069570515407
            ]
        },
        {
            "positions": [
                0.2312928996889822,
                -1.762231120675168,
                2.453546759123432,
                -0.3495432384590714,
                0.6509872145645942,
                -3.1688839401390485
            ]
        },
        {
            "positions": [
                0.3261522754291037,
                -1.8269940676867542,
                2.4587087746731706,
                -0.23632380019329724,
                0.5539813047532994,
                -3.181360923226556
            ]
        },
        {
            "positions": [
                0.4210116511692252,
                -1.8917570146983405,
                2.4638707902229093,
                -0.12310436192752294,
                0.45697539494200456,
                -3.1938379063140636
            ]
        },
        {
            "positions": [
                0.5158710269093467,
                -1.956519961709927,
                2.4690328057726476,
                -0.009884923661748646,
                0.3599694851307098,
                -3.2063148894015714
            ]
        },
        {
            "positions": [
                0.6107304026494682,
                -2.0212829087215134,
                2.4741948213223863,
                0.10333451460402543,
                0.26296357531941494,
                -3.2187918724890787
            ]
        },
        {
            "positions": [
                0.7055897783895897,
                -2.0860458557330994,
                2.479356836872125,
                0.21655395286979973,
                0.16595766550812008,
                -3.2312688555765865
            ]
        },
        {
            "positions": [
                0.8004491541297112,
                -2.150808802744686,
                2.4845188524218633,
                0.329773391135574,
                0.06895175569682532,
                -3.2437458386640943
            ]
        },
        {
            "positions": [
                0.8953085298698327,
                -2.2155717497562724,
                2.489680867971602,
                0.4429928294013483,
                -0.028054154114469432,
                -3.2562228217516016
            ]
        },
        {
            "positions": [
                0.9901679056099542,
                -2.2803346967678584,
                2.4948428835213408,
                0.5562122676671224,
                -0.1250600639257642,
                -3.2686998048391094
            ]
        },
        {
            "positions": [
                1.0850272813500759,
                -2.345097643779445,
                2.5000048990710795,
                0.6694317059328969,
                -0.22206597373705916,
                -3.2811767879266167
            ]
        },
        {
            "positions": [
                1.1798866570901971,
                -2.4098605907910313,
                2.5051669146208178,
                0.782651144198671,
                -0.3190718835483539,
                -3.2936537710141245
            ]
        },
        {
            "positions": [
                1.2747460328303188,
                -2.474623537802618,
                2.5103289301705565,
                0.8958705824644455,
                -0.4160777933596489,
                -3.3061307541016323
            ]
        },
        {
            "positions": [
                1.36960540857044,
                -2.5393864848142043,
                2.515490945720295,
                1.0090900207302196,
                -0.5130837031709434,
                -3.3186077371891396
            ]
        },
        {
            "positions": [
                1.4644647843105618,
                -2.6041494318257907,
                2.5206529612700335,
                1.1223094589959939,
                -0.6100896129822384,
                -3.3310847202766474
            ]
        },
        {
            "positions": [
                1.559324160050683,
                -2.6689123788373768,
                2.525814976819772,
                1.2355288972617677,
                -0.7070955227935332,
                -3.343561703364155
            ]
        },
        {
            "positions": [
                1.6541835357908048,
                -2.7336753258489628,
                2.530976992369511,
                1.3487483355275425,
                -0.8041014326048279,
                -3.3560386864516625
            ]
        },
        {
            "positions": [
                1.749042911530926,
                -2.7984382728605492,
                2.536139007919249,
                1.4619677737933163,
                -0.9011073424161229,
                -3.3685156695391703
            ]
        },
        {
            "positions": [
                1.8439022872710478,
                -2.8632012198721357,
                2.541301023468988,
                1.575187212059091,
                -0.9981132522274179,
                -3.380992652626678
            ]
        },
        {
            "positions": [
                1.938761663011169,
                -2.927964166883722,
                2.5464630390187266,
                1.688406650324865,
                -1.0951191620387124,
                -3.3934696357141854
            ]
        },
        {
            "positions": [
                2.0336210387512907,
                -2.9927271138953087,
                2.5516250545684653,
                1.8016260885906392,
                -1.1921250718500074,
                -3.405946618801693
            ]
        },
        {
            "positions": [
                2.128480414491412,
                -3.0574900609068947,
                2.5567870701182036,
                1.9148455268564135,
                -1.289130981661302,
                -3.4184236018892005
            ]
        },
        {
            "positions": [
                2.2233397902315337,
                -3.122253007918481,
                2.5619490856679423,
                2.0280649651221876,
                -1.3861368914725967,
                -3.4309005849767082
            ]
        },
        {
            "positions": [
                2.147566140283888,
                -3.0615883331259246,
                2.553555222748973,
                1.9029216612934046,
                -1.2814291195234002,
                -3.4155509079318347
            ]
        },
        {
            "positions": [
                2.0717924903362417,
                -3.000923658333368,
                2.545161359830004,
                1.7777783574646215,
                -1.1767213475742035,
                -3.400201230886961
            ]
        },
        {
            "positions": [
                1.996018840388596,
                -2.940258983540811,
                2.5367674969110343,
                1.6526350536358385,
                -1.0720135756250069,
                -3.3848515538420876
            ]
        },
        {
            "positions": [
                1.9202451904409499,
                -2.8795943087482545,
                2.5283736339920653,
                1.5274917498070555,
                -0.9673058036758104,
                -3.369501876797214
            ]
        },
        {
            "positions": [
                1.8444715404933039,
                -2.818929633955698,
                2.519979771073096,
                1.4023484459782725,
                -0.8625980317266139,
                -3.3541521997523405
            ]
        },
        {
            "positions": [
                1.7686978905456578,
                -2.7582649591631414,
                2.5115859081541267,
                1.2772051421494894,
                -0.7578902597774173,
                -3.338802522707467
            ]
        },
        {
            "positions": [
                1.6929242405980118,
                -2.6976002843705844,
                2.5031920452351573,
                1.1520618383207066,
                -0.6531824878282207,
                -3.3234528456625934
            ]
        },
        {
            "positions": [
                1.617150590650366,
                -2.636935609578028,
                2.494798182316188,
                1.0269185344919236,
                -0.5484747158790242,
                -3.30810316861772
            ]
        },
        {
            "positions": [
                1.5413769407027198,
                -2.5762709347854713,
                2.4864043193972187,
                0.9017752306631406,
                -0.44376694392982763,
                -3.2927534915728462
            ]
        },
        {
            "positions": [
                1.465603290755074,
                -2.5156062599929148,
                2.4780104564782492,
                0.7766319268343576,
                -0.33905917198063107,
                -3.2774038145279727
            ]
        },
        {
            "positions": [
                1.389829640807428,
                -2.454941585200358,
                2.46961659355928,
                0.6514886230055745,
                -0.2343514000314344,
                -3.2620541374830987
            ]
        },
        {
            "positions": [
                1.314055990859782,
                -2.394276910407801,
                2.4612227306403107,
                0.5263453191767915,
                -0.12964362808223795,
                -3.246704460438225
            ]
        },
        {
            "positions": [
                1.2382823409121362,
                -2.3336122356152447,
                2.4528288677213417,
                0.4012020153480085,
                -0.02493585613304128,
                -3.2313547833933516
            ]
        },
        {
            "positions": [
                1.1625086909644902,
                -2.272947560822688,
                2.444435004802372,
                0.2760587115192257,
                0.07977191581615517,
                -3.216005106348478
            ]
        },
        {
            "positions": [
                1.0867350410168441,
                -2.212282886030131,
                2.436041141883403,
                0.15091540769044265,
                0.18447968776535184,
                -3.2006554293036045
            ]
        },
        {
            "positions": [
                1.0109613910691981,
                -2.1516182112375746,
                2.4276472789644337,
                0.025772103861659623,
                0.2891874597145483,
                -3.185305752258731
            ]
        },
        {
            "positions": [
                0.9351877411215523,
                -2.090953536445018,
                2.4192534160454646,
                -0.0993711999671234,
                0.39389523166374474,
                -3.1699560752138574
            ]
        },
        {
            "positions": [
                0.8594140911739061,
                -2.0302888616524615,
                2.410859553126495,
                -0.22451450379590643,
                0.4986030036129414,
                -3.154606398168984
            ]
        },
        {
            "positions": [
                0.7836404412262603,
                -1.969624186859905,
                2.402465690207526,
                -0.34965780762468945,
                0.6033107755621379,
                -3.1392567211241102
            ]
        },
        {
            "positions": [
                0.7078667912786142,
                -1.9089595120673482,
                2.3940718272885566,
                -0.47480111145347265,
                0.7080185475113346,
                -3.1239070440792367
            ]
        }
    ]
}