{
    "goal": {
        "global_pose": {
            "orientation": {
                "w": 0.7031023480610252,
                "x": -0.7110244013736278,
                "y": 0.0077485991402295624,
                "z": 0.005598929693374583
            },
            "position": {
                "x": -0.8841497679147869,
                "y": 0.44412534475326537,
                "z": 0.3711530566215515
            }
        },
        "name": "move_to_auspresseinheit_D"
    },
    "id": "RRTConnect_move_to_auspresseinheit_D_120",
    "joint_names": [
        "shoulder_pan_joint",
        "shoulder_lift_joint",
        "elbow_joint",
        "wrist_1_joint",
        "wrist_2_joint",
        "wrist_3_joint"
    ],
    "metrics": {
        "cart_traj_len": 0.34338747920334406,
        "distance_elbow_joint": 0.6534706257915424,
        "distance_shoulder_lift_joint": 0.12984380318534772,
        "distance_shoulder_pan_joint": 0.13336012772189534,
        "distance_wrist_1_joint": 0.582119371568738,
        "distance_wrist_2_joint": 1.4346224365431444,
        "distance_wrist_3_joint": 0.044171752354014604,
        "smoothness": 0.0,
        "time": 0.036304622,
        "traj_len": 1.7255689256487794,
        "weighted_distance": 2.2544785272839913
    },
    "planner": "RRTConnect",
    "start": {
        "state": {
            "elbow_joint": -1.8275523626775212,
            "shoulder_lift_joint": -2.126789852344167,
            "shoulder_pan_joint": -0.03513704404078235,
            "wrist_1_joint": -2.347782403156801,
            "wrist_2_joint": -1.6058999987535132,
            "wrist_3_joint": -3.0880379163319196
        }
    },
    "waypoints": [
        {
            "positions": [
                -0.03513704404078235,
                -2.126789852344167,
                -1.8275523626775212,
                -2.347782403156801,
                -1.6058999987535132,
                -3.0880379163319196
            ]
        },
        {
            "positions": [
                -0.05180706000601927,
                -2.1430203277423354,
                -1.7458685344535785,
                -2.420547324602893,
                -1.4265721941856202,
                -3.082516447287668
            ]
        },
        {
            "positions": [
                -0.06847707597125618,
                -2.1592508031405035,
                -1.6641847062296355,
                -2.493312246048985,
                -1.2472443896177272,
                -3.076994978243416
            ]
        },
        {
            "positions": [
                -0.08514709193649311,
                -2.175481278538672,
                -1.5825008780056928,
                -2.5660771674950777,
                -1.067916585049834,
                -3.0714735091991643
            ]
        },
        {
            "positions": [
                -0.10181710790173001,
                -2.1917117539368407,
                -1.50081704978175,
                -2.63884208894117,
                -0.888588780481941,
                -3.0659520401549125
            ]
        },
        {
            "positions": [
                -0.11848712386696694,
                -2.2079422293350093,
                -1.4191332215578072,
                -2.711607010387262,
                -0.709260975914048,
                -3.0604305711106603
            ]
        },
        {
            "positions": [
                -0.13515713983220387,
                -2.224172704733178,
                -1.3374493933338645,
                -2.7843719318333546,
                -0.5299331713461548,
                -3.0549091020664085
            ]
        },
        {
            "positions": [
                -0.15182715579744077,
                -2.240403180131346,
                -1.2557655651099218,
                -2.8571368532794468,
                -0.3506053667782618,
                -3.0493876330221568
            ]
        },
        {
            "positions": [
                -0.1684971717626777,
                -2.2566336555295146,
                -1.1740817368859788,
                -2.929901774725539,
                -0.17127756221036874,
                -3.043866163977905
            ]
        }
    ]
}