{
    "goal": {
        "global_pose": {
            "orientation": {
                "w": 0.7031023502349854,
                "x": -0.7110244035720825,
                "y": 0.007748599164187908,
                "z": 0.005598929710686207
            },
            "position": {
                "x": 0.11585023208521307,
                "y": 0.44412534475326537,
                "z": 0.3711530566215515
            }
        },
        "name": "move_to_auspresseinheit_A"
    },
    "id": "RRTConnect_move_to_auspresseinheit_A_50",
    "joint_names": [
        "shoulder_pan_joint",
        "shoulder_lift_joint",
        "elbow_joint",
        "wrist_1_joint",
        "wrist_2_joint",
        "wrist_3_joint"
    ],
    "metrics": {
        "cart_traj_len": 0.6855136306480362,
        "distance_elbow_joint": 0.1820649759865538,
        "distance_shoulder_lift_joint": 0.5346566444106613,
        "distance_shoulder_pan_joint": 1.0441295369203534,
        "distance_wrist_1_joint": 0.5429514638993415,
        "distance_wrist_2_joint": 1.9222001491465206,
        "distance_wrist_3_joint": 0.8408028597868809,
        "smoothness": 1.2006998683175298,
        "time": 0.09736818800000001,
        "traj_len": 2.250956603346744,
        "weighted_distance": 3.0353851424110805
    },
    "planner": "RRTConnect",
    "start": {
        "state": {
            "elbow_joint": 2.4225746658250005,
            "shoulder_lift_joint": -1.3736534386056498,
            "shoulder_pan_joint": -0.3378633547517467,
            "wrist_1_joint": -1.0288598680537169,
            "wrist_2_joint": 1.233022673432363,
            "wrist_3_joint": -3.0940220416140027
        }
    },
    "waypoints": [
        {
            "positions": [
                -0.3378633547517467,
                -1.3736534386056498,
                2.4225746658250005,
                -1.0288598680537169,
                1.233022673432363,
                -3.0940220416140027
            ]
        },
        {
            "positions": [
                -0.2913432931818897,
                -1.4104916576251612,
                2.40770046838361,
                -0.9641292262039926,
                1.0580259723524423,
                -3.0361101635297034
            ]
        },
        {
            "positions": [
                -0.24482323161203268,
                -1.4473298766446725,
                2.3928262709422192,
                -0.8993985843542682,
                0.8830292712725216,
                -2.978198285445404
            ]
        },
        {
            "positions": [
                -0.19830317004217565,
                -1.4841680956641838,
                2.3779520735008286,
                -0.8346679425045439,
                0.7080325701926008,
                -2.920286407361105
            ]
        },
        {
            "positions": [
                -0.15178310847231863,
                -1.5210063146836952,
                2.3630778760594384,
                -0.7699373006548196,
                0.5330358691126801,
                -2.862374529276805
            ]
        },
        {
            "positions": [
                -0.10526304690246158,
                -1.5578445337032065,
                2.348203678618048,
                -0.7052066588050951,
                0.35803916803275926,
                -2.8044626511925057
            ]
        },
        {
            "positions": [
                -0.05874298533260458,
                -1.5946827527227179,
                2.333329481176657,
                -0.6404760169553709,
                0.18304246695283855,
                -2.7465507731082064
            ]
        },
        {
            "positions": [
                -0.0122229237627475,
                -1.6315209717422292,
                2.3184552837352665,
                -0.5757453751056465,
                0.008045765872917818,
                -2.688638895023907
            ]
        },
        {
            "positions": [
                0.10752526055914484,
                -1.6776524902879095,
                2.331446216051403,
                -0.560772546613768,
                0.12424963947076362,
                -2.7612088472233713
            ]
        },
        {
            "positions": [
                0.22727344488103718,
                -1.7237840088335898,
                2.3444371483675397,
                -0.5457997181218894,
                0.2404535130686094,
                -2.8337787994228356
            ]
        },
        {
            "positions": [
                0.34702162920292956,
                -1.7699155273792702,
                2.3574280806836763,
                -0.530826889630011,
                0.35665738666645525,
                -2.9063487516223
            ]
        },
        {
            "positions": [
                0.46676981352482183,
                -1.8160470459249505,
                2.3704190129998133,
                -0.5158540611381325,
                0.47286126026430103,
                -2.9789187038217637
            ]
        },
        {
            "positions": [
                0.5865179978467143,
                -1.8621785644706308,
                2.38340994531595,
                -0.500881232646254,
                0.5890651338621469,
                -3.051488656021228
            ]
        },
        {
            "positions": [
                0.7062661821686066,
                -1.908310083016311,
                2.3964008776320864,
                -0.4859084041543754,
                0.7052690074599927,
                -3.1240586082206923
            ]
        }
    ]
}