{
    "goal": {
        "global_pose": {
            "orientation": {
                "w": 0.005598929693374612,
                "x": 0.007748599140229565,
                "y": 0.7110244013736278,
                "z": -0.7031023480610252
            },
            "position": {
                "x": 0.1141497679147869,
                "y": -0.7141253447532654,
                "z": 0.3711530566215515
            }
        },
        "name": "move_to_auspresseinheit_B"
    },
    "id": "RRTConnect_move_to_auspresseinheit_B_96",
    "joint_names": [
        "shoulder_pan_joint",
        "shoulder_lift_joint",
        "elbow_joint",
        "wrist_1_joint",
        "wrist_2_joint",
        "wrist_3_joint"
    ],
    "metrics": {
        "cart_traj_len": 0.5653508592095019,
        "distance_elbow_joint": 0.06672386893626947,
        "distance_shoulder_lift_joint": 0.2937176406889186,
        "distance_shoulder_pan_joint": 0.5784558840266909,
        "distance_wrist_1_joint": 0.33800385616660333,
        "distance_wrist_2_joint": 0.9865644851506001,
        "distance_wrist_3_joint": 0.00607440951103877,
        "smoothness": 3.806478935924272e-16,
        "time": 0.05788736,
        "traj_len": 1.5064993011880625,
        "weighted_distance": 1.8990148248024297
    },
    "planner": "RRTConnect",
    "start": {
        "state": {
            "elbow_joint": 2.0193083361928714,
            "shoulder_lift_joint": -1.1220246554650708,
            "shoulder_pan_joint": -1.0952077554168747,
            "wrist_1_joint": -0.8559753972642168,
            "wrist_2_joint": 0.4759566250798843,
            "wrist_3_joint": -3.1240929996934557
        }
    },
    "waypoints": [
        {
            "positions": [
                -1.0952077554168747,
                -1.1220246554650708,
                2.0193083361928714,
                -0.8559753972642168,
                0.4759566250798843,
                -3.1240929996934557
            ]
        },
        {
            "positions": [
                -1.191617069421323,
                -1.1709775955798905,
                2.0081876913701597,
                -0.7996414212364495,
                0.640384039271651,
                -3.1230805981082828
            ]
        },
        {
            "positions": [
                -1.2880263834257717,
                -1.2199305356947103,
                1.9970670465474483,
                -0.7433074452086823,
                0.8048114534634176,
                -3.1220681965231094
            ]
        },
        {
            "positions": [
                -1.38443569743022,
                -1.2688834758095302,
                1.9859464017247368,
                -0.6869734691809151,
                0.9692388676551844,
                -3.121055794937936
            ]
        },
        {
            "positions": [
                -1.4808450114346685,
                -1.3178364159243499,
                1.974825756902025,
                -0.6306394931531479,
                1.133666281846951,
                -3.120043393352763
            ]
        },
        {
            "positions": [
                -1.5772543254391171,
                -1.3667893560391695,
                1.9637051120793134,
                -0.5743055171253806,
                1.2980936960387177,
                -3.1190309917675902
            ]
        },
        {
            "positions": [
                -1.6736636394435656,
                -1.4157422961539894,
                1.952584467256602,
                -0.5179715410976135,
                1.4625211102304845,
                -3.118018590182417
            ]
        }
    ]
}