{
    "goal": {
        "global_pose": {
            "orientation": {
                "w": -0.00223480608172531,
                "x": 0.0024358444001904467,
                "y": 0.7094548369677653,
                "z": -0.704743149386269
            },
            "position": {
                "x": 0.6205249238014221,
                "y": -0.6371506643295288,
                "z": 0.19426114857196808
            }
        },
        "name": "move_to_magneteinheit_B"
    },
    "id": "RRTConnect_move_to_magneteinheit_B_12",
    "joint_names": [
        "shoulder_pan_joint",
        "shoulder_lift_joint",
        "elbow_joint",
        "wrist_1_joint",
        "wrist_2_joint",
        "wrist_3_joint"
    ],
    "metrics": {
        "cart_traj_len": 3.2950388809871907,
        "distance_elbow_joint": 4.381032705484875,
        "distance_shoulder_lift_joint": 1.0647970368051962,
        "distance_shoulder_pan_joint": 2.742850085959962,
        "distance_wrist_1_joint": 1.24608520321334,
        "distance_wrist_2_joint": 1.757348222854662,
        "distance_wrist_3_joint": 1.2969694975509947,
        "smoothness": 0.9334091213306718,
        "time": 0.292480833,
        "traj_len": 3.5339896366386,
        "weighted_distance": 4.252817321851366
    },
    "planner": "RRTConnect",
    "start": {
        "state": {
            "elbow_joint": 2.6216224122426386,
            "shoulder_lift_joint": -1.4174107377796124,
            "shoulder_pan_joint": 0.7066234856936794,
            "wrist_1_joint": 1.9546482284002225,
            "wrist_2_joint": -0.7096286983471962,
            "wrist_3_joint": 0.005740856962016249
        }
    },
    "waypoints": [
        {
            "positions": [
                0.7066234856936794,
                -1.4174107377796124,
                2.6216224122426386,
                1.9546482284002225,
                -0.7096286983471962,
                0.005740856962016249
            ]
        },
        {
            "positions": [
                0.7163321165090841,
                -1.4703490190986908,
                2.6457886139352937,
                2.029646113998928,
                -0.5809981878083713,
                -0.0854743780811633
            ]
        },
        {
            "positions": [
                0.726040747324489,
                -1.5232873004177694,
                2.669954815627949,
                2.104643999597634,
                -0.45236767726954646,
                -0.17668961312434284
            ]
        },
        {
            "positions": [
                0.7356334159347901,
                -1.5613847775844247,
                2.614943804447825,
                2.088356217424944,
                -0.37560736474556283,
                -0.23180663219444622
            ]
        },
        {
            "positions": [
                0.7452260845450914,
                -1.5994822547510799,
                2.559932793267701,
                2.0720684352522536,
                -0.2988470522215792,
                -0.2869236512645496
            ]
        },
        {
            "positions": [
                0.8456538735509204,
                -1.6125531596128242,
                2.3873695570256963,
                2.0354677842383833,
                -0.2551000630269154,
                -0.2609083425561582
            ]
        },
        {
            "positions": [
                0.9460816625567492,
                -1.6256240644745688,
                2.2148063207836914,
                1.9988671332245131,
                -0.21135307383225166,
                -0.23489303384776675
            ]
        },
        {
            "positions": [
                1.0465094515625781,
                -1.638694969336313,
                2.0422430845416866,
                1.962266482210643,
                -0.16760608463758786,
                -0.2088777251393753
            ]
        },
        {
            "positions": [
                1.146937240568407,
                -1.6517658741980574,
                1.8696798482996821,
                1.9256658311967727,
                -0.12385909544292409,
                -0.1828624164309839
            ]
        },
        {
            "positions": [
                1.247365029574236,
                -1.6648367790598018,
                1.6971166120576773,
                1.8890651801829026,
                -0.08011210624826032,
                -0.15684710772259244
            ]
        },
        {
            "positions": [
                1.347792818580065,
                -1.6779076839215463,
                1.5245533758156724,
                1.8524645291690323,
                -0.03636511705359652,
                -0.130831799014201
            ]
        },
        {
            "positions": [
                1.4482206075858939,
                -1.6909785887832907,
                1.3519901395736675,
                1.8158638781551621,
                0.0073818721410672805,
                -0.10481649030580956
            ]
        },
        {
            "positions": [
                1.5486483965917226,
                -1.704049493645035,
                1.179426903331663,
                1.7792632271412918,
                0.051128861335731024,
                -0.07880118159741814
            ]
        },
        {
            "positions": [
                1.6490761855975518,
                -1.7171203985067793,
                1.006863667089658,
                1.7426625761274217,
                0.09487585053039482,
                -0.05278587288902667
            ]
        },
        {
            "positions": [
                1.7495039746033805,
                -1.730191303368524,
                0.8343004308476534,
                1.7060619251135514,
                0.13862283972505857,
                -0.02677056418063528
            ]
        },
        {
            "positions": [
                1.8499317636092094,
                -1.7432622082302682,
                0.6617371946056485,
                1.6694612740996813,
                0.18236982891972237,
                -0.0007552554722438098
            ]
        },
        {
            "positions": [
                1.9503595526150383,
                -1.7563331130920126,
                0.48917395836364364,
                1.632860623085811,
                0.22611681811438616,
                0.025260053236147606
            ]
        },
        {
            "positions": [
                2.0507873416208673,
                -1.769404017953757,
                0.3166107221216392,
                1.5962599720719408,
                0.26986380730904985,
                0.05127536194453902
            ]
        },
        {
            "positions": [
                2.1512151306266962,
                -1.7824749228155015,
                0.1440474858796339,
                1.5596593210580705,
                0.31361079650371376,
                0.0772906706529305
            ]
        },
        {
            "positions": [
                2.251642919632525,
                -1.7955458276772458,
                -0.02851575036237053,
                1.5230586700442004,
                0.35735778569837745,
                0.10330597936132191
            ]
        },
        {
            "positions": [
                2.352070708638354,
                -1.8086167325389901,
                -0.2010789866043754,
                1.48645801903033,
                0.40110477489304125,
                0.12932128806971332
            ]
        },
        {
            "positions": [
                2.452498497644183,
                -1.8216876374007345,
                -0.37364222284638027,
                1.44985736801646,
                0.44485176408770505,
                0.15533659677810474
            ]
        },
        {
            "positions": [
                2.552926286650012,
                -1.834758542262479,
                -0.5462054590883851,
                1.4132567170025898,
                0.48859875328236885,
                0.18135190548649627
            ]
        },
        {
            "positions": [
                2.653354075655841,
                -1.8478294471242234,
                -0.71876869533039,
                1.3766560659887195,
                0.5323457424770326,
                0.20736721419488768
            ]
        },
        {
            "positions": [
                2.75378186466167,
                -1.8609003519859677,
                -0.8913319315723944,
                1.3400554149748491,
                0.5760927316716964,
                0.23338252290327904
            ]
        },
        {
            "positions": [
                2.854209653667499,
                -1.873971256847712,
                -1.0638951678143993,
                1.303454763960979,
                0.6198397208663602,
                0.25939783161167046
            ]
        },
        {
            "positions": [
                2.9546374426733277,
                -1.8870421617094566,
                -1.2364584040564042,
                1.266854112947109,
                0.663586710061024,
                0.285413140320062
            ]
        },
        {
            "positions": [
                3.0550652316791567,
                -1.900113066571201,
                -1.4090216402984093,
                1.2302534619332386,
                0.7073336992556878,
                0.31142844902845346
            ]
        },
        {
            "positions": [
                2.9801788595122876,
                -1.9988020875272208,
                -1.4578330353647764,
                1.1883944521678618,
                0.6507525980635542,
                0.2391455362632392
            ]
        },
        {
            "positions": [
                2.9052924873454185,
                -2.097491108483241,
                -1.5066444304311433,
                1.146535442402485,
                0.5941714968714208,
                0.16686262349802497
            ]
        },
        {
            "positions": [
                2.8304061151785493,
                -2.1961801294392607,
                -1.5554558254975104,
                1.104676432637108,
                0.5375903956792872,
                0.09457971073281071
            ]
        },
        {
            "positions": [
                2.7555197430116802,
                -2.2948691503952805,
                -1.6042672205638775,
                1.062817422871731,
                0.48100929448715374,
                0.022296797967596482
            ]
        },
        {
            "positions": [
                2.680633370844811,
                -2.3935581713513003,
                -1.6530786156302444,
                1.0209584131063543,
                0.42442819329502024,
                -0.04998611479761778
            ]
        },
        {
            "positions": [
                2.660656891704672,
                -2.4822077745848086,
                -1.6627454864716165,
                1.0085545675817051,
                0.48190851258613027,
                -0.005447789592263188
            ]
        }
    ]
}