{
    "goal": {
        "global_pose": {
            "orientation": {
                "w": 0.7047431468963623,
                "x": -0.7094548344612122,
                "y": 0.0024358443915843964,
                "z": -0.0022348060738295317
            },
            "position": {
                "x": 0.6094750761985779,
                "y": 0.3671506643295288,
                "z": 0.19426114857196808
            }
        },
        "name": "move_to_magneteinheit_A"
    },
    "id": "RRTConnect_move_to_magneteinheit_A_96",
    "joint_names": [
        "shoulder_pan_joint",
        "shoulder_lift_joint",
        "elbow_joint",
        "wrist_1_joint",
        "wrist_2_joint",
        "wrist_3_joint"
    ],
    "metrics": {
        "cart_traj_len": 3.660268597313568,
        "distance_elbow_joint": 3.874083665417536,
        "distance_shoulder_lift_joint": 0.8385063280342056,
        "distance_shoulder_pan_joint": 2.5755811375367506,
        "distance_wrist_1_joint": 0.8495918872733331,
        "distance_wrist_2_joint": 1.7047302280624845,
        "distance_wrist_3_joint": 2.5662427586643464,
        "smoothness": 0.04179163187429111,
        "time": 0.06251991700000001,
        "traj_len": 3.5226035832873195,
        "weighted_distance": 4.482805331224318
    },
    "planner": "RRTConnect",
    "start": {
        "state": {
            "elbow_joint": -1.9196185241190666,
            "shoulder_lift_joint": -1.2443396400964142,
            "shoulder_pan_joint": 2.6996025414629847,
            "wrist_1_joint": -1.5485510000780065,
            "wrist_2_joint": -1.5709468930060704,
            "wrist_3_joint": 0.4420197071253992
        }
    },
    "waypoints": [
        {
            "positions": [
                2.6996025414629847,
                -1.2443396400964142,
                -1.9196185241190666,
                -1.5485510000780065,
                -1.5709468930060704,
                0.4420197071253992
            ]
        },
        {
            "positions": [
                2.58063029396634,
                -1.2205323095863285,
                -1.787485251265741,
                -1.5201160179941393,
                -1.5136339187338825,
                0.4658565319022156
            ]
        },
        {
            "positions": [
                2.4616580464696947,
                -1.1967249790762429,
                -1.6553519784124155,
                -1.4916810359102721,
                -1.4563209444616945,
                0.489693356679032
            ]
        },
        {
            "positions": [
                2.34268579897305,
                -1.1729176485661572,
                -1.5232187055590902,
                -1.463246053826405,
                -1.3990079701895066,
                0.5135301814558484
            ]
        },
        {
            "positions": [
                2.223713551476405,
                -1.1491103180560716,
                -1.3910854327057647,
                -1.4348110717425377,
                -1.3416949959173186,
                0.5373670062326649
            ]
        },
        {
            "positions": [
                2.1047413039797602,
                -1.125302987545986,
                -1.2589521598524391,
                -1.4063760896586706,
                -1.2843820216451307,
                0.5612038310094813
            ]
        },
        {
            "positions": [
                1.985769056483115,
                -1.1014956570359002,
                -1.1268188869991138,
                -1.3779411075748034,
                -1.2270690473729429,
                0.5850406557862977
            ]
        },
        {
            "positions": [
                1.8667968089864702,
                -1.0776883265258146,
                -0.9946856141457884,
                -1.3495061254909362,
                -1.1697560731007548,
                0.6088774805631141
            ]
        },
        {
            "positions": [
                1.7478245614898251,
                -1.053880996015729,
                -0.8625523412924627,
                -1.321071143407069,
                -1.112443098828567,
                0.6327143053399306
            ]
        },
        {
            "positions": [
                1.62885231399318,
                -1.0300736655056433,
                -0.7304190684391374,
                -1.2926361613232018,
                -1.0551301245563791,
                0.656551130116747
            ]
        },
        {
            "positions": [
                1.5098800664965353,
                -1.0062663349955576,
                -0.5982857955858119,
                -1.2642011792393348,
                -0.997817150284191,
                0.6803879548935634
            ]
        },
        {
            "positions": [
                1.3909078189998902,
                -0.9824590044854721,
                -0.4661525227324863,
                -1.2357661971554674,
                -0.9405041760120031,
                0.7042247796703798
            ]
        },
        {
            "positions": [
                1.2719355715032454,
                -0.9586516739753865,
                -0.334019249879161,
                -1.2073312150716005,
                -0.8831912017398152,
                0.7280616044471963
            ]
        },
        {
            "positions": [
                1.1529633240066004,
                -0.9348443434653008,
                -0.20188597702583544,
                -1.178896232987733,
                -0.8258782274676272,
                0.7518984292240127
            ]
        },
        {
            "positions": [
                1.0339910765099556,
                -0.9110370129552152,
                -0.06975270417251012,
                -1.150461250903866,
                -0.7685652531954393,
                0.7757352540008291
            ]
        },
        {
            "positions": [
                0.9150188290133106,
                -0.8872296824451296,
                0.06238056868081543,
                -1.122026268819999,
                -0.7112522789232514,
                0.7995720787776455
            ]
        },
        {
            "positions": [
                0.7960465815166655,
                -0.8634223519350439,
                0.1945138415341412,
                -1.0935912867361317,
                -0.6539393046510634,
                0.823408903554462
            ]
        },
        {
            "positions": [
                0.6770743340200207,
                -0.8396150214249583,
                0.3266471143874665,
                -1.0651563046522645,
                -0.5966263303788756,
                0.8472457283312784
            ]
        },
        {
            "positions": [
                0.5581020865233755,
                -0.8158076909148726,
                0.45878038724079184,
                -1.0367213225683973,
                -0.5393133561066876,
                0.8710825531080948
            ]
        },
        {
            "positions": [
                0.4391298390267311,
                -0.7920003604047869,
                0.5909136600941172,
                -1.0082863404845301,
                -0.4820003818344998,
                0.8949193778849112
            ]
        },
        {
            "positions": [
                0.3201575915300857,
                -0.7681930298947013,
                0.7230469329474429,
                -0.979851358400663,
                -0.42468740756231166,
                0.9187562026617276
            ]
        },
        {
            "positions": [
                0.2970215733704902,
                -0.7821838258893021,
                0.7956607723459252,
                -0.9644291596749746,
                -0.3921274458512395,
                1.0189089863873786
            ]
        },
        {
            "positions": [
                0.27388555521089464,
                -0.796174621883903,
                0.8682746117444076,
                -0.949006960949286,
                -0.3595674841401673,
                1.1190617701130294
            ]
        },
        {
            "positions": [
                0.2593134416696943,
                -0.8202211838478939,
                0.9524996337061951,
                -0.9299089757269678,
                -0.3214070665553897,
                1.2596711899310957
            ]
        },
        {
            "positions": [
                0.24474132812849386,
                -0.8442677458118847,
                1.0367246556679826,
                -0.9108109905046496,
                -0.2832466489706121,
                1.4002806097491618
            ]
        },
        {
            "positions": [
                0.2301692145872935,
                -0.8683143077758756,
                1.1209496776297698,
                -0.8917130052823314,
                -0.24508623138583452,
                1.540890029567228
            ]
        },
        {
            "positions": [
                0.21559710104609311,
                -0.8923608697398664,
                1.2051746995915573,
                -0.8726150200600132,
                -0.20692581380105687,
                1.6814994493852944
            ]
        },
        {
            "positions": [
                0.20102498750489273,
                -0.9164074317038573,
                1.2893997215533448,
                -0.853517034837695,
                -0.16876539621627928,
                1.8221088692033605
            ]
        },
        {
            "positions": [
                0.19002447556508412,
                -0.9469996197071912,
                1.38440906723122,
                -0.8314373316901205,
                -0.12554414889160875,
                1.9915593830014156
            ]
        },
        {
            "positions": [
                0.1790239636252755,
                -0.9775918077105249,
                1.479418412909095,
                -0.809357628542546,
                -0.0823229015669382,
                2.1610098967994706
            ]
        },
        {
            "positions": [
                0.1680234516854669,
                -1.0081839957138587,
                1.5744277585869701,
                -0.7872779253949714,
                -0.039101654242267664,
                2.3304604105975253
            ]
        },
        {
            "positions": [
                0.15702293974565829,
                -1.0387761837171925,
                1.669437104264845,
                -0.765198222247397,
                0.004119593082402895,
                2.4999109243955804
            ]
        },
        {
            "positions": [
                0.14602242780584967,
                -1.0693683717205262,
                1.7644464499427202,
                -0.7431185190998224,
                0.04734084040707345,
                2.6693614381936355
            ]
        },
        {
            "positions": [
                0.13502191586604106,
                -1.0999605597238602,
                1.8594557956205953,
                -0.721038815952248,
                0.09056208773174396,
                2.8388119519916906
            ]
        },
        {
            "positions": [
                0.12402140392623247,
                -1.130552747727194,
                1.9544651412984704,
                -0.6989591128046734,
                0.13378333505641454,
                3.0082624657897457
            ]
        }
    ]
}