{
    "goal": {
        "global_pose": {
            "orientation": {
                "w": 0.005598929693374612,
                "x": 0.007748599140229565,
                "y": 0.7110244013736278,
                "z": -0.7031023480610252
            },
            "position": {
                "x": -0.8858502320852131,
                "y": -0.7141253447532654,
                "z": 0.3711530566215515
            }
        },
        "name": "move_to_auspresseinheit_C"
    },
    "id": "RRTConnect_move_to_auspresseinheit_C_31",
    "joint_names": [
        "shoulder_pan_joint",
        "shoulder_lift_joint",
        "elbow_joint",
        "wrist_1_joint",
        "wrist_2_joint",
        "wrist_3_joint"
    ],
    "metrics": {
        "cart_traj_len": 0.49236160934546225,
        "distance_elbow_joint": 0.9922544491683237,
        "distance_shoulder_lift_joint": 0.32126282437725173,
        "distance_shoulder_pan_joint": 0.2554235342443505,
        "distance_wrist_1_joint": 0.656658422476739,
        "distance_wrist_2_joint": 1.3177676150630198,
        "distance_wrist_3_joint": 0.033813161832725314,
        "smoothness": 1.1304088990788627e-15,
        "time": 0.102479185,
        "traj_len": 1.8913434397703686,
        "weighted_distance": 2.3704920097666684
    },
    "planner": "RRTConnect",
    "start": {
        "state": {
            "elbow_joint": 1.7527959577737207,
            "shoulder_lift_joint": -0.9740617694225068,
            "shoulder_pan_joint": -2.967991417825858,
            "wrist_1_joint": -0.759517768980727,
            "wrist_2_joint": 1.7443932448377408,
            "wrist_3_joint": -3.0840537646736568
        }
    },
    "waypoints": [
        {
            "positions": [
                -2.967991417825858,
                -0.9740617694225068,
                1.7527959577737207,
                -0.759517768980727,
                1.7443932448377408,
                -3.0840537646736568
            ]
        },
        {
            "positions": [
                -2.9424490644014227,
                -0.9419354869847816,
                1.6535705128568883,
                -0.6938519267330531,
                1.612616483331439,
                -3.0874350808569293
            ]
        },
        {
            "positions": [
                -2.916906710976988,
                -0.9098092045470564,
                1.554345067940056,
                -0.6281860844853792,
                1.4808397218251368,
                -3.090816397040202
            ]
        },
        {
            "positions": [
                -2.8913643575525527,
                -0.8776829221093313,
                1.4551196230232235,
                -0.5625202422377052,
                1.3490629603188349,
                -3.0941977132234744
            ]
        },
        {
            "positions": [
                -2.865822004128118,
                -0.8455566396716061,
                1.3558941781063911,
                -0.4968543999900314,
                1.2172861988125327,
                -3.097579029406747
            ]
        },
        {
            "positions": [
                -2.8402796507036827,
                -0.8134303572338809,
                1.2566687331895587,
                -0.4311885577423575,
                1.0855094373062308,
                -3.1009603455900194
            ]
        },
        {
            "positions": [
                -2.8147372972792475,
                -0.7813040747961557,
                1.1574432882727264,
                -0.36552271549468357,
                0.953732675799929,
                -3.104341661773292
            ]
        },
        {
            "positions": [
                -2.7891949438548127,
                -0.7491777923584306,
                1.058217843355894,
                -0.2998568732470097,
                0.821955914293627,
                -3.1077229779565645
            ]
        },
        {
            "positions": [
                -2.7636525904303775,
                -0.7170515099207053,
                0.9589923984390616,
                -0.2341910309993358,
                0.6901791527873249,
                -3.111104294139837
            ]
        },
        {
            "positions": [
                -2.7381102370059427,
                -0.6849252274829802,
                0.8597669535222293,
                -0.1685251887516619,
                0.558402391281023,
                -3.1144856103231096
            ]
        },
        {
            "positions": [
                -2.7125678835815075,
                -0.652798945045255,
                0.7605415086053969,
                -0.10285934650398797,
                0.4266256297747211,
                -3.117866926506382
            ]
        }
    ]
}