{
    "goal": {
        "global_pose": {
            "orientation": {
                "w": 0.7047431493862688,
                "x": -0.7094548369677653,
                "y": 0.0024358444001904,
                "z": -0.0022348060817251984
            },
            "position": {
                "x": -0.39052492380142206,
                "y": 0.3671506643295288,
                "z": 0.19426114857196808
            }
        },
        "name": "move_to_magneteinheit_D"
    },
    "id": "RRTConnect_move_to_magneteinheit_D_95",
    "joint_names": [
        "shoulder_pan_joint",
        "shoulder_lift_joint",
        "elbow_joint",
        "wrist_1_joint",
        "wrist_2_joint",
        "wrist_3_joint"
    ],
    "metrics": {
        "cart_traj_len": 4.378167536081266,
        "distance_elbow_joint": 5.772959085007759,
        "distance_shoulder_lift_joint": 1.6285667447785837,
        "distance_shoulder_pan_joint": 2.9344685478933203,
        "distance_wrist_1_joint": 5.5925203565669985,
        "distance_wrist_2_joint": 2.3496256269928684,
        "distance_wrist_3_joint": 4.805518084508898,
        "smoothness": 0.45252041723194386,
        "time": 0.208954992,
        "traj_len": 4.804545602421567,
        "weighted_distance": 6.374703177272345
    },
    "planner": "RRTConnect",
    "start": {
        "state": {
            "elbow_joint": 0.749534889911806,
            "shoulder_lift_joint": -0.6476975780787326,
            "shoulder_pan_joint": -2.711696901376241,
            "wrist_1_joint": -0.07506478083263063,
            "wrist_2_joint": 0.43296659715538205,
            "wrist_3_joint": -3.14703540197715
        }
    },
    "waypoints": [
        {
            "positions": [
                -2.711696901376241,
                -0.6476975780787326,
                0.749534889911806,
                -0.07506478083263063,
                0.43296659715538205,
                -3.14703540197715
            ]
        },
        {
            "positions": [
                -2.71518033687757,
                -0.6978438310463284,
                0.8669411340761483,
                -0.196059640169291,
                0.46710551219555,
                -3.0973109936150034
            ]
        },
        {
            "positions": [
                -2.7186637723788984,
                -0.7479900840139241,
                0.9843473782404906,
                -0.3170544995059513,
                0.5012444272357179,
                -3.0475865852528568
            ]
        },
        {
            "positions": [
                -2.7221472078802273,
                -0.7981363369815199,
                1.101753622404833,
                -0.4380493588426117,
                0.5353833422758859,
                -2.99786217689071
            ]
        },
        {
            "positions": [
                -2.725630643381556,
                -0.8482825899491155,
                1.2191598665691752,
                -0.5590442181792721,
                0.5695222573160539,
                -2.9481377685285635
            ]
        },
        {
            "positions": [
                -2.7291140788828847,
                -0.8984288429167113,
                1.3365661107335174,
                -0.6800390775159324,
                0.6036611723562219,
                -2.898413360166417
            ]
        },
        {
            "positions": [
                -2.732597514384213,
                -0.9485750958843071,
                1.4539723548978598,
                -0.8010339368525927,
                0.6378000873963898,
                -2.84868895180427
            ]
        },
        {
            "positions": [
                -2.736080949885542,
                -0.9987213488519029,
                1.5713785990622022,
                -0.922028796189253,
                0.6719390024365577,
                -2.798964543442123
            ]
        },
        {
            "positions": [
                -2.7395643853868705,
                -1.0488676018194987,
                1.6887848432265447,
                -1.0430236555259136,
                0.7060779174767258,
                -2.7492401350799764
            ]
        },
        {
            "positions": [
                -2.7430478208881994,
                -1.0990138547870942,
                1.8061910873908869,
                -1.164018514862574,
                0.7402168325168936,
                -2.69951572671783
            ]
        },
        {
            "positions": [
                -2.746531256389528,
                -1.14916010775469,
                1.923597331555229,
                -1.2850133741992342,
                0.7743557475570616,
                -2.649791318355683
            ]
        },
        {
            "positions": [
                -2.750014691890857,
                -1.1993063607222858,
                2.0410035757195715,
                -1.4060082335358945,
                0.8084946625972296,
                -2.6000669099935365
            ]
        },
        {
            "positions": [
                -2.7294627328605254,
                -1.2722497945563571,
                2.043569443772946,
                -1.4831109219719039,
                0.6683644717094983,
                -2.6797612549484633
            ]
        },
        {
            "positions": [
                -2.708910773830194,
                -1.3451932283904287,
                2.0461353118263212,
                -1.5602136104079132,
                0.528234280821767,
                -2.7594555999033905
            ]
        },
        {
            "positions": [
                -2.6883588147998623,
                -1.4181366622245,
                2.048701179879696,
                -1.6373162988439225,
                0.3881040899340359,
                -2.8391499448583173
            ]
        },
        {
            "positions": [
                -2.667806855769531,
                -1.4910800960585713,
                2.051267047933071,
                -1.7144189872799318,
                0.24797389904630462,
                -2.918844289813244
            ]
        },
        {
            "positions": [
                -2.6472548967391996,
                -1.5640235298926428,
                2.0538329159864457,
                -1.791521675715941,
                0.10784370815857336,
                -2.9985386347681713
            ]
        },
        {
            "positions": [
                -2.626702937708868,
                -1.6369669637267141,
                2.056398784039821,
                -1.8686243641519502,
                -0.032286482729157795,
                -3.078232979723098
            ]
        },
        {
            "positions": [
                -2.6061509786785364,
                -1.7099103975607854,
                2.0589646520931955,
                -1.9457270525879595,
                -0.17241667361688917,
                -3.157927324678025
            ]
        },
        {
            "positions": [
                -2.585599019648205,
                -1.7828538313948568,
                2.0615305201465706,
                -2.022829741023969,
                -0.3125468645046203,
                -3.2376216696329516
            ]
        },
        {
            "positions": [
                -2.5650470606178737,
                -1.8557972652289283,
                2.0640963881999452,
                -2.099932429459978,
                -0.4526770553923517,
                -3.317316014587879
            ]
        },
        {
            "positions": [
                -2.4916768848333155,
                -1.8587143085308624,
                1.9559712465946835,
                -2.0138131305522022,
                -0.43585843123336643,
                -3.2138893585758965
            ]
        },
        {
            "positions": [
                -2.4183067090487573,
                -1.8616313518327965,
                1.847846104989422,
                -1.927693831644426,
                -0.41903980707438115,
                -3.1104627025639147
            ]
        },
        {
            "positions": [
                -2.3449365332641996,
                -1.8645483951347304,
                1.7397209633841602,
                -1.84157453273665,
                -0.4022211829153959,
                -3.0070360465519324
            ]
        },
        {
            "positions": [
                -2.2715663574796414,
                -1.8674654384366645,
                1.6315958217788986,
                -1.755455233828874,
                -0.3854025587564106,
                -2.90360939053995
            ]
        },
        {
            "positions": [
                -2.1981961816950832,
                -1.8703824817385986,
                1.5234706801736368,
                -1.6693359349210979,
                -0.36858393459742533,
                -2.8001827345279677
            ]
        },
        {
            "positions": [
                -2.124826005910525,
                -1.8732995250405327,
                1.415345538568375,
                -1.5832166360133217,
                -0.35176531043844006,
                -2.6967560785159854
            ]
        },
        {
            "positions": [
                -2.051455830125967,
                -1.8762165683424665,
                1.3072203969631135,
                -1.4970973371055458,
                -0.3349466862794548,
                -2.5933294225040036
            ]
        },
        {
            "positions": [
                -1.9780856543414091,
                -1.8791336116444006,
                1.199095255357852,
                -1.4109780381977697,
                -0.3181280621204695,
                -2.4899027664920212
            ]
        },
        {
            "positions": [
                -1.904715478556851,
                -1.8820506549463347,
                1.09097011375259,
                -1.3248587392899935,
                -0.30130943796148424,
                -2.386476110480039
            ]
        },
        {
            "positions": [
                -1.8313453027722928,
                -1.8849676982482688,
                0.9828449721473285,
                -1.2387394403822176,
                -0.28449081380249897,
                -2.283049454468057
            ]
        },
        {
            "positions": [
                -1.7579751269877348,
                -1.887884741550203,
                0.8747198305420667,
                -1.1526201414744413,
                -0.2676721896435137,
                -2.1796227984560748
            ]
        },
        {
            "positions": [
                -1.6846049512031769,
                -1.8908017848521368,
                0.7665946889368052,
                -1.0665008425666653,
                -0.2508535654845285,
                -2.0761961424440925
            ]
        },
        {
            "positions": [
                -1.6112347754186187,
                -1.8937188281540709,
                0.6584695473315434,
                -0.9803815436588892,
                -0.23403494132554317,
                -1.9727694864321101
            ]
        },
        {
            "positions": [
                -1.5378645996340605,
                -1.896635871456005,
                0.5503444057262818,
                -0.8942622447511133,
                -0.21721631716655793,
                -1.869342830420128
            ]
        },
        {
            "positions": [
                -1.4644944238495026,
                -1.899552914757939,
                0.4422192641210201,
                -0.8081429458433371,
                -0.20039769300757265,
                -1.765916174408146
            ]
        },
        {
            "positions": [
                -1.3911242480649444,
                -1.902469958059873,
                0.33409412251575854,
                -0.7220236469355612,
                -0.18357906884858738,
                -1.6624895183961637
            ]
        },
        {
            "positions": [
                -1.3177540722803864,
                -1.905387001361807,
                0.225968980910497,
                -0.6359043480277853,
                -0.16676044468960216,
                -1.5590628623841816
            ]
        },
        {
            "positions": [
                -1.2443838964958283,
                -1.9083040446637412,
                0.11784383930523501,
                -0.5497850491200089,
                -0.14994182053061683,
                -1.4556362063721993
            ]
        },
        {
            "positions": [
                -1.17101372071127,
                -1.9112210879656752,
                0.009718697699973244,
                -0.463665750212233,
                -0.13312319637163156,
                -1.3522095503602172
            ]
        },
        {
            "positions": [
                -1.0976435449267121,
                -1.9141381312676091,
                -0.0984064439052883,
                -0.37754645130445685,
                -0.11630457221264628,
                -1.2487828943482349
            ]
        },
        {
            "positions": [
                -1.0242733691421542,
                -1.9170551745695432,
                -0.20653158551054984,
                -0.29142715239668093,
                -0.09948594805366107,
                -1.145356238336253
            ]
        },
        {
            "positions": [
                -0.950903193357596,
                -1.9199722178714773,
                -0.31465672711581183,
                -0.20530785348890457,
                -0.08266732389467574,
                -1.0419295823242702
            ]
        },
        {
            "positions": [
                -0.8775330175730378,
                -1.9228892611734114,
                -0.4227818687210734,
                -0.11918855458112865,
                -0.06584869973569046,
                -0.9385029263122884
            ]
        },
        {
            "positions": [
                -0.8041628417884799,
                -1.9258063044753455,
                -0.5309070103263349,
                -0.033069255673352504,
                -0.049030075576705245,
                -0.8350762703003061
            ]
        },
        {
            "positions": [
                -0.7307926660039219,
                -1.9287233477772794,
                -0.6390321519315965,
                0.053050043234423416,
                -0.03221145141771997,
                -0.7316496142883242
            ]
        },
        {
            "positions": [
                -0.6574224902193635,
                -1.9316403910792135,
                -0.7471572935368584,
                0.13916934214219978,
                -0.015392827258734643,
                -0.6282229582763414
            ]
        },
        {
            "positions": [
                -0.5840523144348055,
                -1.9345574343811476,
                -0.85528243514212,
                0.2252886410499757,
                0.0014257969002505755,
                -0.5247963022643596
            ]
        },
        {
            "positions": [
                -0.5106821386502474,
                -1.9374744776830817,
                -0.9634075767473815,
                0.3114079399577516,
                0.01824442105923585,
                -0.4213696462523773
            ]
        },
        {
            "positions": [
                -0.43731196286568963,
                -1.9403915209850155,
                -1.071532718352643,
                0.39752723886552754,
                0.03506304521822112,
                -0.3179429902403954
            ]
        },
        {
            "positions": [
                -0.36394178708113145,
                -1.9433085642869496,
                -1.179657859957905,
                0.4836465377733039,
                0.051881669377206396,
                -0.2145163342284131
            ]
        },
        {
            "positions": [
                -0.2905716112965731,
                -1.9462256075888837,
                -1.2877830015631666,
                0.5697658366810799,
                0.06870029353619161,
                -0.11108967821643098
            ]
        },
        {
            "positions": [
                -0.24526450024808638,
                -1.958158079998371,
                -1.4184951820793732,
                0.6798268047084737,
                0.08946374508220398,
                -0.0681681896309192
            ]
        },
        {
            "positions": [
                -0.19995738919959963,
                -1.9700905524078585,
                -1.5492073625955796,
                0.7898877727358675,
                0.11022719662821634,
                -0.025246701045407396
            ]
        },
        {
            "positions": [
                -0.15465027815111287,
                -1.9820230248173458,
                -1.6799195431117862,
                0.8999487407632614,
                0.1309906481742287,
                0.017674787540104403
            ]
        },
        {
            "positions": [
                -0.10934316710262615,
                -1.9939554972268332,
                -1.8106317236279925,
                1.0100097087906552,
                0.15175409972024106,
                0.06059627612561619
            ]
        },
        {
            "positions": [
                -0.06403605605413937,
                -2.0058879696363205,
                -1.9413439041441993,
                1.1200706768180488,
                0.17251755126625343,
                0.103517764711128
            ]
        },
        {
            "positions": [
                -0.01872894500565267,
                -2.017820442045808,
                -2.0720560846604057,
                1.2301316448454427,
                0.1932810028122658,
                0.14643925329663976
            ]
        },
        {
            "positions": [
                -0.04133053359073078,
                -2.089448151658356,
                -2.2198836140592304,
                1.3445727799632197,
                0.20633963128964156,
                0.14007205655134022
            ]
        },
        {
            "positions": [
                -0.06393212217580889,
                -2.161075861270904,
                -2.367711143458055,
                1.4590139150809969,
                0.2193982597670173,
                0.1337048598060407
            ]
        },
        {
            "positions": [
                -0.18359395549915328,
                -2.2762643228573163,
                -2.394301198519672,
                1.4503075516823207,
                0.17854773136494395,
                0.06889403325021339
            ]
        }
    ]
}