{
    "goal": {
        "global_pose": {
            "orientation": {
                "w": 0.005598929693374612,
                "x": 0.007748599140229565,
                "y": 0.7110244013736278,
                "z": -0.7031023480610252
            },
            "position": {
                "x": 0.1141497679147869,
                "y": -0.7141253447532654,
                "z": 0.3711530566215515
            }
        },
        "name": "move_to_auspresseinheit_B"
    },
    "id": "RRTConnect_move_to_auspresseinheit_B_34",
    "joint_names": [
        "shoulder_pan_joint",
        "shoulder_lift_joint",
        "elbow_joint",
        "wrist_1_joint",
        "wrist_2_joint",
        "wrist_3_joint"
    ],
    "metrics": {
        "cart_traj_len": 0.5649722512915846,
        "distance_elbow_joint": 0.06118393270007294,
        "distance_shoulder_lift_joint": 0.29519375224081346,
        "distance_shoulder_pan_joint": 0.5775389223963585,
        "distance_wrist_1_joint": 0.32144186462436075,
        "distance_wrist_2_joint": 0.9933770891832898,
        "distance_wrist_3_joint": 0.010406477361790234,
        "smoothness": 0.0,
        "time": 0.052165372,
        "traj_len": 1.5030442570019973,
        "weighted_distance": 1.8959889100514056
    },
    "planner": "RRTConnect",
    "start": {
        "state": {
            "elbow_joint": 2.0193083361928714,
            "shoulder_lift_joint": -1.1220246554650708,
            "shoulder_pan_joint": -1.0952077554168747,
            "wrist_1_joint": -0.8559753972642168,
            "wrist_2_joint": 0.4759566250798843,
            "wrist_3_joint": -3.1240929996934557
        }
    },
    "waypoints": [
        {
            "positions": [
                -1.0952077554168747,
                -1.1220246554650708,
                2.0193083361928714,
                -0.8559753972642168,
                0.4759566250798843,
                -3.1240929996934557
            ]
        },
        {
            "positions": [
                -1.1914642424829345,
                -1.171223614171873,
                2.0091110140761925,
                -0.8024017531601566,
                0.6415194732770992,
                -3.122358586799824
            ]
        },
        {
            "positions": [
                -1.287720729548994,
                -1.2204225728786753,
                1.9989136919595138,
                -0.7488281090560965,
                0.8070823214743141,
                -3.1206241739061924
            ]
        },
        {
            "positions": [
                -1.383977216615054,
                -1.2696215315854775,
                1.988716369842835,
                -0.6952544649520365,
                0.9726451696715293,
                -3.1188897610125608
            ]
        },
        {
            "positions": [
                -1.4802337036811135,
                -1.3188204902922798,
                1.978519047726156,
                -0.6416808208479763,
                1.1382080178687441,
                -3.1171553481189287
            ]
        },
        {
            "positions": [
                -1.5764901907471733,
                -1.368019448999082,
                1.9683217256094774,
                -0.5881071767439161,
                1.3037708660659593,
                -3.115420935225297
            ]
        },
        {
            "positions": [
                -1.6727466778132332,
                -1.4172184077058843,
                1.9581244034927985,
                -0.534533532639856,
                1.4693337142631742,
                -3.1136865223316654
            ]
        }
    ]
}