{
    "goal": {
        "global_pose": {
            "orientation": {
                "w": 0.7031023502349854,
                "x": -0.7110244035720825,
                "y": 0.007748599164187908,
                "z": 0.005598929710686207
            },
            "position": {
                "x": 0.11585023208521307,
                "y": 0.44412534475326537,
                "z": 0.3711530566215515
            }
        },
        "name": "move_to_auspresseinheit_A"
    },
    "id": "RRTConnect_move_to_auspresseinheit_A_141",
    "joint_names": [
        "shoulder_pan_joint",
        "shoulder_lift_joint",
        "elbow_joint",
        "wrist_1_joint",
        "wrist_2_joint",
        "wrist_3_joint"
    ],
    "metrics": {
        "cart_traj_len": 0.6570148532298888,
        "distance_elbow_joint": 0.06095138435835956,
        "distance_shoulder_lift_joint": 0.5329806729122342,
        "distance_shoulder_pan_joint": 1.0406546459898673,
        "distance_wrist_1_joint": 0.9274952172423814,
        "distance_wrist_2_joint": 0.5967304244155428,
        "distance_wrist_3_joint": 0.24402363507057068,
        "smoothness": 0.7733896680906027,
        "time": 0.04641565,
        "traj_len": 1.8446777442114264,
        "weighted_distance": 2.3270386528349762
    },
    "planner": "RRTConnect",
    "start": {
        "state": {
            "elbow_joint": 2.4225746658250005,
            "shoulder_lift_joint": -1.3736534386056498,
            "shoulder_pan_joint": -0.3378633547517467,
            "wrist_1_joint": -1.0288598680537169,
            "wrist_2_joint": 1.233022673432363,
            "wrist_3_joint": -3.0940220416140027
        }
    },
    "waypoints": [
        {
            "positions": [
                -0.3378633547517467,
                -1.3736534386056498,
                2.4225746658250005,
                -1.0288598680537169,
                1.233022673432363,
                -3.0940220416140027
            ]
        },
        {
            "positions": [
                -0.2581104561926434,
                -1.4411859269048362,
                2.424613580850738,
                -0.921367171320106,
                1.1521001647307711,
                -3.0802008649438863
            ]
        },
        {
            "positions": [
                -0.17835755763354005,
                -1.5087184152040223,
                2.4266524958764752,
                -0.8138744745864952,
                1.0711776560291792,
                -3.06637968827377
            ]
        },
        {
            "positions": [
                -0.09860465907443672,
                -1.5762509035032086,
                2.428691410902213,
                -0.7063817778528845,
                0.9902551473275875,
                -3.0525585116036535
            ]
        },
        {
            "positions": [
                -0.018851760515333382,
                -1.643783391802395,
                2.4307303259279505,
                -0.5988890811192736,
                0.9093326386259957,
                -3.0387373349335367
            ]
        },
        {
            "positions": [
                0.06090113804377001,
                -1.7113158801015813,
                2.432769240953688,
                -0.4913963843856628,
                0.8284101299244038,
                -3.0249161582634203
            ]
        },
        {
            "positions": [
                0.1406540366028733,
                -1.7788483684007674,
                2.4348081559794252,
                -0.38390368765205196,
                0.7474876212228119,
                -3.011094981593304
            ]
        },
        {
            "positions": [
                0.2204069351619767,
                -1.8463808566999538,
                2.436847071005163,
                -0.2764109909184412,
                0.66656511252122,
                -2.9972738049231875
            ]
        },
        {
            "positions": [
                0.38120172052069135,
                -1.8664652749725972,
                2.421287411279097,
                -0.33475977095414305,
                0.6766560670226865,
                -3.046365604383106
            ]
        },
        {
            "positions": [
                0.541996505879406,
                -1.8865496932452406,
                2.4057277515530315,
                -0.39310855098984493,
                0.6867470215241531,
                -3.0954574038430245
            ]
        },
        {
            "positions": [
                0.7027912912381206,
                -1.906634111517884,
                2.3901680918269657,
                -0.4514573310255468,
                0.6968379760256197,
                -3.144549203302943
            ]
        }
    ]
}