{
    "goal": {
        "global_pose": {
            "orientation": {
                "w": 0.7031023480610252,
                "x": -0.7110244013736278,
                "y": 0.0077485991402295624,
                "z": 0.005598929693374583
            },
            "position": {
                "x": -0.8841497679147869,
                "y": 0.44412534475326537,
                "z": 0.3711530566215515
            }
        },
        "name": "move_to_auspresseinheit_D"
    },
    "id": "RRTConnect_move_to_auspresseinheit_D_98",
    "joint_names": [
        "shoulder_pan_joint",
        "shoulder_lift_joint",
        "elbow_joint",
        "wrist_1_joint",
        "wrist_2_joint",
        "wrist_3_joint"
    ],
    "metrics": {
        "cart_traj_len": 0.3445211919278924,
        "distance_elbow_joint": 0.6564701127751065,
        "distance_shoulder_lift_joint": 0.13062457112646042,
        "distance_shoulder_pan_joint": 0.13421797330194798,
        "distance_wrist_1_joint": 0.5919779135722503,
        "distance_wrist_2_joint": 1.429357614572055,
        "distance_wrist_3_joint": 0.05696954384852049,
        "smoothness": 0.0,
        "time": 0.041758258,
        "traj_len": 1.7319404519775905,
        "weighted_distance": 2.2660300847600605
    },
    "planner": "RRTConnect",
    "start": {
        "state": {
            "elbow_joint": -1.8275523626775212,
            "shoulder_lift_joint": -2.126789852344167,
            "shoulder_pan_joint": -0.03513704404078235,
            "wrist_1_joint": -2.347782403156801,
            "wrist_2_joint": -1.6058999987535132,
            "wrist_3_joint": -3.0880379163319196
        }
    },
    "waypoints": [
        {
            "positions": [
                -0.03513704404078235,
                -2.126789852344167,
                -1.8275523626775212,
                -2.347782403156801,
                -1.6058999987535132,
                -3.0880379163319196
            ]
        },
        {
            "positions": [
                -0.05191429070352585,
                -2.1431179237349745,
                -1.7454935985806328,
                -2.421779642353332,
                -1.4272302969320063,
                -3.0809167233508545
            ]
        },
        {
            "positions": [
                -0.06869153736626935,
                -2.159445995125782,
                -1.6634348344837446,
                -2.4957768815498635,
                -1.2485605951104994,
                -3.0737955303697895
            ]
        },
        {
            "positions": [
                -0.08546878402901284,
                -2.1757740665165897,
                -1.5813760703868562,
                -2.569774120746395,
                -1.0698908932889926,
                -3.0666743373887244
            ]
        },
        {
            "positions": [
                -0.10224603069175633,
                -2.192102137907397,
                -1.499317306289968,
                -2.6437713599429262,
                -0.8912211914674857,
                -3.0595531444076594
            ]
        },
        {
            "positions": [
                -0.11902327735449983,
                -2.2084302092982044,
                -1.4172585421930797,
                -2.717768599139457,
                -0.7125514896459788,
                -3.0524319514265943
            ]
        },
        {
            "positions": [
                -0.13580052401724335,
                -2.224758280689012,
                -1.3351997780961913,
                -2.7917658383359885,
                -0.5338817878244719,
                -3.0453107584455292
            ]
        },
        {
            "positions": [
                -0.15257777067998685,
                -2.2410863520798197,
                -1.2531410139993029,
                -2.86576307753252,
                -0.35521208600296506,
                -3.038189565464464
            ]
        },
        {
            "positions": [
                -0.16935501734273034,
                -2.2574144234706273,
                -1.1710822499024147,
                -2.939760316729051,
                -0.17654238418145818,
                -3.031068372483399
            ]
        }
    ]
}