{
    "goal": {
        "global_pose": {
            "orientation": {
                "w": 0.005598929693374612,
                "x": 0.007748599140229565,
                "y": 0.7110244013736278,
                "z": -0.7031023480610252
            },
            "position": {
                "x": -0.8858502320852131,
                "y": -0.7141253447532654,
                "z": 0.3711530566215515
            }
        },
        "name": "move_to_auspresseinheit_C"
    },
    "id": "RRTConnect_move_to_auspresseinheit_C_45",
    "joint_names": [
        "shoulder_pan_joint",
        "shoulder_lift_joint",
        "elbow_joint",
        "wrist_1_joint",
        "wrist_2_joint",
        "wrist_3_joint"
    ],
    "metrics": {
        "cart_traj_len": 0.49287551855128975,
        "distance_elbow_joint": 0.9933246168703613,
        "distance_shoulder_lift_joint": 0.32238307325885585,
        "distance_shoulder_pan_joint": 0.25646803619660075,
        "distance_wrist_1_joint": 0.6597223655748737,
        "distance_wrist_2_joint": 1.3159197630118498,
        "distance_wrist_3_joint": 0.04554945772617325,
        "smoothness": 1.6148698667872622e-16,
        "time": 0.04314643,
        "traj_len": 1.8956179236963113,
        "weighted_distance": 2.379098223419492
    },
    "planner": "RRTConnect",
    "start": {
        "state": {
            "elbow_joint": 1.7527959577737207,
            "shoulder_lift_joint": -0.9740617694225068,
            "shoulder_pan_joint": -2.967991417825858,
            "wrist_1_joint": -0.759517768980727,
            "wrist_2_joint": 1.7443932448377408,
            "wrist_3_joint": -3.0840537646736568
        }
    },
    "waypoints": [
        {
            "positions": [
                -2.967991417825858,
                -0.9740617694225068,
                1.7527959577737207,
                -0.759517768980727,
                1.7443932448377408,
                -3.0840537646736568
            ]
        },
        {
            "positions": [
                -2.9423446142061978,
                -0.9418234620966212,
                1.6534634960866845,
                -0.6935455324232396,
                1.6128012685365558,
                -3.088608710446274
            ]
        },
        {
            "positions": [
                -2.916697810586538,
                -0.9095851547707356,
                1.5541310343996484,
                -0.6275732958657523,
                1.4812092922353708,
                -3.0931636562188913
            ]
        },
        {
            "positions": [
                -2.891051006966878,
                -0.87734684744485,
                1.4547985727126123,
                -0.5616010593082649,
                1.349617315934186,
                -3.0977186019915086
            ]
        },
        {
            "positions": [
                -2.8654042033472176,
                -0.8451085401189644,
                1.3554661110255761,
                -0.49562882275077746,
                1.2180253396330007,
                -3.102273547764126
            ]
        },
        {
            "positions": [
                -2.8397573997275574,
                -0.8128702327930788,
                1.25613364933854,
                -0.4296565861932901,
                1.086433363331816,
                -3.106828493536743
            ]
        },
        {
            "positions": [
                -2.8141105961078976,
                -0.7806319254671933,
                1.1568011876515039,
                -0.36368434963580276,
                0.954841387030631,
                -3.111383439309361
            ]
        },
        {
            "positions": [
                -2.7884637924882374,
                -0.7483936181413077,
                1.0574687259644677,
                -0.2977121130783154,
                0.823249410729446,
                -3.115938385081978
            ]
        },
        {
            "positions": [
                -2.762816988868577,
                -0.7161553108154222,
                0.9581362642774316,
                -0.23173987652082795,
                0.6916574344282609,
                -3.1204933308545955
            ]
        },
        {
            "positions": [
                -2.7371701852489174,
                -0.6839170034895365,
                0.8588038025903955,
                -0.16576763996334065,
                0.5600654581270761,
                -3.1250482766272127
            ]
        },
        {
            "positions": [
                -2.711523381629257,
                -0.6516786961636509,
                0.7594713409033593,
                -0.09979540340585326,
                0.42847348182589107,
                -3.12960322239983
            ]
        }
    ]
}