{
    "goal": {
        "global_pose": {
            "orientation": {
                "w": 0.005598929693374612,
                "x": 0.007748599140229565,
                "y": 0.7110244013736278,
                "z": -0.7031023480610252
            },
            "position": {
                "x": -0.8858502320852131,
                "y": -0.7141253447532654,
                "z": 0.3711530566215515
            }
        },
        "name": "move_to_auspresseinheit_C"
    },
    "id": "RRTConnect_move_to_auspresseinheit_C_38",
    "joint_names": [
        "shoulder_pan_joint",
        "shoulder_lift_joint",
        "elbow_joint",
        "wrist_1_joint",
        "wrist_2_joint",
        "wrist_3_joint"
    ],
    "metrics": {
        "cart_traj_len": 0.49262096458782906,
        "distance_elbow_joint": 0.9925676755535404,
        "distance_shoulder_lift_joint": 0.3211842826408128,
        "distance_shoulder_pan_joint": 0.2556411697756009,
        "distance_wrist_1_joint": 0.6574055531952022,
        "distance_wrist_2_joint": 1.3122023341662956,
        "distance_wrist_3_joint": 0.04811975003333213,
        "smoothness": 3.2297397335745243e-16,
        "time": 0.100345671,
        "traj_len": 1.8939695787854631,
        "weighted_distance": 2.377597138455745
    },
    "planner": "RRTConnect",
    "start": {
        "state": {
            "elbow_joint": 1.7527959577737207,
            "shoulder_lift_joint": -0.9740617694225068,
            "shoulder_pan_joint": -2.967991417825858,
            "wrist_1_joint": -0.759517768980727,
            "wrist_2_joint": 1.7443932448377408,
            "wrist_3_joint": -3.0840537646736568
        }
    },
    "waypoints": [
        {
            "positions": [
                -2.967991417825858,
                -0.9740617694225068,
                1.7527959577737207,
                -0.759517768980727,
                1.7443932448377408,
                -3.0840537646736568
            ]
        },
        {
            "positions": [
                -2.9424273008482977,
                -0.9419433411584255,
                1.6535391902183667,
                -0.6937772136612068,
                1.6131730114211114,
                -3.08886573967699
            ]
        },
        {
            "positions": [
                -2.916863183870738,
                -0.9098249128943442,
                1.5542824226630125,
                -0.6280366583416865,
                1.4819527780044817,
                -3.0936777146803234
            ]
        },
        {
            "positions": [
                -2.8912990668931777,
                -0.8777064846302629,
                1.4550256551076586,
                -0.5622961030221663,
                1.3507325445878522,
                -3.0984896896836562
            ]
        },
        {
            "positions": [
                -2.8657349499156175,
                -0.8455880563661816,
                1.3557688875523044,
                -0.4965555477026461,
                1.2195123111712225,
                -3.1033016646869895
            ]
        },
        {
            "positions": [
                -2.8401708329380577,
                -0.8134696281021003,
                1.2565121199969504,
                -0.43081499238312587,
                1.088292077754593,
                -3.108113639690323
            ]
        },
        {
            "positions": [
                -2.8146067159604975,
                -0.7813511998380192,
                1.1572553524415965,
                -0.36507443706360565,
                0.9570718443379634,
                -3.112925614693656
            ]
        },
        {
            "positions": [
                -2.7890425989829373,
                -0.7492327715739379,
                1.0579985848862425,
                -0.2993338817440855,
                0.825851610921334,
                -3.1177375896969894
            ]
        },
        {
            "positions": [
                -2.763478482005377,
                -0.7171143433098566,
                0.9587418173308883,
                -0.2335933264245652,
                0.6946313775047044,
                -3.1225495647003223
            ]
        },
        {
            "positions": [
                -2.7379143650278173,
                -0.6849959150457753,
                0.8594850497755343,
                -0.16785277110504493,
                0.5634111440880747,
                -3.1273615397036556
            ]
        },
        {
            "positions": [
                -2.712350248050257,
                -0.652877486781694,
                0.7602282822201802,
                -0.10211221578552475,
                0.4321909106714452,
                -3.132173514706989
            ]
        }
    ]
}