{
    "goal": {
        "global_pose": {
            "orientation": {
                "w": 0.5084816262002911,
                "x": -0.4908360881923452,
                "y": 0.5182115481033761,
                "z": -0.48164630358495003
            },
            "position": {
                "x": 0.5540239810943604,
                "y": -0.46912469901144505,
                "z": 0.16403168439865112
            }
        },
        "name": "move_to_storage_B"
    },
    "id": "RRTConnect_move_to_storage_B_69",
    "joint_names": [
        "shoulder_pan_joint",
        "shoulder_lift_joint",
        "elbow_joint",
        "wrist_1_joint",
        "wrist_2_joint",
        "wrist_3_joint"
    ],
    "metrics": {
        "cart_traj_len": 2.360416340607907,
        "distance_elbow_joint": 1.2953918556541093,
        "distance_shoulder_lift_joint": 0.902245217665576,
        "distance_shoulder_pan_joint": 1.9540618611007043,
        "distance_wrist_1_joint": 3.013061116881646,
        "distance_wrist_2_joint": 3.079748488630522,
        "distance_wrist_3_joint": 3.1693481673666803,
        "smoothness": 0.19749121993898577,
        "time": 0.093705182,
        "traj_len": 3.662493236485118,
        "weighted_distance": 5.083833459855345
    },
    "planner": "RRTConnect",
    "start": {
        "state": {
            "elbow_joint": 1.664937868594044,
            "shoulder_lift_joint": -0.661644460510453,
            "shoulder_pan_joint": -0.9139846352900073,
            "wrist_1_joint": 2.146753192139373,
            "wrist_2_joint": -2.2341966793290973,
            "wrist_3_joint": 0.005466555786416001
        }
    },
    "waypoints": [
        {
            "positions": [
                -0.9139846352900073,
                -0.661644460510453,
                1.664937868594044,
                2.146753192139373,
                -2.2341966793290973,
                0.005466555786416001
            ]
        },
        {
            "positions": [
                -0.8468579776301594,
                -0.6880403974914665,
                1.6148050578550608,
                2.082596519405335,
                -2.146123767623791,
                0.027954339845387893
            ]
        },
        {
            "positions": [
                -0.7797313199703113,
                -0.7144363344724801,
                1.5646722471160777,
                2.0184398466712965,
                -2.0580508559184847,
                0.05044212390435979
            ]
        },
        {
            "positions": [
                -0.7126046623104634,
                -0.7408322714534936,
                1.5145394363770945,
                1.954283173937258,
                -1.9699779442131786,
                0.07292990796333168
            ]
        },
        {
            "positions": [
                -0.6814783174926139,
                -0.7681953685893963,
                1.500009562428169,
                1.8341949773079254,
                -1.850491033521623,
                0.14001333985036923
            ]
        },
        {
            "positions": [
                -0.6503519726747644,
                -0.795558465725299,
                1.4854796884792436,
                1.7141067806785926,
                -1.7310041228300674,
                0.20709677173740676
            ]
        },
        {
            "positions": [
                -0.6192256278569149,
                -0.8229215628612017,
                1.4709498145303181,
                1.59401858404926,
                -1.6115172121385117,
                0.2741802036244443
            ]
        },
        {
            "positions": [
                -0.5880992830390654,
                -0.8502846599971043,
                1.4564199405813927,
                1.4739303874199272,
                -1.492030301446956,
                0.34126363551148187
            ]
        },
        {
            "positions": [
                -0.556972938221216,
                -0.877647757133007,
                1.4418900666324672,
                1.3538421907905946,
                -1.3725433907554005,
                0.40834706739851934
            ]
        },
        {
            "positions": [
                -0.5258465934033665,
                -0.9050108542689097,
                1.4273601926835418,
                1.2337539941612619,
                -1.253056480063845,
                0.4754304992855569
            ]
        },
        {
            "positions": [
                -0.494720248585517,
                -0.9323739514048124,
                1.412830318734616,
                1.1136657975319293,
                -1.1335695693722894,
                0.5425139311725945
            ]
        },
        {
            "positions": [
                -0.4635939037676675,
                -0.9597370485407151,
                1.3983004447856906,
                0.9935776009025965,
                -1.0140826586807337,
                0.609597363059632
            ]
        },
        {
            "positions": [
                -0.4324675589498181,
                -0.9871001456766177,
                1.3837705708367651,
                0.8734894042732639,
                -0.894595747989178,
                0.6766807949466696
            ]
        },
        {
            "positions": [
                -0.4013412141319686,
                -1.0144632428125204,
                1.3692406968878397,
                0.7534012076439314,
                -0.7751088372976225,
                0.743764226833707
            ]
        },
        {
            "positions": [
                -0.3702148693141191,
                -1.041826339948423,
                1.3547108229389142,
                0.6333130110145986,
                -0.6556219266060668,
                0.8108476587207446
            ]
        },
        {
            "positions": [
                -0.3390885244962697,
                -1.0691894370843258,
                1.3401809489899887,
                0.513224814385266,
                -0.5361350159145113,
                0.8779310906077821
            ]
        },
        {
            "positions": [
                -0.30796217967842016,
                -1.0965525342202285,
                1.3256510750410633,
                0.3931366177559332,
                -0.41664810522295537,
                0.9450145224948198
            ]
        },
        {
            "positions": [
                -0.2768358348605707,
                -1.1239156313561312,
                1.3111212010921378,
                0.27304842112660066,
                -0.2971611945313999,
                1.0120979543818573
            ]
        },
        {
            "positions": [
                -0.24570949004272125,
                -1.1512787284920338,
                1.2965913271432123,
                0.1529602244972681,
                -0.1776742838398444,
                1.0791813862688946
            ]
        },
        {
            "positions": [
                -0.2145831452248717,
                -1.1786418256279365,
                1.2820614531942867,
                0.03287202786793508,
                -0.0581873731482887,
                1.1462648181559323
            ]
        },
        {
            "positions": [
                -0.18345680040702228,
                -1.2060049227638392,
                1.2675315792453614,
                -0.08721616876139726,
                0.061299537543267,
                1.2133482500429698
            ]
        },
        {
            "positions": [
                -0.1523304555891728,
                -1.2333680198997419,
                1.2530017052964357,
                -0.20730436539073005,
                0.1807864482348227,
                1.2804316819300074
            ]
        },
        {
            "positions": [
                -0.12120411077132331,
                -1.2607311170356446,
                1.2384718313475103,
                -0.32739256202006284,
                0.3002733589263784,
                1.347515113817045
            ]
        },
        {
            "positions": [
                -0.09007776595347383,
                -1.2880942141715472,
                1.2239419573985848,
                -0.4474807586493952,
                0.41976026961793367,
                1.4145985457040824
            ]
        },
        {
            "positions": [
                -0.05895142113562435,
                -1.31545731130745,
                1.2094120834496593,
                -0.5675689552787284,
                0.5392471803094894,
                1.48168197759112
            ]
        },
        {
            "positions": [
                -0.027825076317774908,
                -1.3428204084433526,
                1.1948822095007339,
                -0.6876571519080608,
                0.6587340910010453,
                1.5487654094781576
            ]
        },
        {
            "positions": [
                -0.1249071037839996,
                -1.3227232021040183,
                1.2699127728244428,
                -0.7038981312566255,
                0.6417506620646473,
                1.6965880743576975
            ]
        },
        {
            "positions": [
                -0.2219891312502243,
                -1.3026259957646842,
                1.344943336148152,
                -0.7201391106051903,
                0.6247672331282493,
                1.8444107392372373
            ]
        },
        {
            "positions": [
                -0.319071158716449,
                -1.2825287894253499,
                1.419973899471861,
                -0.736380089953755,
                0.6077838041918513,
                1.992233404116777
            ]
        },
        {
            "positions": [
                -0.4161531861826737,
                -1.2624315830860158,
                1.49500446279557,
                -0.7526210693023199,
                0.5908003752554534,
                2.140056068996317
            ]
        },
        {
            "positions": [
                -0.5132352136488983,
                -1.2423343767466815,
                1.570035026119279,
                -0.7688620486508846,
                0.5738169463190553,
                2.287878733875857
            ]
        },
        {
            "positions": [
                -0.610317241115123,
                -1.2222371704073474,
                1.645065589442988,
                -0.7851030279994494,
                0.5568335173826573,
                2.4357013987553966
            ]
        },
        {
            "positions": [
                -0.7073992685813477,
                -1.202139964068013,
                1.720096152766697,
                -0.8013440073480141,
                0.5398500884462594,
                2.5835240636349366
            ]
        },
        {
            "positions": [
                -0.8044812960475725,
                -1.182042757728679,
                1.795126716090406,
                -0.817584986696579,
                0.5228666595098613,
                2.7313467285144766
            ]
        },
        {
            "positions": [
                -0.9015633235137972,
                -1.1619455513893446,
                1.8701572794141152,
                -0.8338259660451437,
                0.5058832305734633,
                2.879169393394016
            ]
        },
        {
            "positions": [
                -0.9986453509800218,
                -1.1418483450500105,
                1.9451878427378242,
                -0.8500669453937084,
                0.48889980163706537,
                3.026992058273556
            ]
        },
        {
            "positions": [
                -1.0957273784462467,
                -1.1217511387106762,
                2.020218406061533,
                -0.8663079247422732,
                0.47191637270066733,
                3.174814723153096
            ]
        }
    ]
}