{
    "goal": {
        "global_pose": {
            "orientation": {
                "w": -0.00223480608172531,
                "x": 0.0024358444001904467,
                "y": 0.7094548369677653,
                "z": -0.704743149386269
            },
            "position": {
                "x": 0.6205249238014221,
                "y": -0.6371506643295288,
                "z": 0.19426114857196808
            }
        },
        "name": "move_to_magneteinheit_B"
    },
    "id": "RRTConnect_move_to_magneteinheit_B_147",
    "joint_names": [
        "shoulder_pan_joint",
        "shoulder_lift_joint",
        "elbow_joint",
        "wrist_1_joint",
        "wrist_2_joint",
        "wrist_3_joint"
    ],
    "metrics": {
        "cart_traj_len": 1.4080210971121423,
        "distance_elbow_joint": 0.9577588217597992,
        "distance_shoulder_lift_joint": 0.9515765979005477,
        "distance_shoulder_pan_joint": 1.622856939448352,
        "distance_wrist_1_joint": 0.18084951250146641,
        "distance_wrist_2_joint": 1.530810786633298,
        "distance_wrist_3_joint": 1.0675499446534749,
        "smoothness": 0.35215250135814574,
        "time": 0.10445884999999999,
        "traj_len": 2.5122505056018873,
        "weighted_distance": 3.1871872852624543
    },
    "planner": "RRTConnect",
    "start": {
        "state": {
            "elbow_joint": 2.6216224122426386,
            "shoulder_lift_joint": -1.4174107377796124,
            "shoulder_pan_joint": 0.7066234856936794,
            "wrist_1_joint": 1.9546482284002225,
            "wrist_2_joint": -0.7096286983471962,
            "wrist_3_joint": 0.005740856962016249
        }
    },
    "waypoints": [
        {
            "positions": [
                0.7066234856936794,
                -1.4174107377796124,
                2.6216224122426386,
                1.9546482284002225,
                -0.7096286983471962,
                0.005740856962016249
            ]
        },
        {
            "positions": [
                0.5442065796427618,
                -1.4416903410149287,
                2.6178479891003668,
                1.955076162301073,
                -0.7073440381046756,
                0.1390638318217565
            ]
        },
        {
            "positions": [
                0.3817896735918441,
                -1.465969944250245,
                2.614073565958095,
                1.955504096201924,
                -0.7050593778621551,
                0.27238680668149673
            ]
        },
        {
            "positions": [
                0.2193727675409265,
                -1.4902495474855613,
                2.6102991428158235,
                1.9559320301027747,
                -0.7027747176196346,
                0.405709781541237
            ]
        },
        {
            "positions": [
                0.05695586149000886,
                -1.5145291507208776,
                2.6065247196735517,
                1.9563599640036253,
                -0.700490057377114,
                0.5390327564009771
            ]
        },
        {
            "positions": [
                -0.01790485506727431,
                -1.448801598031702,
                2.53401232512042,
                1.970139792995784,
                -0.8175417608896691,
                0.49793598369216835
            ]
        },
        {
            "positions": [
                -0.09276557162455748,
                -1.3830740453425263,
                2.4614999305672884,
                1.9839196219879427,
                -0.9345934644022241,
                0.45683921098335956
            ]
        },
        {
            "positions": [
                -0.16762628818184064,
                -1.317346492653351,
                2.3889875360141564,
                1.9976994509801016,
                -1.0516451679147791,
                0.41574243827455076
            ]
        },
        {
            "positions": [
                -0.24248700473912382,
                -1.2516189399641753,
                2.3164751414610247,
                2.01147927997226,
                -1.1686968714273342,
                0.37464566556574197
            ]
        },
        {
            "positions": [
                -0.317347721296407,
                -1.1858913872749997,
                2.243962746907893,
                2.025259108964419,
                -1.2857485749398894,
                0.3335488928569332
            ]
        },
        {
            "positions": [
                -0.39220843785369014,
                -1.120163834585824,
                2.1714503523547615,
                2.039038937956578,
                -1.4028002784524445,
                0.2924521201481244
            ]
        },
        {
            "positions": [
                -0.4670691544109733,
                -1.0544362818966486,
                2.09893795780163,
                2.0528187669487363,
                -1.5198519819649994,
                0.25135534743931565
            ]
        },
        {
            "positions": [
                -0.5419298709682565,
                -0.9887087292074729,
                2.026425563248498,
                2.0665985959408952,
                -1.6369036854775545,
                0.2102585747305068
            ]
        },
        {
            "positions": [
                -0.6167905875255396,
                -0.9229811765182974,
                1.9539131686953661,
                2.080378424933054,
                -1.7539553889901096,
                0.16916180202169806
            ]
        },
        {
            "positions": [
                -0.6916513040828228,
                -0.8572536238291217,
                1.8814007741422345,
                2.0941582539252126,
                -1.8710070925026647,
                0.1280650293128892
            ]
        },
        {
            "positions": [
                -0.7665120206401059,
                -0.7915260711399462,
                1.8088883795891029,
                2.1079380829173715,
                -1.9880587960152196,
                0.08696825660408047
            ]
        },
        {
            "positions": [
                -0.8413727371973891,
                -0.7257985184507706,
                1.736375985035971,
                2.12171791190953,
                -2.105110499527775,
                0.045871483895271625
            ]
        },
        {
            "positions": [
                -0.9162334537546722,
                -0.6600709657615951,
                1.6638635904828394,
                2.135497740901689,
                -2.22216220304033,
                0.004774711186462832
            ]
        }
    ]
}