{
    "goal": {
        "global_pose": {
            "orientation": {
                "w": 0.7047431468963623,
                "x": -0.7094548344612122,
                "y": 0.0024358443915843964,
                "z": -0.0022348060738295317
            },
            "position": {
                "x": 0.6094750761985779,
                "y": 0.3671506643295288,
                "z": 0.19426114857196808
            }
        },
        "name": "move_to_magneteinheit_A"
    },
    "id": "RRTConnect_move_to_magneteinheit_A_4",
    "joint_names": [
        "shoulder_pan_joint",
        "shoulder_lift_joint",
        "elbow_joint",
        "wrist_1_joint",
        "wrist_2_joint",
        "wrist_3_joint"
    ],
    "metrics": {
        "cart_traj_len": 3.742410197860836,
        "distance_elbow_joint": 3.8841194886613666,
        "distance_shoulder_lift_joint": 0.3510348564984569,
        "distance_shoulder_pan_joint": 3.7057222754570596,
        "distance_wrist_1_joint": 1.2846884862008618,
        "distance_wrist_2_joint": 1.9461033380457844,
        "distance_wrist_3_joint": 2.6102648997770803,
        "smoothness": 0.2601220703051629,
        "time": 0.069599428,
        "traj_len": 3.7124026377321475,
        "weighted_distance": 4.715215262153089
    },
    "planner": "RRTConnect",
    "start": {
        "state": {
            "elbow_joint": -1.9196185241190666,
            "shoulder_lift_joint": -1.2443396400964142,
            "shoulder_pan_joint": 2.6996025414629847,
            "wrist_1_joint": -1.5485510000780065,
            "wrist_2_joint": -1.5709468930060704,
            "wrist_3_joint": 0.4420197071253992
        }
    },
    "waypoints": [
        {
            "positions": [
                2.6996025414629847,
                -1.2443396400964142,
                -1.9196185241190666,
                -1.5485510000780065,
                -1.5709468930060704,
                0.4420197071253992
            ]
        },
        {
            "positions": [
                2.5832468338338224,
                -1.2488157422605883,
                -1.8102011174654604,
                -1.5097713037824052,
                -1.503348700550112,
                0.496119836353864
            ]
        },
        {
            "positions": [
                2.46689112620466,
                -1.2532918444247625,
                -1.7007837108118544,
                -1.4709916074868037,
                -1.4357505080941535,
                0.5502199655823288
            ]
        },
        {
            "positions": [
                2.3505354185754976,
                -1.2577679465889366,
                -1.5913663041582482,
                -1.4322119111912024,
                -1.368152315638195,
                0.6043200948107936
            ]
        },
        {
            "positions": [
                2.2341797109463353,
                -1.2622440487531108,
                -1.4819488975046422,
                -1.3934322148956009,
                -1.3005541231822366,
                0.6584202240392585
            ]
        },
        {
            "positions": [
                2.117824003317173,
                -1.2667201509172852,
                -1.372531490851036,
                -1.3546525185999996,
                -1.2329559307262783,
                0.7125203532677233
            ]
        },
        {
            "positions": [
                2.0014682956880105,
                -1.2711962530814593,
                -1.2631140841974298,
                -1.315872822304398,
                -1.1653577382703197,
                0.7666204824961881
            ]
        },
        {
            "positions": [
                1.8851125880588482,
                -1.2756723552456335,
                -1.1536966775438238,
                -1.2770931260087968,
                -1.0977595458143612,
                0.8207206117246528
            ]
        },
        {
            "positions": [
                1.7687568804296858,
                -1.2801484574098076,
                -1.0442792708902175,
                -1.2383134297131952,
                -1.0301613533584029,
                0.8748207409531177
            ]
        },
        {
            "positions": [
                1.6524011728005235,
                -1.2846245595739818,
                -0.9348618642366113,
                -1.199533733417594,
                -0.9625631609024444,
                0.9289208701815825
            ]
        },
        {
            "positions": [
                1.536045465171361,
                -1.289100661738156,
                -0.8254444575830053,
                -1.1607540371219924,
                -0.894964968446486,
                0.9830209994100474
            ]
        },
        {
            "positions": [
                1.4196897575421987,
                -1.2935767639023301,
                -0.7160270509293991,
                -1.1219743408263911,
                -0.8273667759905275,
                1.0371211286385122
            ]
        },
        {
            "positions": [
                1.3033340499130361,
                -1.2980528660665043,
                -0.6066096442757929,
                -1.0831946445307896,
                -0.7597685835345691,
                1.091221257866977
            ]
        },
        {
            "positions": [
                1.1869783422838738,
                -1.3025289682306784,
                -0.4971922376221869,
                -1.0444149482351883,
                -0.6921703910786107,
                1.145321387095442
            ]
        },
        {
            "positions": [
                1.0706226346547114,
                -1.3070050703948528,
                -0.3877748309685807,
                -1.0056352519395868,
                -0.6245721986226522,
                1.1994215163239066
            ]
        },
        {
            "positions": [
                0.954266927025549,
                -1.311481172559027,
                -0.27835742431497446,
                -0.9668555556439854,
                -0.5569740061666937,
                1.2535216455523717
            ]
        },
        {
            "positions": [
                0.8379112193963867,
                -1.3159572747232011,
                -0.16894001766136846,
                -0.9280758593483841,
                -0.48937581371073535,
                1.3076217747808363
            ]
        },
        {
            "positions": [
                0.7215555117672241,
                -1.3204333768873753,
                -0.059522611007762016,
                -0.8892961630527826,
                -0.4217776212547768,
                1.3617219040093012
            ]
        },
        {
            "positions": [
                0.6051998041380622,
                -1.3249094790515494,
                0.04989479564584398,
                -0.8505164667571813,
                -0.3541794287988185,
                1.4158220332377658
            ]
        },
        {
            "positions": [
                0.4888440965088994,
                -1.3293855812157236,
                0.15931220229944998,
                -0.8117367704615799,
                -0.2865812363428599,
                1.4699221624662306
            ]
        },
        {
            "positions": [
                0.37248838887973745,
                -1.3338616833798977,
                0.268729608953056,
                -0.7729570741659785,
                -0.2189830438869016,
                1.5240222916946955
            ]
        },
        {
            "positions": [
                0.25613268125057465,
                -1.338337785544072,
                0.3781470156066624,
                -0.7341773778703771,
                -0.15138485143094305,
                1.5781224209231604
            ]
        },
        {
            "positions": [
                0.13977697362141273,
                -1.342813887708246,
                0.4875644222602684,
                -0.6953976815747757,
                -0.08378665897498472,
                1.6322225501516252
            ]
        },
        {
            "positions": [
                0.023421265992249918,
                -1.3472899898724204,
                0.5969818289138749,
                -0.6566179852791743,
                -0.016188466519026168,
                1.68632267938009
            ]
        },
        {
            "positions": [
                -0.09293444163691245,
                -1.3517660920365946,
                0.7063992355674809,
                -0.6178382889835728,
                0.05140972593693216,
                1.740422808608555
            ]
        },
        {
            "positions": [
                -0.2092901492660748,
                -1.3562421942007687,
                0.8158166422210869,
                -0.5790585926879714,
                0.11900791839289071,
                1.7945229378370198
            ]
        },
        {
            "positions": [
                -0.3256458568952372,
                -1.360718296364943,
                0.9252340488746928,
                -0.5402788963923701,
                0.18660611084884904,
                1.8486230670654846
            ]
        },
        {
            "positions": [
                -0.4420015645243996,
                -1.365194398529117,
                1.0346514555282993,
                -0.5014992000967686,
                0.2542043033048076,
                1.9027231962939495
            ]
        },
        {
            "positions": [
                -0.3793217679166581,
                -1.3396188320773665,
                1.137968067640966,
                -0.5279032763433935,
                0.24076517644537349,
                2.0304522419171196
            ]
        },
        {
            "positions": [
                -0.31664197130891664,
                -1.3140432656256162,
                1.2412846797536328,
                -0.5543073525900184,
                0.22732604958593938,
                2.1581812875402893
            ]
        },
        {
            "positions": [
                -0.25396217470117516,
                -1.2884676991738657,
                1.3446012918662995,
                -0.5807114288366432,
                0.21388692272650528,
                2.2859103331634594
            ]
        },
        {
            "positions": [
                -0.19128237809343368,
                -1.2628921327221152,
                1.4479179039789665,
                -0.6071155050832681,
                0.20044779586707118,
                2.4136393787866295
            ]
        },
        {
            "positions": [
                -0.1286025814856922,
                -1.237316566270365,
                1.5512345160916332,
                -0.633519581329893,
                0.18700866900763707,
                2.5413684244097996
            ]
        },
        {
            "positions": [
                -0.06592278487795072,
                -1.2117409998186144,
                1.6545511282043,
                -0.6599236575765177,
                0.173569542148203,
                2.6690974700329697
            ]
        },
        {
            "positions": [
                -0.003242988270209246,
                -1.1861654333668639,
                1.757867740316967,
                -0.6863277338231426,
                0.16013041528876887,
                2.7968265156561394
            ]
        },
        {
            "positions": [
                0.05943680833753223,
                -1.1605898669151136,
                1.8611843524296336,
                -0.7127318100697675,
                0.1466912884293348,
                2.9245555612793095
            ]
        },
        {
            "positions": [
                0.12211660494527377,
                -1.135014300463363,
                1.9645009645423004,
                -0.7391358863163924,
                0.1332521615699007,
                3.0522846069024796
            ]
        }
    ]
}