{
    "goal": {
        "global_pose": {
            "orientation": {
                "w": -0.00223480608172531,
                "x": 0.0024358444001904467,
                "y": 0.7094548369677653,
                "z": -0.704743149386269
            },
            "position": {
                "x": 0.6205249238014221,
                "y": -0.6371506643295288,
                "z": 0.19426114857196808
            }
        },
        "name": "move_to_magneteinheit_B"
    },
    "id": "RRTConnect_move_to_magneteinheit_B_24",
    "joint_names": [
        "shoulder_pan_joint",
        "shoulder_lift_joint",
        "elbow_joint",
        "wrist_1_joint",
        "wrist_2_joint",
        "wrist_3_joint"
    ],
    "metrics": {
        "cart_traj_len": 3.7359879546444774,
        "distance_elbow_joint": 4.4731012196431745,
        "distance_shoulder_lift_joint": 1.3176573444906685,
        "distance_shoulder_pan_joint": 4.976716381815352,
        "distance_wrist_1_joint": 1.2353067755481044,
        "distance_wrist_2_joint": 1.8680942921191808,
        "distance_wrist_3_joint": 7.334833560631894,
        "smoothness": 0.6256777581168602,
        "time": 0.223996105,
        "traj_len": 4.604965751691143,
        "weighted_distance": 6.243298628383834
    },
    "planner": "RRTConnect",
    "start": {
        "state": {
            "elbow_joint": 2.6216224122426386,
            "shoulder_lift_joint": -1.4174107377796124,
            "shoulder_pan_joint": 0.7066234856936794,
            "wrist_1_joint": 1.9546482284002225,
            "wrist_2_joint": -0.7096286983471962,
            "wrist_3_joint": 0.005740856962016249
        }
    },
    "waypoints": [
        {
            "positions": [
                0.7066234856936794,
                -1.4174107377796124,
                2.6216224122426386,
                1.9546482284002225,
                -0.7096286983471962,
                0.005740856962016249
            ]
        },
        {
            "positions": [
                0.593030527082155,
                -1.4628383619891234,
                2.6130367778888766,
                1.8988094295346591,
                -0.72381835750031,
                -0.14270242136958505
            ]
        },
        {
            "positions": [
                0.47943756847063057,
                -1.5082659861986347,
                2.6044511435351145,
                1.8429706306690958,
                -0.7380080166534237,
                -0.29114569970118637
            ]
        },
        {
            "positions": [
                0.36584460985910616,
                -1.5536936104081458,
                2.595865509181353,
                1.7871318318035325,
                -0.7521976758065375,
                -0.4395889780327877
            ]
        },
        {
            "positions": [
                0.25225165124758175,
                -1.599121234617657,
                2.587279874827591,
                1.7312930329379692,
                -0.7663873349596513,
                -0.588032256364389
            ]
        },
        {
            "positions": [
                0.13865869263605735,
                -1.6445488588271682,
                2.578694240473829,
                1.6754542340724057,
                -0.780576994112765,
                -0.7364755346959904
            ]
        },
        {
            "positions": [
                0.025065734024532937,
                -1.6899764830366792,
                2.5701086061200673,
                1.6196154352068426,
                -0.7947666532658788,
                -0.8849188130275917
            ]
        },
        {
            "positions": [
                -0.08852722458699147,
                -1.7354041072461905,
                2.5615229717663053,
                1.563776636341279,
                -0.8089563124189926,
                -1.033362091359193
            ]
        },
        {
            "positions": [
                -0.20212018319851588,
                -1.7808317314557016,
                2.5529373374125433,
                1.507937837475716,
                -0.8231459715721063,
                -1.1818053696907942
            ]
        },
        {
            "positions": [
                -0.3157131418100404,
                -1.826259355665213,
                2.5443517030587812,
                1.4520990386101524,
                -0.8373356307252201,
                -1.3302486480223954
            ]
        },
        {
            "positions": [
                -0.4293061004215647,
                -1.871686979874724,
                2.535766068705019,
                1.3962602397445891,
                -0.8515252898783339,
                -1.4786919263539968
            ]
        },
        {
            "positions": [
                -0.542899059033089,
                -1.9171146040842353,
                2.5271804343512576,
                1.3404214408790258,
                -0.8657149490314476,
                -1.627135204685598
            ]
        },
        {
            "positions": [
                -0.6564920176446136,
                -1.9625422282937464,
                2.5185947999974956,
                1.2845826420134625,
                -0.8799046081845614,
                -1.7755784830171994
            ]
        },
        {
            "positions": [
                -0.5648695489689108,
                -1.9586272839503447,
                2.3893981696272184,
                1.2730727042410448,
                -0.8335560735372379,
                -1.6640836032962663
            ]
        },
        {
            "positions": [
                -0.473247080293208,
                -1.954712339606943,
                2.2602015392569417,
                1.261562766468627,
                -0.7872075388899145,
                -1.552588723575333
            ]
        },
        {
            "positions": [
                -0.38162461161750516,
                -1.9507973952635413,
                2.1310049088866645,
                1.2500528286962094,
                -0.7408590042425911,
                -1.4410938438544
            ]
        },
        {
            "positions": [
                -0.2900021429418024,
                -1.9468824509201397,
                2.0018082785163873,
                1.2385428909237917,
                -0.6945104695952675,
                -1.329598964133467
            ]
        },
        {
            "positions": [
                -0.19837967426609954,
                -1.942967506576738,
                1.8726116481461106,
                1.227032953151374,
                -0.6481619349479442,
                -1.2181040844125337
            ]
        },
        {
            "positions": [
                -0.1067572055903967,
                -1.939052562233336,
                1.7434150177758334,
                1.2155230153789562,
                -0.6018134003006207,
                -1.1066092046916007
            ]
        },
        {
            "positions": [
                -0.015134736914693914,
                -1.9351376178899344,
                1.6142183874055565,
                1.2040130776065383,
                -0.5554648656532972,
                -0.9951143249706675
            ]
        },
        {
            "positions": [
                0.07648773176100887,
                -1.9312226735465328,
                1.4850217570352795,
                1.1925031398341206,
                -0.5091163310059738,
                -0.8836194452497343
            ]
        },
        {
            "positions": [
                0.16811020043671165,
                -1.927307729203131,
                1.3558251266650025,
                1.1809932020617029,
                -0.46276779635865034,
                -0.7721245655288014
            ]
        },
        {
            "positions": [
                0.25973266911241455,
                -1.9233927848597294,
                1.2266284962947254,
                1.1694832642892852,
                -0.41641926171132687,
                -0.6606296858078682
            ]
        },
        {
            "positions": [
                0.3513551377881172,
                -1.9194778405163277,
                1.0974318659244484,
                1.1579733265168675,
                -0.37007072706400346,
                -0.549134806086935
            ]
        },
        {
            "positions": [
                0.44297760646382023,
                -1.915562896172926,
                0.9682352355541715,
                1.1464633887444498,
                -0.32372219241668,
                -0.4376399263660018
            ]
        },
        {
            "positions": [
                0.5346000751395228,
                -1.9116479518295244,
                0.8390386051838945,
                1.134953450972032,
                -0.2773736577693565,
                -0.3261450466450688
            ]
        },
        {
            "positions": [
                0.6262225438152258,
                -1.9077330074861227,
                0.7098419748136173,
                1.1234435131996143,
                -0.23102512312203305,
                -0.21465016692413563
            ]
        },
        {
            "positions": [
                0.7178450124909286,
                -1.903818063142721,
                0.5806453444433404,
                1.1119335754271966,
                -0.18467658847470958,
                -0.10315528720320244
            ]
        },
        {
            "positions": [
                0.8094674811666314,
                -1.8999031187993194,
                0.4514487140730634,
                1.100423637654779,
                -0.1383280538273861,
                0.008339592517730754
            ]
        },
        {
            "positions": [
                0.9010899498423341,
                -1.8959881744559175,
                0.32225208370278624,
                1.0889136998823612,
                -0.09197951918006275,
                0.11983447223866373
            ]
        },
        {
            "positions": [
                0.9927124185180369,
                -1.8920732301125158,
                0.1930554533325095,
                1.0774037621099435,
                -0.04563098453273928,
                0.2313293519595967
            ]
        },
        {
            "positions": [
                1.08433488719374,
                -1.8881582857691142,
                0.06385882296223189,
                1.0658938243375258,
                0.0007175501145842977,
                0.3428242316805301
            ]
        },
        {
            "positions": [
                1.1759573558694427,
                -1.8842433414257125,
                -0.06533780740804485,
                1.054383886565108,
                0.047066084761907656,
                0.4543191114014631
            ]
        },
        {
            "positions": [
                1.2675798245451453,
                -1.8803283970823108,
                -0.19453443777832158,
                1.0428739487926901,
                0.09341461940923113,
                0.5658139911223965
            ]
        },
        {
            "positions": [
                1.359202293220848,
                -1.8764134527389091,
                -0.32373106814859876,
                1.0313640110202726,
                0.13976315405655448,
                0.6773088708433295
            ]
        },
        {
            "positions": [
                1.4508247618965513,
                -1.8724985083955075,
                -0.45292769851887593,
                1.0198540732478547,
                0.18611168870387806,
                0.7888037505642629
            ]
        },
        {
            "positions": [
                1.542447230572254,
                -1.8685835640521058,
                -0.5821243288891527,
                1.008344135475437,
                0.23246022335120142,
                0.9002986302851959
            ]
        },
        {
            "positions": [
                1.6340696992479564,
                -1.8646686197087041,
                -0.7113209592594298,
                0.9968341977030193,
                0.278808757998525,
                1.0117935100061288
            ]
        },
        {
            "positions": [
                1.7256921679236592,
                -1.8607536753653025,
                -0.8405175896297066,
                0.9853242599306016,
                0.32515729264584836,
                1.1232883897270618
            ]
        },
        {
            "positions": [
                1.8173146365993624,
                -1.8568387310219006,
                -0.9697142199999842,
                0.9738143221581839,
                0.37150582729317194,
                1.2347832694479952
            ]
        },
        {
            "positions": [
                1.9089371052750652,
                -1.8529237866784989,
                -1.098910850370261,
                0.9623043843857662,
                0.4178543619404953,
                1.3462781491689282
            ]
        },
        {
            "positions": [
                2.0005595739507678,
                -1.8490088423350972,
                -1.2281074807405377,
                0.9507944466133484,
                0.46420289658781866,
                1.4577730288898616
            ]
        },
        {
            "positions": [
                2.0921820426264706,
                -1.8450938979916955,
                -1.3573041111108148,
                0.9392845088409307,
                0.5105514312351422,
                1.5692679086107946
            ]
        },
        {
            "positions": [
                2.1838045113021733,
                -1.8411789536482939,
                -1.4865007414810925,
                0.9277745710685129,
                0.5568999658824658,
                1.680762788331728
            ]
        },
        {
            "positions": [
                2.275426979977876,
                -1.8372640093048922,
                -1.6156973718513687,
                0.9162646332960952,
                0.6032485005297892,
                1.792257668052661
            ]
        },
        {
            "positions": [
                2.367049448653579,
                -1.8333490649614905,
                -1.7448940022216455,
                0.9047546955236775,
                0.6495970351771126,
                1.9037525477735937
            ]
        },
        {
            "positions": [
                2.477394284376264,
                -1.919605488932209,
                -1.7490051606786075,
                0.9376265441343576,
                0.6468519880763324,
                1.7621738104551654
            ]
        },
        {
            "positions": [
                2.5877391200989495,
                -2.0058619129029274,
                -1.7531163191355694,
                0.9704983927450377,
                0.6441069409755522,
                1.6205950731367373
            ]
        },
        {
            "positions": [
                2.6980839558216347,
                -2.0921183368736456,
                -1.7572274775925312,
                1.003370241355718,
                0.6413618938747719,
                1.479016335818309
            ]
        },
        {
            "positions": [
                2.80842879154432,
                -2.178374760844364,
                -1.7613386360494931,
                1.036242089966398,
                0.6386168467739917,
                1.3374375984998808
            ]
        },
        {
            "positions": [
                2.7836487799962994,
                -2.2280925933045985,
                -1.7463152741576526,
                1.0272544485949249,
                0.6123940883544882,
                1.1194595584018514
            ]
        },
        {
            "positions": [
                2.7588687684482784,
                -2.2778104257648324,
                -1.731291912265812,
                1.0182668072234515,
                0.5861713299349847,
                0.9014815183038221
            ]
        },
        {
            "positions": [
                2.734088756900258,
                -2.3275282582250667,
                -1.7162685503739714,
                1.0092791658519784,
                0.5599485715154812,
                0.6835034782057927
            ]
        },
        {
            "positions": [
                2.7093087453522373,
                -2.377246090685301,
                -1.701245188482131,
                1.0002915244805053,
                0.5337258130959777,
                0.46552543810776337
            ]
        },
        {
            "positions": [
                2.6845287338042163,
                -2.426963923145535,
                -1.6862218265902902,
                0.9913038831090321,
                0.507503054676474,
                0.24754739800973402
            ]
        },
        {
            "positions": [
                2.6597487222561957,
                -2.476681755605769,
                -1.6711984646984497,
                0.9823162417375588,
                0.4812802962569706,
                0.029569357911704664
            ]
        }
    ]
}