{
    "goal": {
        "global_pose": {
            "orientation": {
                "w": 0.5084816217422485,
                "x": -0.49083608388900757,
                "y": 0.5182115435600281,
                "z": -0.4816462993621826
            },
            "position": {
                "x": 0.5540239810943604,
                "y": 0.030875300988554955,
                "z": 0.16403168439865112
            }
        },
        "name": "move_to_storage_A"
    },
    "id": "RRTConnect_move_to_storage_A_31",
    "joint_names": [
        "shoulder_pan_joint",
        "shoulder_lift_joint",
        "elbow_joint",
        "wrist_1_joint",
        "wrist_2_joint",
        "wrist_3_joint"
    ],
    "metrics": {
        "cart_traj_len": 0.3534936319592231,
        "distance_elbow_joint": 0.4512122952636377,
        "distance_shoulder_lift_joint": 0.23429481588829004,
        "distance_shoulder_pan_joint": 0.46242883320061373,
        "distance_wrist_1_joint": 0.24932172218825877,
        "distance_wrist_2_joint": 1.0987612665439181,
        "distance_wrist_3_joint": 0.10783406202343349,
        "smoothness": 0.0,
        "time": 0.041654462,
        "traj_len": 1.613645870415238,
        "weighted_distance": 2.041471064670571
    },
    "planner": "RRTConnect",
    "start": {
        "state": {
            "elbow_joint": 1.971548259319323,
            "shoulder_lift_joint": -1.1394851275133948,
            "shoulder_pan_joint": 0.1228115487234821,
            "wrist_1_joint": -0.7804723859257726,
            "wrist_2_joint": 0.12958671773740124,
            "wrist_3_joint": -3.192489227718131
        }
    },
    "waypoints": [
        {
            "positions": [
                0.1228115487234821,
                -1.1394851275133948,
                1.971548259319323,
                -0.7804723859257726,
                0.12958671773740124,
                -3.192489227718131
            ]
        },
        {
            "positions": [
                0.056750286837680144,
                -1.1729558154974362,
                2.0360071586427,
                -0.8160897748098096,
                0.286552612957961,
                -3.1770843617147837
            ]
        },
        {
            "positions": [
                -0.009310975048121811,
                -1.2064265034814776,
                2.1004660579660768,
                -0.8517071636938466,
                0.4435185081785207,
                -3.161679495711436
            ]
        },
        {
            "positions": [
                -0.07537223693392378,
                -1.239897191465519,
                2.1649249572894536,
                -0.8873245525778835,
                0.6004844033990804,
                -3.1462746297080884
            ]
        },
        {
            "positions": [
                -0.14143349881972572,
                -1.2733678794495606,
                2.2293838566128303,
                -0.9229419414619204,
                0.7574502986196402,
                -3.1308697637047405
            ]
        },
        {
            "positions": [
                -0.2074947607055277,
                -1.306838567433602,
                2.293842755936207,
                -0.9585593303459574,
                0.9144161938402,
                -3.115464897701393
            ]
        },
        {
            "positions": [
                -0.27355602259132966,
                -1.3403092554176435,
                2.358301655259584,
                -0.9941767192299944,
                1.0713820890607595,
                -3.100060031698045
            ]
        },
        {
            "positions": [
                -0.33961728447713163,
                -1.3737799434016849,
                2.4227605545829607,
                -1.0297941081140314,
                1.2283479842813194,
                -3.0846551656946977
            ]
        }
    ]
}{
    "goal": {
        "global_pose": {
            "orientation": {
                "w": 0.5084816217422485,
                "x": -0.49083608388900757,
                "y": 0.5182115435600281,
                "z": -0.4816462993621826
            },
            "position": {
                "x": 0.5540239810943604,
                "y": 0.030875300988554955,
                "z": 0.16403168439865112
            }
        },
        "name": "move_to_storage_A"
    },
    "id": "RRTConnect_move_to_storage_A_31",
    "joint_names": [
        "shoulder_pan_joint",
        "shoulder_lift_joint",
        "elbow_joint",
        "wrist_1_joint",
        "wrist_2_joint",
        "wrist_3_joint"
    ],
    "metrics": {
        "cart_traj_len": 0.3527334570954079,
        "distance_elbow_joint": 0.4477694554676157,
        "distance_shoulder_lift_joint": 0.23265594540572976,
        "distance_shoulder_pan_joint": 0.4591890047466603,
        "distance_wrist_1_joint": 0.2376779527461652,
        "distance_wrist_2_joint": 1.1058411946121165,
        "distance_wrist_3_joint": 0.10382157685473992,
        "smoothness": 6.661338165333112e-16,
        "time": 0.03482233,
        "traj_len": 1.6084014206139672,
        "weighted_distance": 2.0342363262169885
    },
    "planner": "RRTConnect",
    "start": {
        "state": {
            "elbow_joint": 1.97154746011099,
            "shoulder_lift_joint": -1.13948474672311,
            "shoulder_pan_joint": 0.12281154466712228,
            "wrist_1_joint": -0.7804688027058302,
            "wrist_2_joint": 0.12958655903071145,
            "wrist_3_joint": 3.0906928834467795
        }
    },
    "waypoints": [
        {
            "positions": [
                0.12281154466712228,
                -1.13948474672311,
                1.97154746011099,
                -0.7804688027058302,
                0.12958655903071145,
                3.0906928834467795
            ]
        },
        {
            "positions": [
                0.05721311541759938,
                -1.1727213103524998,
                2.035514525177792,
                -0.8144227959552823,
                0.2875638725467281,
                3.105524537283171
            ]
        },
        {
            "positions": [
                -0.008385313831923522,
                -1.20595787398189,
                2.0994815902445945,
                -0.8483767892047345,
                0.44554118606274473,
                3.1203561911195625
            ]
        },
        {
            "positions": [
                -0.07398374308144641,
                -1.2391944376112798,
                2.1634486553113965,
                -0.8823307824541867,
                0.6035184995787614,
                3.135187844955954
            ]
        },
        {
            "positions": [
                -0.1395821723309693,
                -1.2724310012406699,
                2.227415720378199,
                -0.9162847757036389,
                0.761495813094778,
                3.150019498792345
            ]
        },
        {
            "positions": [
                -0.20518060158049223,
                -1.3056675648700597,
                2.291382785445001,
                -0.9502387689530911,
                0.9194731266107947,
                3.1648511526287364
            ]
        },
        {
            "positions": [
                -0.2707790308300151,
                -1.3389041284994496,
                2.3553498505118036,
                -0.9841927622025433,
                1.0774504401268112,
                3.179682806465128
            ]
        },
        {
            "positions": [
                -0.336377460079538,
                -1.3721406921288397,
                2.4193169155786056,
                -1.0181467554519954,
                1.235427753642828,
                3.1945144603015194
            ]
        }
    ]
}{
    "goal": {
        "global_pose": {
            "orientation": {
                "w": 0.5084816217422485,
                "x": -0.49083608388900757,
                "y": 0.5182115435600281,
                "z": -0.4816462993621826
            },
            "position": {
                "x": 0.5540239810943604,
                "y": 0.030875300988554955,
                "z": 0.16403168439865112
            }
        },
        "name": "move_to_storage_A"
    },
    "id": "RRTConnect_move_to_storage_A_31",
    "joint_names": [
        "shoulder_pan_joint",
        "shoulder_lift_joint",
        "elbow_joint",
        "wrist_1_joint",
        "wrist_2_joint",
        "wrist_3_joint"
    ],
    "metrics": {
        "cart_traj_len": 0.35197860922487845,
        "distance_elbow_joint": 0.44859053229694545,
        "distance_shoulder_lift_joint": 0.2344576585267626,
        "distance_shoulder_pan_joint": 0.4603559704527131,
        "distance_wrist_1_joint": 0.23883692380593735,
        "distance_wrist_2_joint": 1.0960471353513965,
        "distance_wrist_3_joint": 0.08899931840992226,
        "smoothness": 8.881784197001252e-16,
        "time": 0.042048912,
        "traj_len": 1.6022757374570948,
        "weighted_distance": 2.0199431266302663
    },
    "planner": "RRTConnect",
    "start": {
        "state": {
            "elbow_joint": 1.9715472970024885,
            "shoulder_lift_joint": -1.1394870060712896,
            "shoulder_pan_joint": 0.12281152778156021,
            "wrist_1_joint": -0.780463741449964,
            "wrist_2_joint": 0.12958659822042276,
            "wrist_3_joint": 3.090690232415272
        }
    },
    "waypoints": [
        {
            "positions": [
                0.12281152778156021,
                -1.1394870060712896,
                1.9715472970024885,
                -0.780463741449964,
                0.12958659822042276,
                3.090690232415272
            ]
        },
        {
            "positions": [
                0.05704638914545836,
                -1.1729809572893986,
                2.035631658759195,
                -0.8145833019936694,
                0.2861647604134794,
                3.1034044207595466
            ]
        },
        {
            "positions": [
                -0.008718749490643496,
                -1.2064749085075075,
                2.0997160205159013,
                -0.8487028625373747,
                0.442742922606536,
                3.116118609103821
            ]
        },
        {
            "positions": [
                -0.07448388812674536,
                -1.2399688597256164,
                2.163800382272608,
                -0.8828224230810799,
                0.5993210847995927,
                3.1288327974480956
            ]
        },
        {
            "positions": [
                -0.1402490267628472,
                -1.2734628109437254,
                2.2278847440293146,
                -0.9169419836247853,
                0.7558992469926493,
                3.1415469857923704
            ]
        },
        {
            "positions": [
                -0.2060141653989491,
                -1.3069567621618343,
                2.291969105786021,
                -0.9510615441684906,
                0.912477409185706,
                3.154261174136645
            ]
        },
        {
            "positions": [
                -0.2717793040350509,
                -1.3404507133799433,
                2.3560534675427274,
                -0.985181104712196,
                1.0690555713787626,
                3.1669753624809194
            ]
        },
        {
            "positions": [
                -0.33754444267115286,
                -1.3739446645980522,
                2.420137829299434,
                -1.0193006652559014,
                1.2256337335718193,
                3.179689550825194
            ]
        }
    ]
}