{
    "goal": {
        "global_pose": {
            "orientation": {
                "w": 0.7047431468963623,
                "x": -0.7094548344612122,
                "y": 0.0024358443915843964,
                "z": -0.0022348060738295317
            },
            "position": {
                "x": 0.6094750761985779,
                "y": 0.3671506643295288,
                "z": 0.19426114857196808
            }
        },
        "name": "move_to_magneteinheit_A"
    },
    "id": "RRTConnect_move_to_magneteinheit_A_84",
    "joint_names": [
        "shoulder_pan_joint",
        "shoulder_lift_joint",
        "elbow_joint",
        "wrist_1_joint",
        "wrist_2_joint",
        "wrist_3_joint"
    ],
    "metrics": {
        "cart_traj_len": 3.370148242886843,
        "distance_elbow_joint": 3.9212204694317156,
        "distance_shoulder_lift_joint": 0.8005269156232361,
        "distance_shoulder_pan_joint": 3.112081529623228,
        "distance_wrist_1_joint": 3.508064737997637,
        "distance_wrist_2_joint": 1.8806752276132757,
        "distance_wrist_3_joint": 1.5571393592305114,
        "smoothness": 0.1846220679246516,
        "time": 0.073800982,
        "traj_len": 3.844438611750695,
        "weighted_distance": 4.825217810999991
    },
    "planner": "RRTConnect",
    "start": {
        "state": {
            "elbow_joint": -1.9196185241190666,
            "shoulder_lift_joint": -1.2443396400964142,
            "shoulder_pan_joint": 2.6996025414629847,
            "wrist_1_joint": -1.5485510000780065,
            "wrist_2_joint": -1.5709468930060704,
            "wrist_3_joint": 0.4420197071253992
        }
    },
    "waypoints": [
        {
            "positions": [
                2.6996025414629847,
                -1.2443396400964142,
                -1.9196185241190666,
                -1.5485510000780065,
                -1.5709468930060704,
                0.4420197071253992
            ]
        },
        {
            "positions": [
                2.5927294477802634,
                -1.2498411129481064,
                -1.8361600000205784,
                -1.4750674269965884,
                -1.4995715382617294,
                0.3976214587261591
            ]
        },
        {
            "positions": [
                2.485856354097542,
                -1.2553425857997986,
                -1.7527014759220902,
                -1.4015838539151704,
                -1.4281961835173884,
                0.353223210326919
            ]
        },
        {
            "positions": [
                2.378983260414821,
                -1.2608440586514909,
                -1.6692429518236018,
                -1.3281002808337523,
                -1.3568208287730474,
                0.30882496192767894
            ]
        },
        {
            "positions": [
                2.2721101667320998,
                -1.2663455315031833,
                -1.5857844277251136,
                -1.2546167077523345,
                -1.2854454740287067,
                0.26442671352843883
            ]
        },
        {
            "positions": [
                2.1652370730493784,
                -1.2718470043548755,
                -1.5023259036266254,
                -1.1811331346709164,
                -1.2140701192843657,
                0.22002846512919877
            ]
        },
        {
            "positions": [
                2.058363979366657,
                -1.2773484772065677,
                -1.4188673795281372,
                -1.1076495615894983,
                -1.1426947645400247,
                0.1756302167299587
            ]
        },
        {
            "positions": [
                1.951490885683936,
                -1.28284995005826,
                -1.335408855429649,
                -1.0341659885080803,
                -1.0713194097956837,
                0.1312319683307186
            ]
        },
        {
            "positions": [
                1.8446177920012148,
                -1.2883514229099522,
                -1.2519503313311606,
                -0.9606824154266622,
                -0.9999440550513428,
                0.08683371993147854
            ]
        },
        {
            "positions": [
                1.7377446983184934,
                -1.2938528957616444,
                -1.1684918072326727,
                -0.8871988423452442,
                -0.9285687003070018,
                0.04243547153223842
            ]
        },
        {
            "positions": [
                1.630871604635772,
                -1.2993543686133366,
                -1.0850332831341842,
                -0.8137152692638262,
                -0.8571933455626609,
                -0.0019627768670016366
            ]
        },
        {
            "positions": [
                1.523998510953051,
                -1.3048558414650289,
                -1.001574759035696,
                -0.7402316961824081,
                -0.7858179908183199,
                -0.04636102526624175
            ]
        },
        {
            "positions": [
                1.4171254172703296,
                -1.3103573143167213,
                -0.9181162349372078,
                -0.6667481231009901,
                -0.714442636073979,
                -0.09075927366548175
            ]
        },
        {
            "positions": [
                1.3102523235876085,
                -1.3158587871684135,
                -0.8346577108387196,
                -0.5932645500195721,
                -0.6430672813296381,
                -0.13515752206472187
            ]
        },
        {
            "positions": [
                1.203379229904887,
                -1.3213602600201058,
                -0.7511991867402312,
                -0.5197809769381541,
                -0.571691926585297,
                -0.17955577046396198
            ]
        },
        {
            "positions": [
                1.0965061362221658,
                -1.326861732871798,
                -0.667740662641743,
                -0.446297403856736,
                -0.5003165718409561,
                -0.2239540188632021
            ]
        },
        {
            "positions": [
                0.9896330425394446,
                -1.3323632057234902,
                -0.5842821385432548,
                -0.37281383077531793,
                -0.42894121709661515,
                -0.2683522672624421
            ]
        },
        {
            "positions": [
                0.8827599488567235,
                -1.3378646785751824,
                -0.5008236144447666,
                -0.2993302576939001,
                -0.3575658623522744,
                -0.3127505156616821
            ]
        },
        {
            "positions": [
                0.7758868551740019,
                -1.3433661514268747,
                -0.41736509034627844,
                -0.2258466846124818,
                -0.2861905076079332,
                -0.35714876406092233
            ]
        },
        {
            "positions": [
                0.6690137614912808,
                -1.3488676242785669,
                -0.33390656624779025,
                -0.15236311153106374,
                -0.2148151528635922,
                -0.40154701246016233
            ]
        },
        {
            "positions": [
                0.5621406678085594,
                -1.3543690971302593,
                -0.25044804214930205,
                -0.0788795384496459,
                -0.14343979811925145,
                -0.44594526085940245
            ]
        },
        {
            "positions": [
                0.4552675741258385,
                -1.3598705699819515,
                -0.16698951805081386,
                -0.00539596536822784,
                -0.07206444337491047,
                -0.49034350925864245
            ]
        },
        {
            "positions": [
                0.34839448044311716,
                -1.3653720428336438,
                -0.08353099395232544,
                0.06808760771319022,
                -0.0006890886305694899,
                -0.5347417576578827
            ]
        },
        {
            "positions": [
                0.24152138676039597,
                -1.370873515685336,
                -7.246985383715931e-05,
                0.14157118079460818,
                0.07068626611377157,
                -0.5791400060571228
            ]
        },
        {
            "positions": [
                0.20936987888430322,
                -1.3181894574719126,
                0.15216766334971912,
                0.26526557752550695,
                0.07252834636272178,
                -0.5460044910280355
            ]
        },
        {
            "positions": [
                0.17721837100821047,
                -1.265505399258489,
                0.30440779655327543,
                0.38895997425640577,
                0.07437042661167198,
                -0.5128689759989482
            ]
        },
        {
            "positions": [
                0.1450668631321177,
                -1.2128213410450657,
                0.45664792975683166,
                0.5126543709873046,
                0.07621250686062217,
                -0.47973346096986097
            ]
        },
        {
            "positions": [
                0.11291535525602495,
                -1.1601372828316423,
                0.608888062960388,
                0.6363487677182034,
                0.07805458710957237,
                -0.44659794594077373
            ]
        },
        {
            "positions": [
                0.08076384737993217,
                -1.1074532246182187,
                0.7611281961639443,
                0.7600431644491022,
                0.07989666735852258,
                -0.41346243091168644
            ]
        },
        {
            "positions": [
                0.04861233950383942,
                -1.0547691664047953,
                0.9133683293675006,
                0.883737561180001,
                0.08173874760747278,
                -0.38032691588259915
            ]
        },
        {
            "positions": [
                0.01646083162774664,
                -1.0020851081913718,
                1.065608462571057,
                1.0074319579109,
                0.08358082785642298,
                -0.34719140085351186
            ]
        },
        {
            "positions": [
                -0.01569067624834608,
                -0.9494010499779484,
                1.217848595774613,
                1.1311263546417987,
                0.08542290810537319,
                -0.3140558858244247
            ]
        },
        {
            "positions": [
                -0.04784218412443886,
                -0.8967169917645249,
                1.3700887289781694,
                1.2548207513726974,
                0.08726498835432339,
                -0.2809203707953374
            ]
        },
        {
            "positions": [
                -0.07999369200053164,
                -0.8440329335511014,
                1.5223288621817257,
                1.3785151481035962,
                0.08910706860327358,
                -0.2477848557662501
            ]
        },
        {
            "positions": [
                -0.11214519987662436,
                -0.7913488753376781,
                1.6745689953852818,
                1.502209544834495,
                0.09094914885222379,
                -0.21464934073716285
            ]
        },
        {
            "positions": [
                -0.14429670775271713,
                -0.7386648171242546,
                1.8268091285888381,
                1.6259039415653938,
                0.09279122910117399,
                -0.18151382570807556
            ]
        },
        {
            "positions": [
                -0.054902614283541235,
                -0.7525929309486655,
                1.8850734008301087,
                1.7371072070168059,
                0.020478860599163817,
                -0.13539600380842826
            ]
        },
        {
            "positions": [
                0.034491479185634666,
                -0.7665210447730765,
                1.943337673071379,
                1.8483104724682182,
                -0.051833507902846354,
                -0.08927818190878092
            ]
        },
        {
            "positions": [
                0.1238855726548106,
                -0.7804491585974874,
                2.0016019453126495,
                1.9595137379196303,
                -0.12414587640485654,
                -0.043160360009133605
            ]
        }
    ]
}