{
    "goal": {
        "global_pose": {
            "orientation": {
                "w": -0.4816463035849501,
                "x": 0.5182115481033762,
                "y": 0.4908360881923453,
                "z": -0.5084816262002911
            },
            "position": {
                "x": -0.8240239810943604,
                "y": 0.19912469901144506,
                "z": 0.16403168439865112
            }
        },
        "name": "move_to_storage_D"
    },
    "id": "RRTConnect_move_to_storage_D_54",
    "joint_names": [
        "shoulder_pan_joint",
        "shoulder_lift_joint",
        "elbow_joint",
        "wrist_1_joint",
        "wrist_2_joint",
        "wrist_3_joint"
    ],
    "metrics": {
        "cart_traj_len": 0.5717180606242861,
        "distance_elbow_joint": 0.6039078131365496,
        "distance_shoulder_lift_joint": 0.1529403422876614,
        "distance_shoulder_pan_joint": 0.40058063930461757,
        "distance_wrist_1_joint": 3.82959827303809,
        "distance_wrist_2_joint": 1.9543125132691126,
        "distance_wrist_3_joint": 3.561188646435672,
        "smoothness": 0.5558976351785374,
        "time": 0.1192725,
        "traj_len": 3.2407604396918486,
        "weighted_distance": 4.838265836707431
    },
    "planner": "RRTConnect",
    "start": {
        "state": {
            "elbow_joint": -2.384821988534728,
            "shoulder_lift_joint": -2.2788054721415256,
            "shoulder_pan_joint": -0.1854694642142757,
            "wrist_1_joint": 1.4845938289331202,
            "wrist_2_joint": 0.17898776772866878,
            "wrist_3_joint": 0.037105688729662994
        }
    },
    "waypoints": [
        {
            "positions": [
                -0.1854694642142757,
                -2.2788054721415256,
                -2.384821988534728,
                1.4845938289331202,
                0.17898776772866878,
                0.037105688729662994
            ]
        },
        {
            "positions": [
                -0.04763462894920778,
                -2.226089393333207,
                -2.3974098479663475,
                1.486628883478208,
                0.22224098979013396,
                -0.06595140703177142
            ]
        },
        {
            "positions": [
                0.09020020631586013,
                -2.1733733145248886,
                -2.4099977073979666,
                1.488663938023296,
                0.26549421185159916,
                -0.16900850279320584
            ]
        },
        {
            "positions": [
                0.08520376756488086,
                -2.171472987138048,
                -2.386848423627034,
                1.3356428114653793,
                0.19078196908575185,
                -0.03480552459669367
            ]
        },
        {
            "positions": [
                0.0802073288139016,
                -2.1695726597512066,
                -2.363699139856102,
                1.1826216849074629,
                0.11606972631990456,
                0.0993974535998185
            ]
        },
        {
            "positions": [
                0.07521089006292234,
                -2.167672332364366,
                -2.340549856085169,
                1.0296005583495464,
                0.04135748355405727,
                0.2336004317963306
            ]
        },
        {
            "positions": [
                0.07021445131194307,
                -2.1657720049775246,
                -2.317400572314237,
                0.8765794317916297,
                -0.03335475921179004,
                0.36780340999284283
            ]
        },
        {
            "positions": [
                0.0652180125609638,
                -2.163871677590684,
                -2.2942512885433044,
                0.7235583052337131,
                -0.10806700197763736,
                0.5020063881893551
            ]
        },
        {
            "positions": [
                0.060221573809984524,
                -2.1619713502038427,
                -2.271102004772372,
                0.5705371786757967,
                -0.18277924474348461,
                0.636209366385867
            ]
        },
        {
            "positions": [
                0.055225135059005254,
                -2.160071022817002,
                -2.2479527210014396,
                0.41751605211788,
                -0.25749148750933193,
                0.7704123445823794
            ]
        },
        {
            "positions": [
                0.05022869630802599,
                -2.1581706954301607,
                -2.224803437230507,
                0.26449492555996335,
                -0.33220373027517924,
                0.9046153227788916
            ]
        },
        {
            "positions": [
                0.045232257557046726,
                -2.15627036804332,
                -2.201654153459575,
                0.1114737990020469,
                -0.40691597304102645,
                1.0388183009754035
            ]
        },
        {
            "positions": [
                0.040235818806067455,
                -2.1543700406564787,
                -2.178504869688642,
                -0.04154732755586976,
                -0.48162821580687387,
                1.173021279171916
            ]
        },
        {
            "positions": [
                0.035239380055088185,
                -2.152469713269638,
                -2.1553555859177096,
                -0.1945684541137862,
                -0.5563404585727211,
                1.307224257368428
            ]
        },
        {
            "positions": [
                0.03024294130410892,
                -2.150569385882797,
                -2.1322063021467774,
                -0.34758958067170265,
                -0.6310527013385684,
                1.44142723556494
            ]
        },
        {
            "positions": [
                0.025246502553129643,
                -2.148669058495956,
                -2.109057018375845,
                -0.5006107072296195,
                -0.7057649441044157,
                1.5756302137614524
            ]
        },
        {
            "positions": [
                0.020250063802150373,
                -2.146768731109115,
                -2.0859077346049126,
                -0.653631833787536,
                -0.780477186870263,
                1.7098331919579646
            ]
        },
        {
            "positions": [
                0.015253625051171116,
                -2.144868403722274,
                -2.06275845083398,
                -0.8066529603454524,
                -0.8551894296361103,
                1.8440361701544765
            ]
        },
        {
            "positions": [
                0.010257186300191845,
                -2.142968076335433,
                -2.0396091670630474,
                -0.9596740869033693,
                -0.9299016724019576,
                1.978239148350989
            ]
        },
        {
            "positions": [
                0.005260747549212574,
                -2.141067748948592,
                -2.0164598832921152,
                -1.1126952134612857,
                -1.004613915167805,
                2.112442126547501
            ]
        },
        {
            "positions": [
                0.00026430879823331754,
                -2.139167421561751,
                -1.9933105995211826,
                -1.2657163400192022,
                -1.079326157933652,
                2.2466451047440126
            ]
        },
        {
            "positions": [
                -0.004732129952745953,
                -2.13726709417491,
                -1.9701613157502502,
                -1.4187374665771186,
                -1.1540384006994997,
                2.380848082940525
            ]
        },
        {
            "positions": [
                -0.009728568703725224,
                -2.135366766788069,
                -1.9470120319793178,
                -1.5717585931350355,
                -1.228750643465347,
                2.5150510611370374
            ]
        },
        {
            "positions": [
                -0.014725007454704495,
                -2.133466439401228,
                -1.9238627482083854,
                -1.724779719692952,
                -1.3034628862311939,
                2.6492540393335493
            ]
        },
        {
            "positions": [
                -0.019721446205683765,
                -2.131566112014387,
                -1.900713464437453,
                -1.8778008462508684,
                -1.3781751289970412,
                2.7834570175300617
            ]
        },
        {
            "positions": [
                -0.024717884956663036,
                -2.129665784627546,
                -1.8775641806665204,
                -2.030821972808785,
                -1.4528873717628885,
                2.9176599957265736
            ]
        },
        {
            "positions": [
                -0.029714323707642293,
                -2.127765457240705,
                -1.8544148968955882,
                -2.183843099366701,
                -1.5275996145287358,
                3.0518629739230856
            ]
        },
        {
            "positions": [
                -0.034710762458621564,
                -2.125865129853864,
                -1.8312656131246556,
                -2.3368642259246184,
                -1.6023118572945834,
                3.186065952119598
            ]
        }
    ]
}