{
    "goal": {
        "global_pose": {
            "orientation": {
                "w": -0.00223480608172531,
                "x": 0.0024358444001904467,
                "y": 0.7094548369677653,
                "z": -0.704743149386269
            },
            "position": {
                "x": 0.6205249238014221,
                "y": -0.6371506643295288,
                "z": 0.19426114857196808
            }
        },
        "name": "move_to_magneteinheit_B"
    },
    "id": "RRTConnect_move_to_magneteinheit_B_55",
    "joint_names": [
        "shoulder_pan_joint",
        "shoulder_lift_joint",
        "elbow_joint",
        "wrist_1_joint",
        "wrist_2_joint",
        "wrist_3_joint"
    ],
    "metrics": {
        "cart_traj_len": 1.4804921055695368,
        "distance_elbow_joint": 0.9565077849492678,
        "distance_shoulder_lift_joint": 0.827262048598836,
        "distance_shoulder_pan_joint": 1.6220631078502774,
        "distance_wrist_1_joint": 2.333728310849665,
        "distance_wrist_2_joint": 1.7170949080044324,
        "distance_wrist_3_joint": 0.6065582319185182,
        "smoothness": 0.7673576893789513,
        "time": 0.122581606,
        "traj_len": 2.839579967560519,
        "weighted_distance": 3.650637488831523
    },
    "planner": "RRTConnect",
    "start": {
        "state": {
            "elbow_joint": 2.6216224122426386,
            "shoulder_lift_joint": -1.4174107377796124,
            "shoulder_pan_joint": 0.7066234856936794,
            "wrist_1_joint": 1.9546482284002225,
            "wrist_2_joint": -0.7096286983471962,
            "wrist_3_joint": 0.005740856962016249
        }
    },
    "waypoints": [
        {
            "positions": [
                0.7066234856936794,
                -1.4174107377796124,
                2.6216224122426386,
                1.9546482284002225,
                -0.7096286983471962,
                0.005740856962016249
            ]
        },
        {
            "positions": [
                0.6572221353577892,
                -1.4348398003609106,
                2.609265118213485,
                1.883078219167707,
                -0.6592074982644118,
                0.0058276762513541445
            ]
        },
        {
            "positions": [
                0.6078207850218991,
                -1.452268862942209,
                2.596907824184331,
                1.8115082099351916,
                -0.6087862981816275,
                0.00591449554069204
            ]
        },
        {
            "positions": [
                0.4616954133739938,
                -1.4383766172158348,
                2.5295291660627015,
                1.7181106700961957,
                -0.6480681944980826,
                -0.02474983305060892
            ]
        },
        {
            "positions": [
                0.31557004172608843,
                -1.4244843714894606,
                2.4621505079410717,
                1.6247131302571995,
                -0.6873500908145376,
                -0.055414161641909876
            ]
        },
        {
            "positions": [
                0.16944467007818315,
                -1.4105921257630862,
                2.3947718498194424,
                1.5313155904182036,
                -0.7266319871309925,
                -0.08607849023321082
            ]
        },
        {
            "positions": [
                0.0233192984302778,
                -1.396699880036712,
                2.3273931916978126,
                1.4379180505792075,
                -0.7659138834474476,
                -0.11674281882451179
            ]
        },
        {
            "positions": [
                -0.12280607321762749,
                -1.382807634310338,
                2.260014533576183,
                1.3445205107402116,
                -0.8051957797639027,
                -0.14740714741581273
            ]
        },
        {
            "positions": [
                -0.2689314448655328,
                -1.3689153885839638,
                2.192635875454554,
                1.2511229709012155,
                -0.8444776760803576,
                -0.17807147600711368
            ]
        },
        {
            "positions": [
                -0.41505681651343806,
                -1.3550231428575896,
                2.125257217332924,
                1.1577254310622198,
                -0.8837595723968126,
                -0.20873580459841462
            ]
        },
        {
            "positions": [
                -0.5611821881613435,
                -1.3411308971312152,
                2.0578785592112947,
                1.0643278912232237,
                -0.9230414687132676,
                -0.23940013318971562
            ]
        },
        {
            "positions": [
                -0.7073075598092489,
                -1.327238651404841,
                1.990499901089665,
                0.9709303513842277,
                -0.9623233650297227,
                -0.2700644617810165
            ]
        },
        {
            "positions": [
                -0.853432931457154,
                -1.313346405678467,
                1.9231212429680355,
                0.8775328115452317,
                -1.0016052613461777,
                -0.3007287903723175
            ]
        },
        {
            "positions": [
                -0.8596336005270985,
                -1.2479982590612173,
                1.8973205814005691,
                1.003194100944699,
                -1.123948615813609,
                -0.2707546596296342
            ]
        },
        {
            "positions": [
                -0.8658342695970428,
                -1.1826501124439674,
                1.8715199198331025,
                1.1288553903441665,
                -1.2462919702810404,
                -0.2407805288869509
            ]
        },
        {
            "positions": [
                -0.8720349386669872,
                -1.1173019658267176,
                1.845719258265636,
                1.254516679743634,
                -1.3686353247484717,
                -0.2108063981442676
            ]
        },
        {
            "positions": [
                -0.8782356077369317,
                -1.051953819209468,
                1.8199185966981697,
                1.3801779691431013,
                -1.4909786792159032,
                -0.18083226740158428
            ]
        },
        {
            "positions": [
                -0.8844362768068761,
                -0.9866056725922182,
                1.794117935130703,
                1.5058392585425686,
                -1.6133220336833345,
                -0.150858136658901
            ]
        },
        {
            "positions": [
                -0.8906369458768204,
                -0.9212575259749685,
                1.7683172735632366,
                1.6315005479420361,
                -1.7356653881507658,
                -0.1208840059162177
            ]
        },
        {
            "positions": [
                -0.8968376149467648,
                -0.8559093793577188,
                1.7425166119957702,
                1.7571618373415034,
                -1.858008742618197,
                -0.09090987517353441
            ]
        },
        {
            "positions": [
                -0.9030382840167093,
                -0.790561232740469,
                1.7167159504283038,
                1.882823126740971,
                -1.9803520970856288,
                -0.06093574443085109
            ]
        },
        {
            "positions": [
                -0.9092389530866536,
                -0.7252130861232192,
                1.6909152888608372,
                2.0084844161404387,
                -2.10269545155306,
                -0.0309616136881678
            ]
        },
        {
            "positions": [
                -0.915439622156598,
                -0.6598649395059695,
                1.6651146272933708,
                2.134145705539906,
                -2.2250388060204913,
                -0.000987482945484525
            ]
        }
    ]
}