{
    "goal": {
        "global_pose": {
            "orientation": {
                "w": 0.005598929693374612,
                "x": 0.007748599140229565,
                "y": 0.7110244013736278,
                "z": -0.7031023480610252
            },
            "position": {
                "x": 0.1141497679147869,
                "y": -0.7141253447532654,
                "z": 0.3711530566215515
            }
        },
        "name": "move_to_auspresseinheit_B"
    },
    "id": "RRTConnect_move_to_auspresseinheit_B_84",
    "joint_names": [
        "shoulder_pan_joint",
        "shoulder_lift_joint",
        "elbow_joint",
        "wrist_1_joint",
        "wrist_2_joint",
        "wrist_3_joint"
    ],
    "metrics": {
        "cart_traj_len": 0.564660617146024,
        "distance_elbow_joint": 0.06603362965859394,
        "distance_shoulder_lift_joint": 0.2943278119038579,
        "distance_shoulder_pan_joint": 0.5744026287721673,
        "distance_wrist_1_joint": 0.3376433198875418,
        "distance_wrist_2_joint": 1.005718994614325,
        "distance_wrist_3_joint": 0.00503610137752819,
        "smoothness": 7.612957943425664e-16,
        "time": 0.050704031999999996,
        "traj_len": 1.5110137280031621,
        "weighted_distance": 1.9069863668812468
    },
    "planner": "RRTConnect",
    "start": {
        "state": {
            "elbow_joint": 2.0193083361928714,
            "shoulder_lift_joint": -1.1220246554650708,
            "shoulder_pan_joint": -1.0952077554168747,
            "wrist_1_joint": -0.8559753972642168,
            "wrist_2_joint": 0.4759566250798843,
            "wrist_3_joint": -3.1240929996934557
        }
    },
    "waypoints": [
        {
            "positions": [
                -1.0952077554168747,
                -1.1220246554650708,
                2.0193083361928714,
                -0.8559753972642168,
                0.4759566250798843,
                -3.1240929996934557
            ]
        },
        {
            "positions": [
                -1.1909415268789025,
                -1.1710792907823804,
                2.0083027312497723,
                -0.7997015106162931,
                0.6435764575156051,
                -3.1232536494638676
            ]
        },
        {
            "positions": [
                -1.2866752983409304,
                -1.2201339260996902,
                1.9972971263066734,
                -0.7434276239683695,
                0.8111962899513259,
                -3.1224142992342796
            ]
        },
        {
            "positions": [
                -1.3824090698029583,
                -1.2691885614169998,
                1.9862915213635746,
                -0.6871537373204459,
                0.9788161223870468,
                -3.1215749490046916
            ]
        },
        {
            "positions": [
                -1.4781428412649862,
                -1.3182431967343093,
                1.9752859164204755,
                -0.6308798506725223,
                1.1464359548227676,
                -3.1207355987751035
            ]
        },
        {
            "positions": [
                -1.573876612727014,
                -1.3672978320516191,
                1.9642803114773764,
                -0.5746059640245986,
                1.3140557872584886,
                -3.1198962485455155
            ]
        },
        {
            "positions": [
                -1.669610384189042,
                -1.4163524673689287,
                1.9532747065342775,
                -0.518332077376675,
                1.4816756196942094,
                -3.1190568983159275
            ]
        }
    ]
}