{
    "goal": {
        "global_pose": {
            "orientation": {
                "w": 0.7047431493862688,
                "x": -0.7094548369677653,
                "y": 0.0024358444001904,
                "z": -0.0022348060817251984
            },
            "position": {
                "x": -0.39052492380142206,
                "y": 0.3671506643295288,
                "z": 0.19426114857196808
            }
        },
        "name": "move_to_magneteinheit_D"
    },
    "id": "RRTConnect_move_to_magneteinheit_D_27",
    "joint_names": [
        "shoulder_pan_joint",
        "shoulder_lift_joint",
        "elbow_joint",
        "wrist_1_joint",
        "wrist_2_joint",
        "wrist_3_joint"
    ],
    "metrics": {
        "cart_traj_len": 4.2147477778409606,
        "distance_elbow_joint": 3.1931544255806763,
        "distance_shoulder_lift_joint": 1.6258164617441901,
        "distance_shoulder_pan_joint": 2.8672946234153995,
        "distance_wrist_1_joint": 2.831575849715941,
        "distance_wrist_2_joint": 2.5751701655628993,
        "distance_wrist_3_joint": 4.544666638017929,
        "smoothness": 0.22415269949979724,
        "time": 0.158180363,
        "traj_len": 4.199723581860721,
        "weighted_distance": 5.668664521327024
    },
    "planner": "RRTConnect",
    "start": {
        "state": {
            "elbow_joint": 0.749534889911806,
            "shoulder_lift_joint": -0.6476975780787326,
            "shoulder_pan_joint": -2.711696901376241,
            "wrist_1_joint": -0.07506478083263063,
            "wrist_2_joint": 0.43296659715538205,
            "wrist_3_joint": -3.14703540197715
        }
    },
    "waypoints": [
        {
            "positions": [
                -2.711696901376241,
                -0.6476975780787326,
                0.749534889911806,
                -0.07506478083263063,
                0.43296659715538205,
                -3.14703540197715
            ]
        },
        {
            "positions": [
                -2.710823879527482,
                -0.7088702659215576,
                0.754230719999977,
                -0.13620110617423425,
                0.45998727655376526,
                -2.9496807728565426
            ]
        },
        {
            "positions": [
                -2.709950857678723,
                -0.7700429537643825,
                0.7589265500881482,
                -0.19733743151583788,
                0.4870079559521484,
                -2.7523261437359356
            ]
        },
        {
            "positions": [
                -2.709077835829963,
                -0.8312156416072073,
                0.7636223801763193,
                -0.25847375685744145,
                0.5140286353505316,
                -2.5549715146153282
            ]
        },
        {
            "positions": [
                -2.708204813981204,
                -0.8923883294500322,
                0.7683182102644905,
                -0.3196100821990451,
                0.5410493147489148,
                -2.3576168854947213
            ]
        },
        {
            "positions": [
                -2.707331792132445,
                -0.9535610172928571,
                0.7730140403526616,
                -0.3807464075406487,
                0.568069994147298,
                -2.160262256374114
            ]
        },
        {
            "positions": [
                -2.6709064627968746,
                -1.008175690806703,
                0.7637538283927282,
                -0.4506356887455526,
                0.5494475428578797,
                -1.9750604506435965
            ]
        },
        {
            "positions": [
                -2.634481133461304,
                -1.062790364320549,
                0.7544936164327948,
                -0.5205249699504565,
                0.5308250915684614,
                -1.7898586449130791
            ]
        },
        {
            "positions": [
                -2.5980558041257336,
                -1.1174050378343947,
                0.7452334044728615,
                -0.5904142511553603,
                0.5122026402790432,
                -1.6046568391825617
            ]
        },
        {
            "positions": [
                -2.561630474790163,
                -1.1720197113482405,
                0.735973192512928,
                -0.6603035323602642,
                0.49358018898962486,
                -1.4194550334520444
            ]
        },
        {
            "positions": [
                -2.5252051454545925,
                -1.2266343848620864,
                0.7267129805529946,
                -0.7301928135651681,
                0.47495773770020655,
                -1.234253227721527
            ]
        },
        {
            "positions": [
                -2.433165589883157,
                -1.2535178647434,
                0.6304970927241533,
                -0.6893820114148129,
                0.4242994870402688,
                -1.1582993783299025
            ]
        },
        {
            "positions": [
                -2.341126034311721,
                -1.2804013446247136,
                0.534281204895312,
                -0.6485712092644578,
                0.37364123638033103,
                -1.082345528938278
            ]
        },
        {
            "positions": [
                -2.2490864787402853,
                -1.3072848245060271,
                0.4380653170664706,
                -0.6077604071141026,
                0.3229829857203933,
                -1.0063916795466534
            ]
        },
        {
            "positions": [
                -2.1570469231688496,
                -1.3341683043873407,
                0.3418494292376293,
                -0.5669496049637475,
                0.2723247350604555,
                -0.9304378301550289
            ]
        },
        {
            "positions": [
                -2.0650073675974134,
                -1.3610517842686543,
                0.24563354140878796,
                -0.5261388028133924,
                0.22166648440051778,
                -0.8544839807634044
            ]
        },
        {
            "positions": [
                -1.972967812025978,
                -1.3879352641499678,
                0.14941765357994663,
                -0.4853280006630373,
                0.17100823374058,
                -0.7785301313717798
            ]
        },
        {
            "positions": [
                -1.8809282564545422,
                -1.4148187440312814,
                0.05320176575110536,
                -0.4445171985126821,
                0.12034998308064232,
                -0.7025762819801553
            ]
        },
        {
            "positions": [
                -1.7888887008831063,
                -1.441702223912595,
                -0.04301412207773603,
                -0.40370639636232697,
                0.06969173242070453,
                -0.6266224325885307
            ]
        },
        {
            "positions": [
                -1.6968491453116705,
                -1.4685857037939085,
                -0.1392300099065773,
                -0.3628955942119719,
                0.0190334817607668,
                -0.5506685831969061
            ]
        },
        {
            "positions": [
                -1.6048095897402348,
                -1.495469183675222,
                -0.23544589773541869,
                -0.3220847920616167,
                -0.031624768899170985,
                -0.4747147338052816
            ]
        },
        {
            "positions": [
                -1.512770034168799,
                -1.5223526635565356,
                -0.33166178556425985,
                -0.28127398991126157,
                -0.08228301955910877,
                -0.3987608844136571
            ]
        },
        {
            "positions": [
                -1.4207304785973633,
                -1.5492361434378492,
                -0.42787767339310134,
                -0.24046318776090642,
                -0.13294127021904656,
                -0.32280703502203256
            ]
        },
        {
            "positions": [
                -1.3286909230259276,
                -1.5761196233191628,
                -0.5240935612219426,
                -0.19965238561055132,
                -0.18359952087898423,
                -0.24685318563040803
            ]
        },
        {
            "positions": [
                -1.236651367454492,
                -1.6030031032004763,
                -0.6203094490507839,
                -0.15884158346019617,
                -0.2342577715389219,
                -0.17089933623878362
            ]
        },
        {
            "positions": [
                -1.1446118118830562,
                -1.62988658308179,
                -0.7165253368796252,
                -0.11803078130984113,
                -0.2849160221988597,
                -0.09494548684715909
            ]
        },
        {
            "positions": [
                -1.0525722563116202,
                -1.6567700629631035,
                -0.8127412247084667,
                -0.07721997915948586,
                -0.3355742728587975,
                -0.018991637455534338
            ]
        },
        {
            "positions": [
                -0.9605327007401845,
                -1.683653542844417,
                -0.9089571125373079,
                -0.03640917700913082,
                -0.38623252351873527,
                0.05696221193609019
            ]
        },
        {
            "positions": [
                -0.8684931451687488,
                -1.7105370227257306,
                -1.0051730003661492,
                0.00440162514122433,
                -0.43689077417867295,
                0.13291606132771472
            ]
        },
        {
            "positions": [
                -0.7764535895973133,
                -1.7374205026070442,
                -1.1013888881949905,
                0.04521242729157948,
                -0.48754902483861073,
                0.20886991071933902
            ]
        },
        {
            "positions": [
                -0.6844140340258771,
                -1.7643039824883577,
                -1.197604776023832,
                0.08602322944193463,
                -0.5382072754985485,
                0.2848237601109638
            ]
        },
        {
            "positions": [
                -0.5923744784544416,
                -1.7911874623696713,
                -1.2938206638526732,
                0.1268340315922898,
                -0.5888655261584863,
                0.3607776095025883
            ]
        },
        {
            "positions": [
                -0.5003349228830056,
                -1.8180709422509849,
                -1.3900365516815143,
                0.16764483374264494,
                -0.6395237768184241,
                0.43673145889421283
            ]
        },
        {
            "positions": [
                -0.4082953673115699,
                -1.8449544221322984,
                -1.4862524395103558,
                0.20845563589299998,
                -0.6901820274783617,
                0.5126853082858374
            ]
        },
        {
            "positions": [
                -0.3162558117401342,
                -1.871837902013612,
                -1.5824683273391973,
                0.24926643804335524,
                -0.7408402781382997,
                0.5886391576774619
            ]
        },
        {
            "positions": [
                -0.22421625616869845,
                -1.8987213818949256,
                -1.6786842151680388,
                0.2900772401937104,
                -0.7914985287982372,
                0.6645930070690864
            ]
        },
        {
            "positions": [
                -0.13217670059726286,
                -1.9256048617762391,
                -1.7749001029968796,
                0.33088804234406544,
                -0.842156779458175,
                0.740546856460711
            ]
        },
        {
            "positions": [
                -0.07362263654036698,
                -1.9416916281238672,
                -1.8778032559575402,
                0.4395167715607613,
                -0.8231378597503347,
                0.7229549371529221
            ]
        },
        {
            "positions": [
                -0.015068572483471104,
                -1.9577783944714953,
                -1.9807064089182007,
                0.5481455007774572,
                -0.8041189400424943,
                0.7053630178451333
            ]
        },
        {
            "positions": [
                -0.034031494097096694,
                -1.9928601328438762,
                -2.0269236117925296,
                0.6479354455153217,
                -0.6939187005369576,
                0.6362629577379683
            ]
        },
        {
            "positions": [
                -0.05299441571072229,
                -2.027941871216257,
                -2.073140814666858,
                0.7477253902531862,
                -0.5837184610314208,
                0.5671628976308032
            ]
        },
        {
            "positions": [
                -0.07195733732434788,
                -2.0630236095886376,
                -2.119358017541187,
                0.8475153349910506,
                -0.4735182215258841,
                0.4980628375236381
            ]
        },
        {
            "positions": [
                -0.09092025893797347,
                -2.0981053479610186,
                -2.1655752204155156,
                0.9473052797289151,
                -0.3633179820203474,
                0.42896277741647304
            ]
        },
        {
            "positions": [
                -0.10988318055159906,
                -2.1331870863333995,
                -2.211792423289844,
                1.0470952244667795,
                -0.25311774251481056,
                0.35986271730930797
            ]
        },
        {
            "positions": [
                -0.12884610216522466,
                -2.1682688247057804,
                -2.258009626164173,
                1.146885169204644,
                -0.14291750300927386,
                0.2907626572021429
            ]
        },
        {
            "positions": [
                -0.14780902377885025,
                -2.203350563078161,
                -2.3042268290385017,
                1.2466751139425085,
                -0.03271726350373716,
                0.22166259709497782
            ]
        },
        {
            "positions": [
                -0.16677194539247583,
                -2.238432301450542,
                -2.35044403191283,
                1.346465058680373,
                0.07748297600179954,
                0.15256253698781275
            ]
        },
        {
            "positions": [
                -0.18573486700610142,
                -2.2735140398229228,
                -2.396661234787159,
                1.4462550034182375,
                0.18768321550733635,
                0.08346247688064772
            ]
        }
    ]
}