{
    "goal": {
        "global_pose": {
            "orientation": {
                "w": 0.5084816217422485,
                "x": -0.49083608388900757,
                "y": 0.5182115435600281,
                "z": -0.4816462993621826
            },
            "position": {
                "x": 0.5540239810943604,
                "y": 0.030875300988554955,
                "z": 0.16403168439865112
            }
        },
        "name": "move_to_storage_A"
    },
    "id": "RRTConnect_move_to_storage_A_60",
    "joint_names": [
        "shoulder_pan_joint",
        "shoulder_lift_joint",
        "elbow_joint",
        "wrist_1_joint",
        "wrist_2_joint",
        "wrist_3_joint"
    ],
    "metrics": {
        "cart_traj_len": 0.35297499950804595,
        "distance_elbow_joint": 0.4510423523736955,
        "distance_shoulder_lift_joint": 0.23451858580085605,
        "distance_shoulder_pan_joint": 0.4616629473518696,
        "distance_wrist_1_joint": 0.24544932166700073,
        "distance_wrist_2_joint": 1.098542236795585,
        "distance_wrist_3_joint": 0.10037524700568934,
        "smoothness": 2.2204460668324854e-16,
        "time": 0.033597798,
        "traj_len": 1.6098418217311588,
        "weighted_distance": 2.033797616152763
    },
    "planner": "RRTConnect",
    "start": {
        "state": {
            "elbow_joint": 1.971548259319323,
            "shoulder_lift_joint": -1.1394851275133948,
            "shoulder_pan_joint": 0.1228115487234821,
            "wrist_1_joint": -0.7804723859257726,
            "wrist_2_joint": 0.12958671773740124,
            "wrist_3_joint": -3.192489227718131
        }
    },
    "waypoints": [
        {
            "positions": [
                0.1228115487234821,
                -1.1394851275133948,
                1.971548259319323,
                -0.7804723859257726,
                0.12958671773740124,
                -3.192489227718131
            ]
        },
        {
            "positions": [
                0.056859699101786454,
                -1.1729877826278028,
                2.0359828810869938,
                -0.8155365747353441,
                0.2865213229939134,
                -3.1781499067173185
            ]
        },
        {
            "positions": [
                -0.009092150519909192,
                -1.2064904377422108,
                2.1004175028546648,
                -0.8506007635449157,
                0.44345592825042557,
                -3.1638105857165058
            ]
        },
        {
            "positions": [
                -0.07504400014160484,
                -1.2399930928566187,
                2.1648521246223353,
                -0.8856649523544872,
                0.6003905335069377,
                -3.149471264715693
            ]
        },
        {
            "positions": [
                -0.14099584976330048,
                -1.273495747971027,
                2.229286746390006,
                -0.9207291411640588,
                0.7573251387634499,
                -3.13513194371488
            ]
        },
        {
            "positions": [
                -0.2069476993849962,
                -1.306998403085435,
                2.293721368157677,
                -0.9557933299736303,
                0.914259744019962,
                -3.120792622714067
            ]
        },
        {
            "positions": [
                -0.2728995490066918,
                -1.3405010581998429,
                2.358155989925348,
                -0.9908575187832018,
                1.0711943492764742,
                -3.1064533017132545
            ]
        },
        {
            "positions": [
                -0.3388513986283875,
                -1.3740037133142509,
                2.4225906116930185,
                -1.0259217075927733,
                1.2281289545329863,
                -3.092113980712442
            ]
        }
    ]
}{
    "goal": {
        "global_pose": {
            "orientation": {
                "w": 0.5084816217422485,
                "x": -0.49083608388900757,
                "y": 0.5182115435600281,
                "z": -0.4816462993621826
            },
            "position": {
                "x": 0.5540239810943604,
                "y": 0.030875300988554955,
                "z": 0.16403168439865112
            }
        },
        "name": "move_to_storage_A"
    },
    "id": "RRTConnect_move_to_storage_A_60",
    "joint_names": [
        "shoulder_pan_joint",
        "shoulder_lift_joint",
        "elbow_joint",
        "wrist_1_joint",
        "wrist_2_joint",
        "wrist_3_joint"
    ],
    "metrics": {
        "cart_traj_len": 0.35288376399782984,
        "distance_elbow_joint": 0.4477744265399197,
        "distance_shoulder_lift_joint": 0.2340039242815939,
        "distance_shoulder_pan_joint": 0.4605124960370753,
        "distance_wrist_1_joint": 0.23992922953377338,
        "distance_wrist_2_joint": 1.1014898517917595,
        "distance_wrist_3_joint": 0.08986603522210102,
        "smoothness": 1.7763568394002505e-15,
        "time": 0.056676125,
        "traj_len": 1.6042368788324943,
        "weighted_distance": 2.023543208131706
    },
    "planner": "RRTConnect",
    "start": {
        "state": {
            "elbow_joint": 1.97154746011099,
            "shoulder_lift_joint": -1.13948474672311,
            "shoulder_pan_joint": 0.12281154466712228,
            "wrist_1_joint": -0.7804688027058302,
            "wrist_2_joint": 0.12958655903071145,
            "wrist_3_joint": 3.0906928834467795
        }
    },
    "waypoints": [
        {
            "positions": [
                0.12281154466712228,
                -1.13948474672311,
                1.97154746011099,
                -0.7804688027058302,
                0.12958655903071145,
                3.0906928834467795
            ]
        },
        {
            "positions": [
                0.05702404523325438,
                -1.1729138787633377,
                2.0355152353309784,
                -0.8147444069249407,
                0.28694225214381996,
                3.103530888478508
            ]
        },
        {
            "positions": [
                -0.008763454200613516,
                -1.2063430108035653,
                2.099483010550967,
                -0.8490200111440511,
                0.44429794525692845,
                3.116368893510237
            ]
        },
        {
            "positions": [
                -0.0745509536344814,
                -1.2397721428437931,
                2.1634507857709555,
                -0.8832956153631616,
                0.6016536383700369,
                3.1292068985419657
            ]
        },
        {
            "positions": [
                -0.1403384530683493,
                -1.2732012748840207,
                2.227418560990944,
                -0.9175712195822721,
                0.7590093314831454,
                3.1420449035736944
            ]
        },
        {
            "positions": [
                -0.2061259525022172,
                -1.3066304069242485,
                2.2913863362109326,
                -0.9518468238013826,
                0.916365024596254,
                3.154882908605423
            ]
        },
        {
            "positions": [
                -0.27191345193608507,
                -1.340059538964476,
                2.355354111430921,
                -0.9861224280204931,
                1.0737207177093624,
                3.167720913637152
            ]
        },
        {
            "positions": [
                -0.337700951369953,
                -1.3734886710047038,
                2.4193218866509096,
                -1.0203980322396036,
                1.231076410822471,
                3.1805589186688805
            ]
        }
    ]
}{
    "goal": {
        "global_pose": {
            "orientation": {
                "w": 0.5084816217422485,
                "x": -0.49083608388900757,
                "y": 0.5182115435600281,
                "z": -0.4816462993621826
            },
            "position": {
                "x": 0.5540239810943604,
                "y": 0.030875300988554955,
                "z": 0.16403168439865112
            }
        },
        "name": "move_to_storage_A"
    },
    "id": "RRTConnect_move_to_storage_A_60",
    "joint_names": [
        "shoulder_pan_joint",
        "shoulder_lift_joint",
        "elbow_joint",
        "wrist_1_joint",
        "wrist_2_joint",
        "wrist_3_joint"
    ],
    "metrics": {
        "cart_traj_len": 0.3536720568155017,
        "distance_elbow_joint": 0.44974292312350395,
        "distance_shoulder_lift_joint": 0.23678796844384165,
        "distance_shoulder_pan_joint": 0.4607907292682882,
        "distance_wrist_1_joint": 0.23789716914253156,
        "distance_wrist_2_joint": 1.1083923333648773,
        "distance_wrist_3_joint": 0.09901717820145883,
        "smoothness": 6.661338200497456e-16,
        "time": 0.04022512,
        "traj_len": 1.610164060443687,
        "weighted_distance": 2.033949891333321
    },
    "planner": "RRTConnect",
    "start": {
        "state": {
            "elbow_joint": 1.9715472970024885,
            "shoulder_lift_joint": -1.1394870060712896,
            "shoulder_pan_joint": 0.12281152778156021,
            "wrist_1_joint": -0.780463741449964,
            "wrist_2_joint": 0.12958659822042276,
            "wrist_3_joint": 3.090690232415272
        }
    },
    "waypoints": [
        {
            "positions": [
                0.12281152778156021,
                -1.1394870060712896,
                1.9715472970024885,
                -0.780463741449964,
                0.12958659822042276,
                3.090690232415272
            ]
        },
        {
            "positions": [
                0.056984280743233334,
                -1.173313858706124,
                2.035796286020132,
                -0.8144490513274685,
                0.2879283601296909,
                3.104835543586909
            ]
        },
        {
            "positions": [
                -0.00884296629509354,
                -1.2071407113409587,
                2.1000452750377754,
                -0.848434361204973,
                0.4462701220389591,
                3.118980854758546
            ]
        },
        {
            "positions": [
                -0.07467021333342042,
                -1.240967563975793,
                2.164294264055419,
                -0.8824196710824775,
                0.6046118839482273,
                3.133126165930183
            ]
        },
        {
            "positions": [
                -0.1404974603717473,
                -1.2747944166106278,
                2.2285432530730622,
                -0.916404980959982,
                0.7629536458574955,
                3.1472714771018198
            ]
        },
        {
            "positions": [
                -0.20632470741007417,
                -1.3086212692454622,
                2.2927922420907056,
                -0.9503902908374866,
                0.9212954077667637,
                3.1614167882734567
            ]
        },
        {
            "positions": [
                -0.272151954448401,
                -1.3424481218802966,
                2.357041231108349,
                -0.9843756007149911,
                1.0796371696760318,
                3.1755620994450937
            ]
        },
        {
            "positions": [
                -0.33797920148672794,
                -1.3762749745151313,
                2.4212902201259925,
                -1.0183609105924956,
                1.2379789315853,
                3.1897074106167307
            ]
        }
    ]
}