{
    "goal": {
        "global_pose": {
            "orientation": {
                "w": -0.00223480608172531,
                "x": 0.0024358444001904467,
                "y": 0.7094548369677653,
                "z": -0.704743149386269
            },
            "position": {
                "x": -0.37947507619857795,
                "y": -0.6371506643295288,
                "z": 0.19426114857196808
            }
        },
        "name": "move_to_magneteinheit_C"
    },
    "id": "RRTConnect_move_to_magneteinheit_C_3",
    "joint_names": [
        "shoulder_pan_joint",
        "shoulder_lift_joint",
        "elbow_joint",
        "wrist_1_joint",
        "wrist_2_joint",
        "wrist_3_joint"
    ],
    "metrics": {
        "cart_traj_len": 0.9464644222572971,
        "distance_elbow_joint": 0.5910601865198508,
        "distance_shoulder_lift_joint": 1.033244958896558,
        "distance_shoulder_pan_joint": 0.8012478617474954,
        "distance_wrist_1_joint": 1.422131904497472,
        "distance_wrist_2_joint": 1.8068818347090772,
        "distance_wrist_3_joint": 3.0076948490753614,
        "smoothness": 0.9491815948808485,
        "time": 0.079713868,
        "traj_len": 2.9431720295364685,
        "weighted_distance": 4.231626759628392
    },
    "planner": "RRTConnect",
    "start": {
        "state": {
            "elbow_joint": 1.9565354010623817,
            "shoulder_lift_joint": -1.4165861575791021,
            "shoulder_pan_joint": -1.6717766225146293,
            "wrist_1_joint": -0.5286633292919765,
            "wrist_2_joint": 1.472756589071564,
            "wrist_3_joint": -3.1238370188695823
        }
    },
    "waypoints": [
        {
            "positions": [
                -1.6717766225146293,
                -1.4165861575791021,
                1.9565354010623817,
                -0.5286633292919765,
                1.472756589071564,
                -3.1238370188695823
            ]
        },
        {
            "positions": [
                -1.6805573192916774,
                -1.4599469655371304,
                1.9851094854543598,
                -0.48208333037169715,
                1.3706955233915248,
                -2.9577337534083723
            ]
        },
        {
            "positions": [
                -1.6893380160687252,
                -1.5033077734951588,
                2.013683569846338,
                -0.43550333145141784,
                1.2686344577114856,
                -2.7916304879471627
            ]
        },
        {
            "positions": [
                -1.6981187128457733,
                -1.546668581453187,
                2.0422576542383157,
                -0.38892333253113853,
                1.1665733920314465,
                -2.625527222485953
            ]
        },
        {
            "positions": [
                -1.7068994096228212,
                -1.5900293894112154,
                2.070831738630294,
                -0.3423433336108592,
                1.0645123263514074,
                -2.459423957024743
            ]
        },
        {
            "positions": [
                -1.7156801063998692,
                -1.633390197369244,
                2.099405823022272,
                -0.2957633346905798,
                0.9624512606713682,
                -2.293320691563533
            ]
        },
        {
            "positions": [
                -1.724460803176917,
                -1.6767510053272723,
                2.1279799074142502,
                -0.24918333577030055,
                0.8603901949913291,
                -2.1272174261023236
            ]
        },
        {
            "positions": [
                -1.7332414999539651,
                -1.7201118132853006,
                2.156553991806228,
                -0.2026033368500212,
                0.7583291293112899,
                -1.9611141606411138
            ]
        },
        {
            "positions": [
                -1.742022196731013,
                -1.763472621243329,
                2.185128076198206,
                -0.15602333792974193,
                0.6562680636312508,
                -1.795010895179904
            ]
        },
        {
            "positions": [
                -1.750802893508061,
                -1.8068334292013573,
                2.2137021605901843,
                -0.1094433390094626,
                0.5542069979512116,
                -1.6289076297186942
            ]
        },
        {
            "positions": [
                -1.831746871469918,
                -1.7533214007990887,
                2.223239521083591,
                -0.22782858733654188,
                0.6240965094309431,
                -1.6765483655804634
            ]
        },
        {
            "positions": [
                -1.9126908494317751,
                -1.69980937239682,
                2.2327768815769975,
                -0.3462138356636212,
                0.6939860209106745,
                -1.7241891014422326
            ]
        },
        {
            "positions": [
                -1.9936348273936322,
                -1.6462973439945514,
                2.242314242070404,
                -0.4645990839907005,
                0.7638755323904058,
                -1.7718298373040016
            ]
        },
        {
            "positions": [
                -2.074578805355489,
                -1.5927853155922829,
                2.2518516025638107,
                -0.5829843323177797,
                0.8337650438701374,
                -1.8194705731657708
            ]
        },
        {
            "positions": [
                -2.1555227833173465,
                -1.539273287190014,
                2.2613889630572173,
                -0.701369580644859,
                0.9036545553498687,
                -1.86711130902754
            ]
        },
        {
            "positions": [
                -2.2364667612792033,
                -1.4857612587877456,
                2.270926323550624,
                -0.8197548289719383,
                0.9735440668296002,
                -1.9147520448893092
            ]
        },
        {
            "positions": [
                -2.3174107392410606,
                -1.432249230385477,
                2.2804636840440304,
                -0.9381400772990176,
                1.0434335783093316,
                -1.9623927807510784
            ]
        },
        {
            "positions": [
                -2.33807230527654,
                -1.3994323086729388,
                2.2603681305114893,
                -0.9593516294244884,
                1.0515145322040291,
                -2.072694784992679
            ]
        },
        {
            "positions": [
                -2.3587338713120194,
                -1.3666153869604007,
                2.240272576978948,
                -0.9805631815499591,
                1.0595954860987267,
                -2.1829967892342803
            ]
        },
        {
            "positions": [
                -2.3777823068037036,
                -1.332818779454843,
                2.202449110900095,
                -0.9585978362708822,
                0.9957715268585249,
                -2.3427761726357614
            ]
        },
        {
            "positions": [
                -2.396830742295388,
                -1.2990221719492854,
                2.1646256448212418,
                -0.9366324909918052,
                0.9319475676183231,
                -2.5025555560372426
            ]
        },
        {
            "positions": [
                -2.415879177787072,
                -1.2652255644437276,
                2.1268021787423885,
                -0.9146671457127283,
                0.8681236083781214,
                -2.6623349394387237
            ]
        },
        {
            "positions": [
                -2.4349276132787563,
                -1.2314289569381698,
                2.088978712663535,
                -0.8927018004336514,
                0.8042996491379196,
                -2.8221143228402052
            ]
        },
        {
            "positions": [
                -2.4539760487704405,
                -1.1976323494326122,
                2.0511552465846816,
                -0.8707364551545744,
                0.7404756898977178,
                -2.9818937062416864
            ]
        },
        {
            "positions": [
                -2.4730244842621247,
                -1.1638357419270544,
                2.0133317805058284,
                -0.8487711098754975,
                0.676651730657516,
                -3.1416730896431675
            ]
        }
    ]
}