{
    "goal": {
        "global_pose": {
            "orientation": {
                "w": -0.4816463035849501,
                "x": 0.5182115481033762,
                "y": 0.4908360881923453,
                "z": -0.5084816262002911
            },
            "position": {
                "x": -0.8240239810943604,
                "y": 0.19912469901144506,
                "z": 0.16403168439865112
            }
        },
        "name": "move_to_storage_D"
    },
    "id": "RRTConnect_move_to_storage_D_77",
    "joint_names": [
        "shoulder_pan_joint",
        "shoulder_lift_joint",
        "elbow_joint",
        "wrist_1_joint",
        "wrist_2_joint",
        "wrist_3_joint"
    ],
    "metrics": {
        "cart_traj_len": 2.2514331922771196,
        "distance_elbow_joint": 0.5543659467568718,
        "distance_shoulder_lift_joint": 1.4619506295302838,
        "distance_shoulder_pan_joint": 3.2924345419072214,
        "distance_wrist_1_joint": 3.821162132620076,
        "distance_wrist_2_joint": 1.7950296858661592,
        "distance_wrist_3_joint": 4.168425993277626,
        "smoothness": 0.2812678554971272,
        "time": 0.088578244,
        "traj_len": 3.885018523759989,
        "weighted_distance": 5.389472398574811
    },
    "planner": "RRTConnect",
    "start": {
        "state": {
            "elbow_joint": -2.384821988534728,
            "shoulder_lift_joint": -2.2788054721415256,
            "shoulder_pan_joint": -0.1854694642142757,
            "wrist_1_joint": 1.4845938289331202,
            "wrist_2_joint": 0.17898776772866878,
            "wrist_3_joint": 0.037105688729662994
        }
    },
    "waypoints": [
        {
            "positions": [
                -0.1854694642142757,
                -2.2788054721415256,
                -2.384821988534728,
                1.4845938289331202,
                0.17898776772866878,
                0.037105688729662994
            ]
        },
        {
            "positions": [
                -0.029007047586139922,
                -2.205433385857088,
                -2.3367535087327904,
                1.4658125002137814,
                0.15788196600092883,
                -0.00906559428593142
            ]
        },
        {
            "positions": [
                0.12745536904199586,
                -2.13206129957265,
                -2.2886850289308533,
                1.4470311714944426,
                0.13677616427318887,
                -0.055236877301525836
            ]
        },
        {
            "positions": [
                0.2839177856701316,
                -2.0586892132882126,
                -2.240616549128916,
                1.4282498427751038,
                0.11567036254544892,
                -0.10140816031712024
            ]
        },
        {
            "positions": [
                0.44038020229826746,
                -1.9853171270037748,
                -2.1925480693269788,
                1.409468514055765,
                0.09456456081770896,
                -0.14757944333271467
            ]
        },
        {
            "positions": [
                0.5968426189264032,
                -1.911945040719337,
                -2.1444795895250413,
                1.3906871853364262,
                0.073458759089969,
                -0.1937507263483091
            ]
        },
        {
            "positions": [
                0.753305035554539,
                -1.8385729544348994,
                -2.096411109723104,
                1.3719058566170874,
                0.05235295736222906,
                -0.23992200936390348
            ]
        },
        {
            "positions": [
                0.9097674521826747,
                -1.7652008681504616,
                -2.0483426299211667,
                1.3531245278977484,
                0.0312471556344891,
                -0.2860932923794979
            ]
        },
        {
            "positions": [
                1.0662298688108105,
                -1.691828781866024,
                -2.0002741501192296,
                1.3343431991784096,
                0.01014135390674914,
                -0.33226457539509235
            ]
        },
        {
            "positions": [
                1.2226922854389464,
                -1.6184566955815862,
                -1.952205670317292,
                1.3155618704590708,
                -0.010964447820990847,
                -0.37843585841068683
            ]
        },
        {
            "positions": [
                1.379154702067082,
                -1.5450846092971484,
                -1.9041371905153548,
                1.296780541739732,
                -0.03207024954873078,
                -0.4246071414262812
            ]
        },
        {
            "positions": [
                1.5356171186952179,
                -1.4717125230127108,
                -1.8560687107134175,
                1.2779992130203932,
                -0.05317605127647074,
                -0.47077842444187556
            ]
        },
        {
            "positions": [
                1.4794975487310131,
                -1.4951002973127634,
                -1.8551539725371475,
                1.1489075159951307,
                -0.10899268937865,
                -0.34004478586665815
            ]
        },
        {
            "positions": [
                1.4233779787668086,
                -1.5184880716128157,
                -1.8542392343608773,
                1.0198158189698683,
                -0.16480932748082927,
                -0.20931114729144074
            ]
        },
        {
            "positions": [
                1.3672584088026039,
                -1.5418758459128683,
                -1.8533244961846074,
                0.8907241219446058,
                -0.22062596558300857,
                -0.07857750871622332
            ]
        },
        {
            "positions": [
                1.311138838838399,
                -1.5652636202129206,
                -1.8524097580083374,
                0.7616324249193434,
                -0.2764426036851878,
                0.052156129858994094
            ]
        },
        {
            "positions": [
                1.2550192688741943,
                -1.5886513945129732,
                -1.8514950198320672,
                0.6325407278940809,
                -0.33225924178736715,
                0.18288976843421156
            ]
        },
        {
            "positions": [
                1.1988996989099898,
                -1.6120391688130256,
                -1.8505802816557972,
                0.5034490308688184,
                -0.3880758798895464,
                0.3136234070094289
            ]
        },
        {
            "positions": [
                1.142780128945785,
                -1.6354269431130781,
                -1.849665543479527,
                0.37435733384355596,
                -0.4438925179917257,
                0.4443570455846464
            ]
        },
        {
            "positions": [
                1.0866605589815803,
                -1.6588147174131305,
                -1.848750805303257,
                0.2452656368182935,
                -0.4997091560939049,
                0.5750906841598638
            ]
        },
        {
            "positions": [
                1.0305409890173758,
                -1.682202491713183,
                -1.8478360671269871,
                0.11617393979303103,
                -0.5555257941960843,
                0.7058243227350813
            ]
        },
        {
            "positions": [
                0.974421419053171,
                -1.7055902660132354,
                -1.846921328950717,
                -0.01291775723223143,
                -0.6113424322982636,
                0.8365579613102987
            ]
        },
        {
            "positions": [
                0.9183018490889663,
                -1.728978040313288,
                -1.846006590774447,
                -0.1420094542574939,
                -0.6671590704004428,
                0.967291599885516
            ]
        },
        {
            "positions": [
                0.8621822791247616,
                -1.7523658146133403,
                -1.845091852598177,
                -0.27110115128275636,
                -0.722975708502622,
                1.0980252384607334
            ]
        },
        {
            "positions": [
                0.8060627091605569,
                -1.7757535889133929,
                -1.8441771144219068,
                -0.4001928483080188,
                -0.7787923466048013,
                1.228758877035951
            ]
        },
        {
            "positions": [
                0.7499431391963522,
                -1.7991413632134452,
                -1.8432623762456368,
                -0.5292845453332813,
                -0.8346089847069806,
                1.3594925156111684
            ]
        },
        {
            "positions": [
                0.6938235692321476,
                -1.8225291375134978,
                -1.8423476380693669,
                -0.6583762423585438,
                -0.8904256228091599,
                1.4902261541863857
            ]
        },
        {
            "positions": [
                0.637703999267943,
                -1.8459169118135503,
                -1.8414328998930967,
                -0.7874679393838062,
                -0.9462422609113391,
                1.620959792761603
            ]
        },
        {
            "positions": [
                0.5815844293037382,
                -1.8693046861136027,
                -1.8405181617168267,
                -0.9165596364090685,
                -1.0020588990135184,
                1.7516934313368204
            ]
        },
        {
            "positions": [
                0.5254648593395335,
                -1.8926924604136552,
                -1.8396034235405567,
                -1.0456513334343311,
                -1.0578755371156978,
                1.8824270699120382
            ]
        },
        {
            "positions": [
                0.4693452893753287,
                -1.9160802347137076,
                -1.8386886853642865,
                -1.1747430304595938,
                -1.113692175217877,
                2.0131607084872556
            ]
        },
        {
            "positions": [
                0.4132257194111242,
                -1.9394680090137602,
                -1.8377739471880166,
                -1.303834727484856,
                -1.1695088133200564,
                2.143894347062473
            ]
        },
        {
            "positions": [
                0.35710614944691943,
                -1.9628557833138125,
                -1.8368592090117466,
                -1.4329264245101183,
                -1.2253254514222356,
                2.2746279856376903
            ]
        },
        {
            "positions": [
                0.3009865794827147,
                -1.9862435576138648,
                -1.8359444708354764,
                -1.562018121535381,
                -1.2811420895244148,
                2.4053616242129077
            ]
        },
        {
            "positions": [
                0.24486700951851015,
                -2.0096313319139174,
                -1.8350297326592064,
                -1.6911098185606432,
                -1.3369587276265942,
                2.536095262788125
            ]
        },
        {
            "positions": [
                0.1887474395543054,
                -2.03301910621397,
                -1.8341149944829362,
                -1.820201515585906,
                -1.3927753657287734,
                2.6668289013633424
            ]
        },
        {
            "positions": [
                0.13262786959010064,
                -2.0564068805140225,
                -1.8332002563066663,
                -1.9492932126111686,
                -1.4485920038309528,
                2.79756253993856
            ]
        },
        {
            "positions": [
                0.07650829962589589,
                -2.0797946548140747,
                -1.8322855181303963,
                -2.078384909636431,
                -1.504408641933132,
                2.9282961785137775
            ]
        },
        {
            "positions": [
                0.020388729661691363,
                -2.1031824291141272,
                -1.8313707799541261,
                -2.2074766066616935,
                -1.5602252800353114,
                3.059029817088995
            ]
        },
        {
            "positions": [
                -0.03573084030251334,
                -2.12657020341418,
                -1.8304560417778561,
                -2.336568303686956,
                -1.6160419181374905,
                3.1897634556642123
            ]
        }
    ]
}