{
    "goal": {
        "global_pose": {
            "orientation": {
                "w": 0.7031023502349854,
                "x": -0.7110244035720825,
                "y": 0.007748599164187908,
                "z": 0.005598929710686207
            },
            "position": {
                "x": 0.11585023208521307,
                "y": 0.44412534475326537,
                "z": 0.3711530566215515
            }
        },
        "name": "move_to_auspresseinheit_A"
    },
    "id": "RRTConnect_move_to_auspresseinheit_A_39",
    "joint_names": [
        "shoulder_pan_joint",
        "shoulder_lift_joint",
        "elbow_joint",
        "wrist_1_joint",
        "wrist_2_joint",
        "wrist_3_joint"
    ],
    "metrics": {
        "cart_traj_len": 2.0540646843937624,
        "distance_elbow_joint": 2.0690769791629875,
        "distance_shoulder_lift_joint": 0.8045825736431238,
        "distance_shoulder_pan_joint": 1.0463331973720489,
        "distance_wrist_1_joint": 0.5476649671935931,
        "distance_wrist_2_joint": 0.5115527374293479,
        "distance_wrist_3_joint": 0.5573957617555148,
        "smoothness": 1.0704693054470786,
        "time": 0.055905394,
        "traj_len": 2.3529994085329933,
        "weighted_distance": 2.7767994966670866
    },
    "planner": "RRTConnect",
    "start": {
        "state": {
            "elbow_joint": 2.4225746658250005,
            "shoulder_lift_joint": -1.3736534386056498,
            "shoulder_pan_joint": -0.3378633547517467,
            "wrist_1_joint": -1.0288598680537169,
            "wrist_2_joint": 1.233022673432363,
            "wrist_3_joint": -3.0940220416140027
        }
    },
    "waypoints": [
        {
            "positions": [
                -0.3378633547517467,
                -1.3736534386056498,
                2.4225746658250005,
                -1.0288598680537169,
                1.233022673432363,
                -3.0940220416140027
            ]
        },
        {
            "positions": [
                -0.3308750723274772,
                -1.4696749087349783,
                2.2730120777422638,
                -0.954599725145342,
                1.2140741754840478,
                -3.0567040968849404
            ]
        },
        {
            "positions": [
                -0.3238867899032077,
                -1.5656963788643066,
                2.123449489659527,
                -0.8803395822369672,
                1.1951256775357324,
                -3.0193861521558785
            ]
        },
        {
            "positions": [
                -0.31689850747893816,
                -1.661717848993635,
                1.9738869015767908,
                -0.8060794393285924,
                1.1761771795874172,
                -2.982068207426816
            ]
        },
        {
            "positions": [
                -0.30991022505466864,
                -1.7577393191229636,
                1.824324313494054,
                -0.7318192964202175,
                1.157228681639102,
                -2.944750262697754
            ]
        },
        {
            "positions": [
                -0.3029219426303991,
                -1.8537607892522918,
                1.6747617254113174,
                -0.6575591535118426,
                1.1382801836907868,
                -2.907432317968692
            ]
        },
        {
            "positions": [
                -0.2959336602061296,
                -1.9497822593816203,
                1.525199137328581,
                -0.5832990106034678,
                1.1193316857424713,
                -2.87011437323963
            ]
        },
        {
            "positions": [
                -0.2889453777818601,
                -2.045803729510949,
                1.3756365492458442,
                -0.5090388676950929,
                1.1003831877941561,
                -2.8327964285105676
            ]
        },
        {
            "positions": [
                -0.16530996124449704,
                -2.0293832090081962,
                1.5023359973321133,
                -0.505578724578625,
                1.0533978315169765,
                -2.869520641309155
            ]
        },
        {
            "positions": [
                -0.041674544707134,
                -2.012962688505444,
                1.6290354454183826,
                -0.5021185814621569,
                1.006412475239797,
                -2.9062448541077432
            ]
        },
        {
            "positions": [
                0.08196087183022904,
                -1.9965421680026916,
                1.7557348935046517,
                -0.498658438345689,
                0.9594271189626172,
                -2.942969066906331
            ]
        },
        {
            "positions": [
                0.20559628836759208,
                -1.9801216474999392,
                1.8824343415909208,
                -0.4951982952292211,
                0.9124417626854376,
                -2.979693279704919
            ]
        },
        {
            "positions": [
                0.3292317049049552,
                -1.963701126997187,
                2.00913378967719,
                -0.4917381521127531,
                0.8654564064082579,
                -3.0164174925035065
            ]
        },
        {
            "positions": [
                0.45286712144231817,
                -1.9472806064944344,
                2.135833237763459,
                -0.4882780089962852,
                0.8184710501310783,
                -3.0531417053020946
            ]
        },
        {
            "positions": [
                0.5765025379796813,
                -1.930860085991682,
                2.2625326858497283,
                -0.48481786587981723,
                0.7714856938538988,
                -3.0898659181006822
            ]
        },
        {
            "positions": [
                0.7084698426203022,
                -1.913371446773124,
                2.3977754118296755,
                -0.4811949008601237,
                0.7214699360030151,
                -3.128966577162647
            ]
        }
    ]
}