{
    "goal": {
        "global_pose": {
            "orientation": {
                "w": 0.005598929693374612,
                "x": 0.007748599140229565,
                "y": 0.7110244013736278,
                "z": -0.7031023480610252
            },
            "position": {
                "x": 0.1141497679147869,
                "y": -0.7141253447532654,
                "z": 0.3711530566215515
            }
        },
        "name": "move_to_auspresseinheit_B"
    },
    "id": "RRTConnect_move_to_auspresseinheit_B_46",
    "joint_names": [
        "shoulder_pan_joint",
        "shoulder_lift_joint",
        "elbow_joint",
        "wrist_1_joint",
        "wrist_2_joint",
        "wrist_3_joint"
    ],
    "metrics": {
        "cart_traj_len": 0.5649337974295542,
        "distance_elbow_joint": 0.06180027855101411,
        "distance_shoulder_lift_joint": 0.2942791609232298,
        "distance_shoulder_pan_joint": 0.575469413966474,
        "distance_wrist_1_joint": 0.32471811714983945,
        "distance_wrist_2_joint": 1.0070212611819989,
        "distance_wrist_3_joint": 5.670718809236419e-05,
        "smoothness": 0.0,
        "time": 0.059788627,
        "traj_len": 1.5044417366454073,
        "weighted_distance": 1.896100664961824
    },
    "planner": "RRTConnect",
    "start": {
        "state": {
            "elbow_joint": 2.0193083361928714,
            "shoulder_lift_joint": -1.1220246554650708,
            "shoulder_pan_joint": -1.0952077554168747,
            "wrist_1_joint": -0.8559753972642168,
            "wrist_2_joint": 0.4759566250798843,
            "wrist_3_joint": -3.1240929996934557
        }
    },
    "waypoints": [
        {
            "positions": [
                -1.0952077554168747,
                -1.1220246554650708,
                2.0193083361928714,
                -0.8559753972642168,
                0.4759566250798843,
                -3.1240929996934557
            ]
        },
        {
            "positions": [
                -1.191119324411287,
                -1.171071182285609,
                2.0090082897677024,
                -0.8018557110725769,
                0.6437935019435508,
                -3.124102450891471
            ]
        },
        {
            "positions": [
                -1.2870308934056993,
                -1.2201177091061475,
                1.9987082433425334,
                -0.7477360248809369,
                0.8116303788072172,
                -3.1241119020894863
            ]
        },
        {
            "positions": [
                -1.3829424624001116,
                -1.2691642359266857,
                1.9884081969173644,
                -0.6936163386892971,
                0.9794672556708837,
                -3.124121353287502
            ]
        },
        {
            "positions": [
                -1.478854031394524,
                -1.318210762747224,
                1.9781081504921953,
                -0.6394966524976572,
                1.14730413253455,
                -3.1241308044855174
            ]
        },
        {
            "positions": [
                -1.5747656003889363,
                -1.3672572895677624,
                1.9678081040670263,
                -0.5853769663060172,
                1.3151410093982168,
                -3.1241402556835327
            ]
        },
        {
            "positions": [
                -1.6706771693833486,
                -1.4163038163883006,
                1.9575080576418573,
                -0.5312572801143773,
                1.4829778862618832,
                -3.124149706881548
            ]
        }
    ]
}