{
    "goal": {
        "global_pose": {
            "orientation": {
                "w": -0.00223480608172531,
                "x": 0.0024358444001904467,
                "y": 0.7094548369677653,
                "z": -0.704743149386269
            },
            "position": {
                "x": 0.6205249238014221,
                "y": -0.6371506643295288,
                "z": 0.19426114857196808
            }
        },
        "name": "move_to_magneteinheit_B"
    },
    "id": "RRTConnect_move_to_magneteinheit_B_150",
    "joint_names": [
        "shoulder_pan_joint",
        "shoulder_lift_joint",
        "elbow_joint",
        "wrist_1_joint",
        "wrist_2_joint",
        "wrist_3_joint"
    ],
    "metrics": {
        "cart_traj_len": 3.8094476265367625,
        "distance_elbow_joint": 5.6838074450429525,
        "distance_shoulder_lift_joint": 1.6461795741021303,
        "distance_shoulder_pan_joint": 3.5058015914855924,
        "distance_wrist_1_joint": 4.884847414195806,
        "distance_wrist_2_joint": 0.585301382462385,
        "distance_wrist_3_joint": 3.139636543963418,
        "smoothness": 0.4890462425652783,
        "time": 0.250347447,
        "traj_len": 4.409713590614734,
        "weighted_distance": 5.585248054996065
    },
    "planner": "RRTConnect",
    "start": {
        "state": {
            "elbow_joint": 2.6216224122426386,
            "shoulder_lift_joint": -1.4174107377796124,
            "shoulder_pan_joint": 0.7066234856936794,
            "wrist_1_joint": 1.9546482284002225,
            "wrist_2_joint": -0.7096286983471962,
            "wrist_3_joint": 0.005740856962016249
        }
    },
    "waypoints": [
        {
            "positions": [
                0.7066234856936794,
                -1.4174107377796124,
                2.6216224122426386,
                1.9546482284002225,
                -0.7096286983471962,
                0.005740856962016249
            ]
        },
        {
            "positions": [
                0.6489753818907467,
                -1.4534702591688136,
                2.6236151553778884,
                1.9806333704101686,
                -0.7646403927515918,
                -0.07217892290505261
            ]
        },
        {
            "positions": [
                0.5913272780878138,
                -1.4895297805580148,
                2.625607898513138,
                2.006618512420115,
                -0.8196520871559874,
                -0.15009870277212145
            ]
        },
        {
            "positions": [
                0.5484253417245255,
                -1.5093058185532802,
                2.5350303584477745,
                1.9059675530410012,
                -0.7947747313471686,
                -0.25563631686886745
            ]
        },
        {
            "positions": [
                0.5055234053612372,
                -1.5290818565485456,
                2.444452818382411,
                1.8053165936618876,
                -0.7698973755383498,
                -0.3611739309656135
            ]
        },
        {
            "positions": [
                0.46262146899794876,
                -1.548857894543811,
                2.353875278317047,
                1.704665634282774,
                -0.7450200197295311,
                -0.46671154506235957
            ]
        },
        {
            "positions": [
                0.41971953263466044,
                -1.5686339325390763,
                2.2632977382516835,
                1.6040146749036603,
                -0.7201426639207124,
                -0.5722491591591056
            ]
        },
        {
            "positions": [
                0.3768175962713721,
                -1.5884099705343417,
                2.17272019818632,
                1.503363715524547,
                -0.6952653081118936,
                -0.6777867732558517
            ]
        },
        {
            "positions": [
                0.33391565990808375,
                -1.6081860085296071,
                2.082142658120956,
                1.4027127561454331,
                -0.6703879523030749,
                -0.7833243873525977
            ]
        },
        {
            "positions": [
                0.2910137235447954,
                -1.6279620465248725,
                1.9915651180555922,
                1.3020617967663197,
                -0.6455105964942561,
                -0.8888620014493438
            ]
        },
        {
            "positions": [
                0.24811178718150706,
                -1.6477380845201377,
                1.9009875779902288,
                1.201410837387206,
                -0.6206332406854373,
                -0.9943996155460897
            ]
        },
        {
            "positions": [
                0.20520985081821874,
                -1.667514122515403,
                1.8104100379248649,
                1.1007598780080925,
                -0.5957558848766186,
                -1.0999372296428358
            ]
        },
        {
            "positions": [
                0.16230791445493037,
                -1.6872901605106685,
                1.7198324978595012,
                1.0001089186289789,
                -0.5708785290677998,
                -1.205474843739582
            ]
        },
        {
            "positions": [
                0.11940597809164205,
                -1.7070661985059339,
                1.6292549577941378,
                0.8994579592498653,
                -0.5460011732589811,
                -1.3110124578363278
            ]
        },
        {
            "positions": [
                0.07650404172835365,
                -1.7268422365011993,
                1.5386774177287739,
                0.7988069998707517,
                -0.5211238174501623,
                -1.416550071933074
            ]
        },
        {
            "positions": [
                0.1675110879338287,
                -1.7122314999183166,
                1.4089904499373216,
                0.6839784133024468,
                -0.5233974939532031,
                -1.4514677282251642
            ]
        },
        {
            "positions": [
                0.2585181341393038,
                -1.6976207633354339,
                1.279303482145869,
                0.5691498267341419,
                -0.5256711704562438,
                -1.4863853845172543
            ]
        },
        {
            "positions": [
                0.34952518034477886,
                -1.6830100267525512,
                1.1496165143544168,
                0.45432124016583714,
                -0.5279448469592846,
                -1.5213030408093444
            ]
        },
        {
            "positions": [
                0.4405322265502539,
                -1.6683992901696685,
                1.0199295465629645,
                0.33949265359753233,
                -0.5302185234623253,
                -1.5562206971014347
            ]
        },
        {
            "positions": [
                0.531539272755729,
                -1.6537885535867858,
                0.890242578771512,
                0.22466406702922748,
                -0.5324921999653661,
                -1.591138353393525
            ]
        },
        {
            "positions": [
                0.622546318961204,
                -1.6391778170039029,
                0.7605556109800596,
                0.10983548046092262,
                -0.5347658764684068,
                -1.6260560096856151
            ]
        },
        {
            "positions": [
                0.7135533651666791,
                -1.6245670804210202,
                0.6308686431886072,
                -0.004993106107382239,
                -0.5370395529714476,
                -1.6609736659777052
            ]
        },
        {
            "positions": [
                0.8045604113721542,
                -1.6099563438381375,
                0.501181675397155,
                -0.11982169267568699,
                -0.5393132294744883,
                -1.6958913222697956
            ]
        },
        {
            "positions": [
                0.8955674575776292,
                -1.5953456072552548,
                0.3714947076057027,
                -0.23465027924399173,
                -0.5415869059775291,
                -1.7308089785618859
            ]
        },
        {
            "positions": [
                0.9865745037831043,
                -1.580734870672372,
                0.2418077398142502,
                -0.3494788658122967,
                -0.5438605824805698,
                -1.765726634853976
            ]
        },
        {
            "positions": [
                1.0775815499885792,
                -1.5661241340894894,
                0.11212077202279791,
                -0.46430745238060145,
                -0.5461342589836106,
                -1.800644291146066
            ]
        },
        {
            "positions": [
                1.1685885961940543,
                -1.5515133975066067,
                -0.01756619576865459,
                -0.5791360389489064,
                -0.5484079354866513,
                -1.8355619474381564
            ]
        },
        {
            "positions": [
                1.2595956423995294,
                -1.536902660923724,
                -0.14725316356010687,
                -0.6939646255172112,
                -0.5506816119896921,
                -1.8704796037302467
            ]
        },
        {
            "positions": [
                1.3506026886050044,
                -1.5222919243408413,
                -0.27694013135155937,
                -0.8087932120855161,
                -0.5529552884927328,
                -1.9053972600223368
            ]
        },
        {
            "positions": [
                1.4416097348104795,
                -1.5076811877579583,
                -0.40662709914301165,
                -0.9236217986538209,
                -0.5552289649957736,
                -1.9403149163144269
            ]
        },
        {
            "positions": [
                1.5326167810159546,
                -1.4930704511750756,
                -0.5363140669344639,
                -1.0384503852221256,
                -0.5575026414988143,
                -1.9752325726065172
            ]
        },
        {
            "positions": [
                1.6236238272214296,
                -1.478459714592193,
                -0.6660010347259162,
                -1.1532789717904306,
                -0.559776318001855,
                -2.0101502288986075
            ]
        },
        {
            "positions": [
                1.7146308734269047,
                -1.4638489780093102,
                -0.7956880025173685,
                -1.2681075583587351,
                -0.5620499945048958,
                -2.0450678851906976
            ]
        },
        {
            "positions": [
                1.8056379196323797,
                -1.4492382414264275,
                -0.9253749703088212,
                -1.3829361449270403,
                -0.5643236710079366,
                -2.0799855414827877
            ]
        },
        {
            "positions": [
                1.8966449658378548,
                -1.4346275048435448,
                -1.0550619381002735,
                -1.497764731495345,
                -0.5665973475109773,
                -2.1149031977748782
            ]
        },
        {
            "positions": [
                1.9876520120433296,
                -1.4200167682606621,
                -1.1847489058917258,
                -1.6125933180636498,
                -0.568871024014018,
                -2.1498208540669683
            ]
        },
        {
            "positions": [
                2.078659058248805,
                -1.4054060316777794,
                -1.314435873683178,
                -1.7274219046319546,
                -0.5711447005170588,
                -2.1847385103590584
            ]
        },
        {
            "positions": [
                2.16966610445428,
                -1.3907952950948967,
                -1.4441228414746308,
                -1.8422504912002597,
                -0.5734183770200996,
                -2.2196561666511485
            ]
        },
        {
            "positions": [
                2.260673150659755,
                -1.3761845585120138,
                -1.573809809266083,
                -1.9570790777685645,
                -0.5756920535231403,
                -2.2545738229432386
            ]
        },
        {
            "positions": [
                2.3516801968652303,
                -1.3615738219291313,
                -1.7034967770575353,
                -2.0719076643368695,
                -0.577965730026181,
                -2.289491479235329
            ]
        },
        {
            "positions": [
                2.442687243070705,
                -1.3469630853462484,
                -1.8331837448489876,
                -2.1867362509051738,
                -0.5802394065292218,
                -2.3244091355274192
            ]
        },
        {
            "positions": [
                2.5336942892761805,
                -1.3323523487633657,
                -1.9628707126404403,
                -2.301564837473479,
                -0.5825130830322626,
                -2.3593267918195093
            ]
        },
        {
            "positions": [
                2.6247013354816553,
                -1.317741612180483,
                -2.0925576804318924,
                -2.416393424041784,
                -0.5847867595353033,
                -2.3942444481116
            ]
        },
        {
            "positions": [
                2.7157083816871306,
                -1.3031308755976003,
                -2.222244648223345,
                -2.5312220106100884,
                -0.587060436038344,
                -2.42916210440369
            ]
        },
        {
            "positions": [
                2.8067154278926054,
                -1.2885201390147176,
                -2.351931616014797,
                -2.6460505971783936,
                -0.5893341125413848,
                -2.46407976069578
            ]
        },
        {
            "positions": [
                2.785933890556032,
                -1.4168667072852978,
                -2.251605552551294,
                -2.620306594238764,
                -0.5738284798475924,
                -2.5597677501680116
            ]
        },
        {
            "positions": [
                2.7651523532194586,
                -1.545213275555878,
                -2.151279489087791,
                -2.5945625912991344,
                -0.5583228471538001,
                -2.6554557396402436
            ]
        },
        {
            "positions": [
                2.7443708158828852,
                -1.6735598438264583,
                -2.050953425624288,
                -2.568818588359505,
                -0.5428172144600077,
                -2.751143729112475
            ]
        },
        {
            "positions": [
                2.7235892785463114,
                -1.8019064120970385,
                -1.950627362160785,
                -2.5430745854198755,
                -0.5273115817662154,
                -2.8468317185847067
            ]
        },
        {
            "positions": [
                2.702807741209738,
                -1.930252980367619,
                -1.850301298697282,
                -2.517330582480246,
                -0.511805949072423,
                -2.9425197080569383
            ]
        },
        {
            "positions": [
                2.6820262038731646,
                -2.058599548638199,
                -1.7499752352337792,
                -2.4915865795406162,
                -0.49630031637863076,
                -3.0382076975291703
            ]
        },
        {
            "positions": [
                2.661244666536591,
                -2.1869461169087794,
                -1.6496491717702761,
                -2.465842576600987,
                -0.4807946836848384,
                -3.133895687001402
            ]
        }
    ]
}