{
    "goal": {
        "global_pose": {
            "orientation": {
                "w": -0.00223480608172531,
                "x": 0.0024358444001904467,
                "y": 0.7094548369677653,
                "z": -0.704743149386269
            },
            "position": {
                "x": -0.37947507619857795,
                "y": -0.6371506643295288,
                "z": 0.19426114857196808
            }
        },
        "name": "move_to_magneteinheit_C"
    },
    "id": "RRTConnect_move_to_magneteinheit_C_99",
    "joint_names": [
        "shoulder_pan_joint",
        "shoulder_lift_joint",
        "elbow_joint",
        "wrist_1_joint",
        "wrist_2_joint",
        "wrist_3_joint"
    ],
    "metrics": {
        "cart_traj_len": 2.4331039329873114,
        "distance_elbow_joint": 1.9577261156733443,
        "distance_shoulder_lift_joint": 1.0790117423377008,
        "distance_shoulder_pan_joint": 2.2673158000205023,
        "distance_wrist_1_joint": 0.4331187634718584,
        "distance_wrist_2_joint": 2.630844312548278,
        "distance_wrist_3_joint": 2.2013053483652048,
        "smoothness": 1.8295502375125017,
        "time": 0.15164498399999998,
        "traj_len": 3.251049381725367,
        "weighted_distance": 4.246868947256018
    },
    "planner": "RRTConnect",
    "start": {
        "state": {
            "elbow_joint": 1.9565354010623817,
            "shoulder_lift_joint": -1.4165861575791021,
            "shoulder_pan_joint": -1.6717766225146293,
            "wrist_1_joint": -0.5286633292919765,
            "wrist_2_joint": 1.472756589071564,
            "wrist_3_joint": -3.1238370188695823
        }
    },
    "waypoints": [
        {
            "positions": [
                -1.6717766225146293,
                -1.4165861575791021,
                1.9565354010623817,
                -0.5286633292919765,
                1.472756589071564,
                -3.1238370188695823
            ]
        },
        {
            "positions": [
                -1.6069527925703009,
                -1.4312768920914363,
                1.952452131690374,
                -0.5333927948134627,
                1.4207454954847758,
                -3.1039274121381846
            ]
        },
        {
            "positions": [
                -1.5445251447614052,
                -1.4481578682982064,
                1.8539911509187628,
                -0.5559556879173498,
                1.3226153105542233,
                -3.032610820981239
            ]
        },
        {
            "positions": [
                -1.4820974969525096,
                -1.4650388445049767,
                1.7555301701471517,
                -0.5785185810212369,
                1.2244851256236706,
                -2.961294229824293
            ]
        },
        {
            "positions": [
                -1.419669849143614,
                -1.4819198207117468,
                1.6570691893755405,
                -0.601081474125124,
                1.1263549406931181,
                -2.8899776386673475
            ]
        },
        {
            "positions": [
                -1.3572422013347183,
                -1.4988007969185169,
                1.5586082086039295,
                -0.6236443672290112,
                1.0282247557625657,
                -2.8186610475104015
            ]
        },
        {
            "positions": [
                -1.2948145535258226,
                -1.515681773125287,
                1.4601472278323182,
                -0.6462072603328983,
                0.930094570832013,
                -2.747344456353456
            ]
        },
        {
            "positions": [
                -1.232386905716927,
                -1.5325627493320573,
                1.3616862470607072,
                -0.6687701534367854,
                0.8319643859014604,
                -2.6760278651965104
            ]
        },
        {
            "positions": [
                -1.1699592579080313,
                -1.5494437255388274,
                1.263225266289096,
                -0.6913330465406725,
                0.7338342009709078,
                -2.6047112740395644
            ]
        },
        {
            "positions": [
                -1.3123800092526108,
                -1.5640118955094564,
                1.3186859446849128,
                -0.6852677953569851,
                0.6423349951390313,
                -2.541695744024083
            ]
        },
        {
            "positions": [
                -1.4548007605971902,
                -1.5785800654800857,
                1.3741466230807295,
                -0.6792025441732978,
                0.5508357893071547,
                -2.4786802140086017
            ]
        },
        {
            "positions": [
                -1.5972215119417696,
                -1.5931482354507147,
                1.4296073014765465,
                -0.6731372929896104,
                0.4593365834752782,
                -2.415664683993121
            ]
        },
        {
            "positions": [
                -1.739642263286349,
                -1.607716405421344,
                1.4850679798723632,
                -0.667072041805923,
                0.3678373776434017,
                -2.3526491539776395
            ]
        },
        {
            "positions": [
                -1.882063014630929,
                -1.622284575391973,
                1.54052865826818,
                -0.6610067906222358,
                0.27633817181152515,
                -2.289633623962158
            ]
        },
        {
            "positions": [
                -2.024483765975508,
                -1.6368527453626023,
                1.5959893366639968,
                -0.6549415394385484,
                0.18483896597964866,
                -2.226618093946677
            ]
        },
        {
            "positions": [
                -2.166904517320088,
                -1.6514209153332313,
                1.6514500150598137,
                -0.648876288254861,
                0.09333976014777212,
                -2.163602563931196
            ]
        },
        {
            "positions": [
                -2.309325268664667,
                -1.6659890853038606,
                1.7069106934556304,
                -0.6428110370711737,
                0.0018405543158955817,
                -2.1005870339157147
            ]
        },
        {
            "positions": [
                -2.4517460200092467,
                -1.6805572552744896,
                1.7623713718514473,
                -0.6367457858874863,
                -0.08965865151598096,
                -2.0375715039002333
            ]
        },
        {
            "positions": [
                -2.470460858060882,
                -1.619054135915578,
                1.822127189433041,
                -0.6374348660338077,
                -0.0015656176042765924,
                -2.17926876474973
            ]
        },
        {
            "positions": [
                -2.4891756961125173,
                -1.5575510165566662,
                1.8818830070146348,
                -0.6381239461801291,
                0.08652741630742777,
                -2.320966025599227
            ]
        },
        {
            "positions": [
                -2.507890534164153,
                -1.4960478971977542,
                1.9416388245962284,
                -0.6388130263264507,
                0.17462045021913208,
                -2.4626632864487235
            ]
        },
        {
            "positions": [
                -2.5266053722157884,
                -1.4345447778388425,
                2.0013946421778224,
                -0.6395021064727721,
                0.2627134841308365,
                -2.6043605472982203
            ]
        },
        {
            "positions": [
                -2.5453202102674237,
                -1.3730416584799308,
                2.061150459759416,
                -0.6401911866190935,
                0.3508065180425408,
                -2.746057808147717
            ]
        },
        {
            "positions": [
                -2.598661380216267,
                -1.2533521824540654,
                1.9752912737723558,
                -0.6573501495098454,
                0.29838141718875405,
                -2.7429632133395225
            ]
        },
        {
            "positions": [
                -2.6520025501651103,
                -1.1336627064282003,
                1.8894320877852955,
                -0.6745091124005972,
                0.24595631633496728,
                -2.739868618531328
            ]
        },
        {
            "positions": [
                -2.7053437201139534,
                -1.013973230402335,
                1.8035729017982354,
                -0.6916680752913491,
                0.19353121548118052,
                -2.7367740237231333
            ]
        },
        {
            "positions": [
                -2.659320925472357,
                -1.0436645543563667,
                1.845355547691947,
                -0.7238559745245717,
                0.28766893544935074,
                -2.8162279726678907
            ]
        },
        {
            "positions": [
                -2.613298130830761,
                -1.0733558783103985,
                1.8871381935856586,
                -0.7560438737577945,
                0.381806655417521,
                -2.8956819216126486
            ]
        },
        {
            "positions": [
                -2.567275336189164,
                -1.1030472022644302,
                1.9289208394793702,
                -0.7882317729910171,
                0.4759443753856912,
                -2.975135870557406
            ]
        },
        {
            "positions": [
                -2.5212525415475677,
                -1.132738526218462,
                1.9707034853730818,
                -0.8204196722242398,
                0.5700820953538615,
                -3.054589819502164
            ]
        },
        {
            "positions": [
                -2.4752297469059714,
                -1.1624298501724937,
                2.0124861312667934,
                -0.8526075714574625,
                0.6642198153220317,
                -3.1340437684469213
            ]
        }
    ]
}