{
    "goal": {
        "global_pose": {
            "orientation": {
                "w": -0.4816463035849501,
                "x": 0.5182115481033762,
                "y": 0.4908360881923453,
                "z": -0.5084816262002911
            },
            "position": {
                "x": -0.8240239810943604,
                "y": 0.19912469901144506,
                "z": 0.16403168439865112
            }
        },
        "name": "move_to_storage_D"
    },
    "id": "RRTConnect_move_to_storage_D_80",
    "joint_names": [
        "shoulder_pan_joint",
        "shoulder_lift_joint",
        "elbow_joint",
        "wrist_1_joint",
        "wrist_2_joint",
        "wrist_3_joint"
    ],
    "metrics": {
        "cart_traj_len": 0.5541306296412897,
        "distance_elbow_joint": 0.5844538660866174,
        "distance_shoulder_lift_joint": 0.15135187949079665,
        "distance_shoulder_pan_joint": 0.14983335792210478,
        "distance_wrist_1_joint": 3.8204257944561624,
        "distance_wrist_2_joint": 1.7902469775840415,
        "distance_wrist_3_joint": 3.1201134853135386,
        "smoothness": 0.051947921668616975,
        "time": 0.096816829,
        "traj_len": 3.1010361753538547,
        "weighted_distance": 4.633284483335827
    },
    "planner": "RRTConnect",
    "start": {
        "state": {
            "elbow_joint": -2.384821988534728,
            "shoulder_lift_joint": -2.2788054721415256,
            "shoulder_pan_joint": -0.1854694642142757,
            "wrist_1_joint": 1.4845938289331202,
            "wrist_2_joint": 0.17898776772866878,
            "wrist_3_joint": 0.037105688729662994
        }
    },
    "waypoints": [
        {
            "positions": [
                -0.1854694642142757,
                -2.2788054721415256,
                -2.384821988534728,
                1.4845938289331202,
                0.17898776772866878,
                0.037105688729662994
            ]
        },
        {
            "positions": [
                -0.11133534017550012,
                -2.193918491057042,
                -2.3999960471801263,
                1.4547507028600766,
                0.14378737534291391,
                -0.06422390349561617
            ]
        },
        {
            "positions": [
                -0.1081812054303614,
                -2.1911491202901123,
                -2.376276055203409,
                1.2968097583441134,
                0.07066043429298531,
                -0.19000656570762697
            ]
        },
        {
            "positions": [
                -0.10502707068522268,
                -2.188379749523183,
                -2.3525560632266913,
                1.13886881382815,
                -0.002466506756943293,
                -0.31578922791963776
            ]
        },
        {
            "positions": [
                -0.10187293594008397,
                -2.185610378756253,
                -2.328836071249974,
                0.9809278693121868,
                -0.07559344780687191,
                -0.4415718901316486
            ]
        },
        {
            "positions": [
                -0.09871880119494525,
                -2.1828410079893232,
                -2.3051160792732563,
                0.8229869247962235,
                -0.1487203888568005,
                -0.5673545523436593
            ]
        },
        {
            "positions": [
                -0.09556466644980652,
                -2.1800716372223934,
                -2.281396087296539,
                0.6650459802802602,
                -0.22184732990672912,
                -0.6931372145556702
            ]
        },
        {
            "positions": [
                -0.09241053170466781,
                -2.177302266455464,
                -2.2576760953198214,
                0.5071050357642969,
                -0.29497427095665774,
                -0.818919876767681
            ]
        },
        {
            "positions": [
                -0.08925639695952908,
                -2.174532895688534,
                -2.233956103343104,
                0.3491640912483336,
                -0.36810121200658635,
                -0.9447025389796918
            ]
        },
        {
            "positions": [
                -0.08610226221439038,
                -2.1717635249216043,
                -2.2102361113663864,
                0.1912231467323704,
                -0.4412281530565149,
                -1.0704852011917025
            ]
        },
        {
            "positions": [
                -0.08294812746925165,
                -2.168994154154675,
                -2.186516119389669,
                0.033282202216406986,
                -0.5143550941064436,
                -1.1962678634037136
            ]
        },
        {
            "positions": [
                -0.07979399272411293,
                -2.166224783387745,
                -2.1627961274129515,
                -0.1246587422995562,
                -0.5874820351563721,
                -1.3220505256157244
            ]
        },
        {
            "positions": [
                -0.07663985797897421,
                -2.163455412620815,
                -2.139076135436234,
                -0.2825996868155194,
                -0.6606089762063008,
                -1.447833187827735
            ]
        },
        {
            "positions": [
                -0.0734857232338355,
                -2.160686041853886,
                -2.1153561434595165,
                -0.4405406313314828,
                -0.7337359172562294,
                -1.573615850039746
            ]
        },
        {
            "positions": [
                -0.07033158848869678,
                -2.157916671086956,
                -2.0916361514827995,
                -0.5984815758474458,
                -0.8068628583061579,
                -1.6993985122517565
            ]
        },
        {
            "positions": [
                -0.06717745374355805,
                -2.155147300320026,
                -2.0679161595060815,
                -0.7564225203634094,
                -0.8799897993560866,
                -1.8251811744637676
            ]
        },
        {
            "positions": [
                -0.06402331899841934,
                -2.1523779295530963,
                -2.0441961675293645,
                -0.9143634648793726,
                -0.9531167404060152,
                -1.9509638366757782
            ]
        },
        {
            "positions": [
                -0.060869184253280625,
                -2.149608558786167,
                -2.020476175552647,
                -1.0723044093953358,
                -1.0262436814559437,
                -2.076746498887789
            ]
        },
        {
            "positions": [
                -0.0577150495081419,
                -2.146839188019237,
                -1.9967561835759293,
                -1.2302453539112994,
                -1.0993706225058724,
                -2.2025291610998
            ]
        },
        {
            "positions": [
                -0.054560914763003183,
                -2.144069817252307,
                -1.973036191599212,
                -1.3881862984272626,
                -1.172497563555801,
                -2.328311823311811
            ]
        },
        {
            "positions": [
                -0.051406780017864466,
                -2.1413004464853778,
                -1.9493161996224946,
                -1.5461272429432258,
                -1.2456245046057295,
                -2.4540944855238216
            ]
        },
        {
            "positions": [
                -0.04825264527272574,
                -2.138531075718448,
                -1.925596207645777,
                -1.704068187459189,
                -1.3187514456556582,
                -2.5798771477358327
            ]
        },
        {
            "positions": [
                -0.045098510527587024,
                -2.135761704951518,
                -1.9018762156690596,
                -1.8620091319751522,
                -1.3918783867055868,
                -2.7056598099478433
            ]
        },
        {
            "positions": [
                -0.04194437578244831,
                -2.1329923341845882,
                -1.8781562236923421,
                -2.0199500764911154,
                -1.4650053277555153,
                -2.831442472159854
            ]
        },
        {
            "positions": [
                -0.03879024103730959,
                -2.130222963417659,
                -1.8544362317156247,
                -2.177891021007079,
                -1.5381322688054442,
                -2.957225134371865
            ]
        },
        {
            "positions": [
                -0.03563610629217087,
                -2.127453592650729,
                -1.8307162397389072,
                -2.335831965523042,
                -1.6112592098553726,
                -3.0830077965838756
            ]
        }
    ]
}