{
    "goal": {
        "global_pose": {
            "orientation": {
                "w": 0.005598929693374612,
                "x": 0.007748599140229565,
                "y": 0.7110244013736278,
                "z": -0.7031023480610252
            },
            "position": {
                "x": 0.1141497679147869,
                "y": -0.7141253447532654,
                "z": 0.3711530566215515
            }
        },
        "name": "move_to_auspresseinheit_B"
    },
    "id": "RRTConnect_move_to_auspresseinheit_B_80",
    "joint_names": [
        "shoulder_pan_joint",
        "shoulder_lift_joint",
        "elbow_joint",
        "wrist_1_joint",
        "wrist_2_joint",
        "wrist_3_joint"
    ],
    "metrics": {
        "cart_traj_len": 0.5642873449891609,
        "distance_elbow_joint": 0.06535502920815395,
        "distance_shoulder_lift_joint": 0.2938761368066709,
        "distance_shoulder_pan_joint": 0.577722464779926,
        "distance_wrist_1_joint": 0.33887074276954754,
        "distance_wrist_2_joint": 0.9878636842562156,
        "distance_wrist_3_joint": 0.003401900966156113,
        "smoothness": 5.075305255429287e-16,
        "time": 0.07171392700000001,
        "traj_len": 1.5056858765315793,
        "weighted_distance": 1.8975321308859951
    },
    "planner": "RRTConnect",
    "start": {
        "state": {
            "elbow_joint": 2.0193083361928714,
            "shoulder_lift_joint": -1.1220246554650708,
            "shoulder_pan_joint": -1.0952077554168747,
            "wrist_1_joint": -0.8559753972642168,
            "wrist_2_joint": 0.4759566250798843,
            "wrist_3_joint": -3.1240929996934557
        }
    },
    "waypoints": [
        {
            "positions": [
                -1.0952077554168747,
                -1.1220246554650708,
                2.0193083361928714,
                -0.8559753972642168,
                0.4759566250798843,
                -3.1240929996934557
            ]
        },
        {
            "positions": [
                -1.1914948328801955,
                -1.171004011599516,
                2.0084158313248457,
                -0.7994969401359588,
                0.6406005724559203,
                -3.124659983187815
            ]
        },
        {
            "positions": [
                -1.2877819103435166,
                -1.219983367733961,
                1.9975233264568202,
                -0.7430184830077009,
                0.8052445198319562,
                -3.1252269666821744
            ]
        },
        {
            "positions": [
                -1.3840689878068377,
                -1.2689627238684063,
                1.9866308215887944,
                -0.686540025879443,
                0.9698884672079922,
                -3.1257939501765337
            ]
        },
        {
            "positions": [
                -1.4803560652701586,
                -1.3179420800028514,
                1.9757383167207687,
                -0.6300615687511851,
                1.134532414584028,
                -3.126360933670893
            ]
        },
        {
            "positions": [
                -1.5766431427334795,
                -1.3669214361372966,
                1.9648458118527432,
                -0.5735831116229271,
                1.299176361960064,
                -3.1269279171652524
            ]
        },
        {
            "positions": [
                -1.6729302201968006,
                -1.4159007922717417,
                1.9539533069847175,
                -0.5171046544946692,
                1.4638203093361,
                -3.1274949006596118
            ]
        }
    ]
}