{
    "goal": {
        "global_pose": {
            "orientation": {
                "w": -0.00223480608172531,
                "x": 0.0024358444001904467,
                "y": 0.7094548369677653,
                "z": -0.704743149386269
            },
            "position": {
                "x": -0.37947507619857795,
                "y": -0.6371506643295288,
                "z": 0.19426114857196808
            }
        },
        "name": "move_to_magneteinheit_C"
    },
    "id": "RRTConnect_move_to_magneteinheit_C_132",
    "joint_names": [
        "shoulder_pan_joint",
        "shoulder_lift_joint",
        "elbow_joint",
        "wrist_1_joint",
        "wrist_2_joint",
        "wrist_3_joint"
    ],
    "metrics": {
        "cart_traj_len": 0.836815714866411,
        "distance_elbow_joint": 1.4010754007872266,
        "distance_shoulder_lift_joint": 0.49411700455725716,
        "distance_shoulder_pan_joint": 0.9958688625697409,
        "distance_wrist_1_joint": 0.9791119645714184,
        "distance_wrist_2_joint": 0.8006386741271637,
        "distance_wrist_3_joint": 0.6161698326207743,
        "smoothness": 1.4024428149042572,
        "time": 0.048730561,
        "traj_len": 2.299343762736138,
        "weighted_distance": 2.8808110044176294
    },
    "planner": "RRTConnect",
    "start": {
        "state": {
            "elbow_joint": 1.9565354010623817,
            "shoulder_lift_joint": -1.4165861575791021,
            "shoulder_pan_joint": -1.6717766225146293,
            "wrist_1_joint": -0.5286633292919765,
            "wrist_2_joint": 1.472756589071564,
            "wrist_3_joint": -3.1238370188695823
        }
    },
    "waypoints": [
        {
            "positions": [
                -1.6717766225146293,
                -1.4165861575791021,
                1.9565354010623817,
                -0.5286633292919765,
                1.472756589071564,
                -3.1238370188695823
            ]
        },
        {
            "positions": [
                -1.7840685272963106,
                -1.4316175140559728,
                2.047275566938917,
                -0.6081736038954277,
                1.4148090161287548,
                -3.1639212669497234
            ]
        },
        {
            "positions": [
                -1.8963604320779917,
                -1.4466488705328435,
                2.138015732815453,
                -0.687683878498879,
                1.3568614431859458,
                -3.204005515029865
            ]
        },
        {
            "positions": [
                -2.008652336859673,
                -1.4616802270097142,
                2.2287558986919884,
                -0.7671941531023302,
                1.2989138702431369,
                -3.244089763110006
            ]
        },
        {
            "positions": [
                -2.120944241641354,
                -1.4767115834865852,
                2.319496064568524,
                -0.8467044277057815,
                1.2409662973003277,
                -3.2841740111901476
            ]
        },
        {
            "positions": [
                -2.2332361464230353,
                -1.4917429399634559,
                2.4102362304450597,
                -0.9262147023092328,
                1.1830187243575185,
                -3.3242582592702887
            ]
        },
        {
            "positions": [
                -2.3455280512047167,
                -1.5067742964403266,
                2.500976396321595,
                -1.005724976912684,
                1.1250711514147096,
                -3.36434250735043
            ]
        },
        {
            "positions": [
                -2.457819955986398,
                -1.5218056529171973,
                2.5917165621981306,
                -1.0852352515161352,
                1.0671235784719006,
                -3.4044267554305714
            ]
        },
        {
            "positions": [
                -2.570111860768079,
                -1.536837009394068,
                2.6824567280746665,
                -1.1647455261195865,
                1.0091760055290915,
                -3.4445110035107125
            ]
        },
        {
            "positions": [
                -2.5538562567153638,
                -1.4745259839370195,
                2.569931049112176,
                -1.1075738981622851,
                0.9529996570983096,
                -3.395261695514105
            ]
        },
        {
            "positions": [
                -2.5376006526626482,
                -1.4122149584799708,
                2.457405370149686,
                -1.0504022702049838,
                0.8968233086675277,
                -3.3460123875174976
            ]
        },
        {
            "positions": [
                -2.521345048609933,
                -1.3499039330229223,
                2.3448796911871956,
                -0.9932306422476823,
                0.8406469602367459,
                -3.2967630795208906
            ]
        },
        {
            "positions": [
                -2.505089444557218,
                -1.2875929075658739,
                2.232354012224705,
                -0.936059014290381,
                0.784470611805964,
                -3.247513771524283
            ]
        },
        {
            "positions": [
                -2.4888338405045025,
                -1.2252818821088252,
                2.119828333262215,
                -0.8788873863330795,
                0.7282942633751821,
                -3.198264463527676
            ]
        },
        {
            "positions": [
                -2.4725782364517874,
                -1.1629708566517767,
                2.0073026542997248,
                -0.8217157583757781,
                0.6721179149444002,
                -3.1490151555310684
            ]
        }
    ]
}