{
    "goal": {
        "global_pose": {
            "orientation": {
                "w": 0.5084816262002911,
                "x": -0.4908360881923452,
                "y": 0.5182115481033761,
                "z": -0.48164630358495003
            },
            "position": {
                "x": 0.5540239810943604,
                "y": -0.46912469901144505,
                "z": 0.16403168439865112
            }
        },
        "name": "move_to_storage_B"
    },
    "id": "RRTConnect_move_to_storage_B_73",
    "joint_names": [
        "shoulder_pan_joint",
        "shoulder_lift_joint",
        "elbow_joint",
        "wrist_1_joint",
        "wrist_2_joint",
        "wrist_3_joint"
    ],
    "metrics": {
        "cart_traj_len": 0.7256360247496887,
        "distance_elbow_joint": 0.3540543380636052,
        "distance_shoulder_lift_joint": 0.461059847353541,
        "distance_shoulder_pan_joint": 0.4527758371201077,
        "distance_wrist_1_joint": 3.1821915425594005,
        "distance_wrist_2_joint": 2.9008407363154936,
        "distance_wrist_3_joint": 3.555176872546294,
        "smoothness": 0.6881113266616448,
        "time": 0.117918494,
        "traj_len": 3.3024383679273175,
        "weighted_distance": 4.909122650527885
    },
    "planner": "RRTConnect",
    "start": {
        "state": {
            "elbow_joint": 1.664937868594044,
            "shoulder_lift_joint": -0.661644460510453,
            "shoulder_pan_joint": -0.9139846352900073,
            "wrist_1_joint": 2.146753192139373,
            "wrist_2_joint": -2.2341966793290973,
            "wrist_3_joint": 0.005466555786416001
        }
    },
    "waypoints": [
        {
            "positions": [
                -0.9139846352900073,
                -0.661644460510453,
                1.664937868594044,
                2.146753192139373,
                -2.2341966793290973,
                0.005466555786416001
            ]
        },
        {
            "positions": [
                -0.8460110483161549,
                -0.6963557467015092,
                1.7299130071356055,
                2.190541595448261,
                -2.2824578020306543,
                0.11411412968682655
            ]
        },
        {
            "positions": [
                -0.7780374613423027,
                -0.7310670328925655,
                1.794888145677167,
                2.2343299987571483,
                -2.3307189247322113,
                0.2227617035872371
            ]
        },
        {
            "positions": [
                -0.7902231791566259,
                -0.7461300050068512,
                1.8035075326379548,
                2.115306355067086,
                -2.222860521235581,
                0.09438163725087276
            ]
        },
        {
            "positions": [
                -0.8024088969709491,
                -0.7611929771211369,
                1.8121269195987426,
                1.9962827113770234,
                -2.1150021177389515,
                -0.03399842908549158
            ]
        },
        {
            "positions": [
                -0.8145946147852723,
                -0.7762559492354226,
                1.8207463065595304,
                1.8772590676869607,
                -2.0071437142423214,
                -0.16237849542185592
            ]
        },
        {
            "positions": [
                -0.8267803325995955,
                -0.7913189213497083,
                1.8293656935203182,
                1.7582354239968983,
                -1.8992853107456913,
                -0.29075856175822024
            ]
        },
        {
            "positions": [
                -0.8389660504139187,
                -0.806381893463994,
                1.837985080481106,
                1.6392117803068356,
                -1.7914269072490614,
                -0.4191386280945846
            ]
        },
        {
            "positions": [
                -0.8511517682282419,
                -0.8214448655782798,
                1.8466044674418938,
                1.520188136616773,
                -1.6835685037524315,
                -0.5475186944309489
            ]
        },
        {
            "positions": [
                -0.863337486042565,
                -0.8365078376925654,
                1.8552238544026813,
                1.4011644929267106,
                -1.5757101002558014,
                -0.6758987607673133
            ]
        },
        {
            "positions": [
                -0.8755232038568882,
                -0.8515708098068512,
                1.8638432413634691,
                1.2821408492366482,
                -1.4678516967591713,
                -0.8042788271036776
            ]
        },
        {
            "positions": [
                -0.8877089216712114,
                -0.8666337819211369,
                1.872462628324257,
                1.1631172055465857,
                -1.3599932932625416,
                -0.9326588934400419
            ]
        },
        {
            "positions": [
                -0.8998946394855346,
                -0.8816967540354226,
                1.8810820152850447,
                1.044093561856523,
                -1.2521348897659115,
                -1.0610389597764063
            ]
        },
        {
            "positions": [
                -0.9120803572998578,
                -0.8967597261497083,
                1.8897014022458325,
                0.9250699181664608,
                -1.1442764862692816,
                -1.1894190261127706
            ]
        },
        {
            "positions": [
                -0.924266075114181,
                -0.9118226982639941,
                1.8983207892066203,
                0.8060462744763981,
                -1.0364180827726515,
                -1.317799092449135
            ]
        },
        {
            "positions": [
                -0.9364517929285042,
                -0.9268856703782797,
                1.906940176167408,
                0.6870226307863356,
                -0.9285596792760216,
                -1.4461791587854993
            ]
        },
        {
            "positions": [
                -0.9486375107428274,
                -0.9419486424925654,
                1.9155595631281959,
                0.5679989870962732,
                -0.8207012757793917,
                -1.5745592251218636
            ]
        },
        {
            "positions": [
                -0.9608232285571506,
                -0.9570116146068511,
                1.9241789500889837,
                0.4489753434062107,
                -0.7128428722827618,
                -1.7029392914582278
            ]
        },
        {
            "positions": [
                -0.9730089463714738,
                -0.9720745867211369,
                1.9327983370497714,
                0.329951699716148,
                -0.6049844687861314,
                -1.8313193577945923
            ]
        },
        {
            "positions": [
                -0.985194664185797,
                -0.9871375588354225,
                1.9414177240105592,
                0.21092805602608555,
                -0.49712606528950154,
                -1.9596994241309567
            ]
        },
        {
            "positions": [
                -0.9973803820001201,
                -1.0022005309497084,
                1.950037110971347,
                0.09190441233602309,
                -0.38926766179287164,
                -2.088079490467321
            ]
        },
        {
            "positions": [
                -1.0095660998144433,
                -1.017263503063994,
                1.9586564979321346,
                -0.027119231354039375,
                -0.28140925829624175,
                -2.2164595568036853
            ]
        },
        {
            "positions": [
                -1.0217518176287665,
                -1.0323264751782797,
                1.9672758848929224,
                -0.14614287504410228,
                -0.17355085479961163,
                -2.3448396231400497
            ]
        },
        {
            "positions": [
                -1.0339375354430898,
                -1.0473894472925656,
                1.9758952718537102,
                -0.26516651873416475,
                -0.06569245130298151,
                -2.473219689476414
            ]
        },
        {
            "positions": [
                -1.046123253257413,
                -1.0624524194068512,
                1.984514658814498,
                -0.38419016242422677,
                0.04216595219364816,
                -2.6015997558127784
            ]
        },
        {
            "positions": [
                -1.0583089710717362,
                -1.0775153915211368,
                1.9931340457752857,
                -0.5032138061142892,
                0.15002435569027828,
                -2.7299798221491427
            ]
        },
        {
            "positions": [
                -1.0704946888860594,
                -1.0925783636354227,
                2.0017534327360735,
                -0.6222374498043521,
                0.2578827591869084,
                -2.858359888485507
            ]
        },
        {
            "positions": [
                -1.0826804067003826,
                -1.1076413357497084,
                2.0103728196968613,
                -0.7412610934944146,
                0.36574116268353807,
                -2.9867399548218714
            ]
        },
        {
            "positions": [
                -1.0948661245147058,
                -1.122704307863994,
                2.018992206657649,
                -0.8602847371844771,
                0.47359956618016835,
                -3.1151200211582357
            ]
        }
    ]
}