{
    "goal": {
        "global_pose": {
            "orientation": {
                "w": 0.5084816262002911,
                "x": -0.4908360881923452,
                "y": 0.5182115481033761,
                "z": -0.48164630358495003
            },
            "position": {
                "x": 0.5540239810943604,
                "y": -0.46912469901144505,
                "z": 0.16403168439865112
            }
        },
        "name": "move_to_storage_B"
    },
    "id": "RRTConnect_move_to_storage_B_30",
    "joint_names": [
        "shoulder_pan_joint",
        "shoulder_lift_joint",
        "elbow_joint",
        "wrist_1_joint",
        "wrist_2_joint",
        "wrist_3_joint"
    ],
    "metrics": {
        "cart_traj_len": 0.891739406331579,
        "distance_elbow_joint": 0.3470660345528276,
        "distance_shoulder_lift_joint": 0.45758917150733924,
        "distance_shoulder_pan_joint": 0.7400777938096167,
        "distance_wrist_1_joint": 2.9766590399449933,
        "distance_wrist_2_joint": 2.797417971920373,
        "distance_wrist_3_joint": 3.139500416409169,
        "smoothness": 0.11393274201358841,
        "time": 0.092625506,
        "traj_len": 3.2339311106058393,
        "weighted_distance": 4.744616767751429
    },
    "planner": "RRTConnect",
    "start": {
        "state": {
            "elbow_joint": 1.664937868594044,
            "shoulder_lift_joint": -0.661644460510453,
            "shoulder_pan_joint": -0.9139846352900073,
            "wrist_1_joint": 2.146753192139373,
            "wrist_2_joint": -2.2341966793290973,
            "wrist_3_joint": 0.005466555786416001
        }
    },
    "waypoints": [
        {
            "positions": [
                -0.9139846352900073,
                -0.661644460510453,
                1.664937868594044,
                2.146753192139373,
                -2.2341966793290973,
                0.005466555786416001
            ]
        },
        {
            "positions": [
                -0.8211679432005894,
                -0.7365940851820323,
                1.6796751525359508,
                2.1393942719937877,
                -2.250732707459965,
                -0.128596377851428
            ]
        },
        {
            "positions": [
                -0.7283512511111714,
                -0.8115437098536116,
                1.6944124364778574,
                2.132035351848202,
                -2.2672687355908323,
                -0.26265931148927196
            ]
        },
        {
            "positions": [
                -0.6355345590217535,
                -0.8864933345251909,
                1.7091497204197643,
                2.1246764317026163,
                -2.2838047637217,
                -0.39672224512711596
            ]
        },
        {
            "positions": [
                -0.6547690472526436,
                -0.8961908469207159,
                1.7217686447000604,
                2.0015688367231066,
                -2.1693126850747095,
                -0.5107768957727675
            ]
        },
        {
            "positions": [
                -0.6740035354835338,
                -0.905888359316241,
                1.7343875689803565,
                1.8784612417435966,
                -2.054820606427719,
                -0.624831546418419
            ]
        },
        {
            "positions": [
                -0.6932380237144239,
                -0.915585871711766,
                1.7470064932606526,
                1.7553536467640867,
                -1.9403285277807287,
                -0.7388861970640705
            ]
        },
        {
            "positions": [
                -0.7124725119453139,
                -0.925283384107291,
                1.759625417540949,
                1.632246051784577,
                -1.8258364491337384,
                -0.852940847709722
            ]
        },
        {
            "positions": [
                -0.731707000176204,
                -0.9349808965028161,
                1.772244341821245,
                1.5091384568050672,
                -1.711344370486748,
                -0.9669954983553737
            ]
        },
        {
            "positions": [
                -0.7509414884070942,
                -0.9446784088983412,
                1.7848632661015411,
                1.3860308618255572,
                -1.5968522918397574,
                -1.0810501490010251
            ]
        },
        {
            "positions": [
                -0.7701759766379843,
                -0.9543759212938663,
                1.7974821903818372,
                1.2629232668460473,
                -1.482360213192767,
                -1.1951047996466766
            ]
        },
        {
            "positions": [
                -0.7894104648688745,
                -0.9640734336893914,
                1.8101011146621333,
                1.1398156718665375,
                -1.3678681345457768,
                -1.309159450292328
            ]
        },
        {
            "positions": [
                -0.8086449530997646,
                -0.9737709460849164,
                1.8227200389424296,
                1.0167080768870278,
                -1.2533760558987863,
                -1.4232141009379797
            ]
        },
        {
            "positions": [
                -0.8278794413306547,
                -0.9834684584804414,
                1.8353389632227257,
                0.8936004819075178,
                -1.1388839772517958,
                -1.5372687515836314
            ]
        },
        {
            "positions": [
                -0.8471139295615449,
                -0.9931659708759665,
                1.8479578875030218,
                0.7704928869280081,
                -1.0243918986048055,
                -1.6513234022292826
            ]
        },
        {
            "positions": [
                -0.866348417792435,
                -1.0028634832714916,
                1.860576811783318,
                0.6473852919484981,
                -0.909899819957815,
                -1.7653780528749343
            ]
        },
        {
            "positions": [
                -0.885582906023325,
                -1.0125609956670165,
                1.873195736063614,
                0.5242776969689884,
                -0.7954077413108247,
                -1.8794327035205858
            ]
        },
        {
            "positions": [
                -0.9048173942542153,
                -1.0222585080625417,
                1.88581466034391,
                0.40117010198947844,
                -0.680915662663834,
                -1.9934873541662375
            ]
        },
        {
            "positions": [
                -0.9240518824851053,
                -1.0319560204580667,
                1.8984335846242062,
                0.2780625070099685,
                -0.5664235840168437,
                -2.107542004811889
            ]
        },
        {
            "positions": [
                -0.9432863707159954,
                -1.0416535328535919,
                1.9110525089045025,
                0.15495491203045875,
                -0.4519315053698534,
                -2.2215966554575406
            ]
        },
        {
            "positions": [
                -0.9625208589468855,
                -1.0513510452491168,
                1.9236714331847986,
                0.03184731705094901,
                -0.33743942672286287,
                -2.335651306103192
            ]
        },
        {
            "positions": [
                -0.9817553471777757,
                -1.061048557644642,
                1.9362903574650947,
                -0.09126027792856073,
                -0.22294734807587258,
                -2.4497059567488435
            ]
        },
        {
            "positions": [
                -1.0009898354086657,
                -1.070746070040167,
                1.9489092817453908,
                -0.2143678729080709,
                -0.10845526942888206,
                -2.563760607394495
            ]
        },
        {
            "positions": [
                -1.0202243236395558,
                -1.080443582435692,
                1.9615282060256871,
                -0.33747546788758065,
                0.006036809218108452,
                -2.677815258040147
            ]
        },
        {
            "positions": [
                -1.039458811870446,
                -1.0901410948312171,
                1.9741471303059832,
                -0.4605830628670904,
                0.12052888786509897,
                -2.7918699086857983
            ]
        },
        {
            "positions": [
                -1.058693300101336,
                -1.099838607226742,
                1.9867660545862793,
                -0.5836906578466001,
                0.23502096651208904,
                -2.9059245593314493
            ]
        },
        {
            "positions": [
                -1.0779277883322262,
                -1.1095361196222673,
                1.9993849788665754,
                -0.7067982528261103,
                0.34951304515907955,
                -3.0199792099771012
            ]
        },
        {
            "positions": [
                -1.0971622765631164,
                -1.1192336320177922,
                2.0120039031468715,
                -0.82990584780562,
                0.4640051238060701,
                -3.1340338606227527
            ]
        }
    ]
}