{
    "goal": {
        "global_pose": {
            "orientation": {
                "w": 0.7031023502349854,
                "x": -0.7110244035720825,
                "y": 0.007748599164187908,
                "z": 0.005598929710686207
            },
            "position": {
                "x": 0.11585023208521307,
                "y": 0.44412534475326537,
                "z": 0.3711530566215515
            }
        },
        "name": "move_to_auspresseinheit_A"
    },
    "id": "RRTConnect_move_to_auspresseinheit_A_57",
    "joint_names": [
        "shoulder_pan_joint",
        "shoulder_lift_joint",
        "elbow_joint",
        "wrist_1_joint",
        "wrist_2_joint",
        "wrist_3_joint"
    ],
    "metrics": {
        "cart_traj_len": 2.034604010896734,
        "distance_elbow_joint": 2.837295274726567,
        "distance_shoulder_lift_joint": 0.6893681871096036,
        "distance_shoulder_pan_joint": 1.0715501240699252,
        "distance_wrist_1_joint": 2.315072620944448,
        "distance_wrist_2_joint": 2.2127750556195114,
        "distance_wrist_3_joint": 4.115564121503289,
        "smoothness": 1.7288649410617891,
        "time": 0.097069663,
        "traj_len": 3.6389044208351145,
        "weighted_distance": 5.099078475915416
    },
    "planner": "RRTConnect",
    "start": {
        "state": {
            "elbow_joint": 2.4225746658250005,
            "shoulder_lift_joint": -1.3736534386056498,
            "shoulder_pan_joint": -0.3378633547517467,
            "wrist_1_joint": -1.0288598680537169,
            "wrist_2_joint": 1.233022673432363,
            "wrist_3_joint": -3.0940220416140027
        }
    },
    "waypoints": [
        {
            "positions": [
                -0.3378633547517467,
                -1.3736534386056498,
                2.4225746658250005,
                -1.0288598680537169,
                1.233022673432363,
                -3.0940220416140027
            ]
        },
        {
            "positions": [
                -0.32229389751493837,
                -1.3995491362011303,
                2.3530144947551372,
                -0.9438148113653075,
                1.1587886505998892,
                -2.9865631560611714
            ]
        },
        {
            "positions": [
                -0.30672444027813,
                -1.4254448337966106,
                2.283454323685274,
                -0.8587697546768982,
                1.0845546277674154,
                -2.8791042705083396
            ]
        },
        {
            "positions": [
                -0.2911549830413216,
                -1.451340531392091,
                2.213894152615411,
                -0.7737246979884889,
                1.0103206049349416,
                -2.7716453849555083
            ]
        },
        {
            "positions": [
                -0.27558552580451323,
                -1.4772362289875716,
                2.1443339815455476,
                -0.6886796413000795,
                0.9360865821024676,
                -2.664186499402677
            ]
        },
        {
            "positions": [
                -0.26001606856770487,
                -1.5031319265830518,
                2.0747738104756843,
                -0.6036345846116702,
                0.8618525592699937,
                -2.556727613849845
            ]
        },
        {
            "positions": [
                -0.24444661133089648,
                -1.5290276241785323,
                2.0052136394058215,
                -0.5185895279232609,
                0.7876185364375199,
                -2.449268728297014
            ]
        },
        {
            "positions": [
                -0.22887715409408813,
                -1.5549233217740128,
                1.9356534683359583,
                -0.4335444712348516,
                0.7133845136050462,
                -2.3418098427441825
            ]
        },
        {
            "positions": [
                -0.21330769685727974,
                -1.5808190193694933,
                1.866093297266095,
                -0.3484994145464423,
                0.6391504907725722,
                -2.234350957191351
            ]
        },
        {
            "positions": [
                -0.19773823962047138,
                -1.6067147169649736,
                1.7965331261962318,
                -0.26345435785803295,
                0.5649164679400984,
                -2.1268920716385193
            ]
        },
        {
            "positions": [
                -0.182168782383663,
                -1.632610414560454,
                1.7269729551263686,
                -0.1784093011696236,
                0.4906824451076245,
                -2.0194331860856876
            ]
        },
        {
            "positions": [
                -0.16659932514685463,
                -1.6585061121559346,
                1.6574127840565054,
                -0.09336424448121428,
                0.41644842227515066,
                -1.9119743005328564
            ]
        },
        {
            "positions": [
                -0.15102986791004624,
                -1.684401809751415,
                1.5878526129866422,
                -0.008319187792804827,
                0.34221439944267684,
                -1.8045154149800249
            ]
        },
        {
            "positions": [
                -0.13546041067323789,
                -1.7102975073468953,
                1.5182924419167794,
                0.07672586889560429,
                0.26798037661020313,
                -1.6970565294271935
            ]
        },
        {
            "positions": [
                -0.11989095343642953,
                -1.7361932049423758,
                1.4487322708469161,
                0.16177092558401363,
                0.1937463537777293,
                -1.589597643874362
            ]
        },
        {
            "positions": [
                -0.10432149619962114,
                -1.7620889025378563,
                1.379172099777053,
                0.24681598227242296,
                0.11951233094525526,
                -1.4821387583215306
            ]
        },
        {
            "positions": [
                -0.08875203896281278,
                -1.7879846001333366,
                1.3096119287071897,
                0.3318610389608323,
                0.04527830811278144,
                -1.374679872768699
            ]
        },
        {
            "positions": [
                -0.0731825817260044,
                -1.813880297728817,
                1.2400517576373264,
                0.4169060956492416,
                -0.028955714719692466,
                -1.2672209872158675
            ]
        },
        {
            "positions": [
                0.03661313278588757,
                -1.8424012920147326,
                1.342149358175948,
                0.41652150969004564,
                0.01393393654133613,
                -1.3289995282249727
            ]
        },
        {
            "positions": [
                0.14640884729777953,
                -1.8709222863006483,
                1.4442469587145694,
                0.41613692373084965,
                0.056823587802364725,
                -1.390778069234078
            ]
        },
        {
            "positions": [
                0.25620456180967155,
                -1.899443280586564,
                1.5463445592531908,
                0.41575233777165366,
                0.09971323906339333,
                -1.4525566102431833
            ]
        },
        {
            "positions": [
                0.3660002763215635,
                -1.9279642748724795,
                1.6484421597918124,
                0.4153677518124577,
                0.14260289032442192,
                -1.5143351512522885
            ]
        },
        {
            "positions": [
                0.47579599083345553,
                -1.956485269158395,
                1.750539760330434,
                0.4149831658532618,
                0.18549254158545053,
                -1.5761136922613939
            ]
        },
        {
            "positions": [
                0.5855917053453474,
                -1.9850062634443106,
                1.8526373608690554,
                0.4145985798940658,
                0.2283821928464791,
                -1.637892233270499
            ]
        },
        {
            "positions": [
                0.6039884833297309,
                -1.9808583859119644,
                1.9402424391276183,
                0.3612767306921647,
                0.28375757454382333,
                -1.7820218228456441
            ]
        },
        {
            "positions": [
                0.6223852613141142,
                -1.9767105083796184,
                2.0278475173861814,
                0.3079548814902636,
                0.3391329562411675,
                -1.9261514124207892
            ]
        },
        {
            "positions": [
                0.6407820392984976,
                -1.9725626308472721,
                2.115452595644744,
                0.25463303228836254,
                0.39450833793851176,
                -2.070281001995934
            ]
        },
        {
            "positions": [
                0.659178817282881,
                -1.9684147533149259,
                2.2030576739033068,
                0.20131118308646143,
                0.44988371963585594,
                -2.2144105915710792
            ]
        },
        {
            "positions": [
                0.6775755952672644,
                -1.9642668757825796,
                2.29066275216187,
                0.14798933388456031,
                0.5052591013332002,
                -2.3585401811462243
            ]
        },
        {
            "positions": [
                0.6959723732516477,
                -1.9601189982502336,
                2.378267830420433,
                0.09466748468265923,
                0.5606344830305444,
                -2.5026697707213694
            ]
        },
        {
            "positions": [
                0.7143691512360312,
                -1.9559711207178874,
                2.4658729086789957,
                0.04134563548075815,
                0.6160098647278887,
                -2.6467993602965145
            ]
        },
        {
            "positions": [
                0.7171262910727392,
                -1.955757789679593,
                2.339635685851106,
                0.00258025544707996,
                0.5623443510601434,
                -2.5425978555040825
            ]
        },
        {
            "positions": [
                0.7198834309094471,
                -1.9555444586412984,
                2.213398463023216,
                -0.03618512458659822,
                0.508678837392398,
                -2.4383963507116504
            ]
        },
        {
            "positions": [
                0.7164325963072641,
                -1.9434060692743158,
                2.2575176554835767,
                -0.14023898383801042,
                0.5583038525634942,
                -2.613591771821561
            ]
        },
        {
            "positions": [
                0.7129817617050811,
                -1.9312676799073332,
                2.301636847943938,
                -0.24429284308942262,
                0.6079288677345903,
                -2.788787192931472
            ]
        },
        {
            "positions": [
                0.7095309271028981,
                -1.9191292905403505,
                2.345756040404299,
                -0.3483467023408348,
                0.6575538829056864,
                -2.9639826140413827
            ]
        },
        {
            "positions": [
                0.7060800925007151,
                -1.906990901173368,
                2.38987523286466,
                -0.452400561592247,
                0.7071788980767826,
                -3.1391780351512932
            ]
        }
    ]
}