{
    "goal": {
        "global_pose": {
            "orientation": {
                "w": 0.7047431493862688,
                "x": -0.7094548369677653,
                "y": 0.0024358444001904,
                "z": -0.0022348060817251984
            },
            "position": {
                "x": -0.39052492380142206,
                "y": 0.3671506643295288,
                "z": 0.19426114857196808
            }
        },
        "name": "move_to_magneteinheit_D"
    },
    "id": "RRTConnect_move_to_magneteinheit_D_45",
    "joint_names": [
        "shoulder_pan_joint",
        "shoulder_lift_joint",
        "elbow_joint",
        "wrist_1_joint",
        "wrist_2_joint",
        "wrist_3_joint"
    ],
    "metrics": {
        "cart_traj_len": 4.21419946407756,
        "distance_elbow_joint": 4.7801884796463385,
        "distance_shoulder_lift_joint": 1.339960637931074,
        "distance_shoulder_pan_joint": 3.060853405828973,
        "distance_wrist_1_joint": 2.6330543299327047,
        "distance_wrist_2_joint": 1.2251224920694148,
        "distance_wrist_3_joint": 3.3951151767464216,
        "smoothness": 0.6423645265764324,
        "time": 0.182402264,
        "traj_len": 4.053923349319141,
        "weighted_distance": 5.2041043127179805
    },
    "planner": "RRTConnect",
    "start": {
        "state": {
            "elbow_joint": 0.749534889911806,
            "shoulder_lift_joint": -0.6476975780787326,
            "shoulder_pan_joint": -2.711696901376241,
            "wrist_1_joint": -0.07506478083263063,
            "wrist_2_joint": 0.43296659715538205,
            "wrist_3_joint": -3.14703540197715
        }
    },
    "waypoints": [
        {
            "positions": [
                -2.711696901376241,
                -0.6476975780787326,
                0.749534889911806,
                -0.07506478083263063,
                0.43296659715538205,
                -3.14703540197715
            ]
        },
        {
            "positions": [
                -2.7227688623701694,
                -0.727088386041298,
                0.8562715595983555,
                -0.2210868641682628,
                0.4622912578763351,
                -3.1535239989417003
            ]
        },
        {
            "positions": [
                -2.733840823364097,
                -0.8064791940038633,
                0.9630082292849051,
                -0.36710894750389494,
                0.49161591859728826,
                -3.16001259590625
            ]
        },
        {
            "positions": [
                -2.7449127843580254,
                -0.8858700019664286,
                1.0697448989714546,
                -0.5131310308395272,
                0.5209405793182413,
                -3.1665011928708005
            ]
        },
        {
            "positions": [
                -2.7559847453519537,
                -0.9652608099289939,
                1.1764815686580041,
                -0.6591531141751592,
                0.5502652400391944,
                -3.1729897898353507
            ]
        },
        {
            "positions": [
                -2.767056706345882,
                -1.0446516178915592,
                1.2832182383445538,
                -0.8051751975107915,
                0.5795899007601475,
                -3.179478386799901
            ]
        },
        {
            "positions": [
                -2.77812866733981,
                -1.1240424258541246,
                1.3899549080311036,
                -0.9511972808464235,
                0.6089145614811007,
                -3.185966983764451
            ]
        },
        {
            "positions": [
                -2.789200628333738,
                -1.20343323381669,
                1.496691577717653,
                -1.0972193641820558,
                0.6382392222020538,
                -3.192455580729001
            ]
        },
        {
            "positions": [
                -2.6803520620160843,
                -1.1982331573497658,
                1.34949674447909,
                -1.0854842668362652,
                0.600837600153673,
                -3.1146853746242606
            ]
        },
        {
            "positions": [
                -2.5715034956984306,
                -1.1930330808828413,
                1.2023019112405267,
                -1.0737491694904744,
                0.5634359781052922,
                -3.03691516851952
            ]
        },
        {
            "positions": [
                -2.4626549293807765,
                -1.187833004415917,
                1.0551070780019636,
                -1.0620140721446838,
                0.5260343560569115,
                -2.9591449624147796
            ]
        },
        {
            "positions": [
                -2.3538063630631227,
                -1.1826329279489927,
                0.9079122447634004,
                -1.050278974798893,
                0.4886327340085308,
                -2.881374756310039
            ]
        },
        {
            "positions": [
                -2.244957796745469,
                -1.1774328514820684,
                0.7607174115248373,
                -1.0385438774531024,
                0.45123111196015003,
                -2.8036045502052986
            ]
        },
        {
            "positions": [
                -2.1361092304278153,
                -1.172232775015144,
                0.6135225782862741,
                -1.0268087801073118,
                0.41382948991176927,
                -2.725834344100558
            ]
        },
        {
            "positions": [
                -2.0272606641101616,
                -1.1670326985482196,
                0.466327745047711,
                -1.015073682761521,
                0.37642786786338855,
                -2.6480641379958176
            ]
        },
        {
            "positions": [
                -1.9184120977925074,
                -1.1618326220812953,
                0.3191329118091477,
                -1.0033385854157304,
                0.3390262458150078,
                -2.5702939318910767
            ]
        },
        {
            "positions": [
                -1.8095635314748537,
                -1.1566325456143711,
                0.1719380785705844,
                -0.9916034880699397,
                0.301624623766627,
                -2.492523725786336
            ]
        },
        {
            "positions": [
                -1.7007149651572,
                -1.1514324691474467,
                0.024743245332021546,
                -0.979868390724149,
                0.2642230017182463,
                -2.4147535196815957
            ]
        },
        {
            "positions": [
                -1.591866398839546,
                -1.1462323926805222,
                -0.12245158790654176,
                -0.9681332933783584,
                0.22682137966986554,
                -2.336983313576855
            ]
        },
        {
            "positions": [
                -1.4830178325218923,
                -1.141032316213598,
                -0.26964642114510484,
                -0.9563981960325677,
                0.18941975762148483,
                -2.2592131074721147
            ]
        },
        {
            "positions": [
                -1.3741692662042384,
                -1.1358322397466738,
                -0.41684125438366815,
                -0.944663098686777,
                0.152018135573104,
                -2.181442901367374
            ]
        },
        {
            "positions": [
                -1.2653206998865847,
                -1.1306321632797494,
                -0.564036087622231,
                -0.9329280013409863,
                0.11461651352472335,
                -2.1036726952626337
            ]
        },
        {
            "positions": [
                -1.156472133568931,
                -1.125432086812825,
                -0.7112309208607943,
                -0.9211929039951956,
                0.07721489147634264,
                -2.025902489157893
            ]
        },
        {
            "positions": [
                -1.047623567251277,
                -1.1202320103459007,
                -0.8584257540993576,
                -0.909457806649405,
                0.03981326942796182,
                -1.9481322830531527
            ]
        },
        {
            "positions": [
                -0.9387750009336231,
                -1.1150319338789765,
                -1.0056205873379205,
                -0.8977227093036143,
                0.0024116473795811055,
                -1.8703620769484124
            ]
        },
        {
            "positions": [
                -0.8299264346159692,
                -1.109831857412052,
                -1.1528154205764842,
                -0.8859876119578236,
                -0.03498997466879972,
                -1.7925918708436717
            ]
        },
        {
            "positions": [
                -0.7210778682983157,
                -1.1046317809451276,
                -1.300010253815047,
                -0.8742525146120329,
                -0.07239159671718043,
                -1.7148216647389312
            ]
        },
        {
            "positions": [
                -0.6122293019806619,
                -1.0994317044782034,
                -1.44720508705361,
                -0.8625174172662422,
                -0.10979321876556114,
                -1.6370514586341907
            ]
        },
        {
            "positions": [
                -0.5033807356630078,
                -1.0942316280112792,
                -1.5943999202921737,
                -0.8507823199204516,
                -0.14719484081394196,
                -1.5592812525294502
            ]
        },
        {
            "positions": [
                -0.3945321693453542,
                -1.0890315515443547,
                -1.7415947535307366,
                -0.8390472225746609,
                -0.18459646286232265,
                -1.4815110464247097
            ]
        },
        {
            "positions": [
                -0.3389774411003968,
                -1.1282522622132058,
                -1.8184687320630142,
                -0.944476126306802,
                -0.18857901056414603,
                -1.5848248825916258
            ]
        },
        {
            "positions": [
                -0.2834227128554394,
                -1.167472972882057,
                -1.8953427105952916,
                -1.0499050300389432,
                -0.1925615582659694,
                -1.688138718758542
            ]
        },
        {
            "positions": [
                -0.227867984610482,
                -1.2066936835509081,
                -1.9722166891275692,
                -1.1553339337710842,
                -0.1965441059677928,
                -1.791452554925458
            ]
        },
        {
            "positions": [
                -0.1723132563655246,
                -1.2459143942197595,
                -2.0490906676598466,
                -1.2607628375032252,
                -0.20052665366961614,
                -1.8947663910923742
            ]
        },
        {
            "positions": [
                -0.1167585281205672,
                -1.2851351048886106,
                -2.1259646461921244,
                -1.3661917412353664,
                -0.20450920137143952,
                -1.9980802272592904
            ]
        },
        {
            "positions": [
                -0.06120379987560981,
                -1.3243558155574617,
                -2.202838624724402,
                -1.4716206449675076,
                -0.2084917490732629,
                -2.1013940634262065
            ]
        },
        {
            "positions": [
                -0.005649071630652397,
                -1.3635765262263129,
                -2.2797126032566792,
                -1.5770495486996485,
                -0.21247429677508628,
                -2.2047078995931226
            ]
        },
        {
            "positions": [
                -0.003256863661753935,
                -1.460693393115043,
                -2.321931673954937,
                -1.6822092168987437,
                -0.2301028139670206,
                -2.307186744101421
            ]
        },
        {
            "positions": [
                -0.0008646556928554733,
                -1.557810260003773,
                -2.3641507446531946,
                -1.7873688850978389,
                -0.24773133115895488,
                -2.40966558860972
            ]
        },
        {
            "positions": [
                0.0015275522760429885,
                -1.6549271268925032,
                -2.406369815351453,
                -1.8925285532969343,
                -0.26535984835088916,
                -2.512144433118019
            ]
        },
        {
            "positions": [
                0.00391976024494145,
                -1.7520439937812333,
                -2.4485888860497105,
                -1.9976882214960294,
                -0.2829883655428235,
                -2.6146232776263174
            ]
        },
        {
            "positions": [
                -0.0594900031859905,
                -1.7497737078865991,
                -2.4193384433586673,
                -2.0623837568475345,
                -0.2501142724502015,
                -2.783169355122541
            ]
        },
        {
            "positions": [
                -0.12289976661692245,
                -1.7475034219919647,
                -2.390088000667624,
                -2.12707929219904,
                -0.21724017935757955,
                -2.951715432618765
            ]
        },
        {
            "positions": [
                -0.18630953004785442,
                -1.7452331360973306,
                -2.360837557976581,
                -2.191774827550545,
                -0.18436608626495757,
                -3.1202615101149886
            ]
        }
    ]
}