{
    "goal": {
        "global_pose": {
            "orientation": {
                "w": 0.7047431468963623,
                "x": -0.7094548344612122,
                "y": 0.0024358443915843964,
                "z": -0.0022348060738295317
            },
            "position": {
                "x": 0.6094750761985779,
                "y": 0.3671506643295288,
                "z": 0.19426114857196808
            }
        },
        "name": "move_to_magneteinheit_A"
    },
    "id": "RRTConnect_move_to_magneteinheit_A_136",
    "joint_names": [
        "shoulder_pan_joint",
        "shoulder_lift_joint",
        "elbow_joint",
        "wrist_1_joint",
        "wrist_2_joint",
        "wrist_3_joint"
    ],
    "metrics": {
        "cart_traj_len": 3.339528206313979,
        "distance_elbow_joint": 3.909678835439565,
        "distance_shoulder_lift_joint": 0.46869297870196525,
        "distance_shoulder_pan_joint": 3.155768699391858,
        "distance_wrist_1_joint": 3.4585473670990448,
        "distance_wrist_2_joint": 1.4548044866370367,
        "distance_wrist_3_joint": 0.6240199568141518,
        "smoothness": 0.06786156799425673,
        "time": 0.11685983999999999,
        "traj_len": 3.615454649706399,
        "weighted_distance": 4.385533501348269
    },
    "planner": "RRTConnect",
    "start": {
        "state": {
            "elbow_joint": -1.9196185241190666,
            "shoulder_lift_joint": -1.2443396400964142,
            "shoulder_pan_joint": 2.6996025414629847,
            "wrist_1_joint": -1.5485510000780065,
            "wrist_2_joint": -1.5709468930060704,
            "wrist_3_joint": 0.4420197071253992
        }
    },
    "waypoints": [
        {
            "positions": [
                2.6996025414629847,
                -1.2443396400964142,
                -1.9196185241190666,
                -1.5485510000780065,
                -1.5709468930060704,
                0.4420197071253992
            ]
        },
        {
            "positions": [
                2.590140002292089,
                -1.237664683166646,
                -1.8149007769094494,
                -1.4502796040912778,
                -1.5170387008268782,
                0.4246562220640318
            ]
        },
        {
            "positions": [
                2.4806774631211934,
                -1.2309897262368779,
                -1.710183029699832,
                -1.352008208104549,
                -1.4631305086476862,
                0.40729273700266444
            ]
        },
        {
            "positions": [
                2.3712149239502973,
                -1.2243147693071097,
                -1.6054652824902147,
                -1.2537368121178203,
                -1.409222316468494,
                0.38992925194129713
            ]
        },
        {
            "positions": [
                2.2617523847794017,
                -1.2176398123773415,
                -1.5007475352805975,
                -1.1554654161310913,
                -1.355314124289302,
                0.37256576687992976
            ]
        },
        {
            "positions": [
                2.152289845608506,
                -1.2109648554475734,
                -1.39602978807098,
                -1.0571940201443626,
                -1.30140593211011,
                0.3552022818185624
            ]
        },
        {
            "positions": [
                2.0428273064376103,
                -1.2042898985178052,
                -1.2913120408613628,
                -0.958922624157634,
                -1.247497739930918,
                0.337838796757195
            ]
        },
        {
            "positions": [
                1.9333647672667147,
                -1.1976149415880373,
                -1.1865942936517455,
                -0.8606512281709052,
                -1.1935895477517258,
                0.3204753116958277
            ]
        },
        {
            "positions": [
                1.8239022280958186,
                -1.1909399846582691,
                -1.0818765464421283,
                -0.7623798321841764,
                -1.1396813555725336,
                0.30311182663446035
            ]
        },
        {
            "positions": [
                1.714439688924923,
                -1.184265027728501,
                -0.9771587992325109,
                -0.6641084361974477,
                -1.0857731633933416,
                0.285748341573093
            ]
        },
        {
            "positions": [
                1.6049771497540273,
                -1.1775900707987328,
                -0.8724410520228936,
                -0.5658370402107189,
                -1.0318649712141497,
                0.2683848565117256
            ]
        },
        {
            "positions": [
                1.4955146105831316,
                -1.1709151138689646,
                -0.7677233048132763,
                -0.46756564422399016,
                -0.9779567790349575,
                0.2510213714503583
            ]
        },
        {
            "positions": [
                1.3860520714122357,
                -1.1642401569391965,
                -0.6630055576036589,
                -0.3692942482372614,
                -0.9240485868557654,
                0.2336578863889909
            ]
        },
        {
            "positions": [
                1.27658953224134,
                -1.1575652000094283,
                -0.5582878103940416,
                -0.2710228522505327,
                -0.8701403946765733,
                0.21629440132762356
            ]
        },
        {
            "positions": [
                1.1671269930704444,
                -1.1508902430796601,
                -0.4535700631844244,
                -0.17275145626380395,
                -0.8162322024973813,
                0.19893091626625622
            ]
        },
        {
            "positions": [
                1.0576644538995488,
                -1.144215286149892,
                -0.34885231597480715,
                -0.07448006027707521,
                -0.7623240103181892,
                0.18156743120488888
            ]
        },
        {
            "positions": [
                0.9482019147286527,
                -1.1375403292201238,
                -0.24413456876518969,
                0.02379133570965375,
                -0.708415818138997,
                0.16420394614352146
            ]
        },
        {
            "positions": [
                0.838739375557757,
                -1.1308653722903557,
                -0.13941682155557245,
                0.12206273169638227,
                -0.654507625959805,
                0.14684046108215415
            ]
        },
        {
            "positions": [
                0.7292768363868614,
                -1.1241904153605875,
                -0.034699074345955205,
                0.220334127683111,
                -0.600599433780613,
                0.12947697602078678
            ]
        },
        {
            "positions": [
                0.6198142972159659,
                -1.1175154584308196,
                0.07001867286366203,
                0.31860552366983974,
                -0.5466912416014209,
                0.11211349095941947
            ]
        },
        {
            "positions": [
                0.5103517580450698,
                -1.1108405015010514,
                0.1747364200732795,
                0.4168769196565687,
                -0.4927830494222287,
                0.09475000589805205
            ]
        },
        {
            "positions": [
                0.40088921887417417,
                -1.1041655445712832,
                0.27945416728289674,
                0.5151483156432974,
                -0.43887485724303676,
                0.07738652083668474
            ]
        },
        {
            "positions": [
                0.2914266797032785,
                -1.097490587641515,
                0.384171914492514,
                0.6134197116300262,
                -0.3849666650638446,
                0.06002303577531737
            ]
        },
        {
            "positions": [
                0.18196414053238286,
                -1.090815630711747,
                0.4888896617021312,
                0.7116911076167549,
                -0.3310584728846526,
                0.042659550713950056
            ]
        },
        {
            "positions": [
                0.07250160136148676,
                -1.0841406737819788,
                0.5936074089117489,
                0.8099625036034837,
                -0.27715028070546044,
                0.025296065652582633
            ]
        },
        {
            "positions": [
                -0.0369609378094089,
                -1.0774657168522106,
                0.6983251561213661,
                0.9082338995902124,
                -0.22324208852626826,
                0.007932580591215321
            ]
        },
        {
            "positions": [
                -0.14642347698030472,
                -1.0707907599224424,
                0.8030429033309835,
                1.0065052955769411,
                -0.1693338963470763,
                -0.00943090447015205
            ]
        },
        {
            "positions": [
                -0.1515894111489367,
                -1.034137622070122,
                0.9558068170511109,
                1.1366191781774733,
                -0.17095453740170377,
                -0.027751572488444745
            ]
        },
        {
            "positions": [
                -0.15675534531756868,
                -0.9974844842178012,
                1.1085707307712385,
                1.2667330607780054,
                -0.17257517845633125,
                -0.046072240506737444
            ]
        },
        {
            "positions": [
                -0.1619212794862007,
                -0.9608313463654807,
                1.2613346444913658,
                1.3968469433785375,
                -0.17419581951095872,
                -0.06439290852503013
            ]
        },
        {
            "positions": [
                -0.16708721365483267,
                -0.9241782085131601,
                1.4140985582114933,
                1.5269608259790697,
                -0.1758164605655862,
                -0.08271357654332283
            ]
        },
        {
            "positions": [
                -0.09481747758632267,
                -0.8870453217334824,
                1.5580889964887448,
                1.622719711239562,
                -0.1641392291257031,
                -0.05789190825696533
            ]
        },
        {
            "positions": [
                -0.022547741517812664,
                -0.8499124349538045,
                1.7020794347659962,
                1.718478596500054,
                -0.15246199768582003,
                -0.03307023997060784
            ]
        },
        {
            "positions": [
                0.04972199455069734,
                -0.8127795481741267,
                1.8460698730432477,
                1.814237481760546,
                -0.14078476624593692,
                -0.008248571684250347
            ]
        },
        {
            "positions": [
                0.12199173061920733,
                -0.7756466613944489,
                1.990060311320499,
                1.9099963670210383,
                -0.12910753480605383,
                0.016573096602107155
            ]
        }
    ]
}