{
    "goal": {
        "global_pose": {
            "orientation": {
                "w": 0.5084816217422485,
                "x": -0.49083608388900757,
                "y": 0.5182115435600281,
                "z": -0.4816462993621826
            },
            "position": {
                "x": 0.5540239810943604,
                "y": 0.030875300988554955,
                "z": 0.16403168439865112
            }
        },
        "name": "move_to_storage_A"
    },
    "id": "RRTConnect_move_to_storage_A_82",
    "joint_names": [
        "shoulder_pan_joint",
        "shoulder_lift_joint",
        "elbow_joint",
        "wrist_1_joint",
        "wrist_2_joint",
        "wrist_3_joint"
    ],
    "metrics": {
        "cart_traj_len": 0.3532826658912886,
        "distance_elbow_joint": 0.4516836321820772,
        "distance_shoulder_lift_joint": 0.2324466289490401,
        "distance_shoulder_pan_joint": 0.4621366994238635,
        "distance_wrist_1_joint": 0.25626240267300526,
        "distance_wrist_2_joint": 1.097346456399403,
        "distance_wrist_3_joint": 0.09447432007607359,
        "smoothness": 4.440892133664971e-16,
        "time": 0.043983848,
        "traj_len": 1.6106986495628108,
        "weighted_distance": 2.033938946706124
    },
    "planner": "RRTConnect",
    "start": {
        "state": {
            "elbow_joint": 1.971548259319323,
            "shoulder_lift_joint": -1.1394851275133948,
            "shoulder_pan_joint": 0.1228115487234821,
            "wrist_1_joint": -0.7804723859257726,
            "wrist_2_joint": 0.12958671773740124,
            "wrist_3_joint": -3.192489227718131
        }
    },
    "waypoints": [
        {
            "positions": [
                0.1228115487234821,
                -1.1394851275133948,
                1.971548259319323,
                -0.7804723859257726,
                0.12958671773740124,
                -3.192489227718131
            ]
        },
        {
            "positions": [
                0.05679202023435875,
                -1.1726917887918291,
                2.0360744924881913,
                -0.8170813005933448,
                0.28635049722303024,
                -3.178992896278692
            ]
        },
        {
            "positions": [
                -0.009227508254764594,
                -1.2058984500702634,
                2.1006007256570594,
                -0.8536902152609169,
                0.4431142767086592,
                -3.165496564839253
            ]
        },
        {
            "positions": [
                -0.07524703674388794,
                -1.2391051113486977,
                2.1651269588259274,
                -0.8902991299284891,
                0.5998780561942882,
                -3.152000233399814
            ]
        },
        {
            "positions": [
                -0.1412665652330113,
                -1.272311772627132,
                2.2296531919947955,
                -0.9269080445960614,
                0.7566418356799173,
                -3.138503901960375
            ]
        },
        {
            "positions": [
                -0.2072860937221347,
                -1.3055184339055663,
                2.294179425163664,
                -0.9635169592636335,
                0.9134056151655463,
                -3.125007570520936
            ]
        },
        {
            "positions": [
                -0.273305622211258,
                -1.3387250951840006,
                2.358705658332532,
                -1.0001258739312058,
                1.0701693946511752,
                -3.1115112390814965
            ]
        },
        {
            "positions": [
                -0.3393251507003814,
                -1.371931756462435,
                2.4232318915014,
                -1.0367347885987779,
                1.2269331741368044,
                -3.0980149076420576
            ]
        }
    ]
}{
    "goal": {
        "global_pose": {
            "orientation": {
                "w": 0.5084816217422485,
                "x": -0.49083608388900757,
                "y": 0.5182115435600281,
                "z": -0.4816462993621826
            },
            "position": {
                "x": 0.5540239810943604,
                "y": 0.030875300988554955,
                "z": 0.16403168439865112
            }
        },
        "name": "move_to_storage_A"
    },
    "id": "RRTConnect_move_to_storage_A_82",
    "joint_names": [
        "shoulder_pan_joint",
        "shoulder_lift_joint",
        "elbow_joint",
        "wrist_1_joint",
        "wrist_2_joint",
        "wrist_3_joint"
    ],
    "metrics": {
        "cart_traj_len": 0.35267595380674616,
        "distance_elbow_joint": 0.4500250974032949,
        "distance_shoulder_lift_joint": 0.23600285192373183,
        "distance_shoulder_pan_joint": 0.4622982342317211,
        "distance_wrist_1_joint": 0.24106666937004406,
        "distance_wrist_2_joint": 1.093951708978344,
        "distance_wrist_3_joint": 0.09043673056110135,
        "smoothness": 6.661338165333112e-16,
        "time": 0.048494253,
        "traj_len": 1.6043008734237594,
        "weighted_distance": 2.022294027073914
    },
    "planner": "RRTConnect",
    "start": {
        "state": {
            "elbow_joint": 1.97154746011099,
            "shoulder_lift_joint": -1.13948474672311,
            "shoulder_pan_joint": 0.12281154466712228,
            "wrist_1_joint": -0.7804688027058302,
            "wrist_2_joint": 0.12958655903071145,
            "wrist_3_joint": 3.0906928834467795
        }
    },
    "waypoints": [
        {
            "positions": [
                0.12281154466712228,
                -1.13948474672311,
                1.97154746011099,
                -0.7804688027058302,
                0.12958655903071145,
                3.0906928834467795
            ]
        },
        {
            "positions": [
                0.056768939776876415,
                -1.1731994398550716,
                2.035836759740032,
                -0.8149068983301222,
                0.28586537459904626,
                3.1036124163840797
            ]
        },
        {
            "positions": [
                -0.009273665113369453,
                -1.2069141329870334,
                2.100126059369074,
                -0.8493449939544142,
                0.44214419016738116,
                3.11653194932138
            ]
        },
        {
            "positions": [
                -0.07531627000361533,
                -1.240628826118995,
                2.164415358998116,
                -0.8837830895787062,
                0.5984230057357159,
                3.12945148225868
            ]
        },
        {
            "positions": [
                -0.14135887489386117,
                -1.2743435192509567,
                2.2287046586271586,
                -0.9182211852029982,
                0.7547018213040508,
                3.1423710151959803
            ]
        },
        {
            "positions": [
                -0.20740147978410706,
                -1.3080582123829183,
                2.2929939582562007,
                -0.9526592808272902,
                0.9109806368723857,
                3.1552905481332805
            ]
        },
        {
            "positions": [
                -0.27344408467435294,
                -1.3417729055148802,
                2.3572832578852427,
                -0.9870973764515822,
                1.0672594524407204,
                3.1682100810705807
            ]
        },
        {
            "positions": [
                -0.3394866895645988,
                -1.3754875986468418,
                2.421572557514285,
                -1.0215354720758743,
                1.2235382680090554,
                3.181129614007881
            ]
        }
    ]
}{
    "goal": {
        "global_pose": {
            "orientation": {
                "w": 0.5084816217422485,
                "x": -0.49083608388900757,
                "y": 0.5182115435600281,
                "z": -0.4816462993621826
            },
            "position": {
                "x": 0.5540239810943604,
                "y": 0.030875300988554955,
                "z": 0.16403168439865112
            }
        },
        "name": "move_to_storage_A"
    },
    "id": "RRTConnect_move_to_storage_A_82",
    "joint_names": [
        "shoulder_pan_joint",
        "shoulder_lift_joint",
        "elbow_joint",
        "wrist_1_joint",
        "wrist_2_joint",
        "wrist_3_joint"
    ],
    "metrics": {
        "cart_traj_len": 0.3526983054229566,
        "distance_elbow_joint": 0.4511572292300614,
        "distance_shoulder_lift_joint": 0.23384112022423853,
        "distance_shoulder_pan_joint": 0.46202220242356296,
        "distance_wrist_1_joint": 0.24949005919841882,
        "distance_wrist_2_joint": 1.0943271273509514,
        "distance_wrist_3_joint": 0.08950406573260317,
        "smoothness": 6.661338165333112e-16,
        "time": 0.042775061,
        "traj_len": 1.606344235884649,
        "weighted_distance": 2.0256275872367095
    },
    "planner": "RRTConnect",
    "start": {
        "state": {
            "elbow_joint": 1.9715472970024885,
            "shoulder_lift_joint": -1.1394870060712896,
            "shoulder_pan_joint": 0.12281152778156021,
            "wrist_1_joint": -0.780463741449964,
            "wrist_2_joint": 0.12958659822042276,
            "wrist_3_joint": 3.090690232415272
        }
    },
    "waypoints": [
        {
            "positions": [
                0.12281152778156021,
                -1.1394870060712896,
                1.9715472970024885,
                -0.780463741449964,
                0.12958659822042276,
                3.090690232415272
            ]
        },
        {
            "positions": [
                0.05680835600676551,
                -1.172892880389038,
                2.0359983297496402,
                -0.8161051784783095,
                0.2859190449848444,
                3.1034765275199296
            ]
        },
        {
            "positions": [
                -0.009194815768029191,
                -1.2062987547067863,
                2.100449362496792,
                -0.8517466155066551,
                0.44225149174926603,
                3.116262822624587
            ]
        },
        {
            "positions": [
                -0.07519798754282389,
                -1.2397046290245346,
                2.1649003952439436,
                -0.8873880525350006,
                0.5985839385136876,
                3.1290491177292448
            ]
        },
        {
            "positions": [
                -0.1412011593176186,
                -1.273110503342283,
                2.229351427991095,
                -0.9230294895633462,
                0.7549163852781092,
                3.141835412833902
            ]
        },
        {
            "positions": [
                -0.20720433109241335,
                -1.3065163776600315,
                2.2938024607382466,
                -0.9586709265916917,
                0.9112488320425309,
                3.15462170793856
            ]
        },
        {
            "positions": [
                -0.27320750286720796,
                -1.3399222519777798,
                2.3582534934853983,
                -0.9943123636200373,
                1.0675812788069525,
                3.1674080030432172
            ]
        },
        {
            "positions": [
                -0.3392106746420027,
                -1.3733281262955281,
                2.42270452623255,
                -1.0299538006483828,
                1.2239137255713741,
                3.180194298147875
            ]
        }
    ]
}