{
    "goal": {
        "global_pose": {
            "orientation": {
                "w": -0.4816463035849501,
                "x": 0.5182115481033762,
                "y": 0.4908360881923453,
                "z": -0.5084816262002911
            },
            "position": {
                "x": -0.8240239810943604,
                "y": -0.300875300988555,
                "z": 0.16403168439865112
            }
        },
        "name": "move_to_storage_C"
    },
    "id": "RRTConnect_move_to_storage_C_2",
    "joint_names": [
        "shoulder_pan_joint",
        "shoulder_lift_joint",
        "elbow_joint",
        "wrist_1_joint",
        "wrist_2_joint",
        "wrist_3_joint"
    ],
    "metrics": {
        "cart_traj_len": 0.5773552441754238,
        "distance_elbow_joint": 0.25631687518275537,
        "distance_shoulder_lift_joint": 0.18901994436438518,
        "distance_shoulder_pan_joint": 0.4958142135771788,
        "distance_wrist_1_joint": 0.06840422153063175,
        "distance_wrist_2_joint": 1.0638621588372583,
        "distance_wrist_3_joint": 0.067507003719816,
        "smoothness": 0.0,
        "time": 0.09482586500000001,
        "traj_len": 1.4631898090172804,
        "weighted_distance": 1.8461323909783793
    },
    "planner": "RRTConnect",
    "start": {
        "state": {
            "elbow_joint": 2.010868314990456,
            "shoulder_lift_joint": -1.1634956873337592,
            "shoulder_pan_joint": -2.4736205022346125,
            "wrist_1_joint": -0.8367026794202681,
            "wrist_2_joint": 0.6746043897044499,
            "wrist_3_joint": -3.1496632123970403
        }
    },
    "waypoints": [
        {
            "positions": [
                -2.4736205022346125,
                -1.1634956873337592,
                2.010868314990456,
                -0.8367026794202681,
                0.6746043897044499,
                -3.1496632123970403
            ]
        },
        {
            "positions": [
                -2.5562562044974757,
                -1.1319923632730284,
                1.9681488357933299,
                -0.8253019758318295,
                0.8519147495106596,
                -3.138412045110404
            ]
        },
        {
            "positions": [
                -2.638891906760339,
                -1.1004890392122975,
                1.925429356596204,
                -0.8139012722433908,
                1.0292251093168694,
                -3.1271608778237683
            ]
        },
        {
            "positions": [
                -2.7215276090232017,
                -1.0689857151515665,
                1.882709877399078,
                -0.8025005686549522,
                1.2065354691230792,
                -3.1159097105371325
            ]
        },
        {
            "positions": [
                -2.804163311286065,
                -1.0374823910908357,
                1.8399903982019523,
                -0.7910998650665136,
                1.3838458289292888,
                -3.1046585432504963
            ]
        },
        {
            "positions": [
                -2.886799013548928,
                -1.005979067030105,
                1.7972709190048264,
                -0.7796991614780749,
                1.5611561887354986,
                -3.09340737596386
            ]
        },
        {
            "positions": [
                -2.9694347158117913,
                -0.974475742969374,
                1.7545514398077005,
                -0.7682984578896364,
                1.7384665485417081,
                -3.0821562086772243
            ]
        }
    ]
}