{
    "goal": {
        "global_pose": {
            "orientation": {
                "w": -0.4816463035849501,
                "x": 0.5182115481033762,
                "y": 0.4908360881923453,
                "z": -0.5084816262002911
            },
            "position": {
                "x": -0.8240239810943604,
                "y": -0.300875300988555,
                "z": 0.16403168439865112
            }
        },
        "name": "move_to_storage_C"
    },
    "id": "RRTConnect_move_to_storage_C_36",
    "joint_names": [
        "shoulder_pan_joint",
        "shoulder_lift_joint",
        "elbow_joint",
        "wrist_1_joint",
        "wrist_2_joint",
        "wrist_3_joint"
    ],
    "metrics": {
        "cart_traj_len": 0.5765724565028597,
        "distance_elbow_joint": 0.2605882165714537,
        "distance_shoulder_lift_joint": 0.1892668622420438,
        "distance_shoulder_pan_joint": 0.4953783210418097,
        "distance_wrist_1_joint": 0.08877335828231936,
        "distance_wrist_2_joint": 1.0606370211354794,
        "distance_wrist_3_joint": 0.06687435419939369,
        "smoothness": 0.0,
        "time": 0.074898511,
        "traj_len": 1.4702102344469308,
        "weighted_distance": 1.8559841651504156
    },
    "planner": "RRTConnect",
    "start": {
        "state": {
            "elbow_joint": 2.010868314990456,
            "shoulder_lift_joint": -1.1634956873337592,
            "shoulder_pan_joint": -2.4736205022346125,
            "wrist_1_joint": -0.8367026794202681,
            "wrist_2_joint": 0.6746043897044499,
            "wrist_3_joint": -3.1496632123970403
        }
    },
    "waypoints": [
        {
            "positions": [
                -2.4736205022346125,
                -1.1634956873337592,
                2.010868314990456,
                -0.8367026794202681,
                0.6746043897044499,
                -3.1496632123970403
            ]
        },
        {
            "positions": [
                -2.5561835557415806,
                -1.1319512102934186,
                1.96743694556188,
                -0.8219071197065482,
                0.8513772265603632,
                -3.1385174866971415
            ]
        },
        {
            "positions": [
                -2.638746609248549,
                -1.1004067332530778,
                1.9240055761333046,
                -0.8071115599928284,
                1.0281500634162763,
                -3.1273717609972422
            ]
        },
        {
            "positions": [
                -2.7213096627555173,
                -1.0688622562127372,
                1.880574206704729,
                -0.7923160002791084,
                1.2049229002721895,
                -3.1162260352973434
            ]
        },
        {
            "positions": [
                -2.8038727162624855,
                -1.0373177791723966,
                1.8371428372761534,
                -0.7775204405653885,
                1.3816957371281027,
                -3.1050803095974446
            ]
        },
        {
            "positions": [
                -2.886435769769454,
                -1.005773302132056,
                1.7937114678475776,
                -0.7627248808516687,
                1.5584685739840163,
                -3.0939345838975454
            ]
        },
        {
            "positions": [
                -2.968998823276422,
                -0.9742288250917154,
                1.7502800984190021,
                -0.7479293211379487,
                1.7352414108399292,
                -3.0827888581976466
            ]
        }
    ]
}