{
    "goal": {
        "global_pose": {
            "orientation": {
                "w": -0.4816463035849501,
                "x": 0.5182115481033762,
                "y": 0.4908360881923453,
                "z": -0.5084816262002911
            },
            "position": {
                "x": -0.8240239810943604,
                "y": -0.300875300988555,
                "z": 0.16403168439865112
            }
        },
        "name": "move_to_storage_C"
    },
    "id": "RRTConnect_move_to_storage_C_11",
    "joint_names": [
        "shoulder_pan_joint",
        "shoulder_lift_joint",
        "elbow_joint",
        "wrist_1_joint",
        "wrist_2_joint",
        "wrist_3_joint"
    ],
    "metrics": {
        "cart_traj_len": 0.576482871801605,
        "distance_elbow_joint": 0.2574009614144164,
        "distance_shoulder_lift_joint": 0.18935347541719683,
        "distance_shoulder_pan_joint": 0.49408092999476283,
        "distance_wrist_1_joint": 0.070126494417452,
        "distance_wrist_2_joint": 1.0666528873374954,
        "distance_wrist_3_joint": 0.06214227874023415,
        "smoothness": 5.075305295617109e-16,
        "time": 0.02590158,
        "traj_len": 1.4627908351235859,
        "weighted_distance": 1.8441314938357767
    },
    "planner": "RRTConnect",
    "start": {
        "state": {
            "elbow_joint": 2.010868314990456,
            "shoulder_lift_joint": -1.1634956873337592,
            "shoulder_pan_joint": -2.4736205022346125,
            "wrist_1_joint": -0.8367026794202681,
            "wrist_2_joint": 0.6746043897044499,
            "wrist_3_joint": -3.1496632123970403
        }
    },
    "waypoints": [
        {
            "positions": [
                -2.4736205022346125,
                -1.1634956873337592,
                2.010868314990456,
                -0.8367026794202681,
                0.6746043897044499,
                -3.1496632123970403
            ]
        },
        {
            "positions": [
                -2.5559673239004064,
                -1.1319367747642264,
                1.9679681547547196,
                -0.8250149303506927,
                0.8523798709273658,
                -3.1393061659403347
            ]
        },
        {
            "positions": [
                -2.6383141455662003,
                -1.1003778621946936,
                1.9250679945189837,
                -0.8133271812811175,
                1.0301553521502818,
                -3.1289491194836287
            ]
        },
        {
            "positions": [
                -2.7206609672319937,
                -1.0688189496251608,
                1.8821678342832477,
                -0.8016394322115421,
                1.2079308333731977,
                -3.118592073026923
            ]
        },
        {
            "positions": [
                -2.8030077888977876,
                -1.037260037055628,
                1.8392676740475116,
                -0.7899516831419667,
                1.3857063145961135,
                -3.1082350265702177
            ]
        },
        {
            "positions": [
                -2.8853546105635814,
                -1.0057011244860952,
                1.7963675138117754,
                -0.7782639340723915,
                1.5634817958190295,
                -3.0978779801135117
            ]
        },
        {
            "positions": [
                -2.9677014322293753,
                -0.9741422119165624,
                1.7534673535760394,
                -0.7665761850028161,
                1.7412572770419454,
                -3.087520933656806
            ]
        }
    ]
}