{
    "goal": {
        "global_pose": {
            "orientation": {
                "w": 0.7031023502349854,
                "x": -0.7110244035720825,
                "y": 0.007748599164187908,
                "z": 0.005598929710686207
            },
            "position": {
                "x": 0.11585023208521307,
                "y": 0.44412534475326537,
                "z": 0.3711530566215515
            }
        },
        "name": "move_to_auspresseinheit_A"
    },
    "id": "RRTConnect_move_to_auspresseinheit_A_31",
    "joint_names": [
        "shoulder_pan_joint",
        "shoulder_lift_joint",
        "elbow_joint",
        "wrist_1_joint",
        "wrist_2_joint",
        "wrist_3_joint"
    ],
    "metrics": {
        "cart_traj_len": 2.2994779045552662,
        "distance_elbow_joint": 2.3424237633797644,
        "distance_shoulder_lift_joint": 0.7993687361132751,
        "distance_shoulder_pan_joint": 1.7602996792734062,
        "distance_wrist_1_joint": 0.5577938514495702,
        "distance_wrist_2_joint": 0.5100298436269839,
        "distance_wrist_3_joint": 0.4960772027045657,
        "smoothness": 1.1070043120951085,
        "time": 0.04759368,
        "traj_len": 2.5428317043303448,
        "weighted_distance": 2.9199265704865343
    },
    "planner": "RRTConnect",
    "start": {
        "state": {
            "elbow_joint": 2.4225746658250005,
            "shoulder_lift_joint": -1.3736534386056498,
            "shoulder_pan_joint": -0.3378633547517467,
            "wrist_1_joint": -1.0288598680537169,
            "wrist_2_joint": 1.233022673432363,
            "wrist_3_joint": -3.0940220416140027
        }
    },
    "waypoints": [
        {
            "positions": [
                -0.3378633547517467,
                -1.3736534386056498,
                2.4225746658250005,
                -1.0288598680537169,
                1.233022673432363,
                -3.0940220416140027
            ]
        },
        {
            "positions": [
                -0.3773692526242258,
                -1.447781684655625,
                2.2908694535313585,
                -0.9731420104202647,
                1.1923414941028216,
                -3.068507193709724
            ]
        },
        {
            "positions": [
                -0.4168751504967049,
                -1.5219099307056003,
                2.159164241237716,
                -0.9174241527868126,
                1.1516603147732802,
                -3.0429923458054455
            ]
        },
        {
            "positions": [
                -0.45638104836918403,
                -1.5960381767555756,
                2.027459028944074,
                -0.8617062951533605,
                1.1109791354437388,
                -3.017477497901167
            ]
        },
        {
            "positions": [
                -0.49588694624166313,
                -1.6701664228055508,
                1.8957538166504322,
                -0.8059884375199082,
                1.0702979561141974,
                -2.9919626499968883
            ]
        },
        {
            "positions": [
                -0.5353928441141422,
                -1.744294668855526,
                1.7640486043567898,
                -0.7502705798864562,
                1.029616776784656,
                -2.9664478020926093
            ]
        },
        {
            "positions": [
                -0.5748987419866214,
                -1.8184229149055013,
                1.6323433920631478,
                -0.694552722253004,
                0.9889355974551146,
                -2.9409329541883307
            ]
        },
        {
            "positions": [
                -0.6144046398591004,
                -1.8925511609554766,
                1.5006381797695059,
                -0.6388348646195519,
                0.9482544181255732,
                -2.915418106284052
            ]
        },
        {
            "positions": [
                -0.6539105377315795,
                -1.9666794070054519,
                1.3689329674758637,
                -0.5831170069860997,
                0.9075732387960318,
                -2.8899032583797735
            ]
        },
        {
            "positions": [
                -0.6934164356040586,
                -2.040807653055427,
                1.2372277551822215,
                -0.5273991493526475,
                0.8668920594664904,
                -2.864388410475495
            ]
        },
        {
            "positions": [
                -0.5178231108014218,
                -2.0242808378474897,
                1.3818623617743446,
                -0.520357507759085,
                0.8489046557588515,
                -2.897693856921252
            ]
        },
        {
            "positions": [
                -0.34222978599878506,
                -2.0077540226395527,
                1.5264969683664678,
                -0.5133158661655223,
                0.8309172520512126,
                -2.930999303367009
            ]
        },
        {
            "positions": [
                -0.16663646119614828,
                -1.9912272074316155,
                1.671131574958591,
                -0.5062742245719597,
                0.8129298483435736,
                -2.9643047498127664
            ]
        },
        {
            "positions": [
                0.008956863606488508,
                -1.9747003922236783,
                1.8157661815507142,
                -0.499232582978397,
                0.7949424446359348,
                -2.997610196258524
            ]
        },
        {
            "positions": [
                0.1845501884091253,
                -1.958173577015741,
                1.9604007881428374,
                -0.49219094138483444,
                0.7769550409282959,
                -3.030915642704281
            ]
        },
        {
            "positions": [
                0.3601435132117621,
                -1.9416467618078037,
                2.1050353947349607,
                -0.4851492997912718,
                0.758967637220657,
                -3.0642210891500383
            ]
        },
        {
            "positions": [
                0.5357368380143988,
                -1.9251199465998665,
                2.249670001327084,
                -0.4781076581977092,
                0.740980233513018,
                -3.0975265355957955
            ]
        },
        {
            "positions": [
                0.7113301628170355,
                -1.9085931313919293,
                2.394304607919207,
                -0.47106601660414654,
                0.7229928298053792,
                -3.1308319820415527
            ]
        }
    ]
}