{
    "goal": {
        "global_pose": {
            "orientation": {
                "w": 0.005598929693374612,
                "x": 0.007748599140229565,
                "y": 0.7110244013736278,
                "z": -0.7031023480610252
            },
            "position": {
                "x": -0.8858502320852131,
                "y": -0.7141253447532654,
                "z": 0.3711530566215515
            }
        },
        "name": "move_to_auspresseinheit_C"
    },
    "id": "RRTConnect_move_to_auspresseinheit_C_110",
    "joint_names": [
        "shoulder_pan_joint",
        "shoulder_lift_joint",
        "elbow_joint",
        "wrist_1_joint",
        "wrist_2_joint",
        "wrist_3_joint"
    ],
    "metrics": {
        "cart_traj_len": 0.49248682241045716,
        "distance_elbow_joint": 0.9872795280176963,
        "distance_shoulder_lift_joint": 0.31910570899969615,
        "distance_shoulder_pan_joint": 0.25689883707602945,
        "distance_wrist_1_joint": 0.6544298800710997,
        "distance_wrist_2_joint": 1.3099241335149332,
        "distance_wrist_3_joint": 0.03943343006510913,
        "smoothness": 1.6148698667872622e-16,
        "time": 0.055354982000000004,
        "traj_len": 1.888669245194765,
        "weighted_distance": 2.368605579546923
    },
    "planner": "RRTConnect",
    "start": {
        "state": {
            "elbow_joint": 1.7527959577737207,
            "shoulder_lift_joint": -0.9740617694225068,
            "shoulder_pan_joint": -2.967991417825858,
            "wrist_1_joint": -0.759517768980727,
            "wrist_2_joint": 1.7443932448377408,
            "wrist_3_joint": -3.0840537646736568
        }
    },
    "waypoints": [
        {
            "positions": [
                -2.967991417825858,
                -0.9740617694225068,
                1.7527959577737207,
                -0.759517768980727,
                1.7443932448377408,
                -3.0840537646736568
            ]
        },
        {
            "positions": [
                -2.942301534118255,
                -0.9421511985225371,
                1.654068004971951,
                -0.694074780973617,
                1.6134008314862476,
                -3.0879971076801676
            ]
        },
        {
            "positions": [
                -2.916611650410652,
                -0.9102406276225675,
                1.5553400521701815,
                -0.6286317929665071,
                1.482408418134754,
                -3.0919404506866788
            ]
        },
        {
            "positions": [
                -2.890921766703049,
                -0.8783300567225979,
                1.4566120993684117,
                -0.563188804959397,
                1.3514160047832608,
                -3.0958837936931896
            ]
        },
        {
            "positions": [
                -2.865231882995446,
                -0.8464194858226283,
                1.3578841465666422,
                -0.4977458169522871,
                1.2204235914317674,
                -3.0998271366997003
            ]
        },
        {
            "positions": [
                -2.8395419992878432,
                -0.8145089149226588,
                1.2591561937648725,
                -0.43230282894517713,
                1.0894311780802743,
                -3.1037704797062116
            ]
        },
        {
            "positions": [
                -2.8138521155802403,
                -0.7825983440226891,
                1.1604282409631028,
                -0.36685984093806717,
                0.958438764728781,
                -3.1077138227127223
            ]
        },
        {
            "positions": [
                -2.7881622318726373,
                -0.7506877731227195,
                1.0617002881613333,
                -0.3014168529309572,
                0.8274463513772876,
                -3.111657165719233
            ]
        },
        {
            "positions": [
                -2.7624723481650344,
                -0.7187772022227499,
                0.9629723353595636,
                -0.2359738649238472,
                0.6964539380257941,
                -3.115600508725744
            ]
        },
        {
            "positions": [
                -2.7367824644574315,
                -0.6868666313227803,
                0.864244382557794,
                -0.17053087691673718,
                0.5654615246743009,
                -3.119543851732255
            ]
        },
        {
            "positions": [
                -2.7110925807498285,
                -0.6549560604228106,
                0.7655164297560244,
                -0.10508788890962725,
                0.4344691113228076,
                -3.123487194738766
            ]
        }
    ]
}