{
    "goal": {
        "global_pose": {
            "orientation": {
                "w": 0.7031023502349854,
                "x": -0.7110244035720825,
                "y": 0.007748599164187908,
                "z": 0.005598929710686207
            },
            "position": {
                "x": 0.11585023208521307,
                "y": 0.44412534475326537,
                "z": 0.3711530566215515
            }
        },
        "name": "move_to_auspresseinheit_A"
    },
    "id": "RRTConnect_move_to_auspresseinheit_A_68",
    "joint_names": [
        "shoulder_pan_joint",
        "shoulder_lift_joint",
        "elbow_joint",
        "wrist_1_joint",
        "wrist_2_joint",
        "wrist_3_joint"
    ],
    "metrics": {
        "cart_traj_len": 0.9642273130123545,
        "distance_elbow_joint": 0.6766170717547784,
        "distance_shoulder_lift_joint": 0.5352475975748114,
        "distance_shoulder_pan_joint": 1.4236805997454236,
        "distance_wrist_1_joint": 1.8738049859177945,
        "distance_wrist_2_joint": 0.6576225643653506,
        "distance_wrist_3_joint": 3.2679201446057884,
        "smoothness": 1.012839359942295,
        "time": 0.072625778,
        "traj_len": 2.9042887191124693,
        "weighted_distance": 4.1835583901098685
    },
    "planner": "RRTConnect",
    "start": {
        "state": {
            "elbow_joint": 2.4225746658250005,
            "shoulder_lift_joint": -1.3736534386056498,
            "shoulder_pan_joint": -0.3378633547517467,
            "wrist_1_joint": -1.0288598680537169,
            "wrist_2_joint": 1.233022673432363,
            "wrist_3_joint": -3.0940220416140027
        }
    },
    "waypoints": [
        {
            "positions": [
                -0.3378633547517467,
                -1.3736534386056498,
                2.4225746658250005,
                -1.0288598680537169,
                1.233022673432363,
                -3.0940220416140027
            ]
        },
        {
            "positions": [
                -0.3538481995555374,
                -1.4094950376495567,
                2.3931832904939707,
                -0.9274948882482233,
                1.1832870031657134,
                -2.959639039541453
            ]
        },
        {
            "positions": [
                -0.36983304435932807,
                -1.4453366366934637,
                2.3637919151629414,
                -0.8261299084427298,
                1.1335513328990638,
                -2.8252560374689035
            ]
        },
        {
            "positions": [
                -0.38581788916311877,
                -1.4811782357373706,
                2.334400539831912,
                -0.7247649286372364,
                1.0838156626324142,
                -2.690873035396354
            ]
        },
        {
            "positions": [
                -0.4018027339669094,
                -1.5170198347812776,
                2.3050091645008823,
                -0.6233999488317429,
                1.0340799923657646,
                -2.5564900333238043
            ]
        },
        {
            "positions": [
                -0.4177875787707001,
                -1.5528614338251845,
                2.2756177891698526,
                -0.5220349690262494,
                0.9843443220991152,
                -2.4221070312512545
            ]
        },
        {
            "positions": [
                -0.43377242357449075,
                -1.5887030328690912,
                2.2462264138388233,
                -0.4206699892207558,
                0.9346086518324656,
                -2.287724029178705
            ]
        },
        {
            "positions": [
                -0.44975726837828145,
                -1.6245446319129981,
                2.216835038507794,
                -0.3193050094152623,
                0.884872981565816,
                -2.1533410271061553
            ]
        },
        {
            "positions": [
                -0.46574211318207215,
                -1.660386230956905,
                2.187443663176764,
                -0.21794002960976888,
                0.8351373112991665,
                -2.018958025033606
            ]
        },
        {
            "positions": [
                -0.4817269579858628,
                -1.696227830000812,
                2.1580522878457344,
                -0.11657504980427524,
                0.7854016410325169,
                -1.8845750229610563
            ]
        },
        {
            "positions": [
                -0.4977118027896535,
                -1.732069429044719,
                2.128660912514705,
                -0.015210069998781828,
                0.7356659707658673,
                -1.7501920208885067
            ]
        },
        {
            "positions": [
                -0.5136966475934441,
                -1.7679110280886259,
                2.099269537183676,
                0.08615490980671159,
                0.6859303004992177,
                -1.615809018815957
            ]
        },
        {
            "positions": [
                -0.5296814923972348,
                -1.8037526271325328,
                2.069878161852646,
                0.18751988961220528,
                0.6361946302325681,
                -1.4814260167434075
            ]
        },
        {
            "positions": [
                -0.41769399584269523,
                -1.8133115734096172,
                2.099325486196503,
                0.12775395977112597,
                0.6417214048839822,
                -1.631910027628425
            ]
        },
        {
            "positions": [
                -0.30570649928815563,
                -1.8228705196867017,
                2.1287728105403594,
                0.06798802993004666,
                0.6472481795353964,
                -1.7823940385134427
            ]
        },
        {
            "positions": [
                -0.19371900273361609,
                -1.832429465963786,
                2.1582201348842163,
                0.008222100088967343,
                0.6527749541868105,
                -1.93287804939846
            ]
        },
        {
            "positions": [
                -0.08173150617907649,
                -1.8419884122408705,
                2.187667459228073,
                -0.05154382975211197,
                0.6583017288382247,
                -2.083362060283478
            ]
        },
        {
            "positions": [
                0.030255990375463115,
                -1.851547358517955,
                2.2171147835719296,
                -0.11130975959319128,
                0.6638285034896388,
                -2.2338460711684953
            ]
        },
        {
            "positions": [
                0.14224348693000266,
                -1.8611063047950391,
                2.2465621079157865,
                -0.1710756894342706,
                0.6693552781410529,
                -2.3843300820535127
            ]
        },
        {
            "positions": [
                0.2542309834845422,
                -1.8706652510721236,
                2.276009432259643,
                -0.2308416192753499,
                0.674882052792467,
                -2.5348140929385305
            ]
        },
        {
            "positions": [
                0.36621848003908186,
                -1.880224197349208,
                2.3054567566035,
                -0.2906075491164292,
                0.6804088274438812,
                -2.685298103823548
            ]
        },
        {
            "positions": [
                0.4782059765936215,
                -1.8897831436262924,
                2.3349040809473567,
                -0.35037347895750853,
                0.6859356020952954,
                -2.8357821147085653
            ]
        },
        {
            "positions": [
                0.5901934731481611,
                -1.8993420899033768,
                2.364351405291213,
                -0.41013940879858785,
                0.6914623767467095,
                -2.986266125593583
            ]
        },
        {
            "positions": [
                0.7021809697027006,
                -1.9089010361804613,
                2.39379872963507,
                -0.4699053386396672,
                0.6969891513981237,
                -3.1367501364786006
            ]
        }
    ]
}