{
    "goal": {
        "global_pose": {
            "orientation": {
                "w": 0.5084816217422485,
                "x": -0.49083608388900757,
                "y": 0.5182115435600281,
                "z": -0.4816462993621826
            },
            "position": {
                "x": 0.5540239810943604,
                "y": 0.030875300988554955,
                "z": 0.16403168439865112
            }
        },
        "name": "move_to_storage_A"
    },
    "id": "RRTConnect_move_to_storage_A_27",
    "joint_names": [
        "shoulder_pan_joint",
        "shoulder_lift_joint",
        "elbow_joint",
        "wrist_1_joint",
        "wrist_2_joint",
        "wrist_3_joint"
    ],
    "metrics": {
        "cart_traj_len": 0.3534421197720438,
        "distance_elbow_joint": 0.4529783173679809,
        "distance_shoulder_lift_joint": 0.23538482057654098,
        "distance_shoulder_pan_joint": 0.4603817404487561,
        "distance_wrist_1_joint": 0.258216424983183,
        "distance_wrist_2_joint": 1.1076126950681422,
        "distance_wrist_3_joint": 0.09615411921677097,
        "smoothness": 8.881784197001252e-16,
        "time": 0.032975819,
        "traj_len": 1.615774773185104,
        "weighted_distance": 2.041779977408497
    },
    "planner": "RRTConnect",
    "start": {
        "state": {
            "elbow_joint": 1.971548259319323,
            "shoulder_lift_joint": -1.1394851275133948,
            "shoulder_pan_joint": 0.1228115487234821,
            "wrist_1_joint": -0.7804723859257726,
            "wrist_2_joint": 0.12958671773740124,
            "wrist_3_joint": -3.192489227718131
        }
    },
    "waypoints": [
        {
            "positions": [
                0.1228115487234821,
                -1.1394851275133948,
                1.971548259319323,
                -0.7804723859257726,
                0.12958671773740124,
                -3.192489227718131
            ]
        },
        {
            "positions": [
                0.057042728659374084,
                -1.1731115304529007,
                2.0362594475147486,
                -0.817360446637656,
                0.28781710274713584,
                -3.178752924972878
            ]
        },
        {
            "positions": [
                -0.008726091404733932,
                -1.2067379333924064,
                2.1009706357101745,
                -0.8542485073495392,
                0.4460474877568704,
                -3.165016622227625
            ]
        },
        {
            "positions": [
                -0.07449491146884193,
                -1.2403643363319123,
                2.1656818239056004,
                -0.8911365680614225,
                0.604277872766605,
                -3.151280319482372
            ]
        },
        {
            "positions": [
                -0.14026373153294996,
                -1.2739907392714183,
                2.2303930121010263,
                -0.9280246287733057,
                0.7625082577763397,
                -3.1375440167371194
            ]
        },
        {
            "positions": [
                -0.20603255159705802,
                -1.3076171422109242,
                2.295104200296452,
                -0.964912689485189,
                0.9207386427860743,
                -3.1238077139918663
            ]
        },
        {
            "positions": [
                -0.27180137166116597,
                -1.3412435451504299,
                2.359815388491878,
                -1.0018007501970723,
                1.0789690277958088,
                -3.1100714112466132
            ]
        },
        {
            "positions": [
                -0.337570191725274,
                -1.3748699480899358,
                2.424526576687304,
                -1.0386888109089556,
                1.2371994128055435,
                -3.09633510850136
            ]
        }
    ]
}{
    "goal": {
        "global_pose": {
            "orientation": {
                "w": 0.5084816217422485,
                "x": -0.49083608388900757,
                "y": 0.5182115435600281,
                "z": -0.4816462993621826
            },
            "position": {
                "x": 0.5540239810943604,
                "y": 0.030875300988554955,
                "z": 0.16403168439865112
            }
        },
        "name": "move_to_storage_A"
    },
    "id": "RRTConnect_move_to_storage_A_27",
    "joint_names": [
        "shoulder_pan_joint",
        "shoulder_lift_joint",
        "elbow_joint",
        "wrist_1_joint",
        "wrist_2_joint",
        "wrist_3_joint"
    ],
    "metrics": {
        "cart_traj_len": 0.35364345434383215,
        "distance_elbow_joint": 0.4495025643698054,
        "distance_shoulder_lift_joint": 0.2360824987231449,
        "distance_shoulder_pan_joint": 0.46201457446049904,
        "distance_wrist_1_joint": 0.23506319855339086,
        "distance_wrist_2_joint": 1.1028212553725407,
        "distance_wrist_3_joint": 0.0882056781077094,
        "smoothness": 6.661338165333112e-16,
        "time": 0.043040811,
        "traj_len": 1.6042723489442465,
        "weighted_distance": 2.0218767469181795
    },
    "planner": "RRTConnect",
    "start": {
        "state": {
            "elbow_joint": 1.97154746011099,
            "shoulder_lift_joint": -1.13948474672311,
            "shoulder_pan_joint": 0.12281154466712228,
            "wrist_1_joint": -0.7804688027058302,
            "wrist_2_joint": 0.12958655903071145,
            "wrist_3_joint": 3.0906928834467795
        }
    },
    "waypoints": [
        {
            "positions": [
                0.12281154466712228,
                -1.13948474672311,
                1.97154746011099,
                -0.7804688027058302,
                0.12958655903071145,
                3.0906928834467795
            ]
        },
        {
            "positions": [
                0.05680946260133671,
                -1.1732108179692735,
                2.035762112163819,
                -0.8140492596420289,
                0.28713245265536014,
                3.1032936946050236
            ]
        },
        {
            "positions": [
                -0.009192619464448867,
                -1.206936889215437,
                2.0999767642166485,
                -0.8476297165782276,
                0.4446783462800088,
                3.115894505763268
            ]
        },
        {
            "positions": [
                -0.07519470153023443,
                -1.2406629604616006,
                2.1641914162694778,
                -0.8812101735144262,
                0.6022242399046575,
                3.128495316921512
            ]
        },
        {
            "positions": [
                -0.14119678359602,
                -1.2743890317077642,
                2.2284060683223075,
                -0.9147906304506249,
                0.7597701335293061,
                3.1410961280797562
            ]
        },
        {
            "positions": [
                -0.20719886566180562,
                -1.3081151029539277,
                2.2926207203751368,
                -0.9483710873868236,
                0.9173160271539549,
                3.1536969392380003
            ]
        },
        {
            "positions": [
                -0.2732009477275911,
                -1.3418411742000913,
                2.356835372427966,
                -0.9819515443230223,
                1.0748619207786034,
                3.166297750396245
            ]
        },
        {
            "positions": [
                -0.33920302979337674,
                -1.3755672454462549,
                2.4210500244807953,
                -1.015532001259221,
                1.2324078144032522,
                3.178898561554489
            ]
        }
    ]
}{
    "goal": {
        "global_pose": {
            "orientation": {
                "w": 0.5084816217422485,
                "x": -0.49083608388900757,
                "y": 0.5182115435600281,
                "z": -0.4816462993621826
            },
            "position": {
                "x": 0.5540239810943604,
                "y": 0.030875300988554955,
                "z": 0.16403168439865112
            }
        },
        "name": "move_to_storage_A"
    },
    "id": "RRTConnect_move_to_storage_A_27",
    "joint_names": [
        "shoulder_pan_joint",
        "shoulder_lift_joint",
        "elbow_joint",
        "wrist_1_joint",
        "wrist_2_joint",
        "wrist_3_joint"
    ],
    "metrics": {
        "cart_traj_len": 0.35304327873139946,
        "distance_elbow_joint": 0.4479600411075739,
        "distance_shoulder_lift_joint": 0.23287801955955456,
        "distance_shoulder_pan_joint": 0.45908455930768477,
        "distance_wrist_1_joint": 0.2403796865383523,
        "distance_wrist_2_joint": 1.108528950377491,
        "distance_wrist_3_joint": 0.09085395378009142,
        "smoothness": 0.0,
        "time": 0.054539959,
        "traj_len": 1.6061398477936932,
        "weighted_distance": 2.0273879143239397
    },
    "planner": "RRTConnect",
    "start": {
        "state": {
            "elbow_joint": 1.9715472970024885,
            "shoulder_lift_joint": -1.1394870060712896,
            "shoulder_pan_joint": 0.12281152778156021,
            "wrist_1_joint": -0.780463741449964,
            "wrist_2_joint": 0.12958659822042276,
            "wrist_3_joint": 3.090690232415272
        }
    },
    "waypoints": [
        {
            "positions": [
                0.12281152778156021,
                -1.1394870060712896,
                1.9715472970024885,
                -0.780463741449964,
                0.12958659822042276,
                3.090690232415272
            ]
        },
        {
            "positions": [
                0.05722801930903382,
                -1.1727552945797974,
                2.0355415885892847,
                -0.8148036966697286,
                0.2879478768457786,
                3.1036693686695704
            ]
        },
        {
            "positions": [
                -0.008355489163492574,
                -1.2060235830883053,
                2.0995358801760813,
                -0.8491436518894933,
                0.4463091554711345,
                3.1166485049238695
            ]
        },
        {
            "positions": [
                -0.07393899763601897,
                -1.239291871596813,
                2.1635301717628774,
                -0.8834836071092578,
                0.6046704340964904,
                3.129627641178168
            ]
        },
        {
            "positions": [
                -0.13952250610854536,
                -1.2725601601053207,
                2.2275244633496736,
                -0.9178235623290224,
                0.7630317127218462,
                3.142606777432467
            ]
        },
        {
            "positions": [
                -0.20510601458107178,
                -1.3058284486138285,
                2.2915187549364697,
                -0.952163517548787,
                0.9213929913472021,
                3.1555859136867657
            ]
        },
        {
            "positions": [
                -0.27068952305359817,
                -1.3390967371223363,
                2.3555130465232663,
                -0.9865034727685517,
                1.079754269972558,
                3.1685650499410647
            ]
        },
        {
            "positions": [
                -0.33627303152612453,
                -1.3723650256308442,
                2.4195073381100625,
                -1.0208434279883163,
                1.2381155485979138,
                3.1815441861953633
            ]
        }
    ]
}