{
    "goal": {
        "global_pose": {
            "orientation": {
                "w": -0.4816463035849501,
                "x": 0.5182115481033762,
                "y": 0.4908360881923453,
                "z": -0.5084816262002911
            },
            "position": {
                "x": -0.8240239810943604,
                "y": -0.300875300988555,
                "z": 0.16403168439865112
            }
        },
        "name": "move_to_storage_C"
    },
    "id": "RRTConnect_move_to_storage_C_147",
    "joint_names": [
        "shoulder_pan_joint",
        "shoulder_lift_joint",
        "elbow_joint",
        "wrist_1_joint",
        "wrist_2_joint",
        "wrist_3_joint"
    ],
    "metrics": {
        "cart_traj_len": 0.5769818536718055,
        "distance_elbow_joint": 0.25840290404796495,
        "distance_shoulder_lift_joint": 0.18991753554902413,
        "distance_shoulder_pan_joint": 0.4958658473727171,
        "distance_wrist_1_joint": 0.07967880870936872,
        "distance_wrist_2_joint": 1.060875037696103,
        "distance_wrist_3_joint": 0.06212825269521405,
        "smoothness": 0.0,
        "time": 0.100504884,
        "traj_len": 1.465219569235407,
        "weighted_distance": 1.8470730190943432
    },
    "planner": "RRTConnect",
    "start": {
        "state": {
            "elbow_joint": 2.010868314990456,
            "shoulder_lift_joint": -1.1634956873337592,
            "shoulder_pan_joint": -2.4736205022346125,
            "wrist_1_joint": -0.8367026794202681,
            "wrist_2_joint": 0.6746043897044499,
            "wrist_3_joint": -3.1496632123970403
        }
    },
    "waypoints": [
        {
            "positions": [
                -2.4736205022346125,
                -1.1634956873337592,
                2.010868314990456,
                -0.8367026794202681,
                0.6746043897044499,
                -3.1496632123970403
            ]
        },
        {
            "positions": [
                -2.5562648101300653,
                -1.131842764742255,
                1.9678011643157949,
                -0.8234228779687066,
                0.8514168959871338,
                -3.1393085036145045
            ]
        },
        {
            "positions": [
                -2.638909118025518,
                -1.1001898421507512,
                1.9247340136411342,
                -0.8101430765171452,
                1.0282294022698175,
                -3.128953794831969
            ]
        },
        {
            "positions": [
                -2.721553425920971,
                -1.0685369195592471,
                1.8816668629664735,
                -0.7968632750655837,
                1.2050419085525013,
                -3.118599086049433
            ]
        },
        {
            "positions": [
                -2.804197733816424,
                -1.036883996967743,
                1.8385997122918125,
                -0.7835834736140223,
                1.381854414835185,
                -3.1082443772668977
            ]
        },
        {
            "positions": [
                -2.8868420417118767,
                -1.0052310743762392,
                1.7955325616171516,
                -0.7703036721624609,
                1.5586669211178692,
                -3.097889668484362
            ]
        },
        {
            "positions": [
                -2.9694863496073296,
                -0.9735781517847351,
                1.7524654109424909,
                -0.7570238707108994,
                1.7354794274005527,
                -3.0875349597018262
            ]
        }
    ]
}