{
    "goal": {
        "global_pose": {
            "orientation": {
                "w": 0.7031023502349854,
                "x": -0.7110244035720825,
                "y": 0.007748599164187908,
                "z": 0.005598929710686207
            },
            "position": {
                "x": 0.11585023208521307,
                "y": 0.44412534475326537,
                "z": 0.3711530566215515
            }
        },
        "name": "move_to_auspresseinheit_A"
    },
    "id": "RRTConnect_move_to_auspresseinheit_A_96",
    "joint_names": [
        "shoulder_pan_joint",
        "shoulder_lift_joint",
        "elbow_joint",
        "wrist_1_joint",
        "wrist_2_joint",
        "wrist_3_joint"
    ],
    "metrics": {
        "cart_traj_len": 0.7251978174166219,
        "distance_elbow_joint": 0.3139650746862648,
        "distance_shoulder_lift_joint": 0.7336430264543761,
        "distance_shoulder_pan_joint": 1.0431613750590778,
        "distance_wrist_1_joint": 1.152935459107856,
        "distance_wrist_2_joint": 0.521603739003998,
        "distance_wrist_3_joint": 1.608998238674077,
        "smoothness": 1.0873402803358716,
        "time": 0.066309609,
        "traj_len": 2.318255144065392,
        "weighted_distance": 3.2041914094581894
    },
    "planner": "RRTConnect",
    "start": {
        "state": {
            "elbow_joint": 2.4225746658250005,
            "shoulder_lift_joint": -1.3736534386056498,
            "shoulder_pan_joint": -0.3378633547517467,
            "wrist_1_joint": -1.0288598680537169,
            "wrist_2_joint": 1.233022673432363,
            "wrist_3_joint": -3.0940220416140027
        }
    },
    "waypoints": [
        {
            "positions": [
                -0.3378633547517467,
                -1.3736534386056498,
                2.4225746658250005,
                -1.0288598680537169,
                1.233022673432363,
                -3.0940220416140027
            ]
        },
        {
            "positions": [
                -0.2926883988696056,
                -1.4643404417416197,
                2.442974060521545,
                -1.0713021676029812,
                1.1860074822427946,
                -2.9813916529060838
            ]
        },
        {
            "positions": [
                -0.24751344298746453,
                -1.5550274448775898,
                2.46337345521809,
                -1.1137444671522454,
                1.1389922910532264,
                -2.8687612641981644
            ]
        },
        {
            "positions": [
                -0.2023384871053234,
                -1.6457144480135597,
                2.4837728499146348,
                -1.1561867667015098,
                1.091977099863658,
                -2.7561308754902454
            ]
        },
        {
            "positions": [
                -0.1571635312231823,
                -1.7364014511495296,
                2.50417224461118,
                -1.1986290662507741,
                1.0449619086740896,
                -2.6435004867823264
            ]
        },
        {
            "positions": [
                -0.11198857534104117,
                -1.8270884542854997,
                2.5245716393077244,
                -1.2410713658000385,
                0.9979467174845212,
                -2.5308700980744074
            ]
        },
        {
            "positions": [
                -0.06681361945890008,
                -1.9177754574214694,
                2.5449710340042695,
                -1.2835136653493027,
                0.9509315262949529,
                -2.418239709366488
            ]
        },
        {
            "positions": [
                -0.02163866357675895,
                -2.0084624605574395,
                2.565370428700814,
                -1.325955964898567,
                0.9039163351053845,
                -2.305609320658569
            ]
        },
        {
            "positions": [
                0.06922842190875231,
                -1.9961082099946161,
                2.5439742647245076,
                -1.2189760446156912,
                0.879854160020757,
                -2.4081825103733996
            ]
        },
        {
            "positions": [
                0.16009550739426356,
                -1.9837539594317928,
                2.522578100748201,
                -1.1119961243328156,
                0.8557919849361296,
                -2.5107557000882297
            ]
        },
        {
            "positions": [
                0.25096259287977485,
                -1.9713997088689696,
                2.501181936771895,
                -1.00501620404994,
                0.8317298098515022,
                -2.61332888980306
            ]
        },
        {
            "positions": [
                0.3418296783652861,
                -1.9590454583061463,
                2.4797857727955885,
                -0.8980362837670641,
                0.8076676347668748,
                -2.7159020795178908
            ]
        },
        {
            "positions": [
                0.43269676385079736,
                -1.946691207743323,
                2.458389608819282,
                -0.7910563634841884,
                0.7836054596822473,
                -2.8184752692327213
            ]
        },
        {
            "positions": [
                0.5235638493363086,
                -1.9343369571804998,
                2.436993444842976,
                -0.6840764432013127,
                0.7595432845976199,
                -2.921048458947552
            ]
        },
        {
            "positions": [
                0.6144309348218199,
                -1.9219827066176765,
                2.4155972808666695,
                -0.5770965229184369,
                0.7354811095129925,
                -3.023621648662382
            ]
        },
        {
            "positions": [
                0.7052980203073311,
                -1.909628456054853,
                2.394201116890363,
                -0.47011660263556126,
                0.711418934428365,
                -3.1261948383772125
            ]
        }
    ]
}