{
    "goal": {
        "global_pose": {
            "orientation": {
                "w": -0.00223480608172531,
                "x": 0.0024358444001904467,
                "y": 0.7094548369677653,
                "z": -0.704743149386269
            },
            "position": {
                "x": -0.37947507619857795,
                "y": -0.6371506643295288,
                "z": 0.19426114857196808
            }
        },
        "name": "move_to_magneteinheit_C"
    },
    "id": "RRTConnect_move_to_magneteinheit_C_77",
    "joint_names": [
        "shoulder_pan_joint",
        "shoulder_lift_joint",
        "elbow_joint",
        "wrist_1_joint",
        "wrist_2_joint",
        "wrist_3_joint"
    ],
    "metrics": {
        "cart_traj_len": 3.9753370923823113,
        "distance_elbow_joint": 2.268468512241983,
        "distance_shoulder_lift_joint": 1.0387374375719385,
        "distance_shoulder_pan_joint": 4.217192708961722,
        "distance_wrist_1_joint": 1.712686158004844,
        "distance_wrist_2_joint": 5.473313804940585,
        "distance_wrist_3_joint": 8.597412843872192,
        "smoothness": 0.3079690114700492,
        "time": 0.101317644,
        "traj_len": 4.8278164283238105,
        "weighted_distance": 6.905695990722664
    },
    "planner": "RRTConnect",
    "start": {
        "state": {
            "elbow_joint": 1.9565354010623817,
            "shoulder_lift_joint": -1.4165861575791021,
            "shoulder_pan_joint": -1.6717766225146293,
            "wrist_1_joint": -0.5286633292919765,
            "wrist_2_joint": 1.472756589071564,
            "wrist_3_joint": -3.1238370188695823
        }
    },
    "waypoints": [
        {
            "positions": [
                -1.6717766225146293,
                -1.4165861575791021,
                1.9565354010623817,
                -0.5286633292919765,
                1.472756589071564,
                -3.1238370188695823
            ]
        },
        {
            "positions": [
                -1.5527417908191457,
                -1.4210122271790544,
                1.8953872935629288,
                -0.4845168231426583,
                1.4398769746623294,
                -3.0097239120246138
            ]
        },
        {
            "positions": [
                -1.4337069591236618,
                -1.4254382967790067,
                1.834239186063476,
                -0.44037031699334017,
                1.406997360253095,
                -2.8956108051796456
            ]
        },
        {
            "positions": [
                -1.314672127428178,
                -1.429864366378959,
                1.773091078564023,
                -0.3962238108440221,
                1.3741177458438605,
                -2.781497698334677
            ]
        },
        {
            "positions": [
                -1.1956372957326942,
                -1.4342904359789113,
                1.7119429710645702,
                -0.35207730469470394,
                1.3412381314346258,
                -2.667384591489709
            ]
        },
        {
            "positions": [
                -1.0766024640372105,
                -1.4387165055788635,
                1.6507948635651173,
                -0.30793079854538585,
                1.3083585170253913,
                -2.5532714846447404
            ]
        },
        {
            "positions": [
                -0.9575676323417267,
                -1.4431425751788158,
                1.5896467560656644,
                -0.2637842923960677,
                1.2754789026161568,
                -2.439158377799772
            ]
        },
        {
            "positions": [
                -0.838532800646243,
                -1.4475686447787681,
                1.5284986485662118,
                -0.21963778624674957,
                1.2425992882069223,
                -2.3250452709548037
            ]
        },
        {
            "positions": [
                -0.7194979689507591,
                -1.4519947143787204,
                1.4673505410667587,
                -0.17549128009743142,
                1.2097196737976879,
                -2.210932164109835
            ]
        },
        {
            "positions": [
                -0.6004631372552756,
                -1.4564207839786727,
                1.406202433567306,
                -0.13134477394811334,
                1.1768400593884534,
                -2.0968190572648666
            ]
        },
        {
            "positions": [
                -0.48142830555979166,
                -1.460846853578625,
                1.345054326067853,
                -0.08719826779879519,
                1.1439604449792187,
                -1.9827059504198983
            ]
        },
        {
            "positions": [
                -0.362393473864308,
                -1.4652729231785773,
                1.2839062185684003,
                -0.04305176164947705,
                1.1110808305699842,
                -1.8685928435749302
            ]
        },
        {
            "positions": [
                -0.24335864216882408,
                -1.4696989927785296,
                1.2227581110689472,
                0.0010947444998410383,
                1.0782012161607497,
                -1.7544797367299616
            ]
        },
        {
            "positions": [
                -0.12432381047334037,
                -1.4741250623784818,
                1.1616100035694945,
                0.045241250649159154,
                1.0453216017515152,
                -1.6403666298849933
            ]
        },
        {
            "positions": [
                -0.1944572792942224,
                -1.4771677738454052,
                1.147529250918093,
                0.003224900719891878,
                0.9223351015590365,
                -1.5126536072820975
            ]
        },
        {
            "positions": [
                -0.26459074811510447,
                -1.4802104853123286,
                1.1334484982666915,
                -0.0387914492093754,
                0.7993486013665578,
                -1.3849405846792018
            ]
        },
        {
            "positions": [
                -0.33472421693598653,
                -1.4832531967792517,
                1.11936774561529,
                -0.08080779913864267,
                0.6763621011740791,
                -1.2572275620763063
            ]
        },
        {
            "positions": [
                -0.40485768575686853,
                -1.486295908246175,
                1.1052869929638887,
                -0.12282414906790995,
                0.5533756009816004,
                -1.1295145394734103
            ]
        },
        {
            "positions": [
                -0.47499115457775054,
                -1.4893386197130984,
                1.0912062403124871,
                -0.16484049899717723,
                0.43038910078912174,
                -1.0018015168705148
            ]
        },
        {
            "positions": [
                -0.5451246233986327,
                -1.4923813311800218,
                1.0771254876610856,
                -0.2068568489264445,
                0.30740260059664304,
                -0.874088494267619
            ]
        },
        {
            "positions": [
                -0.6152580922195147,
                -1.4954240426469452,
                1.063044735009684,
                -0.24887319885571177,
                0.18441610040416423,
                -0.7463754716647232
            ]
        },
        {
            "positions": [
                -0.6853915610403968,
                -1.4984667541138685,
                1.0489639823582826,
                -0.2908895487849791,
                0.06142960021168553,
                -0.6186624490618275
            ]
        },
        {
            "positions": [
                -0.7555250298612789,
                -1.5015094655807917,
                1.034883229706881,
                -0.33290589871424636,
                -0.06155689998079317,
                -0.4909494264589316
            ]
        },
        {
            "positions": [
                -0.8256584986821608,
                -1.504552177047715,
                1.0208024770554796,
                -0.37492224864351364,
                -0.18454340017327175,
                -0.36323640385603606
            ]
        },
        {
            "positions": [
                -0.8957919675030429,
                -1.5075948885146384,
                1.0067217244040783,
                -0.4169385985727809,
                -0.30752990036575056,
                -0.23552338125314032
            ]
        },
        {
            "positions": [
                -0.9659254363239249,
                -1.5106375999815618,
                0.9926409717526767,
                -0.4589549485020481,
                -0.43051640055822915,
                -0.1078103586502448
            ]
        },
        {
            "positions": [
                -1.036058905144807,
                -1.5136803114484851,
                0.9785602191012752,
                -0.5009712984313155,
                -0.553502900750708,
                0.019902663952651167
            ]
        },
        {
            "positions": [
                -1.106192373965689,
                -1.5167230229154083,
                0.9644794664498737,
                -0.5429876483605827,
                -0.6764894009431868,
                0.1476156865555469
            ]
        },
        {
            "positions": [
                -1.176325842786571,
                -1.5197657343823316,
                0.9503987137984722,
                -0.58500399828985,
                -0.7994759011356654,
                0.27532870915844243
            ]
        },
        {
            "positions": [
                -1.2464593116074532,
                -1.522808445849255,
                0.9363179611470707,
                -0.6270203482191172,
                -0.9224624013281442,
                0.4030417317613382
            ]
        },
        {
            "positions": [
                -1.316592780428335,
                -1.5258511573161784,
                0.9222372084956693,
                -0.6690366981483845,
                -1.045448901520623,
                0.5307547543642341
            ]
        },
        {
            "positions": [
                -1.3867262492492174,
                -1.5288938687831017,
                0.9081564558442677,
                -0.7110530480776519,
                -1.1684354017131016,
                0.6584677769671301
            ]
        },
        {
            "positions": [
                -1.4568597180700993,
                -1.531936580250025,
                0.8940757031928662,
                -0.7530693980069191,
                -1.2914219019055801,
                0.7861807995700256
            ]
        },
        {
            "positions": [
                -1.5269931868909812,
                -1.5349792917169482,
                0.8799949505414648,
                -0.7950857479361864,
                -1.4144084020980587,
                0.9138938221729211
            ]
        },
        {
            "positions": [
                -1.5971266557118635,
                -1.5380220031838716,
                0.8659141978900633,
                -0.8371020978654536,
                -1.5373949022905378,
                1.041606844775817
            ]
        },
        {
            "positions": [
                -1.6672601245327454,
                -1.541064714650795,
                0.8518334452386618,
                -0.8791184477947209,
                -1.6603814024830166,
                1.1693198673787126
            ]
        },
        {
            "positions": [
                -1.8300318049479958,
                -1.4533923719295074,
                0.9087103254840758,
                -0.8892870466593087,
                -1.6588062425829646,
                1.1115614797877535
            ]
        },
        {
            "positions": [
                -1.9928034853632464,
                -1.3657200292082199,
                0.96558720572949,
                -0.8994556455238965,
                -1.6572310826829124,
                1.0538030921967942
            ]
        },
        {
            "positions": [
                -2.1555751657784965,
                -1.2780476864869323,
                1.0224640859749041,
                -0.9096242443884842,
                -1.6556559227828604,
                0.996044704605835
            ]
        },
        {
            "positions": [
                -2.318346846193747,
                -1.1903753437656448,
                1.0793409662203182,
                -0.919792843253072,
                -1.6540807628828085,
                0.9382863170148759
            ]
        },
        {
            "positions": [
                -2.4236463520587397,
                -1.0921611606050403,
                1.1363687061756278,
                -0.9378543355111729,
                -1.6303304124900857,
                0.84572104262412
            ]
        },
        {
            "positions": [
                -2.528945857923732,
                -0.9939469774444358,
                1.1933964461309374,
                -0.9559158277692738,
                -1.6065800620973631,
                0.753155768233364
            ]
        },
        {
            "positions": [
                -2.6342453637887244,
                -0.8957327942838313,
                1.250424186086247,
                -0.9739773200273747,
                -1.5828297117046404,
                0.6605904938426082
            ]
        },
        {
            "positions": [
                -2.625833872020038,
                -0.909886844817162,
                1.290696597432072,
                -0.9676845301648919,
                -1.463744231567397,
                0.46082593678535577
            ]
        },
        {
            "positions": [
                -2.6174223802513517,
                -0.9240408953504926,
                1.3309690087778974,
                -0.9613917403024089,
                -1.3446587514301536,
                0.2610613797281034
            ]
        },
        {
            "positions": [
                -2.6090108884826653,
                -0.9381949458838232,
                1.3712414201237224,
                -0.9550989504399261,
                -1.2255732712929102,
                0.061296822670851014
            ]
        },
        {
            "positions": [
                -2.600599396713979,
                -0.9523489964171539,
                1.4115138314695477,
                -0.9488061605774433,
                -1.1064877911556668,
                -0.13846773438640136
            ]
        },
        {
            "positions": [
                -2.5921879049452925,
                -0.9665030469504845,
                1.4517862428153727,
                -0.9425133707149603,
                -0.9874023110184234,
                -0.33823229144365385
            ]
        },
        {
            "positions": [
                -2.583776413176606,
                -0.9806570974838151,
                1.492058654161198,
                -0.9362205808524775,
                -0.86831683088118,
                -0.5379968485009061
            ]
        },
        {
            "positions": [
                -2.5753649214079197,
                -0.9948111480171458,
                1.532331065507023,
                -0.9299277909899946,
                -0.7492313507439365,
                -0.7377614055581585
            ]
        },
        {
            "positions": [
                -2.5669534296392333,
                -1.0089651985504764,
                1.5726034768528483,
                -0.9236350011275117,
                -0.6301458706066931,
                -0.9375259626154109
            ]
        },
        {
            "positions": [
                -2.558541937870547,
                -1.023119249083807,
                1.6128758881986733,
                -0.9173422112650289,
                -0.5110603904694497,
                -1.1372905196726633
            ]
        },
        {
            "positions": [
                -2.55013044610186,
                -1.0372732996171377,
                1.6531482995444986,
                -0.911049421402546,
                -0.39197491033220633,
                -1.3370550767299159
            ]
        },
        {
            "positions": [
                -2.5417189543331737,
                -1.0514273501504683,
                1.6934207108903236,
                -0.9047566315400631,
                -0.2728894301949629,
                -1.5368196337871685
            ]
        },
        {
            "positions": [
                -2.5333074625644874,
                -1.065581400683799,
                1.733693122236149,
                -0.8984638416775803,
                -0.15380395005771952,
                -1.7365841908444204
            ]
        },
        {
            "positions": [
                -2.524895970795801,
                -1.0797354512171295,
                1.773965533581974,
                -0.8921710518150974,
                -0.034718469920476114,
                -1.9363487479016732
            ]
        },
        {
            "positions": [
                -2.5164844790271146,
                -1.0938895017504602,
                1.814237944927799,
                -0.8858782619526145,
                0.08436701021676729,
                -2.136113304958925
            ]
        },
        {
            "positions": [
                -2.508072987258428,
                -1.1080435522837908,
                1.8545103562736243,
                -0.8795854720901317,
                0.2034524903540107,
                -2.335877862016178
            ]
        },
        {
            "positions": [
                -2.499661495489742,
                -1.1221976028171214,
                1.8947827676194495,
                -0.8732926822276488,
                0.3225379704912541,
                -2.53564241907343
            ]
        },
        {
            "positions": [
                -2.4912500037210554,
                -1.136351653350452,
                1.9350551789652746,
                -0.866999892365166,
                0.4416234506284975,
                -2.7354069761306827
            ]
        },
        {
            "positions": [
                -2.482838511952369,
                -1.1505057038837827,
                1.9753275903110996,
                -0.860707102502683,
                0.5607089307657409,
                -2.9351715331879347
            ]
        },
        {
            "positions": [
                -2.4744270201836827,
                -1.1646597544171133,
                2.015600001656925,
                -0.8544143126402002,
                0.6797944109029842,
                -3.1349360902451875
            ]
        }
    ]
}