{
    "goal": {
        "global_pose": {
            "orientation": {
                "w": -0.00223480608172531,
                "x": 0.0024358444001904467,
                "y": 0.7094548369677653,
                "z": -0.704743149386269
            },
            "position": {
                "x": -0.37947507619857795,
                "y": -0.6371506643295288,
                "z": 0.19426114857196808
            }
        },
        "name": "move_to_magneteinheit_C"
    },
    "id": "RRTConnect_move_to_magneteinheit_C_94",
    "joint_names": [
        "shoulder_pan_joint",
        "shoulder_lift_joint",
        "elbow_joint",
        "wrist_1_joint",
        "wrist_2_joint",
        "wrist_3_joint"
    ],
    "metrics": {
        "cart_traj_len": 1.164146817992676,
        "distance_elbow_joint": 0.09681497706701014,
        "distance_shoulder_lift_joint": 0.5139867533769229,
        "distance_shoulder_pan_joint": 1.466669059405983,
        "distance_wrist_1_joint": 0.6588720949004512,
        "distance_wrist_2_joint": 1.4004740700743383,
        "distance_wrist_3_joint": 0.2090104585773096,
        "smoothness": 1.8528199938756502,
        "time": 0.054034720999999994,
        "traj_len": 2.0846648203972777,
        "weighted_distance": 2.6121245176161536
    },
    "planner": "RRTConnect",
    "start": {
        "state": {
            "elbow_joint": 1.9565354010623817,
            "shoulder_lift_joint": -1.4165861575791021,
            "shoulder_pan_joint": -1.6717766225146293,
            "wrist_1_joint": -0.5286633292919765,
            "wrist_2_joint": 1.472756589071564,
            "wrist_3_joint": -3.1238370188695823
        }
    },
    "waypoints": [
        {
            "positions": [
                -1.6717766225146293,
                -1.4165861575791021,
                1.9565354010623817,
                -0.5286633292919765,
                1.472756589071564,
                -3.1238370188695823
            ]
        },
        {
            "positions": [
                -1.5609193320715506,
                -1.4598590018076474,
                1.9495161885709562,
                -0.5866049739099143,
                1.357905395231128,
                -3.0974376552255416
            ]
        },
        {
            "positions": [
                -1.4500620416284722,
                -1.5031318460361929,
                1.9424969760795305,
                -0.644546618527852,
                1.243054201390692,
                -3.0710382915815013
            ]
        },
        {
            "positions": [
                -1.3392047511853935,
                -1.5464046902647381,
                1.935477763588105,
                -0.7024882631457898,
                1.128203007550256,
                -3.0446389279374606
            ]
        },
        {
            "positions": [
                -1.4372237380112265,
                -1.5172416387833305,
                1.9423117436220785,
                -0.7656847806700136,
                0.9763161969954934,
                -3.040825039829491
            ]
        },
        {
            "positions": [
                -1.5352427248370595,
                -1.4880785873019229,
                1.9491457236560519,
                -0.8288812981942372,
                0.8244293864407307,
                -3.0370111517215217
            ]
        },
        {
            "positions": [
                -1.6332617116628922,
                -1.458915535820515,
                1.955979703690025,
                -0.8920778157184609,
                0.6725425758859681,
                -3.033197263613552
            ]
        },
        {
            "positions": [
                -1.7312806984887252,
                -1.4297524843391074,
                1.9628136837239984,
                -0.9552743332426845,
                0.5206557653312054,
                -3.0293833755055823
            ]
        },
        {
            "positions": [
                -1.8292996853145582,
                -1.4005894328576998,
                1.9696476637579718,
                -1.0184708507669082,
                0.3687689547764428,
                -3.025569487397613
            ]
        },
        {
            "positions": [
                -1.9903002488014538,
                -1.3410011920366376,
                1.9800445236136885,
                -0.9762047074105284,
                0.442890563721247,
                -3.053255219173948
            ]
        },
        {
            "positions": [
                -2.1513008122883495,
                -1.2814129512155756,
                1.9904413834694052,
                -0.9339385640541485,
                0.5170121726660513,
                -3.080940950950283
            ]
        },
        {
            "positions": [
                -2.3123013757752453,
                -1.2218247103945135,
                2.0008382433251217,
                -0.8916724206977686,
                0.5911337816108556,
                -3.108626682726618
            ]
        },
        {
            "positions": [
                -2.4733019392621407,
                -1.1622364695734513,
                2.0112351031808386,
                -0.8494062773413888,
                0.6652553905556599,
                -3.136312414502953
            ]
        }
    ]
}