{
    "goal": {
        "global_pose": {
            "orientation": {
                "w": -0.4816463035849501,
                "x": 0.5182115481033762,
                "y": 0.4908360881923453,
                "z": -0.5084816262002911
            },
            "position": {
                "x": -0.8240239810943604,
                "y": 0.19912469901144506,
                "z": 0.16403168439865112
            }
        },
        "name": "move_to_storage_D"
    },
    "id": "RRTConnect_move_to_storage_D_131",
    "joint_names": [
        "shoulder_pan_joint",
        "shoulder_lift_joint",
        "elbow_joint",
        "wrist_1_joint",
        "wrist_2_joint",
        "wrist_3_joint"
    ],
    "metrics": {
        "cart_traj_len": 0.7012014354584504,
        "distance_elbow_joint": 0.5531681176709946,
        "distance_shoulder_lift_joint": 0.42964847507074966,
        "distance_shoulder_pan_joint": 0.46506378819365696,
        "distance_wrist_1_joint": 3.819905579519454,
        "distance_wrist_2_joint": 1.7771890330324793,
        "distance_wrist_3_joint": 3.126705558427931,
        "smoothness": 0.041346332678957334,
        "time": 0.105671706,
        "traj_len": 3.1893072213123754,
        "weighted_distance": 4.69278022938674
    },
    "planner": "RRTConnect",
    "start": {
        "state": {
            "elbow_joint": -2.384821988534728,
            "shoulder_lift_joint": -2.2788054721415256,
            "shoulder_pan_joint": -0.1854694642142757,
            "wrist_1_joint": 1.4845938289331202,
            "wrist_2_joint": 0.17898776772866878,
            "wrist_3_joint": 0.037105688729662994
        }
    },
    "waypoints": [
        {
            "positions": [
                -0.1854694642142757,
                -2.2788054721415256,
                -2.384821988534728,
                1.4845938289331202,
                0.17898776772866878,
                0.037105688729662994
            ]
        },
        {
            "positions": [
                -0.10840075554327527,
                -2.206100456973426,
                -2.357976474573546,
                1.430244520287602,
                0.11599082916571432,
                -0.003175513826000051
            ]
        },
        {
            "positions": [
                -0.03133204687227484,
                -2.1333954418053267,
                -2.3311309606123642,
                1.3758952116420837,
                0.05299389060275986,
                -0.043456716381663096
            ]
        },
        {
            "positions": [
                0.0457366617987256,
                -2.060690426637227,
                -2.3042854466511824,
                1.3215459029965655,
                -0.010003047960194605,
                -0.08373791893732614
            ]
        },
        {
            "positions": [
                0.12280537046972603,
                -1.9879854114691273,
                -2.2774399326900006,
                1.2671965943510473,
                -0.07299998652314908,
                -0.1240191214929892
            ]
        },
        {
            "positions": [
                0.11598845944756711,
                -1.994021429486447,
                -2.258057930001902,
                1.1105657967450742,
                -0.13931308560056915,
                -0.2529574148932187
            ]
        },
        {
            "positions": [
                0.10917154842540819,
                -2.0000574475037665,
                -2.2386759273138033,
                0.9539349991391011,
                -0.2056261846779892,
                -0.3818957082934482
            ]
        },
        {
            "positions": [
                0.10235463740324927,
                -2.006093465521086,
                -2.219293924625705,
                0.797304201533128,
                -0.2719392837554093,
                -0.5108340016936777
            ]
        },
        {
            "positions": [
                0.09553772638109033,
                -2.012129483538406,
                -2.1999119219376064,
                0.640673403927155,
                -0.3382523828328294,
                -0.6397722950939072
            ]
        },
        {
            "positions": [
                0.0887208153589314,
                -2.0181655015557256,
                -2.1805299192495076,
                0.4840426063211819,
                -0.40456548191024944,
                -0.7687105884941368
            ]
        },
        {
            "positions": [
                0.08190390433677248,
                -2.024201519573045,
                -2.161147916561409,
                0.3274118087152088,
                -0.47087858098766955,
                -0.8976488818943662
            ]
        },
        {
            "positions": [
                0.07508699331461355,
                -2.0302375375903647,
                -2.1417659138733107,
                0.1707810111092356,
                -0.5371916800650897,
                -1.0265871752945959
            ]
        },
        {
            "positions": [
                0.06827008229245463,
                -2.0362735556076843,
                -2.122383911185212,
                0.014150213503262732,
                -0.6035047791425097,
                -1.155525468694825
            ]
        },
        {
            "positions": [
                0.0614531712702957,
                -2.042309573625004,
                -2.1030019084971134,
                -0.14248058410271036,
                -0.6698178782199298,
                -1.2844637620950548
            ]
        },
        {
            "positions": [
                0.05463626024813678,
                -2.0483455916423234,
                -2.083619905809015,
                -0.29911138170868345,
                -0.7361309772973498,
                -1.4134020554952842
            ]
        },
        {
            "positions": [
                0.04781934922597786,
                -2.054381609659643,
                -2.064237903120916,
                -0.45574217931465655,
                -0.8024440763747699,
                -1.5423403488955139
            ]
        },
        {
            "positions": [
                0.041002438203818936,
                -2.060417627676963,
                -2.0448559004328177,
                -0.6123729769206296,
                -0.86875717545219,
                -1.671278642295743
            ]
        },
        {
            "positions": [
                0.034185527181660014,
                -2.0664536456942826,
                -2.0254738977447193,
                -0.7690037745266025,
                -0.93507027452961,
                -1.8002169356959725
            ]
        },
        {
            "positions": [
                0.027368616159501077,
                -2.072489663711602,
                -2.0060918950566204,
                -0.925634572132576,
                -1.0013833736070301,
                -1.9291552290962024
            ]
        },
        {
            "positions": [
                0.020551705137342155,
                -2.0785256817289217,
                -1.986709892368522,
                -1.0822653697385487,
                -1.0676964726844502,
                -2.058093522496432
            ]
        },
        {
            "positions": [
                0.013734794115183233,
                -2.0845616997462413,
                -1.9673278896804234,
                -1.2388961673445218,
                -1.1340095717618701,
                -2.187031815896661
            ]
        },
        {
            "positions": [
                0.006917883093024324,
                -2.090597717763561,
                -1.9479458869923247,
                -1.3955269649504949,
                -1.2003226708392902,
                -2.3159701092968907
            ]
        },
        {
            "positions": [
                0.00010097207086537385,
                -2.0966337357808804,
                -1.9285638843042263,
                -1.552157762556468,
                -1.2666357699167103,
                -2.4449084026971204
            ]
        },
        {
            "positions": [
                -0.0067159389512935486,
                -2.1026697537982,
                -1.9091818816161277,
                -1.708788560162441,
                -1.3329488689941305,
                -2.5738466960973496
            ]
        },
        {
            "positions": [
                -0.013532849973452471,
                -2.10870577181552,
                -1.889799878928029,
                -1.8654193577684142,
                -1.3992619680715503,
                -2.7027849894975793
            ]
        },
        {
            "positions": [
                -0.020349760995611393,
                -2.1147417898328396,
                -1.8704178762399306,
                -2.0220501553743873,
                -1.4655750671489705,
                -2.8317232828978085
            ]
        },
        {
            "positions": [
                -0.027166672017770316,
                -2.120777807850159,
                -1.851035873551832,
                -2.1786809529803604,
                -1.5318881662263906,
                -2.9606615762980386
            ]
        },
        {
            "positions": [
                -0.03398358303992923,
                -2.1268138258674787,
                -1.8316538708637333,
                -2.3353117505863334,
                -1.5982012653038107,
                -3.089599869698268
            ]
        }
    ]
}