{
    "goal": {
        "global_pose": {
            "orientation": {
                "w": 0.7031023480610252,
                "x": -0.7110244013736278,
                "y": 0.0077485991402295624,
                "z": 0.005598929693374583
            },
            "position": {
                "x": -0.8841497679147869,
                "y": 0.44412534475326537,
                "z": 0.3711530566215515
            }
        },
        "name": "move_to_auspresseinheit_D"
    },
    "id": "RRTConnect_move_to_auspresseinheit_D_79",
    "joint_names": [
        "shoulder_pan_joint",
        "shoulder_lift_joint",
        "elbow_joint",
        "wrist_1_joint",
        "wrist_2_joint",
        "wrist_3_joint"
    ],
    "metrics": {
        "cart_traj_len": 0.3446228111391563,
        "distance_elbow_joint": 0.6667299355212384,
        "distance_shoulder_lift_joint": 0.1370617113018353,
        "distance_shoulder_pan_joint": 0.13437875217926873,
        "distance_wrist_1_joint": 0.6314545173229247,
        "distance_wrist_2_joint": 1.4311356504589123,
        "distance_wrist_3_joint": 0.09052843254011345,
        "smoothness": 1.9737298371844314e-16,
        "time": 0.045257626999999995,
        "traj_len": 1.7582061879439206,
        "weighted_distance": 2.309748045174269
    },
    "planner": "RRTConnect",
    "start": {
        "state": {
            "elbow_joint": -1.8275523626775212,
            "shoulder_lift_joint": -2.126789852344167,
            "shoulder_pan_joint": -0.03513704404078235,
            "wrist_1_joint": -2.347782403156801,
            "wrist_2_joint": -1.6058999987535132,
            "wrist_3_joint": -3.0880379163319196
        }
    },
    "waypoints": [
        {
            "positions": [
                -0.03513704404078235,
                -2.126789852344167,
                -1.8275523626775212,
                -2.347782403156801,
                -1.6058999987535132,
                -3.0880379163319196
            ]
        },
        {
            "positions": [
                -0.05193438806319094,
                -2.1439225662568964,
                -1.7442111207373663,
                -2.4267142178221666,
                -1.427008042446149,
                -3.0767218622644052
            ]
        },
        {
            "positions": [
                -0.06873173208559953,
                -2.1610552801696254,
                -1.6608698787972116,
                -2.5056460324875323,
                -1.248116086138785,
                -3.0654058081968913
            ]
        },
        {
            "positions": [
                -0.08552907610800811,
                -2.178187994082355,
                -1.577528636857057,
                -2.5845778471528975,
                -1.0692241298314211,
                -3.054089754129377
            ]
        },
        {
            "positions": [
                -0.1023264201304167,
                -2.1953207079950845,
                -1.494187394916902,
                -2.663509661818263,
                -0.890332173524057,
                -3.042773700061863
            ]
        },
        {
            "positions": [
                -0.1191237641528253,
                -2.212453421907814,
                -1.410846152976747,
                -2.742441476483629,
                -0.7114402172166929,
                -3.0314576459943487
            ]
        },
        {
            "positions": [
                -0.1359211081752339,
                -2.2295861358205435,
                -1.3275049110365924,
                -2.821373291148994,
                -0.532548260909329,
                -3.0201415919268344
            ]
        },
        {
            "positions": [
                -0.1527184521976425,
                -2.2467188497332726,
                -1.2441636690964377,
                -2.90030510581436,
                -0.35365630460196495,
                -3.0088255378593205
            ]
        },
        {
            "positions": [
                -0.16951579622005108,
                -2.263851563646002,
                -1.1608224271562828,
                -2.9792369204797255,
                -0.17476434829460089,
                -2.997509483791806
            ]
        }
    ]
}