{
    "goal": {
        "global_pose": {
            "orientation": {
                "w": -0.00223480608172531,
                "x": 0.0024358444001904467,
                "y": 0.7094548369677653,
                "z": -0.704743149386269
            },
            "position": {
                "x": 0.6205249238014221,
                "y": -0.6371506643295288,
                "z": 0.19426114857196808
            }
        },
        "name": "move_to_magneteinheit_B"
    },
    "id": "RRTConnect_move_to_magneteinheit_B_126",
    "joint_names": [
        "shoulder_pan_joint",
        "shoulder_lift_joint",
        "elbow_joint",
        "wrist_1_joint",
        "wrist_2_joint",
        "wrist_3_joint"
    ],
    "metrics": {
        "cart_traj_len": 1.5120512822077605,
        "distance_elbow_joint": 0.9568396424777894,
        "distance_shoulder_lift_joint": 1.266852256810207,
        "distance_shoulder_pan_joint": 1.6211821817202876,
        "distance_wrist_1_joint": 0.32228832519404715,
        "distance_wrist_2_joint": 1.5161221013723745,
        "distance_wrist_3_joint": 1.2643430467785577,
        "smoothness": 0.5879702889377305,
        "time": 0.355219191,
        "traj_len": 2.6358352669226623,
        "weighted_distance": 3.3637366238272577
    },
    "planner": "RRTConnect",
    "start": {
        "state": {
            "elbow_joint": 2.6216224122426386,
            "shoulder_lift_joint": -1.4174107377796124,
            "shoulder_pan_joint": 0.7066234856936794,
            "wrist_1_joint": 1.9546482284002225,
            "wrist_2_joint": -0.7096286983471962,
            "wrist_3_joint": 0.005740856962016249
        }
    },
    "waypoints": [
        {
            "positions": [
                0.7066234856936794,
                -1.4174107377796124,
                2.6216224122426386,
                1.9546482284002225,
                -0.7096286983471962,
                0.005740856962016249
            ]
        },
        {
            "positions": [
                0.6250819968567118,
                -1.4812520558423854,
                2.605141227570766,
                1.937234660860417,
                -0.7503307588642053,
                -0.1529982598051243
            ]
        },
        {
            "positions": [
                0.5435405080197443,
                -1.5450933739051584,
                2.5886600428988933,
                1.9198210933206115,
                -0.7910328193812144,
                -0.31173737657226486
            ]
        },
        {
            "positions": [
                0.46199901918277675,
                -1.6089346919679315,
                2.57217885822702,
                1.9024075257808062,
                -0.8317348798982236,
                -0.4704764933394054
            ]
        },
        {
            "positions": [
                0.3804575303458092,
                -1.6727760100307045,
                2.5556976735551475,
                1.8849939582410007,
                -0.8724369404152327,
                -0.629215610106546
            ]
        },
        {
            "positions": [
                0.287956371319208,
                -1.6005269397050534,
                2.492060894712983,
                1.9030392478863454,
                -0.9691022160798283,
                -0.5842594258415463
            ]
        },
        {
            "positions": [
                0.19545521229260673,
                -1.5282778693794024,
                2.4284241158708193,
                1.92108453753169,
                -1.0657674917444238,
                -0.5393032415765467
            ]
        },
        {
            "positions": [
                0.10295405326600549,
                -1.4560287990537515,
                2.364787337028655,
                1.9391298271770347,
                -1.1624327674090194,
                -0.49434705731154704
            ]
        },
        {
            "positions": [
                0.010452894239404265,
                -1.3837797287281004,
                2.301150558186491,
                1.9571751168223794,
                -1.259098043073615,
                -0.44939087304654746
            ]
        },
        {
            "positions": [
                -0.08204826478719701,
                -1.3115306584024493,
                2.2375137793443267,
                1.9752204064677241,
                -1.3557633187382105,
                -0.40443468878154776
            ]
        },
        {
            "positions": [
                -0.17454942381379823,
                -1.2392815880767982,
                2.1738770005021624,
                1.9932656961130688,
                -1.452428594402806,
                -0.3594785045165481
            ]
        },
        {
            "positions": [
                -0.2670505828403995,
                -1.1670325177511471,
                2.1102402216599985,
                2.0113109857584135,
                -1.5490938700674017,
                -0.31452232025154847
            ]
        },
        {
            "positions": [
                -0.3595517418670007,
                -1.0947834474254963,
                2.046603442817834,
                2.029356275403758,
                -1.645759145731997,
                -0.2695661359865488
            ]
        },
        {
            "positions": [
                -0.45205290089360206,
                -1.022534377099845,
                1.98296666397567,
                2.047401565049103,
                -1.742424421396593,
                -0.22460995172154913
            ]
        },
        {
            "positions": [
                -0.5445540599202032,
                -0.950285306774194,
                1.9193298851335059,
                2.0654468546944473,
                -1.8390896970611883,
                -0.17965376745654948
            ]
        },
        {
            "positions": [
                -0.6370552189468045,
                -0.8780362364485429,
                1.8556931062913415,
                2.0834921443397922,
                -1.9357549727257837,
                -0.1346975831915499
            ]
        },
        {
            "positions": [
                -0.7295563779734057,
                -0.8057871661228919,
                1.7920563274491776,
                2.1015374339851367,
                -2.0324202483903795,
                -0.0897413989265502
            ]
        },
        {
            "positions": [
                -0.822057537000007,
                -0.7335380957972407,
                1.7284195486070133,
                2.1195827236304816,
                -2.129085524054975,
                -0.0447852146615505
            ]
        },
        {
            "positions": [
                -0.9145586960266082,
                -0.6612890254715899,
                1.6647827697648492,
                2.137628013275826,
                -2.2257507997195707,
                0.00017096960344912496
            ]
        }
    ]
}