{
    "goal": {
        "global_pose": {
            "orientation": {
                "w": -0.4816463035849501,
                "x": 0.5182115481033762,
                "y": 0.4908360881923453,
                "z": -0.5084816262002911
            },
            "position": {
                "x": -0.8240239810943604,
                "y": -0.300875300988555,
                "z": 0.16403168439865112
            }
        },
        "name": "move_to_storage_C"
    },
    "id": "RRTConnect_move_to_storage_C_69",
    "joint_names": [
        "shoulder_pan_joint",
        "shoulder_lift_joint",
        "elbow_joint",
        "wrist_1_joint",
        "wrist_2_joint",
        "wrist_3_joint"
    ],
    "metrics": {
        "cart_traj_len": 0.5762432742314461,
        "distance_elbow_joint": 0.2580581513899012,
        "distance_shoulder_lift_joint": 0.18849307426535367,
        "distance_shoulder_pan_joint": 0.49607428738867165,
        "distance_wrist_1_joint": 0.08616596885958494,
        "distance_wrist_2_joint": 1.058545440211422,
        "distance_wrist_3_joint": 0.07381902392684836,
        "smoothness": 0.0,
        "time": 0.137753237,
        "traj_len": 1.4700870538991158,
        "weighted_distance": 1.8583609452865948
    },
    "planner": "RRTConnect",
    "start": {
        "state": {
            "elbow_joint": 2.010868314990456,
            "shoulder_lift_joint": -1.1634956873337592,
            "shoulder_pan_joint": -2.4736205022346125,
            "wrist_1_joint": -0.8367026794202681,
            "wrist_2_joint": 0.6746043897044499,
            "wrist_3_joint": -3.1496632123970403
        }
    },
    "waypoints": [
        {
            "positions": [
                -2.4736205022346125,
                -1.1634956873337592,
                2.010868314990456,
                -0.8367026794202681,
                0.6746043897044499,
                -3.1496632123970403
            ]
        },
        {
            "positions": [
                -2.5562995501327244,
                -1.1320801749562002,
                1.9678586230921389,
                -0.8223416846103373,
                0.851028629739687,
                -3.1373600417425656
            ]
        },
        {
            "positions": [
                -2.6389785980308362,
                -1.1006646625786414,
                1.9248489311938222,
                -0.8079806898004065,
                1.027452869774924,
                -3.125056871088091
            ]
        },
        {
            "positions": [
                -2.721657645928948,
                -1.0692491502010824,
                1.8818392392955052,
                -0.7936196949904757,
                1.2038771098101608,
                -3.112753700433616
            ]
        },
        {
            "positions": [
                -2.8043366938270604,
                -1.0378336378235233,
                1.8388295473971883,
                -0.7792587001805448,
                1.3803013498453978,
                -3.1004505297791414
            ]
        },
        {
            "positions": [
                -2.8870157417251723,
                -1.0064181254459645,
                1.7958198554988716,
                -0.764897705370614,
                1.5567255898806351,
                -3.0881473591246666
            ]
        },
        {
            "positions": [
                -2.969694789623284,
                -0.9750026130684055,
                1.7528101636005546,
                -0.7505367105606832,
                1.733149829915872,
                -3.075844188470192
            ]
        }
    ]
}