{
    "goal": {
        "global_pose": {
            "orientation": {
                "w": 0.7047431493862688,
                "x": -0.7094548369677653,
                "y": 0.0024358444001904,
                "z": -0.0022348060817251984
            },
            "position": {
                "x": -0.39052492380142206,
                "y": 0.3671506643295288,
                "z": 0.19426114857196808
            }
        },
        "name": "move_to_magneteinheit_D"
    },
    "id": "RRTConnect_move_to_magneteinheit_D_59",
    "joint_names": [
        "shoulder_pan_joint",
        "shoulder_lift_joint",
        "elbow_joint",
        "wrist_1_joint",
        "wrist_2_joint",
        "wrist_3_joint"
    ],
    "metrics": {
        "cart_traj_len": 6.876680928702513,
        "distance_elbow_joint": 5.022340739805451,
        "distance_shoulder_lift_joint": 1.3227958534353794,
        "distance_shoulder_pan_joint": 5.751125238685172,
        "distance_wrist_1_joint": 4.024855720943636,
        "distance_wrist_2_joint": 2.938111698816745,
        "distance_wrist_3_joint": 8.02522556102551,
        "smoothness": 0.7493473180674086,
        "time": 0.17688529,
        "traj_len": 5.204272745803384,
        "weighted_distance": 7.077985119687894
    },
    "planner": "RRTConnect",
    "start": {
        "state": {
            "elbow_joint": 0.749534889911806,
            "shoulder_lift_joint": -0.6476975780787326,
            "shoulder_pan_joint": -2.711696901376241,
            "wrist_1_joint": -0.07506478083263063,
            "wrist_2_joint": 0.43296659715538205,
            "wrist_3_joint": -3.14703540197715
        }
    },
    "waypoints": [
        {
            "positions": [
                -2.711696901376241,
                -0.6476975780787326,
                0.749534889911806,
                -0.07506478083263063,
                0.43296659715538205,
                -3.14703540197715
            ]
        },
        {
            "positions": [
                -2.730937661633656,
                -0.6409745741111347,
                0.691748697209282,
                0.015156890818878221,
                0.36632962495377175,
                -3.1090318506219616
            ]
        },
        {
            "positions": [
                -2.7501784218910705,
                -0.6342515701435367,
                0.6339625045067581,
                0.10537856247038707,
                0.2996926527521614,
                -3.0710282992667732
            ]
        },
        {
            "positions": [
                -2.7694191821484853,
                -0.6275285661759388,
                0.5761763118042341,
                0.19560023412189592,
                0.23305568055055104,
                -3.033024747911585
            ]
        },
        {
            "positions": [
                -2.775528688441165,
                -0.6226924288189897,
                0.5040059057246473,
                0.31226430167708213,
                0.1481374535945999,
                -2.9555245402750203
            ]
        },
        {
            "positions": [
                -2.781638194733844,
                -0.6178562914620405,
                0.43183549964506046,
                0.42892836923226835,
                0.06321922663864873,
                -2.878024332638456
            ]
        },
        {
            "positions": [
                -2.7877477010265235,
                -0.6130201541050914,
                0.3596650935654736,
                0.5455924367874545,
                -0.02169900031730243,
                -2.8005241250018917
            ]
        },
        {
            "positions": [
                -2.793857207319203,
                -0.6081840167481423,
                0.2874946874858868,
                0.6622565043426407,
                -0.10661722727325357,
                -2.7230239173653272
            ]
        },
        {
            "positions": [
                -2.799966713611883,
                -0.603347879391193,
                0.2153242814062999,
                0.7789205718978269,
                -0.19153545422920476,
                -2.6455237097287627
            ]
        },
        {
            "positions": [
                -2.806076219904562,
                -0.598511742034244,
                0.1431538753267131,
                0.8955846394530131,
                -0.2764536811851559,
                -2.568023502092198
            ]
        },
        {
            "positions": [
                -2.7284317557280082,
                -0.6262338107865818,
                0.08749210465040352,
                0.8171617083132448,
                -0.27398686872833516,
                -2.416731635365615
            ]
        },
        {
            "positions": [
                -2.6507872915514543,
                -0.6539558795389196,
                0.03183033397409396,
                0.7387387771734764,
                -0.2715200562715144,
                -2.2654397686390326
            ]
        },
        {
            "positions": [
                -2.573142827374901,
                -0.6816779482912574,
                -0.023831436702215603,
                0.660315846033708,
                -0.26905324381469364,
                -2.1141479019124496
            ]
        },
        {
            "positions": [
                -2.495498363198347,
                -0.7094000170435952,
                -0.07949320737852517,
                0.5818929148939396,
                -0.2665864313578729,
                -1.962856035185867
            ]
        },
        {
            "positions": [
                -2.417853899021793,
                -0.7371220857959331,
                -0.13515497805483478,
                0.5034699837541712,
                -0.2641196189010522,
                -1.811564168459284
            ]
        },
        {
            "positions": [
                -2.340209434845239,
                -0.7648441545482709,
                -0.1908167487311443,
                0.4250470526144028,
                -0.2616528064442314,
                -1.6602723017327015
            ]
        },
        {
            "positions": [
                -2.2625649706686852,
                -0.7925662233006088,
                -0.2464785194074539,
                0.3466241214746344,
                -0.25918599398741066,
                -1.5089804350061184
            ]
        },
        {
            "positions": [
                -2.1849205064921318,
                -0.8202882920529465,
                -0.3021402900837634,
                0.268201190334866,
                -0.2567191815305899,
                -1.3576885682795357
            ]
        },
        {
            "positions": [
                -2.1072760423155774,
                -0.8480103608052844,
                -0.35780206076007304,
                0.1897782591950976,
                -0.2542523690737692,
                -1.2063967015529529
            ]
        },
        {
            "positions": [
                -2.029631578139024,
                -0.8757324295576222,
                -0.41346383143638266,
                0.11135532805532922,
                -0.2517855566169484,
                -1.05510483482637
            ]
        },
        {
            "positions": [
                -1.95198711396247,
                -0.90345449830996,
                -0.4691256021126923,
                0.03293239691556071,
                -0.24931874416012767,
                -0.9038129680997871
            ]
        },
        {
            "positions": [
                -1.8743426497859161,
                -0.9311765670622978,
                -0.5247873727890017,
                -0.04549053422420757,
                -0.24685193170330694,
                -0.7525211013732045
            ]
        },
        {
            "positions": [
                -1.7966981856093622,
                -0.9588986358146356,
                -0.5804491434653113,
                -0.12391346536397596,
                -0.24438511924648618,
                -0.6012292346466217
            ]
        },
        {
            "positions": [
                -1.7190537214328085,
                -0.9866207045669735,
                -0.6361109141416209,
                -0.20233639650374435,
                -0.24191830678966542,
                -0.4499373679200387
            ]
        },
        {
            "positions": [
                -1.6414092572562546,
                -1.0143427733193113,
                -0.6917726848179305,
                -0.28075932764351275,
                -0.23945149433284468,
                -0.2986455011934557
            ]
        },
        {
            "positions": [
                -1.563764793079701,
                -1.0420648420716492,
                -0.7474344554942399,
                -0.35918225878328114,
                -0.23698468187602395,
                -0.1473536344668731
            ]
        },
        {
            "positions": [
                -1.486120328903147,
                -1.069786910823987,
                -0.8030962261705495,
                -0.43760518992304953,
                -0.2345178694192032,
                0.003938232259709462
            ]
        },
        {
            "positions": [
                -1.4084758647265931,
                -1.0975089795763249,
                -0.8587579968468592,
                -0.5160281210628179,
                -0.23205105696238243,
                0.15523009898629248
            ]
        },
        {
            "positions": [
                -1.3308314005500392,
                -1.1252310483286627,
                -0.9144197675231688,
                -0.5944510522025863,
                -0.2295842445055617,
                0.3065219657128755
            ]
        },
        {
            "positions": [
                -1.2531869363734853,
                -1.1529531170810006,
                -0.9700815381994784,
                -0.6728739833423547,
                -0.22711743204874094,
                0.45781383243945806
            ]
        },
        {
            "positions": [
                -1.1755424721969316,
                -1.1806751858333384,
                -1.025743308875788,
                -0.7512969144821231,
                -0.2246506195919202,
                0.6091056991660411
            ]
        },
        {
            "positions": [
                -1.0978980080203777,
                -1.2083972545856763,
                -1.0814050795520975,
                -0.8297198456218917,
                -0.22218380713509944,
                0.7603975658926241
            ]
        },
        {
            "positions": [
                -1.020253543843824,
                -1.2361193233380139,
                -1.1370668502284067,
                -0.9081427767616597,
                -0.2197169946782787,
                0.9116894326192062
            ]
        },
        {
            "positions": [
                -0.9426090796672701,
                -1.2638413920903517,
                -1.1927286209047163,
                -0.9865657079014283,
                -0.21725018222145798,
                1.0629812993457892
            ]
        },
        {
            "positions": [
                -0.8649646154907165,
                -1.2915634608426896,
                -1.248390391581026,
                -1.0649886390411967,
                -0.21478336976463722,
                1.2142731660723722
            ]
        },
        {
            "positions": [
                -0.7873201513141623,
                -1.3192855295950274,
                -1.3040521622573356,
                -1.143411570180965,
                -0.21231655730781646,
                1.3655650327989548
            ]
        },
        {
            "positions": [
                -0.7096756871376089,
                -1.3470075983473653,
                -1.3597139329336452,
                -1.2218345013207332,
                -0.20984974485099572,
                1.5168568995255383
            ]
        },
        {
            "positions": [
                -0.632031222961055,
                -1.3747296670997031,
                -1.4153757036099548,
                -1.3002574324605018,
                -0.20738293239417496,
                1.6681487662521208
            ]
        },
        {
            "positions": [
                -0.554386758784501,
                -1.402451735852041,
                -1.4710374742862644,
                -1.3786803636002705,
                -0.2049161199373542,
                1.8194406329787034
            ]
        },
        {
            "positions": [
                -0.47674229460794715,
                -1.4301738046043786,
                -1.526699244962574,
                -1.4571032947400386,
                -0.20244930748053347,
                1.9707324997052869
            ]
        },
        {
            "positions": [
                -0.39909783043139324,
                -1.4578958733567164,
                -1.5823610156388837,
                -1.5355262258798072,
                -0.19998249502371274,
                2.1220243664318694
            ]
        },
        {
            "positions": [
                -0.3214533662548398,
                -1.4856179421090543,
                -1.6380227863151928,
                -1.6139491570195754,
                -0.197515682566892,
                2.273316233158452
            ]
        },
        {
            "positions": [
                -0.24380890207828587,
                -1.5133400108613921,
                -1.6936845569915024,
                -1.6923720881593436,
                -0.19504887011007122,
                2.4246080998850346
            ]
        },
        {
            "positions": [
                -0.16616443790173197,
                -1.54106207961373,
                -1.749346327667812,
                -1.7707950192991122,
                -0.19258205765325048,
                2.575899966611617
            ]
        },
        {
            "positions": [
                -0.08851997372517806,
                -1.5687841483660678,
                -1.8050080983441217,
                -1.8492179504388804,
                -0.19011524519642975,
                2.7271918333382006
            ]
        },
        {
            "positions": [
                -0.010875509548624337,
                -1.5965062171184057,
                -1.8606698690204315,
                -1.927640881578649,
                -0.187648432739609,
                2.8784837000647827
            ]
        },
        {
            "positions": [
                0.10114710478582924,
                -1.6140474005020409,
                -1.7812749675800255,
                -1.9428910935581243,
                -0.27640857135001784,
                2.8058092715059026
            ]
        },
        {
            "positions": [
                0.2131697191202828,
                -1.631588583885676,
                -1.7018800661396194,
                -1.9581413055375994,
                -0.36516870996042666,
                2.733134842947022
            ]
        },
        {
            "positions": [
                0.3251923334547364,
                -1.6491297672693113,
                -1.6224851646992133,
                -1.9733915175170746,
                -0.4539288485708355,
                2.660460414388142
            ]
        },
        {
            "positions": [
                0.43721494778918996,
                -1.6666709506529465,
                -1.5430902632588075,
                -1.98864172949655,
                -0.5426889871812444,
                2.5877859858292616
            ]
        },
        {
            "positions": [
                0.5492375621236435,
                -1.6842121340365817,
                -1.4636953618184012,
                -2.003891941476025,
                -0.6314491257916532,
                2.5151115572703815
            ]
        },
        {
            "positions": [
                0.6612601764580971,
                -1.7017533174202168,
                -1.3843004603779954,
                -2.0191421534555003,
                -0.720209264402062,
                2.442437128711501
            ]
        },
        {
            "positions": [
                0.7732827907925507,
                -1.7192945008038518,
                -1.3049055589375893,
                -2.0343923654349756,
                -0.8089694030124709,
                2.369762700152621
            ]
        },
        {
            "positions": [
                0.8853054051270042,
                -1.736835684187487,
                -1.2255106574971832,
                -2.049642577414451,
                -0.8977295416228797,
                2.297088271593741
            ]
        },
        {
            "positions": [
                0.9973280194614578,
                -1.7543768675711222,
                -1.1461157560567772,
                -2.0648927893939257,
                -0.9864896802332885,
                2.2244138430348603
            ]
        },
        {
            "positions": [
                1.1093506337959114,
                -1.7719180509547574,
                -1.0667208546163711,
                -2.080143001373401,
                -1.0752498188436974,
                2.1517394144759803
            ]
        },
        {
            "positions": [
                1.221373248130365,
                -1.7894592343383926,
                -0.987325953175965,
                -2.0953932133528763,
                -1.1640099574541063,
                2.0790649859170998
            ]
        },
        {
            "positions": [
                1.3333958624648186,
                -1.8070004177220278,
                -0.907931051735559,
                -2.1106434253323516,
                -1.2527700960645152,
                2.0063905573582197
            ]
        },
        {
            "positions": [
                1.2250191597657134,
                -1.802348893314663,
                -1.0121737062775833,
                -2.114070442180396,
                -1.1760012025855329,
                2.0869343656637205
            ]
        },
        {
            "positions": [
                1.116642457066608,
                -1.7976973689072981,
                -1.1164163608196076,
                -2.1174974590284408,
                -1.0992323091065506,
                2.1674781739692217
            ]
        },
        {
            "positions": [
                1.0082657543675029,
                -1.7930458444999335,
                -1.2206590153616321,
                -2.1209244758764854,
                -1.0224634156275683,
                2.2480219822747225
            ]
        },
        {
            "positions": [
                0.8998890516683977,
                -1.7883943200925687,
                -1.3249016699036564,
                -2.1243514927245304,
                -0.945694522148586,
                2.3285657905802233
            ]
        },
        {
            "positions": [
                0.7915123489692923,
                -1.7837427956852039,
                -1.429144324445681,
                -2.127778509572575,
                -0.8689256286696037,
                2.4091095988857245
            ]
        },
        {
            "positions": [
                0.6831356462701872,
                -1.779091271277839,
                -1.5333869789877053,
                -2.1312055264206196,
                -0.7921567351906214,
                2.4896534071912253
            ]
        },
        {
            "positions": [
                0.5747589435710819,
                -1.7744397468704745,
                -1.6376296335297296,
                -2.134632543268664,
                -0.715387841711639,
                2.5701972154967265
            ]
        },
        {
            "positions": [
                0.46638224087197677,
                -1.7697882224631096,
                -1.7418722880717539,
                -2.1380595601167087,
                -0.6386189482326567,
                2.6507410238022273
            ]
        },
        {
            "positions": [
                0.3580055381728714,
                -1.7651366980557448,
                -1.8461149426137784,
                -2.1414865769647533,
                -0.5618500547536744,
                2.731284832107728
            ]
        },
        {
            "positions": [
                0.24962883547376613,
                -1.76048517364838,
                -1.9503575971558027,
                -2.144913593812798,
                -0.48508116127469214,
                2.8118286404132293
            ]
        },
        {
            "positions": [
                0.14125213277466098,
                -1.7558336492410151,
                -2.054600251697827,
                -2.148340610660843,
                -0.40831226779570984,
                2.89237244871873
            ]
        },
        {
            "positions": [
                0.03287543007555582,
                -1.7511821248336505,
                -2.158842906239851,
                -2.1517676275088875,
                -0.33154337431672753,
                2.972916257024231
            ]
        },
        {
            "positions": [
                -0.07550127262354955,
                -1.7465306004262857,
                -2.263085560781876,
                -2.155194644356932,
                -0.25477448083774523,
                3.053460065329732
            ]
        },
        {
            "positions": [
                -0.18387797532265476,
                -1.741879076018921,
                -2.3673282153239,
                -2.1586216612049767,
                -0.17800558735876296,
                3.134003873635233
            ]
        }
    ]
}