{
    "goal": {
        "global_pose": {
            "orientation": {
                "w": 0.005598929693374612,
                "x": 0.007748599140229565,
                "y": 0.7110244013736278,
                "z": -0.7031023480610252
            },
            "position": {
                "x": -0.8858502320852131,
                "y": -0.7141253447532654,
                "z": 0.3711530566215515
            }
        },
        "name": "move_to_auspresseinheit_C"
    },
    "id": "RRTConnect_move_to_auspresseinheit_C_129",
    "joint_names": [
        "shoulder_pan_joint",
        "shoulder_lift_joint",
        "elbow_joint",
        "wrist_1_joint",
        "wrist_2_joint",
        "wrist_3_joint"
    ],
    "metrics": {
        "cart_traj_len": 0.4919263877667518,
        "distance_elbow_joint": 0.9897194916964009,
        "distance_shoulder_lift_joint": 0.32026286461265296,
        "distance_shoulder_pan_joint": 0.2553665021311491,
        "distance_wrist_1_joint": 0.6535795025520117,
        "distance_wrist_2_joint": 1.317507923717797,
        "distance_wrist_3_joint": 0.04149942610453916,
        "smoothness": 0.0,
        "time": 0.046928885000000004,
        "traj_len": 1.8915432088151067,
        "weighted_distance": 2.373188148734406
    },
    "planner": "RRTConnect",
    "start": {
        "state": {
            "elbow_joint": 1.7527959577737207,
            "shoulder_lift_joint": -0.9740617694225068,
            "shoulder_pan_joint": -2.967991417825858,
            "wrist_1_joint": -0.759517768980727,
            "wrist_2_joint": 1.7443932448377408,
            "wrist_3_joint": -3.0840537646736568
        }
    },
    "waypoints": [
        {
            "positions": [
                -2.967991417825858,
                -0.9740617694225068,
                1.7527959577737207,
                -0.759517768980727,
                1.7443932448377408,
                -3.0840537646736568
            ]
        },
        {
            "positions": [
                -2.942454767612743,
                -0.9420354829612415,
                1.6538240086040805,
                -0.6941598187255258,
                1.612642452465961,
                -3.088203707284111
            ]
        },
        {
            "positions": [
                -2.916918117399628,
                -0.9100091964999761,
                1.5548520594344404,
                -0.6288018684703246,
                1.4808916600941815,
                -3.0923536498945645
            ]
        },
        {
            "positions": [
                -2.8913814671865135,
                -0.8779829100387109,
                1.4558801102648005,
                -0.5634439182151235,
                1.3491408677224017,
                -3.0965035925050186
            ]
        },
        {
            "positions": [
                -2.8658448169733983,
                -0.8459566235774456,
                1.3569081610951603,
                -0.49808596795992227,
                1.2173900753506222,
                -3.1006535351154723
            ]
        },
        {
            "positions": [
                -2.840308166760283,
                -0.8139303371161803,
                1.2579362119255202,
                -0.43272801770472114,
                1.0856392829788424,
                -3.1048034777259264
            ]
        },
        {
            "positions": [
                -2.8147715165471685,
                -0.781904050654915,
                1.1589642627558803,
                -0.36737006744952,
                0.9538884906070627,
                -3.1089534203363804
            ]
        },
        {
            "positions": [
                -2.789234866334054,
                -0.7498777641936497,
                1.05999231358624,
                -0.3020121171943188,
                0.822137698235283,
                -3.113103362946834
            ]
        },
        {
            "positions": [
                -2.7636982161209387,
                -0.7178514777323843,
                0.9610203644165999,
                -0.23665416693911756,
                0.6903869058635033,
                -3.117253305557288
            ]
        },
        {
            "positions": [
                -2.7381615659078236,
                -0.6858251912711191,
                0.8620484152469597,
                -0.17129621668391648,
                0.5586361134917235,
                -3.121403248167742
            ]
        },
        {
            "positions": [
                -2.712624915694709,
                -0.6537989048098538,
                0.7630764660773197,
                -0.10593826642871532,
                0.42688532111994393,
                -3.125553190778196
            ]
        }
    ]
}