{
    "goal": {
        "global_pose": {
            "orientation": {
                "w": 0.7031023480610252,
                "x": -0.7110244013736278,
                "y": 0.0077485991402295624,
                "z": 0.005598929693374583
            },
            "position": {
                "x": -0.8841497679147869,
                "y": 0.44412534475326537,
                "z": 0.3711530566215515
            }
        },
        "name": "move_to_auspresseinheit_D"
    },
    "id": "RRTConnect_move_to_auspresseinheit_D_142",
    "joint_names": [
        "shoulder_pan_joint",
        "shoulder_lift_joint",
        "elbow_joint",
        "wrist_1_joint",
        "wrist_2_joint",
        "wrist_3_joint"
    ],
    "metrics": {
        "cart_traj_len": 0.3427570051384551,
        "distance_elbow_joint": 0.6458532426891579,
        "distance_shoulder_lift_joint": 0.1261895626828773,
        "distance_shoulder_pan_joint": 0.1333905476317958,
        "distance_wrist_1_joint": 0.5560014136416056,
        "distance_wrist_2_joint": 1.439802621798873,
        "distance_wrist_3_joint": 0.02882079594333886,
        "smoothness": 0.0,
        "time": 0.041144068,
        "traj_len": 1.711741272619098,
        "weighted_distance": 2.2323762701916547
    },
    "planner": "RRTConnect",
    "start": {
        "state": {
            "elbow_joint": -1.8275523626775212,
            "shoulder_lift_joint": -2.126789852344167,
            "shoulder_pan_joint": -0.03513704404078235,
            "wrist_1_joint": -2.347782403156801,
            "wrist_2_joint": -1.6058999987535132,
            "wrist_3_joint": -3.0880379163319196
        }
    },
    "waypoints": [
        {
            "positions": [
                -0.03513704404078235,
                -2.126789852344167,
                -1.8275523626775212,
                -2.347782403156801,
                -1.6058999987535132,
                -3.0880379163319196
            ]
        },
        {
            "positions": [
                -0.051810862494756825,
                -2.1425635476795266,
                -1.7468207073413764,
                -2.4172825798620017,
                -1.4259246710286542,
                -3.084435316839002
            ]
        },
        {
            "positions": [
                -0.06848468094873131,
                -2.158337243014886,
                -1.6660890520052316,
                -2.4867827565672025,
                -1.245949343303795,
                -3.0808327173460848
            ]
        },
        {
            "positions": [
                -0.08515849940270578,
                -2.1741109383502457,
                -1.585357396669087,
                -2.556282933272403,
                -1.0659740155789357,
                -3.0772301178531674
            ]
        },
        {
            "positions": [
                -0.10183231785668026,
                -2.1898846336856055,
                -1.5046257413329422,
                -2.6257831099776037,
                -0.8859986878540766,
                -3.07362751836025
            ]
        },
        {
            "positions": [
                -0.11850613631065474,
                -2.2056583290209653,
                -1.4238940859967975,
                -2.6952832866828045,
                -0.7060233601292175,
                -3.070024918867333
            ]
        },
        {
            "positions": [
                -0.1351799547646292,
                -2.221432024356325,
                -1.3431624306606529,
                -2.764783463388005,
                -0.5260480324043584,
                -3.0664223193744156
            ]
        },
        {
            "positions": [
                -0.1518537732186037,
                -2.2372057196916844,
                -1.262430775324508,
                -2.8342836400932057,
                -0.34607270467949913,
                -3.062819719881498
            ]
        },
        {
            "positions": [
                -0.16852759167257816,
                -2.252979415027044,
                -1.1816991199883633,
                -2.9037838167984065,
                -0.16609737695464022,
                -3.0592171203885807
            ]
        }
    ]
}