{
    "goal": {
        "global_pose": {
            "orientation": {
                "w": 0.005598929693374612,
                "x": 0.007748599140229565,
                "y": 0.7110244013736278,
                "z": -0.7031023480610252
            },
            "position": {
                "x": -0.8858502320852131,
                "y": -0.7141253447532654,
                "z": 0.3711530566215515
            }
        },
        "name": "move_to_auspresseinheit_C"
    },
    "id": "RRTConnect_move_to_auspresseinheit_C_83",
    "joint_names": [
        "shoulder_pan_joint",
        "shoulder_lift_joint",
        "elbow_joint",
        "wrist_1_joint",
        "wrist_2_joint",
        "wrist_3_joint"
    ],
    "metrics": {
        "cart_traj_len": 0.5035897961226339,
        "distance_elbow_joint": 0.9860707244761682,
        "distance_shoulder_lift_joint": 0.3182223786169951,
        "distance_shoulder_pan_joint": 0.25600512922158014,
        "distance_wrist_1_joint": 0.657724441274562,
        "distance_wrist_2_joint": 1.3028387581728482,
        "distance_wrist_3_joint": 0.04289201483574345,
        "smoothness": 3.2297397335745243e-16,
        "time": 0.128566667,
        "traj_len": 1.8877906257310149,
        "weighted_distance": 2.3685651090305275
    },
    "planner": "RRTConnect",
    "start": {
        "state": {
            "elbow_joint": 1.7527959577737207,
            "shoulder_lift_joint": -0.9740617694225068,
            "shoulder_pan_joint": -2.967991417825858,
            "wrist_1_joint": -0.759517768980727,
            "wrist_2_joint": 1.7443932448377408,
            "wrist_3_joint": -3.0840537646736568
        }
    },
    "waypoints": [
        {
            "positions": [
                -2.967991417825858,
                -0.9740617694225068,
                1.7527959577737207,
                -0.759517768980727,
                1.7443932448377408,
                -3.0840537646736568
            ]
        },
        {
            "positions": [
                -2.9410235973808887,
                -0.9394186654555312,
                1.6432485310114313,
                -0.6874877429149234,
                1.6022337499996617,
                -3.0869444701757107
            ]
        },
        {
            "positions": [
                -2.914055776935919,
                -0.9047755614885556,
                1.533701104249142,
                -0.61545771684912,
                1.4600742551615828,
                -3.089835175677765
            ]
        },
        {
            "positions": [
                -2.8870879564909497,
                -0.8701324575215801,
                1.4241536774868528,
                -0.5434276907833164,
                1.3179147603235037,
                -3.092725881179819
            ]
        },
        {
            "positions": [
                -2.86012013604598,
                -0.8354893535546045,
                1.3146062507245633,
                -0.47139766471751293,
                1.1757552654854249,
                -3.095616586681873
            ]
        },
        {
            "positions": [
                -2.8331523156010108,
                -0.800846249587629,
                1.2050588239622742,
                -0.3993676386517094,
                1.0335957706473455,
                -3.0985072921839274
            ]
        },
        {
            "positions": [
                -2.806184495156041,
                -0.7662031456206534,
                1.0955113971999848,
                -0.3273376125859059,
                0.8914362758092667,
                -3.1013979976859813
            ]
        },
        {
            "positions": [
                -2.779216674711072,
                -0.7315600416536778,
                0.9859639704376953,
                -0.2553075865201023,
                0.7492767809711877,
                -3.1042887031880353
            ]
        },
        {
            "positions": [
                -2.752248854266102,
                -0.6969169376867023,
                0.8764165436754061,
                -0.18327756045429888,
                0.6071172861331087,
                -3.1071794086900897
            ]
        },
        {
            "positions": [
                -2.725281033821133,
                -0.6622738337197267,
                0.7668691169131168,
                -0.11124753438849537,
                0.4649577912950297,
                -3.1100701141921436
            ]
        },
        {
            "positions": [
                -2.711986288604278,
                -0.6558393908055117,
                0.7667252332975525,
                -0.10179332770616505,
                0.4415544866648927,
                -3.1269457795094002
            ]
        }
    ]
}