{
    "goal": {
        "global_pose": {
            "orientation": {
                "w": 0.5084816262002911,
                "x": -0.4908360881923452,
                "y": 0.5182115481033761,
                "z": -0.48164630358495003
            },
            "position": {
                "x": 0.5540239810943604,
                "y": -0.46912469901144505,
                "z": 0.16403168439865112
            }
        },
        "name": "move_to_storage_B"
    },
    "id": "RRTConnect_move_to_storage_B_124",
    "joint_names": [
        "shoulder_pan_joint",
        "shoulder_lift_joint",
        "elbow_joint",
        "wrist_1_joint",
        "wrist_2_joint",
        "wrist_3_joint"
    ],
    "metrics": {
        "cart_traj_len": 1.0688681001073002,
        "distance_elbow_joint": 1.110798169758192,
        "distance_shoulder_lift_joint": 0.45914119259627695,
        "distance_shoulder_pan_joint": 0.41004969756366216,
        "distance_wrist_1_joint": 2.987072919350064,
        "distance_wrist_2_joint": 2.702464168979449,
        "distance_wrist_3_joint": 3.1328675432858857,
        "smoothness": 0.06709717204961392,
        "time": 0.10091365199999999,
        "traj_len": 3.286699513422778,
        "weighted_distance": 4.7704995405549315
    },
    "planner": "RRTConnect",
    "start": {
        "state": {
            "elbow_joint": 1.664937868594044,
            "shoulder_lift_joint": -0.661644460510453,
            "shoulder_pan_joint": -0.9139846352900073,
            "wrist_1_joint": 2.146753192139373,
            "wrist_2_joint": -2.2341966793290973,
            "wrist_3_joint": 0.005466555786416001
        }
    },
    "waypoints": [
        {
            "positions": [
                -0.9139846352900073,
                -0.661644460510453,
                1.664937868594044,
                2.146753192139373,
                -2.2341966793290973,
                0.005466555786416001
            ]
        },
        {
            "positions": [
                -0.8611022905167228,
                -0.7488405691235683,
                1.6632162767102388,
                2.0660138530779046,
                -2.1071648677716186,
                0.016439403458368966
            ]
        },
        {
            "positions": [
                -0.8578807770191761,
                -0.7653034795215439,
                1.6433173114183337,
                1.9429264250205793,
                -1.973183050172699,
                0.09531223634427016
            ]
        },
        {
            "positions": [
                -0.8546592635216295,
                -0.7817663899195194,
                1.6234183461264289,
                1.8198389969632538,
                -1.8392012325737794,
                0.17418506923017138
            ]
        },
        {
            "positions": [
                -0.8514377500240827,
                -0.798229300317495,
                1.6035193808345238,
                1.6967515689059285,
                -1.7052194149748596,
                0.25305790211607254
            ]
        },
        {
            "positions": [
                -0.848216236526536,
                -0.8146922107154705,
                1.5836204155426188,
                1.5736641408486032,
                -1.57123759737594,
                0.3319307350019738
            ]
        },
        {
            "positions": [
                -0.8449947230289894,
                -0.831155121113446,
                1.5637214502507137,
                1.4505767127912779,
                -1.4372557797770202,
                0.410803567887875
            ]
        },
        {
            "positions": [
                -0.8417732095314426,
                -0.8476180315114216,
                1.543822484958809,
                1.3274892847339523,
                -1.3032739621781007,
                0.48967640077377617
            ]
        },
        {
            "positions": [
                -0.8385516960338959,
                -0.8640809419093971,
                1.5239235196669039,
                1.2044018566766268,
                -1.169292144579181,
                0.5685492336596772
            ]
        },
        {
            "positions": [
                -0.8353301825363493,
                -0.8805438523073726,
                1.5040245543749988,
                1.0813144286193017,
                -1.0353103269802615,
                0.6474220665455785
            ]
        },
        {
            "positions": [
                -0.8321086690388025,
                -0.8970067627053482,
                1.4841255890830938,
                0.9582270005619762,
                -0.9013285093813417,
                0.7262948994314797
            ]
        },
        {
            "positions": [
                -0.8288871555412558,
                -0.9134696731033237,
                1.464226623791189,
                0.8351395725046509,
                -0.7673466917824221,
                0.8051677323173809
            ]
        },
        {
            "positions": [
                -0.8256656420437091,
                -0.9299325835012993,
                1.444327658499284,
                0.7120521444473253,
                -0.6333648741835023,
                0.8840405652032821
            ]
        },
        {
            "positions": [
                -0.8224441285461624,
                -0.9463954938992748,
                1.4244286932073789,
                0.58896471639,
                -0.49938305658458293,
                0.9629133980891833
            ]
        },
        {
            "positions": [
                -0.8192226150486157,
                -0.9628584042972503,
                1.4045297279154738,
                0.4658772883326745,
                -0.3654012389856631,
                1.0417862309750847
            ]
        },
        {
            "positions": [
                -0.816001101551069,
                -0.9793213146952259,
                1.384630762623569,
                0.3427898602753492,
                -0.23141942138674354,
                1.1206590638609857
            ]
        },
        {
            "positions": [
                -0.8127795880535224,
                -0.9957842250932014,
                1.364731797331664,
                0.21970243221802366,
                -0.09743760378782396,
                1.199531896746887
            ]
        },
        {
            "positions": [
                -0.8095580745559756,
                -1.0122471354911768,
                1.344832832039759,
                0.09661500416069857,
                0.03654421381109563,
                1.2784047296327883
            ]
        },
        {
            "positions": [
                -0.8063365610584289,
                -1.0287100458891525,
                1.324933866747854,
                -0.026472423896627184,
                0.17052603141001565,
                1.3572775625186895
            ]
        },
        {
            "positions": [
                -0.8031150475608823,
                -1.0451729562871281,
                1.305034901455949,
                -0.14955985195395227,
                0.30450784900893524,
                1.4361503954045907
            ]
        },
        {
            "positions": [
                -0.7998935340633355,
                -1.0616358666851036,
                1.285135936164044,
                -0.27264728001127786,
                0.43848966660785493,
                1.5150232282904919
            ]
        },
        {
            "positions": [
                -0.8327778225452234,
                -1.0682080651763954,
                1.366357740311621,
                -0.3357219963667683,
                0.44179831361257665,
                1.695391102821804
            ]
        },
        {
            "positions": [
                -0.8656621110271112,
                -1.0747802636676873,
                1.4475795444591977,
                -0.3987967127222587,
                0.4451069606172984,
                1.8757589773531163
            ]
        },
        {
            "positions": [
                -0.898546399508999,
                -1.081352462158979,
                1.5288013486067746,
                -0.46187142907774914,
                0.4484156076220201,
                2.0561268518844282
            ]
        },
        {
            "positions": [
                -0.9314306879908868,
                -1.0879246606502708,
                1.6100231527543514,
                -0.5249461454332396,
                0.4517242546267418,
                2.2364947264157404
            ]
        },
        {
            "positions": [
                -0.9643149764727746,
                -1.0944968591415627,
                1.6912449569019286,
                -0.58802086178873,
                0.4550329016314635,
                2.4168626009470526
            ]
        },
        {
            "positions": [
                -0.9971992649546624,
                -1.1010690576328546,
                1.7724667610495053,
                -0.6510955781442205,
                0.4583415486361852,
                2.597230475478365
            ]
        },
        {
            "positions": [
                -1.0300835534365502,
                -1.1076412561241462,
                1.853688565197082,
                -0.7141702944997109,
                0.4616501956409069,
                2.777598350009677
            ]
        },
        {
            "positions": [
                -1.062967841918438,
                -1.114213454615438,
                1.934910369344659,
                -0.7772450108552014,
                0.46495884264562864,
                2.9579662245409892
            ]
        },
        {
            "positions": [
                -1.095852130400326,
                -1.12078565310673,
                2.016132173492236,
                -0.8403197272106918,
                0.46826748965035037,
                3.1383340990723014
            ]
        }
    ]
}