{
    "goal": {
        "global_pose": {
            "orientation": {
                "w": 0.5084816262002911,
                "x": -0.4908360881923452,
                "y": 0.5182115481033761,
                "z": -0.48164630358495003
            },
            "position": {
                "x": 0.5540239810943604,
                "y": -0.46912469901144505,
                "z": 0.16403168439865112
            }
        },
        "name": "move_to_storage_B"
    },
    "id": "RRTConnect_move_to_storage_B_150",
    "joint_names": [
        "shoulder_pan_joint",
        "shoulder_lift_joint",
        "elbow_joint",
        "wrist_1_joint",
        "wrist_2_joint",
        "wrist_3_joint"
    ],
    "metrics": {
        "cart_traj_len": 3.579872773849267,
        "distance_elbow_joint": 3.4002203744881343,
        "distance_shoulder_lift_joint": 0.46078267435531806,
        "distance_shoulder_pan_joint": 3.158518076762536,
        "distance_wrist_1_joint": 2.9875741933709374,
        "distance_wrist_2_joint": 2.7071886510265104,
        "distance_wrist_3_joint": 3.1366153255964853,
        "smoothness": 0.3184163578197068,
        "time": 0.117585554,
        "traj_len": 3.9813187884920636,
        "weighted_distance": 5.274361837340166
    },
    "planner": "RRTConnect",
    "start": {
        "state": {
            "elbow_joint": 1.664937868594044,
            "shoulder_lift_joint": -0.661644460510453,
            "shoulder_pan_joint": -0.9139846352900073,
            "wrist_1_joint": 2.146753192139373,
            "wrist_2_joint": -2.2341966793290973,
            "wrist_3_joint": 0.005466555786416001
        }
    },
    "waypoints": [
        {
            "positions": [
                -0.9139846352900073,
                -0.661644460510453,
                1.664937868594044,
                2.146753192139373,
                -2.2341966793290973,
                0.005466555786416001
            ]
        },
        {
            "positions": [
                -0.8395528115439527,
                -0.683706581885941,
                1.5887350952323438,
                2.0728641872716436,
                -2.1313698944764963,
                0.048955839960662134
            ]
        },
        {
            "positions": [
                -0.7651209877978979,
                -0.705768703261429,
                1.5125323218706437,
                1.998975182403914,
                -2.028543109623895,
                0.09244512413490827
            ]
        },
        {
            "positions": [
                -0.6906891640518433,
                -0.7278308246369171,
                1.4363295485089433,
                1.9250861775361843,
                -1.9257163247712938,
                0.1359344083091544
            ]
        },
        {
            "positions": [
                -0.6162573403057887,
                -0.7498929460124051,
                1.3601267751472432,
                1.8511971726684546,
                -1.8228895399186928,
                0.17942369248340054
            ]
        },
        {
            "positions": [
                -0.541825516559734,
                -0.7719550673878932,
                1.2839240017855431,
                1.777308167800725,
                -1.7200627550660919,
                0.22291297665764667
            ]
        },
        {
            "positions": [
                -0.4673936928136793,
                -0.7940171887633811,
                1.207721228423843,
                1.7034191629329956,
                -1.6172359702134906,
                0.26640226083189283
            ]
        },
        {
            "positions": [
                -0.39296186906762465,
                -0.8160793101388693,
                1.1315184550621429,
                1.629530158065266,
                -1.5144091853608894,
                0.30989154500613897
            ]
        },
        {
            "positions": [
                -0.31853004532157003,
                -0.8381414315143573,
                1.0553156817004425,
                1.555641153197536,
                -1.4115824005082884,
                0.3533808291803851
            ]
        },
        {
            "positions": [
                -0.2440982215755153,
                -0.8602035528898453,
                0.9791129083387424,
                1.4817521483298066,
                -1.3087556156556874,
                0.39687011335463124
            ]
        },
        {
            "positions": [
                -0.1696663978294607,
                -0.8822656742653333,
                0.9029101349770423,
                1.407863143462077,
                -1.2059288308030862,
                0.44035939752887737
            ]
        },
        {
            "positions": [
                -0.09523457408340597,
                -0.9043277956408213,
                0.8267073616153421,
                1.3339741385943473,
                -1.103102045950485,
                0.48384868170312356
            ]
        },
        {
            "positions": [
                -0.02080275033735135,
                -0.9263899170163093,
                0.7505045882536421,
                1.260085133726618,
                -1.000275261097884,
                0.5273379658773696
            ]
        },
        {
            "positions": [
                0.053629073408703265,
                -0.9484520383917974,
                0.6743018148919417,
                1.186196128858888,
                -0.8974484762452828,
                0.5708272500516157
            ]
        },
        {
            "positions": [
                0.128060897154758,
                -0.9705141597672854,
                0.5980990415302418,
                1.1123071239911586,
                -0.7946216913926818,
                0.6143165342258619
            ]
        },
        {
            "positions": [
                0.2024927209008126,
                -0.9925762811427734,
                0.5218962681685415,
                1.038418119123429,
                -0.6917949065400806,
                0.657805818400108
            ]
        },
        {
            "positions": [
                0.2769245446468672,
                -1.0146384025182615,
                0.4456934948068412,
                0.9645291142556991,
                -0.5889681216874796,
                0.7012951025743541
            ]
        },
        {
            "positions": [
                0.35135636839292184,
                -1.0367005238937494,
                0.3694907214451413,
                0.8906401093879697,
                -0.4861413368348786,
                0.7447843867486003
            ]
        },
        {
            "positions": [
                0.4257881921389767,
                -1.0587626452692376,
                0.29328794808344094,
                0.81675110452024,
                -0.3833145519822774,
                0.7882736709228464
            ]
        },
        {
            "positions": [
                0.5002200158850313,
                -1.0808247666447255,
                0.21708517472174105,
                0.7428620996525104,
                -0.2804877671296764,
                0.8317629550970925
            ]
        },
        {
            "positions": [
                0.574651839631086,
                -1.1028868880202136,
                0.14088240136004068,
                0.6689730947847806,
                -0.17766098227707497,
                0.8752522392713387
            ]
        },
        {
            "positions": [
                0.4951336681148268,
                -1.10381737596524,
                0.23022358741976112,
                0.5970781378316213,
                -0.14667750827828965,
                0.9831965079433178
            ]
        },
        {
            "positions": [
                0.41561549659856756,
                -1.1047478639102668,
                0.3195647734794816,
                0.525183180878462,
                -0.11569403427950434,
                1.091140776615297
            ]
        },
        {
            "positions": [
                0.3360973250823084,
                -1.1056783518552933,
                0.40890595953920206,
                0.45328822392530277,
                -0.08471056028071902,
                1.199085045287276
            ]
        },
        {
            "positions": [
                0.25657915356604916,
                -1.1066088398003198,
                0.49824714559892247,
                0.3813932669721435,
                -0.053727086281933706,
                1.3070293139592553
            ]
        },
        {
            "positions": [
                0.17706098204978993,
                -1.1075393277453462,
                0.587588331658643,
                0.3094983100189842,
                -0.02274361228314839,
                1.4149735826312346
            ]
        },
        {
            "positions": [
                0.0975428105335307,
                -1.108469815690373,
                0.6769295177183635,
                0.23760335306582492,
                0.008239861715636926,
                1.5229178513032138
            ]
        },
        {
            "positions": [
                0.01802463901727147,
                -1.1094003036353994,
                0.7662707037780839,
                0.16570839611266563,
                0.03922333571442224,
                1.630862119975193
            ]
        },
        {
            "positions": [
                -0.0614935324989877,
                -1.110330791580426,
                0.8556118898378043,
                0.09381343915950635,
                0.07020680971320756,
                1.738806388647172
            ]
        },
        {
            "positions": [
                -0.14101170401524699,
                -1.1112612795254526,
                0.9449530758975249,
                0.021918482206347067,
                0.10119028371199287,
                1.8467506573191512
            ]
        },
        {
            "positions": [
                -0.22052987553150616,
                -1.112191767470479,
                1.0342942619572453,
                -0.049976474746812216,
                0.1321737577107782,
                1.9546949259911304
            ]
        },
        {
            "positions": [
                -0.30004804704776555,
                -1.1131222554155056,
                1.123635448016966,
                -0.1218714316999715,
                0.1631572317095635,
                2.0626391946631095
            ]
        },
        {
            "positions": [
                -0.3795662185640246,
                -1.114052743360532,
                1.2129766340766863,
                -0.19376638865313078,
                0.19414070570834882,
                2.1705834633350887
            ]
        },
        {
            "positions": [
                -0.4590843900802839,
                -1.1149832313055588,
                1.3023178201364067,
                -0.26566134560629007,
                0.22512417970713414,
                2.278527732007068
            ]
        },
        {
            "positions": [
                -0.5386025615965431,
                -1.1159137192505852,
                1.3916590061961271,
                -0.33755630255944935,
                0.2561076537059195,
                2.386472000679047
            ]
        },
        {
            "positions": [
                -0.6181207331128025,
                -1.1168442071956117,
                1.4810001922558478,
                -0.40945125951260863,
                0.2870911277047048,
                2.494416269351026
            ]
        },
        {
            "positions": [
                -0.6976389046290614,
                -1.1177746951406384,
                1.570341378315568,
                -0.4813462164657679,
                0.3180746017034901,
                2.6023605380230053
            ]
        },
        {
            "positions": [
                -0.7771570761453208,
                -1.118705183085665,
                1.6596825643752886,
                -0.5532411734189272,
                0.3490580757022754,
                2.7103048066949844
            ]
        },
        {
            "positions": [
                -0.85667524766158,
                -1.1196356710306914,
                1.749023750435009,
                -0.6251361303720865,
                0.38004154970106074,
                2.8182490753669636
            ]
        },
        {
            "positions": [
                -0.9361934191778394,
                -1.1205661589757179,
                1.8383649364947297,
                -0.6970310873252458,
                0.41102502369984606,
                2.9261933440389427
            ]
        },
        {
            "positions": [
                -1.0157115906940983,
                -1.1214966469207446,
                1.9277061225544498,
                -0.768926044278405,
                0.4420084976986314,
                3.0341376127109223
            ]
        },
        {
            "positions": [
                -1.0952297622103577,
                -1.122427134865771,
                2.0170473086141705,
                -0.8408210012315644,
                0.47299197169741664,
                3.1420818813829015
            ]
        }
    ]
}