{
    "goal": {
        "global_pose": {
            "orientation": {
                "w": 0.7031023502349854,
                "x": -0.7110244035720825,
                "y": 0.007748599164187908,
                "z": 0.005598929710686207
            },
            "position": {
                "x": 0.11585023208521307,
                "y": 0.44412534475326537,
                "z": 0.3711530566215515
            }
        },
        "name": "move_to_auspresseinheit_A"
    },
    "id": "RRTConnect_move_to_auspresseinheit_A_131",
    "joint_names": [
        "shoulder_pan_joint",
        "shoulder_lift_joint",
        "elbow_joint",
        "wrist_1_joint",
        "wrist_2_joint",
        "wrist_3_joint"
    ],
    "metrics": {
        "cart_traj_len": 1.5125132525713707,
        "distance_elbow_joint": 1.0373073096291452,
        "distance_shoulder_lift_joint": 0.5808138710617188,
        "distance_shoulder_pan_joint": 1.6942933077906148,
        "distance_wrist_1_joint": 0.5455226673929372,
        "distance_wrist_2_joint": 0.522055590594645,
        "distance_wrist_3_joint": 0.4413922839753184,
        "smoothness": 1.0856395891501927,
        "time": 0.058506258,
        "traj_len": 2.1957652493935638,
        "weighted_distance": 2.6022582224642115
    },
    "planner": "RRTConnect",
    "start": {
        "state": {
            "elbow_joint": 2.4225746658250005,
            "shoulder_lift_joint": -1.3736534386056498,
            "shoulder_pan_joint": -0.3378633547517467,
            "wrist_1_joint": -1.0288598680537169,
            "wrist_2_joint": 1.233022673432363,
            "wrist_3_joint": -3.0940220416140027
        }
    },
    "waypoints": [
        {
            "positions": [
                -0.3378633547517467,
                -1.3736534386056498,
                2.4225746658250005,
                -1.0288598680537169,
                1.233022673432363,
                -3.0940220416140027
            ]
        },
        {
            "positions": [
                -0.3919211397990945,
                -1.4666764145875177,
                2.3340312459672963,
                -0.9557162229356219,
                1.1932839087060083,
                -3.059218897601171
            ]
        },
        {
            "positions": [
                -0.44597892484644225,
                -1.5596993905693854,
                2.245487826109592,
                -0.882572577817527,
                1.1535451439796538,
                -3.02441575358834
            ]
        },
        {
            "positions": [
                -0.50003670989379,
                -1.6527223665512532,
                2.156944406251888,
                -0.809428932699432,
                1.113806379253299,
                -2.9896126095755085
            ]
        },
        {
            "positions": [
                -0.5540944949411378,
                -1.745745342533121,
                2.0684009863941837,
                -0.736285287581337,
                1.0740676145269443,
                -2.954809465562677
            ]
        },
        {
            "positions": [
                -0.6081522799884855,
                -1.838768318514989,
                1.9798575665364795,
                -0.6631416424632419,
                1.0343288498005896,
                -2.9200063215498457
            ]
        },
        {
            "positions": [
                -0.6622100650358334,
                -1.9317912944968567,
                1.8913141466787753,
                -0.589997997345147,
                0.994590085074235,
                -2.885203177537014
            ]
        },
        {
            "positions": [
                -0.46650340824918646,
                -1.9285518637582122,
                1.9636065453191924,
                -0.5747607406759517,
                0.9540725133261612,
                -2.918427951808204
            ]
        },
        {
            "positions": [
                -0.27079675146253956,
                -1.9253124330195677,
                2.0358989439596096,
                -0.5595234840067563,
                0.9135549415780873,
                -2.951652726079394
            ]
        },
        {
            "positions": [
                -0.07509009467589267,
                -1.9220730022809231,
                2.1081913426000267,
                -0.544286227337561,
                0.8730373698300135,
                -2.984877500350584
            ]
        },
        {
            "positions": [
                0.12061656211075422,
                -1.9188335715422784,
                2.180483741240444,
                -0.5290489706683658,
                0.8325197980819395,
                -3.018102274621774
            ]
        },
        {
            "positions": [
                0.3163232188974012,
                -1.9155941408036339,
                2.252776139880861,
                -0.5138117139991704,
                0.7920022263338657,
                -3.051327048892964
            ]
        },
        {
            "positions": [
                0.512029875684048,
                -1.9123547100649894,
                2.325068538521278,
                -0.4985744573299751,
                0.7514846545857918,
                -3.084551823164154
            ]
        },
        {
            "positions": [
                0.7077365324706949,
                -1.9091152793263448,
                2.3973609371616953,
                -0.48333720066077973,
                0.710967082837718,
                -3.117776597435344
            ]
        }
    ]
}