{
    "goal": {
        "global_pose": {
            "orientation": {
                "w": 0.005598929693374612,
                "x": 0.007748599140229565,
                "y": 0.7110244013736278,
                "z": -0.7031023480610252
            },
            "position": {
                "x": 0.1141497679147869,
                "y": -0.7141253447532654,
                "z": 0.3711530566215515
            }
        },
        "name": "move_to_auspresseinheit_B"
    },
    "id": "RRTConnect_move_to_auspresseinheit_B_18",
    "joint_names": [
        "shoulder_pan_joint",
        "shoulder_lift_joint",
        "elbow_joint",
        "wrist_1_joint",
        "wrist_2_joint",
        "wrist_3_joint"
    ],
    "metrics": {
        "cart_traj_len": 0.565565020812778,
        "distance_elbow_joint": 0.06685430349248866,
        "distance_shoulder_lift_joint": 0.29402720224348333,
        "distance_shoulder_pan_joint": 0.5758931169957116,
        "distance_wrist_1_joint": 0.3388069932075849,
        "distance_wrist_2_joint": 1.0029928899690281,
        "distance_wrist_3_joint": 0.005938252386083587,
        "smoothness": 6.344131583732827e-16,
        "time": 0.077207527,
        "traj_len": 1.5114604719589526,
        "weighted_distance": 1.907403771162037
    },
    "planner": "RRTConnect",
    "start": {
        "state": {
            "elbow_joint": 2.0193083361928714,
            "shoulder_lift_joint": -1.1220246554650708,
            "shoulder_pan_joint": -1.0952077554168747,
            "wrist_1_joint": -0.8559753972642168,
            "wrist_2_joint": 0.4759566250798843,
            "wrist_3_joint": -3.1240929996934557
        }
    },
    "waypoints": [
        {
            "positions": [
                -1.0952077554168747,
                -1.1220246554650708,
                2.0193083361928714,
                -0.8559753972642168,
                0.4759566250798843,
                -3.1240929996934557
            ]
        },
        {
            "positions": [
                -1.1911899415828267,
                -1.1710291891723181,
                2.008165952277457,
                -0.7995075650629526,
                0.643122106741389,
                -3.1231032909624417
            ]
        },
        {
            "positions": [
                -1.2871721277487784,
                -1.2200337228795652,
                1.9970235683620419,
                -0.7430397328616885,
                0.8102875884028937,
                -3.1221135822314277
            ]
        },
        {
            "positions": [
                -1.3831543139147304,
                -1.2690382565868124,
                1.985881184446627,
                -0.6865719006604243,
                0.9774530700643984,
                -3.121123873500414
            ]
        },
        {
            "positions": [
                -1.4791365000806822,
                -1.3180427902940597,
                1.9747388005312123,
                -0.6301040684591602,
                1.144618551725903,
                -3.1201341647694
            ]
        },
        {
            "positions": [
                -1.5751186862466344,
                -1.367047324001307,
                1.9635964166157975,
                -0.573636236257896,
                1.3117840333874078,
                -3.119144456038386
            ]
        },
        {
            "positions": [
                -1.6711008724125862,
                -1.4160518577085541,
                1.9524540327003828,
                -0.5171684040566319,
                1.4789495150489125,
                -3.118154747307372
            ]
        }
    ]
}