{
    "goal": {
        "global_pose": {
            "orientation": {
                "w": 0.7047431493862688,
                "x": -0.7094548369677653,
                "y": 0.0024358444001904,
                "z": -0.0022348060817251984
            },
            "position": {
                "x": -0.39052492380142206,
                "y": 0.3671506643295288,
                "z": 0.19426114857196808
            }
        },
        "name": "move_to_magneteinheit_D"
    },
    "id": "RRTConnect_move_to_magneteinheit_D_30",
    "joint_names": [
        "shoulder_pan_joint",
        "shoulder_lift_joint",
        "elbow_joint",
        "wrist_1_joint",
        "wrist_2_joint",
        "wrist_3_joint"
    ],
    "metrics": {
        "cart_traj_len": 4.875602733757788,
        "distance_elbow_joint": 3.198921734235123,
        "distance_shoulder_lift_joint": 1.0985872427871746,
        "distance_shoulder_pan_joint": 3.8267608567278715,
        "distance_wrist_1_joint": 2.5036736641196287,
        "distance_wrist_2_joint": 1.1253226598832407,
        "distance_wrist_3_joint": 0.944632625779362,
        "smoothness": 0.6776505038460362,
        "time": 0.116482314,
        "traj_len": 3.563411116266604,
        "weighted_distance": 4.268039404585434
    },
    "planner": "RRTConnect",
    "start": {
        "state": {
            "elbow_joint": 0.749534889911806,
            "shoulder_lift_joint": -0.6476975780787326,
            "shoulder_pan_joint": -2.711696901376241,
            "wrist_1_joint": -0.07506478083263063,
            "wrist_2_joint": 0.43296659715538205,
            "wrist_3_joint": -3.14703540197715
        }
    },
    "waypoints": [
        {
            "positions": [
                -2.711696901376241,
                -0.6476975780787326,
                0.749534889911806,
                -0.07506478083263063,
                0.43296659715538205,
                -3.14703540197715
            ]
        },
        {
            "positions": [
                -2.7338614438878825,
                -0.7217715762311889,
                0.7729817508711012,
                0.014819891666827789,
                0.39939989283448174,
                -3.0250829728735216
            ]
        },
        {
            "positions": [
                -2.756025986399524,
                -0.7958455743836452,
                0.7964286118303965,
                0.10470456416628621,
                0.3658331885135815,
                -2.9031305437698927
            ]
        },
        {
            "positions": [
                -2.6289848032350664,
                -0.8330201734345682,
                0.6864174909381626,
                0.03551839727489689,
                0.3335650249235428,
                -2.8929703824263298
            ]
        },
        {
            "positions": [
                -2.501943620070609,
                -0.8701947724854912,
                0.5764063700459288,
                -0.03366776961649243,
                0.3012968613335041,
                -2.8828102210827673
            ]
        },
        {
            "positions": [
                -2.3749024369061513,
                -0.9073693715364142,
                0.46639524915369496,
                -0.10285393650788174,
                0.26902869774346544,
                -2.8726500597392044
            ]
        },
        {
            "positions": [
                -2.2478612537416938,
                -0.9445439705873371,
                0.35638412826146104,
                -0.17204010339927106,
                0.23676053415342674,
                -2.8624898983956415
            ]
        },
        {
            "positions": [
                -2.120820070577236,
                -0.9817185696382601,
                0.24637300736922718,
                -0.2412262702906604,
                0.20449237056338807,
                -2.8523297370520786
            ]
        },
        {
            "positions": [
                -1.9937788874127786,
                -1.0188931686891831,
                0.13636188647699343,
                -0.3104124371820497,
                0.1722242069733494,
                -2.842169575708516
            ]
        },
        {
            "positions": [
                -1.866737704248321,
                -1.056067767740106,
                0.02635076558475946,
                -0.37959860407343904,
                0.1399560433833107,
                -2.8320094143649532
            ]
        },
        {
            "positions": [
                -1.7396965210838635,
                -1.093242366791029,
                -0.0836603553074744,
                -0.44878477096482833,
                0.10768787979327199,
                -2.8218492530213903
            ]
        },
        {
            "positions": [
                -1.612655337919406,
                -1.130416965841952,
                -0.19367147619970815,
                -0.5179709378562176,
                0.07541971620323334,
                -2.811689091677828
            ]
        },
        {
            "positions": [
                -1.4856141547549484,
                -1.167591564892875,
                -0.3036825970919421,
                -0.587157104747607,
                0.043151552613194644,
                -2.801528930334265
            ]
        },
        {
            "positions": [
                -1.3585729715904908,
                -1.2047661639437979,
                -0.413693717984176,
                -0.6563432716389963,
                0.010883389023155943,
                -2.791368768990702
            ]
        },
        {
            "positions": [
                -1.2315317884260333,
                -1.2419407629947208,
                -0.5237048388764096,
                -0.7255294385303857,
                -0.021384774566882703,
                -2.781208607647139
            ]
        },
        {
            "positions": [
                -1.1044906052615757,
                -1.279115362045644,
                -0.6337159597686437,
                -0.794715605421775,
                -0.053652938156921404,
                -2.7710484463035767
            ]
        },
        {
            "positions": [
                -0.9774494220971179,
                -1.3162899610965668,
                -0.7437270806608776,
                -0.8639017723131643,
                -0.0859211017469601,
                -2.760888284960014
            ]
        },
        {
            "positions": [
                -0.8504082389326606,
                -1.3534645601474897,
                -0.8537382015531112,
                -0.9330879392045535,
                -0.11818926533699875,
                -2.750728123616451
            ]
        },
        {
            "positions": [
                -0.723367055768203,
                -1.3906391591984129,
                -0.9637493224453453,
                -1.0022741060959428,
                -0.1504574289270375,
                -2.7405679622728885
            ]
        },
        {
            "positions": [
                -0.5963258726037455,
                -1.4278137582493358,
                -1.0737604433375791,
                -1.0714602729873322,
                -0.1827255925170762,
                -2.7304078009293256
            ]
        },
        {
            "positions": [
                -0.4692846894392879,
                -1.4649883573002587,
                -1.1837715642298128,
                -1.1406464398787215,
                -0.2149937561071148,
                -2.7202476395857627
            ]
        },
        {
            "positions": [
                -0.34224350627483036,
                -1.5021629563511816,
                -1.2937826851220466,
                -1.2098326067701108,
                -0.2472619196971535,
                -2.7100874782421998
            ]
        },
        {
            "positions": [
                -0.2152023231103728,
                -1.5393375554021047,
                -1.4037938060142807,
                -1.2790187736615002,
                -0.2795300832871922,
                -2.6999273168986373
            ]
        },
        {
            "positions": [
                -0.08816113994591523,
                -1.5765121544530274,
                -1.5138049269065144,
                -1.3482049405528893,
                -0.3117982468772308,
                -2.6897671555550744
            ]
        },
        {
            "positions": [
                0.038880043218542326,
                -1.6136867535039505,
                -1.6238160477987484,
                -1.4173911074442787,
                -0.3440664104672696,
                -2.6796069942115115
            ]
        },
        {
            "positions": [
                0.1659212263829999,
                -1.6508613525548737,
                -1.733827168690982,
                -1.4865772743356682,
                -0.3763345740573083,
                -2.6694468328679486
            ]
        },
        {
            "positions": [
                0.29296240954745745,
                -1.6880359516057966,
                -1.8438382895832157,
                -1.5557634412270573,
                -0.4086027376473469,
                -2.659286671524386
            ]
        },
        {
            "positions": [
                0.4200035927119149,
                -1.7252105506567195,
                -1.9538494104754498,
                -1.6249496081184467,
                -0.4408709012373856,
                -2.6491265101808232
            ]
        },
        {
            "positions": [
                0.3189365606130566,
                -1.7287229290249173,
                -2.0208077421438975,
                -1.7239912992577764,
                -0.3989567076556401,
                -2.7235804658446625
            ]
        },
        {
            "positions": [
                0.21786952851419827,
                -1.7322353073931154,
                -2.0877660738123454,
                -1.8230329903971063,
                -0.35704251407389465,
                -2.798034421508502
            ]
        },
        {
            "positions": [
                0.11680249641533996,
                -1.7357476857613134,
                -2.154724405480793,
                -1.922074681536436,
                -0.3151283204921491,
                -2.872488377172341
            ]
        },
        {
            "positions": [
                0.01573546431648165,
                -1.7392600641295113,
                -2.2216827371492407,
                -2.021116372675766,
                -0.27321412691040364,
                -2.94694233283618
            ]
        },
        {
            "positions": [
                -0.08533156778237672,
                -1.7427724424977091,
                -2.2886410688176886,
                -2.1201580638150954,
                -0.2312999333286581,
                -3.021396288500019
            ]
        },
        {
            "positions": [
                -0.18639859988123497,
                -1.7462848208659072,
                -2.355599400486136,
                -2.2191997549544253,
                -0.1893857397469126,
                -3.0958502441638585
            ]
        }
    ]
}