{
    "goal": {
        "global_pose": {
            "orientation": {
                "w": 0.7031023502349854,
                "x": -0.7110244035720825,
                "y": 0.007748599164187908,
                "z": 0.005598929710686207
            },
            "position": {
                "x": 0.11585023208521307,
                "y": 0.44412534475326537,
                "z": 0.3711530566215515
            }
        },
        "name": "move_to_auspresseinheit_A"
    },
    "id": "RRTConnect_move_to_auspresseinheit_A_74",
    "joint_names": [
        "shoulder_pan_joint",
        "shoulder_lift_joint",
        "elbow_joint",
        "wrist_1_joint",
        "wrist_2_joint",
        "wrist_3_joint"
    ],
    "metrics": {
        "cart_traj_len": 2.134076058816781,
        "distance_elbow_joint": 2.363674660166051,
        "distance_shoulder_lift_joint": 0.7260419389786228,
        "distance_shoulder_pan_joint": 1.1288455825431543,
        "distance_wrist_1_joint": 2.5891904760924858,
        "distance_wrist_2_joint": 1.344403872022088,
        "distance_wrist_3_joint": 2.2286184592128864,
        "smoothness": 0.6728504548279687,
        "time": 0.15710398,
        "traj_len": 3.221921009121001,
        "weighted_distance": 4.332621176096017
    },
    "planner": "RRTConnect",
    "start": {
        "state": {
            "elbow_joint": 2.4225746658250005,
            "shoulder_lift_joint": -1.3736534386056498,
            "shoulder_pan_joint": -0.3378633547517467,
            "wrist_1_joint": -1.0288598680537169,
            "wrist_2_joint": 1.233022673432363,
            "wrist_3_joint": -3.0940220416140027
        }
    },
    "waypoints": [
        {
            "positions": [
                -0.3378633547517467,
                -1.3736534386056498,
                2.4225746658250005,
                -1.0288598680537169,
                1.233022673432363,
                -3.0940220416140027
            ]
        },
        {
            "positions": [
                -0.3266596069701836,
                -1.388911894945354,
                2.2730621698081754,
                -0.983129643083024,
                1.1734323138054414,
                -3.0282349589961743
            ]
        },
        {
            "positions": [
                -0.31545585918862046,
                -1.4041703512850585,
                2.1235496737913504,
                -0.9373994181123311,
                1.11384195417852,
                -2.9624478763783455
            ]
        },
        {
            "positions": [
                -0.3042521114070573,
                -1.4194288076247628,
                1.9740371777745254,
                -0.8916691931416383,
                1.0542515945515984,
                -2.896660793760517
            ]
        },
        {
            "positions": [
                -0.29304836362549425,
                -1.434687263964467,
                1.8245246817577003,
                -0.8459389681709453,
                0.9946612349246768,
                -2.8308737111426883
            ]
        },
        {
            "positions": [
                -0.2818446158439311,
                -1.4499457203041715,
                1.6750121857408753,
                -0.8002087432002525,
                0.9350708752977553,
                -2.76508662852486
            ]
        },
        {
            "positions": [
                -0.270640868062368,
                -1.4652041766438757,
                1.5254996897240503,
                -0.7544785182295596,
                0.8754805156708338,
                -2.6992995459070315
            ]
        },
        {
            "positions": [
                -0.25943712028080484,
                -1.4804626329835802,
                1.3759871937072252,
                -0.7087482932588667,
                0.8158901560439122,
                -2.6335124632892026
            ]
        },
        {
            "positions": [
                -0.24823337249924174,
                -1.4957210893232844,
                1.2264746976904002,
                -0.6630180682881738,
                0.7562997964169907,
                -2.5677253806713742
            ]
        },
        {
            "positions": [
                -0.16740783641565893,
                -1.541709464142873,
                1.277819104066574,
                -0.5532205112582776,
                0.7141643004302912,
                -2.515827973741298
            ]
        },
        {
            "positions": [
                -0.08658230033207609,
                -1.5876978389624616,
                1.3291635104427482,
                -0.44342295422838146,
                0.6720288044435917,
                -2.4639305668112224
            ]
        },
        {
            "positions": [
                -0.005756764248493279,
                -1.63368621378205,
                1.380507916818922,
                -0.33362539719848533,
                0.6298933084568923,
                -2.4120331598811466
            ]
        },
        {
            "positions": [
                0.07506877183508956,
                -1.6796745886016387,
                1.4318523231950961,
                -0.22382784016858914,
                0.5877578124701928,
                -2.3601357529510705
            ]
        },
        {
            "positions": [
                0.15589430791867234,
                -1.7256629634212273,
                1.48319672957127,
                -0.11403028313869301,
                0.5456223164834932,
                -2.3082383460209943
            ]
        },
        {
            "positions": [
                0.23671984400225518,
                -1.7716513382408159,
                1.534541135947444,
                -0.00423272610879688,
                0.5034868204967937,
                -2.2563409390909186
            ]
        },
        {
            "positions": [
                0.317545380085838,
                -1.8176397130604045,
                1.5858855423236178,
                0.10556483092109925,
                0.46135132451009425,
                -2.204443532160843
            ]
        },
        {
            "positions": [
                0.3983709161694209,
                -1.863628087879993,
                1.6372299486997919,
                0.2153623879509955,
                0.41921582852339473,
                -2.1525461252307667
            ]
        },
        {
            "positions": [
                0.4791964522530038,
                -1.9096164626995815,
                1.688574355075966,
                0.3251599449808916,
                0.3770803325366952,
                -2.1006487183006906
            ]
        },
        {
            "positions": [
                0.5600219883365865,
                -1.9556048375191701,
                1.7399187614521399,
                0.43495750201078776,
                0.33494483654999574,
                -2.048751311370615
            ]
        },
        {
            "positions": [
                0.6408475244201693,
                -2.0015932123387588,
                1.7912631678283137,
                0.5447550590406838,
                0.2928093405632962,
                -1.996853904440539
            ]
        },
        {
            "positions": [
                0.6673838302310278,
                -2.0024553292726717,
                1.8743279041476277,
                0.479031264286912,
                0.32433232201272083,
                -2.0897166742946185
            ]
        },
        {
            "positions": [
                0.6939201360418861,
                -2.0033174462065846,
                1.9573926404669417,
                0.41330746953314024,
                0.35585530346214544,
                -2.182579444148698
            ]
        },
        {
            "positions": [
                0.7204564418527445,
                -2.0041795631404975,
                2.0404573767862555,
                0.34758367477936847,
                0.38737828491157,
                -2.2754422140027777
            ]
        },
        {
            "positions": [
                0.7469927476636029,
                -2.0050416800744104,
                2.1235221131055697,
                0.2818598800255967,
                0.4189012663609946,
                -2.368304983856857
            ]
        },
        {
            "positions": [
                0.7405408707481582,
                -1.9911589516549997,
                2.1631999789482146,
                0.17146527909617465,
                0.45968960981291696,
                -2.4797730338312913
            ]
        },
        {
            "positions": [
                0.7340889938327135,
                -1.9772762232355892,
                2.20287784479086,
                0.06107067816675257,
                0.5004779532648393,
                -2.591241083805726
            ]
        },
        {
            "positions": [
                0.7276371169172687,
                -1.9633934948161784,
                2.242555710633505,
                -0.04932392276266945,
                0.5412662967167616,
                -2.7027091337801603
            ]
        },
        {
            "positions": [
                0.721185240001824,
                -1.949510766396768,
                2.28223357647615,
                -0.15971852369209155,
                0.5820546401686839,
                -2.814177183754595
            ]
        },
        {
            "positions": [
                0.7147333630863794,
                -1.9356280379773572,
                2.321911442318795,
                -0.27011312462151366,
                0.6228429836206063,
                -2.9256452337290293
            ]
        },
        {
            "positions": [
                0.7088683153110891,
                -1.9230080102709528,
                2.357980416020323,
                -0.37046680728945747,
                0.6599214316684618,
                -3.026974730104495
            ]
        },
        {
            "positions": [
                0.7030032675357987,
                -1.9103879825645482,
                2.394049389721851,
                -0.47082048995740133,
                0.6969998797163174,
                -3.1283042264799614
            ]
        }
    ]
}