{
    "goal": {
        "global_pose": {
            "orientation": {
                "w": 0.005598929693374612,
                "x": 0.007748599140229565,
                "y": 0.7110244013736278,
                "z": -0.7031023480610252
            },
            "position": {
                "x": -0.8858502320852131,
                "y": -0.7141253447532654,
                "z": 0.3711530566215515
            }
        },
        "name": "move_to_auspresseinheit_C"
    },
    "id": "RRTConnect_move_to_auspresseinheit_C_101",
    "joint_names": [
        "shoulder_pan_joint",
        "shoulder_lift_joint",
        "elbow_joint",
        "wrist_1_joint",
        "wrist_2_joint",
        "wrist_3_joint"
    ],
    "metrics": {
        "cart_traj_len": 0.49226224058868284,
        "distance_elbow_joint": 0.9935676664080555,
        "distance_shoulder_lift_joint": 0.322074644069009,
        "distance_shoulder_pan_joint": 0.2555737516508243,
        "distance_wrist_1_joint": 0.6622348394261023,
        "distance_wrist_2_joint": 1.3141988695574667,
        "distance_wrist_3_joint": 0.04456843525750598,
        "smoothness": 3.2297397335745243e-16,
        "time": 0.120669341,
        "traj_len": 1.8953148040283343,
        "weighted_distance": 2.37861068396397
    },
    "planner": "RRTConnect",
    "start": {
        "state": {
            "elbow_joint": 1.7527959577737207,
            "shoulder_lift_joint": -0.9740617694225068,
            "shoulder_pan_joint": -2.967991417825858,
            "wrist_1_joint": -0.759517768980727,
            "wrist_2_joint": 1.7443932448377408,
            "wrist_3_joint": -3.0840537646736568
        }
    },
    "waypoints": [
        {
            "positions": [
                -2.967991417825858,
                -0.9740617694225068,
                1.7527959577737207,
                -0.759517768980727,
                1.7443932448377408,
                -3.0840537646736568
            ]
        },
        {
            "positions": [
                -2.9424340426607754,
                -0.9418543050156059,
                1.6534391911329152,
                -0.6932942850381167,
                1.6129733578819943,
                -3.0885106081994076
            ]
        },
        {
            "positions": [
                -2.916876667495693,
                -0.9096468406087049,
                1.5540824244921096,
                -0.6270708010955065,
                1.4815534709262475,
                -3.092967451725158
            ]
        },
        {
            "positions": [
                -2.8913192923306106,
                -0.8774393762018041,
                1.454725657851304,
                -0.5608473171528963,
                1.3501335839705009,
                -3.0974242952509083
            ]
        },
        {
            "positions": [
                -2.8657619171655284,
                -0.8452319117949032,
                1.3553688912104984,
                -0.4946238332102861,
                1.218713697014754,
                -3.101881138776659
            ]
        },
        {
            "positions": [
                -2.840204542000446,
                -0.8130244473880023,
                1.256012124569693,
                -0.42840034926767584,
                1.0872938100590075,
                -3.10633798230241
            ]
        },
        {
            "positions": [
                -2.814647166835363,
                -0.7808169829811014,
                1.1566553579288874,
                -0.3621768653250656,
                0.9558739231032608,
                -3.1107948258281604
            ]
        },
        {
            "positions": [
                -2.789089791670281,
                -0.7486095185742005,
                1.057298591288082,
                -0.2959533813824554,
                0.8244540361475142,
                -3.1152516693539107
            ]
        },
        {
            "positions": [
                -2.7635324165051984,
                -0.7164020541672995,
                0.9579418246472762,
                -0.22972989743984518,
                0.6930341491917675,
                -3.1197085128796616
            ]
        },
        {
            "positions": [
                -2.7379750413401163,
                -0.6841945897603987,
                0.8585850580064707,
                -0.16350641349723494,
                0.5616142622360207,
                -3.1241653564054124
            ]
        },
        {
            "positions": [
                -2.7124176661750337,
                -0.6519871253534978,
                0.7592282913656652,
                -0.09728292955462474,
                0.43019437528027404,
                -3.1286221999311628
            ]
        }
    ]
}