{
    "goal": {
        "global_pose": {
            "orientation": {
                "w": -0.00223480608172531,
                "x": 0.0024358444001904467,
                "y": 0.7094548369677653,
                "z": -0.704743149386269
            },
            "position": {
                "x": -0.37947507619857795,
                "y": -0.6371506643295288,
                "z": 0.19426114857196808
            }
        },
        "name": "move_to_magneteinheit_C"
    },
    "id": "RRTConnect_move_to_magneteinheit_C_23",
    "joint_names": [
        "shoulder_pan_joint",
        "shoulder_lift_joint",
        "elbow_joint",
        "wrist_1_joint",
        "wrist_2_joint",
        "wrist_3_joint"
    ],
    "metrics": {
        "cart_traj_len": 0.5457146160417865,
        "distance_elbow_joint": 0.05287258258283245,
        "distance_shoulder_lift_joint": 0.2550828600294355,
        "distance_shoulder_pan_joint": 0.8023454060886361,
        "distance_wrist_1_joint": 0.3085105731409441,
        "distance_wrist_2_joint": 1.135444599905834,
        "distance_wrist_3_joint": 0.027004105292068648,
        "smoothness": 0.6253669002039829,
        "time": 0.093470936,
        "traj_len": 1.6066300529492628,
        "weighted_distance": 2.019708768776
    },
    "planner": "RRTConnect",
    "start": {
        "state": {
            "elbow_joint": 1.9565354010623817,
            "shoulder_lift_joint": -1.4165861575791021,
            "shoulder_pan_joint": -1.6717766225146293,
            "wrist_1_joint": -0.5286633292919765,
            "wrist_2_joint": 1.472756589071564,
            "wrist_3_joint": -3.1238370188695823
        }
    },
    "waypoints": [
        {
            "positions": [
                -1.6717766225146293,
                -1.4165861575791021,
                1.9565354010623817,
                -0.5286633292919765,
                1.472756589071564,
                -3.1238370188695823
            ]
        },
        {
            "positions": [
                -1.754183097537241,
                -1.386362279933504,
                1.9632212999789633,
                -0.5468837116873184,
                1.2302568335137225,
                -3.1232107079253955
            ]
        },
        {
            "positions": [
                -1.8365895725598524,
                -1.3561384022879062,
                1.9699071988955452,
                -0.5651040940826605,
                0.9877570779558811,
                -3.1225843969812086
            ]
        },
        {
            "positions": [
                -1.9189960475824641,
                -1.325914524642308,
                1.976593097812127,
                -0.5833244764780026,
                0.7452573223980398,
                -3.1219580860370217
            ]
        },
        {
            "positions": [
                -2.001402522605076,
                -1.29569064699671,
                1.9832789967287088,
                -0.6015448588733445,
                0.5027575668401983,
                -3.121331775092835
            ]
        },
        {
            "positions": [
                -2.158975691271139,
                -1.2509615305143622,
                1.9919886590342106,
                -0.6800878733932032,
                0.5579060927316878,
                -3.1294980622646085
            ]
        },
        {
            "positions": [
                -2.3165488599372024,
                -1.2062324140320144,
                2.0006983213397125,
                -0.7586308879130619,
                0.6130546186231773,
                -3.1376643494363825
            ]
        },
        {
            "positions": [
                -2.4741220286032655,
                -1.1615032975496666,
                2.009407983645214,
                -0.8371739024329206,
                0.6682031445146668,
                -3.145830636608156
            ]
        }
    ]
}