{
    "goal": {
        "global_pose": {
            "orientation": {
                "w": -0.00223480608172531,
                "x": 0.0024358444001904467,
                "y": 0.7094548369677653,
                "z": -0.704743149386269
            },
            "position": {
                "x": 0.6205249238014221,
                "y": -0.6371506643295288,
                "z": 0.19426114857196808
            }
        },
        "name": "move_to_magneteinheit_B"
    },
    "id": "RRTConnect_move_to_magneteinheit_B_89",
    "joint_names": [
        "shoulder_pan_joint",
        "shoulder_lift_joint",
        "elbow_joint",
        "wrist_1_joint",
        "wrist_2_joint",
        "wrist_3_joint"
    ],
    "metrics": {
        "cart_traj_len": 4.212726120862019,
        "distance_elbow_joint": 5.188354440703711,
        "distance_shoulder_lift_joint": 0.9602980144680884,
        "distance_shoulder_pan_joint": 3.4147280975454355,
        "distance_wrist_1_joint": 4.502645238669752,
        "distance_wrist_2_joint": 3.4535608878065105,
        "distance_wrist_3_joint": 3.3812557187668664,
        "smoothness": 0.867211939630275,
        "time": 0.480299975,
        "traj_len": 4.571743912114978,
        "weighted_distance": 5.96821245952005
    },
    "planner": "RRTConnect",
    "start": {
        "state": {
            "elbow_joint": 2.6216224122426386,
            "shoulder_lift_joint": -1.4174107377796124,
            "shoulder_pan_joint": 0.7066234856936794,
            "wrist_1_joint": 1.9546482284002225,
            "wrist_2_joint": -0.7096286983471962,
            "wrist_3_joint": 0.005740856962016249
        }
    },
    "waypoints": [
        {
            "positions": [
                0.7066234856936794,
                -1.4174107377796124,
                2.6216224122426386,
                1.9546482284002225,
                -0.7096286983471962,
                0.005740856962016249
            ]
        },
        {
            "positions": [
                0.6432912719118138,
                -1.4618471695915822,
                2.579385345941825,
                1.9000882427163912,
                -0.6080701168264548,
                0.035036840766306275
            ]
        },
        {
            "positions": [
                0.5799590581299481,
                -1.506283601403552,
                2.5371482796410105,
                1.84552825703256,
                -0.5065115353057134,
                0.0643328245705963
            ]
        },
        {
            "positions": [
                0.5166268443480824,
                -1.550720033215522,
                2.4949112133401963,
                1.7909682713487285,
                -0.4049529537849719,
                0.09362880837488632
            ]
        },
        {
            "positions": [
                0.45329463056621677,
                -1.5951564650274919,
                2.4526741470393825,
                1.7364082856648972,
                -0.3033943722642305,
                0.12292479217917635
            ]
        },
        {
            "positions": [
                0.43020430469613463,
                -1.5936764280803717,
                2.308929115605475,
                1.6060741007738586,
                -0.2509545516456252,
                0.11165249568776958
            ]
        },
        {
            "positions": [
                0.4071139788260525,
                -1.5921963911332517,
                2.1651840841715675,
                1.4757399158828202,
                -0.19851473102701983,
                0.10038019919636283
            ]
        },
        {
            "positions": [
                0.3840236529559704,
                -1.5907163541861316,
                2.02143905273766,
                1.3454057309917815,
                -0.14607491040841453,
                0.08910790270495608
            ]
        },
        {
            "positions": [
                0.36093332708588827,
                -1.5892363172390116,
                1.8776940213037525,
                1.2150715461007429,
                -0.0936350897898092,
                0.07783560621354932
            ]
        },
        {
            "positions": [
                0.3378430012158061,
                -1.5877562802918914,
                1.7339489898698452,
                1.0847373612097044,
                -0.04119526917120386,
                0.06656330972214256
            ]
        },
        {
            "positions": [
                0.31475267534572404,
                -1.5862762433447715,
                1.590203958435938,
                0.9544031763186658,
                0.01124455144740144,
                0.055291013230735805
            ]
        },
        {
            "positions": [
                0.29166234947564185,
                -1.5847962063976513,
                1.4464589270020303,
                0.8240689914276271,
                0.06368437206600674,
                0.04401871673932904
            ]
        },
        {
            "positions": [
                0.26857202360555976,
                -1.5833161694505313,
                1.3027138955681228,
                0.6937348065365885,
                0.1161241926846121,
                0.03274642024792228
            ]
        },
        {
            "positions": [
                0.2454816977354776,
                -1.5818361325034112,
                1.1589688641342153,
                0.5634006216455498,
                0.16856401330321746,
                0.021474123756515515
            ]
        },
        {
            "positions": [
                0.22239137186539548,
                -1.5803560955562912,
                1.015223832700308,
                0.4330664367545114,
                0.22100383392182277,
                0.010201827265108765
            ]
        },
        {
            "positions": [
                0.19930104599531334,
                -1.578876058609171,
                0.8714788012664005,
                0.3027322518634727,
                0.27344365454042807,
                -0.0010704692262979987
            ]
        },
        {
            "positions": [
                0.2691935787919967,
                -1.5771562874021312,
                0.7658642980064821,
                0.22037978797143454,
                0.21136077136359058,
                -0.06910280040565576
            ]
        },
        {
            "positions": [
                0.33908611158867996,
                -1.5754365161950916,
                0.6602497947465638,
                0.13802732407939639,
                0.14927788818675308,
                -0.13713513158501353
            ]
        },
        {
            "positions": [
                0.40897864438536335,
                -1.5737167449880518,
                0.5546352914866454,
                0.05567486018735823,
                0.08719500500991556,
                -0.2051674627643713
            ]
        },
        {
            "positions": [
                0.47887117718204664,
                -1.571996973781012,
                0.449020788226727,
                -0.02667760370467992,
                0.025112121833078066,
                -0.27319979394372906
            ]
        },
        {
            "positions": [
                0.5487637099787299,
                -1.5702772025739724,
                0.3434062849668086,
                -0.10903006759671807,
                -0.03697076134375943,
                -0.3412321251230868
            ]
        },
        {
            "positions": [
                0.6186562427754133,
                -1.5685574313669326,
                0.2377917817068902,
                -0.19138253148875622,
                -0.09905364452059695,
                -0.4092644563024446
            ]
        },
        {
            "positions": [
                0.6885487755720966,
                -1.5668376601598928,
                0.1321772784469719,
                -0.2737349953807943,
                -0.16113652769743436,
                -0.4772967874818023
            ]
        },
        {
            "positions": [
                0.75844130836878,
                -1.5651178889528532,
                0.02656277518705341,
                -0.35608745927283253,
                -0.22321941087427194,
                -0.5453291186611602
            ]
        },
        {
            "positions": [
                0.8283338411654633,
                -1.5633981177458134,
                -0.07905172807286487,
                -0.4384399231648706,
                -0.2853022940511094,
                -0.6133614498405178
            ]
        },
        {
            "positions": [
                0.8982263739621466,
                -1.5616783465387736,
                -0.18466623133278337,
                -0.5207923870569089,
                -0.34738517722794693,
                -0.6813937810198756
            ]
        },
        {
            "positions": [
                0.9681189067588298,
                -1.559958575331734,
                -0.29028073459270165,
                -0.603144850948947,
                -0.40946806040478434,
                -0.7494261121992334
            ]
        },
        {
            "positions": [
                1.0380114395555133,
                -1.5582388041246942,
                -0.39589523785262015,
                -0.6854973148409851,
                -0.471550943581622,
                -0.8174584433785912
            ]
        },
        {
            "positions": [
                1.1079039723521966,
                -1.5565190329176546,
                -0.5015097411125384,
                -0.7678497787330232,
                -0.5336338267584594,
                -0.885490774557949
            ]
        },
        {
            "positions": [
                1.17779650514888,
                -1.5547992617106148,
                -0.6071242443724567,
                -0.8502022426250613,
                -0.5957167099352968,
                -0.9535231057373066
            ]
        },
        {
            "positions": [
                1.247689037945563,
                -1.553079490503575,
                -0.712738747632375,
                -0.9325547065170994,
                -0.6577995931121343,
                -1.0215554369166644
            ]
        },
        {
            "positions": [
                1.3175815707422465,
                -1.5513597192965354,
                -0.8183532508922937,
                -1.0149071704091377,
                -0.719882476288972,
                -1.0895877680960222
            ]
        },
        {
            "positions": [
                1.3874741035389297,
                -1.5496399480894956,
                -0.923967754152212,
                -1.0972596343011758,
                -0.7819653594658095,
                -1.15762009927538
            ]
        },
        {
            "positions": [
                1.457366636335613,
                -1.5479201768824558,
                -1.0295822574121303,
                -1.1796120981932139,
                -0.8440482426426469,
                -1.2256524304547376
            ]
        },
        {
            "positions": [
                1.5272591691322963,
                -1.5462004056754162,
                -1.1351967606720486,
                -1.261964562085252,
                -0.9061311258194843,
                -1.2936847616340954
            ]
        },
        {
            "positions": [
                1.5971517019289798,
                -1.5444806344683764,
                -1.2408112639319673,
                -1.3443170259772903,
                -0.9682140089963219,
                -1.3617170928134532
            ]
        },
        {
            "positions": [
                1.667044234725663,
                -1.5427608632613365,
                -1.3464257671918856,
                -1.4266694898693284,
                -1.0302968921731592,
                -1.429749423992811
            ]
        },
        {
            "positions": [
                1.7369367675223464,
                -1.541041092054297,
                -1.4520402704518038,
                -1.5090219537613665,
                -1.0923797753499969,
                -1.4977817551721688
            ]
        },
        {
            "positions": [
                1.8068293003190297,
                -1.5393213208472571,
                -1.5576547737117221,
                -1.5913744176534046,
                -1.1544626585268345,
                -1.5658140863515264
            ]
        },
        {
            "positions": [
                1.8767218331157132,
                -1.5376015496402173,
                -1.6632692769716408,
                -1.673726881545443,
                -1.2165455417036721,
                -1.6338464175308844
            ]
        },
        {
            "positions": [
                1.9466143659123964,
                -1.5358817784331777,
                -1.7688837802315591,
                -1.7560793454374812,
                -1.2786284248805093,
                -1.701878748710242
            ]
        },
        {
            "positions": [
                2.0165068987090797,
                -1.534162007226138,
                -1.8744982834914772,
                -1.8384318093295193,
                -1.340711308057347,
                -1.7699110798895998
            ]
        },
        {
            "positions": [
                2.1023011991255602,
                -1.599911985330005,
                -1.8870613194591208,
                -1.9292471071867772,
                -1.3294941774498816,
                -1.874558314313441
            ]
        },
        {
            "positions": [
                2.188095499542041,
                -1.6656619634338723,
                -1.8996243554267644,
                -2.020062405044035,
                -1.3182770468424163,
                -1.9792055487372824
            ]
        },
        {
            "positions": [
                2.273889799958522,
                -1.7314119415377394,
                -1.912187391394408,
                -2.110877702901293,
                -1.307059916234951,
                -2.0838527831611238
            ]
        },
        {
            "positions": [
                2.3596841003750026,
                -1.7971619196416064,
                -1.9247504273620517,
                -2.2016930007585507,
                -1.2958427856274857,
                -2.188500017584965
            ]
        },
        {
            "positions": [
                2.2478360370654733,
                -1.7798529274680712,
                -2.017022923701681,
                -2.17740379944404,
                -1.2782326679419598,
                -2.1865576072274253
            ]
        },
        {
            "positions": [
                2.135987973755944,
                -1.762543935294536,
                -2.1092954200413097,
                -2.1531145981295285,
                -1.2606225502564339,
                -2.1846151968698857
            ]
        },
        {
            "positions": [
                2.255002217021851,
                -1.8113219529715479,
                -2.0478816258973387,
                -2.215612567774265,
                -1.251218341452515,
                -2.251155179266835
            ]
        },
        {
            "positions": [
                2.3740164602877574,
                -1.8600999706485597,
                -1.9864678317533675,
                -2.278110537419001,
                -1.241814132648596,
                -2.317695161663784
            ]
        },
        {
            "positions": [
                2.4930307035536643,
                -1.9088779883255715,
                -1.9250540376093963,
                -2.3406085070637377,
                -1.2324099238446773,
                -2.3842351440607334
            ]
        },
        {
            "positions": [
                2.521462007488695,
                -1.9449521351437848,
                -1.9003833810451258,
                -2.3673511708070025,
                -1.1596948923853951,
                -2.4685433649267035
            ]
        },
        {
            "positions": [
                2.549893311423726,
                -1.9810262819619981,
                -1.8757127244808556,
                -2.394093834550267,
                -1.086979860926113,
                -2.552851585792674
            ]
        },
        {
            "positions": [
                2.5717775392598337,
                -2.0221177991597687,
                -1.8309419419089932,
                -2.40544310864251,
                -0.9664594358881373,
                -2.6689567386222133
            ]
        },
        {
            "positions": [
                2.5936617670959414,
                -2.06320931635754,
                -1.786171159337131,
                -2.4167923827347537,
                -0.8459390108501617,
                -2.785061891451753
            ]
        },
        {
            "positions": [
                2.6155459949320496,
                -2.1043008335553104,
                -1.7414003767652686,
                -2.428141656826997,
                -0.725418585812186,
                -2.9011670442812925
            ]
        },
        {
            "positions": [
                2.6374302227681574,
                -2.1453923507530814,
                -1.6966295941934062,
                -2.4394909309192405,
                -0.6048981607742103,
                -3.0172721971108323
            ]
        },
        {
            "positions": [
                2.659314450604265,
                -2.186483867950852,
                -1.651858811621544,
                -2.4508402050114837,
                -0.48437773573623466,
                -3.1333773499403716
            ]
        }
    ]
}