{
    "goal": {
        "global_pose": {
            "orientation": {
                "w": -0.4816463035849501,
                "x": 0.5182115481033762,
                "y": 0.4908360881923453,
                "z": -0.5084816262002911
            },
            "position": {
                "x": -0.8240239810943604,
                "y": -0.300875300988555,
                "z": 0.16403168439865112
            }
        },
        "name": "move_to_storage_C"
    },
    "id": "RRTConnect_move_to_storage_C_49",
    "joint_names": [
        "shoulder_pan_joint",
        "shoulder_lift_joint",
        "elbow_joint",
        "wrist_1_joint",
        "wrist_2_joint",
        "wrist_3_joint"
    ],
    "metrics": {
        "cart_traj_len": 0.5761253242829599,
        "distance_elbow_joint": 0.25726002293232697,
        "distance_shoulder_lift_joint": 0.18997303669831933,
        "distance_shoulder_pan_joint": 0.49401178596988826,
        "distance_wrist_1_joint": 0.07289535616102427,
        "distance_wrist_2_joint": 1.0660039450224685,
        "distance_wrist_3_joint": 0.05882100333676821,
        "smoothness": 2.5376526478085547e-16,
        "time": 0.068329373,
        "traj_len": 1.462520136654807,
        "weighted_distance": 1.8426900059363822
    },
    "planner": "RRTConnect",
    "start": {
        "state": {
            "elbow_joint": 2.010868314990456,
            "shoulder_lift_joint": -1.1634956873337592,
            "shoulder_pan_joint": -2.4736205022346125,
            "wrist_1_joint": -0.8367026794202681,
            "wrist_2_joint": 0.6746043897044499,
            "wrist_3_joint": -3.1496632123970403
        }
    },
    "waypoints": [
        {
            "positions": [
                -2.4736205022346125,
                -1.1634956873337592,
                2.010868314990456,
                -0.8367026794202681,
                0.6746043897044499,
                -3.1496632123970403
            ]
        },
        {
            "positions": [
                -2.5559557998962603,
                -1.131833514550706,
                1.9679916445017347,
                -0.8245534533934307,
                0.8522717138748613,
                -3.1398597118409124
            ]
        },
        {
            "positions": [
                -2.6382910975579086,
                -1.1001713417676529,
                1.9251149740130136,
                -0.8124042273665933,
                1.0299390380452729,
                -3.130056211284784
            ]
        },
        {
            "positions": [
                -2.720626395219557,
                -1.0685091689845996,
                1.8822383035242924,
                -0.800255001339756,
                1.2076063622156843,
                -3.120252710728656
            ]
        },
        {
            "positions": [
                -2.8029616928812047,
                -1.0368469962015463,
                1.839361633035571,
                -0.7881057753129186,
                1.3852736863860957,
                -3.1104492101725283
            ]
        },
        {
            "positions": [
                -2.8852969905428525,
                -1.005184823418493,
                1.79648496254685,
                -0.7759565492860812,
                1.5629410105565071,
                -3.1006457096164
            ]
        },
        {
            "positions": [
                -2.9676322882045008,
                -0.9735226506354399,
                1.7536082920581288,
                -0.7638073232592438,
                1.7406083347269183,
                -3.090842209060272
            ]
        }
    ]
}