{
    "goal": {
        "global_pose": {
            "orientation": {
                "w": -0.00223480608172531,
                "x": 0.0024358444001904467,
                "y": 0.7094548369677653,
                "z": -0.704743149386269
            },
            "position": {
                "x": -0.37947507619857795,
                "y": -0.6371506643295288,
                "z": 0.19426114857196808
            }
        },
        "name": "move_to_magneteinheit_C"
    },
    "id": "RRTConnect_move_to_magneteinheit_C_45",
    "joint_names": [
        "shoulder_pan_joint",
        "shoulder_lift_joint",
        "elbow_joint",
        "wrist_1_joint",
        "wrist_2_joint",
        "wrist_3_joint"
    ],
    "metrics": {
        "cart_traj_len": 2.6140495964275763,
        "distance_elbow_joint": 1.54964144439146,
        "distance_shoulder_lift_joint": 0.8762263880685539,
        "distance_shoulder_pan_joint": 3.3903943265898597,
        "distance_wrist_1_joint": 2.830235091951665,
        "distance_wrist_2_joint": 4.974828420276774,
        "distance_wrist_3_joint": 9.579538360182905,
        "smoothness": 0.7115237615013233,
        "time": 0.365721233,
        "traj_len": 4.816727523065967,
        "weighted_distance": 7.08272576513135
    },
    "planner": "RRTConnect",
    "start": {
        "state": {
            "elbow_joint": 1.9565354010623817,
            "shoulder_lift_joint": -1.4165861575791021,
            "shoulder_pan_joint": -1.6717766225146293,
            "wrist_1_joint": -0.5286633292919765,
            "wrist_2_joint": 1.472756589071564,
            "wrist_3_joint": -3.1238370188695823
        }
    },
    "waypoints": [
        {
            "positions": [
                -1.6717766225146293,
                -1.4165861575791021,
                1.9565354010623817,
                -0.5286633292919765,
                1.472756589071564,
                -3.1238370188695823
            ]
        },
        {
            "positions": [
                -1.5854958438611007,
                -1.4372880153065128,
                1.9581762948280348,
                -0.46890635388462226,
                1.3617028462781202,
                -3.028558314473303
            ]
        },
        {
            "positions": [
                -1.499215065207572,
                -1.4579898730339236,
                1.9598171885936881,
                -0.40914937847726807,
                1.2506491034846767,
                -2.9332796100770238
            ]
        },
        {
            "positions": [
                -1.4129342865540435,
                -1.4786917307613343,
                1.9614580823593413,
                -0.3493924030699139,
                1.139595360691233,
                -2.8380009056807443
            ]
        },
        {
            "positions": [
                -1.3266535079005148,
                -1.499393588488745,
                1.9630989761249946,
                -0.28963542766255973,
                1.0285416178977895,
                -2.7427222012844648
            ]
        },
        {
            "positions": [
                -1.2403727292469862,
                -1.5200954462161558,
                1.9647398698906477,
                -0.22987845225520553,
                0.9174878751043458,
                -2.6474434968881857
            ]
        },
        {
            "positions": [
                -1.1540919505934575,
                -1.5407973039435665,
                1.9663807636563009,
                -0.17012147684785134,
                0.8064341323109021,
                -2.552164792491906
            ]
        },
        {
            "positions": [
                -1.0678111719399288,
                -1.5614991616709775,
                1.9680216574219542,
                -0.11036450144049714,
                0.6953803895174585,
                -2.4568860880956267
            ]
        },
        {
            "positions": [
                -0.9815303932864002,
                -1.5822010193983882,
                1.9696625511876074,
                -0.050607526033143,
                0.584326646724015,
                -2.3616073836993476
            ]
        },
        {
            "positions": [
                -0.8952496146328717,
                -1.602902877125799,
                1.9713034449532607,
                0.009149449374211138,
                0.4732729039305714,
                -2.266328679303068
            ]
        },
        {
            "positions": [
                -0.808968835979343,
                -1.6236047348532097,
                1.9729443387189138,
                0.06890642478156539,
                0.3622191611371277,
                -2.171049974906789
            ]
        },
        {
            "positions": [
                -0.7226880573258144,
                -1.6443065925806204,
                1.974585232484567,
                0.12866340018891953,
                0.2511654183436842,
                -2.0757712705105096
            ]
        },
        {
            "positions": [
                -0.6364072786722856,
                -1.6650084503080311,
                1.9762261262502203,
                0.18842037559627378,
                0.1401116755502403,
                -1.98049256611423
            ]
        },
        {
            "positions": [
                -0.550126500018757,
                -1.6857103080354419,
                1.9778670200158734,
                0.24817735100362792,
                0.0290579327567968,
                -1.8852138617179506
            ]
        },
        {
            "positions": [
                -0.4638457213652285,
                -1.7064121657628526,
                1.9795079137815268,
                0.3079343264109822,
                -0.08199581003664691,
                -1.7899351573216713
            ]
        },
        {
            "positions": [
                -0.3775649427116998,
                -1.7271140234902633,
                1.98114880754718,
                0.36769130181833626,
                -0.19304955283009045,
                -1.694656452925392
            ]
        },
        {
            "positions": [
                -0.45484743816612655,
                -1.7244447752959016,
                2.0121432541326483,
                0.3051889989316461,
                -0.10970568686163816,
                -1.5608173908577851
            ]
        },
        {
            "positions": [
                -0.5321299336205533,
                -1.72177552710154,
                2.0431377007181166,
                0.24268669604495596,
                -0.026361820893185867,
                -1.426978328790178
            ]
        },
        {
            "positions": [
                -0.6094124290749799,
                -1.7191062789071783,
                2.0741321473035854,
                0.18018439315826584,
                0.05698204507526644,
                -1.2931392667225712
            ]
        },
        {
            "positions": [
                -0.6866949245294067,
                -1.7164370307128167,
                2.1051265938890538,
                0.11768209027157567,
                0.14032591104371872,
                -1.159300204654964
            ]
        },
        {
            "positions": [
                -0.7639774199838334,
                -1.713767782518455,
                2.136121040474522,
                0.05517978738488555,
                0.22366977701217106,
                -1.0254611425873572
            ]
        },
        {
            "positions": [
                -0.8412599154382601,
                -1.7110985343240934,
                2.1671154870599905,
                -0.007322515501804572,
                0.30701364298062334,
                -0.8916220805197503
            ]
        },
        {
            "positions": [
                -0.9185424108926868,
                -1.7084292861297317,
                2.1981099336454593,
                -0.0698248183884948,
                0.39035750894907567,
                -0.7577830184521432
            ]
        },
        {
            "positions": [
                -0.9958249063471135,
                -1.7057600379353701,
                2.2291043802309276,
                -0.13232712127518492,
                0.4737013749175279,
                -0.6239439563845364
            ]
        },
        {
            "positions": [
                -1.0731074018015403,
                -1.7030907897410084,
                2.260098826816396,
                -0.19482942416187504,
                0.5570452408859803,
                -0.4901048943169295
            ]
        },
        {
            "positions": [
                -1.150389897255967,
                -1.7004215415466466,
                2.2910932734018647,
                -0.25733172704856516,
                0.6403891068544325,
                -0.3562658322493224
            ]
        },
        {
            "positions": [
                -1.2276723927103936,
                -1.697752293352285,
                2.322087719987333,
                -0.3198340299352553,
                0.7237329728228847,
                -0.22242677018171553
            ]
        },
        {
            "positions": [
                -1.3049548881648203,
                -1.6950830451579233,
                2.3530821665728014,
                -0.3823363328219454,
                0.8070768387913372,
                -0.08858770811410865
            ]
        },
        {
            "positions": [
                -1.382237383619247,
                -1.6924137969635618,
                2.38407661315827,
                -0.44483863570863563,
                0.8904207047597894,
                0.04525135395349844
            ]
        },
        {
            "positions": [
                -1.4595198790736739,
                -1.6897445487692,
                2.415071059743738,
                -0.5073409385953258,
                0.9737645707282419,
                0.17909041602110554
            ]
        },
        {
            "positions": [
                -1.5368023745281003,
                -1.6870753005748385,
                2.446065506329207,
                -0.5698432414820158,
                1.057108436696694,
                0.3129294780887122
            ]
        },
        {
            "positions": [
                -1.6140848699825272,
                -1.6844060523804767,
                2.4770599529146753,
                -0.632345544368706,
                1.1404523026651463,
                0.4467685401563193
            ]
        },
        {
            "positions": [
                -1.6913673654369539,
                -1.681736804186115,
                2.5080543995001436,
                -0.6948478472553963,
                1.2237961686335987,
                0.5806076022239264
            ]
        },
        {
            "positions": [
                -1.7686498608913805,
                -1.6790675559917534,
                2.539048846085612,
                -0.7573501501420863,
                1.307140034602051,
                0.714446664291533
            ]
        },
        {
            "positions": [
                -1.8459323563458072,
                -1.6763983077973916,
                2.5700432926710803,
                -0.8198524530287763,
                1.3904839005705032,
                0.8482857263591401
            ]
        },
        {
            "positions": [
                -1.923214851800234,
                -1.67372905960303,
                2.601037739256549,
                -0.8823547559154665,
                1.4738277665389556,
                0.9821247884267472
            ]
        },
        {
            "positions": [
                -2.0004973472546608,
                -1.6710598114086683,
                2.6320321858420175,
                -0.9448570588021565,
                1.5571716325074076,
                1.1159638504943539
            ]
        },
        {
            "positions": [
                -2.0777798427090874,
                -1.6683905632143068,
                2.663026632427486,
                -1.0073593616888468,
                1.64051549847586,
                1.249802912561961
            ]
        },
        {
            "positions": [
                -2.155062338163514,
                -1.665721315019945,
                2.6940210790129546,
                -1.069861664575537,
                1.7238593644443125,
                1.383641974629568
            ]
        },
        {
            "positions": [
                -2.232344833617941,
                -1.6630520668255835,
                2.725015525598423,
                -1.132363967462227,
                1.8072032304127648,
                1.5174810366971747
            ]
        },
        {
            "positions": [
                -2.3096273290723675,
                -1.6603828186312217,
                2.7560099721838913,
                -1.1948662703489172,
                1.890547096381217,
                1.6513200987647818
            ]
        },
        {
            "positions": [
                -2.3178333420936807,
                -1.635434452766304,
                2.718501628520394,
                -1.1763001259152126,
                1.8292758149230266,
                1.4111010366373546
            ]
        },
        {
            "positions": [
                -2.3260393551149936,
                -1.6104860869013866,
                2.6809932848568963,
                -1.157733981481508,
                1.768004533464836,
                1.1708819745099275
            ]
        },
        {
            "positions": [
                -2.334245368136307,
                -1.5855377210364692,
                2.6434849411933987,
                -1.1391678370478031,
                1.7067332520066456,
                0.9306629123825004
            ]
        },
        {
            "positions": [
                -2.34245138115762,
                -1.5605893551715515,
                2.605976597529901,
                -1.1206016926140985,
                1.645461970548455,
                0.6904438502550733
            ]
        },
        {
            "positions": [
                -2.350657394178933,
                -1.5356409893066338,
                2.5684682538664036,
                -1.1020355481803938,
                1.5841906890902646,
                0.4502247881276462
            ]
        },
        {
            "positions": [
                -2.3588634072002463,
                -1.5106926234417164,
                2.530959910202906,
                -1.0834694037466892,
                1.5229194076320742,
                0.21000572600021905
            ]
        },
        {
            "positions": [
                -2.3670694202215596,
                -1.485744257576799,
                2.4934515665394086,
                -1.0649032593129846,
                1.4616481261738836,
                -0.03021333612720789
            ]
        },
        {
            "positions": [
                -2.3752754332428725,
                -1.4607958917118813,
                2.455943222875911,
                -1.0463371148792797,
                1.4003768447156932,
                -0.2704323982546353
            ]
        },
        {
            "positions": [
                -2.383481446264186,
                -1.4358475258469636,
                2.4184348792124135,
                -1.027770970445575,
                1.3391055632575029,
                -0.5106514603820624
            ]
        },
        {
            "positions": [
                -2.3916874592854986,
                -1.4108991599820462,
                2.380926535548916,
                -1.0092048260118704,
                1.2778342817993122,
                -0.7508705225094894
            ]
        },
        {
            "positions": [
                -2.399893472306812,
                -1.3859507941171287,
                2.3434181918854184,
                -0.9906386815781657,
                1.2165630003411216,
                -0.9910895846369168
            ]
        },
        {
            "positions": [
                -2.4080994853281252,
                -1.361002428252211,
                2.3059098482219214,
                -0.9720725371444611,
                1.1552917188829315,
                -1.2313086467643437
            ]
        },
        {
            "positions": [
                -2.416305498349438,
                -1.3360540623872934,
                2.268401504558424,
                -0.9535063927107563,
                1.0940204374247409,
                -1.4715277088917706
            ]
        },
        {
            "positions": [
                -2.4245115113707514,
                -1.311105696522376,
                2.2308931608949263,
                -0.9349402482770517,
                1.0327491559665503,
                -1.7117467710191976
            ]
        },
        {
            "positions": [
                -2.4327175243920647,
                -1.2861573306574585,
                2.1933848172314288,
                -0.9163741038433469,
                0.9714778745083599,
                -1.951965833146625
            ]
        },
        {
            "positions": [
                -2.4409235374133775,
                -1.2612089647925409,
                2.155876473567931,
                -0.8978079594096422,
                0.9102065930501694,
                -2.1921848952740524
            ]
        },
        {
            "positions": [
                -2.449129550434691,
                -1.2362605989276232,
                2.1183681299044337,
                -0.8792418149759376,
                0.8489353115919789,
                -2.4324039574014793
            ]
        },
        {
            "positions": [
                -2.457335563456004,
                -1.2113122330627057,
                2.080859786240936,
                -0.8606756705422329,
                0.7876640301337885,
                -2.6726230195289067
            ]
        },
        {
            "positions": [
                -2.465541576477317,
                -1.1863638671977883,
                2.0433514425774386,
                -0.8421095261085283,
                0.7263927486755981,
                -2.912842081656333
            ]
        },
        {
            "positions": [
                -2.4737475894986303,
                -1.1614155013328706,
                2.005843098913941,
                -0.8235433816748235,
                0.6651214672174074,
                -3.1530611437837606
            ]
        }
    ]
}