{
    "goal": {
        "global_pose": {
            "orientation": {
                "w": 0.7047431493862688,
                "x": -0.7094548369677653,
                "y": 0.0024358444001904,
                "z": -0.0022348060817251984
            },
            "position": {
                "x": -0.39052492380142206,
                "y": 0.3671506643295288,
                "z": 0.19426114857196808
            }
        },
        "name": "move_to_magneteinheit_D"
    },
    "id": "RRTConnect_move_to_magneteinheit_D_147",
    "joint_names": [
        "shoulder_pan_joint",
        "shoulder_lift_joint",
        "elbow_joint",
        "wrist_1_joint",
        "wrist_2_joint",
        "wrist_3_joint"
    ],
    "metrics": {
        "cart_traj_len": 7.581639343591965,
        "distance_elbow_joint": 3.1277907216838696,
        "distance_shoulder_lift_joint": 1.9791180834525832,
        "distance_shoulder_pan_joint": 9.287412030000997,
        "distance_wrist_1_joint": 4.578617332421345,
        "distance_wrist_2_joint": 2.003007734550835,
        "distance_wrist_3_joint": 8.333774743615647,
        "smoothness": 0.4183522877017976,
        "time": 0.202748075,
        "traj_len": 5.4138452735302,
        "weighted_distance": 7.249751388835952
    },
    "planner": "RRTConnect",
    "start": {
        "state": {
            "elbow_joint": 0.749534889911806,
            "shoulder_lift_joint": -0.6476975780787326,
            "shoulder_pan_joint": -2.711696901376241,
            "wrist_1_joint": -0.07506478083263063,
            "wrist_2_joint": 0.43296659715538205,
            "wrist_3_joint": -3.14703540197715
        }
    },
    "waypoints": [
        {
            "positions": [
                -2.711696901376241,
                -0.6476975780787326,
                0.749534889911806,
                -0.07506478083263063,
                0.43296659715538205,
                -3.14703540197715
            ]
        },
        {
            "positions": [
                -2.727056535283472,
                -0.6344248735372191,
                0.6643597186532251,
                -0.17481231875005032,
                0.34592837375735375,
                -3.065324438381626
            ]
        },
        {
            "positions": [
                -2.7424161691907027,
                -0.6211521689957055,
                0.5791845473946442,
                -0.27455985666747007,
                0.2588901503593255,
                -2.983613474786102
            ]
        },
        {
            "positions": [
                -2.757775803097933,
                -0.6078794644541918,
                0.4940093761360633,
                -0.37430739458488976,
                0.1718519269612972,
                -2.9019025111905785
            ]
        },
        {
            "positions": [
                -2.773135437005164,
                -0.5946067599126783,
                0.40883420487748245,
                -0.47405493250230946,
                0.0848137035632689,
                -2.8201915475950545
            ]
        },
        {
            "positions": [
                -2.788495070912395,
                -0.5813340553711648,
                0.3236590336189016,
                -0.5738024704197291,
                -0.0022245198347594086,
                -2.7384805839995305
            ]
        },
        {
            "positions": [
                -2.8038547048196256,
                -0.5680613508296511,
                0.2384838623603207,
                -0.6735500083371488,
                -0.08926274323278766,
                -2.6567696204040065
            ]
        },
        {
            "positions": [
                -2.819214338726856,
                -0.5547886462881375,
                0.15330869110173984,
                -0.7732975462545684,
                -0.1763009666308159,
                -2.575058656808483
            ]
        },
        {
            "positions": [
                -2.834573972634087,
                -0.541515941746624,
                0.06813351984315896,
                -0.8730450841719883,
                -0.26333919002884426,
                -2.493347693212959
            ]
        },
        {
            "positions": [
                -2.8499336065413177,
                -0.5282432372051105,
                -0.01704165141542191,
                -0.9727926220894079,
                -0.3503774134268725,
                -2.411636729617435
            ]
        },
        {
            "positions": [
                -2.8652932404485485,
                -0.5149705326635968,
                -0.10221682267400278,
                -1.0725401600068276,
                -0.43741563682490087,
                -2.329925766021911
            ]
        },
        {
            "positions": [
                -2.880652874355779,
                -0.5016978281220832,
                -0.18739199393258366,
                -1.1722876979242471,
                -0.524453860222929,
                -2.2482148024263875
            ]
        },
        {
            "positions": [
                -2.8960125082630097,
                -0.48842512358056966,
                -0.27256716519116453,
                -1.2720352358416671,
                -0.6114920836209574,
                -2.1665038388308635
            ]
        },
        {
            "positions": [
                -2.9113721421702405,
                -0.4751524190390561,
                -0.35774233644974546,
                -1.3717827737590866,
                -0.6985303070189856,
                -2.0847928752353395
            ]
        },
        {
            "positions": [
                -2.7559175835419736,
                -0.48060396803884525,
                -0.37086927308418344,
                -1.2907241180178712,
                -0.6869033750031909,
                -1.9615301056357053
            ]
        },
        {
            "positions": [
                -2.600463024913706,
                -0.4860555170386344,
                -0.3839962097186214,
                -1.2096654622766558,
                -0.6752764429873961,
                -1.8382673360360713
            ]
        },
        {
            "positions": [
                -2.445008466285439,
                -0.49150706603842365,
                -0.39712314635305945,
                -1.1286068065354404,
                -0.6636495109716014,
                -1.715004566436437
            ]
        },
        {
            "positions": [
                -2.2895539076571723,
                -0.4969586150382128,
                -0.41025008298749743,
                -1.047548150794225,
                -0.6520225789558067,
                -1.591741796836803
            ]
        },
        {
            "positions": [
                -2.1340993490289053,
                -0.502410164038002,
                -0.4233770196219354,
                -0.9664894950530095,
                -0.640395646940012,
                -1.4684790272371688
            ]
        },
        {
            "positions": [
                -1.978644790400638,
                -0.5078617130377912,
                -0.4365039562563734,
                -0.8854308393117941,
                -0.6287687149242173,
                -1.3452162576375346
            ]
        },
        {
            "positions": [
                -1.823190231772371,
                -0.5133132620375803,
                -0.4496308928908114,
                -0.8043721835705787,
                -0.6171417829084226,
                -1.2219534880379006
            ]
        },
        {
            "positions": [
                -1.6677356731441038,
                -0.5187648110373695,
                -0.46275782952524935,
                -0.7233135278293633,
                -0.6055148508926279,
                -1.0986907184382666
            ]
        },
        {
            "positions": [
                -1.5122811145158368,
                -0.5242163600371588,
                -0.47588476615968733,
                -0.6422548720881478,
                -0.5938879188768331,
                -0.9754279488386324
            ]
        },
        {
            "positions": [
                -1.3568265558875696,
                -0.5296679090369479,
                -0.4890117027941253,
                -0.5611962163469324,
                -0.5822609868610384,
                -0.8521651792389984
            ]
        },
        {
            "positions": [
                -1.2013719972593024,
                -0.5351194580367371,
                -0.5021386394285634,
                -0.4801375606057169,
                -0.5706340548452438,
                -0.7289024096393639
            ]
        },
        {
            "positions": [
                -1.0459174386310355,
                -0.5405710070365263,
                -0.5152655760630014,
                -0.3990789048645016,
                -0.5590071228294491,
                -0.6056396400397299
            ]
        },
        {
            "positions": [
                -0.8904628800027683,
                -0.5460225560363154,
                -0.5283925126974394,
                -0.3180202491232862,
                -0.5473801908136543,
                -0.4823768704400957
            ]
        },
        {
            "positions": [
                -0.7350083213745013,
                -0.5514741050361046,
                -0.5415194493318773,
                -0.2369615933820708,
                -0.5357532587978596,
                -0.3591141008404617
            ]
        },
        {
            "positions": [
                -0.5795537627462339,
                -0.5569256540358938,
                -0.5546463859663153,
                -0.15590293764085517,
                -0.5241263267820649,
                -0.23585133124082747
            ]
        },
        {
            "positions": [
                -0.424099204117967,
                -0.562377203035683,
                -0.5677733226007533,
                -0.07484428189963999,
                -0.5124993947662702,
                -0.11258856164119346
            ]
        },
        {
            "positions": [
                -0.2686446454897,
                -0.5678287520354721,
                -0.5809002592351913,
                0.006214373841575638,
                -0.5008724627504755,
                0.01067420795844054
            ]
        },
        {
            "positions": [
                -0.11319008686143306,
                -0.5732803010352614,
                -0.5940271958696293,
                0.08727302958279104,
                -0.4892455307346808,
                0.13393697755807477
            ]
        },
        {
            "positions": [
                0.042264471766834344,
                -0.5787318500350506,
                -0.6071541325040672,
                0.16833168532400644,
                -0.47761859871888607,
                0.257199747157709
            ]
        },
        {
            "positions": [
                0.1977190303951013,
                -0.5841833990348397,
                -0.6202810691385052,
                0.24939034106522184,
                -0.46599166670309133,
                0.3804625167573428
            ]
        },
        {
            "positions": [
                0.3531735890233687,
                -0.5896349480346289,
                -0.6334080057729432,
                0.33044899680643747,
                -0.45436473468729666,
                0.5037252863569774
            ]
        },
        {
            "positions": [
                0.5086281476516357,
                -0.5950864970344181,
                -0.6465349424073812,
                0.41150765254765287,
                -0.4427378026715019,
                0.6269880559566117
            ]
        },
        {
            "positions": [
                0.6640827062799026,
                -0.6005380460342072,
                -0.6596618790418192,
                0.49256630828886805,
                -0.43111087065570725,
                0.7502508255562454
            ]
        },
        {
            "positions": [
                0.8195372649081696,
                -0.6059895950339964,
                -0.6727888156762571,
                0.5736249640300835,
                -0.4194839386399125,
                0.8735135951558797
            ]
        },
        {
            "positions": [
                0.9749918235364374,
                -0.6114411440337857,
                -0.6859157523106952,
                0.6546836197712991,
                -0.4078570066241178,
                0.9967763647555139
            ]
        },
        {
            "positions": [
                1.130446382164704,
                -0.6168926930335747,
                -0.6990426889451332,
                0.7357422755125143,
                -0.3962300746083231,
                1.1200391343551481
            ]
        },
        {
            "positions": [
                1.285900940792971,
                -0.622344242033364,
                -0.7121696255795712,
                0.8168009312537299,
                -0.38460314259252837,
                1.243301903954782
            ]
        },
        {
            "positions": [
                1.4413554994212379,
                -0.6277957910331532,
                -0.7252965622140092,
                0.8978595869949451,
                -0.3729762105767337,
                1.3665646735544161
            ]
        },
        {
            "positions": [
                1.5968100580495057,
                -0.6332473400329424,
                -0.7384234988484473,
                0.9789182427361607,
                -0.36134927856093896,
                1.4898274431540504
            ]
        },
        {
            "positions": [
                1.7522646166777727,
                -0.6386988890327315,
                -0.7515504354828852,
                1.0599768984773763,
                -0.3497223465451443,
                1.6130902127536846
            ]
        },
        {
            "positions": [
                1.9077191753060396,
                -0.6441504380325207,
                -0.7646773721173232,
                1.1410355542185915,
                -0.33809541452934955,
                1.7363529823533184
            ]
        },
        {
            "positions": [
                2.0631737339343066,
                -0.6496019870323099,
                -0.7778043087517611,
                1.2220942099598067,
                -0.32646848251355487,
                1.8596157519529526
            ]
        },
        {
            "positions": [
                2.2186282925625735,
                -0.655053536032099,
                -0.7909312453861992,
                1.3031528657010223,
                -0.31484155049776014,
                1.9828785215525873
            ]
        },
        {
            "positions": [
                2.3740828511908405,
                -0.6605050850318883,
                -0.8040581820206372,
                1.384211521442238,
                -0.3032146184819654,
                2.1061412911522206
            ]
        },
        {
            "positions": [
                2.5295374098191075,
                -0.6659566340316774,
                -0.8171851186550751,
                1.465270177183453,
                -0.2915876864661707,
                2.229404060751855
            ]
        },
        {
            "positions": [
                2.6849919684473744,
                -0.6714081830314667,
                -0.8303120552895131,
                1.5463288329246687,
                -0.27996075445037605,
                2.352666830351489
            ]
        },
        {
            "positions": [
                2.8404465270756423,
                -0.6768597320312558,
                -0.8434389919239511,
                1.6273874886658843,
                -0.26833382243458126,
                2.4759295999511233
            ]
        },
        {
            "positions": [
                2.9959010857039097,
                -0.682311281031045,
                -0.8565659285583891,
                1.7084461444070995,
                -0.2567068904187866,
                2.599192369550757
            ]
        },
        {
            "positions": [
                2.8686825432505954,
                -0.7462878435278817,
                -0.9174335246869361,
                1.7003793275539512,
                -0.23951939386773588,
                2.4956904906672475
            ]
        },
        {
            "positions": [
                2.741464000797281,
                -0.8102644060247184,
                -0.9783011208154831,
                1.6923125107008026,
                -0.2223318973166852,
                2.392188611783738
            ]
        },
        {
            "positions": [
                2.614245458343967,
                -0.8742409685215551,
                -1.03916871694403,
                1.6842456938476542,
                -0.2051444007656345,
                2.2886867329002283
            ]
        },
        {
            "positions": [
                2.487026915890653,
                -0.9382175310183918,
                -1.1000363130725772,
                1.6761788769945059,
                -0.18795690421458383,
                2.1851848540167187
            ]
        },
        {
            "positions": [
                2.3598083734373385,
                -1.0021940935152285,
                -1.1609039092011242,
                1.6681120601413575,
                -0.1707694076635331,
                2.081682975133209
            ]
        },
        {
            "positions": [
                2.2325898309840246,
                -1.0661706560120652,
                -1.2217715053296712,
                1.660045243288209,
                -0.15358191111248243,
                1.9781810962496995
            ]
        },
        {
            "positions": [
                2.1053712885307103,
                -1.130147218508902,
                -1.2826391014582181,
                1.6519784264350605,
                -0.13639441456143173,
                1.87467921736619
            ]
        },
        {
            "positions": [
                1.978152746077396,
                -1.1941237810057386,
                -1.343506697586765,
                1.6439116095819122,
                -0.11920691801038105,
                1.7711773384826803
            ]
        },
        {
            "positions": [
                1.850934203624082,
                -1.2581003435025755,
                -1.4043742937153123,
                1.6358447927287636,
                -0.10201942145933035,
                1.6676754595991707
            ]
        },
        {
            "positions": [
                1.7237156611707676,
                -1.322076905999412,
                -1.4652418898438593,
                1.6277779758756152,
                -0.08483192490827965,
                1.5641735807156611
            ]
        },
        {
            "positions": [
                1.5964971187174535,
                -1.3860534684962489,
                -1.5261094859724063,
                1.6197111590224669,
                -0.06764442835722898,
                1.4606717018321516
            ]
        },
        {
            "positions": [
                1.4692785762641394,
                -1.4500300309930854,
                -1.5869770821009532,
                1.6116443421693185,
                -0.0504569318061783,
                1.357169822948642
            ]
        },
        {
            "positions": [
                1.342060033810825,
                -1.5140065934899223,
                -1.6478446782295002,
                1.60357752531617,
                -0.03326943525512757,
                1.2536679440651324
            ]
        },
        {
            "positions": [
                1.2148414913575107,
                -1.577983155986759,
                -1.7087122743580472,
                1.5955107084630216,
                -0.01608193870407687,
                1.1501660651816226
            ]
        },
        {
            "positions": [
                1.0876229489041969,
                -1.6419597184835957,
                -1.7695798704865942,
                1.5874438916098732,
                0.0011055578469738037,
                1.0466641862981132
            ]
        },
        {
            "positions": [
                0.9604044064508823,
                -1.7059362809804324,
                -1.8304474666151411,
                1.5793770747567248,
                0.018293054398024478,
                0.9431623074146036
            ]
        },
        {
            "positions": [
                0.833185863997568,
                -1.769912843477269,
                -1.8913150627436883,
                1.5713102579035763,
                0.03548055094907521,
                0.8396604285310938
            ]
        },
        {
            "positions": [
                0.7059673215442541,
                -1.8338894059741058,
                -1.9521826588722353,
                1.563243441050428,
                0.05266804750012588,
                0.7361585496475844
            ]
        },
        {
            "positions": [
                0.5787487790909398,
                -1.8978659684709425,
                -2.013050255000782,
                1.5551766241972795,
                0.06985554405117655,
                0.6326566707640748
            ]
        },
        {
            "positions": [
                0.4515302366376255,
                -1.9618425309677792,
                -2.0739178511293295,
                1.547109807344131,
                0.08704304060222728,
                0.5291547918805652
            ]
        },
        {
            "positions": [
                0.3243116941843116,
                -2.025819093464616,
                -2.134785447257876,
                1.5390429904909826,
                0.1042305371532779,
                0.42565291299705565
            ]
        },
        {
            "positions": [
                0.19709315173099728,
                -2.089795655961453,
                -2.1956530433864234,
                1.5309761736378342,
                0.12141803370432863,
                0.32215103411354606
            ]
        },
        {
            "positions": [
                0.06987460927768296,
                -2.1537722184582893,
                -2.2565206395149704,
                1.5229093567846856,
                0.13860553025537936,
                0.21864915523003647
            ]
        },
        {
            "positions": [
                -0.05734393317563091,
                -2.2177487809551257,
                -2.3173882356435174,
                1.5148425399315373,
                0.15579302680642998,
                0.11514727634652688
            ]
        },
        {
            "positions": [
                -0.18456247562894523,
                -2.2817253434519627,
                -2.3782558317720643,
                1.506775723078389,
                0.17298052335748074,
                0.011645397463017421
            ]
        }
    ]
}