{
    "goal": {
        "global_pose": {
            "orientation": {
                "w": 0.5084816262002911,
                "x": -0.4908360881923452,
                "y": 0.5182115481033761,
                "z": -0.48164630358495003
            },
            "position": {
                "x": 0.5540239810943604,
                "y": -0.46912469901144505,
                "z": 0.16403168439865112
            }
        },
        "name": "move_to_storage_B"
    },
    "id": "RRTConnect_move_to_storage_B_79",
    "joint_names": [
        "shoulder_pan_joint",
        "shoulder_lift_joint",
        "elbow_joint",
        "wrist_1_joint",
        "wrist_2_joint",
        "wrist_3_joint"
    ],
    "metrics": {
        "cart_traj_len": 1.8121485842028262,
        "distance_elbow_joint": 2.304536300005271,
        "distance_shoulder_lift_joint": 0.4736158796354417,
        "distance_shoulder_pan_joint": 1.4596197669941287,
        "distance_wrist_1_joint": 3.1336735241099825,
        "distance_wrist_2_joint": 2.710904060805652,
        "distance_wrist_3_joint": 3.132893817330768,
        "smoothness": 0.47616331477325535,
        "time": 0.116754993,
        "traj_len": 3.6352776164801006,
        "weighted_distance": 5.032455520763041
    },
    "planner": "RRTConnect",
    "start": {
        "state": {
            "elbow_joint": 1.664937868594044,
            "shoulder_lift_joint": -0.661644460510453,
            "shoulder_pan_joint": -0.9139846352900073,
            "wrist_1_joint": 2.146753192139373,
            "wrist_2_joint": -2.2341966793290973,
            "wrist_3_joint": 0.005466555786416001
        }
    },
    "waypoints": [
        {
            "positions": [
                -0.9139846352900073,
                -0.661644460510453,
                1.664937868594044,
                2.146753192139373,
                -2.2341966793290973,
                0.005466555786416001
            ]
        },
        {
            "positions": [
                -0.9111495805530526,
                -0.723118256686432,
                1.7715609323179926,
                2.161607049712169,
                -2.20754329911009,
                0.13317953334833954
            ]
        },
        {
            "positions": [
                -0.908314525816098,
                -0.7845920528624111,
                1.8781839960419413,
                2.1764609072849654,
                -2.180889918891083,
                0.2608925109102631
            ]
        },
        {
            "positions": [
                -0.9054794710791433,
                -0.8460658490383901,
                1.98480705976589,
                2.1913147648577613,
                -2.1542365386720754,
                0.3886054884721867
            ]
        },
        {
            "positions": [
                -0.9026444163421886,
                -0.9075396452143691,
                2.0914301234898387,
                2.2061686224305577,
                -2.1275831584530684,
                0.5163184660341101
            ]
        },
        {
            "positions": [
                -0.899809361605234,
                -0.9690134413903482,
                2.1980531872137874,
                2.2210224800033536,
                -2.100929778234061,
                0.6440314435960337
            ]
        },
        {
            "positions": [
                -0.8429399694949818,
                -0.9834871948229361,
                2.1092156776174806,
                2.1127062197797932,
                -1.993562146738588,
                0.6482475049243717
            ]
        },
        {
            "positions": [
                -0.7860705773847297,
                -0.9979609482555241,
                2.020378168021174,
                2.0043899595562324,
                -1.8861945152431148,
                0.6524635662527097
            ]
        },
        {
            "positions": [
                -0.7292011852744776,
                -1.012434701688112,
                1.9315406584248669,
                1.8960736993326721,
                -1.7788268837476418,
                0.6566796275810477
            ]
        },
        {
            "positions": [
                -0.6723317931642254,
                -1.0269084551207,
                1.84270314882856,
                1.7877574391091118,
                -1.6714592522521685,
                0.6608956889093858
            ]
        },
        {
            "positions": [
                -0.6154624010539733,
                -1.0413822085532878,
                1.7538656392322531,
                1.6794411788855512,
                -1.5640916207566955,
                0.6651117502377237
            ]
        },
        {
            "positions": [
                -0.5585930089437212,
                -1.0558559619858758,
                1.6650281296359464,
                1.5711249186619907,
                -1.4567239892612225,
                0.6693278115660618
            ]
        },
        {
            "positions": [
                -0.5017236168334691,
                -1.0703297154184637,
                1.5761906200396396,
                1.4628086584384303,
                -1.3493563577657492,
                0.6735438728943998
            ]
        },
        {
            "positions": [
                -0.444854224723217,
                -1.0848034688510517,
                1.4873531104433326,
                1.3544923982148698,
                -1.241988726270276,
                0.6777599342227378
            ]
        },
        {
            "positions": [
                -0.3879848326129649,
                -1.0992772222836396,
                1.3985156008470256,
                1.2461761379913092,
                -1.1346210947748028,
                0.6819759955510758
            ]
        },
        {
            "positions": [
                -0.3311154405027128,
                -1.1137509757162274,
                1.3096780912507189,
                1.1378598777677489,
                -1.02725346327933,
                0.6861920568794139
            ]
        },
        {
            "positions": [
                -0.2742460483924607,
                -1.1282247291488154,
                1.2208405816544121,
                1.0295436175441883,
                -0.9198858317838567,
                0.6904081182077518
            ]
        },
        {
            "positions": [
                -0.31739768945017555,
                -1.1278544338331797,
                1.2626410224873674,
                0.9312317557659338,
                -0.8463809258227825,
                0.8192477105714062
            ]
        },
        {
            "positions": [
                -0.3605493305078904,
                -1.127484138517544,
                1.304441463320323,
                0.8329198939876793,
                -0.7728760198617082,
                0.9480873029350605
            ]
        },
        {
            "positions": [
                -0.4037009715656052,
                -1.127113843201908,
                1.3462419041532783,
                0.7346080322094247,
                -0.699371113900634,
                1.0769268952987148
            ]
        },
        {
            "positions": [
                -0.44685261262332004,
                -1.1267435478862724,
                1.3880423449862338,
                0.6362961704311703,
                -0.6258662079395597,
                1.2057664876623693
            ]
        },
        {
            "positions": [
                -0.49000425368103484,
                -1.1263732525706367,
                1.429842785819189,
                0.5379843086529157,
                -0.5523613019784854,
                1.3346060800260235
            ]
        },
        {
            "positions": [
                -0.5331558947387497,
                -1.126002957255001,
                1.4716432266521444,
                0.4396724468746611,
                -0.47885639601741126,
                1.4634456723896778
            ]
        },
        {
            "positions": [
                -0.5763075357964645,
                -1.1256326619393653,
                1.5134436674851,
                0.34136058509640665,
                -0.40535149005633697,
                1.592285264753332
            ]
        },
        {
            "positions": [
                -0.6194591768541794,
                -1.1252623666237294,
                1.5552441083180553,
                0.24304872331815208,
                -0.3318465840952627,
                1.7211248571169864
            ]
        },
        {
            "positions": [
                -0.6626108179118942,
                -1.1248920713080937,
                1.5970445491510108,
                0.1447368615398975,
                -0.2583416781341885,
                1.849964449480641
            ]
        },
        {
            "positions": [
                -0.705762458969609,
                -1.124521775992458,
                1.638844989983966,
                0.04642499976164305,
                -0.18483677217311423,
                1.9788040418442954
            ]
        },
        {
            "positions": [
                -0.748914100027324,
                -1.1241514806768222,
                1.6806454308169216,
                -0.051886862016611524,
                -0.11133186621203994,
                2.1076436342079496
            ]
        },
        {
            "positions": [
                -0.7920657410850387,
                -1.1237811853611863,
                1.722445871649877,
                -0.1501987237948661,
                -0.03782696025096577,
                2.236483226571604
            ]
        },
        {
            "positions": [
                -0.8352173821427537,
                -1.1234108900455506,
                1.7642463124828325,
                -0.24851058557312067,
                0.03567794571010863,
                2.365322818935258
            ]
        },
        {
            "positions": [
                -0.8783690232004684,
                -1.123040594729915,
                1.8060467533157878,
                -0.346822447351375,
                0.1091828516711828,
                2.4941624112989125
            ]
        },
        {
            "positions": [
                -0.9215206642581834,
                -1.1226702994142792,
                1.847847194148743,
                -0.4451343091296298,
                0.1826877576322572,
                2.623002003662567
            ]
        },
        {
            "positions": [
                -0.9646723053158981,
                -1.1223000040986435,
                1.8896476349816984,
                -0.5434461709078842,
                0.25619266359333137,
                2.751841596026221
            ]
        },
        {
            "positions": [
                -1.007823946373613,
                -1.1219297087830076,
                1.931448075814654,
                -0.6417580326861387,
                0.32969756955440555,
                2.8806811883898757
            ]
        },
        {
            "positions": [
                -1.0509755874313278,
                -1.1215594134673719,
                1.9732485166476095,
                -0.7400698944643933,
                0.4032024755154797,
                3.00952078075353
            ]
        },
        {
            "positions": [
                -1.0941272284890426,
                -1.1211891181517362,
                2.015048957480565,
                -0.8383817562426478,
                0.4767073814765542,
                3.1383603731171843
            ]
        }
    ]
}