{
    "goal": {
        "global_pose": {
            "orientation": {
                "w": 0.5084816217422485,
                "x": -0.49083608388900757,
                "y": 0.5182115435600281,
                "z": -0.4816462993621826
            },
            "position": {
                "x": 0.5540239810943604,
                "y": 0.030875300988554955,
                "z": 0.16403168439865112
            }
        },
        "name": "move_to_storage_A"
    },
    "id": "RRTConnect_move_to_storage_A_115",
    "joint_names": [
        "shoulder_pan_joint",
        "shoulder_lift_joint",
        "elbow_joint",
        "wrist_1_joint",
        "wrist_2_joint",
        "wrist_3_joint"
    ],
    "metrics": {
        "cart_traj_len": 0.3529912511714048,
        "distance_elbow_joint": 0.4500071294053949,
        "distance_shoulder_lift_joint": 0.23419810046510103,
        "distance_shoulder_pan_joint": 0.4611107218137295,
        "distance_wrist_1_joint": 0.23800157789690346,
        "distance_wrist_2_joint": 1.1011364660453895,
        "distance_wrist_3_joint": 0.10173647744149772,
        "smoothness": 2.2204460668324854e-16,
        "time": 0.032287113,
        "traj_len": 1.6081636959799883,
        "weighted_distance": 2.0319452433304654
    },
    "planner": "RRTConnect",
    "start": {
        "state": {
            "elbow_joint": 1.971548259319323,
            "shoulder_lift_joint": -1.1394851275133948,
            "shoulder_pan_joint": 0.1228115487234821,
            "wrist_1_joint": -0.7804723859257726,
            "wrist_2_joint": 0.12958671773740124,
            "wrist_3_joint": -3.192489227718131
        }
    },
    "waypoints": [
        {
            "positions": [
                0.1228115487234821,
                -1.1394851275133948,
                1.971548259319323,
                -0.7804723859257726,
                0.12958671773740124,
                -3.192489227718131
            ]
        },
        {
            "positions": [
                0.056938588464377896,
                -1.1729419990084093,
                2.035834992091522,
                -0.814472611339616,
                0.2868919271724569,
                -3.1779554452264884
            ]
        },
        {
            "positions": [
                -0.008934371794726309,
                -1.2063988705034236,
                2.1001217248637216,
                -0.8484728367534593,
                0.4441971366075125,
                -3.163421662734846
            ]
        },
        {
            "positions": [
                -0.07480733205383053,
                -1.2398557419984382,
                2.1644084576359206,
                -0.8824730621673027,
                0.6015023460425681,
                -3.1488878802432034
            ]
        },
        {
            "positions": [
                -0.14068029231293472,
                -1.2733126134934525,
                2.22869519040812,
                -0.916473287581146,
                0.7588075554776238,
                -3.134354097751561
            ]
        },
        {
            "positions": [
                -0.20655325257203894,
                -1.306769484988467,
                2.2929819231803195,
                -0.9504735129949894,
                0.9161127649126795,
                -3.1198203152599184
            ]
        },
        {
            "positions": [
                -0.27242621283114316,
                -1.3402263564834813,
                2.3572686559525184,
                -0.9844737384088327,
                1.073417974347735,
                -3.105286532768276
            ]
        },
        {
            "positions": [
                -0.3382991730902474,
                -1.3736832279784958,
                2.421555388724718,
                -1.018473963822676,
                1.2307231837827908,
                -3.0907527502766334
            ]
        }
    ]
}{
    "goal": {
        "global_pose": {
            "orientation": {
                "w": 0.5084816217422485,
                "x": -0.49083608388900757,
                "y": 0.5182115435600281,
                "z": -0.4816462993621826
            },
            "position": {
                "x": 0.5540239810943604,
                "y": 0.030875300988554955,
                "z": 0.16403168439865112
            }
        },
        "name": "move_to_storage_A"
    },
    "id": "RRTConnect_move_to_storage_A_115",
    "joint_names": [
        "shoulder_pan_joint",
        "shoulder_lift_joint",
        "elbow_joint",
        "wrist_1_joint",
        "wrist_2_joint",
        "wrist_3_joint"
    ],
    "metrics": {
        "cart_traj_len": 0.3530116926245885,
        "distance_elbow_joint": 0.44968424723803135,
        "distance_shoulder_lift_joint": 0.23698728114371792,
        "distance_shoulder_pan_joint": 0.463442781804912,
        "distance_wrist_1_joint": 0.23444384724228406,
        "distance_wrist_2_joint": 1.0923549207899668,
        "distance_wrist_3_joint": 0.09069040193969746,
        "smoothness": 4.440892098500626e-16,
        "time": 0.049599111,
        "traj_len": 1.6023743258547953,
        "weighted_distance": 2.0188568676531418
    },
    "planner": "RRTConnect",
    "start": {
        "state": {
            "elbow_joint": 1.97154746011099,
            "shoulder_lift_joint": -1.13948474672311,
            "shoulder_pan_joint": 0.12281154466712228,
            "wrist_1_joint": -0.7804688027058302,
            "wrist_2_joint": 0.12958655903071145,
            "wrist_3_joint": 3.0906928834467795
        }
    },
    "waypoints": [
        {
            "positions": [
                0.12281154466712228,
                -1.13948474672311,
                1.97154746011099,
                -0.7804688027058302,
                0.12958655903071145,
                3.0906928834467795
            ]
        },
        {
            "positions": [
                0.05660543298070629,
                -1.1733400726007839,
                2.03578806685928,
                -0.8139607808832994,
                0.2856372620007067,
                3.1036486551524507
            ]
        },
        {
            "positions": [
                -0.0096006787057097,
                -1.207195398478458,
                2.10002867360757,
                -0.8474527590607684,
                0.44168796497070195,
                3.1166044268581214
            ]
        },
        {
            "positions": [
                -0.07580679039212569,
                -1.241050724356132,
                2.1642692803558603,
                -0.8809447372382376,
                0.5977386679406972,
                3.1295601985637926
            ]
        },
        {
            "positions": [
                -0.14201290207854167,
                -1.2749060502338059,
                2.228509887104151,
                -0.9144367154157068,
                0.7537893709106924,
                3.142515970269464
            ]
        },
        {
            "positions": [
                -0.20821901376495772,
                -1.3087613761114798,
                2.292750493852441,
                -0.9479286935931759,
                0.9098400738806878,
                3.155471741975135
            ]
        },
        {
            "positions": [
                -0.27442512545137365,
                -1.342616701989154,
                2.356991100600731,
                -0.9814206717706451,
                1.065890776850683,
                3.1684275136808058
            ]
        },
        {
            "positions": [
                -0.3406312371377897,
                -1.3764720278668279,
                2.4212317073490213,
                -1.0149126499481143,
                1.2219414798206782,
                3.181383285386477
            ]
        }
    ]
}{
    "goal": {
        "global_pose": {
            "orientation": {
                "w": 0.5084816217422485,
                "x": -0.49083608388900757,
                "y": 0.5182115435600281,
                "z": -0.4816462993621826
            },
            "position": {
                "x": 0.5540239810943604,
                "y": 0.030875300988554955,
                "z": 0.16403168439865112
            }
        },
        "name": "move_to_storage_A"
    },
    "id": "RRTConnect_move_to_storage_A_115",
    "joint_names": [
        "shoulder_pan_joint",
        "shoulder_lift_joint",
        "elbow_joint",
        "wrist_1_joint",
        "wrist_2_joint",
        "wrist_3_joint"
    ],
    "metrics": {
        "cart_traj_len": 0.3529281332875964,
        "distance_elbow_joint": 0.44759108486056665,
        "distance_shoulder_lift_joint": 0.23523488835028106,
        "distance_shoulder_pan_joint": 0.459821113339538,
        "distance_wrist_1_joint": 0.23575103708137535,
        "distance_wrist_2_joint": 1.1055574375067678,
        "distance_wrist_3_joint": 0.10555214239591937,
        "smoothness": 0.0,
        "time": 0.049397831,
        "traj_len": 1.6091947376046343,
        "weighted_distance": 2.0351708682354976
    },
    "planner": "RRTConnect",
    "start": {
        "state": {
            "elbow_joint": 1.9715472970024885,
            "shoulder_lift_joint": -1.1394870060712896,
            "shoulder_pan_joint": 0.12281152778156021,
            "wrist_1_joint": -0.780463741449964,
            "wrist_2_joint": 0.12958659822042276,
            "wrist_3_joint": 3.090690232415272
        }
    },
    "waypoints": [
        {
            "positions": [
                0.12281152778156021,
                -1.1394870060712896,
                1.9715472970024885,
                -0.780463741449964,
                0.12958659822042276,
                3.090690232415272
            ]
        },
        {
            "positions": [
                0.05712279730448336,
                -1.1730919901213297,
                2.035488880553998,
                -0.8141424610330176,
                0.2875233750071039,
                3.105769109900403
            ]
        },
        {
            "positions": [
                -0.008565933172593493,
                -1.20669697417137,
                2.0994304641055077,
                -0.8478211806160713,
                0.44546015179378495,
                3.1208479873855346
            ]
        },
        {
            "positions": [
                -0.07425466364967034,
                -1.24030195822141,
                2.1633720476570173,
                -0.8814999001991248,
                0.6033969285804661,
                3.1359268648706657
            ]
        },
        {
            "positions": [
                -0.1399433941267472,
                -1.2739069422714502,
                2.2273136312085264,
                -0.9151786197821785,
                0.7613337053671472,
                3.1510057423557973
            ]
        },
        {
            "positions": [
                -0.2056321246038241,
                -1.3075119263214905,
                2.291255214760036,
                -0.9488573393652321,
                0.9192704821538283,
                3.1660846198409285
            ]
        },
        {
            "positions": [
                -0.27132085508090087,
                -1.3411169103715306,
                2.3551967983115456,
                -0.9825360589482857,
                1.0772072589405095,
                3.18116349732606
            ]
        },
        {
            "positions": [
                -0.3370095855579778,
                -1.3747218944215707,
                2.419138381863055,
                -1.0162147785313393,
                1.2351440357271906,
                3.1962423748111912
            ]
        }
    ]
}