{
    "goal": {
        "global_pose": {
            "orientation": {
                "w": 0.5084816262002911,
                "x": -0.4908360881923452,
                "y": 0.5182115481033761,
                "z": -0.48164630358495003
            },
            "position": {
                "x": 0.5540239810943604,
                "y": -0.46912469901144505,
                "z": 0.16403168439865112
            }
        },
        "name": "move_to_storage_B"
    },
    "id": "RRTConnect_move_to_storage_B_116",
    "joint_names": [
        "shoulder_pan_joint",
        "shoulder_lift_joint",
        "elbow_joint",
        "wrist_1_joint",
        "wrist_2_joint",
        "wrist_3_joint"
    ],
    "metrics": {
        "cart_traj_len": 1.5638083399540044,
        "distance_elbow_joint": 0.4995000342121987,
        "distance_shoulder_lift_joint": 1.5048770180700464,
        "distance_shoulder_pan_joint": 0.9363615843953815,
        "distance_wrist_1_joint": 3.0066696205820795,
        "distance_wrist_2_joint": 2.709164675711709,
        "distance_wrist_3_joint": 3.208171266078282,
        "smoothness": 0.22631198581153328,
        "time": 0.111762558,
        "traj_len": 3.444523798589537,
        "weighted_distance": 4.89866522917213
    },
    "planner": "RRTConnect",
    "start": {
        "state": {
            "elbow_joint": 1.664937868594044,
            "shoulder_lift_joint": -0.661644460510453,
            "shoulder_pan_joint": -0.9139846352900073,
            "wrist_1_joint": 2.146753192139373,
            "wrist_2_joint": -2.2341966793290973,
            "wrist_3_joint": 0.005466555786416001
        }
    },
    "waypoints": [
        {
            "positions": [
                -0.9139846352900073,
                -0.661644460510453,
                1.664937868594044,
                2.146753192139373,
                -2.2341966793290973,
                0.005466555786416001
            ]
        },
        {
            "positions": [
                -0.8384894780220943,
                -0.7184291526522031,
                1.6545650437891848,
                2.0610250548581024,
                -2.129781294639659,
                0.00021254216414145783
            ]
        },
        {
            "positions": [
                -0.7629943207541813,
                -0.7752138447939532,
                1.6441922189843257,
                1.9752969175768318,
                -2.025365909950221,
                -0.005041471458133085
            ]
        },
        {
            "positions": [
                -0.6874991634862684,
                -0.8319985369357032,
                1.6338193941794663,
                1.8895687802955612,
                -1.9209505252607824,
                -0.010295485080407625
            ]
        },
        {
            "positions": [
                -0.6120040062183554,
                -0.8887832290774533,
                1.6234465693746072,
                1.8038406430142904,
                -1.8165351405713441,
                -0.015549498702682171
            ]
        },
        {
            "positions": [
                -0.5365088489504424,
                -0.9455679212192034,
                1.613073744569748,
                1.7181125057330198,
                -1.712119755881906,
                -0.02080351232495671
            ]
        },
        {
            "positions": [
                -0.5781705523751761,
                -1.0038502167458103,
                1.6114287630183766,
                1.614460655399532,
                -1.6150394956600769,
                0.05130121431753833
            ]
        },
        {
            "positions": [
                -0.61983225579991,
                -1.0621325122724175,
                1.6097837814670048,
                1.510808805066044,
                -1.517959235438248,
                0.12340594096003336
            ]
        },
        {
            "positions": [
                -0.6614939592246437,
                -1.1204148077990244,
                1.6081387999156334,
                1.4071569547325562,
                -1.420878975216419,
                0.1955106676025284
            ]
        },
        {
            "positions": [
                -0.7031556626493775,
                -1.1786971033256315,
                1.6064938183642619,
                1.3035051043990684,
                -1.3237987149945902,
                0.26761539424502345
            ]
        },
        {
            "positions": [
                -0.7448173660741113,
                -1.2369793988522384,
                1.6048488368128901,
                1.1998532540655804,
                -1.2267184547727612,
                0.3397201208875185
            ]
        },
        {
            "positions": [
                -0.786479069498845,
                -1.2952616943788455,
                1.6032038552615187,
                1.0962014037320924,
                -1.1296381945509322,
                0.4118248475300135
            ]
        },
        {
            "positions": [
                -0.8281407729235788,
                -1.3535439899054524,
                1.6015588737101472,
                0.9925495533986046,
                -1.0325579343291031,
                0.4839295741725086
            ]
        },
        {
            "positions": [
                -0.8698024763483125,
                -1.4118262854320593,
                1.5999138921587754,
                0.8888977030651168,
                -0.9354776741072743,
                0.5560343008150036
            ]
        },
        {
            "positions": [
                -0.9114641797730464,
                -1.4701085809586665,
                1.598268910607404,
                0.7852458527316288,
                -0.8383974138854453,
                0.6281390274574986
            ]
        },
        {
            "positions": [
                -0.9531258831977802,
                -1.5283908764852736,
                1.5966239290560325,
                0.681594002398141,
                -0.7413171536636163,
                0.7002437540999937
            ]
        },
        {
            "positions": [
                -0.994787586622514,
                -1.5866731720118805,
                1.5949789475046607,
                0.5779421520646533,
                -0.6442368934417875,
                0.7723484807424886
            ]
        },
        {
            "positions": [
                -1.0364492900472477,
                -1.6449554675384874,
                1.5933339659532892,
                0.4742903017311653,
                -0.5471566332199586,
                0.8444532073849838
            ]
        },
        {
            "positions": [
                -1.0403789805111818,
                -1.6101844001356866,
                1.621860374724719,
                0.38534318638624065,
                -0.4790149912464539,
                0.998896172602115
            ]
        },
        {
            "positions": [
                -1.044308670975116,
                -1.5754133327328859,
                1.6503867834961485,
                0.29639607104131604,
                -0.4108733492729493,
                1.1533391378192464
            ]
        },
        {
            "positions": [
                -1.04823836143905,
                -1.540642265330085,
                1.678913192267578,
                0.20744895569639132,
                -0.3427317072994447,
                1.3077821030363777
            ]
        },
        {
            "positions": [
                -1.0521680519029841,
                -1.5058711979272843,
                1.7074396010390076,
                0.11850184035146671,
                -0.27459006532594005,
                1.4622250682535087
            ]
        },
        {
            "positions": [
                -1.0560977423669182,
                -1.4711001305244835,
                1.7359660098104372,
                0.02955472500654205,
                -0.2064484233524354,
                1.6166680334706403
            ]
        },
        {
            "positions": [
                -1.0600274328308523,
                -1.4363290631216827,
                1.764492418581867,
                -0.05939239033838267,
                -0.13830678137893077,
                1.7711109986877716
            ]
        },
        {
            "positions": [
                -1.0639571232947864,
                -1.401557995718882,
                1.7930188273532965,
                -0.14833950568330728,
                -0.07016513940542612,
                1.9255539639049029
            ]
        },
        {
            "positions": [
                -1.0678868137587203,
                -1.3667869283160812,
                1.821545236124726,
                -0.2372866210282319,
                -0.0020234974319215393,
                2.079996929122034
            ]
        },
        {
            "positions": [
                -1.0718165042226544,
                -1.3320158609132804,
                1.8500716448961556,
                -0.3262337363731565,
                0.06611814454158305,
                2.2344398943391655
            ]
        },
        {
            "positions": [
                -1.0757461946865885,
                -1.2972447935104796,
                1.8785980536675853,
                -0.4151808517180812,
                0.13425978651508774,
                2.3888828595562965
            ]
        },
        {
            "positions": [
                -1.0796758851505226,
                -1.2624737261076788,
                1.907124462439015,
                -0.5041279670630059,
                0.20240142848859233,
                2.5433258247734276
            ]
        },
        {
            "positions": [
                -1.0836055756144567,
                -1.2277026587048778,
                1.9356508712104445,
                -0.5930750824079307,
                0.270543070462097,
                2.697768789990559
            ]
        },
        {
            "positions": [
                -1.0875352660783908,
                -1.192931591302077,
                1.964177279981874,
                -0.6820221977528553,
                0.3386847124356016,
                2.8522117552076907
            ]
        },
        {
            "positions": [
                -1.091464956542325,
                -1.1581605238992763,
                1.9927036887533036,
                -0.7709693130977799,
                0.4068263544091063,
                3.006654720424822
            ]
        },
        {
            "positions": [
                -1.095394647006259,
                -1.1233894564964755,
                2.0212300975247333,
                -0.8599164284427046,
                0.474967996382611,
                3.161097685641953
            ]
        }
    ]
}