{
    "goal": {
        "global_pose": {
            "orientation": {
                "w": -0.4816463035849501,
                "x": 0.5182115481033762,
                "y": 0.4908360881923453,
                "z": -0.5084816262002911
            },
            "position": {
                "x": -0.8240239810943604,
                "y": 0.19912469901144506,
                "z": 0.16403168439865112
            }
        },
        "name": "move_to_storage_D"
    },
    "id": "RRTConnect_move_to_storage_D_104",
    "joint_names": [
        "shoulder_pan_joint",
        "shoulder_lift_joint",
        "elbow_joint",
        "wrist_1_joint",
        "wrist_2_joint",
        "wrist_3_joint"
    ],
    "metrics": {
        "cart_traj_len": 4.156919600914108,
        "distance_elbow_joint": 4.207901067806294,
        "distance_shoulder_lift_joint": 1.2659703139716174,
        "distance_shoulder_pan_joint": 2.814177639354414,
        "distance_wrist_1_joint": 2.2635192638664394,
        "distance_wrist_2_joint": 0.8769800957793804,
        "distance_wrist_3_joint": 3.1330891528773908,
        "smoothness": 7.713128383851646e-16,
        "time": 0.10506148800000001,
        "traj_len": 3.815971374847503,
        "weighted_distance": 4.895744601085328
    },
    "planner": "RRTConnect",
    "start": {
        "state": {
            "elbow_joint": -2.384821988534728,
            "shoulder_lift_joint": -2.2788054721415256,
            "shoulder_pan_joint": -0.1854694642142757,
            "wrist_1_joint": 1.4845938289331202,
            "wrist_2_joint": 0.17898776772866878,
            "wrist_3_joint": 0.037105688729662994
        }
    },
    "waypoints": [
        {
            "positions": [
                -0.1854694642142757,
                -2.2788054721415256,
                -2.384821988534728,
                1.4845938289331202,
                0.17898776772866878,
                0.037105688729662994
            ]
        },
        {
            "positions": [
                -0.09301961576527457,
                -2.2779426802752085,
                -2.217908615252473,
                1.392820309144785,
                0.20857709463876223,
                0.02795413765306881
            ]
        },
        {
            "positions": [
                -0.0005697673162734229,
                -2.2770798884088914,
                -2.050995241970218,
                1.30104678935645,
                0.23816642154885564,
                0.018802586576474628
            ]
        },
        {
            "positions": [
                0.09188008113272775,
                -2.276217096542574,
                -1.884081868687963,
                1.2092732695681148,
                0.26775574845894906,
                0.009651035499880441
            ]
        },
        {
            "positions": [
                0.18432992958172886,
                -2.2753543046762568,
                -1.717168495405708,
                1.1174997497797796,
                0.29734507536904253,
                0.0004994844232862616
            ]
        },
        {
            "positions": [
                0.27677977803072995,
                -2.2744915128099397,
                -1.550255122123453,
                1.0257262299914447,
                0.32693440227913595,
                -0.008652066653307922
            ]
        },
        {
            "positions": [
                0.36922962647973123,
                -2.2736287209436226,
                -1.383341748841198,
                0.9339527102031094,
                0.35652372918922937,
                -0.01780361772990211
            ]
        },
        {
            "positions": [
                0.4616794749287323,
                -2.2727659290773055,
                -1.2164283755589431,
                0.8421791904147744,
                0.3861130560993228,
                -0.026955168806496288
            ]
        },
        {
            "positions": [
                0.5541293233777335,
                -2.2719031372109884,
                -1.0495150022766881,
                0.7504056706264393,
                0.4157023830094162,
                -0.03610671988309047
            ]
        },
        {
            "positions": [
                0.6465791718267345,
                -2.271040345344671,
                -0.8826016289944332,
                0.6586321508381041,
                0.4452917099195096,
                -0.045258270959684654
            ]
        },
        {
            "positions": [
                0.7390290202757357,
                -2.2701775534783537,
                -0.7156882557121782,
                0.566858631049769,
                0.47488103682960314,
                -0.05440982203627884
            ]
        },
        {
            "positions": [
                0.8314788687247369,
                -2.2693147616120366,
                -0.5487748824299232,
                0.4750851112614338,
                0.5044703637396966,
                -0.06356137311287302
            ]
        },
        {
            "positions": [
                0.9239287171737381,
                -2.2684519697457195,
                -0.38186150914766825,
                0.3833115914730987,
                0.53405969064979,
                -0.07271292418946722
            ]
        },
        {
            "positions": [
                1.0163785656227389,
                -2.2675891778794024,
                -0.21494813586541328,
                0.29153807168476376,
                0.5636490175598834,
                -0.08186447526606137
            ]
        },
        {
            "positions": [
                1.1088284140717402,
                -2.2667263860130853,
                -0.04803476258315831,
                0.1997645518964286,
                0.5932383444699768,
                -0.09101602634265557
            ]
        },
        {
            "positions": [
                1.2012782625207412,
                -2.2658635941467677,
                0.11887861069909667,
                0.10799103210809347,
                0.6228276713800702,
                -0.10016757741924975
            ]
        },
        {
            "positions": [
                1.2937281109697425,
                -2.2650008022804506,
                0.28579198398135164,
                0.01621751231975832,
                0.6524169982901636,
                -0.10931912849584394
            ]
        },
        {
            "positions": [
                1.3861779594187436,
                -2.2641380104141335,
                0.4527053572636065,
                -0.07555600746857673,
                0.6820063252002571,
                -0.11847067957243812
            ]
        },
        {
            "positions": [
                1.4483044702048133,
                -2.2015728678019224,
                0.5212240433640046,
                -0.11072447884181386,
                0.7007044021156467,
                -0.26734631880120263
            ]
        },
        {
            "positions": [
                1.510430980990883,
                -2.139007725189711,
                0.5897427294644026,
                -0.14589295021505097,
                0.7194024790310363,
                -0.4162219580299671
            ]
        },
        {
            "positions": [
                1.5725574917769527,
                -2.0764425825774997,
                0.6582614155648008,
                -0.18106142158828809,
                0.7381005559464259,
                -0.5650975972587315
            ]
        },
        {
            "positions": [
                1.6346840025630225,
                -2.0138774399652886,
                0.7267801016651989,
                -0.21622989296152523,
                0.7567986328618155,
                -0.713973236487496
            ]
        },
        {
            "positions": [
                1.6968105133490923,
                -1.9513122973530772,
                0.7952987877655969,
                -0.2513983643347623,
                0.7754967097772051,
                -0.8628488757162605
            ]
        },
        {
            "positions": [
                1.7589370241351618,
                -1.8887471547408659,
                0.863817473865995,
                -0.28656683570799946,
                0.7941947866925947,
                -1.011724514945025
            ]
        },
        {
            "positions": [
                1.8210635349212316,
                -1.8261820121286547,
                0.9323361599663931,
                -0.32173530708123654,
                0.8128928636079843,
                -1.1606001541737894
            ]
        },
        {
            "positions": [
                1.8831900457073014,
                -1.7636168695164434,
                1.0008548460667912,
                -0.3569037784544737,
                0.8315909405233739,
                -1.309475793402554
            ]
        },
        {
            "positions": [
                1.945316556493371,
                -1.701051726904232,
                1.0693735321671893,
                -0.39207224982771083,
                0.8502890174387635,
                -1.4583514326313185
            ]
        },
        {
            "positions": [
                2.007443067279441,
                -1.6384865842920209,
                1.1378922182675875,
                -0.4272407212009479,
                0.8689870943541531,
                -1.607227071860083
            ]
        },
        {
            "positions": [
                2.0695695780655106,
                -1.5759214416798095,
                1.2064109043679854,
                -0.46240919257418506,
                0.8876851712695427,
                -1.7561027110888476
            ]
        },
        {
            "positions": [
                2.13169608885158,
                -1.5133562990675984,
                1.2749295904683835,
                -0.49757766394742214,
                0.9063832481849323,
                -1.9049783503176119
            ]
        },
        {
            "positions": [
                2.1938225996376497,
                -1.450791156455387,
                1.3434482765687816,
                -0.5327461353206593,
                0.9250813251003219,
                -2.0538539895463765
            ]
        },
        {
            "positions": [
                2.2559491104237197,
                -1.388226013843176,
                1.4119669626691795,
                -0.5679146066938964,
                0.9437794020157115,
                -2.2027296287751406
            ]
        },
        {
            "positions": [
                2.3180756212097893,
                -1.3256608712309645,
                1.4804856487695779,
                -0.6030830780671336,
                0.9624774789311011,
                -2.3516052680039055
            ]
        },
        {
            "positions": [
                2.3802021319958593,
                -1.2630957286187532,
                1.5490043348699758,
                -0.6382515494403707,
                0.9811755558464907,
                -2.50048090723267
            ]
        },
        {
            "positions": [
                2.442328642781929,
                -1.200530586006542,
                1.6175230209703737,
                -0.6734200208136077,
                0.9998736327618803,
                -2.6493565464614344
            ]
        },
        {
            "positions": [
                2.5044551535679984,
                -1.1379654433943307,
                1.686041707070772,
                -0.7085884921868449,
                1.01857170967727,
                -2.798232185690199
            ]
        },
        {
            "positions": [
                2.566581664354068,
                -1.0754003007821196,
                1.75456039317117,
                -0.7437569635600819,
                1.0372697865926597,
                -2.9471078249189633
            ]
        },
        {
            "positions": [
                2.628708175140138,
                -1.0128351581699082,
                1.8230790792715683,
                -0.7789254349333191,
                1.0559678635080492,
                -3.0959834641477277
            ]
        }
    ]
}