{
    "goal": {
        "global_pose": {
            "orientation": {
                "w": 0.005598929693374612,
                "x": 0.007748599140229565,
                "y": 0.7110244013736278,
                "z": -0.7031023480610252
            },
            "position": {
                "x": 0.1141497679147869,
                "y": -0.7141253447532654,
                "z": 0.3711530566215515
            }
        },
        "name": "move_to_auspresseinheit_B"
    },
    "id": "RRTConnect_move_to_auspresseinheit_B_54",
    "joint_names": [
        "shoulder_pan_joint",
        "shoulder_lift_joint",
        "elbow_joint",
        "wrist_1_joint",
        "wrist_2_joint",
        "wrist_3_joint"
    ],
    "metrics": {
        "cart_traj_len": 0.5648378591256561,
        "distance_elbow_joint": 0.06407297393442857,
        "distance_shoulder_lift_joint": 0.29451976948224967,
        "distance_shoulder_pan_joint": 0.5779619180486919,
        "distance_wrist_1_joint": 0.3350273157140935,
        "distance_wrist_2_joint": 0.9917630709492709,
        "distance_wrist_3_joint": 0.0007168015163112607,
        "smoothness": 0.0,
        "time": 0.058391188999999996,
        "traj_len": 1.5046799824697097,
        "weighted_distance": 1.8953326460917177
    },
    "planner": "RRTConnect",
    "start": {
        "state": {
            "elbow_joint": 2.0193083361928714,
            "shoulder_lift_joint": -1.1220246554650708,
            "shoulder_pan_joint": -1.0952077554168747,
            "wrist_1_joint": -0.8559753972642168,
            "wrist_2_joint": 0.4759566250798843,
            "wrist_3_joint": -3.1240929996934557
        }
    },
    "waypoints": [
        {
            "positions": [
                -1.0952077554168747,
                -1.1220246554650708,
                2.0193083361928714,
                -0.8559753972642168,
                0.4759566250798843,
                -3.1240929996934557
            ]
        },
        {
            "positions": [
                -1.1915347417583233,
                -1.1711112837121125,
                2.0086295072038,
                -0.8001375113118678,
                0.6412504702380961,
                -3.1239735327740705
            ]
        },
        {
            "positions": [
                -1.287861728099772,
                -1.220197911959154,
                1.9979506782147285,
                -0.744299625359519,
                0.8065443153963079,
                -3.1238540658546854
            ]
        },
        {
            "positions": [
                -1.3841887144412206,
                -1.2692845402061956,
                1.9872718492256571,
                -0.68846173940717,
                0.9718381605545197,
                -3.1237345989353003
            ]
        },
        {
            "positions": [
                -1.4805157007826693,
                -1.3183711684532373,
                1.9765930202365858,
                -0.6326238534548212,
                1.1371320057127314,
                -3.1236151320159147
            ]
        },
        {
            "positions": [
                -1.576842687124118,
                -1.3674577967002788,
                1.9659141912475142,
                -0.5767859675024722,
                1.3024258508709434,
                -3.1234956650965295
            ]
        },
        {
            "positions": [
                -1.6731696734655666,
                -1.4165444249473205,
                1.9552353622584429,
                -0.5209480815501233,
                1.4677196960291552,
                -3.1233761981771444
            ]
        }
    ]
}