{
    "goal": {
        "global_pose": {
            "orientation": {
                "w": 0.5084816262002911,
                "x": -0.4908360881923452,
                "y": 0.5182115481033761,
                "z": -0.48164630358495003
            },
            "position": {
                "x": 0.5540239810943604,
                "y": -0.46912469901144505,
                "z": 0.16403168439865112
            }
        },
        "name": "move_to_storage_B"
    },
    "id": "RRTConnect_move_to_storage_B_120",
    "joint_names": [
        "shoulder_pan_joint",
        "shoulder_lift_joint",
        "elbow_joint",
        "wrist_1_joint",
        "wrist_2_joint",
        "wrist_3_joint"
    ],
    "metrics": {
        "cart_traj_len": 0.9330806774037665,
        "distance_elbow_joint": 0.4461316195685039,
        "distance_shoulder_lift_joint": 0.823594189339611,
        "distance_shoulder_pan_joint": 0.3499226810607342,
        "distance_wrist_1_joint": 2.9789638884019523,
        "distance_wrist_2_joint": 2.708895420422922,
        "distance_wrist_3_joint": 3.2996417375771627,
        "smoothness": 0.25410594308541323,
        "time": 0.079188546,
        "traj_len": 3.256861915459556,
        "weighted_distance": 4.784798043841567
    },
    "planner": "RRTConnect",
    "start": {
        "state": {
            "elbow_joint": 1.664937868594044,
            "shoulder_lift_joint": -0.661644460510453,
            "shoulder_pan_joint": -0.9139846352900073,
            "wrist_1_joint": 2.146753192139373,
            "wrist_2_joint": -2.2341966793290973,
            "wrist_3_joint": 0.005466555786416001
        }
    },
    "waypoints": [
        {
            "positions": [
                -0.9139846352900073,
                -0.661644460510453,
                1.664937868594044,
                2.146753192139373,
                -2.2341966793290973,
                0.005466555786416001
            ]
        },
        {
            "positions": [
                -0.8936378037143495,
                -0.6975007330433494,
                1.6828180620912767,
                2.112962036988462,
                -2.1646091883928325,
                -0.03504439343538753
            ]
        },
        {
            "positions": [
                -0.8732909721386917,
                -0.7333570055762457,
                1.7006982555885093,
                2.079170881837551,
                -2.095021697456567,
                -0.07555534265719106
            ]
        },
        {
            "positions": [
                -0.8708455531367502,
                -0.7650217734477113,
                1.7208116642261386,
                1.9594305674023893,
                -1.9699328270497705,
                0.01748132038452649
            ]
        },
        {
            "positions": [
                -0.8684001341348088,
                -0.7966865413191768,
                1.7409250728637682,
                1.8396902529672274,
                -1.844843956642974,
                0.11051798342624404
            ]
        },
        {
            "positions": [
                -0.8659547151328673,
                -0.8283513091906423,
                1.7610384815013975,
                1.7199499385320658,
                -1.7197550862361775,
                0.20355464646796156
            ]
        },
        {
            "positions": [
                -0.8635092961309259,
                -0.8600160770621078,
                1.7811518901390269,
                1.600209624096904,
                -1.5946662158293807,
                0.29659130950967916
            ]
        },
        {
            "positions": [
                -0.8610638771289844,
                -0.8916808449335734,
                1.8012652987766562,
                1.4804693096617423,
                -1.469577345422584,
                0.3896279725513967
            ]
        },
        {
            "positions": [
                -0.8586184581270428,
                -0.9233456128050388,
                1.8213787074142858,
                1.3607289952265806,
                -1.3444884750157875,
                0.4826646355931142
            ]
        },
        {
            "positions": [
                -0.8561730391251015,
                -0.9550103806765045,
                1.841492116051915,
                1.2409886807914188,
                -1.2193996046089908,
                0.5757012986348318
            ]
        },
        {
            "positions": [
                -0.85372762012316,
                -0.9866751485479699,
                1.8616055246895444,
                1.121248366356257,
                -1.0943107342021943,
                0.6687379616765493
            ]
        },
        {
            "positions": [
                -0.8512822011212184,
                -1.0183399164194356,
                1.881718933327174,
                1.0015080519210953,
                -0.9692218637953975,
                0.7617746247182668
            ]
        },
        {
            "positions": [
                -0.848836782119277,
                -1.050004684290901,
                1.9018323419648033,
                0.8817677374859334,
                -0.8441329933886008,
                0.8548112877599844
            ]
        },
        {
            "positions": [
                -0.8463913631173355,
                -1.0816694521623664,
                1.9219457506024327,
                0.7620274230507718,
                -0.7190441229818041,
                0.9478479508017019
            ]
        },
        {
            "positions": [
                -0.8439459441153941,
                -1.113334220033832,
                1.942059159240062,
                0.6422871086156101,
                -0.5939552525750078,
                1.0408846138434193
            ]
        },
        {
            "positions": [
                -0.8415005251134526,
                -1.1449989879052975,
                1.9621725678776913,
                0.5225467941804482,
                -0.4688663821682111,
                1.133921276885137
            ]
        },
        {
            "positions": [
                -0.8390551061115111,
                -1.176663755776763,
                1.982285976515321,
                0.4028064797452866,
                -0.34377751176141436,
                1.2269579399268546
            ]
        },
        {
            "positions": [
                -0.8366096871095697,
                -1.2083285236482286,
                2.0023993851529505,
                0.28306616531012474,
                -0.21868864135461763,
                1.3199946029685723
            ]
        },
        {
            "positions": [
                -0.8341642681076282,
                -1.239993291519694,
                2.02251279379058,
                0.1633258508749631,
                -0.09359977094782135,
                1.4130312660102897
            ]
        },
        {
            "positions": [
                -0.8317188491056868,
                -1.2716580593911595,
                2.042626202428209,
                0.04358553643980123,
                0.03148909945897538,
                1.5060679290520071
            ]
        },
        {
            "positions": [
                -0.8292734301037453,
                -1.3033228272626252,
                2.0627396110658385,
                -0.07615477799536051,
                0.1565779698657721,
                1.5991045920937248
            ]
        },
        {
            "positions": [
                -0.8624248645880543,
                -1.2805833494391954,
                2.05669837642875,
                -0.17066176777876294,
                0.19634306626927853,
                1.7920995801415547
            ]
        },
        {
            "positions": [
                -0.8955762990723634,
                -1.2578438716157654,
                2.0506571417916613,
                -0.26516875756216535,
                0.23610816267278495,
                1.9850945681893846
            ]
        },
        {
            "positions": [
                -0.9287277335566724,
                -1.2351043937923356,
                2.0446159071545726,
                -0.3596757473455678,
                0.2758732590762914,
                2.1780895562372145
            ]
        },
        {
            "positions": [
                -0.9618791680409815,
                -1.2123649159689056,
                2.038574672517484,
                -0.4541827371289702,
                0.3156383554797978,
                2.3710845442850443
            ]
        },
        {
            "positions": [
                -0.9950306025252904,
                -1.1896254381454758,
                2.032533437880395,
                -0.5486897269123726,
                0.35540345188330424,
                2.5640795323328742
            ]
        },
        {
            "positions": [
                -1.0281820370095995,
                -1.166885960322046,
                2.0264922032433064,
                -0.643196716695775,
                0.3951685482868107,
                2.7570745203807046
            ]
        },
        {
            "positions": [
                -1.0613334714939087,
                -1.144146482498616,
                2.0204509686062178,
                -0.7377037064791775,
                0.4349336446903171,
                2.9500695084285344
            ]
        },
        {
            "positions": [
                -1.0944849059782176,
                -1.1214070046751863,
                2.014409733969129,
                -0.8322106962625799,
                0.47469874109382354,
                3.1430644964763643
            ]
        }
    ]
}