{
    "goal": {
        "global_pose": {
            "orientation": {
                "w": 0.7047431493862688,
                "x": -0.7094548369677653,
                "y": 0.0024358444001904,
                "z": -0.0022348060817251984
            },
            "position": {
                "x": -0.39052492380142206,
                "y": 0.3671506643295288,
                "z": 0.19426114857196808
            }
        },
        "name": "move_to_magneteinheit_D"
    },
    "id": "RRTConnect_move_to_magneteinheit_D_22",
    "joint_names": [
        "shoulder_pan_joint",
        "shoulder_lift_joint",
        "elbow_joint",
        "wrist_1_joint",
        "wrist_2_joint",
        "wrist_3_joint"
    ],
    "metrics": {
        "cart_traj_len": 5.788779732535443,
        "distance_elbow_joint": 3.4153285908889117,
        "distance_shoulder_lift_joint": 2.781275352318298,
        "distance_shoulder_pan_joint": 8.980346529254247,
        "distance_wrist_1_joint": 4.4211884320614345,
        "distance_wrist_2_joint": 2.5338368937984406,
        "distance_wrist_3_joint": 3.345486005545504,
        "smoothness": 0.6185021335057854,
        "time": 0.231508397,
        "traj_len": 5.047520361907106,
        "weighted_distance": 6.254874830147898
    },
    "planner": "RRTConnect",
    "start": {
        "state": {
            "elbow_joint": 0.749534889911806,
            "shoulder_lift_joint": -0.6476975780787326,
            "shoulder_pan_joint": -2.711696901376241,
            "wrist_1_joint": -0.07506478083263063,
            "wrist_2_joint": 0.43296659715538205,
            "wrist_3_joint": -3.14703540197715
        }
    },
    "waypoints": [
        {
            "positions": [
                -2.711696901376241,
                -0.6476975780787326,
                0.749534889911806,
                -0.07506478083263063,
                0.43296659715538205,
                -3.14703540197715
            ]
        },
        {
            "positions": [
                -2.7984037281964986,
                -0.6295962322176837,
                0.8208403298201153,
                -0.03447727261670966,
                0.47230807692865084,
                -3.196366508098368
            ]
        },
        {
            "positions": [
                -2.885110555016756,
                -0.6114948863566347,
                0.8921457697284247,
                0.006110235599211311,
                0.5116495567019196,
                -3.2456976142195857
            ]
        },
        {
            "positions": [
                -2.8627552628573145,
                -0.6697823411623998,
                0.8069385010596759,
                -0.07439347840707625,
                0.6003547606564249,
                -3.190218829710661
            ]
        },
        {
            "positions": [
                -2.840399970697873,
                -0.7280697959681649,
                0.7217312323909272,
                -0.1548971924133638,
                0.6890599646109301,
                -3.134740045201736
            ]
        },
        {
            "positions": [
                -2.8180446785384317,
                -0.7863572507739299,
                0.6365239637221785,
                -0.2354009064196514,
                0.7777651685654354,
                -3.079261260692811
            ]
        },
        {
            "positions": [
                -2.79568938637899,
                -0.844644705579695,
                0.5513166950534296,
                -0.3159046204259389,
                0.8664703725199407,
                -3.0237824761838863
            ]
        },
        {
            "positions": [
                -2.7733340942195484,
                -0.9029321603854601,
                0.46610942638468084,
                -0.39640833443222656,
                0.9551755764744461,
                -2.9683036916749614
            ]
        },
        {
            "positions": [
                -2.750978802060107,
                -0.9612196151912251,
                0.38090215771593205,
                -0.4769120484385141,
                1.0438807804289514,
                -2.912824907166036
            ]
        },
        {
            "positions": [
                -2.7286235099006655,
                -1.0195070699969901,
                0.2956948890471832,
                -0.5574157624448017,
                1.1325859843834567,
                -2.8573461226571113
            ]
        },
        {
            "positions": [
                -2.706268217741224,
                -1.0777945248027552,
                0.2104876203784345,
                -0.6379194764510892,
                1.2212911883379618,
                -2.8018673381481864
            ]
        },
        {
            "positions": [
                -2.683912925581782,
                -1.1360819796085204,
                0.12528035170968566,
                -0.7184231904573768,
                1.3099963922924671,
                -2.7463885536392616
            ]
        },
        {
            "positions": [
                -2.6615576334223405,
                -1.1943694344142854,
                0.04007308304093693,
                -0.7989269044636644,
                1.3987015962469724,
                -2.6909097691303367
            ]
        },
        {
            "positions": [
                -2.6392023412628993,
                -1.2526568892200505,
                -0.045134185627811796,
                -0.8794306184699519,
                1.4874068002014775,
                -2.635430984621412
            ]
        },
        {
            "positions": [
                -2.6168470491034577,
                -1.3109443440258155,
                -0.13034145429656063,
                -0.9599343324762395,
                1.5761120041559828,
                -2.579952200112487
            ]
        },
        {
            "positions": [
                -2.4209556249677555,
                -1.2917053208647125,
                -0.16991042611224463,
                -0.9760771776037818,
                1.5282552426651939,
                -2.5105351107880374
            ]
        },
        {
            "positions": [
                -2.225064200832053,
                -1.2724662977036094,
                -0.20947939792792863,
                -0.9922200227313239,
                1.480398481174405,
                -2.441118021463588
            ]
        },
        {
            "positions": [
                -2.0291727766963508,
                -1.2532272745425064,
                -0.2490483697436126,
                -1.008362867858866,
                1.4325417196836163,
                -2.3717009321391385
            ]
        },
        {
            "positions": [
                -1.8332813525606486,
                -1.2339882513814036,
                -0.28861734155929664,
                -1.0245057129864084,
                1.3846849581928273,
                -2.3022838428146892
            ]
        },
        {
            "positions": [
                -1.6373899284249462,
                -1.2147492282203005,
                -0.3281863133749806,
                -1.0406485581139506,
                1.3368281967020383,
                -2.2328667534902396
            ]
        },
        {
            "positions": [
                -1.441498504289244,
                -1.1955102050591975,
                -0.3677552851906646,
                -1.056791403241493,
                1.2889714352112496,
                -2.16344966416579
            ]
        },
        {
            "positions": [
                -1.2456070801535417,
                -1.1762711818980944,
                -0.4073242570063486,
                -1.0729342483690352,
                1.2411146737204608,
                -2.09403257484134
            ]
        },
        {
            "positions": [
                -1.0497156560178396,
                -1.1570321587369914,
                -0.4468932288220326,
                -1.0890770934965772,
                1.1932579122296718,
                -2.024615485516891
            ]
        },
        {
            "positions": [
                -0.853824231882137,
                -1.1377931355758883,
                -0.4864622006377166,
                -1.1052199386241197,
                1.1454011507388828,
                -1.9551983961924413
            ]
        },
        {
            "positions": [
                -0.6579328077464348,
                -1.1185541124147853,
                -0.5260311724534006,
                -1.1213627837516618,
                1.097544389248094,
                -1.8857813068679918
            ]
        },
        {
            "positions": [
                -0.46204138361073266,
                -1.0993150892536825,
                -0.5656001442690846,
                -1.137505628879204,
                1.0496876277573053,
                -1.8163642175435424
            ]
        },
        {
            "positions": [
                -0.2661499594750305,
                -1.0800760660925794,
                -0.6051691160847685,
                -1.1536484740067463,
                1.0018308662665163,
                -1.746947128219093
            ]
        },
        {
            "positions": [
                -0.07025853533932791,
                -1.0608370429314764,
                -0.6447380879004526,
                -1.1697913191342886,
                0.9539741047757274,
                -1.6775300388946432
            ]
        },
        {
            "positions": [
                0.12563288879637424,
                -1.0415980197703734,
                -0.6843070597161366,
                -1.1859341642618308,
                0.9061173432849385,
                -1.6081129495701938
            ]
        },
        {
            "positions": [
                0.3215243129320764,
                -1.0223589966092703,
                -0.7238760315318206,
                -1.202077009389373,
                0.8582605817941497,
                -1.5386958602457443
            ]
        },
        {
            "positions": [
                0.5174157370677785,
                -1.0031199734481673,
                -0.7634450033475045,
                -1.2182198545169152,
                0.8104038203033608,
                -1.4692787709212949
            ]
        },
        {
            "positions": [
                0.7133071612034807,
                -0.9838809502870643,
                -0.8030139751631885,
                -1.2343626996444574,
                0.762547058812572,
                -1.3998616815968454
            ]
        },
        {
            "positions": [
                0.9091985853391837,
                -0.9646419271259613,
                -0.8425829469788726,
                -1.2505055447719997,
                0.7146902973217829,
                -1.3304445922723955
            ]
        },
        {
            "positions": [
                1.105090009474886,
                -0.9454029039648584,
                -0.8821519187945566,
                -1.266648389899542,
                0.6668335358309941,
                -1.261027502947946
            ]
        },
        {
            "positions": [
                1.300981433610588,
                -0.9261638808037553,
                -0.9217208906102405,
                -1.282791235027084,
                0.6189767743402053,
                -1.1916104136234966
            ]
        },
        {
            "positions": [
                1.4968728577462902,
                -0.9069248576426523,
                -0.9612898624259245,
                -1.2989340801546263,
                0.5711200128494163,
                -1.1221933242990472
            ]
        },
        {
            "positions": [
                1.6927642818819923,
                -0.8876858344815493,
                -1.0008588342416087,
                -1.3150769252821686,
                0.5232632513586275,
                -1.0527762349745977
            ]
        },
        {
            "positions": [
                1.8886557060176945,
                -0.8684468113204462,
                -1.0404278060572927,
                -1.3312197704097108,
                0.47540648986783873,
                -0.9833591456501483
            ]
        },
        {
            "positions": [
                2.0845471301533967,
                -0.8492077881593433,
                -1.0799967778729767,
                -1.3473626155372531,
                0.42754972837704974,
                -0.9139420563256988
            ]
        },
        {
            "positions": [
                2.2804385542890997,
                -0.8299687649982402,
                -1.1195657496886606,
                -1.3635054606647954,
                0.37969296688626075,
                -0.8445249670012489
            ]
        },
        {
            "positions": [
                2.476329978424802,
                -0.8107297418371372,
                -1.1591347215043446,
                -1.3796483057923377,
                0.331836205395472,
                -0.7751078776767995
            ]
        },
        {
            "positions": [
                2.672221402560504,
                -0.7914907186760343,
                -1.1987036933200286,
                -1.3957911509198797,
                0.283979443904683,
                -0.70569078835235
            ]
        },
        {
            "positions": [
                2.8681128266962066,
                -0.7722516955149312,
                -1.2382726651357125,
                -1.411933996047422,
                0.23612268241389422,
                -0.6362736990279005
            ]
        },
        {
            "positions": [
                2.740874931117008,
                -0.8350404686156035,
                -1.2858684683110524,
                -1.290185280048132,
                0.23401009220323818,
                -0.6097153707732595
            ]
        },
        {
            "positions": [
                2.6136370355378093,
                -0.8978292417162758,
                -1.333464271486392,
                -1.168436564048842,
                0.23189750199258213,
                -0.5831570425186187
            ]
        },
        {
            "positions": [
                2.486399139958611,
                -0.9606180148169481,
                -1.3810600746617316,
                -1.046687848049552,
                0.2297849117819261,
                -0.5565987142639777
            ]
        },
        {
            "positions": [
                2.359161244379412,
                -1.0234067879176203,
                -1.4286558778370715,
                -0.924939132050262,
                0.22767232157127004,
                -0.5300403860093368
            ]
        },
        {
            "positions": [
                2.2319233488002137,
                -1.0861955610182927,
                -1.4762516810124113,
                -0.803190416050972,
                0.225559731360614,
                -0.5034820577546958
            ]
        },
        {
            "positions": [
                2.1046854532210153,
                -1.148984334118965,
                -1.523847484187751,
                -0.681441700051682,
                0.22344714114995795,
                -0.4769237295000549
            ]
        },
        {
            "positions": [
                1.9774475576418165,
                -1.2117731072196372,
                -1.5714432873630906,
                -0.559692984052392,
                0.2213345509393019,
                -0.4503654012454139
            ]
        },
        {
            "positions": [
                1.850209662062618,
                -1.2745618803203094,
                -1.6190390905384304,
                -0.43794426805310205,
                0.21922196072864586,
                -0.423807072990773
            ]
        },
        {
            "positions": [
                1.7229717664834194,
                -1.3373506534209818,
                -1.6666348937137703,
                -0.316195552053812,
                0.2171093705179898,
                -0.39724874473613203
            ]
        },
        {
            "positions": [
                1.5957338709042208,
                -1.4001394265216542,
                -1.71423069688911,
                -0.19444683605452195,
                0.21499678030733377,
                -0.3706904164814911
            ]
        },
        {
            "positions": [
                1.4684959753250224,
                -1.4629281996223265,
                -1.7618265000644495,
                -0.07269812005523213,
                0.21288419009667772,
                -0.34413208822685015
            ]
        },
        {
            "positions": [
                1.3412580797458238,
                -1.5257169727229987,
                -1.8094223032397894,
                0.04905059594405792,
                0.21077159988602168,
                -0.3175737599722092
            ]
        },
        {
            "positions": [
                1.2140201841666254,
                -1.5885057458236709,
                -1.8570181064151292,
                0.17079931194334774,
                0.2086590096753656,
                -0.2910154317175683
            ]
        },
        {
            "positions": [
                1.0867822885874265,
                -1.6512945189243433,
                -1.9046139095904688,
                0.292548027942638,
                0.20654641946470956,
                -0.2644571034629273
            ]
        },
        {
            "positions": [
                0.9595443930082281,
                -1.7140832920250155,
                -1.9522097127658085,
                0.41429674394192784,
                0.2044338292540535,
                -0.2378987752082864
            ]
        },
        {
            "positions": [
                0.8323064974290295,
                -1.7768720651256877,
                -1.9998055159411483,
                0.5360454599412179,
                0.2023212390433975,
                -0.21134044695364546
            ]
        },
        {
            "positions": [
                0.7050686018498307,
                -1.8396608382263602,
                -2.047401319116488,
                0.6577941759405082,
                0.20020864883274142,
                -0.18478211869900446
            ]
        },
        {
            "positions": [
                0.5778307062706323,
                -1.9024496113270324,
                -2.0949971222918276,
                0.779542891939798,
                0.19809605862208537,
                -0.15822379044436352
            ]
        },
        {
            "positions": [
                0.45059281069143386,
                -1.9652383844277046,
                -2.1425929254671674,
                0.9012916079390878,
                0.19598346841142933,
                -0.13166546218972264
            ]
        },
        {
            "positions": [
                0.323354915112235,
                -2.028027157528377,
                -2.1901887286425072,
                1.023040323938378,
                0.19387087820077328,
                -0.10510713393508164
            ]
        },
        {
            "positions": [
                0.19611701953303662,
                -2.0908159306290495,
                -2.237784531817847,
                1.144789039937668,
                0.19175828799011724,
                -0.07854880568044076
            ]
        },
        {
            "positions": [
                0.06887912395383822,
                -2.1536047037297212,
                -2.285380334993187,
                1.2665377559369577,
                0.1896456977794612,
                -0.051990477425799764
            ]
        },
        {
            "positions": [
                -0.05835877162536063,
                -2.216393476830394,
                -2.332976138168527,
                1.388286471936248,
                0.18753310756880515,
                -0.02543214917115877
            ]
        },
        {
            "positions": [
                -0.18559666720455897,
                -2.279182249931066,
                -2.380571941343866,
                1.5100351879355378,
                0.1854205173581491,
                0.0011261790834821207
            ]
        }
    ]
}