{
    "goal": {
        "global_pose": {
            "orientation": {
                "w": 0.7047431468963623,
                "x": -0.7094548344612122,
                "y": 0.0024358443915843964,
                "z": -0.0022348060738295317
            },
            "position": {
                "x": 0.6094750761985779,
                "y": 0.3671506643295288,
                "z": 0.19426114857196808
            }
        },
        "name": "move_to_magneteinheit_A"
    },
    "id": "RRTConnect_move_to_magneteinheit_A_23",
    "joint_names": [
        "shoulder_pan_joint",
        "shoulder_lift_joint",
        "elbow_joint",
        "wrist_1_joint",
        "wrist_2_joint",
        "wrist_3_joint"
    ],
    "metrics": {
        "cart_traj_len": 3.149093082293375,
        "distance_elbow_joint": 3.9133511718833764,
        "distance_shoulder_lift_joint": 0.46699343199494014,
        "distance_shoulder_pan_joint": 3.1837425830788684,
        "distance_wrist_1_joint": 3.455840037892263,
        "distance_wrist_2_joint": 1.4333267999971868,
        "distance_wrist_3_joint": 0.6553174853896818,
        "smoothness": 0.08753593439100889,
        "time": 0.106713054,
        "traj_len": 3.620576129600967,
        "weighted_distance": 4.394129415356941
    },
    "planner": "RRTConnect",
    "start": {
        "state": {
            "elbow_joint": -1.9196185241190666,
            "shoulder_lift_joint": -1.2443396400964142,
            "shoulder_pan_joint": 2.6996025414629847,
            "wrist_1_joint": -1.5485510000780065,
            "wrist_2_joint": -1.5709468930060704,
            "wrist_3_joint": 0.4420197071253992
        }
    },
    "waypoints": [
        {
            "positions": [
                2.6996025414629847,
                -1.2443396400964142,
                -1.9196185241190666,
                -1.5485510000780065,
                -1.5709468930060704,
                0.4420197071253992
            ]
        },
        {
            "positions": [
                2.584388030427194,
                -1.2400679741609055,
                -1.8179237312751209,
                -1.4270264571207643,
                -1.532100242912996,
                0.44658793227561766
            ]
        },
        {
            "positions": [
                2.4691735193914033,
                -1.2357963082253969,
                -1.716228938431175,
                -1.3055019141635218,
                -1.4932535928199215,
                0.4511561574258362
            ]
        },
        {
            "positions": [
                2.353959008355613,
                -1.231524642289888,
                -1.6145341455872293,
                -1.1839773712062795,
                -1.454406942726847,
                0.4557243825760547
            ]
        },
        {
            "positions": [
                2.238744497319822,
                -1.2272529763543794,
                -1.5128393527432835,
                -1.0624528282490373,
                -1.4155602926337725,
                0.4602926077262732
            ]
        },
        {
            "positions": [
                2.123529986284031,
                -1.2229813104188707,
                -1.4111445598993377,
                -0.940928285291795,
                -1.376713642540698,
                0.4648608328764917
            ]
        },
        {
            "positions": [
                2.0083154752482404,
                -1.218709644483362,
                -1.3094497670553922,
                -0.8194037423345527,
                -1.3378669924476236,
                0.4694290580267102
            ]
        },
        {
            "positions": [
                1.8931009642124497,
                -1.2144379785478534,
                -1.2077549742114464,
                -0.6978791993773104,
                -1.2990203423545492,
                0.4739972831769287
            ]
        },
        {
            "positions": [
                1.777886453176659,
                -1.2101663126123445,
                -1.1060601813675006,
                -0.5763546564200681,
                -1.2601736922614746,
                0.4785655083271472
            ]
        },
        {
            "positions": [
                1.6626719421408684,
                -1.2058946466768359,
                -1.004365388523555,
                -0.45483011346282587,
                -1.2213270421684002,
                0.4831337334773657
            ]
        },
        {
            "positions": [
                1.5474574311050775,
                -1.2016229807413272,
                -0.9026705956796091,
                -0.3333055705055834,
                -1.1824803920753257,
                0.4877019586275842
            ]
        },
        {
            "positions": [
                1.4322429200692868,
                -1.1973513148058186,
                -0.8009758028356635,
                -0.21178102754834116,
                -1.1436337419822513,
                0.49227018377780274
            ]
        },
        {
            "positions": [
                1.3170284090334963,
                -1.19307964887031,
                -0.6992810099917177,
                -0.09025648459109892,
                -1.104787091889177,
                0.4968384089280212
            ]
        },
        {
            "positions": [
                1.2018138979977053,
                -1.188807982934801,
                -0.5975862171477719,
                0.031268058366143325,
                -1.0659404417961023,
                0.5014066340782397
            ]
        },
        {
            "positions": [
                1.0865993869619146,
                -1.1845363169992924,
                -0.49589142430382616,
                0.1527926013233858,
                -1.0270937917030278,
                0.5059748592284582
            ]
        },
        {
            "positions": [
                0.9713848759261241,
                -1.1802646510637838,
                -0.3941966314598806,
                0.2743171442806278,
                -0.9882471416099534,
                0.5105430843786767
            ]
        },
        {
            "positions": [
                0.8561703648903332,
                -1.175992985128275,
                -0.2925018386159346,
                0.3958416872378703,
                -0.9494004915168789,
                0.5151113095288953
            ]
        },
        {
            "positions": [
                0.7409558538545424,
                -1.1717213191927665,
                -0.19080704577198881,
                0.5173662301951125,
                -0.9105538414238045,
                0.5196795346791138
            ]
        },
        {
            "positions": [
                0.6257413428187522,
                -1.1674496532572576,
                -0.08911225292804326,
                0.6388907731523548,
                -0.87170719133073,
                0.5242477598293322
            ]
        },
        {
            "positions": [
                0.5105268317829612,
                -1.163177987321749,
                0.012582539915902524,
                0.760415316109597,
                -0.8328605412376555,
                0.5288159849795507
            ]
        },
        {
            "positions": [
                0.39531232074717026,
                -1.1589063213862403,
                0.11427733275984853,
                0.8819398590668397,
                -0.7940138911445811,
                0.5333842101297692
            ]
        },
        {
            "positions": [
                0.28009780971137976,
                -1.1546346554507316,
                0.21597212560379386,
                1.0034644020240815,
                -0.7551672410515067,
                0.5379524352799877
            ]
        },
        {
            "positions": [
                0.16488329867558882,
                -1.150362989515223,
                0.31766691844773964,
                1.1249889449813242,
                -0.7163205909584321,
                0.5425206604302062
            ]
        },
        {
            "positions": [
                0.04966878763979832,
                -1.146091323579714,
                0.4193617112916854,
                1.2465134879385664,
                -0.6774739408653576,
                0.5470888855804248
            ]
        },
        {
            "positions": [
                -0.06554572339599218,
                -1.1418196576442055,
                0.5210565041356312,
                1.3680380308958087,
                -0.6386272907722833,
                0.5516571107306433
            ]
        },
        {
            "positions": [
                -0.18076023443178324,
                -1.1375479917086968,
                0.622751296979577,
                1.489562573853051,
                -0.5997806406792088,
                0.5562253358808618
            ]
        },
        {
            "positions": [
                -0.14833664902177168,
                -1.0982936922094908,
                0.7726450641812365,
                1.5359376376005698,
                -0.5492655378333324,
                0.49698567231668883
            ]
        },
        {
            "positions": [
                -0.11591306361176013,
                -1.059039392710285,
                0.9225388313828959,
                1.5823127013480887,
                -0.498750434987456,
                0.4377460087525159
            ]
        },
        {
            "positions": [
                -0.08348947820174857,
                -1.019785093211079,
                1.0724325985845555,
                1.6286877650956078,
                -0.4482353321415797,
                0.3785063451883429
            ]
        },
        {
            "positions": [
                -0.05106589279173701,
                -0.9805307937118731,
                1.222326365786215,
                1.6750628288431266,
                -0.3977202292957033,
                0.31926668162417
            ]
        },
        {
            "positions": [
                -0.018642307381725454,
                -0.9412764942126672,
                1.3722201329878745,
                1.7214378925906455,
                -0.34720512644982693,
                0.260027018059997
            ]
        },
        {
            "positions": [
                0.013781278028286104,
                -0.9020221947134613,
                1.522113900189534,
                1.7678129563381644,
                -0.2966900236039506,
                0.20078735449582408
            ]
        },
        {
            "positions": [
                0.04620486343829766,
                -0.8627678952142555,
                1.6720076673911937,
                1.8141880200856835,
                -0.24617492075807418,
                0.14154769093165115
            ]
        },
        {
            "positions": [
                0.07862844884830922,
                -0.8235135957150495,
                1.821901434592853,
                1.8605630838332023,
                -0.19565981791219783,
                0.08230802736747822
            ]
        },
        {
            "positions": [
                0.1110520342583208,
                -0.7842592962158436,
                1.9717952017945126,
                1.9069381475807212,
                -0.1451447150663214,
                0.023068363803305215
            ]
        },
        {
            "positions": [
                0.12261957275231639,
                -0.777346208101474,
                1.9937326477643098,
                1.9072890378142568,
                -0.1376200930088833,
                0.01511347924664254
            ]
        }
    ]
}