{
    "goal": {
        "global_pose": {
            "orientation": {
                "w": 0.7047431468963623,
                "x": -0.7094548344612122,
                "y": 0.0024358443915843964,
                "z": -0.0022348060738295317
            },
            "position": {
                "x": 0.6094750761985779,
                "y": 0.3671506643295288,
                "z": 0.19426114857196808
            }
        },
        "name": "move_to_magneteinheit_A"
    },
    "id": "RRTConnect_move_to_magneteinheit_A_31",
    "joint_names": [
        "shoulder_pan_joint",
        "shoulder_lift_joint",
        "elbow_joint",
        "wrist_1_joint",
        "wrist_2_joint",
        "wrist_3_joint"
    ],
    "metrics": {
        "cart_traj_len": 3.8186327068586148,
        "distance_elbow_joint": 3.9034263772537523,
        "distance_shoulder_lift_joint": 0.17888326594844006,
        "distance_shoulder_pan_joint": 3.184049520040179,
        "distance_wrist_1_joint": 0.7115647586241789,
        "distance_wrist_2_joint": 1.702550457007907,
        "distance_wrist_3_joint": 3.5836912046763096,
        "smoothness": 0.16181252700864374,
        "time": 0.077335365,
        "traj_len": 3.642000217401251,
        "weighted_distance": 4.779713716169146
    },
    "planner": "RRTConnect",
    "start": {
        "state": {
            "elbow_joint": -1.9196185241190666,
            "shoulder_lift_joint": -1.2443396400964142,
            "shoulder_pan_joint": 2.6996025414629847,
            "wrist_1_joint": -1.5485510000780065,
            "wrist_2_joint": -1.5709468930060704,
            "wrist_3_joint": 0.4420197071253992
        }
    },
    "waypoints": [
        {
            "positions": [
                2.6996025414629847,
                -1.2443396400964142,
                -1.9196185241190666,
                -1.5485510000780065,
                -1.5709468930060704,
                0.4420197071253992
            ]
        },
        {
            "positions": [
                2.600278401983442,
                -1.2395797292429072,
                -1.8071196503226856,
                -1.5285909139370246,
                -1.513687499881319,
                0.34213644800312243
            ]
        },
        {
            "positions": [
                2.500954262503899,
                -1.2348198183894001,
                -1.6946207765263048,
                -1.5086308277960427,
                -1.4564281067565676,
                0.24225318888084568
            ]
        },
        {
            "positions": [
                2.401630123024356,
                -1.2300599075358931,
                -1.582121902729924,
                -1.4886707416550609,
                -1.3991687136318163,
                0.14236992975856894
            ]
        },
        {
            "positions": [
                2.302305983544813,
                -1.2252999966823863,
                -1.469623028933543,
                -1.468710655514079,
                -1.3419093205070647,
                0.04248667063629219
            ]
        },
        {
            "positions": [
                2.2029818440652704,
                -1.2205400858288793,
                -1.357124155137162,
                -1.4487505693730969,
                -1.2846499273823133,
                -0.05739658848598461
            ]
        },
        {
            "positions": [
                2.1036577045857277,
                -1.2157801749753723,
                -1.2446252813407812,
                -1.428790483232115,
                -1.227390534257562,
                -0.1572798476082613
            ]
        },
        {
            "positions": [
                2.004333565106185,
                -1.2110202641218653,
                -1.1321264075444002,
                -1.4088303970911331,
                -1.1701311411328106,
                -0.2571631067305381
            ]
        },
        {
            "positions": [
                1.905009425626642,
                -1.2062603532683582,
                -1.0196275337480194,
                -1.3888703109501512,
                -1.1128717480080592,
                -0.3570463658528148
            ]
        },
        {
            "positions": [
                1.8056852861470991,
                -1.2015004424148512,
                -0.9071286599516384,
                -1.3689102248091694,
                -1.0556123548833076,
                -0.4569296249750916
            ]
        },
        {
            "positions": [
                1.7063611466675561,
                -1.1967405315613442,
                -0.7946297861552574,
                -1.3489501386681875,
                -0.9983529617585564,
                -0.5568128840973684
            ]
        },
        {
            "positions": [
                1.6070370071880133,
                -1.1919806207078374,
                -0.6821309123588768,
                -1.3289900525272056,
                -0.941093568633805,
                -0.6566961432196451
            ]
        },
        {
            "positions": [
                1.5077128677084706,
                -1.1872207098543304,
                -0.5696320385624958,
                -1.3090299663862237,
                -0.8838341755090536,
                -0.7565794023419218
            ]
        },
        {
            "positions": [
                1.4083887282289276,
                -1.1824607990008233,
                -0.45713316476611476,
                -1.2890698802452418,
                -0.8265747823843022,
                -0.8564626614641987
            ]
        },
        {
            "positions": [
                1.3090645887493848,
                -1.1777008881473163,
                -0.34463429096973375,
                -1.26910979410426,
                -0.7693153892595508,
                -0.9563459205864754
            ]
        },
        {
            "positions": [
                1.2097404492698418,
                -1.1729409772938093,
                -0.23213541717335295,
                -1.2491497079632778,
                -0.7120559961347993,
                -1.0562291797087524
            ]
        },
        {
            "positions": [
                1.1104163097902993,
                -1.1681810664403023,
                -0.11963654337697216,
                -1.229189621822296,
                -0.654796603010048,
                -1.1561124388310287
            ]
        },
        {
            "positions": [
                1.0110921703107565,
                -1.1634211555867953,
                -0.007137669580591366,
                -1.209229535681314,
                -0.5975372098852967,
                -1.2559956979533053
            ]
        },
        {
            "positions": [
                0.9117680308312135,
                -1.1586612447332882,
                0.10536120421578987,
                -1.1892694495403322,
                -0.5402778167605451,
                -1.3558789570755825
            ]
        },
        {
            "positions": [
                0.8124438913516707,
                -1.1539013338797814,
                0.21786007801217044,
                -1.1693093633993503,
                -0.48301842363579395,
                -1.4557622161978592
            ]
        },
        {
            "positions": [
                0.7131197518721277,
                -1.1491414230262744,
                0.3303589518085519,
                -1.1493492772583684,
                -0.42575903051104236,
                -1.5556454753201359
            ]
        },
        {
            "positions": [
                0.6137956123925847,
                -1.1443815121727674,
                0.4428578256049325,
                -1.1293891911173866,
                -0.368499637386291,
                -1.6555287344424126
            ]
        },
        {
            "positions": [
                0.514471472913042,
                -1.1396216013192604,
                0.555356699401313,
                -1.1094291049764047,
                -0.3112402442615396,
                -1.7554119935646892
            ]
        },
        {
            "positions": [
                0.4151473334334992,
                -1.1348616904657534,
                0.6678555731976945,
                -1.0894690188354228,
                -0.25398085113678825,
                -1.855295252686966
            ]
        },
        {
            "positions": [
                0.3158231939539564,
                -1.1301017796122463,
                0.7803544469940751,
                -1.0695089326944407,
                -0.1967214580120369,
                -1.9551785118092426
            ]
        },
        {
            "positions": [
                0.21649905447441364,
                -1.1253418687587393,
                0.8928533207904561,
                -1.049548846553459,
                -0.13946206488728552,
                -2.0550617709315193
            ]
        },
        {
            "positions": [
                0.11717491499487043,
                -1.1205819579052325,
                1.0053521945868371,
                -1.029588760412477,
                -0.08220267176253393,
                -2.1549450300537965
            ]
        },
        {
            "positions": [
                0.0178507755153281,
                -1.1158220470517255,
                1.1178510683832177,
                -1.0096286742714953,
                -0.024943278637782562,
                -2.254828289176073
            ]
        },
        {
            "positions": [
                -0.08147336396421512,
                -1.1110621361982185,
                1.2303499421795991,
                -0.9896685881305132,
                0.032316114486968806,
                -2.35471154829835
            ]
        },
        {
            "positions": [
                -0.180797503443758,
                -1.1063022253447115,
                1.3428488159759797,
                -0.9697085019895313,
                0.08957550761172012,
                -2.4545948074206265
            ]
        },
        {
            "positions": [
                -0.12006760841707063,
                -1.1144713955840588,
                1.4710406234077207,
                -0.9431640498823906,
                0.09798111888974353,
                -2.5920101454466833
            ]
        },
        {
            "positions": [
                -0.05933771339038327,
                -1.1226405658234064,
                1.5992324308394616,
                -0.9166195977752498,
                0.10638673016776694,
                -2.72942548347274
            ]
        },
        {
            "positions": [
                0.001392181636304085,
                -1.1308097360627538,
                1.7274242382712026,
                -0.8900751456681091,
                0.11479234144579036,
                -2.866840821498797
            ]
        },
        {
            "positions": [
                0.062122076662991466,
                -1.1389789063021014,
                1.8556160457029436,
                -0.8635306935609683,
                0.12319795272381376,
                -3.0042561595248536
            ]
        },
        {
            "positions": [
                0.12285197168967882,
                -1.1471480765414488,
                1.9838078531346846,
                -0.8369862414538276,
                0.13160356400183718,
                -3.1416714975509104
            ]
        }
    ]
}