{
    "goal": {
        "global_pose": {
            "orientation": {
                "w": -0.00223480608172531,
                "x": 0.0024358444001904467,
                "y": 0.7094548369677653,
                "z": -0.704743149386269
            },
            "position": {
                "x": -0.37947507619857795,
                "y": -0.6371506643295288,
                "z": 0.19426114857196808
            }
        },
        "name": "move_to_magneteinheit_C"
    },
    "id": "RRTConnect_move_to_magneteinheit_C_146",
    "joint_names": [
        "shoulder_pan_joint",
        "shoulder_lift_joint",
        "elbow_joint",
        "wrist_1_joint",
        "wrist_2_joint",
        "wrist_3_joint"
    ],
    "metrics": {
        "cart_traj_len": 1.079075649022859,
        "distance_elbow_joint": 0.8376740056137826,
        "distance_shoulder_lift_joint": 0.7690998216903666,
        "distance_shoulder_pan_joint": 0.8221298888842534,
        "distance_wrist_1_joint": 0.2895321948828318,
        "distance_wrist_2_joint": 2.05372422143064,
        "distance_wrist_3_joint": 0.49194289356035004,
        "smoothness": 1.3664379602955985,
        "time": 0.10847925,
        "traj_len": 2.2943633160557253,
        "weighted_distance": 2.9310826036630897
    },
    "planner": "RRTConnect",
    "start": {
        "state": {
            "elbow_joint": 1.9565354010623817,
            "shoulder_lift_joint": -1.4165861575791021,
            "shoulder_pan_joint": -1.6717766225146293,
            "wrist_1_joint": -0.5286633292919765,
            "wrist_2_joint": 1.472756589071564,
            "wrist_3_joint": -3.1238370188695823
        }
    },
    "waypoints": [
        {
            "positions": [
                -1.6717766225146293,
                -1.4165861575791021,
                1.9565354010623817,
                -0.5286633292919765,
                1.472756589071564,
                -3.1238370188695823
            ]
        },
        {
            "positions": [
                -1.6703620869494888,
                -1.4532360039478474,
                2.0198518009229596,
                -0.5692912976204606,
                1.2686755696704437,
                -3.0913752796288105
            ]
        },
        {
            "positions": [
                -1.6689475513843484,
                -1.4898858503165926,
                2.0831682007835375,
                -0.6099192659489447,
                1.0645945502693233,
                -3.0589135403880388
            ]
        },
        {
            "positions": [
                -1.6675330158192079,
                -1.5265356966853378,
                2.1464846006441154,
                -0.6505472342774289,
                0.860513530868203,
                -3.026451801147267
            ]
        },
        {
            "positions": [
                -1.6661184802540676,
                -1.5631855430540829,
                2.2098010005046937,
                -0.691175202605913,
                0.6564325114670827,
                -2.993990061906495
            ]
        },
        {
            "positions": [
                -1.6647039446889271,
                -1.599835389422828,
                2.2731174003652717,
                -0.7318031709343973,
                0.45235149206596237,
                -2.9615283226657234
            ]
        },
        {
            "positions": [
                -1.6632894091237866,
                -1.6364852357915733,
                2.3364338002258496,
                -0.7724311392628814,
                0.24827047266484215,
                -2.9290665834249516
            ]
        },
        {
            "positions": [
                -1.6618748735586462,
                -1.6731350821603186,
                2.3997502000864275,
                -0.8130591075913656,
                0.0441894532637218,
                -2.89660484418418
            ]
        },
        {
            "positions": [
                -1.7779074649769704,
                -1.59991352543044,
                2.3433988848593224,
                -0.8137928813890002,
                0.13349760835269286,
                -2.9344206611663153
            ]
        },
        {
            "positions": [
                -1.8939400563952948,
                -1.5266919687005613,
                2.287047569632217,
                -0.8145266551866349,
                0.22280576344166392,
                -2.9722364781484507
            ]
        },
        {
            "positions": [
                -2.009972647813619,
                -1.4534704119706827,
                2.2306962544051117,
                -0.8152604289842695,
                0.312113918530635,
                -3.010052295130586
            ]
        },
        {
            "positions": [
                -2.1260052392319433,
                -1.3802488552408043,
                2.1743449391780065,
                -0.8159942027819043,
                0.4014220736196061,
                -3.047868112112721
            ]
        },
        {
            "positions": [
                -2.2420378306502675,
                -1.3070272985109257,
                2.117993623950901,
                -0.8167279765795389,
                0.4907302287085772,
                -3.0856839290948566
            ]
        },
        {
            "positions": [
                -2.358070422068592,
                -1.233805741781047,
                2.061642308723796,
                -0.8174617503771736,
                0.5800383837975482,
                -3.123499746076992
            ]
        },
        {
            "positions": [
                -2.4741030134869164,
                -1.1605841850511684,
                2.0052909934966907,
                -0.8181955241748082,
                0.6693465388865193,
                -3.1613155630591274
            ]
        }
    ]
}