{
    "goal": {
        "global_pose": {
            "orientation": {
                "w": -0.00223480608172531,
                "x": 0.0024358444001904467,
                "y": 0.7094548369677653,
                "z": -0.704743149386269
            },
            "position": {
                "x": 0.6205249238014221,
                "y": -0.6371506643295288,
                "z": 0.19426114857196808
            }
        },
        "name": "move_to_magneteinheit_B"
    },
    "id": "RRTConnect_move_to_magneteinheit_B_20",
    "joint_names": [
        "shoulder_pan_joint",
        "shoulder_lift_joint",
        "elbow_joint",
        "wrist_1_joint",
        "wrist_2_joint",
        "wrist_3_joint"
    ],
    "metrics": {
        "cart_traj_len": 5.117277664446633,
        "distance_elbow_joint": 4.874003269596322,
        "distance_shoulder_lift_joint": 0.80701375665436,
        "distance_shoulder_pan_joint": 4.799021253787276,
        "distance_wrist_1_joint": 5.186543000400892,
        "distance_wrist_2_joint": 2.189591947491042,
        "distance_wrist_3_joint": 4.687819616389508,
        "smoothness": 0.3064506993291469,
        "time": 0.406918195,
        "traj_len": 4.748051478693065,
        "weighted_distance": 6.268633585159558
    },
    "planner": "RRTConnect",
    "start": {
        "state": {
            "elbow_joint": 2.6216224122426386,
            "shoulder_lift_joint": -1.4174107377796124,
            "shoulder_pan_joint": 0.7066234856936794,
            "wrist_1_joint": 1.9546482284002225,
            "wrist_2_joint": -0.7096286983471962,
            "wrist_3_joint": 0.005740856962016249
        }
    },
    "waypoints": [
        {
            "positions": [
                0.7066234856936794,
                -1.4174107377796124,
                2.6216224122426386,
                1.9546482284002225,
                -0.7096286983471962,
                0.005740856962016249
            ]
        },
        {
            "positions": [
                0.6085381443316523,
                -1.4179824452604057,
                2.6050315168011395,
                2.003720497862819,
                -0.6011069472733067,
                -0.0681924165142623
            ]
        },
        {
            "positions": [
                0.5104528029696253,
                -1.4185541527411991,
                2.588440621359641,
                2.0527927673254154,
                -0.49258519619941715,
                -0.14212568999054084
            ]
        },
        {
            "positions": [
                0.41236746160759824,
                -1.4191258602219925,
                2.571849725918142,
                2.101865036788012,
                -0.38406344512552765,
                -0.21605896346681938
            ]
        },
        {
            "positions": [
                0.3142821202455712,
                -1.4196975677027859,
                2.5552588304766433,
                2.1509373062506083,
                -0.2755416940516381,
                -0.28999223694309795
            ]
        },
        {
            "positions": [
                0.21619677888354413,
                -1.4202692751835793,
                2.538667935035144,
                2.2000095757132048,
                -0.16701994297774858,
                -0.3639255104193765
            ]
        },
        {
            "positions": [
                0.07141430391720502,
                -1.4103464304424316,
                2.4797088074276434,
                2.1894732833561203,
                -0.12192390721906746,
                -0.43526469020316677
            ]
        },
        {
            "positions": [
                -0.07336817104913408,
                -1.4004235857012837,
                2.420749679820142,
                2.178936990999036,
                -0.07682787146038633,
                -0.5066038699869571
            ]
        },
        {
            "positions": [
                -0.10374319460349174,
                -1.4064986940780013,
                2.3028969916975734,
                1.9937455924095588,
                -0.06725119191648485,
                -0.5370702893447188
            ]
        },
        {
            "positions": [
                -0.13411821815784938,
                -1.412573802454719,
                2.185044303575005,
                1.8085541938200815,
                -0.05767451237258335,
                -0.5675367087024805
            ]
        },
        {
            "positions": [
                -0.16449324171220703,
                -1.4186489108314368,
                2.0671916154524363,
                1.6233627952306044,
                -0.04809783282868186,
                -0.5980031280602423
            ]
        },
        {
            "positions": [
                -0.1948682652665647,
                -1.4247240192081545,
                1.9493389273298678,
                1.4381713966411271,
                -0.03852115328478037,
                -0.628469547418004
            ]
        },
        {
            "positions": [
                -0.22524328882092237,
                -1.4307991275848722,
                1.8314862392072992,
                1.25297999805165,
                -0.028944473740878877,
                -0.6589359667757657
            ]
        },
        {
            "positions": [
                -0.25561831237528,
                -1.4368742359615898,
                1.7136335510847305,
                1.067788599462173,
                -0.019367794196977386,
                -0.6894023861335274
            ]
        },
        {
            "positions": [
                -0.28599333592963766,
                -1.4429493443383075,
                1.5957808629621621,
                0.8825972008726957,
                -0.009791114653075902,
                -0.7198688054912893
            ]
        },
        {
            "positions": [
                -0.31636835948399533,
                -1.4490244527150253,
                1.4779281748395934,
                0.6974058022832186,
                -0.00021443510917440456,
                -0.750335224849051
            ]
        },
        {
            "positions": [
                -0.34674338303835295,
                -1.455099561091743,
                1.3600754867170248,
                0.5122144036937415,
                0.00936224443472708,
                -0.7808016442068128
            ]
        },
        {
            "positions": [
                -0.3771184065927106,
                -1.4611746694684606,
                1.2422227985944563,
                0.3270230051042642,
                0.018938923978628577,
                -0.8112680635645745
            ]
        },
        {
            "positions": [
                -0.4074934301470683,
                -1.4672497778451783,
                1.1243701104718875,
                0.14183160651478666,
                0.028515603522530075,
                -0.8417344829223363
            ]
        },
        {
            "positions": [
                -0.4378684537014259,
                -1.4733248862218962,
                1.006517422349319,
                -0.043359792074689985,
                0.03809228306643156,
                -0.872200902280098
            ]
        },
        {
            "positions": [
                -0.46824347725578364,
                -1.4793999945986138,
                0.8886647342267502,
                -0.22855119066416751,
                0.04766896261033306,
                -0.9026673216378598
            ]
        },
        {
            "positions": [
                -0.49861850081014125,
                -1.4854751029753315,
                0.7708120461041819,
                -0.4137425892536446,
                0.05724564215423453,
                -0.9331337409956215
            ]
        },
        {
            "positions": [
                -0.528993524364499,
                -1.4915502113520491,
                0.6529593579816131,
                -0.5989339878431217,
                0.06682232169813604,
                -0.9636001603533833
            ]
        },
        {
            "positions": [
                -0.5593685479188566,
                -1.4976253197287668,
                0.5351066698590445,
                -0.7841253864325988,
                0.07639900124203752,
                -0.994066579711145
            ]
        },
        {
            "positions": [
                -0.5897435714732142,
                -1.5037004281054847,
                0.41725398173647577,
                -0.9693167850220763,
                0.08597568078593903,
                -1.0245329990689067
            ]
        },
        {
            "positions": [
                -0.6201185950275718,
                -1.5097755364822023,
                0.29940129361390744,
                -1.154508183611553,
                0.09555236032984049,
                -1.0549994184266684
            ]
        },
        {
            "positions": [
                -0.6504936185819296,
                -1.51585064485892,
                0.18154860549133872,
                -1.3396995822010305,
                0.10512903987374199,
                -1.0854658377844302
            ]
        },
        {
            "positions": [
                -0.5134868267522662,
                -1.53034844180557,
                0.0751643201882792,
                -1.3972277212964377,
                0.12863267260510597,
                -1.0401471085318665
            ]
        },
        {
            "positions": [
                -0.37648003492260285,
                -1.54484623875222,
                -0.031219965114780313,
                -1.4547558603918451,
                0.15213630533646996,
                -0.9948283792793031
            ]
        },
        {
            "positions": [
                -0.23947324309293944,
                -1.55934403569887,
                -0.13760425041783986,
                -1.5122839994872526,
                0.17563993806783396,
                -0.9495096500267395
            ]
        },
        {
            "positions": [
                -0.10246645126327614,
                -1.57384183264552,
                -0.24398853572089935,
                -1.5698121385826598,
                0.19914357079919792,
                -0.904190920774176
            ]
        },
        {
            "positions": [
                0.03454034056638733,
                -1.58833962959217,
                -0.3503728210239589,
                -1.627340277678067,
                0.22264720353056194,
                -0.8588721915216124
            ]
        },
        {
            "positions": [
                0.17154713239605068,
                -1.6028374265388199,
                -0.45675710632701844,
                -1.6848684167734744,
                0.2461508362619259,
                -0.8135534622690488
            ]
        },
        {
            "positions": [
                0.3085539242257139,
                -1.6173352234854699,
                -0.5631413916300778,
                -1.7423965558688816,
                0.2696544689932899,
                -0.7682347330164854
            ]
        },
        {
            "positions": [
                0.4455607160553773,
                -1.6318330204321199,
                -0.6695256769331375,
                -1.799924694964289,
                0.2931581017246539,
                -0.7229160037639217
            ]
        },
        {
            "positions": [
                0.5825675078850409,
                -1.6463308173787699,
                -0.7759099622361969,
                -1.8574528340596963,
                0.3166617344560179,
                -0.6775972745113582
            ]
        },
        {
            "positions": [
                0.7195742997147042,
                -1.6608286143254198,
                -0.8822942475392566,
                -1.9149809731551037,
                0.3401653671873819,
                -0.6322785452587947
            ]
        },
        {
            "positions": [
                0.8565810915443676,
                -1.6753264112720698,
                -0.988678532842316,
                -1.9725091122505112,
                0.3636689999187459,
                -0.586959816006231
            ]
        },
        {
            "positions": [
                0.9935878833740309,
                -1.6898242082187198,
                -1.0950628181453756,
                -2.0300372513459184,
                0.38717263265010987,
                -0.5416410867536675
            ]
        },
        {
            "positions": [
                1.1305946752036942,
                -1.7043220051653698,
                -1.2014471034484349,
                -2.0875653904413256,
                0.41067626538147384,
                -0.496322357501104
            ]
        },
        {
            "positions": [
                1.2676014670333573,
                -1.7188198021120198,
                -1.3078313887514945,
                -2.145093529536733,
                0.4341798981128378,
                -0.45100362824854046
            ]
        },
        {
            "positions": [
                1.4046082588630209,
                -1.7333175990586698,
                -1.414215674054554,
                -2.2026216686321405,
                0.4576835308442018,
                -0.40568489899597693
            ]
        },
        {
            "positions": [
                1.541615050692684,
                -1.7478153960053198,
                -1.5205999593576136,
                -2.2601498077275477,
                0.4811871635755658,
                -0.3603661697434133
            ]
        },
        {
            "positions": [
                1.6786218425223478,
                -1.7623131929519698,
                -1.626984244660673,
                -2.317677946822955,
                0.5046907963069298,
                -0.31504744049084976
            ]
        },
        {
            "positions": [
                1.8028997379510803,
                -1.7845096924170185,
                -1.6922097674076022,
                -2.3477822470489125,
                0.4765213887621451,
                -0.3965699322066779
            ]
        },
        {
            "positions": [
                1.9271776333798125,
                -1.8067061918820673,
                -1.7574352901545314,
                -2.3778865472748696,
                0.44835198121736036,
                -0.47809242392250606
            ]
        },
        {
            "positions": [
                2.0514555288085448,
                -1.8289026913471158,
                -1.8226608129014603,
                -2.407990847500827,
                0.42018257367257567,
                -0.5596149156383341
            ]
        },
        {
            "positions": [
                2.1757334242372774,
                -1.8510991908121646,
                -1.8878863356483895,
                -2.4380951477267843,
                0.3920131661277909,
                -0.6411374073541622
            ]
        },
        {
            "positions": [
                2.3000113196660097,
                -1.8732956902772133,
                -1.9531118583953186,
                -2.468199447952742,
                0.3638437585830062,
                -0.7226598990699904
            ]
        },
        {
            "positions": [
                2.3473644665941094,
                -1.893449570341355,
                -1.9373706423474406,
                -2.4516185060499267,
                0.2906962235799281,
                -0.9104558594931214
            ]
        },
        {
            "positions": [
                2.394717613522209,
                -1.9136034504054964,
                -1.9216294262995628,
                -2.435037564147112,
                0.21754868857684995,
                -1.098251819916252
            ]
        },
        {
            "positions": [
                2.4420707604503087,
                -1.933757330469638,
                -1.9058882102516848,
                -2.418456622244297,
                0.1444011535737718,
                -1.286047780339383
            ]
        },
        {
            "positions": [
                2.4894239073784084,
                -1.9539112105337795,
                -1.890146994203807,
                -2.401875680341482,
                0.07125361857069368,
                -1.473843740762514
            ]
        },
        {
            "positions": [
                2.5367770543065085,
                -1.9740650905979211,
                -1.874405778155929,
                -2.385294738438667,
                -0.001893916432384457,
                -1.661639701185645
            ]
        },
        {
            "positions": [
                2.584130201234608,
                -1.9942189706620626,
                -1.858664562108051,
                -2.368713796535852,
                -0.07504145143546259,
                -1.8494356616087757
            ]
        },
        {
            "positions": [
                2.631483348162708,
                -2.014372850726204,
                -1.842923346060173,
                -2.352132854633037,
                -0.14818898643854073,
                -2.037231622031907
            ]
        },
        {
            "positions": [
                2.6788364950908075,
                -2.0345267307903456,
                -1.8271821300122952,
                -2.3355519127302222,
                -0.22133652144161886,
                -2.225027582455038
            ]
        },
        {
            "positions": [
                2.726189642018907,
                -2.0546806108544873,
                -1.8114409139644172,
                -2.318970970827407,
                -0.29448405644469694,
                -2.4128235428781686
            ]
        },
        {
            "positions": [
                2.709884419791199,
                -2.087193737008211,
                -1.772041400332551,
                -2.3499070089015643,
                -0.33850845646601907,
                -2.594928148368709
            ]
        },
        {
            "positions": [
                2.693579197563491,
                -2.1197068631619342,
                -1.732641886700685,
                -2.3808430469757216,
                -0.3825328564873412,
                -2.77703275385925
            ]
        },
        {
            "positions": [
                2.6772739753357833,
                -2.1522199893156575,
                -1.6932423730688186,
                -2.411779085049879,
                -0.42655725650866333,
                -2.95913735934979
            ]
        },
        {
            "positions": [
                2.660968753108075,
                -2.184733115469381,
                -1.6538428594369525,
                -2.442715123124036,
                -0.47058165652998546,
                -3.1412419648403307
            ]
        }
    ]
}