{
    "goal": {
        "global_pose": {
            "orientation": {
                "w": 0.5084816217422485,
                "x": -0.49083608388900757,
                "y": 0.5182115435600281,
                "z": -0.4816462993621826
            },
            "position": {
                "x": 0.5540239810943604,
                "y": 0.030875300988554955,
                "z": 0.16403168439865112
            }
        },
        "name": "move_to_storage_A"
    },
    "id": "RRTConnect_move_to_storage_A_124",
    "joint_names": [
        "shoulder_pan_joint",
        "shoulder_lift_joint",
        "elbow_joint",
        "wrist_1_joint",
        "wrist_2_joint",
        "wrist_3_joint"
    ],
    "metrics": {
        "cart_traj_len": 0.3529344462517669,
        "distance_elbow_joint": 0.4502424551301536,
        "distance_shoulder_lift_joint": 0.23346597525647317,
        "distance_shoulder_pan_joint": 0.4597014535400186,
        "distance_wrist_1_joint": 0.25057607525567016,
        "distance_wrist_2_joint": 1.1054211685783737,
        "distance_wrist_3_joint": 0.10073675043011043,
        "smoothness": 0.0,
        "time": 0.042188391,
        "traj_len": 1.6124961637755297,
        "weighted_distance": 2.03902295791025
    },
    "planner": "RRTConnect",
    "start": {
        "state": {
            "elbow_joint": 1.971548259319323,
            "shoulder_lift_joint": -1.1394851275133948,
            "shoulder_pan_joint": 0.1228115487234821,
            "wrist_1_joint": -0.7804723859257726,
            "wrist_2_joint": 0.12958671773740124,
            "wrist_3_joint": -3.192489227718131
        }
    },
    "waypoints": [
        {
            "positions": [
                0.1228115487234821,
                -1.1394851275133948,
                1.971548259319323,
                -0.7804723859257726,
                0.12958671773740124,
                -3.192489227718131
            ]
        },
        {
            "positions": [
                0.05713991250347944,
                -1.172837409692891,
                2.035868610052202,
                -0.816268968105154,
                0.28750402753431176,
                -3.1780982633709725
            ]
        },
        {
            "positions": [
                -0.00853172371652322,
                -1.2061896918723871,
                2.100188960785081,
                -0.8520655502845356,
                0.44542133733122224,
                -3.1637072990238138
            ]
        },
        {
            "positions": [
                -0.07420335993652588,
                -1.2395419740518834,
                2.16450931151796,
                -0.887862132463917,
                0.6033386471281328,
                -3.149316334676655
            ]
        },
        {
            "positions": [
                -0.13987499615652854,
                -1.2728942562313794,
                2.2288296622508392,
                -0.9236587146432984,
                0.7612559569250433,
                -3.134925370329497
            ]
        },
        {
            "positions": [
                -0.2055466323765312,
                -1.3062465384108757,
                2.2931500129837183,
                -0.9594552968226799,
                0.9191732667219539,
                -3.120534405982338
            ]
        },
        {
            "positions": [
                -0.27121826859653386,
                -1.3395988205903717,
                2.3574703637165975,
                -0.9952518790020612,
                1.0770905765188643,
                -3.1061434416351794
            ]
        },
        {
            "positions": [
                -0.3368899048165365,
                -1.372951102769868,
                2.4217907144494766,
                -1.0310484611814428,
                1.235007886315775,
                -3.0917524772880207
            ]
        }
    ]
}{
    "goal": {
        "global_pose": {
            "orientation": {
                "w": 0.5084816217422485,
                "x": -0.49083608388900757,
                "y": 0.5182115435600281,
                "z": -0.4816462993621826
            },
            "position": {
                "x": 0.5540239810943604,
                "y": 0.030875300988554955,
                "z": 0.16403168439865112
            }
        },
        "name": "move_to_storage_A"
    },
    "id": "RRTConnect_move_to_storage_A_124",
    "joint_names": [
        "shoulder_pan_joint",
        "shoulder_lift_joint",
        "elbow_joint",
        "wrist_1_joint",
        "wrist_2_joint",
        "wrist_3_joint"
    ],
    "metrics": {
        "cart_traj_len": 0.3531747422390862,
        "distance_elbow_joint": 0.44755094749575886,
        "distance_shoulder_lift_joint": 0.2344566171084197,
        "distance_shoulder_pan_joint": 0.463594915194815,
        "distance_wrist_1_joint": 0.23526317034219324,
        "distance_wrist_2_joint": 1.0908452095441448,
        "distance_wrist_3_joint": 0.10469804019534212,
        "smoothness": 2.2204460668324854e-16,
        "time": 0.049824123,
        "traj_len": 1.6051195905229847,
        "weighted_distance": 2.027785333845202
    },
    "planner": "RRTConnect",
    "start": {
        "state": {
            "elbow_joint": 1.97154746011099,
            "shoulder_lift_joint": -1.13948474672311,
            "shoulder_pan_joint": 0.12281154466712228,
            "wrist_1_joint": -0.7804688027058302,
            "wrist_2_joint": 0.12958655903071145,
            "wrist_3_joint": 3.0906928834467795
        }
    },
    "waypoints": [
        {
            "positions": [
                0.12281154466712228,
                -1.13948474672311,
                1.97154746011099,
                -0.7804688027058302,
                0.12958655903071145,
                3.0906928834467795
            ]
        },
        {
            "positions": [
                0.05658369963929158,
                -1.1729785491671698,
                2.035483309753241,
                -0.8140778270404292,
                0.2854215889655893,
                3.1056497463318284
            ]
        },
        {
            "positions": [
                -0.009644145388539124,
                -1.20647235161123,
                2.0994191593954925,
                -0.8476868513750282,
                0.4412566189004671,
                3.1206066092168774
            ]
        },
        {
            "positions": [
                -0.07587199041636984,
                -1.2399661540552898,
                2.1633550090377436,
                -0.8812958757096273,
                0.5970916488353449,
                3.1355634721019263
            ]
        },
        {
            "positions": [
                -0.14209983544420052,
                -1.2734599564993498,
                2.227290858679995,
                -0.9149049000442263,
                0.7529266787702228,
                3.150520334986975
            ]
        },
        {
            "positions": [
                -0.20832768047203126,
                -1.3069537589434097,
                2.291226708322246,
                -0.9485139243788254,
                0.9087617087051006,
                3.1654771978720238
            ]
        },
        {
            "positions": [
                -0.27455552549986195,
                -1.3404475613874696,
                2.3551625579644977,
                -0.9821229487134244,
                1.0645967386399784,
                3.1804340607570727
            ]
        },
        {
            "positions": [
                -0.3407833705276927,
                -1.3739413638315296,
                2.4190984076067488,
                -1.0157319730480234,
                1.2204317685748562,
                3.1953909236421216
            ]
        }
    ]
}{
    "goal": {
        "global_pose": {
            "orientation": {
                "w": 0.5084816217422485,
                "x": -0.49083608388900757,
                "y": 0.5182115435600281,
                "z": -0.4816462993621826
            },
            "position": {
                "x": 0.5540239810943604,
                "y": 0.030875300988554955,
                "z": 0.16403168439865112
            }
        },
        "name": "move_to_storage_A"
    },
    "id": "RRTConnect_move_to_storage_A_124",
    "joint_names": [
        "shoulder_pan_joint",
        "shoulder_lift_joint",
        "elbow_joint",
        "wrist_1_joint",
        "wrist_2_joint",
        "wrist_3_joint"
    ],
    "metrics": {
        "cart_traj_len": 0.3529946505403418,
        "distance_elbow_joint": 0.45015561862199327,
        "distance_shoulder_lift_joint": 0.23675121901666274,
        "distance_shoulder_pan_joint": 0.46335512594779293,
        "distance_wrist_1_joint": 0.23493179793243146,
        "distance_wrist_2_joint": 1.0927252697709071,
        "distance_wrist_3_joint": 0.08585990138094202,
        "smoothness": 1.3322676295501878e-15,
        "time": 0.043096248000000004,
        "traj_len": 1.601180480979808,
        "weighted_distance": 2.0157271152455016
    },
    "planner": "RRTConnect",
    "start": {
        "state": {
            "elbow_joint": 1.9715472970024885,
            "shoulder_lift_joint": -1.1394870060712896,
            "shoulder_pan_joint": 0.12281152778156021,
            "wrist_1_joint": -0.780463741449964,
            "wrist_2_joint": 0.12958659822042276,
            "wrist_3_joint": 3.090690232415272
        }
    },
    "waypoints": [
        {
            "positions": [
                0.12281152778156021,
                -1.1394870060712896,
                1.9715472970024885,
                -0.780463741449964,
                0.12958659822042276,
                3.090690232415272
            ]
        },
        {
            "positions": [
                0.05661793836044694,
                -1.1733086087879556,
                2.0358552425199163,
                -0.8140254268688828,
                0.2856902081876952,
                3.102955932612549
            ]
        },
        {
            "positions": [
                -0.009575651060666324,
                -1.2071302115046219,
                2.1001631880373437,
                -0.8475871122878016,
                0.44179381815496765,
                3.115221632809827
            ]
        },
        {
            "positions": [
                -0.0757692404817796,
                -1.2409518142212879,
                2.1644711335547715,
                -0.8811487977067203,
                0.5978974281222401,
                3.127487333007104
            ]
        },
        {
            "positions": [
                -0.14196282990289286,
                -1.274773416937954,
                2.228779079072199,
                -0.9147104831256391,
                0.7540010380895125,
                3.1397530332043817
            ]
        },
        {
            "positions": [
                -0.20815641932400616,
                -1.30859501965462,
                2.2930870245896267,
                -0.9482721685445579,
                0.9101046480567849,
                3.152018733401659
            ]
        },
        {
            "positions": [
                -0.2743500087451194,
                -1.3424166223712861,
                2.357394970107054,
                -0.9818338539634767,
                1.0662082580240575,
                3.1642844335989366
            ]
        },
        {
            "positions": [
                -0.3405435981662327,
                -1.3762382250879523,
                2.421702915624482,
                -1.0153955393823955,
                1.2223118679913298,
                3.176550133796214
            ]
        }
    ]
}