{
    "goal": {
        "global_pose": {
            "orientation": {
                "w": 0.005598929693374612,
                "x": 0.007748599140229565,
                "y": 0.7110244013736278,
                "z": -0.7031023480610252
            },
            "position": {
                "x": -0.8858502320852131,
                "y": -0.7141253447532654,
                "z": 0.3711530566215515
            }
        },
        "name": "move_to_auspresseinheit_C"
    },
    "id": "RRTConnect_move_to_auspresseinheit_C_40",
    "joint_names": [
        "shoulder_pan_joint",
        "shoulder_lift_joint",
        "elbow_joint",
        "wrist_1_joint",
        "wrist_2_joint",
        "wrist_3_joint"
    ],
    "metrics": {
        "cart_traj_len": 0.49487801960810185,
        "distance_elbow_joint": 1.0175960642202535,
        "distance_shoulder_lift_joint": 0.3329053694746884,
        "distance_shoulder_pan_joint": 0.2563874047945176,
        "distance_wrist_1_joint": 0.7073756258074553,
        "distance_wrist_2_joint": 1.3132022217030437,
        "distance_wrist_3_joint": 0.06813840834935458,
        "smoothness": 8.074349308362242e-16,
        "time": 0.044465646,
        "traj_len": 1.9223956654001573,
        "weighted_distance": 2.419185763549075
    },
    "planner": "RRTConnect",
    "start": {
        "state": {
            "elbow_joint": 1.7527959577737207,
            "shoulder_lift_joint": -0.9740617694225068,
            "shoulder_pan_joint": -2.967991417825858,
            "wrist_1_joint": -0.759517768980727,
            "wrist_2_joint": 1.7443932448377408,
            "wrist_3_joint": -3.0840537646736568
        }
    },
    "waypoints": [
        {
            "positions": [
                -2.967991417825858,
                -0.9740617694225068,
                1.7527959577737207,
                -0.759517768980727,
                1.7443932448377408,
                -3.0840537646736568
            ]
        },
        {
            "positions": [
                -2.942352677346406,
                -0.9407712324750379,
                1.6510363513516952,
                -0.6887802063999815,
                1.6130730226674364,
                -3.0908676055085924
            ]
        },
        {
            "positions": [
                -2.9167139368669543,
                -0.907480695527569,
                1.5492767449296698,
                -0.6180426438192359,
                1.481752800497132,
                -3.0976814463435276
            ]
        },
        {
            "positions": [
                -2.8910751963875025,
                -0.8741901585801003,
                1.4475171385076446,
                -0.5473050812384904,
                1.3504325783268278,
                -3.1044952871784632
            ]
        },
        {
            "positions": [
                -2.8654364559080507,
                -0.8408996216326314,
                1.3457575320856192,
                -0.4765675186577449,
                1.2191123561565234,
                -3.1113091280133984
            ]
        },
        {
            "positions": [
                -2.839797715428599,
                -0.8076090846851626,
                1.243997925663594,
                -0.40582995607699934,
                1.0877921339862189,
                -3.118122968848334
            ]
        },
        {
            "positions": [
                -2.8141589749491476,
                -0.7743185477376937,
                1.1422383192415686,
                -0.3350923934962538,
                0.9564719118159146,
                -3.1249368096832697
            ]
        },
        {
            "positions": [
                -2.7885202344696958,
                -0.741028010790225,
                1.0404787128195432,
                -0.2643548309155083,
                0.8251516896456104,
                -3.131750650518205
            ]
        },
        {
            "positions": [
                -2.762881493990244,
                -0.707737473842756,
                0.9387191063975178,
                -0.19361726833476278,
                0.6938314674753059,
                -3.1385644913531405
            ]
        },
        {
            "positions": [
                -2.737242753510792,
                -0.6744469368952872,
                0.8369594999754925,
                -0.12287970575401719,
                0.5625112453050014,
                -3.1453783321880757
            ]
        },
        {
            "positions": [
                -2.7116040130313404,
                -0.6411563999478184,
                0.7351998935534672,
                -0.052142143173271746,
                0.43119102313469715,
                -3.1521921730230114
            ]
        }
    ]
}