{
    "goal": {
        "global_pose": {
            "orientation": {
                "w": 0.5084816217422485,
                "x": -0.49083608388900757,
                "y": 0.5182115435600281,
                "z": -0.4816462993621826
            },
            "position": {
                "x": 0.5540239810943604,
                "y": 0.030875300988554955,
                "z": 0.16403168439865112
            }
        },
        "name": "move_to_storage_A"
    },
    "id": "RRTConnect_move_to_storage_A_135",
    "joint_names": [
        "shoulder_pan_joint",
        "shoulder_lift_joint",
        "elbow_joint",
        "wrist_1_joint",
        "wrist_2_joint",
        "wrist_3_joint"
    ],
    "metrics": {
        "cart_traj_len": 0.35349725689329314,
        "distance_elbow_joint": 0.4476967701888481,
        "distance_shoulder_lift_joint": 0.23524226397152592,
        "distance_shoulder_pan_joint": 0.4620049437358166,
        "distance_wrist_1_joint": 0.23397979173529027,
        "distance_wrist_2_joint": 1.1006366930993041,
        "distance_wrist_3_joint": 0.08820088981231633,
        "smoothness": 1.3322676295501878e-15,
        "time": 0.038231475,
        "traj_len": 1.6024235871151864,
        "weighted_distance": 2.019598875272594
    },
    "planner": "RRTConnect",
    "start": {
        "state": {
            "elbow_joint": 1.971548259319323,
            "shoulder_lift_joint": -1.1394851275133948,
            "shoulder_pan_joint": 0.1228115487234821,
            "wrist_1_joint": -0.7804723859257726,
            "wrist_2_joint": 0.12958671773740124,
            "wrist_3_joint": -3.192489227718131
        }
    },
    "waypoints": [
        {
            "positions": [
                0.1228115487234821,
                -1.1394851275133948,
                1.971548259319323,
                -0.7804723859257726,
                0.12958671773740124,
                -3.192489227718131
            ]
        },
        {
            "positions": [
                0.056810842475508314,
                -1.173091165223613,
                2.0355049407748727,
                -0.8138980704593856,
                0.2868205310373018,
                -3.179889100602086
            ]
        },
        {
            "positions": [
                -0.009189863772465473,
                -1.2066972029338308,
                2.0994616222304225,
                -0.8473237549929984,
                0.44405434433720237,
                -3.1672889734860408
            ]
        },
        {
            "positions": [
                -0.07519057002043927,
                -1.2403032406440488,
                2.163418303685972,
                -0.8807494395266113,
                0.601288157637103,
                -3.1546888463699956
            ]
        },
        {
            "positions": [
                -0.14119127626841305,
                -1.2739092783542667,
                2.227374985141522,
                -0.9141751240602242,
                0.7585219709370036,
                -3.1420887192539504
            ]
        },
        {
            "positions": [
                -0.20719198251638687,
                -1.3075153160644848,
                2.2913316665970718,
                -0.9476008085938371,
                0.9157557842369042,
                -3.129488592137905
            ]
        },
        {
            "positions": [
                -0.27319268876436065,
                -1.3411213537747027,
                2.355288348052621,
                -0.9810264931274499,
                1.0729895975368047,
                -3.11688846502186
            ]
        },
        {
            "positions": [
                -0.3391933950123345,
                -1.3747273914849207,
                2.419245029508171,
                -1.0144521776610629,
                1.2302234108367054,
                -3.104288337905815
            ]
        }
    ]
}{
    "goal": {
        "global_pose": {
            "orientation": {
                "w": 0.5084816217422485,
                "x": -0.49083608388900757,
                "y": 0.5182115435600281,
                "z": -0.4816462993621826
            },
            "position": {
                "x": 0.5540239810943604,
                "y": 0.030875300988554955,
                "z": 0.16403168439865112
            }
        },
        "name": "move_to_storage_A"
    },
    "id": "RRTConnect_move_to_storage_A_135",
    "joint_names": [
        "shoulder_pan_joint",
        "shoulder_lift_joint",
        "elbow_joint",
        "wrist_1_joint",
        "wrist_2_joint",
        "wrist_3_joint"
    ],
    "metrics": {
        "cart_traj_len": 0.3532558079452001,
        "distance_elbow_joint": 0.4524304039996889,
        "distance_shoulder_lift_joint": 0.23382424711256533,
        "distance_shoulder_pan_joint": 0.4616803246465909,
        "distance_wrist_1_joint": 0.2568195337898742,
        "distance_wrist_2_joint": 1.0999315604962596,
        "distance_wrist_3_joint": 0.10282727663438784,
        "smoothness": 4.440892133664971e-16,
        "time": 0.047961451,
        "traj_len": 1.6147796588635142,
        "weighted_distance": 2.042037951222816
    },
    "planner": "RRTConnect",
    "start": {
        "state": {
            "elbow_joint": 1.97154746011099,
            "shoulder_lift_joint": -1.13948474672311,
            "shoulder_pan_joint": 0.12281154466712228,
            "wrist_1_joint": -0.7804688027058302,
            "wrist_2_joint": 0.12958655903071145,
            "wrist_3_joint": 3.0906928834467795
        }
    },
    "waypoints": [
        {
            "positions": [
                0.12281154466712228,
                -1.13948474672311,
                1.97154746011099,
                -0.7804688027058302,
                0.12958655903071145,
                3.0906928834467795
            ]
        },
        {
            "positions": [
                0.05685721257475215,
                -1.1728882105963336,
                2.0361803749680885,
                -0.8171573075329551,
                0.2867196391016057,
                3.1053824943945494
            ]
        },
        {
            "positions": [
                -0.009097119517617977,
                -1.206291674469557,
                2.1008132898251866,
                -0.85384581236008,
                0.4438527191724999,
                3.120072105342319
            ]
        },
        {
            "positions": [
                -0.07505145160998809,
                -1.2396951383427808,
                2.165446204682285,
                -0.8905343171872049,
                0.6009857992433941,
                3.1347617162900887
            ]
        },
        {
            "positions": [
                -0.14100578370235822,
                -1.2730986022160045,
                2.2300791195393836,
                -0.9272228220143297,
                0.7581188793142883,
                3.149451327237858
            ]
        },
        {
            "positions": [
                -0.2069601157947284,
                -1.3065020660892281,
                2.294712034396482,
                -0.9639113268414546,
                0.9152519593851827,
                3.164140938185628
            ]
        },
        {
            "positions": [
                -0.27291444788709845,
                -1.3399055299624516,
                2.3593449492535803,
                -1.0005998316685796,
                1.0723850394560768,
                3.1788305491333975
            ]
        },
        {
            "positions": [
                -0.3388687799794686,
                -1.3733089938356753,
                2.423977864110679,
                -1.0372883364957044,
                1.229518119526971,
                3.1935201600811673
            ]
        }
    ]
}{
    "goal": {
        "global_pose": {
            "orientation": {
                "w": 0.5084816217422485,
                "x": -0.49083608388900757,
                "y": 0.5182115435600281,
                "z": -0.4816462993621826
            },
            "position": {
                "x": 0.5540239810943604,
                "y": 0.030875300988554955,
                "z": 0.16403168439865112
            }
        },
        "name": "move_to_storage_A"
    },
    "id": "RRTConnect_move_to_storage_A_135",
    "joint_names": [
        "shoulder_pan_joint",
        "shoulder_lift_joint",
        "elbow_joint",
        "wrist_1_joint",
        "wrist_2_joint",
        "wrist_3_joint"
    ],
    "metrics": {
        "cart_traj_len": 0.3532797101748859,
        "distance_elbow_joint": 0.4483598934131323,
        "distance_shoulder_lift_joint": 0.23530804581306897,
        "distance_shoulder_pan_joint": 0.4623530223506052,
        "distance_wrist_1_joint": 0.23638670491043645,
        "distance_wrist_2_joint": 1.0976247154119414,
        "distance_wrist_3_joint": 0.09036740241534114,
        "smoothness": 8.881784197001252e-16,
        "time": 0.053187474,
        "traj_len": 1.6032466386412683,
        "weighted_distance": 2.021174413420966
    },
    "planner": "RRTConnect",
    "start": {
        "state": {
            "elbow_joint": 1.9715472970024885,
            "shoulder_lift_joint": -1.1394870060712896,
            "shoulder_pan_joint": 0.12281152778156021,
            "wrist_1_joint": -0.780463741449964,
            "wrist_2_joint": 0.12958659822042276,
            "wrist_3_joint": 3.090690232415272
        }
    },
    "waypoints": [
        {
            "positions": [
                0.12281152778156021,
                -1.1394870060712896,
                1.9715472970024885,
                -0.780463741449964,
                0.12958659822042276,
                3.090690232415272
            ]
        },
        {
            "positions": [
                0.056761096017188054,
                -1.1731024411874422,
                2.0355987103472217,
                -0.8142332707228835,
                0.2863901289935572,
                3.103599861331749
            ]
        },
        {
            "positions": [
                -0.009289335747184102,
                -1.206717876303595,
                2.099650123691955,
                -0.848002799995803,
                0.44319365976669167,
                3.1165094902482267
            ]
        },
        {
            "positions": [
                -0.07533976751155627,
                -1.2403333114197477,
                2.163701537036688,
                -0.8817723292687225,
                0.5999971905398261,
                3.129419119164704
            ]
        },
        {
            "positions": [
                -0.1413901992759284,
                -1.2739487465359005,
                2.2277529503814213,
                -0.9155418585416419,
                0.7568007213129606,
                3.142328748081181
            ]
        },
        {
            "positions": [
                -0.2074406310403006,
                -1.3075641816520531,
                2.2918043637261545,
                -0.9493113878145615,
                0.9136042520860952,
                3.155238376997658
            ]
        },
        {
            "positions": [
                -0.2734910628046727,
                -1.3411796167682057,
                2.3558557770708877,
                -0.9830809170874809,
                1.0704077828592296,
                3.168148005914136
            ]
        },
        {
            "positions": [
                -0.339541494569045,
                -1.3747950518843586,
                2.419907190415621,
                -1.0168504463604005,
                1.2272113136323641,
                3.181057634830613
            ]
        }
    ]
}