{
    "goal": {
        "global_pose": {
            "orientation": {
                "w": -0.4816463035849501,
                "x": 0.5182115481033762,
                "y": 0.4908360881923453,
                "z": -0.5084816262002911
            },
            "position": {
                "x": -0.8240239810943604,
                "y": -0.300875300988555,
                "z": 0.16403168439865112
            }
        },
        "name": "move_to_storage_C"
    },
    "id": "RRTConnect_move_to_storage_C_46",
    "joint_names": [
        "shoulder_pan_joint",
        "shoulder_lift_joint",
        "elbow_joint",
        "wrist_1_joint",
        "wrist_2_joint",
        "wrist_3_joint"
    ],
    "metrics": {
        "cart_traj_len": 0.5771838932290834,
        "distance_elbow_joint": 0.2578102261497486,
        "distance_shoulder_lift_joint": 0.18940612997432105,
        "distance_shoulder_pan_joint": 0.49576499548606145,
        "distance_wrist_1_joint": 0.07544820578546918,
        "distance_wrist_2_joint": 1.0627381227764903,
        "distance_wrist_3_joint": 0.05990859284105143,
        "smoothness": 0.0,
        "time": 0.054044367999999995,
        "traj_len": 1.4632417001347187,
        "weighted_distance": 1.8436593468580913
    },
    "planner": "RRTConnect",
    "start": {
        "state": {
            "elbow_joint": 2.010868314990456,
            "shoulder_lift_joint": -1.1634956873337592,
            "shoulder_pan_joint": -2.4736205022346125,
            "wrist_1_joint": -0.8367026794202681,
            "wrist_2_joint": 0.6746043897044499,
            "wrist_3_joint": -3.1496632123970403
        }
    },
    "waypoints": [
        {
            "positions": [
                -2.4736205022346125,
                -1.1634956873337592,
                2.010868314990456,
                -0.8367026794202681,
                0.6746043897044499,
                -3.1496632123970403
            ]
        },
        {
            "positions": [
                -2.5562480014822895,
                -1.1319279990047058,
                1.9678999439654978,
                -0.8241279784560233,
                0.8517274101671983,
                -3.139678446923532
            ]
        },
        {
            "positions": [
                -2.6388755007299665,
                -1.100360310675652,
                1.9249315729405396,
                -0.8115532774917784,
                1.0288504306299466,
                -3.129693681450023
            ]
        },
        {
            "positions": [
                -2.721502999977643,
                -1.0687926223465987,
                1.8819632019155814,
                -0.7989785765275335,
                1.205973451092695,
                -3.1197089159765143
            ]
        },
        {
            "positions": [
                -2.80413049922532,
                -1.0372249340175452,
                1.8389948308906234,
                -0.7864038755632886,
                1.3830964715554432,
                -3.109724150503006
            ]
        },
        {
            "positions": [
                -2.886757998472997,
                -1.0056572456884916,
                1.7960264598656654,
                -0.7738291745990438,
                1.560219492018192,
                -3.0997393850294976
            ]
        },
        {
            "positions": [
                -2.969385497720674,
                -0.9740895573594381,
                1.7530580888407072,
                -0.7612544736347989,
                1.73734251248094,
                -3.089754619555989
            ]
        }
    ]
}