{
    "goal": {
        "global_pose": {
            "orientation": {
                "w": -0.4816463035849501,
                "x": 0.5182115481033762,
                "y": 0.4908360881923453,
                "z": -0.5084816262002911
            },
            "position": {
                "x": -0.8240239810943604,
                "y": -0.300875300988555,
                "z": 0.16403168439865112
            }
        },
        "name": "move_to_storage_C"
    },
    "id": "RRTConnect_move_to_storage_C_27",
    "joint_names": [
        "shoulder_pan_joint",
        "shoulder_lift_joint",
        "elbow_joint",
        "wrist_1_joint",
        "wrist_2_joint",
        "wrist_3_joint"
    ],
    "metrics": {
        "cart_traj_len": 0.577378868824511,
        "distance_elbow_joint": 0.25736216800301515,
        "distance_shoulder_lift_joint": 0.18989318875154315,
        "distance_shoulder_pan_joint": 0.49637214564797727,
        "distance_wrist_1_joint": 0.07528093750798825,
        "distance_wrist_2_joint": 1.060923868062857,
        "distance_wrist_3_joint": 0.07253816423593262,
        "smoothness": 0.0,
        "time": 0.047641335,
        "traj_len": 1.467095931495045,
        "weighted_distance": 1.8530114965245152
    },
    "planner": "RRTConnect",
    "start": {
        "state": {
            "elbow_joint": 2.010868314990456,
            "shoulder_lift_joint": -1.1634956873337592,
            "shoulder_pan_joint": -2.4736205022346125,
            "wrist_1_joint": -0.8367026794202681,
            "wrist_2_joint": 0.6746043897044499,
            "wrist_3_joint": -3.1496632123970403
        }
    },
    "waypoints": [
        {
            "positions": [
                -2.4736205022346125,
                -1.1634956873337592,
                2.010868314990456,
                -0.8367026794202681,
                0.6746043897044499,
                -3.1496632123970403
            ]
        },
        {
            "positions": [
                -2.556349193175942,
                -1.1318468225418354,
                1.9679746203232866,
                -0.8241558565022701,
                0.8514250343815928,
                -3.1375735183577182
            ]
        },
        {
            "positions": [
                -2.6390778841172717,
                -1.1001979577499115,
                1.9250809256561174,
                -0.811609033584272,
                1.0282456790587355,
                -3.125483824318396
            ]
        },
        {
            "positions": [
                -2.721806575058601,
                -1.0685490929579875,
                1.8821872309889482,
                -0.7990622106662739,
                1.2050663237358785,
                -3.113394130279074
            ]
        },
        {
            "positions": [
                -2.8045352659999305,
                -1.0369002281660638,
                1.839293536321779,
                -0.7865153877482759,
                1.381886968413021,
                -3.1013044362397517
            ]
        },
        {
            "positions": [
                -2.8872639569412604,
                -1.00525136337414,
                1.7963998416546099,
                -0.7739685648302779,
                1.558707613090164,
                -3.0892147422004297
            ]
        },
        {
            "positions": [
                -2.9699926478825898,
                -0.973602498582216,
                1.7535061469874407,
                -0.7614217419122798,
                1.735528257767307,
                -3.0771250481611077
            ]
        }
    ]
}