{
    "goal": {
        "global_pose": {
            "orientation": {
                "w": 0.7047431468963623,
                "x": -0.7094548344612122,
                "y": 0.0024358443915843964,
                "z": -0.0022348060738295317
            },
            "position": {
                "x": 0.6094750761985779,
                "y": 0.3671506643295288,
                "z": 0.19426114857196808
            }
        },
        "name": "move_to_magneteinheit_A"
    },
    "id": "RRTConnect_move_to_magneteinheit_A_149",
    "joint_names": [
        "shoulder_pan_joint",
        "shoulder_lift_joint",
        "elbow_joint",
        "wrist_1_joint",
        "wrist_2_joint",
        "wrist_3_joint"
    ],
    "metrics": {
        "cart_traj_len": 3.744391193516148,
        "distance_elbow_joint": 3.990752811988764,
        "distance_shoulder_lift_joint": 0.6448787213484812,
        "distance_shoulder_pan_joint": 3.3699725802504794,
        "distance_wrist_1_joint": 0.915898446893016,
        "distance_wrist_2_joint": 1.9638996244103308,
        "distance_wrist_3_joint": 2.616316729625482,
        "smoothness": 0.24242995270988435,
        "time": 0.105226614,
        "traj_len": 3.674468521366941,
        "weighted_distance": 4.64910211170618
    },
    "planner": "RRTConnect",
    "start": {
        "state": {
            "elbow_joint": -1.9196185241190666,
            "shoulder_lift_joint": -1.2443396400964142,
            "shoulder_pan_joint": 2.6996025414629847,
            "wrist_1_joint": -1.5485510000780065,
            "wrist_2_joint": -1.5709468930060704,
            "wrist_3_joint": 0.4420197071253992
        }
    },
    "waypoints": [
        {
            "positions": [
                2.6996025414629847,
                -1.2443396400964142,
                -1.9196185241190666,
                -1.5485510000780065,
                -1.5709468930060704,
                0.4420197071253992
            ]
        },
        {
            "positions": [
                2.575114919502031,
                -1.2576082539519657,
                -1.8223497677932199,
                -1.522611985232215,
                -1.4986167748411854,
                0.48962113643536265
            ]
        },
        {
            "positions": [
                2.450627297541078,
                -1.270876867807517,
                -1.725081011467373,
                -1.4966729703864239,
                -1.4262866566763004,
                0.537222565745326
            ]
        },
        {
            "positions": [
                2.3261396755801242,
                -1.2841454816630686,
                -1.6278122551415262,
                -1.4707339555406325,
                -1.3539565385114154,
                0.5848239950552895
            ]
        },
        {
            "positions": [
                2.2016520536191706,
                -1.29741409551862,
                -1.5305434988156792,
                -1.444794940694841,
                -1.2816264203465304,
                0.632425424365253
            ]
        },
        {
            "positions": [
                2.0771644316582174,
                -1.3106827093741715,
                -1.4332747424898324,
                -1.4188559258490496,
                -1.2092963021816456,
                0.6800268536752164
            ]
        },
        {
            "positions": [
                1.9526768096972638,
                -1.323951323229723,
                -1.3360059861639857,
                -1.3929169110032582,
                -1.1369661840167606,
                0.7276282829851799
            ]
        },
        {
            "positions": [
                1.8281891877363101,
                -1.3372199370852744,
                -1.2387372298381387,
                -1.366977896157467,
                -1.0646360658518756,
                0.7752297122951433
            ]
        },
        {
            "positions": [
                1.7037015657753565,
                -1.350488550940826,
                -1.1414684735122917,
                -1.3410388813116756,
                -0.9923059476869905,
                0.8228311416051067
            ]
        },
        {
            "positions": [
                1.579213943814403,
                -1.3637571647963773,
                -1.0441997171864452,
                -1.3150998664658842,
                -0.9199758295221057,
                0.8704325709150702
            ]
        },
        {
            "positions": [
                1.4547263218534496,
                -1.3770257786519289,
                -0.9469309608605982,
                -1.289160851620093,
                -0.8476457113572207,
                0.9180340002250336
            ]
        },
        {
            "positions": [
                1.330238699892496,
                -1.3902943925074804,
                -0.8496622045347513,
                -1.2632218367743016,
                -0.7753155931923357,
                0.9656354295349971
            ]
        },
        {
            "positions": [
                1.2057510779315426,
                -1.4035630063630318,
                -0.7523934482089045,
                -1.2372828219285101,
                -0.7029854750274508,
                1.0132368588449605
            ]
        },
        {
            "positions": [
                1.0812634559705891,
                -1.4168316202185833,
                -0.6551246918830578,
                -1.2113438070827187,
                -0.6306553568625657,
                1.0608382881549239
            ]
        },
        {
            "positions": [
                0.9567758340096357,
                -1.4301002340741347,
                -0.557855935557211,
                -1.1854047922369273,
                -0.5583252386976809,
                1.1084397174648872
            ]
        },
        {
            "positions": [
                0.8322882120486821,
                -1.4433688479296862,
                -0.46058717923136405,
                -1.159465777391136,
                -0.4859951205327959,
                1.1560411467748508
            ]
        },
        {
            "positions": [
                0.7078005900877284,
                -1.4566374617852378,
                -0.3633184229055171,
                -1.1335267625453447,
                -0.4136650023679107,
                1.2036425760848144
            ]
        },
        {
            "positions": [
                0.583312968126775,
                -1.4699060756407891,
                -0.26604966657967033,
                -1.1075877476995533,
                -0.34133488420302593,
                1.2512440053947778
            ]
        },
        {
            "positions": [
                0.4588253461658214,
                -1.4831746894963407,
                -0.16878091025382358,
                -1.081648732853762,
                -0.26900476603814094,
                1.2988454347047411
            ]
        },
        {
            "positions": [
                0.3343377242048682,
                -1.496443303351892,
                -0.07151215392797683,
                -1.0557097180079706,
                -0.19667464787325595,
                1.3464468640147045
            ]
        },
        {
            "positions": [
                0.20985010224391473,
                -1.5097119172074436,
                0.025756602397870088,
                -1.0297707031621792,
                -0.12434452970837086,
                1.394048293324668
            ]
        },
        {
            "positions": [
                0.16954869844672438,
                -1.4784344673762093,
                0.19196154878168475,
                -1.0348747174495596,
                -0.1349586719522787,
                1.5188611104666863
            ]
        },
        {
            "positions": [
                0.12924729464953402,
                -1.447157017544975,
                0.3581664951654994,
                -1.03997873173694,
                -0.14557281419618653,
                1.6436739276087042
            ]
        },
        {
            "positions": [
                0.08894589085234367,
                -1.4158795677137408,
                0.5243714415493141,
                -1.0450827460243206,
                -0.15618695644009437,
                1.7684867447507224
            ]
        },
        {
            "positions": [
                0.04864448705515331,
                -1.3846021178825063,
                0.6905763879331288,
                -1.050186760311701,
                -0.1668010986840022,
                1.8932995618927406
            ]
        },
        {
            "positions": [
                0.008343083257962958,
                -1.353324668051272,
                0.8567813343169435,
                -1.0552907745990814,
                -0.17741524092791006,
                2.0181123790347586
            ]
        },
        {
            "positions": [
                -0.0319583205392274,
                -1.3220472182200378,
                1.0229862807007581,
                -1.060394788886462,
                -0.1880293831718179,
                2.142925196176777
            ]
        },
        {
            "positions": [
                -0.07225972433641778,
                -1.2907697683888035,
                1.1891912270845728,
                -1.0654988031738424,
                -0.19864352541572572,
                2.267738013318795
            ]
        },
        {
            "positions": [
                -0.11256112813360811,
                -1.2594923185575693,
                1.3553961734683875,
                -1.0706028174612228,
                -0.20925766765963355,
                2.392550830460813
            ]
        },
        {
            "positions": [
                -0.1528625319307985,
                -1.2282148687263348,
                1.5216011198522021,
                -1.0757068317486032,
                -0.21987180990354138,
                2.5173636476028314
            ]
        },
        {
            "positions": [
                -0.19316393572798882,
                -1.1969374188951005,
                1.6878060662360168,
                -1.0808108460359835,
                -0.2304859521474492,
                2.64217646474485
            ]
        },
        {
            "positions": [
                -0.23346533952517914,
                -1.1656599690638663,
                1.8540110126198315,
                -1.0859148603233642,
                -0.24110009439135704,
                2.7669892818868673
            ]
        },
        {
            "positions": [
                -0.27376674332236955,
                -1.134382519232632,
                2.020215959003646,
                -1.0910188746107445,
                -0.2517142366352649,
                2.8918020990288857
            ]
        },
        {
            "positions": [
                -0.17461591945608806,
                -1.135426780798292,
                2.007486376787133,
                -1.0070513799785887,
                -0.15423234808883066,
                2.9334356834593844
            ]
        },
        {
            "positions": [
                -0.0754650955898066,
                -1.1364710423639521,
                1.9947567945706197,
                -0.9230838853464328,
                -0.056750459542396436,
                2.9750692678898836
            ]
        },
        {
            "positions": [
                0.02368572827647486,
                -1.1375153039296122,
                1.9820272123541065,
                -0.8391163907142769,
                0.040731429004037756,
                3.0167028523203827
            ]
        },
        {
            "positions": [
                0.12283655214275635,
                -1.1385595654952723,
                1.9692976301375933,
                -0.7551488960821211,
                0.13821331755047203,
                3.0583364367508814
            ]
        }
    ]
}