{
    "goal": {
        "global_pose": {
            "orientation": {
                "w": 0.5084816262002911,
                "x": -0.4908360881923452,
                "y": 0.5182115481033761,
                "z": -0.48164630358495003
            },
            "position": {
                "x": 0.5540239810943604,
                "y": -0.46912469901144505,
                "z": 0.16403168439865112
            }
        },
        "name": "move_to_storage_B"
    },
    "id": "RRTConnect_move_to_storage_B_35",
    "joint_names": [
        "shoulder_pan_joint",
        "shoulder_lift_joint",
        "elbow_joint",
        "wrist_1_joint",
        "wrist_2_joint",
        "wrist_3_joint"
    ],
    "metrics": {
        "cart_traj_len": 3.091585444596805,
        "distance_elbow_joint": 0.35318425239926077,
        "distance_shoulder_lift_joint": 2.2446321096127297,
        "distance_shoulder_pan_joint": 2.974861744610123,
        "distance_wrist_1_joint": 2.992294771091432,
        "distance_wrist_2_joint": 2.7115658902211237,
        "distance_wrist_3_joint": 3.1409062771711316,
        "smoothness": 0.2798073811403812,
        "time": 0.095628934,
        "traj_len": 3.7970310829786214,
        "weighted_distance": 5.138396467844869
    },
    "planner": "RRTConnect",
    "start": {
        "state": {
            "elbow_joint": 1.664937868594044,
            "shoulder_lift_joint": -0.661644460510453,
            "shoulder_pan_joint": -0.9139846352900073,
            "wrist_1_joint": 2.146753192139373,
            "wrist_2_joint": -2.2341966793290973,
            "wrist_3_joint": 0.005466555786416001
        }
    },
    "waypoints": [
        {
            "positions": [
                -0.9139846352900073,
                -0.661644460510453,
                1.664937868594044,
                2.146753192139373,
                -2.2341966793290973,
                0.005466555786416001
            ]
        },
        {
            "positions": [
                -0.8474579398172423,
                -0.7260416849674526,
                1.6668860270653267,
                2.1002935701906416,
                -2.123640118704214,
                0.10834157208164974
            ]
        },
        {
            "positions": [
                -0.7809312443444772,
                -0.7904389094244522,
                1.6688341855366096,
                2.0538339482419103,
                -2.0130835580793307,
                0.21121658837688348
            ]
        },
        {
            "positions": [
                -0.7144045488717123,
                -0.8548361338814516,
                1.6707823440078924,
                2.0073743262931787,
                -1.9025269974544476,
                0.3140916046721172
            ]
        },
        {
            "positions": [
                -0.6478778533989473,
                -0.9192333583384512,
                1.6727305024791752,
                1.9609147043444475,
                -1.7919704368295644,
                0.416966620967351
            ]
        },
        {
            "positions": [
                -0.5813511579261823,
                -0.9836305827954508,
                1.674678660950458,
                1.914455082395716,
                -1.681413876204681,
                0.5198416372625847
            ]
        },
        {
            "positions": [
                -0.5148244624534173,
                -1.0480278072524503,
                1.6766268194217409,
                1.8679954604469846,
                -1.570857315579798,
                0.6227166535578184
            ]
        },
        {
            "positions": [
                -0.44829776698065227,
                -1.1124250317094497,
                1.6785749778930237,
                1.8215358384982532,
                -1.4603007549549147,
                0.7255916698530521
            ]
        },
        {
            "positions": [
                -0.38177107150788725,
                -1.1768222561664494,
                1.6805231363643065,
                1.7750762165495217,
                -1.3497441943300315,
                0.8284666861482859
            ]
        },
        {
            "positions": [
                -0.31524437603512223,
                -1.2412194806234491,
                1.6824712948355893,
                1.7286165946007903,
                -1.2391876337051482,
                0.9313417024435195
            ]
        },
        {
            "positions": [
                -0.2487176805623572,
                -1.3056167050804484,
                1.6844194533068721,
                1.6821569726520589,
                -1.128631073080265,
                1.0342167187387534
            ]
        },
        {
            "positions": [
                -0.1821909850895922,
                -1.370013929537448,
                1.686367611778155,
                1.6356973507033272,
                -1.0180745124553816,
                1.137091735033987
            ]
        },
        {
            "positions": [
                -0.11566428961682729,
                -1.4344111539944477,
                1.6883157702494378,
                1.589237728754596,
                -0.9075179518304985,
                1.2399667513292207
            ]
        },
        {
            "positions": [
                -0.04913759414406216,
                -1.4988083784514472,
                1.6902639287207206,
                1.5427781068058644,
                -0.796961391205615,
                1.3428417676244546
            ]
        },
        {
            "positions": [
                0.01738910132870275,
                -1.5632056029084467,
                1.6922120871920034,
                1.4963184848571331,
                -0.686404830580732,
                1.4457167839196883
            ]
        },
        {
            "positions": [
                0.08391579680146788,
                -1.6276028273654464,
                1.6941602456632863,
                1.4498588629084015,
                -0.5758482699558487,
                1.5485918002149222
            ]
        },
        {
            "positions": [
                0.1504424922742328,
                -1.6920000518224458,
                1.696108404134569,
                1.4033992409596703,
                -0.4652917093309654,
                1.6514668165101558
            ]
        },
        {
            "positions": [
                0.2169691877469978,
                -1.7563972762794455,
                1.698056562605852,
                1.3569396190109386,
                -0.35473514870608214,
                1.7543418328053897
            ]
        },
        {
            "positions": [
                0.2834958832197628,
                -1.820794500736445,
                1.7000047210771347,
                1.3104799970622074,
                -0.24417858808119908,
                1.8572168491006231
            ]
        },
        {
            "positions": [
                0.35002257869252784,
                -1.8851917251934445,
                1.7019528795484176,
                1.2640203751134758,
                -0.1336220274563158,
                1.960091865395857
            ]
        },
        {
            "positions": [
                0.41654927416529286,
                -1.949588949650444,
                1.7039010380197004,
                1.2175607531647445,
                -0.023065466831432513,
                2.062966881691091
            ]
        },
        {
            "positions": [
                0.4830759696380578,
                -2.0139861741074436,
                1.7058491964909832,
                1.171101131216013,
                0.08749109379345091,
                2.1658418979863248
            ]
        },
        {
            "positions": [
                0.38446339840792926,
                -1.95821802435646,
                1.7253662542723782,
                1.0450609618305085,
                0.11185847611211186,
                2.227125081422026
            ]
        },
        {
            "positions": [
                0.2858508271778007,
                -1.9024498746054763,
                1.7448833120537734,
                0.9190207924450038,
                0.13622585843077284,
                2.2884082648577277
            ]
        },
        {
            "positions": [
                0.18723825594767213,
                -1.8466817248544924,
                1.7644003698351685,
                0.7929806230594992,
                0.1605932407494338,
                2.349691448293429
            ]
        },
        {
            "positions": [
                0.08862568471754356,
                -1.7909135751035088,
                1.7839174276165637,
                0.6669404536739947,
                0.18496062306809474,
                2.4109746317291307
            ]
        },
        {
            "positions": [
                -0.009986886512585003,
                -1.7351454253525251,
                1.8034344853979587,
                0.5409002842884901,
                0.2093280053867557,
                2.472257815164832
            ]
        },
        {
            "positions": [
                -0.10859945774271357,
                -1.6793772756015413,
                1.8229515431793537,
                0.4148601149029856,
                0.23369538770541667,
                2.5335409986005333
            ]
        },
        {
            "positions": [
                -0.20721202897284213,
                -1.6236091258505576,
                1.842468600960749,
                0.288819945517481,
                0.2580627700240776,
                2.594824182036235
            ]
        },
        {
            "positions": [
                -0.3058246002029707,
                -1.567840976099574,
                1.861985658742144,
                0.16277977613197647,
                0.2824301523427386,
                2.6561073654719363
            ]
        },
        {
            "positions": [
                -0.40443717143309926,
                -1.5120728263485903,
                1.881502716523539,
                0.03673960674647203,
                0.30679753466139953,
                2.7173905489076375
            ]
        },
        {
            "positions": [
                -0.5030497426632279,
                -1.4563046765976067,
                1.9010197743049342,
                -0.08930056263903263,
                0.33116491698006045,
                2.7786737323433393
            ]
        },
        {
            "positions": [
                -0.6016623138933563,
                -1.4005365268466228,
                1.9205368320863292,
                -0.2153407320245373,
                0.35553229929872143,
                2.8399569157790405
            ]
        },
        {
            "positions": [
                -0.700274885123485,
                -1.3447683770956391,
                1.9400538898677242,
                -0.34138090141004174,
                0.3798996816173824,
                2.901240099214742
            ]
        },
        {
            "positions": [
                -0.7988874563536137,
                -1.2890002273446555,
                1.9595709476491194,
                -0.4674210707955462,
                0.4042670639360434,
                2.9625232826504435
            ]
        },
        {
            "positions": [
                -0.8975000275837421,
                -1.2332320775936716,
                1.9790880054305144,
                -0.5934612401810508,
                0.42863444625470437,
                3.023806466086145
            ]
        },
        {
            "positions": [
                -0.9961125988138706,
                -1.177463927842688,
                1.9986050632119094,
                -0.7195014095665555,
                0.45300182857336524,
                3.085089649521846
            ]
        },
        {
            "positions": [
                -1.0947251700439993,
                -1.1216957780917043,
                2.0181221209933047,
                -0.8455415789520598,
                0.4773692108920262,
                3.1463728329575478
            ]
        }
    ]
}