{
    "goal": {
        "global_pose": {
            "orientation": {
                "w": -0.00223480608172531,
                "x": 0.0024358444001904467,
                "y": 0.7094548369677653,
                "z": -0.704743149386269
            },
            "position": {
                "x": 0.6205249238014221,
                "y": -0.6371506643295288,
                "z": 0.19426114857196808
            }
        },
        "name": "move_to_magneteinheit_B"
    },
    "id": "RRTConnect_move_to_magneteinheit_B_19",
    "joint_names": [
        "shoulder_pan_joint",
        "shoulder_lift_joint",
        "elbow_joint",
        "wrist_1_joint",
        "wrist_2_joint",
        "wrist_3_joint"
    ],
    "metrics": {
        "cart_traj_len": 1.4860229951496213,
        "distance_elbow_joint": 0.9559353084034259,
        "distance_shoulder_lift_joint": 1.0972976864756023,
        "distance_shoulder_pan_joint": 1.6218592692390232,
        "distance_wrist_1_joint": 0.3411080505816457,
        "distance_wrist_2_joint": 1.5164800213553205,
        "distance_wrist_3_joint": 0.8138330100211085,
        "smoothness": 0.5306101415371662,
        "time": 0.099091028,
        "traj_len": 2.5192287204769888,
        "weighted_distance": 3.1355649312452947
    },
    "planner": "RRTConnect",
    "start": {
        "state": {
            "elbow_joint": 2.6216224122426386,
            "shoulder_lift_joint": -1.4174107377796124,
            "shoulder_pan_joint": 0.7066234856936794,
            "wrist_1_joint": 1.9546482284002225,
            "wrist_2_joint": -0.7096286983471962,
            "wrist_3_joint": 0.005740856962016249
        }
    },
    "waypoints": [
        {
            "positions": [
                0.7066234856936794,
                -1.4174107377796124,
                2.6216224122426386,
                1.9546482284002225,
                -0.7096286983471962,
                0.005740856962016249
            ]
        },
        {
            "positions": [
                0.610227318910045,
                -1.4745061023391088,
                2.611813448341097,
                1.9296741344412225,
                -0.7528382778798496,
                -0.12955583783411137
            ]
        },
        {
            "positions": [
                0.5138311521264107,
                -1.5316014668986055,
                2.6020044844395547,
                1.9047000404822225,
                -0.7960478574125031,
                -0.264852532630239
            ]
        },
        {
            "positions": [
                0.4174349853427763,
                -1.588696831458102,
                2.592195520538013,
                1.8797259465232226,
                -0.8392574369451564,
                -0.40014922742636666
            ]
        },
        {
            "positions": [
                0.322244216136482,
                -1.5225531462583082,
                2.52601634791667,
                1.8987392157164116,
                -0.9383182428563964,
                -0.3710104470240291
            ]
        },
        {
            "positions": [
                0.2270534469301877,
                -1.4564094610585145,
                2.459837175295327,
                1.9177524849096006,
                -1.0373790487676364,
                -0.34187166662169155
            ]
        },
        {
            "positions": [
                0.13186267772389337,
                -1.3902657758587207,
                2.3936580026739844,
                1.9367657541027896,
                -1.1364398546788765,
                -0.31273288621935397
            ]
        },
        {
            "positions": [
                0.036671908517599106,
                -1.324122090658927,
                2.3274788300526414,
                1.9557790232959784,
                -1.2355006605901164,
                -0.2835941058170164
            ]
        },
        {
            "positions": [
                -0.05851886068869527,
                -1.2579784054591332,
                2.2612996574312985,
                1.9747922924891674,
                -1.3345614665013565,
                -0.25445532541467886
            ]
        },
        {
            "positions": [
                -0.15370962989498954,
                -1.1918347202593393,
                2.195120484809956,
                1.9938055616823565,
                -1.4336222724125967,
                -0.2253165450123413
            ]
        },
        {
            "positions": [
                -0.24890039910128386,
                -1.1256910350595457,
                2.128941312188613,
                2.0128188308755455,
                -1.5326830783238365,
                -0.19617776461000372
            ]
        },
        {
            "positions": [
                -0.3440911683075781,
                -1.0595473498597519,
                2.06276213956727,
                2.0318321000687343,
                -1.6317438842350764,
                -0.16703898420766616
            ]
        },
        {
            "positions": [
                -0.4392819375138725,
                -0.993403664659958,
                1.996582966945927,
                2.0508453692619235,
                -1.7308046901463165,
                -0.13790020380532858
            ]
        },
        {
            "positions": [
                -0.5344727067201669,
                -0.9272599794601643,
                1.9304037943245842,
                2.0698586384551123,
                -1.8298654960575567,
                -0.108761423402991
            ]
        },
        {
            "positions": [
                -0.629663475926461,
                -0.8611162942603705,
                1.8642246217032414,
                2.0888719076483016,
                -1.9289263019687966,
                -0.07962264300065347
            ]
        },
        {
            "positions": [
                -0.7248542451327553,
                -0.7949726090605768,
                1.7980454490818985,
                2.1078851768414903,
                -2.027987107880037,
                -0.05048386259831594
            ]
        },
        {
            "positions": [
                -0.8200450143390496,
                -0.7288289238607829,
                1.7318662764605555,
                2.1268984460346796,
                -2.1270479137912766,
                -0.021345082195978304
            ]
        },
        {
            "positions": [
                -0.9152357835453441,
                -0.6626852386609892,
                1.6656871038392127,
                2.1459117152278684,
                -2.2261087197025167,
                0.007793698206359215
            ]
        }
    ]
}