{
    "goal": {
        "global_pose": {
            "orientation": {
                "w": -0.00223480608172531,
                "x": 0.0024358444001904467,
                "y": 0.7094548369677653,
                "z": -0.704743149386269
            },
            "position": {
                "x": -0.37947507619857795,
                "y": -0.6371506643295288,
                "z": 0.19426114857196808
            }
        },
        "name": "move_to_magneteinheit_C"
    },
    "id": "RRTConnect_move_to_magneteinheit_C_38",
    "joint_names": [
        "shoulder_pan_joint",
        "shoulder_lift_joint",
        "elbow_joint",
        "wrist_1_joint",
        "wrist_2_joint",
        "wrist_3_joint"
    ],
    "metrics": {
        "cart_traj_len": 2.5839504323075295,
        "distance_elbow_joint": 1.1932994601654676,
        "distance_shoulder_lift_joint": 0.8512623459979143,
        "distance_shoulder_pan_joint": 2.8900016898183396,
        "distance_wrist_1_joint": 0.46677865927599616,
        "distance_wrist_2_joint": 0.8116948305779269,
        "distance_wrist_3_joint": 0.6070202990023077,
        "smoothness": 1.3431918141395667,
        "time": 0.37852868100000003,
        "traj_len": 2.6115239391661627,
        "weighted_distance": 3.0516505980692634
    },
    "planner": "RRTConnect",
    "start": {
        "state": {
            "elbow_joint": 1.9565354010623817,
            "shoulder_lift_joint": -1.4165861575791021,
            "shoulder_pan_joint": -1.6717766225146293,
            "wrist_1_joint": -0.5286633292919765,
            "wrist_2_joint": 1.472756589071564,
            "wrist_3_joint": -3.1238370188695823
        }
    },
    "waypoints": [
        {
            "positions": [
                -1.6717766225146293,
                -1.4165861575791021,
                1.9565354010623817,
                -0.5286633292919765,
                1.472756589071564,
                -3.1238370188695823
            ]
        },
        {
            "positions": [
                -1.5284425110923718,
                -1.4579674330509298,
                1.8896408121907542,
                -0.5589130159771067,
                1.473997186459999,
                -3.0993101672348384
            ]
        },
        {
            "positions": [
                -1.3851083996701141,
                -1.4993487085227577,
                1.8227462233191267,
                -0.589162702662237,
                1.475237783848434,
                -3.074783315600094
            ]
        },
        {
            "positions": [
                -1.2417742882478566,
                -1.5407299839945854,
                1.755851634447499,
                -0.6194123893473673,
                1.4764783812368691,
                -3.0502564639653498
            ]
        },
        {
            "positions": [
                -1.0984401768255991,
                -1.582111259466413,
                1.6889570455758716,
                -0.6496620760324976,
                1.4777189786253042,
                -3.025729612330606
            ]
        },
        {
            "positions": [
                -0.980577161325748,
                -1.615790910770103,
                1.6183836153775721,
                -0.6800235310056777,
                1.479465245121089,
                -2.9790550737885475
            ]
        },
        {
            "positions": [
                -0.8627141458258969,
                -1.6494705620737926,
                1.547810185179273,
                -0.7103849859788577,
                1.481211511616874,
                -2.9323805352464887
            ]
        },
        {
            "positions": [
                -0.7448511303260457,
                -1.6831502133774823,
                1.4772367549809735,
                -0.7407464409520377,
                1.482957778112659,
                -2.88570599670443
            ]
        },
        {
            "positions": [
                -0.6269881148261945,
                -1.7168298646811722,
                1.406663324782674,
                -0.7711078959252178,
                1.4847040446084439,
                -2.8390314581623715
            ]
        },
        {
            "positions": [
                -0.776953309609035,
                -1.6785706407103151,
                1.481569208088161,
                -0.761801147701536,
                1.4011666978773392,
                -2.837612983896464
            ]
        },
        {
            "positions": [
                -0.9269185043918754,
                -1.6403114167394581,
                1.556475091393648,
                -0.752494399477854,
                1.3176293511462345,
                -2.8361945096305563
            ]
        },
        {
            "positions": [
                -1.076883699174716,
                -1.6020521927686013,
                1.6313809746991352,
                -0.7431876512541722,
                1.23409200441513,
                -2.8347760353646487
            ]
        },
        {
            "positions": [
                -1.2268488939575564,
                -1.5637929687977443,
                1.7062868580046222,
                -0.7338809030304903,
                1.1505546576840253,
                -2.833357561098741
            ]
        },
        {
            "positions": [
                -1.3768140887403968,
                -1.5255337448268873,
                1.7811927413101092,
                -0.7245741548068084,
                1.0670173109529206,
                -2.831939086832833
            ]
        },
        {
            "positions": [
                -1.5267792835232372,
                -1.4872745208560305,
                1.8560986246155964,
                -0.7152674065831266,
                0.9834799642218159,
                -2.8305206125669256
            ]
        },
        {
            "positions": [
                -1.6767444783060776,
                -1.4490152968851735,
                1.9310045079210834,
                -0.7059606583594447,
                0.8999426174907114,
                -2.829102138301018
            ]
        },
        {
            "positions": [
                -1.826709673088918,
                -1.4107560729143165,
                2.0059103912265703,
                -0.6966539101357628,
                0.8164052707596067,
                -2.8276836640351104
            ]
        },
        {
            "positions": [
                -1.9817494087857537,
                -1.3536268264680849,
                2.0190065425374795,
                -0.7265043629747154,
                0.778676227890476,
                -2.9154483131715025
            ]
        },
        {
            "positions": [
                -2.1367891444825893,
                -1.296497580021853,
                2.0321026938483886,
                -0.7563548158136681,
                0.7409471850213454,
                -3.0032129623078943
            ]
        },
        {
            "positions": [
                -2.3044952207193443,
                -1.2311544029035906,
                2.023108686438366,
                -0.8014444164013654,
                0.7129519272943712,
                -3.07088178525542
            ]
        },
        {
            "positions": [
                -2.4722012969561,
                -1.165811225785328,
                2.014114679028343,
                -0.8465340169890627,
                0.6849566695673969,
                -3.138550608202946
            ]
        }
    ]
}