{
    "goal": {
        "global_pose": {
            "orientation": {
                "w": 0.005598929693374612,
                "x": 0.007748599140229565,
                "y": 0.7110244013736278,
                "z": -0.7031023480610252
            },
            "position": {
                "x": 0.1141497679147869,
                "y": -0.7141253447532654,
                "z": 0.3711530566215515
            }
        },
        "name": "move_to_auspresseinheit_B"
    },
    "id": "RRTConnect_move_to_auspresseinheit_B_70",
    "joint_names": [
        "shoulder_pan_joint",
        "shoulder_lift_joint",
        "elbow_joint",
        "wrist_1_joint",
        "wrist_2_joint",
        "wrist_3_joint"
    ],
    "metrics": {
        "cart_traj_len": 0.5640385447404558,
        "distance_elbow_joint": 0.05983485881870498,
        "distance_shoulder_lift_joint": 0.2955654916560422,
        "distance_shoulder_pan_joint": 0.5735214989301733,
        "distance_wrist_1_joint": 0.31602874129459313,
        "distance_wrist_2_joint": 1.0085985187673525,
        "distance_wrist_3_joint": 0.0035926514363482376,
        "smoothness": 0.0,
        "time": 0.045358997,
        "traj_len": 1.5023787008950886,
        "weighted_distance": 1.8944535686677193
    },
    "planner": "RRTConnect",
    "start": {
        "state": {
            "elbow_joint": 2.0193083361928714,
            "shoulder_lift_joint": -1.1220246554650708,
            "shoulder_pan_joint": -1.0952077554168747,
            "wrist_1_joint": -0.8559753972642168,
            "wrist_2_joint": 0.4759566250798843,
            "wrist_3_joint": -3.1240929996934557
        }
    },
    "waypoints": [
        {
            "positions": [
                -1.0952077554168747,
                -1.1220246554650708,
                2.0193083361928714,
                -0.8559753972642168,
                0.4759566250798843,
                -3.1240929996934557
            ]
        },
        {
            "positions": [
                -1.190794671905237,
                -1.1712855707410779,
                2.0093358597230875,
                -0.8033039403817845,
                0.6440563782077764,
                -3.123494224454064
            ]
        },
        {
            "positions": [
                -1.2863815883935992,
                -1.220546486017085,
                1.999363383253303,
                -0.7506324834993524,
                0.8121561313356684,
                -3.1228954492146728
            ]
        },
        {
            "positions": [
                -1.3819685048819612,
                -1.2698074012930918,
                1.989390906783519,
                -0.6979610266169203,
                0.9802558844635605,
                -3.1222966739752813
            ]
        },
        {
            "positions": [
                -1.4775554213703235,
                -1.3190683165690988,
                1.9794184303137348,
                -0.645289569734488,
                1.1483556375914525,
                -3.1216978987358903
            ]
        },
        {
            "positions": [
                -1.5731423378586857,
                -1.368329231845106,
                1.9694459538439506,
                -0.5926181128520558,
                1.3164553907193448,
                -3.121099123496499
            ]
        },
        {
            "positions": [
                -1.668729254347048,
                -1.417590147121113,
                1.9594734773741664,
                -0.5399466559696237,
                1.4845551438472369,
                -3.1205003482571074
            ]
        }
    ]
}