{
    "goal": {
        "global_pose": {
            "orientation": {
                "w": 0.005598929693374612,
                "x": 0.007748599140229565,
                "y": 0.7110244013736278,
                "z": -0.7031023480610252
            },
            "position": {
                "x": -0.8858502320852131,
                "y": -0.7141253447532654,
                "z": 0.3711530566215515
            }
        },
        "name": "move_to_auspresseinheit_C"
    },
    "id": "RRTConnect_move_to_auspresseinheit_C_52",
    "joint_names": [
        "shoulder_pan_joint",
        "shoulder_lift_joint",
        "elbow_joint",
        "wrist_1_joint",
        "wrist_2_joint",
        "wrist_3_joint"
    ],
    "metrics": {
        "cart_traj_len": 0.4926867667214539,
        "distance_elbow_joint": 0.9937353915307019,
        "distance_shoulder_lift_joint": 0.3209971113526374,
        "distance_shoulder_pan_joint": 0.2564421370301617,
        "distance_wrist_1_joint": 0.6725925171704626,
        "distance_wrist_2_joint": 1.3056113545988461,
        "distance_wrist_3_joint": 0.05036439112406832,
        "smoothness": 4.844609574787718e-16,
        "time": 0.133376348,
        "traj_len": 1.8972988438321672,
        "weighted_distance": 2.38299717935719
    },
    "planner": "RRTConnect",
    "start": {
        "state": {
            "elbow_joint": 1.7527959577737207,
            "shoulder_lift_joint": -0.9740617694225068,
            "shoulder_pan_joint": -2.967991417825858,
            "wrist_1_joint": -0.759517768980727,
            "wrist_2_joint": 1.7443932448377408,
            "wrist_3_joint": -3.0840537646736568
        }
    },
    "waypoints": [
        {
            "positions": [
                -2.967991417825858,
                -0.9740617694225068,
                1.7527959577737207,
                -0.759517768980727,
                1.7443932448377408,
                -3.0840537646736568
            ]
        },
        {
            "positions": [
                -2.942347204122842,
                -0.941962058287243,
                1.6534224186206505,
                -0.6922585172636807,
                1.6138321093778563,
                -3.0890902037860637
            ]
        },
        {
            "positions": [
                -2.9167029904198256,
                -0.9098623471519793,
                1.5540488794675802,
                -0.6249992655466344,
                1.4832709739179717,
                -3.0941266428984706
            ]
        },
        {
            "positions": [
                -2.891058776716809,
                -0.8777626360167156,
                1.45467534031451,
                -0.5577400138295882,
                1.352709838458087,
                -3.099163082010877
            ]
        },
        {
            "positions": [
                -2.8654145630137933,
                -0.8456629248814518,
                1.35530180116144,
                -0.49048076211254193,
                1.2221487029982023,
                -3.104199521123284
            ]
        },
        {
            "positions": [
                -2.8397703493107773,
                -0.8135632137461881,
                1.2559282620083696,
                -0.42322151039549566,
                1.0915875675383178,
                -3.109235960235691
            ]
        },
        {
            "positions": [
                -2.814126135607761,
                -0.7814635026109243,
                1.1565547228552995,
                -0.3559622586784494,
                0.9610264320784332,
                -3.114272399348098
            ]
        },
        {
            "positions": [
                -2.7884819219047445,
                -0.7493637914756606,
                1.0571811837022294,
                -0.28870300696140316,
                0.8304652966185486,
                -3.1193088384605048
            ]
        },
        {
            "positions": [
                -2.7628377082017286,
                -0.7172640803403969,
                0.9578076445491591,
                -0.2214437552443569,
                0.6999041611586638,
                -3.1243452775729113
            ]
        },
        {
            "positions": [
                -2.7371934944987126,
                -0.685164369205133,
                0.8584341053960889,
                -0.1541845035273106,
                0.5693430256987793,
                -3.129381716685318
            ]
        },
        {
            "positions": [
                -2.7115492807956962,
                -0.6530646580698694,
                0.7590605662430188,
                -0.08692525181026434,
                0.43878189023889463,
                -3.134418155797725
            ]
        }
    ]
}