{
    "goal": {
        "global_pose": {
            "orientation": {
                "w": -0.4816463035849501,
                "x": 0.5182115481033762,
                "y": 0.4908360881923453,
                "z": -0.5084816262002911
            },
            "position": {
                "x": -0.8240239810943604,
                "y": -0.300875300988555,
                "z": 0.16403168439865112
            }
        },
        "name": "move_to_storage_C"
    },
    "id": "RRTConnect_move_to_storage_C_37",
    "joint_names": [
        "shoulder_pan_joint",
        "shoulder_lift_joint",
        "elbow_joint",
        "wrist_1_joint",
        "wrist_2_joint",
        "wrist_3_joint"
    ],
    "metrics": {
        "cart_traj_len": 0.5769364423109024,
        "distance_elbow_joint": 0.2598933158971253,
        "distance_shoulder_lift_joint": 0.19133490605266612,
        "distance_shoulder_pan_joint": 0.49293922882874064,
        "distance_wrist_1_joint": 0.07967718353455178,
        "distance_wrist_2_joint": 1.0798956261841832,
        "distance_wrist_3_joint": 0.07026695565674856,
        "smoothness": 2.5376526478085547e-16,
        "time": 0.070735854,
        "traj_len": 1.47445149671124,
        "weighted_distance": 1.863897512522147
    },
    "planner": "RRTConnect",
    "start": {
        "state": {
            "elbow_joint": 2.010868314990456,
            "shoulder_lift_joint": -1.1634956873337592,
            "shoulder_pan_joint": -2.4736205022346125,
            "wrist_1_joint": -0.8367026794202681,
            "wrist_2_joint": 0.6746043897044499,
            "wrist_3_joint": -3.1496632123970403
        }
    },
    "waypoints": [
        {
            "positions": [
                -2.4736205022346125,
                -1.1634956873337592,
                2.010868314990456,
                -0.8367026794202681,
                0.6746043897044499,
                -3.1496632123970403
            ]
        },
        {
            "positions": [
                -2.555777040372736,
                -1.1316065363249814,
                1.967552762340935,
                -0.8234231488311762,
                0.8545869940684805,
                -3.1379520531209155
            ]
        },
        {
            "positions": [
                -2.6379335785108595,
                -1.0997173853162039,
                1.924237209691414,
                -0.8101436182420841,
                1.034569598432511,
                -3.1262408938447908
            ]
        },
        {
            "positions": [
                -2.720090116648983,
                -1.0678282343074261,
                1.8809216570418932,
                -0.7968640876529922,
                1.2145522027965416,
                -3.114529734568666
            ]
        },
        {
            "positions": [
                -2.802246654787106,
                -1.0359390832986484,
                1.8376061043923724,
                -0.7835845570639003,
                1.3945348071605719,
                -3.1028185752925412
            ]
        },
        {
            "positions": [
                -2.88440319292523,
                -1.0040499322898708,
                1.7942905517428513,
                -0.7703050264748083,
                1.5745174115246026,
                -3.0911074160164165
            ]
        },
        {
            "positions": [
                -2.966559731063353,
                -0.9721607812810931,
                1.7509749990933305,
                -0.7570254958857163,
                1.7545000158886332,
                -3.0793962567402917
            ]
        }
    ]
}