{
    "goal": {
        "global_pose": {
            "orientation": {
                "w": 0.7047431468963623,
                "x": -0.7094548344612122,
                "y": 0.0024358443915843964,
                "z": -0.0022348060738295317
            },
            "position": {
                "x": 0.6094750761985779,
                "y": 0.3671506643295288,
                "z": 0.19426114857196808
            }
        },
        "name": "move_to_magneteinheit_A"
    },
    "id": "RRTConnect_move_to_magneteinheit_A_142",
    "joint_names": [
        "shoulder_pan_joint",
        "shoulder_lift_joint",
        "elbow_joint",
        "wrist_1_joint",
        "wrist_2_joint",
        "wrist_3_joint"
    ],
    "metrics": {
        "cart_traj_len": 3.1104212314419057,
        "distance_elbow_joint": 4.1103508251129615,
        "distance_shoulder_lift_joint": 1.1951748112175724,
        "distance_shoulder_pan_joint": 2.6231507593412013,
        "distance_wrist_1_joint": 2.327402630437682,
        "distance_wrist_2_joint": 3.6371785592670194,
        "distance_wrist_3_joint": 2.5723830452394605,
        "smoothness": 0.23838919804524938,
        "time": 0.080003968,
        "traj_len": 4.057787652233158,
        "weighted_distance": 5.251189190154885
    },
    "planner": "RRTConnect",
    "start": {
        "state": {
            "elbow_joint": -1.9196185241190666,
            "shoulder_lift_joint": -1.2443396400964142,
            "shoulder_pan_joint": 2.6996025414629847,
            "wrist_1_joint": -1.5485510000780065,
            "wrist_2_joint": -1.5709468930060704,
            "wrist_3_joint": 0.4420197071253992
        }
    },
    "waypoints": [
        {
            "positions": [
                2.6996025414629847,
                -1.2443396400964142,
                -1.9196185241190666,
                -1.5485510000780065,
                -1.5709468930060704,
                0.4420197071253992
            ]
        },
        {
            "positions": [
                2.624998054855995,
                -1.2607124620189913,
                -1.802693272091188,
                -1.5004532422793595,
                -1.4900747778098677,
                0.4959087743237349
            ]
        },
        {
            "positions": [
                2.5503935682490058,
                -1.2770852839415685,
                -1.6857680200633094,
                -1.4523554844807127,
                -1.4092026626136651,
                0.5497978415220708
            ]
        },
        {
            "positions": [
                2.475789081642016,
                -1.2934581058641457,
                -1.5688427680354307,
                -1.4042577266820657,
                -1.3283305474174623,
                0.6036869087204065
            ]
        },
        {
            "positions": [
                2.4011845950350263,
                -1.3098309277867228,
                -1.4519175160075521,
                -1.3561599688834187,
                -1.2474584322212596,
                0.6575759759187423
            ]
        },
        {
            "positions": [
                2.326580108428037,
                -1.3262037497092998,
                -1.3349922639796734,
                -1.308062211084772,
                -1.166586317025057,
                0.711465043117078
            ]
        },
        {
            "positions": [
                2.2519756218210474,
                -1.342576571631877,
                -1.2180670119517947,
                -1.259964453286125,
                -1.0857142018288544,
                0.7653541103154138
            ]
        },
        {
            "positions": [
                2.1773711352140577,
                -1.358949393554454,
                -1.1011417599239162,
                -1.2118666954874782,
                -1.0048420866326517,
                0.8192431775137496
            ]
        },
        {
            "positions": [
                2.1027666486070684,
                -1.3753222154770313,
                -0.9842165078960375,
                -1.1637689376888312,
                -0.923969971436449,
                0.8731322447120854
            ]
        },
        {
            "positions": [
                2.0281621620000787,
                -1.3916950373996084,
                -0.8672912558681589,
                -1.1156711798901844,
                -0.8430978562402464,
                0.9270213119104211
            ]
        },
        {
            "positions": [
                1.953557675393089,
                -1.4080678593221856,
                -0.7503660038402802,
                -1.0675734220915374,
                -0.7622257410440436,
                0.9809103791087569
            ]
        },
        {
            "positions": [
                1.8789531887860995,
                -1.4244406812447628,
                -0.6334407518124017,
                -1.0194756642928904,
                -0.681353625847841,
                1.0347994463070926
            ]
        },
        {
            "positions": [
                1.8043487021791098,
                -1.44081350316734,
                -0.5165154997845229,
                -0.9713779064942435,
                -0.6004815106516382,
                1.0886885135054285
            ]
        },
        {
            "positions": [
                1.7297442155721203,
                -1.4571863250899169,
                -0.3995902477566444,
                -0.9232801486955966,
                -0.5196093954554357,
                1.1425775807037641
            ]
        },
        {
            "positions": [
                1.6551397289651306,
                -1.473559147012494,
                -0.2826649957287657,
                -0.8751823908969497,
                -0.43873728025923286,
                1.1964666479021
            ]
        },
        {
            "positions": [
                1.5805352423581411,
                -1.4899319689350712,
                -0.16573974370088718,
                -0.8270846330983028,
                -0.35786516506303023,
                1.2503557151004356
            ]
        },
        {
            "positions": [
                1.5059307557511517,
                -1.5063047908576483,
                -0.04881449167300844,
                -0.7789868752996558,
                -0.2769930498668276,
                1.3042447822987717
            ]
        },
        {
            "positions": [
                1.431326269144162,
                -1.5226776127802255,
                0.06811076035487029,
                -0.730889117501009,
                -0.19612093467062497,
                1.3581338494971074
            ]
        },
        {
            "positions": [
                1.3567217825371725,
                -1.5390504347028027,
                0.1850360123827488,
                -0.6827913597023622,
                -0.11524881947442234,
                1.412022916695443
            ]
        },
        {
            "positions": [
                1.2821172959301828,
                -1.5554232566253798,
                0.30196126441062754,
                -0.634693601903715,
                -0.03437670427821948,
                1.465911983893779
            ]
        },
        {
            "positions": [
                1.2075128093231933,
                -1.571796078547957,
                0.4188865164385063,
                -0.5865958441050683,
                0.04649541091798315,
                1.5198010510921147
            ]
        },
        {
            "positions": [
                1.1329083227162038,
                -1.5881689004705342,
                0.5358117684663846,
                -0.5384980863064213,
                0.12736752611418578,
                1.5736901182904504
            ]
        },
        {
            "positions": [
                1.0583038361092143,
                -1.604541722393111,
                0.6527370204942633,
                -0.4904003285077745,
                0.2082396413103884,
                1.627579185488786
            ]
        },
        {
            "positions": [
                0.9836993495022244,
                -1.6209145443156883,
                0.7696622725221425,
                -0.4423025707091275,
                0.28911175650659127,
                1.681468252687122
            ]
        },
        {
            "positions": [
                0.9090948628952349,
                -1.6372873662382654,
                0.8865875245500208,
                -0.3942048129104805,
                0.3699838717027939,
                1.7353573198854577
            ]
        },
        {
            "positions": [
                0.8344903762882454,
                -1.6536601881608426,
                1.0035127765778995,
                -0.3461070551118337,
                0.4508559868989963,
                1.7892463870837934
            ]
        },
        {
            "positions": [
                0.7598858896812559,
                -1.6700330100834198,
                1.1204380286057778,
                -0.2980092973131867,
                0.5317281020951989,
                1.843135454282129
            ]
        },
        {
            "positions": [
                0.6852814030742662,
                -1.686405832005997,
                1.237363280633657,
                -0.2499115395145397,
                0.612600217291402,
                1.897024521480465
            ]
        },
        {
            "positions": [
                0.6106769164672765,
                -1.702778653928574,
                1.3542885326615353,
                -0.20181378171589293,
                0.6934723324876046,
                1.9509135886788007
            ]
        },
        {
            "positions": [
                0.5360724298602872,
                -1.719151475851151,
                1.471213784689414,
                -0.15371602391724593,
                0.7743444476838073,
                2.004802655877137
            ]
        },
        {
            "positions": [
                0.46146794325329754,
                -1.7355242977737282,
                1.5881390367172923,
                -0.10561826611859915,
                0.8552165628800099,
                2.0586917230754724
            ]
        },
        {
            "positions": [
                0.38686345664630784,
                -1.7518971196963053,
                1.7050642887451715,
                -0.057520508319952146,
                0.9360886780762125,
                2.112580790273808
            ]
        },
        {
            "positions": [
                0.3122589700393186,
                -1.7682699416188825,
                1.8219895407730498,
                -0.009422750521305145,
                1.0169607932724152,
                2.166469857472144
            ]
        },
        {
            "positions": [
                0.23765448343232906,
                -1.7846427635414597,
                1.9389147928009285,
                0.03867500727734155,
                1.097832908468618,
                2.22035892467048
            ]
        },
        {
            "positions": [
                0.2140003594468543,
                -1.761151948633613,
                1.9691713842431162,
                0.019232903300247302,
                1.0774644422298332,
                2.2677911757309306
            ]
        },
        {
            "positions": [
                0.19103656358642415,
                -1.7018904671499715,
                1.9898817791262762,
                -0.043737044239643925,
                0.99920966821655,
                2.3524106325329788
            ]
        },
        {
            "positions": [
                0.16807276772599403,
                -1.6426289856663303,
                2.010592174009436,
                -0.10670699177953516,
                0.9209548942032668,
                2.4370300893350274
            ]
        },
        {
            "positions": [
                0.14510897186556387,
                -1.583367504182689,
                2.031302568892596,
                -0.16967693931942637,
                0.8427001201899835,
                2.5216495461370756
            ]
        },
        {
            "positions": [
                0.12214517600513373,
                -1.5241060226990477,
                2.052012963775756,
                -0.23264688685931761,
                0.7644453461767003,
                2.6062690029391242
            ]
        },
        {
            "positions": [
                0.0991813801447036,
                -1.4648445412154063,
                2.0727233586589158,
                -0.2956168343992088,
                0.6861905721634172,
                2.6908884597411724
            ]
        },
        {
            "positions": [
                0.10372729974928725,
                -1.3978298481261116,
                2.0491215701919203,
                -0.3767937906803652,
                0.5748392878659909,
                2.75559131826591
            ]
        },
        {
            "positions": [
                0.10827321935387091,
                -1.3308151550368168,
                2.025519781724925,
                -0.4579707469615217,
                0.4634880035685648,
                2.8202941767906475
            ]
        },
        {
            "positions": [
                0.11281913895845457,
                -1.2638004619475223,
                2.001917993257929,
                -0.5391477032426781,
                0.35213671927113865,
                2.8849970353153847
            ]
        },
        {
            "positions": [
                0.11736505856303822,
                -1.1967857688582275,
                1.9783162047909335,
                -0.6203246595238345,
                0.2407854349737124,
                2.949699893840122
            ]
        },
        {
            "positions": [
                0.12191097816762188,
                -1.1297710757689328,
                1.954714416323938,
                -0.7015016158049909,
                0.1294341506762863,
                3.0144027523648598
            ]
        }
    ]
}