{
    "goal": {
        "global_pose": {
            "orientation": {
                "w": 0.7047431493862688,
                "x": -0.7094548369677653,
                "y": 0.0024358444001904,
                "z": -0.0022348060817251984
            },
            "position": {
                "x": -0.39052492380142206,
                "y": 0.3671506643295288,
                "z": 0.19426114857196808
            }
        },
        "name": "move_to_magneteinheit_D"
    },
    "id": "RRTConnect_move_to_magneteinheit_D_142",
    "joint_names": [
        "shoulder_pan_joint",
        "shoulder_lift_joint",
        "elbow_joint",
        "wrist_1_joint",
        "wrist_2_joint",
        "wrist_3_joint"
    ],
    "metrics": {
        "cart_traj_len": 11.493780694300401,
        "distance_elbow_joint": 8.689861795158642,
        "distance_shoulder_lift_joint": 5.606088753482192,
        "distance_shoulder_pan_joint": 8.983876860556167,
        "distance_wrist_1_joint": 7.105591608496556,
        "distance_wrist_2_joint": 7.020436887657456,
        "distance_wrist_3_joint": 3.2600125066477217,
        "smoothness": 0.5019395491552501,
        "time": 0.32283629199999997,
        "traj_len": 6.37697956810266,
        "weighted_distance": 7.830192968340452
    },
    "planner": "RRTConnect",
    "start": {
        "state": {
            "elbow_joint": 0.749534889911806,
            "shoulder_lift_joint": -0.6476975780787326,
            "shoulder_pan_joint": -2.711696901376241,
            "wrist_1_joint": -0.07506478083263063,
            "wrist_2_joint": 0.43296659715538205,
            "wrist_3_joint": -3.14703540197715
        }
    },
    "waypoints": [
        {
            "positions": [
                -2.711696901376241,
                -0.6476975780787326,
                0.749534889911806,
                -0.07506478083263063,
                0.43296659715538205,
                -3.14703540197715
            ]
        },
        {
            "positions": [
                -2.7033923738028762,
                -0.7213754084911909,
                0.8261167029898651,
                0.03618881334294373,
                0.4327767000676154,
                -3.0512920165496533
            ]
        },
        {
            "positions": [
                -2.6950878462295114,
                -0.7950532389036491,
                0.9026985160679241,
                0.1474424075185181,
                0.4325868029798488,
                -2.955548631122157
            ]
        },
        {
            "positions": [
                -2.6867833186561465,
                -0.8687310693161074,
                0.9792803291459831,
                0.25869600169409246,
                0.43239690589208224,
                -2.8598052456946603
            ]
        },
        {
            "positions": [
                -2.6784787910827816,
                -0.9424088997285657,
                1.0558621422240422,
                0.3699495958696668,
                0.4322070088043156,
                -2.764061860267164
            ]
        },
        {
            "positions": [
                -2.670174263509417,
                -1.0160867301410241,
                1.1324439553021013,
                0.4812031900452412,
                0.432017111716549,
                -2.6683184748396673
            ]
        },
        {
            "positions": [
                -2.661869735936052,
                -1.0897645605534823,
                1.2090257683801604,
                0.5924567842208155,
                0.4318272146287824,
                -2.572575089412171
            ]
        },
        {
            "positions": [
                -2.653565208362687,
                -1.1634423909659404,
                1.2856075814582195,
                0.7037103783963901,
                0.4316373175410158,
                -2.4768317039846743
            ]
        },
        {
            "positions": [
                -2.645260680789322,
                -1.2371202213783987,
                1.3621893945362784,
                0.8149639725719642,
                0.4314474204532492,
                -2.381088318557178
            ]
        },
        {
            "positions": [
                -2.6369561532159573,
                -1.310798051790857,
                1.4387712076143375,
                0.9262175667475387,
                0.43125752336548256,
                -2.2853449331296813
            ]
        },
        {
            "positions": [
                -2.4171752482892996,
                -1.3436125728359516,
                1.5022872108282441,
                0.9251191667710454,
                0.3898762092130825,
                -2.256772982883908
            ]
        },
        {
            "positions": [
                -2.197394343362642,
                -1.3764270938810463,
                1.565803214042151,
                0.9240207667945521,
                0.3484948950606825,
                -2.2282010326381343
            ]
        },
        {
            "positions": [
                -1.9776134384359842,
                -1.4092416149261409,
                1.6293192172560578,
                0.9229223668180588,
                0.30711358090828245,
                -2.1996290823923608
            ]
        },
        {
            "positions": [
                -1.7578325335093263,
                -1.4420561359712356,
                1.6928352204699644,
                0.9218239668415655,
                0.26573226675588235,
                -2.1710571321465872
            ]
        },
        {
            "positions": [
                -1.5380516285826686,
                -1.4748706570163301,
                1.756351223683871,
                0.9207255668650722,
                0.22435095260348234,
                -2.142485181900814
            ]
        },
        {
            "positions": [
                -1.318270723656011,
                -1.5076851780614247,
                1.8198672268977778,
                0.9196271668885789,
                0.1829696384510823,
                -2.1139132316550406
            ]
        },
        {
            "positions": [
                -1.0984898187293533,
                -1.5404996991065194,
                1.8833832301116844,
                0.9185287669120856,
                0.1415883242986823,
                -2.085341281409267
            ]
        },
        {
            "positions": [
                -0.8787089138026953,
                -1.573314220151614,
                1.9468992333255912,
                0.9174303669355923,
                0.1002070101462822,
                -2.0567693311634936
            ]
        },
        {
            "positions": [
                -0.6589280088760376,
                -1.6061287411967087,
                2.010415236539498,
                0.916331966959099,
                0.058825695993882154,
                -2.02819738091772
            ]
        },
        {
            "positions": [
                -0.43914710394937984,
                -1.6389432622418032,
                2.0739312397534047,
                0.9152335669826057,
                0.017444381841482125,
                -1.9996254306719465
            ]
        },
        {
            "positions": [
                -0.418773565495004,
                -1.677960117430561,
                1.8770026066749999,
                0.9569010557433671,
                0.008289972949503264,
                -1.9259523888007217
            ]
        },
        {
            "positions": [
                -0.3984000270406281,
                -1.7169769726193187,
                1.680073973596595,
                0.9985685445041286,
                -0.0008644359424755978,
                -1.8522793469294967
            ]
        },
        {
            "positions": [
                -0.37802648858625226,
                -1.7559938278080764,
                1.4831453405181902,
                1.0402360332648901,
                -0.01001884483445446,
                -1.7786063050582719
            ]
        },
        {
            "positions": [
                -0.35765295013187637,
                -1.7950106829968342,
                1.2862167074397854,
                1.0819035220256517,
                -0.01917325372643332,
                -1.7049332631870469
            ]
        },
        {
            "positions": [
                -0.33727941167750053,
                -1.8340275381855917,
                1.0892880743613806,
                1.123571010786413,
                -0.028327662618412183,
                -1.631260221315822
            ]
        },
        {
            "positions": [
                -0.3169058732231247,
                -1.8730443933743495,
                0.8923594412829758,
                1.1652384995471745,
                -0.03748207151039104,
                -1.557587179444597
            ]
        },
        {
            "positions": [
                -0.2965323347687488,
                -1.9120612485631072,
                0.695430808204571,
                1.2069059883079358,
                -0.046636480402369895,
                -1.4839141375733722
            ]
        },
        {
            "positions": [
                -0.27615879631437296,
                -1.951078103751865,
                0.49850217512616624,
                1.2485734770686974,
                -0.055790889294348764,
                -1.4102410957021472
            ]
        },
        {
            "positions": [
                -0.25578525785999706,
                -1.9900949589406227,
                0.30157354204776143,
                1.290240965829459,
                -0.06494529818632762,
                -1.3365680538309224
            ]
        },
        {
            "positions": [
                -0.23541171940562122,
                -2.0291118141293802,
                0.10464490896935663,
                1.3319084545902202,
                -0.07409970707830649,
                -1.2628950119596976
            ]
        },
        {
            "positions": [
                -0.21503818095124533,
                -2.0681286693181384,
                -0.09228372410904839,
                1.3735759433509818,
                -0.08325411597028536,
                -1.1892219700884725
            ]
        },
        {
            "positions": [
                -0.1946646424968695,
                -2.1071455245068957,
                -0.289212357187453,
                1.415243432111743,
                -0.09240852486226421,
                -1.1155489282172475
            ]
        },
        {
            "positions": [
                -0.1742911040424936,
                -2.1461623796956535,
                -0.486140990265858,
                1.4569109208725046,
                -0.10156293375424308,
                -1.0418758863460225
            ]
        },
        {
            "positions": [
                -0.15391756558811776,
                -2.1851792348844112,
                -0.6830696233442626,
                1.4985784096332662,
                -0.11071734264622192,
                -0.9682028444747979
            ]
        },
        {
            "positions": [
                -0.13354402713374192,
                -2.224196090073169,
                -0.8799982564226676,
                1.5402458983940277,
                -0.1198717515382008,
                -0.8945298026035728
            ]
        },
        {
            "positions": [
                -0.11317048867936608,
                -2.2632129452619267,
                -1.0769268895010722,
                1.581913387154789,
                -0.12902616043017967,
                -0.820856760732348
            ]
        },
        {
            "positions": [
                -0.09279695022499018,
                -2.3022298004506845,
                -1.2738555225794772,
                1.6235808759155506,
                -0.13818056932215855,
                -0.747183718861123
            ]
        },
        {
            "positions": [
                -0.07242341177061434,
                -2.3412466556394422,
                -1.4707841556578818,
                1.6652483646763119,
                -0.14733497821413738,
                -0.6735106769898982
            ]
        },
        {
            "positions": [
                -0.05204987331623845,
                -2.3802635108282,
                -1.6677127887362868,
                1.7069158534370734,
                -0.15648938710611626,
                -0.5998376351186733
            ]
        },
        {
            "positions": [
                0.039026069370264,
                -2.321848528221146,
                -1.6248019119491808,
                1.626285542070794,
                -0.0570993048426736,
                -0.580819146199227
            ]
        },
        {
            "positions": [
                0.13010201205676644,
                -2.263433545614092,
                -1.581891035162075,
                1.5456552307045146,
                0.04229077742076906,
                -0.5618006572797807
            ]
        },
        {
            "positions": [
                0.2211779547432689,
                -2.2050185630070382,
                -1.538980158374969,
                1.465024919338235,
                0.14168085968421174,
                -0.5427821683603344
            ]
        },
        {
            "positions": [
                0.31225389742977133,
                -2.1466035803999843,
                -1.496069281587863,
                1.3843946079719556,
                0.24107094194765438,
                -0.5237636794408882
            ]
        },
        {
            "positions": [
                0.40332984011627376,
                -2.08818859779293,
                -1.453158404800757,
                1.3037642966056762,
                0.34046102421109703,
                -0.504745190521442
            ]
        },
        {
            "positions": [
                0.49440578280277625,
                -2.029773615185876,
                -1.410247528013651,
                1.2231339852393965,
                0.43985110647453973,
                -0.48572670160199566
            ]
        },
        {
            "positions": [
                0.5854817254892787,
                -1.9713586325788222,
                -1.367336651226545,
                1.1425036738731174,
                0.5392411887379823,
                -0.46670821268254936
            ]
        },
        {
            "positions": [
                0.6765576681757811,
                -1.9129436499717682,
                -1.3244257744394392,
                1.0618733625068377,
                0.638631271001425,
                -0.4476897237631031
            ]
        },
        {
            "positions": [
                0.7676336108622835,
                -1.8545286673647143,
                -1.2815148976523332,
                0.9812430511405583,
                0.7380213532648676,
                -0.4286712348436568
            ]
        },
        {
            "positions": [
                0.858709553548786,
                -1.7961136847576604,
                -1.2386040208652274,
                0.9006127397742788,
                0.8374114355283103,
                -0.4096527459242105
            ]
        },
        {
            "positions": [
                0.9497854962352885,
                -1.7376987021506065,
                -1.1956931440781213,
                0.8199824284079993,
                0.9368015177917529,
                -0.3906342570047643
            ]
        },
        {
            "positions": [
                1.040861438921791,
                -1.6792837195435524,
                -1.1527822672910153,
                0.7393521170417199,
                1.0361916000551958,
                -0.37161576808531804
            ]
        },
        {
            "positions": [
                1.1319373816082932,
                -1.6208687369364985,
                -1.1098713905039095,
                0.6587218056754405,
                1.1355816823186382,
                -0.3525972791658718
            ]
        },
        {
            "positions": [
                1.2230133242947958,
                -1.5624537543294446,
                -1.0669605137168034,
                0.5780914943091611,
                1.234971764582081,
                -0.3335787902464255
            ]
        },
        {
            "positions": [
                1.3140892669812982,
                -1.5040387717223904,
                -1.0240496369296976,
                0.49746118294288166,
                1.3343618468455234,
                -0.3145603013269792
            ]
        },
        {
            "positions": [
                1.4051652096678007,
                -1.4456237891153365,
                -0.9811387601425915,
                0.41683087157660204,
                1.4337519291089662,
                -0.29554181240753297
            ]
        },
        {
            "positions": [
                1.496241152354303,
                -1.3872088065082826,
                -0.9382278833554856,
                0.33620056021032263,
                1.533142011372409,
                -0.27652332348808667
            ]
        },
        {
            "positions": [
                1.5873170950408055,
                -1.3287938239012287,
                -0.8953170065683796,
                0.2555702488440432,
                1.6325320936358514,
                -0.2575048345686404
            ]
        },
        {
            "positions": [
                1.678393037727308,
                -1.2703788412941746,
                -0.8524061297812736,
                0.1749399374777636,
                1.7319221758992942,
                -0.23848634564919413
            ]
        },
        {
            "positions": [
                1.7694689804138104,
                -1.2119638586871206,
                -0.8094952529941677,
                0.09430962611148419,
                1.831312258162737,
                -0.21946785672974783
            ]
        },
        {
            "positions": [
                1.860544923100313,
                -1.1535488760800667,
                -0.7665843762070617,
                0.013679314745204785,
                1.9307023404261798,
                -0.2004493678103016
            ]
        },
        {
            "positions": [
                1.9516208657868155,
                -1.0951338934730128,
                -0.7236734994199557,
                -0.06695099662107484,
                2.030092422689622,
                -0.1814308788908553
            ]
        },
        {
            "positions": [
                2.042696808473318,
                -1.0367189108659587,
                -0.6807626226328498,
                -0.14758130798735425,
                2.129482504953065,
                -0.162412389971409
            ]
        },
        {
            "positions": [
                2.13377275115982,
                -0.9783039282589048,
                -0.6378517458457438,
                -0.22821161935363365,
                2.228872587216508,
                -0.14339390105196276
            ]
        },
        {
            "positions": [
                2.2248486938463232,
                -0.9198889456518509,
                -0.5949408690586377,
                -0.3088419307199133,
                2.3282626694799506,
                -0.12437541213251646
            ]
        },
        {
            "positions": [
                2.3159246365328245,
                -0.861473963044797,
                -0.5520299922715322,
                -0.38947224208619247,
                2.4276527517433926,
                -0.10535692321307027
            ]
        },
        {
            "positions": [
                2.4070005792193276,
                -0.803058980437743,
                -0.5091191154844261,
                -0.47010255345247165,
                2.5270428340068354,
                -0.08633843429362398
            ]
        },
        {
            "positions": [
                2.49807652190583,
                -0.7446439978306891,
                -0.4662082386973201,
                -0.5507328648187513,
                2.626432916270278,
                -0.06731994537417774
            ]
        },
        {
            "positions": [
                2.589152464592332,
                -0.686229015223635,
                -0.42329736191021405,
                -0.6313631761850309,
                2.725822998533721,
                -0.048301456454731495
            ]
        },
        {
            "positions": [
                2.680228407278835,
                -0.6278140326165811,
                -0.38038648512310824,
                -0.7119934875513101,
                2.8252130807971634,
                -0.029282967535285143
            ]
        },
        {
            "positions": [
                2.7713043499653374,
                -0.5693990500095272,
                -0.3374756083360022,
                -0.7926237989175897,
                2.924603163060606,
                -0.010264478615838901
            ]
        },
        {
            "positions": [
                2.8623802926518396,
                -0.5109840674024733,
                -0.2945647315488962,
                -0.8732541102838693,
                3.023993245324049,
                0.00875401030360734
            ]
        },
        {
            "positions": [
                2.953456235338342,
                -0.45256908479541913,
                -0.25165385476179036,
                -0.9538844216501485,
                3.1233833275874914,
                0.027772499223053693
            ]
        },
        {
            "positions": [
                3.044532178024845,
                -0.3941541021883652,
                -0.20874297797468433,
                -1.0345147330164282,
                3.222773409850934,
                0.046790988142499934
            ]
        },
        {
            "positions": [
                2.946724669504994,
                -0.45134844800936197,
                -0.27434454179485857,
                -0.9569325394332925,
                3.1302971035952094,
                0.044785348247709654
            ]
        },
        {
            "positions": [
                2.848917160985143,
                -0.5085427938303587,
                -0.33994610561503286,
                -0.8793503458501568,
                3.0378207973394846,
                0.042779708352919374
            ]
        },
        {
            "positions": [
                2.751109652465292,
                -0.5657371396513554,
                -0.40554766943520715,
                -0.8017681522670211,
                2.9453444910837603,
                0.0407740684581291
            ]
        },
        {
            "positions": [
                2.653302143945441,
                -0.6229314854723522,
                -0.4711492332553814,
                -0.7241859586838855,
                2.8528681848280355,
                0.03876842856333882
            ]
        },
        {
            "positions": [
                2.55549463542559,
                -0.6801258312933489,
                -0.5367507970755556,
                -0.6466037651007498,
                2.7603918785723107,
                0.03676278866854854
            ]
        },
        {
            "positions": [
                2.457687126905739,
                -0.7373201771143456,
                -0.60235236089573,
                -0.5690215715176141,
                2.667915572316586,
                0.03475714877375827
            ]
        },
        {
            "positions": [
                2.359879618385888,
                -0.7945145229353423,
                -0.6679539247159041,
                -0.49143937793447845,
                2.5754392660608616,
                0.03275150887896799
            ]
        },
        {
            "positions": [
                2.262072109866037,
                -0.8517088687563391,
                -0.7335554885360784,
                -0.4138571843513428,
                2.482962959805137,
                0.030745868984177707
            ]
        },
        {
            "positions": [
                2.1642646013461864,
                -0.9089032145773358,
                -0.7991570523562527,
                -0.3362749907682071,
                2.390486653549412,
                0.02874022908938743
            ]
        },
        {
            "positions": [
                2.0664570928263353,
                -0.9660975603983326,
                -0.8647586161764269,
                -0.25869279718507143,
                2.2980103472936872,
                0.02673458919459715
            ]
        },
        {
            "positions": [
                1.9686495843064844,
                -1.0232919062193293,
                -0.9303601799966011,
                -0.18111060360193576,
                2.2055340410379625,
                0.024728949299806874
            ]
        },
        {
            "positions": [
                1.8708420757866333,
                -1.080486252040326,
                -0.9959617438167755,
                -0.10352841001879998,
                2.113057734782238,
                0.022723309405016594
            ]
        },
        {
            "positions": [
                1.7730345672667824,
                -1.1376805978613227,
                -1.0615633076369497,
                -0.025946216435664304,
                2.0205814285265133,
                0.020717669510226317
            ]
        },
        {
            "positions": [
                1.6752270587469313,
                -1.1948749436823194,
                -1.1271648714571239,
                0.05163597714747126,
                1.9281051222707886,
                0.018712029615436037
            ]
        },
        {
            "positions": [
                1.5774195502270805,
                -1.252069289503316,
                -1.1927664352772982,
                0.12921817073060704,
                1.835628816015064,
                0.01670638972064576
            ]
        },
        {
            "positions": [
                1.4796120417072296,
                -1.309263635324313,
                -1.2583679990974725,
                0.2068003643137426,
                1.7431525097593392,
                0.01470074982585548
            ]
        },
        {
            "positions": [
                1.3818045331873785,
                -1.3664579811453097,
                -1.3239695629176467,
                0.2843825578968784,
                1.6506762035036144,
                0.012695109931065207
            ]
        },
        {
            "positions": [
                1.2839970246675276,
                -1.4236523269663064,
                -1.389571126737821,
                0.36196475148001395,
                1.5581998972478899,
                0.010689470036274927
            ]
        },
        {
            "positions": [
                1.1861895161476765,
                -1.4808466727873033,
                -1.4551726905579954,
                0.43954694506314973,
                1.4657235909921649,
                0.008683830141484647
            ]
        },
        {
            "positions": [
                1.0883820076278257,
                -1.5380410186083,
                -1.5207742543781695,
                0.5171291386462853,
                1.3732472847364403,
                0.006678190246694367
            ]
        },
        {
            "positions": [
                0.9905744991079746,
                -1.5952353644292967,
                -1.5863758181983438,
                0.5947113322294211,
                1.2807709784807157,
                0.004672550351904094
            ]
        },
        {
            "positions": [
                0.8927669905881239,
                -1.6524297102502934,
                -1.651977382018518,
                0.6722935258125566,
                1.1882946722249912,
                0.0026669104571138136
            ]
        },
        {
            "positions": [
                0.7949594820682728,
                -1.7096240560712903,
                -1.7175789458386923,
                0.7498757193956924,
                1.0958183659692664,
                0.0006612705623235335
            ]
        },
        {
            "positions": [
                0.6971519735484217,
                -1.766818401892287,
                -1.7831805096588667,
                0.8274579129788282,
                1.0033420597135416,
                -0.0013443693324667466
            ]
        },
        {
            "positions": [
                0.5993444650285711,
                -1.8240127477132835,
                -1.8487820734790408,
                0.9050401065619638,
                0.9108657534578168,
                -0.0033500092272570198
            ]
        },
        {
            "positions": [
                0.50153695650872,
                -1.8812070935342802,
                -1.914383637299215,
                0.9826223001450995,
                0.8183894472020925,
                -0.0053556491220473
            ]
        },
        {
            "positions": [
                0.4037294479888689,
                -1.938401439355277,
                -1.9799852011193895,
                1.0602044937282353,
                0.7259131409463673,
                -0.00736128901683758
            ]
        },
        {
            "positions": [
                0.3059219394690178,
                -1.9955957851762738,
                -2.0455867649395634,
                1.1377866873113707,
                0.6334368346906429,
                -0.00936692891162786
            ]
        },
        {
            "positions": [
                0.20811443094916715,
                -2.0527901309972707,
                -2.111188328759738,
                1.2153688808945065,
                0.5409605284349182,
                -0.011372568806418133
            ]
        },
        {
            "positions": [
                0.11030692242931606,
                -2.1099844768182674,
                -2.176789892579912,
                1.2929510744776422,
                0.4484842221791938,
                -0.013378208701208413
            ]
        },
        {
            "positions": [
                0.012499413909464963,
                -2.167178822639264,
                -2.2423914564000866,
                1.370533268060778,
                0.3560079159234686,
                -0.015383848595998693
            ]
        },
        {
            "positions": [
                -0.08530809461038569,
                -2.224373168460261,
                -2.3079930202202608,
                1.4481154616439134,
                0.26353160966774425,
                -0.017389488490788974
            ]
        },
        {
            "positions": [
                -0.1831156031302366,
                -2.2815675142812575,
                -2.373594584040435,
                1.5256976552270491,
                0.17105530341201958,
                -0.01939512838557924
            ]
        }
    ]
}