{
    "goal": {
        "global_pose": {
            "orientation": {
                "w": -0.00223480608172531,
                "x": 0.0024358444001904467,
                "y": 0.7094548369677653,
                "z": -0.704743149386269
            },
            "position": {
                "x": 0.6205249238014221,
                "y": -0.6371506643295288,
                "z": 0.19426114857196808
            }
        },
        "name": "move_to_magneteinheit_B"
    },
    "id": "RRTConnect_move_to_magneteinheit_B_121",
    "joint_names": [
        "shoulder_pan_joint",
        "shoulder_lift_joint",
        "elbow_joint",
        "wrist_1_joint",
        "wrist_2_joint",
        "wrist_3_joint"
    ],
    "metrics": {
        "cart_traj_len": 3.593301519499999,
        "distance_elbow_joint": 4.940574055977942,
        "distance_shoulder_lift_joint": 1.0997776210396415,
        "distance_shoulder_pan_joint": 2.8444074696107804,
        "distance_wrist_1_joint": 2.6990151585084075,
        "distance_wrist_2_joint": 1.6949735417804785,
        "distance_wrist_3_joint": 1.5928943245213474,
        "smoothness": 0.5243335128683013,
        "time": 0.382160794,
        "traj_len": 3.856376819170891,
        "weighted_distance": 4.738292890986181
    },
    "planner": "RRTConnect",
    "start": {
        "state": {
            "elbow_joint": 2.6216224122426386,
            "shoulder_lift_joint": -1.4174107377796124,
            "shoulder_pan_joint": 0.7066234856936794,
            "wrist_1_joint": 1.9546482284002225,
            "wrist_2_joint": -0.7096286983471962,
            "wrist_3_joint": 0.005740856962016249
        }
    },
    "waypoints": [
        {
            "positions": [
                0.7066234856936794,
                -1.4174107377796124,
                2.6216224122426386,
                1.9546482284002225,
                -0.7096286983471962,
                0.005740856962016249
            ]
        },
        {
            "positions": [
                0.6033460181788421,
                -1.4438881106181765,
                2.598514579661396,
                2.04233782692534,
                -0.6375811916835659,
                0.03096686593233399
            ]
        },
        {
            "positions": [
                0.500068550664005,
                -1.4703654834567406,
                2.5754067470801534,
                2.130027425450457,
                -0.5655336850199354,
                0.05619287490265173
            ]
        },
        {
            "positions": [
                0.3967910831491678,
                -1.496842856295305,
                2.552298914498911,
                2.217717023975575,
                -0.493486178356305,
                0.08141888387296947
            ]
        },
        {
            "positions": [
                0.29351361563433054,
                -1.523320229133869,
                2.5291910819176686,
                2.3054066225006924,
                -0.42143867169267457,
                0.10664489284328721
            ]
        },
        {
            "positions": [
                0.34469836207147275,
                -1.5265619437290123,
                2.3536401746904265,
                2.2254467189932283,
                -0.3763698134454638,
                0.13750084026964796
            ]
        },
        {
            "positions": [
                0.3958831085086149,
                -1.5298036583241557,
                2.1780892674631844,
                2.1454868154857643,
                -0.3313009551982529,
                0.1683567876960087
            ]
        },
        {
            "positions": [
                0.44706785494575707,
                -1.5330453729192992,
                2.002538360235943,
                2.0655269119782997,
                -0.2862320969510421,
                0.19921273512236945
            ]
        },
        {
            "positions": [
                0.4982526013828993,
                -1.5362870875144425,
                1.8269874530087007,
                1.9855670084708357,
                -0.2411632387038313,
                0.2300686825487302
            ]
        },
        {
            "positions": [
                0.5494373478200414,
                -1.5395288021095859,
                1.6514365457814586,
                1.9056071049633716,
                -0.19609438045662048,
                0.2609246299750909
            ]
        },
        {
            "positions": [
                0.6006220942571836,
                -1.5427705167047292,
                1.4758856385542165,
                1.8256472014559075,
                -0.15102552220940968,
                0.2917805774014517
            ]
        },
        {
            "positions": [
                0.6518068406943258,
                -1.5460122312998725,
                1.3003347313269744,
                1.7456872979484432,
                -0.10595666396219883,
                0.32263652482781247
            ]
        },
        {
            "positions": [
                0.702991587131468,
                -1.5492539458950159,
                1.1247838240997325,
                1.665727394440979,
                -0.06088780571498803,
                0.35349247225417313
            ]
        },
        {
            "positions": [
                0.7541763335686102,
                -1.5524956604901594,
                0.9492329168724905,
                1.5857674909335149,
                -0.015818947467777178,
                0.38434841968053396
            ]
        },
        {
            "positions": [
                0.8053610800057523,
                -1.5557373750853027,
                0.7736820096452486,
                1.5058075874260508,
                0.02924991077943362,
                0.4152043671068947
            ]
        },
        {
            "positions": [
                0.8565458264428946,
                -1.558979089680446,
                0.5981311024180065,
                1.4258476839185865,
                0.07431876902664447,
                0.4460603145332554
            ]
        },
        {
            "positions": [
                0.9077305728800368,
                -1.5622208042755894,
                0.4225801951907644,
                1.3458877804111224,
                0.11938762727385521,
                0.4769162619596162
            ]
        },
        {
            "positions": [
                0.9589153193171789,
                -1.5654625188707327,
                0.24702928796352275,
                1.2659278769036584,
                0.16445648552106606,
                0.5077722093859769
            ]
        },
        {
            "positions": [
                1.010100065754321,
                -1.568704233465876,
                0.07147838073628021,
                1.185967973396194,
                0.20952534376827692,
                0.5386281568123377
            ]
        },
        {
            "positions": [
                1.0612848121914633,
                -1.5719459480610196,
                -0.10407252649096144,
                1.1060080698887298,
                0.25459420201548777,
                0.5694841042386984
            ]
        },
        {
            "positions": [
                1.1124695586286055,
                -1.575187662656163,
                -0.27962343371820353,
                1.0260481663812657,
                0.2996630602626985,
                0.6003400516650591
            ]
        },
        {
            "positions": [
                1.1636543050657475,
                -1.5784293772513063,
                -0.4551743409454456,
                0.9460882628738017,
                0.34473191850990925,
                0.6311959990914198
            ]
        },
        {
            "positions": [
                1.21483905150289,
                -1.5816710918464496,
                -0.6307252481726877,
                0.8661283593663374,
                0.3898007767571202,
                0.6620519465177808
            ]
        },
        {
            "positions": [
                1.266023797940032,
                -1.584912806441593,
                -0.8062761553999298,
                0.7861684558588733,
                0.43486963500433096,
                0.6929078939441413
            ]
        },
        {
            "positions": [
                1.3172085443771742,
                -1.5881545210367363,
                -0.9818270626271715,
                0.7062085523514092,
                0.4799384932515418,
                0.7237638413705021
            ]
        },
        {
            "positions": [
                1.3683932908143164,
                -1.5913962356318798,
                -1.1573779698544135,
                0.6262486488439449,
                0.5250073514987526,
                0.7546197887968629
            ]
        },
        {
            "positions": [
                1.4195780372514586,
                -1.5946379502270231,
                -1.3329288770816556,
                0.5462887453364806,
                0.5700762097459635,
                0.7854757362232236
            ]
        },
        {
            "positions": [
                1.4707627836886008,
                -1.5978796648221665,
                -1.5084797843088975,
                0.46632884182901646,
                0.6151450679931741,
                0.8163316836495844
            ]
        },
        {
            "positions": [
                1.6252932703711018,
                -1.5928118522756693,
                -1.6300294385436778,
                0.48947886900907855,
                0.6443807052366781,
                0.7854093449593519
            ]
        },
        {
            "positions": [
                1.7798237570536029,
                -1.5877440397291722,
                -1.751579092778458,
                0.5126288961891406,
                0.673616342480182,
                0.7544870062691194
            ]
        },
        {
            "positions": [
                1.9343542437361039,
                -1.5826762271826753,
                -1.8731287470132383,
                0.5357789233692027,
                0.702851979723686,
                0.7235646675788868
            ]
        },
        {
            "positions": [
                2.088884730418605,
                -1.5776084146361782,
                -1.9946784012480185,
                0.5589289505492648,
                0.7320876169671899,
                0.6926423288886543
            ]
        },
        {
            "positions": [
                2.2095240350249137,
                -1.6820462648397736,
                -1.9910639418958305,
                0.6098820159315314,
                0.6903021559726733,
                0.6215625560129303
            ]
        },
        {
            "positions": [
                2.3301633396312225,
                -1.7864841150433692,
                -1.9874494825436424,
                0.660835081313798,
                0.6485166949781568,
                0.5504827831372063
            ]
        },
        {
            "positions": [
                2.4508026442375312,
                -1.8909219652469647,
                -1.983835023191454,
                0.7117881466960645,
                0.6067312339836402,
                0.47940301026148235
            ]
        },
        {
            "positions": [
                2.57144194884384,
                -1.99535981545056,
                -1.980220563839266,
                0.762741212078331,
                0.5649457729891236,
                0.40832323738575843
            ]
        },
        {
            "positions": [
                2.692081253450149,
                -2.0997976656541555,
                -1.976606104487078,
                0.8136942774605975,
                0.523160311994607,
                0.33724346451003445
            ]
        },
        {
            "positions": [
                2.6838987630162454,
                -2.194009713852436,
                -1.9000558680554913,
                0.8541476644867678,
                0.5120778316212296,
                0.2614396448364771
            ]
        },
        {
            "positions": [
                2.675716272582342,
                -2.2882217620507164,
                -1.8235056316239047,
                0.894601051512938,
                0.5009953512478522,
                0.18563582516291977
            ]
        },
        {
            "positions": [
                2.667533782148439,
                -2.3824338102489966,
                -1.7469553951923178,
                0.9350544385391082,
                0.4899128708744748,
                0.10983200548936242
            ]
        },
        {
            "positions": [
                2.6593512917145357,
                -2.4766458584472772,
                -1.6704051587607311,
                0.9755078255652785,
                0.47883039050109744,
                0.03402818581580509
            ]
        }
    ]
}