{
    "goal": {
        "global_pose": {
            "orientation": {
                "w": 0.5084816217422485,
                "x": -0.49083608388900757,
                "y": 0.5182115435600281,
                "z": -0.4816462993621826
            },
            "position": {
                "x": 0.5540239810943604,
                "y": 0.030875300988554955,
                "z": 0.16403168439865112
            }
        },
        "name": "move_to_storage_A"
    },
    "id": "RRTConnect_move_to_storage_A_66",
    "joint_names": [
        "shoulder_pan_joint",
        "shoulder_lift_joint",
        "elbow_joint",
        "wrist_1_joint",
        "wrist_2_joint",
        "wrist_3_joint"
    ],
    "metrics": {
        "cart_traj_len": 0.3532420980763482,
        "distance_elbow_joint": 0.4517967936265286,
        "distance_shoulder_lift_joint": 0.23255795924265854,
        "distance_shoulder_pan_joint": 0.46223882465893634,
        "distance_wrist_1_joint": 0.25676920766924016,
        "distance_wrist_2_joint": 1.0966460415501373,
        "distance_wrist_3_joint": 0.1043946581099644,
        "smoothness": 1.776356832919533e-15,
        "time": 0.048558581,
        "traj_len": 1.613816434684399,
        "weighted_distance": 2.041227094249136
    },
    "planner": "RRTConnect",
    "start": {
        "state": {
            "elbow_joint": 1.971548259319323,
            "shoulder_lift_joint": -1.1394851275133948,
            "shoulder_pan_joint": 0.1228115487234821,
            "wrist_1_joint": -0.7804723859257726,
            "wrist_2_joint": 0.12958671773740124,
            "wrist_3_joint": -3.192489227718131
        }
    },
    "waypoints": [
        {
            "positions": [
                0.1228115487234821,
                -1.1394851275133948,
                1.971548259319323,
                -0.7804723859257726,
                0.12958671773740124,
                -3.192489227718131
            ]
        },
        {
            "positions": [
                0.05677743091506263,
                -1.1727076931194889,
                2.036090658408827,
                -0.8171537013070926,
                0.2862504379588494,
                -3.177575705130993
            ]
        },
        {
            "positions": [
                -0.009256686893356847,
                -1.205930258725583,
                2.100633057498331,
                -0.8538350166884127,
                0.44291415818029756,
                -3.1626621825438557
            ]
        },
        {
            "positions": [
                -0.07529080470177632,
                -1.239152824331677,
                2.165175456587835,
                -0.8905163320697327,
                0.5995778784017458,
                -3.1477486599567177
            ]
        },
        {
            "positions": [
                -0.1413249225101958,
                -1.2723753899377712,
                2.229717855677339,
                -0.9271976474510527,
                0.756241598623194,
                -3.13283513736958
            ]
        },
        {
            "positions": [
                -0.2073590403186153,
                -1.3055979555438653,
                2.2942602547668436,
                -0.9638789628323727,
                0.9129053188446422,
                -3.1179216147824422
            ]
        },
        {
            "positions": [
                -0.27339315812703474,
                -1.3388205211499593,
                2.3588026538563476,
                -1.0005602782136926,
                1.0695690390660904,
                -3.1030080921953047
            ]
        },
        {
            "positions": [
                -0.33942727593545424,
                -1.3720430867560534,
                2.4233450529458516,
                -1.0372415935950128,
                1.2262327592875386,
                -3.0880945696081668
            ]
        }
    ]
}{
    "goal": {
        "global_pose": {
            "orientation": {
                "w": 0.5084816217422485,
                "x": -0.49083608388900757,
                "y": 0.5182115435600281,
                "z": -0.4816462993621826
            },
            "position": {
                "x": 0.5540239810943604,
                "y": 0.030875300988554955,
                "z": 0.16403168439865112
            }
        },
        "name": "move_to_storage_A"
    },
    "id": "RRTConnect_move_to_storage_A_66",
    "joint_names": [
        "shoulder_pan_joint",
        "shoulder_lift_joint",
        "elbow_joint",
        "wrist_1_joint",
        "wrist_2_joint",
        "wrist_3_joint"
    ],
    "metrics": {
        "cart_traj_len": 0.3533893341365441,
        "distance_elbow_joint": 0.45039965104174096,
        "distance_shoulder_lift_joint": 0.2346112929681199,
        "distance_shoulder_pan_joint": 0.4622125204464,
        "distance_wrist_1_joint": 0.2464220320850623,
        "distance_wrist_2_joint": 1.098882039361685,
        "distance_wrist_3_joint": 0.08826130118429099,
        "smoothness": 4.440892098500626e-16,
        "time": 0.052843152000000004,
        "traj_len": 1.6064833759137687,
        "weighted_distance": 2.0254914245443323
    },
    "planner": "RRTConnect",
    "start": {
        "state": {
            "elbow_joint": 1.97154746011099,
            "shoulder_lift_joint": -1.13948474672311,
            "shoulder_pan_joint": 0.12281154466712228,
            "wrist_1_joint": -0.7804688027058302,
            "wrist_2_joint": 0.12958655903071145,
            "wrist_3_joint": 3.0906928834467795
        }
    },
    "waypoints": [
        {
            "positions": [
                0.12281154466712228,
                -1.13948474672311,
                1.97154746011099,
                -0.7804688027058302,
                0.12958655903071145,
                3.0906928834467795
            ]
        },
        {
            "positions": [
                0.056781184603350854,
                -1.1730006457185556,
                2.0358902674026673,
                -0.8156719501465534,
                0.2865697075109521,
                3.103301640758821
            ]
        },
        {
            "positions": [
                -0.009249175460420575,
                -1.2065165447140014,
                2.1002330746943443,
                -0.8508750975872765,
                0.4435528559911929,
                3.1159103980708625
            ]
        },
        {
            "positions": [
                -0.07527953552419199,
                -1.240032443709447,
                2.1645758819860217,
                -0.8860782450279997,
                0.6005360044714335,
                3.128519155382904
            ]
        },
        {
            "positions": [
                -0.14130989558796342,
                -1.2735483427048928,
                2.228918689277699,
                -0.9212813924687229,
                0.7575191529516743,
                3.141127912694946
            ]
        },
        {
            "positions": [
                -0.20734025565173486,
                -1.3070642417003384,
                2.2932614965693765,
                -0.9564845399094462,
                0.914502301431915,
                3.1537366700069875
            ]
        },
        {
            "positions": [
                -0.27337061571550625,
                -1.340580140695784,
                2.3576043038610535,
                -0.9916876873501693,
                1.0714854499121556,
                3.166345427319029
            ]
        },
        {
            "positions": [
                -0.3394009757792777,
                -1.3740960396912298,
                2.421947111152731,
                -1.0268908347908925,
                1.2284685983923964,
                3.1789541846310705
            ]
        }
    ]
}{
    "goal": {
        "global_pose": {
            "orientation": {
                "w": 0.5084816217422485,
                "x": -0.49083608388900757,
                "y": 0.5182115435600281,
                "z": -0.4816462993621826
            },
            "position": {
                "x": 0.5540239810943604,
                "y": 0.030875300988554955,
                "z": 0.16403168439865112
            }
        },
        "name": "move_to_storage_A"
    },
    "id": "RRTConnect_move_to_storage_A_66",
    "joint_names": [
        "shoulder_pan_joint",
        "shoulder_lift_joint",
        "elbow_joint",
        "wrist_1_joint",
        "wrist_2_joint",
        "wrist_3_joint"
    ],
    "metrics": {
        "cart_traj_len": 0.3532202532238469,
        "distance_elbow_joint": 0.4504889493762101,
        "distance_shoulder_lift_joint": 0.23575725209308618,
        "distance_shoulder_pan_joint": 0.46132181941542033,
        "distance_wrist_1_joint": 0.24625818756247453,
        "distance_wrist_2_joint": 1.1019103181644625,
        "distance_wrist_3_joint": 0.09129077659896723,
        "smoothness": 6.661338165333112e-16,
        "time": 0.067456635,
        "traj_len": 1.6084238568271179,
        "weighted_distance": 2.0292307316161686
    },
    "planner": "RRTConnect",
    "start": {
        "state": {
            "elbow_joint": 1.9715472970024885,
            "shoulder_lift_joint": -1.1394870060712896,
            "shoulder_pan_joint": 0.12281152778156021,
            "wrist_1_joint": -0.780463741449964,
            "wrist_2_joint": 0.12958659822042276,
            "wrist_3_joint": 3.090690232415272
        }
    },
    "waypoints": [
        {
            "positions": [
                0.12281152778156021,
                -1.1394870060712896,
                1.9715472970024885,
                -0.780463741449964,
                0.12958659822042276,
                3.090690232415272
            ]
        },
        {
            "positions": [
                0.05690841072221446,
                -1.173166613513159,
                2.03590286119909,
                -0.8156434825303175,
                0.2870023579582031,
                3.10373177192941
            ]
        },
        {
            "positions": [
                -0.008994706337131286,
                -1.2068462209550286,
                2.1002584253956913,
                -0.850823223610671,
                0.4444181176959835,
                3.116773311443548
            ]
        },
        {
            "positions": [
                -0.07489782339647705,
                -1.240525828396898,
                2.1646139895922927,
                -0.8860029646910245,
                0.6018338774337638,
                3.129814850957686
            ]
        },
        {
            "positions": [
                -0.14080094045582278,
                -1.2742054358387673,
                2.228969553788894,
                -0.921182705771378,
                0.7592496371715441,
                3.1428563904718247
            ]
        },
        {
            "positions": [
                -0.20670405751516854,
                -1.3078850432806368,
                2.293325117985496,
                -0.9563624468517316,
                0.9166653969093246,
                3.155897929985963
            ]
        },
        {
            "positions": [
                -0.27260717457451433,
                -1.3415646507225063,
                2.3576806821820973,
                -0.991542187932085,
                1.074081156647105,
                3.168939469500101
            ]
        },
        {
            "positions": [
                -0.3385102916338601,
                -1.3752442581643758,
                2.4220362463786986,
                -1.0267219290124385,
                1.2314969163848852,
                3.181981009014239
            ]
        }
    ]
}