{
    "goal": {
        "global_pose": {
            "orientation": {
                "w": -0.4816463035849501,
                "x": 0.5182115481033762,
                "y": 0.4908360881923453,
                "z": -0.5084816262002911
            },
            "position": {
                "x": -0.8240239810943604,
                "y": 0.19912469901144506,
                "z": 0.16403168439865112
            }
        },
        "name": "move_to_storage_D"
    },
    "id": "RRTConnect_move_to_storage_D_113",
    "joint_names": [
        "shoulder_pan_joint",
        "shoulder_lift_joint",
        "elbow_joint",
        "wrist_1_joint",
        "wrist_2_joint",
        "wrist_3_joint"
    ],
    "metrics": {
        "cart_traj_len": 3.8918390986375213,
        "distance_elbow_joint": 4.208985825025639,
        "distance_shoulder_lift_joint": 1.2650394921471901,
        "distance_shoulder_pan_joint": 2.8143948476253233,
        "distance_wrist_1_joint": 2.2625917485449847,
        "distance_wrist_2_joint": 1.7998995603686165,
        "distance_wrist_3_joint": 3.1351423414580175,
        "smoothness": 0.09249151531710052,
        "time": 0.11569807199999999,
        "traj_len": 3.935232371178324,
        "weighted_distance": 5.081223258920968
    },
    "planner": "RRTConnect",
    "start": {
        "state": {
            "elbow_joint": -2.384821988534728,
            "shoulder_lift_joint": -2.2788054721415256,
            "shoulder_pan_joint": -0.1854694642142757,
            "wrist_1_joint": 1.4845938289331202,
            "wrist_2_joint": 0.17898776772866878,
            "wrist_3_joint": 0.037105688729662994
        }
    },
    "waypoints": [
        {
            "positions": [
                -0.1854694642142757,
                -2.2788054721415256,
                -2.384821988534728,
                1.4845938289331202,
                0.17898776772866878,
                0.037105688729662994
            ]
        },
        {
            "positions": [
                -0.0983538447153195,
                -2.2539148522998924,
                -2.260758214763035,
                1.4248148700203869,
                0.2237065644627872,
                -0.01167481918475026
            ]
        },
        {
            "positions": [
                -0.011238225216363279,
                -2.229024232458259,
                -2.1366944409913424,
                1.3650359111076533,
                0.26842536119690563,
                -0.060455327099163514
            ]
        },
        {
            "positions": [
                0.07587739428259296,
                -2.2041336126166255,
                -2.0126306672196494,
                1.30525695219492,
                0.313144157931024,
                -0.10923583501357678
            ]
        },
        {
            "positions": [
                0.16299301378154915,
                -2.1792429927749923,
                -1.8885668934479565,
                1.2454779932821864,
                0.35786295466514245,
                -0.15801634292799002
            ]
        },
        {
            "positions": [
                0.25010863328050537,
                -2.154352372933359,
                -1.7645031196762637,
                1.1856990343694531,
                0.4025817513992609,
                -0.20679685084240326
            ]
        },
        {
            "positions": [
                0.33722425277946166,
                -2.129461753091726,
                -1.6404393459045707,
                1.1259200754567198,
                0.44730054813337927,
                -0.25557735875681653
            ]
        },
        {
            "positions": [
                0.42433987227841785,
                -2.1045711332500927,
                -1.516375572132878,
                1.0661411165439865,
                0.49201934486749777,
                -0.30435786667122977
            ]
        },
        {
            "positions": [
                0.511455491777374,
                -2.079680513408459,
                -1.392311798361185,
                1.006362157631253,
                0.5367381416016161,
                -0.353138374585643
            ]
        },
        {
            "positions": [
                0.5985711112763302,
                -2.054789893566826,
                -1.2682480245894923,
                0.9465831987185196,
                0.5814569383357345,
                -0.40191888250005625
            ]
        },
        {
            "positions": [
                0.6856867307752864,
                -2.0298992737251926,
                -1.1441842508177995,
                0.8868042398057862,
                0.6261757350698529,
                -0.4506993904144695
            ]
        },
        {
            "positions": [
                0.7728023502742426,
                -2.0050086538835594,
                -1.0201204770461065,
                0.8270252808930527,
                0.6708945318039714,
                -0.49947989832888273
            ]
        },
        {
            "positions": [
                0.859917969773199,
                -1.980118034041926,
                -0.8960567032744136,
                0.7672463219803193,
                0.7156133285380898,
                -0.5482604062432961
            ]
        },
        {
            "positions": [
                0.9470335892721552,
                -1.9552274142002926,
                -0.7719929295027208,
                0.7074673630675858,
                0.7603321252722083,
                -0.5970409141577093
            ]
        },
        {
            "positions": [
                1.0341492087711113,
                -1.9303367943586593,
                -0.6479291557310278,
                0.6476884041548525,
                0.8050509220063267,
                -0.6458214220721226
            ]
        },
        {
            "positions": [
                1.1212648282700675,
                -1.9054461745170261,
                -0.5238653819593351,
                0.5879094452421191,
                0.849769718740445,
                -0.6946019299865358
            ]
        },
        {
            "positions": [
                1.2083804477690236,
                -1.8805555546753927,
                -0.3998016081876423,
                0.5281304863293856,
                0.8944885154745634,
                -0.743382437900949
            ]
        },
        {
            "positions": [
                1.2954960672679798,
                -1.8556649348337595,
                -0.27573783441594957,
                0.4683515274166523,
                0.9392073122086818,
                -0.7921629458153623
            ]
        },
        {
            "positions": [
                1.382611686766936,
                -1.830774314992126,
                -0.1516740606442566,
                0.408572568503919,
                0.9839261089428003,
                -0.8409434537297755
            ]
        },
        {
            "positions": [
                1.4697273062658922,
                -1.8058836951504929,
                -0.027610286872563616,
                0.34879360959118544,
                1.0286449056769187,
                -0.8897239616441888
            ]
        },
        {
            "positions": [
                1.5568429257648484,
                -1.7809930753088596,
                0.09645348689912892,
                0.2890146506784521,
                1.0733637024110372,
                -0.938504469558602
            ]
        },
        {
            "positions": [
                1.6439585452638046,
                -1.7561024554672262,
                0.2205172606708219,
                0.22923569176571879,
                1.1180824991451555,
                -0.9872849774730152
            ]
        },
        {
            "positions": [
                1.7310741647627608,
                -1.7312118356255928,
                0.34458103444251487,
                0.16945673285298524,
                1.162801295879274,
                -1.0360654853874285
            ]
        },
        {
            "positions": [
                1.8181897842617172,
                -1.7063212157839596,
                0.46864480821420784,
                0.10967777394025169,
                1.2075200926133927,
                -1.084845993301842
            ]
        },
        {
            "positions": [
                1.9053054037606736,
                -1.6814305959423264,
                0.5927085819859008,
                0.04989881502751836,
                1.252238889347511,
                -1.1336265012162552
            ]
        },
        {
            "positions": [
                1.9924210232596296,
                -1.656539976100693,
                0.7167723557575938,
                -0.009880143885214965,
                1.2969576860816294,
                -1.1824070091306684
            ]
        },
        {
            "positions": [
                2.079536642758586,
                -1.6316493562590595,
                0.8408361295292863,
                -0.06965910279794851,
                1.341676482815748,
                -1.2311875170450817
            ]
        },
        {
            "positions": [
                2.166652262257542,
                -1.6067587364174263,
                0.9648999033009793,
                -0.12943806171068184,
                1.3863952795498662,
                -1.279968024959495
            ]
        },
        {
            "positions": [
                2.2537678817564983,
                -1.581868116575793,
                1.0889636770726723,
                -0.18921702062341517,
                1.4311140762839847,
                -1.3287485328739082
            ]
        },
        {
            "positions": [
                2.3408835012554543,
                -1.5569774967341599,
                1.2130274508443648,
                -0.24899597953614871,
                1.475832873018103,
                -1.3775290407883214
            ]
        },
        {
            "positions": [
                2.4279991207544107,
                -1.5320868768925264,
                1.3370912246160576,
                -0.30877493844888204,
                1.5205516697522214,
                -1.4263095487027346
            ]
        },
        {
            "positions": [
                2.4480917470200745,
                -1.4802547872027074,
                1.385798485803543,
                -0.3556972365651803,
                1.474718103917715,
                -1.5934822591052966
            ]
        },
        {
            "positions": [
                2.4681843732857383,
                -1.4284226975128882,
                1.4345057469910285,
                -0.4026195346814786,
                1.4288845380832087,
                -1.7606549695078586
            ]
        },
        {
            "positions": [
                2.4882769995514016,
                -1.3765906078230692,
                1.4832130081785138,
                -0.4495418327977769,
                1.3830509722487023,
                -1.9278276799104206
            ]
        },
        {
            "positions": [
                2.5083696258170654,
                -1.32475851813325,
                1.5319202693659992,
                -0.49646413091407515,
                1.337217406414196,
                -2.0950003903129826
            ]
        },
        {
            "positions": [
                2.528462252082729,
                -1.272926428443431,
                1.5806275305534847,
                -0.5433864290303734,
                1.2913838405796896,
                -2.2621731007155446
            ]
        },
        {
            "positions": [
                2.548554878348393,
                -1.221094338753612,
                1.6293347917409702,
                -0.5903087271466717,
                1.2455502747451832,
                -2.4293458111181065
            ]
        },
        {
            "positions": [
                2.5686475046140567,
                -1.1692622490637927,
                1.6780420529284554,
                -0.63723102526297,
                1.1997167089106768,
                -2.5965185215206685
            ]
        },
        {
            "positions": [
                2.58874013087972,
                -1.1174301593739737,
                1.7267493141159411,
                -0.6841533233792683,
                1.1538831430761702,
                -2.7636912319232305
            ]
        },
        {
            "positions": [
                2.6088327571453838,
                -1.0655980696841545,
                1.7754565753034264,
                -0.7310756214955665,
                1.1080495772416639,
                -2.9308639423257925
            ]
        },
        {
            "positions": [
                2.6289253834110475,
                -1.0137659799943355,
                1.8241638364909118,
                -0.7779979196118648,
                1.0622160114071575,
                -3.0980366527283545
            ]
        }
    ]
}