{
    "goal": {
        "global_pose": {
            "orientation": {
                "w": -0.00223480608172531,
                "x": 0.0024358444001904467,
                "y": 0.7094548369677653,
                "z": -0.704743149386269
            },
            "position": {
                "x": 0.6205249238014221,
                "y": -0.6371506643295288,
                "z": 0.19426114857196808
            }
        },
        "name": "move_to_magneteinheit_B"
    },
    "id": "RRTConnect_move_to_magneteinheit_B_6",
    "joint_names": [
        "shoulder_pan_joint",
        "shoulder_lift_joint",
        "elbow_joint",
        "wrist_1_joint",
        "wrist_2_joint",
        "wrist_3_joint"
    ],
    "metrics": {
        "cart_traj_len": 5.720366625336663,
        "distance_elbow_joint": 5.043273824386047,
        "distance_shoulder_lift_joint": 4.745344125429671,
        "distance_shoulder_pan_joint": 3.688409123046781,
        "distance_wrist_1_joint": 6.124329002802721,
        "distance_wrist_2_joint": 3.7169740691242636,
        "distance_wrist_3_joint": 1.5278789459689623,
        "smoothness": 0.5645904835118285,
        "time": 0.170804563,
        "traj_len": 4.984597184403011,
        "weighted_distance": 6.143555164123075
    },
    "planner": "RRTConnect",
    "start": {
        "state": {
            "elbow_joint": 2.6216224122426386,
            "shoulder_lift_joint": -1.4174107377796124,
            "shoulder_pan_joint": 0.7066234856936794,
            "wrist_1_joint": 1.9546482284002225,
            "wrist_2_joint": -0.7096286983471962,
            "wrist_3_joint": 0.005740856962016249
        }
    },
    "waypoints": [
        {
            "positions": [
                0.7066234856936794,
                -1.4174107377796124,
                2.6216224122426386,
                1.9546482284002225,
                -0.7096286983471962,
                0.005740856962016249
            ]
        },
        {
            "positions": [
                0.64177135015547,
                -1.4391388650057502,
                2.6006117046433004,
                1.8438803302819717,
                -0.6386032979331668,
                0.045758251282511646
            ]
        },
        {
            "positions": [
                0.6082032067270505,
                -1.4675846110418138,
                2.530731870093466,
                1.695125560671731,
                -0.588016389281693,
                0.09351255737094151
            ]
        },
        {
            "positions": [
                0.574635063298631,
                -1.4960303570778772,
                2.4608520355436316,
                1.5463707910614903,
                -0.5374294806302192,
                0.14126686345937137
            ]
        },
        {
            "positions": [
                0.5410669198702115,
                -1.5244761031139409,
                2.3909722009937973,
                1.3976160214512494,
                -0.4868425719787454,
                0.18902116954780124
            ]
        },
        {
            "positions": [
                0.507498776441792,
                -1.5529218491500045,
                2.3210923664439633,
                1.2488612518410087,
                -0.4362556633272716,
                0.2367754756362311
            ]
        },
        {
            "positions": [
                0.47393063301337246,
                -1.581367595186068,
                2.2512125318941285,
                1.100106482230768,
                -0.38566875467579775,
                0.284529781724661
            ]
        },
        {
            "positions": [
                0.44036248958495294,
                -1.6098133412221316,
                2.1813326973442946,
                0.9513517126205273,
                -0.335081846024324,
                0.3322840878130908
            ]
        },
        {
            "positions": [
                0.4067943461565334,
                -1.6382590872581952,
                2.11145286279446,
                0.8025969430102864,
                -0.28449493737285014,
                0.3800383939015207
            ]
        },
        {
            "positions": [
                0.3732262027281139,
                -1.6667048332942587,
                2.041573028244626,
                0.6538421734000459,
                -0.2339080287213764,
                0.42779269998995056
            ]
        },
        {
            "positions": [
                0.3396580592996944,
                -1.6951505793303223,
                1.9716931936947915,
                0.505087403789805,
                -0.1833211200699025,
                0.47554700607838046
            ]
        },
        {
            "positions": [
                0.3575712094211265,
                -1.7092407367250346,
                1.8949320246509807,
                0.4198464257960822,
                -0.18704027624195707,
                0.493477904920155
            ]
        },
        {
            "positions": [
                0.37548435954255865,
                -1.723330894119747,
                1.81817085560717,
                0.3346054478023595,
                -0.19075943241401164,
                0.5114088037619294
            ]
        },
        {
            "positions": [
                0.4534415256650833,
                -1.733492016470478,
                1.6314403659148646,
                0.2871038195126005,
                -0.21626125844664892,
                0.47541838771550116
            ]
        },
        {
            "positions": [
                0.5313986917876079,
                -1.7436531388212086,
                1.4447098762225594,
                0.23960219122284146,
                -0.24176308447928618,
                0.4394279716690729
            ]
        },
        {
            "positions": [
                0.6093558579101326,
                -1.7538142611719396,
                1.257979386530254,
                0.19210056293308242,
                -0.26726491051192347,
                0.4034375556226446
            ]
        },
        {
            "positions": [
                0.6873130240326571,
                -1.7639753835226706,
                1.0712488968379485,
                0.1445989346433234,
                -0.29276673654456076,
                0.36744713957621633
            ]
        },
        {
            "positions": [
                0.7652701901551817,
                -1.7741365058734013,
                0.8845184071456433,
                0.09709730635356437,
                -0.31826856257719804,
                0.33145672352978806
            ]
        },
        {
            "positions": [
                0.8432273562777064,
                -1.7842976282241323,
                0.6977879174533379,
                0.049595678063805326,
                -0.34377038860983533,
                0.29546630748335984
            ]
        },
        {
            "positions": [
                0.9211845224002311,
                -1.794458750574863,
                0.5110574277610327,
                0.0020940497740463138,
                -0.3692722146424726,
                0.25947589143693156
            ]
        },
        {
            "positions": [
                0.9991416885227556,
                -1.804619872925594,
                0.32432693806872726,
                -0.0454075785157127,
                -0.3947740406751099,
                0.22348547539050329
            ]
        },
        {
            "positions": [
                1.0770988546452802,
                -1.814780995276325,
                0.13759644837642204,
                -0.09290920680547171,
                -0.4202758667077472,
                0.187495059344075
            ]
        },
        {
            "positions": [
                1.155056020767805,
                -1.8249421176270557,
                -0.04913404131588339,
                -0.14041083509523078,
                -0.4457776927403845,
                0.15150464329764673
            ]
        },
        {
            "positions": [
                1.2330131868903296,
                -1.8351032399777867,
                -0.23586453100818905,
                -0.18791246338498985,
                -0.47127951877302177,
                0.11551422725121846
            ]
        },
        {
            "positions": [
                1.3109703530128543,
                -1.8452643623285176,
                -0.42259502070049426,
                -0.23541409167474886,
                -0.49678134480565894,
                0.07952381120479024
            ]
        },
        {
            "positions": [
                1.388927519135379,
                -1.8554254846792484,
                -0.6093255103927995,
                -0.2829157199645079,
                -0.5222831708382963,
                0.04353339515836191
            ]
        },
        {
            "positions": [
                1.4668846852579036,
                -1.8655866070299794,
                -0.7960560000851047,
                -0.3304173482542669,
                -0.5477849968709335,
                0.00754297911193369
            ]
        },
        {
            "positions": [
                1.5448418513804283,
                -1.87574772938071,
                -0.9827864897774103,
                -0.3779189765440259,
                -0.5732868229035709,
                -0.028447436934494585
            ]
        },
        {
            "positions": [
                1.6227990175029525,
                -1.885908851731441,
                -1.1695169794697156,
                -0.4254206048337849,
                -0.5987886489362081,
                -0.06443785298092286
            ]
        },
        {
            "positions": [
                1.7007561836254772,
                -1.896069974082172,
                -1.3562474691620208,
                -0.47292223312354403,
                -0.6242904749688454,
                -0.10042826902735114
            ]
        },
        {
            "positions": [
                1.7787133497480019,
                -1.9062310964329028,
                -1.542977958854326,
                -0.520423861413303,
                -0.6497923010014827,
                -0.1364186850737794
            ]
        },
        {
            "positions": [
                1.8566705158705266,
                -1.9163922187836337,
                -1.7297084485466319,
                -0.567925489703062,
                -0.67529412703412,
                -0.1724091011202077
            ]
        },
        {
            "positions": [
                1.9187489153990032,
                -1.8287399556592097,
                -1.7446344535299643,
                -0.44482778895230796,
                -0.583563602867434,
                -0.17646820813610606
            ]
        },
        {
            "positions": [
                1.9808273149274798,
                -1.7410876925347858,
                -1.759560458513297,
                -0.3217300882015539,
                -0.4918330787007481,
                -0.18052731515200443
            ]
        },
        {
            "positions": [
                2.0429057144559564,
                -1.653435429410362,
                -1.7744864634966293,
                -0.19863238745079986,
                -0.4001025545340622,
                -0.1845864221679028
            ]
        },
        {
            "positions": [
                2.104984113984433,
                -1.5657831662859378,
                -1.789412468479962,
                -0.07553468670004582,
                -0.30837203036737626,
                -0.18864552918380117
            ]
        },
        {
            "positions": [
                2.1670625135129096,
                -1.4781309031615137,
                -1.8043384734632943,
                0.047563014050708174,
                -0.21664150620069034,
                -0.19270463619969955
            ]
        },
        {
            "positions": [
                2.229140913041386,
                -1.3904786400370899,
                -1.819264478446627,
                0.17066071480146228,
                -0.12491098203400441,
                -0.19676374321559792
            ]
        },
        {
            "positions": [
                2.2912193125698628,
                -1.302826376912666,
                -1.8341904834299594,
                0.29375841555221627,
                -0.03318045786731849,
                -0.2008228502314963
            ]
        },
        {
            "positions": [
                2.3532977120983394,
                -1.215174113788242,
                -1.849116488413292,
                0.41685611630297037,
                0.05855006629936743,
                -0.20488195724739466
            ]
        },
        {
            "positions": [
                2.415376111626816,
                -1.1275218506638178,
                -1.8640424933966244,
                0.5399538170537245,
                0.15028059046605335,
                -0.20894106426329304
            ]
        },
        {
            "positions": [
                2.4774545111552926,
                -1.039869587539394,
                -1.878968498379957,
                0.6630515178044784,
                0.24201111463273928,
                -0.2130001712791914
            ]
        },
        {
            "positions": [
                2.539532910683769,
                -0.9522173244149699,
                -1.8938945033632895,
                0.7861492185552327,
                0.3337416387994252,
                -0.2170592782950898
            ]
        },
        {
            "positions": [
                2.601611310212246,
                -0.864565061290546,
                -1.908820508346622,
                0.9092469193059866,
                0.4254721629661111,
                -0.22111838531098815
            ]
        },
        {
            "positions": [
                2.6636897097407224,
                -0.7769127981661219,
                -1.9237465133299545,
                1.0323446200567408,
                0.517202687132797,
                -0.22517749232688655
            ]
        },
        {
            "positions": [
                2.725768109269199,
                -0.689260535041698,
                -1.9386725183132871,
                1.1554423208074946,
                0.608933211299483,
                -0.2292365993427849
            ]
        },
        {
            "positions": [
                2.7878465087976756,
                -0.601608271917274,
                -1.9535985232966195,
                1.278540021558249,
                0.7006637354661689,
                -0.2332957063586833
            ]
        },
        {
            "positions": [
                2.849924908326152,
                -0.5139560087928501,
                -1.9685245282799522,
                1.4016377223090029,
                0.7923942596328548,
                -0.23735481337458164
            ]
        },
        {
            "positions": [
                2.912003307854629,
                -0.426303745668426,
                -1.9834505332632846,
                1.5247354230597572,
                0.8841247837995407,
                -0.24141392039048004
            ]
        },
        {
            "positions": [
                2.9740817073831054,
                -0.3386514825440021,
                -1.998376538246617,
                1.647833123810511,
                0.9758553079662267,
                -0.24547302740637839
            ]
        },
        {
            "positions": [
                3.036160106911582,
                -0.25099921941957803,
                -2.0133025432299494,
                1.770930824561265,
                1.0675858321329126,
                -0.24953213442227679
            ]
        },
        {
            "positions": [
                3.0982385064400586,
                -0.16334695629515417,
                -2.0282285482132822,
                1.8940285253120188,
                1.1593163562995985,
                -0.25359124143817513
            ]
        },
        {
            "positions": [
                3.160316905968535,
                -0.07569469317073008,
                -2.0431545531966147,
                2.017126226062773,
                1.2510468804662844,
                -0.25765034845407353
            ]
        },
        {
            "positions": [
                3.12454655954111,
                -0.24752791594306903,
                -2.0161190632718444,
                1.9445045425675158,
                1.195878846438974,
                -0.23956807367171326
            ]
        },
        {
            "positions": [
                3.0887762131136847,
                -0.419361138715408,
                -1.9890835733470742,
                1.8718828590722585,
                1.1407108124116634,
                -0.221485798889353
            ]
        },
        {
            "positions": [
                3.053005866686259,
                -0.591194361487747,
                -1.9620480834223037,
                1.7992611755770012,
                1.085542778384353,
                -0.20340352410699272
            ]
        },
        {
            "positions": [
                3.0172355202588337,
                -0.7630275842600859,
                -1.9350125934975335,
                1.7266394920817438,
                1.0303747443570426,
                -0.18532124932463245
            ]
        },
        {
            "positions": [
                2.9814651738314084,
                -0.9348608070324249,
                -1.9079771035727633,
                1.6540178085864863,
                0.975206710329732,
                -0.16723897454227218
            ]
        },
        {
            "positions": [
                2.945694827403983,
                -1.1066940298047638,
                -1.880941613647993,
                1.5813961250912292,
                0.9200386763024215,
                -0.14915669975991191
            ]
        },
        {
            "positions": [
                2.9099244809765574,
                -1.2785272525771028,
                -1.8539061237232226,
                1.5087744415959716,
                0.8648706422751111,
                -0.13107442497755165
            ]
        },
        {
            "positions": [
                2.874154134549132,
                -1.4503604753494417,
                -1.8268706337984524,
                1.4361527581007145,
                0.8097026082478007,
                -0.11299215019519138
            ]
        },
        {
            "positions": [
                2.838383788121707,
                -1.6221936981217808,
                -1.7998351438736822,
                1.363531074605457,
                0.7545345742204901,
                -0.09490987541283111
            ]
        },
        {
            "positions": [
                2.8026134416942816,
                -1.7940269208941197,
                -1.772799653948912,
                1.2909093911101996,
                0.6993665401931797,
                -0.07682760063047084
            ]
        },
        {
            "positions": [
                2.7668430952668563,
                -1.9658601436664584,
                -1.7457641640241417,
                1.2182877076149423,
                0.6441985061658693,
                -0.05874532584811057
            ]
        },
        {
            "positions": [
                2.7310727488394306,
                -2.1376933664387976,
                -1.7187286740993715,
                1.1456660241196852,
                0.5890304721385587,
                -0.0406630510657503
            ]
        },
        {
            "positions": [
                2.6953024024120054,
                -2.3095265892111367,
                -1.691693184174601,
                1.0730443406244277,
                0.5338624381112482,
                -0.02258077628339003
            ]
        },
        {
            "positions": [
                2.65953205598458,
                -2.4813598119834754,
                -1.6646576942498308,
                1.0004226571291703,
                0.47869440408393776,
                -0.004498501501029775
            ]
        }
    ]
}