{
    "goal": {
        "global_pose": {
            "orientation": {
                "w": -0.4816463035849501,
                "x": 0.5182115481033762,
                "y": 0.4908360881923453,
                "z": -0.5084816262002911
            },
            "position": {
                "x": -0.8240239810943604,
                "y": 0.19912469901144506,
                "z": 0.16403168439865112
            }
        },
        "name": "move_to_storage_D"
    },
    "id": "RRTConnect_move_to_storage_D_24",
    "joint_names": [
        "shoulder_pan_joint",
        "shoulder_lift_joint",
        "elbow_joint",
        "wrist_1_joint",
        "wrist_2_joint",
        "wrist_3_joint"
    ],
    "metrics": {
        "cart_traj_len": 3.747275063273318,
        "distance_elbow_joint": 4.2801784767718125,
        "distance_shoulder_lift_joint": 1.2646795202867938,
        "distance_shoulder_pan_joint": 2.8141725724448974,
        "distance_wrist_1_joint": 2.2674862901133697,
        "distance_wrist_2_joint": 0.885884368866456,
        "distance_wrist_3_joint": 3.99409178472551,
        "smoothness": 0.09603987492481957,
        "time": 0.089756296,
        "traj_len": 3.937828464167635,
        "weighted_distance": 5.162174662062461
    },
    "planner": "RRTConnect",
    "start": {
        "state": {
            "elbow_joint": -2.384821988534728,
            "shoulder_lift_joint": -2.2788054721415256,
            "shoulder_pan_joint": -0.1854694642142757,
            "wrist_1_joint": 1.4845938289331202,
            "wrist_2_joint": 0.17898776772866878,
            "wrist_3_joint": 0.037105688729662994
        }
    },
    "waypoints": [
        {
            "positions": [
                -0.1854694642142757,
                -2.2788054721415256,
                -2.384821988534728,
                1.4845938289331202,
                0.17898776772866878,
                0.037105688729662994
            ]
        },
        {
            "positions": [
                -0.05499837106690958,
                -2.1882626221764365,
                -2.3883227968313254,
                1.39862869731502,
                0.20151893864135928,
                -0.005625271063815468
            ]
        },
        {
            "positions": [
                0.07547272208045655,
                -2.097719772211348,
                -2.391823605127923,
                1.3126635656969194,
                0.22405010955404978,
                -0.04835623085729393
            ]
        },
        {
            "positions": [
                0.2059438152278227,
                -2.0071769222462588,
                -2.3953244134245204,
                1.2266984340788192,
                0.24658128046674027,
                -0.09108719065077239
            ]
        },
        {
            "positions": [
                0.33641490837518884,
                -1.91663407228117,
                -2.398825221721118,
                1.140733302460719,
                0.2691124513794308,
                -0.13381815044425086
            ]
        },
        {
            "positions": [
                0.466886001522555,
                -1.826091222316081,
                -2.4023260300177154,
                1.0547681708426184,
                0.29164362229212126,
                -0.17654911023772932
            ]
        },
        {
            "positions": [
                0.5973570946699212,
                -1.7355483723509924,
                -2.405826838314313,
                0.9688030392245183,
                0.3141747932048118,
                -0.21928007003120778
            ]
        },
        {
            "positions": [
                0.7278281878172872,
                -1.6450055223859033,
                -2.4093276466109104,
                0.8828379076064179,
                0.33670596411750225,
                -0.26201102982468627
            ]
        },
        {
            "positions": [
                0.8582992809646534,
                -1.5544626724208144,
                -2.412828454907508,
                0.7968727759883175,
                0.3592371350301928,
                -0.3047419896181647
            ]
        },
        {
            "positions": [
                0.9887703741120196,
                -1.4639198224557255,
                -2.4163292632041053,
                0.7109076443702171,
                0.38176830594288325,
                -0.3474729494116432
            ]
        },
        {
            "positions": [
                1.1192414672593856,
                -1.3733769724906366,
                -2.419830071500703,
                0.6249425127521169,
                0.40429947685557377,
                -0.39020390920512166
            ]
        },
        {
            "positions": [
                1.1695568552917601,
                -1.3614019384694398,
                -2.2783243917071747,
                0.5780146802877046,
                0.4263185655135588,
                -0.2713111696454308
            ]
        },
        {
            "positions": [
                1.2198722433241347,
                -1.349426904448243,
                -2.136818711913647,
                0.5310868478232925,
                0.4483376541715438,
                -0.15241843008573996
            ]
        },
        {
            "positions": [
                1.2701876313565093,
                -1.3374518704270462,
                -1.9953130321201191,
                0.4841590153588803,
                0.4703567428295289,
                -0.03352569052604909
            ]
        },
        {
            "positions": [
                1.3205030193888836,
                -1.3254768364058493,
                -1.8538073523265912,
                0.4372311828944681,
                0.4923758314875139,
                0.08536704903364173
            ]
        },
        {
            "positions": [
                1.3708184074212582,
                -1.3135018023846525,
                -1.7123016725330633,
                0.39030335043005593,
                0.5143949201454989,
                0.20425978859333255
            ]
        },
        {
            "positions": [
                1.4211337954536327,
                -1.3015267683634557,
                -1.5707959927395354,
                0.34337551796564375,
                0.536414008803484,
                0.3231525281530235
            ]
        },
        {
            "positions": [
                1.4714491834860073,
                -1.289551734342259,
                -1.4292903129460073,
                0.2964476855012316,
                0.5584330974614691,
                0.4420452677127143
            ]
        },
        {
            "positions": [
                1.5217645715183816,
                -1.277576700321062,
                -1.2877846331524796,
                0.24951985303681934,
                0.580452186119454,
                0.5609380072724051
            ]
        },
        {
            "positions": [
                1.5720799595507562,
                -1.2656016662998653,
                -1.1462789533589517,
                0.20259202057240716,
                0.6024712747774391,
                0.6798307468320959
            ]
        },
        {
            "positions": [
                1.6223953475831308,
                -1.2536266322786684,
                -1.0047732735654238,
                0.15566418810799498,
                0.6244903634354241,
                0.7987234863917867
            ]
        },
        {
            "positions": [
                1.6727107356155053,
                -1.2416515982574716,
                -0.8632675937718959,
                0.10873635564358286,
                0.6465094520934092,
                0.9176162259514775
            ]
        },
        {
            "positions": [
                1.7230261236478799,
                -1.2296765642362748,
                -0.7217619139783678,
                0.06180852317917063,
                0.6685285407513941,
                1.0365089655111686
            ]
        },
        {
            "positions": [
                1.7733415116802544,
                -1.217701530215078,
                -0.5802562341848398,
                0.014880690714758393,
                0.6905476294093793,
                1.1554017050708594
            ]
        },
        {
            "positions": [
                1.823656899712629,
                -1.205726496193881,
                -0.43875055439131194,
                -0.03204714174965373,
                0.7125667180673643,
                1.2742944446305502
            ]
        },
        {
            "positions": [
                1.8739722877450034,
                -1.1937514621726844,
                -0.29724487459778404,
                -0.07897497421406596,
                0.7345858067253492,
                1.393187184190241
            ]
        },
        {
            "positions": [
                1.9242876757773777,
                -1.1817764281514873,
                -0.15573919480425635,
                -0.1259028066784782,
                0.7566048953833343,
                1.5120799237499318
            ]
        },
        {
            "positions": [
                1.9746030638097523,
                -1.1698013941302907,
                -0.014233515010728226,
                -0.17283063914289032,
                0.7786239840413194,
                1.6309726633096229
            ]
        },
        {
            "positions": [
                2.024918451842127,
                -1.1578263601090937,
                0.12727216478279946,
                -0.21975847160730255,
                0.8006430726993043,
                1.7498654028693135
            ]
        },
        {
            "positions": [
                2.0752338398745014,
                -1.1458513260878969,
                0.2687778445763276,
                -0.2666863040717147,
                0.8226621613572894,
                1.8687581424290045
            ]
        },
        {
            "positions": [
                2.125549227906876,
                -1.1338762920667,
                0.41028352436985527,
                -0.3136141365361269,
                0.8446812500152745,
                1.987650881988695
            ]
        },
        {
            "positions": [
                2.1758646159392505,
                -1.1219012580455032,
                0.5517892041633834,
                -0.36054196900053903,
                0.8667003386732595,
                2.1065436215483864
            ]
        },
        {
            "positions": [
                2.226180003971625,
                -1.1099262240243064,
                0.6932948839569111,
                -0.40746980146495115,
                0.8887194273312444,
                2.225436361108077
            ]
        },
        {
            "positions": [
                2.2764953920039996,
                -1.0979511900031096,
                0.8348005637504397,
                -0.4543976339293636,
                0.9107385159892296,
                2.344329100667768
            ]
        },
        {
            "positions": [
                2.326810780036374,
                -1.0859761559819128,
                0.9763062435439673,
                -0.5013254663937756,
                0.9327576046472146,
                2.463221840227459
            ]
        },
        {
            "positions": [
                2.3771261680687488,
                -1.074001121960716,
                1.1178119233374955,
                -0.5482532988581879,
                0.9547766933051997,
                2.5821145797871496
            ]
        },
        {
            "positions": [
                2.4274415561011233,
                -1.0620260879395191,
                1.2593176031310231,
                -0.5951811313226001,
                0.9767957819631847,
                2.7010073193468407
            ]
        },
        {
            "positions": [
                2.477756944133498,
                -1.0500510539183223,
                1.4008232829245513,
                -0.6421089637870123,
                0.9988148706211697,
                2.8199000589065313
            ]
        },
        {
            "positions": [
                2.5280723321658725,
                -1.0380760198971255,
                1.542328962718079,
                -0.6890367962514243,
                1.0208339592791549,
                2.9387927984662223
            ]
        },
        {
            "positions": [
                2.5783877201982466,
                -1.0261009858759287,
                1.683834642511607,
                -0.7359646287158366,
                1.0428530479371396,
                3.057685538025913
            ]
        },
        {
            "positions": [
                2.628703108230621,
                -1.0141259518547319,
                1.8253403223051345,
                -0.7828924611802487,
                1.0648721365951248,
                3.176578277585604
            ]
        }
    ]
}