{
    "goal": {
        "global_pose": {
            "orientation": {
                "w": -0.4816463035849501,
                "x": 0.5182115481033762,
                "y": 0.4908360881923453,
                "z": -0.5084816262002911
            },
            "position": {
                "x": -0.8240239810943604,
                "y": -0.300875300988555,
                "z": 0.16403168439865112
            }
        },
        "name": "move_to_storage_C"
    },
    "id": "RRTConnect_move_to_storage_C_55",
    "joint_names": [
        "shoulder_pan_joint",
        "shoulder_lift_joint",
        "elbow_joint",
        "wrist_1_joint",
        "wrist_2_joint",
        "wrist_3_joint"
    ],
    "metrics": {
        "cart_traj_len": 0.5762690374745731,
        "distance_elbow_joint": 0.2620680767736441,
        "distance_shoulder_lift_joint": 0.19053113941235755,
        "distance_shoulder_pan_joint": 0.4925789538743941,
        "distance_wrist_1_joint": 0.09015077403240401,
        "distance_wrist_2_joint": 1.0769824687213734,
        "distance_wrist_3_joint": 0.06562992044387439,
        "smoothness": 5.075305295617109e-16,
        "time": 0.059152973,
        "traj_len": 1.475784988830706,
        "weighted_distance": 1.8644930723656694
    },
    "planner": "RRTConnect",
    "start": {
        "state": {
            "elbow_joint": 2.010868314990456,
            "shoulder_lift_joint": -1.1634956873337592,
            "shoulder_pan_joint": -2.4736205022346125,
            "wrist_1_joint": -0.8367026794202681,
            "wrist_2_joint": 0.6746043897044499,
            "wrist_3_joint": -3.1496632123970403
        }
    },
    "waypoints": [
        {
            "positions": [
                -2.4736205022346125,
                -1.1634956873337592,
                2.010868314990456,
                -0.8367026794202681,
                0.6746043897044499,
                -3.1496632123970403
            ]
        },
        {
            "positions": [
                -2.5557169945470113,
                -1.1317404974316996,
                1.9671903021948485,
                -0.8216775504148675,
                0.8541014678246788,
                -3.138724892323061
            ]
        },
        {
            "positions": [
                -2.6378134868594105,
                -1.09998530752964,
                1.9235122893992411,
                -0.8066524214094668,
                1.0335985459449077,
                -3.1277865722490823
            ]
        },
        {
            "positions": [
                -2.7199099791718098,
                -1.0682301176275804,
                1.8798342766036338,
                -0.7916272924040662,
                1.2130956240651365,
                -3.116848252175103
            ]
        },
        {
            "positions": [
                -2.8020064714842086,
                -1.0364749277255207,
                1.8361562638080264,
                -0.7766021633986654,
                1.3925927021853655,
                -3.105909932101124
            ]
        },
        {
            "positions": [
                -2.8841029637966074,
                -1.0047197378234611,
                1.792478251012419,
                -0.7615770343932647,
                1.5720897803055944,
                -3.094971612027145
            ]
        },
        {
            "positions": [
                -2.9661994561090066,
                -0.9729645479214016,
                1.7488002382168117,
                -0.7465519053878641,
                1.7515868584258232,
                -3.084033291953166
            ]
        }
    ]
}