{
    "goal": {
        "global_pose": {
            "orientation": {
                "w": 0.005598929693374612,
                "x": 0.007748599140229565,
                "y": 0.7110244013736278,
                "z": -0.7031023480610252
            },
            "position": {
                "x": 0.1141497679147869,
                "y": -0.7141253447532654,
                "z": 0.3711530566215515
            }
        },
        "name": "move_to_auspresseinheit_B"
    },
    "id": "RRTConnect_move_to_auspresseinheit_B_9",
    "joint_names": [
        "shoulder_pan_joint",
        "shoulder_lift_joint",
        "elbow_joint",
        "wrist_1_joint",
        "wrist_2_joint",
        "wrist_3_joint"
    ],
    "metrics": {
        "cart_traj_len": 0.5646042067133308,
        "distance_elbow_joint": 0.060722288711353656,
        "distance_shoulder_lift_joint": 0.29421779502585244,
        "distance_shoulder_pan_joint": 0.5772113237713208,
        "distance_wrist_1_joint": 0.3148925622494577,
        "distance_wrist_2_joint": 0.9894467561143148,
        "distance_wrist_3_joint": 0.00020538383588286635,
        "smoothness": 5.075305255429287e-16,
        "time": 0.07851095899999999,
        "traj_len": 1.4955587951358456,
        "weighted_distance": 1.8818730551617238
    },
    "planner": "RRTConnect",
    "start": {
        "state": {
            "elbow_joint": 2.0193083361928714,
            "shoulder_lift_joint": -1.1220246554650708,
            "shoulder_pan_joint": -1.0952077554168747,
            "wrist_1_joint": -0.8559753972642168,
            "wrist_2_joint": 0.4759566250798843,
            "wrist_3_joint": -3.1240929996934557
        }
    },
    "waypoints": [
        {
            "positions": [
                -1.0952077554168747,
                -1.1220246554650708,
                2.0193083361928714,
                -0.8559753972642168,
                0.4759566250798843,
                -3.1240929996934557
            ]
        },
        {
            "positions": [
                -1.1914096427120948,
                -1.1710609546360462,
                2.009187954740979,
                -0.8034933035559738,
                0.6408644177656034,
                -3.124058769054142
            ]
        },
        {
            "positions": [
                -1.287611530007315,
                -1.2200972538070216,
                1.9990675732890868,
                -0.7510112098477308,
                0.8057722104513225,
                -3.124024538414828
            ]
        },
        {
            "positions": [
                -1.3838134173025352,
                -1.269133552977997,
                1.9889471918371946,
                -0.698529116139488,
                0.9706800031370417,
                -3.1239903077755145
            ]
        },
        {
            "positions": [
                -1.480015304597755,
                -1.3181698521489724,
                1.9788268103853024,
                -0.646047022431245,
                1.1355877958227607,
                -3.1239560771362003
            ]
        },
        {
            "positions": [
                -1.5762171918929753,
                -1.3672061513199478,
                1.96870642893341,
                -0.593564928723002,
                1.30049558850848,
                -3.1239218464968865
            ]
        },
        {
            "positions": [
                -1.6724190791881954,
                -1.4162424504909232,
                1.9585860474815178,
                -0.5410828350147591,
                1.465403381194199,
                -3.123887615857573
            ]
        }
    ]
}