{
    "goal": {
        "global_pose": {
            "orientation": {
                "w": 0.7031023502349854,
                "x": -0.7110244035720825,
                "y": 0.007748599164187908,
                "z": 0.005598929710686207
            },
            "position": {
                "x": 0.11585023208521307,
                "y": 0.44412534475326537,
                "z": 0.3711530566215515
            }
        },
        "name": "move_to_auspresseinheit_A"
    },
    "id": "RRTConnect_move_to_auspresseinheit_A_35",
    "joint_names": [
        "shoulder_pan_joint",
        "shoulder_lift_joint",
        "elbow_joint",
        "wrist_1_joint",
        "wrist_2_joint",
        "wrist_3_joint"
    ],
    "metrics": {
        "cart_traj_len": 1.727888038338572,
        "distance_elbow_joint": 2.029090088715988,
        "distance_shoulder_lift_joint": 0.8795188339297162,
        "distance_shoulder_pan_joint": 1.6578102755078166,
        "distance_wrist_1_joint": 2.123969838377137,
        "distance_wrist_2_joint": 4.220132329176167,
        "distance_wrist_3_joint": 3.3837000520760334,
        "smoothness": 0.8213905851245398,
        "time": 0.08657409399999999,
        "traj_len": 3.780769950391437,
        "weighted_distance": 5.235047630106934
    },
    "planner": "RRTConnect",
    "start": {
        "state": {
            "elbow_joint": 2.4225746658250005,
            "shoulder_lift_joint": -1.3736534386056498,
            "shoulder_pan_joint": -0.3378633547517467,
            "wrist_1_joint": -1.0288598680537169,
            "wrist_2_joint": 1.233022673432363,
            "wrist_3_joint": -3.0940220416140027
        }
    },
    "waypoints": [
        {
            "positions": [
                -0.3378633547517467,
                -1.3736534386056498,
                2.4225746658250005,
                -1.0288598680537169,
                1.233022673432363,
                -3.0940220416140027
            ]
        },
        {
            "positions": [
                -0.35408987602739034,
                -1.4007988945042025,
                2.368372200740294,
                -0.9580768677380298,
                1.1078808615543534,
                -3.0058806400830345
            ]
        },
        {
            "positions": [
                -0.370316397303034,
                -1.4279443504027551,
                2.3141697356555877,
                -0.8872938674223428,
                0.9827390496763435,
                -2.917739238552066
            ]
        },
        {
            "positions": [
                -0.3865429185786776,
                -1.4550898063013078,
                2.2599672705708818,
                -0.8165108671066559,
                0.8575972377983339,
                -2.829597837021098
            ]
        },
        {
            "positions": [
                -0.40276943985432123,
                -1.4822352621998605,
                2.2057648054861754,
                -0.7457278667909688,
                0.7324554259203241,
                -2.7414564354901296
            ]
        },
        {
            "positions": [
                -0.4189959611299649,
                -1.5093807180984131,
                2.151562340401469,
                -0.6749448664752818,
                0.6073136140423144,
                -2.653315033959162
            ]
        },
        {
            "positions": [
                -0.4352224824056085,
                -1.5365261739969658,
                2.0973598753167626,
                -0.6041618661595949,
                0.48217180216430466,
                -2.5651736324281935
            ]
        },
        {
            "positions": [
                -0.4514490036812522,
                -1.5636716298955184,
                2.043157410232056,
                -0.5333788658439078,
                0.3570299902862949,
                -2.4770322308972252
            ]
        },
        {
            "positions": [
                -0.4676755249568958,
                -1.590817085794071,
                1.9889549451473503,
                -0.46259586552822074,
                0.23188817840828513,
                -2.388890829366257
            ]
        },
        {
            "positions": [
                -0.4839020462325394,
                -1.6179625416926238,
                1.9347524800626439,
                -0.3918128652125338,
                0.10674636653027547,
                -2.3007494278352887
            ]
        },
        {
            "positions": [
                -0.500128567508183,
                -1.6451079975911764,
                1.8805500149779375,
                -0.3210298648968468,
                -0.018395445347734185,
                -2.2126080263043204
            ]
        },
        {
            "positions": [
                -0.5163550887838266,
                -1.672253453489729,
                1.8263475498932311,
                -0.25024686458115974,
                -0.14353725722574406,
                -2.124466624773352
            ]
        },
        {
            "positions": [
                -0.5325816100594702,
                -1.6993989093882818,
                1.772145084808525,
                -0.17946386426547278,
                -0.2686790691037537,
                -2.0363252232423843
            ]
        },
        {
            "positions": [
                -0.548808131335114,
                -1.7265443652868344,
                1.7179426197238188,
                -0.10868086394978571,
                -0.3938208809817636,
                -1.9481838217114158
            ]
        },
        {
            "positions": [
                -0.5650346526107576,
                -1.753689821185387,
                1.6637401546391124,
                -0.03789786363409875,
                -0.5189626928597733,
                -1.8600424201804475
            ]
        },
        {
            "positions": [
                -0.5812611738864012,
                -1.7808352770839397,
                1.609537689554406,
                0.03288513668158832,
                -0.6441045047377831,
                -1.7719010186494792
            ]
        },
        {
            "positions": [
                -0.5974876951620449,
                -1.8079807329824924,
                1.5553352244696999,
                0.1036681369972754,
                -0.7692463166157928,
                -1.6837596171185112
            ]
        },
        {
            "positions": [
                -0.6137142164376885,
                -1.835126188881045,
                1.5011327593849935,
                0.17445113731296247,
                -0.8943881284938027,
                -1.595618215587543
            ]
        },
        {
            "positions": [
                -0.6299407377133321,
                -1.8622716447795977,
                1.4469302943002873,
                0.24523413762864932,
                -1.019529940371812,
                -1.5074768140565746
            ]
        },
        {
            "positions": [
                -0.6461672589889758,
                -1.8894171006781504,
                1.392727829215581,
                0.3160171379443364,
                -1.144671752249822,
                -1.4193354125256064
            ]
        },
        {
            "positions": [
                -0.5737292879325019,
                -1.8771076745879696,
                1.4547027359068443,
                0.2774842812636299,
                -1.0371668725871674,
                -1.5007839501934226
            ]
        },
        {
            "positions": [
                -0.501291316876028,
                -1.8647982484977887,
                1.5166776425981077,
                0.2389514245829234,
                -0.929661992924513,
                -1.5822324878612388
            ]
        },
        {
            "positions": [
                -0.42885334581955414,
                -1.852488822407608,
                1.578652549289371,
                0.2004185679022169,
                -0.8221571132618586,
                -1.6636810255290553
            ]
        },
        {
            "positions": [
                -0.3564153747630802,
                -1.840179396317427,
                1.6406274559806344,
                0.1618857112215104,
                -0.714652233599204,
                -1.7451295631968715
            ]
        },
        {
            "positions": [
                -0.2839774037066063,
                -1.8278699702272463,
                1.7026023626718978,
                0.12335285454080391,
                -0.6071473539365495,
                -1.8265781008646877
            ]
        },
        {
            "positions": [
                -0.21153943265013248,
                -1.8155605441370655,
                1.7645772693631612,
                0.08481999786009742,
                -0.4996424742738951,
                -1.9080266385325042
            ]
        },
        {
            "positions": [
                -0.13910146159365855,
                -1.8032511180468846,
                1.8265521760544245,
                0.04628714117939092,
                -0.39213759461124054,
                -1.9894751762003204
            ]
        },
        {
            "positions": [
                -0.06666349053718468,
                -1.7909416919567036,
                1.888527082745688,
                0.007754284498684427,
                -0.2846327149485861,
                -2.0709237138681367
            ]
        },
        {
            "positions": [
                0.0057744805192893045,
                -1.7786322658665228,
                1.9505019894369513,
                -0.030778572182022068,
                -0.17712783528593146,
                -2.152372251535953
            ]
        },
        {
            "positions": [
                0.07821245157576318,
                -1.766322839776342,
                2.0124768961282147,
                -0.06931142886272856,
                -0.06962295562327703,
                -2.2338207892037696
            ]
        },
        {
            "positions": [
                0.15065042263223694,
                -1.7540134136861611,
                2.0744518028194783,
                -0.10784428554343506,
                0.03788192403937751,
                -2.3152693268715856
            ]
        },
        {
            "positions": [
                0.2230883936887108,
                -1.7417039875959803,
                2.1364267095107414,
                -0.14637714222414155,
                0.14538680370203183,
                -2.3967178645394016
            ]
        },
        {
            "positions": [
                0.2955263647451848,
                -1.7293945615057995,
                2.1984016162020046,
                -0.18490999890484805,
                0.25289168336468637,
                -2.4781664022072185
            ]
        },
        {
            "positions": [
                0.36796433580165855,
                -1.7170851354156187,
                2.260376522893268,
                -0.22344285558555457,
                0.36039656302734085,
                -2.5596149398750345
            ]
        },
        {
            "positions": [
                0.43503929109764927,
                -1.7553697767345555,
                2.2866954345790442,
                -0.2713694233553934,
                0.42787048067070493,
                -2.6733617190026764
            ]
        },
        {
            "positions": [
                0.50211424639364,
                -1.7936544180534923,
                2.3130143462648207,
                -0.31929599112523216,
                0.49534439831406896,
                -2.7871084981303182
            ]
        },
        {
            "positions": [
                0.5691892016896306,
                -1.831939059372429,
                2.3393332579505968,
                -0.36722255889507094,
                0.562818315957433,
                -2.9008552772579597
            ]
        },
        {
            "positions": [
                0.6362641569856213,
                -1.8702237006913658,
                2.3656521696363733,
                -0.4151491266649097,
                0.6302922336007971,
                -3.0146020563856015
            ]
        },
        {
            "positions": [
                0.7033391122816121,
                -1.9085083420103026,
                2.3919710813221493,
                -0.4630756944347485,
                0.6977661512441612,
                -3.1283488355132434
            ]
        }
    ]
}