{
    "goal": {
        "global_pose": {
            "orientation": {
                "w": 0.7047431493862688,
                "x": -0.7094548369677653,
                "y": 0.0024358444001904,
                "z": -0.0022348060817251984
            },
            "position": {
                "x": -0.39052492380142206,
                "y": 0.3671506643295288,
                "z": 0.19426114857196808
            }
        },
        "name": "move_to_magneteinheit_D"
    },
    "id": "RRTConnect_move_to_magneteinheit_D_67",
    "joint_names": [
        "shoulder_pan_joint",
        "shoulder_lift_joint",
        "elbow_joint",
        "wrist_1_joint",
        "wrist_2_joint",
        "wrist_3_joint"
    ],
    "metrics": {
        "cart_traj_len": 4.533206522469502,
        "distance_elbow_joint": 5.746090688297125,
        "distance_shoulder_lift_joint": 1.627197627493153,
        "distance_shoulder_pan_joint": 2.8838142048871047,
        "distance_wrist_1_joint": 3.6871359421672887,
        "distance_wrist_2_joint": 3.932785785596164,
        "distance_wrist_3_joint": 3.3158088559693786,
        "smoothness": 0.20553738927222945,
        "time": 0.22501813099999998,
        "traj_len": 4.603567432373529,
        "weighted_distance": 5.953517661358904
    },
    "planner": "RRTConnect",
    "start": {
        "state": {
            "elbow_joint": 0.749534889911806,
            "shoulder_lift_joint": -0.6476975780787326,
            "shoulder_pan_joint": -2.711696901376241,
            "wrist_1_joint": -0.07506478083263063,
            "wrist_2_joint": 0.43296659715538205,
            "wrist_3_joint": -3.14703540197715
        }
    },
    "waypoints": [
        {
            "positions": [
                -2.711696901376241,
                -0.6476975780787326,
                0.749534889911806,
                -0.07506478083263063,
                0.43296659715538205,
                -3.14703540197715
            ]
        },
        {
            "positions": [
                -2.709199197337462,
                -0.6695795455422368,
                0.8166762214472203,
                -0.14731535611709481,
                0.5208714749294521,
                -3.018221776911937
            ]
        },
        {
            "positions": [
                -2.7067014932986826,
                -0.6914615130057409,
                0.8838175529826345,
                -0.219565931401559,
                0.6087763527035222,
                -2.8894081518467236
            ]
        },
        {
            "positions": [
                -2.7042037892599033,
                -0.7133434804692449,
                0.9509588845180488,
                -0.2918165066860232,
                0.6966812304775922,
                -2.76059452678151
            ]
        },
        {
            "positions": [
                -2.701706085221124,
                -0.735225447932749,
                1.0181002160534631,
                -0.36406708197048737,
                0.7845861082516622,
                -2.631780901716297
            ]
        },
        {
            "positions": [
                -2.684498980175501,
                -0.7660801558248962,
                1.0824858735502125,
                -0.4242385856370349,
                0.8726534868323508,
                -2.497048371453186
            ]
        },
        {
            "positions": [
                -2.667291875129878,
                -0.7969348637170434,
                1.146871531046962,
                -0.4844100893035825,
                0.9607208654130392,
                -2.362315841190075
            ]
        },
        {
            "positions": [
                -2.6500847700842547,
                -0.8277895716091905,
                1.2112571885437113,
                -0.5445815929701301,
                1.048788243993728,
                -2.227583310926964
            ]
        },
        {
            "positions": [
                -2.6328776650386314,
                -0.8586442795013377,
                1.2756428460404607,
                -0.6047530966366776,
                1.1368556225744164,
                -2.092850780663853
            ]
        },
        {
            "positions": [
                -2.6156705599930086,
                -0.8894989873934849,
                1.34002850353721,
                -0.6649246003032252,
                1.2249230011551049,
                -1.9581182504007417
            ]
        },
        {
            "positions": [
                -2.5984634549473853,
                -0.920353695285632,
                1.4044141610339593,
                -0.7250961039697728,
                1.3129903797357936,
                -1.8233857201376307
            ]
        },
        {
            "positions": [
                -2.581256349901762,
                -0.9512084031777792,
                1.4687998185307087,
                -0.7852676076363203,
                1.4010577583164823,
                -1.6886531898745196
            ]
        },
        {
            "positions": [
                -2.564049244856139,
                -0.9820631110699264,
                1.5331854760274581,
                -0.8454391113028679,
                1.4891251368971705,
                -1.5539206596114084
            ]
        },
        {
            "positions": [
                -2.546842139810516,
                -1.0129178189620736,
                1.5975711335242075,
                -0.9056106149694154,
                1.5771925154778592,
                -1.4191881293482973
            ]
        },
        {
            "positions": [
                -2.4978711902195334,
                -1.0594397407792109,
                1.6478194785809832,
                -0.9331333522038646,
                1.654948420354785,
                -1.2847900168957793
            ]
        },
        {
            "positions": [
                -2.4489002406285514,
                -1.105961662596348,
                1.698067823637759,
                -0.9606560894383139,
                1.7327043252317107,
                -1.1503919044432613
            ]
        },
        {
            "positions": [
                -2.399929291037569,
                -1.1524835844134853,
                1.7483161686945348,
                -0.9881788266727631,
                1.8104602301086365,
                -1.0159937919907434
            ]
        },
        {
            "positions": [
                -2.350958341446587,
                -1.1990055062306226,
                1.7985645137513104,
                -1.0157015639072124,
                1.8882161349855622,
                -0.8815956795382254
            ]
        },
        {
            "positions": [
                -2.3019873918556044,
                -1.2455274280477597,
                1.8488128588080863,
                -1.0432243011416615,
                1.9659720398624883,
                -0.7471975670857074
            ]
        },
        {
            "positions": [
                -2.2530164422646224,
                -1.292049349864897,
                1.899061203864862,
                -1.0707470383761108,
                2.043727944739414,
                -0.6127994546331894
            ]
        },
        {
            "positions": [
                -2.20404549267364,
                -1.3385712716820344,
                1.9493095489216377,
                -1.0982697756105602,
                2.1214838496163395,
                -0.47840134218067143
            ]
        },
        {
            "positions": [
                -2.155074543082658,
                -1.3850931934991715,
                1.9995578939784133,
                -1.1257925128450093,
                2.1992397544932656,
                -0.34400322972815345
            ]
        },
        {
            "positions": [
                -2.1061035934916754,
                -1.4316151153163088,
                2.049806239035189,
                -1.1533152500794586,
                2.276995659370191,
                -0.20960511727563536
            ]
        },
        {
            "positions": [
                -1.9900948210025486,
                -1.489175403762329,
                2.0213888657922867,
                -1.072594085773189,
                2.269395490405294,
                -0.15431853558601633
            ]
        },
        {
            "positions": [
                -1.9042993383046483,
                -1.527180999087658,
                1.9625779529782905,
                -1.0039728434899962,
                2.2434501404433655,
                -0.12043452786571923
            ]
        },
        {
            "positions": [
                -1.8185038556067479,
                -1.5651865944129866,
                1.9037670401642943,
                -0.9353516012068033,
                2.2175047904814367,
                -0.08655052014542214
            ]
        },
        {
            "positions": [
                -1.7327083729088475,
                -1.6031921897383152,
                1.844956127350298,
                -0.8667303589236104,
                2.1915594405195082,
                -0.052666512425125045
            ]
        },
        {
            "positions": [
                -1.6469128902109471,
                -1.641197785063644,
                1.7861452145363017,
                -0.7981091166404175,
                2.16561409055758,
                -0.01878250470482795
            ]
        },
        {
            "positions": [
                -1.5838207746395867,
                -1.6612662622037262,
                1.634867611841627,
                -0.7172916097556682,
                2.0910697502715,
                -0.013389213329500948
            ]
        },
        {
            "positions": [
                -1.5207286590682263,
                -1.6813347393438085,
                1.4835900091469525,
                -0.6364741028709189,
                2.016525409985421,
                -0.007995921954173944
            ]
        },
        {
            "positions": [
                -1.4576365434968657,
                -1.7014032164838906,
                1.3323124064522776,
                -0.5556565959861695,
                1.9419810696993411,
                -0.0026026305788469407
            ]
        },
        {
            "positions": [
                -1.3945444279255053,
                -1.7214716936239727,
                1.181034803757603,
                -0.47483908910142014,
                1.8674367294132617,
                0.002790660796480063
            ]
        },
        {
            "positions": [
                -1.3314523123541449,
                -1.7415401707640548,
                1.0297572010629283,
                -0.3940215822166708,
                1.7928923891271822,
                0.008183952171807066
            ]
        },
        {
            "positions": [
                -1.2683601967827844,
                -1.761608647904137,
                0.8784795983682536,
                -0.31320407533192146,
                1.7183480488411025,
                0.01357724354713407
            ]
        },
        {
            "positions": [
                -1.205268081211424,
                -1.7816771250442192,
                0.7272019956735791,
                -0.2323865684471722,
                1.643803708555023,
                0.01897053492246107
            ]
        },
        {
            "positions": [
                -1.1421759656400634,
                -1.8017456021843012,
                0.5759243929789044,
                -0.15156906156242278,
                1.5692593682689435,
                0.024363826297788077
            ]
        },
        {
            "positions": [
                -1.0790838500687032,
                -1.8218140793243833,
                0.4246467902842297,
                -0.07075155467767347,
                1.4947150279828638,
                0.029757117673115077
            ]
        },
        {
            "positions": [
                -1.0159917344973426,
                -1.8418825564644656,
                0.273369187589555,
                0.010065952207075957,
                1.4201706876967843,
                0.035150409048442084
            ]
        },
        {
            "positions": [
                -0.9528996189259822,
                -1.8619510336045477,
                0.12209158489488048,
                0.09088345909182516,
                1.3456263474107049,
                0.040543700423769084
            ]
        },
        {
            "positions": [
                -0.8898075033546217,
                -1.8820195107446298,
                -0.02918601779979446,
                0.17170096597657458,
                1.2710820071246252,
                0.04593699179909609
            ]
        },
        {
            "positions": [
                -0.8267153877832613,
                -1.9020879878847121,
                -0.18046362049446896,
                0.2525184728613239,
                1.196537666838546,
                0.05133028317442309
            ]
        },
        {
            "positions": [
                -0.7636232722119008,
                -1.9221564650247942,
                -0.33174122318914345,
                0.3333359797460731,
                1.1219933265524662,
                0.05672357454975009
            ]
        },
        {
            "positions": [
                -0.7005311566405404,
                -1.9422249421648763,
                -0.48301882588381795,
                0.4141534866308225,
                1.0474489862663867,
                0.06211686592507709
            ]
        },
        {
            "positions": [
                -0.6374390410691799,
                -1.9622934193049586,
                -0.6342964285784929,
                0.49497099351557194,
                0.972904645980307,
                0.0675101573004041
            ]
        },
        {
            "positions": [
                -0.5743469254978195,
                -1.9823618964450405,
                -0.7855740312731678,
                0.5757885004003214,
                0.8983603056942275,
                0.0729034486757311
            ]
        },
        {
            "positions": [
                -0.5112548099264591,
                -2.0024303735851228,
                -0.9368516339678423,
                0.6566060072850706,
                0.823815965408148,
                0.0782967400510581
            ]
        },
        {
            "positions": [
                -0.4481626943550987,
                -2.0224988507252046,
                -1.0881292366625168,
                0.7374235141698198,
                0.7492716251220686,
                0.0836900314263851
            ]
        },
        {
            "positions": [
                -0.38507057878373807,
                -2.042567327865287,
                -1.2394068393571918,
                0.8182410210545694,
                0.6747272848359889,
                0.08908332280171212
            ]
        },
        {
            "positions": [
                -0.32197846321237766,
                -2.0626358050053692,
                -1.3906844420518663,
                0.8990585279393186,
                0.6001829445499094,
                0.09447661417703912
            ]
        },
        {
            "positions": [
                -0.25888634764101726,
                -2.0827042821454516,
                -1.5419620447465407,
                0.9798760348240678,
                0.5256386042638299,
                0.09986990555236612
            ]
        },
        {
            "positions": [
                -0.19579423206965685,
                -2.1027727592855334,
                -1.6932396474412157,
                1.0606935417088172,
                0.45109426397775043,
                0.10526319692769312
            ]
        },
        {
            "positions": [
                -0.13270211649829622,
                -2.1228412364256157,
                -1.8445172501358906,
                1.1415110485935667,
                0.37654992369167073,
                0.11065648830302013
            ]
        },
        {
            "positions": [
                -0.06961000092693581,
                -2.1429097135656976,
                -1.9957948528305651,
                1.2223285554783159,
                0.30200558340559125,
                0.11604977967834715
            ]
        },
        {
            "positions": [
                -0.006517885355575334,
                -2.16297819070578,
                -2.14707245552524,
                1.3031460623630653,
                0.22746124311951177,
                0.12144307105367413
            ]
        },
        {
            "positions": [
                -0.09583547978879374,
                -2.2189366981388328,
                -2.271542777831894,
                1.379358142602034,
                0.2078500895541754,
                0.09777787958439876
            ]
        },
        {
            "positions": [
                -0.18515307422201213,
                -2.2748952055718856,
                -2.396013100138549,
                1.4555702228410026,
                0.18823893598883898,
                0.07411268811512338
            ]
        }
    ]
}