{
    "goal": {
        "global_pose": {
            "orientation": {
                "w": 0.5084816217422485,
                "x": -0.49083608388900757,
                "y": 0.5182115435600281,
                "z": -0.4816462993621826
            },
            "position": {
                "x": 0.5540239810943604,
                "y": 0.030875300988554955,
                "z": 0.16403168439865112
            }
        },
        "name": "move_to_storage_A"
    },
    "id": "RRTConnect_move_to_storage_A_75",
    "joint_names": [
        "shoulder_pan_joint",
        "shoulder_lift_joint",
        "elbow_joint",
        "wrist_1_joint",
        "wrist_2_joint",
        "wrist_3_joint"
    ],
    "metrics": {
        "cart_traj_len": 0.3530775652619609,
        "distance_elbow_joint": 0.4489779472738318,
        "distance_shoulder_lift_joint": 0.2345554410816968,
        "distance_shoulder_pan_joint": 0.46133101822276473,
        "distance_wrist_1_joint": 0.23750202203806936,
        "distance_wrist_2_joint": 1.1004776169084014,
        "distance_wrist_3_joint": 0.10441770615267476,
        "smoothness": 4.440892098500626e-16,
        "time": 0.051514197,
        "traj_len": 1.6084967366076435,
        "weighted_distance": 2.033242927672259
    },
    "planner": "RRTConnect",
    "start": {
        "state": {
            "elbow_joint": 1.971548259319323,
            "shoulder_lift_joint": -1.1394851275133948,
            "shoulder_pan_joint": 0.1228115487234821,
            "wrist_1_joint": -0.7804723859257726,
            "wrist_2_joint": 0.12958671773740124,
            "wrist_3_joint": -3.192489227718131
        }
    },
    "waypoints": [
        {
            "positions": [
                0.1228115487234821,
                -1.1394851275133948,
                1.971548259319323,
                -0.7804723859257726,
                0.12958671773740124,
                -3.192489227718131
            ]
        },
        {
            "positions": [
                0.05690711754880143,
                -1.172993047667923,
                2.0356879660727274,
                -0.8144012462169253,
                0.28679780586717285,
                -3.1775724125534635
            ]
        },
        {
            "positions": [
                -0.008997313625879244,
                -1.206500967822451,
                2.099827672826132,
                -0.8483301065080782,
                0.44400889399694443,
                -3.1626555973887953
            ]
        },
        {
            "positions": [
                -0.07490174480055992,
                -1.240008887976979,
                2.1639673795795367,
                -0.8822589667992309,
                0.6012199821267161,
                -3.1477387822241276
            ]
        },
        {
            "positions": [
                -0.1408061759752406,
                -1.2735168081315074,
                2.2281070863329413,
                -0.9161878270903837,
                0.7584310702564877,
                -3.13282196705946
            ]
        },
        {
            "positions": [
                -0.2067106071499213,
                -1.3070247282860354,
                2.2922467930863455,
                -0.9501166873815364,
                0.9156421583862594,
                -3.1179051518947922
            ]
        },
        {
            "positions": [
                -0.27261503832460193,
                -1.3405326484405635,
                2.35638649983975,
                -0.9840455476726893,
                1.072853246516031,
                -3.102988336730124
            ]
        },
        {
            "positions": [
                -0.33851946949928263,
                -1.3740405685950916,
                2.4205262065931548,
                -1.017974407963842,
                1.2300643346458027,
                -3.0880715215654564
            ]
        }
    ]
}{
    "goal": {
        "global_pose": {
            "orientation": {
                "w": 0.5084816217422485,
                "x": -0.49083608388900757,
                "y": 0.5182115435600281,
                "z": -0.4816462993621826
            },
            "position": {
                "x": 0.5540239810943604,
                "y": 0.030875300988554955,
                "z": 0.16403168439865112
            }
        },
        "name": "move_to_storage_A"
    },
    "id": "RRTConnect_move_to_storage_A_75",
    "joint_names": [
        "shoulder_pan_joint",
        "shoulder_lift_joint",
        "elbow_joint",
        "wrist_1_joint",
        "wrist_2_joint",
        "wrist_3_joint"
    ],
    "metrics": {
        "cart_traj_len": 0.35288458934196243,
        "distance_elbow_joint": 0.4488230139813014,
        "distance_shoulder_lift_joint": 0.2353643320918306,
        "distance_shoulder_pan_joint": 0.4601580046629414,
        "distance_wrist_1_joint": 0.2343626790756066,
        "distance_wrist_2_joint": 1.1045973301252414,
        "distance_wrist_3_joint": 0.09227847806975964,
        "smoothness": 8.881784267329941e-16,
        "time": 0.05634393,
        "traj_len": 1.6048625604726034,
        "weighted_distance": 2.0246236201692027
    },
    "planner": "RRTConnect",
    "start": {
        "state": {
            "elbow_joint": 1.97154746011099,
            "shoulder_lift_joint": -1.13948474672311,
            "shoulder_pan_joint": 0.12281154466712228,
            "wrist_1_joint": -0.7804688027058302,
            "wrist_2_joint": 0.12958655903071145,
            "wrist_3_joint": 3.0906928834467795
        }
    },
    "waypoints": [
        {
            "positions": [
                0.12281154466712228,
                -1.13948474672311,
                1.97154746011099,
                -0.7804688027058302,
                0.12958655903071145,
                3.0906928834467795
            ]
        },
        {
            "positions": [
                0.05707468685813066,
                -1.1731082227362286,
                2.03566503353689,
                -0.8139491854309169,
                0.28738617762003166,
                3.103875523171031
            ]
        },
        {
            "positions": [
                -0.008662170950860956,
                -1.2067316987493473,
                2.0997826069627905,
                -0.8474295681560035,
                0.44518579620935184,
                3.1170581628952823
            ]
        },
        {
            "positions": [
                -0.07439902875985259,
                -1.240355174762466,
                2.1639001803886906,
                -0.8809099508810901,
                0.6029854147986721,
                3.1302408026195336
            ]
        },
        {
            "positions": [
                -0.14013588656884418,
                -1.2739786507755846,
                2.2280177538145907,
                -0.9143903336061768,
                0.7607850333879923,
                3.143423442343785
            ]
        },
        {
            "positions": [
                -0.20587274437783581,
                -1.3076021267887032,
                2.2921353272404907,
                -0.9478707163312634,
                0.9185846519773125,
                3.1566060820680364
            ]
        },
        {
            "positions": [
                -0.27160960218682745,
                -1.341225602801822,
                2.3562529006663913,
                -0.9813510990563501,
                1.0763842705666327,
                3.1697887217922878
            ]
        },
        {
            "positions": [
                -0.3373464599958191,
                -1.3748490788149406,
                2.4203704740922913,
                -1.0148314817814368,
                1.234183889155953,
                3.182971361516539
            ]
        }
    ]
}{
    "goal": {
        "global_pose": {
            "orientation": {
                "w": 0.5084816217422485,
                "x": -0.49083608388900757,
                "y": 0.5182115435600281,
                "z": -0.4816462993621826
            },
            "position": {
                "x": 0.5540239810943604,
                "y": 0.030875300988554955,
                "z": 0.16403168439865112
            }
        },
        "name": "move_to_storage_A"
    },
    "id": "RRTConnect_move_to_storage_A_75",
    "joint_names": [
        "shoulder_pan_joint",
        "shoulder_lift_joint",
        "elbow_joint",
        "wrist_1_joint",
        "wrist_2_joint",
        "wrist_3_joint"
    ],
    "metrics": {
        "cart_traj_len": 3.6652311741527694,
        "distance_elbow_joint": 4.396648788062835,
        "distance_shoulder_lift_joint": 0.6291732422196352,
        "distance_shoulder_pan_joint": 2.7817607138266407,
        "distance_wrist_1_joint": 1.3251904375424532,
        "distance_wrist_2_joint": 1.4769315718949447,
        "distance_wrist_3_joint": 6.169341313422956,
        "smoothness": 0.05414876331147424,
        "time": 0.08514181700000001,
        "traj_len": 4.096223390755132,
        "weighted_distance": 5.6497655440958585
    },
    "planner": "RRTConnect",
    "start": {
        "state": {
            "elbow_joint": 1.9715472970024885,
            "shoulder_lift_joint": -1.1394870060712896,
            "shoulder_pan_joint": 0.12281152778156021,
            "wrist_1_joint": -0.780463741449964,
            "wrist_2_joint": 0.12958659822042276,
            "wrist_3_joint": 3.090690232415272
        }
    },
    "waypoints": [
        {
            "positions": [
                0.12281152778156021,
                -1.1394870060712896,
                1.9715472970024885,
                -0.780463741449964,
                0.12958659822042276,
                3.090690232415272
            ]
        },
        {
            "positions": [
                0.08801729543965647,
                -1.1708631071740425,
                1.9409929351092337,
                -0.8188898648232081,
                0.15647269055416543,
                2.921059028301327
            ]
        },
        {
            "positions": [
                0.05322306309775275,
                -1.2022392082767954,
                1.910438573215979,
                -0.8573159881964523,
                0.18335878288790813,
                2.751427824187382
            ]
        },
        {
            "positions": [
                0.018428830755849016,
                -1.233615309379548,
                1.879884211322724,
                -0.8957421115696964,
                0.2102448752216508,
                2.5817966200734372
            ]
        },
        {
            "positions": [
                -0.016365401586054706,
                -1.264991410482301,
                1.8493298494294694,
                -0.9341682349429405,
                0.23713096755539348,
                2.412165415959492
            ]
        },
        {
            "positions": [
                -0.051159633927958435,
                -1.296367511585054,
                1.8187754875362145,
                -0.9725943583161847,
                0.26401705988913615,
                2.2425342118455474
            ]
        },
        {
            "positions": [
                -0.10636497067764816,
                -1.2999025080379716,
                1.7056307793893941,
                -0.9845542983494213,
                0.22477123204276536,
                2.0774878786317403
            ]
        },
        {
            "positions": [
                -0.16157030742733788,
                -1.303437504490889,
                1.5924860712425737,
                -0.996514238382658,
                0.18552540419639457,
                1.9124415454179333
            ]
        },
        {
            "positions": [
                -0.2167756441770276,
                -1.3069725009438067,
                1.4793413630957533,
                -1.0084741784158946,
                0.14627957635002378,
                1.747395212204126
            ]
        },
        {
            "positions": [
                -0.2719809809267173,
                -1.3105074973967241,
                1.3661966549489328,
                -1.0204341184491312,
                0.10703374850365299,
                1.582348878990319
            ]
        },
        {
            "positions": [
                -0.32718631767640705,
                -1.3140424938496418,
                1.2530519468021124,
                -1.0323940584823679,
                0.0677879206572822,
                1.417302545776512
            ]
        },
        {
            "positions": [
                -0.38239165442609674,
                -1.3175774903025592,
                1.139907238655292,
                -1.0443539985156045,
                0.028542092810911412,
                1.2522562125627048
            ]
        },
        {
            "positions": [
                -0.4375969911757865,
                -1.3211124867554769,
                1.0267625305084715,
                -1.0563139385488411,
                -0.01070373503545935,
                1.0872098793488978
            ]
        },
        {
            "positions": [
                -0.4928023279254762,
                -1.3246474832083943,
                0.913617822361651,
                -1.0682738785820778,
                -0.04994956288183017,
                0.9221635461350908
            ]
        },
        {
            "positions": [
                -0.548007664675166,
                -1.328182479661312,
                0.8004731142148305,
                -1.0802338186153144,
                -0.08919539072820099,
                0.7571172129212835
            ]
        },
        {
            "positions": [
                -0.6032130014248557,
                -1.3317174761142294,
                0.68732840606801,
                -1.092193758648551,
                -0.12844121857457175,
                0.5920708797074767
            ]
        },
        {
            "positions": [
                -0.6584183381745454,
                -1.335252472567147,
                0.5741836979211896,
                -1.1041536986817877,
                -0.16768704642094256,
                0.4270245464936695
            ]
        },
        {
            "positions": [
                -0.7136236749242351,
                -1.3387874690200647,
                0.4610389897743692,
                -1.1161136387150243,
                -0.20693287426731333,
                0.2619782132798625
            ]
        },
        {
            "positions": [
                -0.7688290116739248,
                -1.3423224654729822,
                0.34789428162754876,
                -1.128073578748261,
                -0.2461787021136842,
                0.09693188006605524
            ]
        },
        {
            "positions": [
                -0.8240343484236146,
                -1.3458574619258998,
                0.23474957348072834,
                -1.1400335187814976,
                -0.28542452996005485,
                -0.06811445314775177
            ]
        },
        {
            "positions": [
                -0.8792396851733043,
                -1.3493924583788173,
                0.12160486533390791,
                -1.1519934588147343,
                -0.3246703578064257,
                -0.2331607863615588
            ]
        },
        {
            "positions": [
                -0.934445021922994,
                -1.352927454831735,
                0.00846015718708748,
                -1.1639533988479709,
                -0.3639161856527965,
                -0.3982071195753658
            ]
        },
        {
            "positions": [
                -0.9896503586726836,
                -1.3564624512846524,
                -0.10468455095973273,
                -1.1759133388812075,
                -0.40316201349916725,
                -0.5632534527891728
            ]
        },
        {
            "positions": [
                -1.0448556954223736,
                -1.35999744773757,
                -0.2178292591065536,
                -1.1878732789144442,
                -0.4424078413455381,
                -0.7282997860029803
            ]
        },
        {
            "positions": [
                -1.1000610321720632,
                -1.3635324441904875,
                -0.330973967253374,
                -1.1998332189476808,
                -0.4816536691919089,
                -0.8933461192167873
            ]
        },
        {
            "positions": [
                -1.155266368921753,
                -1.3670674406434051,
                -0.44411867540019445,
                -1.2117931589809174,
                -0.5208994970382796,
                -1.0583924524305939
            ]
        },
        {
            "positions": [
                -1.2104717056714427,
                -1.3706024370963226,
                -0.5572633835470144,
                -1.223753099014154,
                -0.5601453248846504,
                -1.223438785644401
            ]
        },
        {
            "positions": [
                -1.2656770424211325,
                -1.3741374335492402,
                -0.6704080916938353,
                -1.2357130390473907,
                -0.5993911527310213,
                -1.3884851188582084
            ]
        },
        {
            "positions": [
                -1.3208823791708222,
                -1.3776724300021579,
                -0.7835527998406557,
                -1.2476729790806274,
                -0.638636980577392,
                -1.5535314520720154
            ]
        },
        {
            "positions": [
                -1.3760877159205118,
                -1.3812074264550753,
                -0.8966975079874762,
                -1.259632919113864,
                -0.6778828084237628,
                -1.7185777852858224
            ]
        },
        {
            "positions": [
                -1.4312930526702015,
                -1.384742422907993,
                -1.0098422161342961,
                -1.2715928591471006,
                -0.7171286362701336,
                -1.883624118499629
            ]
        },
        {
            "positions": [
                -1.4864983894198913,
                -1.3882774193609104,
                -1.122986924281117,
                -1.2835527991803373,
                -0.7563744641165046,
                -2.048670451713437
            ]
        },
        {
            "positions": [
                -1.541703726169581,
                -1.391812415813828,
                -1.2361316324279374,
                -1.295512739213574,
                -0.7956202919628753,
                -2.213716784927244
            ]
        },
        {
            "positions": [
                -1.5969090629192708,
                -1.3953474122667455,
                -1.3492763405747579,
                -1.3074726792468105,
                -0.8348661198092459,
                -2.378763118141051
            ]
        },
        {
            "positions": [
                -1.6521143996689605,
                -1.3988824087196632,
                -1.4624210487215783,
                -1.3194326192800472,
                -0.8741119476556166,
                -2.543809451354858
            ]
        },
        {
            "positions": [
                -1.7073197364186503,
                -1.4024174051725806,
                -1.5755657568683987,
                -1.3313925593132838,
                -0.9133577755019876,
                -2.708855784568665
            ]
        },
        {
            "positions": [
                -1.76252507316834,
                -1.4059524016254983,
                -1.6887104650152192,
                -1.3433524993465205,
                -0.9526036033483583,
                -2.8739021177824715
            ]
        },
        {
            "positions": [
                -1.8745780872779325,
                -1.4512908824586765,
                -1.78075934327086,
                -1.4386402093022577,
                -0.9683386592219504,
                -2.8994957381856237
            ]
        },
        {
            "positions": [
                -1.986631101387525,
                -1.4966293632918548,
                -1.872808221526501,
                -1.5339279192579947,
                -0.9840737150955425,
                -2.9250893585887754
            ]
        },
        {
            "positions": [
                -2.0986841154971176,
                -1.5419678441250333,
                -1.964857099782142,
                -1.6292156292137316,
                -0.9998087709691346,
                -2.9506829789919276
            ]
        },
        {
            "positions": [
                -2.21073712960671,
                -1.5873063249582116,
                -2.0569059780377827,
                -1.7245033391694689,
                -1.0155438268427268,
                -2.9762765993950797
            ]
        },
        {
            "positions": [
                -2.3227901437163028,
                -1.6326448057913898,
                -2.1489548562934235,
                -1.819791049125206,
                -1.0312788827163188,
                -3.001870219798232
            ]
        },
        {
            "positions": [
                -2.4348431578258953,
                -1.6779832866245683,
                -2.2410037345490643,
                -1.915078759080943,
                -1.0470139385899109,
                -3.027463840201384
            ]
        },
        {
            "positions": [
                -2.546896171935488,
                -1.7233217674577466,
                -2.3330526128047056,
                -2.01036646903668,
                -1.0627489944635031,
                -3.0530574606045358
            ]
        },
        {
            "positions": [
                -2.6589491860450805,
                -1.7686602482909248,
                -2.4251014910603463,
                -2.1056541789924172,
                -1.0784840503370952,
                -3.078651081007688
            ]
        }
    ]
}