{
    "goal": {
        "global_pose": {
            "orientation": {
                "w": -0.4816463035849501,
                "x": 0.5182115481033762,
                "y": 0.4908360881923453,
                "z": -0.5084816262002911
            },
            "position": {
                "x": -0.8240239810943604,
                "y": -0.300875300988555,
                "z": 0.16403168439865112
            }
        },
        "name": "move_to_storage_C"
    },
    "id": "RRTConnect_move_to_storage_C_13",
    "joint_names": [
        "shoulder_pan_joint",
        "shoulder_lift_joint",
        "elbow_joint",
        "wrist_1_joint",
        "wrist_2_joint",
        "wrist_3_joint"
    ],
    "metrics": {
        "cart_traj_len": 0.5766045988307309,
        "distance_elbow_joint": 0.2592023171335036,
        "distance_shoulder_lift_joint": 0.18970487873801523,
        "distance_shoulder_pan_joint": 0.4957090853483801,
        "distance_wrist_1_joint": 0.08647204571445233,
        "distance_wrist_2_joint": 1.0611387399715908,
        "distance_wrist_3_joint": 0.06759169399900644,
        "smoothness": 2.5376526478085547e-16,
        "time": 0.119575127,
        "traj_len": 1.469632185584185,
        "weighted_distance": 1.8554279653462713
    },
    "planner": "RRTConnect",
    "start": {
        "state": {
            "elbow_joint": 2.010868314990456,
            "shoulder_lift_joint": -1.1634956873337592,
            "shoulder_pan_joint": -2.4736205022346125,
            "wrist_1_joint": -0.8367026794202681,
            "wrist_2_joint": 0.6746043897044499,
            "wrist_3_joint": -3.1496632123970403
        }
    },
    "waypoints": [
        {
            "positions": [
                -2.4736205022346125,
                -1.1634956873337592,
                2.010868314990456,
                -0.8367026794202681,
                0.6746043897044499,
                -3.1496632123970403
            ]
        },
        {
            "positions": [
                -2.556238683126009,
                -1.13187820754409,
                1.9676679288015386,
                -0.8222906718011928,
                0.8514608463663818,
                -3.1383979300638725
            ]
        },
        {
            "positions": [
                -2.6388568640174057,
                -1.1002607277544207,
                1.9244675426126212,
                -0.8078786641821173,
                1.0283173030283135,
                -3.1271326477307047
            ]
        },
        {
            "positions": [
                -2.7214750449088028,
                -1.0686432479647516,
                1.881267156423704,
                -0.7934666565630419,
                1.2051737596902452,
                -3.115867365397537
            ]
        },
        {
            "positions": [
                -2.8040932258001994,
                -1.0370257681750823,
                1.8380667702347868,
                -0.7790546489439666,
                1.382030216352177,
                -3.1046020830643695
            ]
        },
        {
            "positions": [
                -2.886711406691596,
                -1.0054082883854132,
                1.7948663840458694,
                -0.7646426413248911,
                1.558886673014109,
                -3.0933368007312017
            ]
        },
        {
            "positions": [
                -2.9693295875829926,
                -0.973790808595744,
                1.7516659978569522,
                -0.7502306337058158,
                1.7357431296760408,
                -3.082071518398034
            ]
        }
    ]
}