{
    "goal": {
        "global_pose": {
            "orientation": {
                "w": -0.00223480608172531,
                "x": 0.0024358444001904467,
                "y": 0.7094548369677653,
                "z": -0.704743149386269
            },
            "position": {
                "x": -0.37947507619857795,
                "y": -0.6371506643295288,
                "z": 0.19426114857196808
            }
        },
        "name": "move_to_magneteinheit_C"
    },
    "id": "RRTConnect_move_to_magneteinheit_C_11",
    "joint_names": [
        "shoulder_pan_joint",
        "shoulder_lift_joint",
        "elbow_joint",
        "wrist_1_joint",
        "wrist_2_joint",
        "wrist_3_joint"
    ],
    "metrics": {
        "cart_traj_len": 2.156091680658846,
        "distance_elbow_joint": 2.590842285099464,
        "distance_shoulder_lift_joint": 0.9520138853046263,
        "distance_shoulder_pan_joint": 1.8039222939819044,
        "distance_wrist_1_joint": 4.721069048030838,
        "distance_wrist_2_joint": 2.574754635405239,
        "distance_wrist_3_joint": 4.321117185822036,
        "smoothness": 0.8939247178169925,
        "time": 0.104042639,
        "traj_len": 4.118703598663554,
        "weighted_distance": 5.73600709454968
    },
    "planner": "RRTConnect",
    "start": {
        "state": {
            "elbow_joint": 1.9565354010623817,
            "shoulder_lift_joint": -1.4165861575791021,
            "shoulder_pan_joint": -1.6717766225146293,
            "wrist_1_joint": -0.5286633292919765,
            "wrist_2_joint": 1.472756589071564,
            "wrist_3_joint": -3.1238370188695823
        }
    },
    "waypoints": [
        {
            "positions": [
                -1.6717766225146293,
                -1.4165861575791021,
                1.9565354010623817,
                -0.5286633292919765,
                1.472756589071564,
                -3.1238370188695823
            ]
        },
        {
            "positions": [
                -1.6989181856510378,
                -1.5038586361535136,
                1.7970654524830714,
                -0.5016682475418132,
                1.441553834153528,
                -3.0916425813869632
            ]
        },
        {
            "positions": [
                -1.7260597487874463,
                -1.5911311147279252,
                1.6375955039037609,
                -0.4746731657916499,
                1.410351079235492,
                -3.059448143904344
            ]
        },
        {
            "positions": [
                -1.7532013119238548,
                -1.678403593302337,
                1.4781255553244503,
                -0.4476780840414867,
                1.3791483243174563,
                -3.027253706421725
            ]
        },
        {
            "positions": [
                -1.7803428750602632,
                -1.7656760718767484,
                1.31865560674514,
                -0.4206830022913234,
                1.3479455693994202,
                -2.995059268939106
            ]
        },
        {
            "positions": [
                -1.8322366443724052,
                -1.744607365417575,
                1.3761099486850488,
                -0.5297942778954736,
                1.2801049938693323,
                -2.9072157735838116
            ]
        },
        {
            "positions": [
                -1.8841304136845474,
                -1.723538658958402,
                1.4335642906249577,
                -0.638905553499624,
                1.2122644183392444,
                -2.8193722782285175
            ]
        },
        {
            "positions": [
                -1.9360241829966893,
                -1.7024699524992288,
                1.4910186325648664,
                -0.7480168291037743,
                1.1444238428091564,
                -2.731528782873223
            ]
        },
        {
            "positions": [
                -1.9879179523088313,
                -1.6814012460400558,
                1.5484729745047754,
                -0.8571281047079246,
                1.0765832672790685,
                -2.643685287517929
            ]
        },
        {
            "positions": [
                -2.0398117216209735,
                -1.6603325395808826,
                1.6059273164446841,
                -0.9662393803120749,
                1.0087426917489806,
                -2.5558417921626346
            ]
        },
        {
            "positions": [
                -2.0917054909331156,
                -1.6392638331217095,
                1.6633816583845928,
                -1.0753506559162251,
                0.9409021162188925,
                -2.4679982968073406
            ]
        },
        {
            "positions": [
                -2.1435992602452574,
                -1.6181951266625363,
                1.7208360003245018,
                -1.1844619315203755,
                0.8730615406888045,
                -2.380154801452046
            ]
        },
        {
            "positions": [
                -2.1954930295573996,
                -1.5971264202033633,
                1.7782903422644107,
                -1.2935732071245258,
                0.8052209651587167,
                -2.292311306096752
            ]
        },
        {
            "positions": [
                -2.2473867988695417,
                -1.57605771374419,
                1.8357446842043195,
                -1.402684482728676,
                0.7373803896286286,
                -2.2044678107414577
            ]
        },
        {
            "positions": [
                -2.2992805681816835,
                -1.554989007285017,
                1.8931990261442282,
                -1.5117957583328265,
                0.6695398140985407,
                -2.1166243153861637
            ]
        },
        {
            "positions": [
                -2.3511743374938257,
                -1.5339203008258437,
                1.9506533680841371,
                -1.6209070339369767,
                0.6016992385684528,
                -2.0287808200308692
            ]
        },
        {
            "positions": [
                -2.403068106805968,
                -1.5128515943666707,
                2.0081077100240456,
                -1.7300183095411268,
                0.5338586630383648,
                -1.9409373246755752
            ]
        },
        {
            "positions": [
                -2.4549618761181096,
                -1.4917828879074975,
                2.065562051963955,
                -1.8391295851452774,
                0.4660180875082769,
                -1.853093829320281
            ]
        },
        {
            "positions": [
                -2.5068556454302517,
                -1.4707141814483244,
                2.1230163939038635,
                -1.9482408607494275,
                0.39817751197818885,
                -1.7652503339649865
            ]
        },
        {
            "positions": [
                -2.558749414742394,
                -1.4496454749891512,
                2.1804707358437723,
                -2.057352136353578,
                0.330336936448101,
                -1.6774068386096923
            ]
        },
        {
            "positions": [
                -2.6106431840545357,
                -1.4285767685299782,
                2.2379250777836814,
                -2.166463411957728,
                0.2624963609180131,
                -1.589563343254398
            ]
        },
        {
            "positions": [
                -2.662536953366678,
                -1.407508062070805,
                2.2953794197235897,
                -2.2755746875618783,
                0.19465578538792516,
                -1.501719847899104
            ]
        },
        {
            "positions": [
                -2.71443072267882,
                -1.386439355611632,
                2.352833761663499,
                -2.384685963166029,
                0.126815209857837,
                -1.4138763525438096
            ]
        },
        {
            "positions": [
                -2.7663244919909618,
                -1.3653706491524586,
                2.4102881036034076,
                -2.493797238770179,
                0.058974634327749076,
                -1.3260328571885154
            ]
        },
        {
            "positions": [
                -2.818218261303104,
                -1.3443019426932854,
                2.4677424455433163,
                -2.6029085143743296,
                -0.008865941202338856,
                -1.2381893618332211
            ]
        },
        {
            "positions": [
                -2.870112030615246,
                -1.3232332362341124,
                2.5251967874832255,
                -2.7120197899784797,
                -0.07670651673242657,
                -1.1503458664779271
            ]
        },
        {
            "positions": [
                -2.922005799927388,
                -1.3021645297749393,
                2.5826511294231342,
                -2.8211310655826303,
                -0.14454709226251472,
                -1.0625023711226327
            ]
        },
        {
            "positions": [
                -2.97389956923953,
                -1.281095823315766,
                2.640105471363043,
                -2.9302423411867804,
                -0.21238766779260265,
                -0.9746588757673385
            ]
        },
        {
            "positions": [
                -2.944381960577353,
                -1.2741344278777662,
                2.602957669823965,
                -2.806505318708267,
                -0.1600576455254807,
                -1.1024199959273262
            ]
        },
        {
            "positions": [
                -2.9148643519151767,
                -1.2671730324397663,
                2.5658098682848878,
                -2.682768296229754,
                -0.10772762325835879,
                -1.230181116087314
            ]
        },
        {
            "positions": [
                -2.885346743253,
                -1.2602116370017664,
                2.52866206674581,
                -2.5590312737512404,
                -0.05539760099123686,
                -1.3579422362473017
            ]
        },
        {
            "positions": [
                -2.8558291345908233,
                -1.2532502415637665,
                2.4915142652067326,
                -2.435294251272727,
                -0.003067578724114922,
                -1.4857033564072895
            ]
        },
        {
            "positions": [
                -2.8263115259286464,
                -1.2462888461257668,
                2.4543664636676548,
                -2.3115572287942134,
                0.04926244354300702,
                -1.6134644765672772
            ]
        },
        {
            "positions": [
                -2.79679391726647,
                -1.239327450687767,
                2.4172186621285774,
                -2.1878202063157,
                0.10159246581012893,
                -1.7412255967272652
            ]
        },
        {
            "positions": [
                -2.767276308604293,
                -1.232366055249767,
                2.3800708605894996,
                -2.064083183837187,
                0.15392248807725084,
                -1.8689867168872527
            ]
        },
        {
            "positions": [
                -2.7377586999421166,
                -1.2254046598117672,
                2.342923059050422,
                -1.9403461613586734,
                0.2062525103443728,
                -1.9967478370472407
            ]
        },
        {
            "positions": [
                -2.7082410912799397,
                -1.2184432643737673,
                2.3057752575113444,
                -1.81660913888016,
                0.2585825326114947,
                -2.1245089572072287
            ]
        },
        {
            "positions": [
                -2.6787234826177633,
                -1.2114818689357674,
                2.268627455972267,
                -1.6928721164016467,
                0.3109125548786167,
                -2.252270077367216
            ]
        },
        {
            "positions": [
                -2.6492058739555864,
                -1.2045204734977675,
                2.231479654433189,
                -1.5691350939231332,
                0.3632425771457386,
                -2.380031197527204
            ]
        },
        {
            "positions": [
                -2.61968826529341,
                -1.1975590780597676,
                2.194331852894112,
                -1.4453980714446197,
                0.4155725994128605,
                -2.507792317687192
            ]
        },
        {
            "positions": [
                -2.590170656631233,
                -1.190597682621768,
                2.157184051355034,
                -1.3216610489661067,
                0.4679026216799824,
                -2.6355534378471797
            ]
        },
        {
            "positions": [
                -2.5606530479690566,
                -1.183636287183768,
                2.1200362498159566,
                -1.1979240264875932,
                0.5202326439471043,
                -2.763314558007167
            ]
        },
        {
            "positions": [
                -2.5311354393068797,
                -1.1766748917457681,
                2.082888448276879,
                -1.0741870040090797,
                0.5725626662142262,
                -2.891075678167155
            ]
        },
        {
            "positions": [
                -2.5016178306447028,
                -1.1697134963077682,
                2.0457406467378014,
                -0.9504499815305665,
                0.6248926884813483,
                -3.018836798327143
            ]
        },
        {
            "positions": [
                -2.4721002219825263,
                -1.1627521008697683,
                2.0085928451987236,
                -0.8267129590520528,
                0.6772227107484702,
                -3.1465979184871307
            ]
        }
    ]
}