{
    "goal": {
        "global_pose": {
            "orientation": {
                "w": -0.00223480608172531,
                "x": 0.0024358444001904467,
                "y": 0.7094548369677653,
                "z": -0.704743149386269
            },
            "position": {
                "x": -0.37947507619857795,
                "y": -0.6371506643295288,
                "z": 0.19426114857196808
            }
        },
        "name": "move_to_magneteinheit_C"
    },
    "id": "RRTConnect_move_to_magneteinheit_C_36",
    "joint_names": [
        "shoulder_pan_joint",
        "shoulder_lift_joint",
        "elbow_joint",
        "wrist_1_joint",
        "wrist_2_joint",
        "wrist_3_joint"
    ],
    "metrics": {
        "cart_traj_len": 6.929962300704135,
        "distance_elbow_joint": 0.26567445057474837,
        "distance_shoulder_lift_joint": 3.381791565863349,
        "distance_shoulder_pan_joint": 10.184029146493051,
        "distance_wrist_1_joint": 5.741306387097685,
        "distance_wrist_2_joint": 5.081799340978089,
        "distance_wrist_3_joint": 2.6760234750929466,
        "smoothness": 0.5831843097563139,
        "time": 0.492650631,
        "traj_len": 5.227869964536216,
        "weighted_distance": 6.595890921199468
    },
    "planner": "RRTConnect",
    "start": {
        "state": {
            "elbow_joint": 1.9565354010623817,
            "shoulder_lift_joint": -1.4165861575791021,
            "shoulder_pan_joint": -1.6717766225146293,
            "wrist_1_joint": -0.5286633292919765,
            "wrist_2_joint": 1.472756589071564,
            "wrist_3_joint": -3.1238370188695823
        }
    },
    "waypoints": [
        {
            "positions": [
                -1.6717766225146293,
                -1.4165861575791021,
                1.9565354010623817,
                -0.5286633292919765,
                1.472756589071564,
                -3.1238370188695823
            ]
        },
        {
            "positions": [
                -1.5704270854868332,
                -1.430463295194488,
                1.9535800179571305,
                -0.41368075028147655,
                1.4132816397208876,
                -3.024187234808239
            ]
        },
        {
            "positions": [
                -1.4690775484590373,
                -1.444340432809874,
                1.9506246348518794,
                -0.29869817127097664,
                1.353806690370211,
                -2.9245374507468958
            ]
        },
        {
            "positions": [
                -1.3677280114312411,
                -1.4582175704252598,
                1.9476692517466283,
                -0.18371559226047673,
                1.2943317410195347,
                -2.8248876666855525
            ]
        },
        {
            "positions": [
                -1.266378474403445,
                -1.4720947080406457,
                1.9447138686413772,
                -0.06873301324997683,
                1.2348567916688582,
                -2.725237882624209
            ]
        },
        {
            "positions": [
                -1.165028937375649,
                -1.4859718456560316,
                1.941758485536126,
                0.04624956576052304,
                1.1753818423181819,
                -2.625588098562866
            ]
        },
        {
            "positions": [
                -1.030038290394084,
                -1.534210842996159,
                1.93881976013055,
                -0.05114742240771461,
                1.0902903912521162,
                -2.5989795145981867
            ]
        },
        {
            "positions": [
                -0.8950476434125189,
                -1.582449840336286,
                1.9358810347249737,
                -0.14854441057595225,
                1.0051989401860508,
                -2.572370930633507
            ]
        },
        {
            "positions": [
                -0.7600569964309538,
                -1.6306888376764135,
                1.9329423093193976,
                -0.2459413987441899,
                0.9201074891199852,
                -2.5457623466688277
            ]
        },
        {
            "positions": [
                -0.6250663494493887,
                -1.6789278350165406,
                1.9300035839138212,
                -0.3433383869124276,
                0.8350160380539196,
                -2.519153762704148
            ]
        },
        {
            "positions": [
                -0.4900757024678236,
                -1.727166832356668,
                1.927064858508245,
                -0.4407353750806652,
                0.7499245869878539,
                -2.492545178739469
            ]
        },
        {
            "positions": [
                -0.35508505548625857,
                -1.7754058296967954,
                1.924126133102669,
                -0.5381323632489028,
                0.6648331359217884,
                -2.465936594774789
            ]
        },
        {
            "positions": [
                -0.22009440850469342,
                -1.8236448270369225,
                1.9211874076970927,
                -0.6355293514171404,
                0.5797416848557229,
                -2.43932801081011
            ]
        },
        {
            "positions": [
                -0.08510376152312826,
                -1.87188382437705,
                1.9182486822915166,
                -0.7329263395853781,
                0.4946502337896572,
                -2.41271942684543
            ]
        },
        {
            "positions": [
                0.04988688545843689,
                -1.9201228217171773,
                1.9153099568859404,
                -0.8303233277536158,
                0.4095587827235916,
                -2.386110842880751
            ]
        },
        {
            "positions": [
                0.18487753244000182,
                -1.9683618190573045,
                1.912371231480364,
                -0.9277203159218533,
                0.32446733165752606,
                -2.3595022589160717
            ]
        },
        {
            "positions": [
                0.319868179421567,
                -2.016600816397432,
                1.9094325060747879,
                -1.0251173040900912,
                0.23937588059146042,
                -2.332893674951392
            ]
        },
        {
            "positions": [
                0.4548588264031319,
                -2.064839813737559,
                1.9064937806692117,
                -1.1225142922583287,
                0.1542844295253949,
                -2.3062850909867127
            ]
        },
        {
            "positions": [
                0.5898494733846973,
                -2.1130788110776866,
                1.9035550552636356,
                -1.2199112804265664,
                0.06919297845932926,
                -2.279676507022033
            ]
        },
        {
            "positions": [
                0.7248401203662622,
                -2.1613178084178135,
                1.9006163298580594,
                -1.3173082685948039,
                -0.015898472606736158,
                -2.253067923057354
            ]
        },
        {
            "positions": [
                0.8598307673478272,
                -2.209556805757941,
                1.8976776044524832,
                -1.4147052567630416,
                -0.1009899236728018,
                -2.226459339092674
            ]
        },
        {
            "positions": [
                0.9948214143293925,
                -2.2577958030980683,
                1.8947388790469069,
                -1.5121022449312793,
                -0.18608137473886743,
                -2.199850755127995
            ]
        },
        {
            "positions": [
                1.1298120613109575,
                -2.306034800438195,
                1.8918001536413307,
                -1.6094992330995168,
                -0.27117282580493285,
                -2.1732421711633156
            ]
        },
        {
            "positions": [
                1.2648027082925228,
                -2.354273797778323,
                1.8888614282357545,
                -1.7068962212677548,
                -0.3562642768709987,
                -2.146633587198636
            ]
        },
        {
            "positions": [
                1.3997933552740878,
                -2.40251279511845,
                1.8859227028301784,
                -1.8042932094359923,
                -0.4413557279370641,
                -2.1200250032339567
            ]
        },
        {
            "positions": [
                1.5347840022556527,
                -2.4507517924585773,
                1.8829839774246022,
                -1.9016901976042297,
                -0.5264471790031298,
                -2.093416419269277
            ]
        },
        {
            "positions": [
                1.6697746492372176,
                -2.4989907897987047,
                1.880045252019026,
                -1.9990871857724672,
                -0.6115386300691952,
                -2.0668078353045978
            ]
        },
        {
            "positions": [
                1.804765296218783,
                -2.547229787138832,
                1.8771065266134497,
                -2.0964841739407056,
                -0.696630081135261,
                -2.040199251339918
            ]
        },
        {
            "positions": [
                1.939755943200348,
                -2.5954687844789595,
                1.8741678012078735,
                -2.193881162108943,
                -0.7817215322013265,
                -2.013590667375239
            ]
        },
        {
            "positions": [
                2.074746590181913,
                -2.643707781819087,
                1.8712290758022974,
                -2.2912781502771806,
                -0.8668129832673921,
                -1.9869820834105594
            ]
        },
        {
            "positions": [
                2.209737237163478,
                -2.6919467791592138,
                1.8682903503967212,
                -2.3886751384454183,
                -0.9519044343334573,
                -1.96037349944588
            ]
        },
        {
            "positions": [
                2.3447278841450436,
                -2.740185776499341,
                1.865351624991145,
                -2.486072126613656,
                -1.0369958853995234,
                -1.9337649154812004
            ]
        },
        {
            "positions": [
                2.4797185311266086,
                -2.7884247738394685,
                1.8624128995855689,
                -2.583469114781894,
                -1.122087336465589,
                -1.907156331516521
            ]
        },
        {
            "positions": [
                2.6147091781081735,
                -2.8366637711795955,
                1.8594741741799927,
                -2.680866102950131,
                -1.2071787875316542,
                -1.8805477475518417
            ]
        },
        {
            "positions": [
                2.7496998250897384,
                -2.884902768519723,
                1.8565354487744163,
                -2.7782630911183688,
                -1.2922702385977198,
                -1.8539391635871623
            ]
        },
        {
            "positions": [
                2.8846904720713034,
                -2.93314176585985,
                1.8535967233688402,
                -2.8756600792866065,
                -1.3773616896637855,
                -1.8273305796224828
            ]
        },
        {
            "positions": [
                3.019681119052869,
                -2.9813807631999776,
                1.850657997963264,
                -2.973057067454844,
                -1.4624531407298513,
                -1.8007219956578033
            ]
        },
        {
            "positions": [
                2.858134901260941,
                -2.9279396761340224,
                1.855357911124312,
                -2.9099074539598493,
                -1.3993181521658313,
                -1.8405134207131317
            ]
        },
        {
            "positions": [
                2.696588683469013,
                -2.874498589068067,
                1.86005782428536,
                -2.8467578404648544,
                -1.3361831636018113,
                -1.8803048457684604
            ]
        },
        {
            "positions": [
                2.535042465677085,
                -2.821057502002112,
                1.864757737446408,
                -2.7836082269698594,
                -1.2730481750377916,
                -1.9200962708237888
            ]
        },
        {
            "positions": [
                2.373496247885157,
                -2.7676164149361573,
                1.8694576506074558,
                -2.7204586134748645,
                -1.2099131864737716,
                -1.9598876958791172
            ]
        },
        {
            "positions": [
                2.2119500300932287,
                -2.714175327870202,
                1.8741575637685037,
                -2.6573089999798696,
                -1.1467781979097516,
                -1.9996791209344456
            ]
        },
        {
            "positions": [
                2.0504038123013006,
                -2.660734240804247,
                1.8788574769295519,
                -2.5941593864848747,
                -1.0836432093457316,
                -2.039470545989774
            ]
        },
        {
            "positions": [
                1.8888575945093729,
                -2.6072931537382917,
                1.8835573900905997,
                -2.5310097729898797,
                -1.0205082207817116,
                -2.0792619710451024
            ]
        },
        {
            "positions": [
                1.7273113767174446,
                -2.5538520666723366,
                1.8882573032516476,
                -2.467860159494885,
                -0.9573732322176917,
                -2.1190533961004308
            ]
        },
        {
            "positions": [
                1.5657651589255166,
                -2.5004109796063814,
                1.8929572164126958,
                -2.40471054599989,
                -0.8942382436536717,
                -2.1588448211557596
            ]
        },
        {
            "positions": [
                1.4042189411335884,
                -2.446969892540426,
                1.8976571295737437,
                -2.341560932504895,
                -0.8311032550896517,
                -2.198636246211088
            ]
        },
        {
            "positions": [
                1.2426727233416603,
                -2.393528805474471,
                1.9023570427347916,
                -2.2784113190099,
                -0.7679682665256318,
                -2.2384276712664164
            ]
        },
        {
            "positions": [
                1.0811265055497323,
                -2.3400877184085163,
                1.9070569558958397,
                -2.215261705514905,
                -0.7048332779616118,
                -2.278219096321745
            ]
        },
        {
            "positions": [
                0.9195802877578045,
                -2.286646631342561,
                1.9117568690568876,
                -2.15211209201991,
                -0.6416982893975919,
                -2.318010521377073
            ]
        },
        {
            "positions": [
                0.7580340699658765,
                -2.233205544276606,
                1.9164567822179355,
                -2.0889624785249152,
                -0.5785633008335719,
                -2.3578019464324016
            ]
        },
        {
            "positions": [
                0.5964878521739481,
                -2.1797644572106507,
                1.9211566953789834,
                -2.0258128650299203,
                -0.515428312269552,
                -2.39759337148773
            ]
        },
        {
            "positions": [
                0.43494163438202005,
                -2.1263233701446955,
                1.9258566085400315,
                -1.9626632515349254,
                -0.452293323705532,
                -2.437384796543059
            ]
        },
        {
            "positions": [
                0.27339541659009203,
                -2.0728822830787403,
                1.9305565217010794,
                -1.8995136380399305,
                -0.389158335141512,
                -2.4771762215983872
            ]
        },
        {
            "positions": [
                0.11184919879816402,
                -2.019441196012785,
                1.9352564348621273,
                -1.8363640245449355,
                -0.326023346577492,
                -2.5169676466537156
            ]
        },
        {
            "positions": [
                -0.049697018993764,
                -1.9660001089468302,
                1.9399563480231754,
                -1.7732144110499406,
                -0.262888358013472,
                -2.556759071709044
            ]
        },
        {
            "positions": [
                -0.21124323678569246,
                -1.912559021880875,
                1.9446562611842233,
                -1.7100647975549457,
                -0.199753369449452,
                -2.5965504967643724
            ]
        },
        {
            "positions": [
                -0.37278945457762047,
                -1.8591179348149198,
                1.9493561743452712,
                -1.6469151840599507,
                -0.136618380885432,
                -2.636341921819701
            ]
        },
        {
            "positions": [
                -0.5343356723695485,
                -1.8056768477489649,
                1.954056087506319,
                -1.5837655705649558,
                -0.07348339232141221,
                -2.6761333468750292
            ]
        },
        {
            "positions": [
                -0.6958818901614765,
                -1.7522357606830097,
                1.9587560006673672,
                -1.5206159570699609,
                -0.01034840375739221,
                -2.715924771930358
            ]
        },
        {
            "positions": [
                -0.8574281079534045,
                -1.6987946736170545,
                1.9634559138284151,
                -1.457466343574966,
                0.05278658480662779,
                -2.7557161969856865
            ]
        },
        {
            "positions": [
                -1.018974325745333,
                -1.6453535865510993,
                1.968155826989463,
                -1.3943167300799708,
                0.11592157337064779,
                -2.795507622041015
            ]
        },
        {
            "positions": [
                -1.18052054353726,
                -1.5919124994851443,
                1.9728557401505111,
                -1.3311671165849763,
                0.17905656193466757,
                -2.8352990470963433
            ]
        },
        {
            "positions": [
                -1.3420667613291881,
                -1.5384714124191894,
                1.977555653311559,
                -1.2680175030899812,
                0.24219155049868757,
                -2.8750904721516717
            ]
        },
        {
            "positions": [
                -1.5036129791211161,
                -1.4850303253532342,
                1.982255566472607,
                -1.2048678895949863,
                0.30532653906270757,
                -2.914881897207
            ]
        },
        {
            "positions": [
                -1.665159196913045,
                -1.431589238287279,
                1.986955479633655,
                -1.1417182760999913,
                0.36846152762672757,
                -2.9546733222623285
            ]
        },
        {
            "positions": [
                -1.826705414704973,
                -1.3781481512213238,
                1.991655392794703,
                -1.0785686626049964,
                0.43159651619074735,
                -2.9944647473176573
            ]
        },
        {
            "positions": [
                -1.988251632496901,
                -1.3247070641553687,
                1.9963553059557508,
                -1.0154190491100015,
                0.49473150475476735,
                -3.0342561723729853
            ]
        },
        {
            "positions": [
                -2.149797850288829,
                -1.2712659770894137,
                2.001055219116799,
                -0.9522694356150065,
                0.5578664933187873,
                -3.074047597428314
            ]
        },
        {
            "positions": [
                -2.311344068080757,
                -1.2178248900234585,
                2.0057551322778466,
                -0.8891198221200116,
                0.6210014818828076,
                -3.1138390224836425
            ]
        },
        {
            "positions": [
                -2.4728902858726856,
                -1.1643838029575033,
                2.0104550454388948,
                -0.8259702086250169,
                0.6841364704468275,
                -3.153630447538971
            ]
        }
    ]
}