{
    "goal": {
        "global_pose": {
            "orientation": {
                "w": 0.005598929693374612,
                "x": 0.007748599140229565,
                "y": 0.7110244013736278,
                "z": -0.7031023480610252
            },
            "position": {
                "x": -0.8858502320852131,
                "y": -0.7141253447532654,
                "z": 0.3711530566215515
            }
        },
        "name": "move_to_auspresseinheit_C"
    },
    "id": "RRTConnect_move_to_auspresseinheit_C_18",
    "joint_names": [
        "shoulder_pan_joint",
        "shoulder_lift_joint",
        "elbow_joint",
        "wrist_1_joint",
        "wrist_2_joint",
        "wrist_3_joint"
    ],
    "metrics": {
        "cart_traj_len": 0.4933254428194004,
        "distance_elbow_joint": 0.9967351996884014,
        "distance_shoulder_lift_joint": 0.32255661407426484,
        "distance_shoulder_pan_joint": 0.256580165007382,
        "distance_wrist_1_joint": 0.6728863641478104,
        "distance_wrist_2_joint": 1.3056234643919962,
        "distance_wrist_3_joint": 0.05900335097039555,
        "smoothness": 6.459479416000911e-16,
        "time": 0.127190375,
        "traj_len": 1.900890622387372,
        "weighted_distance": 2.3895400579946022
    },
    "planner": "RRTConnect",
    "start": {
        "state": {
            "elbow_joint": 1.7527959577737207,
            "shoulder_lift_joint": -0.9740617694225068,
            "shoulder_pan_joint": -2.967991417825858,
            "wrist_1_joint": -0.759517768980727,
            "wrist_2_joint": 1.7443932448377408,
            "wrist_3_joint": -3.0840537646736568
        }
    },
    "waypoints": [
        {
            "positions": [
                -2.967991417825858,
                -0.9740617694225068,
                1.7527959577737207,
                -0.759517768980727,
                1.7443932448377408,
                -3.0840537646736568
            ]
        },
        {
            "positions": [
                -2.94233340132512,
                -0.9418061080150802,
                1.6531224378048806,
                -0.692229132565946,
                1.6138308983985412,
                -3.0899540997706962
            ]
        },
        {
            "positions": [
                -2.9166753848243814,
                -0.9095504466076538,
                1.5534489178360404,
                -0.6249404961511649,
                1.4832685519593416,
                -3.0958544348677357
            ]
        },
        {
            "positions": [
                -2.8910173683236433,
                -0.8772947852002273,
                1.4537753978672003,
                -0.5576518597363839,
                1.352706205520142,
                -3.1017547699647756
            ]
        },
        {
            "positions": [
                -2.8653593518229052,
                -0.8450391237928008,
                1.35410187789836,
                -0.4903632233216028,
                1.2221438590809424,
                -3.107655105061815
            ]
        },
        {
            "positions": [
                -2.839701335322167,
                -0.8127834623853744,
                1.25442835792952,
                -0.42307458690682176,
                1.0915815126417427,
                -3.1135554401588545
            ]
        },
        {
            "positions": [
                -2.8140433188214287,
                -0.7805278009779479,
                1.1547548379606798,
                -0.3557859504920407,
                0.9610191662025431,
                -3.119455775255894
            ]
        },
        {
            "positions": [
                -2.7883853023206906,
                -0.7482721395705214,
                1.0550813179918397,
                -0.2884973140772597,
                0.8304568197633436,
                -3.1253561103529335
            ]
        },
        {
            "positions": [
                -2.7627272858199525,
                -0.7160164781630949,
                0.9554077980229995,
                -0.22120867766247865,
                0.6998944733241439,
                -3.1312564454499734
            ]
        },
        {
            "positions": [
                -2.737069269319214,
                -0.6837608167556684,
                0.8557342780541594,
                -0.15392004124769754,
                0.5693321268849443,
                -3.137156780547013
            ]
        },
        {
            "positions": [
                -2.711411252818476,
                -0.6515051553482419,
                0.7560607580853193,
                -0.0866314048329165,
                0.4387697804457447,
                -3.1430571156440523
            ]
        }
    ]
}