{
    "goal": {
        "global_pose": {
            "orientation": {
                "w": 0.5084816217422485,
                "x": -0.49083608388900757,
                "y": 0.5182115435600281,
                "z": -0.4816462993621826
            },
            "position": {
                "x": 0.5540239810943604,
                "y": 0.030875300988554955,
                "z": 0.16403168439865112
            }
        },
        "name": "move_to_storage_A"
    },
    "id": "RRTConnect_move_to_storage_A_40",
    "joint_names": [
        "shoulder_pan_joint",
        "shoulder_lift_joint",
        "elbow_joint",
        "wrist_1_joint",
        "wrist_2_joint",
        "wrist_3_joint"
    ],
    "metrics": {
        "cart_traj_len": 0.3531337293477986,
        "distance_elbow_joint": 0.4508605669632402,
        "distance_shoulder_lift_joint": 0.23422451556111867,
        "distance_shoulder_pan_joint": 0.4609253562704497,
        "distance_wrist_1_joint": 0.24344961843174462,
        "distance_wrist_2_joint": 1.1029235192973774,
        "distance_wrist_3_joint": 0.10236691602386516,
        "smoothness": 4.440892098500626e-16,
        "time": 0.035072665,
        "traj_len": 1.6108229240198302,
        "weighted_distance": 2.0361378790063918
    },
    "planner": "RRTConnect",
    "start": {
        "state": {
            "elbow_joint": 1.971548259319323,
            "shoulder_lift_joint": -1.1394851275133948,
            "shoulder_pan_joint": 0.1228115487234821,
            "wrist_1_joint": -0.7804723859257726,
            "wrist_2_joint": 0.12958671773740124,
            "wrist_3_joint": -3.192489227718131
        }
    },
    "waypoints": [
        {
            "positions": [
                0.1228115487234821,
                -1.1394851275133948,
                1.971548259319323,
                -0.7804723859257726,
                0.12958671773740124,
                -3.192489227718131
            ]
        },
        {
            "positions": [
                0.056965069256274994,
                -1.1729457725935546,
                2.035956911742643,
                -0.8152509028445932,
                0.2871472204941694,
                -3.1778653825718646
            ]
        },
        {
            "positions": [
                -0.008881410210932111,
                -1.2064064176737144,
                2.100365564165963,
                -0.850029419763414,
                0.44470772325093766,
                -3.1632415374255984
            ]
        },
        {
            "positions": [
                -0.0747278896781392,
                -1.2398670627538741,
                2.164774216589283,
                -0.8848079366822346,
                0.6022682260077058,
                -3.148617692279332
            ]
        },
        {
            "positions": [
                -0.14057436914534632,
                -1.2733277078340342,
                2.229182869012603,
                -0.9195864536010553,
                0.759828728764474,
                -3.1339938471330653
            ]
        },
        {
            "positions": [
                -0.20642084861255344,
                -1.306788352914194,
                2.293591521435923,
                -0.9543649705198759,
                0.9173892315212423,
                -3.1193700019867987
            ]
        },
        {
            "positions": [
                -0.2722673280797605,
                -1.3402489979943537,
                2.358000173859243,
                -0.9891434874386966,
                1.0749497342780103,
                -3.1047461568405326
            ]
        },
        {
            "positions": [
                -0.3381138075469676,
                -1.3737096430745135,
                2.422408826282563,
                -1.0239220043575172,
                1.2325102370347787,
                -3.090122311694266
            ]
        }
    ]
}{
    "goal": {
        "global_pose": {
            "orientation": {
                "w": 0.5084816217422485,
                "x": -0.49083608388900757,
                "y": 0.5182115435600281,
                "z": -0.4816462993621826
            },
            "position": {
                "x": 0.5540239810943604,
                "y": 0.030875300988554955,
                "z": 0.16403168439865112
            }
        },
        "name": "move_to_storage_A"
    },
    "id": "RRTConnect_move_to_storage_A_40",
    "joint_names": [
        "shoulder_pan_joint",
        "shoulder_lift_joint",
        "elbow_joint",
        "wrist_1_joint",
        "wrist_2_joint",
        "wrist_3_joint"
    ],
    "metrics": {
        "cart_traj_len": 0.35222500588834427,
        "distance_elbow_joint": 0.4494053420726454,
        "distance_shoulder_lift_joint": 0.2358310990797714,
        "distance_shoulder_pan_joint": 0.46103334819673464,
        "distance_wrist_1_joint": 0.23820672235271356,
        "distance_wrist_2_joint": 1.0959278034945659,
        "distance_wrist_3_joint": 0.09226384338701754,
        "smoothness": 0.0,
        "time": 0.037021572,
        "traj_len": 1.603953914108335,
        "weighted_distance": 2.0227037279850855
    },
    "planner": "RRTConnect",
    "start": {
        "state": {
            "elbow_joint": 1.97154746011099,
            "shoulder_lift_joint": -1.13948474672311,
            "shoulder_pan_joint": 0.12281154466712228,
            "wrist_1_joint": -0.7804688027058302,
            "wrist_2_joint": 0.12958655903071145,
            "wrist_3_joint": 3.0906928834467795
        }
    },
    "waypoints": [
        {
            "positions": [
                0.12281154466712228,
                -1.13948474672311,
                1.97154746011099,
                -0.7804688027058302,
                0.12958655903071145,
                3.0906928834467795
            ]
        },
        {
            "positions": [
                0.05694963778187448,
                -1.1731749037345058,
                2.0357482232642248,
                -0.8144983344705036,
                0.28614767381564943,
                3.1038734325020676
            ]
        },
        {
            "positions": [
                -0.008912269103373324,
                -1.2068650607459017,
                2.09994898641746,
                -0.848527866235177,
                0.4427087886005874,
                3.117053981557356
            ]
        },
        {
            "positions": [
                -0.07477417598862111,
                -1.2405552177572976,
                2.164149749570695,
                -0.8825573979998502,
                0.5992699033855253,
                3.1302345306126442
            ]
        },
        {
            "positions": [
                -0.14063608287386892,
                -1.2742453747686935,
                2.2283505127239303,
                -0.9165869297645236,
                0.7558310181704634,
                3.1434150796679323
            ]
        },
        {
            "positions": [
                -0.20649798975911676,
                -1.3079355317800896,
                2.292551275877165,
                -0.950616461529197,
                0.9123921329554014,
                3.1565956287232204
            ]
        },
        {
            "positions": [
                -0.2723598966443645,
                -1.3416256887914855,
                2.3567520390304004,
                -0.9846459932938704,
                1.0689532477403392,
                3.169776177778509
            ]
        },
        {
            "positions": [
                -0.33822180352961234,
                -1.3753158458028814,
                2.4209528021836353,
                -1.0186755250585438,
                1.2255143625252773,
                3.182956726833797
            ]
        }
    ]
}{
    "goal": {
        "global_pose": {
            "orientation": {
                "w": 0.5084816217422485,
                "x": -0.49083608388900757,
                "y": 0.5182115435600281,
                "z": -0.4816462993621826
            },
            "position": {
                "x": 0.5540239810943604,
                "y": 0.030875300988554955,
                "z": 0.16403168439865112
            }
        },
        "name": "move_to_storage_A"
    },
    "id": "RRTConnect_move_to_storage_A_40",
    "joint_names": [
        "shoulder_pan_joint",
        "shoulder_lift_joint",
        "elbow_joint",
        "wrist_1_joint",
        "wrist_2_joint",
        "wrist_3_joint"
    ],
    "metrics": {
        "cart_traj_len": 0.3535184634916982,
        "distance_elbow_joint": 0.446764387937284,
        "distance_shoulder_lift_joint": 0.23437924281028444,
        "distance_shoulder_pan_joint": 0.4595306697839969,
        "distance_wrist_1_joint": 0.23355761952225018,
        "distance_wrist_2_joint": 1.1107403288352018,
        "distance_wrist_3_joint": 0.08622913212052952,
        "smoothness": 2.2204460668324854e-16,
        "time": 0.045472709,
        "traj_len": 1.603496610850658,
        "weighted_distance": 2.021869826078835
    },
    "planner": "RRTConnect",
    "start": {
        "state": {
            "elbow_joint": 1.9715472970024885,
            "shoulder_lift_joint": -1.1394870060712896,
            "shoulder_pan_joint": 0.12281152778156021,
            "wrist_1_joint": -0.780463741449964,
            "wrist_2_joint": 0.12958659822042276,
            "wrist_3_joint": 3.090690232415272
        }
    },
    "waypoints": [
        {
            "positions": [
                0.12281152778156021,
                -1.1394870060712896,
                1.9715472970024885,
                -0.780463741449964,
                0.12958659822042276,
                3.090690232415272
            ]
        },
        {
            "positions": [
                0.05716428924098922,
                -1.1729697550441873,
                2.0353707809935293,
                -0.8138291156674283,
                0.288263788054023,
                3.1030086798610617
            ]
        },
        {
            "positions": [
                -0.008482949299581766,
                -1.2064525040170853,
                2.0991942649845696,
                -0.8471944898848927,
                0.4469409778876232,
                3.115327127306852
            ]
        },
        {
            "positions": [
                -0.07413018784015274,
                -1.239935252989983,
                2.1630177489756104,
                -0.8805598641023569,
                0.6056181677212235,
                3.1276455747526417
            ]
        },
        {
            "positions": [
                -0.13977742638072374,
                -1.2734180019628807,
                2.2268412329666507,
                -0.9139252383198212,
                0.7642953575548237,
                3.1399640221984315
            ]
        },
        {
            "positions": [
                -0.20542466492129477,
                -1.3069007509357786,
                2.2906647169576915,
                -0.9472906125372855,
                0.922972547388424,
                3.1522824696442213
            ]
        },
        {
            "positions": [
                -0.2710719034618657,
                -1.3403834999086763,
                2.354488200948732,
                -0.9806559867547499,
                1.0816497372220242,
                3.1646009170900116
            ]
        },
        {
            "positions": [
                -0.3367191420024367,
                -1.373866248881574,
                2.4183116849397726,
                -1.0140213609722142,
                1.2403269270556245,
                3.1769193645358014
            ]
        }
    ]
}