{
    "goal": {
        "global_pose": {
            "orientation": {
                "w": 0.7047431493862688,
                "x": -0.7094548369677653,
                "y": 0.0024358444001904,
                "z": -0.0022348060817251984
            },
            "position": {
                "x": -0.39052492380142206,
                "y": 0.3671506643295288,
                "z": 0.19426114857196808
            }
        },
        "name": "move_to_magneteinheit_D"
    },
    "id": "RRTConnect_move_to_magneteinheit_D_109",
    "joint_names": [
        "shoulder_pan_joint",
        "shoulder_lift_joint",
        "elbow_joint",
        "wrist_1_joint",
        "wrist_2_joint",
        "wrist_3_joint"
    ],
    "metrics": {
        "cart_traj_len": 4.983485231689995,
        "distance_elbow_joint": 3.9031791805155516,
        "distance_shoulder_lift_joint": 1.8290931536740713,
        "distance_shoulder_pan_joint": 2.9851021757664977,
        "distance_wrist_1_joint": 1.8175014481507668,
        "distance_wrist_2_joint": 1.612403010476578,
        "distance_wrist_3_joint": 3.404055524595337,
        "smoothness": 0.7931039161791017,
        "time": 0.22113198,
        "traj_len": 3.943518035102516,
        "weighted_distance": 5.07832157321657
    },
    "planner": "RRTConnect",
    "start": {
        "state": {
            "elbow_joint": 0.749534889911806,
            "shoulder_lift_joint": -0.6476975780787326,
            "shoulder_pan_joint": -2.711696901376241,
            "wrist_1_joint": -0.07506478083263063,
            "wrist_2_joint": 0.43296659715538205,
            "wrist_3_joint": -3.14703540197715
        }
    },
    "waypoints": [
        {
            "positions": [
                -2.711696901376241,
                -0.6476975780787326,
                0.749534889911806,
                -0.07506478083263063,
                0.43296659715538205,
                -3.14703540197715
            ]
        },
        {
            "positions": [
                -2.723760312063777,
                -0.7349484542931803,
                0.7731937742700385,
                -0.07500486433405092,
                0.49752323623151784,
                -3.1590724943769706
            ]
        },
        {
            "positions": [
                -2.7418554280950804,
                -0.8658247686148519,
                0.8086821008073873,
                -0.07491498958618134,
                0.5943581948457215,
                -3.1771281329767014
            ]
        },
        {
            "positions": [
                -2.7599505441263843,
                -0.9967010829365236,
                0.8441704273447361,
                -0.07482511483831177,
                0.6911931534599252,
                -3.1951837715764317
            ]
        },
        {
            "positions": [
                -2.6526580294609734,
                -1.0425402434349131,
                0.7659324742825988,
                -0.04851012284595059,
                0.7021258271516113,
                -3.0815114659599594
            ]
        },
        {
            "positions": [
                -2.5453655147955625,
                -1.0883794039333028,
                0.6876945212204614,
                -0.022195130853589415,
                0.7130585008432976,
                -2.9678391603434866
            ]
        },
        {
            "positions": [
                -2.4380730001301516,
                -1.1342185644316924,
                0.609456568158324,
                0.00411986113877176,
                0.7239911745349837,
                -2.8541668547270143
            ]
        },
        {
            "positions": [
                -2.3307804854647407,
                -1.180057724930082,
                0.5312186150961866,
                0.030434853131132936,
                0.7349238482266699,
                -2.740494549110542
            ]
        },
        {
            "positions": [
                -2.22348797079933,
                -1.2258968854284717,
                0.4529806620340493,
                0.05674984512349411,
                0.745856521918356,
                -2.626822243494069
            ]
        },
        {
            "positions": [
                -2.116195456133919,
                -1.2717360459268614,
                0.374742708971912,
                0.08306483711585529,
                0.7567891956100423,
                -2.513149937877597
            ]
        },
        {
            "positions": [
                -2.0089029414685076,
                -1.317575206425251,
                0.29650475590977454,
                0.10937982910821649,
                0.7677218693017285,
                -2.3994776322611244
            ]
        },
        {
            "positions": [
                -1.901610426803097,
                -1.3634143669236407,
                0.21826680284763722,
                0.13569482110057762,
                0.7786545429934146,
                -2.285805326644652
            ]
        },
        {
            "positions": [
                -1.7943179121376862,
                -1.4092535274220304,
                0.1400288497854999,
                0.16200981309293883,
                0.7895872166851008,
                -2.1721330210281797
            ]
        },
        {
            "positions": [
                -1.687025397472275,
                -1.45509268792042,
                0.061790896723362465,
                0.18832480508529997,
                0.8005198903767871,
                -2.058460715411707
            ]
        },
        {
            "positions": [
                -1.5797328828068642,
                -1.5009318484188094,
                -0.016447056338774857,
                0.21463979707766118,
                0.8114525640684732,
                -1.9447884097952346
            ]
        },
        {
            "positions": [
                -1.4724403681414533,
                -1.546771008917199,
                -0.09468500940091218,
                0.24095478907002232,
                0.8223852377601594,
                -1.8311161041787622
            ]
        },
        {
            "positions": [
                -1.3651478534760424,
                -1.5926101694155888,
                -0.1729229624630495,
                0.2672697810623835,
                0.8333179114518456,
                -1.7174437985622895
            ]
        },
        {
            "positions": [
                -1.2578553388106313,
                -1.6384493299139784,
                -0.25116091552518705,
                0.29358477305474473,
                0.8442505851435318,
                -1.603771492945817
            ]
        },
        {
            "positions": [
                -1.1505628241452206,
                -1.684288490412368,
                -0.32939886858732415,
                0.3198997650471059,
                0.855183258835218,
                -1.4900991873293448
            ]
        },
        {
            "positions": [
                -1.0432703094798097,
                -1.7301276509107577,
                -0.4076368216494617,
                0.346214757039467,
                0.8661159325269041,
                -1.3764268817128722
            ]
        },
        {
            "positions": [
                -0.9359777948143986,
                -1.7759668114091474,
                -0.485874774711599,
                0.37252974903182823,
                0.8770486062185904,
                -1.2627545760963996
            ]
        },
        {
            "positions": [
                -0.8286852801489879,
                -1.821805971907537,
                -0.5641127277737363,
                0.3988447410241894,
                0.8879812799102765,
                -1.1490822704799273
            ]
        },
        {
            "positions": [
                -0.7213927654835768,
                -1.8676451324059267,
                -0.6423506808358737,
                0.4251597330165506,
                0.8989139536019627,
                -1.035409964863455
            ]
        },
        {
            "positions": [
                -0.6141002508181659,
                -1.9134842929043163,
                -0.7205886338980112,
                0.4514747250089117,
                0.909846627293649,
                -0.9217376592469821
            ]
        },
        {
            "positions": [
                -0.506807736152755,
                -1.959323453402706,
                -0.7988265869601483,
                0.47778971700127293,
                0.9207793009853351,
                -0.8080653536305098
            ]
        },
        {
            "positions": [
                -0.3995152214873441,
                -2.0051626139010956,
                -0.8770645400222858,
                0.5041047089936341,
                0.9317119746770213,
                -0.6943930480140375
            ]
        },
        {
            "positions": [
                -0.2922227068219332,
                -2.0510017743994853,
                -0.9553024930844232,
                0.5304197009859953,
                0.9426446483687074,
                -0.5807207423975647
            ]
        },
        {
            "positions": [
                -0.1849301921565223,
                -2.096840934897875,
                -1.0335404461465605,
                0.5567346929783564,
                0.9535773220603936,
                -0.46704843678109276
            ]
        },
        {
            "positions": [
                -0.07763767749111138,
                -2.1426800953962646,
                -1.1117783992086978,
                0.5830496849707176,
                0.9645099957520799,
                -0.3533761311646201
            ]
        },
        {
            "positions": [
                -0.0685000449072397,
                -2.151341248061458,
                -1.2484981013063625,
                0.6755549093182087,
                0.8947716474657873,
                -0.3222215542463075
            ]
        },
        {
            "positions": [
                -0.05936241232336802,
                -2.1600024007266514,
                -1.385217803404027,
                0.7680601336656998,
                0.8250332991794948,
                -0.2910669773279949
            ]
        },
        {
            "positions": [
                -0.05022477973949635,
                -2.168663553391845,
                -1.5219375055016915,
                0.8605653580131909,
                0.7552949508932022,
                -0.25991240040968233
            ]
        },
        {
            "positions": [
                -0.04108714715562467,
                -2.177324706057038,
                -1.6586572075993562,
                0.953070582360682,
                0.6855566026069096,
                -0.22875782349136975
            ]
        },
        {
            "positions": [
                -0.03194951457175299,
                -2.1859858587222316,
                -1.795376909697021,
                1.045575806708173,
                0.6158182543206171,
                -0.19760324657305717
            ]
        },
        {
            "positions": [
                -0.022811881987881318,
                -2.194647011387425,
                -1.9320966117946854,
                1.1380810310556642,
                0.5460799060343245,
                -0.16644866965474459
            ]
        },
        {
            "positions": [
                -0.013674249404009645,
                -2.2033081640526184,
                -2.06881631389235,
                1.2305862554031552,
                0.476341557748032,
                -0.135294092736432
            ]
        },
        {
            "positions": [
                -0.004536616820137958,
                -2.211969316717812,
                -2.2055360159900146,
                1.3230914797506463,
                0.4066032094617394,
                -0.10413951581811944
            ]
        },
        {
            "positions": [
                -0.009862459082469499,
                -2.1874505172908205,
                -2.321748758948156,
                1.3983236266356933,
                0.31187673703154717,
                -0.05789682886501296
            ]
        },
        {
            "positions": [
                -0.01518830134480104,
                -2.162931717863829,
                -2.437961501906297,
                1.47355577352074,
                0.2171502646013549,
                -0.011654141911906488
            ]
        },
        {
            "positions": [
                -0.02051414360713258,
                -2.1384129184368383,
                -2.5541742448644382,
                1.548787920405787,
                0.12242379217116267,
                0.0345885450412
            ]
        },
        {
            "positions": [
                -0.02583998586946412,
                -2.113894119009847,
                -2.6703869878225794,
                1.624020067290834,
                0.027697319740970394,
                0.08083123199430647
            ]
        },
        {
            "positions": [
                -0.07921706475639209,
                -2.1694761914521896,
                -2.572391578517478,
                1.5845478672817332,
                0.07571296503056071,
                0.054200514852533764
            ]
        },
        {
            "positions": [
                -0.13259414364332006,
                -2.2250582638945318,
                -2.474396169212376,
                1.5450756672726327,
                0.12372861032015105,
                0.027569797710761054
            ]
        },
        {
            "positions": [
                -0.18597122253024803,
                -2.2806403363368744,
                -2.3764007599072747,
                1.505603467263532,
                0.17174425560974138,
                0.0009390805689883362
            ]
        }
    ]
}