{
    "goal": {
        "global_pose": {
            "orientation": {
                "w": -0.00223480608172531,
                "x": 0.0024358444001904467,
                "y": 0.7094548369677653,
                "z": -0.704743149386269
            },
            "position": {
                "x": 0.6205249238014221,
                "y": -0.6371506643295288,
                "z": 0.19426114857196808
            }
        },
        "name": "move_to_magneteinheit_B"
    },
    "id": "RRTConnect_move_to_magneteinheit_B_93",
    "joint_names": [
        "shoulder_pan_joint",
        "shoulder_lift_joint",
        "elbow_joint",
        "wrist_1_joint",
        "wrist_2_joint",
        "wrist_3_joint"
    ],
    "metrics": {
        "cart_traj_len": 1.4992982386375657,
        "distance_elbow_joint": 1.1069171789680392,
        "distance_shoulder_lift_joint": 0.9200799958483928,
        "distance_shoulder_pan_joint": 1.6217690642626175,
        "distance_wrist_1_joint": 1.2829743907406717,
        "distance_wrist_2_joint": 1.9579115148266868,
        "distance_wrist_3_joint": 0.24955584902198025,
        "smoothness": 0.7942896829118036,
        "time": 0.096419487,
        "traj_len": 2.6719296386073474,
        "weighted_distance": 3.298364078945759
    },
    "planner": "RRTConnect",
    "start": {
        "state": {
            "elbow_joint": 2.6216224122426386,
            "shoulder_lift_joint": -1.4174107377796124,
            "shoulder_pan_joint": 0.7066234856936794,
            "wrist_1_joint": 1.9546482284002225,
            "wrist_2_joint": -0.7096286983471962,
            "wrist_3_joint": 0.005740856962016249
        }
    },
    "waypoints": [
        {
            "positions": [
                0.7066234856936794,
                -1.4174107377796124,
                2.6216224122426386,
                1.9546482284002225,
                -0.7096286983471962,
                0.005740856962016249
            ]
        },
        {
            "positions": [
                0.6248229847542632,
                -1.45939048429505,
                2.6602786210519334,
                1.8720104736916574,
                -0.5989248401576621,
                -0.0005851568472107138
            ]
        },
        {
            "positions": [
                0.5430224838148472,
                -1.5013702308104877,
                2.6989348298612286,
                1.7893727189830924,
                -0.48822098196812813,
                -0.006911170656437676
            ]
        },
        {
            "positions": [
                0.4499186136573096,
                -1.4809582553661567,
                2.6296620907569914,
                1.7139752085038595,
                -0.5280707341708678,
                0.018734918400341333
            ]
        },
        {
            "positions": [
                0.35681474349977205,
                -1.4605462799218256,
                2.560389351652754,
                1.638577698024627,
                -0.5679204863736075,
                0.04438100745712034
            ]
        },
        {
            "positions": [
                0.26371087334223453,
                -1.4401343044774944,
                2.4911166125485167,
                1.5631801875453941,
                -0.607770238576347,
                0.07002709651389935
            ]
        },
        {
            "positions": [
                0.1706070031846969,
                -1.4197223290331633,
                2.421843873444279,
                1.4877826770661615,
                -0.6476199907790867,
                0.09567318557067836
            ]
        },
        {
            "positions": [
                0.07750313302715942,
                -1.3993103535888323,
                2.352571134340042,
                1.4123851665869287,
                -0.6874697429818264,
                0.12131927462745735
            ]
        },
        {
            "positions": [
                0.0011455398274596157,
                -1.3428441516199199,
                2.3000141292763296,
                1.469362961119804,
                -0.8057201304767434,
                0.11295978415671648
            ]
        },
        {
            "positions": [
                -0.07521205337224018,
                -1.2863779496510073,
                2.247457124212617,
                1.5263407556526791,
                -0.9239705179716603,
                0.1046002936859756
            ]
        },
        {
            "positions": [
                -0.15156964657194,
                -1.2299117476820949,
                2.1949001191489046,
                1.5833185501855545,
                -1.0422209054665772,
                0.09624080321523473
            ]
        },
        {
            "positions": [
                -0.22792723977163978,
                -1.1734455457131823,
                2.142343114085192,
                1.6402963447184296,
                -1.1604712929614942,
                0.08788131274449387
            ]
        },
        {
            "positions": [
                -0.30428483297133957,
                -1.1169793437442699,
                2.0897861090214795,
                1.6972741392513049,
                -1.2787216804564112,
                0.07952182227375298
            ]
        },
        {
            "positions": [
                -0.3806424261710394,
                -1.0605131417753575,
                2.037229103957767,
                1.75425193378418,
                -1.3969720679513282,
                0.07116233180301212
            ]
        },
        {
            "positions": [
                -0.4570000193707392,
                -1.004046939806445,
                1.9846720988940545,
                1.8112297283170553,
                -1.515222455446245,
                0.06280284133227126
            ]
        },
        {
            "positions": [
                -0.533357612570439,
                -0.9475807378375325,
                1.9321150938303417,
                1.8682075228499304,
                -1.633472842941162,
                0.054443350861530376
            ]
        },
        {
            "positions": [
                -0.6097152057701387,
                -0.8911145358686201,
                1.8795580887666294,
                1.9251853173828057,
                -1.751723230436079,
                0.046083860390789516
            ]
        },
        {
            "positions": [
                -0.6860727989698386,
                -0.8346483338997076,
                1.8270010837029167,
                1.982163111915681,
                -1.869973617930996,
                0.03772436992004863
            ]
        },
        {
            "positions": [
                -0.7624303921695383,
                -0.7781821319307951,
                1.7744440786392044,
                2.039140906448556,
                -1.9882240054259128,
                0.029364879449307768
            ]
        },
        {
            "positions": [
                -0.8387879853692383,
                -0.7217159299618826,
                1.7218870735754919,
                2.0961187009814313,
                -2.10647439292083,
                0.02100538897856688
            ]
        },
        {
            "positions": [
                -0.915145578568938,
                -0.6652497279929702,
                1.6693300685117793,
                2.1530964955143066,
                -2.224724780415747,
                0.01264589850782602
            ]
        }
    ]
}