{
    "goal": {
        "global_pose": {
            "orientation": {
                "w": 0.5084816217422485,
                "x": -0.49083608388900757,
                "y": 0.5182115435600281,
                "z": -0.4816462993621826
            },
            "position": {
                "x": 0.5540239810943604,
                "y": 0.030875300988554955,
                "z": 0.16403168439865112
            }
        },
        "name": "move_to_storage_A"
    },
    "id": "RRTConnect_move_to_storage_A_98",
    "joint_names": [
        "shoulder_pan_joint",
        "shoulder_lift_joint",
        "elbow_joint",
        "wrist_1_joint",
        "wrist_2_joint",
        "wrist_3_joint"
    ],
    "metrics": {
        "cart_traj_len": 0.35320507763529274,
        "distance_elbow_joint": 0.44894147778872395,
        "distance_shoulder_lift_joint": 0.2330928040923277,
        "distance_shoulder_pan_joint": 0.4591844046002875,
        "distance_wrist_1_joint": 0.24087697217520787,
        "distance_wrist_2_joint": 1.1098441878587217,
        "distance_wrist_3_joint": 0.09594309070854967,
        "smoothness": 0.0,
        "time": 0.055572192,
        "traj_len": 1.6086898200783826,
        "weighted_distance": 2.032360764892603
    },
    "planner": "RRTConnect",
    "start": {
        "state": {
            "elbow_joint": 1.971548259319323,
            "shoulder_lift_joint": -1.1394851275133948,
            "shoulder_pan_joint": 0.1228115487234821,
            "wrist_1_joint": -0.7804723859257726,
            "wrist_2_joint": 0.12958671773740124,
            "wrist_3_joint": -3.192489227718131
        }
    },
    "waypoints": [
        {
            "positions": [
                0.1228115487234821,
                -1.1394851275133948,
                1.971548259319323,
                -0.7804723859257726,
                0.12958671773740124,
                -3.192489227718131
            ]
        },
        {
            "positions": [
                0.057213776637726754,
                -1.1727840995265846,
                2.0356827561462834,
                -0.8148833819508023,
                0.2881358874315043,
                -3.178783071902624
            ]
        },
        {
            "positions": [
                -0.008383995448028592,
                -1.2060830715397741,
                2.099817252973244,
                -0.849294377975832,
                0.44668505712560747,
                -3.165076916087117
            ]
        },
        {
            "positions": [
                -0.07398176753378394,
                -1.2393820435529639,
                2.1639517498002045,
                -0.8837053740008617,
                0.6052342268197105,
                -3.1513707602716097
            ]
        },
        {
            "positions": [
                -0.13957953961953928,
                -1.2726810155661534,
                2.228086246627165,
                -0.9181163700258914,
                0.7637833965138137,
                -3.137664604456103
            ]
        },
        {
            "positions": [
                -0.20517731170529468,
                -1.3059799875793432,
                2.2922207434541257,
                -0.952527366050921,
                0.9223325662079168,
                -3.123958448640596
            ]
        },
        {
            "positions": [
                -0.27077508379105,
                -1.3392789595925327,
                2.3563552402810863,
                -0.9869383620759508,
                1.0808817359020197,
                -3.1102522928250886
            ]
        },
        {
            "positions": [
                -0.3363728558768054,
                -1.3725779316057225,
                2.420489737108047,
                -1.0213493581009805,
                1.239430905596123,
                -3.0965461370095815
            ]
        }
    ]
}{
    "goal": {
        "global_pose": {
            "orientation": {
                "w": 0.5084816217422485,
                "x": -0.49083608388900757,
                "y": 0.5182115435600281,
                "z": -0.4816462993621826
            },
            "position": {
                "x": 0.5540239810943604,
                "y": 0.030875300988554955,
                "z": 0.16403168439865112
            }
        },
        "name": "move_to_storage_A"
    },
    "id": "RRTConnect_move_to_storage_A_98",
    "joint_names": [
        "shoulder_pan_joint",
        "shoulder_lift_joint",
        "elbow_joint",
        "wrist_1_joint",
        "wrist_2_joint",
        "wrist_3_joint"
    ],
    "metrics": {
        "cart_traj_len": 0.3532271860742501,
        "distance_elbow_joint": 0.45014102875258155,
        "distance_shoulder_lift_joint": 0.23369884810290542,
        "distance_shoulder_pan_joint": 0.46052402293823447,
        "distance_wrist_1_joint": 0.24663632743394803,
        "distance_wrist_2_joint": 1.1044898035953357,
        "distance_wrist_3_joint": 0.09648377328050284,
        "smoothness": 1.998401446083499e-15,
        "time": 0.052351837,
        "traj_len": 1.609960808250781,
        "weighted_distance": 2.033732401692464
    },
    "planner": "RRTConnect",
    "start": {
        "state": {
            "elbow_joint": 1.97154746011099,
            "shoulder_lift_joint": -1.13948474672311,
            "shoulder_pan_joint": 0.12281154466712228,
            "wrist_1_joint": -0.7804688027058302,
            "wrist_2_joint": 0.12958655903071145,
            "wrist_3_joint": 3.0906928834467795
        }
    },
    "waypoints": [
        {
            "positions": [
                0.12281154466712228,
                -1.13948474672311,
                1.97154746011099,
                -0.7804688027058302,
                0.12958655903071145,
                3.0906928834467795
            ]
        },
        {
            "positions": [
                0.0570223985330888,
                -1.1728702964520965,
                2.0358533213613588,
                -0.8157025637678228,
                0.287370816687188,
                3.1044762796297083
            ]
        },
        {
            "positions": [
                -0.008766747600944688,
                -1.2062558461810828,
                2.1001591826117276,
                -0.8509363248298153,
                0.4451550743436645,
                3.1182596758126375
            ]
        },
        {
            "positions": [
                -0.07455589373497819,
                -1.2396413959100694,
                2.1644650438620965,
                -0.8861700858918079,
                0.602939332000141,
                3.1320430719955663
            ]
        },
        {
            "positions": [
                -0.14034503986901165,
                -1.273026945639056,
                2.228770905112465,
                -0.9214038469538005,
                0.7607235896566176,
                3.1458264681784955
            ]
        },
        {
            "positions": [
                -0.20613418600304517,
                -1.3064124953680425,
                2.2930767663628338,
                -0.956637608015793,
                0.9185078473130941,
                3.1596098643614243
            ]
        },
        {
            "positions": [
                -0.27192333213707864,
                -1.3397980450970288,
                2.3573826276132026,
                -0.9918713690777856,
                1.0762921049695706,
                3.1733932605443536
            ]
        },
        {
            "positions": [
                -0.33771247827111217,
                -1.3731835948260154,
                2.4216884888635715,
                -1.0271051301397782,
                1.2340763626260471,
                3.1871766567272823
            ]
        }
    ]
}{
    "goal": {
        "global_pose": {
            "orientation": {
                "w": 0.5084816217422485,
                "x": -0.49083608388900757,
                "y": 0.5182115435600281,
                "z": -0.4816462993621826
            },
            "position": {
                "x": 0.5540239810943604,
                "y": 0.030875300988554955,
                "z": 0.16403168439865112
            }
        },
        "name": "move_to_storage_A"
    },
    "id": "RRTConnect_move_to_storage_A_98",
    "joint_names": [
        "shoulder_pan_joint",
        "shoulder_lift_joint",
        "elbow_joint",
        "wrist_1_joint",
        "wrist_2_joint",
        "wrist_3_joint"
    ],
    "metrics": {
        "cart_traj_len": 0.35286118920939497,
        "distance_elbow_joint": 0.4516455726126174,
        "distance_shoulder_lift_joint": 0.23231861102371432,
        "distance_shoulder_pan_joint": 0.46093271680426345,
        "distance_wrist_1_joint": 0.25589586911922146,
        "distance_wrist_2_joint": 1.0993561792832904,
        "distance_wrist_3_joint": 0.09229112714533283,
        "smoothness": 8.881784197001252e-16,
        "time": 0.042017074,
        "traj_len": 1.610105610197182,
        "weighted_distance": 2.0327996405651043
    },
    "planner": "RRTConnect",
    "start": {
        "state": {
            "elbow_joint": 1.9715472970024885,
            "shoulder_lift_joint": -1.1394870060712896,
            "shoulder_pan_joint": 0.12281152778156021,
            "wrist_1_joint": -0.780463741449964,
            "wrist_2_joint": 0.12958659822042276,
            "wrist_3_joint": 3.090690232415272
        }
    },
    "waypoints": [
        {
            "positions": [
                0.12281152778156021,
                -1.1394870060712896,
                1.9715472970024885,
                -0.780463741449964,
                0.12958659822042276,
                3.090690232415272
            ]
        },
        {
            "positions": [
                0.05696399680952259,
                -1.1726753790746773,
                2.0360680930900052,
                -0.8170202941812813,
                0.2866374809751785,
                3.1038746791503193
            ]
        },
        {
            "positions": [
                -0.008883534162515028,
                -1.205863752078065,
                2.100588889177522,
                -0.8535768469125987,
                0.44368836372993425,
                3.117059125885367
            ]
        },
        {
            "positions": [
                -0.07473106513455266,
                -1.2390521250814528,
                2.1651096852650387,
                -0.890133399643916,
                0.60073924648469,
                3.1302435726204143
            ]
        },
        {
            "positions": [
                -0.14057859610659026,
                -1.2722404980848405,
                2.2296304813525554,
                -0.9266899523752334,
                0.7577901292394458,
                3.1434280193554622
            ]
        },
        {
            "positions": [
                -0.20642612707862792,
                -1.3054288710882285,
                2.2941512774400725,
                -0.9632465051065507,
                0.9148410119942016,
                3.1566124660905097
            ]
        },
        {
            "positions": [
                -0.2722736580506655,
                -1.3386172440916162,
                2.3586720735275892,
                -0.999803057837868,
                1.0718918947489573,
                3.169796912825557
            ]
        },
        {
            "positions": [
                -0.3381211890227032,
                -1.371805617095004,
                2.423192869615106,
                -1.0363596105691855,
                1.2289427775037132,
                3.1829813595606047
            ]
        }
    ]
}