{
    "goal": {
        "global_pose": {
            "orientation": {
                "w": -0.00223480608172531,
                "x": 0.0024358444001904467,
                "y": 0.7094548369677653,
                "z": -0.704743149386269
            },
            "position": {
                "x": -0.37947507619857795,
                "y": -0.6371506643295288,
                "z": 0.19426114857196808
            }
        },
        "name": "move_to_magneteinheit_C"
    },
    "id": "RRTConnect_move_to_magneteinheit_C_63",
    "joint_names": [
        "shoulder_pan_joint",
        "shoulder_lift_joint",
        "elbow_joint",
        "wrist_1_joint",
        "wrist_2_joint",
        "wrist_3_joint"
    ],
    "metrics": {
        "cart_traj_len": 1.318787753776288,
        "distance_elbow_joint": 0.43795970489586455,
        "distance_shoulder_lift_joint": 0.4577446916999277,
        "distance_shoulder_pan_joint": 1.2839006920563716,
        "distance_wrist_1_joint": 1.787873179682939,
        "distance_wrist_2_joint": 2.5923220702502228,
        "distance_wrist_3_joint": 3.172779067557129,
        "smoothness": 0.6161200531638494,
        "time": 0.114850306,
        "traj_len": 3.1197082245207572,
        "weighted_distance": 4.5230888551066375
    },
    "planner": "RRTConnect",
    "start": {
        "state": {
            "elbow_joint": 1.9565354010623817,
            "shoulder_lift_joint": -1.4165861575791021,
            "shoulder_pan_joint": -1.6717766225146293,
            "wrist_1_joint": -0.5286633292919765,
            "wrist_2_joint": 1.472756589071564,
            "wrist_3_joint": -3.1238370188695823
        }
    },
    "waypoints": [
        {
            "positions": [
                -1.6717766225146293,
                -1.4165861575791021,
                1.9565354010623817,
                -0.5286633292919765,
                1.472756589071564,
                -3.1238370188695823
            ]
        },
        {
            "positions": [
                -1.6646630987329911,
                -1.425891662555109,
                1.9486776643045964,
                -0.4607330165003094,
                1.3219621090808817,
                -2.9809586127469205
            ]
        },
        {
            "positions": [
                -1.6575495749513531,
                -1.435197167531116,
                1.9408199275468112,
                -0.3928027037086423,
                1.1711676290901996,
                -2.8380802066242588
            ]
        },
        {
            "positions": [
                -1.650436051169715,
                -1.4445026725071228,
                1.9329621907890258,
                -0.3248723909169752,
                1.0203731490995174,
                -2.6952018005015965
            ]
        },
        {
            "positions": [
                -1.6433225273880767,
                -1.4538081774831297,
                1.9251044540312405,
                -0.2569420781253081,
                0.869578669108835,
                -2.5523233943789347
            ]
        },
        {
            "positions": [
                -1.6362090036064387,
                -1.4631136824591366,
                1.9172467172734553,
                -0.189011765333641,
                0.7187841891181528,
                -2.409444988256273
            ]
        },
        {
            "positions": [
                -1.6290954798248005,
                -1.4724191874351436,
                1.90938898051567,
                -0.12108145254197394,
                0.5679897091274706,
                -2.266566582133611
            ]
        },
        {
            "positions": [
                -1.6219819560431625,
                -1.4817246924111505,
                1.9015312437578848,
                -0.05315113975030683,
                0.4171952291367884,
                -2.1236881760109494
            ]
        },
        {
            "positions": [
                -1.6148684322615243,
                -1.4910301973871574,
                1.8936735070000996,
                0.014779173041360227,
                0.266400749146106,
                -1.9808097698882872
            ]
        },
        {
            "positions": [
                -1.6077549084798861,
                -1.5003357023631643,
                1.8858157702423142,
                0.0827094858330274,
                0.11560626915542382,
                -1.8379313637656254
            ]
        },
        {
            "positions": [
                -1.6006413846982481,
                -1.5096412073391712,
                1.877958033484529,
                0.15063979862469445,
                -0.03518821083525836,
                -1.6950529576429636
            ]
        },
        {
            "positions": [
                -1.59352786091661,
                -1.518946712315178,
                1.8701002967267437,
                0.2185701114163615,
                -0.18598269082594063,
                -1.5521745515203016
            ]
        },
        {
            "positions": [
                -1.7353965293140532,
                -1.475169594966269,
                1.8547930018998107,
                0.09417125244458091,
                -0.19169786357525292,
                -1.6085907522789038
            ]
        },
        {
            "positions": [
                -1.8772651977114965,
                -1.43139247761736,
                1.8394857070728776,
                -0.03022760652719969,
                -0.1974130363245652,
                -1.665006953037506
            ]
        },
        {
            "positions": [
                -2.0191338661089397,
                -1.3876153602684511,
                1.8241784122459446,
                -0.1546264654989803,
                -0.2031282090738775,
                -1.721423153796108
            ]
        },
        {
            "positions": [
                -2.161002534506383,
                -1.3438382429195421,
                1.8088711174190117,
                -0.2790253244707609,
                -0.20884338182318976,
                -1.7778393545547102
            ]
        },
        {
            "positions": [
                -2.3028712029038267,
                -1.3000611255706331,
                1.7935638225920787,
                -0.4034241834425415,
                -0.21455855457250206,
                -1.8342555553133124
            ]
        },
        {
            "positions": [
                -2.44473987130127,
                -1.2562840082217241,
                1.7782565277651456,
                -0.5278230424143221,
                -0.22027372732181433,
                -1.8906717560719146
            ]
        },
        {
            "positions": [
                -2.5866085396987133,
                -1.2125068908728152,
                1.7629492329382126,
                -0.6522219013861027,
                -0.22598890007112662,
                -1.9470879568305168
            ]
        },
        {
            "positions": [
                -2.6118386602650427,
                -1.1965570645618815,
                1.7843573802269614,
                -0.7036436397289758,
                -0.13237069072169383,
                -2.088363300003167
            ]
        },
        {
            "positions": [
                -2.637068780831372,
                -1.1806072382509478,
                1.8057655275157105,
                -0.755065378071849,
                -0.038752481372261005,
                -2.229638643175817
            ]
        },
        {
            "positions": [
                -2.610050279074107,
                -1.1777664611010108,
                1.8393584012147435,
                -0.7662327529862475,
                0.07897087902918337,
                -2.383580727934539
            ]
        },
        {
            "positions": [
                -2.583031777316842,
                -1.174925683951074,
                1.8729512749137764,
                -0.7774001279006459,
                0.19669423943062775,
                -2.537522812693261
            ]
        },
        {
            "positions": [
                -2.556013275559577,
                -1.1720849068011372,
                1.9065441486128094,
                -0.7885675028150443,
                0.3144175998320721,
                -2.6914648974519837
            ]
        },
        {
            "positions": [
                -2.5289947738023124,
                -1.1692441296512002,
                1.9401370223118422,
                -0.7997348777294427,
                0.4321409602335165,
                -2.8454069822107053
            ]
        },
        {
            "positions": [
                -2.5019762720450474,
                -1.1664033525012631,
                1.9737298960108751,
                -0.8109022526438412,
                0.5498643206349609,
                -2.999349066969428
            ]
        },
        {
            "positions": [
                -2.4749577702877823,
                -1.1635625753513263,
                2.007322769709908,
                -0.8220696275582396,
                0.6675876810364052,
                -3.15329115172815
            ]
        }
    ]
}