{
    "goal": {
        "global_pose": {
            "orientation": {
                "w": 0.7047431493862688,
                "x": -0.7094548369677653,
                "y": 0.0024358444001904,
                "z": -0.0022348060817251984
            },
            "position": {
                "x": -0.39052492380142206,
                "y": 0.3671506643295288,
                "z": 0.19426114857196808
            }
        },
        "name": "move_to_magneteinheit_D"
    },
    "id": "RRTConnect_move_to_magneteinheit_D_63",
    "joint_names": [
        "shoulder_pan_joint",
        "shoulder_lift_joint",
        "elbow_joint",
        "wrist_1_joint",
        "wrist_2_joint",
        "wrist_3_joint"
    ],
    "metrics": {
        "cart_traj_len": 4.049985200645028,
        "distance_elbow_joint": 4.876236194440443,
        "distance_shoulder_lift_joint": 1.0944413905661292,
        "distance_shoulder_pan_joint": 2.9794320818598594,
        "distance_wrist_1_joint": 5.8375753736988845,
        "distance_wrist_2_joint": 2.0858856360425966,
        "distance_wrist_3_joint": 6.313468066099278,
        "smoothness": 0.13511386612038276,
        "time": 0.226151347,
        "traj_len": 4.8152921762554755,
        "weighted_distance": 6.613428451616244
    },
    "planner": "RRTConnect",
    "start": {
        "state": {
            "elbow_joint": 0.749534889911806,
            "shoulder_lift_joint": -0.6476975780787326,
            "shoulder_pan_joint": -2.711696901376241,
            "wrist_1_joint": -0.07506478083263063,
            "wrist_2_joint": 0.43296659715538205,
            "wrist_3_joint": -3.14703540197715
        }
    },
    "waypoints": [
        {
            "positions": [
                -2.711696901376241,
                -0.6476975780787326,
                0.749534889911806,
                -0.07506478083263063,
                0.43296659715538205,
                -3.14703540197715
            ]
        },
        {
            "positions": [
                -2.7111325471781957,
                -0.6845651637309338,
                0.8102053238357245,
                0.05864741717601002,
                0.37828853627717124,
                -3.041955130203624
            ]
        },
        {
            "positions": [
                -2.7105681929801504,
                -0.721432749383135,
                0.870875757759643,
                0.19235961518465067,
                0.3236104753989604,
                -2.9368748584300985
            ]
        },
        {
            "positions": [
                -2.710003838782105,
                -0.7583003350353361,
                0.9315461916835615,
                0.3260718131932913,
                0.26893241452074956,
                -2.8317945866565726
            ]
        },
        {
            "positions": [
                -2.7094394845840593,
                -0.7951679206875372,
                0.99221662560748,
                0.45978401120193196,
                0.21425435364253875,
                -2.726714314883047
            ]
        },
        {
            "positions": [
                -2.708875130386014,
                -0.8320355063397383,
                1.0528870595313986,
                0.5934962092105727,
                0.1595762927643279,
                -2.621634043109521
            ]
        },
        {
            "positions": [
                -2.7083107761879686,
                -0.8689030919919395,
                1.1135574934553172,
                0.7272084072192133,
                0.10489823188611713,
                -2.516553771335995
            ]
        },
        {
            "positions": [
                -2.707746421989923,
                -0.9057706776441407,
                1.1742279273792358,
                0.860920605227854,
                0.05022017100790627,
                -2.4114734995624696
            ]
        },
        {
            "positions": [
                -2.707182067791878,
                -0.9426382632963417,
                1.2348983613031541,
                0.9946328032364946,
                -0.004457889870304543,
                -2.3063932277889436
            ]
        },
        {
            "positions": [
                -2.7066177135938325,
                -0.979505848948543,
                1.295568795227073,
                1.1283450012451355,
                -0.05913595074851541,
                -2.2013129560154177
            ]
        },
        {
            "positions": [
                -2.706053359395787,
                -1.016373434600744,
                1.3562392291509913,
                1.2620571992537761,
                -0.11381401162672627,
                -2.096232684241892
            ]
        },
        {
            "positions": [
                -2.7054890051977414,
                -1.0532410202529452,
                1.4169096630749096,
                1.3957693972624168,
                -0.16849207250493697,
                -1.9911524124683662
            ]
        },
        {
            "positions": [
                -2.704924650999696,
                -1.0901086059051464,
                1.4775800969988282,
                1.5294815952710572,
                -0.22317013338314778,
                -1.8860721406948404
            ]
        },
        {
            "positions": [
                -2.7043602968016507,
                -1.1269761915573475,
                1.5382505309227468,
                1.663193793279698,
                -0.2778481942613587,
                -1.7809918689213144
            ]
        },
        {
            "positions": [
                -2.7037959426036053,
                -1.1638437772095487,
                1.5989209648466653,
                1.7969059912883387,
                -0.33252625513956957,
                -1.6759115971477887
            ]
        },
        {
            "positions": [
                -2.6343900337054245,
                -1.1966127338301706,
                1.6023452633477642,
                1.790206906554266,
                -0.3977001912087752,
                -1.4972171281186548
            ]
        },
        {
            "positions": [
                -2.5649841248072436,
                -1.2293816904507924,
                1.6057695618488628,
                1.7835078218201934,
                -0.46287412727798083,
                -1.318522659089521
            ]
        },
        {
            "positions": [
                -2.4955782159090627,
                -1.2621506470714143,
                1.6091938603499616,
                1.7768087370861207,
                -0.5280480633471865,
                -1.139828190060387
            ]
        },
        {
            "positions": [
                -2.426172307010882,
                -1.2949196036920363,
                1.6126181588510602,
                1.770109652352048,
                -0.5932219994163921,
                -0.9611337210312532
            ]
        },
        {
            "positions": [
                -2.3567663981127005,
                -1.327688560312658,
                1.616042457352159,
                1.7634105676179757,
                -0.6583959354855977,
                -0.7824392520021193
            ]
        },
        {
            "positions": [
                -2.2873604892145196,
                -1.36045751693328,
                1.6194667558532576,
                1.756711482883903,
                -0.7235698715548033,
                -0.6037447829729854
            ]
        },
        {
            "positions": [
                -2.2179545803163387,
                -1.393226473553902,
                1.6228910543543564,
                1.7500123981498303,
                -0.788743807624009,
                -0.4250503139438515
            ]
        },
        {
            "positions": [
                -2.148548671418158,
                -1.4259954301745237,
                1.626315352855455,
                1.7433133134157577,
                -0.8539177436932146,
                -0.24635584491471763
            ]
        },
        {
            "positions": [
                -2.079142762519977,
                -1.4587643867951456,
                1.6297396513565539,
                1.736614228681685,
                -0.9190916797624202,
                -0.06766137588558384
            ]
        },
        {
            "positions": [
                -2.0185476337841406,
                -1.4622549376477412,
                1.5216219174350616,
                1.629598907982373,
                -0.8984653603461661,
                0.024414247715610612
            ]
        },
        {
            "positions": [
                -1.9579525050483046,
                -1.4657454885003367,
                1.4135041835135693,
                1.5225835872830609,
                -0.8778390409299119,
                0.11648987131680506
            ]
        },
        {
            "positions": [
                -1.8973573763124683,
                -1.4692360393529322,
                1.305386449592077,
                1.4155682665837488,
                -0.8572127215136578,
                0.20856549491799953
            ]
        },
        {
            "positions": [
                -1.836762247576632,
                -1.4727265902055278,
                1.1972687156705848,
                1.3085529458844367,
                -0.8365864020974036,
                0.30064111851919395
            ]
        },
        {
            "positions": [
                -1.776167118840796,
                -1.4762171410581233,
                1.0891509817490925,
                1.2015376251851246,
                -0.8159600826811496,
                0.3927167421203884
            ]
        },
        {
            "positions": [
                -1.7155719901049595,
                -1.4797076919107188,
                0.9810332478276003,
                1.0945223044858126,
                -0.7953337632648955,
                0.4847923657215829
            ]
        },
        {
            "positions": [
                -1.6549768613691234,
                -1.4831982427633144,
                0.8729155139061079,
                0.9875069837865004,
                -0.7747074438486413,
                0.5768679893227774
            ]
        },
        {
            "positions": [
                -1.5943817326332872,
                -1.4866887936159099,
                0.7647977799846157,
                0.8804916630871883,
                -0.7540811244323872,
                0.6689436129239718
            ]
        },
        {
            "positions": [
                -1.533786603897451,
                -1.4901793444685054,
                0.6566800460631235,
                0.7734763423878763,
                -0.733454805016133,
                0.7610192365251661
            ]
        },
        {
            "positions": [
                -1.4731914751616149,
                -1.493669895321101,
                0.5485623121416312,
                0.6664610216885642,
                -0.7128284855998789,
                0.8530948601263606
            ]
        },
        {
            "positions": [
                -1.4125963464257785,
                -1.4971604461736965,
                0.44044457822013894,
                0.559445700989252,
                -0.6922021661836247,
                0.9451704837275551
            ]
        },
        {
            "positions": [
                -1.3520012176899423,
                -1.500650997026292,
                0.3323268442986467,
                0.45243038028993987,
                -0.6715758467673706,
                1.0372461073287498
            ]
        },
        {
            "positions": [
                -1.2914060889541061,
                -1.5041415478788875,
                0.22420911037715419,
                0.3454150595906278,
                -0.6509495273511166,
                1.1293217309299441
            ]
        },
        {
            "positions": [
                -1.2308109602182697,
                -1.507632098731483,
                0.11609137645566192,
                0.23839973889131572,
                -0.6303232079348624,
                1.2213973545311387
            ]
        },
        {
            "positions": [
                -1.1702158314824338,
                -1.5111226495840786,
                0.007973642534169878,
                0.13138441819200386,
                -0.6096968885186083,
                1.3134729781323329
            ]
        },
        {
            "positions": [
                -1.1096207027465974,
                -1.5146132004366741,
                -0.10014409138732239,
                0.02436909749269156,
                -0.5890705691023541,
                1.4055486017335275
            ]
        },
        {
            "positions": [
                -1.0490255740107612,
                -1.5181037512892697,
                -0.20826182530881465,
                -0.08264622320662052,
                -0.5684442496861,
                1.4976242253347218
            ]
        },
        {
            "positions": [
                -0.9884304452749251,
                -1.5215943021418652,
                -0.3163795592303069,
                -0.18966154390593237,
                -0.5478179302698458,
                1.5896998489359162
            ]
        },
        {
            "positions": [
                -0.9278353165390889,
                -1.525084852994461,
                -0.42449729315179896,
                -0.29667686460524445,
                -0.5271916108535917,
                1.6817754725371106
            ]
        },
        {
            "positions": [
                -0.8672401878032525,
                -1.5285754038470565,
                -0.5326150270732914,
                -0.40369218530455653,
                -0.5065652914373375,
                1.7738510961383052
            ]
        },
        {
            "positions": [
                -0.8066450590674163,
                -1.532065954699652,
                -0.6407327609947839,
                -0.5107075060038686,
                -0.48593897202108344,
                1.8659267197394995
            ]
        },
        {
            "positions": [
                -0.74604993033158,
                -1.5355565055522475,
                -0.748850494916276,
                -0.6177228267031811,
                -0.4653126526048293,
                1.9580023433406941
            ]
        },
        {
            "positions": [
                -0.6854548015957438,
                -1.539047056404843,
                -0.8569682288377685,
                -0.7247381474024932,
                -0.44468633318857514,
                2.0500779669418887
            ]
        },
        {
            "positions": [
                -0.6248596728599076,
                -1.5425376072574386,
                -0.9650859627592605,
                -0.8317534681018053,
                -0.424060013772321,
                2.1421535905430833
            ]
        },
        {
            "positions": [
                -0.5642645441240712,
                -1.5460281581100341,
                -1.073203696680753,
                -0.9387687888011174,
                -0.4034336943560669,
                2.2342292141442774
            ]
        },
        {
            "positions": [
                -0.5036694153882351,
                -1.5495187089626297,
                -1.1813214306022455,
                -1.0457841095004294,
                -0.38280737493981276,
                2.326304837745472
            ]
        },
        {
            "positions": [
                -0.4430742866523989,
                -1.5530092598152252,
                -1.2894391645237375,
                -1.1527994301997415,
                -0.3621810555235586,
                2.4183804613466666
            ]
        },
        {
            "positions": [
                -0.3824791579165625,
                -1.5564998106678207,
                -1.39755689844523,
                -1.2598147508990536,
                -0.34155473610730447,
                2.510456084947861
            ]
        },
        {
            "positions": [
                -0.32188402918072634,
                -1.5599903615204163,
                -1.505674632366722,
                -1.3668300715983657,
                -0.3209284166910503,
                2.6025317085490554
            ]
        },
        {
            "positions": [
                -0.2612889004448904,
                -1.5634809123730118,
                -1.613792366288214,
                -1.4738453922976773,
                -0.3003020972747963,
                2.6946073321502495
            ]
        },
        {
            "positions": [
                -0.200693771709054,
                -1.5669714632256073,
                -1.7219101002097066,
                -1.5808607129969898,
                -0.27967577785854214,
                2.786682955751444
            ]
        },
        {
            "positions": [
                -0.14009864297321784,
                -1.5704620140782029,
                -1.8300278341311986,
                -1.687876033696302,
                -0.259049458442288,
                2.8787585793526387
            ]
        },
        {
            "positions": [
                -0.07950351423738167,
                -1.5739525649307984,
                -1.9381455680526911,
                -1.794891354395614,
                -0.23842313902603385,
                2.970834202953833
            ]
        },
        {
            "positions": [
                -0.0189083855015455,
                -1.577443115783394,
                -2.046263301974183,
                -1.901906675094926,
                -0.2177968196097797,
                3.0629098265550274
            ]
        },
        {
            "positions": [
                0.04168674323429078,
                -1.5809336666359894,
                -2.1543810358956756,
                -2.008921995794238,
                -0.1971705001935255,
                3.154985450156222
            ]
        },
        {
            "positions": [
                -0.07133747539037218,
                -1.6615363176404256,
                -2.260336408767407,
                -2.0888103030419067,
                -0.19121741041557616,
                3.149261843173269
            ]
        },
        {
            "positions": [
                -0.18436169401503513,
                -1.7421389686448618,
                -2.3662917816391382,
                -2.168698610289575,
                -0.18526432063762685,
                3.1435382361903157
            ]
        }
    ]
}