{
    "goal": {
        "global_pose": {
            "orientation": {
                "w": -0.4816463035849501,
                "x": 0.5182115481033762,
                "y": 0.4908360881923453,
                "z": -0.5084816262002911
            },
            "position": {
                "x": -0.8240239810943604,
                "y": 0.19912469901144506,
                "z": 0.16403168439865112
            }
        },
        "name": "move_to_storage_D"
    },
    "id": "RRTConnect_move_to_storage_D_79",
    "joint_names": [
        "shoulder_pan_joint",
        "shoulder_lift_joint",
        "elbow_joint",
        "wrist_1_joint",
        "wrist_2_joint",
        "wrist_3_joint"
    ],
    "metrics": {
        "cart_traj_len": 1.8434728790135866,
        "distance_elbow_joint": 1.8564207212739716,
        "distance_shoulder_lift_joint": 0.15084174050695687,
        "distance_shoulder_pan_joint": 1.4532853188248736,
        "distance_wrist_1_joint": 3.8187589546494753,
        "distance_wrist_2_joint": 1.787520719700883,
        "distance_wrist_3_joint": 3.1160743150914842,
        "smoothness": 0.1545863976234926,
        "time": 0.089192939,
        "traj_len": 3.490401376639604,
        "weighted_distance": 4.901155993699953
    },
    "planner": "RRTConnect",
    "start": {
        "state": {
            "elbow_joint": -2.384821988534728,
            "shoulder_lift_joint": -2.2788054721415256,
            "shoulder_pan_joint": -0.1854694642142757,
            "wrist_1_joint": 1.4845938289331202,
            "wrist_2_joint": 0.17898776772866878,
            "wrist_3_joint": 0.037105688729662994
        }
    },
    "waypoints": [
        {
            "positions": [
                -0.1854694642142757,
                -2.2788054721415256,
                -2.384821988534728,
                1.4845938289331202,
                0.17898776772866878,
                0.037105688729662994
            ]
        },
        {
            "positions": [
                -0.09639327658194666,
                -2.263248399730941,
                -2.2508974669276722,
                1.3800680214796324,
                0.17558663374005698,
                -0.009650515356871003
            ]
        },
        {
            "positions": [
                -0.007317088949617606,
                -2.2476913273203563,
                -2.116972945320617,
                1.2755422140261445,
                0.17218549975144518,
                -0.056406719443405
            ]
        },
        {
            "positions": [
                0.08175909868271145,
                -2.232134254909772,
                -1.9830484237135613,
                1.1710164065726567,
                0.16878436576283334,
                -0.103162923529939
            ]
        },
        {
            "positions": [
                0.1708352863150405,
                -2.216577182499187,
                -1.8491239021065056,
                1.0664905991191689,
                0.16538323177422154,
                -0.149919127616473
            ]
        },
        {
            "positions": [
                0.2599114739473696,
                -2.2010201100886024,
                -1.7151993804994499,
                0.961964791665681,
                0.16198209778560974,
                -0.19667533170300702
            ]
        },
        {
            "positions": [
                0.3489876615796986,
                -2.1854630376780175,
                -1.5812748588923944,
                0.8574389842121933,
                0.15858096379699793,
                -0.243431535789541
            ]
        },
        {
            "positions": [
                0.4380638492120277,
                -2.169905965267433,
                -1.4473503372853387,
                0.7529131767587055,
                0.1551798298083861,
                -0.29018773987607505
            ]
        },
        {
            "positions": [
                0.5271400368443567,
                -2.154348892856848,
                -1.3134258156782832,
                0.6483873693052177,
                0.1517786958197743,
                -0.33694394396260896
            ]
        },
        {
            "positions": [
                0.6162162244766858,
                -2.1387918204462637,
                -1.1795012940712275,
                0.5438615618517298,
                0.1483775618311625,
                -0.383700148049143
            ]
        },
        {
            "positions": [
                0.5865980594705988,
                -2.1382996345911867,
                -1.2090967498353398,
                0.4130421669622715,
                0.06851799302191809,
                -0.5062123516088102
            ]
        },
        {
            "positions": [
                0.556979894464512,
                -2.1378074487361096,
                -1.2386922055994523,
                0.28222277207281304,
                -0.011341575787326308,
                -0.6287245551684774
            ]
        },
        {
            "positions": [
                0.5273617294584251,
                -2.1373152628810326,
                -1.2682876613635645,
                0.15140337718335467,
                -0.09120114459657067,
                -0.7512367587281445
            ]
        },
        {
            "positions": [
                0.49774356445233814,
                -2.1368230770259555,
                -1.2978831171276768,
                0.02058398229389624,
                -0.1710607134058151,
                -0.8737489622878118
            ]
        },
        {
            "positions": [
                0.4681253994462513,
                -2.1363308911708785,
                -1.327478572891789,
                -0.11023541259556213,
                -0.25092028221505946,
                -0.9962611658474789
            ]
        },
        {
            "positions": [
                0.4385072344401644,
                -2.1358387053158014,
                -1.3570740286559015,
                -0.2410548074850205,
                -0.33077985102430385,
                -1.1187733694071462
            ]
        },
        {
            "positions": [
                0.40888906943407743,
                -2.1353465194607244,
                -1.3866694844200138,
                -0.371874202374479,
                -0.41063941983354835,
                -1.2412855729668135
            ]
        },
        {
            "positions": [
                0.37927090442799055,
                -2.1348543336056474,
                -1.416264940184126,
                -0.5026935972639374,
                -0.49049898864279273,
                -1.3637977765264806
            ]
        },
        {
            "positions": [
                0.3496527394219036,
                -2.1343621477505703,
                -1.4458603959482383,
                -0.6335129921533958,
                -0.5703585574520371,
                -1.4863099800861477
            ]
        },
        {
            "positions": [
                0.3200345744158168,
                -2.1338699618954933,
                -1.4754558517123508,
                -0.7643323870428541,
                -0.6502181262612815,
                -1.608822183645815
            ]
        },
        {
            "positions": [
                0.29041640940972985,
                -2.1333777760404162,
                -1.505051307476463,
                -0.8951517819323126,
                -0.7300776950705259,
                -1.7313343872054823
            ]
        },
        {
            "positions": [
                0.26079824440364296,
                -2.132885590185339,
                -1.5346467632405754,
                -1.0259711768217707,
                -0.8099372638797702,
                -1.8538465907651491
            ]
        },
        {
            "positions": [
                0.23118007939755603,
                -2.132393404330262,
                -1.5642422190046879,
                -1.1567905717112295,
                -0.8897968326890147,
                -1.9763587943248164
            ]
        },
        {
            "positions": [
                0.20156191439146914,
                -2.131901218475185,
                -1.5938376747688001,
                -1.2876099666006877,
                -0.9696564014982592,
                -2.0988709978844837
            ]
        },
        {
            "positions": [
                0.17194374938538226,
                -2.131409032620108,
                -1.6234331305329124,
                -1.418429361490146,
                -1.0495159703075034,
                -2.221383201444151
            ]
        },
        {
            "positions": [
                0.14232558437929532,
                -2.130916846765031,
                -1.6530285862970246,
                -1.5492487563796047,
                -1.129375539116748,
                -2.3438954050038183
            ]
        },
        {
            "positions": [
                0.1127074193732085,
                -2.130424660909954,
                -1.682624042061137,
                -1.680068151269063,
                -1.2092351079259922,
                -2.466407608563485
            ]
        },
        {
            "positions": [
                0.08308925436712145,
                -2.129932475054877,
                -1.7122194978252494,
                -1.8108875461585217,
                -1.2890946767352367,
                -2.5889198121231525
            ]
        },
        {
            "positions": [
                0.05347108936103462,
                -2.1294402891998,
                -1.7418149535893617,
                -1.94170694104798,
                -1.368954245544481,
                -2.7114320156828198
            ]
        },
        {
            "positions": [
                0.02385292435494779,
                -2.128948103344723,
                -1.7714104093534742,
                -2.072526335937438,
                -1.4488138143537255,
                -2.8339442192424866
            ]
        },
        {
            "positions": [
                -0.005765240651139258,
                -2.128455917489646,
                -1.8010058651175864,
                -2.203345730826897,
                -1.52867338316297,
                -2.956456422802154
            ]
        },
        {
            "positions": [
                -0.03538340565722613,
                -2.1279637316345688,
                -1.8306013208816987,
                -2.334165125716355,
                -1.6085329519722142,
                -3.0789686263618212
            ]
        }
    ]
}