{
    "goal": {
        "global_pose": {
            "orientation": {
                "w": 0.7031023502349854,
                "x": -0.7110244035720825,
                "y": 0.007748599164187908,
                "z": 0.005598929710686207
            },
            "position": {
                "x": 0.11585023208521307,
                "y": 0.44412534475326537,
                "z": 0.3711530566215515
            }
        },
        "name": "move_to_auspresseinheit_A"
    },
    "id": "RRTConnect_move_to_auspresseinheit_A_70",
    "joint_names": [
        "shoulder_pan_joint",
        "shoulder_lift_joint",
        "elbow_joint",
        "wrist_1_joint",
        "wrist_2_joint",
        "wrist_3_joint"
    ],
    "metrics": {
        "cart_traj_len": 1.1615206502995832,
        "distance_elbow_joint": 0.5897376500953881,
        "distance_shoulder_lift_joint": 0.916557646444099,
        "distance_shoulder_pan_joint": 1.4141796005876106,
        "distance_wrist_1_joint": 1.151908996686555,
        "distance_wrist_2_joint": 2.2134475119064363,
        "distance_wrist_3_joint": 2.1665667872440335,
        "smoothness": 1.436902140050605,
        "time": 0.10992943699999999,
        "traj_len": 2.907300843215941,
        "weighted_distance": 4.018816775625033
    },
    "planner": "RRTConnect",
    "start": {
        "state": {
            "elbow_joint": 2.4225746658250005,
            "shoulder_lift_joint": -1.3736534386056498,
            "shoulder_pan_joint": -0.3378633547517467,
            "wrist_1_joint": -1.0288598680537169,
            "wrist_2_joint": 1.233022673432363,
            "wrist_3_joint": -3.0940220416140027
        }
    },
    "waypoints": [
        {
            "positions": [
                -0.3378633547517467,
                -1.3736534386056498,
                2.4225746658250005,
                -1.0288598680537169,
                1.233022673432363,
                -3.0940220416140027
            ]
        },
        {
            "positions": [
                -0.31433887781276343,
                -1.4129569137905582,
                2.391561685940587,
                -0.9701811425739082,
                1.0962376400067038,
                -2.9877948782563317
            ]
        },
        {
            "positions": [
                -0.2908144008737802,
                -1.4522603889754664,
                2.360548706056173,
                -0.9115024170940995,
                0.9594526065810445,
                -2.8815677148986603
            ]
        },
        {
            "positions": [
                -0.2672899239347969,
                -1.4915638641603748,
                2.3295357261717595,
                -0.8528236916142908,
                0.8226675731553852,
                -2.7753405515409892
            ]
        },
        {
            "positions": [
                -0.24376544699581365,
                -1.5308673393452832,
                2.298522746287346,
                -0.7941449661344822,
                0.6858825397297258,
                -2.6691133881833182
            ]
        },
        {
            "positions": [
                -0.22024097005683035,
                -1.5701708145301914,
                2.267509766402932,
                -0.7354662406546735,
                0.5490975063040665,
                -2.5628862248256468
            ]
        },
        {
            "positions": [
                -0.1967164931178471,
                -1.6094742897150995,
                2.236496786518518,
                -0.6767875151748648,
                0.4123124728784072,
                -2.4566590614679757
            ]
        },
        {
            "positions": [
                -0.17319201617886384,
                -1.648777764900008,
                2.2054838066341045,
                -0.6181087896950561,
                0.27552743945274794,
                -2.3504318981103047
            ]
        },
        {
            "positions": [
                -0.14966753923988055,
                -1.6880812400849163,
                2.174470826749691,
                -0.5594300642152473,
                0.13874240602708854,
                -2.2442047347526337
            ]
        },
        {
            "positions": [
                -0.12614306230089728,
                -1.7273847152698245,
                2.143457846865277,
                -0.5007513387354386,
                0.0019573726014292525,
                -2.1379775713949623
            ]
        },
        {
            "positions": [
                -0.10261858536191401,
                -1.766688190454733,
                2.1124448669808635,
                -0.44207261325562996,
                -0.13482766082423003,
                -2.0317504080372912
            ]
        },
        {
            "positions": [
                -0.017695129841078253,
                -1.7765004735423378,
                2.148755737110487,
                -0.4247523025106026,
                -0.04588411095250901,
                -2.145513040680531
            ]
        },
        {
            "positions": [
                0.0672283256797575,
                -1.7863127566299428,
                2.1850666072401106,
                -0.4074319917655752,
                0.04305943891921202,
                -2.2592756733237715
            ]
        },
        {
            "positions": [
                0.15215178120059328,
                -1.7961250397175479,
                2.221377477369734,
                -0.3901116810205479,
                0.13200298879093303,
                -2.3730383059670115
            ]
        },
        {
            "positions": [
                0.23707523672142902,
                -1.8059373228051527,
                2.257688347499357,
                -0.3727913702755205,
                0.22094653866265407,
                -2.4868009386102514
            ]
        },
        {
            "positions": [
                0.40048461661454604,
                -1.879417177463637,
                2.2748557197173813,
                -0.32138070164944205,
                0.2521978586155084,
                -2.5253885867158816
            ]
        },
        {
            "positions": [
                0.563893996507663,
                -1.952897032122121,
                2.2920230919354054,
                -0.26997003302336364,
                0.2834491785683627,
                -2.5639762348215123
            ]
        },
        {
            "positions": [
                0.7273033764007801,
                -2.0263768867806053,
                2.3091904641534295,
                -0.21855936439728518,
                0.31470049852121706,
                -2.602563882927143
            ]
        },
        {
            "positions": [
                0.8907127562938971,
                -2.0998567414390896,
                2.3263578363714537,
                -0.16714869577120672,
                0.3459518184740714,
                -2.641151531032773
            ]
        },
        {
            "positions": [
                0.8535920583855038,
                -2.061785872716958,
                2.339496812743586,
                -0.22518826065201564,
                0.4189153581443798,
                -2.740130337167141
            ]
        },
        {
            "positions": [
                0.8164713604771104,
                -2.023715003994826,
                2.352635789115718,
                -0.28322782553282455,
                0.4918788978146882,
                -2.839109143301509
            ]
        },
        {
            "positions": [
                0.779350662568717,
                -1.9856441352726941,
                2.3657747654878505,
                -0.34126739041363346,
                0.5648424374849965,
                -2.9380879494358774
            ]
        },
        {
            "positions": [
                0.7422299646603236,
                -1.9475732665505623,
                2.3789137418599826,
                -0.3993069552944424,
                0.6378059771553048,
                -3.0370667555702453
            ]
        },
        {
            "positions": [
                0.7051092667519303,
                -1.9095023978284305,
                2.3920527182321147,
                -0.4573465201752513,
                0.7107695168256133,
                -3.1360455617046132
            ]
        }
    ]
}