{
    "goal": {
        "global_pose": {
            "orientation": {
                "w": 0.7031023502349854,
                "x": -0.7110244035720825,
                "y": 0.007748599164187908,
                "z": 0.005598929710686207
            },
            "position": {
                "x": 0.11585023208521307,
                "y": 0.44412534475326537,
                "z": 0.3711530566215515
            }
        },
        "name": "move_to_auspresseinheit_A"
    },
    "id": "RRTConnect_move_to_auspresseinheit_A_117",
    "joint_names": [
        "shoulder_pan_joint",
        "shoulder_lift_joint",
        "elbow_joint",
        "wrist_1_joint",
        "wrist_2_joint",
        "wrist_3_joint"
    ],
    "metrics": {
        "cart_traj_len": 0.682758435394424,
        "distance_elbow_joint": 0.07249942073303028,
        "distance_shoulder_lift_joint": 0.5313629079080464,
        "distance_shoulder_pan_joint": 1.044749448052996,
        "distance_wrist_1_joint": 0.7911523305543797,
        "distance_wrist_2_joint": 0.5250094778882853,
        "distance_wrist_3_joint": 0.3274328077454327,
        "smoothness": 0.8540018019982389,
        "time": 0.052126248,
        "traj_len": 1.8144438246697443,
        "weighted_distance": 2.294173885479412
    },
    "planner": "RRTConnect",
    "start": {
        "state": {
            "elbow_joint": 2.4225746658250005,
            "shoulder_lift_joint": -1.3736534386056498,
            "shoulder_pan_joint": -0.3378633547517467,
            "wrist_1_joint": -1.0288598680537169,
            "wrist_2_joint": 1.233022673432363,
            "wrist_3_joint": -3.0940220416140027
        }
    },
    "waypoints": [
        {
            "positions": [
                -0.3378633547517467,
                -1.3736534386056498,
                2.4225746658250005,
                -1.0288598680537169,
                1.233022673432363,
                -3.0940220416140027
            ]
        },
        {
            "positions": [
                -0.20662431902161335,
                -1.4442297903414454,
                2.4149810392721163,
                -0.93137018296765,
                1.1692135700188238,
                -3.0735934594198784
            ]
        },
        {
            "positions": [
                -0.07538528329147998,
                -1.514806142077241,
                2.4073874127192316,
                -0.833880497881583,
                1.1054044666052847,
                -3.0531648772257536
            ]
        },
        {
            "positions": [
                0.05585375243865337,
                -1.5853824938130365,
                2.3997937861663474,
                -0.7363908127955161,
                1.0415953631917454,
                -3.0327362950316292
            ]
        },
        {
            "positions": [
                0.18709278816878677,
                -1.6559588455488323,
                2.392200159613463,
                -0.6389011277094493,
                0.9777862597782063,
                -3.0123077128375044
            ]
        },
        {
            "positions": [
                0.3183318238989202,
                -1.726535197284628,
                2.384606533060579,
                -0.5414114426233823,
                0.913977156364667,
                -2.99187913064338
            ]
        },
        {
            "positions": [
                0.44957085962905347,
                -1.7971115490204235,
                2.3770129065076944,
                -0.44392175753731544,
                0.850168052951128,
                -2.9714505484492553
            ]
        },
        {
            "positions": [
                0.5808098953591868,
                -1.867687900756219,
                2.36941927995481,
                -0.3464320724512485,
                0.7863589495375887,
                -2.951021966255131
            ]
        },
        {
            "positions": [
                0.643847994330218,
                -1.8863521236349576,
                2.37909129738623,
                -0.4007943399272042,
                0.7471860725408332,
                -3.0432383324484116
            ]
        },
        {
            "positions": [
                0.7068860933012492,
                -1.9050163465136962,
                2.38876331481765,
                -0.4551566074031599,
                0.7080131955440777,
                -3.135454698641692
            ]
        }
    ]
}