{
    "goal": {
        "global_pose": {
            "orientation": {
                "w": -0.4816463035849501,
                "x": 0.5182115481033762,
                "y": 0.4908360881923453,
                "z": -0.5084816262002911
            },
            "position": {
                "x": -0.8240239810943604,
                "y": -0.300875300988555,
                "z": 0.16403168439865112
            }
        },
        "name": "move_to_storage_C"
    },
    "id": "RRTConnect_move_to_storage_C_15",
    "joint_names": [
        "shoulder_pan_joint",
        "shoulder_lift_joint",
        "elbow_joint",
        "wrist_1_joint",
        "wrist_2_joint",
        "wrist_3_joint"
    ],
    "metrics": {
        "cart_traj_len": 0.5763875303229078,
        "distance_elbow_joint": 0.2579699496053065,
        "distance_shoulder_lift_joint": 0.18907170958373798,
        "distance_shoulder_pan_joint": 0.49352989822688365,
        "distance_wrist_1_joint": 0.07952573827975418,
        "distance_wrist_2_joint": 1.076735907410597,
        "distance_wrist_3_joint": 0.06813136049452861,
        "smoothness": 7.612957943425664e-16,
        "time": 0.133286015,
        "traj_len": 1.4713818551283036,
        "weighted_distance": 1.8594324215416425
    },
    "planner": "RRTConnect",
    "start": {
        "state": {
            "elbow_joint": 2.010868314990456,
            "shoulder_lift_joint": -1.1634956873337592,
            "shoulder_pan_joint": -2.4736205022346125,
            "wrist_1_joint": -0.8367026794202681,
            "wrist_2_joint": 0.6746043897044499,
            "wrist_3_joint": -3.1496632123970403
        }
    },
    "waypoints": [
        {
            "positions": [
                -2.4736205022346125,
                -1.1634956873337592,
                2.010868314990456,
                -0.8367026794202681,
                0.6746043897044499,
                -3.1496632123970403
            ]
        },
        {
            "positions": [
                -2.5558754852724266,
                -1.1319837357364695,
                1.9678733233895713,
                -0.8234483897069758,
                0.8540603742728827,
                -3.1383079856479523
            ]
        },
        {
            "positions": [
                -2.6381304683102402,
                -1.1004717841391798,
                1.924878331788687,
                -0.8101940999936834,
                1.0335163588413157,
                -3.126952758898864
            ]
        },
        {
            "positions": [
                -2.7203854513480543,
                -1.06895983254189,
                1.8818833401878026,
                -0.7969398102803911,
                1.2129723434097484,
                -3.115597532149776
            ]
        },
        {
            "positions": [
                -2.8026404343858684,
                -1.0374478809446006,
                1.838888348586918,
                -0.7836855205670986,
                1.3924283279781813,
                -3.104242305400688
            ]
        },
        {
            "positions": [
                -2.884895417423682,
                -1.005935929347311,
                1.7958933569860338,
                -0.7704312308538063,
                1.5718843125466142,
                -3.0928870786515996
            ]
        },
        {
            "positions": [
                -2.967150400461496,
                -0.9744239777500212,
                1.7528983653851493,
                -0.7571769411405139,
                1.7513402971150471,
                -3.0815318519025117
            ]
        }
    ]
}