{
    "goal": {
        "global_pose": {
            "orientation": {
                "w": 0.7031023502349854,
                "x": -0.7110244035720825,
                "y": 0.007748599164187908,
                "z": 0.005598929710686207
            },
            "position": {
                "x": 0.11585023208521307,
                "y": 0.44412534475326537,
                "z": 0.3711530566215515
            }
        },
        "name": "move_to_auspresseinheit_A"
    },
    "id": "RRTConnect_move_to_auspresseinheit_A_76",
    "joint_names": [
        "shoulder_pan_joint",
        "shoulder_lift_joint",
        "elbow_joint",
        "wrist_1_joint",
        "wrist_2_joint",
        "wrist_3_joint"
    ],
    "metrics": {
        "cart_traj_len": 0.6746610655419514,
        "distance_elbow_joint": 0.05601485897456282,
        "distance_shoulder_lift_joint": 0.745615769446063,
        "distance_shoulder_pan_joint": 1.048827773222278,
        "distance_wrist_1_joint": 0.8976522514369707,
        "distance_wrist_2_joint": 0.5091062201312413,
        "distance_wrist_3_joint": 0.48091016888271154,
        "smoothness": 1.0752050533950996,
        "time": 0.100480721,
        "traj_len": 1.933423658201644,
        "weighted_distance": 2.4711749940923777
    },
    "planner": "RRTConnect",
    "start": {
        "state": {
            "elbow_joint": 2.4225746658250005,
            "shoulder_lift_joint": -1.3736534386056498,
            "shoulder_pan_joint": -0.3378633547517467,
            "wrist_1_joint": -1.0288598680537169,
            "wrist_2_joint": 1.233022673432363,
            "wrist_3_joint": -3.0940220416140027
        }
    },
    "waypoints": [
        {
            "positions": [
                -0.3378633547517467,
                -1.3736534386056498,
                2.4225746658250005,
                -1.0288598680537169,
                1.233022673432363,
                -3.0940220416140027
            ]
        },
        {
            "positions": [
                -0.22409250568585887,
                -1.4651101490364795,
                2.424422522597583,
                -0.9245285645355684,
                1.1851640025582597,
                -3.062003095460509
            ]
        },
        {
            "positions": [
                -0.11032165661997098,
                -1.556566859467309,
                2.4262703793701648,
                -0.82019726101742,
                1.1373053316841562,
                -3.029984149307015
            ]
        },
        {
            "positions": [
                0.0034491924459169043,
                -1.6480235698981387,
                2.428118236142747,
                -0.7158659574992714,
                1.0894466608100528,
                -2.9979652031535213
            ]
        },
        {
            "positions": [
                0.11722004151180476,
                -1.7394802803289682,
                2.4299660929153295,
                -0.611534653981123,
                1.0415879899359493,
                -2.9659462570000277
            ]
        },
        {
            "positions": [
                0.23099089057769268,
                -1.8309369907597979,
                2.431813949687912,
                -0.5072033504629745,
                0.9937293190618459,
                -2.933927310846534
            ]
        },
        {
            "positions": [
                0.34476173964358053,
                -1.9223937011906274,
                2.433661806460494,
                -0.40287204694482603,
                0.9458706481877425,
                -2.90190836469304
            ]
        },
        {
            "positions": [
                0.45853258870946834,
                -2.013850411621457,
                2.435509663233076,
                -0.29854074342667763,
                0.898011977313639,
                -2.8698894185395463
            ]
        },
        {
            "positions": [
                0.542676531963156,
                -1.9787108128113717,
                2.4211497093775805,
                -0.3543184523633214,
                0.8399801359761333,
                -2.9554819338089646
            ]
        },
        {
            "positions": [
                0.6268204752168436,
                -1.9435712140012866,
                2.4067897555220847,
                -0.4100961612999652,
                0.7819482946386275,
                -3.041074449078383
            ]
        },
        {
            "positions": [
                0.7109644184705313,
                -1.9084316151912013,
                2.392429801666589,
                -0.4658738702366089,
                0.7239164533011218,
                -3.1266669643478013
            ]
        }
    ]
}