{
    "goal": {
        "global_pose": {
            "orientation": {
                "w": 0.7047431468963623,
                "x": -0.7094548344612122,
                "y": 0.0024358443915843964,
                "z": -0.0022348060738295317
            },
            "position": {
                "x": 0.6094750761985779,
                "y": 0.3671506643295288,
                "z": 0.19426114857196808
            }
        },
        "name": "move_to_magneteinheit_A"
    },
    "id": "RRTConnect_move_to_magneteinheit_A_15",
    "joint_names": [
        "shoulder_pan_joint",
        "shoulder_lift_joint",
        "elbow_joint",
        "wrist_1_joint",
        "wrist_2_joint",
        "wrist_3_joint"
    ],
    "metrics": {
        "cart_traj_len": 3.7648205892041102,
        "distance_elbow_joint": 3.880477273747893,
        "distance_shoulder_lift_joint": 0.3870529334622328,
        "distance_shoulder_pan_joint": 3.086177042497753,
        "distance_wrist_1_joint": 1.8420534850741523,
        "distance_wrist_2_joint": 2.3993556173918145,
        "distance_wrist_3_joint": 2.59754373153782,
        "smoothness": 0.2968542549500706,
        "time": 0.093071101,
        "traj_len": 3.7673147046287054,
        "weighted_distance": 4.860983094935969
    },
    "planner": "RRTConnect",
    "start": {
        "state": {
            "elbow_joint": -1.9196185241190666,
            "shoulder_lift_joint": -1.2443396400964142,
            "shoulder_pan_joint": 2.6996025414629847,
            "wrist_1_joint": -1.5485510000780065,
            "wrist_2_joint": -1.5709468930060704,
            "wrist_3_joint": 0.4420197071253992
        }
    },
    "waypoints": [
        {
            "positions": [
                2.6996025414629847,
                -1.2443396400964142,
                -1.9196185241190666,
                -1.5485510000780065,
                -1.5709468930060704,
                0.4420197071253992
            ]
        },
        {
            "positions": [
                2.5906787127477098,
                -1.2348019427749468,
                -1.826843389877146,
                -1.4973436875813202,
                -1.49213370893851,
                0.49574860991601344
            ]
        },
        {
            "positions": [
                2.481754884032435,
                -1.2252642454534797,
                -1.7340682556352254,
                -1.4461363750846337,
                -1.4133205248709495,
                0.5494775127066276
            ]
        },
        {
            "positions": [
                2.37283105531716,
                -1.2157265481320123,
                -1.6412931213933046,
                -1.3949290625879474,
                -1.3345073408033892,
                0.6032064154972419
            ]
        },
        {
            "positions": [
                2.2639072266018854,
                -1.206188850810545,
                -1.5485179871513841,
                -1.3437217500912608,
                -1.2556941567358288,
                0.6569353182878561
            ]
        },
        {
            "positions": [
                2.1549833978866104,
                -1.1966511534890776,
                -1.4557428529094634,
                -1.2925144375945745,
                -1.1768809726682683,
                0.7106642210784704
            ]
        },
        {
            "positions": [
                2.0460595691713355,
                -1.1871134561676104,
                -1.3629677186675426,
                -1.241307125097888,
                -1.098067788600708,
                0.7643931238690846
            ]
        },
        {
            "positions": [
                1.9371357404560605,
                -1.177575758846143,
                -1.2701925844256223,
                -1.190099812601202,
                -1.0192546045331476,
                0.8181220266596987
            ]
        },
        {
            "positions": [
                1.8282119117407856,
                -1.1680380615246757,
                -1.1774174501837016,
                -1.1388925001045154,
                -0.9404414204655872,
                0.8718509294503131
            ]
        },
        {
            "positions": [
                1.7192880830255108,
                -1.1585003642032083,
                -1.0846423159417808,
                -1.0876851876078288,
                -0.8616282363980269,
                0.9255798322409272
            ]
        },
        {
            "positions": [
                1.6103642543102359,
                -1.1489626668817412,
                -0.9918671816998602,
                -1.0364778751111425,
                -0.7828150523304663,
                0.9793087350315415
            ]
        },
        {
            "positions": [
                1.501440425594961,
                -1.1394249695602738,
                -0.8990920474579396,
                -0.9852705626144562,
                -0.704001868262906,
                1.0330376378221557
            ]
        },
        {
            "positions": [
                1.392516596879686,
                -1.1298872722388065,
                -0.8063169132160188,
                -0.9340632501177697,
                -0.6251886841953456,
                1.08676654061277
            ]
        },
        {
            "positions": [
                1.2835927681644113,
                -1.120349574917339,
                -0.7135417789740983,
                -0.8828559376210834,
                -0.5463755001277852,
                1.1404954434033843
            ]
        },
        {
            "positions": [
                1.1746689394491365,
                -1.110811877595872,
                -0.6207666447321778,
                -0.8316486251243971,
                -0.4675623160602249,
                1.1942243461939983
            ]
        },
        {
            "positions": [
                1.0657451107338616,
                -1.1012741802744046,
                -0.527991510490257,
                -0.7804413126277107,
                -0.3887491319926646,
                1.2479532489846126
            ]
        },
        {
            "positions": [
                0.9568212820185864,
                -1.0917364829529372,
                -0.4352163762483363,
                -0.7292340001310241,
                -0.30993594792510404,
                1.301682151775227
            ]
        },
        {
            "positions": [
                0.8478974533033117,
                -1.08219878563147,
                -0.3424412420064158,
                -0.6780266876343378,
                -0.2311227638575437,
                1.355411054565841
            ]
        },
        {
            "positions": [
                0.738973624588037,
                -1.0726610883100027,
                -0.24966610776449505,
                -0.6268193751376514,
                -0.15230957978998338,
                1.4091399573564551
            ]
        },
        {
            "positions": [
                0.630049795872762,
                -1.0631233909885354,
                -0.15689097352257453,
                -0.5756120626409651,
                -0.07349639572242306,
                1.4628688601470694
            ]
        },
        {
            "positions": [
                0.521125967157487,
                -1.053585693667068,
                -0.06411583928065379,
                -0.5244047501442786,
                0.005316788345137713,
                1.5165977629376837
            ]
        },
        {
            "positions": [
                0.4122021384422121,
                -1.0440479963456009,
                0.028659294961266735,
                -0.47319743764759226,
                0.08412997241269804,
                1.570326665728298
            ]
        },
        {
            "positions": [
                0.30327830972693715,
                -1.0345102990241335,
                0.12143442920318748,
                -0.42199012515090595,
                0.16294315648025837,
                1.6240555685189122
            ]
        },
        {
            "positions": [
                0.19435448101166264,
                -1.0249726017026661,
                0.21420956344510822,
                -0.3707828126542194,
                0.2417563405478187,
                1.6777844713095265
            ]
        },
        {
            "positions": [
                0.08543065229638724,
                -1.0154349043811988,
                0.30698469768702896,
                -0.3195755001575329,
                0.32056952461537924,
                1.7315133741001407
            ]
        },
        {
            "positions": [
                -0.023493176418887263,
                -1.0058972070597316,
                0.39975983192894926,
                -0.2683681876608466,
                0.39938270868293957,
                1.785242276890755
            ]
        },
        {
            "positions": [
                -0.13241700513416227,
                -0.9963595097382643,
                0.4925349661708698,
                -0.21716087516416016,
                0.4781958927504998,
                1.8389711796813693
            ]
        },
        {
            "positions": [
                -0.10751253782388119,
                -1.0102010660461977,
                0.6384296569887711,
                -0.2681269623561826,
                0.4437937809460035,
                1.9582333360365798
            ]
        },
        {
            "positions": [
                -0.08260807051360011,
                -1.024042622354131,
                0.7843243478066724,
                -0.31909304954820505,
                0.40939166914150726,
                2.0774954923917903
            ]
        },
        {
            "positions": [
                -0.05770360320331905,
                -1.0378841786620645,
                0.9302190386245737,
                -0.3700591367402275,
                0.374989557337011,
                2.1967576487470004
            ]
        },
        {
            "positions": [
                -0.03279913589303797,
                -1.051725734969998,
                1.0761137294424747,
                -0.42102522393225,
                0.3405874455325147,
                2.316019805102211
            ]
        },
        {
            "positions": [
                -0.007894668582756906,
                -1.0655672912779313,
                1.222008420260376,
                -0.47199131112427245,
                0.3061853337280184,
                2.4352819614574215
            ]
        },
        {
            "positions": [
                0.017009798727524172,
                -1.0794088475858648,
                1.3679031110782773,
                -0.522957398316295,
                0.27178322192352217,
                2.554544117812632
            ]
        },
        {
            "positions": [
                0.04191426603780524,
                -1.0932504038937982,
                1.5137978018961786,
                -0.5739234855083173,
                0.2373811101190259,
                2.673806274167842
            ]
        },
        {
            "positions": [
                0.06681873334808633,
                -1.1070919602017317,
                1.65969249271408,
                -0.6248895727003398,
                0.2029789983145296,
                2.7930684305230526
            ]
        },
        {
            "positions": [
                0.0917232006583674,
                -1.120933516509665,
                1.8055871835319812,
                -0.6758556598923623,
                0.16857688651003333,
                2.912330586878263
            ]
        },
        {
            "positions": [
                0.11662766796864846,
                -1.1347750728175985,
                1.9514818743498825,
                -0.7268217470843847,
                0.13417477470553707,
                3.0315927432334737
            ]
        },
        {
            "positions": [
                0.12174049076644501,
                -1.1341178327928498,
                1.9608587496288261,
                -0.7258192588443028,
                0.12798306111525662,
                3.0395634386632193
            ]
        }
    ]
}