{
    "goal": {
        "global_pose": {
            "orientation": {
                "w": -0.4816463035849501,
                "x": 0.5182115481033762,
                "y": 0.4908360881923453,
                "z": -0.5084816262002911
            },
            "position": {
                "x": -0.8240239810943604,
                "y": -0.300875300988555,
                "z": 0.16403168439865112
            }
        },
        "name": "move_to_storage_C"
    },
    "id": "RRTConnect_move_to_storage_C_78",
    "joint_names": [
        "shoulder_pan_joint",
        "shoulder_lift_joint",
        "elbow_joint",
        "wrist_1_joint",
        "wrist_2_joint",
        "wrist_3_joint"
    ],
    "metrics": {
        "cart_traj_len": 0.5770150501066015,
        "distance_elbow_joint": 0.258159775683493,
        "distance_shoulder_lift_joint": 0.19051223475118517,
        "distance_shoulder_pan_joint": 0.4939350878609585,
        "distance_wrist_1_joint": 0.07260501066474656,
        "distance_wrist_2_joint": 1.0726651009598398,
        "distance_wrist_3_joint": 0.056869819847800596,
        "smoothness": 0.0,
        "time": 0.11908032800000001,
        "traj_len": 1.4644954864280135,
        "weighted_distance": 1.8449273105161113
    },
    "planner": "RRTConnect",
    "start": {
        "state": {
            "elbow_joint": 2.010868314990456,
            "shoulder_lift_joint": -1.1634956873337592,
            "shoulder_pan_joint": -2.4736205022346125,
            "wrist_1_joint": -0.8367026794202681,
            "wrist_2_joint": 0.6746043897044499,
            "wrist_3_joint": -3.1496632123970403
        }
    },
    "waypoints": [
        {
            "positions": [
                -2.4736205022346125,
                -1.1634956873337592,
                2.010868314990456,
                -0.8367026794202681,
                0.6746043897044499,
                -3.1496632123970403
            ]
        },
        {
            "positions": [
                -2.5559430168781057,
                -1.1317436482085617,
                1.9678416857098737,
                -0.824601844309477,
                0.8533819065310899,
                -3.1401849090890734
            ]
        },
        {
            "positions": [
                -2.638265531521599,
                -1.0999916090833641,
                1.9248150564292914,
                -0.812501009198686,
                1.0321594233577298,
                -3.1307066057811066
            ]
        },
        {
            "positions": [
                -2.7205880461650915,
                -1.0682395699581666,
                1.8817884271487093,
                -0.8004001740878948,
                1.2109369401843697,
                -3.12122830247314
            ]
        },
        {
            "positions": [
                -2.8029105608085847,
                -1.036487530832969,
                1.8387617978681272,
                -0.7882993389771037,
                1.3897144570110096,
                -3.1117499991651734
            ]
        },
        {
            "positions": [
                -2.885233075452078,
                -1.0047354917077715,
                1.795735168587545,
                -0.7761985038663126,
                1.56849197383765,
                -3.1022716958572065
            ]
        },
        {
            "positions": [
                -2.967555590095571,
                -0.972983452582574,
                1.7527085393069628,
                -0.7640976687555215,
                1.7472694906642898,
                -3.0927933925492397
            ]
        }
    ]
}