{
    "goal": {
        "global_pose": {
            "orientation": {
                "w": 0.005598929693374612,
                "x": 0.007748599140229565,
                "y": 0.7110244013736278,
                "z": -0.7031023480610252
            },
            "position": {
                "x": 0.1141497679147869,
                "y": -0.7141253447532654,
                "z": 0.3711530566215515
            }
        },
        "name": "move_to_auspresseinheit_B"
    },
    "id": "RRTConnect_move_to_auspresseinheit_B_136",
    "joint_names": [
        "shoulder_pan_joint",
        "shoulder_lift_joint",
        "elbow_joint",
        "wrist_1_joint",
        "wrist_2_joint",
        "wrist_3_joint"
    ],
    "metrics": {
        "cart_traj_len": 0.564870715726485,
        "distance_elbow_joint": 0.06681110523684697,
        "distance_shoulder_lift_joint": 0.29366643336195675,
        "distance_shoulder_pan_joint": 0.5757151266452318,
        "distance_wrist_1_joint": 0.33964969429572234,
        "distance_wrist_2_joint": 0.9996344868135547,
        "distance_wrist_3_joint": 0.003996679286043747,
        "smoothness": 2.5376526478085547e-16,
        "time": 0.051942765,
        "traj_len": 1.5097925439077238,
        "weighted_distance": 1.9044030732281234
    },
    "planner": "RRTConnect",
    "start": {
        "state": {
            "elbow_joint": 2.0193083361928714,
            "shoulder_lift_joint": -1.1220246554650708,
            "shoulder_pan_joint": -1.0952077554168747,
            "wrist_1_joint": -0.8559753972642168,
            "wrist_2_joint": 0.4759566250798843,
            "wrist_3_joint": -3.1240929996934557
        }
    },
    "waypoints": [
        {
            "positions": [
                -1.0952077554168747,
                -1.1220246554650708,
                2.0193083361928714,
                -0.8559753972642168,
                0.4759566250798843,
                -3.1240929996934557
            ]
        },
        {
            "positions": [
                -1.1911602765244134,
                -1.1709690610253969,
                2.00817315198673,
                -0.7993671148815964,
                0.6425623728821435,
                -3.1234268864791153
            ]
        },
        {
            "positions": [
                -1.2871127976319519,
                -1.219913466585723,
                1.9970379677805892,
                -0.742758832498976,
                0.8091681206844026,
                -3.1227607732647744
            ]
        },
        {
            "positions": [
                -1.3830653187394906,
                -1.2688578721460493,
                1.9859027835744478,
                -0.6861505501163556,
                0.9757738684866617,
                -3.1220946600504336
            ]
        },
        {
            "positions": [
                -1.479017839847029,
                -1.3178022777063754,
                1.9747675993683067,
                -0.6295422677337352,
                1.1423796162889208,
                -3.121428546836093
            ]
        },
        {
            "positions": [
                -1.574970360954568,
                -1.3667466832667015,
                1.9636324151621656,
                -0.5729339853511148,
                1.30898536409118,
                -3.1207624336217528
            ]
        },
        {
            "positions": [
                -1.6709228820621065,
                -1.4156910888270275,
                1.9524972309560245,
                -0.5163257029684944,
                1.475591111893439,
                -3.120096320407412
            ]
        }
    ]
}