{
    "goal": {
        "global_pose": {
            "orientation": {
                "w": 0.7047431493862688,
                "x": -0.7094548369677653,
                "y": 0.0024358444001904,
                "z": -0.0022348060817251984
            },
            "position": {
                "x": -0.39052492380142206,
                "y": 0.3671506643295288,
                "z": 0.19426114857196808
            }
        },
        "name": "move_to_magneteinheit_D"
    },
    "id": "RRTConnect_move_to_magneteinheit_D_58",
    "joint_names": [
        "shoulder_pan_joint",
        "shoulder_lift_joint",
        "elbow_joint",
        "wrist_1_joint",
        "wrist_2_joint",
        "wrist_3_joint"
    ],
    "metrics": {
        "cart_traj_len": 5.488799905530112,
        "distance_elbow_joint": 3.3048744886232875,
        "distance_shoulder_lift_joint": 2.2087779505618927,
        "distance_shoulder_pan_joint": 3.9061837796467804,
        "distance_wrist_1_joint": 2.9996011243794056,
        "distance_wrist_2_joint": 1.8206181121579257,
        "distance_wrist_3_joint": 3.77863341497952,
        "smoothness": 0.9504970116002879,
        "time": 0.10998556500000001,
        "traj_len": 4.244842620209706,
        "weighted_distance": 5.513272615864844
    },
    "planner": "RRTConnect",
    "start": {
        "state": {
            "elbow_joint": 0.749534889911806,
            "shoulder_lift_joint": -0.6476975780787326,
            "shoulder_pan_joint": -2.711696901376241,
            "wrist_1_joint": -0.07506478083263063,
            "wrist_2_joint": 0.43296659715538205,
            "wrist_3_joint": -3.14703540197715
        }
    },
    "waypoints": [
        {
            "positions": [
                -2.711696901376241,
                -0.6476975780787326,
                0.749534889911806,
                -0.07506478083263063,
                0.43296659715538205,
                -3.14703540197715
            ]
        },
        {
            "positions": [
                -2.776320240289677,
                -0.7302762780681031,
                0.7626309563191621,
                -0.006364710134244264,
                0.5448363193298971,
                -3.193038717060556
            ]
        },
        {
            "positions": [
                -2.8409435792031132,
                -0.8128549780574736,
                0.7757270227265182,
                0.0623353605641421,
                0.6567060415044121,
                -3.2390420321439617
            ]
        },
        {
            "positions": [
                -2.9055669181165493,
                -0.8954336780468442,
                0.7888230891338743,
                0.13103543126252848,
                0.7685757636789272,
                -3.2850453472273675
            ]
        },
        {
            "positions": [
                -2.970190257029985,
                -0.9780123780362147,
                0.8019191555412305,
                0.19973550196091483,
                0.8804454858534423,
                -3.331048662310774
            ]
        },
        {
            "positions": [
                -3.034813595943421,
                -1.0605910780255852,
                0.8150152219485867,
                0.26843557265930124,
                0.9923152080279574,
                -3.3770519773941796
            ]
        },
        {
            "positions": [
                -3.099436934856857,
                -1.1431697780149557,
                0.8281112883559427,
                0.3371356433576876,
                1.1041849302024724,
                -3.4230552924775854
            ]
        },
        {
            "positions": [
                -3.164060273770293,
                -1.2257484780043262,
                0.8412073547632989,
                0.405835714056074,
                1.2160546523769875,
                -3.4690586075609913
            ]
        },
        {
            "positions": [
                -3.055787452700935,
                -1.194000682427618,
                0.8102007344416272,
                0.32833545175243917,
                1.1155707107522725,
                -3.435900369740792
            ]
        },
        {
            "positions": [
                -2.9475146316315772,
                -1.1622528868509097,
                0.7791941141199556,
                0.25083518944880434,
                1.0150867691275576,
                -3.4027421319205926
            ]
        },
        {
            "positions": [
                -2.839241810562219,
                -1.1305050912742016,
                0.748187493798284,
                0.17333492714516952,
                0.9146028275028426,
                -3.369583894100393
            ]
        },
        {
            "positions": [
                -2.7309689894928613,
                -1.0987572956974934,
                0.7171808734766123,
                0.09583466484153469,
                0.8141188858781276,
                -3.3364256562801935
            ]
        },
        {
            "positions": [
                -2.622696168423503,
                -1.067009500120785,
                0.6861742531549406,
                0.018334402537899863,
                0.7136349442534126,
                -3.303267418459994
            ]
        },
        {
            "positions": [
                -2.5144233473541453,
                -1.0352617045440768,
                0.655167632833269,
                -0.05916585976573496,
                0.6131510026286977,
                -3.270109180639795
            ]
        },
        {
            "positions": [
                -2.406150526284787,
                -1.0035139089673688,
                0.6241610125115973,
                -0.1366661220693698,
                0.5126670610039826,
                -3.236950942819595
            ]
        },
        {
            "positions": [
                -2.2978777052154293,
                -0.9717661133906605,
                0.5931543921899257,
                -0.21416638437300461,
                0.41218311937926777,
                -3.2037927049993957
            ]
        },
        {
            "positions": [
                -2.189604884146071,
                -0.9400183178139523,
                0.562147771868254,
                -0.29166664667663944,
                0.3116991777545527,
                -3.1706344671791964
            ]
        },
        {
            "positions": [
                -2.1065762368200143,
                -0.9897822576438978,
                0.469373334632175,
                -0.23595196050036615,
                0.3077816900937899,
                -3.0598327058213415
            ]
        },
        {
            "positions": [
                -2.0235475894939574,
                -1.0395461974738434,
                0.376598897396096,
                -0.18023727432409287,
                0.3038642024330272,
                -2.949030944463486
            ]
        },
        {
            "positions": [
                -1.9405189421679003,
                -1.089310137303789,
                0.283824460160017,
                -0.12452258814781958,
                0.2999467147722644,
                -2.838229183105631
            ]
        },
        {
            "positions": [
                -1.8574902948418432,
                -1.1390740771337347,
                0.19105002292393797,
                -0.06880790197154629,
                0.29602922711150165,
                -2.727427421747776
            ]
        },
        {
            "positions": [
                -1.7744616475157864,
                -1.1888380169636803,
                0.09827558568785894,
                -0.013093215795273005,
                0.2921117394507389,
                -2.616625660389921
            ]
        },
        {
            "positions": [
                -1.6914330001897295,
                -1.2386019567936257,
                0.005501148451779958,
                0.04262147038100028,
                0.28819425178997615,
                -2.505823899032066
            ]
        },
        {
            "positions": [
                -1.6084043528636724,
                -1.2883658966235714,
                -0.08727328878429907,
                0.09833615655727357,
                0.2842767641292134,
                -2.3950221376742107
            ]
        },
        {
            "positions": [
                -1.5253757055376154,
                -1.338129836453517,
                -0.1800477260203781,
                0.15405084273354686,
                0.2803592764684506,
                -2.2842203763163558
            ]
        },
        {
            "positions": [
                -1.4423470582115585,
                -1.3878937762834624,
                -0.27282216325645714,
                0.20976552890982014,
                0.2764417888076879,
                -2.173418614958501
            ]
        },
        {
            "positions": [
                -1.3593184108855016,
                -1.437657716113408,
                -0.3655966004925362,
                0.26548021508609343,
                0.2725243011469251,
                -2.0626168536006455
            ]
        },
        {
            "positions": [
                -1.2762897635594448,
                -1.4874216559433537,
                -0.4583710377286151,
                0.3211949012623667,
                0.26860681348616233,
                -1.9518150922427904
            ]
        },
        {
            "positions": [
                -1.1932611162333877,
                -1.5371855957732992,
                -0.5511454749646941,
                0.37690958743864,
                0.2646893258253996,
                -1.8410133308849355
            ]
        },
        {
            "positions": [
                -1.1102324689073306,
                -1.586949535603245,
                -0.6439199122007732,
                0.4326242736149133,
                0.26077183816463684,
                -1.7302115695270803
            ]
        },
        {
            "positions": [
                -1.0272038215812738,
                -1.6367134754331905,
                -0.7366943494368522,
                0.4883389597911866,
                0.25685435050387406,
                -1.6194098081692252
            ]
        },
        {
            "positions": [
                -0.9441751742552167,
                -1.6864774152631363,
                -0.8294687866729314,
                0.54405364596746,
                0.25293686284311134,
                -1.5086080468113698
            ]
        },
        {
            "positions": [
                -0.8611465269291598,
                -1.7362413550930818,
                -0.9222432239090103,
                0.5997683321437332,
                0.24901937518234857,
                -1.397806285453515
            ]
        },
        {
            "positions": [
                -0.7781178796031027,
                -1.7860052949230272,
                -1.0150176611450896,
                0.6554830183200065,
                0.2451018875215858,
                -1.2870045240956598
            ]
        },
        {
            "positions": [
                -0.6950892322770459,
                -1.8357692347529728,
                -1.1077920983811684,
                0.7111977044962797,
                0.24118439986082307,
                -1.1762027627378049
            ]
        },
        {
            "positions": [
                -0.6120605849509888,
                -1.8855331745829185,
                -1.2005665356172472,
                0.7669123906725531,
                0.2372669122000603,
                -1.0654010013799495
            ]
        },
        {
            "positions": [
                -0.5290319376249322,
                -1.935297114412864,
                -1.2933409728533265,
                0.8226270768488263,
                0.23334942453929752,
                -0.9545992400220946
            ]
        },
        {
            "positions": [
                -0.4460032902988751,
                -1.9850610542428098,
                -1.3861154100894053,
                0.8783417630250997,
                0.22943193687853478,
                -0.8437974786642393
            ]
        },
        {
            "positions": [
                -0.36297464297281823,
                -2.034824994072755,
                -1.4788898473254841,
                0.9340564492013729,
                0.22551444921777203,
                -0.7329957173063844
            ]
        },
        {
            "positions": [
                -0.27994599564676115,
                -2.084588933902701,
                -1.5716642845615634,
                0.9897711353776463,
                0.22159696155700925,
                -0.6221939559485294
            ]
        },
        {
            "positions": [
                -0.1969173483207043,
                -2.134352873732646,
                -1.6644387217976422,
                1.0454858215539193,
                0.21767947389624653,
                -0.5113921945906745
            ]
        },
        {
            "positions": [
                -0.11388870099464699,
                -2.184116813562592,
                -1.7572131590337214,
                1.101200507730193,
                0.21376198623548376,
                -0.4005904332328192
            ]
        },
        {
            "positions": [
                -0.030860053668590126,
                -2.2338807533925378,
                -1.8499875962698002,
                1.1569151939064661,
                0.20984449857472098,
                -0.28978867187496427
            ]
        },
        {
            "positions": [
                0.052168593657466886,
                -2.283644693222483,
                -1.9427620335058797,
                1.2126298800827393,
                0.20592701091395824,
                -0.17898691051710888
            ]
        },
        {
            "positions": [
                -0.027028586284189512,
                -2.2831878548766853,
                -2.085839578673418,
                1.3182637940822761,
                0.19679287242286192,
                -0.12347407306650984
            ]
        },
        {
            "positions": [
                -0.10622576622584591,
                -2.282731016530887,
                -2.2289171238409566,
                1.4238977080818132,
                0.18765873393176558,
                -0.0679612356159108
            ]
        },
        {
            "positions": [
                -0.18542294616750235,
                -2.282274178185089,
                -2.371994669008495,
                1.52953162208135,
                0.17852459544066926,
                -0.012448398165311755
            ]
        }
    ]
}