{
    "goal": {
        "global_pose": {
            "orientation": {
                "w": -0.4816463035849501,
                "x": 0.5182115481033762,
                "y": 0.4908360881923453,
                "z": -0.5084816262002911
            },
            "position": {
                "x": -0.8240239810943604,
                "y": 0.19912469901144506,
                "z": 0.16403168439865112
            }
        },
        "name": "move_to_storage_D"
    },
    "id": "RRTConnect_move_to_storage_D_135",
    "joint_names": [
        "shoulder_pan_joint",
        "shoulder_lift_joint",
        "elbow_joint",
        "wrist_1_joint",
        "wrist_2_joint",
        "wrist_3_joint"
    ],
    "metrics": {
        "cart_traj_len": 3.604377791876546,
        "distance_elbow_joint": 4.209101056336856,
        "distance_shoulder_lift_joint": 1.454831181760779,
        "distance_shoulder_pan_joint": 2.811863427289784,
        "distance_wrist_1_joint": 2.5025513288795658,
        "distance_wrist_2_joint": 1.2370464185667984,
        "distance_wrist_3_joint": 3.143239569437968,
        "smoothness": 0.14688415093924054,
        "time": 0.14842549300000002,
        "traj_len": 3.919009183744247,
        "weighted_distance": 5.038324113094954
    },
    "planner": "RRTConnect",
    "start": {
        "state": {
            "elbow_joint": -2.384821988534728,
            "shoulder_lift_joint": -2.2788054721415256,
            "shoulder_pan_joint": -0.1854694642142757,
            "wrist_1_joint": 1.4845938289331202,
            "wrist_2_joint": 0.17898776772866878,
            "wrist_3_joint": 0.037105688729662994
        }
    },
    "waypoints": [
        {
            "positions": [
                -0.1854694642142757,
                -2.2788054721415256,
                -2.384821988534728,
                1.4845938289331202,
                0.17898776772866878,
                0.037105688729662994
            ]
        },
        {
            "positions": [
                -0.09657892738963395,
                -2.2388350601386664,
                -2.3842117201520376,
                1.5246120739383218,
                0.11844922721023758,
                0.11805728183701199
            ]
        },
        {
            "positions": [
                -0.007688390564992181,
                -2.198864648135807,
                -2.383601451769347,
                1.5646303189435236,
                0.05791068669180638,
                0.19900887494436098
            ]
        },
        {
            "positions": [
                0.08120214625964961,
                -2.158894236132948,
                -2.3829911833866566,
                1.6046485639487251,
                -0.0026278538266248375,
                0.27996046805171
            ]
        },
        {
            "positions": [
                0.16465366940213844,
                -2.117563197285047,
                -2.280599942408402,
                1.5469372685419704,
                0.011139193007245068,
                0.3678207880156014
            ]
        },
        {
            "positions": [
                0.24810519254462726,
                -2.076232158437146,
                -2.1782087014301474,
                1.489225973135216,
                0.024906239841114973,
                0.4556811079794928
            ]
        },
        {
            "positions": [
                0.3315567156871161,
                -2.0349011195892457,
                -2.075817460451893,
                1.4315146777284613,
                0.03867328667498488,
                0.5435414279433842
            ]
        },
        {
            "positions": [
                0.4150082388296049,
                -1.9935700807413446,
                -1.9734262194736383,
                1.3738033823217066,
                0.05244033350885478,
                0.6314017479072757
            ]
        },
        {
            "positions": [
                0.49845976197209374,
                -1.9522390418934439,
                -1.871034978495384,
                1.316092086914952,
                0.06620738034272469,
                0.719262067871167
            ]
        },
        {
            "positions": [
                0.5819112851145826,
                -1.910908003045543,
                -1.7686437375171291,
                1.2583807915081975,
                0.0799744271765946,
                0.8071223878350584
            ]
        },
        {
            "positions": [
                0.6653628082570714,
                -1.869576964197642,
                -1.6662524965388747,
                1.2006694961014428,
                0.09374147401046451,
                0.8949827077989498
            ]
        },
        {
            "positions": [
                0.7488143313995602,
                -1.8282459253497414,
                -1.5638612555606202,
                1.1429582006946881,
                0.1075085208443344,
                0.9828430277628413
            ]
        },
        {
            "positions": [
                0.832265854542049,
                -1.7869148865018405,
                -1.4614700145823658,
                1.0852469052879337,
                0.12127556767820431,
                1.0707033477267327
            ]
        },
        {
            "positions": [
                0.9157173776845379,
                -1.7455838476539398,
                -1.3590787736041112,
                1.027535609881179,
                0.13504261451207422,
                1.1585636676906241
            ]
        },
        {
            "positions": [
                0.9991689008270266,
                -1.704252808806039,
                -1.2566875326258566,
                0.9698243144744243,
                0.14880966134594412,
                1.2464239876545156
            ]
        },
        {
            "positions": [
                1.0826204239695154,
                -1.662921769958138,
                -1.1542962916476018,
                0.9121130190676696,
                0.16257670817981404,
                1.334284307618407
            ]
        },
        {
            "positions": [
                1.1660719471120045,
                -1.621590731110237,
                -1.0519050506693475,
                0.854401723660915,
                0.17634375501368393,
                1.4221446275822984
            ]
        },
        {
            "positions": [
                1.249523470254493,
                -1.5802596922623362,
                -0.9495138096910929,
                0.7966904282541604,
                0.19011080184755386,
                1.5100049475461899
            ]
        },
        {
            "positions": [
                1.332974993396982,
                -1.5389286534144355,
                -0.8471225687128383,
                0.7389791328474058,
                0.20387784868142375,
                1.5978652675100813
            ]
        },
        {
            "positions": [
                1.4164265165394707,
                -1.4975976145665348,
                -0.7447313277345837,
                0.6812678374406512,
                0.21764489551529365,
                1.6857255874739727
            ]
        },
        {
            "positions": [
                1.4998780396819598,
                -1.456266575718634,
                -0.6423400867563291,
                0.6235565420338965,
                0.23141194234916357,
                1.7735859074378642
            ]
        },
        {
            "positions": [
                1.5833295628244484,
                -1.414935536870733,
                -0.5399488457780748,
                0.565845246627142,
                0.24517898918303346,
                1.8614462274017556
            ]
        },
        {
            "positions": [
                1.6667810859669374,
                -1.3736044980228321,
                -0.4375576047998202,
                0.5081339512203873,
                0.25894603601690336,
                1.9493065473656468
            ]
        },
        {
            "positions": [
                1.750232609109426,
                -1.3322734591749315,
                -0.33516636382156584,
                0.45042265581363283,
                0.2727130828507733,
                2.037166867329538
            ]
        },
        {
            "positions": [
                1.8336841322519146,
                -1.2909424203270305,
                -0.23277512284331126,
                0.39271136040687815,
                0.28648012968464315,
                2.1250271872934294
            ]
        },
        {
            "positions": [
                1.9171356553944037,
                -1.2496113814791299,
                -0.13038388186505667,
                0.33500006500012347,
                0.30024717651851307,
                2.212887507257321
            ]
        },
        {
            "positions": [
                2.0005871785368927,
                -1.208280342631229,
                -0.027992640886801645,
                0.2772887695933688,
                0.314014223352383,
                2.3007478272212127
            ]
        },
        {
            "positions": [
                2.0840387016793813,
                -1.166949303783328,
                0.07439860009145294,
                0.2195774741866141,
                0.3277812701862529,
                2.3886081471851037
            ]
        },
        {
            "positions": [
                2.1674902248218704,
                -1.1256182649354272,
                0.17678984106970752,
                0.16186617877985943,
                0.34154831702012284,
                2.476468467148995
            ]
        },
        {
            "positions": [
                2.250941747964359,
                -1.0842872260875265,
                0.27918108204796166,
                0.10415488337310497,
                0.3553153638539927,
                2.5643287871128866
            ]
        },
        {
            "positions": [
                2.334393271106848,
                -1.0429561872396256,
                0.38157232302621624,
                0.046443587966350286,
                0.3690824106878626,
                2.652189107076778
            ]
        },
        {
            "positions": [
                2.4178447942493366,
                -1.0016251483917247,
                0.4839635640044708,
                -0.011267707440404395,
                0.38284945752173255,
                2.7400494270406694
            ]
        },
        {
            "positions": [
                2.5012963173918257,
                -0.960294109543824,
                0.5863548049827254,
                -0.06897900284715885,
                0.3966165043556024,
                2.827909747004561
            ]
        },
        {
            "positions": [
                2.5847478405343143,
                -0.9189630706959231,
                0.6887460459609798,
                -0.12669029825391348,
                0.41038355118947234,
                2.9157700669684523
            ]
        },
        {
            "positions": [
                2.5899536058519637,
                -0.9308366682353201,
                0.8306876736911233,
                -0.20808501471157873,
                0.49068597518889834,
                2.9488419658683496
            ]
        },
        {
            "positions": [
                2.5951593711696126,
                -0.9427102657747171,
                0.9726293014212668,
                -0.28947973116924397,
                0.5709883991883243,
                2.981913864768247
            ]
        },
        {
            "positions": [
                2.600365136487262,
                -0.954583863314114,
                1.1145709291514103,
                -0.37087444762690924,
                0.6512908231877503,
                3.014985763668144
            ]
        },
        {
            "positions": [
                2.605570901804911,
                -0.966457460853511,
                1.2565125568815538,
                -0.45226916408457446,
                0.7315932471871762,
                3.0480576625680413
            ]
        },
        {
            "positions": [
                2.6107766671225603,
                -0.978331058392908,
                1.3984541846116973,
                -0.5336638805422398,
                0.8118956711866023,
                3.081129561467939
            ]
        },
        {
            "positions": [
                2.6159824324402097,
                -0.990204655932305,
                1.5403958123418409,
                -0.615058596999905,
                0.8921980951860282,
                3.1142014603678363
            ]
        },
        {
            "positions": [
                2.6211881977578586,
                -1.0020782534717019,
                1.6823374400719844,
                -0.6964533134575701,
                0.9725005191854542,
                3.1472733592677336
            ]
        },
        {
            "positions": [
                2.626393963075508,
                -1.013951851011099,
                1.824279067802128,
                -0.7778480299152355,
                1.0528029431848802,
                3.180345258167631
            ]
        }
    ]
}