{
    "goal": {
        "global_pose": {
            "orientation": {
                "w": 0.7031023480610252,
                "x": -0.7110244013736278,
                "y": 0.0077485991402295624,
                "z": 0.005598929693374583
            },
            "position": {
                "x": -0.8841497679147869,
                "y": 0.44412534475326537,
                "z": 0.3711530566215515
            }
        },
        "name": "move_to_auspresseinheit_D"
    },
    "id": "RRTConnect_move_to_auspresseinheit_D_143",
    "joint_names": [
        "shoulder_pan_joint",
        "shoulder_lift_joint",
        "elbow_joint",
        "wrist_1_joint",
        "wrist_2_joint",
        "wrist_3_joint"
    ],
    "metrics": {
        "cart_traj_len": 0.3432223642277939,
        "distance_elbow_joint": 0.6291370550893034,
        "distance_shoulder_lift_joint": 0.1156156212327426,
        "distance_shoulder_pan_joint": 0.13454880149432014,
        "distance_wrist_1_joint": 0.5084933591909984,
        "distance_wrist_2_joint": 1.4319262853281292,
        "distance_wrist_3_joint": 0.03091205011856335,
        "smoothness": 7.894919286223335e-16,
        "time": 0.042459965,
        "traj_len": 1.6883818206952057,
        "weighted_distance": 2.2029246281274153
    },
    "planner": "RRTConnect",
    "start": {
        "state": {
            "elbow_joint": -1.8275523626775212,
            "shoulder_lift_joint": -2.126789852344167,
            "shoulder_pan_joint": -0.03513704404078235,
            "wrist_1_joint": -2.347782403156801,
            "wrist_2_joint": -1.6058999987535132,
            "wrist_3_joint": -3.0880379163319196
        }
    },
    "waypoints": [
        {
            "positions": [
                -0.03513704404078235,
                -2.126789852344167,
                -1.8275523626775212,
                -2.347782403156801,
                -1.6058999987535132,
                -3.0880379163319196
            ]
        },
        {
            "positions": [
                -0.051955644227572366,
                -2.1412418049982596,
                -1.7489102307913582,
                -2.411344073055676,
                -1.426909213087497,
                -3.09190192259674
            ]
        },
        {
            "positions": [
                -0.06877424441436239,
                -2.1556937576523527,
                -1.6702680989051952,
                -2.4749057429545505,
                -1.247918427421481,
                -3.09576592886156
            ]
        },
        {
            "positions": [
                -0.0855928446011524,
                -2.1701457103064454,
                -1.5916259670190325,
                -2.538467412853425,
                -1.0689276417554647,
                -3.099629935126381
            ]
        },
        {
            "positions": [
                -0.10241144478794242,
                -2.184597662960538,
                -1.5129838351328695,
                -2.6020290827523,
                -0.8899368560894486,
                -3.1034939413912013
            ]
        },
        {
            "positions": [
                -0.11923004497473244,
                -2.199049615614631,
                -1.4343417032467065,
                -2.665590752651175,
                -0.7109460704234325,
                -3.1073579476560216
            ]
        },
        {
            "positions": [
                -0.13604864516152246,
                -2.2135015682687236,
                -1.3556995713605438,
                -2.7291524225500496,
                -0.5319552847574163,
                -3.1112219539208423
            ]
        },
        {
            "positions": [
                -0.15286724534831247,
                -2.2279535209228167,
                -1.2770574394743808,
                -2.792714092448924,
                -0.35296449909140026,
                -3.1150859601856626
            ]
        },
        {
            "positions": [
                -0.1696858455351025,
                -2.2424054735769094,
                -1.1984153075882178,
                -2.8562757623477992,
                -0.173973713425384,
                -3.118949966450483
            ]
        }
    ]
}