{
    "goal": {
        "global_pose": {
            "orientation": {
                "w": 0.7047431493862688,
                "x": -0.7094548369677653,
                "y": 0.0024358444001904,
                "z": -0.0022348060817251984
            },
            "position": {
                "x": -0.39052492380142206,
                "y": 0.3671506643295288,
                "z": 0.19426114857196808
            }
        },
        "name": "move_to_magneteinheit_D"
    },
    "id": "RRTConnect_move_to_magneteinheit_D_16",
    "joint_names": [
        "shoulder_pan_joint",
        "shoulder_lift_joint",
        "elbow_joint",
        "wrist_1_joint",
        "wrist_2_joint",
        "wrist_3_joint"
    ],
    "metrics": {
        "cart_traj_len": 4.8956865514328385,
        "distance_elbow_joint": 3.1393633218877826,
        "distance_shoulder_lift_joint": 1.7200073229249708,
        "distance_shoulder_pan_joint": 5.8375670766770265,
        "distance_wrist_1_joint": 2.3706389850254443,
        "distance_wrist_2_joint": 1.1686618358076348,
        "distance_wrist_3_joint": 1.1813984187681519,
        "smoothness": 0.6448218534642719,
        "time": 0.17945804999999998,
        "traj_len": 3.926529887966092,
        "weighted_distance": 4.6173298148887305
    },
    "planner": "RRTConnect",
    "start": {
        "state": {
            "elbow_joint": 0.749534889911806,
            "shoulder_lift_joint": -0.6476975780787326,
            "shoulder_pan_joint": -2.711696901376241,
            "wrist_1_joint": -0.07506478083263063,
            "wrist_2_joint": 0.43296659715538205,
            "wrist_3_joint": -3.14703540197715
        }
    },
    "waypoints": [
        {
            "positions": [
                -2.711696901376241,
                -0.6476975780787326,
                0.749534889911806,
                -0.07506478083263063,
                0.43296659715538205,
                -3.14703540197715
            ]
        },
        {
            "positions": [
                -2.7438958280251953,
                -0.701180372665246,
                0.7697600444229719,
                -0.15410504183621238,
                0.3679579818110685,
                -3.131569121453508
            ]
        },
        {
            "positions": [
                -2.760762199423383,
                -0.7444722141080367,
                0.7234512574153392,
                -0.21726219183390577,
                0.2607542653889271,
                -3.064020166296204
            ]
        },
        {
            "positions": [
                -2.777628570821571,
                -0.7877640555508274,
                0.6771424704077067,
                -0.28041934183159917,
                0.15355054896678577,
                -2.9964712111389007
            ]
        },
        {
            "positions": [
                -2.7944949422197585,
                -0.831055896993618,
                0.6308336834000741,
                -0.34357649182929256,
                0.04634683254464436,
                -2.928922255981597
            ]
        },
        {
            "positions": [
                -2.6396124327243293,
                -0.8196489461605786,
                0.5211764165201488,
                -0.41773066631917366,
                0.027735045670827272,
                -2.94945027640991
            ]
        },
        {
            "positions": [
                -2.4847299232289,
                -0.8082419953275392,
                0.41151914964022346,
                -0.4918848408090548,
                0.009123258797010182,
                -2.9699782968382236
            ]
        },
        {
            "positions": [
                -2.329847413733471,
                -0.7968350444944997,
                0.30186188276029813,
                -0.5660390152989359,
                -0.009488528076806911,
                -2.990506317266537
            ]
        },
        {
            "positions": [
                -2.174964904238042,
                -0.7854280936614603,
                0.19220461588037285,
                -0.640193189788817,
                -0.028100314950623997,
                -3.0110343376948503
            ]
        },
        {
            "positions": [
                -2.0200823947426128,
                -0.7740211428284208,
                0.08254734900044758,
                -0.7143473642786982,
                -0.04671210182444109,
                -3.0315623581231637
            ]
        },
        {
            "positions": [
                -1.8651998852471836,
                -0.7626141919953814,
                -0.027109917879477807,
                -0.7885015387685792,
                -0.06532388869825818,
                -3.052090378551477
            ]
        },
        {
            "positions": [
                -1.7103173757517547,
                -0.7512072411623419,
                -0.13676718475940308,
                -0.8626557132584602,
                -0.08393567557207526,
                -3.0726183989797904
            ]
        },
        {
            "positions": [
                -1.5554348662563255,
                -0.7398002903293025,
                -0.24642445163932836,
                -0.9368098877483415,
                -0.10254746244589236,
                -3.0931464194081038
            ]
        },
        {
            "positions": [
                -1.4005523567608964,
                -0.7283933394962631,
                -0.35608171851925374,
                -1.0109640622382225,
                -0.12115924931970945,
                -3.113674439836417
            ]
        },
        {
            "positions": [
                -1.2456698472654673,
                -0.7169863886632236,
                -0.4657389853991789,
                -1.0851182367281036,
                -0.13977103619352654,
                -3.1342024602647305
            ]
        },
        {
            "positions": [
                -1.0907873377700381,
                -0.7055794378301843,
                -0.5753962522791043,
                -1.1592724112179849,
                -0.15838282306734364,
                -3.154730480693044
            ]
        },
        {
            "positions": [
                -0.935904828274609,
                -0.6941724869971448,
                -0.6850535191590297,
                -1.233426585707866,
                -0.17699460994116073,
                -3.175258501121357
            ]
        },
        {
            "positions": [
                -0.78102231877918,
                -0.6827655361641054,
                -0.7947107860389548,
                -1.307580760197747,
                -0.19560639681497782,
                -3.1957865215496706
            ]
        },
        {
            "positions": [
                -0.6261398092837509,
                -0.671358585331066,
                -0.9043680529188802,
                -1.381734934687628,
                -0.2142181836887949,
                -3.216314541977984
            ]
        },
        {
            "positions": [
                -0.4712572997883213,
                -0.6599516344980265,
                -1.0140253197988056,
                -1.4558891091775092,
                -0.23282997056261204,
                -3.2368425624062973
            ]
        },
        {
            "positions": [
                -0.3163747902928926,
                -0.6485446836649871,
                -1.1236825866787308,
                -1.5300432836673903,
                -0.25144175743642905,
                -3.2573705828346107
            ]
        },
        {
            "positions": [
                -0.16149228079746303,
                -0.6371377328319476,
                -1.2333398535586564,
                -1.6041974581572715,
                -0.2700535443102462,
                -3.277898603262924
            ]
        },
        {
            "positions": [
                -0.0066097713020343285,
                -0.6257307819989082,
                -1.3429971204385815,
                -1.6783516326471526,
                -0.28866533118406323,
                -3.2984266236912374
            ]
        },
        {
            "positions": [
                0.14827273819339482,
                -0.6143238311658688,
                -1.4526543873185067,
                -1.7525058071370336,
                -0.3072771180578804,
                -3.3189546441195508
            ]
        },
        {
            "positions": [
                0.30315524768882396,
                -0.6029168803328293,
                -1.5623116541984319,
                -1.8266599816269147,
                -0.3258889049316974,
                -3.339482664547864
            ]
        },
        {
            "positions": [
                0.4580377571842531,
                -0.5915099294997899,
                -1.6719689210783575,
                -1.900814156116796,
                -0.34450069180551457,
                -3.3600106849761775
            ]
        },
        {
            "positions": [
                0.6129202666796822,
                -0.5801029786667504,
                -1.7816261879582826,
                -1.974968330606677,
                -0.3631124786793316,
                -3.380538705404491
            ]
        },
        {
            "positions": [
                0.7678027761751114,
                -0.568696027833711,
                -1.8912834548382083,
                -2.0491225050965585,
                -0.38172426555314876,
                -3.4010667258328042
            ]
        },
        {
            "positions": [
                0.9226852856705405,
                -0.5572890770006715,
                -2.000940721718133,
                -2.1232766795864393,
                -0.4003360524269658,
                -3.4215947462611176
            ]
        },
        {
            "positions": [
                1.0775677951659697,
                -0.5458821261676321,
                -2.110597988598059,
                -2.1974308540763205,
                -0.41894783930078294,
                -3.442122766689431
            ]
        },
        {
            "positions": [
                1.2324503046613984,
                -0.5344751753345927,
                -2.2202552554779835,
                -2.2715850285662014,
                -0.4375596261746,
                -3.4626507871177443
            ]
        },
        {
            "positions": [
                1.3873328141568275,
                -0.5230682245015532,
                -2.3299125223579096,
                -2.3457392030560826,
                -0.45617141304841713,
                -3.4831788075460577
            ]
        },
        {
            "positions": [
                1.2300386862111354,
                -0.6459343576533553,
                -2.331859082417483,
                -2.3357427467758836,
                -0.4282190304880336,
                -3.442275935425244
            ]
        },
        {
            "positions": [
                1.0727445582654431,
                -0.7688004908051573,
                -2.333805642477057,
                -2.325746290495684,
                -0.4002666479276501,
                -3.40137306330443
            ]
        },
        {
            "positions": [
                0.915450430319751,
                -0.8916666239569594,
                -2.3357522025366304,
                -2.315749834215485,
                -0.37231426536726664,
                -3.3604701911836163
            ]
        },
        {
            "positions": [
                0.7581563023740588,
                -1.0145327571087615,
                -2.337698762596204,
                -2.3057533779352855,
                -0.3443618828068831,
                -3.3195673190628026
            ]
        },
        {
            "positions": [
                0.6008621744283668,
                -1.1373988902605636,
                -2.3396453226557776,
                -2.2957569216550864,
                -0.3164095002464996,
                -3.2786644469419888
            ]
        },
        {
            "positions": [
                0.44356804648267467,
                -1.2602650234123656,
                -2.341591882715351,
                -2.2857604653748873,
                -0.28845711768611615,
                -3.237761574821175
            ]
        },
        {
            "positions": [
                0.2862739185369825,
                -1.3831311565641675,
                -2.3435384427749244,
                -2.275764009094688,
                -0.2605047351257326,
                -3.196858702700361
            ]
        },
        {
            "positions": [
                0.12897979059129017,
                -1.5059972897159697,
                -2.345485002834498,
                -2.2657675528144887,
                -0.2325523525653491,
                -3.1559558305795474
            ]
        },
        {
            "positions": [
                -0.02831433735440192,
                -1.6288634228677719,
                -2.3474315628940716,
                -2.255771096534289,
                -0.2045999700049656,
                -3.1150529584587336
            ]
        },
        {
            "positions": [
                -0.18560846530009403,
                -1.7517295560195738,
                -2.3493781229536452,
                -2.24577464025409,
                -0.17664758744458212,
                -3.07415008633792
            ]
        }
    ]
}