{
    "goal": {
        "global_pose": {
            "orientation": {
                "w": 0.7047431493862688,
                "x": -0.7094548369677653,
                "y": 0.0024358444001904,
                "z": -0.0022348060817251984
            },
            "position": {
                "x": -0.39052492380142206,
                "y": 0.3671506643295288,
                "z": 0.19426114857196808
            }
        },
        "name": "move_to_magneteinheit_D"
    },
    "id": "RRTConnect_move_to_magneteinheit_D_112",
    "joint_names": [
        "shoulder_pan_joint",
        "shoulder_lift_joint",
        "elbow_joint",
        "wrist_1_joint",
        "wrist_2_joint",
        "wrist_3_joint"
    ],
    "metrics": {
        "cart_traj_len": 4.177678405753843,
        "distance_elbow_joint": 4.838878091683696,
        "distance_shoulder_lift_joint": 1.6329578993997338,
        "distance_shoulder_pan_joint": 3.011328747339238,
        "distance_wrist_1_joint": 1.566573621938149,
        "distance_wrist_2_joint": 3.0961954446579663,
        "distance_wrist_3_joint": 4.197327594726787,
        "smoothness": 0.21719944105790406,
        "time": 0.155008088,
        "traj_len": 4.282903384358042,
        "weighted_distance": 5.603631470376623
    },
    "planner": "RRTConnect",
    "start": {
        "state": {
            "elbow_joint": 0.749534889911806,
            "shoulder_lift_joint": -0.6476975780787326,
            "shoulder_pan_joint": -2.711696901376241,
            "wrist_1_joint": -0.07506478083263063,
            "wrist_2_joint": 0.43296659715538205,
            "wrist_3_joint": -3.14703540197715
        }
    },
    "waypoints": [
        {
            "positions": [
                -2.711696901376241,
                -0.6476975780787326,
                0.749534889911806,
                -0.07506478083263063,
                0.43296659715538205,
                -3.14703540197715
            ]
        },
        {
            "positions": [
                -2.6896030516083482,
                -0.689549277387341,
                0.7965504733673462,
                -0.04132168362442657,
                0.5144645891790588,
                -2.9836360311003105
            ]
        },
        {
            "positions": [
                -2.667509201840456,
                -0.7314009766959493,
                0.8435660568228863,
                -0.007578586416222513,
                0.5959625812027355,
                -2.8202366602234705
            ]
        },
        {
            "positions": [
                -2.645415352072563,
                -0.7732526760045575,
                0.8905816402784266,
                0.026164510791981538,
                0.6774605732264123,
                -2.656837289346631
            ]
        },
        {
            "positions": [
                -2.6233215023046705,
                -0.8151043753131658,
                0.9375972237339668,
                0.0599076080001856,
                0.758958565250089,
                -2.493437918469791
            ]
        },
        {
            "positions": [
                -2.6012276525367777,
                -0.8569560746217741,
                0.9846128071895071,
                0.09365070520838964,
                0.8404565572737657,
                -2.3300385475929515
            ]
        },
        {
            "positions": [
                -2.5791338027688853,
                -0.8988077739303825,
                1.0316283906450472,
                0.1273938024165937,
                0.9219545492974425,
                -2.166639176716112
            ]
        },
        {
            "positions": [
                -2.5570399530009924,
                -0.9406594732389908,
                1.0786439741005873,
                0.16113689962479774,
                1.003452541321119,
                -2.0032398058392724
            ]
        },
        {
            "positions": [
                -2.5349461032331,
                -0.982511172547599,
                1.1256595575561277,
                0.19487999683300183,
                1.084950533344796,
                -1.8398404349624324
            ]
        },
        {
            "positions": [
                -2.512852253465207,
                -1.0243628718562074,
                1.1726751410116678,
                0.22862309404120584,
                1.1664485253684727,
                -1.676441064085593
            ]
        },
        {
            "positions": [
                -2.4907584036973147,
                -1.0662145711648157,
                1.219690724467208,
                0.2623661912494099,
                1.2479465173921493,
                -1.5130416932087531
            ]
        },
        {
            "positions": [
                -2.468664553929422,
                -1.108066270473424,
                1.2667063079227483,
                0.296109288457614,
                1.329444509415826,
                -1.3496423223319134
            ]
        },
        {
            "positions": [
                -2.4465707041615294,
                -1.1499179697820323,
                1.3137218913782887,
                0.32985238566581804,
                1.410942501439503,
                -1.1862429514550736
            ]
        },
        {
            "positions": [
                -2.4244768543936366,
                -1.1917696690906405,
                1.3607374748338286,
                0.36359548287402205,
                1.4924404934631794,
                -1.0228435805782343
            ]
        },
        {
            "positions": [
                -2.402383004625744,
                -1.2336213683992487,
                1.407753058289369,
                0.3973385800822261,
                1.573938485486856,
                -0.8594442097013943
            ]
        },
        {
            "positions": [
                -2.3802891548578513,
                -1.2754730677078572,
                1.454768641744909,
                0.4310816772904302,
                1.6554364775105328,
                -0.6960448388245548
            ]
        },
        {
            "positions": [
                -2.358195305089959,
                -1.3173247670164656,
                1.5017842252004492,
                0.4648247744986343,
                1.7369344695342097,
                -0.5326454679477148
            ]
        },
        {
            "positions": [
                -2.336101455322066,
                -1.3591764663250738,
                1.5487998086559895,
                0.4985678717068383,
                1.8184324615578864,
                -0.3692460970708755
            ]
        },
        {
            "positions": [
                -2.2514563753140306,
                -1.4115735163888028,
                1.5637378330141187,
                0.5041419335195495,
                1.8176684081648344,
                -0.24330311677847405
            ]
        },
        {
            "positions": [
                -2.1668112953059953,
                -1.4639705664525315,
                1.5786758573722481,
                0.5097159953322606,
                1.8169043547717822,
                -0.11736013648607257
            ]
        },
        {
            "positions": [
                -2.08216621529796,
                -1.5163676165162605,
                1.5936138817303773,
                0.5152900571449718,
                1.8161403013787303,
                0.008582843806328962
            ]
        },
        {
            "positions": [
                -1.9727249159999143,
                -1.5528926568671646,
                1.4733475329689953,
                0.5360873352450882,
                1.7633043653853617,
                0.04685620115694242
            ]
        },
        {
            "positions": [
                -1.8632836167018687,
                -1.5894176972180685,
                1.3530811842076136,
                0.5568846133452046,
                1.7104684293919934,
                0.08512955850755588
            ]
        },
        {
            "positions": [
                -1.7538423174038233,
                -1.6259427375689726,
                1.2328148354462316,
                0.577681891445321,
                1.657632493398625,
                0.12340291585816934
            ]
        },
        {
            "positions": [
                -1.6444010181057778,
                -1.6624677779198767,
                1.1125484866848498,
                0.5984791695454375,
                1.6047965574052565,
                0.16167627320878278
            ]
        },
        {
            "positions": [
                -1.5349597188077322,
                -1.6989928182707807,
                0.9922821379234679,
                0.6192764476455538,
                1.551960621411888,
                0.19994963055939624
            ]
        },
        {
            "positions": [
                -1.4255184195096868,
                -1.7355178586216846,
                0.8720157891620861,
                0.6400737257456702,
                1.4991246854185196,
                0.2382229879100097
            ]
        },
        {
            "positions": [
                -1.316077120211641,
                -1.7720428989725887,
                0.7517494404007041,
                0.6608710038457866,
                1.4462887494251513,
                0.27649634526062317
            ]
        },
        {
            "positions": [
                -1.2066358209135957,
                -1.8085679393234928,
                0.6314830916393223,
                0.681668281945903,
                1.3934528134317827,
                0.3147697026112366
            ]
        },
        {
            "positions": [
                -1.0971945216155499,
                -1.845092979674397,
                0.5112167428779402,
                0.7024655600460195,
                1.3406168774384142,
                0.3530430599618501
            ]
        },
        {
            "positions": [
                -0.9877532223175045,
                -1.8816180200253008,
                0.3909503941165584,
                0.7232628381461359,
                1.2877809414450458,
                0.3913164173124635
            ]
        },
        {
            "positions": [
                -0.8783119230194589,
                -1.9181430603762049,
                0.27068404535517665,
                0.7440601162462522,
                1.2349450054516775,
                0.429589774663077
            ]
        },
        {
            "positions": [
                -0.7688706237214136,
                -1.9546681007271087,
                0.1504176965937949,
                0.7648573943463686,
                1.182109069458309,
                0.46786313201369045
            ]
        },
        {
            "positions": [
                -0.659429324423368,
                -1.9911931410780128,
                0.03015134783241269,
                0.785654672446485,
                1.1292731334649404,
                0.506136489364304
            ]
        },
        {
            "positions": [
                -0.5499880251253224,
                -2.027718181428917,
                -0.09011500092896901,
                0.8064519505466015,
                1.076437197471572,
                0.5444098467149174
            ]
        },
        {
            "positions": [
                -0.5033182440561813,
                -2.0334697280842406,
                -0.2672572287582635,
                0.838216463690536,
                1.004965469455993,
                0.5083524318217284
            ]
        },
        {
            "positions": [
                -0.45664846298704026,
                -2.0392212747395644,
                -0.44439945658755803,
                0.8699809768344705,
                0.9334937414404139,
                0.47229501692853937
            ]
        },
        {
            "positions": [
                -0.40997868191789916,
                -2.044972821394888,
                -0.6215416844168524,
                0.9017454899784051,
                0.8620220134248349,
                0.43623760203535034
            ]
        },
        {
            "positions": [
                -0.3633089008487581,
                -2.050724368050212,
                -0.7986839122461471,
                0.9335100031223396,
                0.7905502854092558,
                0.4001801871421613
            ]
        },
        {
            "positions": [
                -0.316639119779617,
                -2.0564759147055356,
                -0.9758261400754416,
                0.9652745162662741,
                0.7190785573936767,
                0.36412277224897227
            ]
        },
        {
            "positions": [
                -0.2699693387104759,
                -2.0622274613608593,
                -1.152968367904736,
                0.9970390294102086,
                0.6476068293780975,
                0.32806535735578324
            ]
        },
        {
            "positions": [
                -0.2232995576413349,
                -2.0679790080161835,
                -1.3301105957340305,
                1.028803542554143,
                0.5761351013625186,
                0.29200794246259426
            ]
        },
        {
            "positions": [
                -0.17662977657219375,
                -2.0737305546715072,
                -1.5072528235633251,
                1.0605680556980777,
                0.5046633733469394,
                0.25595052756940523
            ]
        },
        {
            "positions": [
                -0.1299599955030527,
                -2.079482101326831,
                -1.6843950513926194,
                1.0923325688420122,
                0.43319164533136034,
                0.21989311267621625
            ]
        },
        {
            "positions": [
                -0.0832902144339116,
                -2.0852336479821547,
                -1.861537279221914,
                1.1240970819859468,
                0.36171991731578124,
                0.18383569778302716
            ]
        },
        {
            "positions": [
                -0.03662043336477061,
                -2.0909851946374785,
                -2.0386795070512083,
                1.1558615951298812,
                0.29024818930020224,
                0.1477782828898382
            ]
        },
        {
            "positions": [
                0.010049347704370604,
                -2.096736741292802,
                -2.2158217348805027,
                1.1876261082738158,
                0.21877646128462302,
                0.1117208679966491
            ]
        },
        {
            "positions": [
                0.05671912877351154,
                -2.102488287948126,
                -2.392963962709797,
                1.2193906214177503,
                0.14730473326904403,
                0.0756634531034601
            ]
        },
        {
            "positions": [
                -0.06473722982123127,
                -2.191571882713296,
                -2.3888533349973216,
                1.3554497312616345,
                0.16710565925235263,
                0.05709547689182787
            ]
        },
        {
            "positions": [
                -0.18619358841597408,
                -2.2806554774784664,
                -2.3847427072848455,
                1.4915088411055184,
                0.18690658523566123,
                0.03852750068019564
            ]
        }
    ]
}