{
    "goal": {
        "global_pose": {
            "orientation": {
                "w": -0.4816463035849501,
                "x": 0.5182115481033762,
                "y": 0.4908360881923453,
                "z": -0.5084816262002911
            },
            "position": {
                "x": -0.8240239810943604,
                "y": -0.300875300988555,
                "z": 0.16403168439865112
            }
        },
        "name": "move_to_storage_C"
    },
    "id": "RRTConnect_move_to_storage_C_21",
    "joint_names": [
        "shoulder_pan_joint",
        "shoulder_lift_joint",
        "elbow_joint",
        "wrist_1_joint",
        "wrist_2_joint",
        "wrist_3_joint"
    ],
    "metrics": {
        "cart_traj_len": 0.577326215198903,
        "distance_elbow_joint": 0.2605789977591766,
        "distance_shoulder_lift_joint": 0.18886412404190633,
        "distance_shoulder_pan_joint": 0.49625678668406437,
        "distance_wrist_1_joint": 0.08961871066558569,
        "distance_wrist_2_joint": 1.0622396466515922,
        "distance_wrist_3_joint": 0.06027247562219529,
        "smoothness": 2.5376526478085547e-16,
        "time": 0.100042678,
        "traj_len": 1.4689556635326064,
        "weighted_distance": 1.852089104224224
    },
    "planner": "RRTConnect",
    "start": {
        "state": {
            "elbow_joint": 2.010868314990456,
            "shoulder_lift_joint": -1.1634956873337592,
            "shoulder_pan_joint": -2.4736205022346125,
            "wrist_1_joint": -0.8367026794202681,
            "wrist_2_joint": 0.6746043897044499,
            "wrist_3_joint": -3.1496632123970403
        }
    },
    "waypoints": [
        {
            "positions": [
                -2.4736205022346125,
                -1.1634956873337592,
                2.010868314990456,
                -0.8367026794202681,
                0.6746043897044499,
                -3.1496632123970403
            ]
        },
        {
            "positions": [
                -2.5563299666819566,
                -1.1320183333267748,
                1.967438482030593,
                -0.8217662276426705,
                0.8516443308130486,
                -3.139617799793341
            ]
        },
        {
            "positions": [
                -2.6390394311293006,
                -1.1005409793197904,
                1.9240086490707302,
                -0.8068297758650729,
                1.0286842719216474,
                -3.1295723871896417
            ]
        },
        {
            "positions": [
                -2.7217488955766447,
                -1.069063625312806,
                1.8805788161108676,
                -0.7918933240874753,
                1.205724213030246,
                -3.1195269745859426
            ]
        },
        {
            "positions": [
                -2.8044583600239887,
                -1.0375862713058217,
                1.8371489831510048,
                -0.7769568723098776,
                1.3827641541388447,
                -3.1094815619822436
            ]
        },
        {
            "positions": [
                -2.887167824471333,
                -1.0061089172988371,
                1.793719150191142,
                -0.76202042053228,
                1.5598040952474435,
                -3.099436149378544
            ]
        },
        {
            "positions": [
                -2.969877288918677,
                -0.9746315632918529,
                1.7502893172312792,
                -0.7470839687546824,
                1.736844036356042,
                -3.089390736774845
            ]
        }
    ]
}