{
    "goal": {
        "global_pose": {
            "orientation": {
                "w": -0.4816463035849501,
                "x": 0.5182115481033762,
                "y": 0.4908360881923453,
                "z": -0.5084816262002911
            },
            "position": {
                "x": -0.8240239810943604,
                "y": -0.300875300988555,
                "z": 0.16403168439865112
            }
        },
        "name": "move_to_storage_C"
    },
    "id": "RRTConnect_move_to_storage_C_26",
    "joint_names": [
        "shoulder_pan_joint",
        "shoulder_lift_joint",
        "elbow_joint",
        "wrist_1_joint",
        "wrist_2_joint",
        "wrist_3_joint"
    ],
    "metrics": {
        "cart_traj_len": 0.5762707362675216,
        "distance_elbow_joint": 0.25793176139938634,
        "distance_shoulder_lift_joint": 0.18842907038052814,
        "distance_shoulder_pan_joint": 0.49580070536323717,
        "distance_wrist_1_joint": 0.08526332862844588,
        "distance_wrist_2_joint": 1.060950388281488,
        "distance_wrist_3_joint": 0.06870328892012134,
        "smoothness": 2.5376526478085547e-16,
        "time": 0.08563474099999999,
        "traj_len": 1.4686996095094487,
        "weighted_distance": 1.8549120835563564
    },
    "planner": "RRTConnect",
    "start": {
        "state": {
            "elbow_joint": 2.010868314990456,
            "shoulder_lift_joint": -1.1634956873337592,
            "shoulder_pan_joint": -2.4736205022346125,
            "wrist_1_joint": -0.8367026794202681,
            "wrist_2_joint": 0.6746043897044499,
            "wrist_3_joint": -3.1496632123970403
        }
    },
    "waypoints": [
        {
            "positions": [
                -2.4736205022346125,
                -1.1634956873337592,
                2.010868314990456,
                -0.8367026794202681,
                0.6746043897044499,
                -3.1496632123970403
            ]
        },
        {
            "positions": [
                -2.5562539531284854,
                -1.1320908422703377,
                1.967879688090558,
                -0.8224921246488605,
                0.8514294544180312,
                -3.138212664243687
            ]
        },
        {
            "positions": [
                -2.638887404022358,
                -1.1006859972069165,
                1.9248910611906604,
                -0.8082815698774528,
                1.0282545191316126,
                -3.126762116090333
            ]
        },
        {
            "positions": [
                -2.721520854916231,
                -1.069281152143495,
                1.8819024342907626,
                -0.7940710151060452,
                1.205079583845194,
                -3.1153115679369794
            ]
        },
        {
            "positions": [
                -2.804154305810104,
                -1.0378763070800738,
                1.8389138073908649,
                -0.7798604603346375,
                1.3819046485587752,
                -3.103861019783626
            ]
        },
        {
            "positions": [
                -2.886787756703977,
                -1.0064714620166524,
                1.7959251804909673,
                -0.7656499055632299,
                1.5587297132723565,
                -3.0924104716302727
            ]
        },
        {
            "positions": [
                -2.9694212075978497,
                -0.975066616953231,
                1.7529365535910695,
                -0.7514393507918222,
                1.735554777985938,
                -3.080959923476919
            ]
        }
    ]
}