{
    "goal": {
        "global_pose": {
            "orientation": {
                "w": 0.7047431493862688,
                "x": -0.7094548369677653,
                "y": 0.0024358444001904,
                "z": -0.0022348060817251984
            },
            "position": {
                "x": -0.39052492380142206,
                "y": 0.3671506643295288,
                "z": 0.19426114857196808
            }
        },
        "name": "move_to_magneteinheit_D"
    },
    "id": "RRTConnect_move_to_magneteinheit_D_132",
    "joint_names": [
        "shoulder_pan_joint",
        "shoulder_lift_joint",
        "elbow_joint",
        "wrist_1_joint",
        "wrist_2_joint",
        "wrist_3_joint"
    ],
    "metrics": {
        "cart_traj_len": 4.087579993999392,
        "distance_elbow_joint": 3.8885676824510695,
        "distance_shoulder_lift_joint": 1.2037215608639948,
        "distance_shoulder_pan_joint": 2.9062822714812957,
        "distance_wrist_1_joint": 5.929978922326175,
        "distance_wrist_2_joint": 1.573994614369773,
        "distance_wrist_3_joint": 6.302098615441777,
        "smoothness": 0.2620789577769563,
        "time": 0.172290273,
        "traj_len": 4.6695442675848025,
        "weighted_distance": 6.4740106915662095
    },
    "planner": "RRTConnect",
    "start": {
        "state": {
            "elbow_joint": 0.749534889911806,
            "shoulder_lift_joint": -0.6476975780787326,
            "shoulder_pan_joint": -2.711696901376241,
            "wrist_1_joint": -0.07506478083263063,
            "wrist_2_joint": 0.43296659715538205,
            "wrist_3_joint": -3.14703540197715
        }
    },
    "waypoints": [
        {
            "positions": [
                -2.711696901376241,
                -0.6476975780787326,
                0.749534889911806,
                -0.07506478083263063,
                0.43296659715538205,
                -3.14703540197715
            ]
        },
        {
            "positions": [
                -2.7001707395532515,
                -0.7097302324503331,
                0.7883843507119898,
                0.09080229071483317,
                0.33261281271277704,
                -3.130692133383089
            ]
        },
        {
            "positions": [
                -2.688644577730262,
                -0.7717628868219334,
                0.8272338115121736,
                0.256669362262297,
                0.23225902827017203,
                -3.114348864789028
            ]
        },
        {
            "positions": [
                -2.677118415907272,
                -0.8337955411935338,
                0.8660832723123574,
                0.4225364338097608,
                0.13190524382756702,
                -3.098005596194967
            ]
        },
        {
            "positions": [
                -2.6655922540842822,
                -0.8958281955651342,
                0.9049327331125412,
                0.5884035053572245,
                0.03155145938496201,
                -3.0816623276009056
            ]
        },
        {
            "positions": [
                -2.6540660922612926,
                -0.9578608499367347,
                0.9437821939127251,
                0.7542705769046885,
                -0.06880232505764311,
                -3.065319059006845
            ]
        },
        {
            "positions": [
                -2.642539930438303,
                -1.019893504308335,
                0.9826316547129088,
                0.9201376484521522,
                -0.169156109500248,
                -3.0489757904127837
            ]
        },
        {
            "positions": [
                -2.631013768615313,
                -1.0819261586799354,
                1.0214811155130927,
                1.0860047199996161,
                -0.26950989394285313,
                -3.0326325218187224
            ]
        },
        {
            "positions": [
                -2.6194876067923234,
                -1.143958813051536,
                1.0603305763132764,
                1.2518717915470798,
                -0.36986367838545803,
                -3.0162892532246617
            ]
        },
        {
            "positions": [
                -2.607961444969334,
                -1.2059914674231362,
                1.0991800371134604,
                1.4177388630945438,
                -0.47021746282806315,
                -2.9999459846306005
            ]
        },
        {
            "positions": [
                -2.5543730189244997,
                -1.2582913104548337,
                1.1089690953520632,
                1.5216937041097,
                -0.5161890769223189,
                -2.946201903749124
            ]
        },
        {
            "positions": [
                -2.5007845928796657,
                -1.310591153486531,
                1.118758153590666,
                1.6256485451248563,
                -0.5621606910165746,
                -2.892457822867647
            ]
        },
        {
            "positions": [
                -2.4471961668348317,
                -1.3628909965182285,
                1.128547211829269,
                1.7296033861400129,
                -0.6081323051108304,
                -2.8387137419861705
            ]
        },
        {
            "positions": [
                -2.3936077407899976,
                -1.415190839549926,
                1.1383362700678719,
                1.8335582271551691,
                -0.6541039192050861,
                -2.784969661104694
            ]
        },
        {
            "positions": [
                -2.335131884759455,
                -1.4245395789445687,
                1.0601742239174703,
                1.744141781320954,
                -0.6426117259540005,
                -2.642160798244034
            ]
        },
        {
            "positions": [
                -2.276656028728912,
                -1.4338883183392115,
                0.982012177767069,
                1.654725335486739,
                -0.631119532702915,
                -2.499351935383374
            ]
        },
        {
            "positions": [
                -2.2181801726983696,
                -1.443237057733854,
                0.9038501316166675,
                1.565308889652524,
                -0.6196273394518294,
                -2.3565430725227143
            ]
        },
        {
            "positions": [
                -2.159704316667827,
                -1.4525857971284968,
                0.825688085466266,
                1.475892443818309,
                -0.6081351462007437,
                -2.2137342096620545
            ]
        },
        {
            "positions": [
                -2.1012284606372846,
                -1.4619345365231395,
                0.7475260393158646,
                1.386475997984094,
                -0.5966429529496582,
                -2.0709253468013946
            ]
        },
        {
            "positions": [
                -2.0427526046067417,
                -1.4712832759177823,
                0.6693639931654631,
                1.2970595521498791,
                -0.5851507596985726,
                -1.928116483940735
            ]
        },
        {
            "positions": [
                -1.9842767485761992,
                -1.480632015312425,
                0.5912019470150616,
                1.2076431063156639,
                -0.5736585664474869,
                -1.785307621080075
            ]
        },
        {
            "positions": [
                -1.9258008925456567,
                -1.4899807547070676,
                0.5130399008646602,
                1.1182266604814488,
                -0.5621663731964014,
                -1.6424987582194153
            ]
        },
        {
            "positions": [
                -1.867325036515114,
                -1.4993294941017103,
                0.43487785471425877,
                1.0288102146472338,
                -0.5506741799453158,
                -1.4996898953587554
            ]
        },
        {
            "positions": [
                -1.8088491804845712,
                -1.508678233496353,
                0.3567158085638573,
                0.9393937688130188,
                -0.5391819866942302,
                -1.3568810324980956
            ]
        },
        {
            "positions": [
                -1.7503733244540287,
                -1.5180269728909959,
                0.27855376241345575,
                0.8499773229788037,
                -0.5276897934431446,
                -1.2140721696374357
            ]
        },
        {
            "positions": [
                -1.6918974684234862,
                -1.5273757122856384,
                0.2003917162630544,
                0.7605608771445889,
                -0.516197600192059,
                -1.071263306776776
            ]
        },
        {
            "positions": [
                -1.6334216123929435,
                -1.5367244516802812,
                0.12222967011265284,
                0.6711444313103736,
                -0.5047054069409734,
                -0.928454443916116
            ]
        },
        {
            "positions": [
                -1.5749457563624008,
                -1.546073191074924,
                0.04406762396225128,
                0.5817279854761586,
                -0.4932132136898878,
                -0.7856455810554561
            ]
        },
        {
            "positions": [
                -1.5164699003318582,
                -1.5554219304695667,
                -0.034094422188150064,
                0.4923115396419435,
                -0.4817210204388022,
                -0.6428367181947965
            ]
        },
        {
            "positions": [
                -1.4579940443013157,
                -1.5647706698642092,
                -0.11225646833855141,
                0.4028950938077285,
                -0.47022882718771664,
                -0.5000278553341366
            ]
        },
        {
            "positions": [
                -1.399518188270773,
                -1.574119409258852,
                -0.19041851448895275,
                0.31347864797351366,
                -0.458736633936631,
                -0.35721899247347677
            ]
        },
        {
            "positions": [
                -1.3410423322402303,
                -1.5834681486534947,
                -0.2685805606393543,
                0.2240622021392984,
                -0.4472444406855454,
                -0.2144101296128169
            ]
        },
        {
            "positions": [
                -1.2825664762096878,
                -1.5928168880481375,
                -0.3467426067897559,
                0.13464575630508335,
                -0.43575224743445984,
                -0.07160126675215706
            ]
        },
        {
            "positions": [
                -1.224090620179145,
                -1.6021656274427802,
                -0.4249046529401572,
                0.04522931047086853,
                -0.4242600541833742,
                0.0712075961085028
            ]
        },
        {
            "positions": [
                -1.1656147641486025,
                -1.6115143668374228,
                -0.5030666990905588,
                -0.04418713536334673,
                -0.4127678609322887,
                0.21401645896916266
            ]
        },
        {
            "positions": [
                -1.1071389081180598,
                -1.6208631062320655,
                -0.5812287452409604,
                -0.13360358119756177,
                -0.40127566768120304,
                0.3568253218298225
            ]
        },
        {
            "positions": [
                -1.048663052087517,
                -1.6302118456267083,
                -0.6593907913913619,
                -0.22302002703177704,
                -0.3897834744301174,
                0.4996341846904828
            ]
        },
        {
            "positions": [
                -0.9901871960569748,
                -1.639560585021351,
                -0.737552837541763,
                -0.3124364728659914,
                -0.3782912811790319,
                0.6424430475511418
            ]
        },
        {
            "positions": [
                -0.9317113400264321,
                -1.6489093244159938,
                -0.8157148836921646,
                -0.4018529187002067,
                -0.36679908792794624,
                0.7852519104118021
            ]
        },
        {
            "positions": [
                -0.8732354839958893,
                -1.6582580638106363,
                -0.8938769298425662,
                -0.49126936453442194,
                -0.35530689467686066,
                0.928060773272462
            ]
        },
        {
            "positions": [
                -0.8147596279653466,
                -1.667606803205279,
                -0.9720389759929677,
                -0.5806858103686368,
                -0.3438147014257751,
                1.0708696361331218
            ]
        },
        {
            "positions": [
                -0.7562837719348039,
                -1.6769555425999219,
                -1.0502010221433693,
                -0.670102256202852,
                -0.33232250817468945,
                1.2136784989937817
            ]
        },
        {
            "positions": [
                -0.6978079159042616,
                -1.6863042819945644,
                -1.1283630682937704,
                -0.7595187020370668,
                -0.3208303149236039,
                1.356487361854441
            ]
        },
        {
            "positions": [
                -0.6393320598737189,
                -1.6956530213892074,
                -1.206525114444172,
                -0.8489351478712821,
                -0.3093381216725183,
                1.499296224715101
            ]
        },
        {
            "positions": [
                -0.5808562038431762,
                -1.70500176078385,
                -1.284687160594573,
                -0.9383515937054969,
                -0.2978459284214327,
                1.6421050875757608
            ]
        },
        {
            "positions": [
                -0.5223803478126336,
                -1.7143505001784927,
                -1.3628492067449747,
                -1.0277680395397122,
                -0.28635373517034707,
                1.7849139504364206
            ]
        },
        {
            "positions": [
                -0.4639044917820909,
                -1.7236992395731354,
                -1.4410112528953762,
                -1.117184485373927,
                -0.2748615419192615,
                1.9277228132970814
            ]
        },
        {
            "positions": [
                -0.4054286357515484,
                -1.733047978967778,
                -1.5191732990457774,
                -1.2066009312081418,
                -0.2633693486681759,
                2.0705316761577404
            ]
        },
        {
            "positions": [
                -0.3469527797210059,
                -1.7423967183624207,
                -1.597335345196179,
                -1.296017377042357,
                -0.2518771554170903,
                2.2133405390184
            ]
        },
        {
            "positions": [
                -0.28847692369046296,
                -1.7517454577570635,
                -1.6754973913465805,
                -1.3854338228765724,
                -0.2403849621660047,
                2.35614940187906
            ]
        },
        {
            "positions": [
                -0.23000106765992046,
                -1.7610941971517062,
                -1.753659437496982,
                -1.4748502687107872,
                -0.2288927689149191,
                2.49895826473972
            ]
        },
        {
            "positions": [
                -0.17152521162937795,
                -1.770442936546349,
                -1.8318214836473836,
                -1.5642667145450024,
                -0.21740057566383347,
                2.64176712760038
            ]
        },
        {
            "positions": [
                -0.11304935559883544,
                -1.7797916759409915,
                -1.9099835297977847,
                -1.6536831603792173,
                -0.20590838241274795,
                2.7845759904610397
            ]
        },
        {
            "positions": [
                -0.054573499568292494,
                -1.7891404153356343,
                -1.9881455759481863,
                -1.743099606213432,
                -0.1944161891616623,
                2.9273848533216995
            ]
        },
        {
            "positions": [
                0.003902356462249873,
                -1.798489154730277,
                -2.066307622098588,
                -1.8325160520476473,
                -0.18292399591057676,
                3.0701937161823594
            ]
        },
        {
            "positions": [
                -0.017307167468921802,
                -1.791749399032032,
                -2.1254441680529177,
                -1.9124734271694495,
                -0.19084750274656823,
                3.1256762463085455
            ]
        },
        {
            "positions": [
                -0.10204391232473811,
                -1.7686542847749291,
                -2.2434371001400244,
                -2.0501355571763287,
                -0.18693716880716665,
                3.1403697298865856
            ]
        },
        {
            "positions": [
                -0.18678065718055442,
                -1.7455591705178266,
                -2.3614300322271315,
                -2.187797687183208,
                -0.18302683486776505,
                3.1550632134646257
            ]
        }
    ]
}