{
    "goal": {
        "global_pose": {
            "orientation": {
                "w": 0.7031023502349854,
                "x": -0.7110244035720825,
                "y": 0.007748599164187908,
                "z": 0.005598929710686207
            },
            "position": {
                "x": 0.11585023208521307,
                "y": 0.44412534475326537,
                "z": 0.3711530566215515
            }
        },
        "name": "move_to_auspresseinheit_A"
    },
    "id": "RRTConnect_move_to_auspresseinheit_A_92",
    "joint_names": [
        "shoulder_pan_joint",
        "shoulder_lift_joint",
        "elbow_joint",
        "wrist_1_joint",
        "wrist_2_joint",
        "wrist_3_joint"
    ],
    "metrics": {
        "cart_traj_len": 2.2483839880563963,
        "distance_elbow_joint": 2.4167151369789384,
        "distance_shoulder_lift_joint": 0.7945620733840482,
        "distance_shoulder_pan_joint": 2.400318725432708,
        "distance_wrist_1_joint": 2.6420210751777766,
        "distance_wrist_2_joint": 1.1135639602880252,
        "distance_wrist_3_joint": 3.086320378086396,
        "smoothness": 0.5482431902290189,
        "time": 0.12196910899999999,
        "traj_len": 3.528951876881844,
        "weighted_distance": 4.730933009564444
    },
    "planner": "RRTConnect",
    "start": {
        "state": {
            "elbow_joint": 2.4225746658250005,
            "shoulder_lift_joint": -1.3736534386056498,
            "shoulder_pan_joint": -0.3378633547517467,
            "wrist_1_joint": -1.0288598680537169,
            "wrist_2_joint": 1.233022673432363,
            "wrist_3_joint": -3.0940220416140027
        }
    },
    "waypoints": [
        {
            "positions": [
                -0.3378633547517467,
                -1.3736534386056498,
                2.4225746658250005,
                -1.0288598680537169,
                1.233022673432363,
                -3.0940220416140027
            ]
        },
        {
            "positions": [
                -0.3720428835273998,
                -1.3964839173523733,
                2.341038370072713,
                -0.9247401235901223,
                1.186343100825628,
                -2.9922217578761043
            ]
        },
        {
            "positions": [
                -0.4062224123030529,
                -1.419314396099097,
                2.259502074320426,
                -0.8206203791265276,
                1.139663528218893,
                -2.890421474138206
            ]
        },
        {
            "positions": [
                -0.44040194107870595,
                -1.4421448748458205,
                2.1779657785681388,
                -0.7165006346629329,
                1.0929839556121579,
                -2.788621190400307
            ]
        },
        {
            "positions": [
                -0.474581469854359,
                -1.4649753535925443,
                2.096429482815852,
                -0.6123808901993383,
                1.0463043830054228,
                -2.6868209066624087
            ]
        },
        {
            "positions": [
                -0.5087609986300121,
                -1.4878058323392678,
                2.0148931870635645,
                -0.5082611457357437,
                0.9996248103986877,
                -2.5850206229245103
            ]
        },
        {
            "positions": [
                -0.5429405274056651,
                -1.5106363110859913,
                1.9333568913112773,
                -0.4041414012721489,
                0.9529452377919525,
                -2.483220339186612
            ]
        },
        {
            "positions": [
                -0.5771200561813182,
                -1.533466789832715,
                1.8518205955589901,
                -0.3000216568085543,
                0.9062656651852175,
                -2.3814200554487135
            ]
        },
        {
            "positions": [
                -0.6112995849569713,
                -1.5562972685794385,
                1.7702842998067028,
                -0.19590191234495968,
                0.8595860925784824,
                -2.2796197717108146
            ]
        },
        {
            "positions": [
                -0.6454791137326243,
                -1.5791277473261622,
                1.6887480040544158,
                -0.09178216788136506,
                0.8129065199717473,
                -2.1778194879729162
            ]
        },
        {
            "positions": [
                -0.6796586425082775,
                -1.6019582260728857,
                1.6072117083021285,
                0.012337576582229559,
                0.7662269473650123,
                -2.076019204235018
            ]
        },
        {
            "positions": [
                -0.7138381712839306,
                -1.6247887048196092,
                1.5256754125498413,
                0.11645732104582418,
                0.7195473747582772,
                -1.9742189204971194
            ]
        },
        {
            "positions": [
                -0.7480177000595836,
                -1.647619183566333,
                1.4441391167975541,
                0.22057706550941902,
                0.6728678021515421,
                -1.8724186367592208
            ]
        },
        {
            "positions": [
                -0.7821972288352368,
                -1.6704496623130565,
                1.3626028210452668,
                0.32469680997301364,
                0.626188229544807,
                -1.7706183530213224
            ]
        },
        {
            "positions": [
                -0.8163767576108898,
                -1.69328014105978,
                1.2810665252929796,
                0.42881655443660827,
                0.579508656938072,
                -1.6688180692834238
            ]
        },
        {
            "positions": [
                -0.8505562863865428,
                -1.7161106198065037,
                1.1995302295406924,
                0.5329362989002029,
                0.5328290843313369,
                -1.5670177855455254
            ]
        },
        {
            "positions": [
                -0.6783964362813683,
                -1.7483108639560627,
                1.267407349974205,
                0.5365060227386902,
                0.5204445634285805,
                -1.6379523893712227
            ]
        },
        {
            "positions": [
                -0.5062365861761937,
                -1.7805111081056217,
                1.3352844704077174,
                0.5400757465771774,
                0.5080600425258242,
                -1.7088869931969197
            ]
        },
        {
            "positions": [
                -0.3340767360710193,
                -1.8127113522551808,
                1.40316159084123,
                0.5436454704156646,
                0.4956755216230677,
                -1.779821597022617
            ]
        },
        {
            "positions": [
                -0.16191688596584475,
                -1.8449115964047398,
                1.4710387112747425,
                0.5472151942541519,
                0.4832910007203113,
                -1.850756200848314
            ]
        },
        {
            "positions": [
                0.01024296413932968,
                -1.8771118405542988,
                1.538915831708255,
                0.5507849180926392,
                0.4709064798175549,
                -1.9216908046740113
            ]
        },
        {
            "positions": [
                0.18240281424450422,
                -1.909312084703858,
                1.6067929521417674,
                0.5543546419311264,
                0.4585219589147985,
                -1.9926254084997086
            ]
        },
        {
            "positions": [
                0.35456266434967865,
                -1.941512328853417,
                1.6746700725752799,
                0.5579243657696136,
                0.4461374380120421,
                -2.0635600123254054
            ]
        },
        {
            "positions": [
                0.5267225144548533,
                -1.973712573002976,
                1.7425471930087926,
                0.5614940896081009,
                0.4337529171092857,
                -2.1344946161511027
            ]
        },
        {
            "positions": [
                0.6988823645600277,
                -2.0059128171525353,
                1.810424313442305,
                0.5650638134465882,
                0.42136839620652927,
                -2.2054292199768
            ]
        },
        {
            "positions": [
                0.8710422146652022,
                -2.038113061302094,
                1.8783014338758175,
                0.5686335372850754,
                0.4089838753037729,
                -2.2763638238024972
            ]
        },
        {
            "positions": [
                0.8650664551751376,
                -2.0246135194232515,
                1.9536192364505551,
                0.43351593698389046,
                0.4482519213735336,
                -2.395534818804114
            ]
        },
        {
            "positions": [
                0.859090695685073,
                -2.0111139775444093,
                2.0289370390252928,
                0.29839833668270555,
                0.4875199674432943,
                -2.51470581380573
            ]
        },
        {
            "positions": [
                0.8531149361950086,
                -1.997614435665567,
                2.10425484160003,
                0.16328073638152063,
                0.526788013513055,
                -2.6338768088073468
            ]
        },
        {
            "positions": [
                0.847139176704944,
                -1.9841148937867246,
                2.179572644174768,
                0.028163136080335716,
                0.5660560595828157,
                -2.753047803808963
            ]
        },
        {
            "positions": [
                0.8411634172148794,
                -1.9706153519078822,
                2.2548904467495055,
                -0.10695446422084914,
                0.6053241056525764,
                -2.8722187988105796
            ]
        },
        {
            "positions": [
                0.8031007685777901,
                -1.9529301126835716,
                2.2978023240615824,
                -0.21559761972654154,
                0.6340847724936988,
                -2.949283060793345
            ]
        },
        {
            "positions": [
                0.7650381199407008,
                -1.9352448734592613,
                2.3407142013736593,
                -0.32424077523223394,
                0.6628454393348211,
                -3.0263473227761097
            ]
        },
        {
            "positions": [
                0.7350265209298676,
                -1.921627742036876,
                2.366957565804491,
                -0.4000674538930714,
                0.6806772383990144,
                -3.076340615169777
            ]
        },
        {
            "positions": [
                0.7050149219190346,
                -1.9080106106144903,
                2.3932009302353228,
                -0.4758941325539089,
                0.6985090374632077,
                -3.126333907563444
            ]
        }
    ]
}