{
    "goal": {
        "global_pose": {
            "orientation": {
                "w": 0.5084816262002911,
                "x": -0.4908360881923452,
                "y": 0.5182115481033761,
                "z": -0.48164630358495003
            },
            "position": {
                "x": 0.5540239810943604,
                "y": -0.46912469901144505,
                "z": 0.16403168439865112
            }
        },
        "name": "move_to_storage_B"
    },
    "id": "RRTConnect_move_to_storage_B_16",
    "joint_names": [
        "shoulder_pan_joint",
        "shoulder_lift_joint",
        "elbow_joint",
        "wrist_1_joint",
        "wrist_2_joint",
        "wrist_3_joint"
    ],
    "metrics": {
        "cart_traj_len": 1.3100436081220004,
        "distance_elbow_joint": 0.349886295961634,
        "distance_shoulder_lift_joint": 0.45923433188698426,
        "distance_shoulder_pan_joint": 1.3177733456166834,
        "distance_wrist_1_joint": 4.025312717646974,
        "distance_wrist_2_joint": 2.7115491250487693,
        "distance_wrist_3_joint": 3.2418183924065223,
        "smoothness": 0.42292333230836016,
        "time": 0.084575153,
        "traj_len": 3.4793065700750727,
        "weighted_distance": 5.03250164789604
    },
    "planner": "RRTConnect",
    "start": {
        "state": {
            "elbow_joint": 1.664937868594044,
            "shoulder_lift_joint": -0.661644460510453,
            "shoulder_pan_joint": -0.9139846352900073,
            "wrist_1_joint": 2.146753192139373,
            "wrist_2_joint": -2.2341966793290973,
            "wrist_3_joint": 0.005466555786416001
        }
    },
    "waypoints": [
        {
            "positions": [
                -0.9139846352900073,
                -0.661644460510453,
                1.664937868594044,
                2.146753192139373,
                -2.2341966793290973,
                0.005466555786416001
            ]
        },
        {
            "positions": [
                -0.8004355981156752,
                -0.6871131830712602,
                1.6684515901258705,
                2.25153915643474,
                -2.16275318749831,
                -0.0061858904636364
            ]
        },
        {
            "positions": [
                -0.686886560941343,
                -0.7125819056320674,
                1.6719653116576974,
                2.3563251207301072,
                -2.091309695667523,
                -0.017838336713688802
            ]
        },
        {
            "positions": [
                -0.573337523767011,
                -0.7380506281928746,
                1.675479033189524,
                2.461111085025474,
                -2.019866203836736,
                -0.029490782963741198
            ]
        },
        {
            "positions": [
                -0.4597884865926788,
                -0.7635193507536817,
                1.6789927547213508,
                2.5658970493208413,
                -1.9484227120059487,
                -0.041143229213793604
            ]
        },
        {
            "positions": [
                -0.3462394494183467,
                -0.788988073314489,
                1.6825064762531774,
                2.670683013616208,
                -1.8769792201751616,
                -0.052795675463846004
            ]
        },
        {
            "positions": [
                -0.37401827014964384,
                -0.8012803221694129,
                1.6948145387828997,
                2.5410021656099064,
                -1.7897817510679455,
                0.06511381198638584
            ]
        },
        {
            "positions": [
                -0.401797090880941,
                -0.813572571024337,
                1.707122601312622,
                2.4113213176036052,
                -1.7025842819607295,
                0.1830232994366177
            ]
        },
        {
            "positions": [
                -0.4295759116122382,
                -0.825864819879261,
                1.7194306638423442,
                2.2816404695973036,
                -1.6153868128535134,
                0.30093278688684955
            ]
        },
        {
            "positions": [
                -0.4573547323435353,
                -0.8381570687341849,
                1.7317387263720663,
                2.1519596215910024,
                -1.5281893437462974,
                0.4188422743370814
            ]
        },
        {
            "positions": [
                -0.4851335530748324,
                -0.850449317589109,
                1.7440467889017885,
                2.0222787735847008,
                -1.4409918746390813,
                0.5367517617873132
            ]
        },
        {
            "positions": [
                -0.5129123738061296,
                -0.862741566444033,
                1.7563548514315108,
                1.8925979255783991,
                -1.3537944055318651,
                0.6546612492375451
            ]
        },
        {
            "positions": [
                -0.5406911945374268,
                -0.875033815298957,
                1.768662913961233,
                1.7629170775720977,
                -1.2665969364246492,
                0.772570736687777
            ]
        },
        {
            "positions": [
                -0.5684700152687239,
                -0.887326064153881,
                1.7809709764909554,
                1.6332362295657963,
                -1.179399467317433,
                0.8904802241380088
            ]
        },
        {
            "positions": [
                -0.596248836000021,
                -0.899618313008805,
                1.7932790390206776,
                1.5035553815594946,
                -1.092201998210217,
                1.0083897115882405
            ]
        },
        {
            "positions": [
                -0.6240276567313181,
                -0.9119105618637291,
                1.8055871015503997,
                1.3738745335531932,
                -1.005004529103001,
                1.1262991990384723
            ]
        },
        {
            "positions": [
                -0.6518064774626153,
                -0.9242028107186531,
                1.817895164080122,
                1.2441936855468918,
                -0.9178070599957848,
                1.2442086864887045
            ]
        },
        {
            "positions": [
                -0.6795852981939124,
                -0.936495059573577,
                1.8302032266098442,
                1.1145128375405902,
                -0.8306095908885687,
                1.3621181739389363
            ]
        },
        {
            "positions": [
                -0.7073641189252096,
                -0.9487873084285011,
                1.8425112891395665,
                0.9848319895342887,
                -0.7434121217813527,
                1.480027661389168
            ]
        },
        {
            "positions": [
                -0.7351429396565068,
                -0.9610795572834251,
                1.8548193516692888,
                0.8551511415279873,
                -0.6562146526741366,
                1.5979371488393999
            ]
        },
        {
            "positions": [
                -0.7629217603878039,
                -0.9733718061383492,
                1.867127414199011,
                0.7254702935216857,
                -0.5690171835669204,
                1.715846636289632
            ]
        },
        {
            "positions": [
                -0.790700581119101,
                -0.9856640549932731,
                1.8794354767287333,
                0.5957894455153845,
                -0.4818197144597045,
                1.8337561237398634
            ]
        },
        {
            "positions": [
                -0.8184794018503982,
                -0.9979563038481971,
                1.8917435392584556,
                0.46610859750908284,
                -0.39462224535248813,
                1.9516656111900956
            ]
        },
        {
            "positions": [
                -0.8462582225816953,
                -1.010248552703121,
                1.9040516017881777,
                0.3364277495027812,
                -0.3074247762452722,
                2.0695750986403274
            ]
        },
        {
            "positions": [
                -0.8740370433129925,
                -1.022540801558045,
                1.9163596643179,
                0.20674690149647956,
                -0.22022730713805605,
                2.1874845860905596
            ]
        },
        {
            "positions": [
                -0.9018158640442896,
                -1.0348330504129692,
                1.9286677268476222,
                0.07706605349017837,
                -0.13302983803084012,
                2.305394073540791
            ]
        },
        {
            "positions": [
                -0.9295946847755868,
                -1.0471252992678932,
                1.9409757893773445,
                -0.052614794516123276,
                -0.04583236892362397,
                2.423303560991023
            ]
        },
        {
            "positions": [
                -0.9573735055068838,
                -1.0594175481228172,
                1.9532838519070668,
                -0.18229564252242447,
                0.04136510018359196,
                2.541213048441255
            ]
        },
        {
            "positions": [
                -0.985152326238181,
                -1.0717097969777412,
                1.9655919144367888,
                -0.3119764905287261,
                0.12856256929080834,
                2.6591225358914867
            ]
        },
        {
            "positions": [
                -1.0129311469694782,
                -1.0840020458326651,
                1.977899976966511,
                -0.44165733853502775,
                0.21576003839802427,
                2.7770320233417185
            ]
        },
        {
            "positions": [
                -1.0407099677007754,
                -1.0962942946875893,
                1.9902080394962334,
                -0.5713381865413294,
                0.3029575075052402,
                2.8949415107919507
            ]
        },
        {
            "positions": [
                -1.0684887884320724,
                -1.1085865435425133,
                2.0025161020259556,
                -0.7010190345476306,
                0.39015497661245613,
                3.012850998242182
            ]
        },
        {
            "positions": [
                -1.0962676091633696,
                -1.1208787923974373,
                2.014824164555678,
                -0.830699882553932,
                0.47735244571967267,
                3.1307604856924143
            ]
        }
    ]
}