{
    "goal": {
        "global_pose": {
            "orientation": {
                "w": 0.7047431468963623,
                "x": -0.7094548344612122,
                "y": 0.0024358443915843964,
                "z": -0.0022348060738295317
            },
            "position": {
                "x": 0.6094750761985779,
                "y": 0.3671506643295288,
                "z": 0.19426114857196808
            }
        },
        "name": "move_to_magneteinheit_A"
    },
    "id": "RRTConnect_move_to_magneteinheit_A_127",
    "joint_names": [
        "shoulder_pan_joint",
        "shoulder_lift_joint",
        "elbow_joint",
        "wrist_1_joint",
        "wrist_2_joint",
        "wrist_3_joint"
    ],
    "metrics": {
        "cart_traj_len": 3.506331467965509,
        "distance_elbow_joint": 3.8800327085845363,
        "distance_shoulder_lift_joint": 0.33184483446382695,
        "distance_shoulder_pan_joint": 2.914077935902769,
        "distance_wrist_1_joint": 3.106969558110994,
        "distance_wrist_2_joint": 2.395866731791088,
        "distance_wrist_3_joint": 2.5923328830123866,
        "smoothness": 0.23463052932079048,
        "time": 0.06964419399999999,
        "traj_len": 3.9014259767251254,
        "weighted_distance": 5.090051739205845
    },
    "planner": "RRTConnect",
    "start": {
        "state": {
            "elbow_joint": -1.9196185241190666,
            "shoulder_lift_joint": -1.2443396400964142,
            "shoulder_pan_joint": 2.6996025414629847,
            "wrist_1_joint": -1.5485510000780065,
            "wrist_2_joint": -1.5709468930060704,
            "wrist_3_joint": 0.4420197071253992
        }
    },
    "waypoints": [
        {
            "positions": [
                2.6996025414629847,
                -1.2443396400964142,
                -1.9196185241190666,
                -1.5485510000780065,
                -1.5709468930060704,
                0.4420197071253992
            ]
        },
        {
            "positions": [
                2.5851951594067124,
                -1.2351238671403966,
                -1.8330123540165857,
                -1.4666108483456448,
                -1.485471130779352,
                0.44908310449845734
            ]
        },
        {
            "positions": [
                2.4707877773504405,
                -1.225908094184379,
                -1.7464061839141045,
                -1.384670696613283,
                -1.3999953685526338,
                0.45614650187151545
            ]
        },
        {
            "positions": [
                2.3563803952941687,
                -1.2166923212283616,
                -1.6598000138116236,
                -1.3027305448809212,
                -1.3145196063259155,
                0.4632098992445736
            ]
        },
        {
            "positions": [
                2.2419730132378963,
                -1.207476548272344,
                -1.5731938437091426,
                -1.2207903931485593,
                -1.229043844099197,
                0.47027329661763173
            ]
        },
        {
            "positions": [
                2.127565631181624,
                -1.1982607753163264,
                -1.4865876736066614,
                -1.1388502414161976,
                -1.1435680818724787,
                0.4773366939906899
            ]
        },
        {
            "positions": [
                2.013158249125352,
                -1.189045002360309,
                -1.3999815035041805,
                -1.0569100896838357,
                -1.0580923196457603,
                0.48440009136374806
            ]
        },
        {
            "positions": [
                1.89875086706908,
                -1.1798292294042914,
                -1.3133753334016993,
                -0.9749699379514739,
                -0.9726165574190421,
                0.4914634887368062
            ]
        },
        {
            "positions": [
                1.784343485012808,
                -1.1706134564482737,
                -1.2267691632992186,
                -0.8930297862191122,
                -0.8871407951923238,
                0.49852688610986434
            ]
        },
        {
            "positions": [
                1.6699361029565358,
                -1.1613976834922561,
                -1.1401629931967374,
                -0.8110896344867504,
                -0.8016650329656054,
                0.5055902834829225
            ]
        },
        {
            "positions": [
                1.5555287209002637,
                -1.1521819105362385,
                -1.0535568230942562,
                -0.7291494827543886,
                -0.7161892707388872,
                0.5126536808559806
            ]
        },
        {
            "positions": [
                1.4411213388439916,
                -1.1429661375802211,
                -0.9669506529917754,
                -0.6472093310220268,
                -0.6307135085121689,
                0.5197170782290388
            ]
        },
        {
            "positions": [
                1.3267139567877195,
                -1.1337503646242035,
                -0.8803444828892943,
                -0.565269179289665,
                -0.5452377462854505,
                0.5267804756020968
            ]
        },
        {
            "positions": [
                1.2123065747314474,
                -1.124534591668186,
                -0.7937383127868134,
                -0.4833290275573032,
                -0.45976198405873236,
                0.533843872975155
            ]
        },
        {
            "positions": [
                1.0978991926751753,
                -1.1153188187121685,
                -0.7071321426843322,
                -0.4013888758249413,
                -0.37428622183201377,
                0.5409072703482132
            ]
        },
        {
            "positions": [
                0.9834918106189032,
                -1.106103045756151,
                -0.6205259725818513,
                -0.31944872409257963,
                -0.2888104596052956,
                0.5479706677212713
            ]
        },
        {
            "positions": [
                0.8690844285626311,
                -1.0968872728001333,
                -0.5339198024793703,
                -0.23750857236021794,
                -0.20333469737857723,
                0.5550340650943295
            ]
        },
        {
            "positions": [
                0.754677046506359,
                -1.0876714998441157,
                -0.44731363237688915,
                -0.15556842062785603,
                -0.11785893515185886,
                0.5620974624673876
            ]
        },
        {
            "positions": [
                0.6402696644500869,
                -1.078455726888098,
                -0.3607074622744082,
                -0.07362826889549434,
                -0.03238317292514048,
                0.5691608598404457
            ]
        },
        {
            "positions": [
                0.525862282393815,
                -1.0692399539320807,
                -0.27410129217192725,
                0.008311882836867346,
                0.053092589301577675,
                0.5762242572135039
            ]
        },
        {
            "positions": [
                0.41145490033754273,
                -1.060024180976063,
                -0.18749512206944607,
                0.09025203456922926,
                0.13856835152829605,
                0.5832876545865621
            ]
        },
        {
            "positions": [
                0.29704751828127085,
                -1.0508084080200455,
                -0.10088895196696512,
                0.17219218630159117,
                0.22404411375501443,
                0.5903510519596202
            ]
        },
        {
            "positions": [
                0.18264013622499853,
                -1.041592635064028,
                -0.014282781864484173,
                0.25413233803395285,
                0.3095198759817326,
                0.5974144493326783
            ]
        },
        {
            "positions": [
                0.0682327541687262,
                -1.0323768621080105,
                0.072323388237997,
                0.33607248976631476,
                0.3949956382084512,
                0.6044778467057365
            ]
        },
        {
            "positions": [
                -0.046174627887545755,
                -1.0231610891519929,
                0.15892955834047806,
                0.41801264149867645,
                0.48047140043516945,
                0.6115412440787946
            ]
        },
        {
            "positions": [
                -0.036978727666320606,
                -1.029480088820554,
                0.27423426636742065,
                0.345282367899301,
                0.459430372572728,
                0.7668989795610074
            ]
        },
        {
            "positions": [
                -0.02778282744509546,
                -1.035799088489115,
                0.38953897439436325,
                0.2725520942999256,
                0.43838934471028657,
                0.9222567150432202
            ]
        },
        {
            "positions": [
                -0.018586927223870314,
                -1.0421180881576761,
                0.5048436824213058,
                0.19982182070055016,
                0.4173483168478451,
                1.077614450525433
            ]
        },
        {
            "positions": [
                -0.009391027002645165,
                -1.048437087826237,
                0.6201483904482484,
                0.12709154710117476,
                0.39630728898540374,
                1.232972186007646
            ]
        },
        {
            "positions": [
                -0.00019512678142002277,
                -1.054756087494798,
                0.735453098475191,
                0.05436127350179931,
                0.3752662611229623,
                1.3883299214898586
            ]
        },
        {
            "positions": [
                0.009000773439805126,
                -1.0610750871633592,
                0.8507578065021337,
                -0.018369000097576138,
                0.35422523326052086,
                1.5436876569720714
            ]
        },
        {
            "positions": [
                0.01819667366103027,
                -1.0673940868319203,
                0.9660625145290763,
                -0.09109927369695159,
                0.33318420539807947,
                1.699045392454284
            ]
        },
        {
            "positions": [
                0.027392573882255425,
                -1.0737130865004814,
                1.0813672225560187,
                -0.16382954729632693,
                0.31214317753563803,
                1.854403127936497
            ]
        },
        {
            "positions": [
                0.03658847410348057,
                -1.0800320861690424,
                1.1966719305829616,
                -0.23655982089570238,
                0.2911021496731966,
                2.00976086341871
            ]
        },
        {
            "positions": [
                0.04578437432470571,
                -1.0863510858376035,
                1.311976638609904,
                -0.3092900944950778,
                0.27006112181075514,
                2.1651185989009223
            ]
        },
        {
            "positions": [
                0.05498027454593085,
                -1.0926700855061644,
                1.4272813466368466,
                -0.38202036809445317,
                0.24902009394831373,
                2.320476334383135
            ]
        },
        {
            "positions": [
                0.06417617476715601,
                -1.0989890851747255,
                1.5425860546637895,
                -0.4547506416938287,
                0.22797906608587226,
                2.475834069865348
            ]
        },
        {
            "positions": [
                0.07337207498838116,
                -1.1053080848432866,
                1.657890762690732,
                -0.5274809152932042,
                0.20693803822343082,
                2.6311918053475614
            ]
        },
        {
            "positions": [
                0.08256797520960629,
                -1.1116270845118477,
                1.7731954707176745,
                -0.6002111888925796,
                0.18589701036098943,
                2.786549540829774
            ]
        },
        {
            "positions": [
                0.09176387543083145,
                -1.1179460841804088,
                1.888500178744617,
                -0.672941462491955,
                0.164855982498548,
                2.9419072763119862
            ]
        },
        {
            "positions": [
                0.12212613866469195,
                -1.1338273726713985,
                1.9604141844654706,
                -0.7223932750356339,
                0.13602296208532322,
                3.034352590137786
            ]
        }
    ]
}