{
    "goal": {
        "global_pose": {
            "orientation": {
                "w": 0.005598929693374612,
                "x": 0.007748599140229565,
                "y": 0.7110244013736278,
                "z": -0.7031023480610252
            },
            "position": {
                "x": 0.1141497679147869,
                "y": -0.7141253447532654,
                "z": 0.3711530566215515
            }
        },
        "name": "move_to_auspresseinheit_B"
    },
    "id": "RRTConnect_move_to_auspresseinheit_B_142",
    "joint_names": [
        "shoulder_pan_joint",
        "shoulder_lift_joint",
        "elbow_joint",
        "wrist_1_joint",
        "wrist_2_joint",
        "wrist_3_joint"
    ],
    "metrics": {
        "cart_traj_len": 0.5644761052163046,
        "distance_elbow_joint": 0.06124927989626916,
        "distance_shoulder_lift_joint": 0.29343563740527157,
        "distance_shoulder_pan_joint": 0.5746377896964054,
        "distance_wrist_1_joint": 0.31922647926677505,
        "distance_wrist_2_joint": 1.0063983001768808,
        "distance_wrist_3_joint": 0.007824631047656627,
        "smoothness": 5.075305295617109e-16,
        "time": 0.065815552,
        "traj_len": 1.5042513478435906,
        "weighted_distance": 1.8984325531944053
    },
    "planner": "RRTConnect",
    "start": {
        "state": {
            "elbow_joint": 2.0193083361928714,
            "shoulder_lift_joint": -1.1220246554650708,
            "shoulder_pan_joint": -1.0952077554168747,
            "wrist_1_joint": -0.8559753972642168,
            "wrist_2_joint": 0.4759566250798843,
            "wrist_3_joint": -3.1240929996934557
        }
    },
    "waypoints": [
        {
            "positions": [
                -1.0952077554168747,
                -1.1220246554650708,
                2.0193083361928714,
                -0.8559753972642168,
                0.4759566250798843,
                -3.1240929996934557
            ]
        },
        {
            "positions": [
                -1.1909807203662757,
                -1.170930595032616,
                2.0091001228768266,
                -0.8027709840530877,
                0.6436896751093644,
                -3.1227888945188464
            ]
        },
        {
            "positions": [
                -1.2867536853156765,
                -1.2198365346001614,
                1.9988919095607818,
                -0.7495665708419584,
                0.8114227251388446,
                -3.121484789344237
            ]
        },
        {
            "positions": [
                -1.3825266502650773,
                -1.2687424741677065,
                1.988683696244737,
                -0.6963621576308292,
                0.9791557751683246,
                -3.120180684169627
            ]
        },
        {
            "positions": [
                -1.4782996152144783,
                -1.3176484137352518,
                1.978475482928692,
                -0.6431577444197001,
                1.1468888251978049,
                -3.118876578995018
            ]
        },
        {
            "positions": [
                -1.5740725801638793,
                -1.366554353302797,
                1.968267269612647,
                -0.589953331208571,
                1.314621875227285,
                -3.1175724738204087
            ]
        },
        {
            "positions": [
                -1.66984554511328,
                -1.4154602928703424,
                1.9580590562966023,
                -0.5367489179974417,
                1.4823549252567652,
                -3.116268368645799
            ]
        }
    ]
}