{
    "goal": {
        "global_pose": {
            "orientation": {
                "w": 0.5084816217422485,
                "x": -0.49083608388900757,
                "y": 0.5182115435600281,
                "z": -0.4816462993621826
            },
            "position": {
                "x": 0.5540239810943604,
                "y": 0.030875300988554955,
                "z": 0.16403168439865112
            }
        },
        "name": "move_to_storage_A"
    },
    "id": "RRTConnect_move_to_storage_A_111",
    "joint_names": [
        "shoulder_pan_joint",
        "shoulder_lift_joint",
        "elbow_joint",
        "wrist_1_joint",
        "wrist_2_joint",
        "wrist_3_joint"
    ],
    "metrics": {
        "cart_traj_len": 0.3536382449830095,
        "distance_elbow_joint": 0.44960958202484824,
        "distance_shoulder_lift_joint": 0.23463731649716935,
        "distance_shoulder_pan_joint": 0.4642697213678974,
        "distance_wrist_1_joint": 0.24001181731978438,
        "distance_wrist_2_joint": 1.0920993770201592,
        "distance_wrist_3_joint": 0.10528422290303174,
        "smoothness": 8.881784197001252e-16,
        "time": 0.053327878,
        "traj_len": 1.6080771241246143,
        "weighted_distance": 2.031893618592986
    },
    "planner": "RRTConnect",
    "start": {
        "state": {
            "elbow_joint": 1.971548259319323,
            "shoulder_lift_joint": -1.1394851275133948,
            "shoulder_pan_joint": 0.1228115487234821,
            "wrist_1_joint": -0.7804723859257726,
            "wrist_2_joint": 0.12958671773740124,
            "wrist_3_joint": -3.192489227718131
        }
    },
    "waypoints": [
        {
            "positions": [
                0.1228115487234821,
                -1.1394851275133948,
                1.971548259319323,
                -0.7804723859257726,
                0.12958671773740124,
                -3.192489227718131
            ]
        },
        {
            "positions": [
                0.056487302813782475,
                -1.1730047441558475,
                2.035778199608587,
                -0.8147597884000275,
                0.2856009144545668,
                -3.1774486244462694
            ]
        },
        {
            "positions": [
                -0.00983694309591715,
                -1.2065243607983003,
                2.100008139897851,
                -0.8490471908742825,
                0.44161511117173247,
                -3.1624080211744077
            ]
        },
        {
            "positions": [
                -0.07616118900561678,
                -1.240043977440753,
                2.1642380801871153,
                -0.8833345933485374,
                0.597629307888898,
                -3.147367417902546
            ]
        },
        {
            "positions": [
                -0.1424854349153164,
                -1.273563594083206,
                2.228468020476379,
                -0.9176219958227922,
                0.7536435046060637,
                -3.1323268146306846
            ]
        },
        {
            "positions": [
                -0.20880968082501605,
                -1.3070832107256587,
                2.292697960765643,
                -0.9519093982970472,
                0.9096577013232293,
                -3.117286211358823
            ]
        },
        {
            "positions": [
                -0.27513392673471565,
                -1.3406028273681114,
                2.3569279010549073,
                -0.986196800771302,
                1.0656718980403947,
                -3.102245608086961
            ]
        },
        {
            "positions": [
                -0.3414581726444153,
                -1.3741224440105642,
                2.4211578413441712,
                -1.020484203245557,
                1.2216860947575605,
                -3.0872050048150994
            ]
        }
    ]
}{
    "goal": {
        "global_pose": {
            "orientation": {
                "w": 0.5084816217422485,
                "x": -0.49083608388900757,
                "y": 0.5182115435600281,
                "z": -0.4816462993621826
            },
            "position": {
                "x": 0.5540239810943604,
                "y": 0.030875300988554955,
                "z": 0.16403168439865112
            }
        },
        "name": "move_to_storage_A"
    },
    "id": "RRTConnect_move_to_storage_A_111",
    "joint_names": [
        "shoulder_pan_joint",
        "shoulder_lift_joint",
        "elbow_joint",
        "wrist_1_joint",
        "wrist_2_joint",
        "wrist_3_joint"
    ],
    "metrics": {
        "cart_traj_len": 0.3535359147594446,
        "distance_elbow_joint": 0.44971113432657717,
        "distance_shoulder_lift_joint": 0.23636165800293574,
        "distance_shoulder_pan_joint": 0.46446605161757887,
        "distance_wrist_1_joint": 0.23997342106520225,
        "distance_wrist_2_joint": 1.0911176452252396,
        "distance_wrist_3_joint": 0.10444456392821211,
        "smoothness": 0.0,
        "time": 0.05495702500000001,
        "traj_len": 1.6081276299366745,
        "weighted_distance": 2.0312692259551937
    },
    "planner": "RRTConnect",
    "start": {
        "state": {
            "elbow_joint": 1.97154746011099,
            "shoulder_lift_joint": -1.13948474672311,
            "shoulder_pan_joint": 0.12281154466712228,
            "wrist_1_joint": -0.7804688027058302,
            "wrist_2_joint": 0.12958655903071145,
            "wrist_3_joint": 3.0906928834467795
        }
    },
    "waypoints": [
        {
            "positions": [
                0.12281154466712228,
                -1.13948474672311,
                1.97154746011099,
                -0.7804688027058302,
                0.12958655903071145,
                3.0906928834467795
            ]
        },
        {
            "positions": [
                0.05645925157889674,
                -1.1732506978663866,
                2.0357919078719293,
                -0.8147507200008591,
                0.2854605083486028,
                3.105613535436524
            ]
        },
        {
            "positions": [
                -0.009893041509328807,
                -1.207016649009663,
                2.100036355632869,
                -0.849032637295888,
                0.44133445766649415,
                3.120534187426269
            ]
        },
        {
            "positions": [
                -0.07624533459755435,
                -1.2407826001529396,
                2.1642808033938086,
                -0.8833145545909169,
                0.5972084069843855,
                3.1354548394160133
            ]
        },
        {
            "positions": [
                -0.14259762768577988,
                -1.274548551296216,
                2.2285252511547484,
                -0.9175964718859457,
                0.7530823563022769,
                3.150375491405758
            ]
        },
        {
            "positions": [
                -0.20894992077400548,
                -1.3083145024394927,
                2.292769698915688,
                -0.9518783891809747,
                0.9089563056201684,
                3.1652961433955022
            ]
        },
        {
            "positions": [
                -0.27530221386223097,
                -1.342080453582769,
                2.3570141466766277,
                -0.9861603064760035,
                1.0648302549380595,
                3.180216795385247
            ]
        },
        {
            "positions": [
                -0.34165450695045657,
                -1.3758464047260457,
                2.421258594437567,
                -1.0204422237710324,
                1.220704204255951,
                3.1951374473749916
            ]
        }
    ]
}{
    "goal": {
        "global_pose": {
            "orientation": {
                "w": 0.5084816217422485,
                "x": -0.49083608388900757,
                "y": 0.5182115435600281,
                "z": -0.4816462993621826
            },
            "position": {
                "x": 0.5540239810943604,
                "y": 0.030875300988554955,
                "z": 0.16403168439865112
            }
        },
        "name": "move_to_storage_A"
    },
    "id": "RRTConnect_move_to_storage_A_111",
    "joint_names": [
        "shoulder_pan_joint",
        "shoulder_lift_joint",
        "elbow_joint",
        "wrist_1_joint",
        "wrist_2_joint",
        "wrist_3_joint"
    ],
    "metrics": {
        "cart_traj_len": 0.35406276876449105,
        "distance_elbow_joint": 0.45058923451415955,
        "distance_shoulder_lift_joint": 0.2335182626868264,
        "distance_shoulder_pan_joint": 0.45981727745557804,
        "distance_wrist_1_joint": 0.24754476514846258,
        "distance_wrist_2_joint": 1.1138896927251924,
        "distance_wrist_3_joint": 0.10710545207032895,
        "smoothness": 4.440892098500626e-16,
        "time": 0.054384252,
        "traj_len": 1.6163120628766425,
        "weighted_distance": 2.046487245651646
    },
    "planner": "RRTConnect",
    "start": {
        "state": {
            "elbow_joint": 1.9715472970024885,
            "shoulder_lift_joint": -1.1394870060712896,
            "shoulder_pan_joint": 0.12281152778156021,
            "wrist_1_joint": -0.780463741449964,
            "wrist_2_joint": 0.12958659822042276,
            "wrist_3_joint": 3.090690232415272
        }
    },
    "waypoints": [
        {
            "positions": [
                0.12281152778156021,
                -1.1394870060712896,
                1.9715472970024885,
                -0.780463741449964,
                0.12958659822042276,
                3.090690232415272
            ]
        },
        {
            "positions": [
                0.05712334528790622,
                -1.1728467578836934,
                2.0359171876473683,
                -0.8158272793283158,
                0.2887136971811645,
                3.1059910112824616
            ]
        },
        {
            "positions": [
                -0.008564837205747772,
                -1.2062065096960972,
                2.1002870782922485,
                -0.8511908172066676,
                0.4478407961419063,
                3.1212917901496517
            ]
        },
        {
            "positions": [
                -0.07425301969940176,
                -1.239566261508501,
                2.1646569689371282,
                -0.8865543550850193,
                0.606967895102648,
                3.1365925690168415
            ]
        },
        {
            "positions": [
                -0.13994120219305575,
                -1.2729260133209046,
                2.2290268595820084,
                -0.9219178929633711,
                0.7660949940633898,
                3.151893347884031
            ]
        },
        {
            "positions": [
                -0.2056293846867098,
                -1.3062857651333084,
                2.293396750226888,
                -0.957281430841723,
                0.9252220930241316,
                3.167194126751221
            ]
        },
        {
            "positions": [
                -0.2713175671803637,
                -1.3396455169457122,
                2.357766640871768,
                -0.9926449687200748,
                1.0843491919848733,
                3.182494905618411
            ]
        },
        {
            "positions": [
                -0.3370057496740178,
                -1.373005268758116,
                2.422136531516648,
                -1.0280085065984266,
                1.2434762909456152,
                3.197795684485601
            ]
        }
    ]
}