{
    "goal": {
        "global_pose": {
            "orientation": {
                "w": -0.00223480608172531,
                "x": 0.0024358444001904467,
                "y": 0.7094548369677653,
                "z": -0.704743149386269
            },
            "position": {
                "x": 0.6205249238014221,
                "y": -0.6371506643295288,
                "z": 0.19426114857196808
            }
        },
        "name": "move_to_magneteinheit_B"
    },
    "id": "RRTConnect_move_to_magneteinheit_B_18",
    "joint_names": [
        "shoulder_pan_joint",
        "shoulder_lift_joint",
        "elbow_joint",
        "wrist_1_joint",
        "wrist_2_joint",
        "wrist_3_joint"
    ],
    "metrics": {
        "cart_traj_len": 3.3200177759708214,
        "distance_elbow_joint": 4.335613217923331,
        "distance_shoulder_lift_joint": 1.0595132735744586,
        "distance_shoulder_pan_joint": 2.5214252416046485,
        "distance_wrist_1_joint": 3.0801862656840058,
        "distance_wrist_2_joint": 1.3659346396827545,
        "distance_wrist_3_joint": 1.327077372866818,
        "smoothness": 0.3394861534159919,
        "time": 0.10440731,
        "traj_len": 3.699966217593887,
        "weighted_distance": 4.559608060177586
    },
    "planner": "RRTConnect",
    "start": {
        "state": {
            "elbow_joint": 2.6216224122426386,
            "shoulder_lift_joint": -1.4174107377796124,
            "shoulder_pan_joint": 0.7066234856936794,
            "wrist_1_joint": 1.9546482284002225,
            "wrist_2_joint": -0.7096286983471962,
            "wrist_3_joint": 0.005740856962016249
        }
    },
    "waypoints": [
        {
            "positions": [
                0.7066234856936794,
                -1.4174107377796124,
                2.6216224122426386,
                1.9546482284002225,
                -0.7096286983471962,
                0.005740856962016249
            ]
        },
        {
            "positions": [
                0.6676870182069745,
                -1.4624527651887118,
                2.5954597784653237,
                1.8562795314257325,
                -0.6727126764221959,
                0.0015859440836284528
            ]
        },
        {
            "positions": [
                0.6656297890755212,
                -1.4963287048932363,
                2.5027297098209385,
                1.666947674013112,
                -0.6583599308857124,
                -0.011322217071674506
            ]
        },
        {
            "positions": [
                0.6635725599440678,
                -1.5302046445977606,
                2.409999641176553,
                1.4776158166004916,
                -0.6440071853492291,
                -0.024230378226977465
            ]
        },
        {
            "positions": [
                0.6615153308126145,
                -1.5640805843022851,
                2.3172695725321684,
                1.2882839591878712,
                -0.6296544398127456,
                -0.03713853938228042
            ]
        },
        {
            "positions": [
                0.6594581016811611,
                -1.5979565240068094,
                2.224539503887783,
                1.0989521017752506,
                -0.6153016942762622,
                -0.05004670053758339
            ]
        },
        {
            "positions": [
                0.6574008725497078,
                -1.631832463711334,
                2.131809435243398,
                0.9096202443626302,
                -0.6009489487397788,
                -0.06295486169288633
            ]
        },
        {
            "positions": [
                0.7523350205619859,
                -1.6537213097897125,
                1.94384304468319,
                0.8603424067649117,
                -0.60537660644866,
                -0.092064294537096
            ]
        },
        {
            "positions": [
                0.847269168574264,
                -1.675610155868091,
                1.7558766541229822,
                0.8110645691671933,
                -0.6098042641575411,
                -0.12117372738130568
            ]
        },
        {
            "positions": [
                0.9422033165865422,
                -1.6974990019464693,
                1.5679102635627746,
                0.7617867315694747,
                -0.6142319218664223,
                -0.15028316022551536
            ]
        },
        {
            "positions": [
                1.0371374645988203,
                -1.719387848024848,
                1.3799438730025666,
                0.7125088939717563,
                -0.6186595795753034,
                -0.17939259306972502
            ]
        },
        {
            "positions": [
                1.1320716126110983,
                -1.7412766941032265,
                1.191977482442359,
                0.6632310563740378,
                -0.6230872372841846,
                -0.20850202591393469
            ]
        },
        {
            "positions": [
                1.2270057606233764,
                -1.7631655401816049,
                1.0040110918821512,
                0.6139532187763193,
                -0.6275148949930658,
                -0.23761145875814435
            ]
        },
        {
            "positions": [
                1.3219399086356547,
                -1.7850543862599833,
                0.8160447013219436,
                0.5646753811786008,
                -0.6319425527019469,
                -0.266720891602354
            ]
        },
        {
            "positions": [
                1.4168740566479328,
                -1.8069432323383618,
                0.6280783107617356,
                0.5153975435808823,
                -0.6363702104108281,
                -0.2958303244465637
            ]
        },
        {
            "positions": [
                1.5118082046602108,
                -1.8288320784167404,
                0.440111920201528,
                0.4661197059831638,
                -0.6407978681197092,
                -0.3249397572907734
            ]
        },
        {
            "positions": [
                1.606742352672489,
                -1.8507209244951188,
                0.2521455296413202,
                0.41684186838544535,
                -0.6452255258285904,
                -0.35404919013498304
            ]
        },
        {
            "positions": [
                1.7016765006847672,
                -1.8726097705734974,
                0.06417913908111217,
                0.3675640307877268,
                -0.6496531835374716,
                -0.38315862297919273
            ]
        },
        {
            "positions": [
                1.7966106486970452,
                -1.8944986166518758,
                -0.12378725147909542,
                0.3182861931900084,
                -0.6540808412463527,
                -0.41226805582340237
            ]
        },
        {
            "positions": [
                1.8915447967093233,
                -1.9163874627302544,
                -0.311753642039303,
                0.26900835559228986,
                -0.6585084989552339,
                -0.44137748866761206
            ]
        },
        {
            "positions": [
                1.9864789447216014,
                -1.9382763088086328,
                -0.4997200325995106,
                0.21973051799457144,
                -0.662936156664115,
                -0.4704869215118217
            ]
        },
        {
            "positions": [
                2.0814130927338796,
                -1.9601651548870112,
                -0.6876864231597186,
                0.1704526803968529,
                -0.6673638143729962,
                -0.4995963543560314
            ]
        },
        {
            "positions": [
                2.176347240746158,
                -1.9820540009653898,
                -0.8756528137199266,
                0.12117484279913437,
                -0.6717914720818774,
                -0.5287057872002411
            ]
        },
        {
            "positions": [
                2.2712813887584358,
                -2.0039428470437683,
                -1.0636192042801342,
                0.07189700520141595,
                -0.6762191297907585,
                -0.5578152200444507
            ]
        },
        {
            "positions": [
                2.366215536770714,
                -2.0258316931221465,
                -1.2515855948403418,
                0.02261916760369742,
                -0.6806467874996397,
                -0.5869246528886605
            ]
        },
        {
            "positions": [
                2.461149684782992,
                -2.047720539200525,
                -1.4395519854005494,
                -0.026658669994021,
                -0.6850744452085208,
                -0.61603408573287
            ]
        },
        {
            "positions": [
                2.55608383279527,
                -2.0696093852789037,
                -1.6275183759607577,
                -0.0759365075917395,
                -0.689502102917402,
                -0.6451435185770797
            ]
        },
        {
            "positions": [
                2.6044592600115966,
                -2.105813812848084,
                -1.636834348657538,
                -0.003760918095635696,
                -0.5606576969782602,
                -0.5883621542705294
            ]
        },
        {
            "positions": [
                2.6528346872279234,
                -2.1420182404172645,
                -1.6461503213543185,
                0.06841467140046811,
                -0.43181329103911836,
                -0.5315807899639791
            ]
        },
        {
            "positions": [
                2.7012101144442497,
                -2.1782226679864447,
                -1.655466294051099,
                0.14059026089657192,
                -0.30296888509997655,
                -0.4747994256574287
            ]
        },
        {
            "positions": [
                2.7495855416605766,
                -2.214427095555625,
                -1.664782266747879,
                0.21276585039267573,
                -0.17412447916083473,
                -0.41801806135087843
            ]
        },
        {
            "positions": [
                2.797960968876903,
                -2.250631523124805,
                -1.6740982394446595,
                0.2849414398887795,
                -0.04528007322169281,
                -0.3612366970443281
            ]
        },
        {
            "positions": [
                2.8463363960932293,
                -2.2868359506939857,
                -1.68341421214144,
                0.3571170293848833,
                0.0835643327174489,
                -0.30445533273777775
            ]
        },
        {
            "positions": [
                2.894711823309556,
                -2.323040378263166,
                -1.6927301848382204,
                0.4292926188809872,
                0.2124087386565908,
                -0.2476739684312274
            ]
        },
        {
            "positions": [
                2.835988903884349,
                -2.361511286535892,
                -1.6874150296276023,
                0.5653857196858165,
                0.2791064622375211,
                -0.1779931066357601
            ]
        },
        {
            "positions": [
                2.7772659844591416,
                -2.3999821948086186,
                -1.6820998744169842,
                0.7014788204906459,
                0.3458041858184514,
                -0.10831224484029278
            ]
        },
        {
            "positions": [
                2.7185430650339346,
                -2.4384531030813448,
                -1.6767847192063658,
                0.8375719212954753,
                0.41250190939938175,
                -0.03863138304482547
            ]
        },
        {
            "positions": [
                2.6598201456087276,
                -2.476924011354071,
                -1.6714695639957478,
                0.9736650221003047,
                0.4791996329803121,
                0.031049478750641863
            ]
        }
    ]
}