{
    "goal": {
        "global_pose": {
            "orientation": {
                "w": 0.7047431468963623,
                "x": -0.7094548344612122,
                "y": 0.0024358443915843964,
                "z": -0.0022348060738295317
            },
            "position": {
                "x": 0.6094750761985779,
                "y": 0.3671506643295288,
                "z": 0.19426114857196808
            }
        },
        "name": "move_to_magneteinheit_A"
    },
    "id": "RRTConnect_move_to_magneteinheit_A_81",
    "joint_names": [
        "shoulder_pan_joint",
        "shoulder_lift_joint",
        "elbow_joint",
        "wrist_1_joint",
        "wrist_2_joint",
        "wrist_3_joint"
    ],
    "metrics": {
        "cart_traj_len": 3.1284165105771415,
        "distance_elbow_joint": 3.910605487833714,
        "distance_shoulder_lift_joint": 0.6257786557041498,
        "distance_shoulder_pan_joint": 3.2523126697499034,
        "distance_wrist_1_joint": 3.453143518826365,
        "distance_wrist_2_joint": 1.432769212724179,
        "distance_wrist_3_joint": 0.4170363883530176,
        "smoothness": 0.06708755600997642,
        "time": 0.099066588,
        "traj_len": 3.6182379597245014,
        "weighted_distance": 4.33723776630333
    },
    "planner": "RRTConnect",
    "start": {
        "state": {
            "elbow_joint": -1.9196185241190666,
            "shoulder_lift_joint": -1.2443396400964142,
            "shoulder_pan_joint": 2.6996025414629847,
            "wrist_1_joint": -1.5485510000780065,
            "wrist_2_joint": -1.5709468930060704,
            "wrist_3_joint": 0.4420197071253992
        }
    },
    "waypoints": [
        {
            "positions": [
                2.6996025414629847,
                -1.2443396400964142,
                -1.9196185241190666,
                -1.5485510000780065,
                -1.5709468930060704,
                0.4420197071253992
            ]
        },
        {
            "positions": [
                2.5671018422945973,
                -1.2479376713171377,
                -1.7849799276384621,
                -1.4632273122927597,
                -1.5484848938415603,
                0.43278528724836507
            ]
        },
        {
            "positions": [
                2.43460114312621,
                -1.251535702537861,
                -1.6503413311578576,
                -1.3779036245075131,
                -1.5260228946770502,
                0.42355086737133096
            ]
        },
        {
            "positions": [
                2.3021004439578228,
                -1.2551337337585846,
                -1.5157027346772534,
                -1.2925799367222663,
                -1.5035608955125401,
                0.41431644749429686
            ]
        },
        {
            "positions": [
                2.1695997447894353,
                -1.2587317649793082,
                -1.3810641381966489,
                -1.2072562489370195,
                -1.48109889634803,
                0.40508202761726275
            ]
        },
        {
            "positions": [
                2.037099045621048,
                -1.2623297962000315,
                -1.2464255417160444,
                -1.121932561151773,
                -1.45863689718352,
                0.39584760774022865
            ]
        },
        {
            "positions": [
                1.9045983464526604,
                -1.265927827420755,
                -1.11178694523544,
                -1.0366088733665264,
                -1.4361748980190099,
                0.38661318786319454
            ]
        },
        {
            "positions": [
                1.7720976472842729,
                -1.2695258586414784,
                -0.9771483487548356,
                -0.9512851855812795,
                -1.4137128988544998,
                0.37737876798616043
            ]
        },
        {
            "positions": [
                1.6395969481158854,
                -1.273123889862202,
                -0.8425097522742311,
                -0.8659614977960328,
                -1.3912508996899897,
                0.3681443481091263
            ]
        },
        {
            "positions": [
                1.507096248947498,
                -1.2767219210829255,
                -0.7078711557936266,
                -0.780637810010786,
                -1.3687889005254794,
                0.35890992823209217
            ]
        },
        {
            "positions": [
                1.3745955497791107,
                -1.2803199523036488,
                -0.5732325593130223,
                -0.6953141222255395,
                -1.3463269013609696,
                0.34967550835505806
            ]
        },
        {
            "positions": [
                1.2420948506107232,
                -1.2839179835243724,
                -0.4385939628324178,
                -0.6099904344402927,
                -1.3238649021964592,
                0.34044108847802396
            ]
        },
        {
            "positions": [
                1.109594151442336,
                -1.287516014745096,
                -0.3039553663518135,
                -0.5246667466550461,
                -1.3014029030319492,
                0.33120666860098985
            ]
        },
        {
            "positions": [
                0.9770934522739483,
                -1.2911140459658192,
                -0.1693167698712088,
                -0.4393430588697991,
                -1.278940903867439,
                0.32197224872395575
            ]
        },
        {
            "positions": [
                0.844592753105561,
                -1.2947120771865428,
                -0.03467817339060453,
                -0.3540193710845525,
                -1.256478904702929,
                0.31273782884692164
            ]
        },
        {
            "positions": [
                0.7120920539371738,
                -1.2983101084072664,
                0.09996042308999975,
                -0.26869568329930593,
                -1.234016905538419,
                0.30350340896988753
            ]
        },
        {
            "positions": [
                0.5795913547687861,
                -1.3019081396279897,
                0.23459901957060447,
                -0.18337199551405914,
                -1.2115549063739088,
                0.2942689890928534
            ]
        },
        {
            "positions": [
                0.4470906556003986,
                -1.3055061708487132,
                0.36923761605120875,
                -0.09804830772881235,
                -1.1890929072093988,
                0.28503456921581927
            ]
        },
        {
            "positions": [
                0.31458995643201115,
                -1.3091042020694368,
                0.5038762125318135,
                -0.012724619943565552,
                -1.1666309080448887,
                0.27580014933878516
            ]
        },
        {
            "positions": [
                0.18208925726362413,
                -1.3127022332901601,
                0.6385148090124178,
                0.07259906784168102,
                -1.1441689088803786,
                0.26656572946175106
            ]
        },
        {
            "positions": [
                0.04958855809523666,
                -1.3163002645108837,
                0.773153405493022,
                0.1579227556269276,
                -1.1217069097158685,
                0.25733130958471695
            ]
        },
        {
            "positions": [
                -0.08291214107315081,
                -1.319898295731607,
                0.9077920019736267,
                0.2432464434121746,
                -1.0992449105513584,
                0.24809688970768284
            ]
        },
        {
            "positions": [
                -0.21541284024153812,
                -1.3234963269523305,
                1.0424305984542312,
                0.3285701311974211,
                -1.0767829113868483,
                0.23886246983064874
            ]
        },
        {
            "positions": [
                -0.19254574010741385,
                -1.277949281985702,
                1.1246688269248308,
                0.4628699054990518,
                -0.9972890381428383,
                0.2184636524323405
            ]
        },
        {
            "positions": [
                -0.1696786399732896,
                -1.2324022370190733,
                1.2069070553954302,
                0.5971696798006825,
                -0.9177951648988284,
                0.19806483503403227
            ]
        },
        {
            "positions": [
                -0.14681153983916534,
                -1.1868551920524446,
                1.2891452838660298,
                0.7314694541023132,
                -0.8383012916548185,
                0.17766601763572404
            ]
        },
        {
            "positions": [
                -0.12394443970504108,
                -1.141308147085816,
                1.3713835123366294,
                0.865769228403944,
                -0.7588074184108085,
                0.1572672002374158
            ]
        },
        {
            "positions": [
                -0.10107733957091683,
                -1.0957611021191873,
                1.4536217408072287,
                1.0000690027055745,
                -0.6793135451667985,
                0.13686838283910757
            ]
        },
        {
            "positions": [
                -0.07821023943679259,
                -1.0502140571525587,
                1.535859969277828,
                1.1343687770072053,
                -0.5998196719227886,
                0.11646956544079934
            ]
        },
        {
            "positions": [
                -0.05534313930266832,
                -1.00466701218593,
                1.6180981977484277,
                1.2686685513088358,
                -0.5203257986787787,
                0.0960707480424911
            ]
        },
        {
            "positions": [
                -0.03247603916854405,
                -0.9591199672193013,
                1.7003364262190273,
                1.4029683256104668,
                -0.44083192543476857,
                0.07567193064418287
            ]
        },
        {
            "positions": [
                -0.009608939034419783,
                -0.9135729222526726,
                1.7825746546896268,
                1.5372680999120973,
                -0.36133805219075865,
                0.05527311324587464
            ]
        },
        {
            "positions": [
                0.013258161099704447,
                -0.868025877286044,
                1.8648128831602262,
                1.671567874213728,
                -0.28184417894674874,
                0.03487429584756642
            ]
        },
        {
            "positions": [
                0.05507692809130384,
                -0.8310530208111203,
                1.9173946799755348,
                1.7674636387632505,
                -0.22300740559628368,
                0.0304863339239551
            ]
        },
        {
            "positions": [
                0.09689569508290322,
                -0.7940801643361967,
                1.9699764767908432,
                1.8633594033127732,
                -0.16417063224581863,
                0.026098372000343782
            ]
        },
        {
            "positions": [
                0.12188444780384232,
                -0.7768743581040971,
                1.9909869637146476,
                1.9045925187483577,
                -0.13817768028189165,
                0.027213425228306037
            ]
        }
    ]
}