{
    "goal": {
        "global_pose": {
            "orientation": {
                "w": 0.005598929693374612,
                "x": 0.007748599140229565,
                "y": 0.7110244013736278,
                "z": -0.7031023480610252
            },
            "position": {
                "x": 0.1141497679147869,
                "y": -0.7141253447532654,
                "z": 0.3711530566215515
            }
        },
        "name": "move_to_auspresseinheit_B"
    },
    "id": "RRTConnect_move_to_auspresseinheit_B_129",
    "joint_names": [
        "shoulder_pan_joint",
        "shoulder_lift_joint",
        "elbow_joint",
        "wrist_1_joint",
        "wrist_2_joint",
        "wrist_3_joint"
    ],
    "metrics": {
        "cart_traj_len": 0.5640714276849431,
        "distance_elbow_joint": 0.06348507974945283,
        "distance_shoulder_lift_joint": 0.29407055985841746,
        "distance_shoulder_pan_joint": 0.5764346729075525,
        "distance_wrist_1_joint": 0.33443457319828185,
        "distance_wrist_2_joint": 0.9966147621218668,
        "distance_wrist_3_joint": 0.0034272735990406034,
        "smoothness": 5.075305295617109e-16,
        "time": 0.043696718,
        "traj_len": 1.5061430614103735,
        "weighted_distance": 1.8990447082554012
    },
    "planner": "RRTConnect",
    "start": {
        "state": {
            "elbow_joint": 2.0193083361928714,
            "shoulder_lift_joint": -1.1220246554650708,
            "shoulder_pan_joint": -1.0952077554168747,
            "wrist_1_joint": -0.8559753972642168,
            "wrist_2_joint": 0.4759566250798843,
            "wrist_3_joint": -3.1240929996934557
        }
    },
    "waypoints": [
        {
            "positions": [
                -1.0952077554168747,
                -1.1220246554650708,
                2.0193083361928714,
                -0.8559753972642168,
                0.4759566250798843,
                -3.1240929996934557
            ]
        },
        {
            "positions": [
                -1.1912802009014667,
                -1.1710364154414736,
                2.0087274895679625,
                -0.8002363017311698,
                0.6420590854335287,
                -3.1235217874269487
            ]
        },
        {
            "positions": [
                -1.2873526463860587,
                -1.2200481754178767,
                1.9981466429430539,
                -0.7444972061981229,
                0.8081615457871731,
                -3.1229505751604423
            ]
        },
        {
            "positions": [
                -1.383425091870651,
                -1.2690599353942795,
                1.987565796318145,
                -0.6887581106650759,
                0.9742640061408177,
                -3.1223793628939354
            ]
        },
        {
            "positions": [
                -1.4794975373552428,
                -1.3180716953706824,
                1.9769849496932361,
                -0.633019015132029,
                1.1403664664944622,
                -3.1218081506274284
            ]
        },
        {
            "positions": [
                -1.575569982839835,
                -1.3670834553470854,
                1.9664041030683275,
                -0.577279919598982,
                1.3064689268481067,
                -3.121236938360922
            ]
        },
        {
            "positions": [
                -1.671642428324427,
                -1.4160952153234883,
                1.9558232564434186,
                -0.5215408240659349,
                1.4725713872017512,
                -3.120665726094415
            ]
        }
    ]
}