{
    "goal": {
        "global_pose": {
            "orientation": {
                "w": -0.00223480608172531,
                "x": 0.0024358444001904467,
                "y": 0.7094548369677653,
                "z": -0.704743149386269
            },
            "position": {
                "x": -0.37947507619857795,
                "y": -0.6371506643295288,
                "z": 0.19426114857196808
            }
        },
        "name": "move_to_magneteinheit_C"
    },
    "id": "RRTConnect_move_to_magneteinheit_C_79",
    "joint_names": [
        "shoulder_pan_joint",
        "shoulder_lift_joint",
        "elbow_joint",
        "wrist_1_joint",
        "wrist_2_joint",
        "wrist_3_joint"
    ],
    "metrics": {
        "cart_traj_len": 2.727051320497084,
        "distance_elbow_joint": 1.7547099284149241,
        "distance_shoulder_lift_joint": 1.5228414161300077,
        "distance_shoulder_pan_joint": 1.6989619429546108,
        "distance_wrist_1_joint": 2.616815497435095,
        "distance_wrist_2_joint": 4.309323931601076,
        "distance_wrist_3_joint": 6.645592352928568,
        "smoothness": 0.6566722041438114,
        "time": 0.09369149900000001,
        "traj_len": 4.306767357248853,
        "weighted_distance": 6.226200221993954
    },
    "planner": "RRTConnect",
    "start": {
        "state": {
            "elbow_joint": 1.9565354010623817,
            "shoulder_lift_joint": -1.4165861575791021,
            "shoulder_pan_joint": -1.6717766225146293,
            "wrist_1_joint": -0.5286633292919765,
            "wrist_2_joint": 1.472756589071564,
            "wrist_3_joint": -3.1238370188695823
        }
    },
    "waypoints": [
        {
            "positions": [
                -1.6717766225146293,
                -1.4165861575791021,
                1.9565354010623817,
                -0.5286633292919765,
                1.472756589071564,
                -3.1238370188695823
            ]
        },
        {
            "positions": [
                -1.5813528410584332,
                -1.3479110151923683,
                1.944352318724206,
                -0.5025233729635598,
                1.4484772685732057,
                -3.024860693132944
            ]
        },
        {
            "positions": [
                -1.4909290596022369,
                -1.2792358728056346,
                1.93216923638603,
                -0.4763834166351431,
                1.4241979480748472,
                -2.925884367396305
            ]
        },
        {
            "positions": [
                -1.4005052781460408,
                -1.2105607304189008,
                1.9199861540478544,
                -0.45024346030672646,
                1.399918627576489,
                -2.8269080416596664
            ]
        },
        {
            "positions": [
                -1.4145067613026947,
                -1.2577470661481036,
                1.8843985006580224,
                -0.5146638992716093,
                1.2881371732945428,
                -2.706849454511684
            ]
        },
        {
            "positions": [
                -1.4285082444593487,
                -1.3049334018773067,
                1.8488108472681906,
                -0.579084338236492,
                1.1763557190125966,
                -2.586790867363702
            ]
        },
        {
            "positions": [
                -1.4425097276160024,
                -1.3521197376065095,
                1.8132231938783585,
                -0.6435047772013748,
                1.0645742647306504,
                -2.4667322802157194
            ]
        },
        {
            "positions": [
                -1.4565112107726563,
                -1.3993060733357123,
                1.7776355404885267,
                -0.7079252161662575,
                0.9527928104487042,
                -2.346673693067737
            ]
        },
        {
            "positions": [
                -1.4705126939293103,
                -1.4464924090649152,
                1.7420478870986946,
                -0.7723456551311403,
                0.8410113561667579,
                -2.2266151059197545
            ]
        },
        {
            "positions": [
                -1.4845141770859642,
                -1.493678744794118,
                1.7064602337088628,
                -0.8367660940960231,
                0.7292299018848117,
                -2.1065565187717725
            ]
        },
        {
            "positions": [
                -1.4985156602426182,
                -1.540865080523321,
                1.6708725803190307,
                -0.9011865330609059,
                0.6174484476028654,
                -1.98649793162379
            ]
        },
        {
            "positions": [
                -1.5125171433992721,
                -1.5880514162525239,
                1.6352849269291987,
                -0.9656069720257886,
                0.5056669933209194,
                -1.8664393444758078
            ]
        },
        {
            "positions": [
                -1.526518626555926,
                -1.6352377519817267,
                1.5996972735393669,
                -1.0300274109906713,
                0.39388553903897305,
                -1.7463807573278254
            ]
        },
        {
            "positions": [
                -1.5405201097125798,
                -1.6824240877109298,
                1.5641096201495348,
                -1.094447849955554,
                0.28210408475702686,
                -1.6263221701798432
            ]
        },
        {
            "positions": [
                -1.5545215928692337,
                -1.7296104234401324,
                1.528521966759703,
                -1.158868288920437,
                0.17032263047508067,
                -1.506263583031861
            ]
        },
        {
            "positions": [
                -1.5685230760258877,
                -1.7767967591693354,
                1.492934313369871,
                -1.2232887278853197,
                0.058541176193134384,
                -1.3862049958838785
            ]
        },
        {
            "positions": [
                -1.6308707177158093,
                -1.7447623908528689,
                1.4614077501112732,
                -1.2772827870998273,
                -0.03066040844987024,
                -1.263296419575998
            ]
        },
        {
            "positions": [
                -1.6932183594057308,
                -1.7127280225364023,
                1.4298811868526757,
                -1.331276846314335,
                -0.11986199309287486,
                -1.1403878432681172
            ]
        },
        {
            "positions": [
                -1.7555660010956524,
                -1.6806936542199358,
                1.398354623594078,
                -1.3852709055288424,
                -0.20906357773587952,
                -1.0174792669602366
            ]
        },
        {
            "positions": [
                -1.817913642785574,
                -1.6486592859034692,
                1.3668280603354805,
                -1.43926496474335,
                -0.2982651623788841,
                -0.8945706906523561
            ]
        },
        {
            "positions": [
                -1.8802612844754956,
                -1.6166249175870027,
                1.3353014970768828,
                -1.4932590239578576,
                -0.3874667470218888,
                -0.7716621143444753
            ]
        },
        {
            "positions": [
                -1.9426089261654171,
                -1.584590549270536,
                1.3037749338182851,
                -1.5472530831723652,
                -0.4766683316648934,
                -0.6487535380365947
            ]
        },
        {
            "positions": [
                -2.0049565678553387,
                -1.5525561809540696,
                1.2722483705596876,
                -1.6012471423868728,
                -0.5658699163078981,
                -0.5258449617287141
            ]
        },
        {
            "positions": [
                -2.0673042095452603,
                -1.5205218126376032,
                1.2407218073010902,
                -1.6552412016013802,
                -0.6550715009509026,
                -0.40293638542083354
            ]
        },
        {
            "positions": [
                -2.129651851235182,
                -1.4884874443211367,
                1.2091952440424925,
                -1.709235260815888,
                -0.7442730855939074,
                -0.2800278091129529
            ]
        },
        {
            "positions": [
                -2.1919994929251034,
                -1.45645307600467,
                1.1776686807838948,
                -1.7632293200303955,
                -0.833474670236912,
                -0.15711923280507212
            ]
        },
        {
            "positions": [
                -2.254347134615025,
                -1.4244187076882036,
                1.1461421175252973,
                -1.817223379244903,
                -0.9226762548799166,
                -0.034210656497191794
            ]
        },
        {
            "positions": [
                -2.3166947763049466,
                -1.392384339371737,
                1.1146155542666996,
                -1.8712174384594107,
                -1.011877839522921,
                0.08869791981068903
            ]
        },
        {
            "positions": [
                -2.395387021565356,
                -1.3418904435931474,
                1.1075988968379362,
                -1.9220029889447758,
                -1.084314505370892,
                0.19110257870405664
            ]
        },
        {
            "positions": [
                -2.4273139008086204,
                -1.3109366252379266,
                1.1668612722116114,
                -1.885692201447527,
                -1.0151247739923734,
                0.054734744119994405
            ]
        },
        {
            "positions": [
                -2.4592407800518847,
                -1.279982806882706,
                1.2261236475852864,
                -1.8493814139502784,
                -0.9459350426138549,
                -0.08163309046406783
            ]
        },
        {
            "positions": [
                -2.4911676592951486,
                -1.2490289885274852,
                1.2853860229589613,
                -1.8130706264530296,
                -0.8767453112353364,
                -0.2180009250481301
            ]
        },
        {
            "positions": [
                -2.523094538538413,
                -1.2180751701722645,
                1.3446483983326365,
                -1.776759838955781,
                -0.8075555798568178,
                -0.3543687596321923
            ]
        },
        {
            "positions": [
                -2.5550214177816772,
                -1.1871213518170436,
                1.4039107737063117,
                -1.7404490514585322,
                -0.7383658484782992,
                -0.4907365942162545
            ]
        },
        {
            "positions": [
                -2.586948297024941,
                -1.1561675334618229,
                1.4631731490799866,
                -1.7041382639612834,
                -0.6691761170997808,
                -0.6271044288003168
            ]
        },
        {
            "positions": [
                -2.6188751762682054,
                -1.1252137151066022,
                1.5224355244536616,
                -1.6678274764640348,
                -0.5999863857212622,
                -0.763472263384379
            ]
        },
        {
            "positions": [
                -2.6508020555114697,
                -1.0942598967513815,
                1.5816978998273368,
                -1.631516688966786,
                -0.5307966543427436,
                -0.8998400979684412
            ]
        },
        {
            "positions": [
                -2.642841705945162,
                -1.0944665592116811,
                1.6202896353066234,
                -1.5739880765061702,
                -0.4401479218608635,
                -1.0681388053325922
            ]
        },
        {
            "positions": [
                -2.634881356378855,
                -1.0946732216719806,
                1.6588813707859098,
                -1.5164594640455547,
                -0.3494991893789834,
                -1.236437512696743
            ]
        },
        {
            "positions": [
                -2.6269210068125473,
                -1.09487988413228,
                1.6974731062651962,
                -1.4589308515849388,
                -0.2588504568971033,
                -1.4047362200608942
            ]
        },
        {
            "positions": [
                -2.6189606572462396,
                -1.0950865465925796,
                1.7360648417444828,
                -1.401402239124323,
                -0.16820172441522319,
                -1.573034927425045
            ]
        },
        {
            "positions": [
                -2.6110003076799324,
                -1.0952932090528793,
                1.7746565772237695,
                -1.3438736266637075,
                -0.07755299193334309,
                -1.741333634789196
            ]
        },
        {
            "positions": [
                -2.6030399581136248,
                -1.0954998715131787,
                1.8132483127030559,
                -1.2863450142030917,
                0.013095740548536988,
                -1.9096323421533468
            ]
        },
        {
            "positions": [
                -2.584521140424661,
                -1.105043174804553,
                1.8418374567495357,
                -1.2247767106216472,
                0.10664468215413585,
                -2.085334889938707
            ]
        },
        {
            "positions": [
                -2.5660023227356965,
                -1.1145864780959274,
                1.8704266007960155,
                -1.163208407040203,
                0.2001936237597347,
                -2.2610374377240676
            ]
        },
        {
            "positions": [
                -2.5474835050467326,
                -1.1241297813873017,
                1.8990157448424954,
                -1.1016401034587584,
                0.2937425653653336,
                -2.436739985509428
            ]
        },
        {
            "positions": [
                -2.5289646873577687,
                -1.1336730846786762,
                1.9276048888889754,
                -1.040071799877314,
                0.3872915069709324,
                -2.6124425332947885
            ]
        },
        {
            "positions": [
                -2.510445869668805,
                -1.1432163879700505,
                1.9561940329354552,
                -0.9785034962958695,
                0.4808404485765313,
                -2.788145081080149
            ]
        },
        {
            "positions": [
                -2.4919270519798404,
                -1.1527596912614249,
                1.984783176981935,
                -0.9169351927144251,
                0.5743893901821302,
                -2.9638476288655093
            ]
        },
        {
            "positions": [
                -2.4734082342908765,
                -1.1623029945527992,
                2.013372321028415,
                -0.8553668891329806,
                0.6679383317877291,
                -3.1395501766508698
            ]
        }
    ]
}