{
    "goal": {
        "global_pose": {
            "orientation": {
                "w": 0.7047431493862688,
                "x": -0.7094548369677653,
                "y": 0.0024358444001904,
                "z": -0.0022348060817251984
            },
            "position": {
                "x": -0.39052492380142206,
                "y": 0.3671506643295288,
                "z": 0.19426114857196808
            }
        },
        "name": "move_to_magneteinheit_D"
    },
    "id": "RRTConnect_move_to_magneteinheit_D_6",
    "joint_names": [
        "shoulder_pan_joint",
        "shoulder_lift_joint",
        "elbow_joint",
        "wrist_1_joint",
        "wrist_2_joint",
        "wrist_3_joint"
    ],
    "metrics": {
        "cart_traj_len": 4.45083403832009,
        "distance_elbow_joint": 3.503132628904467,
        "distance_shoulder_lift_joint": 1.627732552347328,
        "distance_shoulder_pan_joint": 2.9960975374267256,
        "distance_wrist_1_joint": 2.091700509462576,
        "distance_wrist_2_joint": 2.668890958408732,
        "distance_wrist_3_joint": 3.9304642476105944,
        "smoothness": 0.3091045956084228,
        "time": 0.096121873,
        "traj_len": 4.100977741241767,
        "weighted_distance": 5.425821449075976
    },
    "planner": "RRTConnect",
    "start": {
        "state": {
            "elbow_joint": 0.749534889911806,
            "shoulder_lift_joint": -0.6476975780787326,
            "shoulder_pan_joint": -2.711696901376241,
            "wrist_1_joint": -0.07506478083263063,
            "wrist_2_joint": 0.43296659715538205,
            "wrist_3_joint": -3.14703540197715
        }
    },
    "waypoints": [
        {
            "positions": [
                -2.711696901376241,
                -0.6476975780787326,
                0.749534889911806,
                -0.07506478083263063,
                0.43296659715538205,
                -3.14703540197715
            ]
        },
        {
            "positions": [
                -2.7290922177416728,
                -0.7395000798524448,
                0.8095256510235626,
                -0.17084824613521835,
                0.3843650688896185,
                -3.078125520277482
            ]
        },
        {
            "positions": [
                -2.7464875341071044,
                -0.831302581626157,
                0.8695164121353193,
                -0.26663171143780606,
                0.335763540623855,
                -3.0092156385778144
            ]
        },
        {
            "positions": [
                -2.763882850472536,
                -0.9231050833998692,
                0.9295071732470759,
                -0.3624151767403938,
                0.28716201235809147,
                -2.9403057568781463
            ]
        },
        {
            "positions": [
                -2.671865659313172,
                -0.9625266654567838,
                0.8373732470445386,
                -0.3555793384008432,
                0.24329104358249498,
                -2.8278105294347173
            ]
        },
        {
            "positions": [
                -2.5798484681538074,
                -1.0019482475136983,
                0.7452393208420014,
                -0.3487435000612926,
                0.19942007480689852,
                -2.715315301991289
            ]
        },
        {
            "positions": [
                -2.4878312769944433,
                -1.0413698295706129,
                0.653105394639464,
                -0.3419076617217421,
                0.15554910603130204,
                -2.60282007454786
            ]
        },
        {
            "positions": [
                -2.395814085835079,
                -1.0807914116275275,
                0.5609714684369268,
                -0.3350718233821915,
                0.11167813725570558,
                -2.490324847104431
            ]
        },
        {
            "positions": [
                -2.3037968946757146,
                -1.120212993684442,
                0.46883754223438956,
                -0.3282359850426409,
                0.06780716848010912,
                -2.3778296196610023
            ]
        },
        {
            "positions": [
                -2.2117797035163504,
                -1.1596345757413566,
                0.3767036160318523,
                -0.3214001467030903,
                0.023936199704512606,
                -2.2653343922175733
            ]
        },
        {
            "positions": [
                -2.119762512356986,
                -1.199056157798271,
                0.2845696898293151,
                -0.3145643083635397,
                -0.019934769071083824,
                -2.1528391647741443
            ]
        },
        {
            "positions": [
                -2.0277453211976217,
                -1.2384777398551856,
                0.19243576362677772,
                -0.3077284700239892,
                -0.06380573784668031,
                -2.0403439373307157
            ]
        },
        {
            "positions": [
                -1.9357281300382576,
                -1.2778993219121002,
                0.10030183742424048,
                -0.3008926316844386,
                -0.10767670662227674,
                -1.9278487098872867
            ]
        },
        {
            "positions": [
                -1.8437109388788933,
                -1.3173209039690148,
                0.008167911221703239,
                -0.294056793344888,
                -0.15154767539787323,
                -1.815353482443858
            ]
        },
        {
            "positions": [
                -1.751693747719529,
                -1.3567424860259294,
                -0.08396601498083389,
                -0.2872209550053374,
                -0.19541864417346966,
                -1.7028582550004292
            ]
        },
        {
            "positions": [
                -1.6596765565601646,
                -1.396164068082844,
                -0.17609994118337124,
                -0.2803851166657868,
                -0.23928961294906625,
                -1.5903630275570002
            ]
        },
        {
            "positions": [
                -1.5676593654008002,
                -1.4355856501397586,
                -0.2682338673859086,
                -0.2735492783262362,
                -0.28316058172466263,
                -1.4778678001135712
            ]
        },
        {
            "positions": [
                -1.475642174241436,
                -1.4750072321966732,
                -0.36036779358844573,
                -0.2667134399866857,
                -0.3270315505002591,
                -1.3653725726701424
            ]
        },
        {
            "positions": [
                -1.3836249830820717,
                -1.5144288142535878,
                -0.4525017197909831,
                -0.2598776016471351,
                -0.3709025192758556,
                -1.2528773452267137
            ]
        },
        {
            "positions": [
                -1.2916077919227074,
                -1.5538503963105024,
                -0.5446356459935204,
                -0.2530417633075845,
                -0.4147734880514521,
                -1.140382117783285
            ]
        },
        {
            "positions": [
                -1.1995906007633432,
                -1.5932719783674167,
                -0.6367695721960576,
                -0.24620592496803392,
                -0.4586444568270486,
                -1.0278868903398561
            ]
        },
        {
            "positions": [
                -1.1075734096039789,
                -1.6326935604243313,
                -0.7289034983985949,
                -0.23937008662848336,
                -0.502515425602645,
                -0.9153916628964271
            ]
        },
        {
            "positions": [
                -1.0155562184446145,
                -1.672115142481246,
                -0.821037424601132,
                -0.23253424828893277,
                -0.5463863943782414,
                -0.8028964354529986
            ]
        },
        {
            "positions": [
                -0.9235390272852504,
                -1.7115367245381603,
                -0.9131713508036694,
                -0.22569840994938217,
                -0.5902573631538379,
                -0.6904012080095696
            ]
        },
        {
            "positions": [
                -0.831521836125886,
                -1.750958306595075,
                -1.0053052770062065,
                -0.2188625716098316,
                -0.6341283319294344,
                -0.5779059805661406
            ]
        },
        {
            "positions": [
                -0.7395046449665217,
                -1.7903798886519895,
                -1.0974392032087437,
                -0.21202673327028101,
                -0.6779993007050308,
                -0.4654107531227121
            ]
        },
        {
            "positions": [
                -0.6474874538071571,
                -1.829801470708904,
                -1.1895731294112815,
                -0.20519089493073042,
                -0.7218702694806275,
                -0.35291552567928264
            ]
        },
        {
            "positions": [
                -0.555470262647793,
                -1.8692230527658187,
                -1.2817070556138184,
                -0.19835505659117983,
                -0.765741238256224,
                -0.2404202982358541
            ]
        },
        {
            "positions": [
                -0.46345307148842885,
                -1.9086446348227333,
                -1.3738409818163557,
                -0.19151921825162926,
                -0.8096122070318205,
                -0.1279250707924251
            ]
        },
        {
            "positions": [
                -0.37143588032906427,
                -1.9480662168796479,
                -1.465974908018893,
                -0.18468337991207867,
                -0.8534831758074167,
                -0.015429843348996108
            ]
        },
        {
            "positions": [
                -0.27941868916970014,
                -1.9874877989365625,
                -1.5581088342214304,
                -0.1778475415725281,
                -0.8973541445830132,
                0.09706538409443244
            ]
        },
        {
            "positions": [
                -0.187401498010336,
                -2.026909380993477,
                -1.6502427604239673,
                -0.1710117032329775,
                -0.9412251133586097,
                0.20956061153786143
            ]
        },
        {
            "positions": [
                -0.09538430685097143,
                -2.0663309630503917,
                -1.7423766866265047,
                -0.16417586489342695,
                -0.9850960821342062,
                0.32205583898129
            ]
        },
        {
            "positions": [
                -0.0033671156916072753,
                -2.1057525451073063,
                -1.834510612829042,
                -0.15734002655387636,
                -1.0289670509098026,
                0.43455106642471886
            ]
        },
        {
            "positions": [
                -0.009667812000679957,
                -2.1199399716815597,
                -1.8988058668089303,
                -0.002601236180830163,
                -0.9195828101774968,
                0.40851470659376854
            ]
        },
        {
            "positions": [
                -0.01596850830975264,
                -2.134127398255813,
                -1.9631011207888185,
                0.15213755419221603,
                -0.810198569445191,
                0.3824783467628182
            ]
        },
        {
            "positions": [
                -0.02226920461882532,
                -2.1483148248300665,
                -2.0273963747687067,
                0.3068763445652622,
                -0.7008143287128852,
                0.35644198693186785
            ]
        },
        {
            "positions": [
                -0.028569900927898004,
                -2.1625022514043195,
                -2.091691628748595,
                0.4616151349383084,
                -0.5914300879805793,
                0.33040562710091753
            ]
        },
        {
            "positions": [
                -0.03487059723697069,
                -2.176689677978573,
                -2.155986882728483,
                0.6163539253113547,
                -0.4820458472482734,
                0.30436926726996716
            ]
        },
        {
            "positions": [
                -0.04117129354604337,
                -2.1908771045528264,
                -2.2202821367083714,
                0.7710927156844007,
                -0.3726616065159677,
                0.27833290743901684
            ]
        },
        {
            "positions": [
                -0.047471989855116054,
                -2.20506453112708,
                -2.2845773906882596,
                0.925831506057447,
                -0.2632773657836618,
                0.2522965476080665
            ]
        },
        {
            "positions": [
                -0.08229473470161455,
                -2.222655930951825,
                -2.3118463360967247,
                1.05485736374669,
                -0.15296045947931033,
                0.2106407325100482
            ]
        },
        {
            "positions": [
                -0.11711747954811307,
                -2.2402473307765702,
                -2.3391152815051903,
                1.183883221435933,
                -0.04264355317495888,
                0.16898491741202987
            ]
        },
        {
            "positions": [
                -0.15194022439461158,
                -2.2578387306013155,
                -2.3663842269136555,
                1.312909079125176,
                0.0676733531293926,
                0.12732910231401154
            ]
        },
        {
            "positions": [
                -0.18676296924111008,
                -2.2754301304260607,
                -2.3936531723221206,
                1.441934936814419,
                0.17799025943374402,
                0.0856732872159932
            ]
        }
    ]
}