{
    "goal": {
        "global_pose": {
            "orientation": {
                "w": 0.005598929693374612,
                "x": 0.007748599140229565,
                "y": 0.7110244013736278,
                "z": -0.7031023480610252
            },
            "position": {
                "x": -0.8858502320852131,
                "y": -0.7141253447532654,
                "z": 0.3711530566215515
            }
        },
        "name": "move_to_auspresseinheit_C"
    },
    "id": "RRTConnect_move_to_auspresseinheit_C_46",
    "joint_names": [
        "shoulder_pan_joint",
        "shoulder_lift_joint",
        "elbow_joint",
        "wrist_1_joint",
        "wrist_2_joint",
        "wrist_3_joint"
    ],
    "metrics": {
        "cart_traj_len": 0.4942635603314838,
        "distance_elbow_joint": 1.013650318620694,
        "distance_shoulder_lift_joint": 0.3308558700463662,
        "distance_shoulder_pan_joint": 0.2564187550453556,
        "distance_wrist_1_joint": 0.7058687966789867,
        "distance_wrist_2_joint": 1.3097070895601222,
        "distance_wrist_3_joint": 0.06765839181742406,
        "smoothness": 0.0,
        "time": 0.058655958999999994,
        "traj_len": 1.9194163752997808,
        "weighted_distance": 2.4155852068687014
    },
    "planner": "RRTConnect",
    "start": {
        "state": {
            "elbow_joint": 1.7527959577737207,
            "shoulder_lift_joint": -0.9740617694225068,
            "shoulder_pan_joint": -2.967991417825858,
            "wrist_1_joint": -0.759517768980727,
            "wrist_2_joint": 1.7443932448377408,
            "wrist_3_joint": -3.0840537646736568
        }
    },
    "waypoints": [
        {
            "positions": [
                -2.967991417825858,
                -0.9740617694225068,
                1.7527959577737207,
                -0.759517768980727,
                1.7443932448377408,
                -3.0840537646736568
            ]
        },
        {
            "positions": [
                -2.942349542321322,
                -0.9409761824178702,
                1.6514309259116513,
                -0.6889308893128283,
                1.6134225358817287,
                -3.0908196038553992
            ]
        },
        {
            "positions": [
                -2.916707666816787,
                -0.9078905954132336,
                1.550065894049582,
                -0.6183440096449296,
                1.4824518269257163,
                -3.0975854430371417
            ]
        },
        {
            "positions": [
                -2.8910657913122515,
                -0.8748050084085969,
                1.4487008621875126,
                -0.547757129977031,
                1.3514811179697042,
                -3.104351282218884
            ]
        },
        {
            "positions": [
                -2.8654239158077157,
                -0.8417194214039603,
                1.347335830325443,
                -0.4771702503091323,
                1.2205104090136918,
                -3.1111171214006266
            ]
        },
        {
            "positions": [
                -2.83978204030318,
                -0.8086338343993237,
                1.2459707984633737,
                -0.4065833706412336,
                1.0895397000576796,
                -3.117882960582369
            ]
        },
        {
            "positions": [
                -2.8141401647986446,
                -0.7755482473946871,
                1.1446057666013043,
                -0.33599649097333495,
                0.9585689911016676,
                -3.124648799764111
            ]
        },
        {
            "positions": [
                -2.7884982892941093,
                -0.7424626603900505,
                1.043240734739235,
                -0.26540961130543633,
                0.8275982821456553,
                -3.1314146389458535
            ]
        },
        {
            "positions": [
                -2.7628564137895735,
                -0.7093770733854139,
                0.9418757028771654,
                -0.1948227316375376,
                0.696627573189643,
                -3.138180478127596
            ]
        },
        {
            "positions": [
                -2.7372145382850377,
                -0.6762914863807772,
                0.840510671015096,
                -0.12423585196963893,
                0.5656568642336308,
                -3.1449463173093384
            ]
        },
        {
            "positions": [
                -2.7115726627805024,
                -0.6432058993761406,
                0.7391456391530266,
                -0.05364897230174024,
                0.43468615527761867,
                -3.151712156491081
            ]
        }
    ]
}