{
    "goal": {
        "global_pose": {
            "orientation": {
                "w": 0.005598929693374612,
                "x": 0.007748599140229565,
                "y": 0.7110244013736278,
                "z": -0.7031023480610252
            },
            "position": {
                "x": -0.8858502320852131,
                "y": -0.7141253447532654,
                "z": 0.3711530566215515
            }
        },
        "name": "move_to_auspresseinheit_C"
    },
    "id": "RRTConnect_move_to_auspresseinheit_C_37",
    "joint_names": [
        "shoulder_pan_joint",
        "shoulder_lift_joint",
        "elbow_joint",
        "wrist_1_joint",
        "wrist_2_joint",
        "wrist_3_joint"
    ],
    "metrics": {
        "cart_traj_len": 0.4932753152076472,
        "distance_elbow_joint": 0.9917941937752501,
        "distance_shoulder_lift_joint": 0.3202584490629662,
        "distance_shoulder_pan_joint": 0.2573330137017531,
        "distance_wrist_1_joint": 0.6666358021251888,
        "distance_wrist_2_joint": 1.301849957172663,
        "distance_wrist_3_joint": 0.04241830972546623,
        "smoothness": 3.2297397335745243e-16,
        "time": 0.084624886,
        "traj_len": 1.8921653536526049,
        "weighted_distance": 2.3735231417266762
    },
    "planner": "RRTConnect",
    "start": {
        "state": {
            "elbow_joint": 1.7527959577737207,
            "shoulder_lift_joint": -0.9740617694225068,
            "shoulder_pan_joint": -2.967991417825858,
            "wrist_1_joint": -0.759517768980727,
            "wrist_2_joint": 1.7443932448377408,
            "wrist_3_joint": -3.0840537646736568
        }
    },
    "waypoints": [
        {
            "positions": [
                -2.967991417825858,
                -0.9740617694225068,
                1.7527959577737207,
                -0.759517768980727,
                1.7443932448377408,
                -3.0840537646736568
            ]
        },
        {
            "positions": [
                -2.9422581164556827,
                -0.9420359245162102,
                1.6536165383961956,
                -0.6928541887682081,
                1.6142082491204746,
                -3.0882955956462035
            ]
        },
        {
            "positions": [
                -2.9165248150855074,
                -0.9100100796099135,
                1.5544371190186705,
                -0.6261906085556892,
                1.4840232534032083,
                -3.09253742661875
            ]
        },
        {
            "positions": [
                -2.890791513715332,
                -0.8779842347036169,
                1.4552576996411457,
                -0.5595270283431704,
                1.353838257685942,
                -3.0967792575912965
            ]
        },
        {
            "positions": [
                -2.865058212345157,
                -0.8459583897973203,
                1.3560782802636207,
                -0.49286344813065147,
                1.2236532619686757,
                -3.101021088563843
            ]
        },
        {
            "positions": [
                -2.839324910974981,
                -0.8139325448910237,
                1.2568988608860956,
                -0.4261998679181326,
                1.0934682662514095,
                -3.10526291953639
            ]
        },
        {
            "positions": [
                -2.813591609604806,
                -0.7819066999847271,
                1.1577194415085708,
                -0.3595362877056137,
                0.9632832705341431,
                -3.1095047505089366
            ]
        },
        {
            "positions": [
                -2.7878583082346307,
                -0.7498808550784305,
                1.0585400221310457,
                -0.29287270749309485,
                0.8330982748168768,
                -3.1137465814814833
            ]
        },
        {
            "positions": [
                -2.7621250068644554,
                -0.7178550101721338,
                0.9593606027535205,
                -0.22620912728057596,
                0.7029132790996104,
                -3.1179884124540296
            ]
        },
        {
            "positions": [
                -2.73639170549428,
                -0.6858291652658373,
                0.8601811833759955,
                -0.15954554706805701,
                0.5727282833823442,
                -3.1222302434265763
            ]
        },
        {
            "positions": [
                -2.710658404124105,
                -0.6538033203595406,
                0.7610017639984705,
                -0.09288196685553822,
                0.44254328766507794,
                -3.126472074399123
            ]
        }
    ]
}