{
    "goal": {
        "global_pose": {
            "orientation": {
                "w": 0.7031023502349854,
                "x": -0.7110244035720825,
                "y": 0.007748599164187908,
                "z": 0.005598929710686207
            },
            "position": {
                "x": 0.11585023208521307,
                "y": 0.44412534475326537,
                "z": 0.3711530566215515
            }
        },
        "name": "move_to_auspresseinheit_A"
    },
    "id": "RRTConnect_move_to_auspresseinheit_A_78",
    "joint_names": [
        "shoulder_pan_joint",
        "shoulder_lift_joint",
        "elbow_joint",
        "wrist_1_joint",
        "wrist_2_joint",
        "wrist_3_joint"
    ],
    "metrics": {
        "cart_traj_len": 0.7304108063369703,
        "distance_elbow_joint": 0.02792633530068267,
        "distance_shoulder_lift_joint": 0.6081513802031666,
        "distance_shoulder_pan_joint": 1.0953705516455639,
        "distance_wrist_1_joint": 0.6867243647738399,
        "distance_wrist_2_joint": 0.5172606931486354,
        "distance_wrist_3_joint": 0.025667369985153066,
        "smoothness": 2.952626795623002,
        "time": 0.06293619,
        "traj_len": 1.7207849066798098,
        "weighted_distance": 2.053392435203223
    },
    "planner": "RRTConnect",
    "start": {
        "state": {
            "elbow_joint": 2.4225746658250005,
            "shoulder_lift_joint": -1.3736534386056498,
            "shoulder_pan_joint": -0.3378633547517467,
            "wrist_1_joint": -1.0288598680537169,
            "wrist_2_joint": 1.233022673432363,
            "wrist_3_joint": -3.0940220416140027
        }
    },
    "waypoints": [
        {
            "positions": [
                -0.3378633547517467,
                -1.3736534386056498,
                2.4225746658250005,
                -1.0288598680537169,
                1.233022673432363,
                -3.0940220416140027
            ]
        },
        {
            "positions": [
                -0.204010786704375,
                -1.4452826943493664,
                2.41921673882279,
                -0.9514260503918898,
                1.1688451162978837,
                -3.0965121434960183
            ]
        },
        {
            "positions": [
                -0.07015821865700328,
                -1.516911950093083,
                2.41585881182058,
                -0.8739922327300627,
                1.1046675591634043,
                -3.099002245378034
            ]
        },
        {
            "positions": [
                0.06369434939036844,
                -1.5885412058367996,
                2.41250088481837,
                -0.7965584150682357,
                1.040490002028925,
                -3.1014923472600495
            ]
        },
        {
            "positions": [
                0.19754691743774017,
                -1.6601704615805164,
                2.40914295781616,
                -0.7191245974064085,
                0.9763124448944455,
                -3.103982449142065
            ]
        },
        {
            "positions": [
                0.33139948548511183,
                -1.731799717324233,
                2.4057850308139495,
                -0.6416907797445814,
                0.9121348877599661,
                -3.1064725510240807
            ]
        },
        {
            "positions": [
                0.4652520535324836,
                -1.8034289730679496,
                2.4024271038117395,
                -0.5642569620827544,
                0.8479573306254866,
                -3.1089626529060963
            ]
        },
        {
            "positions": [
                0.5991046215798554,
                -1.8750582288116662,
                2.3990691768095296,
                -0.48682314442092733,
                0.7837797734910072,
                -3.111452754788112
            ]
        },
        {
            "positions": [
                0.7329571896272271,
                -1.9466874845553828,
                2.395711249807319,
                -0.4093893267591002,
                0.7196022163565279,
                -3.1139428566701275
            ]
        },
        {
            "positions": [
                0.7084071823606369,
                -1.911570150301949,
                2.3967741690903206,
                -0.47664315023832354,
                0.7157619802837276,
                -3.119689411599156
            ]
        }
    ]
}