{
    "goal": {
        "global_pose": {
            "orientation": {
                "w": -0.4816463035849501,
                "x": 0.5182115481033762,
                "y": 0.4908360881923453,
                "z": -0.5084816262002911
            },
            "position": {
                "x": -0.8240239810943604,
                "y": -0.300875300988555,
                "z": 0.16403168439865112
            }
        },
        "name": "move_to_storage_C"
    },
    "id": "RRTConnect_move_to_storage_C_28",
    "joint_names": [
        "shoulder_pan_joint",
        "shoulder_lift_joint",
        "elbow_joint",
        "wrist_1_joint",
        "wrist_2_joint",
        "wrist_3_joint"
    ],
    "metrics": {
        "cart_traj_len": 0.5768842926606164,
        "distance_elbow_joint": 0.26217858633135793,
        "distance_shoulder_lift_joint": 0.18973643334146684,
        "distance_shoulder_pan_joint": 0.49429519647538234,
        "distance_wrist_1_joint": 0.08928081581237646,
        "distance_wrist_2_joint": 1.0678026677832801,
        "distance_wrist_3_joint": 0.06363302926370107,
        "smoothness": 0.0,
        "time": 0.172682616,
        "traj_len": 1.4720484805221479,
        "weighted_distance": 1.857761090972309
    },
    "planner": "RRTConnect",
    "start": {
        "state": {
            "elbow_joint": 2.010868314990456,
            "shoulder_lift_joint": -1.1634956873337592,
            "shoulder_pan_joint": -2.4736205022346125,
            "wrist_1_joint": -0.8367026794202681,
            "wrist_2_joint": 0.6746043897044499,
            "wrist_3_joint": -3.1496632123970403
        }
    },
    "waypoints": [
        {
            "positions": [
                -2.4736205022346125,
                -1.1634956873337592,
                2.010868314990456,
                -0.8367026794202681,
                0.6746043897044499,
                -3.1496632123970403
            ]
        },
        {
            "positions": [
                -2.5560030349805096,
                -1.1318729484435148,
                1.9671718839352295,
                -0.8218225434515387,
                0.8525715010016632,
                -3.1390577075197568
            ]
        },
        {
            "positions": [
                -2.6383855677264068,
                -1.1002502095532702,
                1.923475452880003,
                -0.8069424074828093,
                1.0305386122988767,
                -3.1284522026424733
            ]
        },
        {
            "positions": [
                -2.720768100472304,
                -1.0686274706630257,
                1.8797790218247767,
                -0.7920622715140799,
                1.2085057235960899,
                -3.1178466977651897
            ]
        },
        {
            "positions": [
                -2.8031506332182006,
                -1.0370047317727813,
                1.8360825907695506,
                -0.7771821355453504,
                1.3864728348933033,
                -3.1072411928879062
            ]
        },
        {
            "positions": [
                -2.8855331659640977,
                -1.005381992882537,
                1.7923861597143242,
                -0.762301999576621,
                1.5644399461905167,
                -3.0966356880106227
            ]
        },
        {
            "positions": [
                -2.967915698709995,
                -0.9737592539922924,
                1.7486897286590979,
                -0.7474218636078916,
                1.7424070574877302,
                -3.086030183133339
            ]
        }
    ]
}