{
    "goal": {
        "global_pose": {
            "orientation": {
                "w": 0.7047431493862688,
                "x": -0.7094548369677653,
                "y": 0.0024358444001904,
                "z": -0.0022348060817251984
            },
            "position": {
                "x": -0.39052492380142206,
                "y": 0.3671506643295288,
                "z": 0.19426114857196808
            }
        },
        "name": "move_to_magneteinheit_D"
    },
    "id": "RRTConnect_move_to_magneteinheit_D_51",
    "joint_names": [
        "shoulder_pan_joint",
        "shoulder_lift_joint",
        "elbow_joint",
        "wrist_1_joint",
        "wrist_2_joint",
        "wrist_3_joint"
    ],
    "metrics": {
        "cart_traj_len": 7.267946291128327,
        "distance_elbow_joint": 6.411517201181351,
        "distance_shoulder_lift_joint": 3.9388303245164336,
        "distance_shoulder_pan_joint": 9.113006499506483,
        "distance_wrist_1_joint": 2.60926719425929,
        "distance_wrist_2_joint": 2.9152004151027007,
        "distance_wrist_3_joint": 7.74654567148821,
        "smoothness": 0.5775681841741177,
        "time": 0.301284956,
        "traj_len": 5.721395573289306,
        "weighted_distance": 7.331570517862654
    },
    "planner": "RRTConnect",
    "start": {
        "state": {
            "elbow_joint": 0.749534889911806,
            "shoulder_lift_joint": -0.6476975780787326,
            "shoulder_pan_joint": -2.711696901376241,
            "wrist_1_joint": -0.07506478083263063,
            "wrist_2_joint": 0.43296659715538205,
            "wrist_3_joint": -3.14703540197715
        }
    },
    "waypoints": [
        {
            "positions": [
                -2.711696901376241,
                -0.6476975780787326,
                0.749534889911806,
                -0.07506478083263063,
                0.43296659715538205,
                -3.14703540197715
            ]
        },
        {
            "positions": [
                -2.700766494037927,
                -0.7270302516845599,
                0.8224992794430477,
                0.08223997182536913,
                0.44929211316765044,
                -3.1092868348015243
            ]
        },
        {
            "positions": [
                -2.6898360866996125,
                -0.8063629252903872,
                0.8954636689742894,
                0.2395447244833689,
                0.46561762917991883,
                -3.0715382676258987
            ]
        },
        {
            "positions": [
                -2.678905679361298,
                -0.8856955988962145,
                0.968428058505531,
                0.39684947714136865,
                0.48194314519218723,
                -3.033789700450273
            ]
        },
        {
            "positions": [
                -2.667975272022984,
                -0.9650282725020418,
                1.0413924480367727,
                0.5541542297993685,
                0.49826866120445557,
                -2.9960411332746473
            ]
        },
        {
            "positions": [
                -2.6570448646846696,
                -1.0443609461078691,
                1.1143568375680144,
                0.7114589824573683,
                0.514594177216724,
                -2.9582925660990216
            ]
        },
        {
            "positions": [
                -2.6461144573463553,
                -1.1236936197136964,
                1.1873212270992561,
                0.8687637351153679,
                0.5309196932289924,
                -2.920543998923396
            ]
        },
        {
            "positions": [
                -2.635184050008041,
                -1.2030262933195237,
                1.2602856166304979,
                1.0260684877733677,
                0.5472452092412607,
                -2.88279543174777
            ]
        },
        {
            "positions": [
                -2.6242536426697267,
                -1.282358966925351,
                1.3332500061617396,
                1.1833732404313675,
                0.5635707252535291,
                -2.8450468645721445
            ]
        },
        {
            "positions": [
                -2.5096435950048375,
                -1.2847385825622817,
                1.2177800840576885,
                1.1640897962097918,
                0.5197730363853168,
                -2.747557006589024
            ]
        },
        {
            "positions": [
                -2.3950335473399487,
                -1.2871181981992124,
                1.1023101619536373,
                1.1448063519882163,
                0.47597534751710435,
                -2.650067148605903
            ]
        },
        {
            "positions": [
                -2.2804234996750594,
                -1.289497813836143,
                0.9868402398495861,
                1.1255229077666407,
                0.432177658648892,
                -2.5525772906227826
            ]
        },
        {
            "positions": [
                -2.16581345201017,
                -1.2918774294730737,
                0.871370317745535,
                1.106239463545065,
                0.38837996978067957,
                -2.4550874326396617
            ]
        },
        {
            "positions": [
                -2.0512034043452814,
                -1.2942570451100044,
                0.7559003956414838,
                1.0869560193234893,
                0.34458228091246723,
                -2.357597574656541
            ]
        },
        {
            "positions": [
                -1.9365933566803921,
                -1.296636660746935,
                0.6404304735374328,
                1.0676725751019138,
                0.30078459204425484,
                -2.2601077166734203
            ]
        },
        {
            "positions": [
                -1.821983309015503,
                -1.2990162763838657,
                0.5249605514333816,
                1.0483891308803381,
                0.2569869031760425,
                -2.1626178586902998
            ]
        },
        {
            "positions": [
                -1.707373261350614,
                -1.3013958920207964,
                0.40949062932933045,
                1.0291056866587625,
                0.21318921430783005,
                -2.065128000707179
            ]
        },
        {
            "positions": [
                -1.5927632136857248,
                -1.303775507657727,
                0.2940207072252794,
                1.009822242437187,
                0.16939152543961772,
                -1.9676381427240583
            ]
        },
        {
            "positions": [
                -1.4781531660208358,
                -1.3061551232946578,
                0.17855078512122802,
                0.9905387982156113,
                0.12559383657140533,
                -1.8701482847409374
            ]
        },
        {
            "positions": [
                -1.3635431183559468,
                -1.3085347389315884,
                0.06308086301717708,
                0.9712553539940357,
                0.08179614770319299,
                -1.772658426757817
            ]
        },
        {
            "positions": [
                -1.2489330706910575,
                -1.3109143545685191,
                -0.05238905908687408,
                0.95197190977246,
                0.03799845883498054,
                -1.6751685687746962
            ]
        },
        {
            "positions": [
                -1.1343230230261685,
                -1.31329397020545,
                -0.16785898119092524,
                0.9326884655508845,
                -0.005799230033231795,
                -1.5776787107915755
            ]
        },
        {
            "positions": [
                -1.0197129753612795,
                -1.3156735858423807,
                -0.2833289032949764,
                0.9134050213293088,
                -0.04959691890144413,
                -1.4801888528084548
            ]
        },
        {
            "positions": [
                -0.9051029276963904,
                -1.3180532014793114,
                -0.39879882539902733,
                0.8941215771077333,
                -0.09339460776965647,
                -1.3826989948253343
            ]
        },
        {
            "positions": [
                -0.7904928800315012,
                -1.320432817116242,
                -0.5142687475030787,
                0.8748381328861576,
                -0.13719229663786903,
                -1.2852091368422134
            ]
        },
        {
            "positions": [
                -0.6758828323666122,
                -1.3228124327531727,
                -0.6297386696071299,
                0.855554688664582,
                -0.18098998550608136,
                -1.1877192788590927
            ]
        },
        {
            "positions": [
                -0.5612727847017229,
                -1.3251920483901034,
                -0.7452085917111808,
                0.8362712444430064,
                -0.2247876743742937,
                -1.0902294208759722
            ]
        },
        {
            "positions": [
                -0.4466627370368341,
                -1.327571664027034,
                -0.8606785138152317,
                0.8169878002214308,
                -0.26858536324250604,
                -0.9927395628928515
            ]
        },
        {
            "positions": [
                -0.3320526893719449,
                -1.3299512796639648,
                -0.9761484359192836,
                0.7977043559998551,
                -0.3123830521107185,
                -0.8952497049097305
            ]
        },
        {
            "positions": [
                -0.21744264170705563,
                -1.3323308953008954,
                -1.0916183580233345,
                0.7784209117782795,
                -0.3561807409789308,
                -0.7977598469266098
            ]
        },
        {
            "positions": [
                -0.10283259404216682,
                -1.3347105109378261,
                -1.2070882801273854,
                0.759137467556704,
                -0.39997842984714316,
                -0.7002699889434894
            ]
        },
        {
            "positions": [
                0.011777453622722422,
                -1.3370901265747568,
                -1.3225582022314364,
                0.7398540233351283,
                -0.4437761187153555,
                -0.6027801309603689
            ]
        },
        {
            "positions": [
                0.12638750128761167,
                -1.3394697422116875,
                -1.4380281243354878,
                0.7205705791135526,
                -0.48757380758356805,
                -0.5052902729772479
            ]
        },
        {
            "positions": [
                0.24099754895250092,
                -1.3418493578486181,
                -1.5534980464395391,
                0.7012871348919771,
                -0.5313714964517804,
                -0.407800414994127
            ]
        },
        {
            "positions": [
                0.3556075966173897,
                -1.3442289734855488,
                -1.6689679685435899,
                0.6820036906704015,
                -0.5751691853199927,
                -0.3103105570110063
            ]
        },
        {
            "positions": [
                0.4702520596886336,
                -1.2962376004521468,
                -1.624743940095876,
                0.7009583324107531,
                -0.5251950732274091,
                -0.20188800789939465
            ]
        },
        {
            "positions": [
                0.5848965227598775,
                -1.248246227418745,
                -1.5805199116481623,
                0.7199129741511048,
                -0.4752209611348255,
                -0.093465458787783
            ]
        },
        {
            "positions": [
                0.6995409858311215,
                -1.2002548543853429,
                -1.5362958832004485,
                0.7388676158914563,
                -0.42524684904224186,
                0.014957090323828637
            ]
        },
        {
            "positions": [
                0.8141854489023652,
                -1.152263481351941,
                -1.4920718547527347,
                0.757822257631808,
                -0.3752727369496583,
                0.12337963943544028
            ]
        },
        {
            "positions": [
                0.9288299119736092,
                -1.104272108318539,
                -1.447847826305021,
                0.7767768993721597,
                -0.3252986248570746,
                0.23180218854705192
            ]
        },
        {
            "positions": [
                1.0434743750448532,
                -1.0562807352851369,
                -1.4036237978573072,
                0.7957315411125112,
                -0.27532451276449105,
                0.34022473765866357
            ]
        },
        {
            "positions": [
                1.158118838116097,
                -1.008289362251735,
                -1.3593997694095934,
                0.8146861828528629,
                -0.22535040067190742,
                0.4486472867702752
            ]
        },
        {
            "positions": [
                1.2727633011873407,
                -0.9602979892183331,
                -1.3151757409618798,
                0.8336408245932145,
                -0.17537628857932386,
                0.5570698358818869
            ]
        },
        {
            "positions": [
                1.3874077642585847,
                -0.9123066161849311,
                -1.270951712514166,
                0.8525954663335662,
                -0.12540217648674024,
                0.6654923849934985
            ]
        },
        {
            "positions": [
                1.5020522273298287,
                -0.8643152431515291,
                -1.226727684066452,
                0.8715501080739179,
                -0.07542806439415656,
                0.7739149341051101
            ]
        },
        {
            "positions": [
                1.6166966904010724,
                -0.8163238701181271,
                -1.1825036556187385,
                0.8905047498142694,
                -0.02545395230157299,
                0.8823374832167217
            ]
        },
        {
            "positions": [
                1.7313411534723164,
                -0.7683324970847252,
                -1.1382796271710247,
                0.9094593915546211,
                0.02452015979101063,
                0.9907600323283334
            ]
        },
        {
            "positions": [
                1.8459856165435602,
                -0.7203411240513232,
                -1.094055598723311,
                0.9284140332949726,
                0.07449427188359425,
                1.099182581439945
            ]
        },
        {
            "positions": [
                1.9606300796148044,
                -0.6723497510179212,
                -1.0498315702755971,
                0.9473686750353243,
                0.12446838397617788,
                1.2076051305515567
            ]
        },
        {
            "positions": [
                2.0752745426860484,
                -0.6243583779845192,
                -1.0056075418278834,
                0.966323316775676,
                0.1744424960687615,
                1.3160276796631682
            ]
        },
        {
            "positions": [
                2.189919005757292,
                -0.5763670049511174,
                -0.9613835133801696,
                0.9852779585160276,
                0.224416608161345,
                1.42445022877478
            ]
        },
        {
            "positions": [
                2.304563468828536,
                -0.5283756319177153,
                -0.9171594849324557,
                1.0042326002563793,
                0.27439072025392874,
                1.5328727778863918
            ]
        },
        {
            "positions": [
                2.4192079318997797,
                -0.48038425888431335,
                -0.872935456484742,
                1.023187241996731,
                0.32436483234651226,
                1.6412953269980033
            ]
        },
        {
            "positions": [
                2.5338523949710234,
                -0.4323928858509114,
                -0.8287114280370282,
                1.0421418837370826,
                0.3743389444390959,
                1.7497178761096148
            ]
        },
        {
            "positions": [
                2.6484968580422676,
                -0.38440151281750934,
                -0.7844873995893143,
                1.061096525477434,
                0.4243130565316796,
                1.8581404252212266
            ]
        },
        {
            "positions": [
                2.7631413211135114,
                -0.3364101397841075,
                -0.7402633711416007,
                1.080051167217786,
                0.4742871686242631,
                1.9665629743328383
            ]
        },
        {
            "positions": [
                2.877785784184755,
                -0.28841876675070544,
                -0.6960393426938869,
                1.0990058089581374,
                0.5242612807168467,
                2.0749855234444494
            ]
        },
        {
            "positions": [
                2.9924302472559994,
                -0.24042739371730337,
                -0.6518153142461731,
                1.117960450698489,
                0.5742353928094304,
                2.1834080725560616
            ]
        },
        {
            "positions": [
                3.107074710327243,
                -0.19243602068390153,
                -0.6075912857984593,
                1.1369150924388407,
                0.624209504902014,
                2.2918306216676734
            ]
        },
        {
            "positions": [
                2.9803733684886664,
                -0.2728400966957465,
                -0.6754454176246502,
                1.1520900240336824,
                0.6070372862016671,
                2.2030737121352355
            ]
        },
        {
            "positions": [
                2.8536720266500892,
                -0.35324417270759145,
                -0.743299549450841,
                1.1672649556285244,
                0.5898650675013202,
                2.1143168026027976
            ]
        },
        {
            "positions": [
                2.7269706848115125,
                -0.4336482487194364,
                -0.8111536812770317,
                1.1824398872233661,
                0.5726928488009733,
                2.0255598930703593
            ]
        },
        {
            "positions": [
                2.6002693429729358,
                -0.5140523247312814,
                -0.8790078131032225,
                1.197614818818208,
                0.5555206301006262,
                1.9368029835379217
            ]
        },
        {
            "positions": [
                2.4735680011343586,
                -0.5944564007431263,
                -0.9468619449294133,
                1.2127897504130498,
                0.5383484114002793,
                1.8480460740054836
            ]
        },
        {
            "positions": [
                2.346866659295782,
                -0.6748604767549713,
                -1.014716076755604,
                1.2279646820078916,
                0.5211761926999324,
                1.7592891644730457
            ]
        },
        {
            "positions": [
                2.220165317457205,
                -0.7552645527668161,
                -1.082570208581795,
                1.2431396136027335,
                0.5040039739995855,
                1.6705322549406079
            ]
        },
        {
            "positions": [
                2.0934639756186284,
                -0.8356686287786611,
                -1.1504243404079857,
                1.2583145451975752,
                0.4868317552992386,
                1.58177534540817
            ]
        },
        {
            "positions": [
                1.9667626337800515,
                -0.916072704790506,
                -1.2182784722341764,
                1.2734894767924172,
                0.4696595365988917,
                1.4930184358757321
            ]
        },
        {
            "positions": [
                1.8400612919414745,
                -0.996476780802351,
                -1.2861326040603673,
                1.288664408387259,
                0.45248731789854474,
                1.4042615263432938
            ]
        },
        {
            "positions": [
                1.7133599501028975,
                -1.0768808568141959,
                -1.353986735886558,
                1.3038393399821007,
                0.4353150991981978,
                1.315504616810856
            ]
        },
        {
            "positions": [
                1.5866586082643206,
                -1.157284932826041,
                -1.421840867712749,
                1.3190142715769426,
                0.41814288049785087,
                1.226747707278418
            ]
        },
        {
            "positions": [
                1.4599572664257439,
                -1.2376890088378858,
                -1.4896949995389397,
                1.3341892031717844,
                0.40097066179750396,
                1.1379907977459802
            ]
        },
        {
            "positions": [
                1.3332559245871671,
                -1.3180930848497308,
                -1.5575491313651304,
                1.349364134766626,
                0.38379844309715705,
                1.0492338882135424
            ]
        },
        {
            "positions": [
                1.2065545827485904,
                -1.3984971608615755,
                -1.6254032631913211,
                1.364539066361468,
                0.36662622439681014,
                0.9604769786811045
            ]
        },
        {
            "positions": [
                1.0798532409100132,
                -1.4789012368734207,
                -1.693257395017512,
                1.3797139979563098,
                0.3494540056964632,
                0.8717200691486664
            ]
        },
        {
            "positions": [
                0.9531518990714365,
                -1.5593053128852656,
                -1.761111526843703,
                1.3948889295511515,
                0.33228178699611627,
                0.7829631596162285
            ]
        },
        {
            "positions": [
                0.8264505572328598,
                -1.6397093888971104,
                -1.8289656586698937,
                1.4100638611459935,
                0.31510956829576936,
                0.6942062500837907
            ]
        },
        {
            "positions": [
                0.6997492153942826,
                -1.7201134649089553,
                -1.8968197904960844,
                1.4252387927408352,
                0.2979373495954224,
                0.6054493405513528
            ]
        },
        {
            "positions": [
                0.5730478735557059,
                -1.8005175409208005,
                -1.9646739223222753,
                1.4404137243356772,
                0.2807651308950755,
                0.5166924310189145
            ]
        },
        {
            "positions": [
                0.4463465317171287,
                -1.8809216169326455,
                -2.0325280541484663,
                1.455588655930519,
                0.2635929121947285,
                0.4279355214864766
            ]
        },
        {
            "positions": [
                0.31964518987855195,
                -1.9613256929444902,
                -2.1003821859746568,
                1.4707635875253606,
                0.24642069349438162,
                0.33917861195403876
            ]
        },
        {
            "positions": [
                0.19294384803997522,
                -2.041729768956335,
                -2.1682363178008477,
                1.4859385191202026,
                0.2292484747940347,
                0.2504217024216011
            ]
        },
        {
            "positions": [
                0.06624250620139804,
                -2.1221338449681806,
                -2.2360904496270386,
                1.5011134507150443,
                0.21207625609368774,
                0.1616647928891628
            ]
        },
        {
            "positions": [
                -0.06045883563717869,
                -2.202537920980025,
                -2.303944581453229,
                1.5162883823098863,
                0.19490403739334083,
                0.07290788335672493
            ]
        },
        {
            "positions": [
                -0.18716017747575536,
                -2.28294199699187,
                -2.37179871327942,
                1.531463313904728,
                0.17773181869299395,
                -0.01584902617571296
            ]
        }
    ]
}