{
    "goal": {
        "global_pose": {
            "orientation": {
                "w": 0.005598929693374612,
                "x": 0.007748599140229565,
                "y": 0.7110244013736278,
                "z": -0.7031023480610252
            },
            "position": {
                "x": 0.1141497679147869,
                "y": -0.7141253447532654,
                "z": 0.3711530566215515
            }
        },
        "name": "move_to_auspresseinheit_B"
    },
    "id": "RRTConnect_move_to_auspresseinheit_B_77",
    "joint_names": [
        "shoulder_pan_joint",
        "shoulder_lift_joint",
        "elbow_joint",
        "wrist_1_joint",
        "wrist_2_joint",
        "wrist_3_joint"
    ],
    "metrics": {
        "cart_traj_len": 0.5644789095364618,
        "distance_elbow_joint": 0.06533399308866494,
        "distance_shoulder_lift_joint": 0.29497256787779724,
        "distance_shoulder_pan_joint": 0.5778413949775418,
        "distance_wrist_1_joint": 0.3388107468665964,
        "distance_wrist_2_joint": 0.9871396802115406,
        "distance_wrist_3_joint": 0.007072237592606001,
        "smoothness": 7.612957943425664e-16,
        "time": 0.058779175,
        "traj_len": 1.5070403513558444,
        "weighted_distance": 1.9003330031544725
    },
    "planner": "RRTConnect",
    "start": {
        "state": {
            "elbow_joint": 2.0193083361928714,
            "shoulder_lift_joint": -1.1220246554650708,
            "shoulder_pan_joint": -1.0952077554168747,
            "wrist_1_joint": -0.8559753972642168,
            "wrist_2_joint": 0.4759566250798843,
            "wrist_3_joint": -3.1240929996934557
        }
    },
    "waypoints": [
        {
            "positions": [
                -1.0952077554168747,
                -1.1220246554650708,
                2.0193083361928714,
                -0.8559753972642168,
                0.4759566250798843,
                -3.1240929996934557
            ]
        },
        {
            "positions": [
                -1.1915146545797983,
                -1.1711867501113704,
                2.0084193373447605,
                -0.7995069394531173,
                0.6404799051151411,
                -3.122914293428021
            ]
        },
        {
            "positions": [
                -1.287821553742722,
                -1.2203488447576698,
                1.9975303384966498,
                -0.743038481642018,
                0.8050031851503978,
                -3.121735587162587
            ]
        },
        {
            "positions": [
                -1.3841284529056455,
                -1.2695109394039694,
                1.986641339648539,
                -0.6865700238309186,
                0.9695264651856546,
                -3.1205568808971527
            ]
        },
        {
            "positions": [
                -1.4804353520685691,
                -1.318673034050269,
                1.975752340800428,
                -0.6301015660198193,
                1.1340497452209113,
                -3.119378174631718
            ]
        },
        {
            "positions": [
                -1.5767422512314928,
                -1.3678351286965684,
                1.9648633419523174,
                -0.5736331082087198,
                1.2985730252561682,
                -3.118199468366284
            ]
        },
        {
            "positions": [
                -1.6730491503944165,
                -1.416997223342868,
                1.9539743431042065,
                -0.5171646503976204,
                1.463096305291425,
                -3.1170207621008497
            ]
        }
    ]
}