{
    "goal": {
        "global_pose": {
            "orientation": {
                "w": -0.00223480608172531,
                "x": 0.0024358444001904467,
                "y": 0.7094548369677653,
                "z": -0.704743149386269
            },
            "position": {
                "x": 0.6205249238014221,
                "y": -0.6371506643295288,
                "z": 0.19426114857196808
            }
        },
        "name": "move_to_magneteinheit_B"
    },
    "id": "RRTConnect_move_to_magneteinheit_B_141",
    "joint_names": [
        "shoulder_pan_joint",
        "shoulder_lift_joint",
        "elbow_joint",
        "wrist_1_joint",
        "wrist_2_joint",
        "wrist_3_joint"
    ],
    "metrics": {
        "cart_traj_len": 1.4812901218844259,
        "distance_elbow_joint": 0.9604040840589465,
        "distance_shoulder_lift_joint": 0.9489280719394847,
        "distance_shoulder_pan_joint": 1.6202911583381145,
        "distance_wrist_1_joint": 0.6986671601245948,
        "distance_wrist_2_joint": 2.8978876055915324,
        "distance_wrist_3_joint": 1.2247210965087114,
        "smoothness": 0.6876193717585399,
        "time": 0.109453597,
        "traj_len": 2.889792237611795,
        "weighted_distance": 3.7943242000776545
    },
    "planner": "RRTConnect",
    "start": {
        "state": {
            "elbow_joint": 2.6216224122426386,
            "shoulder_lift_joint": -1.4174107377796124,
            "shoulder_pan_joint": 0.7066234856936794,
            "wrist_1_joint": 1.9546482284002225,
            "wrist_2_joint": -0.7096286983471962,
            "wrist_3_joint": 0.005740856962016249
        }
    },
    "waypoints": [
        {
            "positions": [
                0.7066234856936794,
                -1.4174107377796124,
                2.6216224122426386,
                1.9546482284002225,
                -0.7096286983471962,
                0.005740856962016249
            ]
        },
        {
            "positions": [
                0.6203487190466672,
                -1.424359210616522,
                2.6041211202233283,
                1.9433873962486146,
                -0.6420384792853342,
                -0.049800037699971454
            ]
        },
        {
            "positions": [
                0.5028751744664498,
                -1.4370186551583661,
                2.5530919134289456,
                1.908159911665232,
                -0.5539252252239777,
                -0.13042032488684585
            ]
        },
        {
            "positions": [
                0.3854016298862324,
                -1.4496780997002103,
                2.5020627066345624,
                1.8729324270818493,
                -0.4658119711626213,
                -0.21104061207372027
            ]
        },
        {
            "positions": [
                0.2679280853060149,
                -1.4623375442420545,
                2.4510334998401797,
                1.8377049424984666,
                -0.37769871710126485,
                -0.29166089926059463
            ]
        },
        {
            "positions": [
                0.1504545407257975,
                -1.474996988783899,
                2.400004293045797,
                1.8024774579150842,
                -0.2895854630399084,
                -0.37228118644746905
            ]
        },
        {
            "positions": [
                0.03298099614558003,
                -1.4876564333257432,
                2.3489750862514143,
                1.7672499733317015,
                -0.2014722089785519,
                -0.45290147363434347
            ]
        },
        {
            "positions": [
                -0.08449254843463738,
                -1.5003158778675874,
                2.297945879457031,
                1.7320224887483189,
                -0.1133589549171955,
                -0.5335217608212178
            ]
        },
        {
            "positions": [
                -0.20196609301485474,
                -1.5129753224094316,
                2.2469166726626484,
                1.6967950041649362,
                -0.025245700855838965,
                -0.6141420480080922
            ]
        },
        {
            "positions": [
                -0.2528019201312533,
                -1.4520207876015983,
                2.205081076628437,
                1.7282817138713154,
                -0.18335317286299432,
                -0.5709393200410492
            ]
        },
        {
            "positions": [
                -0.30363774724765186,
                -1.391066252793765,
                2.163245480594226,
                1.7597684235776947,
                -0.3414606448701497,
                -0.527736592074006
            ]
        },
        {
            "positions": [
                -0.3544735743640504,
                -1.3301117179859319,
                2.121409884560015,
                1.7912551332840738,
                -0.49956811687730507,
                -0.484533864106963
            ]
        },
        {
            "positions": [
                -0.40530940148044897,
                -1.2691571831780986,
                2.0795742885258037,
                1.822741842990453,
                -0.6576755888844604,
                -0.4413311361399199
            ]
        },
        {
            "positions": [
                -0.45614522859684753,
                -1.2082026483702653,
                2.0377386924915926,
                1.8542285526968323,
                -0.8157830608916158,
                -0.39812840817287676
            ]
        },
        {
            "positions": [
                -0.5069810557132461,
                -1.1472481135624322,
                1.9959030964573814,
                1.8857152624032114,
                -0.9738905328987711,
                -0.3549256802058337
            ]
        },
        {
            "positions": [
                -0.5578168828296446,
                -1.0862935787545989,
                1.9540675004231702,
                1.9172019721095905,
                -1.1319980049059264,
                -0.3117229522387906
            ]
        },
        {
            "positions": [
                -0.6086527099460433,
                -1.0253390439467656,
                1.912231904388959,
                1.9486886818159697,
                -1.2901054769130818,
                -0.26852022427174754
            ]
        },
        {
            "positions": [
                -0.6594885370624418,
                -0.9643845091389323,
                1.870396308354748,
                1.980175391522349,
                -1.448212948920237,
                -0.22531749630470438
            ]
        },
        {
            "positions": [
                -0.7103243641788404,
                -0.9034299743310991,
                1.8285607123205367,
                2.011662101228728,
                -1.6063204209273925,
                -0.18211476833766133
            ]
        },
        {
            "positions": [
                -0.7611601912952388,
                -0.8424754395232659,
                1.7867251162863256,
                2.043148810935107,
                -1.7644278929345478,
                -0.13891204037061822
            ]
        },
        {
            "positions": [
                -0.8119960184116375,
                -0.7815209047154326,
                1.7448895202521144,
                2.0746355206414866,
                -1.9225353649417032,
                -0.09570931240357516
            ]
        },
        {
            "positions": [
                -0.8628318455280359,
                -0.7205663699075993,
                1.7030539242179032,
                2.1061222303478657,
                -2.0806428369488588,
                -0.052506584436532
            ]
        },
        {
            "positions": [
                -0.9136676726444345,
                -0.6596118350997661,
                1.661218328183692,
                2.137608940054245,
                -2.238750308956014,
                -0.009303856469488947
            ]
        }
    ]
}