{
    "goal": {
        "global_pose": {
            "orientation": {
                "w": 0.7031023480610252,
                "x": -0.7110244013736278,
                "y": 0.0077485991402295624,
                "z": 0.005598929693374583
            },
            "position": {
                "x": -0.8841497679147869,
                "y": 0.44412534475326537,
                "z": 0.3711530566215515
            }
        },
        "name": "move_to_auspresseinheit_D"
    },
    "id": "RRTConnect_move_to_auspresseinheit_D_108",
    "joint_names": [
        "shoulder_pan_joint",
        "shoulder_lift_joint",
        "elbow_joint",
        "wrist_1_joint",
        "wrist_2_joint",
        "wrist_3_joint"
    ],
    "metrics": {
        "cart_traj_len": 0.34332605633526225,
        "distance_elbow_joint": 0.6516496794522388,
        "distance_shoulder_lift_joint": 0.12912365105889867,
        "distance_shoulder_pan_joint": 0.13418206838276428,
        "distance_wrist_1_joint": 0.5856483667278378,
        "distance_wrist_2_joint": 1.4311341435683969,
        "distance_wrist_3_joint": 0.05458186586514291,
        "smoothness": 0.0,
        "time": 0.055813727,
        "traj_len": 1.728097154402865,
        "weighted_distance": 2.2610320690078236
    },
    "planner": "RRTConnect",
    "start": {
        "state": {
            "elbow_joint": -1.8275523626775212,
            "shoulder_lift_joint": -2.126789852344167,
            "shoulder_pan_joint": -0.03513704404078235,
            "wrist_1_joint": -2.347782403156801,
            "wrist_2_joint": -1.6058999987535132,
            "wrist_3_joint": -3.0880379163319196
        }
    },
    "waypoints": [
        {
            "positions": [
                -0.03513704404078235,
                -2.126789852344167,
                -1.8275523626775212,
                -2.347782403156801,
                -1.6058999987535132,
                -3.0880379163319196
            ]
        },
        {
            "positions": [
                -0.05190980258862789,
                -2.142930308726529,
                -1.7460961527459913,
                -2.4209884489977807,
                -1.4270082308074636,
                -3.081215183098777
            ]
        },
        {
            "positions": [
                -0.06868256113647342,
                -2.1590707651088916,
                -1.6646399428144614,
                -2.4941944948387604,
                -1.248116462861414,
                -3.074392449865634
            ]
        },
        {
            "positions": [
                -0.08545531968431896,
                -2.175211221491254,
                -1.5831837328829317,
                -2.56740054067974,
                -1.0692246949153643,
                -3.067569716632491
            ]
        },
        {
            "positions": [
                -0.10222807823216448,
                -2.191351677873616,
                -1.5017275229514018,
                -2.64060658652072,
                -0.8903329269693148,
                -3.060746983399348
            ]
        },
        {
            "positions": [
                -0.11900083678001003,
                -2.2074921342559786,
                -1.4202713130198719,
                -2.7138126323616993,
                -0.7114411590232652,
                -3.0539242501662054
            ]
        },
        {
            "positions": [
                -0.13577359532785557,
                -2.2236325906383407,
                -1.3388151030883422,
                -2.787018678202679,
                -0.5325493910772154,
                -3.047101516933062
            ]
        },
        {
            "positions": [
                -0.1525463538757011,
                -2.2397730470207033,
                -1.2573588931568123,
                -2.860224724043659,
                -0.3536576231311659,
                -3.0402787836999194
            ]
        },
        {
            "positions": [
                -0.16931911242354664,
                -2.2559135034030655,
                -1.1759026832252824,
                -2.9334307698846387,
                -0.17476585518511642,
                -3.0334560504667767
            ]
        }
    ]
}