{
    "goal": {
        "global_pose": {
            "orientation": {
                "w": 0.005598929693374612,
                "x": 0.007748599140229565,
                "y": 0.7110244013736278,
                "z": -0.7031023480610252
            },
            "position": {
                "x": -0.8858502320852131,
                "y": -0.7141253447532654,
                "z": 0.3711530566215515
            }
        },
        "name": "move_to_auspresseinheit_C"
    },
    "id": "RRTConnect_move_to_auspresseinheit_C_87",
    "joint_names": [
        "shoulder_pan_joint",
        "shoulder_lift_joint",
        "elbow_joint",
        "wrist_1_joint",
        "wrist_2_joint",
        "wrist_3_joint"
    ],
    "metrics": {
        "cart_traj_len": 0.5661967817423832,
        "distance_elbow_joint": 0.9855044181670082,
        "distance_shoulder_lift_joint": 0.6992853070480247,
        "distance_shoulder_pan_joint": 0.2566131142501029,
        "distance_wrist_1_joint": 0.6556788279078091,
        "distance_wrist_2_joint": 1.302689088773898,
        "distance_wrist_3_joint": 2.6687152682218978,
        "smoothness": 0.8088915326075892,
        "time": 0.057460572,
        "traj_len": 2.5629057775050454,
        "weighted_distance": 3.7234774710603853
    },
    "planner": "RRTConnect",
    "start": {
        "state": {
            "elbow_joint": 1.7527959577737207,
            "shoulder_lift_joint": -0.9740617694225068,
            "shoulder_pan_joint": -2.967991417825858,
            "wrist_1_joint": -0.759517768980727,
            "wrist_2_joint": 1.7443932448377408,
            "wrist_3_joint": -3.0840537646736568
        }
    },
    "waypoints": [
        {
            "positions": [
                -2.967991417825858,
                -0.9740617694225068,
                1.7527959577737207,
                -0.759517768980727,
                1.7443932448377408,
                -3.0840537646736568
            ]
        },
        {
            "positions": [
                -2.9674074449411494,
                -1.0013579657017433,
                1.7428998998600727,
                -0.7459471861741364,
                1.600171037916554,
                -2.8962046973968443
            ]
        },
        {
            "positions": [
                -2.966823472056441,
                -1.02865416198098,
                1.7330038419464247,
                -0.7323766033675456,
                1.455948830995367,
                -2.708355630120032
            ]
        },
        {
            "positions": [
                -2.9662394991717322,
                -1.0559503582602165,
                1.7231077840327766,
                -0.718806020560955,
                1.3117266240741798,
                -2.5205065628432197
            ]
        },
        {
            "positions": [
                -2.9656555262870232,
                -1.0832465545394532,
                1.7132117261191286,
                -0.7052354377543643,
                1.167504417152993,
                -2.3326574955664077
            ]
        },
        {
            "positions": [
                -2.9650715534023147,
                -1.1105427508186898,
                1.7033156682054806,
                -0.6916648549477736,
                1.0232822102318058,
                -2.144808428289595
            ]
        },
        {
            "positions": [
                -2.964487580517606,
                -1.1378389470979264,
                1.6934196102918326,
                -0.6780942721411829,
                0.879060003310619,
                -1.956959361012783
            ]
        },
        {
            "positions": [
                -2.9639036076328975,
                -1.165135143377163,
                1.6835235523781846,
                -0.6645236893345923,
                0.7348377963894319,
                -1.7691102937359704
            ]
        },
        {
            "positions": [
                -2.9386510772271834,
                -1.1143139500678263,
                1.5919003511010374,
                -0.6084552145084249,
                0.7055244323568731,
                -1.9044874734643915
            ]
        },
        {
            "positions": [
                -2.913398546821469,
                -1.0634927567584893,
                1.5002771498238903,
                -0.5523867396822574,
                0.6762110683243142,
                -2.039864653192813
            ]
        },
        {
            "positions": [
                -2.888146016415755,
                -1.0126715634491525,
                1.408653948546743,
                -0.49631826485609,
                0.6468977042917554,
                -2.175241832921234
            ]
        },
        {
            "positions": [
                -2.8628934860100403,
                -0.9618503701398157,
                1.3170307472695957,
                -0.4402497900299225,
                0.6175843402591965,
                -2.310619012649655
            ]
        },
        {
            "positions": [
                -2.8376409556043263,
                -0.9110291768304788,
                1.2254075459924485,
                -0.3841813152037551,
                0.5882709762266377,
                -2.445996192378076
            ]
        },
        {
            "positions": [
                -2.812388425198612,
                -0.860207983521142,
                1.1337843447153013,
                -0.32811284037758764,
                0.5589576121940788,
                -2.5813733721064973
            ]
        },
        {
            "positions": [
                -2.7871358947928977,
                -0.8093867902118053,
                1.0421611434381541,
                -0.27204436555142025,
                0.52964424816152,
                -2.7167505518349184
            ]
        },
        {
            "positions": [
                -2.7618833643871836,
                -0.7585655969024683,
                0.9505379421610068,
                -0.21597589072525275,
                0.5003308841289611,
                -2.8521277315633395
            ]
        },
        {
            "positions": [
                -2.736630833981469,
                -0.7077444035931315,
                0.8589147408838597,
                -0.1599074158990853,
                0.4710175200964023,
                -2.9875049112917607
            ]
        },
        {
            "positions": [
                -2.711378303575755,
                -0.6569232102837946,
                0.7672915396067125,
                -0.10383894107291794,
                0.44170415606384344,
                -3.1228820910201818
            ]
        }
    ]
}