{
    "goal": {
        "global_pose": {
            "orientation": {
                "w": 0.005598929693374612,
                "x": 0.007748599140229565,
                "y": 0.7110244013736278,
                "z": -0.7031023480610252
            },
            "position": {
                "x": 0.1141497679147869,
                "y": -0.7141253447532654,
                "z": 0.3711530566215515
            }
        },
        "name": "move_to_auspresseinheit_B"
    },
    "id": "RRTConnect_move_to_auspresseinheit_B_116",
    "joint_names": [
        "shoulder_pan_joint",
        "shoulder_lift_joint",
        "elbow_joint",
        "wrist_1_joint",
        "wrist_2_joint",
        "wrist_3_joint"
    ],
    "metrics": {
        "cart_traj_len": 0.5646711514477802,
        "distance_elbow_joint": 0.0619138961593082,
        "distance_shoulder_lift_joint": 0.2953045211438252,
        "distance_shoulder_pan_joint": 0.5785556288774876,
        "distance_wrist_1_joint": 0.32813393263550616,
        "distance_wrist_2_joint": 0.9880189852666112,
        "distance_wrist_3_joint": 0.004884216008700815,
        "smoothness": 7.612957943425664e-16,
        "time": 0.07053627,
        "traj_len": 1.5022686777309309,
        "weighted_distance": 1.8928107485987493
    },
    "planner": "RRTConnect",
    "start": {
        "state": {
            "elbow_joint": 2.0193083361928714,
            "shoulder_lift_joint": -1.1220246554650708,
            "shoulder_pan_joint": -1.0952077554168747,
            "wrist_1_joint": -0.8559753972642168,
            "wrist_2_joint": 0.4759566250798843,
            "wrist_3_joint": -3.1240929996934557
        }
    },
    "waypoints": [
        {
            "positions": [
                -1.0952077554168747,
                -1.1220246554650708,
                2.0193083361928714,
                -0.8559753972642168,
                0.4759566250798843,
                -3.1240929996934557
            ]
        },
        {
            "positions": [
                -1.1916336935631227,
                -1.1712420756557083,
                2.0089893534996532,
                -0.8012864084916325,
                0.6406264559576529,
                -3.124907035694906
            ]
        },
        {
            "positions": [
                -1.2880596317093704,
                -1.220459495846346,
                1.9986703708064353,
                -0.746597419719048,
                0.8052962868354214,
                -3.125721071696356
            ]
        },
        {
            "positions": [
                -1.3844855698556184,
                -1.2696769160369834,
                1.9883513881132173,
                -0.6919084309464637,
                0.96996611771319,
                -3.126535107697806
            ]
        },
        {
            "positions": [
                -1.4809115080018662,
                -1.3188943362276209,
                1.9780324054199994,
                -0.6372194421738794,
                1.1346359485909585,
                -3.127349143699256
            ]
        },
        {
            "positions": [
                -1.5773374461481144,
                -1.3681117564182586,
                1.9677134227267812,
                -0.582530453401295,
                1.299305779468727,
                -3.1281631797007066
            ]
        },
        {
            "positions": [
                -1.6737633842943622,
                -1.417329176608896,
                1.9573944400335632,
                -0.5278414646287106,
                1.4639756103464956,
                -3.1289772157021565
            ]
        }
    ]
}