{
    "goal": {
        "global_pose": {
            "orientation": {
                "w": -0.4816463035849501,
                "x": 0.5182115481033762,
                "y": 0.4908360881923453,
                "z": -0.5084816262002911
            },
            "position": {
                "x": -0.8240239810943604,
                "y": -0.300875300988555,
                "z": 0.16403168439865112
            }
        },
        "name": "move_to_storage_C"
    },
    "id": "RRTConnect_move_to_storage_C_133",
    "joint_names": [
        "shoulder_pan_joint",
        "shoulder_lift_joint",
        "elbow_joint",
        "wrist_1_joint",
        "wrist_2_joint",
        "wrist_3_joint"
    ],
    "metrics": {
        "cart_traj_len": 0.5756426041737106,
        "distance_elbow_joint": 0.2591952273580702,
        "distance_shoulder_lift_joint": 0.18868226907342878,
        "distance_shoulder_pan_joint": 0.4940459204002665,
        "distance_wrist_1_joint": 0.08711809445256846,
        "distance_wrist_2_joint": 1.0661130365220708,
        "distance_wrist_3_joint": 0.0717186248353272,
        "smoothness": 2.5376526478085547e-16,
        "time": 0.106682677,
        "traj_len": 1.4720302893085222,
        "weighted_distance": 1.861059255716224
    },
    "planner": "RRTConnect",
    "start": {
        "state": {
            "elbow_joint": 2.010868314990456,
            "shoulder_lift_joint": -1.1634956873337592,
            "shoulder_pan_joint": -2.4736205022346125,
            "wrist_1_joint": -0.8367026794202681,
            "wrist_2_joint": 0.6746043897044499,
            "wrist_3_joint": -3.1496632123970403
        }
    },
    "waypoints": [
        {
            "positions": [
                -2.4736205022346125,
                -1.1634956873337592,
                2.010868314990456,
                -0.8367026794202681,
                0.6746043897044499,
                -3.1496632123970403
            ]
        },
        {
            "positions": [
                -2.5559614889679905,
                -1.1320486424881877,
                1.9676691104307775,
                -0.8221829970115067,
                0.8522898957914617,
                -3.137710108257819
            ]
        },
        {
            "positions": [
                -2.638302475701368,
                -1.1006015976426162,
                1.924469905871099,
                -0.8076633146027453,
                1.0299754018784735,
                -3.125757004118598
            ]
        },
        {
            "positions": [
                -2.7206434624347455,
                -1.0691545527970447,
                1.8812707013114207,
                -0.7931436321939839,
                1.2076609079654852,
                -3.1138038999793767
            ]
        },
        {
            "positions": [
                -2.8029844491681235,
                -1.0377075079514733,
                1.8380714967517424,
                -0.7786239497852224,
                1.385346414052497,
                -3.1018507958401553
            ]
        },
        {
            "positions": [
                -2.8853254359015015,
                -1.0062604631059018,
                1.794872292192064,
                -0.7641042673764611,
                1.563031920139509,
                -3.0898976917009344
            ]
        },
        {
            "positions": [
                -2.967666422634879,
                -0.9748134182603304,
                1.7516730876323856,
                -0.7495845849676996,
                1.7407174262265206,
                -3.077944587561713
            ]
        }
    ]
}