{
    "goal": {
        "global_pose": {
            "orientation": {
                "w": 0.005598929693374612,
                "x": 0.007748599140229565,
                "y": 0.7110244013736278,
                "z": -0.7031023480610252
            },
            "position": {
                "x": 0.1141497679147869,
                "y": -0.7141253447532654,
                "z": 0.3711530566215515
            }
        },
        "name": "move_to_auspresseinheit_B"
    },
    "id": "RRTConnect_move_to_auspresseinheit_B_143",
    "joint_names": [
        "shoulder_pan_joint",
        "shoulder_lift_joint",
        "elbow_joint",
        "wrist_1_joint",
        "wrist_2_joint",
        "wrist_3_joint"
    ],
    "metrics": {
        "cart_traj_len": 0.5650699021587008,
        "distance_elbow_joint": 0.06620102820784868,
        "distance_shoulder_lift_joint": 0.2945387862621309,
        "distance_shoulder_pan_joint": 0.5770122860242488,
        "distance_wrist_1_joint": 0.340318848647043,
        "distance_wrist_2_joint": 0.9955326675814193,
        "distance_wrist_3_joint": 0.007888075116024407,
        "smoothness": 3.806478935924272e-16,
        "time": 0.047345941,
        "traj_len": 1.5104607548157998,
        "weighted_distance": 1.9060743317875162
    },
    "planner": "RRTConnect",
    "start": {
        "state": {
            "elbow_joint": 2.0193083361928714,
            "shoulder_lift_joint": -1.1220246554650708,
            "shoulder_pan_joint": -1.0952077554168747,
            "wrist_1_joint": -0.8559753972642168,
            "wrist_2_joint": 0.4759566250798843,
            "wrist_3_joint": -3.1240929996934557
        }
    },
    "waypoints": [
        {
            "positions": [
                -1.0952077554168747,
                -1.1220246554650708,
                2.0193083361928714,
                -0.8559753972642168,
                0.4759566250798843,
                -3.1240929996934557
            ]
        },
        {
            "positions": [
                -1.1913764697542495,
                -1.1711144531754258,
                2.0082748314915633,
                -0.7992555891563763,
                0.6418787363434542,
                -3.1227783205074515
            ]
        },
        {
            "positions": [
                -1.2875451840916243,
                -1.220204250885781,
                1.9972413267902551,
                -0.7425357810485358,
                0.807800847607024,
                -3.1214636413214474
            ]
        },
        {
            "positions": [
                -1.383713898428999,
                -1.2692940485961364,
                1.986207822088947,
                -0.6858159729406953,
                0.973722958870594,
                -3.1201489621354437
            ]
        },
        {
            "positions": [
                -1.4798826127663738,
                -1.3183838463064914,
                1.975174317387639,
                -0.6290961648328548,
                1.1396450701341638,
                -3.1188342829494395
            ]
        },
        {
            "positions": [
                -1.5760513271037486,
                -1.3674736440168465,
                1.964140812686331,
                -0.5723763567250143,
                1.3055671813977339,
                -3.1175196037634354
            ]
        },
        {
            "positions": [
                -1.6722200414411235,
                -1.4165634417272017,
                1.9531073079850227,
                -0.5156565486171738,
                1.4714892926613037,
                -3.1162049245774313
            ]
        }
    ]
}