{
    "goal": {
        "global_pose": {
            "orientation": {
                "w": 0.005598929693374612,
                "x": 0.007748599140229565,
                "y": 0.7110244013736278,
                "z": -0.7031023480610252
            },
            "position": {
                "x": 0.1141497679147869,
                "y": -0.7141253447532654,
                "z": 0.3711530566215515
            }
        },
        "name": "move_to_auspresseinheit_B"
    },
    "id": "RRTConnect_move_to_auspresseinheit_B_113",
    "joint_names": [
        "shoulder_pan_joint",
        "shoulder_lift_joint",
        "elbow_joint",
        "wrist_1_joint",
        "wrist_2_joint",
        "wrist_3_joint"
    ],
    "metrics": {
        "cart_traj_len": 0.5653096542286351,
        "distance_elbow_joint": 0.06340383755247525,
        "distance_shoulder_lift_joint": 0.294695095668863,
        "distance_shoulder_pan_joint": 0.5793636234126402,
        "distance_wrist_1_joint": 0.32857831992077446,
        "distance_wrist_2_joint": 0.9841044392910681,
        "distance_wrist_3_joint": 0.0004564010068279778,
        "smoothness": 5.075305255429287e-16,
        "time": 0.049814238999999996,
        "traj_len": 1.500200558876262,
        "weighted_distance": 1.8879081752241413
    },
    "planner": "RRTConnect",
    "start": {
        "state": {
            "elbow_joint": 2.0193083361928714,
            "shoulder_lift_joint": -1.1220246554650708,
            "shoulder_pan_joint": -1.0952077554168747,
            "wrist_1_joint": -0.8559753972642168,
            "wrist_2_joint": 0.4759566250798843,
            "wrist_3_joint": -3.1240929996934557
        }
    },
    "waypoints": [
        {
            "positions": [
                -1.0952077554168747,
                -1.1220246554650708,
                2.0193083361928714,
                -0.8559753972642168,
                0.4759566250798843,
                -3.1240929996934557
            ]
        },
        {
            "positions": [
                -1.1917683593189814,
                -1.1711405047432146,
                2.0087410299341255,
                -0.8012123439440877,
                0.6399740316283956,
                -3.124169066527927
            ]
        },
        {
            "positions": [
                -1.2883289632210881,
                -1.2202563540213585,
                1.9981737236753796,
                -0.7464492906239586,
                0.8039914381769069,
                -3.124245133362398
            ]
        },
        {
            "positions": [
                -1.3848895671231949,
                -1.2693722032995023,
                1.9876064174166337,
                -0.6916862373038295,
                0.9680088447254183,
                -3.12432120019687
            ]
        },
        {
            "positions": [
                -1.4814501710253014,
                -1.3184880525776461,
                1.977039111157888,
                -0.6369231839837005,
                1.1320262512739296,
                -3.124397267031341
            ]
        },
        {
            "positions": [
                -1.5780107749274082,
                -1.36760390185579,
                1.966471804899142,
                -0.5821601306635713,
                1.296043657822441,
                -3.1244733338658124
            ]
        },
        {
            "positions": [
                -1.674571378829515,
                -1.4167197511339338,
                1.9559044986403962,
                -0.5273970773434423,
                1.4600610643709524,
                -3.1245494007002836
            ]
        }
    ]
}