{
    "goal": {
        "global_pose": {
            "orientation": {
                "w": 0.7047431468963623,
                "x": -0.7094548344612122,
                "y": 0.0024358443915843964,
                "z": -0.0022348060738295317
            },
            "position": {
                "x": 0.6094750761985779,
                "y": 0.3671506643295288,
                "z": 0.19426114857196808
            }
        },
        "name": "move_to_magneteinheit_A"
    },
    "id": "RRTConnect_move_to_magneteinheit_A_45",
    "joint_names": [
        "shoulder_pan_joint",
        "shoulder_lift_joint",
        "elbow_joint",
        "wrist_1_joint",
        "wrist_2_joint",
        "wrist_3_joint"
    ],
    "metrics": {
        "cart_traj_len": 3.205701192929491,
        "distance_elbow_joint": 4.123944149589093,
        "distance_shoulder_lift_joint": 0.794168877318355,
        "distance_shoulder_pan_joint": 3.800098972522088,
        "distance_wrist_1_joint": 4.03850379036062,
        "distance_wrist_2_joint": 1.9214389998578507,
        "distance_wrist_3_joint": 0.7127334666203848,
        "smoothness": 0.437793977209238,
        "time": 0.091972193,
        "traj_len": 3.923122258644049,
        "weighted_distance": 4.772451988205606
    },
    "planner": "RRTConnect",
    "start": {
        "state": {
            "elbow_joint": -1.9196185241190666,
            "shoulder_lift_joint": -1.2443396400964142,
            "shoulder_pan_joint": 2.6996025414629847,
            "wrist_1_joint": -1.5485510000780065,
            "wrist_2_joint": -1.5709468930060704,
            "wrist_3_joint": 0.4420197071253992
        }
    },
    "waypoints": [
        {
            "positions": [
                2.6996025414629847,
                -1.2443396400964142,
                -1.9196185241190666,
                -1.5485510000780065,
                -1.5709468930060704,
                0.4420197071253992
            ]
        },
        {
            "positions": [
                2.6029852862159277,
                -1.2492699885723089,
                -1.7979222180986505,
                -1.435033441874024,
                -1.5200708494719293,
                0.4464372376861667
            ]
        },
        {
            "positions": [
                2.506368030968871,
                -1.2542003370482036,
                -1.6762259120782343,
                -1.3215158836700418,
                -1.4691948059377884,
                0.45085476824693427
            ]
        },
        {
            "positions": [
                2.409750775721814,
                -1.2591306855240982,
                -1.5545296060578184,
                -1.2079983254660593,
                -1.4183187624036473,
                0.45527229880770176
            ]
        },
        {
            "positions": [
                2.313133520474757,
                -1.264061033999993,
                -1.4328333000374023,
                -1.0944807672620769,
                -1.3674427188695062,
                0.4596898293684693
            ]
        },
        {
            "positions": [
                2.2165162652277006,
                -1.2689913824758874,
                -1.3111369940169861,
                -0.9809632090580944,
                -1.316566675335365,
                0.46410735992923685
            ]
        },
        {
            "positions": [
                2.1198990099806436,
                -1.273921730951782,
                -1.1894406879965702,
                -0.8674456508541121,
                -1.265690631801224,
                0.4685248904900044
            ]
        },
        {
            "positions": [
                2.0232817547335866,
                -1.2788520794276768,
                -1.067744381976154,
                -0.7539280926501296,
                -1.214814588267083,
                0.47294242105077194
            ]
        },
        {
            "positions": [
                1.92666449948653,
                -1.2837824279035714,
                -0.9460480759557379,
                -0.6404105344461473,
                -1.163938544732942,
                0.4773599516115395
            ]
        },
        {
            "positions": [
                1.8300472442394733,
                -1.2887127763794661,
                -0.824351769935322,
                -0.526892976242165,
                -1.113062501198801,
                0.481777482172307
            ]
        },
        {
            "positions": [
                1.7334299889924163,
                -1.2936431248553608,
                -0.7026554639149056,
                -0.41337541803818234,
                -1.06218645766466,
                0.4861950127330745
            ]
        },
        {
            "positions": [
                1.6368127337453595,
                -1.2985734733312555,
                -0.5809591578944897,
                -0.2998578598342001,
                -1.011310414130519,
                0.4906125432938421
            ]
        },
        {
            "positions": [
                1.5401954784983027,
                -1.3035038218071502,
                -0.45926285187407356,
                -0.18634030163021764,
                -0.9604343705963778,
                0.4950300738546096
            ]
        },
        {
            "positions": [
                1.443578223251246,
                -1.3084341702830447,
                -0.3375665458536574,
                -0.07282274342623518,
                -0.9095583270622368,
                0.49944760441537717
            ]
        },
        {
            "positions": [
                1.346960968004189,
                -1.3133645187589393,
                -0.21587023983324127,
                0.04069481477774728,
                -0.8586822835280957,
                0.5038651349761447
            ]
        },
        {
            "positions": [
                1.2503437127571322,
                -1.318294867234834,
                -0.09417393381282535,
                0.15421237298172952,
                -0.8078062399939547,
                0.5082826655369123
            ]
        },
        {
            "positions": [
                1.1537264575100752,
                -1.3232252157107287,
                0.027522372207590795,
                0.267729931185712,
                -0.7569301964598137,
                0.5127001960976798
            ]
        },
        {
            "positions": [
                1.0571092022630186,
                -1.3281555641866234,
                0.14921867822800694,
                0.38124748938969444,
                -0.7060541529256726,
                0.5171177266584472
            ]
        },
        {
            "positions": [
                0.9604919470159619,
                -1.333085912662518,
                0.27091498424842264,
                0.49476504759367645,
                -0.6551781093915316,
                0.5215352572192148
            ]
        },
        {
            "positions": [
                0.8638746917689046,
                -1.3380162611384128,
                0.39261129026883923,
                0.6082826057976594,
                -0.6043020658573905,
                0.5259527877799823
            ]
        },
        {
            "positions": [
                0.7672574365218479,
                -1.3429466096143075,
                0.5143075962892554,
                0.7218001640016418,
                -0.5534260223232494,
                0.5303703183407499
            ]
        },
        {
            "positions": [
                0.6706401812747913,
                -1.347876958090202,
                0.6360039023096711,
                0.8353177222056238,
                -0.5025499787891086,
                0.5347878489015174
            ]
        },
        {
            "positions": [
                0.5740229260277343,
                -1.3528073065660966,
                0.7577002083300872,
                0.9488352804096063,
                -0.45167393525496746,
                0.539205379462285
            ]
        },
        {
            "positions": [
                0.4774056707806773,
                -1.3577376550419913,
                0.8793965143505038,
                1.0623528386135892,
                -0.40079789172082636,
                0.5436229100230525
            ]
        },
        {
            "positions": [
                0.38078841553362075,
                -1.362668003517886,
                1.0010928203709195,
                1.1758703968175712,
                -0.34992184818668526,
                0.5480404405838201
            ]
        },
        {
            "positions": [
                0.28417116028656375,
                -1.3675983519937807,
                1.1227891263913357,
                1.2893879550215537,
                -0.2990458046525444,
                0.5524579711445876
            ]
        },
        {
            "positions": [
                0.1875539050395072,
                -1.3725287004696753,
                1.2444854324117518,
                1.4029055132255361,
                -0.24816976111840328,
                0.5568755017053552
            ]
        },
        {
            "positions": [
                0.09093664979244975,
                -1.37745904894557,
                1.366181738432168,
                1.5164230714295186,
                -0.19729371758426217,
                0.5612930322661227
            ]
        },
        {
            "positions": [
                -0.005680605454606802,
                -1.3823893974214647,
                1.487878044452584,
                1.629940629633501,
                -0.14641767405012107,
                0.5657105628268901
            ]
        },
        {
            "positions": [
                -0.10229786070166336,
                -1.3873197458973592,
                1.6095743504729998,
                1.743458187837483,
                -0.09554163051598019,
                0.5701280933876577
            ]
        },
        {
            "positions": [
                -0.19891511594872036,
                -1.3922500943732539,
                1.731270656493416,
                1.8569757460414655,
                -0.04466558698183909,
                0.5745456239484252
            ]
        },
        {
            "positions": [
                -0.29553237119577735,
                -1.3971804428491486,
                1.8529669625138325,
                1.9704933042454484,
                0.006210456552302013,
                0.5789631545091928
            ]
        },
        {
            "positions": [
                -0.39214962644283435,
                -1.4021107913250432,
                1.9746632685342482,
                2.0840108624494302,
                0.05708650008644289,
                0.5833806850699603
            ]
        },
        {
            "positions": [
                -0.4887668816898909,
                -1.407041139800938,
                2.096359574554664,
                2.197528420653413,
                0.107962543620584,
                0.5877982156307279
            ]
        },
        {
            "positions": [
                -0.40137694606571783,
                -1.3168315144275335,
                2.0809358529953266,
                2.1557535107063845,
                0.07331546315898457,
                0.5068046501857199
            ]
        },
        {
            "positions": [
                -0.31398701044154476,
                -1.226621889054129,
                2.0655121314359888,
                2.113978600759356,
                0.03866838269738515,
                0.42581108474071183
            ]
        },
        {
            "positions": [
                -0.22659707481737174,
                -1.1364122636807246,
                2.0500884098766514,
                2.0722036908123274,
                0.004021302235785729,
                0.34481751929570387
            ]
        },
        {
            "positions": [
                -0.13920713919319866,
                -1.0462026383073202,
                2.034664688317314,
                2.0304287808652988,
                -0.030625778225813693,
                0.26382395385069585
            ]
        },
        {
            "positions": [
                -0.05181720356902558,
                -0.9559930129339156,
                2.0192409667579767,
                1.9886538709182702,
                -0.06527285868741312,
                0.18283038840568783
            ]
        },
        {
            "positions": [
                0.03557273205514744,
                -0.8657833875605112,
                2.003817245198639,
                1.9468789609712416,
                -0.09991993914901254,
                0.10183682296067986
            ]
        },
        {
            "positions": [
                0.12296266767932053,
                -0.7755737621871067,
                1.9883935236393016,
                1.905104051024213,
                -0.13456701961061196,
                0.020843257515671895
            ]
        }
    ]
}