{
    "goal": {
        "global_pose": {
            "orientation": {
                "w": 0.5084816262002911,
                "x": -0.4908360881923452,
                "y": 0.5182115481033761,
                "z": -0.48164630358495003
            },
            "position": {
                "x": 0.5540239810943604,
                "y": -0.46912469901144505,
                "z": 0.16403168439865112
            }
        },
        "name": "move_to_storage_B"
    },
    "id": "RRTConnect_move_to_storage_B_114",
    "joint_names": [
        "shoulder_pan_joint",
        "shoulder_lift_joint",
        "elbow_joint",
        "wrist_1_joint",
        "wrist_2_joint",
        "wrist_3_joint"
    ],
    "metrics": {
        "cart_traj_len": 1.1748758699197155,
        "distance_elbow_joint": 1.1512601759436034,
        "distance_shoulder_lift_joint": 0.45887226153314,
        "distance_shoulder_pan_joint": 0.8146954535345866,
        "distance_wrist_1_joint": 2.992812995765255,
        "distance_wrist_2_joint": 2.7130812942576874,
        "distance_wrist_3_joint": 3.2543123059551564,
        "smoothness": 0.17499457015017564,
        "time": 0.131705072,
        "traj_len": 3.3741716742023415,
        "weighted_distance": 4.857937153661282
    },
    "planner": "RRTConnect",
    "start": {
        "state": {
            "elbow_joint": 1.664937868594044,
            "shoulder_lift_joint": -0.661644460510453,
            "shoulder_pan_joint": -0.9139846352900073,
            "wrist_1_joint": 2.146753192139373,
            "wrist_2_joint": -2.2341966793290973,
            "wrist_3_joint": 0.005466555786416001
        }
    },
    "waypoints": [
        {
            "positions": [
                -0.9139846352900073,
                -0.661644460510453,
                1.664937868594044,
                2.146753192139373,
                -2.2341966793290973,
                0.005466555786416001
            ]
        },
        {
            "positions": [
                -0.8506626999650537,
                -0.7000774275445207,
                1.5850045366257213,
                2.1110415622322987,
                -2.0769596845014426,
                -0.004621522656775421
            ]
        },
        {
            "positions": [
                -0.7873407646401002,
                -0.7385103945785886,
                1.5050712046573986,
                2.075329932325224,
                -1.919722689673788,
                -0.014709601099966843
            ]
        },
        {
            "positions": [
                -0.7240188293151466,
                -0.7769433616126563,
                1.425137872689076,
                2.03961830241815,
                -1.7624856948461334,
                -0.024797679543158258
            ]
        },
        {
            "positions": [
                -0.660696893990193,
                -0.8153763286467242,
                1.3452045407207534,
                2.0039066725110755,
                -1.6052487000184787,
                -0.034885757986349686
            ]
        },
        {
            "positions": [
                -0.5973749586652395,
                -0.8538092956807919,
                1.2652712087524307,
                1.968195042604001,
                -1.4480117051908241,
                -0.0449738364295411
            ]
        },
        {
            "positions": [
                -0.6181285327031486,
                -0.8649221051125753,
                1.2965876052566803,
                1.8509344240110892,
                -1.3677243585191818,
                0.08852082664292553
            ]
        },
        {
            "positions": [
                -0.6388821067410577,
                -0.8760349145443587,
                1.3279040017609298,
                1.7336738054181773,
                -1.2874370118475396,
                0.22201548971539214
            ]
        },
        {
            "positions": [
                -0.6596356807789668,
                -0.887147723976142,
                1.3592203982651796,
                1.6164131868252656,
                -1.2071496651758973,
                0.3555101527878588
            ]
        },
        {
            "positions": [
                -0.680389254816876,
                -0.8982605334079254,
                1.3905367947694292,
                1.4991525682323539,
                -1.126862318504255,
                0.4890048158603254
            ]
        },
        {
            "positions": [
                -0.7011428288547851,
                -0.9093733428397088,
                1.4218531912736787,
                1.381891949639442,
                -1.0465749718326127,
                0.6224994789327921
            ]
        },
        {
            "positions": [
                -0.7218964028926942,
                -0.9204861522714922,
                1.4531695877779283,
                1.2646313310465302,
                -0.9662876251609704,
                0.7559941420052587
            ]
        },
        {
            "positions": [
                -0.7426499769306033,
                -0.9315989617032756,
                1.4844859842821778,
                1.1473707124536183,
                -0.8860002784893282,
                0.8894888050777254
            ]
        },
        {
            "positions": [
                -0.7634035509685124,
                -0.9427117711350589,
                1.5158023807864274,
                1.0301100938607068,
                -0.805712931817686,
                1.022983468150192
            ]
        },
        {
            "positions": [
                -0.7841571250064215,
                -0.9538245805668423,
                1.547118777290677,
                0.9128494752677949,
                -0.7254255851460437,
                1.1564781312226586
            ]
        },
        {
            "positions": [
                -0.8049106990443307,
                -0.9649373899986257,
                1.5784351737949267,
                0.795588856674883,
                -0.6451382384744014,
                1.2899727942951253
            ]
        },
        {
            "positions": [
                -0.8256642730822398,
                -0.976050199430409,
                1.6097515702991763,
                0.6783282380819715,
                -0.5648508918027592,
                1.4234674573675918
            ]
        },
        {
            "positions": [
                -0.8464178471201489,
                -0.9871630088621924,
                1.6410679668034258,
                0.5610676194890596,
                -0.4845635451311169,
                1.5569621204400586
            ]
        },
        {
            "positions": [
                -0.867171421158058,
                -0.9982758182939758,
                1.6723843633076754,
                0.4438070008961479,
                -0.4042761984594747,
                1.690456783512525
            ]
        },
        {
            "positions": [
                -0.8879249951959671,
                -1.0093886277257593,
                1.703700759811925,
                0.32654638230323596,
                -0.3239888517878322,
                1.823951446584992
            ]
        },
        {
            "positions": [
                -0.9086785692338762,
                -1.0205014371575425,
                1.7350171563161747,
                0.20928576371032426,
                -0.24370150511619015,
                1.9574461096574585
            ]
        },
        {
            "positions": [
                -0.9294321432717854,
                -1.0316142465893259,
                1.766333552820424,
                0.09202514511741255,
                -0.16341415844454787,
                2.090940772729925
            ]
        },
        {
            "positions": [
                -0.9501857173096945,
                -1.0427270560211093,
                1.7976499493246738,
                -0.02523547347549937,
                -0.08312681177290537,
                2.224435435802392
            ]
        },
        {
            "positions": [
                -0.9709392913476036,
                -1.0538398654528927,
                1.8289663458289234,
                -0.14249609206841107,
                -0.0028394651012633165,
                2.3579300988748586
            ]
        },
        {
            "positions": [
                -0.9916928653855127,
                -1.064952674884676,
                1.860282742333173,
                -0.25975671066132255,
                0.07744788157037896,
                2.491424761947325
            ]
        },
        {
            "positions": [
                -1.0124464394234218,
                -1.0760654843164594,
                1.8915991388374227,
                -0.3770173292542349,
                0.15773522824202124,
                2.624919425019792
            ]
        },
        {
            "positions": [
                -1.033200013461331,
                -1.0871782937482428,
                1.922915535341672,
                -0.4942779478471464,
                0.23802257491366352,
                2.7584140880922585
            ]
        },
        {
            "positions": [
                -1.05395358749924,
                -1.0982911031800262,
                1.9542319318459218,
                -0.6115385664400579,
                0.3183099215853058,
                2.891908751164725
            ]
        },
        {
            "positions": [
                -1.074707161537149,
                -1.1094039126118096,
                1.9855483283501714,
                -0.7287991850329703,
                0.3985972682569481,
                3.025403414237192
            ]
        },
        {
            "positions": [
                -1.0954607355750583,
                -1.120516722043593,
                2.016864724854421,
                -0.8460598036258816,
                0.47888461492859036,
                3.1588980773096584
            ]
        }
    ]
}