{
    "goal": {
        "global_pose": {
            "orientation": {
                "w": 0.005598929693374612,
                "x": 0.007748599140229565,
                "y": 0.7110244013736278,
                "z": -0.7031023480610252
            },
            "position": {
                "x": 0.1141497679147869,
                "y": -0.7141253447532654,
                "z": 0.3711530566215515
            }
        },
        "name": "move_to_auspresseinheit_B"
    },
    "id": "RRTConnect_move_to_auspresseinheit_B_101",
    "joint_names": [
        "shoulder_pan_joint",
        "shoulder_lift_joint",
        "elbow_joint",
        "wrist_1_joint",
        "wrist_2_joint",
        "wrist_3_joint"
    ],
    "metrics": {
        "cart_traj_len": 0.5653749200139631,
        "distance_elbow_joint": 0.062400105721488464,
        "distance_shoulder_lift_joint": 0.29466683601304133,
        "distance_shoulder_pan_joint": 0.5794984331445288,
        "distance_wrist_1_joint": 0.32555544628523103,
        "distance_wrist_2_joint": 0.9851654798218406,
        "distance_wrist_3_joint": 0.009449441026405658,
        "smoothness": 2.5376526478085547e-16,
        "time": 0.06791171600000001,
        "traj_len": 1.5022435694695238,
        "weighted_distance": 1.8937675544196069
    },
    "planner": "RRTConnect",
    "start": {
        "state": {
            "elbow_joint": 2.0193083361928714,
            "shoulder_lift_joint": -1.1220246554650708,
            "shoulder_pan_joint": -1.0952077554168747,
            "wrist_1_joint": -0.8559753972642168,
            "wrist_2_joint": 0.4759566250798843,
            "wrist_3_joint": -3.1240929996934557
        }
    },
    "waypoints": [
        {
            "positions": [
                -1.0952077554168747,
                -1.1220246554650708,
                2.0193083361928714,
                -0.8559753972642168,
                0.4759566250798843,
                -3.1240929996934557
            ]
        },
        {
            "positions": [
                -1.1917908276076294,
                -1.1711357948005776,
                2.0089083185726233,
                -0.8017161562166782,
                0.6401508717168577,
                -3.1225180928557212
            ]
        },
        {
            "positions": [
                -1.2883738997983842,
                -1.2202469341360846,
                1.9985083009523752,
                -0.7474569151691398,
                0.804345118353831,
                -3.1209431860179873
            ]
        },
        {
            "positions": [
                -1.384956971989139,
                -1.2693580734715915,
                1.988108283332127,
                -0.6931976741216013,
                0.9685393649908045,
                -3.119368279180253
            ]
        },
        {
            "positions": [
                -1.4815400441798938,
                -1.3184692128070983,
                1.9777082657118792,
                -0.6389384330740628,
                1.132733611627778,
                -3.1177933723425184
            ]
        },
        {
            "positions": [
                -1.5781231163706486,
                -1.3675803521426053,
                1.967308248091631,
                -0.5846791920265242,
                1.2969278582647514,
                -3.1162184655047844
            ]
        },
        {
            "positions": [
                -1.6747061885614034,
                -1.4166914914781121,
                1.956908230471383,
                -0.5304199509789858,
                1.461122104901725,
                -3.11464355866705
            ]
        }
    ]
}