{
    "goal": {
        "global_pose": {
            "orientation": {
                "w": 0.5084816262002911,
                "x": -0.4908360881923452,
                "y": 0.5182115481033761,
                "z": -0.48164630358495003
            },
            "position": {
                "x": 0.5540239810943604,
                "y": -0.46912469901144505,
                "z": 0.16403168439865112
            }
        },
        "name": "move_to_storage_B"
    },
    "id": "RRTConnect_move_to_storage_B_127",
    "joint_names": [
        "shoulder_pan_joint",
        "shoulder_lift_joint",
        "elbow_joint",
        "wrist_1_joint",
        "wrist_2_joint",
        "wrist_3_joint"
    ],
    "metrics": {
        "cart_traj_len": 1.0213669824659877,
        "distance_elbow_joint": 0.8790267108351264,
        "distance_shoulder_lift_joint": 1.357949997762001,
        "distance_shoulder_pan_joint": 0.5217165873663326,
        "distance_wrist_1_joint": 2.9799642904614294,
        "distance_wrist_2_joint": 2.7179896533703918,
        "distance_wrist_3_joint": 3.3109420971528265,
        "smoothness": 0.2357357941006111,
        "time": 0.087556987,
        "traj_len": 3.4303920092240343,
        "weighted_distance": 4.907894403416356
    },
    "planner": "RRTConnect",
    "start": {
        "state": {
            "elbow_joint": 1.664937868594044,
            "shoulder_lift_joint": -0.661644460510453,
            "shoulder_pan_joint": -0.9139846352900073,
            "wrist_1_joint": 2.146753192139373,
            "wrist_2_joint": -2.2341966793290973,
            "wrist_3_joint": 0.005466555786416001
        }
    },
    "waypoints": [
        {
            "positions": [
                -0.9139846352900073,
                -0.661644460510453,
                1.664937868594044,
                2.146753192139373,
                -2.2341966793290973,
                0.005466555786416001
            ]
        },
        {
            "positions": [
                -0.9387148708682549,
                -0.7258033578476417,
                1.7073794775699007,
                2.012334345775986,
                -2.154620087540829,
                -0.008485869564827716
            ]
        },
        {
            "positions": [
                -0.9634451064465025,
                -0.7899622551848304,
                1.7498210865457577,
                1.8779154994125993,
                -2.07504349575256,
                -0.02243829491607143
            ]
        },
        {
            "positions": [
                -0.9881753420247501,
                -0.8541211525220193,
                1.7922626955216145,
                1.7434966530492122,
                -1.9954669039642914,
                -0.03639072026731515
            ]
        },
        {
            "positions": [
                -1.0129055776029976,
                -0.918280049859208,
                1.8347043044974713,
                1.6090778066858253,
                -1.915890312176023,
                -0.05034314561855886
            ]
        },
        {
            "positions": [
                -1.0376358131812453,
                -0.9824389471963968,
                1.8771459134733284,
                1.4746589603224383,
                -1.836313720387754,
                -0.06429557096980258
            ]
        },
        {
            "positions": [
                -1.0623660487594928,
                -1.0465978445335855,
                1.9195875224491852,
                1.3402401139590512,
                -1.7567371285994855,
                -0.0782479963210463
            ]
        },
        {
            "positions": [
                -1.0780025636268848,
                -1.086928333065149,
                1.947332773272842,
                1.2097943802378077,
                -1.6579155010747695,
                -0.01320879952166995
            ]
        },
        {
            "positions": [
                -1.0936390784942769,
                -1.1272588215967125,
                1.9750780240964987,
                1.079348646516564,
                -1.5590938735500535,
                0.0518303972777064
            ]
        },
        {
            "positions": [
                -1.1092755933616691,
                -1.167589310128276,
                2.0028232749201558,
                0.9489029127953206,
                -1.4602722460253375,
                0.11686959407708276
            ]
        },
        {
            "positions": [
                -1.1249121082290612,
                -1.2079197986598393,
                2.030568525743812,
                0.818457179074077,
                -1.3614506185006214,
                0.18190879087645911
            ]
        },
        {
            "positions": [
                -1.1405486230964532,
                -1.248250287191403,
                2.058313776567469,
                0.6880114453528334,
                -1.2626289909759054,
                0.24694798767583548
            ]
        },
        {
            "positions": [
                -1.1561851379638453,
                -1.2885807757229664,
                2.086059027391126,
                0.5575657116315899,
                -1.1638073634511894,
                0.31198718447521184
            ]
        },
        {
            "positions": [
                -1.1718216528312375,
                -1.3289112642545298,
                2.113804278214783,
                0.4271199779103464,
                -1.0649857359264734,
                0.37702638127458815
            ]
        },
        {
            "positions": [
                -1.1874581676986296,
                -1.3692417527860932,
                2.1415495290384396,
                0.2966742441891028,
                -0.9661641084017574,
                0.4420655780739645
            ]
        },
        {
            "positions": [
                -1.2030946825660216,
                -1.4095722413176568,
                2.1692947798620965,
                0.16622851046785936,
                -0.8673424808770414,
                0.5071047748733408
            ]
        },
        {
            "positions": [
                -1.2187311974334136,
                -1.4499027298492202,
                2.197040030685753,
                0.035782776746615674,
                -0.7685208533523253,
                0.5721439716727172
            ]
        },
        {
            "positions": [
                -1.2343677123008057,
                -1.4902332183807836,
                2.22478528150941,
                -0.09466295697462779,
                -0.6696992258276093,
                0.6371831684720936
            ]
        },
        {
            "positions": [
                -1.250004227168198,
                -1.5305637069123472,
                2.2525305323330667,
                -0.22510869069587147,
                -0.5708775983028933,
                0.70222236527147
            ]
        },
        {
            "positions": [
                -1.26564074203559,
                -1.5708941954439106,
                2.2802757831567235,
                -0.35555442441711493,
                -0.47205597077817735,
                0.7672615620708463
            ]
        },
        {
            "positions": [
                -1.2514690353171942,
                -1.5335025068748653,
                2.2583017168006863,
                -0.3953591472425267,
                -0.3924018920432214,
                0.9657380609586356
            ]
        },
        {
            "positions": [
                -1.2372973285987983,
                -1.49611081830582,
                2.236327650444649,
                -0.43516387006793844,
                -0.3127478133082654,
                1.1642145598464249
            ]
        },
        {
            "positions": [
                -1.2231256218804025,
                -1.4587191297367748,
                2.2143535840886117,
                -0.47496859289335025,
                -0.23309373457330942,
                1.3626910587342143
            ]
        },
        {
            "positions": [
                -1.2089539151620066,
                -1.4213274411677295,
                2.1923795177325744,
                -0.514773315718762,
                -0.15343965583835345,
                1.5611675576220034
            ]
        },
        {
            "positions": [
                -1.1947822084436108,
                -1.3839357525986842,
                2.170405451376537,
                -0.5545780385441739,
                -0.07378557710339745,
                1.7596440565097926
            ]
        },
        {
            "positions": [
                -1.1806105017252149,
                -1.3465440640296389,
                2.1484313850205004,
                -0.5943827613695856,
                0.005868501631558498,
                1.958120555397582
            ]
        },
        {
            "positions": [
                -1.1664387950068191,
                -1.3091523754605936,
                2.126457318664463,
                -0.6341874841949974,
                0.08552258036651456,
                2.1565970542853714
            ]
        },
        {
            "positions": [
                -1.1522670882884234,
                -1.2717606868915483,
                2.104483252308426,
                -0.6739922070204091,
                0.16517665910147045,
                2.3550735531731606
            ]
        },
        {
            "positions": [
                -1.1380953815700274,
                -1.234368998322503,
                2.0825091859523885,
                -0.7137969298458209,
                0.24483073783642645,
                2.5535500520609498
            ]
        },
        {
            "positions": [
                -1.1239236748516317,
                -1.1969773097534577,
                2.0605351195963513,
                -0.7536016526712327,
                0.32448481657138245,
                2.752026550948739
            ]
        },
        {
            "positions": [
                -1.109751968133236,
                -1.1595856211844124,
                2.038561053240314,
                -0.7934063754966444,
                0.40413889530633834,
                2.9505030498365286
            ]
        },
        {
            "positions": [
                -1.09558026141484,
                -1.1221939326153672,
                2.0165869868842767,
                -0.8332110983220562,
                0.48379297404129434,
                3.1489795487243177
            ]
        }
    ]
}