{
    "goal": {
        "global_pose": {
            "orientation": {
                "w": 0.5084816262002911,
                "x": -0.4908360881923452,
                "y": 0.5182115481033761,
                "z": -0.48164630358495003
            },
            "position": {
                "x": 0.5540239810943604,
                "y": -0.46912469901144505,
                "z": 0.16403168439865112
            }
        },
        "name": "move_to_storage_B"
    },
    "id": "RRTConnect_move_to_storage_B_68",
    "joint_names": [
        "shoulder_pan_joint",
        "shoulder_lift_joint",
        "elbow_joint",
        "wrist_1_joint",
        "wrist_2_joint",
        "wrist_3_joint"
    ],
    "metrics": {
        "cart_traj_len": 1.0105689312505248,
        "distance_elbow_joint": 0.3557011429574186,
        "distance_shoulder_lift_joint": 0.461049389901556,
        "distance_shoulder_pan_joint": 0.7975007532085469,
        "distance_wrist_1_joint": 2.999121755511439,
        "distance_wrist_2_joint": 2.7179029574419795,
        "distance_wrist_3_joint": 4.05108411639455,
        "smoothness": 0.20502411708071702,
        "time": 0.08343347500000001,
        "traj_len": 3.37377535046652,
        "weighted_distance": 5.0201148454151925
    },
    "planner": "RRTConnect",
    "start": {
        "state": {
            "elbow_joint": 1.664937868594044,
            "shoulder_lift_joint": -0.661644460510453,
            "shoulder_pan_joint": -0.9139846352900073,
            "wrist_1_joint": 2.146753192139373,
            "wrist_2_joint": -2.2341966793290973,
            "wrist_3_joint": 0.005466555786416001
        }
    },
    "waypoints": [
        {
            "positions": [
                -0.9139846352900073,
                -0.661644460510453,
                1.664937868594044,
                2.146753192139373,
                -2.2341966793290973,
                0.005466555786416001
            ]
        },
        {
            "positions": [
                -0.8797510991153666,
                -0.7027223833651005,
                1.6849930571903597,
                2.019166335757324,
                -2.125834335979704,
                -0.04421076706236048
            ]
        },
        {
            "positions": [
                -0.845517562940726,
                -0.743800306219748,
                1.7050482457866758,
                1.891579479375275,
                -2.01747199263031,
                -0.09388808991113697
            ]
        },
        {
            "positions": [
                -0.8112840267660854,
                -0.7848782290743955,
                1.7251034343829916,
                1.763992622993226,
                -1.9091096492809165,
                -0.14356541275991344
            ]
        },
        {
            "positions": [
                -0.7770504905914446,
                -0.825956151929043,
                1.7451586229793075,
                1.6364057666111766,
                -1.800747305931523,
                -0.19324273560868993
            ]
        },
        {
            "positions": [
                -0.742816954416804,
                -0.8670340747836907,
                1.7652138115756235,
                1.5088189102291274,
                -1.6923849625821292,
                -0.24292005845746645
            ]
        },
        {
            "positions": [
                -0.7085834182421633,
                -0.908111997638338,
                1.7852690001719393,
                1.3812320538470786,
                -1.5840226192327358,
                -0.29259738130624285
            ]
        },
        {
            "positions": [
                -0.6743498820675227,
                -0.9491899204929857,
                1.8053241887682552,
                1.2536451974650293,
                -1.4756602758833424,
                -0.34227470415501937
            ]
        },
        {
            "positions": [
                -0.640116345892882,
                -0.9902678433476331,
                1.8253793773645712,
                1.1260583410829803,
                -1.3672979325339487,
                -0.39195202700379583
            ]
        },
        {
            "positions": [
                -0.6058828097182414,
                -1.0313457662022807,
                1.845434565960887,
                0.9984714847009311,
                -1.258935589184555,
                -0.44162934985257235
            ]
        },
        {
            "positions": [
                -0.6291875205580881,
                -1.0356956749741726,
                1.8537776347985335,
                0.9103362443165026,
                -1.1759526431227723,
                -0.27001086362611704
            ]
        },
        {
            "positions": [
                -0.6524922313979348,
                -1.0400455837460643,
                1.86212070363618,
                0.8222010039320742,
                -1.0929696970609897,
                -0.09839237739966172
            ]
        },
        {
            "positions": [
                -0.6757969422377815,
                -1.0443954925179562,
                1.8704637724738264,
                0.7340657635476457,
                -1.0099867509992069,
                0.07322610882679353
            ]
        },
        {
            "positions": [
                -0.6991016530776282,
                -1.048745401289848,
                1.878806841311473,
                0.6459305231632173,
                -0.9270038049374242,
                0.2448445950532489
            ]
        },
        {
            "positions": [
                -0.7224063639174749,
                -1.0530953100617397,
                1.8871499101491194,
                0.5577952827787889,
                -0.8440208588756415,
                0.41646308127970416
            ]
        },
        {
            "positions": [
                -0.7457110747573217,
                -1.0574452188336316,
                1.8954929789867658,
                0.46966004239436043,
                -0.7610379128138587,
                0.5880815675061595
            ]
        },
        {
            "positions": [
                -0.7690157855971683,
                -1.0617951276055235,
                1.9038360478244123,
                0.381524802009932,
                -0.678054966752076,
                0.7597000537326148
            ]
        },
        {
            "positions": [
                -0.7923204964370151,
                -1.0661450363774152,
                1.9121791166620588,
                0.29338956162550356,
                -0.5950720206902933,
                0.9313185399590702
            ]
        },
        {
            "positions": [
                -0.8156252072768617,
                -1.070494945149307,
                1.9205221854997052,
                0.20525432124107512,
                -0.5120890746285105,
                1.1029370261855254
            ]
        },
        {
            "positions": [
                -0.8389299181167085,
                -1.074844853921199,
                1.9288652543373517,
                0.11711908085664657,
                -0.4291061285667278,
                1.2745555124119807
            ]
        },
        {
            "positions": [
                -0.8622346289565552,
                -1.0791947626930907,
                1.937208323174998,
                0.028983840472218136,
                -0.346123182504945,
                1.4461739986384363
            ]
        },
        {
            "positions": [
                -0.885539339796402,
                -1.0835446714649826,
                1.9455513920126444,
                -0.05915139991221019,
                -0.2631402364431623,
                1.6177924848648912
            ]
        },
        {
            "positions": [
                -0.9088440506362486,
                -1.0878945802368745,
                1.9538944608502908,
                -0.14728664029663885,
                -0.1801572903813795,
                1.7894109710913468
            ]
        },
        {
            "positions": [
                -0.9321487614760953,
                -1.0922444890087661,
                1.9622375296879373,
                -0.23542188068106706,
                -0.09717434431959693,
                1.961029457317802
            ]
        },
        {
            "positions": [
                -0.955453472315942,
                -1.096594397780658,
                1.9705805985255838,
                -0.3235571210654957,
                -0.014191398257814125,
                2.1326479435442574
            ]
        },
        {
            "positions": [
                -0.9787581831557888,
                -1.10094430655255,
                1.9789236673632302,
                -0.41169236144992394,
                0.06879154780396846,
                2.3042664297707125
            ]
        },
        {
            "positions": [
                -1.0020628939956355,
                -1.1052942153244416,
                1.9872667362008767,
                -0.4998276018343526,
                0.15177449386575126,
                2.475884915997168
            ]
        },
        {
            "positions": [
                -1.0253676048354823,
                -1.1096441240963335,
                1.9956098050385231,
                -0.5879628422187808,
                0.23475743992753406,
                2.647503402223623
            ]
        },
        {
            "positions": [
                -1.0486723156753288,
                -1.1139940328682254,
                2.0039528738761696,
                -0.6760980826032095,
                0.31774038598931686,
                2.8191218884500784
            ]
        },
        {
            "positions": [
                -1.0719770265151756,
                -1.118343941640117,
                2.0122959427138163,
                -0.7642333229876379,
                0.40072333205109945,
                2.9907403746765335
            ]
        },
        {
            "positions": [
                -1.0952817373550223,
                -1.122693850412009,
                2.0206390115514625,
                -0.8523685633720663,
                0.48370627811288225,
                3.162358860902989
            ]
        }
    ]
}