{
    "goal": {
        "global_pose": {
            "orientation": {
                "w": -0.4816463035849501,
                "x": 0.5182115481033762,
                "y": 0.4908360881923453,
                "z": -0.5084816262002911
            },
            "position": {
                "x": -0.8240239810943604,
                "y": -0.300875300988555,
                "z": 0.16403168439865112
            }
        },
        "name": "move_to_storage_C"
    },
    "id": "RRTConnect_move_to_storage_C_95",
    "joint_names": [
        "shoulder_pan_joint",
        "shoulder_lift_joint",
        "elbow_joint",
        "wrist_1_joint",
        "wrist_2_joint",
        "wrist_3_joint"
    ],
    "metrics": {
        "cart_traj_len": 0.5763326105103648,
        "distance_elbow_joint": 0.256393629719613,
        "distance_shoulder_lift_joint": 0.1880284256638881,
        "distance_shoulder_pan_joint": 0.49587807248361715,
        "distance_wrist_1_joint": 0.07791596538004175,
        "distance_wrist_2_joint": 1.0604814950393129,
        "distance_wrist_3_joint": 0.07570621760496277,
        "smoothness": 0.0,
        "time": 0.03242967,
        "traj_len": 1.4677887470243924,
        "weighted_distance": 1.8558592892567896
    },
    "planner": "RRTConnect",
    "start": {
        "state": {
            "elbow_joint": 2.010868314990456,
            "shoulder_lift_joint": -1.1634956873337592,
            "shoulder_pan_joint": -2.4736205022346125,
            "wrist_1_joint": -0.8367026794202681,
            "wrist_2_joint": 0.6746043897044499,
            "wrist_3_joint": -3.1496632123970403
        }
    },
    "waypoints": [
        {
            "positions": [
                -2.4736205022346125,
                -1.1634956873337592,
                2.010868314990456,
                -0.8367026794202681,
                0.6746043897044499,
                -3.1496632123970403
            ]
        },
        {
            "positions": [
                -2.5562668476485486,
                -1.1321576163897777,
                1.9681360433705204,
                -0.8237166851902611,
                0.8513513055443354,
                -3.13704550946288
            ]
        },
        {
            "positions": [
                -2.6389131930624847,
                -1.1008195454457965,
                1.9254037717505847,
                -0.8107306909602542,
                1.028098221384221,
                -3.124427806528719
            ]
        },
        {
            "positions": [
                -2.721559538476421,
                -1.069481474501815,
                1.8826715001306493,
                -0.7977446967302473,
                1.2048451372241065,
                -3.111810103594559
            ]
        },
        {
            "positions": [
                -2.8042058838903574,
                -1.0381434035578339,
                1.839939228510714,
                -0.7847587025002403,
                1.3815920530639918,
                -3.0991924006603986
            ]
        },
        {
            "positions": [
                -2.8868522293042935,
                -1.0068053326138524,
                1.7972069568907783,
                -0.7717727082702333,
                1.5583389689038774,
                -3.086574697726238
            ]
        },
        {
            "positions": [
                -2.9694985747182296,
                -0.9754672616698711,
                1.7544746852708428,
                -0.7587867140402264,
                1.7350858847437627,
                -3.0739569947920775
            ]
        }
    ]
}