{
    "goal": {
        "global_pose": {
            "orientation": {
                "w": 0.7047431493862688,
                "x": -0.7094548369677653,
                "y": 0.0024358444001904,
                "z": -0.0022348060817251984
            },
            "position": {
                "x": -0.39052492380142206,
                "y": 0.3671506643295288,
                "z": 0.19426114857196808
            }
        },
        "name": "move_to_magneteinheit_D"
    },
    "id": "RRTConnect_move_to_magneteinheit_D_110",
    "joint_names": [
        "shoulder_pan_joint",
        "shoulder_lift_joint",
        "elbow_joint",
        "wrist_1_joint",
        "wrist_2_joint",
        "wrist_3_joint"
    ],
    "metrics": {
        "cart_traj_len": 4.173931881792389,
        "distance_elbow_joint": 3.9309652722497206,
        "distance_shoulder_lift_joint": 1.625766057192897,
        "distance_shoulder_pan_joint": 2.94768376612196,
        "distance_wrist_1_joint": 1.5158636082711905,
        "distance_wrist_2_joint": 0.8585236610323648,
        "distance_wrist_3_joint": 4.911432393141283,
        "smoothness": 0.3437982898886305,
        "time": 0.184291172,
        "traj_len": 3.9736928363940534,
        "weighted_distance": 5.2903201050215785
    },
    "planner": "RRTConnect",
    "start": {
        "state": {
            "elbow_joint": 0.749534889911806,
            "shoulder_lift_joint": -0.6476975780787326,
            "shoulder_pan_joint": -2.711696901376241,
            "wrist_1_joint": -0.07506478083263063,
            "wrist_2_joint": 0.43296659715538205,
            "wrist_3_joint": -3.14703540197715
        }
    },
    "waypoints": [
        {
            "positions": [
                -2.711696901376241,
                -0.6476975780787326,
                0.749534889911806,
                -0.07506478083263063,
                0.43296659715538205,
                -3.14703540197715
            ]
        },
        {
            "positions": [
                -2.727862462038466,
                -0.7062228568503364,
                0.7647279932688218,
                -0.019112388060912297,
                0.4535829334760799,
                -2.9717209635982407
            ]
        },
        {
            "positions": [
                -2.744028022700691,
                -0.7647481356219401,
                0.7799210966258375,
                0.036840004710806035,
                0.47419926979677784,
                -2.7964065252193313
            ]
        },
        {
            "positions": [
                -2.7263212235254572,
                -0.8249389766949883,
                0.7958594067052289,
                0.10156905020180984,
                0.47930725769025795,
                -2.605469268814005
            ]
        },
        {
            "positions": [
                -2.708614424350224,
                -0.8851298177680365,
                0.8117977167846202,
                0.16629809569281365,
                0.484415245583738,
                -2.4145320124086784
            ]
        },
        {
            "positions": [
                -2.6909076251749906,
                -0.9453206588410845,
                0.8277360268640116,
                0.23102714118381745,
                0.48952323347721804,
                -2.223594756003352
            ]
        },
        {
            "positions": [
                -2.673200825999757,
                -1.0055114999141326,
                0.843674336943403,
                0.2957561866748213,
                0.49463122137069815,
                -2.0326574995980256
            ]
        },
        {
            "positions": [
                -2.655494026824524,
                -1.0657023409871809,
                0.8596126470227943,
                0.36048523216582506,
                0.49973920926417825,
                -1.8417202431926993
            ]
        },
        {
            "positions": [
                -2.6377872276492904,
                -1.125893182060229,
                0.8755509571021857,
                0.42521427765682884,
                0.5048471971576582,
                -1.650782986787373
            ]
        },
        {
            "positions": [
                -2.6200804284740573,
                -1.1860840231332772,
                0.891489267181577,
                0.48994332314783273,
                0.5099551850511383,
                -1.4598457303820465
            ]
        },
        {
            "positions": [
                -2.6023736292988238,
                -1.2462748642063253,
                0.9074275772609683,
                0.5546723686388365,
                0.5150631729446185,
                -1.26890847397672
            ]
        },
        {
            "positions": [
                -2.5014407205318965,
                -1.286434060550981,
                0.9220266869319873,
                0.6019321880556132,
                0.4804776480930566,
                -1.1317722725423343
            ]
        },
        {
            "positions": [
                -2.4005078117649696,
                -1.3265932568956367,
                0.9366257966030063,
                0.6491920074723899,
                0.44589212324149474,
                -0.9946360711079485
            ]
        },
        {
            "positions": [
                -2.2995749029980423,
                -1.3667524532402926,
                0.9512249062740253,
                0.6964518268891666,
                0.41130659838993283,
                -0.8574998696735626
            ]
        },
        {
            "positions": [
                -2.198641994231115,
                -1.4069116495849483,
                0.9658240159450443,
                0.7437116463059434,
                0.376721073538371,
                -0.7203636682391769
            ]
        },
        {
            "positions": [
                -2.0977090854641878,
                -1.447070845929604,
                0.9804231256160633,
                0.7909714657227201,
                0.3421355486868091,
                -0.5832274668047911
            ]
        },
        {
            "positions": [
                -1.996776176697261,
                -1.4872300422742597,
                0.9950222352870823,
                0.8382312851394969,
                0.3075500238352472,
                -0.4460912653704052
            ]
        },
        {
            "positions": [
                -1.8958432679303336,
                -1.5273892386189154,
                1.0096213449581013,
                0.8854911045562737,
                0.27296449898368536,
                -0.30895506393601946
            ]
        },
        {
            "positions": [
                -1.7949103591634066,
                -1.5675484349635713,
                1.0242204546291203,
                0.9327509239730503,
                0.2383789741321235,
                -0.1718188625016337
            ]
        },
        {
            "positions": [
                -1.6939774503964795,
                -1.607707631308227,
                1.0388195643001392,
                0.9800107433898271,
                0.20379344928056164,
                -0.03468266106724793
            ]
        },
        {
            "positions": [
                -1.5930445416295522,
                -1.6478668276528827,
                1.0534186739711582,
                1.0272705628066037,
                0.1692079244289998,
                0.10245354036713783
            ]
        },
        {
            "positions": [
                -1.4921116328626252,
                -1.6880260239975384,
                1.0680177836421771,
                1.0745303822233805,
                0.13462239957743788,
                0.2395897418015236
            ]
        },
        {
            "positions": [
                -1.391178724095698,
                -1.7281852203421941,
                1.082616893313196,
                1.1217902016401573,
                0.10003687472587602,
                0.3767259432359096
            ]
        },
        {
            "positions": [
                -1.2902458153287708,
                -1.7683444166868498,
                1.0972160029842153,
                1.169050021056934,
                0.06545134987431417,
                0.5138621446702953
            ]
        },
        {
            "positions": [
                -1.1893129065618437,
                -1.8085036130315055,
                1.1118151126552343,
                1.2163098404737107,
                0.030865825022752258,
                0.6509983461046811
            ]
        },
        {
            "positions": [
                -1.0883799977949165,
                -1.8486628093761615,
                1.1264142223262532,
                1.2635696598904875,
                -0.0037196998288095973,
                0.7881345475390666
            ]
        },
        {
            "positions": [
                -0.9874470890279893,
                -1.8888220057208172,
                1.1410133319972722,
                1.3108294793072641,
                -0.03830522468037144,
                0.9252707489734526
            ]
        },
        {
            "positions": [
                -0.9173700448541269,
                -1.9153754311347069,
                0.9131621170234824,
                1.3153759825896874,
                -0.029348559027293324,
                0.8694157061803528
            ]
        },
        {
            "positions": [
                -0.8472930006802645,
                -1.9419288565485966,
                0.6853109020496926,
                1.3199224858721106,
                -0.020391893374215205,
                0.813560663387253
            ]
        },
        {
            "positions": [
                -0.7772159565064021,
                -1.9684822819624865,
                0.4574596870759028,
                1.3244689891545338,
                -0.011435227721137087,
                0.7577056205941531
            ]
        },
        {
            "positions": [
                -0.7071389123325398,
                -1.9950357073763763,
                0.229608472102113,
                1.329015492436957,
                -0.0024785620680589718,
                0.7018505778010533
            ]
        },
        {
            "positions": [
                -0.6370618681586773,
                -2.021589132790266,
                0.0017572571283230864,
                1.3335619957193803,
                0.00647810358501915,
                0.6459955350079535
            ]
        },
        {
            "positions": [
                -0.566984823984815,
                -2.0481425582041557,
                -0.2260939578454666,
                1.3381084990018035,
                0.015434769238097265,
                0.5901404922148537
            ]
        },
        {
            "positions": [
                -0.4969077798109526,
                -2.0746959836180454,
                -0.4539451728192565,
                1.3426550022842267,
                0.024391434891175387,
                0.5342854494217538
            ]
        },
        {
            "positions": [
                -0.4268307356370902,
                -2.101249409031935,
                -0.6817963877930462,
                1.34720150556665,
                0.033348100544253495,
                0.478430406628654
            ]
        },
        {
            "positions": [
                -0.3567536914632278,
                -2.1278028344458253,
                -0.9096476027668363,
                1.3517480088490732,
                0.04230476619733163,
                0.42257536383555416
            ]
        },
        {
            "positions": [
                -0.28667664728936537,
                -2.154356259859715,
                -1.137498817740626,
                1.3562945121314964,
                0.05126143185040974,
                0.36672032104245433
            ]
        },
        {
            "positions": [
                -0.21659960311550308,
                -2.1809096852736047,
                -1.3653500327144157,
                1.3608410154139197,
                0.06021809750348786,
                0.3108652782493545
            ]
        },
        {
            "positions": [
                -0.14652255894164068,
                -2.2074631106874945,
                -1.5932012476882054,
                1.365387518696343,
                0.06917476315656597,
                0.2550102354562547
            ]
        },
        {
            "positions": [
                -0.07644551476777828,
                -2.234016536101384,
                -1.8210524626619955,
                1.3699340219787661,
                0.0781314288096441,
                0.19915519266315485
            ]
        },
        {
            "positions": [
                -0.006368470593915904,
                -2.260569961515274,
                -2.048903677635785,
                1.3744805252611894,
                0.08708809446272221,
                0.14330014987005507
            ]
        },
        {
            "positions": [
                -0.09521501693928429,
                -2.2670167983934517,
                -2.2236885879013837,
                1.4076396763498746,
                0.13592077870024472,
                0.11472232832641449
            ]
        },
        {
            "positions": [
                -0.18406156328465267,
                -2.2734636352716295,
                -2.398473498166982,
                1.44079882743856,
                0.1847534629377672,
                0.08614450678277391
            ]
        }
    ]
}