{
    "goal": {
        "global_pose": {
            "orientation": {
                "w": 0.5084816262002911,
                "x": -0.4908360881923452,
                "y": 0.5182115481033761,
                "z": -0.48164630358495003
            },
            "position": {
                "x": 0.5540239810943604,
                "y": -0.46912469901144505,
                "z": 0.16403168439865112
            }
        },
        "name": "move_to_storage_B"
    },
    "id": "RRTConnect_move_to_storage_B_87",
    "joint_names": [
        "shoulder_pan_joint",
        "shoulder_lift_joint",
        "elbow_joint",
        "wrist_1_joint",
        "wrist_2_joint",
        "wrist_3_joint"
    ],
    "metrics": {
        "cart_traj_len": 2.7814693880908523,
        "distance_elbow_joint": 1.0511665056645425,
        "distance_shoulder_lift_joint": 2.8087814380396168,
        "distance_shoulder_pan_joint": 3.340577528829856,
        "distance_wrist_1_joint": 4.176373207101033,
        "distance_wrist_2_joint": 2.705129134299588,
        "distance_wrist_3_joint": 3.137066382385194,
        "smoothness": 0.2915588809833061,
        "time": 0.093933118,
        "traj_len": 4.149589641918805,
        "weighted_distance": 5.511327363030691
    },
    "planner": "RRTConnect",
    "start": {
        "state": {
            "elbow_joint": 1.664937868594044,
            "shoulder_lift_joint": -0.661644460510453,
            "shoulder_pan_joint": -0.9139846352900073,
            "wrist_1_joint": 2.146753192139373,
            "wrist_2_joint": -2.2341966793290973,
            "wrist_3_joint": 0.005466555786416001
        }
    },
    "waypoints": [
        {
            "positions": [
                -0.9139846352900073,
                -0.661644460510453,
                1.664937868594044,
                2.146753192139373,
                -2.2341966793290973,
                0.005466555786416001
            ]
        },
        {
            "positions": [
                -0.8011550167025319,
                -0.778368554303292,
                1.7149254760965777,
                2.1894577331502374,
                -2.1799878590936923,
                0.005406092390073656
            ]
        },
        {
            "positions": [
                -0.6883253981150566,
                -0.895092648096131,
                1.7649130835991118,
                2.2321622741611016,
                -2.125779038858287,
                0.0053456289937313115
            ]
        },
        {
            "positions": [
                -0.5754957795275812,
                -1.01181674188897,
                1.8149006911016456,
                2.2748668151719653,
                -2.071570218622882,
                0.005285165597388967
            ]
        },
        {
            "positions": [
                -0.4626661609401058,
                -1.1285408356818092,
                1.8648882986041795,
                2.3175713561828295,
                -2.0173613983874765,
                0.005224702201046622
            ]
        },
        {
            "positions": [
                -0.3498365423526304,
                -1.245264929474648,
                1.9148759061067135,
                2.3602758971936937,
                -1.9631525781520716,
                0.005164238804704278
            ]
        },
        {
            "positions": [
                -0.2370069237651551,
                -1.361989023267487,
                1.9648635136092474,
                2.402980438204558,
                -1.9089437579166664,
                0.005103775408361933
            ]
        },
        {
            "positions": [
                -0.12417730517767966,
                -1.4787131170603263,
                2.014851121111781,
                2.4456849792154216,
                -1.8547349376812612,
                0.005043312012019588
            ]
        },
        {
            "positions": [
                -0.011347686590204353,
                -1.5954372108531651,
                2.064838728614315,
                2.488389520226286,
                -1.800526117445856,
                0.004982848615677243
            ]
        },
        {
            "positions": [
                0.10148193199727118,
                -1.7121613046460042,
                2.114826336116849,
                2.53109406123715,
                -1.7463172972104508,
                0.004922385219334899
            ]
        },
        {
            "positions": [
                0.2143115505847465,
                -1.8288853984388433,
                2.164813943619383,
                2.573798602248014,
                -1.6921084769750458,
                0.004861921822992554
            ]
        },
        {
            "positions": [
                0.3271411691722218,
                -1.9456094922316822,
                2.2148015511219166,
                2.6165031432588783,
                -1.6378996567396404,
                0.00480145842665021
            ]
        },
        {
            "positions": [
                0.4399707877596971,
                -2.062333586024521,
                2.264789158624451,
                2.659207684269742,
                -1.5836908365042355,
                0.004740995030307865
            ]
        },
        {
            "positions": [
                0.5528004063471726,
                -2.1790576798173604,
                2.3147767661269847,
                2.7019122252806063,
                -1.52948201626883,
                0.004680531633965521
            ]
        },
        {
            "positions": [
                0.6656300249346478,
                -2.2957817736101993,
                2.3647643736295185,
                2.7446167662914704,
                -1.475273196033425,
                0.004620068237623176
            ]
        },
        {
            "positions": [
                0.6088247711086736,
                -2.257890027644397,
                2.353430825222129,
                2.6291809716802144,
                -1.412492368581686,
                0.1057884519420232
            ]
        },
        {
            "positions": [
                0.5520195172826995,
                -2.2199982816785946,
                2.34209727681474,
                2.5137451770689583,
                -1.3497115411299467,
                0.20695683564642323
            ]
        },
        {
            "positions": [
                0.4952142634567253,
                -2.1821065357127924,
                2.3307637284073506,
                2.3983093824577026,
                -1.2869307136782075,
                0.30812521935082327
            ]
        },
        {
            "positions": [
                0.43840900963075113,
                -2.14421478974699,
                2.3194301799999613,
                2.2828735878464466,
                -1.2241498862264684,
                0.4092936030552233
            ]
        },
        {
            "positions": [
                0.38160375580477696,
                -2.1063230437811877,
                2.308096631592572,
                2.1674377932351905,
                -1.1613690587747292,
                0.5104619867596233
            ]
        },
        {
            "positions": [
                0.3247985019788028,
                -2.068431297815385,
                2.2967630831851826,
                2.0520019986239344,
                -1.0985882313229898,
                0.6116303704640234
            ]
        },
        {
            "positions": [
                0.2679932481528286,
                -2.030539551849583,
                2.2854295347777933,
                1.9365662040126788,
                -1.0358074038712506,
                0.7127987541684234
            ]
        },
        {
            "positions": [
                0.21118799432685437,
                -1.9926478058837807,
                2.2740959863704044,
                1.8211304094014227,
                -0.9730265764195114,
                0.8139671378728234
            ]
        },
        {
            "positions": [
                0.1543827405008802,
                -1.9547560599179783,
                2.262762437963015,
                1.7056946147901666,
                -0.9102457489677721,
                0.9151355215772236
            ]
        },
        {
            "positions": [
                0.09757748667490607,
                -1.9168643139521762,
                2.251428889555626,
                1.5902588201789107,
                -0.847464921516033,
                1.0163039052816234
            ]
        },
        {
            "positions": [
                0.04077223284893183,
                -1.8789725679863738,
                2.2400953411482365,
                1.4748230255676547,
                -0.7846840940642937,
                1.1174722889860236
            ]
        },
        {
            "positions": [
                -0.01603302097704229,
                -1.8410808220205714,
                2.228761792740847,
                1.3593872309563988,
                -0.7219032666125546,
                1.2186406726904235
            ]
        },
        {
            "positions": [
                -0.07283827480301652,
                -1.803189076054769,
                2.217428244333458,
                1.2439514363451427,
                -0.6591224391608153,
                1.3198090563948237
            ]
        },
        {
            "positions": [
                -0.12964352862899065,
                -1.7652973300889667,
                2.2060946959260685,
                1.1285156417338869,
                -0.5963416117090762,
                1.4209774400992237
            ]
        },
        {
            "positions": [
                -0.18644878245496488,
                -1.7274055841231646,
                2.1947611475186792,
                1.0130798471226308,
                -0.5335607842573369,
                1.5221458238036238
            ]
        },
        {
            "positions": [
                -0.2432540362809391,
                -1.689513838157362,
                2.18342759911129,
                0.8976440525113747,
                -0.4707799568055977,
                1.6233142075080236
            ]
        },
        {
            "positions": [
                -0.30005929010691323,
                -1.6516220921915599,
                2.1720940507039006,
                0.7822082579001188,
                -0.4079991293538585,
                1.7244825912124235
            ]
        },
        {
            "positions": [
                -0.35686454393288747,
                -1.6137303462257573,
                2.1607605022965113,
                0.6667724632888627,
                -0.3452183019021191,
                1.825650974916824
            ]
        },
        {
            "positions": [
                -0.4136697977588617,
                -1.5758386002599551,
                2.149426953889122,
                0.5513366686776067,
                -0.2824374744503799,
                1.9268193586212239
            ]
        },
        {
            "positions": [
                -0.4704750515848357,
                -1.537946854294153,
                2.1380934054817327,
                0.43590087406635103,
                -0.21965664699864096,
                2.0279877423256236
            ]
        },
        {
            "positions": [
                -0.52728030541081,
                -1.5000551083283504,
                2.1267598570743433,
                0.32046507945509495,
                -0.15687581954690177,
                2.129156126030024
            ]
        },
        {
            "positions": [
                -0.5840855592367842,
                -1.4621633623625483,
                2.115426308666954,
                0.20502928484383887,
                -0.09409499209516237,
                2.230324509734424
            ]
        },
        {
            "positions": [
                -0.6408908130627584,
                -1.4242716163967457,
                2.104092760259565,
                0.08959349023258278,
                -0.03131416464342318,
                2.331492893438824
            ]
        },
        {
            "positions": [
                -0.6976960668887324,
                -1.3863798704309436,
                2.092759211852176,
                -0.025842304378672853,
                0.031466662808316004,
                2.432661277143224
            ]
        },
        {
            "positions": [
                -0.7545013207147067,
                -1.3484881244651414,
                2.0814256634447865,
                -0.14127809898992894,
                0.09424749026005519,
                2.533829660847624
            ]
        },
        {
            "positions": [
                -0.8113065745406809,
                -1.3105963784993389,
                2.070092115037397,
                -0.256713893601185,
                0.1570283177117946,
                2.6349980445520242
            ]
        },
        {
            "positions": [
                -0.8681118283666551,
                -1.2727046325335365,
                2.058758566630008,
                -0.3721496882124411,
                0.21980914516353378,
                2.736166428256424
            ]
        },
        {
            "positions": [
                -0.9249170821926291,
                -1.2348128865677344,
                2.0474250182226186,
                -0.48758548282369674,
                0.28258997261527274,
                2.837334811960824
            ]
        },
        {
            "positions": [
                -0.9817223360186034,
                -1.196921140601932,
                2.0360914698152293,
                -0.6030212774349528,
                0.34537080006701193,
                2.938503195665224
            ]
        },
        {
            "positions": [
                -1.0385275898445776,
                -1.1590293946361296,
                2.02475792140784,
                -0.7184570720462089,
                0.40815162751875134,
                3.0396715793696245
            ]
        },
        {
            "positions": [
                -1.0953328436705518,
                -1.1211376486703273,
                2.0134243730004506,
                -0.8338928666574652,
                0.4709324549704904,
                3.1408399630740242
            ]
        }
    ]
}