{
    "goal": {
        "global_pose": {
            "orientation": {
                "w": -0.4816463035849501,
                "x": 0.5182115481033762,
                "y": 0.4908360881923453,
                "z": -0.5084816262002911
            },
            "position": {
                "x": -0.8240239810943604,
                "y": -0.300875300988555,
                "z": 0.16403168439865112
            }
        },
        "name": "move_to_storage_C"
    },
    "id": "RRTConnect_move_to_storage_C_117",
    "joint_names": [
        "shoulder_pan_joint",
        "shoulder_lift_joint",
        "elbow_joint",
        "wrist_1_joint",
        "wrist_2_joint",
        "wrist_3_joint"
    ],
    "metrics": {
        "cart_traj_len": 0.5763585876063113,
        "distance_elbow_joint": 0.25724966336846244,
        "distance_shoulder_lift_joint": 0.18788061192935968,
        "distance_shoulder_pan_joint": 0.4952478981559154,
        "distance_wrist_1_joint": 0.07877698299458813,
        "distance_wrist_2_joint": 1.063854203306335,
        "distance_wrist_3_joint": 0.06576089951060693,
        "smoothness": 0.0,
        "time": 0.052661230999999996,
        "traj_len": 1.4658684317718518,
        "weighted_distance": 1.8501143868927143
    },
    "planner": "RRTConnect",
    "start": {
        "state": {
            "elbow_joint": 2.010868314990456,
            "shoulder_lift_joint": -1.1634956873337592,
            "shoulder_pan_joint": -2.4736205022346125,
            "wrist_1_joint": -0.8367026794202681,
            "wrist_2_joint": 0.6746043897044499,
            "wrist_3_joint": -3.1496632123970403
        }
    },
    "waypoints": [
        {
            "positions": [
                -2.4736205022346125,
                -1.1634956873337592,
                2.010868314990456,
                -0.8367026794202681,
                0.6746043897044499,
                -3.1496632123970403
            ]
        },
        {
            "positions": [
                -2.5561618185939317,
                -1.1321822520121994,
                1.967993371095712,
                -0.8235731822545034,
                0.851913423588839,
                -3.138703062478606
            ]
        },
        {
            "positions": [
                -2.638703134953251,
                -1.1008688166906393,
                1.9251184272009683,
                -0.8104436850887388,
                1.0292224574732283,
                -3.1277429125601715
            ]
        },
        {
            "positions": [
                -2.72124445131257,
                -1.0695553813690792,
                1.8822434833062247,
                -0.797314187922974,
                1.2065314913576173,
                -3.116782762641737
            ]
        },
        {
            "positions": [
                -2.8037857676718896,
                -1.0382419460475194,
                1.839368539411481,
                -0.7841846907572093,
                1.3838405252420065,
                -3.105822612723302
            ]
        },
        {
            "positions": [
                -2.8863270840312087,
                -1.0069285107259596,
                1.7964935955167372,
                -0.7710551935914447,
                1.5611495591263957,
                -3.0948624628048678
            ]
        },
        {
            "positions": [
                -2.968868400390528,
                -0.9756150754043995,
                1.7536186516219934,
                -0.75792569642568,
                1.738458593010785,
                -3.0839023128864334
            ]
        }
    ]
}