{
    "goal": {
        "global_pose": {
            "orientation": {
                "w": -0.4816463035849501,
                "x": 0.5182115481033762,
                "y": 0.4908360881923453,
                "z": -0.5084816262002911
            },
            "position": {
                "x": -0.8240239810943604,
                "y": 0.19912469901144506,
                "z": 0.16403168439865112
            }
        },
        "name": "move_to_storage_D"
    },
    "id": "RRTConnect_move_to_storage_D_41",
    "joint_names": [
        "shoulder_pan_joint",
        "shoulder_lift_joint",
        "elbow_joint",
        "wrist_1_joint",
        "wrist_2_joint",
        "wrist_3_joint"
    ],
    "metrics": {
        "cart_traj_len": 3.7007873510386027,
        "distance_elbow_joint": 4.6124571759500785,
        "distance_shoulder_lift_joint": 1.2647566686599037,
        "distance_shoulder_pan_joint": 2.8138495745496592,
        "distance_wrist_1_joint": 2.261761267541413,
        "distance_wrist_2_joint": 2.1074886171915224,
        "distance_wrist_3_joint": 3.9102987983165516,
        "smoothness": 0.19290023615727386,
        "time": 0.08352654600000001,
        "traj_len": 4.119540278017576,
        "weighted_distance": 5.400042553867069
    },
    "planner": "RRTConnect",
    "start": {
        "state": {
            "elbow_joint": -2.384821988534728,
            "shoulder_lift_joint": -2.2788054721415256,
            "shoulder_pan_joint": -0.1854694642142757,
            "wrist_1_joint": 1.4845938289331202,
            "wrist_2_joint": 0.17898776772866878,
            "wrist_3_joint": 0.037105688729662994
        }
    },
    "waypoints": [
        {
            "positions": [
                -0.1854694642142757,
                -2.2788054721415256,
                -2.384821988534728,
                1.4845938289331202,
                0.17898776772866878,
                0.037105688729662994
            ]
        },
        {
            "positions": [
                -0.09546426945074214,
                -2.2149513853946727,
                -2.403226686790625,
                1.3740561438781855,
                0.12320064147124463,
                0.0018734350029751823
            ]
        },
        {
            "positions": [
                -0.005459074687208576,
                -2.15109729864782,
                -2.4216313850465214,
                1.263518458823251,
                0.06741351521382048,
                -0.03335881872371263
            ]
        },
        {
            "positions": [
                0.08454612007632498,
                -2.0872432119009674,
                -2.4400360833024184,
                1.1529807737683164,
                0.011626388956396339,
                -0.06859107245040043
            ]
        },
        {
            "positions": [
                0.17455131483985856,
                -2.0233891251541145,
                -2.458440781558315,
                1.042443088713382,
                -0.04416073730102782,
                -0.10382332617708825
            ]
        },
        {
            "positions": [
                0.26455650960339205,
                -1.9595350384072616,
                -2.476845479814212,
                0.9319054036584474,
                -0.09994786355845195,
                -0.13905557990377607
            ]
        },
        {
            "positions": [
                0.3545617043669257,
                -1.8956809516604087,
                -2.4952501780701084,
                0.8213677186035129,
                -0.1557349898158761,
                -0.17428783363046385
            ]
        },
        {
            "positions": [
                0.4445668991304592,
                -1.8318268649135558,
                -2.5136548763260054,
                0.7108300335485782,
                -0.21152211607330026,
                -0.2095200873571517
            ]
        },
        {
            "positions": [
                0.5345720938939929,
                -1.7679727781667032,
                -2.532059574581902,
                0.6002923484936437,
                -0.2673092423307244,
                -0.2447523410838395
            ]
        },
        {
            "positions": [
                0.6245772886575265,
                -1.7041186914198503,
                -2.550464272837799,
                0.4897546634387091,
                -0.3230963685881486,
                -0.2799845948105273
            ]
        },
        {
            "positions": [
                0.7145824834210599,
                -1.6402646046729976,
                -2.5688689710936954,
                0.37921697838377466,
                -0.3788834948455727,
                -0.3152168485372151
            ]
        },
        {
            "positions": [
                0.8045876781845935,
                -1.5764105179261447,
                -2.5872736693495924,
                0.2686792933288399,
                -0.43467062110299687,
                -0.35044910226390297
            ]
        },
        {
            "positions": [
                0.8598541155224962,
                -1.5593692538520683,
                -2.45363713919398,
                0.23698696811862366,
                -0.38940303842542545,
                -0.24369928386017614
            ]
        },
        {
            "positions": [
                0.915120552860399,
                -1.5423279897779918,
                -2.320000609038367,
                0.20529464290840743,
                -0.34413545574785404,
                -0.1369494654564493
            ]
        },
        {
            "positions": [
                0.9703869901983018,
                -1.5252867257039153,
                -2.1863640788827547,
                0.1736023176981912,
                -0.2988678730702826,
                -0.030199647052722434
            ]
        },
        {
            "positions": [
                1.0256534275362044,
                -1.5082454616298389,
                -2.052727548727142,
                0.14190999248797498,
                -0.25360029039271126,
                0.07655017135100439
            ]
        },
        {
            "positions": [
                1.0809198648741072,
                -1.4912041975557624,
                -1.9190910185715295,
                0.11021766727775875,
                -0.20833270771513981,
                0.18329998975473122
            ]
        },
        {
            "positions": [
                1.13618630221201,
                -1.4741629334816861,
                -1.785454488415917,
                0.07852534206754253,
                -0.16306512503756837,
                0.2900498081584581
            ]
        },
        {
            "positions": [
                1.1914527395499126,
                -1.4571216694076097,
                -1.6518179582603043,
                0.0468330168573263,
                -0.11779754235999695,
                0.39679962656218487
            ]
        },
        {
            "positions": [
                1.2467191768878154,
                -1.4400804053335332,
                -1.518181428104692,
                0.015140691647110072,
                -0.0725299596824256,
                0.5035494449659117
            ]
        },
        {
            "positions": [
                1.301985614225718,
                -1.4230391412594567,
                -1.3845448979490793,
                -0.016551633563106127,
                -0.027262377004854177,
                0.6102992633696385
            ]
        },
        {
            "positions": [
                1.3572520515636208,
                -1.4059978771853803,
                -1.2509083677934667,
                -0.04824395877332238,
                0.01800520567271724,
                0.7170490817733655
            ]
        },
        {
            "positions": [
                1.4125184889015234,
                -1.3889566131113038,
                -1.1172718376378543,
                -0.07993628398353858,
                0.06327278835028866,
                0.8237989001770922
            ]
        },
        {
            "positions": [
                1.4677849262394262,
                -1.3719153490372273,
                -0.9836353074822415,
                -0.11162860919375484,
                0.10854037102786013,
                0.9305487185808192
            ]
        },
        {
            "positions": [
                1.5230513635773288,
                -1.3548740849631509,
                -0.8499987773266291,
                -0.14332093440397103,
                0.1538079537054315,
                1.037298536984546
            ]
        },
        {
            "positions": [
                1.5783178009152317,
                -1.3378328208890744,
                -0.7163622471710165,
                -0.1750132596141873,
                0.19907553638300296,
                1.1440483553882728
            ]
        },
        {
            "positions": [
                1.6335842382531345,
                -1.320791556814998,
                -0.5827257170154039,
                -0.2067055848244035,
                0.24434311906057432,
                1.2507981737919995
            ]
        },
        {
            "positions": [
                1.6888506755910373,
                -1.3037502927409217,
                -0.4490891868597915,
                -0.23839791003461974,
                0.2896107017381457,
                1.3575479921957265
            ]
        },
        {
            "positions": [
                1.7441171129289397,
                -1.286709028666845,
                -0.31545265670417866,
                -0.2700902352448359,
                0.33487828441571715,
                1.4642978105994533
            ]
        },
        {
            "positions": [
                1.7993835502668425,
                -1.2696677645927688,
                -0.18181612654856627,
                -0.30178256045505214,
                0.3801458670932885,
                1.57104762900318
            ]
        },
        {
            "positions": [
                1.8546499876047453,
                -1.252626500518692,
                -0.04817959639295344,
                -0.3334748856652684,
                0.42541344977086,
                1.677797447406907
            ]
        },
        {
            "positions": [
                1.9099164249426481,
                -1.2355852364446158,
                0.08545693376265895,
                -0.36516721087548465,
                0.47068103244843135,
                1.7845472658106338
            ]
        },
        {
            "positions": [
                1.9651828622805507,
                -1.2185439723705394,
                0.21909346391827134,
                -0.3968595360857008,
                0.5159486151260027,
                1.8912970842143606
            ]
        },
        {
            "positions": [
                2.0204492996184533,
                -1.2015027082964629,
                0.3527299940738837,
                -0.42855186129591705,
                0.5612161978035741,
                1.9980469026180874
            ]
        },
        {
            "positions": [
                2.075715736956356,
                -1.1844614442223864,
                0.486366524229497,
                -0.4602441865061333,
                0.6064837804811456,
                2.1047967210218146
            ]
        },
        {
            "positions": [
                2.130982174294259,
                -1.16742018014831,
                0.6200030543851094,
                -0.49193651171634956,
                0.6517513631587171,
                2.2115465394255414
            ]
        },
        {
            "positions": [
                2.1862486116321618,
                -1.1503789160742335,
                0.7536395845407218,
                -0.5236288369265657,
                0.6970189458362883,
                2.318296357829268
            ]
        },
        {
            "positions": [
                2.241515048970064,
                -1.133337652000157,
                0.8872761146963342,
                -0.555321162136782,
                0.7422865285138598,
                2.425046176232995
            ]
        },
        {
            "positions": [
                2.2967814863079674,
                -1.1162963879260805,
                1.020912644851947,
                -0.5870134873469982,
                0.7875541111914313,
                2.5317959946367217
            ]
        },
        {
            "positions": [
                2.35204792364587,
                -1.099255123852004,
                1.1545491750075594,
                -0.6187058125572145,
                0.8328216938690027,
                2.6385458130404484
            ]
        },
        {
            "positions": [
                2.4073143609837726,
                -1.0822138597779278,
                1.2881857051631718,
                -0.6503981377674306,
                0.878089276546574,
                2.745295631444175
            ]
        },
        {
            "positions": [
                2.4625807983216754,
                -1.0651725957038514,
                1.4218222353187846,
                -0.6820904629776469,
                0.9233568592241455,
                2.852045449847902
            ]
        },
        {
            "positions": [
                2.517847235659578,
                -1.048131331629775,
                1.5554587654743974,
                -0.7137827881878631,
                0.9686244419017169,
                2.958795268251629
            ]
        },
        {
            "positions": [
                2.573113672997481,
                -1.0310900675556984,
                1.6890952956300094,
                -0.7454751133980794,
                1.0138920245792882,
                3.065545086655356
            ]
        },
        {
            "positions": [
                2.6283801103353834,
                -1.014048803481622,
                1.8227318257856218,
                -0.7771674386082954,
                1.0591596072568596,
                3.1722949050590827
            ]
        }
    ]
}