{
    "goal": {
        "global_pose": {
            "orientation": {
                "w": 0.7047431493862688,
                "x": -0.7094548369677653,
                "y": 0.0024358444001904,
                "z": -0.0022348060817251984
            },
            "position": {
                "x": -0.39052492380142206,
                "y": 0.3671506643295288,
                "z": 0.19426114857196808
            }
        },
        "name": "move_to_magneteinheit_D"
    },
    "id": "RRTConnect_move_to_magneteinheit_D_94",
    "joint_names": [
        "shoulder_pan_joint",
        "shoulder_lift_joint",
        "elbow_joint",
        "wrist_1_joint",
        "wrist_2_joint",
        "wrist_3_joint"
    ],
    "metrics": {
        "cart_traj_len": 4.879566369601251,
        "distance_elbow_joint": 3.1465876560400283,
        "distance_shoulder_lift_joint": 1.6265339224847415,
        "distance_shoulder_pan_joint": 5.129323734474973,
        "distance_wrist_1_joint": 1.712102235223489,
        "distance_wrist_2_joint": 0.5001360948046172,
        "distance_wrist_3_joint": 3.2303514335454646,
        "smoothness": 0.35462956236665216,
        "time": 0.14488140100000002,
        "traj_len": 3.9172739343289895,
        "weighted_distance": 4.900813837893901
    },
    "planner": "RRTConnect",
    "start": {
        "state": {
            "elbow_joint": 0.749534889911806,
            "shoulder_lift_joint": -0.6476975780787326,
            "shoulder_pan_joint": -2.711696901376241,
            "wrist_1_joint": -0.07506478083263063,
            "wrist_2_joint": 0.43296659715538205,
            "wrist_3_joint": -3.14703540197715
        }
    },
    "waypoints": [
        {
            "positions": [
                -2.711696901376241,
                -0.6476975780787326,
                0.749534889911806,
                -0.07506478083263063,
                0.43296659715538205,
                -3.14703540197715
            ]
        },
        {
            "positions": [
                -2.7141310533937983,
                -0.6889906198881187,
                0.7166209826887877,
                -0.10697464903965012,
                0.42543083896525696,
                -3.0956849610882933
            ]
        },
        {
            "positions": [
                -2.714421830326579,
                -0.7250586855645209,
                0.6712167887835652,
                -0.14034967475194782,
                0.4184794192991206,
                -3.0065599442647404
            ]
        },
        {
            "positions": [
                -2.7147126072593597,
                -0.7611267512409232,
                0.6258125948783426,
                -0.17372470046424554,
                0.41152799963298414,
                -2.917434927441187
            ]
        },
        {
            "positions": [
                -2.572925142561852,
                -0.7850725892950713,
                0.5180690655297178,
                -0.14388096066675404,
                0.41602674738567286,
                -2.8341279960144625
            ]
        },
        {
            "positions": [
                -2.4311376778643434,
                -0.8090184273492194,
                0.4103255361810928,
                -0.11403722086926255,
                0.42052549513836157,
                -2.750821064587738
            ]
        },
        {
            "positions": [
                -2.2893502131668355,
                -0.8329642654033674,
                0.30258200683246794,
                -0.08419348107177103,
                0.42502424289105023,
                -2.6675141331610135
            ]
        },
        {
            "positions": [
                -2.147562748469327,
                -0.8569101034575155,
                0.19483847748384303,
                -0.05434974127427954,
                0.42952299064373894,
                -2.584207201734289
            ]
        },
        {
            "positions": [
                -2.0057752837718192,
                -0.8808559415116636,
                0.08709494813521812,
                -0.024506001476788025,
                0.43402173839642766,
                -2.500900270307564
            ]
        },
        {
            "positions": [
                -1.8639878190743109,
                -0.9048017795658116,
                -0.020648581213406736,
                0.005337738320703472,
                0.4385204861491164,
                -2.4175933388808395
            ]
        },
        {
            "positions": [
                -1.722200354376803,
                -0.9287476176199597,
                -0.1283921105620316,
                0.03518147811819497,
                0.4430192339018051,
                -2.334286407454115
            ]
        },
        {
            "positions": [
                -1.5804128896792948,
                -0.9526934556741078,
                -0.23613563991065656,
                0.06502521791568647,
                0.44751798165449375,
                -2.2509794760273905
            ]
        },
        {
            "positions": [
                -1.4386254249817867,
                -0.9766392937282558,
                -0.3438791692592814,
                0.09486895771317799,
                0.45201672940718246,
                -2.167672544600666
            ]
        },
        {
            "positions": [
                -1.2968379602842786,
                -1.000585131782404,
                -0.4516226986079064,
                0.12471269751066949,
                0.4565154771598712,
                -2.084365613173941
            ]
        },
        {
            "positions": [
                -1.1550504955867704,
                -1.024530969836552,
                -0.5593662279565312,
                0.154556437308161,
                0.4610142249125599,
                -2.0010586817472165
            ]
        },
        {
            "positions": [
                -1.0132630308892623,
                -1.0484768078907,
                -0.6671097573051561,
                0.18440017710565249,
                0.4655129726652486,
                -1.917751750320492
            ]
        },
        {
            "positions": [
                -0.8714755661917541,
                -1.072422645944848,
                -0.774853286653781,
                0.21424391690314398,
                0.47001172041793726,
                -1.8344448188937674
            ]
        },
        {
            "positions": [
                -0.729688101494246,
                -1.0963684839989962,
                -0.8825968160024058,
                0.24408765670063548,
                0.474510468170626,
                -1.751137887467043
            ]
        },
        {
            "positions": [
                -0.5879006367967379,
                -1.1203143220531442,
                -0.9903403453510309,
                0.27393139649812703,
                0.4790092159233147,
                -1.6678309560403182
            ]
        },
        {
            "positions": [
                -0.44611317209922996,
                -1.1442601601072924,
                -1.0980838746996557,
                0.3037751362956185,
                0.4835079636760034,
                -1.5845240246135939
            ]
        },
        {
            "positions": [
                -0.3043257074017216,
                -1.1682059981614403,
                -1.2058274040482806,
                0.3336188760931101,
                0.4880067114286921,
                -1.5012170931868691
            ]
        },
        {
            "positions": [
                -0.1625382427042137,
                -1.1921518362155883,
                -1.3135709333969054,
                0.3634626158906015,
                0.4925054591813808,
                -1.4179101617601446
            ]
        },
        {
            "positions": [
                -0.020750778006705328,
                -1.2160976742697365,
                -1.4213144627455303,
                0.3933063556880931,
                0.49700420693406955,
                -1.3346032303334199
            ]
        },
        {
            "positions": [
                0.12103668669080259,
                -1.2400435123238847,
                -1.5290579920941554,
                0.4231500954855845,
                0.5015029546867582,
                -1.2512962989066954
            ]
        },
        {
            "positions": [
                0.26282415138831094,
                -1.2639893503780326,
                -1.6368015214427805,
                0.4529938352830761,
                0.506001702439447,
                -1.1679893674799708
            ]
        },
        {
            "positions": [
                0.40461161608581886,
                -1.2879351884321806,
                -1.744545050791405,
                0.4828375750805675,
                0.5105004501921356,
                -1.0846824360532463
            ]
        },
        {
            "positions": [
                0.5463990807833272,
                -1.3118810264863288,
                -1.8522885801400302,
                0.5126813148780591,
                0.5149991979448243,
                -1.0013755046265216
            ]
        },
        {
            "positions": [
                0.6881865454808351,
                -1.335826864540477,
                -1.9600321094886548,
                0.5425250546755505,
                0.5194979456975131,
                -0.9180685731997971
            ]
        },
        {
            "positions": [
                0.8299740101783435,
                -1.359772702594625,
                -2.06777563883728,
                0.572368794473042,
                0.5239966934502017,
                -0.8347616417730723
            ]
        },
        {
            "positions": [
                0.9717614748758514,
                -1.3837185406487729,
                -2.1755191681859047,
                0.6022125342705336,
                0.5284954412028904,
                -0.7514547103463478
            ]
        },
        {
            "positions": [
                1.1135489395733598,
                -1.407664378702921,
                -2.28326269753453,
                0.6320562740680251,
                0.5329941889555792,
                -0.6681477789196232
            ]
        },
        {
            "positions": [
                0.9955447139588928,
                -1.4864432079629712,
                -2.2936072492248654,
                0.7054800323461708,
                0.5005186155047042,
                -0.5998328870570833
            ]
        },
        {
            "positions": [
                0.8775404883444258,
                -1.5652220372230217,
                -2.3039518009152014,
                0.7789037906243166,
                0.4680430420538293,
                -0.5315179951945435
            ]
        },
        {
            "positions": [
                0.7595362627299589,
                -1.6440008664830719,
                -2.314296352605537,
                0.8523275489024623,
                0.43556746860295437,
                -0.4632031033320036
            ]
        },
        {
            "positions": [
                0.6415320371154918,
                -1.7227796957431223,
                -2.324640904295873,
                0.925751307180608,
                0.40309189515207944,
                -0.3948882114694637
            ]
        },
        {
            "positions": [
                0.5235278115010249,
                -1.8015585250031725,
                -2.3349854559862084,
                0.9991750654587539,
                0.3706163217012045,
                -0.3265733196069239
            ]
        },
        {
            "positions": [
                0.4055235858865579,
                -1.8803373542632227,
                -2.3453300076765444,
                1.0725988237368995,
                0.3381407482503296,
                -0.258258427744384
            ]
        },
        {
            "positions": [
                0.2875193602720909,
                -1.9591161835232729,
                -2.35567455936688,
                1.1460225820150454,
                0.30566517479945465,
                -0.18994353588184415
            ]
        },
        {
            "positions": [
                0.1695151346576238,
                -2.0378950127833235,
                -2.366019111057216,
                1.219446340293191,
                0.2731896013485797,
                -0.12162864401930418
            ]
        },
        {
            "positions": [
                0.051510909043156916,
                -2.1166738420433737,
                -2.3763636627475515,
                1.2928700985713368,
                0.2407140278977048,
                -0.05331375215676437
            ]
        },
        {
            "positions": [
                -0.06649331657130997,
                -2.195452671303424,
                -2.3867082144378875,
                1.3662938568494827,
                0.20823845444682987,
                0.015001139705775435
            ]
        },
        {
            "positions": [
                -0.184497542185777,
                -2.274231500563474,
                -2.397052766128223,
                1.4397176151276283,
                0.17576288099595494,
                0.08331603156831534
            ]
        }
    ]
}