{
    "goal": {
        "global_pose": {
            "orientation": {
                "w": -0.4816463035849501,
                "x": 0.5182115481033762,
                "y": 0.4908360881923453,
                "z": -0.5084816262002911
            },
            "position": {
                "x": -0.8240239810943604,
                "y": -0.300875300988555,
                "z": 0.16403168439865112
            }
        },
        "name": "move_to_storage_C"
    },
    "id": "RRTConnect_move_to_storage_C_19",
    "joint_names": [
        "shoulder_pan_joint",
        "shoulder_lift_joint",
        "elbow_joint",
        "wrist_1_joint",
        "wrist_2_joint",
        "wrist_3_joint"
    ],
    "metrics": {
        "cart_traj_len": 0.5773241541694074,
        "distance_elbow_joint": 0.2555806898392925,
        "distance_shoulder_lift_joint": 0.18915343528183426,
        "distance_shoulder_pan_joint": 0.4966589364245766,
        "distance_wrist_1_joint": 0.06742539218718957,
        "distance_wrist_2_joint": 1.0580017974918454,
        "distance_wrist_3_joint": 0.06587740598841485,
        "smoothness": 0.0,
        "time": 0.10101988699999999,
        "traj_len": 1.4603758616236964,
        "weighted_distance": 1.8411625834969105
    },
    "planner": "RRTConnect",
    "start": {
        "state": {
            "elbow_joint": 2.010868314990456,
            "shoulder_lift_joint": -1.1634956873337592,
            "shoulder_pan_joint": -2.4736205022346125,
            "wrist_1_joint": -0.8367026794202681,
            "wrist_2_joint": 0.6746043897044499,
            "wrist_3_joint": -3.1496632123970403
        }
    },
    "waypoints": [
        {
            "positions": [
                -2.4736205022346125,
                -1.1634956873337592,
                2.010868314990456,
                -0.8367026794202681,
                0.6746043897044499,
                -3.1496632123970403
            ]
        },
        {
            "positions": [
                -2.5563969916387084,
                -1.1319701147867869,
                1.9682715333505738,
                -0.8254651140557365,
                0.8509380226197575,
                -3.1386836447323043
            ]
        },
        {
            "positions": [
                -2.6391734810428047,
                -1.1004445422398144,
                1.9256747517106916,
                -0.814227548691205,
                1.0272716555350652,
                -3.127704077067569
            ]
        },
        {
            "positions": [
                -2.721949970446901,
                -1.068918969692842,
                1.8830779700708096,
                -0.8029899833266734,
                1.2036052884503725,
                -3.116724509402833
            ]
        },
        {
            "positions": [
                -2.804726459850997,
                -1.0373933971458698,
                1.8404811884309276,
                -0.7917524179621417,
                1.3799389213656803,
                -3.105744941738097
            ]
        },
        {
            "positions": [
                -2.8875029492550928,
                -1.0058678245988972,
                1.7978844067910453,
                -0.7805148525976101,
                1.5562725542809877,
                -3.0947653740733614
            ]
        },
        {
            "positions": [
                -2.970279438659189,
                -0.9743422520519249,
                1.7552876251511633,
                -0.7692772872330785,
                1.7326061871962954,
                -3.0837858064086254
            ]
        }
    ]
}