{
    "goal": {
        "global_pose": {
            "orientation": {
                "w": 0.005598929693374612,
                "x": 0.007748599140229565,
                "y": 0.7110244013736278,
                "z": -0.7031023480610252
            },
            "position": {
                "x": -0.8858502320852131,
                "y": -0.7141253447532654,
                "z": 0.3711530566215515
            }
        },
        "name": "move_to_auspresseinheit_C"
    },
    "id": "RRTConnect_move_to_auspresseinheit_C_124",
    "joint_names": [
        "shoulder_pan_joint",
        "shoulder_lift_joint",
        "elbow_joint",
        "wrist_1_joint",
        "wrist_2_joint",
        "wrist_3_joint"
    ],
    "metrics": {
        "cart_traj_len": 0.6804036655230981,
        "distance_elbow_joint": 0.9866127494651039,
        "distance_shoulder_lift_joint": 0.5533790809506252,
        "distance_shoulder_pan_joint": 0.2697936827662266,
        "distance_wrist_1_joint": 1.8852624066697357,
        "distance_wrist_2_joint": 1.9991270664603211,
        "distance_wrist_3_joint": 0.17230232491848652,
        "smoothness": 0.7980938608334337,
        "time": 0.079393033,
        "traj_len": 2.42208119418621,
        "weighted_distance": 3.1773371609254077
    },
    "planner": "RRTConnect",
    "start": {
        "state": {
            "elbow_joint": 1.7527959577737207,
            "shoulder_lift_joint": -0.9740617694225068,
            "shoulder_pan_joint": -2.967991417825858,
            "wrist_1_joint": -0.759517768980727,
            "wrist_2_joint": 1.7443932448377408,
            "wrist_3_joint": -3.0840537646736568
        }
    },
    "waypoints": [
        {
            "positions": [
                -2.967991417825858,
                -0.9740617694225068,
                1.7527959577737207,
                -0.759517768980727,
                1.7443932448377408,
                -3.0840537646736568
            ]
        },
        {
            "positions": [
                -2.935116574083877,
                -0.9887164982242472,
                1.7440169337226465,
                -0.8365726085189152,
                1.537977445238494,
                -3.097120205311283
            ]
        },
        {
            "positions": [
                -2.902241730341897,
                -1.0033712270259878,
                1.7352379096715722,
                -0.9136274480571036,
                1.3315616456392472,
                -3.110186645948909
            ]
        },
        {
            "positions": [
                -2.869366886599916,
                -1.0180259558277283,
                1.7264588856204979,
                -0.9906822875952919,
                1.1251458460400006,
                -3.1232530865865353
            ]
        },
        {
            "positions": [
                -2.8364920428579357,
                -1.0326806846294687,
                1.7176798615694238,
                -1.0677371271334801,
                0.9187300464407536,
                -3.1363195272241615
            ]
        },
        {
            "positions": [
                -2.803617199115955,
                -1.0473354134312092,
                1.7089008375183496,
                -1.1447919666716686,
                0.7123142468415069,
                -3.1493859678617877
            ]
        },
        {
            "positions": [
                -2.770742355373974,
                -1.0619901422329496,
                1.7001218134672753,
                -1.2218468062098569,
                0.5058984472422601,
                -3.162452408499414
            ]
        },
        {
            "positions": [
                -2.7378675116319937,
                -1.07664487103469,
                1.691342789416201,
                -1.2989016457480451,
                0.29948264764301324,
                -3.17551884913704
            ]
        },
        {
            "positions": [
                -2.704992667890013,
                -1.0912995998364305,
                1.6825637653651269,
                -1.3759564852862334,
                0.09306684804376648,
                -3.1885852897746663
            ]
        },
        {
            "positions": [
                -2.7058420344938106,
                -1.0367819435193428,
                1.5680161957330632,
                -1.2173535239907047,
                0.1365419317520598,
                -3.1801139397974816
            ]
        },
        {
            "positions": [
                -2.706691401097608,
                -0.9822642872022552,
                1.4534686261009993,
                -1.058750562695176,
                0.18001701546035315,
                -3.171642589820297
            ]
        },
        {
            "positions": [
                -2.707540767701406,
                -0.9277466308851675,
                1.3389210564689356,
                -0.9001476013996472,
                0.22349209916864649,
                -3.163171239843112
            ]
        },
        {
            "positions": [
                -2.708390134305204,
                -0.8732289745680799,
                1.2243734868368719,
                -0.7415446401041186,
                0.2669671828769398,
                -3.1546998898659275
            ]
        },
        {
            "positions": [
                -2.7092395009090016,
                -0.8187113182509922,
                1.109825917204808,
                -0.5829416788085899,
                0.31044226658523316,
                -3.1462285398887433
            ]
        },
        {
            "positions": [
                -2.710088867512799,
                -0.7641936619339045,
                0.9952783475727442,
                -0.4243387175130612,
                0.35391735029352644,
                -3.1377571899115586
            ]
        },
        {
            "positions": [
                -2.710938234116597,
                -0.7096760056168168,
                0.8807307779406806,
                -0.2657357562175324,
                0.3973924340018198,
                -3.129285839934374
            ]
        },
        {
            "positions": [
                -2.7117876007203945,
                -0.6551583492997292,
                0.7661832083086167,
                -0.10713279492200385,
                0.4408675177101131,
                -3.1208144899571892
            ]
        }
    ]
}