{
    "goal": {
        "global_pose": {
            "orientation": {
                "w": 0.005598929693374612,
                "x": 0.007748599140229565,
                "y": 0.7110244013736278,
                "z": -0.7031023480610252
            },
            "position": {
                "x": 0.1141497679147869,
                "y": -0.7141253447532654,
                "z": 0.3711530566215515
            }
        },
        "name": "move_to_auspresseinheit_B"
    },
    "id": "RRTConnect_move_to_auspresseinheit_B_106",
    "joint_names": [
        "shoulder_pan_joint",
        "shoulder_lift_joint",
        "elbow_joint",
        "wrist_1_joint",
        "wrist_2_joint",
        "wrist_3_joint"
    ],
    "metrics": {
        "cart_traj_len": 0.564426901176663,
        "distance_elbow_joint": 0.06138375825579945,
        "distance_shoulder_lift_joint": 0.29485118283587197,
        "distance_shoulder_pan_joint": 0.5775104614677822,
        "distance_wrist_1_joint": 0.32398903202700025,
        "distance_wrist_2_joint": 0.9909935675669026,
        "distance_wrist_3_joint": 0.010430507589918925,
        "smoothness": 0.0,
        "time": 0.049662282,
        "traj_len": 1.5030497362839579,
        "weighted_distance": 1.8960490828343597
    },
    "planner": "RRTConnect",
    "start": {
        "state": {
            "elbow_joint": 2.0193083361928714,
            "shoulder_lift_joint": -1.1220246554650708,
            "shoulder_pan_joint": -1.0952077554168747,
            "wrist_1_joint": -0.8559753972642168,
            "wrist_2_joint": 0.4759566250798843,
            "wrist_3_joint": -3.1240929996934557
        }
    },
    "waypoints": [
        {
            "positions": [
                -1.0952077554168747,
                -1.1220246554650708,
                2.0193083361928714,
                -0.8559753972642168,
                0.4759566250798843,
                -3.1240929996934557
            ]
        },
        {
            "positions": [
                -1.1914594989948384,
                -1.1711665192710494,
                2.009077709816905,
                -0.8019772252597167,
                0.641122219674368,
                -3.1223545817618024
            ]
        },
        {
            "positions": [
                -1.2877112425728021,
                -1.220308383077028,
                1.9988470834409382,
                -0.7479790532552167,
                0.8062878142688519,
                -3.1206161638301495
            ]
        },
        {
            "positions": [
                -1.3839629861507659,
                -1.269450246883007,
                1.9886164570649716,
                -0.6939808812507167,
                0.9714534088633355,
                -3.118877745898496
            ]
        },
        {
            "positions": [
                -1.4802147297287294,
                -1.3185921106889855,
                1.9783858306890052,
                -0.6399827092462167,
                1.1366190034578194,
                -3.117139327966843
            ]
        },
        {
            "positions": [
                -1.576466473306693,
                -1.3677339744949641,
                1.9681552043130386,
                -0.5859845372417165,
                1.301784598052303,
                -3.11540091003519
            ]
        },
        {
            "positions": [
                -1.6727182168846568,
                -1.4168758383009428,
                1.957924577937072,
                -0.5319863652372165,
                1.466950192646787,
                -3.1136624921035367
            ]
        }
    ]
}