{
    "goal": {
        "global_pose": {
            "orientation": {
                "w": 0.5084816217422485,
                "x": -0.49083608388900757,
                "y": 0.5182115435600281,
                "z": -0.4816462993621826
            },
            "position": {
                "x": 0.5540239810943604,
                "y": 0.030875300988554955,
                "z": 0.16403168439865112
            }
        },
        "name": "move_to_storage_A"
    },
    "id": "RRTConnect_move_to_storage_A_1",
    "joint_names": [
        "shoulder_pan_joint",
        "shoulder_lift_joint",
        "elbow_joint",
        "wrist_1_joint",
        "wrist_2_joint",
        "wrist_3_joint"
    ],
    "metrics": {
        "cart_traj_len": 0.35252769448023724,
        "distance_elbow_joint": 0.44890468671323114,
        "distance_shoulder_lift_joint": 0.2356117079022111,
        "distance_shoulder_pan_joint": 0.46086804263441244,
        "distance_wrist_1_joint": 0.2389320399077487,
        "distance_wrist_2_joint": 1.0985152883086338,
        "distance_wrist_3_joint": 0.09830995552099919,
        "smoothness": 6.661338165333112e-16,
        "time": 0.053157752,
        "traj_len": 1.6065932033303376,
        "weighted_distance": 2.02859778178071
    },
    "planner": "RRTConnect",
    "start": {
        "state": {
            "elbow_joint": 1.971548259319323,
            "shoulder_lift_joint": -1.1394851275133948,
            "shoulder_pan_joint": 0.1228115487234821,
            "wrist_1_joint": -0.7804723859257726,
            "wrist_2_joint": 0.12958671773740124,
            "wrist_3_joint": -3.192489227718131
        }
    },
    "waypoints": [
        {
            "positions": [
                0.1228115487234821,
                -1.1394851275133948,
                1.971548259319323,
                -0.7804723859257726,
                0.12958671773740124,
                -3.192489227718131
            ]
        },
        {
            "positions": [
                0.05697325691856604,
                -1.1731439429279964,
                2.035677500278356,
                -0.8146055344840224,
                0.2865174732100632,
                -3.1784449483579884
            ]
        },
        {
            "positions": [
                -0.008865034886350015,
                -1.206802758342598,
                2.099806741237389,
                -0.8487386830422723,
                0.44344822868272515,
                -3.1644006689978457
            ]
        },
        {
            "positions": [
                -0.07470332669126609,
                -1.2404615737571996,
                2.163935982196422,
                -0.8828718316005221,
                0.6003789841553872,
                -3.150356389637703
            ]
        },
        {
            "positions": [
                -0.14054161849618213,
                -1.2741203891718011,
                2.228065223155455,
                -0.9170049801587719,
                0.7573097396280492,
                -3.13631211027756
            ]
        },
        {
            "positions": [
                -0.2063799103010982,
                -1.3077792045864027,
                2.292194464114488,
                -0.9511381287170217,
                0.9142404951007111,
                -3.1222678309174174
            ]
        },
        {
            "positions": [
                -0.2722182021060143,
                -1.3414380200010043,
                2.356323705073521,
                -0.9852712772752714,
                1.071171250573373,
                -3.1082235515572747
            ]
        },
        {
            "positions": [
                -0.33805649391093034,
                -1.375096835415606,
                2.420452946032554,
                -1.0194044258335213,
                1.228102006046035,
                -3.094179272197132
            ]
        }
    ]
}{
    "goal": {
        "global_pose": {
            "orientation": {
                "w": 0.5084816217422485,
                "x": -0.49083608388900757,
                "y": 0.5182115435600281,
                "z": -0.4816462993621826
            },
            "position": {
                "x": 0.5540239810943604,
                "y": 0.030875300988554955,
                "z": 0.16403168439865112
            }
        },
        "name": "move_to_storage_A"
    },
    "id": "RRTConnect_move_to_storage_A_1",
    "joint_names": [
        "shoulder_pan_joint",
        "shoulder_lift_joint",
        "elbow_joint",
        "wrist_1_joint",
        "wrist_2_joint",
        "wrist_3_joint"
    ],
    "metrics": {
        "cart_traj_len": 0.3535040978931545,
        "distance_elbow_joint": 0.44900988591739344,
        "distance_shoulder_lift_joint": 0.2366283838515979,
        "distance_shoulder_pan_joint": 0.4593364110553383,
        "distance_wrist_1_joint": 0.23454809267772592,
        "distance_wrist_2_joint": 1.113293579612391,
        "distance_wrist_3_joint": 0.08970788562811549,
        "smoothness": 1.7763568410139506e-15,
        "time": 0.035429941,
        "traj_len": 1.6070234095191527,
        "weighted_distance": 2.0272596484636374
    },
    "planner": "RRTConnect",
    "start": {
        "state": {
            "elbow_joint": 1.97154746011099,
            "shoulder_lift_joint": -1.13948474672311,
            "shoulder_pan_joint": 0.12281154466712228,
            "wrist_1_joint": -0.7804688027058302,
            "wrist_2_joint": 0.12958655903071145,
            "wrist_3_joint": 3.0906928834467795
        }
    },
    "waypoints": [
        {
            "positions": [
                0.12281154466712228,
                -1.13948474672311,
                1.97154746011099,
                -0.7804688027058302,
                0.12958655903071145,
                3.0906928834467795
            ]
        },
        {
            "positions": [
                0.057192057373502525,
                -1.1732888015590526,
                2.0356917295277603,
                -0.8139756730883625,
                0.2886284989753387,
                3.1035082956793674
            ]
        },
        {
            "positions": [
                -0.008427429920117233,
                -1.207092856394995,
                2.0998359989445308,
                -0.8474825434708947,
                0.44767043891996605,
                3.1163237079119552
            ]
        },
        {
            "positions": [
                -0.07404691721373698,
                -1.2408969112309376,
                2.163980268361301,
                -0.880989413853427,
                0.6067123788645933,
                3.129139120144543
            ]
        },
        {
            "positions": [
                -0.13966640450735673,
                -1.2747009660668802,
                2.228124537778072,
                -0.9144962842359593,
                0.7657543188092206,
                3.1419545323771314
            ]
        },
        {
            "positions": [
                -0.2052858918009765,
                -1.3085050209028228,
                2.2922688071948425,
                -0.9480031546184915,
                0.924796258753848,
                3.1547699446097193
            ]
        },
        {
            "positions": [
                -0.2709053790945962,
                -1.3423090757387652,
                2.356413076611613,
                -0.9815100250010238,
                1.083838198698475,
                3.167585356842307
            ]
        },
        {
            "positions": [
                -0.336524866388216,
                -1.3761131305747079,
                2.4205573460283833,
                -1.015016895383556,
                1.2428801386431025,
                3.180400769074895
            ]
        }
    ]
}{
    "goal": {
        "global_pose": {
            "orientation": {
                "w": 0.5084816217422485,
                "x": -0.49083608388900757,
                "y": 0.5182115435600281,
                "z": -0.4816462993621826
            },
            "position": {
                "x": 0.5540239810943604,
                "y": 0.030875300988554955,
                "z": 0.16403168439865112
            }
        },
        "name": "move_to_storage_A"
    },
    "id": "RRTConnect_move_to_storage_A_1",
    "joint_names": [
        "shoulder_pan_joint",
        "shoulder_lift_joint",
        "elbow_joint",
        "wrist_1_joint",
        "wrist_2_joint",
        "wrist_3_joint"
    ],
    "metrics": {
        "cart_traj_len": 0.35292657227529134,
        "distance_elbow_joint": 0.45046830850055963,
        "distance_shoulder_lift_joint": 0.23238222725203284,
        "distance_shoulder_pan_joint": 0.46302730114323565,
        "distance_wrist_1_joint": 0.2456841086313375,
        "distance_wrist_2_joint": 1.0912078862766321,
        "distance_wrist_3_joint": 0.0872031929026118,
        "smoothness": 6.661338165333112e-16,
        "time": 0.04245554,
        "traj_len": 1.603113540803149,
        "weighted_distance": 2.0202156828961613
    },
    "planner": "RRTConnect",
    "start": {
        "state": {
            "elbow_joint": 1.9715472970024885,
            "shoulder_lift_joint": -1.1394870060712896,
            "shoulder_pan_joint": 0.12281152778156021,
            "wrist_1_joint": -0.780463741449964,
            "wrist_2_joint": 0.12958659822042276,
            "wrist_3_joint": 3.090690232415272
        }
    },
    "waypoints": [
        {
            "positions": [
                0.12281152778156021,
                -1.1394870060712896,
                1.9715472970024885,
                -0.780463741449964,
                0.12958659822042276,
                3.090690232415272
            ]
        },
        {
            "positions": [
                0.056664770475383694,
                -1.1726844671072942,
                2.0358999125025683,
                -0.8155614712544408,
                0.28547343911708445,
                3.103147831401359
            ]
        },
        {
            "positions": [
                -0.009481986830792821,
                -1.205881928143299,
                2.1002525280026485,
                -0.8506592010589176,
                0.44136028001374616,
                3.1156054303874465
            ]
        },
        {
            "positions": [
                -0.07562874413696935,
                -1.2390793891793037,
                2.1646051435027283,
                -0.8857569308633944,
                0.5972471209104079,
                3.128063029373534
            ]
        },
        {
            "positions": [
                -0.14177550144314585,
                -1.2722768502153083,
                2.2289577590028085,
                -0.9208546606678711,
                0.7531339618070696,
                3.1405206283596216
            ]
        },
        {
            "positions": [
                -0.20792225874932238,
                -1.305474311251313,
                2.293310374502888,
                -0.9559523904723479,
                0.9090208027037314,
                3.152978227345709
            ]
        },
        {
            "positions": [
                -0.27406901605549894,
                -1.3386717722873178,
                2.357662990002968,
                -0.9910501202768247,
                1.064907643600393,
                3.1654358263317963
            ]
        },
        {
            "positions": [
                -0.3402157733616754,
                -1.3718692333233224,
                2.422015605503048,
                -1.0261478500813015,
                1.2207944844970549,
                3.1778934253178837
            ]
        }
    ]
}