{
    "goal": {
        "global_pose": {
            "orientation": {
                "w": -0.00223480608172531,
                "x": 0.0024358444001904467,
                "y": 0.7094548369677653,
                "z": -0.704743149386269
            },
            "position": {
                "x": -0.37947507619857795,
                "y": -0.6371506643295288,
                "z": 0.19426114857196808
            }
        },
        "name": "move_to_magneteinheit_C"
    },
    "id": "RRTConnect_move_to_magneteinheit_C_52",
    "joint_names": [
        "shoulder_pan_joint",
        "shoulder_lift_joint",
        "elbow_joint",
        "wrist_1_joint",
        "wrist_2_joint",
        "wrist_3_joint"
    ],
    "metrics": {
        "cart_traj_len": 1.508378220335767,
        "distance_elbow_joint": 0.8725295473511747,
        "distance_shoulder_lift_joint": 2.8900551284256046,
        "distance_shoulder_pan_joint": 2.0101908381113276,
        "distance_wrist_1_joint": 6.095653326924143,
        "distance_wrist_2_joint": 1.492905323851535,
        "distance_wrist_3_joint": 5.275185577032612,
        "smoothness": 0.6656346919953108,
        "time": 0.18279393700000002,
        "traj_len": 4.317003560537842,
        "weighted_distance": 6.064276506438118
    },
    "planner": "RRTConnect",
    "start": {
        "state": {
            "elbow_joint": 1.9565354010623817,
            "shoulder_lift_joint": -1.4165861575791021,
            "shoulder_pan_joint": -1.6717766225146293,
            "wrist_1_joint": -0.5286633292919765,
            "wrist_2_joint": 1.472756589071564,
            "wrist_3_joint": -3.1238370188695823
        }
    },
    "waypoints": [
        {
            "positions": [
                -1.6717766225146293,
                -1.4165861575791021,
                1.9565354010623817,
                -0.5286633292919765,
                1.472756589071564,
                -3.1238370188695823
            ]
        },
        {
            "positions": [
                -1.7280279731361117,
                -1.4693068734651031,
                1.9751179395604974,
                -0.41316529127864454,
                1.4268850567991322,
                -3.018719968468423
            ]
        },
        {
            "positions": [
                -1.784279323757594,
                -1.522027589351104,
                1.9937004780586132,
                -0.29766725326531257,
                1.3810135245267003,
                -2.913602918067264
            ]
        },
        {
            "positions": [
                -1.8405306743790764,
                -1.574748305237105,
                2.012283016556729,
                -0.18216921525198065,
                1.3351419922542687,
                -2.808485867666105
            ]
        },
        {
            "positions": [
                -1.8967820250005587,
                -1.6274690211231058,
                2.0308655550548447,
                -0.06667117723864868,
                1.2892704599818368,
                -2.7033688172649457
            ]
        },
        {
            "positions": [
                -1.953033375622041,
                -1.6801897370091068,
                2.0494480935529604,
                0.048826860774683234,
                1.243398927709405,
                -2.598251766863786
            ]
        },
        {
            "positions": [
                -2.009284726243523,
                -1.7329104528951076,
                2.068030632051076,
                0.16432489878801515,
                1.1975273954369734,
                -2.4931347164626274
            ]
        },
        {
            "positions": [
                -2.0655360768650057,
                -1.7856311687811086,
                2.086613170549192,
                0.2798229368013472,
                1.1516558631645415,
                -2.388017666061468
            ]
        },
        {
            "positions": [
                -2.121787427486488,
                -1.8383518846671096,
                2.1051957090473077,
                0.3953209748146791,
                1.1057843308921096,
                -2.2829006156603087
            ]
        },
        {
            "positions": [
                -2.17803877810797,
                -1.8910726005531104,
                2.1237782475454234,
                0.510819012828011,
                1.059912798619678,
                -2.1777835652591495
            ]
        },
        {
            "positions": [
                -2.2342901287294525,
                -1.9437933164391112,
                2.142360786043539,
                0.6263170508413429,
                1.0140412663472462,
                -2.0726665148579904
            ]
        },
        {
            "positions": [
                -2.290541479350935,
                -1.9965140323251123,
                2.160943324541655,
                0.7418150888546748,
                0.9681697340748143,
                -1.9675494644568312
            ]
        },
        {
            "positions": [
                -2.3467928299724172,
                -2.0492347482111133,
                2.1795258630397707,
                0.8573131268680068,
                0.9222982018023826,
                -1.862432414055672
            ]
        },
        {
            "positions": [
                -2.4030441805938993,
                -2.1019554640971143,
                2.198108401537887,
                0.9728111648813389,
                0.8764266695299507,
                -1.757315363654513
            ]
        },
        {
            "positions": [
                -2.459295531215382,
                -2.154676179983115,
                2.2166909400360026,
                1.0883092028946708,
                0.830555137257519,
                -1.6521983132533535
            ]
        },
        {
            "positions": [
                -2.515546881836864,
                -2.207396895869116,
                2.2352734785341184,
                1.2038072409080027,
                0.7846836049850873,
                -1.5470812628521946
            ]
        },
        {
            "positions": [
                -2.5717982324583466,
                -2.260117611755117,
                2.253856017032234,
                1.3193052789213346,
                0.7388120727126555,
                -1.4419642124510352
            ]
        },
        {
            "positions": [
                -2.6280495830798287,
                -2.312838327641118,
                2.27243855553035,
                1.4348033169346668,
                0.6929405404402237,
                -1.336847162049876
            ]
        },
        {
            "positions": [
                -2.6843009337013113,
                -2.365559043527119,
                2.2910210940284657,
                1.5503013549479985,
                0.6470690081677919,
                -1.231730111648717
            ]
        },
        {
            "positions": [
                -2.740552284322794,
                -2.41827975941312,
                2.3096036325265814,
                1.6657993929613306,
                0.6011974758953601,
                -1.1266130612475578
            ]
        },
        {
            "positions": [
                -2.796803634944276,
                -2.4710004752991206,
                2.328186171024697,
                1.7812974309746623,
                0.5553259436229283,
                -1.0214960108463984
            ]
        },
        {
            "positions": [
                -2.853054985565758,
                -2.5237211911851216,
                2.346768709522813,
                1.8967954689879944,
                0.5094544113504966,
                -0.9163789604452397
            ]
        },
        {
            "positions": [
                -2.9093063361872407,
                -2.576441907071122,
                2.3653512480209287,
                2.012293507001326,
                0.4635828790780647,
                -0.8112619100440801
            ]
        },
        {
            "positions": [
                -2.965557686808723,
                -2.629162622957123,
                2.3839337865190444,
                2.1277915450146585,
                0.41771134680563304,
                -0.706144859642921
            ]
        },
        {
            "positions": [
                -3.021809037430205,
                -2.6818833388431242,
                2.40251632501716,
                2.24328958302799,
                0.37183981453320136,
                -0.6010278092417618
            ]
        },
        {
            "positions": [
                -3.0780603880516875,
                -2.7346040547291253,
                2.421098863515276,
                2.3587876210413223,
                0.32596828226076946,
                -0.49591075884060265
            ]
        },
        {
            "positions": [
                -3.0518035588093277,
                -2.6662546098910567,
                2.4033612076501334,
                2.2193005611895464,
                0.3410168482190626,
                -0.6110089900146737
            ]
        },
        {
            "positions": [
                -3.0255467295669685,
                -2.5979051650529876,
                2.385623551784991,
                2.079813501337771,
                0.35606541417735565,
                -0.7261072211887447
            ]
        },
        {
            "positions": [
                -2.9992899003246087,
                -2.529555720214919,
                2.367885895919848,
                1.9403264414859953,
                0.3711139801356488,
                -0.8412054523628156
            ]
        },
        {
            "positions": [
                -2.9730330710822495,
                -2.46120627537685,
                2.3501482400547054,
                1.8008393816342196,
                0.38616254609394185,
                -0.9563036835368867
            ]
        },
        {
            "positions": [
                -2.9467762418398897,
                -2.3928568305387814,
                2.332410584189563,
                1.6613523217824437,
                0.401211112052235,
                -1.0714019147109577
            ]
        },
        {
            "positions": [
                -2.92051941259753,
                -2.324507385700713,
                2.3146729283244203,
                1.5218652619306683,
                0.4162596780105281,
                -1.1865001458850286
            ]
        },
        {
            "positions": [
                -2.8942625833551707,
                -2.2561579408626438,
                2.2969352724592773,
                1.3823782020788924,
                0.43130824396882117,
                -1.3015983770590998
            ]
        },
        {
            "positions": [
                -2.868005754112811,
                -2.187808496024575,
                2.279197616594135,
                1.2428911422271167,
                0.4463568099271143,
                -1.4166966082331707
            ]
        },
        {
            "positions": [
                -2.8417489248704513,
                -2.1194590511865066,
                2.2614599607289922,
                1.103404082375341,
                0.4614053758854074,
                -1.5317948394072418
            ]
        },
        {
            "positions": [
                -2.815492095628092,
                -2.0511096063484375,
                2.2437223048638497,
                0.9639170225235654,
                0.4764539418437005,
                -1.6468930705813127
            ]
        },
        {
            "positions": [
                -2.7892352663857323,
                -1.982760161510369,
                2.225984648998707,
                0.8244299626717895,
                0.4915025078019936,
                -1.7619913017553837
            ]
        },
        {
            "positions": [
                -2.762978437143373,
                -1.9144107166723001,
                2.208246993133564,
                0.684942902820014,
                0.5065510737602867,
                -1.8770895329294548
            ]
        },
        {
            "positions": [
                -2.7367216079010133,
                -1.8460612718342313,
                2.1905093372684217,
                0.5454558429682383,
                0.5215996397185798,
                -1.9921877641035257
            ]
        },
        {
            "positions": [
                -2.7104647786586535,
                -1.7777118269961627,
                2.172771681403279,
                0.40596878311646245,
                0.5366482056768729,
                -2.107285995277597
            ]
        },
        {
            "positions": [
                -2.6842079494162943,
                -1.7093623821580939,
                2.1550340255381366,
                0.26648172326468655,
                0.551696771635166,
                -2.222384226451668
            ]
        },
        {
            "positions": [
                -2.6579511201739345,
                -1.641012937320025,
                2.1372963696729936,
                0.1269946634129111,
                0.5667453375934591,
                -2.3374824576257387
            ]
        },
        {
            "positions": [
                -2.6316942909315753,
                -1.5726634924819565,
                2.119558713807851,
                -0.01249239643886435,
                0.5817939035517522,
                -2.4525806887998094
            ]
        },
        {
            "positions": [
                -2.6054374616892155,
                -1.5043140476438874,
                2.1018210579427086,
                -0.15197945629064025,
                0.5968424695100454,
                -2.567678919973881
            ]
        },
        {
            "positions": [
                -2.579180632446856,
                -1.4359646028058188,
                2.084083402077566,
                -0.29146651614241614,
                0.6118910354683385,
                -2.6827771511479517
            ]
        },
        {
            "positions": [
                -2.5529238032044965,
                -1.36761515796775,
                2.0663457462124235,
                -0.4309535759941916,
                0.6269396014266315,
                -2.797875382322023
            ]
        },
        {
            "positions": [
                -2.526666973962137,
                -1.2992657131296814,
                2.0486080903472805,
                -0.570440635845967,
                0.6419881673849246,
                -2.9129736134960935
            ]
        },
        {
            "positions": [
                -2.500410144719777,
                -1.2309162682916126,
                2.030870434482138,
                -0.7099276956977434,
                0.6570367333432178,
                -3.0280718446701647
            ]
        },
        {
            "positions": [
                -2.474153315477418,
                -1.1625668234535438,
                2.0131327786169955,
                -0.849414755549519,
                0.6720852993015108,
                -3.143170075844236
            ]
        }
    ]
}