{
    "goal": {
        "global_pose": {
            "orientation": {
                "w": -0.4816463035849501,
                "x": 0.5182115481033762,
                "y": 0.4908360881923453,
                "z": -0.5084816262002911
            },
            "position": {
                "x": -0.8240239810943604,
                "y": 0.19912469901144506,
                "z": 0.16403168439865112
            }
        },
        "name": "move_to_storage_D"
    },
    "id": "RRTConnect_move_to_storage_D_125",
    "joint_names": [
        "shoulder_pan_joint",
        "shoulder_lift_joint",
        "elbow_joint",
        "wrist_1_joint",
        "wrist_2_joint",
        "wrist_3_joint"
    ],
    "metrics": {
        "cart_traj_len": 3.7476404141970567,
        "distance_elbow_joint": 4.210732265901006,
        "distance_shoulder_lift_joint": 1.2643381733275154,
        "distance_shoulder_pan_joint": 2.81245558597166,
        "distance_wrist_1_joint": 2.277567537538884,
        "distance_wrist_2_joint": 1.0547213468545193,
        "distance_wrist_3_joint": 3.3039764503211,
        "smoothness": 0.16375552429369644,
        "time": 0.078266926,
        "traj_len": 3.863132324929433,
        "weighted_distance": 4.9863847770654735
    },
    "planner": "RRTConnect",
    "start": {
        "state": {
            "elbow_joint": -2.384821988534728,
            "shoulder_lift_joint": -2.2788054721415256,
            "shoulder_pan_joint": -0.1854694642142757,
            "wrist_1_joint": 1.4845938289331202,
            "wrist_2_joint": 0.17898776772866878,
            "wrist_3_joint": 0.037105688729662994
        }
    },
    "waypoints": [
        {
            "positions": [
                -0.1854694642142757,
                -2.2788054721415256,
                -2.384821988534728,
                1.4845938289331202,
                0.17898776772866878,
                0.037105688729662994
            ]
        },
        {
            "positions": [
                -0.16688788084037592,
                -2.225316832710861,
                -2.3722007266982086,
                1.4492286623983237,
                0.1323958234265213,
                -0.0035938930040929004
            ]
        },
        {
            "positions": [
                -0.1483062974664761,
                -2.1718281932801964,
                -2.359579464861689,
                1.4138634958635272,
                0.08580387912437376,
                -0.044293474737848795
            ]
        },
        {
            "positions": [
                -0.05871983888328637,
                -2.1370773151439746,
                -2.2514750236321635,
                1.3364564553312055,
                0.09897742330244105,
                0.01501521420797864
            ]
        },
        {
            "positions": [
                0.03086661969990337,
                -2.102326437007753,
                -2.1433705824026386,
                1.259049414798884,
                0.11215096748050833,
                0.07432390315380608
            ]
        },
        {
            "positions": [
                0.12045307828309315,
                -2.067575558871531,
                -2.035266141173113,
                1.1816423742665623,
                0.1253245116585756,
                0.13363259209963352
            ]
        },
        {
            "positions": [
                0.21003953686628285,
                -2.032824680735309,
                -1.9271616999435879,
                1.1042353337342408,
                0.1384980558366429,
                0.19294128104546093
            ]
        },
        {
            "positions": [
                0.2996259954494726,
                -1.9980738025990876,
                -1.8190572587140628,
                1.026828293201919,
                0.1516716000147102,
                0.2522499699912884
            ]
        },
        {
            "positions": [
                0.3892124540326624,
                -1.9633229244628658,
                -1.7109528174845376,
                0.9494212526695975,
                0.1648451441927775,
                0.3115586589371158
            ]
        },
        {
            "positions": [
                0.478798912615852,
                -1.9285720463266443,
                -1.6028483762550123,
                0.8720142121372759,
                0.17801868837084475,
                0.37086734788294323
            ]
        },
        {
            "positions": [
                0.5683853711990419,
                -1.8938211681904225,
                -1.494743935025487,
                0.7946071716049542,
                0.19119223254891204,
                0.4301760368287707
            ]
        },
        {
            "positions": [
                0.6579718297822315,
                -1.8590702900542007,
                -1.386639493795962,
                0.7172001310726326,
                0.20436577672697934,
                0.48948472577459806
            ]
        },
        {
            "positions": [
                0.7475582883654213,
                -1.8243194119179789,
                -1.2785350525664367,
                0.639793090540311,
                0.21753932090504663,
                0.5487934147204255
            ]
        },
        {
            "positions": [
                0.8371447469486111,
                -1.789568533781757,
                -1.1704306113369116,
                0.5623860500079894,
                0.2307128650831139,
                0.608102103666253
            ]
        },
        {
            "positions": [
                0.9267312055318009,
                -1.7548176556455355,
                -1.0623261701073863,
                0.48497900947566774,
                0.24388640926118121,
                0.6674107926120804
            ]
        },
        {
            "positions": [
                1.0163176641149905,
                -1.7200667775093137,
                -0.9542217288778612,
                0.40757196894334613,
                0.2570599534392485,
                0.7267194815579078
            ]
        },
        {
            "positions": [
                1.10590412269818,
                -1.685315899373092,
                -0.846117287648336,
                0.3301649284110246,
                0.27023349761731574,
                0.7860281705037352
            ]
        },
        {
            "positions": [
                1.1954905812813699,
                -1.6505650212368703,
                -0.7380128464188109,
                0.2527578878787029,
                0.283407041795383,
                0.8453368594495626
            ]
        },
        {
            "positions": [
                1.2850770398645597,
                -1.6158141431006485,
                -0.6299084051892854,
                0.17535084734638118,
                0.2965805859734504,
                0.9046455483953901
            ]
        },
        {
            "positions": [
                1.3746634984477495,
                -1.5810632649644267,
                -0.5218039639597603,
                0.09794380681405968,
                0.30975413015151765,
                0.9639542373412174
            ]
        },
        {
            "positions": [
                1.464249957030939,
                -1.546312386828205,
                -0.41369952273023514,
                0.02053676628173795,
                0.3229276743295849,
                1.023262926287045
            ]
        },
        {
            "positions": [
                1.5538364156141289,
                -1.5115615086919831,
                -0.30559508150071,
                -0.05687027425058355,
                0.3361012185076522,
                1.0825716152328724
            ]
        },
        {
            "positions": [
                1.6434228741973187,
                -1.4768106305557613,
                -0.19749064027118468,
                -0.13427731478290528,
                0.3492747626857195,
                1.1418803041787
            ]
        },
        {
            "positions": [
                1.7330093327805085,
                -1.4420597524195398,
                -0.08938619904165934,
                -0.21168435531522678,
                0.36244830686378676,
                1.2011889931245274
            ]
        },
        {
            "positions": [
                1.822595791363698,
                -1.407308874283318,
                0.018718242187865552,
                -0.2890913958475485,
                0.375621851041854,
                1.2604976820703548
            ]
        },
        {
            "positions": [
                1.9121822499468877,
                -1.3725579961470964,
                0.1268226834173909,
                -0.36649843637987,
                0.38879539521992135,
                1.3198063710161823
            ]
        },
        {
            "positions": [
                2.001768708530078,
                -1.3378071180108746,
                0.23492712464691623,
                -0.44390547691219173,
                0.40196893939798867,
                1.3791150599620097
            ]
        },
        {
            "positions": [
                2.0913551671132673,
                -1.3030562398746528,
                0.3430315658764411,
                -0.5213125174445135,
                0.41514248357605593,
                1.438423748907837
            ]
        },
        {
            "positions": [
                2.180941625696457,
                -1.268305361738431,
                0.45113600710596663,
                -0.598719557976835,
                0.4283160277541232,
                1.4977324378536645
            ]
        },
        {
            "positions": [
                2.218112000368201,
                -1.2471521898280626,
                0.5657005296276593,
                -0.614907403862579,
                0.47990147022249613,
                1.6377783857088373
            ]
        },
        {
            "positions": [
                2.255282375039945,
                -1.2259990179176943,
                0.6802650521493518,
                -0.631095249748323,
                0.531486912690869,
                1.7778243335640103
            ]
        },
        {
            "positions": [
                2.292452749711689,
                -1.2048458460073257,
                0.7948295746710444,
                -0.647283095634067,
                0.5830723551592419,
                1.9178702814191833
            ]
        },
        {
            "positions": [
                2.329623124383433,
                -1.1836926740969573,
                0.909394097192737,
                -0.663470941519811,
                0.6346577976276149,
                2.057916229274356
            ]
        },
        {
            "positions": [
                2.366793499055177,
                -1.162539502186589,
                1.0239586197144297,
                -0.6796587874055551,
                0.6862432400959878,
                2.197962177129529
            ]
        },
        {
            "positions": [
                2.403963873726921,
                -1.1413863302762206,
                1.1385231422361222,
                -0.6958466332912991,
                0.7378286825643607,
                2.338008124984702
            ]
        },
        {
            "positions": [
                2.441134248398665,
                -1.1202331583658522,
                1.2530876647578149,
                -0.7120344791770431,
                0.7894141250327336,
                2.4780540728398748
            ]
        },
        {
            "positions": [
                2.4783046230704087,
                -1.0990799864554839,
                1.3676521872795073,
                -0.7282223250627871,
                0.8409995675011065,
                2.6181000206950475
            ]
        },
        {
            "positions": [
                2.5154749977421527,
                -1.0779268145451155,
                1.4822167098012,
                -0.7444101709485311,
                0.8925850099694794,
                2.7581459685502203
            ]
        },
        {
            "positions": [
                2.5526453724138967,
                -1.056773642634747,
                1.5967812323228927,
                -0.7605980168342752,
                0.9441704524378525,
                2.898191916405393
            ]
        },
        {
            "positions": [
                2.5898157470856407,
                -1.0356204707243786,
                1.7113457548445852,
                -0.7767858627200191,
                0.9957558949062253,
                3.038237864260566
            ]
        },
        {
            "positions": [
                2.6269861217573847,
                -1.0144672988140102,
                1.8259102773662779,
                -0.7929737086057632,
                1.0473413373745981,
                3.178283812115739
            ]
        }
    ]
}