{
    "goal": {
        "global_pose": {
            "orientation": {
                "w": 0.7031023480610252,
                "x": -0.7110244013736278,
                "y": 0.0077485991402295624,
                "z": 0.005598929693374583
            },
            "position": {
                "x": -0.8841497679147869,
                "y": 0.44412534475326537,
                "z": 0.3711530566215515
            }
        },
        "name": "move_to_auspresseinheit_D"
    },
    "id": "RRTConnect_move_to_auspresseinheit_D_90",
    "joint_names": [
        "shoulder_pan_joint",
        "shoulder_lift_joint",
        "elbow_joint",
        "wrist_1_joint",
        "wrist_2_joint",
        "wrist_3_joint"
    ],
    "metrics": {
        "cart_traj_len": 0.3435981707983551,
        "distance_elbow_joint": 0.6415881215892987,
        "distance_shoulder_lift_joint": 0.12240259777790241,
        "distance_shoulder_pan_joint": 0.13368740615258448,
        "distance_wrist_1_joint": 0.5402173504292893,
        "distance_wrist_2_joint": 1.4383615387451654,
        "distance_wrist_3_joint": 0.002449450104745843,
        "smoothness": 0.0,
        "time": 0.02690522,
        "traj_len": 1.6966751205811281,
        "weighted_distance": 2.205036111763917
    },
    "planner": "RRTConnect",
    "start": {
        "state": {
            "elbow_joint": -1.8275523626775212,
            "shoulder_lift_joint": -2.126789852344167,
            "shoulder_pan_joint": -0.03513704404078235,
            "wrist_1_joint": -2.347782403156801,
            "wrist_2_joint": -1.6058999987535132,
            "wrist_3_joint": -3.0880379163319196
        }
    },
    "waypoints": [
        {
            "positions": [
                -0.03513704404078235,
                -2.126789852344167,
                -1.8275523626775212,
                -2.347782403156801,
                -1.6058999987535132,
                -3.0880379163319196
            ]
        },
        {
            "positions": [
                -0.05184796980985541,
                -2.1420901770664047,
                -1.7473538474788588,
                -2.415309571960462,
                -1.4261048064103674,
                -3.0877317350688265
            ]
        },
        {
            "positions": [
                -0.06855889557892847,
                -2.1573905017886426,
                -1.6671553322801964,
                -2.482836740764123,
                -1.2463096140672218,
                -3.0874255538057334
            ]
        },
        {
            "positions": [
                -0.08526982134800154,
                -2.1726908265108804,
                -1.5869568170815342,
                -2.5503639095677846,
                -1.0665144217240763,
                -3.08711937254264
            ]
        },
        {
            "positions": [
                -0.10198074711707458,
                -2.187991151233118,
                -1.5067583018828719,
                -2.6178910783714455,
                -0.8867192293809305,
                -3.0868131912795467
            ]
        },
        {
            "positions": [
                -0.11869167288614765,
                -2.2032914759553557,
                -1.4265597866842095,
                -2.6854182471751065,
                -0.7069240370377848,
                -3.0865070100164536
            ]
        },
        {
            "positions": [
                -0.13540259865522072,
                -2.2185918006775935,
                -1.3463612714855473,
                -2.752945415978768,
                -0.5271288446946392,
                -3.08620082875336
            ]
        },
        {
            "positions": [
                -0.15211352442429377,
                -2.2338921253998314,
                -1.266162756286885,
                -2.8204725847824292,
                -0.3473336523514936,
                -3.085894647490267
            ]
        },
        {
            "positions": [
                -0.16882445019336684,
                -2.2491924501220693,
                -1.1859642410882225,
                -2.88799975358609,
                -0.1675384600083478,
                -3.0855884662271738
            ]
        }
    ]
}