{
    "goal": {
        "global_pose": {
            "orientation": {
                "w": 0.5084816217422485,
                "x": -0.49083608388900757,
                "y": 0.5182115435600281,
                "z": -0.4816462993621826
            },
            "position": {
                "x": 0.5540239810943604,
                "y": 0.030875300988554955,
                "z": 0.16403168439865112
            }
        },
        "name": "move_to_storage_A"
    },
    "id": "RRTConnect_move_to_storage_A_65",
    "joint_names": [
        "shoulder_pan_joint",
        "shoulder_lift_joint",
        "elbow_joint",
        "wrist_1_joint",
        "wrist_2_joint",
        "wrist_3_joint"
    ],
    "metrics": {
        "cart_traj_len": 0.3530349685184889,
        "distance_elbow_joint": 0.4504556216589901,
        "distance_shoulder_lift_joint": 0.23469275039807003,
        "distance_shoulder_pan_joint": 0.4588131273033084,
        "distance_wrist_1_joint": 0.2503851317153373,
        "distance_wrist_2_joint": 1.1105566508337192,
        "distance_wrist_3_joint": 0.10745962645397755,
        "smoothness": 4.440892133664971e-16,
        "time": 0.047274877,
        "traj_len": 1.6162805784774508,
        "weighted_distance": 2.0465150729521673
    },
    "planner": "RRTConnect",
    "start": {
        "state": {
            "elbow_joint": 1.971548259319323,
            "shoulder_lift_joint": -1.1394851275133948,
            "shoulder_pan_joint": 0.1228115487234821,
            "wrist_1_joint": -0.7804723859257726,
            "wrist_2_joint": 0.12958671773740124,
            "wrist_3_joint": -3.192489227718131
        }
    },
    "waypoints": [
        {
            "positions": [
                0.1228115487234821,
                -1.1394851275133948,
                1.971548259319323,
                -0.7804723859257726,
                0.12958671773740124,
                -3.192489227718131
            ]
        },
        {
            "positions": [
                0.05726681625158091,
                -1.1730126632845477,
                2.0358990624134643,
                -0.816241690456535,
                0.28823766785650395,
                -3.17713785251042
            ]
        },
        {
            "positions": [
                -0.008277916220320286,
                -1.2065401990557005,
                2.100249865507606,
                -0.8520109949872976,
                0.44688861797560675,
                -3.161786477302709
            ]
        },
        {
            "positions": [
                -0.07382264869222149,
                -1.2400677348268534,
                2.1646006686017474,
                -0.88778029951806,
                0.6055395680947094,
                -3.146435102094998
            ]
        },
        {
            "positions": [
                -0.13936738116412267,
                -1.2735952705980063,
                2.228951471695889,
                -0.9235496040488225,
                0.7641905182138122,
                -3.1310837268872866
            ]
        },
        {
            "positions": [
                -0.2049121136360239,
                -1.3071228063691591,
                2.2933022747900305,
                -0.959318908579585,
                0.922841468332915,
                -3.1157323516795756
            ]
        },
        {
            "positions": [
                -0.2704568461079251,
                -1.340650342140312,
                2.3576530778841716,
                -0.9950882131103473,
                1.0814924184520176,
                -3.1003809764718646
            ]
        },
        {
            "positions": [
                -0.3360015785798263,
                -1.3741778779114648,
                2.422003880978313,
                -1.0308575176411099,
                1.2401433685711205,
                -3.0850296012641536
            ]
        }
    ]
}{
    "goal": {
        "global_pose": {
            "orientation": {
                "w": 0.5084816217422485,
                "x": -0.49083608388900757,
                "y": 0.5182115435600281,
                "z": -0.4816462993621826
            },
            "position": {
                "x": 0.5540239810943604,
                "y": 0.030875300988554955,
                "z": 0.16403168439865112
            }
        },
        "name": "move_to_storage_A"
    },
    "id": "RRTConnect_move_to_storage_A_65",
    "joint_names": [
        "shoulder_pan_joint",
        "shoulder_lift_joint",
        "elbow_joint",
        "wrist_1_joint",
        "wrist_2_joint",
        "wrist_3_joint"
    ],
    "metrics": {
        "cart_traj_len": 0.35230669707597373,
        "distance_elbow_joint": 0.44874891983101417,
        "distance_shoulder_lift_joint": 0.236172564619191,
        "distance_shoulder_pan_joint": 0.4621697862625339,
        "distance_wrist_1_joint": 0.23440647561449124,
        "distance_wrist_2_joint": 1.0917789114084757,
        "distance_wrist_3_joint": 0.0873489203841551,
        "smoothness": 2.2204460668324854e-16,
        "time": 0.048083532,
        "traj_len": 1.600195481220923,
        "weighted_distance": 2.0153185370831923
    },
    "planner": "RRTConnect",
    "start": {
        "state": {
            "elbow_joint": 1.97154746011099,
            "shoulder_lift_joint": -1.13948474672311,
            "shoulder_pan_joint": 0.12281154466712228,
            "wrist_1_joint": -0.7804688027058302,
            "wrist_2_joint": 0.12958655903071145,
            "wrist_3_joint": 3.0906928834467795
        }
    },
    "waypoints": [
        {
            "positions": [
                0.12281154466712228,
                -1.13948474672311,
                1.97154746011099,
                -0.7804688027058302,
                0.12958655903071145,
                3.0906928834467795
            ]
        },
        {
            "positions": [
                0.0567872894867603,
                -1.1732236845258515,
                2.0356544486582777,
                -0.8139554420793289,
                0.28555497494620796,
                3.103171300644516
            ]
        },
        {
            "positions": [
                -0.009236965693601676,
                -1.2069626223285932,
                2.0997614372055655,
                -0.8474420814528276,
                0.44152339086170445,
                3.115649717842252
            ]
        },
        {
            "positions": [
                -0.07526122087396366,
                -1.2407015601313347,
                2.1638684257528533,
                -0.8809287208263265,
                0.597491806777201,
                3.1281281350399888
            ]
        },
        {
            "positions": [
                -0.14128547605432562,
                -1.2744404979340762,
                2.2279754143001407,
                -0.9144153601998252,
                0.7534602226926975,
                3.1406065522377253
            ]
        },
        {
            "positions": [
                -0.20730973123468766,
                -1.3081794357368177,
                2.2920824028474285,
                -0.947901999573324,
                0.9094286386081941,
                3.153084969435462
            ]
        },
        {
            "positions": [
                -0.2733339864150496,
                -1.3419183735395595,
                2.3561893913947163,
                -0.9813886389468227,
                1.0653970545236906,
                3.165563386633198
            ]
        },
        {
            "positions": [
                -0.3393582415954116,
                -1.375657311342301,
                2.420296379942004,
                -1.0148752783203214,
                1.2213654704391872,
                3.1780418038309346
            ]
        }
    ]
}{
    "goal": {
        "global_pose": {
            "orientation": {
                "w": 0.5084816217422485,
                "x": -0.49083608388900757,
                "y": 0.5182115435600281,
                "z": -0.4816462993621826
            },
            "position": {
                "x": 0.5540239810943604,
                "y": 0.030875300988554955,
                "z": 0.16403168439865112
            }
        },
        "name": "move_to_storage_A"
    },
    "id": "RRTConnect_move_to_storage_A_65",
    "joint_names": [
        "shoulder_pan_joint",
        "shoulder_lift_joint",
        "elbow_joint",
        "wrist_1_joint",
        "wrist_2_joint",
        "wrist_3_joint"
    ],
    "metrics": {
        "cart_traj_len": 0.3538012115666234,
        "distance_elbow_joint": 0.44852656101154054,
        "distance_shoulder_lift_joint": 0.23357901886354515,
        "distance_shoulder_pan_joint": 0.46376847635349294,
        "distance_wrist_1_joint": 0.23617373494564253,
        "distance_wrist_2_joint": 1.0949477966219745,
        "distance_wrist_3_joint": 0.09021430203642788,
        "smoothness": 8.881784197001252e-16,
        "time": 0.045973046000000004,
        "traj_len": 1.6022515064223293,
        "weighted_distance": 2.01959402491518
    },
    "planner": "RRTConnect",
    "start": {
        "state": {
            "elbow_joint": 1.9715472970024885,
            "shoulder_lift_joint": -1.1394870060712896,
            "shoulder_pan_joint": 0.12281152778156021,
            "wrist_1_joint": -0.780463741449964,
            "wrist_2_joint": 0.12958659822042276,
            "wrist_3_joint": 3.090690232415272
        }
    },
    "waypoints": [
        {
            "positions": [
                0.12281152778156021,
                -1.1394870060712896,
                1.9715472970024885,
                -0.780463741449964,
                0.12958659822042276,
                3.090690232415272
            ]
        },
        {
            "positions": [
                0.0565588883024898,
                -1.1728554373375104,
                2.035622520004137,
                -0.8142028464421986,
                0.28600771202356196,
                3.103577989849047
            ]
        },
        {
            "positions": [
                -0.009693751176580612,
                -1.206223868603731,
                2.0996977430057857,
                -0.8479419514344333,
                0.4424288258267012,
                3.1164657472828226
            ]
        },
        {
            "positions": [
                -0.07594639065565104,
                -1.2395922998699518,
                2.1637729660074343,
                -0.8816810564266679,
                0.5988499396298403,
                3.129353504716598
            ]
        },
        {
            "positions": [
                -0.14219903013472143,
                -1.2729607311361726,
                2.227848189009083,
                -0.9154201614189026,
                0.7552710534329795,
                3.1422412621503737
            ]
        },
        {
            "positions": [
                -0.20845166961379188,
                -1.3063291624023934,
                2.291923412010732,
                -0.9491592664111372,
                0.9116921672361188,
                3.155129019584149
            ]
        },
        {
            "positions": [
                -0.27470430909286225,
                -1.339697593668614,
                2.3559986350123805,
                -0.9828983714033719,
                1.068113281039258,
                3.1680167770179244
            ]
        },
        {
            "positions": [
                -0.3409569485719327,
                -1.3730660249348348,
                2.420073858014029,
                -1.0166374763956065,
                1.2245343948423972,
                3.1809045344516997
            ]
        }
    ]
}