{
    "goal": {
        "global_pose": {
            "orientation": {
                "w": -0.4816463035849501,
                "x": 0.5182115481033762,
                "y": 0.4908360881923453,
                "z": -0.5084816262002911
            },
            "position": {
                "x": -0.8240239810943604,
                "y": -0.300875300988555,
                "z": 0.16403168439865112
            }
        },
        "name": "move_to_storage_C"
    },
    "id": "RRTConnect_move_to_storage_C_30",
    "joint_names": [
        "shoulder_pan_joint",
        "shoulder_lift_joint",
        "elbow_joint",
        "wrist_1_joint",
        "wrist_2_joint",
        "wrist_3_joint"
    ],
    "metrics": {
        "cart_traj_len": 0.5768777134752464,
        "distance_elbow_joint": 0.2534869975434957,
        "distance_shoulder_lift_joint": 0.18854446833498184,
        "distance_shoulder_pan_joint": 0.49602295780968353,
        "distance_wrist_1_joint": 0.06429836493341223,
        "distance_wrist_2_joint": 1.064131463903402,
        "distance_wrist_3_joint": 0.0718596253541457,
        "smoothness": 2.5376526478085547e-16,
        "time": 0.07417054,
        "traj_len": 1.4623077233876325,
        "weighted_distance": 1.8467520021443664
    },
    "planner": "RRTConnect",
    "start": {
        "state": {
            "elbow_joint": 2.010868314990456,
            "shoulder_lift_joint": -1.1634956873337592,
            "shoulder_pan_joint": -2.4736205022346125,
            "wrist_1_joint": -0.8367026794202681,
            "wrist_2_joint": 0.6746043897044499,
            "wrist_3_joint": -3.1496632123970403
        }
    },
    "waypoints": [
        {
            "positions": [
                -2.4736205022346125,
                -1.1634956873337592,
                2.010868314990456,
                -0.8367026794202681,
                0.6746043897044499,
                -3.1496632123970403
            ]
        },
        {
            "positions": [
                -2.556290995202893,
                -1.1320716092779288,
                1.9686204820665398,
                -0.8259862852646994,
                0.8519596336883503,
                -3.1376866081713493
            ]
        },
        {
            "positions": [
                -2.638961488171174,
                -1.1006475312220987,
                1.9263726491426238,
                -0.8152698911091307,
                1.0293148776722507,
                -3.1257100039456582
            ]
        },
        {
            "positions": [
                -2.7216319811394545,
                -1.0692234531662683,
                1.884124816218708,
                -0.8045534969535619,
                1.2066701216561508,
                -3.113733399719967
            ]
        },
        {
            "positions": [
                -2.8043024741077347,
                -1.037799375110438,
                1.841876983294792,
                -0.7938371027979932,
                1.3840253656400514,
                -3.1017567954942766
            ]
        },
        {
            "positions": [
                -2.8869729670760154,
                -1.0063752970546076,
                1.7996291503708761,
                -0.7831207086424246,
                1.5613806096239515,
                -3.0897801912685856
            ]
        },
        {
            "positions": [
                -2.969643460044296,
                -0.9749512189987773,
                1.7573813174469601,
                -0.7724043144868559,
                1.7387358536078519,
                -3.0778035870428946
            ]
        }
    ]
}