{
    "goal": {
        "global_pose": {
            "orientation": {
                "w": -0.4816463035849501,
                "x": 0.5182115481033762,
                "y": 0.4908360881923453,
                "z": -0.5084816262002911
            },
            "position": {
                "x": -0.8240239810943604,
                "y": -0.300875300988555,
                "z": 0.16403168439865112
            }
        },
        "name": "move_to_storage_C"
    },
    "id": "RRTConnect_move_to_storage_C_32",
    "joint_names": [
        "shoulder_pan_joint",
        "shoulder_lift_joint",
        "elbow_joint",
        "wrist_1_joint",
        "wrist_2_joint",
        "wrist_3_joint"
    ],
    "metrics": {
        "cart_traj_len": 0.5764908779189563,
        "distance_elbow_joint": 0.2572040443130461,
        "distance_shoulder_lift_joint": 0.18861542832826095,
        "distance_shoulder_pan_joint": 0.4954685850172722,
        "distance_wrist_1_joint": 0.07429419465898324,
        "distance_wrist_2_joint": 1.0592890108624484,
        "distance_wrist_3_joint": 0.07347763288783327,
        "smoothness": 5.075305295617109e-16,
        "time": 0.066946039,
        "traj_len": 1.4657246999582985,
        "weighted_distance": 1.8517255108047042
    },
    "planner": "RRTConnect",
    "start": {
        "state": {
            "elbow_joint": 2.010868314990456,
            "shoulder_lift_joint": -1.1634956873337592,
            "shoulder_pan_joint": -2.4736205022346125,
            "wrist_1_joint": -0.8367026794202681,
            "wrist_2_joint": 0.6746043897044499,
            "wrist_3_joint": -3.1496632123970403
        }
    },
    "waypoints": [
        {
            "positions": [
                -2.4736205022346125,
                -1.1634956873337592,
                2.010868314990456,
                -0.8367026794202681,
                0.6746043897044499,
                -3.1496632123970403
            ]
        },
        {
            "positions": [
                -2.556198599737491,
                -1.1320597826123824,
                1.968000974271615,
                -0.8243203136437709,
                0.8511525581815247,
                -3.137416940249068
            ]
        },
        {
            "positions": [
                -2.63877669724037,
                -1.1006238778910056,
                1.9251336335527738,
                -0.8119379478672737,
                1.0277007266585994,
                -3.125170668101096
            ]
        },
        {
            "positions": [
                -2.721354794743249,
                -1.0691879731696288,
                1.8822662928339327,
                -0.7995555820907765,
                1.2042488951356742,
                -3.1129243959531236
            ]
        },
        {
            "positions": [
                -2.8039328922461273,
                -1.037752068448252,
                1.8393989521150917,
                -0.7871732163142793,
                1.3807970636127487,
                -3.1006781238051513
            ]
        },
        {
            "positions": [
                -2.8865109897490058,
                -1.0063161637268752,
                1.7965316113962508,
                -0.7747908505377821,
                1.5573452320898236,
                -3.0884318516571794
            ]
        },
        {
            "positions": [
                -2.9690890872518847,
                -0.9748802590054982,
                1.7536642706774097,
                -0.7624084847612849,
                1.7338934005668984,
                -3.076185579509207
            ]
        }
    ]
}