{
    "goal": {
        "global_pose": {
            "orientation": {
                "w": 0.7047431468963623,
                "x": -0.7094548344612122,
                "y": 0.0024358443915843964,
                "z": -0.0022348060738295317
            },
            "position": {
                "x": 0.6094750761985779,
                "y": 0.3671506643295288,
                "z": 0.19426114857196808
            }
        },
        "name": "move_to_magneteinheit_A"
    },
    "id": "RRTConnect_move_to_magneteinheit_A_89",
    "joint_names": [
        "shoulder_pan_joint",
        "shoulder_lift_joint",
        "elbow_joint",
        "wrist_1_joint",
        "wrist_2_joint",
        "wrist_3_joint"
    ],
    "metrics": {
        "cart_traj_len": 3.467436864912175,
        "distance_elbow_joint": 3.8751835015773617,
        "distance_shoulder_lift_joint": 0.6110865000163133,
        "distance_shoulder_pan_joint": 3.654327150506735,
        "distance_wrist_1_joint": 1.2732730113360717,
        "distance_wrist_2_joint": 1.7015197084908067,
        "distance_wrist_3_joint": 2.5682295953648526,
        "smoothness": 0.2209771754536312,
        "time": 0.063067155,
        "traj_len": 3.6991376653609604,
        "weighted_distance": 4.668497764575745
    },
    "planner": "RRTConnect",
    "start": {
        "state": {
            "elbow_joint": -1.9196185241190666,
            "shoulder_lift_joint": -1.2443396400964142,
            "shoulder_pan_joint": 2.6996025414629847,
            "wrist_1_joint": -1.5485510000780065,
            "wrist_2_joint": -1.5709468930060704,
            "wrist_3_joint": 0.4420197071253992
        }
    },
    "waypoints": [
        {
            "positions": [
                2.6996025414629847,
                -1.2443396400964142,
                -1.9196185241190666,
                -1.5485510000780065,
                -1.5709468930060704,
                0.4420197071253992
            ]
        },
        {
            "positions": [
                2.584194802554975,
                -1.253528421514184,
                -1.8111846416867903,
                -1.5092704356997517,
                -1.522286352007496,
                0.5028166138092582
            ]
        },
        {
            "positions": [
                2.4687870636469658,
                -1.2627172029319538,
                -1.7027507592545141,
                -1.469989871321497,
                -1.4736258110089218,
                0.5636135204931174
            ]
        },
        {
            "positions": [
                2.353379324738956,
                -1.2719059843497236,
                -1.5943168768222378,
                -1.4307093069432422,
                -1.4249652700103475,
                0.6244104271769765
            ]
        },
        {
            "positions": [
                2.2379715858309464,
                -1.2810947657674934,
                -1.4858829943899616,
                -1.3914287425649872,
                -1.3763047290117731,
                0.6852073338608355
            ]
        },
        {
            "positions": [
                2.1225638469229366,
                -1.2902835471852632,
                -1.3774491119576853,
                -1.3521481781867324,
                -1.3276441880131988,
                0.7460042405446947
            ]
        },
        {
            "positions": [
                2.0071561080149274,
                -1.299472328603033,
                -1.269015229525409,
                -1.3128676138084776,
                -1.2789836470146247,
                0.8068011472285538
            ]
        },
        {
            "positions": [
                1.8917483691069177,
                -1.3086611100208028,
                -1.1605813470931328,
                -1.2735870494302228,
                -1.2303231060160504,
                0.8675980539124128
            ]
        },
        {
            "positions": [
                1.7763406301989082,
                -1.3178498914385726,
                -1.0521474646608564,
                -1.234306485051968,
                -1.1816625650174761,
                0.928394960596272
            ]
        },
        {
            "positions": [
                1.6609328912908987,
                -1.3270386728563424,
                -0.9437135822285802,
                -1.195025920673713,
                -1.1330020240189018,
                0.9891918672801311
            ]
        },
        {
            "positions": [
                1.545525152382889,
                -1.3362274542741122,
                -0.8352796997963039,
                -1.1557453562954583,
                -1.0843414830203275,
                1.0499887739639902
            ]
        },
        {
            "positions": [
                1.4301174134748795,
                -1.345416235691882,
                -0.7268458173640275,
                -1.1164647919172035,
                -1.0356809420217532,
                1.110785680647849
            ]
        },
        {
            "positions": [
                1.3147096745668698,
                -1.3546050171096518,
                -0.6184119349317514,
                -1.0771842275389487,
                -0.9870204010231789,
                1.1715825873317085
            ]
        },
        {
            "positions": [
                1.1993019356588603,
                -1.3637937985274216,
                -0.509978052499475,
                -1.037903663160694,
                -0.9383598600246046,
                1.2323794940155675
            ]
        },
        {
            "positions": [
                1.0838941967508509,
                -1.3729825799451914,
                -0.4015441700671989,
                -0.998623098782439,
                -0.8896993190260303,
                1.2931764006994264
            ]
        },
        {
            "positions": [
                0.9684864578428412,
                -1.3821713613629614,
                -0.2931102876349223,
                -0.9593425344041842,
                -0.841038778027456,
                1.3539733073832858
            ]
        },
        {
            "positions": [
                0.8530787189348317,
                -1.391360142780731,
                -0.18467640520264617,
                -0.9200619700259294,
                -0.7923782370288818,
                1.4147702140671448
            ]
        },
        {
            "positions": [
                0.737670980026822,
                -1.400548924198501,
                -0.0762425227703698,
                -0.8807814056476746,
                -0.7437176960303074,
                1.4755671207510037
            ]
        },
        {
            "positions": [
                0.6222632411188127,
                -1.4097377056162708,
                0.03219135966190634,
                -0.8415008412694198,
                -0.6950571550317332,
                1.5363640274348631
            ]
        },
        {
            "positions": [
                0.506855502210803,
                -1.4189264870340406,
                0.14062524209418292,
                -0.8022202768911649,
                -0.6463966140331588,
                1.597160934118722
            ]
        },
        {
            "positions": [
                0.3914477633027933,
                -1.4281152684518104,
                0.24905912452645884,
                -0.7629397125129102,
                -0.5977360730345845,
                1.657957840802581
            ]
        },
        {
            "positions": [
                0.2760400243947836,
                -1.4373040498695802,
                0.3574930069587352,
                -0.7236591481346553,
                -0.5490755320360101,
                1.7187547474864404
            ]
        },
        {
            "positions": [
                0.16063228548677433,
                -1.44649283128735,
                0.46592688939101157,
                -0.6843785837564005,
                -0.500414991037436,
                1.7795516541702994
            ]
        },
        {
            "positions": [
                0.045224546578764624,
                -1.4556816127051198,
                0.5743607718232879,
                -0.6450980193781456,
                -0.4517544500388617,
                1.8403485608541583
            ]
        },
        {
            "positions": [
                -0.07018319232924508,
                -1.4648703941228896,
                0.6827946542555638,
                -0.6058174549998909,
                -0.4030939090402874,
                1.9011454675380177
            ]
        },
        {
            "positions": [
                -0.18559093123725479,
                -1.4740591755406593,
                0.7912285366878402,
                -0.566536890621636,
                -0.3544333680417131,
                1.9619423742218767
            ]
        },
        {
            "positions": [
                -0.30099867014526405,
                -1.4832479569584291,
                0.8996624191201166,
                -0.5272563262433811,
                -0.3057728270431388,
                2.0227392809057356
            ]
        },
        {
            "positions": [
                -0.41640640905327386,
                -1.492436738376199,
                1.008096301552393,
                -0.48797576186512626,
                -0.2571122860445646,
                2.083536187589595
            ]
        },
        {
            "positions": [
                -0.3565932757209986,
                -1.4521045826276957,
                1.113370598875271,
                -0.511608847767703,
                -0.2140361636524201,
                2.186504311467446
            ]
        },
        {
            "positions": [
                -0.2967801423887233,
                -1.4117724268791927,
                1.2186448961981489,
                -0.5352419336702797,
                -0.17096004126027559,
                2.2894724353452967
            ]
        },
        {
            "positions": [
                -0.23696700905644802,
                -1.3714402711306894,
                1.3239191935210268,
                -0.5588750195728565,
                -0.1278839188681311,
                2.3924405592231475
            ]
        },
        {
            "positions": [
                -0.17715387572417274,
                -1.3311081153821862,
                1.429193490843905,
                -0.5825081054754332,
                -0.0848077964759866,
                2.4954086831009983
            ]
        },
        {
            "positions": [
                -0.1173407423918974,
                -1.2907759596336832,
                1.534467788166783,
                -0.6061411913780099,
                -0.04173167408384207,
                2.598376806978849
            ]
        },
        {
            "positions": [
                -0.057527609059622176,
                -1.25044380388518,
                1.639742085489661,
                -0.6297742772805867,
                0.0013444483083023817,
                2.7013449308566995
            ]
        },
        {
            "positions": [
                0.002285524272653161,
                -1.2101116481366767,
                1.7450163828125391,
                -0.6534073631831634,
                0.044420570700446915,
                2.8043130547345503
            ]
        },
        {
            "positions": [
                0.06209865760492839,
                -1.1697794923881737,
                1.850290680135417,
                -0.6770404490857401,
                0.0874966930925914,
                2.907281178612401
            ]
        },
        {
            "positions": [
                0.12191179093720375,
                -1.1294473366396705,
                1.955564977458295,
                -0.7006735349883169,
                0.13057281548473593,
                3.010249302490252
            ]
        }
    ]
}