{
    "goal": {
        "global_pose": {
            "orientation": {
                "w": 0.005598929693374612,
                "x": 0.007748599140229565,
                "y": 0.7110244013736278,
                "z": -0.7031023480610252
            },
            "position": {
                "x": 0.1141497679147869,
                "y": -0.7141253447532654,
                "z": 0.3711530566215515
            }
        },
        "name": "move_to_auspresseinheit_B"
    },
    "id": "RRTConnect_move_to_auspresseinheit_B_3",
    "joint_names": [
        "shoulder_pan_joint",
        "shoulder_lift_joint",
        "elbow_joint",
        "wrist_1_joint",
        "wrist_2_joint",
        "wrist_3_joint"
    ],
    "metrics": {
        "cart_traj_len": 0.564411880928888,
        "distance_elbow_joint": 0.06527733485837905,
        "distance_shoulder_lift_joint": 0.2944140632256007,
        "distance_shoulder_pan_joint": 0.5781511915744459,
        "distance_wrist_1_joint": 0.33825366729636697,
        "distance_wrist_2_joint": 0.9853520083789107,
        "distance_wrist_3_joint": 0.0022398072909184386,
        "smoothness": 0.0,
        "time": 0.113315574,
        "traj_len": 1.5045557725204546,
        "weighted_distance": 1.8951974469383754
    },
    "planner": "RRTConnect",
    "start": {
        "state": {
            "elbow_joint": 2.0193083361928714,
            "shoulder_lift_joint": -1.1220246554650708,
            "shoulder_pan_joint": -1.0952077554168747,
            "wrist_1_joint": -0.8559753972642168,
            "wrist_2_joint": 0.4759566250798843,
            "wrist_3_joint": -3.1240929996934557
        }
    },
    "waypoints": [
        {
            "positions": [
                -1.0952077554168747,
                -1.1220246554650708,
                2.0193083361928714,
                -0.8559753972642168,
                0.4759566250798843,
                -3.1240929996934557
            ]
        },
        {
            "positions": [
                -1.191566287345949,
                -1.171093666002671,
                2.0084287803831415,
                -0.7995997860481556,
                0.6401819598097027,
                -3.1244663009086087
            ]
        },
        {
            "positions": [
                -1.2879248192750232,
                -1.220162676540271,
                1.9975492245734117,
                -0.7432241748320945,
                0.8044072945395211,
                -3.1248396021237617
            ]
        },
        {
            "positions": [
                -1.3842833512040977,
                -1.269231687077871,
                1.9866696687636818,
                -0.6868485636160333,
                0.9686326292693397,
                -3.125212903338915
            ]
        },
        {
            "positions": [
                -1.4806418831331718,
                -1.3183006976154712,
                1.9757901129539521,
                -0.6304729523999721,
                1.132857963999158,
                -3.125586204554068
            ]
        },
        {
            "positions": [
                -1.5770004150622463,
                -1.3673697081530714,
                1.9649105571442222,
                -0.574097341183911,
                1.2970832987289767,
                -3.125959505769221
            ]
        },
        {
            "positions": [
                -1.6733589469913206,
                -1.4164387186906715,
                1.9540310013344924,
                -0.5177217299678498,
                1.461308633458795,
                -3.126332806984374
            ]
        }
    ]
}