{
    "goal": {
        "global_pose": {
            "orientation": {
                "w": 0.7031023480610252,
                "x": -0.7110244013736278,
                "y": 0.0077485991402295624,
                "z": 0.005598929693374583
            },
            "position": {
                "x": -0.8841497679147869,
                "y": 0.44412534475326537,
                "z": 0.3711530566215515
            }
        },
        "name": "move_to_auspresseinheit_D"
    },
    "id": "RRTConnect_move_to_auspresseinheit_D_51",
    "joint_names": [
        "shoulder_pan_joint",
        "shoulder_lift_joint",
        "elbow_joint",
        "wrist_1_joint",
        "wrist_2_joint",
        "wrist_3_joint"
    ],
    "metrics": {
        "cart_traj_len": 0.34261454980567874,
        "distance_elbow_joint": 0.63781278227351,
        "distance_shoulder_lift_joint": 0.12100858683825955,
        "distance_shoulder_pan_joint": 0.1333822184688075,
        "distance_wrist_1_joint": 0.5352306086188481,
        "distance_wrist_2_joint": 1.4367455619574805,
        "distance_wrist_3_joint": 0.010617121423209142,
        "smoothness": 0.0,
        "time": 0.049828835,
        "traj_len": 1.6955225977792554,
        "weighted_distance": 2.2063561120097686
    },
    "planner": "RRTConnect",
    "start": {
        "state": {
            "elbow_joint": -1.8275523626775212,
            "shoulder_lift_joint": -2.126789852344167,
            "shoulder_pan_joint": -0.03513704404078235,
            "wrist_1_joint": -2.347782403156801,
            "wrist_2_joint": -1.6058999987535132,
            "wrist_3_joint": -3.0880379163319196
        }
    },
    "waypoints": [
        {
            "positions": [
                -0.03513704404078235,
                -2.126789852344167,
                -1.8275523626775212,
                -2.347782403156801,
                -1.6058999987535132,
                -3.0880379163319196
            ]
        },
        {
            "positions": [
                -0.051809821349383285,
                -2.1419159256989495,
                -1.7478257648933324,
                -2.4146862292341567,
                -1.4263068035088282,
                -3.0867107761540185
            ]
        },
        {
            "positions": [
                -0.06848259865798423,
                -2.1570419990537317,
                -1.6680991671091436,
                -2.481590055311513,
                -1.246713608264143,
                -3.0853836359761173
            ]
        },
        {
            "positions": [
                -0.08515537596658515,
                -2.172168072408514,
                -1.5883725693249549,
                -2.548493881388869,
                -1.067120413019458,
                -3.084056495798216
            ]
        },
        {
            "positions": [
                -0.1018281532751861,
                -2.1872941457632966,
                -1.508645971540766,
                -2.615397707466225,
                -0.887527217774773,
                -3.082729355620315
            ]
        },
        {
            "positions": [
                -0.11850093058378702,
                -2.2024202191180793,
                -1.4289193737565773,
                -2.6823015335435807,
                -0.7079340225300879,
                -3.081402215442414
            ]
        },
        {
            "positions": [
                -0.13517370789238797,
                -2.2175462924728615,
                -1.3491927759723887,
                -2.749205359620937,
                -0.5283408272854029,
                -3.0800750752645127
            ]
        },
        {
            "positions": [
                -0.1518464852009889,
                -2.2326723658276437,
                -1.2694661781882,
                -2.816109185698293,
                -0.3487476320407177,
                -3.0787479350866116
            ]
        },
        {
            "positions": [
                -0.16851926250958985,
                -2.2477984391824264,
                -1.1897395804040112,
                -2.883013011775649,
                -0.16915443679603273,
                -3.0774207949087105
            ]
        }
    ]
}