{
    "goal": {
        "global_pose": {
            "orientation": {
                "w": 0.7031023480610252,
                "x": -0.7110244013736278,
                "y": 0.0077485991402295624,
                "z": 0.005598929693374583
            },
            "position": {
                "x": -0.8841497679147869,
                "y": 0.44412534475326537,
                "z": 0.3711530566215515
            }
        },
        "name": "move_to_auspresseinheit_D"
    },
    "id": "RRTConnect_move_to_auspresseinheit_D_49",
    "joint_names": [
        "shoulder_pan_joint",
        "shoulder_lift_joint",
        "elbow_joint",
        "wrist_1_joint",
        "wrist_2_joint",
        "wrist_3_joint"
    ],
    "metrics": {
        "cart_traj_len": 0.3431762800488609,
        "distance_elbow_joint": 0.642553462009229,
        "distance_shoulder_lift_joint": 0.12359747917057762,
        "distance_shoulder_pan_joint": 0.13417938209500063,
        "distance_wrist_1_joint": 0.5548469363088415,
        "distance_wrist_2_joint": 1.42990856564199,
        "distance_wrist_3_joint": 0.02781651203455482,
        "smoothness": 0.0,
        "time": 0.04372119,
        "traj_len": 1.7067226890330465,
        "weighted_distance": 2.2255989897733452
    },
    "planner": "RRTConnect",
    "start": {
        "state": {
            "elbow_joint": -1.8275523626775212,
            "shoulder_lift_joint": -2.126789852344167,
            "shoulder_pan_joint": -0.03513704404078235,
            "wrist_1_joint": -2.347782403156801,
            "wrist_2_joint": -1.6058999987535132,
            "wrist_3_joint": -3.0880379163319196
        }
    },
    "waypoints": [
        {
            "positions": [
                -0.03513704404078235,
                -2.126789852344167,
                -1.8275523626775212,
                -2.347782403156801,
                -1.6058999987535132,
                -3.0880379163319196
            ]
        },
        {
            "positions": [
                -0.05190946680265743,
                -2.142239537240489,
                -1.7472331799263676,
                -2.417138270195406,
                -1.4271614280482645,
                -3.0845608523276002
            ]
        },
        {
            "positions": [
                -0.0686818895645325,
                -2.157689222136811,
                -1.666913997175214,
                -2.4864941372340112,
                -1.2484228573430156,
                -3.081083788323281
            ]
        },
        {
            "positions": [
                -0.08545431232640759,
                -2.1731389070331333,
                -1.5865948144240603,
                -2.5558500042726164,
                -1.069684286637767,
                -3.0776067243189615
            ]
        },
        {
            "positions": [
                -0.10222673508828267,
                -2.188588591929456,
                -1.5062756316729067,
                -2.6252058713112216,
                -0.8909457159325181,
                -3.074129660314642
            ]
        },
        {
            "positions": [
                -0.11899915785015774,
                -2.204038276825778,
                -1.425956448921753,
                -2.694561738349827,
                -0.7122071452272694,
                -3.070652596310323
            ]
        },
        {
            "positions": [
                -0.13577158061203282,
                -2.2194879617221,
                -1.3456372661705993,
                -2.763917605388432,
                -0.5334685745220207,
                -3.0671755323060035
            ]
        },
        {
            "positions": [
                -0.15254400337390792,
                -2.2349376466184223,
                -1.2653180834194457,
                -2.833273472427037,
                -0.3547300038167718,
                -3.063698468301684
            ]
        },
        {
            "positions": [
                -0.169316426135783,
                -2.2503873315147445,
                -1.1849989006682922,
                -2.9026293394656424,
                -0.17599143311152313,
                -3.0602214042973648
            ]
        }
    ]
}