{
    "goal": {
        "global_pose": {
            "orientation": {
                "w": -0.4816463035849501,
                "x": 0.5182115481033762,
                "y": 0.4908360881923453,
                "z": -0.5084816262002911
            },
            "position": {
                "x": -0.8240239810943604,
                "y": 0.19912469901144506,
                "z": 0.16403168439865112
            }
        },
        "name": "move_to_storage_D"
    },
    "id": "RRTConnect_move_to_storage_D_97",
    "joint_names": [
        "shoulder_pan_joint",
        "shoulder_lift_joint",
        "elbow_joint",
        "wrist_1_joint",
        "wrist_2_joint",
        "wrist_3_joint"
    ],
    "metrics": {
        "cart_traj_len": 3.499576010301003,
        "distance_elbow_joint": 4.6585068431609065,
        "distance_shoulder_lift_joint": 1.264630075720345,
        "distance_shoulder_pan_joint": 2.813384104701945,
        "distance_wrist_1_joint": 2.874659970878877,
        "distance_wrist_2_joint": 2.0876627343735006,
        "distance_wrist_3_joint": 3.1718841334648524,
        "smoothness": 0.14288482738019828,
        "time": 0.12165769500000001,
        "traj_len": 4.107399160332537,
        "weighted_distance": 5.3081841372057275
    },
    "planner": "RRTConnect",
    "start": {
        "state": {
            "elbow_joint": -2.384821988534728,
            "shoulder_lift_joint": -2.2788054721415256,
            "shoulder_pan_joint": -0.1854694642142757,
            "wrist_1_joint": 1.4845938289331202,
            "wrist_2_joint": 0.17898776772866878,
            "wrist_3_joint": 0.037105688729662994
        }
    },
    "waypoints": [
        {
            "positions": [
                -0.1854694642142757,
                -2.2788054721415256,
                -2.384821988534728,
                1.4845938289331202,
                0.17898776772866878,
                0.037105688729662994
            ]
        },
        {
            "positions": [
                -0.1452786290553223,
                -2.182352098696406,
                -2.365570330628776,
                1.3569550146834097,
                0.10249857228679671,
                0.059448515516912166
            ]
        },
        {
            "positions": [
                -0.0785125507621014,
                -2.1727638865082386,
                -2.2078016652530343,
                1.2692970804792565,
                0.08374078523573948,
                0.012873305700295934
            ]
        },
        {
            "positions": [
                -0.011746472468880498,
                -2.1631756743200707,
                -2.050032999877293,
                1.1816391462751035,
                0.06498299818468226,
                -0.0337019041163203
            ]
        },
        {
            "positions": [
                0.0550196058243404,
                -2.1535874621319033,
                -1.892264334501551,
                1.0939812120709502,
                0.04622521113362503,
                -0.08027711393293654
            ]
        },
        {
            "positions": [
                0.1217856841175613,
                -2.143999249943736,
                -1.7344956691258093,
                1.0063232778667972,
                0.027467424082567804,
                -0.12685232374955277
            ]
        },
        {
            "positions": [
                0.18855176241078225,
                -2.134411037755568,
                -1.5767270037500678,
                0.918665343662644,
                0.008709637031510564,
                -0.17342753356616902
            ]
        },
        {
            "positions": [
                0.2553178407040031,
                -2.1248228255674007,
                -1.4189583383743263,
                0.8310074094584908,
                -0.010048150019546648,
                -0.22000274338278525
            ]
        },
        {
            "positions": [
                0.32208391899722405,
                -2.1152346133792332,
                -1.2611896729985845,
                0.7433494752543377,
                -0.028805937070603888,
                -0.2665779531994015
            ]
        },
        {
            "positions": [
                0.3888499972904449,
                -2.1056464011910654,
                -1.103421007622843,
                0.6556915410501846,
                -0.0475637241216611,
                -0.3131531630160177
            ]
        },
        {
            "positions": [
                0.4556160755836659,
                -2.096058189002898,
                -0.9456523422471013,
                0.5680336068460313,
                -0.06632151117271837,
                -0.359728372832634
            ]
        },
        {
            "positions": [
                0.5223821538768868,
                -2.0864699768147306,
                -0.7878836768713597,
                0.4803756726418782,
                -0.08507929822377558,
                -0.4063035826492502
            ]
        },
        {
            "positions": [
                0.5891482321701077,
                -2.0768817646265627,
                -0.630115011495618,
                0.3927177384377252,
                -0.10383708527483279,
                -0.45287879246586643
            ]
        },
        {
            "positions": [
                0.6559143104633285,
                -2.0672935524383953,
                -0.47234634611987647,
                0.30505980423357193,
                -0.12259487232589,
                -0.49945400228248266
            ]
        },
        {
            "positions": [
                0.7226803887565495,
                -2.057705340250228,
                -0.3145776807441347,
                0.2174018700294187,
                -0.14135265937694727,
                -0.5460292120990988
            ]
        },
        {
            "positions": [
                0.7894464670497704,
                -2.04811712806206,
                -0.1568090153683932,
                0.12974393582526567,
                -0.16011044642800448,
                -0.592604421915715
            ]
        },
        {
            "positions": [
                0.8562125453429912,
                -2.0385289158738926,
                0.0009596500073483227,
                0.042086001621112645,
                -0.17886823347906172,
                -0.6391796317323313
            ]
        },
        {
            "positions": [
                0.9229786236362121,
                -2.028940703685725,
                0.15872831538308985,
                -0.0455719325830406,
                -0.1976260205301189,
                -0.6857548415489475
            ]
        },
        {
            "positions": [
                0.989744701929433,
                -2.019352491497558,
                0.31649698075883137,
                -0.13322986678719362,
                -0.21638380758117615,
                -0.7323300513655637
            ]
        },
        {
            "positions": [
                1.056510780222654,
                -2.00976427930939,
                0.47426564613457334,
                -0.22088780099134708,
                -0.23514159463223344,
                -0.7789052611821801
            ]
        },
        {
            "positions": [
                1.123276858515875,
                -2.0001760671212225,
                0.6320343115103149,
                -0.3085457351955001,
                -0.2538993816832906,
                -0.8254804709987963
            ]
        },
        {
            "positions": [
                1.190042936809096,
                -1.990587854933055,
                0.7898029768860564,
                -0.39620366939965335,
                -0.27265716873434787,
                -0.8720556808154125
            ]
        },
        {
            "positions": [
                1.2568090151023168,
                -1.9809996427448873,
                0.9475716422617984,
                -0.48386160360380637,
                -0.2914149557854051,
                -0.9186308906320286
            ]
        },
        {
            "positions": [
                1.3235750933955377,
                -1.9714114305567199,
                1.1053403076375399,
                -0.5715195378079594,
                -0.3101727428364623,
                -0.965206100448645
            ]
        },
        {
            "positions": [
                1.3903411716887586,
                -1.9618232183685522,
                1.2631089730132814,
                -0.6591774720121126,
                -0.32893052988751953,
                -1.011781310265261
            ]
        },
        {
            "positions": [
                1.4571072499819793,
                -1.9522350061803848,
                1.420877638389023,
                -0.7468354062162659,
                -0.3476883169385767,
                -1.0583565200818774
            ]
        },
        {
            "positions": [
                1.5238733282752004,
                -1.9426467939922172,
                1.578646303764765,
                -0.8344933404204191,
                -0.366446103989634,
                -1.1049317298984938
            ]
        },
        {
            "positions": [
                1.5906394065684213,
                -1.9330585818040495,
                1.7364149691405064,
                -0.9221512746245724,
                -0.38520389104069125,
                -1.1515069397151099
            ]
        },
        {
            "positions": [
                1.6574054848616422,
                -1.923470369615882,
                1.8941836345162475,
                -1.0098092088287252,
                -0.40396167809174843,
                -1.1980821495317262
            ]
        },
        {
            "positions": [
                1.724171563154863,
                -1.9138821574277145,
                2.0519522998919895,
                -1.0974671430328782,
                -0.4227194651428057,
                -1.2446573593483423
            ]
        },
        {
            "positions": [
                1.7844211016437168,
                -1.8539017066939456,
                2.037170129576377,
                -1.0779605431053527,
                -0.32365576504267063,
                -1.3676863881358323
            ]
        },
        {
            "positions": [
                1.8446706401325705,
                -1.7939212559601767,
                2.0223879592607643,
                -1.0584539431778275,
                -0.22459206494253556,
                -1.490715416923322
            ]
        },
        {
            "positions": [
                1.9049201786214243,
                -1.7339408052264078,
                2.0076057889451517,
                -1.038947343250302,
                -0.12552836484240049,
                -1.613744445710812
            ]
        },
        {
            "positions": [
                1.965169717110278,
                -1.673960354492639,
                1.9928236186295392,
                -1.0194407433227768,
                -0.026464664742265442,
                -1.7367734744983019
            ]
        },
        {
            "positions": [
                2.025419255599132,
                -1.61397990375887,
                1.9780414483139266,
                -0.9999341433952514,
                0.0725990353578696,
                -1.8598025032857919
            ]
        },
        {
            "positions": [
                2.0856687940879857,
                -1.553999453025101,
                1.963259277998314,
                -0.9804275434677261,
                0.1716627354580047,
                -1.9828315320732819
            ]
        },
        {
            "positions": [
                2.1459183325768394,
                -1.494019002291332,
                1.9484771076827014,
                -0.9609209435402006,
                0.2707264355581397,
                -2.105860560860772
            ]
        },
        {
            "positions": [
                2.206167871065693,
                -1.434038551557563,
                1.933694937367089,
                -0.9414143436126754,
                0.3697901356582748,
                -2.2288895896482614
            ]
        },
        {
            "positions": [
                2.266417409554547,
                -1.3740581008237942,
                1.9189127670514765,
                -0.9219077436851499,
                0.4688538357584098,
                -2.3519186184357515
            ]
        },
        {
            "positions": [
                2.3266669480434006,
                -1.3140776500900253,
                1.904130596735864,
                -0.9024011437576247,
                0.5679175358585449,
                -2.4749476472232415
            ]
        },
        {
            "positions": [
                2.3869164865322543,
                -1.2540971993562562,
                1.8893484264202514,
                -0.8828945438300992,
                0.6669812359586798,
                -2.597976676010731
            ]
        },
        {
            "positions": [
                2.447166025021108,
                -1.1941167486224873,
                1.8745662561046388,
                -0.8633879439025739,
                0.7660449360588151,
                -2.7210057047982215
            ]
        },
        {
            "positions": [
                2.5074155635099618,
                -1.1341362978887184,
                1.8597840857890262,
                -0.8438813439750485,
                0.8651086361589502,
                -2.844034733585711
            ]
        },
        {
            "positions": [
                2.5676651019988155,
                -1.0741558471549495,
                1.8450019154734136,
                -0.8243747440475232,
                0.964172336259085,
                -2.9670637623732015
            ]
        },
        {
            "positions": [
                2.627914640487669,
                -1.0141753964211806,
                1.830219745157801,
                -0.8048681441199979,
                1.0632360363592201,
                -3.090092791160691
            ]
        }
    ]
}