{
    "goal": {
        "global_pose": {
            "orientation": {
                "w": 0.7047431468963623,
                "x": -0.7094548344612122,
                "y": 0.0024358443915843964,
                "z": -0.0022348060738295317
            },
            "position": {
                "x": 0.6094750761985779,
                "y": 0.3671506643295288,
                "z": 0.19426114857196808
            }
        },
        "name": "move_to_magneteinheit_A"
    },
    "id": "RRTConnect_move_to_magneteinheit_A_125",
    "joint_names": [
        "shoulder_pan_joint",
        "shoulder_lift_joint",
        "elbow_joint",
        "wrist_1_joint",
        "wrist_2_joint",
        "wrist_3_joint"
    ],
    "metrics": {
        "cart_traj_len": 3.216830364580075,
        "distance_elbow_joint": 3.9075758699405094,
        "distance_shoulder_lift_joint": 0.5404627700045371,
        "distance_shoulder_pan_joint": 2.9208457279499056,
        "distance_wrist_1_joint": 3.453014359879587,
        "distance_wrist_2_joint": 1.449420639046208,
        "distance_wrist_3_joint": 0.44442319533250824,
        "smoothness": 0.12609923067668669,
        "time": 0.142744896,
        "traj_len": 3.5659139869258274,
        "weighted_distance": 4.301979073838466
    },
    "planner": "RRTConnect",
    "start": {
        "state": {
            "elbow_joint": -1.9196185241190666,
            "shoulder_lift_joint": -1.2443396400964142,
            "shoulder_pan_joint": 2.6996025414629847,
            "wrist_1_joint": -1.5485510000780065,
            "wrist_2_joint": -1.5709468930060704,
            "wrist_3_joint": 0.4420197071253992
        }
    },
    "waypoints": [
        {
            "positions": [
                2.6996025414629847,
                -1.2443396400964142,
                -1.9196185241190666,
                -1.5485510000780065,
                -1.5709468930060704,
                0.4420197071253992
            ]
        },
        {
            "positions": [
                2.5932064957216276,
                -1.2291990945625817,
                -1.8090190817902145,
                -1.43449898152237,
                -1.5274594630368692,
                0.4406622598913594
            ]
        },
        {
            "positions": [
                2.48681044998027,
                -1.214058549028749,
                -1.6984196394613624,
                -1.3204469629667335,
                -1.4839720330676682,
                0.4393048126573196
            ]
        },
        {
            "positions": [
                2.380414404238913,
                -1.1989180034949165,
                -1.58782019713251,
                -1.206394944411097,
                -1.440484603098467,
                0.43794736542327983
            ]
        },
        {
            "positions": [
                2.274018358497556,
                -1.183777457961084,
                -1.4772207548036582,
                -1.0923429258554607,
                -1.3969971731292659,
                0.43658991818924003
            ]
        },
        {
            "positions": [
                2.167622312756199,
                -1.1686369124272513,
                -1.366621312474806,
                -0.978290907299824,
                -1.353509743160065,
                0.43523247095520023
            ]
        },
        {
            "positions": [
                2.061226267014842,
                -1.1534963668934188,
                -1.2560218701459538,
                -0.8642388887441875,
                -1.3100223131908637,
                0.4338750237211605
            ]
        },
        {
            "positions": [
                1.9548302212734843,
                -1.1383558213595864,
                -1.1454224278171017,
                -0.750186870188551,
                -1.2665348832216625,
                0.4325175764871207
            ]
        },
        {
            "positions": [
                1.8484341755321272,
                -1.1232152758257539,
                -1.0348229854882496,
                -0.6361348516329146,
                -1.2230474532524616,
                0.4311601292530809
            ]
        },
        {
            "positions": [
                1.74203812979077,
                -1.1080747302919212,
                -0.9242235431593974,
                -0.522082833077278,
                -1.1795600232832604,
                0.4298026820190411
            ]
        },
        {
            "positions": [
                1.6356420840494128,
                -1.0929341847580887,
                -0.8136241008305451,
                -0.4080308145216416,
                -1.1360725933140592,
                0.4284452347850013
            ]
        },
        {
            "positions": [
                1.5292460383080557,
                -1.0777936392242562,
                -0.703024658501693,
                -0.2939787959660052,
                -1.0925851633448582,
                0.42708778755096155
            ]
        },
        {
            "positions": [
                1.4228499925666984,
                -1.0626530936904235,
                -0.5924252161728409,
                -0.17992677741036855,
                -1.049097733375657,
                0.42573034031692175
            ]
        },
        {
            "positions": [
                1.3164539468253413,
                -1.047512548156591,
                -0.48182577384398884,
                -0.06587475885473215,
                -1.0056103034064559,
                0.42437289308288195
            ]
        },
        {
            "positions": [
                1.210057901083984,
                -1.0323720026227585,
                -0.3712263315151365,
                0.04817725970090447,
                -0.9621228734372548,
                0.4230154458488422
            ]
        },
        {
            "positions": [
                1.1036618553426267,
                -1.017231457088926,
                -0.2606268891862844,
                0.16222927825654088,
                -0.9186354434680537,
                0.4216579986148024
            ]
        },
        {
            "positions": [
                0.9972658096012696,
                -1.0020909115550933,
                -0.15002744685743252,
                0.2762812968121773,
                -0.8751480134988526,
                0.4203005513807626
            ]
        },
        {
            "positions": [
                0.8908697638599123,
                -0.9869503660212608,
                -0.039428004528580196,
                0.3903333153678141,
                -0.8316605835296514,
                0.4189431041467228
            ]
        },
        {
            "positions": [
                0.7844737181185553,
                -0.9718098204874284,
                0.07117143780027191,
                0.5043853339234505,
                -0.7881731535604504,
                0.417585656912683
            ]
        },
        {
            "positions": [
                0.678077672377198,
                -0.9566692749535958,
                0.181770880129124,
                0.6184373524790867,
                -0.7446857235912493,
                0.41622820967864327
            ]
        },
        {
            "positions": [
                0.5716816266358409,
                -0.9415287294197632,
                0.29237032245797634,
                0.7324893710347233,
                -0.7011982936220481,
                0.41487076244460347
            ]
        },
        {
            "positions": [
                0.4652855808944838,
                -0.9263881838859307,
                0.4029697647868282,
                0.84654138959036,
                -0.657710863652847,
                0.41351331521056367
            ]
        },
        {
            "positions": [
                0.3588895351531267,
                -0.9112476383520982,
                0.5135692071156805,
                0.9605934081459961,
                -0.614223433683646,
                0.4121558679765239
            ]
        },
        {
            "positions": [
                0.2524934894117692,
                -0.8961070928182655,
                0.6241686494445329,
                1.0746454267016332,
                -0.5707360037144447,
                0.4107984207424841
            ]
        },
        {
            "positions": [
                0.14609744367041208,
                -0.880966547284433,
                0.7347680917733845,
                1.1886974452572694,
                -0.5272485737452438,
                0.40944097350844433
            ]
        },
        {
            "positions": [
                0.11821398162472319,
                -0.8859955437672243,
                0.8959790292419376,
                1.2668913489075293,
                -0.471614102368878,
                0.3530303778255127
            ]
        },
        {
            "positions": [
                0.09033051957903429,
                -0.8910245402500158,
                1.057189966710491,
                1.345085252557789,
                -0.41597963099251223,
                0.29661978214258117
            ]
        },
        {
            "positions": [
                0.06244705753334538,
                -0.8960535367328071,
                1.218400904179044,
                1.423279156208049,
                -0.36034515961614644,
                0.24020918645964956
            ]
        },
        {
            "positions": [
                0.03456359548765649,
                -0.9010825332155984,
                1.379611841647597,
                1.5014730598583088,
                -0.3047106882397806,
                0.18379859077671798
            ]
        },
        {
            "positions": [
                0.006680133441967578,
                -0.9061115296983897,
                1.5408227791161502,
                1.5796669635085685,
                -0.24907621686341475,
                0.12738799509378634
            ]
        },
        {
            "positions": [
                -0.021203328603721316,
                -0.9111405261811811,
                1.7020337165847033,
                1.6578608671588284,
                -0.193441745487049,
                0.07097739941085479
            ]
        },
        {
            "positions": [
                -0.04908679064941022,
                -0.9161695226639724,
                1.8632446540532566,
                1.7360547708090883,
                -0.13780727411068314,
                0.014566803727923183
            ]
        },
        {
            "positions": [
                0.03699140726934517,
                -0.8452261717574642,
                1.92560099993735,
                1.8202590653053345,
                -0.129666764035273,
                0.023051949695439323
            ]
        },
        {
            "positions": [
                0.12306960518810056,
                -0.7742828208509559,
                1.9879573458214435,
                1.9044633598015808,
                -0.12152625395986284,
                0.03153709566295546
            ]
        }
    ]
}