{
    "goal": {
        "global_pose": {
            "orientation": {
                "w": 0.7047431493862688,
                "x": -0.7094548369677653,
                "y": 0.0024358444001904,
                "z": -0.0022348060817251984
            },
            "position": {
                "x": -0.39052492380142206,
                "y": 0.3671506643295288,
                "z": 0.19426114857196808
            }
        },
        "name": "move_to_magneteinheit_D"
    },
    "id": "RRTConnect_move_to_magneteinheit_D_64",
    "joint_names": [
        "shoulder_pan_joint",
        "shoulder_lift_joint",
        "elbow_joint",
        "wrist_1_joint",
        "wrist_2_joint",
        "wrist_3_joint"
    ],
    "metrics": {
        "cart_traj_len": 4.773141016124966,
        "distance_elbow_joint": 4.530867724594293,
        "distance_shoulder_lift_joint": 1.097045482296909,
        "distance_shoulder_pan_joint": 5.189748997387202,
        "distance_wrist_1_joint": 2.160641002791585,
        "distance_wrist_2_joint": 1.206159608009625,
        "distance_wrist_3_joint": 6.2787360103453675,
        "smoothness": 0.41667275768155915,
        "time": 0.126991332,
        "traj_len": 4.523626733653539,
        "weighted_distance": 6.032202869343581
    },
    "planner": "RRTConnect",
    "start": {
        "state": {
            "elbow_joint": 0.749534889911806,
            "shoulder_lift_joint": -0.6476975780787326,
            "shoulder_pan_joint": -2.711696901376241,
            "wrist_1_joint": -0.07506478083263063,
            "wrist_2_joint": 0.43296659715538205,
            "wrist_3_joint": -3.14703540197715
        }
    },
    "waypoints": [
        {
            "positions": [
                -2.711696901376241,
                -0.6476975780787326,
                0.749534889911806,
                -0.07506478083263063,
                0.43296659715538205,
                -3.14703540197715
            ]
        },
        {
            "positions": [
                -2.725585201952605,
                -0.7206750305575633,
                0.7989256002508839,
                -0.06902718581968842,
                0.45572591082386255,
                -2.9672791971424877
            ]
        },
        {
            "positions": [
                -2.739473502528969,
                -0.7936524830363939,
                0.8483163105899618,
                -0.06298959080674621,
                0.47848522449234304,
                -2.7875229923078257
            ]
        },
        {
            "positions": [
                -2.7533618031053333,
                -0.8666299355152246,
                0.8977070209290396,
                -0.056951995793804,
                0.5012445381608235,
                -2.6077667874731634
            ]
        },
        {
            "positions": [
                -2.767250103681697,
                -0.9396073879940552,
                0.9470977312681176,
                -0.05091440078086179,
                0.524003851829304,
                -2.4280105826385014
            ]
        },
        {
            "positions": [
                -2.781138404258061,
                -1.0125848404728859,
                0.9964884416071955,
                -0.04487680576791959,
                0.5467631654977845,
                -2.248254377803839
            ]
        },
        {
            "positions": [
                -2.6739581060352133,
                -1.0216465208672623,
                0.8903399191945627,
                -0.07054504711459582,
                0.5215653840309511,
                -2.1295731453529867
            ]
        },
        {
            "positions": [
                -2.566777807812365,
                -1.0307082012616389,
                0.7841913967819297,
                -0.09621328846127204,
                0.4963676025641176,
                -2.0108919129021343
            ]
        },
        {
            "positions": [
                -2.4595975095895173,
                -1.0397698816560152,
                0.6780428743692969,
                -0.12188152980794828,
                0.4711698210972842,
                -1.8922106804512817
            ]
        },
        {
            "positions": [
                -2.352417211366669,
                -1.0488315620503916,
                0.5718943519566639,
                -0.1475497711546245,
                0.4459720396304508,
                -1.773529448000429
            ]
        },
        {
            "positions": [
                -2.2452369131438212,
                -1.057893242444768,
                0.4657458295440311,
                -0.17321801250130073,
                0.42077425816361735,
                -1.6548482155495767
            ]
        },
        {
            "positions": [
                -2.138056614920973,
                -1.0669549228391446,
                0.35959730713139826,
                -0.19888625384797695,
                0.395576476696784,
                -1.5361669830987243
            ]
        },
        {
            "positions": [
                -2.030876316698125,
                -1.076016603233521,
                0.2534487847187653,
                -0.2245544951946532,
                0.3703786952299505,
                -1.4174857506478717
            ]
        },
        {
            "positions": [
                -1.923696018475277,
                -1.0850782836278974,
                0.14730026230613247,
                -0.2502227365413294,
                0.3451809137631171,
                -1.2988045181970191
            ]
        },
        {
            "positions": [
                -1.8165157202524291,
                -1.0941399640222738,
                0.04115173989349952,
                -0.27589097788800565,
                0.31998313229628367,
                -1.1801232857461668
            ]
        },
        {
            "positions": [
                -1.7093354220295809,
                -1.1032016444166504,
                -0.06499678251913332,
                -0.3015592192346819,
                0.29478535082945023,
                -1.0614420532953142
            ]
        },
        {
            "positions": [
                -1.6021551238067329,
                -1.1122633248110267,
                -0.17114530493176638,
                -0.32722746058135815,
                0.2695875693626168,
                -0.9427608208444618
            ]
        },
        {
            "positions": [
                -1.494974825583885,
                -1.1213250052054031,
                -0.277293827344399,
                -0.3528957019280343,
                0.24438978789578342,
                -0.8240795883936094
            ]
        },
        {
            "positions": [
                -1.387794527361037,
                -1.1303866855997797,
                -0.38344234975703206,
                -0.37856394327471055,
                0.21919200642894998,
                -0.7053983559427568
            ]
        },
        {
            "positions": [
                -1.280614229138189,
                -1.139448365994156,
                -0.4895908721696649,
                -0.4042321846213868,
                0.19399422496211655,
                -0.5867171234919044
            ]
        },
        {
            "positions": [
                -1.173433930915341,
                -1.1485100463885325,
                -0.595739394582298,
                -0.42990042596806305,
                0.1687964434952831,
                -0.4680358910410518
            ]
        },
        {
            "positions": [
                -1.066253632692493,
                -1.1575717267829089,
                -0.7018879169949306,
                -0.4555686673147392,
                0.14359866202844973,
                -0.34935465859019943
            ]
        },
        {
            "positions": [
                -0.9590733344696449,
                -1.1666334071772855,
                -0.8080364394075636,
                -0.4812369086614155,
                0.1184008805616163,
                -0.23067342613934683
            ]
        },
        {
            "positions": [
                -0.8518930362467969,
                -1.1756950875716619,
                -0.9141849618201965,
                -0.5069051500080918,
                0.09320309909478286,
                -0.11199219368849445
            ]
        },
        {
            "positions": [
                -0.7447127380239489,
                -1.1847567679660382,
                -1.0203334842328293,
                -0.532573391354768,
                0.06800531762794942,
                0.006689038762357935
            ]
        },
        {
            "positions": [
                -0.6375324398011006,
                -1.1938184483604148,
                -1.1264820066454622,
                -0.5582416327014442,
                0.04280753616111599,
                0.12537027121321076
            ]
        },
        {
            "positions": [
                -0.5303521415782528,
                -1.2028801287547912,
                -1.2326305290580954,
                -0.5839098740481204,
                0.01760975469428261,
                0.24405150366406314
            ]
        },
        {
            "positions": [
                -0.4231718433554046,
                -1.2119418091491676,
                -1.3387790514707283,
                -0.6095781153947968,
                -0.007588026772550882,
                0.3627327361149155
            ]
        },
        {
            "positions": [
                -0.31599154513255723,
                -1.221003489543544,
                -1.4449275738833607,
                -0.6352463567414729,
                -0.03278580823938426,
                0.4814139685657679
            ]
        },
        {
            "positions": [
                -0.20881124690970898,
                -1.2300651699379206,
                -1.5510760962959935,
                -0.6609145980881491,
                -0.05798358970621764,
                0.6000952010166203
            ]
        },
        {
            "positions": [
                -0.10163094868686073,
                -1.239126850332297,
                -1.6572246187086268,
                -0.6865828394348253,
                -0.08318137117305113,
                0.7187764334674727
            ]
        },
        {
            "positions": [
                0.005549349535987069,
                -1.2481885307266734,
                -1.7633731411212596,
                -0.7122510807815016,
                -0.10837915263988451,
                0.8374576659183255
            ]
        },
        {
            "positions": [
                0.11272964775883532,
                -1.25725021112105,
                -1.8695216635338925,
                -0.7379193221281779,
                -0.1335769341067179,
                0.9561388983691779
            ]
        },
        {
            "positions": [
                0.21990994598168312,
                -1.2663118915154263,
                -1.9756701859465253,
                -0.7635875634748541,
                -0.15877471557355138,
                1.0748201308200303
            ]
        },
        {
            "positions": [
                0.32709024420453137,
                -1.2753735719098027,
                -2.081818708359158,
                -0.7892558048215303,
                -0.18397249704038476,
                1.193501363270883
            ]
        },
        {
            "positions": [
                0.43427054242737917,
                -1.284435252304179,
                -2.1879672307717914,
                -0.8149240461682066,
                -0.20917027850721825,
                1.3121825957217355
            ]
        },
        {
            "positions": [
                0.5414508406502274,
                -1.2934969326985557,
                -2.2941157531844243,
                -0.8405922875148828,
                -0.23436805997405163,
                1.4308638281725878
            ]
        },
        {
            "positions": [
                0.6486311388730752,
                -1.302558613092932,
                -2.4002642755970567,
                -0.8662605288615589,
                -0.259565841440885,
                1.5495450606234402
            ]
        },
        {
            "positions": [
                0.755811437095923,
                -1.3116202934873085,
                -2.5064127980096895,
                -0.8919287702082352,
                -0.2847636229077185,
                1.6682262930742926
            ]
        },
        {
            "positions": [
                0.8629917353187713,
                -1.320681973881685,
                -2.612561320422323,
                -0.9175970115549115,
                -0.3099614043745519,
                1.7869075255251454
            ]
        },
        {
            "positions": [
                0.9701720335416191,
                -1.3297436542760614,
                -2.7187098428349556,
                -0.9432652529015877,
                -0.3351591858413854,
                1.9055887579759974
            ]
        },
        {
            "positions": [
                1.0773523317644673,
                -1.3388053346704378,
                -2.8248583652475885,
                -0.9689334942482639,
                -0.36035696730821876,
                2.02426999042685
            ]
        },
        {
            "positions": [
                0.9722009352242296,
                -1.3726334784792047,
                -2.7863110847439123,
                -1.069466522518808,
                -0.3449200584031171,
                2.1165558752552975
            ]
        },
        {
            "positions": [
                0.8670495386839918,
                -1.4064616222879718,
                -2.747763804240236,
                -1.1699995507893521,
                -0.32948314949801544,
                2.2088417600837444
            ]
        },
        {
            "positions": [
                0.7618981421437541,
                -1.4402897660967389,
                -2.7092165237365595,
                -1.2705325790598962,
                -0.3140462405929138,
                2.301127644912192
            ]
        },
        {
            "positions": [
                0.6567467456035164,
                -1.4741179099055057,
                -2.6706692432328833,
                -1.3710656073304404,
                -0.2986093316878121,
                2.3934135297406387
            ]
        },
        {
            "positions": [
                0.5515953490632787,
                -1.5079460537142726,
                -2.632121962729207,
                -1.4715986356009847,
                -0.2831724227827105,
                2.485699414569086
            ]
        },
        {
            "positions": [
                0.4464439525230409,
                -1.5417741975230397,
                -2.5935746822255306,
                -1.5721316638715288,
                -0.26773551387760886,
                2.5779852993975334
            ]
        },
        {
            "positions": [
                0.34129255598280317,
                -1.5756023413318068,
                -2.5550274017218544,
                -1.6726646921420731,
                -0.25229860497250717,
                2.6702711842259803
            ]
        },
        {
            "positions": [
                0.23614115944256553,
                -1.6094304851405736,
                -2.516480121218178,
                -1.773197720412617,
                -0.23686169606740554,
                2.762557069054427
            ]
        },
        {
            "positions": [
                0.13098976290232778,
                -1.6432586289493405,
                -2.477932840714502,
                -1.8737307486831614,
                -0.22142478716230388,
                2.8548429538828746
            ]
        },
        {
            "positions": [
                0.025838366362090026,
                -1.6770867727581076,
                -2.439385560210826,
                -1.9742637769537055,
                -0.20598787825720222,
                2.947128838711322
            ]
        },
        {
            "positions": [
                -0.07931303017814773,
                -1.7109149165668747,
                -2.4008382797071492,
                -2.0747968052242496,
                -0.19055096935210059,
                3.0394147235397693
            ]
        },
        {
            "positions": [
                -0.18446442671838548,
                -1.7447430603756415,
                -2.362290999203473,
                -2.1753298334947937,
                -0.17511406044699893,
                3.131700608368216
            ]
        }
    ]
}