{
    "goal": {
        "global_pose": {
            "orientation": {
                "w": 0.7047431493862688,
                "x": -0.7094548369677653,
                "y": 0.0024358444001904,
                "z": -0.0022348060817251984
            },
            "position": {
                "x": -0.39052492380142206,
                "y": 0.3671506643295288,
                "z": 0.19426114857196808
            }
        },
        "name": "move_to_magneteinheit_D"
    },
    "id": "RRTConnect_move_to_magneteinheit_D_8",
    "joint_names": [
        "shoulder_pan_joint",
        "shoulder_lift_joint",
        "elbow_joint",
        "wrist_1_joint",
        "wrist_2_joint",
        "wrist_3_joint"
    ],
    "metrics": {
        "cart_traj_len": 4.6805676192561245,
        "distance_elbow_joint": 3.199287153736631,
        "distance_shoulder_lift_joint": 1.6269005080002803,
        "distance_shoulder_pan_joint": 3.6007843242111064,
        "distance_wrist_1_joint": 2.6203198373590153,
        "distance_wrist_2_joint": 1.3586842373280426,
        "distance_wrist_3_joint": 4.251257423325162,
        "smoothness": 0.4519026855152313,
        "time": 0.18969527,
        "traj_len": 4.081327416902526,
        "weighted_distance": 5.398032271605795
    },
    "planner": "RRTConnect",
    "start": {
        "state": {
            "elbow_joint": 0.749534889911806,
            "shoulder_lift_joint": -0.6476975780787326,
            "shoulder_pan_joint": -2.711696901376241,
            "wrist_1_joint": -0.07506478083263063,
            "wrist_2_joint": 0.43296659715538205,
            "wrist_3_joint": -3.14703540197715
        }
    },
    "waypoints": [
        {
            "positions": [
                -2.711696901376241,
                -0.6476975780787326,
                0.749534889911806,
                -0.07506478083263063,
                0.43296659715538205,
                -3.14703540197715
            ]
        },
        {
            "positions": [
                -2.725440218622457,
                -0.6668126908530896,
                0.6703332227845867,
                -0.16678257527010704,
                0.3883616069445143,
                -3.0476200146037837
            ]
        },
        {
            "positions": [
                -2.7391835358686727,
                -0.6859278036274467,
                0.5911315556573675,
                -0.2585003697075835,
                0.3437566167336466,
                -2.948204627230418
            ]
        },
        {
            "positions": [
                -2.752926853114889,
                -0.7050429164018036,
                0.5119298885301483,
                -0.35021816414505985,
                0.2991516265227789,
                -2.8487892398570516
            ]
        },
        {
            "positions": [
                -2.7666701703611047,
                -0.7241580291761607,
                0.4327282214029291,
                -0.4419359585825363,
                0.25454663631191116,
                -2.7493738524836857
            ]
        },
        {
            "positions": [
                -2.7804134876073205,
                -0.7432731419505176,
                0.3535265542757099,
                -0.5336537530200127,
                0.20994164610104343,
                -2.6499584651103194
            ]
        },
        {
            "positions": [
                -2.666944551037651,
                -0.7853877404765826,
                0.2922339376530208,
                -0.4956242671995202,
                0.18833048159283824,
                -2.5333410530773883
            ]
        },
        {
            "positions": [
                -2.553475614467982,
                -0.8275023390026476,
                0.23094132103033177,
                -0.45759478137902765,
                0.16671931708463306,
                -2.4167236410444572
            ]
        },
        {
            "positions": [
                -2.4400066778983125,
                -0.8696169375287125,
                0.16964870440764268,
                -0.4195652955585351,
                0.14510815257642784,
                -2.300106229011526
            ]
        },
        {
            "positions": [
                -2.326537741328643,
                -0.9117315360547775,
                0.10835608778495362,
                -0.3815358097380426,
                0.12349698806822265,
                -2.1834888169785946
            ]
        },
        {
            "positions": [
                -2.213068804758974,
                -0.9538461345808424,
                0.04706347116226456,
                -0.34350632391755,
                0.10188582356001746,
                -2.0668714049456636
            ]
        },
        {
            "positions": [
                -2.0995998681893044,
                -0.9959607331069074,
                -0.01422914546042453,
                -0.3054768380970575,
                0.08027465905181227,
                -1.9502539929127325
            ]
        },
        {
            "positions": [
                -1.986130931619635,
                -1.0380753316329723,
                -0.07552176208311362,
                -0.2674473522765649,
                0.05866349454360706,
                -1.8336365808798014
            ]
        },
        {
            "positions": [
                -1.8726619950499657,
                -1.0801899301590374,
                -0.13681437870580265,
                -0.22941786645607237,
                0.03705233003540187,
                -1.7170191688468703
            ]
        },
        {
            "positions": [
                -1.7591930584802964,
                -1.1223045286851023,
                -0.19810699532849174,
                -0.19138838063557984,
                0.015441165527196682,
                -1.6004017568139393
            ]
        },
        {
            "positions": [
                -1.645724121910627,
                -1.1644191272111672,
                -0.2593996119511808,
                -0.1533588948150873,
                -0.0061699989810085065,
                -1.483784344781008
            ]
        },
        {
            "positions": [
                -1.5322551853409576,
                -1.2065337257372322,
                -0.3206922285738699,
                -0.11532940899459476,
                -0.027781163489213695,
                -1.3671669327480769
            ]
        },
        {
            "positions": [
                -1.4187862487712881,
                -1.2486483242632973,
                -0.38198484519655895,
                -0.07729992317410223,
                -0.04939232799741888,
                -1.2505495207151458
            ]
        },
        {
            "positions": [
                -1.3053173122016188,
                -1.2907629227893622,
                -0.443277461819248,
                -0.03927043735360969,
                -0.0710034925056241,
                -1.1339321086822147
            ]
        },
        {
            "positions": [
                -1.1918483756319496,
                -1.3328775213154271,
                -0.5045700784419371,
                -0.0012409515331170962,
                -0.09261465701382932,
                -1.0173146966492834
            ]
        },
        {
            "positions": [
                -1.07837943906228,
                -1.374992119841492,
                -0.5658626950646263,
                0.036788534287375496,
                -0.11422582152203453,
                -0.9006972846163521
            ]
        },
        {
            "positions": [
                -0.9649105024926108,
                -1.417106718367557,
                -0.6271553116873152,
                0.07481802010786798,
                -0.1358369860302397,
                -0.7840798725834213
            ]
        },
        {
            "positions": [
                -0.8514415659229413,
                -1.4592213168936221,
                -0.6884479283100043,
                0.11284750592836057,
                -0.1574481505384449,
                -0.66746246055049
            ]
        },
        {
            "positions": [
                -0.7379726293532722,
                -1.501335915419687,
                -0.7497405449326934,
                0.15087699174885305,
                -0.17905931504665007,
                -0.5508450485175591
            ]
        },
        {
            "positions": [
                -0.6245036927836027,
                -1.5434505139457522,
                -0.8110331615553826,
                0.18890647756934564,
                -0.20067047955485529,
                -0.4342276364846276
            ]
        },
        {
            "positions": [
                -0.5110347562139332,
                -1.5855651124718169,
                -0.8723257781780714,
                0.22693596338983812,
                -0.22228164406306045,
                -0.3176102244516965
            ]
        },
        {
            "positions": [
                -0.39756581964426374,
                -1.627679710997882,
                -0.9336183948007607,
                0.2649654492103307,
                -0.24389280857126566,
                -0.20099281241876543
            ]
        },
        {
            "positions": [
                -0.2840968830745947,
                -1.669794309523947,
                -0.9949110114234497,
                0.3029949350308232,
                -0.2655039730794708,
                -0.08437540038583435
            ]
        },
        {
            "positions": [
                -0.1706279465049252,
                -1.7119089080500118,
                -1.0562036280461387,
                0.3410244208513158,
                -0.2871151375876761,
                0.032242011647096724
            ]
        },
        {
            "positions": [
                -0.05715900993525569,
                -1.7540235065760768,
                -1.117496244668828,
                0.37905390667180827,
                -0.3087263020958812,
                0.1488594236800278
            ]
        },
        {
            "positions": [
                0.05630992663441381,
                -1.796138105102142,
                -1.1787888612915172,
                0.41708339249230086,
                -0.3303374666040864,
                0.2654768357129593
            ]
        },
        {
            "positions": [
                0.16977886320408286,
                -1.8382527036282068,
                -1.240081477914206,
                0.45511287831279335,
                -0.35194863111229163,
                0.38209424774588996
            ]
        },
        {
            "positions": [
                0.28324779977375225,
                -1.8803673021542717,
                -1.301374094536895,
                0.49314236413328605,
                -0.3735597956204968,
                0.4987116597788217
            ]
        },
        {
            "positions": [
                0.26268327484020376,
                -1.9002350403617525,
                -1.4259178295711321,
                0.6094269198212996,
                -0.32303878572755806,
                0.44142600165417034
            ]
        },
        {
            "positions": [
                0.24211874990665522,
                -1.9201027785692333,
                -1.550461564605369,
                0.7257114755093133,
                -0.27251777583461934,
                0.384140343529519
            ]
        },
        {
            "positions": [
                0.22155422497310673,
                -1.9399705167767143,
                -1.675005299639606,
                0.8419960311973269,
                -0.22199676594168058,
                0.3268546854048677
            ]
        },
        {
            "positions": [
                0.20098970003955818,
                -1.959838254984195,
                -1.7995490346738432,
                0.9582805868853405,
                -0.17147575604874185,
                0.2695690272802163
            ]
        },
        {
            "positions": [
                0.1804251751060097,
                -1.9797059931916758,
                -1.9240927697080803,
                1.0745651425733542,
                -0.1209547461558031,
                0.21228336915556495
            ]
        },
        {
            "positions": [
                0.15986065017246118,
                -1.9995737313991566,
                -2.0486365047423174,
                1.1908496982613677,
                -0.07043373626286437,
                0.15499771103091364
            ]
        },
        {
            "positions": [
                0.13929612523891266,
                -2.0194414696066376,
                -2.173180239776554,
                1.3071342539493813,
                -0.019912726369925582,
                0.09771205290626223
            ]
        },
        {
            "positions": [
                0.11873160030536414,
                -2.039309207814118,
                -2.297723974810791,
                1.4234188096373948,
                0.03060828352301309,
                0.04042639478161092
            ]
        },
        {
            "positions": [
                0.09816707537181563,
                -2.059176946021599,
                -2.4222677098450283,
                1.5397033653254084,
                0.0811292934159519,
                -0.016859263343040484
            ]
        },
        {
            "positions": [
                0.0037251666394761407,
                -2.130983992707404,
                -2.413106191851763,
                1.5102454497166713,
                0.11361887858785681,
                0.013120549472735804
            ]
        },
        {
            "positions": [
                -0.09071674209286335,
                -2.202791039393208,
                -2.403944673858497,
                1.4807875341079344,
                0.14610846375976172,
                0.04310036228851209
            ]
        },
        {
            "positions": [
                -0.1851586508252028,
                -2.274598086079013,
                -2.3947831558652317,
                1.4513296184991973,
                0.17859804893166664,
                0.07308017510428838
            ]
        }
    ]
}