{
    "goal": {
        "global_pose": {
            "orientation": {
                "w": 0.7031023480610252,
                "x": -0.7110244013736278,
                "y": 0.0077485991402295624,
                "z": 0.005598929693374583
            },
            "position": {
                "x": -0.8841497679147869,
                "y": 0.44412534475326537,
                "z": 0.3711530566215515
            }
        },
        "name": "move_to_auspresseinheit_D"
    },
    "id": "RRTConnect_move_to_auspresseinheit_D_122",
    "joint_names": [
        "shoulder_pan_joint",
        "shoulder_lift_joint",
        "elbow_joint",
        "wrist_1_joint",
        "wrist_2_joint",
        "wrist_3_joint"
    ],
    "metrics": {
        "cart_traj_len": 0.3425166116138133,
        "distance_elbow_joint": 0.6302944476062247,
        "distance_shoulder_lift_joint": 0.11662925706079319,
        "distance_shoulder_pan_joint": 0.1334297202384278,
        "distance_wrist_1_joint": 0.5084312066128494,
        "distance_wrist_2_joint": 1.4323121710320326,
        "distance_wrist_3_joint": 0.025558707848482687,
        "smoothness": 1.9737298371844314e-16,
        "time": 0.065921717,
        "traj_len": 1.6872034585072453,
        "weighted_distance": 2.199662770458385
    },
    "planner": "RRTConnect",
    "start": {
        "state": {
            "elbow_joint": -1.8275523626775212,
            "shoulder_lift_joint": -2.126789852344167,
            "shoulder_pan_joint": -0.03513704404078235,
            "wrist_1_joint": -2.347782403156801,
            "wrist_2_joint": -1.6058999987535132,
            "wrist_3_joint": -3.0880379163319196
        }
    },
    "waypoints": [
        {
            "positions": [
                -0.03513704404078235,
                -2.126789852344167,
                -1.8275523626775212,
                -2.347782403156801,
                -1.6058999987535132,
                -3.0880379163319196
            ]
        },
        {
            "positions": [
                -0.051815759070585825,
                -2.141368509476766,
                -1.748765556726743,
                -2.411336303983407,
                -1.4268609773745091,
                -3.09123275481298
            ]
        },
        {
            "positions": [
                -0.06849447410038931,
                -2.1559471666093653,
                -1.669978750775965,
                -2.474890204810013,
                -1.247821955995505,
                -3.09442759329404
            ]
        },
        {
            "positions": [
                -0.08517318913019278,
                -2.1705258237419645,
                -1.591191944825187,
                -2.5384441056366196,
                -1.068782934616501,
                -3.0976224317751004
            ]
        },
        {
            "positions": [
                -0.10185190415999626,
                -2.185104480874563,
                -1.5124051388744089,
                -2.6019980064632255,
                -0.8897439132374969,
                -3.1008172702561607
            ]
        },
        {
            "positions": [
                -0.11853061918979974,
                -2.1996831380071624,
                -1.4336183329236307,
                -2.6655519072898315,
                -0.7107048918584928,
                -3.1040121087372214
            ]
        },
        {
            "positions": [
                -0.1352093342196032,
                -2.2142617951397616,
                -1.3548315269728528,
                -2.729105808116438,
                -0.5316658704794888,
                -3.1072069472182817
            ]
        },
        {
            "positions": [
                -0.1518880492494067,
                -2.228840452272361,
                -1.2760447210220747,
                -2.7926597089430443,
                -0.3526268491004847,
                -3.110401785699342
            ]
        },
        {
            "positions": [
                -0.16856676427921016,
                -2.24341910940496,
                -1.1972579150712965,
                -2.85621360976965,
                -0.17358782772148051,
                -3.1135966241804023
            ]
        }
    ]
}