{
    "goal": {
        "global_pose": {
            "orientation": {
                "w": -0.4816463035849501,
                "x": 0.5182115481033762,
                "y": 0.4908360881923453,
                "z": -0.5084816262002911
            },
            "position": {
                "x": -0.8240239810943604,
                "y": -0.300875300988555,
                "z": 0.16403168439865112
            }
        },
        "name": "move_to_storage_C"
    },
    "id": "RRTConnect_move_to_storage_C_129",
    "joint_names": [
        "shoulder_pan_joint",
        "shoulder_lift_joint",
        "elbow_joint",
        "wrist_1_joint",
        "wrist_2_joint",
        "wrist_3_joint"
    ],
    "metrics": {
        "cart_traj_len": 0.5758166977298976,
        "distance_elbow_joint": 0.2546245010366446,
        "distance_shoulder_lift_joint": 0.18782431296650348,
        "distance_shoulder_pan_joint": 0.4943170931258667,
        "distance_wrist_1_joint": 0.06944148813922191,
        "distance_wrist_2_joint": 1.067826031841654,
        "distance_wrist_3_joint": 0.0705404424758509,
        "smoothness": 0.0,
        "time": 0.043547705000000006,
        "traj_len": 1.4644363658369528,
        "weighted_distance": 1.8501141247280717
    },
    "planner": "RRTConnect",
    "start": {
        "state": {
            "elbow_joint": 2.010868314990456,
            "shoulder_lift_joint": -1.1634956873337592,
            "shoulder_pan_joint": -2.4736205022346125,
            "wrist_1_joint": -0.8367026794202681,
            "wrist_2_joint": 0.6746043897044499,
            "wrist_3_joint": -3.1496632123970403
        }
    },
    "waypoints": [
        {
            "positions": [
                -2.4736205022346125,
                -1.1634956873337592,
                2.010868314990456,
                -0.8367026794202681,
                0.6746043897044499,
                -3.1496632123970403
            ]
        },
        {
            "positions": [
                -2.556006684422257,
                -1.1321916351726753,
                1.968430898151015,
                -0.8251290980637311,
                0.8525753950113922,
                -3.1379064719843983
            ]
        },
        {
            "positions": [
                -2.6383928666099012,
                -1.1008875830115914,
                1.9259934813115742,
                -0.8135555167071942,
                1.0305464003183347,
                -3.126149731571757
            ]
        },
        {
            "positions": [
                -2.720779048797546,
                -1.0695835308505075,
                1.8835560644721334,
                -0.8019819353506572,
                1.208517405625277,
                -3.114392991159115
            ]
        },
        {
            "positions": [
                -2.8031652309851904,
                -1.0382794786894236,
                1.8411186476326928,
                -0.7904083539941201,
                1.3864884109322193,
                -3.102636250746473
            ]
        },
        {
            "positions": [
                -2.8855514131728346,
                -1.0069754265283395,
                1.798681230793252,
                -0.7788347726375832,
                1.5644594162391616,
                -3.0908795103338313
            ]
        },
        {
            "positions": [
                -2.967937595360479,
                -0.9756713743672557,
                1.7562438139538112,
                -0.7672611912810462,
                1.742430421546104,
                -3.0791227699211894
            ]
        }
    ]
}