{
    "goal": {
        "global_pose": {
            "orientation": {
                "w": -0.00223480608172531,
                "x": 0.0024358444001904467,
                "y": 0.7094548369677653,
                "z": -0.704743149386269
            },
            "position": {
                "x": -0.37947507619857795,
                "y": -0.6371506643295288,
                "z": 0.19426114857196808
            }
        },
        "name": "move_to_magneteinheit_C"
    },
    "id": "RRTConnect_move_to_magneteinheit_C_125",
    "joint_names": [
        "shoulder_pan_joint",
        "shoulder_lift_joint",
        "elbow_joint",
        "wrist_1_joint",
        "wrist_2_joint",
        "wrist_3_joint"
    ],
    "metrics": {
        "cart_traj_len": 12.846990813312397,
        "distance_elbow_joint": 7.9534150320698105,
        "distance_shoulder_lift_joint": 4.578831387880246,
        "distance_shoulder_pan_joint": 10.70669479950992,
        "distance_wrist_1_joint": 12.521812541416786,
        "distance_wrist_2_joint": 5.869168351908639,
        "distance_wrist_3_joint": 8.120839893937845,
        "smoothness": 0.6737731152726961,
        "time": 0.312537261,
        "traj_len": 7.053422006850532,
        "weighted_distance": 9.186044997055285
    },
    "planner": "RRTConnect",
    "start": {
        "state": {
            "elbow_joint": 1.9565354010623817,
            "shoulder_lift_joint": -1.4165861575791021,
            "shoulder_pan_joint": -1.6717766225146293,
            "wrist_1_joint": -0.5286633292919765,
            "wrist_2_joint": 1.472756589071564,
            "wrist_3_joint": -3.1238370188695823
        }
    },
    "waypoints": [
        {
            "positions": [
                -1.6717766225146293,
                -1.4165861575791021,
                1.9565354010623817,
                -0.5286633292919765,
                1.472756589071564,
                -3.1238370188695823
            ]
        },
        {
            "positions": [
                -1.6328884098616228,
                -1.4300836616436947,
                1.9645256409757317,
                -0.5527976792069687,
                1.4776507792018163,
                -3.072397343958256
            ]
        },
        {
            "positions": [
                -1.5447475047441248,
                -1.3416456103934484,
                1.991265139525232,
                -0.6067078862618622,
                1.3635738515470293,
                -3.0828761825056232
            ]
        },
        {
            "positions": [
                -1.5212061562583896,
                -1.3437584729551777,
                1.8748649611801163,
                -0.6266236961509497,
                1.3775498857655122,
                -2.876576191643562
            ]
        },
        {
            "positions": [
                -1.4976648077726542,
                -1.3458713355169067,
                1.7584647828350002,
                -0.6465395060400373,
                1.3915259199839949,
                -2.6702762007815006
            ]
        },
        {
            "positions": [
                -1.474123459286919,
                -1.347984198078636,
                1.6420646044898843,
                -0.6664553159291248,
                1.4055019542024776,
                -2.4639762099194393
            ]
        },
        {
            "positions": [
                -1.4505821108011838,
                -1.350097060640365,
                1.5256644261447685,
                -0.6863711258182122,
                1.4194779884209605,
                -2.2576762190573776
            ]
        },
        {
            "positions": [
                -1.4270407623154484,
                -1.3522099232020943,
                1.4092642477996526,
                -0.7062869357072998,
                1.4334540226394434,
                -2.0513762281953163
            ]
        },
        {
            "positions": [
                -1.4034994138297132,
                -1.3543227857638236,
                1.2928640694545366,
                -0.7262027455963873,
                1.4474300568579261,
                -1.8450762373332552
            ]
        },
        {
            "positions": [
                -1.379958065343978,
                -1.3564356483255526,
                1.1764638911094207,
                -0.7461185554854748,
                1.4614060910764088,
                -1.638776246471194
            ]
        },
        {
            "positions": [
                -1.3564167168582428,
                -1.358548510887282,
                1.0600637127643049,
                -0.7660343653745623,
                1.4753821252948918,
                -1.4324762556091324
            ]
        },
        {
            "positions": [
                -1.3328753683725074,
                -1.360661373449011,
                0.9436635344191888,
                -0.7859501752636499,
                1.4893581595133747,
                -1.226176264747071
            ]
        },
        {
            "positions": [
                -1.3093340198867722,
                -1.3627742360107402,
                0.827263356074073,
                -0.8058659851527373,
                1.5033341937318574,
                -1.0198762738850098
            ]
        },
        {
            "positions": [
                -1.4605575248290277,
                -1.294270575637722,
                0.7829974196991663,
                -0.729981650479731,
                1.4761531777953967,
                -1.0415247695063234
            ]
        },
        {
            "positions": [
                -1.6117810297712831,
                -1.2257669152647037,
                0.7387314833242596,
                -0.6540973158067246,
                1.448972161858936,
                -1.063173265127637
            ]
        },
        {
            "positions": [
                -1.7630045347135386,
                -1.1572632548916855,
                0.694465546949353,
                -0.5782129811337182,
                1.4217911459224755,
                -1.0848217607489508
            ]
        },
        {
            "positions": [
                -1.9142280396557942,
                -1.0887595945186672,
                0.6501996105744463,
                -0.5023286464607117,
                1.3946101299860147,
                -1.1064702563702644
            ]
        },
        {
            "positions": [
                -2.0654515445980497,
                -1.020255934145649,
                0.6059336741995396,
                -0.4264443117877054,
                1.367429114049554,
                -1.1281187519915779
            ]
        },
        {
            "positions": [
                -2.216675049540305,
                -0.9517522737726307,
                0.561667737824633,
                -0.35055997711469905,
                1.3402480981130933,
                -1.1497672476128915
            ]
        },
        {
            "positions": [
                -2.3678985544825606,
                -0.8832486133996124,
                0.5174018014497263,
                -0.2746756424416926,
                1.3130670821766328,
                -1.1714157432342052
            ]
        },
        {
            "positions": [
                -2.519122059424816,
                -0.8147449530265941,
                0.4731358650748196,
                -0.19879130776868625,
                1.285886066240172,
                -1.1930642388555188
            ]
        },
        {
            "positions": [
                -2.6703455643670715,
                -0.7462412926535759,
                0.4288699286999129,
                -0.12290697309567984,
                1.2587050503037114,
                -1.2147127344768325
            ]
        },
        {
            "positions": [
                -2.5699632741486598,
                -0.7781451253831119,
                0.36766006845262683,
                -0.19025696359085129,
                1.1824886967919588,
                -1.2706799511697524
            ]
        },
        {
            "positions": [
                -2.469580983930248,
                -0.8100489581126479,
                0.3064502082053407,
                -0.25760695408602274,
                1.1062723432802062,
                -1.3266471678626723
            ]
        },
        {
            "positions": [
                -2.369198693711837,
                -0.8419527908421839,
                0.24524034795805458,
                -0.3249569445811942,
                1.0300559897684538,
                -1.3826143845555923
            ]
        },
        {
            "positions": [
                -2.268816403493425,
                -0.8738566235717199,
                0.1840304877107685,
                -0.3923069350763656,
                0.9538396362567012,
                -1.4385816012485122
            ]
        },
        {
            "positions": [
                -2.1684341132750133,
                -0.9057604563012558,
                0.12282062746348243,
                -0.45965692557153703,
                0.8776232827449486,
                -1.4945488179414321
            ]
        },
        {
            "positions": [
                -2.0680518230566016,
                -0.9376642890307919,
                0.06161076721619624,
                -0.5270069160667086,
                0.801406929233196,
                -1.5505160346343523
            ]
        },
        {
            "positions": [
                -1.9676695328381901,
                -0.9695681217603279,
                0.000400906968910153,
                -0.59435690656188,
                0.7251905757214435,
                -1.606483251327272
            ]
        },
        {
            "positions": [
                -1.8672872426197786,
                -1.0014719544898638,
                -0.06080895327837593,
                -0.6617068970570514,
                0.648974222209691,
                -1.662450468020192
            ]
        },
        {
            "positions": [
                -1.766904952401367,
                -1.0333757872193998,
                -0.12201881352566213,
                -0.7290568875522229,
                0.5727578686979384,
                -1.718417684713112
            ]
        },
        {
            "positions": [
                -1.6665226621829554,
                -1.0652796199489358,
                -0.18322867377294805,
                -0.7964068780473943,
                0.49654151518618594,
                -1.774384901406032
            ]
        },
        {
            "positions": [
                -1.5661403719645437,
                -1.0971834526784718,
                -0.2444385340202343,
                -0.8637568685425657,
                0.42032516167443335,
                -1.830352118098952
            ]
        },
        {
            "positions": [
                -1.465758081746132,
                -1.1290872854080078,
                -0.30564839426752044,
                -0.9311068590377373,
                0.34410880816268075,
                -1.8863193347918719
            ]
        },
        {
            "positions": [
                -1.3653757915277205,
                -1.1609911181375439,
                -0.36685825451480647,
                -0.9984568495329086,
                0.26789245465092826,
                -1.9422865514847918
            ]
        },
        {
            "positions": [
                -1.2649935013093088,
                -1.1928949508670799,
                -0.4280681147620926,
                -1.06580684002808,
                0.19167610113917566,
                -1.9982537681777117
            ]
        },
        {
            "positions": [
                -1.164611211090897,
                -1.2247987835966159,
                -0.48927797500937875,
                -1.1331568305232516,
                0.11545974762742306,
                -2.0542209848706316
            ]
        },
        {
            "positions": [
                -1.0642289208724856,
                -1.2567026163261519,
                -0.5504878352566648,
                -1.2005068210184229,
                0.03924339411567068,
                -2.1101882015635516
            ]
        },
        {
            "positions": [
                -0.9638466306540738,
                -1.2886064490556879,
                -0.6116976955039508,
                -1.2678568115135944,
                -0.03697295939608192,
                -2.1661554182564715
            ]
        },
        {
            "positions": [
                -0.8634643404356621,
                -1.320510281785224,
                -0.6729075557512372,
                -1.3352068020087657,
                -0.11318931290783452,
                -2.2221226349493914
            ]
        },
        {
            "positions": [
                -0.7630820502172506,
                -1.35241411451476,
                -0.7341174159985231,
                -1.4025567925039373,
                -0.1894056664195869,
                -2.2780898516423114
            ]
        },
        {
            "positions": [
                -0.6626997599988393,
                -1.3843179472442957,
                -0.795327276245809,
                -1.4699067829991086,
                -0.2656220199313395,
                -2.3340570683352313
            ]
        },
        {
            "positions": [
                -0.5623174697804276,
                -1.416221779973832,
                -0.8565371364930952,
                -1.5372567734942801,
                -0.3418383734430921,
                -2.3900242850281512
            ]
        },
        {
            "positions": [
                -0.4619351795620159,
                -1.448125612703368,
                -0.9177469967403815,
                -1.6046067639894515,
                -0.4180547269548447,
                -2.445991501721071
            ]
        },
        {
            "positions": [
                -0.3615528893436042,
                -1.480029445432904,
                -0.9789568569876677,
                -1.671956754484623,
                -0.4942710804665973,
                -2.501958718413991
            ]
        },
        {
            "positions": [
                -0.26117059912519247,
                -1.51193327816244,
                -1.0401667172349538,
                -1.7393067449797945,
                -0.5704874339783499,
                -2.557925935106911
            ]
        },
        {
            "positions": [
                -0.16078830890678075,
                -1.543837110891976,
                -1.10137657748224,
                -1.806656735474966,
                -0.6467037874901025,
                -2.6138931517998314
            ]
        },
        {
            "positions": [
                -0.06040601868836948,
                -1.5757409436215117,
                -1.1625864377295259,
                -1.8740067259701372,
                -0.7229201410018549,
                -2.669860368492751
            ]
        },
        {
            "positions": [
                0.03997627153004224,
                -1.607644776351048,
                -1.223796297976812,
                -1.9413567164653087,
                -0.7991364945136072,
                -2.725827585185671
            ]
        },
        {
            "positions": [
                0.14035856174845396,
                -1.639548609080584,
                -1.2850061582240981,
                -2.0087067069604805,
                -0.8753528480253601,
                -2.7817948018785907
            ]
        },
        {
            "positions": [
                0.24074085196686568,
                -1.67145244181012,
                -1.3462160184713843,
                -2.076056697455652,
                -0.9515692015371124,
                -2.837762018571511
            ]
        },
        {
            "positions": [
                0.3411231421852774,
                -1.703356274539656,
                -1.4074258787186704,
                -2.1434066879508236,
                -1.0277855550488653,
                -2.8937292352644306
            ]
        },
        {
            "positions": [
                0.44150543240368867,
                -1.735260107269192,
                -1.4686357389659563,
                -2.2107566784459944,
                -1.1040019085606176,
                -2.9496964519573505
            ]
        },
        {
            "positions": [
                0.5418877226221004,
                -1.7671639399987278,
                -1.5298455992132425,
                -2.278106668941166,
                -1.18021826207237,
                -3.0056636686502705
            ]
        },
        {
            "positions": [
                0.6422700128405121,
                -1.799067772728264,
                -1.5910554594605284,
                -2.3454566594363375,
                -1.2564346155841228,
                -3.061630885343191
            ]
        },
        {
            "positions": [
                0.7426523030589238,
                -1.8309716054577998,
                -1.6522653197078145,
                -2.4128066499315093,
                -1.3326509690958752,
                -3.1175981020361103
            ]
        },
        {
            "positions": [
                0.8430345932773355,
                -1.862875438187336,
                -1.7134751799551007,
                -2.4801566404266806,
                -1.408867322607628,
                -3.1735653187290307
            ]
        },
        {
            "positions": [
                0.9434168834957473,
                -1.8947792709168718,
                -1.7746850402023873,
                -2.547506630921852,
                -1.4850836761193804,
                -3.22953253542195
            ]
        },
        {
            "positions": [
                1.0437991737141585,
                -1.926683103646408,
                -1.835894900449673,
                -2.6148566214170232,
                -1.5613000296311328,
                -3.2854997521148706
            ]
        },
        {
            "positions": [
                1.1441814639325703,
                -1.9585869363759438,
                -1.897104760696959,
                -2.682206611912195,
                -1.6375163831428852,
                -3.34146696880779
            ]
        },
        {
            "positions": [
                1.244563754150982,
                -1.9904907691054798,
                -1.958314620944245,
                -2.7495566024073663,
                -1.713732736654638,
                -3.39743418550071
            ]
        },
        {
            "positions": [
                1.1447121045745516,
                -1.9516211171055833,
                -1.9191259312237523,
                -2.6261811772013615,
                -1.6705063029889629,
                -3.3535126597900864
            ]
        },
        {
            "positions": [
                1.0448604549981213,
                -1.9127514651056867,
                -1.8799372415032596,
                -2.502805751995357,
                -1.6272798693232877,
                -3.3095911340794624
            ]
        },
        {
            "positions": [
                0.945008805421691,
                -1.8738818131057902,
                -1.8407485517827669,
                -2.379430326789352,
                -1.5840534356576126,
                -3.265669608368839
            ]
        },
        {
            "positions": [
                0.8451571558452606,
                -1.8350121611058936,
                -1.8015598620622741,
                -2.2560549015833478,
                -1.5408270019919375,
                -3.2217480826582148
            ]
        },
        {
            "positions": [
                0.7453055062688304,
                -1.796142509105997,
                -1.7623711723417816,
                -2.132679476377343,
                -1.4976005683262623,
                -3.177826556947591
            ]
        },
        {
            "positions": [
                0.6454538566924001,
                -1.7572728571061005,
                -1.723182482621289,
                -2.0093040511713385,
                -1.4543741346605874,
                -3.1339050312369676
            ]
        },
        {
            "positions": [
                0.5456022071159697,
                -1.718403205106204,
                -1.6839937929007962,
                -1.8859286259653336,
                -1.4111477009949123,
                -3.0899835055263436
            ]
        },
        {
            "positions": [
                0.4457505575395394,
                -1.6795335531063074,
                -1.6448051031803035,
                -1.7625532007593288,
                -1.3679212673292371,
                -3.04606197981572
            ]
        },
        {
            "positions": [
                0.34589890796310907,
                -1.6406639011064108,
                -1.6056164134598108,
                -1.6391777755533241,
                -1.324694833663562,
                -3.002140454105096
            ]
        },
        {
            "positions": [
                0.24604725838667885,
                -1.6017942491065142,
                -1.5664277237393183,
                -1.5158023503473195,
                -1.2814683999978869,
                -2.9582189283944724
            ]
        },
        {
            "positions": [
                0.1461956088102485,
                -1.5629245971066177,
                -1.5272390340188253,
                -1.3924269251413148,
                -1.2382419663322117,
                -2.9142974026838484
            ]
        },
        {
            "positions": [
                0.04634395923381818,
                -1.5240549451067211,
                -1.4880503442983328,
                -1.2690514999353102,
                -1.1950155326665368,
                -2.870375876973225
            ]
        },
        {
            "positions": [
                -0.05350769034261216,
                -1.4851852931068246,
                -1.4488616545778399,
                -1.1456760747293053,
                -1.1517890990008615,
                -2.8264543512626013
            ]
        },
        {
            "positions": [
                -0.1533593399190425,
                -1.4463156411069278,
                -1.4096729648573474,
                -1.022300649523301,
                -1.1085626653351865,
                -2.7825328255519772
            ]
        },
        {
            "positions": [
                -0.2532109894954726,
                -1.4074459891070314,
                -1.3704842751368547,
                -0.8989252243172963,
                -1.0653362316695114,
                -2.7386112998413537
            ]
        },
        {
            "positions": [
                -0.35306263907190316,
                -1.3685763371071347,
                -1.331295585416362,
                -0.7755497991112914,
                -1.0221097980038363,
                -2.6946897741307296
            ]
        },
        {
            "positions": [
                -0.4529142886483333,
                -1.3297066851072383,
                -1.2921068956958695,
                -0.6521743739052868,
                -0.978883364338161,
                -2.650768248420106
            ]
        },
        {
            "positions": [
                -0.5527659382247638,
                -1.2908370331073415,
                -1.2529182059753765,
                -0.5287989486992819,
                -0.9356569306724859,
                -2.6068467227094825
            ]
        },
        {
            "positions": [
                -0.6526175878011939,
                -1.2519673811074452,
                -1.213729516254884,
                -0.4054235234932775,
                -0.8924304970068108,
                -2.5629251969988585
            ]
        },
        {
            "positions": [
                -0.7524692373776243,
                -1.2130977291075484,
                -1.1745408265343913,
                -0.2820480982872726,
                -0.8492040633411357,
                -2.519003671288235
            ]
        },
        {
            "positions": [
                -0.8523208869540548,
                -1.174228077107652,
                -1.1353521368138986,
                -0.15867267308126776,
                -0.8059776296754605,
                -2.475082145577611
            ]
        },
        {
            "positions": [
                -0.952172536530485,
                -1.1353584251077553,
                -1.0961634470934059,
                -0.03529724787526334,
                -0.7627511960097855,
                -2.4311606198669873
            ]
        },
        {
            "positions": [
                -1.052024186106915,
                -1.096488773107859,
                -1.0569747573729131,
                0.08807817733074108,
                -0.7195247623441104,
                -2.3872390941563637
            ]
        },
        {
            "positions": [
                -1.1518758356833456,
                -1.0576191211079624,
                -1.0177860676524206,
                0.21145360253674594,
                -0.6762983286784354,
                -2.34331756844574
            ]
        },
        {
            "positions": [
                -1.2517274852597762,
                -1.0187494691080656,
                -0.9785973779319277,
                0.3348290277427508,
                -0.6330718950127601,
                -2.2993960427351157
            ]
        },
        {
            "positions": [
                -1.3515791348362063,
                -0.9798798171081691,
                -0.939408688211435,
                0.45820445294875567,
                -0.5898454613470849,
                -2.255474517024492
            ]
        },
        {
            "positions": [
                -1.4514307844126364,
                -0.9410101651082725,
                -0.9002199984909425,
                0.5815798781547601,
                -0.5466190276814098,
                -2.2115529913138685
            ]
        },
        {
            "positions": [
                -1.551282433989067,
                -0.902140513108376,
                -0.8610313087704498,
                0.7049553033607645,
                -0.5033925940157349,
                -2.167631465603245
            ]
        },
        {
            "positions": [
                -1.651134083565497,
                -0.8632708611084796,
                -0.821842619049957,
                0.8283307285667694,
                -0.46016616035005975,
                -2.1237099398926214
            ]
        },
        {
            "positions": [
                -1.7509857331419272,
                -0.824401209108583,
                -0.7826539293294643,
                0.9517061537727738,
                -0.4169397266843846,
                -2.0797884141819973
            ]
        },
        {
            "positions": [
                -1.8508373827183577,
                -0.7855315571086863,
                -0.7434652396089716,
                1.075081578978779,
                -0.37371329301870926,
                -2.0358668884713733
            ]
        },
        {
            "positions": [
                -1.9506890322947883,
                -0.7466619051087897,
                -0.7042765498884789,
                1.1984570041847835,
                -0.33048685935303435,
                -1.9919453627607497
            ]
        },
        {
            "positions": [
                -2.0505406818712184,
                -0.7077922531088932,
                -0.6650878601679864,
                1.321832429390788,
                -0.2872604256873592,
                -1.948023837050126
            ]
        },
        {
            "positions": [
                -2.1503923314476485,
                -0.6689226011089966,
                -0.6258991704474937,
                1.4452078545967928,
                -0.24403399202168408,
                -1.9041023113395021
            ]
        },
        {
            "positions": [
                -2.250243981024079,
                -0.6300529491091003,
                -0.5867104807270009,
                1.5685832798027977,
                -0.20080755835600916,
                -1.8601807856288786
            ]
        },
        {
            "positions": [
                -2.3500956306005096,
                -0.5911832971092035,
                -0.5475217910065082,
                1.6919587050088025,
                -0.1575811246903338,
                -1.8162592599182545
            ]
        },
        {
            "positions": [
                -2.4499472801769397,
                -0.5523136451093069,
                -0.5083331012860155,
                1.8153341302148074,
                -0.11435469102465867,
                -1.7723377342076307
            ]
        },
        {
            "positions": [
                -2.54979892975337,
                -0.5134439931094104,
                -0.4691444115655228,
                1.9387095554208114,
                -0.07112825735898354,
                -1.7284162084970072
            ]
        },
        {
            "positions": [
                -2.6496505793298004,
                -0.4745743411095138,
                -0.42995572184503006,
                2.0620849806268162,
                -0.027901823693308625,
                -1.6844946827863834
            ]
        },
        {
            "positions": [
                -2.7495022289062305,
                -0.43570468910961724,
                -0.39076703212453756,
                2.185460405832821,
                0.01532460997236651,
                -1.6405731570757598
            ]
        },
        {
            "positions": [
                -2.8493538784826606,
                -0.3968350371097207,
                -0.35157834240404484,
                2.308835831038825,
                0.058551043638041644,
                -1.596651631365136
            ]
        },
        {
            "positions": [
                -2.9492055280590916,
                -0.3579653851098241,
                -0.3123896526835519,
                2.432211256244831,
                0.101777477303717,
                -1.552730105654512
            ]
        },
        {
            "positions": [
                -3.0490571776355218,
                -0.31909573310992756,
                -0.2732009629630594,
                2.555586681450835,
                0.1450039109693919,
                -1.5088085799438884
            ]
        },
        {
            "positions": [
                -3.1489088272119523,
                -0.280226081110031,
                -0.23401227324256668,
                2.6789621066568396,
                0.18823034463506705,
                -1.4648870542332646
            ]
        },
        {
            "positions": [
                -3.120789712523586,
                -0.3170894185743476,
                -0.14047880718274114,
                2.532858667693378,
                0.2087056313126743,
                -1.5351294054405729
            ]
        },
        {
            "positions": [
                -3.0926705978352205,
                -0.35395275603866416,
                -0.046945341122915596,
                2.3867552287299167,
                0.22918091799028156,
                -1.6053717566478811
            ]
        },
        {
            "positions": [
                -3.0645514831468543,
                -0.39081609350298074,
                0.04658812493690995,
                2.240651789766455,
                0.24965620466788885,
                -1.6756141078551896
            ]
        },
        {
            "positions": [
                -3.036432368458488,
                -0.4276794309672973,
                0.1401215909967355,
                2.0945483508029934,
                0.2701314913454961,
                -1.7458564590624976
            ]
        },
        {
            "positions": [
                -3.008313253770122,
                -0.46454276843161396,
                0.23365505705656103,
                1.948444911839532,
                0.2906067780231034,
                -1.8160988102698061
            ]
        },
        {
            "positions": [
                -2.9801941390817563,
                -0.5014061058959305,
                0.3271885231163866,
                1.8023414728760705,
                0.31108206470071065,
                -1.8863411614771144
            ]
        },
        {
            "positions": [
                -2.95207502439339,
                -0.5382694433602471,
                0.4207219891762122,
                1.6562380339126088,
                0.33155735137831793,
                -1.9565835126844227
            ]
        },
        {
            "positions": [
                -2.923955909705024,
                -0.5751327808245636,
                0.5142554552360377,
                1.5101345949491476,
                0.35203263805592516,
                -2.026825863891731
            ]
        },
        {
            "positions": [
                -2.8958367950166584,
                -0.6119961182888803,
                0.6077889212958631,
                1.364031155985686,
                0.37250792473353245,
                -2.097068215099039
            ]
        },
        {
            "positions": [
                -2.867717680328292,
                -0.6488594557531969,
                0.7013223873556887,
                1.2179277170222242,
                0.39298321141113973,
                -2.1673105663063477
            ]
        },
        {
            "positions": [
                -2.839598565639926,
                -0.6857227932175135,
                0.7948558534155143,
                1.071824278058763,
                0.41345849808874696,
                -2.2375529175136557
            ]
        },
        {
            "positions": [
                -2.81147945095156,
                -0.7225861306818301,
                0.8883893194753398,
                0.9257208390953013,
                0.43393378476635425,
                -2.307795268720964
            ]
        },
        {
            "positions": [
                -2.7833603362631942,
                -0.7594494681461467,
                0.9819227855351653,
                0.7796174001318399,
                0.4544090714439615,
                -2.3780376199282722
            ]
        },
        {
            "positions": [
                -2.755241221574828,
                -0.7963128056104632,
                1.075456251594991,
                0.633513961168378,
                0.4748843581215688,
                -2.4482799711355807
            ]
        },
        {
            "positions": [
                -2.727122106886462,
                -0.8331761430747798,
                1.1689897176548165,
                0.48741052220491676,
                0.49535964479917605,
                -2.518522322342889
            ]
        },
        {
            "positions": [
                -2.6990029921980963,
                -0.8700394805390964,
                1.262523183714642,
                0.34130708324145553,
                0.5158349314767833,
                -2.5887646735501972
            ]
        },
        {
            "positions": [
                -2.67088387750973,
                -0.9069028180034131,
                1.3560566497744677,
                0.19520364427799342,
                0.5363102181543906,
                -2.6590070247575057
            ]
        },
        {
            "positions": [
                -2.642764762821364,
                -0.9437661554677297,
                1.449590115834293,
                0.049100205314532186,
                0.5567855048319978,
                -2.729249375964814
            ]
        },
        {
            "positions": [
                -2.6146456481329983,
                -0.9806294929320462,
                1.5431235818941185,
                -0.09700323364892904,
                0.5772607915096051,
                -2.7994917271721222
            ]
        },
        {
            "positions": [
                -2.586526533444632,
                -1.0174928303963628,
                1.6366570479539442,
                -0.24310667261239116,
                0.5977360781872124,
                -2.8697340783794307
            ]
        },
        {
            "positions": [
                -2.558407418756266,
                -1.0543561678606794,
                1.7301905140137697,
                -0.3892101115758524,
                0.6182113648648196,
                -2.9399764295867388
            ]
        },
        {
            "positions": [
                -2.5302883040679003,
                -1.091219505324996,
                1.8237239800735954,
                -0.5353135505393136,
                0.6386866515424269,
                -3.0102187807940473
            ]
        },
        {
            "positions": [
                -2.502169189379534,
                -1.1280828427893126,
                1.917257446133421,
                -0.6814169895027757,
                0.6591619382200342,
                -3.0804611320013553
            ]
        },
        {
            "positions": [
                -2.474050074691168,
                -1.1649461802536292,
                2.0107909121932463,
                -0.8275204284662367,
                0.6796372248976414,
                -3.150703483208664
            ]
        }
    ]
}