{
    "goal": {
        "global_pose": {
            "orientation": {
                "w": 0.005598929693374612,
                "x": 0.007748599140229565,
                "y": 0.7110244013736278,
                "z": -0.7031023480610252
            },
            "position": {
                "x": 0.1141497679147869,
                "y": -0.7141253447532654,
                "z": 0.3711530566215515
            }
        },
        "name": "move_to_auspresseinheit_B"
    },
    "id": "RRTConnect_move_to_auspresseinheit_B_66",
    "joint_names": [
        "shoulder_pan_joint",
        "shoulder_lift_joint",
        "elbow_joint",
        "wrist_1_joint",
        "wrist_2_joint",
        "wrist_3_joint"
    ],
    "metrics": {
        "cart_traj_len": 0.5652178860567506,
        "distance_elbow_joint": 0.06509611040954022,
        "distance_shoulder_lift_joint": 0.2952234008168746,
        "distance_shoulder_pan_joint": 0.5794047994395242,
        "distance_wrist_1_joint": 0.33803950565541896,
        "distance_wrist_2_joint": 0.9842211726264334,
        "distance_wrist_3_joint": 0.008486969092721175,
        "smoothness": 3.806478935924272e-16,
        "time": 0.048040215,
        "traj_len": 1.5068085339685704,
        "weighted_distance": 1.8999227811960693
    },
    "planner": "RRTConnect",
    "start": {
        "state": {
            "elbow_joint": 2.0193083361928714,
            "shoulder_lift_joint": -1.1220246554650708,
            "shoulder_pan_joint": -1.0952077554168747,
            "wrist_1_joint": -0.8559753972642168,
            "wrist_2_joint": 0.4759566250798843,
            "wrist_3_joint": -3.1240929996934557
        }
    },
    "waypoints": [
        {
            "positions": [
                -1.0952077554168747,
                -1.1220246554650708,
                2.0193083361928714,
                -0.8559753972642168,
                0.4759566250798843,
                -3.1240929996934557
            ]
        },
        {
            "positions": [
                -1.1917752219901288,
                -1.1712285556012165,
                2.008458984457948,
                -0.7996354796549803,
                0.6399934871842898,
                -3.122678504844669
            ]
        },
        {
            "positions": [
                -1.2883426885633826,
                -1.2204324557373623,
                1.9976096327230246,
                -0.7432955620457438,
                0.8040303492886953,
                -3.121264009995882
            ]
        },
        {
            "positions": [
                -1.3849101551366367,
                -1.2696363558735082,
                1.9867602809881013,
                -0.6869556444365073,
                0.968067211393101,
                -3.119849515147095
            ]
        },
        {
            "positions": [
                -1.4814776217098906,
                -1.318840256009654,
                1.975910929253178,
                -0.6306157268272709,
                1.1321040734975065,
                -3.118435020298308
            ]
        },
        {
            "positions": [
                -1.5780450882831447,
                -1.3680441561457997,
                1.9650615775182545,
                -0.5742758092180342,
                1.2961409356019122,
                -3.1170205254495214
            ]
        },
        {
            "positions": [
                -1.6746125548563988,
                -1.4172480562819454,
                1.9542122257833312,
                -0.5179358916087978,
                1.4601777977063177,
                -3.1156060306007345
            ]
        }
    ]
}