{
    "goal": {
        "global_pose": {
            "orientation": {
                "w": 0.7047431468963623,
                "x": -0.7094548344612122,
                "y": 0.0024358443915843964,
                "z": -0.0022348060738295317
            },
            "position": {
                "x": 0.6094750761985779,
                "y": 0.3671506643295288,
                "z": 0.19426114857196808
            }
        },
        "name": "move_to_magneteinheit_A"
    },
    "id": "RRTConnect_move_to_magneteinheit_A_2",
    "joint_names": [
        "shoulder_pan_joint",
        "shoulder_lift_joint",
        "elbow_joint",
        "wrist_1_joint",
        "wrist_2_joint",
        "wrist_3_joint"
    ],
    "metrics": {
        "cart_traj_len": 3.3327865332102857,
        "distance_elbow_joint": 3.905853242123639,
        "distance_shoulder_lift_joint": 0.5641100174877501,
        "distance_shoulder_pan_joint": 2.887828874194263,
        "distance_wrist_1_joint": 3.460090395653821,
        "distance_wrist_2_joint": 1.4814755896749223,
        "distance_wrist_3_joint": 0.830450391981764,
        "smoothness": 0.12742375798006636,
        "time": 0.10313682499999999,
        "traj_len": 3.6235077633580635,
        "weighted_distance": 4.442102574278135
    },
    "planner": "RRTConnect",
    "start": {
        "state": {
            "elbow_joint": -1.9196185241190666,
            "shoulder_lift_joint": -1.2443396400964142,
            "shoulder_pan_joint": 2.6996025414629847,
            "wrist_1_joint": -1.5485510000780065,
            "wrist_2_joint": -1.5709468930060704,
            "wrist_3_joint": 0.4420197071253992
        }
    },
    "waypoints": [
        {
            "positions": [
                2.6996025414629847,
                -1.2443396400964142,
                -1.9196185241190666,
                -1.5485510000780065,
                -1.5709468930060704,
                0.4420197071253992
            ]
        },
        {
            "positions": [
                2.5659961369292676,
                -1.2469724907083262,
                -1.8082630997577143,
                -1.4936183392958688,
                -1.4895830842628435,
                0.4528949286540175
            ]
        },
        {
            "positions": [
                2.4323897323955506,
                -1.2496053413202381,
                -1.696907675396362,
                -1.4386856785137312,
                -1.4082192755196166,
                0.4637701501826358
            ]
        },
        {
            "positions": [
                2.2987833278618335,
                -1.2522381919321501,
                -1.5855522510350097,
                -1.3837530177315935,
                -1.3268554667763897,
                0.47464537171125404
            ]
        },
        {
            "positions": [
                2.1651769233281164,
                -1.2548710425440621,
                -1.4741968266736574,
                -1.3288203569494559,
                -1.245491658033163,
                0.48552059323987234
            ]
        },
        {
            "positions": [
                2.0315705187943993,
                -1.257503893155974,
                -1.362841402312305,
                -1.2738876961673182,
                -1.1641278492899358,
                0.49639581476849065
            ]
        },
        {
            "positions": [
                1.8979641142606822,
                -1.260136743767886,
                -1.2514859779509528,
                -1.2189550353851804,
                -1.0827640405467092,
                0.5072710362971089
            ]
        },
        {
            "positions": [
                1.764357709726965,
                -1.262769594379798,
                -1.1401305535896005,
                -1.1640223746030427,
                -1.001400231803482,
                0.5181462578257272
            ]
        },
        {
            "positions": [
                1.6307513051932478,
                -1.26540244499171,
                -1.028775129228248,
                -1.109089713820905,
                -0.9200364230602553,
                0.5290214793543455
            ]
        },
        {
            "positions": [
                1.4971449006595308,
                -1.268035295603622,
                -0.9174197048668957,
                -1.0541570530387674,
                -0.8386726143170284,
                0.5398967008829638
            ]
        },
        {
            "positions": [
                1.3635384961258137,
                -1.270668146215534,
                -0.8060642805055434,
                -0.9992243922566297,
                -0.7573088055738015,
                0.5507719224115821
            ]
        },
        {
            "positions": [
                1.2299320915920964,
                -1.273300996827446,
                -0.694708856144191,
                -0.944291731474492,
                -0.6759449968305746,
                0.5616471439402004
            ]
        },
        {
            "positions": [
                1.0963256870583795,
                -1.275933847439358,
                -0.5833534317828388,
                -0.8893590706923544,
                -0.5945811880873478,
                0.5725223654688187
            ]
        },
        {
            "positions": [
                0.9627192825246624,
                -1.27856669805127,
                -0.47199800742148645,
                -0.8344264099102167,
                -0.513217379344121,
                0.583397586997437
            ]
        },
        {
            "positions": [
                0.8291128779909451,
                -1.281199548663182,
                -0.3606425830601341,
                -0.779493749128079,
                -0.4318535706008939,
                0.5942728085260554
            ]
        },
        {
            "positions": [
                0.695506473457228,
                -1.283832399275094,
                -0.2492871586987817,
                -0.7245610883459412,
                -0.350489761857667,
                0.6051480300546737
            ]
        },
        {
            "positions": [
                0.561900068923511,
                -1.286465249887006,
                -0.13793173433742956,
                -0.6696284275638037,
                -0.2691259531144403,
                0.6160232515832919
            ]
        },
        {
            "positions": [
                0.4282936643897939,
                -1.289098100498918,
                -0.026576309976077184,
                -0.6146957667816659,
                -0.1877621443712134,
                0.6268984731119102
            ]
        },
        {
            "positions": [
                0.2946872598560768,
                -1.29173095111083,
                0.08477911438527541,
                -0.5597631059995283,
                -0.10639833562798645,
                0.6377736946405285
            ]
        },
        {
            "positions": [
                0.27287555749007814,
                -1.257748744198507,
                0.202805347632161,
                -0.40045099559833774,
                -0.10635766628667664,
                0.5962361964345972
            ]
        },
        {
            "positions": [
                0.25106385512407947,
                -1.2237665372861837,
                0.32083158087904656,
                -0.2411388851971472,
                -0.10631699694536682,
                0.5546986982286661
            ]
        },
        {
            "positions": [
                0.22925215275808075,
                -1.1897843303738607,
                0.43885781412593217,
                -0.08182677479595662,
                -0.10627632760405702,
                0.5131612000227349
            ]
        },
        {
            "positions": [
                0.2074404503920821,
                -1.1558021234615374,
                0.5568840473728177,
                0.07748533560523385,
                -0.1062356582627472,
                0.4716237018168037
            ]
        },
        {
            "positions": [
                0.18562874802608342,
                -1.1218199165492144,
                0.6749102806197033,
                0.23679744600642438,
                -0.10619498892143739,
                0.4300862036108726
            ]
        },
        {
            "positions": [
                0.16381704566008473,
                -1.0878377096368912,
                0.7929365138665889,
                0.396109556407615,
                -0.10615431958012758,
                0.38854870540494135
            ]
        },
        {
            "positions": [
                0.14200534329408607,
                -1.0538555027245682,
                0.9109627471134745,
                0.5554216668088057,
                -0.10611365023881776,
                0.3470112071990102
            ]
        },
        {
            "positions": [
                0.1201936409280874,
                -1.019873295812245,
                1.02898898036036,
                0.714733777209996,
                -0.10607298089750795,
                0.30547370899307896
            ]
        },
        {
            "positions": [
                0.09838193856208874,
                -0.9858910888999219,
                1.1470152136072456,
                0.8740458876111865,
                -0.10603231155619813,
                0.2639362107871478
            ]
        },
        {
            "positions": [
                0.07657023619609005,
                -0.9519088819875989,
                1.2650414468541311,
                1.033357998012377,
                -0.10599164221488833,
                0.22239871258121663
            ]
        },
        {
            "positions": [
                0.05475853383009138,
                -0.9179266750752757,
                1.3830676801010167,
                1.1926701084135676,
                -0.10595097287357852,
                0.18086121437528546
            ]
        },
        {
            "positions": [
                0.03294683146409266,
                -0.8839444681629527,
                1.5010939133479024,
                1.3519822188147583,
                -0.1059103035322687,
                0.13932371616935424
            ]
        },
        {
            "positions": [
                0.011135129098093999,
                -0.8499622612506295,
                1.619120146594788,
                1.5112943292159489,
                -0.10586963419095889,
                0.09778621796342302
            ]
        },
        {
            "positions": [
                -0.010676573267904665,
                -0.8159800543383064,
                1.7371463798416735,
                1.6706064396171396,
                -0.10582896484964907,
                0.056248719757491905
            ]
        },
        {
            "positions": [
                -0.032488275633903343,
                -0.7819978474259833,
                1.855172613088559,
                1.8299185500183301,
                -0.10578829550833926,
                0.014711221551560641
            ]
        },
        {
            "positions": [
                0.04538075291478362,
                -0.7785050460317394,
                1.920703665546566,
                1.8707289727970724,
                -0.11394679159693544,
                0.0205281872403941
            ]
        },
        {
            "positions": [
                0.1232497814634706,
                -0.7750122446374955,
                1.9862347180045725,
                1.9115393955758149,
                -0.1221052876855316,
                0.02634515292922756
            ]
        }
    ]
}