{
    "goal": {
        "global_pose": {
            "orientation": {
                "w": -0.4816463035849501,
                "x": 0.5182115481033762,
                "y": 0.4908360881923453,
                "z": -0.5084816262002911
            },
            "position": {
                "x": -0.8240239810943604,
                "y": -0.300875300988555,
                "z": 0.16403168439865112
            }
        },
        "name": "move_to_storage_C"
    },
    "id": "RRTConnect_move_to_storage_C_42",
    "joint_names": [
        "shoulder_pan_joint",
        "shoulder_lift_joint",
        "elbow_joint",
        "wrist_1_joint",
        "wrist_2_joint",
        "wrist_3_joint"
    ],
    "metrics": {
        "cart_traj_len": 0.5769000763243745,
        "distance_elbow_joint": 0.2618244467341415,
        "distance_shoulder_lift_joint": 0.18888200983289527,
        "distance_shoulder_pan_joint": 0.49358847087197866,
        "distance_wrist_1_joint": 0.09087139592363414,
        "distance_wrist_2_joint": 1.07738448722128,
        "distance_wrist_3_joint": 0.05996049722909591,
        "smoothness": 0.0,
        "time": 0.166780919,
        "traj_len": 1.4739441332062166,
        "weighted_distance": 1.8602924999623398
    },
    "planner": "RRTConnect",
    "start": {
        "state": {
            "elbow_joint": 2.010868314990456,
            "shoulder_lift_joint": -1.1634956873337592,
            "shoulder_pan_joint": -2.4736205022346125,
            "wrist_1_joint": -0.8367026794202681,
            "wrist_2_joint": 0.6746043897044499,
            "wrist_3_joint": -3.1496632123970403
        }
    },
    "waypoints": [
        {
            "positions": [
                -2.4736205022346125,
                -1.1634956873337592,
                2.010868314990456,
                -0.8367026794202681,
                0.6746043897044499,
                -3.1496632123970403
            ]
        },
        {
            "positions": [
                -2.5558852473799423,
                -1.1320153523616099,
                1.9672309072014322,
                -0.8215574467663291,
                0.8541684709079966,
                -3.139669796192191
            ]
        },
        {
            "positions": [
                -2.638149992525272,
                -1.1005350173894608,
                1.9235934994124086,
                -0.8064122141123901,
                1.0337325521115432,
                -3.1296763799873415
            ]
        },
        {
            "positions": [
                -2.720414737670602,
                -1.0690546824173115,
                1.879956091623385,
                -0.791266981458451,
                1.2132966333150899,
                -3.119682963782492
            ]
        },
        {
            "positions": [
                -2.8026794828159316,
                -1.0375743474451624,
                1.8363186838343615,
                -0.776121748804512,
                1.3928607145186365,
                -3.109689547577643
            ]
        },
        {
            "positions": [
                -2.8849442279612614,
                -1.006094012473013,
                1.792681276045338,
                -0.760976516150573,
                1.5724247957221835,
                -3.0996961313727938
            ]
        },
        {
            "positions": [
                -2.967208973106591,
                -0.9746136775008639,
                1.7490438682563143,
                -0.745831283496634,
                1.75198887692573,
                -3.0897027151679444
            ]
        }
    ]
}