{
    "goal": {
        "global_pose": {
            "orientation": {
                "w": -0.00223480608172531,
                "x": 0.0024358444001904467,
                "y": 0.7094548369677653,
                "z": -0.704743149386269
            },
            "position": {
                "x": 0.6205249238014221,
                "y": -0.6371506643295288,
                "z": 0.19426114857196808
            }
        },
        "name": "move_to_magneteinheit_B"
    },
    "id": "RRTConnect_move_to_magneteinheit_B_40",
    "joint_names": [
        "shoulder_pan_joint",
        "shoulder_lift_joint",
        "elbow_joint",
        "wrist_1_joint",
        "wrist_2_joint",
        "wrist_3_joint"
    ],
    "metrics": {
        "cart_traj_len": 1.6770765612456693,
        "distance_elbow_joint": 0.9572048832171896,
        "distance_shoulder_lift_joint": 1.5735557152700168,
        "distance_shoulder_pan_joint": 1.6213671994033556,
        "distance_wrist_1_joint": 5.562425440222148,
        "distance_wrist_2_joint": 2.902377664173253,
        "distance_wrist_3_joint": 0.5789276762888474,
        "smoothness": 0.6252236146501512,
        "time": 0.195902794,
        "traj_len": 3.6326104358401565,
        "weighted_distance": 4.776873144175791
    },
    "planner": "RRTConnect",
    "start": {
        "state": {
            "elbow_joint": 2.6216224122426386,
            "shoulder_lift_joint": -1.4174107377796124,
            "shoulder_pan_joint": 0.7066234856936794,
            "wrist_1_joint": 1.9546482284002225,
            "wrist_2_joint": -0.7096286983471962,
            "wrist_3_joint": 0.005740856962016249
        }
    },
    "waypoints": [
        {
            "positions": [
                0.7066234856936794,
                -1.4174107377796124,
                2.6216224122426386,
                1.9546482284002225,
                -0.7096286983471962,
                0.005740856962016249
            ]
        },
        {
            "positions": [
                0.6601806404121746,
                -1.446595581615151,
                2.570070415443561,
                1.7625645612590226,
                -0.6603281343220831,
                -0.014957238145337606
            ]
        },
        {
            "positions": [
                0.61373779513067,
                -1.4757804254506894,
                2.518518418644484,
                1.570480894117823,
                -0.6110275702969701,
                -0.03565533325269146
            ]
        },
        {
            "positions": [
                0.5672949498491652,
                -1.504965269286228,
                2.4669664218454064,
                1.3783972269766231,
                -0.5617270062718569,
                -0.05635342836004532
            ]
        },
        {
            "positions": [
                0.5208521045676605,
                -1.5341501131217667,
                2.415414425046329,
                1.1863135598354235,
                -0.5124264422467438,
                -0.07705152346739917
            ]
        },
        {
            "positions": [
                0.47440925928615574,
                -1.5633349569573052,
                2.3638624282472516,
                0.9942298926942236,
                -0.4631258782216307,
                -0.09774961857475303
            ]
        },
        {
            "positions": [
                0.427966414004651,
                -1.5925198007928438,
                2.312310431448174,
                0.8021462255530238,
                -0.41382531419651764,
                -0.11844771368210688
            ]
        },
        {
            "positions": [
                0.3815235687231463,
                -1.6217046446283825,
                2.2607584346490968,
                0.610062558411824,
                -0.3645247501714045,
                -0.13914580878946073
            ]
        },
        {
            "positions": [
                0.3350807234416416,
                -1.650889488463921,
                2.2092064378500194,
                0.4179788912706244,
                -0.31522418614629144,
                -0.15984390389681458
            ]
        },
        {
            "positions": [
                0.2886378781601368,
                -1.6800743322994596,
                2.157654441050942,
                0.2258952241294243,
                -0.26592362212117826,
                -0.18054199900416845
            ]
        },
        {
            "positions": [
                0.2421950328786321,
                -1.709259176134998,
                2.1061024442518645,
                0.03381155698822469,
                -0.2166230580960652,
                -0.2012400941115223
            ]
        },
        {
            "positions": [
                0.19575218759712743,
                -1.7384440199705367,
                2.054550447452787,
                -0.15827211015297493,
                -0.16732249407095212,
                -0.22193818921887615
            ]
        },
        {
            "positions": [
                0.14930934231562265,
                -1.7676288638060753,
                2.0029984506537097,
                -0.3503557772941748,
                -0.11802193004583905,
                -0.24263628432623
            ]
        },
        {
            "positions": [
                0.10286649703411788,
                -1.796813707641614,
                1.9514464538546323,
                -0.5424394444353746,
                -0.06872136602072587,
                -0.2633343794335839
            ]
        },
        {
            "positions": [
                0.05642365175261327,
                -1.8259985514771524,
                1.899894457055555,
                -0.7345231115765747,
                -0.01942080199561283,
                -0.2840324745409377
            ]
        },
        {
            "positions": [
                0.007865283479498782,
                -1.7677501563985285,
                1.8881206106540496,
                -0.5908604065643072,
                -0.1300292903866963,
                -0.26957475730164304
            ]
        },
        {
            "positions": [
                -0.040693084793615705,
                -1.7095017613199046,
                1.8763467642525444,
                -0.4471977015520397,
                -0.24063777877777975,
                -0.25511704006234837
            ]
        },
        {
            "positions": [
                -0.08925145306673019,
                -1.651253366241281,
                1.864572917851039,
                -0.3035349965397722,
                -0.3512462671688632,
                -0.2406593228230537
            ]
        },
        {
            "positions": [
                -0.13780982133984468,
                -1.593004971162657,
                1.8527990714495337,
                -0.1598722915275047,
                -0.4618547555599467,
                -0.226201605583759
            ]
        },
        {
            "positions": [
                -0.18636818961295915,
                -1.5347565760840332,
                1.8410252250480283,
                -0.016209586515237184,
                -0.5724632439510301,
                -0.21174388834446434
            ]
        },
        {
            "positions": [
                -0.23492655788607364,
                -1.4765081810054093,
                1.8292513786465232,
                0.12745311849703034,
                -0.6830717323421135,
                -0.19728617110516966
            ]
        },
        {
            "positions": [
                -0.2834849261591881,
                -1.4182597859267854,
                1.8174775322450178,
                0.27111582350929786,
                -0.793680220733197,
                -0.182828453865875
            ]
        },
        {
            "positions": [
                -0.3320432944323026,
                -1.3600113908481615,
                1.8057036858435125,
                0.41477852852156527,
                -0.9042887091242805,
                -0.1683707366265803
            ]
        },
        {
            "positions": [
                -0.38060166270541707,
                -1.3017629957695376,
                1.7939298394420073,
                0.5584412335338329,
                -1.014897197515364,
                -0.15391301938728566
            ]
        },
        {
            "positions": [
                -0.42916003097853156,
                -1.243514600690914,
                1.782155993040502,
                0.7021039385461003,
                -1.1255056859064474,
                -0.13945530214799098
            ]
        },
        {
            "positions": [
                -0.4777183992516461,
                -1.18526620561229,
                1.7703821466389966,
                0.845766643558368,
                -1.236114174297531,
                -0.12499758490869631
            ]
        },
        {
            "positions": [
                -0.5262767675247606,
                -1.1270178105336663,
                1.7586083002374915,
                0.9894293485706354,
                -1.3467226626886142,
                -0.11053986766940163
            ]
        },
        {
            "positions": [
                -0.5748351357978749,
                -1.0687694154550424,
                1.7468344538359861,
                1.1330920535829028,
                -1.4573311510796978,
                -0.09608215043010696
            ]
        },
        {
            "positions": [
                -0.6233935040709895,
                -1.0105210203764186,
                1.7350606074344808,
                1.2767547585951704,
                -1.5679396394707812,
                -0.0816244331908123
            ]
        },
        {
            "positions": [
                -0.671951872344104,
                -0.9522726252977947,
                1.7232867610329756,
                1.4204174636074376,
                -1.6785481278618648,
                -0.06716671595151763
            ]
        },
        {
            "positions": [
                -0.7205102406172186,
                -0.8940242302191708,
                1.7115129146314703,
                1.5640801686197052,
                -1.7891566162529482,
                -0.052708998712222926
            ]
        },
        {
            "positions": [
                -0.7690686088903329,
                -0.835775835140547,
                1.699739068229965,
                1.7077428736319729,
                -1.8997651046440316,
                -0.03825128147292828
            ]
        },
        {
            "positions": [
                -0.8176269771634475,
                -0.777527440061923,
                1.6879652218284595,
                1.8514055786442405,
                -2.010373593035115,
                -0.023793564233633602
            ]
        },
        {
            "positions": [
                -0.8661853454365618,
                -0.7192790449832993,
                1.6761913754269544,
                1.9950682836565077,
                -2.1209820814261984,
                -0.009335846994338926
            ]
        },
        {
            "positions": [
                -0.9147437137096763,
                -0.6610306499046755,
                1.664417529025449,
                2.138730988668775,
                -2.231590569817282,
                0.005121870244955747
            ]
        }
    ]
}