{
    "goal": {
        "global_pose": {
            "orientation": {
                "w": -0.4816463035849501,
                "x": 0.5182115481033762,
                "y": 0.4908360881923453,
                "z": -0.5084816262002911
            },
            "position": {
                "x": -0.8240239810943604,
                "y": 0.19912469901144506,
                "z": 0.16403168439865112
            }
        },
        "name": "move_to_storage_D"
    },
    "id": "RRTConnect_move_to_storage_D_38",
    "joint_names": [
        "shoulder_pan_joint",
        "shoulder_lift_joint",
        "elbow_joint",
        "wrist_1_joint",
        "wrist_2_joint",
        "wrist_3_joint"
    ],
    "metrics": {
        "cart_traj_len": 1.4488950788232888,
        "distance_elbow_joint": 0.5706223957137795,
        "distance_shoulder_lift_joint": 1.549978619693912,
        "distance_shoulder_pan_joint": 1.6194799642251414,
        "distance_wrist_1_joint": 3.8367850304200286,
        "distance_wrist_2_joint": 1.7834289922303868,
        "distance_wrist_3_joint": 3.1273670934228788,
        "smoothness": 0.09700896842297095,
        "time": 0.07527662800000001,
        "traj_len": 3.533788632007598,
        "weighted_distance": 4.935849501879317
    },
    "planner": "RRTConnect",
    "start": {
        "state": {
            "elbow_joint": -2.384821988534728,
            "shoulder_lift_joint": -2.2788054721415256,
            "shoulder_pan_joint": -0.1854694642142757,
            "wrist_1_joint": 1.4845938289331202,
            "wrist_2_joint": 0.17898776772866878,
            "wrist_3_joint": 0.037105688729662994
        }
    },
    "waypoints": [
        {
            "positions": [
                -0.1854694642142757,
                -2.2788054721415256,
                -2.384821988534728,
                1.4845938289331202,
                0.17898776772866878,
                0.037105688729662994
            ]
        },
        {
            "positions": [
                -0.23442723878510047,
                -2.250220000419374,
                -2.385947333054682,
                1.392526637576956,
                0.09630177930641293,
                -0.044883375870946735
            ]
        },
        {
            "positions": [
                -0.2833850133559252,
                -2.2216345286972223,
                -2.3870726775746363,
                1.300459446220792,
                0.01361579088415707,
                -0.12687244047155646
            ]
        },
        {
            "positions": [
                -0.33234278792675,
                -2.1930490569750707,
                -2.38819802209459,
                1.2083922548646275,
                -0.06907019753809876,
                -0.2088615050721662
            ]
        },
        {
            "positions": [
                -0.3813005624975747,
                -2.164463585252919,
                -2.3893233666145446,
                1.1163250635084634,
                -0.15175618596035464,
                -0.2908505696727759
            ]
        },
        {
            "positions": [
                -0.43025833706839944,
                -2.1358781135307674,
                -2.3904487111344985,
                1.0242578721522992,
                -0.23444217438261045,
                -0.3728396342733857
            ]
        },
        {
            "positions": [
                -0.4679344339617316,
                -2.094836525747985,
                -2.387081509827861,
                0.9044375955922271,
                -0.32764730551701754,
                -0.46731027892937066
            ]
        },
        {
            "positions": [
                -0.5056105308550638,
                -2.0537949379652023,
                -2.3837143085212236,
                0.784617319032155,
                -0.4208524366514247,
                -0.5617809235853557
            ]
        },
        {
            "positions": [
                -0.5432866277483959,
                -2.01275335018242,
                -2.3803471072145865,
                0.664797042472083,
                -0.5140575677858318,
                -0.6562515682413406
            ]
        },
        {
            "positions": [
                -0.580962724641728,
                -1.9717117623996376,
                -2.376979905907949,
                0.5449767659120108,
                -0.6072626989202389,
                -0.7507222128973257
            ]
        },
        {
            "positions": [
                -0.6186388215350602,
                -1.930670174616855,
                -2.3736127046013116,
                0.4251564893519387,
                -0.7004678300546461,
                -0.8451928575533106
            ]
        },
        {
            "positions": [
                -0.6563149184283923,
                -1.8896285868340728,
                -2.370245503294674,
                0.30533621279186673,
                -0.7936729611890532,
                -0.9396635022092956
            ]
        },
        {
            "positions": [
                -0.6939910153217246,
                -1.8485869990512902,
                -2.366878301988037,
                0.18551593623179463,
                -0.8868780923234603,
                -1.0341341468652807
            ]
        },
        {
            "positions": [
                -0.7316671122150566,
                -1.8075454112685079,
                -2.3635111006813996,
                0.06569565967172253,
                -0.9800832234578674,
                -1.1286047915212656
            ]
        },
        {
            "positions": [
                -0.7693432091083888,
                -1.7665038234857253,
                -2.360143899374762,
                -0.05412461688834963,
                -1.0732883545922745,
                -1.2230754361772507
            ]
        },
        {
            "positions": [
                -0.7994367599370402,
                -1.7305376153671765,
                -2.3567464709023276,
                -0.15801908248880653,
                -1.1526807053923271,
                -1.3037799192160864
            ]
        },
        {
            "positions": [
                -0.8295303107656917,
                -1.6945714072486278,
                -2.353349042429893,
                -0.26191354808926337,
                -1.2320730561923798,
                -1.384484402254922
            ]
        },
        {
            "positions": [
                -0.8596238615943431,
                -1.6586051991300788,
                -2.349951613957459,
                -0.36580801368972027,
                -1.3114654069924323,
                -1.4651888852937578
            ]
        },
        {
            "positions": [
                -0.8897174124229946,
                -1.62263899101153,
                -2.3465541854850245,
                -0.46970247929017717,
                -1.390857757792485,
                -1.5458933683325935
            ]
        },
        {
            "positions": [
                -0.919810963251646,
                -1.5866727828929812,
                -2.34315675701259,
                -0.573596944890634,
                -1.4702501085925377,
                -1.6265978513714292
            ]
        },
        {
            "positions": [
                -0.8266470996060116,
                -1.5493359983510737,
                -2.311476685612462,
                -0.6979289130304027,
                -1.485660175719272,
                -1.6758660929966318
            ]
        },
        {
            "positions": [
                -0.733483235960377,
                -1.5119992138091662,
                -2.279796614212334,
                -0.8222608811701716,
                -1.5010702428460063,
                -1.7251343346218344
            ]
        },
        {
            "positions": [
                -0.6403193723147425,
                -1.4746624292672588,
                -2.2481165428122063,
                -0.9465928493099405,
                -1.5164803099727406,
                -1.7744025762470368
            ]
        },
        {
            "positions": [
                -0.547155508669108,
                -1.4373256447253513,
                -2.216436471412078,
                -1.0709248174497092,
                -1.531890377099475,
                -1.8236708178722394
            ]
        },
        {
            "positions": [
                -0.4883638830621273,
                -1.4327705859114515,
                -2.1933968664362204,
                -1.150935111323502,
                -1.5361658154311348,
                -1.8663355611993824
            ]
        },
        {
            "positions": [
                -0.42957225745514654,
                -1.4282155270975516,
                -2.1703572614603623,
                -1.2309454051972946,
                -1.5404412537627947,
                -1.9090003045265251
            ]
        },
        {
            "positions": [
                -0.39008228151601937,
                -1.4981543945625455,
                -2.135866839116375,
                -1.343069984826256,
                -1.546841250836687,
                -2.0271264145431944
            ]
        },
        {
            "positions": [
                -0.35059230557689214,
                -1.5680932620275392,
                -2.101376416772388,
                -1.4551945644552176,
                -1.5532412479105793,
                -2.1452525245598633
            ]
        },
        {
            "positions": [
                -0.31110232963776496,
                -1.638032129492533,
                -2.0668859944284006,
                -1.567319144084179,
                -1.5596412449844717,
                -2.263378634576532
            ]
        },
        {
            "positions": [
                -0.2716123536986378,
                -1.7079709969575267,
                -2.0323955720844133,
                -1.6794437237131405,
                -1.566041242058364,
                -2.3815047445932014
            ]
        },
        {
            "positions": [
                -0.2321223777595106,
                -1.7779098644225206,
                -1.997905149740426,
                -1.791568303342102,
                -1.5724412391322562,
                -2.4996308546098707
            ]
        },
        {
            "positions": [
                -0.19263240182038344,
                -1.8478487318875145,
                -1.9634147273964386,
                -1.9036928829710633,
                -1.5788412362061486,
                -2.6177569646265395
            ]
        },
        {
            "positions": [
                -0.15314242588125626,
                -1.9177875993525082,
                -1.9289243050524514,
                -2.0158174626000247,
                -1.585241233280041,
                -2.7358830746432083
            ]
        },
        {
            "positions": [
                -0.11365244994212903,
                -1.987726466817502,
                -1.8944338827084641,
                -2.1279420422289865,
                -1.5916412303539333,
                -2.8540091846598776
            ]
        },
        {
            "positions": [
                -0.07416247400300185,
                -2.057665334282496,
                -1.8599434603644769,
                -2.240066621857948,
                -1.5980412274278255,
                -2.972135294676547
            ]
        },
        {
            "positions": [
                -0.03467249806387469,
                -2.1276042017474897,
                -1.8254530380204896,
                -2.3521912014869093,
                -1.6044412245017179,
                -3.0902614046932158
            ]
        }
    ]
}