{
    "goal": {
        "global_pose": {
            "orientation": {
                "w": 0.005598929693374612,
                "x": 0.007748599140229565,
                "y": 0.7110244013736278,
                "z": -0.7031023480610252
            },
            "position": {
                "x": 0.1141497679147869,
                "y": -0.7141253447532654,
                "z": 0.3711530566215515
            }
        },
        "name": "move_to_auspresseinheit_B"
    },
    "id": "RRTConnect_move_to_auspresseinheit_B_145",
    "joint_names": [
        "shoulder_pan_joint",
        "shoulder_lift_joint",
        "elbow_joint",
        "wrist_1_joint",
        "wrist_2_joint",
        "wrist_3_joint"
    ],
    "metrics": {
        "cart_traj_len": 0.563919945190196,
        "distance_elbow_joint": 0.0588062008460295,
        "distance_shoulder_lift_joint": 0.2949589742393004,
        "distance_shoulder_pan_joint": 0.5778184640879278,
        "distance_wrist_1_joint": 0.3163717088332165,
        "distance_wrist_2_joint": 0.988074641719247,
        "distance_wrist_3_joint": 0.002363616376514166,
        "smoothness": 7.612957903237841e-16,
        "time": 0.058561061,
        "traj_len": 1.4961261999250717,
        "weighted_distance": 1.8834986565983336
    },
    "planner": "RRTConnect",
    "start": {
        "state": {
            "elbow_joint": 2.0193083361928714,
            "shoulder_lift_joint": -1.1220246554650708,
            "shoulder_pan_joint": -1.0952077554168747,
            "wrist_1_joint": -0.8559753972642168,
            "wrist_2_joint": 0.4759566250798843,
            "wrist_3_joint": -3.1240929996934557
        }
    },
    "waypoints": [
        {
            "positions": [
                -1.0952077554168747,
                -1.1220246554650708,
                2.0193083361928714,
                -0.8559753972642168,
                0.4759566250798843,
                -3.1240929996934557
            ]
        },
        {
            "positions": [
                -1.1915108327648627,
                -1.1711844845049542,
                2.009507302718533,
                -0.8032467791253474,
                0.6406357320330921,
                -3.123699063630703
            ]
        },
        {
            "positions": [
                -1.2878139101128505,
                -1.2203443135448375,
                1.999706269244195,
                -0.750518160986478,
                0.8053148389862999,
                -3.123305127567951
            ]
        },
        {
            "positions": [
                -1.3841169874608386,
                -1.2695041425847209,
                1.9899052357698568,
                -0.6977895428476085,
                0.9699939459395077,
                -3.1229111915051986
            ]
        },
        {
            "positions": [
                -1.4804200648088264,
                -1.3186639716246045,
                1.9801042022955184,
                -0.6450609247087391,
                1.1346730528927156,
                -3.122517255442446
            ]
        },
        {
            "positions": [
                -1.5767231421568146,
                -1.3678238006644878,
                1.97030316882118,
                -0.5923323065698697,
                1.2993521598459234,
                -3.122123319379694
            ]
        },
        {
            "positions": [
                -1.6730262195048025,
                -1.4169836297043712,
                1.960502135346842,
                -0.5396036884310003,
                1.4640312667991313,
                -3.1217293833169415
            ]
        }
    ]
}