{
    "goal": {
        "global_pose": {
            "orientation": {
                "w": 0.5084816262002911,
                "x": -0.4908360881923452,
                "y": 0.5182115481033761,
                "z": -0.48164630358495003
            },
            "position": {
                "x": 0.5540239810943604,
                "y": -0.46912469901144505,
                "z": 0.16403168439865112
            }
        },
        "name": "move_to_storage_B"
    },
    "id": "RRTConnect_move_to_storage_B_82",
    "joint_names": [
        "shoulder_pan_joint",
        "shoulder_lift_joint",
        "elbow_joint",
        "wrist_1_joint",
        "wrist_2_joint",
        "wrist_3_joint"
    ],
    "metrics": {
        "cart_traj_len": 1.3726417642280584,
        "distance_elbow_joint": 1.5326643384656315,
        "distance_shoulder_lift_joint": 0.45852750337277026,
        "distance_shoulder_pan_joint": 1.2064521065895502,
        "distance_wrist_1_joint": 2.9859929919633483,
        "distance_wrist_2_joint": 2.7021538563209733,
        "distance_wrist_3_joint": 3.1346103037526025,
        "smoothness": 0.17481230215657598,
        "time": 0.098639053,
        "traj_len": 3.4670450098700587,
        "weighted_distance": 4.896709972650453
    },
    "planner": "RRTConnect",
    "start": {
        "state": {
            "elbow_joint": 1.664937868594044,
            "shoulder_lift_joint": -0.661644460510453,
            "shoulder_pan_joint": -0.9139846352900073,
            "wrist_1_joint": 2.146753192139373,
            "wrist_2_joint": -2.2341966793290973,
            "wrist_3_joint": 0.005466555786416001
        }
    },
    "waypoints": [
        {
            "positions": [
                -0.9139846352900073,
                -0.661644460510453,
                1.664937868594044,
                2.146753192139373,
                -2.2341966793290973,
                0.005466555786416001
            ]
        },
        {
            "positions": [
                -0.8872352992133002,
                -0.6703801117003518,
                1.633796893086325,
                2.1310930697449217,
                -2.224617001577928,
                -0.004629018731138963
            ]
        },
        {
            "positions": [
                -0.806387681849227,
                -0.6995839859349058,
                1.5404386361936284,
                2.066980074051357,
                -2.1807540032894606,
                -0.05236040412007534
            ]
        },
        {
            "positions": [
                -0.7255400644851537,
                -0.7287878601694598,
                1.447080379300932,
                2.002867078357793,
                -2.136891005000993,
                -0.10009178950901172
            ]
        },
        {
            "positions": [
                -0.6446924471210805,
                -0.7579917344040138,
                1.3537221224082354,
                1.9387540826642284,
                -2.0930280067125255,
                -0.1478231748979481
            ]
        },
        {
            "positions": [
                -0.5638448297570073,
                -0.7871956086385677,
                1.2603638655155391,
                1.874641086970664,
                -2.0491650084240582,
                -0.19555456028688448
            ]
        },
        {
            "positions": [
                -0.48299721239293403,
                -0.8163994828731218,
                1.1670056086228426,
                1.8105280912770996,
                -2.0053020101355905,
                -0.24328594567582087
            ]
        },
        {
            "positions": [
                -0.40214959502886083,
                -0.8456033571076758,
                1.0736473517301461,
                1.7464150955835351,
                -1.9614390118471232,
                -0.29101733106475725
            ]
        },
        {
            "positions": [
                -0.429934277681997,
                -0.8565861013786976,
                1.1113023045942154,
                1.6429888997672346,
                -1.8642631642935632,
                -0.4045423877408144
            ]
        },
        {
            "positions": [
                -0.4577189603351331,
                -0.8675688456497196,
                1.148957257458285,
                1.5395627039509343,
                -1.7670873167400032,
                -0.5180674444168716
            ]
        },
        {
            "positions": [
                -0.4855036429882692,
                -0.8785515899207414,
                1.1866122103223542,
                1.4361365081346338,
                -1.6699114691864434,
                -0.6315925010929286
            ]
        },
        {
            "positions": [
                -0.5132883256414054,
                -0.8895343341917633,
                1.2242671631864235,
                1.3327103123183335,
                -1.5727356216328832,
                -0.7451175577689859
            ]
        },
        {
            "positions": [
                -0.5410730082945415,
                -0.9005170784627853,
                1.261922116050493,
                1.229284116502033,
                -1.4755597740793234,
                -0.8586426144450431
            ]
        },
        {
            "positions": [
                -0.5688576909476777,
                -0.9114998227338071,
                1.2995770689145623,
                1.1258579206857324,
                -1.3783839265257634,
                -0.9721676711211001
            ]
        },
        {
            "positions": [
                -0.5966423736008137,
                -0.9224825670048291,
                1.3372320217786315,
                1.0224317248694321,
                -1.2812080789722033,
                -1.0856927277971575
            ]
        },
        {
            "positions": [
                -0.6244270562539499,
                -0.933465311275851,
                1.3748869746427008,
                0.9190055290531317,
                -1.1840322314186433,
                -1.1992177844732144
            ]
        },
        {
            "positions": [
                -0.6522117389070861,
                -0.9444480555468728,
                1.4125419275067703,
                0.8155793332368313,
                -1.0868563838650833,
                -1.3127428411492716
            ]
        },
        {
            "positions": [
                -0.6799964215602221,
                -0.9554307998178948,
                1.4501968803708396,
                0.7121531374205308,
                -0.9896805363115233,
                -1.426267897825329
            ]
        },
        {
            "positions": [
                -0.7077811042133584,
                -0.9664135440889167,
                1.487851833234909,
                0.6087269416042305,
                -0.8925046887579633,
                -1.539792954501386
            ]
        },
        {
            "positions": [
                -0.7355657868664944,
                -0.9773962883599385,
                1.5255067860989784,
                0.5053007457879299,
                -0.7953288412044035,
                -1.653318011177443
            ]
        },
        {
            "positions": [
                -0.7633504695196306,
                -0.9883790326309605,
                1.5631617389630477,
                0.40187454997162964,
                -0.6981529936508433,
                -1.7668430678535003
            ]
        },
        {
            "positions": [
                -0.7911351521727668,
                -0.9993617769019824,
                1.600816691827117,
                0.2984483541553291,
                -0.6009771460972833,
                -1.8803681245295576
            ]
        },
        {
            "positions": [
                -0.8189198348259028,
                -1.0103445211730042,
                1.6384716446911862,
                0.1950221583390288,
                -0.5038012985437235,
                -1.9938931812056144
            ]
        },
        {
            "positions": [
                -0.846704517479039,
                -1.0213272654440262,
                1.6761265975552557,
                0.09159596252272828,
                -0.40662545099016345,
                -2.1074182378816717
            ]
        },
        {
            "positions": [
                -0.8744892001321751,
                -1.0323100097150482,
                1.7137815504193252,
                -0.011830233293572245,
                -0.30944960343660344,
                -2.220943294557729
            ]
        },
        {
            "positions": [
                -0.9022738827853113,
                -1.04329275398607,
                1.7514365032833945,
                -0.11525642910987255,
                -0.21227375588304342,
                -2.3344683512337863
            ]
        },
        {
            "positions": [
                -0.9300585654384473,
                -1.0542754982570919,
                1.7890914561474638,
                -0.21868262492617307,
                -0.11509790832948341,
                -2.447993407909843
            ]
        },
        {
            "positions": [
                -0.9578432480915835,
                -1.0652582425281139,
                1.826746409011533,
                -0.3221088207424736,
                -0.0179220607759234,
                -2.561518464585901
            ]
        },
        {
            "positions": [
                -0.9856279307447197,
                -1.0762409867991356,
                1.8644013618756023,
                -0.4255350165587739,
                0.07925378677763639,
                -2.6750435212619577
            ]
        },
        {
            "positions": [
                -1.0134126133978558,
                -1.0872237310701576,
                1.9020563147396718,
                -0.5289612123750742,
                0.17642963433119663,
                -2.7885685779380145
            ]
        },
        {
            "positions": [
                -1.041197296050992,
                -1.0982064753411795,
                1.9397112676037414,
                -0.632387408191375,
                0.2736054818847564,
                -2.902093634614072
            ]
        },
        {
            "positions": [
                -1.068981978704128,
                -1.1091892196122013,
                1.9773662204678106,
                -0.7358136040076753,
                0.3707813294383162,
                -3.015618691290129
            ]
        },
        {
            "positions": [
                -1.0967666613572642,
                -1.1201719638832233,
                2.01502117333188,
                -0.8392397998239757,
                0.46795717699187633,
                -3.1291437479661863
            ]
        }
    ]
}