{
    "goal": {
        "global_pose": {
            "orientation": {
                "w": 0.5084816217422485,
                "x": -0.49083608388900757,
                "y": 0.5182115435600281,
                "z": -0.4816462993621826
            },
            "position": {
                "x": 0.5540239810943604,
                "y": 0.030875300988554955,
                "z": 0.16403168439865112
            }
        },
        "name": "move_to_storage_A"
    },
    "id": "RRTConnect_move_to_storage_A_93",
    "joint_names": [
        "shoulder_pan_joint",
        "shoulder_lift_joint",
        "elbow_joint",
        "wrist_1_joint",
        "wrist_2_joint",
        "wrist_3_joint"
    ],
    "metrics": {
        "cart_traj_len": 0.3526541817857841,
        "distance_elbow_joint": 0.45098645948782123,
        "distance_shoulder_lift_joint": 0.23267754584691147,
        "distance_shoulder_pan_joint": 0.4612553917926939,
        "distance_wrist_1_joint": 0.2480932178420424,
        "distance_wrist_2_joint": 1.0969563899039994,
        "distance_wrist_3_joint": 0.10757821641694898,
        "smoothness": 8.881784232165597e-16,
        "time": 0.033856182,
        "traj_len": 1.6116907958074396,
        "weighted_distance": 2.039056954052622
    },
    "planner": "RRTConnect",
    "start": {
        "state": {
            "elbow_joint": 1.971548259319323,
            "shoulder_lift_joint": -1.1394851275133948,
            "shoulder_pan_joint": 0.1228115487234821,
            "wrist_1_joint": -0.7804723859257726,
            "wrist_2_joint": 0.12958671773740124,
            "wrist_3_joint": -3.192489227718131
        }
    },
    "waypoints": [
        {
            "positions": [
                0.1228115487234821,
                -1.1394851275133948,
                1.971548259319323,
                -0.7804723859257726,
                0.12958671773740124,
                -3.192489227718131
            ]
        },
        {
            "positions": [
                0.05691792132452583,
                -1.1727247769200964,
                2.035974896389012,
                -0.8159142741889215,
                0.2862947734379726,
                -3.1771209110871386
            ]
        },
        {
            "positions": [
                -0.008975706074430434,
                -1.2059644263267981,
                2.1004015334587005,
                -0.8513561624520705,
                0.44300282913854394,
                -3.1617525944561455
            ]
        },
        {
            "positions": [
                -0.0748693334733867,
                -1.2392040757334997,
                2.164828170528389,
                -0.8867980507152193,
                0.5997108848391153,
                -3.146384277825153
            ]
        },
        {
            "positions": [
                -0.14076296087234297,
                -1.2724437251402014,
                2.229254807598078,
                -0.9222399389783683,
                0.7564189405396866,
                -3.1310159611941604
            ]
        },
        {
            "positions": [
                -0.2066565882712993,
                -1.305683374546903,
                2.293681444667767,
                -0.9576818272415172,
                0.913126996240258,
                -3.115647644563168
            ]
        },
        {
            "positions": [
                -0.2725502156702555,
                -1.3389230239536047,
                2.3581080817374556,
                -0.9931237155046662,
                1.0698350519408293,
                -3.1002793279321748
            ]
        },
        {
            "positions": [
                -0.3384438430692118,
                -1.3721626733603063,
                2.422534718807144,
                -1.028565603767815,
                1.2265431076414006,
                -3.084911011301182
            ]
        }
    ]
}{
    "goal": {
        "global_pose": {
            "orientation": {
                "w": 0.5084816217422485,
                "x": -0.49083608388900757,
                "y": 0.5182115435600281,
                "z": -0.4816462993621826
            },
            "position": {
                "x": 0.5540239810943604,
                "y": 0.030875300988554955,
                "z": 0.16403168439865112
            }
        },
        "name": "move_to_storage_A"
    },
    "id": "RRTConnect_move_to_storage_A_93",
    "joint_names": [
        "shoulder_pan_joint",
        "shoulder_lift_joint",
        "elbow_joint",
        "wrist_1_joint",
        "wrist_2_joint",
        "wrist_3_joint"
    ],
    "metrics": {
        "cart_traj_len": 0.3526811287702899,
        "distance_elbow_joint": 0.44934052851799544,
        "distance_shoulder_lift_joint": 0.23335779348188246,
        "distance_shoulder_pan_joint": 0.45712248523200943,
        "distance_wrist_1_joint": 0.24709845596202706,
        "distance_wrist_2_joint": 1.1144906622925135,
        "distance_wrist_3_joint": 0.09095829626309992,
        "smoothness": 8.881784267329941e-16,
        "time": 0.040735238,
        "traj_len": 1.6100832965252228,
        "weighted_distance": 2.0336848164182837
    },
    "planner": "RRTConnect",
    "start": {
        "state": {
            "elbow_joint": 1.97154746011099,
            "shoulder_lift_joint": -1.13948474672311,
            "shoulder_pan_joint": 0.12281154466712228,
            "wrist_1_joint": -0.7804688027058302,
            "wrist_2_joint": 0.12958655903071145,
            "wrist_3_joint": 3.0906928834467795
        }
    },
    "waypoints": [
        {
            "positions": [
                0.12281154466712228,
                -1.13948474672311,
                1.97154746011099,
                -0.7804688027058302,
                0.12958655903071145,
                3.0906928834467795
            ]
        },
        {
            "positions": [
                0.057508332491120945,
                -1.172821574363379,
                2.0357389641849895,
                -0.815768582128977,
                0.2887995107867848,
                3.1036869257700794
            ]
        },
        {
            "positions": [
                -0.007794879684880393,
                -1.2061584020036478,
                2.0999304682589885,
                -0.8510683615521236,
                0.4480124625428581,
                3.1166809680933794
            ]
        },
        {
            "positions": [
                -0.07309809186088174,
                -1.2394952296439168,
                2.164121972332988,
                -0.8863681409752704,
                0.6072254142989315,
                3.1296750104166793
            ]
        },
        {
            "positions": [
                -0.13840130403688305,
                -1.2728320572841856,
                2.228313476406987,
                -0.921667920398417,
                0.7664383660550048,
                3.1426690527399797
            ]
        },
        {
            "positions": [
                -0.20370451621288443,
                -1.3061688849244546,
                2.2925049804809867,
                -0.9569676998215638,
                0.9256513178110782,
                3.1556630950632796
            ]
        },
        {
            "positions": [
                -0.26900772838888576,
                -1.3395057125647234,
                2.356696484554986,
                -0.9922674792447105,
                1.0848642695671515,
                3.1686571373865795
            ]
        },
        {
            "positions": [
                -0.33431094056488714,
                -1.3728425402049924,
                2.4208879886289854,
                -1.0275672586678573,
                1.244077221323225,
                3.1816511797098794
            ]
        }
    ]
}{
    "goal": {
        "global_pose": {
            "orientation": {
                "w": 0.5084816217422485,
                "x": -0.49083608388900757,
                "y": 0.5182115435600281,
                "z": -0.4816462993621826
            },
            "position": {
                "x": 0.5540239810943604,
                "y": 0.030875300988554955,
                "z": 0.16403168439865112
            }
        },
        "name": "move_to_storage_A"
    },
    "id": "RRTConnect_move_to_storage_A_93",
    "joint_names": [
        "shoulder_pan_joint",
        "shoulder_lift_joint",
        "elbow_joint",
        "wrist_1_joint",
        "wrist_2_joint",
        "wrist_3_joint"
    ],
    "metrics": {
        "cart_traj_len": 0.35235186157927256,
        "distance_elbow_joint": 0.448014262485978,
        "distance_shoulder_lift_joint": 0.2335668889091569,
        "distance_shoulder_pan_joint": 0.46125496093965684,
        "distance_wrist_1_joint": 0.23675573981226727,
        "distance_wrist_2_joint": 1.0945692359147385,
        "distance_wrist_3_joint": 0.10526628386609582,
        "smoothness": 4.440892133664971e-16,
        "time": 0.057628776,
        "traj_len": 1.6060595791962058,
        "weighted_distance": 2.030094804531821
    },
    "planner": "RRTConnect",
    "start": {
        "state": {
            "elbow_joint": 1.9715472970024885,
            "shoulder_lift_joint": -1.1394870060712896,
            "shoulder_pan_joint": 0.12281152778156021,
            "wrist_1_joint": -0.780463741449964,
            "wrist_2_joint": 0.12958659822042276,
            "wrist_3_joint": 3.090690232415272
        }
    },
    "waypoints": [
        {
            "positions": [
                0.12281152778156021,
                -1.1394870060712896,
                1.9715472970024885,
                -0.780463741449964,
                0.12958659822042276,
                3.090690232415272
            ]
        },
        {
            "positions": [
                0.05691796193303782,
                -1.1728537044868834,
                2.0355493345004856,
                -0.8142859899945736,
                0.28595363192252826,
                3.1057282729675713
            ]
        },
        {
            "positions": [
                -0.008975603915484576,
                -1.2062204029024772,
                2.099551371998482,
                -0.8481082385391832,
                0.4423206656246338,
                3.1207663135198707
            ]
        },
        {
            "positions": [
                -0.07486916976400698,
                -1.239587101318071,
                2.1635534094964792,
                -0.8819304870837928,
                0.5986876993267393,
                3.13580435407217
            ]
        },
        {
            "positions": [
                -0.14076273561252936,
                -1.2729537997336648,
                2.227555446994476,
                -0.9157527356284024,
                0.7550547330288447,
                3.1508423946244695
            ]
        },
        {
            "positions": [
                -0.20665630146105177,
                -1.3063204981492589,
                2.291557484492473,
                -0.9495749841730121,
                0.9114217667309503,
                3.165880435176769
            ]
        },
        {
            "positions": [
                -0.2725498673095742,
                -1.3396871965648527,
                2.3555595219904695,
                -0.9833972327176217,
                1.0677888004330558,
                3.1809184757290683
            ]
        },
        {
            "positions": [
                -0.3384434331580966,
                -1.3730538949804465,
                2.4195615594884665,
                -1.0172194812622313,
                1.2241558341351613,
                3.1959565162813677
            ]
        }
    ]
}