{
    "goal": {
        "global_pose": {
            "orientation": {
                "w": 0.7031023480610252,
                "x": -0.7110244013736278,
                "y": 0.0077485991402295624,
                "z": 0.005598929693374583
            },
            "position": {
                "x": -0.8841497679147869,
                "y": 0.44412534475326537,
                "z": 0.3711530566215515
            }
        },
        "name": "move_to_auspresseinheit_D"
    },
    "id": "RRTConnect_move_to_auspresseinheit_D_25",
    "joint_names": [
        "shoulder_pan_joint",
        "shoulder_lift_joint",
        "elbow_joint",
        "wrist_1_joint",
        "wrist_2_joint",
        "wrist_3_joint"
    ],
    "metrics": {
        "cart_traj_len": 0.3454533033717472,
        "distance_elbow_joint": 0.6754982450042573,
        "distance_shoulder_lift_joint": 0.14253915714694276,
        "distance_shoulder_pan_joint": 0.13446524832232012,
        "distance_wrist_1_joint": 0.6410180534591712,
        "distance_wrist_2_joint": 1.443361592161905,
        "distance_wrist_3_joint": 0.09401643041211116,
        "smoothness": 4.934324567253731e-16,
        "time": 0.053708569,
        "traj_len": 1.7694345781934713,
        "weighted_distance": 2.324502362432012
    },
    "planner": "RRTConnect",
    "start": {
        "state": {
            "elbow_joint": -1.8275523626775212,
            "shoulder_lift_joint": -2.126789852344167,
            "shoulder_pan_joint": -0.03513704404078235,
            "wrist_1_joint": -2.347782403156801,
            "wrist_2_joint": -1.6058999987535132,
            "wrist_3_joint": -3.0880379163319196
        }
    },
    "waypoints": [
        {
            "positions": [
                -0.03513704404078235,
                -2.126789852344167,
                -1.8275523626775212,
                -2.347782403156801,
                -1.6058999987535132,
                -3.0880379163319196
            ]
        },
        {
            "positions": [
                -0.05194520008107237,
                -2.1446072469875346,
                -1.743115082051989,
                -2.427909659839197,
                -1.425479799733275,
                -3.0762858625304057
            ]
        },
        {
            "positions": [
                -0.06875335612136238,
                -2.1624246416309028,
                -1.658677801426457,
                -2.5080369165215934,
                -1.245059600713037,
                -3.064533808728892
            ]
        },
        {
            "positions": [
                -0.08556151216165239,
                -2.1802420362742705,
                -1.5742405208009247,
                -2.58816417320399,
                -1.0646394016927987,
                -3.052781754927378
            ]
        },
        {
            "positions": [
                -0.1023696682019424,
                -2.1980594309176382,
                -1.4898032401753927,
                -2.6682914298863865,
                -0.8842192026725607,
                -3.041029701125864
            ]
        },
        {
            "positions": [
                -0.11917782424223242,
                -2.215876825561006,
                -1.4053659595498604,
                -2.7484186865687827,
                -0.7037990036523226,
                -3.02927764732435
            ]
        },
        {
            "positions": [
                -0.13598598028252246,
                -2.2336942202043737,
                -1.3209286789243282,
                -2.8285459432511795,
                -0.5233788046320844,
                -3.0175255935228362
            ]
        },
        {
            "positions": [
                -0.15279413632281247,
                -2.251511614847742,
                -1.2364913982987962,
                -2.9086731999335758,
                -0.3429586056118463,
                -3.0057735397213223
            ]
        },
        {
            "positions": [
                -0.16960229236310248,
                -2.2693290094911096,
                -1.152054117673264,
                -2.988800456615972,
                -0.16253840659160826,
                -2.9940214859198084
            ]
        }
    ]
}