{
    "goal": {
        "global_pose": {
            "orientation": {
                "w": 0.005598929693374612,
                "x": 0.007748599140229565,
                "y": 0.7110244013736278,
                "z": -0.7031023480610252
            },
            "position": {
                "x": 0.1141497679147869,
                "y": -0.7141253447532654,
                "z": 0.3711530566215515
            }
        },
        "name": "move_to_auspresseinheit_B"
    },
    "id": "RRTConnect_move_to_auspresseinheit_B_43",
    "joint_names": [
        "shoulder_pan_joint",
        "shoulder_lift_joint",
        "elbow_joint",
        "wrist_1_joint",
        "wrist_2_joint",
        "wrist_3_joint"
    ],
    "metrics": {
        "cart_traj_len": 0.564637405367151,
        "distance_elbow_joint": 0.061041921911914265,
        "distance_shoulder_lift_joint": 0.29555102971957403,
        "distance_shoulder_pan_joint": 0.5777050457681272,
        "distance_wrist_1_joint": 0.318767165023383,
        "distance_wrist_2_joint": 0.9871149006350466,
        "distance_wrist_3_joint": 0.001619390914128438,
        "smoothness": 2.5376526478085547e-16,
        "time": 0.034112916,
        "traj_len": 1.4972639894060678,
        "weighted_distance": 1.8843885749650628
    },
    "planner": "RRTConnect",
    "start": {
        "state": {
            "elbow_joint": 2.0193083361928714,
            "shoulder_lift_joint": -1.1220246554650708,
            "shoulder_pan_joint": -1.0952077554168747,
            "wrist_1_joint": -0.8559753972642168,
            "wrist_2_joint": 0.4759566250798843,
            "wrist_3_joint": -3.1240929996934557
        }
    },
    "waypoints": [
        {
            "positions": [
                -1.0952077554168747,
                -1.1220246554650708,
                2.0193083361928714,
                -0.8559753972642168,
                0.4759566250798843,
                -3.1240929996934557
            ]
        },
        {
            "positions": [
                -1.1914919297115625,
                -1.1712831604183331,
                2.0091346825408856,
                -0.8028475364269863,
                0.6404757751857254,
                -3.1238231012077677
            ]
        },
        {
            "positions": [
                -1.2877761040062503,
                -1.2205416653715955,
                1.9989610288889,
                -0.7497196755897558,
                0.8049949252915665,
                -3.1235532027220794
            ]
        },
        {
            "positions": [
                -1.3840602783009381,
                -1.2698001703248578,
                1.9887873752369143,
                -0.6965918147525253,
                0.9695140753974076,
                -3.1232833042363914
            ]
        },
        {
            "positions": [
                -1.480344452595626,
                -1.3190586752781202,
                1.9786137215849287,
                -0.6434639539152949,
                1.1340332255032486,
                -3.1230134057507035
            ]
        },
        {
            "positions": [
                -1.576628626890314,
                -1.3683171802313825,
                1.9684400679329428,
                -0.5903360930780643,
                1.2985523756090898,
                -3.122743507265015
            ]
        },
        {
            "positions": [
                -1.6729128011850019,
                -1.4175756851846448,
                1.9582664142809572,
                -0.5372082322408338,
                1.463071525714931,
                -3.1224736087793272
            ]
        }
    ]
}