{
    "goal": {
        "global_pose": {
            "orientation": {
                "w": -0.4816463035849501,
                "x": 0.5182115481033762,
                "y": 0.4908360881923453,
                "z": -0.5084816262002911
            },
            "position": {
                "x": -0.8240239810943604,
                "y": -0.300875300988555,
                "z": 0.16403168439865112
            }
        },
        "name": "move_to_storage_C"
    },
    "id": "RRTConnect_move_to_storage_C_31",
    "joint_names": [
        "shoulder_pan_joint",
        "shoulder_lift_joint",
        "elbow_joint",
        "wrist_1_joint",
        "wrist_2_joint",
        "wrist_3_joint"
    ],
    "metrics": {
        "cart_traj_len": 0.5762167118397691,
        "distance_elbow_joint": 0.2553528675790424,
        "distance_shoulder_lift_joint": 0.1888970086485442,
        "distance_shoulder_pan_joint": 0.4951661470279758,
        "distance_wrist_1_joint": 0.06834486563857478,
        "distance_wrist_2_joint": 1.0606093433546522,
        "distance_wrist_3_joint": 0.07267261366978106,
        "smoothness": 2.5376526478085547e-16,
        "time": 0.069697594,
        "traj_len": 1.4632302778163697,
        "weighted_distance": 1.8480644691815702
    },
    "planner": "RRTConnect",
    "start": {
        "state": {
            "elbow_joint": 2.010868314990456,
            "shoulder_lift_joint": -1.1634956873337592,
            "shoulder_pan_joint": -2.4736205022346125,
            "wrist_1_joint": -0.8367026794202681,
            "wrist_2_joint": 0.6746043897044499,
            "wrist_3_joint": -3.1496632123970403
        }
    },
    "waypoints": [
        {
            "positions": [
                -2.4736205022346125,
                -1.1634956873337592,
                2.010868314990456,
                -0.8367026794202681,
                0.6746043897044499,
                -3.1496632123970403
            ]
        },
        {
            "positions": [
                -2.556148193405942,
                -1.1320128525590019,
                1.9683095037272822,
                -0.8253118684805056,
                0.851372613596892,
                -3.1375511101187437
            ]
        },
        {
            "positions": [
                -2.638675884577271,
                -1.1005300177842445,
                1.9257506924641083,
                -0.8139210575407432,
                1.028140837489334,
                -3.1254390078404466
            ]
        },
        {
            "positions": [
                -2.7212035757486004,
                -1.069047183009487,
                1.8831918812009345,
                -0.8025302466009807,
                1.204909061381776,
                -3.1133269055621495
            ]
        },
        {
            "positions": [
                -2.8037312669199297,
                -1.0375643482347296,
                1.8406330699377609,
                -0.7911394356612182,
                1.3816772852742178,
                -3.101214803283853
            ]
        },
        {
            "positions": [
                -2.886258958091259,
                -1.0060815134599723,
                1.7980742586745873,
                -0.7797486247214558,
                1.5584455091666602,
                -3.0891027010055563
            ]
        },
        {
            "positions": [
                -2.9687866492625883,
                -0.974598678685215,
                1.7555154474114134,
                -0.7683578137816933,
                1.735213733059102,
                -3.076990598727259
            ]
        }
    ]
}