{
    "goal": {
        "global_pose": {
            "orientation": {
                "w": 0.005598929693374612,
                "x": 0.007748599140229565,
                "y": 0.7110244013736278,
                "z": -0.7031023480610252
            },
            "position": {
                "x": 0.1141497679147869,
                "y": -0.7141253447532654,
                "z": 0.3711530566215515
            }
        },
        "name": "move_to_auspresseinheit_B"
    },
    "id": "RRTConnect_move_to_auspresseinheit_B_149",
    "joint_names": [
        "shoulder_pan_joint",
        "shoulder_lift_joint",
        "elbow_joint",
        "wrist_1_joint",
        "wrist_2_joint",
        "wrist_3_joint"
    ],
    "metrics": {
        "cart_traj_len": 0.5645672645585912,
        "distance_elbow_joint": 0.06292651567561669,
        "distance_shoulder_lift_joint": 0.2941340687161058,
        "distance_shoulder_pan_joint": 0.5777509334556652,
        "distance_wrist_1_joint": 0.33043373609848903,
        "distance_wrist_2_joint": 0.9916466276289528,
        "distance_wrist_3_joint": 0.007337457137023939,
        "smoothness": 0.0,
        "time": 0.063982833,
        "traj_len": 1.5047356374831606,
        "weighted_distance": 1.8976260476483091
    },
    "planner": "RRTConnect",
    "start": {
        "state": {
            "elbow_joint": 2.0193083361928714,
            "shoulder_lift_joint": -1.1220246554650708,
            "shoulder_pan_joint": -1.0952077554168747,
            "wrist_1_joint": -0.8559753972642168,
            "wrist_2_joint": 0.4759566250798843,
            "wrist_3_joint": -3.1240929996934557
        }
    },
    "waypoints": [
        {
            "positions": [
                -1.0952077554168747,
                -1.1220246554650708,
                2.0193083361928714,
                -0.8559753972642168,
                0.4759566250798843,
                -3.1240929996934557
            ]
        },
        {
            "positions": [
                -1.1914995776594854,
                -1.1710470002510884,
                2.0088205835802686,
                -0.8009031079144686,
                0.6412310630180431,
                -3.1228700901706183
            ]
        },
        {
            "positions": [
                -1.2877913999020965,
                -1.220069345037106,
                1.9983328309676658,
                -0.7458308185647204,
                0.8065055009562019,
                -3.121647180647781
            ]
        },
        {
            "positions": [
                -1.3840832221447072,
                -1.2690916898231237,
                1.987845078355063,
                -0.6907585292149723,
                0.9717799388943607,
                -3.1204242711249437
            ]
        },
        {
            "positions": [
                -1.480375044387318,
                -1.3181140346091413,
                1.9773573257424604,
                -0.6356862398652241,
                1.1370543768325194,
                -3.1192013616021064
            ]
        },
        {
            "positions": [
                -1.576666866629929,
                -1.367136379395159,
                1.9668695731298576,
                -0.5806139505154759,
                1.3023288147706784,
                -3.117978452079269
            ]
        },
        {
            "positions": [
                -1.6729586888725398,
                -1.4161587241811766,
                1.9563818205172547,
                -0.5255416611657278,
                1.4676032527088372,
                -3.1167555425564317
            ]
        }
    ]
}