{
    "goal": {
        "global_pose": {
            "orientation": {
                "w": 0.5084816262002911,
                "x": -0.4908360881923452,
                "y": 0.5182115481033761,
                "z": -0.48164630358495003
            },
            "position": {
                "x": 0.5540239810943604,
                "y": -0.46912469901144505,
                "z": 0.16403168439865112
            }
        },
        "name": "move_to_storage_B"
    },
    "id": "RRTConnect_move_to_storage_B_41",
    "joint_names": [
        "shoulder_pan_joint",
        "shoulder_lift_joint",
        "elbow_joint",
        "wrist_1_joint",
        "wrist_2_joint",
        "wrist_3_joint"
    ],
    "metrics": {
        "cart_traj_len": 1.790125907427195,
        "distance_elbow_joint": 0.34674189155830737,
        "distance_shoulder_lift_joint": 1.349055676181043,
        "distance_shoulder_pan_joint": 1.5294228842250084,
        "distance_wrist_1_joint": 2.9783030684708085,
        "distance_wrist_2_joint": 2.700705232745414,
        "distance_wrist_3_joint": 3.141263184529588,
        "smoothness": 0.1843776539282329,
        "time": 0.070465822,
        "traj_len": 3.4706615994231083,
        "weighted_distance": 4.899696583257536
    },
    "planner": "RRTConnect",
    "start": {
        "state": {
            "elbow_joint": 1.664937868594044,
            "shoulder_lift_joint": -0.661644460510453,
            "shoulder_pan_joint": -0.9139846352900073,
            "wrist_1_joint": 2.146753192139373,
            "wrist_2_joint": -2.2341966793290973,
            "wrist_3_joint": 0.005466555786416001
        }
    },
    "waypoints": [
        {
            "positions": [
                -0.9139846352900073,
                -0.661644460510453,
                1.664937868594044,
                2.146753192139373,
                -2.2341966793290973,
                0.005466555786416001
            ]
        },
        {
            "positions": [
                -0.8743753953649429,
                -0.7147780285703187,
                1.6811498527131667,
                2.0760361980556965,
                -2.0856142366554153,
                0.05401651436379251
            ]
        },
        {
            "positions": [
                -0.8347661554398784,
                -0.7679115966301845,
                1.6973618368322894,
                2.0053192039720202,
                -1.937031793981733,
                0.10256647294116902
            ]
        },
        {
            "positions": [
                -0.7951569155148139,
                -0.8210451646900502,
                1.7135738209514122,
                1.9346022098883435,
                -1.788449351308051,
                0.15111643151854556
            ]
        },
        {
            "positions": [
                -0.7555476755897496,
                -0.874178732749916,
                1.7297858050705348,
                1.8638852158046668,
                -1.639866908634369,
                0.19966639009592205
            ]
        },
        {
            "positions": [
                -0.7159384356646851,
                -0.9273123008097817,
                1.7459977891896576,
                1.7931682217209903,
                -1.4912844659606868,
                0.2482163486732986
            ]
        },
        {
            "positions": [
                -0.6763291957396207,
                -0.9804458688696474,
                1.7622097733087803,
                1.7224512276373138,
                -1.3427020232870048,
                0.29676630725067515
            ]
        },
        {
            "positions": [
                -0.6367199558145562,
                -1.033579436929513,
                1.778421757427903,
                1.6517342335536374,
                -1.1941195806133227,
                0.3453162658280516
            ]
        },
        {
            "positions": [
                -0.5971107158894918,
                -1.0867130049893787,
                1.7946337415470257,
                1.5810172394699606,
                -1.0455371379396405,
                0.3938662244054281
            ]
        },
        {
            "positions": [
                -0.5575014759644273,
                -1.1398465730492444,
                1.8108457256661485,
                1.5103002453862842,
                -0.8969546952659586,
                0.44241618298280466
            ]
        },
        {
            "positions": [
                -0.517892236039363,
                -1.1929801411091103,
                1.8270577097852712,
                1.4395832513026074,
                -0.7483722525922765,
                0.4909661415601812
            ]
        },
        {
            "positions": [
                -0.4782829961142985,
                -1.246113709168976,
                1.843269693904394,
                1.368866257218931,
                -0.5997898099185943,
                0.5395161001375577
            ]
        },
        {
            "positions": [
                -0.43867375618923404,
                -1.299247277228842,
                1.8594816780235166,
                1.2981492631352545,
                -0.45120736724491217,
                0.5880660587149342
            ]
        },
        {
            "positions": [
                -0.3990645162641696,
                -1.3523808452887074,
                1.8756936621426394,
                1.2274322690515778,
                -0.30262492457123025,
                0.6366160172923107
            ]
        },
        {
            "positions": [
                -0.35945527633910523,
                -1.4055144133485733,
                1.891905646261762,
                1.1567152749679015,
                -0.1540424818975481,
                0.6851659758696871
            ]
        },
        {
            "positions": [
                -0.31984603641404075,
                -1.458647981408439,
                1.9081176303808849,
                1.0859982808842248,
                -0.0054600392238661755,
                0.7337159344470636
            ]
        },
        {
            "positions": [
                -0.28023679648897637,
                -1.5117815494683047,
                1.9243296145000075,
                1.015281286800548,
                0.1431224034498162,
                0.7822658930244402
            ]
        },
        {
            "positions": [
                -0.24062755656391183,
                -1.5649151175281704,
                1.9405415986191303,
                0.9445642927168716,
                0.29170484612349834,
                0.8308158516018167
            ]
        },
        {
            "positions": [
                -0.29769861026383937,
                -1.5351961162506154,
                1.945284142721345,
                0.8261566814469845,
                0.3033584266096863,
                0.9852101108494292
            ]
        },
        {
            "positions": [
                -0.3547696639637669,
                -1.5054771149730604,
                1.9500266868235598,
                0.7077490701770974,
                0.3150120070958743,
                1.1396043700970417
            ]
        },
        {
            "positions": [
                -0.41184071766369446,
                -1.4757581136955051,
                1.9547692309257745,
                0.5893414589072102,
                0.32666558758206227,
                1.2939986293446544
            ]
        },
        {
            "positions": [
                -0.468911771363622,
                -1.4460391124179501,
                1.9595117750279893,
                0.47093384763732316,
                0.33831916806825024,
                1.4483928885922668
            ]
        },
        {
            "positions": [
                -0.5259828250635495,
                -1.4163201111403951,
                1.964254319130204,
                0.3525262363674361,
                0.3499727485544382,
                1.6027871478398792
            ]
        },
        {
            "positions": [
                -0.5830538787634771,
                -1.3866011098628401,
                1.9689968632324186,
                0.23411862509754888,
                0.3616263290406262,
                1.7571814070874918
            ]
        },
        {
            "positions": [
                -0.6401249324634046,
                -1.3568821085852851,
                1.9737394073346335,
                0.1157110138276618,
                0.3732799095268142,
                1.9115756663351042
            ]
        },
        {
            "positions": [
                -0.6971959861633321,
                -1.32716310730773,
                1.9784819514368481,
                -0.002696597442225279,
                0.38493349001300214,
                2.065969925582717
            ]
        },
        {
            "positions": [
                -0.7542670398632598,
                -1.297444106030175,
                1.983224495539063,
                -0.12110420871211236,
                0.3965870704991902,
                2.2203641848303293
            ]
        },
        {
            "positions": [
                -0.8113380935631873,
                -1.26772510475262,
                1.9879670396412776,
                -0.23951181998199944,
                0.4082406509853781,
                2.3747584440779415
            ]
        },
        {
            "positions": [
                -0.8684091472631148,
                -1.238006103475065,
                1.9927095837434923,
                -0.3579194312518865,
                0.4198942314715661,
                2.529152703325554
            ]
        },
        {
            "positions": [
                -0.9254802009630425,
                -1.20828710219751,
                1.9974521278457071,
                -0.4763270425217738,
                0.4315478119577541,
                2.6835469625731667
            ]
        },
        {
            "positions": [
                -0.98255125466297,
                -1.1785681009199547,
                2.002194671947922,
                -0.5947346537916609,
                0.4432013924439421,
                2.8379412218207793
            ]
        },
        {
            "positions": [
                -1.0396223083628975,
                -1.1488490996423997,
                2.0069372160501366,
                -0.713142265061548,
                0.45485497293013005,
                2.992335481068392
            ]
        },
        {
            "positions": [
                -1.096693362062825,
                -1.1191300983648447,
                2.0116797601523513,
                -0.8315498763314352,
                0.46650855341631803,
                3.146729740316004
            ]
        }
    ]
}