{
    "goal": {
        "global_pose": {
            "orientation": {
                "w": 0.005598929693374612,
                "x": 0.007748599140229565,
                "y": 0.7110244013736278,
                "z": -0.7031023480610252
            },
            "position": {
                "x": 0.1141497679147869,
                "y": -0.7141253447532654,
                "z": 0.3711530566215515
            }
        },
        "name": "move_to_auspresseinheit_B"
    },
    "id": "RRTConnect_move_to_auspresseinheit_B_25",
    "joint_names": [
        "shoulder_pan_joint",
        "shoulder_lift_joint",
        "elbow_joint",
        "wrist_1_joint",
        "wrist_2_joint",
        "wrist_3_joint"
    ],
    "metrics": {
        "cart_traj_len": 0.5650646016727834,
        "distance_elbow_joint": 0.06622598838806648,
        "distance_shoulder_lift_joint": 0.2941784663600622,
        "distance_shoulder_pan_joint": 0.5761426494099802,
        "distance_wrist_1_joint": 0.3374005074338978,
        "distance_wrist_2_joint": 0.9982829039808532,
        "distance_wrist_3_joint": 0.0035030414212018357,
        "smoothness": 3.806478935924272e-16,
        "time": 0.049451146,
        "traj_len": 1.5085534650764159,
        "weighted_distance": 1.902215300971795
    },
    "planner": "RRTConnect",
    "start": {
        "state": {
            "elbow_joint": 2.0193083361928714,
            "shoulder_lift_joint": -1.1220246554650708,
            "shoulder_pan_joint": -1.0952077554168747,
            "wrist_1_joint": -0.8559753972642168,
            "wrist_2_joint": 0.4759566250798843,
            "wrist_3_joint": -3.1240929996934557
        }
    },
    "waypoints": [
        {
            "positions": [
                -1.0952077554168747,
                -1.1220246554650708,
                2.0193083361928714,
                -0.8559753972642168,
                0.4759566250798843,
                -3.1240929996934557
            ]
        },
        {
            "positions": [
                -1.1912315303185381,
                -1.1710543998584144,
                2.008270671461527,
                -0.7997419793585672,
                0.6423371090766932,
                -3.1235091594565887
            ]
        },
        {
            "positions": [
                -1.2872553052202014,
                -1.2200841442517583,
                1.9972330067301827,
                -0.7435085614529175,
                0.808717593073502,
                -3.1229253192197217
            ]
        },
        {
            "positions": [
                -1.3832790801218646,
                -1.2691138886451019,
                1.986195341998838,
                -0.6872751435472679,
                0.9750980770703108,
                -3.1223414789828547
            ]
        },
        {
            "positions": [
                -1.479302855023528,
                -1.3181436330384455,
                1.9751576772674937,
                -0.6310417256416183,
                1.1414785610671196,
                -3.1217576387459878
            ]
        },
        {
            "positions": [
                -1.5753266299251916,
                -1.3671733774317893,
                1.9641200125361493,
                -0.5748083077359686,
                1.3078590450639287,
                -3.121173798509121
            ]
        },
        {
            "positions": [
                -1.6713504048268548,
                -1.416203121825133,
                1.953082347804805,
                -0.518574889830319,
                1.4742395290607375,
                -3.120589958272254
            ]
        }
    ]
}