{
    "goal": {
        "global_pose": {
            "orientation": {
                "w": -0.00223480608172531,
                "x": 0.0024358444001904467,
                "y": 0.7094548369677653,
                "z": -0.704743149386269
            },
            "position": {
                "x": -0.37947507619857795,
                "y": -0.6371506643295288,
                "z": 0.19426114857196808
            }
        },
        "name": "move_to_magneteinheit_C"
    },
    "id": "RRTConnect_move_to_magneteinheit_C_122",
    "joint_names": [
        "shoulder_pan_joint",
        "shoulder_lift_joint",
        "elbow_joint",
        "wrist_1_joint",
        "wrist_2_joint",
        "wrist_3_joint"
    ],
    "metrics": {
        "cart_traj_len": 3.030183535816189,
        "distance_elbow_joint": 3.41060159566839,
        "distance_shoulder_lift_joint": 1.0006710277278943,
        "distance_shoulder_pan_joint": 1.2964274864705965,
        "distance_wrist_1_joint": 1.6879726523314362,
        "distance_wrist_2_joint": 2.0060927882265527,
        "distance_wrist_3_joint": 4.293347354509397,
        "smoothness": 0.704082646309089,
        "time": 0.15170662000000001,
        "traj_len": 3.700690868599303,
        "weighted_distance": 5.096653122835716
    },
    "planner": "RRTConnect",
    "start": {
        "state": {
            "elbow_joint": 1.9565354010623817,
            "shoulder_lift_joint": -1.4165861575791021,
            "shoulder_pan_joint": -1.6717766225146293,
            "wrist_1_joint": -0.5286633292919765,
            "wrist_2_joint": 1.472756589071564,
            "wrist_3_joint": -3.1238370188695823
        }
    },
    "waypoints": [
        {
            "positions": [
                -1.6717766225146293,
                -1.4165861575791021,
                1.9565354010623817,
                -0.5286633292919765,
                1.472756589071564,
                -3.1238370188695823
            ]
        },
        {
            "positions": [
                -1.665429705396392,
                -1.4272006329646096,
                1.912672942988809,
                -0.5338816656373975,
                1.4842706484296486,
                -3.0898740616960985
            ]
        },
        {
            "positions": [
                -1.6510747515508268,
                -1.4585469290091235,
                1.7747071781366341,
                -0.5418799329236628,
                1.5183017805343901,
                -2.965959731947512
            ]
        },
        {
            "positions": [
                -1.6367197977052617,
                -1.4898932250536374,
                1.6367414132844593,
                -0.5498782002099281,
                1.5523329126391319,
                -2.8420454021989254
            ]
        },
        {
            "positions": [
                -1.6223648438596965,
                -1.5212395210981513,
                1.4987756484322845,
                -0.5578764674961934,
                1.5863640447438736,
                -2.718131072450339
            ]
        },
        {
            "positions": [
                -1.6080098900141313,
                -1.5525858171426652,
                1.3608098835801097,
                -0.5658747347824586,
                1.6203951768486151,
                -2.594216742701753
            ]
        },
        {
            "positions": [
                -1.6470168605822257,
                -1.557038988380317,
                1.262164868095282,
                -0.5022890351866811,
                1.577618864341054,
                -2.4487173612216058
            ]
        },
        {
            "positions": [
                -1.6860238311503202,
                -1.561492159617969,
                1.163519852610454,
                -0.4387033355909036,
                1.534842551833493,
                -2.3032179797414587
            ]
        },
        {
            "positions": [
                -1.7250308017184146,
                -1.5659453308556208,
                1.0648748371256263,
                -0.37511763599512615,
                1.4920662393259319,
                -2.157718598261312
            ]
        },
        {
            "positions": [
                -1.764037772286509,
                -1.5703985020932727,
                0.9662298216407984,
                -0.31153193639934856,
                1.4492899268183708,
                -2.012219216781165
            ]
        },
        {
            "positions": [
                -1.8030447428546035,
                -1.5748516733309246,
                0.8675848061559706,
                -0.24794623680357109,
                1.4065136143108097,
                -1.866719835301018
            ]
        },
        {
            "positions": [
                -1.842051713422698,
                -1.5793048445685767,
                0.7689397906711428,
                -0.1843605372077936,
                1.3637373018032486,
                -1.721220453820871
            ]
        },
        {
            "positions": [
                -1.8810586839907923,
                -1.5837580158062285,
                0.670294775186315,
                -0.12077483761201607,
                1.3209609892956875,
                -1.575721072340724
            ]
        },
        {
            "positions": [
                -1.9200656545588868,
                -1.5882111870438804,
                0.5716497597014871,
                -0.05718913801623848,
                1.2781846767881264,
                -1.430221690860577
            ]
        },
        {
            "positions": [
                -1.9590726251269812,
                -1.5926643582815323,
                0.4730047442166593,
                0.006396561579539051,
                1.2354083642805653,
                -1.28472230938043
            ]
        },
        {
            "positions": [
                -1.9980795956950756,
                -1.5971175295191842,
                0.37435972873183154,
                0.06998226117531647,
                1.1926320517730042,
                -1.1392229279002832
            ]
        },
        {
            "positions": [
                -2.03708656626317,
                -1.601570700756836,
                0.2757147132470037,
                0.13356796077109395,
                1.1498557392654432,
                -0.9937235464201362
            ]
        },
        {
            "positions": [
                -2.0934251287100536,
                -1.54528628402317,
                0.3595812162825186,
                0.13261099568058168,
                1.065090386499073,
                -1.106816421576539
            ]
        },
        {
            "positions": [
                -2.149763691156937,
                -1.489001867289504,
                0.4434477193180335,
                0.13165403059006944,
                0.9803250337327031,
                -1.219909296732942
            ]
        },
        {
            "positions": [
                -2.2061022536038206,
                -1.432717450555838,
                0.5273142223535483,
                0.13069706549955717,
                0.8955596809663331,
                -1.3330021718893448
            ]
        },
        {
            "positions": [
                -2.262440816050704,
                -1.376433033822172,
                0.6111807253890633,
                0.12974010040904493,
                0.810794328199963,
                -1.4460950470457479
            ]
        },
        {
            "positions": [
                -2.3187793784975876,
                -1.320148617088506,
                0.6950472284245781,
                0.12878313531853267,
                0.7260289754335929,
                -1.5591879222021507
            ]
        },
        {
            "positions": [
                -2.375117940944471,
                -1.26386420035484,
                0.778913731460093,
                0.12782617022802042,
                0.6412636226672229,
                -1.6722807973585536
            ]
        },
        {
            "positions": [
                -2.431456503391355,
                -1.207579783621174,
                0.8627802344956079,
                0.12686920513750816,
                0.5564982699008528,
                -1.7853736725149565
            ]
        },
        {
            "positions": [
                -2.4877950658382386,
                -1.1512953668875079,
                0.9466467375311228,
                0.12591224004699592,
                0.47173291713448273,
                -1.8984665476713594
            ]
        },
        {
            "positions": [
                -2.544133628285122,
                -1.0950109501538419,
                1.0305132405666377,
                0.12495527495648365,
                0.38696756436811264,
                -2.0115594228277622
            ]
        },
        {
            "positions": [
                -2.6004721907320056,
                -1.0387265334201758,
                1.1143797436021528,
                0.12399830986597139,
                0.30220221160174265,
                -2.124652297984165
            ]
        },
        {
            "positions": [
                -2.656810753178889,
                -0.9824421166865098,
                1.1982462466376675,
                0.12304134477545914,
                0.21743685883537262,
                -2.237745173140568
            ]
        },
        {
            "positions": [
                -2.645461929879364,
                -0.9806580131459982,
                1.291583142017252,
                0.03535665603208188,
                0.24604309175905473,
                -2.357758236901199
            ]
        },
        {
            "positions": [
                -2.6341131065798384,
                -0.9788739096054866,
                1.3849200373968367,
                -0.05232803271129538,
                0.27464932468273684,
                -2.4777713006618303
            ]
        },
        {
            "positions": [
                -2.622764283280313,
                -0.9770898060649749,
                1.4782569327764212,
                -0.14001272145467258,
                0.3032555576064189,
                -2.597784364422461
            ]
        },
        {
            "positions": [
                -2.6114154599807877,
                -0.9753057025244632,
                1.5715938281560058,
                -0.2276974101980499,
                0.33186179053010106,
                -2.717797428183092
            ]
        },
        {
            "positions": [
                -2.6000666366812624,
                -0.9735215989839516,
                1.6649307235355904,
                -0.3153820989414271,
                0.36046802345378315,
                -2.8378104919437233
            ]
        },
        {
            "positions": [
                -2.5746434818197197,
                -1.0110490755394068,
                1.733043703048475,
                -0.41585579725640326,
                0.4229609670173528,
                -2.9016398792509963
            ]
        },
        {
            "positions": [
                -2.549220326958177,
                -1.048576552094862,
                1.8011566825613599,
                -0.5163294955713794,
                0.48545391058092247,
                -2.965469266558269
            ]
        },
        {
            "positions": [
                -2.523797172096634,
                -1.0861040286503172,
                1.8692696620742448,
                -0.6168031938863556,
                0.5479468541444921,
                -3.029298653865542
            ]
        },
        {
            "positions": [
                -2.4983740172350912,
                -1.1236315052057724,
                1.9373826415871296,
                -0.7172768922013317,
                0.6104397977080618,
                -3.0931280411728146
            ]
        },
        {
            "positions": [
                -2.4729508623735486,
                -1.1611589817612276,
                2.0054956211000143,
                -0.8177505905163079,
                0.6729327412716314,
                -3.1569574284800876
            ]
        }
    ]
}