{
    "goal": {
        "global_pose": {
            "orientation": {
                "w": 0.7031023502349854,
                "x": -0.7110244035720825,
                "y": 0.007748599164187908,
                "z": 0.005598929710686207
            },
            "position": {
                "x": 0.11585023208521307,
                "y": 0.44412534475326537,
                "z": 0.3711530566215515
            }
        },
        "name": "move_to_auspresseinheit_A"
    },
    "id": "RRTConnect_move_to_auspresseinheit_A_3",
    "joint_names": [
        "shoulder_pan_joint",
        "shoulder_lift_joint",
        "elbow_joint",
        "wrist_1_joint",
        "wrist_2_joint",
        "wrist_3_joint"
    ],
    "metrics": {
        "cart_traj_len": 0.7392867966025453,
        "distance_elbow_joint": 0.1510252709937907,
        "distance_shoulder_lift_joint": 0.5818013100535331,
        "distance_shoulder_pan_joint": 1.0460980258569368,
        "distance_wrist_1_joint": 0.5434856484194472,
        "distance_wrist_2_joint": 0.5193592612170413,
        "distance_wrist_3_joint": 0.25237613809935633,
        "smoothness": 0.40684748727203734,
        "time": 0.059157577,
        "traj_len": 1.759018378141657,
        "weighted_distance": 2.159106954385379
    },
    "planner": "RRTConnect",
    "start": {
        "state": {
            "elbow_joint": 2.4225746658250005,
            "shoulder_lift_joint": -1.3736534386056498,
            "shoulder_pan_joint": -0.3378633547517467,
            "wrist_1_joint": -1.0288598680537169,
            "wrist_2_joint": 1.233022673432363,
            "wrist_3_joint": -3.0940220416140027
        }
    },
    "waypoints": [
        {
            "positions": [
                -0.3378633547517467,
                -1.3736534386056498,
                2.4225746658250005,
                -1.0288598680537169,
                1.233022673432363,
                -3.0940220416140027
            ]
        },
        {
            "positions": [
                -0.24163522228296858,
                -1.4667710327792185,
                2.407868513510876,
                -0.9628150385340899,
                1.1538620329380544,
                -3.0756334388166406
            ]
        },
        {
            "positions": [
                -0.14540708981419043,
                -1.5598886269527874,
                2.3931623611967523,
                -0.8967702090144629,
                1.074701392443746,
                -3.057244836019279
            ]
        },
        {
            "positions": [
                -0.04917895734541228,
                -1.653006221126356,
                2.378456208882628,
                -0.8307253794948358,
                0.9955407519494375,
                -3.038856233221917
            ]
        },
        {
            "positions": [
                0.04704917512336587,
                -1.7461238152999248,
                2.3637500565685037,
                -0.7646805499752088,
                0.916380111455129,
                -3.020467630424555
            ]
        },
        {
            "positions": [
                0.14327730759214402,
                -1.8392414094734937,
                2.34904390425438,
                -0.6986357204555818,
                0.8372194709608204,
                -3.002079027627193
            ]
        },
        {
            "positions": [
                0.2395054400609222,
                -1.9323590036470624,
                2.3343377519402555,
                -0.6325908909359548,
                0.7580588304665119,
                -2.983690424829831
            ]
        },
        {
            "positions": [
                0.39574851707567815,
                -1.9246604219763555,
                2.3552672043099374,
                -0.5835186671687265,
                0.7432603577161152,
                -3.031038598601559
            ]
        },
        {
            "positions": [
                0.5519915940904342,
                -1.9169618403056488,
                2.3761966566796193,
                -0.534446443401498,
                0.7284618849657184,
                -3.0783867723732876
            ]
        },
        {
            "positions": [
                0.7082346711051902,
                -1.9092632586349418,
                2.3971261090493012,
                -0.4853742196342697,
                0.7136634122153217,
                -3.1257349461450157
            ]
        }
    ]
}