{
    "goal": {
        "global_pose": {
            "orientation": {
                "w": -0.4816463035849501,
                "x": 0.5182115481033762,
                "y": 0.4908360881923453,
                "z": -0.5084816262002911
            },
            "position": {
                "x": -0.8240239810943604,
                "y": 0.19912469901144506,
                "z": 0.16403168439865112
            }
        },
        "name": "move_to_storage_D"
    },
    "id": "RRTConnect_move_to_storage_D_30",
    "joint_names": [
        "shoulder_pan_joint",
        "shoulder_lift_joint",
        "elbow_joint",
        "wrist_1_joint",
        "wrist_2_joint",
        "wrist_3_joint"
    ],
    "metrics": {
        "cart_traj_len": 1.9193009384636317,
        "distance_elbow_joint": 0.5543893759397267,
        "distance_shoulder_lift_joint": 1.3353583702447147,
        "distance_shoulder_pan_joint": 2.3671639314174,
        "distance_wrist_1_joint": 3.8213741785569484,
        "distance_wrist_2_joint": 1.793368511853789,
        "distance_wrist_3_joint": 3.1214868663652373,
        "smoothness": 0.23574359098810924,
        "time": 0.067332123,
        "traj_len": 3.604600010317069,
        "weighted_distance": 4.985063455716389
    },
    "planner": "RRTConnect",
    "start": {
        "state": {
            "elbow_joint": -2.384821988534728,
            "shoulder_lift_joint": -2.2788054721415256,
            "shoulder_pan_joint": -0.1854694642142757,
            "wrist_1_joint": 1.4845938289331202,
            "wrist_2_joint": 0.17898776772866878,
            "wrist_3_joint": 0.037105688729662994
        }
    },
    "waypoints": [
        {
            "positions": [
                -0.1854694642142757,
                -2.2788054721415256,
                -2.384821988534728,
                1.4845938289331202,
                0.17898776772866878,
                0.037105688729662994
            ]
        },
        {
            "positions": [
                -0.10680305068141457,
                -2.232301574313742,
                -2.3626193548294157,
                1.400781670713038,
                0.09027015396511001,
                -0.03146208170796663
            ]
        },
        {
            "positions": [
                -0.02813663714855344,
                -2.185797676485959,
                -2.340416721124104,
                1.3169695124929561,
                0.001552540201551239,
                -0.10002985214559626
            ]
        },
        {
            "positions": [
                0.050529776384307695,
                -2.139293778658175,
                -2.3182140874187915,
                1.233157354272874,
                -0.0871650735620075,
                -0.1685976225832259
            ]
        },
        {
            "positions": [
                0.12919618991716883,
                -2.092789880830392,
                -2.2960114537134793,
                1.1493451960527918,
                -0.1758826873255663,
                -0.23716539302085551
            ]
        },
        {
            "positions": [
                0.20786260345002996,
                -2.0462859830026083,
                -2.2738088200081674,
                1.0655330378327097,
                -0.26460030108912513,
                -0.3057331634584851
            ]
        },
        {
            "positions": [
                0.2865290169828911,
                -1.9997820851748251,
                -2.251606186302855,
                0.9817208796126278,
                -0.3533179148526838,
                -0.37430093389611474
            ]
        },
        {
            "positions": [
                0.3651954305157522,
                -1.9532781873470415,
                -2.229403552597543,
                0.8979087213925456,
                -0.4420355286162426,
                -0.44286870433374437
            ]
        },
        {
            "positions": [
                0.4438618440486134,
                -1.9067742895192583,
                -2.207200918892231,
                0.8140965631724636,
                -0.5307531423798014,
                -0.511436474771374
            ]
        },
        {
            "positions": [
                0.5225282575814746,
                -1.8602703916914747,
                -2.1849982851869187,
                0.7302844049523816,
                -0.6194707561433602,
                -0.5800042452090036
            ]
        },
        {
            "positions": [
                0.6011946711143357,
                -1.8137664938636915,
                -2.1627956514816065,
                0.6464722467322994,
                -0.708188369906919,
                -0.6485720156466332
            ]
        },
        {
            "positions": [
                0.6798610846471967,
                -1.7672625960359079,
                -2.140593017776294,
                0.5626600885122174,
                -0.7969059836704777,
                -0.7171397860842629
            ]
        },
        {
            "positions": [
                0.7585274981800579,
                -1.7207586982081244,
                -2.1183903840709823,
                0.47884793029213535,
                -0.8856235974340364,
                -0.7857075565218925
            ]
        },
        {
            "positions": [
                0.8371939117129191,
                -1.674254800380341,
                -2.09618775036567,
                0.3950357720720532,
                -0.9743412111975952,
                -0.8542753269595221
            ]
        },
        {
            "positions": [
                0.9158603252457801,
                -1.6277509025525576,
                -2.073985116660358,
                0.31122361385197106,
                -1.063058824961154,
                -0.9228430973971518
            ]
        },
        {
            "positions": [
                0.9945267387786413,
                -1.5812470047247742,
                -2.051782482955046,
                0.22741145563188914,
                -1.1517764387247127,
                -0.9914108678347815
            ]
        },
        {
            "positions": [
                1.0731931523115024,
                -1.5347431068969908,
                -2.0295798492497337,
                0.14359929741180708,
                -1.2404940524882715,
                -1.059978638272411
            ]
        },
        {
            "positions": [
                1.0116097459286344,
                -1.5675928849525564,
                -2.0185161138800263,
                0.005800428132049618,
                -1.2612655353569853,
                -1.172445446014809
            ]
        },
        {
            "positions": [
                0.9500263395457667,
                -1.6004426630081219,
                -2.007452378510319,
                -0.13199844114770784,
                -1.282037018225699,
                -1.2849122537572069
            ]
        },
        {
            "positions": [
                0.8884429331628988,
                -1.6332924410636873,
                -1.9963886431406115,
                -0.26979731042746535,
                -1.3028085010944128,
                -1.397379061499605
            ]
        },
        {
            "positions": [
                0.8268595267800309,
                -1.666142219119253,
                -1.9853249077709043,
                -0.40759617970722273,
                -1.3235799839631268,
                -1.5098458692420027
            ]
        },
        {
            "positions": [
                0.765276120397163,
                -1.6989919971748186,
                -1.974261172401197,
                -0.5453950489869803,
                -1.3443514668318406,
                -1.622312676984401
            ]
        },
        {
            "positions": [
                0.7036927140142952,
                -1.731841775230384,
                -1.9631974370314895,
                -0.6831939182667377,
                -1.3651229497005544,
                -1.7347794847267988
            ]
        },
        {
            "positions": [
                0.6421093076314273,
                -1.7646915532859495,
                -1.9521337016617821,
                -0.8209927875464952,
                -1.3858944325692681,
                -1.8472462924691966
            ]
        },
        {
            "positions": [
                0.5805259012485595,
                -1.7975413313415152,
                -1.9410699662920747,
                -0.9587916568262526,
                -1.406665915437982,
                -1.9597131002115946
            ]
        },
        {
            "positions": [
                0.5189424948656916,
                -1.8303911093970808,
                -1.9300062309223676,
                -1.0965905261060103,
                -1.427437398306696,
                -2.0721799079539927
            ]
        },
        {
            "positions": [
                0.4573590884828237,
                -1.8632408874526463,
                -1.9189424955526602,
                -1.2343893953857679,
                -1.4482088811754097,
                -2.184646715696391
            ]
        },
        {
            "positions": [
                0.39577568209995573,
                -1.896090665508212,
                -1.9078787601829528,
                -1.3721882646655252,
                -1.4689803640441235,
                -2.2971135234387887
            ]
        },
        {
            "positions": [
                0.334192275717088,
                -1.9289404435637774,
                -1.8968150248132454,
                -1.5099871339452826,
                -1.4897518469128372,
                -2.4095803311811865
            ]
        },
        {
            "positions": [
                0.2726088693342201,
                -1.961790221619343,
                -1.885751289443538,
                -1.6477860032250402,
                -1.510523329781551,
                -2.5220471389235843
            ]
        },
        {
            "positions": [
                0.21102546295135216,
                -1.9946399996749085,
                -1.8746875540738306,
                -1.7855848725047976,
                -1.5312948126502648,
                -2.634513946665982
            ]
        },
        {
            "positions": [
                0.1494420565684843,
                -2.027489777730474,
                -1.8636238187041232,
                -1.9233837417845552,
                -1.5520662955189786,
                -2.7469807544083804
            ]
        },
        {
            "positions": [
                0.08785865018561656,
                -2.0603395557860393,
                -1.852560083334416,
                -2.061182611064312,
                -1.5728377783876923,
                -2.859447562150778
            ]
        },
        {
            "positions": [
                0.026275243802748705,
                -2.093189333841605,
                -1.8414963479647086,
                -2.1989814803440697,
                -1.5936092612564063,
                -2.9719143698931765
            ]
        },
        {
            "positions": [
                -0.035308162580119255,
                -2.1260391118971707,
                -1.8304326125950012,
                -2.3367803496238273,
                -1.6143807441251201,
                -3.0843811776355743
            ]
        }
    ]
}