{
    "goal": {
        "global_pose": {
            "orientation": {
                "w": 0.005598929693374612,
                "x": 0.007748599140229565,
                "y": 0.7110244013736278,
                "z": -0.7031023480610252
            },
            "position": {
                "x": -0.8858502320852131,
                "y": -0.7141253447532654,
                "z": 0.3711530566215515
            }
        },
        "name": "move_to_auspresseinheit_C"
    },
    "id": "RRTConnect_move_to_auspresseinheit_C_44",
    "joint_names": [
        "shoulder_pan_joint",
        "shoulder_lift_joint",
        "elbow_joint",
        "wrist_1_joint",
        "wrist_2_joint",
        "wrist_3_joint"
    ],
    "metrics": {
        "cart_traj_len": 0.4931252129928037,
        "distance_elbow_joint": 0.9960367762291352,
        "distance_shoulder_lift_joint": 0.3232625741966695,
        "distance_shoulder_pan_joint": 0.2558765393694782,
        "distance_wrist_1_joint": 0.6602935099561191,
        "distance_wrist_2_joint": 1.3150666190343951,
        "distance_wrist_3_joint": 0.04883835227579647,
        "smoothness": 3.2297397335745243e-16,
        "time": 0.121001051,
        "traj_len": 1.8972017212361982,
        "weighted_distance": 2.3816824315184637
    },
    "planner": "RRTConnect",
    "start": {
        "state": {
            "elbow_joint": 1.7527959577737207,
            "shoulder_lift_joint": -0.9740617694225068,
            "shoulder_pan_joint": -2.967991417825858,
            "wrist_1_joint": -0.759517768980727,
            "wrist_2_joint": 1.7443932448377408,
            "wrist_3_joint": -3.0840537646736568
        }
    },
    "waypoints": [
        {
            "positions": [
                -2.967991417825858,
                -0.9740617694225068,
                1.7527959577737207,
                -0.759517768980727,
                1.7443932448377408,
                -3.0840537646736568
            ]
        },
        {
            "positions": [
                -2.94240376388891,
                -0.9417355120028398,
                1.6531922801508072,
                -0.6934884179851151,
                1.6128865829343013,
                -3.0889375999012363
            ]
        },
        {
            "positions": [
                -2.9168161099519625,
                -0.9094092545831729,
                1.5535886025278935,
                -0.6274590669895032,
                1.4813799210308618,
                -3.0938214351288162
            ]
        },
        {
            "positions": [
                -2.8912284560150145,
                -0.8770829971635059,
                1.45398492490498,
                -0.5614297159938912,
                1.3498732591274223,
                -3.0987052703563958
            ]
        },
        {
            "positions": [
                -2.8656408020780666,
                -0.8447567397438389,
                1.3543812472820664,
                -0.49540036499827933,
                1.2183665972239828,
                -3.1035891055839753
            ]
        },
        {
            "positions": [
                -2.840053148141119,
                -0.812430482324172,
                1.254777569659153,
                -0.4293710140026674,
                1.0868599353205433,
                -3.108472940811555
            ]
        },
        {
            "positions": [
                -2.814465494204171,
                -0.7801042249045052,
                1.1551738920362395,
                -0.3633416630070555,
                0.9553532734171037,
                -3.1133567760391347
            ]
        },
        {
            "positions": [
                -2.788877840267223,
                -0.7477779674848382,
                1.055570214413326,
                -0.29731231201144365,
                0.8238466115136643,
                -3.1182406112667143
            ]
        },
        {
            "positions": [
                -2.7632901863302752,
                -0.7154517100651712,
                0.9559665367904124,
                -0.23128296101583168,
                0.6923399496102247,
                -3.1231244464942938
            ]
        },
        {
            "positions": [
                -2.7377025323933277,
                -0.6831254526455042,
                0.856362859167499,
                -0.16525361002021977,
                0.5608332877067852,
                -3.1280082817218737
            ]
        },
        {
            "positions": [
                -2.7121148784563798,
                -0.6507991952258373,
                0.7567591815445854,
                -0.09922425902460788,
                0.4293266258033457,
                -3.1328921169494532
            ]
        }
    ]
}