{
    "goal": {
        "global_pose": {
            "orientation": {
                "w": 0.7047431468963623,
                "x": -0.7094548344612122,
                "y": 0.0024358443915843964,
                "z": -0.0022348060738295317
            },
            "position": {
                "x": 0.6094750761985779,
                "y": 0.3671506643295288,
                "z": 0.19426114857196808
            }
        },
        "name": "move_to_magneteinheit_A"
    },
    "id": "RRTConnect_move_to_magneteinheit_A_40",
    "joint_names": [
        "shoulder_pan_joint",
        "shoulder_lift_joint",
        "elbow_joint",
        "wrist_1_joint",
        "wrist_2_joint",
        "wrist_3_joint"
    ],
    "metrics": {
        "cart_traj_len": 3.5113691602464625,
        "distance_elbow_joint": 3.910995627934279,
        "distance_shoulder_lift_joint": 1.0501112262598953,
        "distance_shoulder_pan_joint": 2.752252284058804,
        "distance_wrist_1_joint": 3.4695378184088836,
        "distance_wrist_2_joint": 1.5260703412771512,
        "distance_wrist_3_joint": 1.2516894432115797,
        "smoothness": 0.11795856679180214,
        "time": 0.086909708,
        "traj_len": 3.7363962237897894,
        "weighted_distance": 4.632455481411535
    },
    "planner": "RRTConnect",
    "start": {
        "state": {
            "elbow_joint": -1.9196185241190666,
            "shoulder_lift_joint": -1.2443396400964142,
            "shoulder_pan_joint": 2.6996025414629847,
            "wrist_1_joint": -1.5485510000780065,
            "wrist_2_joint": -1.5709468930060704,
            "wrist_3_joint": 0.4420197071253992
        }
    },
    "waypoints": [
        {
            "positions": [
                2.6996025414629847,
                -1.2443396400964142,
                -1.9196185241190666,
                -1.5485510000780065,
                -1.5709468930060704,
                0.4420197071253992
            ]
        },
        {
            "positions": [
                2.5864933518021402,
                -1.2113352454858646,
                -1.8404577662705468,
                -1.4600197113683915,
                -1.5074468564967773,
                0.45954715872496604
            ]
        },
        {
            "positions": [
                2.4733841621412953,
                -1.1783308508753148,
                -1.761297008422027,
                -1.3714884226587767,
                -1.4439468199874845,
                0.47707461032453286
            ]
        },
        {
            "positions": [
                2.360274972480451,
                -1.145326456264765,
                -1.6821362505735071,
                -1.2829571339491617,
                -1.3804467834781915,
                0.4946020619240997
            ]
        },
        {
            "positions": [
                2.2471657828196063,
                -1.1123220616542153,
                -1.602975492724987,
                -1.1944258452395466,
                -1.3169467469688985,
                0.5121295135236665
            ]
        },
        {
            "positions": [
                2.1340565931587614,
                -1.0793176670436657,
                -1.5238147348764672,
                -1.1058945565299318,
                -1.2534467104596054,
                0.5296569651232335
            ]
        },
        {
            "positions": [
                2.020947403497917,
                -1.046313272433116,
                -1.4446539770279474,
                -1.0173632678203168,
                -1.1899466739503124,
                0.5471844167228003
            ]
        },
        {
            "positions": [
                1.9078382138370722,
                -1.013308877822566,
                -1.3654932191794273,
                -0.9288319791107019,
                -1.1264466374410196,
                0.5647118683223671
            ]
        },
        {
            "positions": [
                1.7947290241762275,
                -0.9803044832120165,
                -1.2863324613309075,
                -0.840300690401087,
                -1.0629466009317265,
                0.582239319921934
            ]
        },
        {
            "positions": [
                1.681619834515383,
                -0.9473000886014667,
                -1.2071717034823877,
                -0.751769401691472,
                -0.9994465644224335,
                0.5997667715215008
            ]
        },
        {
            "positions": [
                1.5685106448545383,
                -0.914295693990917,
                -1.1280109456338678,
                -0.6632381129818571,
                -0.9359465279131406,
                0.6172942231210676
            ]
        },
        {
            "positions": [
                1.4554014551936936,
                -0.8812912993803673,
                -1.048850187785348,
                -0.5747068242722421,
                -0.8724464914038476,
                0.6348216747206346
            ]
        },
        {
            "positions": [
                1.342292265532849,
                -0.8482869047698176,
                -0.9696894299368282,
                -0.48617553556262716,
                -0.8089464548945545,
                0.6523491263202014
            ]
        },
        {
            "positions": [
                1.2291830758720044,
                -0.815282510159268,
                -0.8905286720883083,
                -0.39764424685301236,
                -0.7454464183852616,
                0.6698765779197682
            ]
        },
        {
            "positions": [
                1.1160738862111597,
                -0.7822781155487182,
                -0.8113679142397883,
                -0.30911295814339734,
                -0.6819463818759686,
                0.6874040295193351
            ]
        },
        {
            "positions": [
                1.002964696550315,
                -0.7492737209381685,
                -0.7322071563912684,
                -0.22058166943378232,
                -0.6184463453666755,
                0.704931481118902
            ]
        },
        {
            "positions": [
                0.8898555068894705,
                -0.7162693263276187,
                -0.6530463985427486,
                -0.13205038072416753,
                -0.5549463088573827,
                0.7224589327184687
            ]
        },
        {
            "positions": [
                0.776746317228626,
                -0.683264931717069,
                -0.5738856406942288,
                -0.04351909201455251,
                -0.4914462723480897,
                0.7399863843180357
            ]
        },
        {
            "positions": [
                0.6636371275677813,
                -0.6502605371065193,
                -0.4947248828457089,
                0.04501219669506251,
                -0.42794623583879665,
                0.7575138359176026
            ]
        },
        {
            "positions": [
                0.5505279379069363,
                -0.6172561424959696,
                -0.4155641249971891,
                0.1335434854046773,
                -0.3644461993295036,
                0.7750412875171693
            ]
        },
        {
            "positions": [
                0.43741874824609184,
                -0.5842517478854199,
                -0.33640336714866925,
                0.22207477411429233,
                -0.3009461628202108,
                0.7925687391167362
            ]
        },
        {
            "positions": [
                0.32430955858524735,
                -0.5512473532748702,
                -0.2572426093001494,
                0.3106060628239071,
                -0.23744612631091777,
                0.810096190716303
            ]
        },
        {
            "positions": [
                0.21120036892440242,
                -0.5182429586643205,
                -0.17808185145162936,
                0.39913735153352237,
                -0.17394608980162474,
                0.8276236423158699
            ]
        },
        {
            "positions": [
                0.09809117926355783,
                -0.48523856405377075,
                -0.09892109360310954,
                0.48766864024313694,
                -0.11044605329233165,
                0.8451510939154367
            ]
        },
        {
            "positions": [
                0.08764036972965956,
                -0.5033738379081061,
                0.0472064595740455,
                0.5945152909542513,
                -0.10620513070804308,
                0.7805750576072885
            ]
        },
        {
            "positions": [
                0.0771895601957613,
                -0.5215091117624414,
                0.19333401275120055,
                0.7013619416653656,
                -0.1019642081237545,
                0.7159990212991402
            ]
        },
        {
            "positions": [
                0.06673875066186302,
                -0.5396443856167767,
                0.33946156592835564,
                0.8082085923764799,
                -0.09772328553946592,
                0.6514229849909918
            ]
        },
        {
            "positions": [
                0.056287941127964765,
                -0.557779659471112,
                0.4855891191055106,
                0.9150552430875942,
                -0.09348236295517735,
                0.5868469486828436
            ]
        },
        {
            "positions": [
                0.045837131594066494,
                -0.5759149333254473,
                0.6317166722826658,
                1.0219018937987085,
                -0.08924144037088877,
                0.5222709123746954
            ]
        },
        {
            "positions": [
                0.03538632206016823,
                -0.5940502071797826,
                0.7778442254598208,
                1.1287485445098229,
                -0.0850005177866002,
                0.457694876066547
            ]
        },
        {
            "positions": [
                0.046390830142166606,
                -0.6168250205661876,
                0.9295358352542448,
                1.2277783287374546,
                -0.09001601354381042,
                0.40005714624496547
            ]
        },
        {
            "positions": [
                0.05739533822416498,
                -0.6395998339525926,
                1.0812274450486687,
                1.3268081129650864,
                -0.09503150930102064,
                0.34241941642338397
            ]
        },
        {
            "positions": [
                0.06839984630616336,
                -0.6623746473389976,
                1.2329190548430926,
                1.425837897192718,
                -0.10004700505823085,
                0.2847816866018025
            ]
        },
        {
            "positions": [
                0.07940435438816174,
                -0.6851494607254026,
                1.3846106646375165,
                1.5248676814203497,
                -0.10506250081544107,
                0.22714395678022092
            ]
        },
        {
            "positions": [
                0.09040886247016011,
                -0.7079242741118076,
                1.5363022744319406,
                1.6238974656479814,
                -0.11007799657265128,
                0.16950622695863937
            ]
        },
        {
            "positions": [
                0.10141337055215849,
                -0.7306990874982127,
                1.6879938842263644,
                1.722927249875613,
                -0.11509349232986149,
                0.11186849713705788
            ]
        },
        {
            "positions": [
                0.11241787863415686,
                -0.7534739008846176,
                1.8396854940207885,
                1.8219570341032447,
                -0.12010898808707171,
                0.05423076731547638
            ]
        },
        {
            "positions": [
                0.12342238671615524,
                -0.7762487142710226,
                1.9913771038152124,
                1.9209868183308765,
                -0.12512448384428193,
                -0.003406962506105147
            ]
        }
    ]
}