{
    "goal": {
        "global_pose": {
            "orientation": {
                "w": 0.7047431493862688,
                "x": -0.7094548369677653,
                "y": 0.0024358444001904,
                "z": -0.0022348060817251984
            },
            "position": {
                "x": -0.39052492380142206,
                "y": 0.3671506643295288,
                "z": 0.19426114857196808
            }
        },
        "name": "move_to_magneteinheit_D"
    },
    "id": "RRTConnect_move_to_magneteinheit_D_56",
    "joint_names": [
        "shoulder_pan_joint",
        "shoulder_lift_joint",
        "elbow_joint",
        "wrist_1_joint",
        "wrist_2_joint",
        "wrist_3_joint"
    ],
    "metrics": {
        "cart_traj_len": 5.401397737337686,
        "distance_elbow_joint": 3.1091441731931293,
        "distance_shoulder_lift_joint": 1.4486900371928386,
        "distance_shoulder_pan_joint": 3.665027692463257,
        "distance_wrist_1_joint": 2.8323330493447316,
        "distance_wrist_2_joint": 0.8953611133273616,
        "distance_wrist_3_joint": 1.907192033111298,
        "smoothness": 0.37407133806151055,
        "time": 0.102771872,
        "traj_len": 3.7225996425391514,
        "weighted_distance": 4.6259946311606654
    },
    "planner": "RRTConnect",
    "start": {
        "state": {
            "elbow_joint": 0.749534889911806,
            "shoulder_lift_joint": -0.6476975780787326,
            "shoulder_pan_joint": -2.711696901376241,
            "wrist_1_joint": -0.07506478083263063,
            "wrist_2_joint": 0.43296659715538205,
            "wrist_3_joint": -3.14703540197715
        }
    },
    "waypoints": [
        {
            "positions": [
                -2.711696901376241,
                -0.6476975780787326,
                0.749534889911806,
                -0.07506478083263063,
                0.43296659715538205,
                -3.14703540197715
            ]
        },
        {
            "positions": [
                -2.71969548443218,
                -0.7258548237328498,
                0.6866863732777844,
                -0.11117820386707339,
                0.3755242008098809,
                -3.036361349163446
            ]
        },
        {
            "positions": [
                -2.5574948560733475,
                -0.7887857169603418,
                0.6525612832988948,
                -0.1832713241138722,
                0.36690642648796684,
                -2.9914807329776143
            ]
        },
        {
            "positions": [
                -2.395294227714515,
                -0.8517166101878337,
                0.6184361933200053,
                -0.255364444360671,
                0.35828865216605277,
                -2.946600116791783
            ]
        },
        {
            "positions": [
                -2.2330935993556826,
                -0.9146475034153256,
                0.5843111033411158,
                -0.32745756460746983,
                0.34967087784413864,
                -2.9017195006059513
            ]
        },
        {
            "positions": [
                -2.0708929709968507,
                -0.9775783966428176,
                0.5501860133622263,
                -0.39955068485426865,
                0.34105310352222457,
                -2.85683888442012
            ]
        },
        {
            "positions": [
                -1.9086923426380182,
                -1.0405092898703097,
                0.5160609233833368,
                -0.47164380510106746,
                0.3324353292003105,
                -2.8119582682342883
            ]
        },
        {
            "positions": [
                -1.7464917142791858,
                -1.1034401830978016,
                0.48193583340444723,
                -0.5437369253478663,
                0.32381755487839636,
                -2.767077652048457
            ]
        },
        {
            "positions": [
                -1.5842910859203534,
                -1.1663710763252935,
                0.4478107434255577,
                -0.615830045594665,
                0.3151997805564823,
                -2.7221970358626253
            ]
        },
        {
            "positions": [
                -1.422090457561521,
                -1.2293019695527856,
                0.41368565344666813,
                -0.687923165841464,
                0.3065820062345682,
                -2.677316419676794
            ]
        },
        {
            "positions": [
                -1.2598898292026885,
                -1.2922328627802773,
                0.3795605634677786,
                -0.7600162860882627,
                0.29796423191265414,
                -2.6324358034909623
            ]
        },
        {
            "positions": [
                -1.0976892008438563,
                -1.3551637560077694,
                0.3454354734888891,
                -0.8321094063350616,
                0.28934645759074007,
                -2.587555187305131
            ]
        },
        {
            "positions": [
                -0.9354885724850237,
                -1.4180946492352615,
                0.31131038350999957,
                -0.9042025265818605,
                0.28072868326882594,
                -2.5426745711192993
            ]
        },
        {
            "positions": [
                -0.7732879441261915,
                -1.4810255424627532,
                0.27718529353111004,
                -0.9762956468286592,
                0.27211090894691187,
                -2.497793954933468
            ]
        },
        {
            "positions": [
                -0.6110873157673589,
                -1.5439564356902453,
                0.24306020355222047,
                -1.0483887670754581,
                0.2634931346249978,
                -2.4529133387476363
            ]
        },
        {
            "positions": [
                -0.4488866874085269,
                -1.6068873289177372,
                0.208935113573331,
                -1.1204818873222568,
                0.25487536030308366,
                -2.408032722561805
            ]
        },
        {
            "positions": [
                -0.286686059049694,
                -1.6698182221452291,
                0.17481002359444142,
                -1.1925750075690558,
                0.2462575859811696,
                -2.3631521063759733
            ]
        },
        {
            "positions": [
                -0.12448543069086204,
                -1.7327491153727212,
                0.1406849336155519,
                -1.2646681278158545,
                0.23763981165925552,
                -2.318271490190142
            ]
        },
        {
            "positions": [
                0.03771519766797038,
                -1.7956800086002134,
                0.10655984363666238,
                -1.3367612480626534,
                0.22902203733734142,
                -2.2733908740043103
            ]
        },
        {
            "positions": [
                0.1999158260268028,
                -1.858610901827705,
                0.07243475365777285,
                -1.408854368309452,
                0.22040426301542734,
                -2.228510257818479
            ]
        },
        {
            "positions": [
                0.3621164543856351,
                -1.921541795055197,
                0.038309663678883304,
                -1.480947488556251,
                0.21178648869351324,
                -2.1836296416326473
            ]
        },
        {
            "positions": [
                0.3633161122171202,
                -1.9080115190884406,
                -0.1605668773625678,
                -1.5777982370566446,
                0.16343404133265096,
                -2.2200490026550304
            ]
        },
        {
            "positions": [
                0.36451577004860525,
                -1.8944812431216844,
                -0.35944341840401894,
                -1.6746489855570383,
                0.11508159397178867,
                -2.2564683636774134
            ]
        },
        {
            "positions": [
                0.3657154278800903,
                -1.880950967154928,
                -0.55831995944547,
                -1.7714997340574319,
                0.06672914661092641,
                -2.292887724699796
            ]
        },
        {
            "positions": [
                0.3669150857115754,
                -1.8674206911881717,
                -0.7571965004869211,
                -1.8683504825578257,
                0.018376699250064105,
                -2.329307085722179
            ]
        },
        {
            "positions": [
                0.36811474354306045,
                -1.8538904152214155,
                -0.9560730415283721,
                -1.9652012310582192,
                -0.029975748110798173,
                -2.3657264467445622
            ]
        },
        {
            "positions": [
                0.36931440137454546,
                -1.8403601392546591,
                -1.1549495825698233,
                -2.0620519795586127,
                -0.07832819547166042,
                -2.4021458077669453
            ]
        },
        {
            "positions": [
                0.37051405920603053,
                -1.826829863287903,
                -1.3538261236112743,
                -2.1589027280590063,
                -0.12668064283252273,
                -2.4385651687893284
            ]
        },
        {
            "positions": [
                0.3717137170375156,
                -1.8132995873211466,
                -1.5527026646527256,
                -2.2557534765594003,
                -0.17503309019338503,
                -2.4749845298117115
            ]
        },
        {
            "positions": [
                0.37291337486900067,
                -1.7997693113543902,
                -1.7515792056941768,
                -2.352604225059794,
                -0.22338553755424734,
                -2.511403890834094
            ]
        },
        {
            "positions": [
                0.37411303270048574,
                -1.786239035387634,
                -1.9504557467356276,
                -2.4494549735601874,
                -0.2717379849151096,
                -2.547823251856477
            ]
        },
        {
            "positions": [
                0.3753126905319708,
                -1.7727087594208777,
                -2.149332287777079,
                -2.546305722060581,
                -0.32009043227597195,
                -2.5842426128788603
            ]
        },
        {
            "positions": [
                0.2629085036433371,
                -1.7675062025044668,
                -2.191387686877928,
                -2.474087300437225,
                -0.2916296154967704,
                -2.692877273182977
            ]
        },
        {
            "positions": [
                0.15050431675470344,
                -1.7623036455880556,
                -2.233443085978777,
                -2.4018688788138682,
                -0.2631687987175689,
                -2.801511933487093
            ]
        },
        {
            "positions": [
                0.03810012986606981,
                -1.7571010886716447,
                -2.275498485079626,
                -2.329650457190512,
                -0.23470798193836734,
                -2.9101465937912097
            ]
        },
        {
            "positions": [
                -0.07430405702256393,
                -1.7518985317552336,
                -2.317553884180475,
                -2.2574320355671555,
                -0.2062471651591658,
                -3.018781254095326
            ]
        },
        {
            "positions": [
                -0.18670824391119756,
                -1.7466959748388227,
                -2.359609283281324,
                -2.1852136139437994,
                -0.17778634837996427,
                -3.1274159143994424
            ]
        }
    ]
}