{
    "goal": {
        "global_pose": {
            "orientation": {
                "w": -0.00223480608172531,
                "x": 0.0024358444001904467,
                "y": 0.7094548369677653,
                "z": -0.704743149386269
            },
            "position": {
                "x": -0.37947507619857795,
                "y": -0.6371506643295288,
                "z": 0.19426114857196808
            }
        },
        "name": "move_to_magneteinheit_C"
    },
    "id": "RRTConnect_move_to_magneteinheit_C_30",
    "joint_names": [
        "shoulder_pan_joint",
        "shoulder_lift_joint",
        "elbow_joint",
        "wrist_1_joint",
        "wrist_2_joint",
        "wrist_3_joint"
    ],
    "metrics": {
        "cart_traj_len": 1.6318007921457476,
        "distance_elbow_joint": 1.400221150453755,
        "distance_shoulder_lift_joint": 1.7070439217005386,
        "distance_shoulder_pan_joint": 2.961827526684583,
        "distance_wrist_1_joint": 0.853461016100129,
        "distance_wrist_2_joint": 3.904154610518645,
        "distance_wrist_3_joint": 3.1039284014807613,
        "smoothness": 1.0093557434757634,
        "time": 0.110799451,
        "traj_len": 3.732376806666017,
        "weighted_distance": 4.989600089838734
    },
    "planner": "RRTConnect",
    "start": {
        "state": {
            "elbow_joint": 1.9565354010623817,
            "shoulder_lift_joint": -1.4165861575791021,
            "shoulder_pan_joint": -1.6717766225146293,
            "wrist_1_joint": -0.5286633292919765,
            "wrist_2_joint": 1.472756589071564,
            "wrist_3_joint": -3.1238370188695823
        }
    },
    "waypoints": [
        {
            "positions": [
                -1.6717766225146293,
                -1.4165861575791021,
                1.9565354010623817,
                -0.5286633292919765,
                1.472756589071564,
                -3.1238370188695823
            ]
        },
        {
            "positions": [
                -1.5616875047551513,
                -1.461050090637604,
                1.9558369461964191,
                -0.5345589277439261,
                1.4332863755076146,
                -2.988450739028604
            ]
        },
        {
            "positions": [
                -1.4515983869956735,
                -1.5055140236961062,
                1.9551384913304566,
                -0.5404545261958758,
                1.393816161943665,
                -2.8530644591876255
            ]
        },
        {
            "positions": [
                -1.3415092692361954,
                -1.5499779567546081,
                1.954440036464494,
                -0.5463501246478254,
                1.3543459483797156,
                -2.7176781793466467
            ]
        },
        {
            "positions": [
                -1.2314201514767174,
                -1.59444188981311,
                1.9537415815985315,
                -0.552245723099775,
                1.3148757348157663,
                -2.5822918995056683
            ]
        },
        {
            "positions": [
                -1.3359071625834125,
                -1.6249645329256894,
                1.9941238605184375,
                -0.582837317310814,
                1.1933603258400893,
                -2.526921209637071
            ]
        },
        {
            "positions": [
                -1.4403941736901076,
                -1.6554871760382688,
                2.0345061394383435,
                -0.613428911521853,
                1.0718449168644124,
                -2.4715505197684737
            ]
        },
        {
            "positions": [
                -1.5448811847968027,
                -1.6860098191508484,
                2.074888418358249,
                -0.644020505732892,
                0.9503295078887355,
                -2.4161798298998765
            ]
        },
        {
            "positions": [
                -1.6493681959034978,
                -1.7165324622634277,
                2.115270697278155,
                -0.674612099943931,
                0.8288140989130586,
                -2.360809140031279
            ]
        },
        {
            "positions": [
                -1.753855207010193,
                -1.747055105376007,
                2.155652976198061,
                -0.70520369415497,
                0.7072986899373817,
                -2.305438450162682
            ]
        },
        {
            "positions": [
                -1.858342218116888,
                -1.7775777484885864,
                2.196035255117967,
                -0.7357952883660089,
                0.5857832809617047,
                -2.2500677602940846
            ]
        },
        {
            "positions": [
                -1.9628292292235832,
                -1.808100391601166,
                2.236417534037873,
                -0.7663868825770479,
                0.4642678719860278,
                -2.1946970704254873
            ]
        },
        {
            "positions": [
                -2.0673162403302783,
                -1.8386230347137453,
                2.2767998129577784,
                -0.796978476788087,
                0.3427524630103509,
                -2.1393263805568905
            ]
        },
        {
            "positions": [
                -2.171803251436973,
                -1.8691456778263247,
                2.3171820918776844,
                -0.8275700709991259,
                0.22123705403467397,
                -2.083955690688293
            ]
        },
        {
            "positions": [
                -2.2762902625436685,
                -1.899668320938904,
                2.3575643707975904,
                -0.8581616652101649,
                0.09972164505899705,
                -2.028585000819696
            ]
        },
        {
            "positions": [
                -2.380777273650364,
                -1.9301909640514836,
                2.3979466497174964,
                -0.888753259421204,
                -0.021793763916679865,
                -1.9732143109510984
            ]
        },
        {
            "positions": [
                -2.4852642847570587,
                -1.9607136071640627,
                2.438328928637402,
                -0.9193448536322428,
                -0.14330917289235678,
                -1.9178436210825014
            ]
        },
        {
            "positions": [
                -2.5897512958637536,
                -1.9912362502766423,
                2.478711207557308,
                -0.9499364478432819,
                -0.2648245818680337,
                -1.8624729312139041
            ]
        },
        {
            "positions": [
                -2.694238306970449,
                -2.021758893389222,
                2.519093486477214,
                -0.9805280420543209,
                -0.3863399908437106,
                -1.8071022413453068
            ]
        },
        {
            "positions": [
                -2.7987253180771443,
                -2.052281536501801,
                2.55947576539712,
                -1.0111196362653598,
                -0.5078553998193875,
                -1.7517315514767096
            ]
        },
        {
            "positions": [
                -2.903212329183839,
                -2.0828041796143806,
                2.5998580443170254,
                -1.041711230476399,
                -0.6293708087950645,
                -1.6963608616081123
            ]
        },
        {
            "positions": [
                -3.007699340290534,
                -2.1133268227269597,
                2.6402403232369314,
                -1.072302824687438,
                -0.7508862177707414,
                -1.640990171739515
            ]
        },
        {
            "positions": [
                -3.1121863513972294,
                -2.1438494658395393,
                2.6806226021568373,
                -1.1028944188984768,
                -0.8724016267464185,
                -1.5856194818709177
            ]
        },
        {
            "positions": [
                -3.0694726943488186,
                -2.078530758276866,
                2.6359195147947307,
                -1.0842790904655684,
                -0.7684685337663743,
                -1.6900002061697241
            ]
        },
        {
            "positions": [
                -3.0267590373004083,
                -2.0132120507141926,
                2.591216427432624,
                -1.0656637620326597,
                -0.66453544078633,
                -1.7943809304685305
            ]
        },
        {
            "positions": [
                -2.9840453802519975,
                -1.9478933431515189,
                2.5465133400705176,
                -1.0470484335997512,
                -0.5606023478062858,
                -1.8987616547673372
            ]
        },
        {
            "positions": [
                -2.941331723203587,
                -1.8825746355888455,
                2.501810252708411,
                -1.0284331051668425,
                -0.45666925482624154,
                -2.0031423790661433
            ]
        },
        {
            "positions": [
                -2.8986180661551764,
                -1.8172559280261722,
                2.4571071653463044,
                -1.009817776733934,
                -0.35273616184619727,
                -2.10752310336495
            ]
        },
        {
            "positions": [
                -2.855904409106766,
                -1.7519372204634986,
                2.4124040779841978,
                -0.9912024483010253,
                -0.248803068866153,
                -2.2119038276637566
            ]
        },
        {
            "positions": [
                -2.8131907520583552,
                -1.6866185129008253,
                2.367700990622091,
                -0.9725871198681169,
                -0.14486997588610873,
                -2.3162845519625628
            ]
        },
        {
            "positions": [
                -2.770477095009945,
                -1.6212998053381518,
                2.3229979032599846,
                -0.9539717914352082,
                -0.040936882906064564,
                -2.4206652762613694
            ]
        },
        {
            "positions": [
                -2.727763437961534,
                -1.5559810977754784,
                2.278294815897878,
                -0.9353564630022997,
                0.06299621007397971,
                -2.5250460005601756
            ]
        },
        {
            "positions": [
                -2.6850497809131237,
                -1.490662390212805,
                2.2335917285357714,
                -0.9167411345693911,
                0.16692930305402398,
                -2.629426724858982
            ]
        },
        {
            "positions": [
                -2.642336123864713,
                -1.4253436826501316,
                2.1888886411736648,
                -0.8981258061364825,
                0.27086239603406814,
                -2.733807449157789
            ]
        },
        {
            "positions": [
                -2.599622466816302,
                -1.360024975087458,
                2.144185553811558,
                -0.8795104777035739,
                0.3747954890141125,
                -2.8381881734565955
            ]
        },
        {
            "positions": [
                -2.556908809767892,
                -1.2947062675247847,
                2.0994824664494516,
                -0.8608951492706653,
                0.4787285819941567,
                -2.9425688977554016
            ]
        },
        {
            "positions": [
                -2.5141951527194815,
                -1.2293875599621114,
                2.054779379087345,
                -0.8422798208377568,
                0.5826616749742011,
                -3.046949622054208
            ]
        },
        {
            "positions": [
                -2.4714814956710707,
                -1.1640688523994378,
                2.0100762917252384,
                -0.8236644924048482,
                0.6865947679542451,
                -3.1513303463530145
            ]
        }
    ]
}