{
    "goal": {
        "global_pose": {
            "orientation": {
                "w": 0.005598929693374612,
                "x": 0.007748599140229565,
                "y": 0.7110244013736278,
                "z": -0.7031023480610252
            },
            "position": {
                "x": 0.1141497679147869,
                "y": -0.7141253447532654,
                "z": 0.3711530566215515
            }
        },
        "name": "move_to_auspresseinheit_B"
    },
    "id": "RRTConnect_move_to_auspresseinheit_B_88",
    "joint_names": [
        "shoulder_pan_joint",
        "shoulder_lift_joint",
        "elbow_joint",
        "wrist_1_joint",
        "wrist_2_joint",
        "wrist_3_joint"
    ],
    "metrics": {
        "cart_traj_len": 0.5642908672977709,
        "distance_elbow_joint": 0.059035081963724645,
        "distance_shoulder_lift_joint": 0.29642541693712565,
        "distance_shoulder_pan_joint": 0.5771076184538182,
        "distance_wrist_1_joint": 0.3173546777466142,
        "distance_wrist_2_joint": 0.9930665166240291,
        "distance_wrist_3_joint": 0.004343629384282899,
        "smoothness": 5.075305255429287e-16,
        "time": 0.036619112999999995,
        "traj_len": 1.4991107167616389,
        "weighted_distance": 1.8885024210333445
    },
    "planner": "RRTConnect",
    "start": {
        "state": {
            "elbow_joint": 2.0193083361928714,
            "shoulder_lift_joint": -1.1220246554650708,
            "shoulder_pan_joint": -1.0952077554168747,
            "wrist_1_joint": -0.8559753972642168,
            "wrist_2_joint": 0.4759566250798843,
            "wrist_3_joint": -3.1240929996934557
        }
    },
    "waypoints": [
        {
            "positions": [
                -1.0952077554168747,
                -1.1220246554650708,
                2.0193083361928714,
                -0.8559753972642168,
                0.4759566250798843,
                -3.1240929996934557
            ]
        },
        {
            "positions": [
                -1.191392358492511,
                -1.1714288916212583,
                2.009469155865584,
                -0.8030829509731144,
                0.6414677111838891,
                -3.123369061462742
            ]
        },
        {
            "positions": [
                -1.2875769615681474,
                -1.220833127777446,
                1.9996299755382965,
                -0.7501905046820121,
                0.8069787972878939,
                -3.122645123232028
            ]
        },
        {
            "positions": [
                -1.3837615646437837,
                -1.2702373639336337,
                1.9897907952110092,
                -0.6972980583909096,
                0.9724898833918989,
                -3.121921185001314
            ]
        },
        {
            "positions": [
                -1.4799461677194201,
                -1.3196416000898212,
                1.9799516148837217,
                -0.6444056120998074,
                1.1380009694959037,
                -3.1211972467706004
            ]
        },
        {
            "positions": [
                -1.5761307707950565,
                -1.3690458362460087,
                1.9701124345564343,
                -0.5915131658087049,
                1.3035120555999087,
                -3.1204733085398866
            ]
        },
        {
            "positions": [
                -1.6723153738706928,
                -1.4184500724021964,
                1.9602732542291468,
                -0.5386207195176026,
                1.4690231417039135,
                -3.1197493703091728
            ]
        }
    ]
}