{
    "goal": {
        "global_pose": {
            "orientation": {
                "w": -0.4816463035849501,
                "x": 0.5182115481033762,
                "y": 0.4908360881923453,
                "z": -0.5084816262002911
            },
            "position": {
                "x": -0.8240239810943604,
                "y": -0.300875300988555,
                "z": 0.16403168439865112
            }
        },
        "name": "move_to_storage_C"
    },
    "id": "RRTConnect_move_to_storage_C_121",
    "joint_names": [
        "shoulder_pan_joint",
        "shoulder_lift_joint",
        "elbow_joint",
        "wrist_1_joint",
        "wrist_2_joint",
        "wrist_3_joint"
    ],
    "metrics": {
        "cart_traj_len": 0.5759234708537235,
        "distance_elbow_joint": 0.25448592309211415,
        "distance_shoulder_lift_joint": 0.1881034969610662,
        "distance_shoulder_pan_joint": 0.49500116447240883,
        "distance_wrist_1_joint": 0.06750227406801668,
        "distance_wrist_2_joint": 1.0617088384520237,
        "distance_wrist_3_joint": 0.07072513108985579,
        "smoothness": 2.5376526478085547e-16,
        "time": 0.093521016,
        "traj_len": 1.4620283267213003,
        "weighted_distance": 1.84612789449573
    },
    "planner": "RRTConnect",
    "start": {
        "state": {
            "elbow_joint": 2.010868314990456,
            "shoulder_lift_joint": -1.1634956873337592,
            "shoulder_pan_joint": -2.4736205022346125,
            "wrist_1_joint": -0.8367026794202681,
            "wrist_2_joint": 0.6746043897044499,
            "wrist_3_joint": -3.1496632123970403
        }
    },
    "waypoints": [
        {
            "positions": [
                -2.4736205022346125,
                -1.1634956873337592,
                2.010868314990456,
                -0.8367026794202681,
                0.6746043897044499,
                -3.1496632123970403
            ]
        },
        {
            "positions": [
                -2.5561206963133474,
                -1.1321451045069149,
                1.9684539944751034,
                -0.825452300408932,
                0.8515558627797872,
                -3.137875690548731
            ]
        },
        {
            "positions": [
                -2.6386208903920823,
                -1.1007945216800705,
                1.9260396739597512,
                -0.8142019213975958,
                1.0285073358551244,
                -3.126088168700422
            ]
        },
        {
            "positions": [
                -2.721121084470817,
                -1.069443938853226,
                1.8836253534443987,
                -0.8029515423862598,
                1.2054588089304619,
                -3.1143006468521124
            ]
        },
        {
            "positions": [
                -2.8036212785495516,
                -1.0380933560263816,
                1.8412110329290463,
                -0.7917011633749237,
                1.3824102820057989,
                -3.102513125003803
            ]
        },
        {
            "positions": [
                -2.8861214726282864,
                -1.0067427731995373,
                1.798796712413694,
                -0.7804507843635875,
                1.5593617550811363,
                -3.090725603155494
            ]
        },
        {
            "positions": [
                -2.9686216667070213,
                -0.975392190372693,
                1.7563823918983417,
                -0.7692004053522514,
                1.7363132281564737,
                -3.0789380813071845
            ]
        }
    ]
}