{
    "goal": {
        "global_pose": {
            "orientation": {
                "w": -0.4816463035849501,
                "x": 0.5182115481033762,
                "y": 0.4908360881923453,
                "z": -0.5084816262002911
            },
            "position": {
                "x": -0.8240239810943604,
                "y": -0.300875300988555,
                "z": 0.16403168439865112
            }
        },
        "name": "move_to_storage_C"
    },
    "id": "RRTConnect_move_to_storage_C_67",
    "joint_names": [
        "shoulder_pan_joint",
        "shoulder_lift_joint",
        "elbow_joint",
        "wrist_1_joint",
        "wrist_2_joint",
        "wrist_3_joint"
    ],
    "metrics": {
        "cart_traj_len": 0.5764590626150653,
        "distance_elbow_joint": 0.25557027051443004,
        "distance_shoulder_lift_joint": 0.18854868758184296,
        "distance_shoulder_pan_joint": 0.49556038554425674,
        "distance_wrist_1_joint": 0.07221515775896759,
        "distance_wrist_2_joint": 1.062557005125504,
        "distance_wrist_3_joint": 0.05681866978497574,
        "smoothness": 2.5376526478085547e-16,
        "time": 0.163496704,
        "traj_len": 1.4598870423118278,
        "weighted_distance": 1.8383905131294602
    },
    "planner": "RRTConnect",
    "start": {
        "state": {
            "elbow_joint": 2.010868314990456,
            "shoulder_lift_joint": -1.1634956873337592,
            "shoulder_pan_joint": -2.4736205022346125,
            "wrist_1_joint": -0.8367026794202681,
            "wrist_2_joint": 0.6746043897044499,
            "wrist_3_joint": -3.1496632123970403
        }
    },
    "waypoints": [
        {
            "positions": [
                -2.4736205022346125,
                -1.1634956873337592,
                2.010868314990456,
                -0.8367026794202681,
                0.6746043897044499,
                -3.1496632123970403
            ]
        },
        {
            "positions": [
                -2.556213899825322,
                -1.1320709060701186,
                1.9682732699047174,
                -0.8246668197937735,
                0.851697223892034,
                -3.1401934340995443
            ]
        },
        {
            "positions": [
                -2.6388072974160313,
                -1.1006461248064783,
                1.9256782248189792,
                -0.8126309601672789,
                1.0287900580796179,
                -3.1307236558020484
            ]
        },
        {
            "positions": [
                -2.721400695006741,
                -1.0692213435428377,
                1.8830831797332408,
                -0.8005951005407843,
                1.2058828922672018,
                -3.1212538775045524
            ]
        },
        {
            "positions": [
                -2.8039940925974505,
                -1.0377965622791971,
                1.8404881346475024,
                -0.7885592409142897,
                1.3829757264547857,
                -3.1117840992070565
            ]
        },
        {
            "positions": [
                -2.88658749018816,
                -1.0063717810155568,
                1.7978930895617642,
                -0.7765233812877951,
                1.56006856064237,
                -3.1023143209095605
            ]
        },
        {
            "positions": [
                -2.9691808877788692,
                -0.9749469997519162,
                1.7552980444760258,
                -0.7644875216613005,
                1.7371613948299538,
                -3.0928445426120645
            ]
        }
    ]
}