{
    "goal": {
        "global_pose": {
            "orientation": {
                "w": 0.5084816217422485,
                "x": -0.49083608388900757,
                "y": 0.5182115435600281,
                "z": -0.4816462993621826
            },
            "position": {
                "x": 0.5540239810943604,
                "y": 0.030875300988554955,
                "z": 0.16403168439865112
            }
        },
        "name": "move_to_storage_A"
    },
    "id": "RRTstar_move_to_storage_A_110",
    "joint_names": [
        "shoulder_pan_joint",
        "shoulder_lift_joint",
        "elbow_joint",
        "wrist_1_joint",
        "wrist_2_joint",
        "wrist_3_joint"
    ],
    "metrics": {
        "cart_traj_len": 0.35254646653770455,
        "distance_elbow_joint": 0.4477046627477399,
        "distance_shoulder_lift_joint": 0.2349947383447908,
        "distance_shoulder_pan_joint": 0.4606599113106013,
        "distance_wrist_1_joint": 0.2358759016759352,
        "distance_wrist_2_joint": 1.0990253295677272,
        "distance_wrist_3_joint": 0.0872224481982693,
        "smoothness": 2.2204460668324854e-16,
        "time": 5.002630398,
        "traj_len": 1.6017125184767285,
        "weighted_distance": 2.0186205982019665
    },
    "planner": "RRTstar",
    "start": {
        "state": {
            "elbow_joint": 1.971548259319323,
            "shoulder_lift_joint": -1.1394851275133948,
            "shoulder_pan_joint": 0.1228115487234821,
            "wrist_1_joint": -0.7804723859257726,
            "wrist_2_joint": 0.12958671773740124,
            "wrist_3_joint": -3.192489227718131
        }
    },
    "waypoints": [
        {
            "positions": [
                0.1228115487234821,
                -1.1394851275133948,
                1.971548259319323,
                -0.7804723859257726,
                0.12958671773740124,
                -3.192489227718131
            ]
        },
        {
            "positions": [
                0.05700298996482478,
                -1.1730558044197934,
                2.035506068283286,
                -0.8141689433080491,
                0.2865903362470765,
                -3.1800288779755213
            ]
        },
        {
            "positions": [
                -0.008805568793832541,
                -1.2066264813261922,
                2.0994638772472487,
                -0.8478655006903255,
                0.4435939547567519,
                -3.1675685282329114
            ]
        },
        {
            "positions": [
                -0.07461412755248986,
                -1.2401971582325908,
                2.1634216862112114,
                -0.881562058072602,
                0.6005975732664272,
                -3.1551081784903015
            ]
        },
        {
            "positions": [
                -0.14042268631114718,
                -1.2737678351389896,
                2.227379495175174,
                -0.9152586154548784,
                0.7576011917761025,
                -3.1426478287476916
            ]
        },
        {
            "positions": [
                -0.20623124506980456,
                -1.3073385120453882,
                2.2913373041391374,
                -0.9489551728371549,
                0.9146048102857779,
                -3.1301874790050817
            ]
        },
        {
            "positions": [
                -0.2720398038284618,
                -1.340909188951787,
                2.3552951131031,
                -0.9826517302194313,
                1.071608428795453,
                -3.1177271292624718
            ]
        },
        {
            "positions": [
                -0.3378483625871192,
                -1.3744798658581856,
                2.419252922067063,
                -1.0163482876017078,
                1.2286120473051285,
                -3.105266779519862
            ]
        }
    ]
}{
    "goal": {
        "global_pose": {
            "orientation": {
                "w": 0.5084816217422485,
                "x": -0.49083608388900757,
                "y": 0.5182115435600281,
                "z": -0.4816462993621826
            },
            "position": {
                "x": 0.5540239810943604,
                "y": 0.030875300988554955,
                "z": 0.16403168439865112
            }
        },
        "name": "move_to_storage_A"
    },
    "id": "RRTstar_move_to_storage_A_110",
    "joint_names": [
        "shoulder_pan_joint",
        "shoulder_lift_joint",
        "elbow_joint",
        "wrist_1_joint",
        "wrist_2_joint",
        "wrist_3_joint"
    ],
    "metrics": {
        "cart_traj_len": 0.3533817614980063,
        "distance_elbow_joint": 0.4477738585486146,
        "distance_shoulder_lift_joint": 0.23515479861594946,
        "distance_shoulder_pan_joint": 0.4609040467810189,
        "distance_wrist_1_joint": 0.23443720555604908,
        "distance_wrist_2_joint": 1.1044899766709326,
        "distance_wrist_3_joint": 0.09634050417023188,
        "smoothness": 0.0,
        "time": 5.0004811909999995,
        "traj_len": 1.605957779751011,
        "weighted_distance": 2.027488244333427
    },
    "planner": "RRTstar",
    "start": {
        "state": {
            "elbow_joint": 1.97154746011099,
            "shoulder_lift_joint": -1.13948474672311,
            "shoulder_pan_joint": 0.12281154466712228,
            "wrist_1_joint": -0.7804688027058302,
            "wrist_2_joint": 0.12958655903071145,
            "wrist_3_joint": 3.0906928834467795
        }
    },
    "waypoints": [
        {
            "positions": [
                0.12281154466712228,
                -1.13948474672311,
                1.97154746011099,
                -0.7804688027058302,
                0.12958655903071145,
                3.0906928834467795
            ]
        },
        {
            "positions": [
                0.05696810941269102,
                -1.1730782893825313,
                2.0355151541893632,
                -0.8139598320709801,
                0.28737084141227326,
                3.1044558126139554
            ]
        },
        {
            "positions": [
                -0.008875325841740236,
                -1.2066718320419527,
                2.099482848267737,
                -0.8474508614361299,
                0.44515512379383504,
                3.1182187417811313
            ]
        },
        {
            "positions": [
                -0.0747187610961715,
                -1.240265374701374,
                2.1634505423461103,
                -0.8809418908012798,
                0.6029394061753969,
                3.1319816709483073
            ]
        },
        {
            "positions": [
                -0.14056219635060274,
                -1.2738589173607953,
                2.227418236424484,
                -0.9144329201664296,
                0.7607236885569587,
                3.1457446001154836
            ]
        },
        {
            "positions": [
                -0.20640563160503406,
                -1.3074524600202166,
                2.2913859305028574,
                -0.9479239495315795,
                0.9185079709385205,
                3.1595075292826595
            ]
        },
        {
            "positions": [
                -0.27224906685946526,
                -1.341046002679638,
                2.355353624581231,
                -0.9814149788967294,
                1.0762922533200823,
                3.1732704584498355
            ]
        },
        {
            "positions": [
                -0.3380925021138966,
                -1.3746395453390594,
                2.4193213186596045,
                -1.0149060082618793,
                1.234076535701644,
                3.1870333876170114
            ]
        }
    ]
}{
    "goal": {
        "global_pose": {
            "orientation": {
                "w": 0.5084816217422485,
                "x": -0.49083608388900757,
                "y": 0.5182115435600281,
                "z": -0.4816462993621826
            },
            "position": {
                "x": 0.5540239810943604,
                "y": 0.030875300988554955,
                "z": 0.16403168439865112
            }
        },
        "name": "move_to_storage_A"
    },
    "id": "RRTstar_move_to_storage_A_110",
    "joint_names": [
        "shoulder_pan_joint",
        "shoulder_lift_joint",
        "elbow_joint",
        "wrist_1_joint",
        "wrist_2_joint",
        "wrist_3_joint"
    ],
    "metrics": {
        "cart_traj_len": 0.35316833766784267,
        "distance_elbow_joint": 0.4495678155769389,
        "distance_shoulder_lift_joint": 0.23525379361973675,
        "distance_shoulder_pan_joint": 0.4619896705771555,
        "distance_wrist_1_joint": 0.23978438899086063,
        "distance_wrist_2_joint": 1.0986341190230084,
        "distance_wrist_3_joint": 0.09402387530276668,
        "smoothness": 8.881784197001252e-16,
        "time": 5.000824109,
        "traj_len": 1.6060054990847532,
        "weighted_distance": 2.026257614843155
    },
    "planner": "RRTstar",
    "start": {
        "state": {
            "elbow_joint": 1.9715472970024885,
            "shoulder_lift_joint": -1.1394870060712896,
            "shoulder_pan_joint": 0.12281152778156021,
            "wrist_1_joint": -0.780463741449964,
            "wrist_2_joint": 0.12958659822042276,
            "wrist_3_joint": 3.090690232415272
        }
    },
    "waypoints": [
        {
            "positions": [
                0.12281152778156021,
                -1.1394870060712896,
                1.9715472970024885,
                -0.780463741449964,
                0.12958659822042276,
                3.090690232415272
            ]
        },
        {
            "positions": [
                0.05681300341339515,
                -1.1730946908741091,
                2.035771270656337,
                -0.8147186541629441,
                0.2865343295094239,
                3.1041222146013814
            ]
        },
        {
            "positions": [
                -0.009185520954769905,
                -1.2067023756769286,
                2.0999952443101852,
                -0.8489735668759242,
                0.4434820607984251,
                3.117554196787491
            ]
        },
        {
            "positions": [
                -0.07518404532293496,
                -1.2403100604797481,
                2.1642192179640336,
                -0.8832284795889043,
                0.6004297920874263,
                3.1309861789736004
            ]
        },
        {
            "positions": [
                -0.14118256969110002,
                -1.2739177452825676,
                2.228443191617882,
                -0.9174833923018844,
                0.7573775233764275,
                3.14441816115971
            ]
        },
        {
            "positions": [
                -0.20718109405926513,
                -1.3075254300853874,
                2.2926671652717308,
                -0.9517383050148644,
                0.9143252546654288,
                3.1578501433458195
            ]
        },
        {
            "positions": [
                -0.2731796184274301,
                -1.3411331148882069,
                2.356891138925579,
                -0.9859932177278445,
                1.0712729859544299,
                3.171282125531929
            ]
        },
        {
            "positions": [
                -0.33917814279559527,
                -1.3747407996910264,
                2.4211151125794275,
                -1.0202481304408246,
                1.2282207172434312,
                3.1847141077180385
            ]
        }
    ]
}