{
    "goal": {
        "global_pose": {
            "orientation": {
                "w": 0.005598929693374612,
                "x": 0.007748599140229565,
                "y": 0.7110244013736278,
                "z": -0.7031023480610252
            },
            "position": {
                "x": -0.8858502320852131,
                "y": -0.7141253447532654,
                "z": 0.3711530566215515
            }
        },
        "name": "move_to_auspresseinheit_C"
    },
    "id": "RRTstar_move_to_auspresseinheit_C_127",
    "joint_names": [
        "shoulder_pan_joint",
        "shoulder_lift_joint",
        "elbow_joint",
        "wrist_1_joint",
        "wrist_2_joint",
        "wrist_3_joint"
    ],
    "metrics": {
        "cart_traj_len": 0.4923590909962423,
        "distance_elbow_joint": 0.987790846289415,
        "distance_shoulder_lift_joint": 0.31919051345501503,
        "distance_shoulder_pan_joint": 0.256931183451409,
        "distance_wrist_1_joint": 0.6588776854239381,
        "distance_wrist_2_joint": 1.3063467192241398,
        "distance_wrist_3_joint": 0.04549589455482428,
        "smoothness": 4.844609574787718e-16,
        "time": 5.001278056,
        "traj_len": 1.890669945389396,
        "weighted_distance": 2.372941009834941
    },
    "planner": "RRTstar",
    "start": {
        "state": {
            "elbow_joint": 1.7527959577737207,
            "shoulder_lift_joint": -0.9740617694225068,
            "shoulder_pan_joint": -2.967991417825858,
            "wrist_1_joint": -0.759517768980727,
            "wrist_2_joint": 1.7443932448377408,
            "wrist_3_joint": -3.0840537646736568
        }
    },
    "waypoints": [
        {
            "positions": [
                -2.967991417825858,
                -0.9740617694225068,
                1.7527959577737207,
                -0.759517768980727,
                1.7443932448377408,
                -3.0840537646736568
            ]
        },
        {
            "positions": [
                -2.942298299480717,
                -0.9421427180770052,
                1.654016873144779,
                -0.6936300004383331,
                1.6137585729153268,
                -3.0886033541291393
            ]
        },
        {
            "positions": [
                -2.916605181135576,
                -0.9102236667315038,
                1.5552377885158377,
                -0.6277422318959394,
                1.483123900992913,
                -3.0931529435846215
            ]
        },
        {
            "positions": [
                -2.8909120627904352,
                -0.8783046153860022,
                1.4564587038868961,
                -0.5618544633535456,
                1.3524892290704988,
                -3.097702533040104
            ]
        },
        {
            "positions": [
                -2.8652189444452945,
                -0.8463855640405007,
                1.3576796192579546,
                -0.49596669481115174,
                1.221854557148085,
                -3.1022521224955866
            ]
        },
        {
            "positions": [
                -2.8395258261001537,
                -0.8144665126949993,
                1.2589005346290132,
                -0.43007892626875793,
                1.091219885225671,
                -3.1068017119510687
            ]
        },
        {
            "positions": [
                -2.8138327077550125,
                -0.7825474613494978,
                1.1601214500000716,
                -0.3641911577263641,
                0.960585213303257,
                -3.1113513014065513
            ]
        },
        {
            "positions": [
                -2.7881395894098717,
                -0.7506284100039963,
                1.06134236537113,
                -0.29830338918397037,
                0.829950541380843,
                -3.115900890862034
            ]
        },
        {
            "positions": [
                -2.762446471064731,
                -0.7187093586584947,
                0.9625632807421886,
                -0.2324156206415765,
                0.6993158694584289,
                -3.1204504803175164
            ]
        },
        {
            "positions": [
                -2.7367533527195897,
                -0.6867903073129933,
                0.8637841961132471,
                -0.16652785209918264,
                0.5686811975360149,
                -3.1250000697729985
            ]
        },
        {
            "positions": [
                -2.711060234374449,
                -0.6548712559674917,
                0.7650051114843056,
                -0.10064008355678888,
                0.4380465256136009,
                -3.129549659228481
            ]
        }
    ]
}