{
    "goal": {
        "global_pose": {
            "orientation": {
                "w": 0.5084816262002911,
                "x": -0.4908360881923452,
                "y": 0.5182115481033761,
                "z": -0.48164630358495003
            },
            "position": {
                "x": 0.5540239810943604,
                "y": -0.46912469901144505,
                "z": 0.16403168439865112
            }
        },
        "name": "move_to_storage_B"
    },
    "id": "RRTstar_move_to_storage_B_5",
    "joint_names": [
        "shoulder_pan_joint",
        "shoulder_lift_joint",
        "elbow_joint",
        "wrist_1_joint",
        "wrist_2_joint",
        "wrist_3_joint"
    ],
    "metrics": {
        "cart_traj_len": 0.912372892446751,
        "distance_elbow_joint": 0.348343069516555,
        "distance_shoulder_lift_joint": 0.4571367944287008,
        "distance_shoulder_pan_joint": 0.5971083713154733,
        "distance_wrist_1_joint": 2.9840287756223844,
        "distance_wrist_2_joint": 2.7055412228433804,
        "distance_wrist_3_joint": 3.154526405359552,
        "smoothness": 0.1475618745545959,
        "time": 5.0327426719999995,
        "traj_len": 3.2010443044553516,
        "weighted_distance": 4.716493130311006
    },
    "planner": "RRTstar",
    "start": {
        "state": {
            "elbow_joint": 1.664937868594044,
            "shoulder_lift_joint": -0.661644460510453,
            "shoulder_pan_joint": -0.9139846352900073,
            "wrist_1_joint": 2.146753192139373,
            "wrist_2_joint": -2.2341966793290973,
            "wrist_3_joint": 0.005466555786416001
        }
    },
    "waypoints": [
        {
            "positions": [
                -0.9139846352900073,
                -0.661644460510453,
                1.664937868594044,
                2.146753192139373,
                -2.2341966793290973,
                0.005466555786416001
            ]
        },
        {
            "positions": [
                -0.9059562828427532,
                -0.6683647799103741,
                1.670571600368387,
                2.1410435178317027,
                -2.1835934202143426,
                -0.004483866084972984
            ]
        },
        {
            "positions": [
                -0.8837720502731938,
                -0.6986513723358307,
                1.6952904550132755,
                2.0653947429582553,
                -1.9697052601658152,
                0.023971227255373477
            ]
        },
        {
            "positions": [
                -0.8615878177036345,
                -0.7289379647612874,
                1.7200093096581641,
                1.989745968084808,
                -1.7558171001172878,
                0.05242632059571994
            ]
        },
        {
            "positions": [
                -0.8394035851340752,
                -0.7592245571867441,
                1.7447281643030526,
                1.9140971932113608,
                -1.5419289400687604,
                0.08088141393606639
            ]
        },
        {
            "positions": [
                -0.8172193525645158,
                -0.7895111496122007,
                1.7694470189479412,
                1.8384484183379135,
                -1.328040780020233,
                0.10933650727641285
            ]
        },
        {
            "positions": [
                -0.7950351199949565,
                -0.8197977420376573,
                1.7941658735928296,
                1.7627996434644662,
                -1.1141526199717056,
                0.13779160061675932
            ]
        },
        {
            "positions": [
                -0.7728508874253972,
                -0.8500843344631139,
                1.8188847282377183,
                1.687150868591019,
                -0.9002644599231782,
                0.16624669395710578
            ]
        },
        {
            "positions": [
                -0.7506666548558378,
                -0.8803709268885707,
                1.8436035828826067,
                1.6115020937175717,
                -0.6863762998746508,
                0.19470178729745224
            ]
        },
        {
            "positions": [
                -0.7284824222862785,
                -0.9106575193140273,
                1.8683224375274952,
                1.5358533188441243,
                -0.47248813982612337,
                0.2231568806377987
            ]
        },
        {
            "positions": [
                -0.7062981897167191,
                -0.9409441117394839,
                1.8930412921723838,
                1.460204543970677,
                -0.25859997977759597,
                0.25161197397814516
            ]
        },
        {
            "positions": [
                -0.7292053618192006,
                -0.9514051201629938,
                1.9001142125216905,
                1.32505865412046,
                -0.21566206664277965,
                0.4215225706502066
            ]
        },
        {
            "positions": [
                -0.7521125339216821,
                -0.9618661285865039,
                1.9071871328709973,
                1.1899127642702432,
                -0.17272415350796333,
                0.5914331673222681
            ]
        },
        {
            "positions": [
                -0.7750197060241635,
                -0.9723271370100138,
                1.9142600532203042,
                1.0547668744200263,
                -0.129786240373147,
                0.7613437639943296
            ]
        },
        {
            "positions": [
                -0.797926878126645,
                -0.9827881454335239,
                1.921332973569611,
                0.9196209845698093,
                -0.08684832723833072,
                0.931254360666391
            ]
        },
        {
            "positions": [
                -0.8208340502291265,
                -0.9932491538570338,
                1.9284058939189177,
                0.7844750947195923,
                -0.0439104141035144,
                1.1011649573384523
            ]
        },
        {
            "positions": [
                -0.843741222331608,
                -1.0037101622805438,
                1.9354788142682244,
                0.6493292048693754,
                -0.0009725009686980535,
                1.271075554010514
            ]
        },
        {
            "positions": [
                -0.8666483944340895,
                -1.014171170704054,
                1.9425517346175312,
                0.5141833150191586,
                0.04196541216611821,
                1.4409861506825754
            ]
        },
        {
            "positions": [
                -0.8895555665365709,
                -1.0246321791275639,
                1.949624654966838,
                0.3790374251689417,
                0.08490332530093453,
                1.6108967473546367
            ]
        },
        {
            "positions": [
                -0.9124627386390525,
                -1.0350931875510738,
                1.9566975753161449,
                0.24389153531872454,
                0.12784123843575085,
                1.780807344026698
            ]
        },
        {
            "positions": [
                -0.9353699107415339,
                -1.0455541959745838,
                1.9637704956654516,
                0.10874564546850762,
                0.17077915157056717,
                1.9507179406987598
            ]
        },
        {
            "positions": [
                -0.9582770828440154,
                -1.056015204398094,
                1.9708434160147583,
                -0.026400244381709292,
                0.21371706470538349,
                2.120628537370821
            ]
        },
        {
            "positions": [
                -0.9811842549464969,
                -1.0664762128216039,
                1.977916336364065,
                -0.1615461342319262,
                0.25665497784019986,
                2.290539134042883
            ]
        },
        {
            "positions": [
                -1.0040914270489782,
                -1.0769372212451138,
                1.9849892567133718,
                -0.2966920240821429,
                0.29959289097501607,
                2.4604497307149438
            ]
        },
        {
            "positions": [
                -1.0269985991514599,
                -1.0873982296686238,
                1.9920621770626785,
                -0.4318379139323598,
                0.3425308041098324,
                2.6303603273870055
            ]
        },
        {
            "positions": [
                -1.0499057712539412,
                -1.0978592380921337,
                1.9991350974119855,
                -0.566983803782577,
                0.3854687172446487,
                2.800270924059067
            ]
        },
        {
            "positions": [
                -1.0728129433564226,
                -1.1083202465156439,
                2.006208017761292,
                -0.7021296936327936,
                0.428406630379465,
                2.9701815207311286
            ]
        },
        {
            "positions": [
                -1.0957201154589042,
                -1.1187812549391538,
                2.013280938110599,
                -0.837275583483011,
                0.4713445435142814,
                3.14009211740319
            ]
        }
    ]
}