{
    "goal": {
        "global_pose": {
            "orientation": {
                "w": -0.4816463035849501,
                "x": 0.5182115481033762,
                "y": 0.4908360881923453,
                "z": -0.5084816262002911
            },
            "position": {
                "x": -0.8240239810943604,
                "y": -0.300875300988555,
                "z": 0.16403168439865112
            }
        },
        "name": "move_to_storage_C"
    },
    "id": "RRTstar_move_to_storage_C_83",
    "joint_names": [
        "shoulder_pan_joint",
        "shoulder_lift_joint",
        "elbow_joint",
        "wrist_1_joint",
        "wrist_2_joint",
        "wrist_3_joint"
    ],
    "metrics": {
        "cart_traj_len": 0.5763664205058887,
        "distance_elbow_joint": 0.25616597953252884,
        "distance_shoulder_lift_joint": 0.19017764659967307,
        "distance_shoulder_pan_joint": 0.4937563568220136,
        "distance_wrist_1_joint": 0.06465129416616033,
        "distance_wrist_2_joint": 1.0677705302793283,
        "distance_wrist_3_joint": 0.059944136389923575,
        "smoothness": 0.0,
        "time": 5.001983515,
        "traj_len": 1.460296525980127,
        "weighted_distance": 1.839776084477392
    },
    "planner": "RRTstar",
    "start": {
        "state": {
            "elbow_joint": 2.010868314990456,
            "shoulder_lift_joint": -1.1634956873337592,
            "shoulder_pan_joint": -2.4736205022346125,
            "wrist_1_joint": -0.8367026794202681,
            "wrist_2_joint": 0.6746043897044499,
            "wrist_3_joint": -3.1496632123970403
        }
    },
    "waypoints": [
        {
            "positions": [
                -2.4736205022346125,
                -1.1634956873337592,
                2.010868314990456,
                -0.8367026794202681,
                0.6746043897044499,
                -3.1496632123970403
            ]
        },
        {
            "positions": [
                -2.555913228371615,
                -1.1317994129004803,
                1.9681739850683677,
                -0.8259274637259081,
                0.8525661447510047,
                -3.13967252299872
            ]
        },
        {
            "positions": [
                -2.638205954508617,
                -1.1001031384672015,
                1.9254796551462796,
                -0.815152248031548,
                1.0305278997975593,
                -3.129681833600399
            ]
        },
        {
            "positions": [
                -2.720498680645619,
                -1.0684068640339226,
                1.8827853252241913,
                -0.8043770323371879,
                1.2084896548441142,
                -3.1196911442020783
            ]
        },
        {
            "positions": [
                -2.8027914067826214,
                -1.0367105896006439,
                1.8400909953021032,
                -0.7936018166428279,
                1.3864514098906686,
                -3.109700454803758
            ]
        },
        {
            "positions": [
                -2.8850841329196237,
                -1.005014315167365,
                1.797396665380015,
                -0.7828266009484678,
                1.5644131649372235,
                -3.0997097654054375
            ]
        },
        {
            "positions": [
                -2.967376859056626,
                -0.9733180407340861,
                1.754702335457927,
                -0.7720513852541078,
                1.7423749199837784,
                -3.0897190760071167
            ]
        }
    ]
}