{
    "goal": {
        "global_pose": {
            "orientation": {
                "w": 0.5084816217422485,
                "x": -0.49083608388900757,
                "y": 0.5182115435600281,
                "z": -0.4816462993621826
            },
            "position": {
                "x": 0.5540239810943604,
                "y": 0.030875300988554955,
                "z": 0.16403168439865112
            }
        },
        "name": "move_to_storage_A"
    },
    "id": "RRTstar_move_to_storage_A_13",
    "joint_names": [
        "shoulder_pan_joint",
        "shoulder_lift_joint",
        "elbow_joint",
        "wrist_1_joint",
        "wrist_2_joint",
        "wrist_3_joint"
    ],
    "metrics": {
        "cart_traj_len": 0.3533681912367725,
        "distance_elbow_joint": 0.44901549998874235,
        "distance_shoulder_lift_joint": 0.23379729823507733,
        "distance_shoulder_pan_joint": 0.4622571599334416,
        "distance_wrist_1_joint": 0.2393934044201037,
        "distance_wrist_2_joint": 1.098231141528426,
        "distance_wrist_3_joint": 0.08845987700705571,
        "smoothness": 2.2204460668324854e-16,
        "time": 5.0611562910000005,
        "traj_len": 1.6034819553436972,
        "weighted_distance": 2.021311129211801
    },
    "planner": "RRTstar",
    "start": {
        "state": {
            "elbow_joint": 1.971548259319323,
            "shoulder_lift_joint": -1.1394851275133948,
            "shoulder_pan_joint": 0.1228115487234821,
            "wrist_1_joint": -0.7804723859257726,
            "wrist_2_joint": 0.12958671773740124,
            "wrist_3_joint": -3.192489227718131
        }
    },
    "waypoints": [
        {
            "positions": [
                0.1228115487234821,
                -1.1394851275133948,
                1.971548259319323,
                -0.7804723859257726,
                0.12958671773740124,
                -3.192489227718131
            ]
        },
        {
            "positions": [
                0.05677481159013331,
                -1.1728847415469772,
                2.035693330746286,
                -0.8146714437000732,
                0.2864768808128907,
                -3.179852102431409
            ]
        },
        {
            "positions": [
                -0.009261925543215477,
                -1.2062843555805598,
                2.0998384021732495,
                -0.8488705014743737,
                0.4433670438883801,
                -3.1672149771446865
            ]
        },
        {
            "positions": [
                -0.07529866267656427,
                -1.2396839696141422,
                2.1639834736002124,
                -0.8830695592486741,
                0.6002572069638695,
                -3.1545778518579644
            ]
        },
        {
            "positions": [
                -0.14133539980991305,
                -1.2730835836477248,
                2.2281285450271757,
                -0.9172686170229747,
                0.757147370039359,
                -3.1419407265712422
            ]
        },
        {
            "positions": [
                -0.2073721369432619,
                -1.3064831976813072,
                2.292273616454139,
                -0.9514676747972752,
                0.9140375331148485,
                -3.12930360128452
            ]
        },
        {
            "positions": [
                -0.27340887407661063,
                -1.3398828117148898,
                2.356418687881102,
                -0.9856667325715758,
                1.0709276961903378,
                -3.1166664759977976
            ]
        },
        {
            "positions": [
                -0.3394456112099595,
                -1.3732824257484721,
                2.4205637593080653,
                -1.0198657903458763,
                1.2278178592658273,
                -3.1040293507110754
            ]
        }
    ]
}{
    "goal": {
        "global_pose": {
            "orientation": {
                "w": 0.5084816217422485,
                "x": -0.49083608388900757,
                "y": 0.5182115435600281,
                "z": -0.4816462993621826
            },
            "position": {
                "x": 0.5540239810943604,
                "y": 0.030875300988554955,
                "z": 0.16403168439865112
            }
        },
        "name": "move_to_storage_A"
    },
    "id": "RRTstar_move_to_storage_A_13",
    "joint_names": [
        "shoulder_pan_joint",
        "shoulder_lift_joint",
        "elbow_joint",
        "wrist_1_joint",
        "wrist_2_joint",
        "wrist_3_joint"
    ],
    "metrics": {
        "cart_traj_len": 0.35335684548488794,
        "distance_elbow_joint": 0.44836300952404873,
        "distance_shoulder_lift_joint": 0.236306917694731,
        "distance_shoulder_pan_joint": 0.4629850021395815,
        "distance_wrist_1_joint": 0.23494121610952923,
        "distance_wrist_2_joint": 1.095955544366473,
        "distance_wrist_3_joint": 0.08783778516585627,
        "smoothness": 4.440892098500626e-16,
        "time": 5.003221453999999,
        "traj_len": 1.6019954665978988,
        "weighted_distance": 2.0181580230021474
    },
    "planner": "RRTstar",
    "start": {
        "state": {
            "elbow_joint": 1.97154746011099,
            "shoulder_lift_joint": -1.13948474672311,
            "shoulder_pan_joint": 0.12281154466712228,
            "wrist_1_joint": -0.7804688027058302,
            "wrist_2_joint": 0.12958655903071145,
            "wrist_3_joint": 3.0906928834467795
        }
    },
    "waypoints": [
        {
            "positions": [
                0.12281154466712228,
                -1.13948474672311,
                1.97154746011099,
                -0.7804688027058302,
                0.12958655903071145,
                3.0906928834467795
            ]
        },
        {
            "positions": [
                0.056670830075753506,
                -1.1732428778223571,
                2.0355993186144254,
                -0.8140318335786201,
                0.28615163679735045,
                3.1032411384704734
            ]
        },
        {
            "positions": [
                -0.00946988451561527,
                -1.2070010089216046,
                2.099651177117861,
                -0.84759486445141,
                0.4427167145639894,
                3.115789393494167
            ]
        },
        {
            "positions": [
                -0.07561059910698405,
                -1.2407591400208517,
                2.1637030356212965,
                -0.8811578953241999,
                0.5992817923306284,
                3.128337648517861
            ]
        },
        {
            "positions": [
                -0.1417513136983528,
                -1.2745172711200992,
                2.227754894124732,
                -0.9147209261969897,
                0.7558468700972675,
                3.1408859035415544
            ]
        },
        {
            "positions": [
                -0.20789202828972164,
                -1.3082754022193464,
                2.2918067526281676,
                -0.9482839570697796,
                0.9124119478639066,
                3.1534341585652483
            ]
        },
        {
            "positions": [
                -0.27403274288109036,
                -1.3420335333185935,
                2.355858611131603,
                -0.9818469879425695,
                1.0689770256305453,
                3.165982413588942
            ]
        },
        {
            "positions": [
                -0.3401734574724592,
                -1.375791664417841,
                2.4199104696350386,
                -1.0154100188153594,
                1.2255421033971845,
                3.178530668612636
            ]
        }
    ]
}{
    "goal": {
        "global_pose": {
            "orientation": {
                "w": 0.5084816217422485,
                "x": -0.49083608388900757,
                "y": 0.5182115435600281,
                "z": -0.4816462993621826
            },
            "position": {
                "x": 0.5540239810943604,
                "y": 0.030875300988554955,
                "z": 0.16403168439865112
            }
        },
        "name": "move_to_storage_A"
    },
    "id": "RRTstar_move_to_storage_A_13",
    "joint_names": [
        "shoulder_pan_joint",
        "shoulder_lift_joint",
        "elbow_joint",
        "wrist_1_joint",
        "wrist_2_joint",
        "wrist_3_joint"
    ],
    "metrics": {
        "cart_traj_len": 0.35271028678856187,
        "distance_elbow_joint": 0.4519331990586717,
        "distance_shoulder_lift_joint": 0.23461525664052751,
        "distance_shoulder_pan_joint": 0.46053877503082796,
        "distance_wrist_1_joint": 0.24962870602749376,
        "distance_wrist_2_joint": 1.101486461186377,
        "distance_wrist_3_joint": 0.08893518792752086,
        "smoothness": 6.661338165333112e-16,
        "time": 5.0014348790000005,
        "traj_len": 1.6084581392972024,
        "weighted_distance": 2.028823089611396
    },
    "planner": "RRTstar",
    "start": {
        "state": {
            "elbow_joint": 1.9715472970024885,
            "shoulder_lift_joint": -1.1394870060712896,
            "shoulder_pan_joint": 0.12281152778156021,
            "wrist_1_joint": -0.780463741449964,
            "wrist_2_joint": 0.12958659822042276,
            "wrist_3_joint": 3.090690232415272
        }
    },
    "waypoints": [
        {
            "positions": [
                0.12281152778156021,
                -1.1394870060712896,
                1.9715472970024885,
                -0.780463741449964,
                0.12958659822042276,
                3.090690232415272
            ]
        },
        {
            "positions": [
                0.05702027420572765,
                -1.1730034713056507,
                2.036109182582299,
                -0.8161249851681774,
                0.28694180696133376,
                3.1033952592620606
            ]
        },
        {
            "positions": [
                -0.008770979370104903,
                -1.2065199365400117,
                2.100671068162109,
                -0.8517862288863908,
                0.4442970157022448,
                3.1161002861088494
            ]
        },
        {
            "positions": [
                -0.07456223294593747,
                -1.2400364017743728,
                2.1652329537419193,
                -0.8874474726046042,
                0.6016522244431558,
                3.128805312955638
            ]
        },
        {
            "positions": [
                -0.14035348652177002,
                -1.273552867008734,
                2.2297948393217295,
                -0.9231087163228175,
                0.7590074331840667,
                3.1415103398024264
            ]
        },
        {
            "positions": [
                -0.2061447400976026,
                -1.307069332243095,
                2.2943567249015397,
                -0.958769960041031,
                0.9163626419249777,
                3.154215366649215
            ]
        },
        {
            "positions": [
                -0.27193599367343513,
                -1.340585797477456,
                2.35891861048135,
                -0.9944312037592443,
                1.0737178506658889,
                3.166920393496004
            ]
        },
        {
            "positions": [
                -0.3377272472492677,
                -1.3741022627118171,
                2.4234804960611602,
                -1.0300924474774578,
                1.2310730594067998,
                3.1796254203427927
            ]
        }
    ]
}