{
    "goal": {
        "global_pose": {
            "orientation": {
                "w": -0.4816463035849501,
                "x": 0.5182115481033762,
                "y": 0.4908360881923453,
                "z": -0.5084816262002911
            },
            "position": {
                "x": -0.8240239810943604,
                "y": -0.300875300988555,
                "z": 0.16403168439865112
            }
        },
        "name": "move_to_storage_C"
    },
    "id": "RRTstar_move_to_storage_C_70",
    "joint_names": [
        "shoulder_pan_joint",
        "shoulder_lift_joint",
        "elbow_joint",
        "wrist_1_joint",
        "wrist_2_joint",
        "wrist_3_joint"
    ],
    "metrics": {
        "cart_traj_len": 0.5772945350671808,
        "distance_elbow_joint": 0.2564125258441483,
        "distance_shoulder_lift_joint": 0.19012690302832191,
        "distance_shoulder_pan_joint": 0.49573226969027884,
        "distance_wrist_1_joint": 0.06946142480852546,
        "distance_wrist_2_joint": 1.0640018268721518,
        "distance_wrist_3_joint": 0.05703567441449264,
        "smoothness": 0.0,
        "time": 5.001215431,
        "traj_len": 1.460400843829501,
        "weighted_distance": 1.8385606395133072
    },
    "planner": "RRTstar",
    "start": {
        "state": {
            "elbow_joint": 2.010868314990456,
            "shoulder_lift_joint": -1.1634956873337592,
            "shoulder_pan_joint": -2.4736205022346125,
            "wrist_1_joint": -0.8367026794202681,
            "wrist_2_joint": 0.6746043897044499,
            "wrist_3_joint": -3.1496632123970403
        }
    },
    "waypoints": [
        {
            "positions": [
                -2.4736205022346125,
                -1.1634956873337592,
                2.010868314990456,
                -0.8367026794202681,
                0.6746043897044499,
                -3.1496632123970403
            ]
        },
        {
            "positions": [
                -2.5562425471829924,
                -1.1318078701623722,
                1.968132894016431,
                -0.8251257752855139,
                0.8519380275164752,
                -3.1401572666612916
            ]
        },
        {
            "positions": [
                -2.6388645921313723,
                -1.1001200529909851,
                1.9253974730424064,
                -0.8135488711507596,
                1.0292716653285006,
                -3.130651320925543
            ]
        },
        {
            "positions": [
                -2.721486637079752,
                -1.0684322358195981,
                1.8826620520683817,
                -0.8019719670160054,
                1.2066053031405257,
                -3.121145375189794
            ]
        },
        {
            "positions": [
                -2.8041086820281316,
                -1.0367444186482113,
                1.839926631094357,
                -0.7903950628812512,
                1.383938940952551,
                -3.111639429454045
            ]
        },
        {
            "positions": [
                -2.8867307269765115,
                -1.0050566014768243,
                1.7971912101203322,
                -0.7788181587464968,
                1.5612725787645765,
                -3.1021334837182963
            ]
        },
        {
            "positions": [
                -2.9693527719248913,
                -0.9733687843054373,
                1.7544557891463075,
                -0.7672412546117426,
                1.7386062165766016,
                -3.0926275379825476
            ]
        }
    ]
}