{
    "goal": {
        "global_pose": {
            "orientation": {
                "w": 0.7047431468963623,
                "x": -0.7094548344612122,
                "y": 0.0024358443915843964,
                "z": -0.0022348060738295317
            },
            "position": {
                "x": 0.6094750761985779,
                "y": 0.3671506643295288,
                "z": 0.19426114857196808
            }
        },
        "name": "move_to_magneteinheit_A"
    },
    "id": "RRTstar_move_to_magneteinheit_A_43",
    "joint_names": [
        "shoulder_pan_joint",
        "shoulder_lift_joint",
        "elbow_joint",
        "wrist_1_joint",
        "wrist_2_joint",
        "wrist_3_joint"
    ],
    "metrics": {
        "cart_traj_len": 3.724382835224803,
        "distance_elbow_joint": 3.9096629676529675,
        "distance_shoulder_lift_joint": 0.40858144134939556,
        "distance_shoulder_pan_joint": 2.8584466403075472,
        "distance_wrist_1_joint": 0.6872791501683642,
        "distance_wrist_2_joint": 1.7074172167627981,
        "distance_wrist_3_joint": 3.557973325248103,
        "smoothness": 0.05535768001712295,
        "time": 5.023783492,
        "traj_len": 3.6234459760687985,
        "weighted_distance": 4.75815129634573
    },
    "planner": "RRTstar",
    "start": {
        "state": {
            "elbow_joint": -1.9196185241190666,
            "shoulder_lift_joint": -1.2443396400964142,
            "shoulder_pan_joint": 2.6996025414629847,
            "wrist_1_joint": -1.5485510000780065,
            "wrist_2_joint": -1.5709468930060704,
            "wrist_3_joint": 0.4420197071253992
        }
    },
    "waypoints": [
        {
            "positions": [
                2.6996025414629847,
                -1.2443396400964142,
                -1.9196185241190666,
                -1.5485510000780065,
                -1.5709468930060704,
                0.4420197071253992
            ]
        },
        {
            "positions": [
                2.576102351308497,
                -1.2329048392884965,
                -1.774621622026965,
                -1.5394538513013858,
                -1.5466066401897602,
                0.37239465602302096
            ]
        },
        {
            "positions": [
                2.4526021611540094,
                -1.2214700384805788,
                -1.6296247199348635,
                -1.530356702524765,
                -1.52226638737345,
                0.30276960492064275
            ]
        },
        {
            "positions": [
                2.3291019709995218,
                -1.210035237672661,
                -1.4846278178427619,
                -1.5212595537481446,
                -1.4979261345571402,
                0.23314455381826454
            ]
        },
        {
            "positions": [
                2.205601780845034,
                -1.1986004368647432,
                -1.3396309157506603,
                -1.5121624049715239,
                -1.47358588174083,
                0.16351950271588628
            ]
        },
        {
            "positions": [
                2.082101590690547,
                -1.1871656360568255,
                -1.1946340136585587,
                -1.5030652561949032,
                -1.44924562892452,
                0.09389445161350812
            ]
        },
        {
            "positions": [
                1.9586014005360592,
                -1.1757308352489078,
                -1.0496371115664571,
                -1.4939681074182825,
                -1.4249053761082098,
                0.024269400511129913
            ]
        },
        {
            "positions": [
                1.8351012103815716,
                -1.16429603444099,
                -0.9046402094743555,
                -1.4848709586416617,
                -1.4005651232918996,
                -0.0453556505912483
            ]
        },
        {
            "positions": [
                1.711601020227084,
                -1.1528612336330724,
                -0.7596433073822539,
                -1.475773809865041,
                -1.3762248704755895,
                -0.11498070169362662
            ]
        },
        {
            "positions": [
                1.588100830072596,
                -1.1414264328251547,
                -0.6146464052901524,
                -1.4666766610884205,
                -1.3518846176592796,
                -0.18460575279600477
            ]
        },
        {
            "positions": [
                1.4646006399181086,
                -1.129991632017237,
                -0.46964950319805077,
                -1.4575795123117998,
                -1.3275443648429694,
                -0.25423080389838293
            ]
        },
        {
            "positions": [
                1.341100449763621,
                -1.118556831209319,
                -0.3246526011059492,
                -1.4484823635351791,
                -1.3032041120266593,
                -0.3238558550007612
            ]
        },
        {
            "positions": [
                1.2176002596091335,
                -1.1071220304014013,
                -0.1796556990138478,
                -1.4393852147585584,
                -1.2788638592103492,
                -0.39348090610313935
            ]
        },
        {
            "positions": [
                1.0941000694546457,
                -1.0956872295934836,
                -0.034658796921746005,
                -1.4302880659819377,
                -1.254523606394039,
                -0.4631059572055177
            ]
        },
        {
            "positions": [
                0.9705998793001582,
                -1.084252428785566,
                0.11033810517035558,
                -1.4211909172053172,
                -1.2301833535777291,
                -0.5327310083078958
            ]
        },
        {
            "positions": [
                0.8470996891456706,
                -1.0728176279776482,
                0.25533500726245695,
                -1.4120937684286965,
                -1.205843100761419,
                -0.602356059410274
            ]
        },
        {
            "positions": [
                0.7235994989911829,
                -1.0613828271697305,
                0.40033190935455876,
                -1.4029966196520758,
                -1.1815028479451088,
                -0.6719811105126524
            ]
        },
        {
            "positions": [
                0.6000993088366955,
                -1.0499480263618128,
                0.5453288114466601,
                -1.393899470875455,
                -1.1571625951287987,
                -0.7416061616150303
            ]
        },
        {
            "positions": [
                0.4765991186822074,
                -1.0385132255538951,
                0.6903257135387619,
                -1.3848023220988344,
                -1.1328223423124886,
                -0.8112312127174087
            ]
        },
        {
            "positions": [
                0.3530989285277202,
                -1.0270784247459772,
                0.8353226156308637,
                -1.3757051733222139,
                -1.1084820894961784,
                -0.8808562638197869
            ]
        },
        {
            "positions": [
                0.22959873837323252,
                -1.0156436239380595,
                0.9803195177229651,
                -1.3666080245455932,
                -1.0841418366798685,
                -0.950481314922165
            ]
        },
        {
            "positions": [
                0.10609854821874487,
                -1.0042088231301418,
                1.125316419815067,
                -1.3575108757689724,
                -1.0598015838635582,
                -1.0201063660245433
            ]
        },
        {
            "positions": [
                -0.017401641935742944,
                -0.9927740223222241,
                1.2703133219071683,
                -1.3484137269923517,
                -1.0354613310472482,
                -1.0897314171269215
            ]
        },
        {
            "positions": [
                -0.005614770526674693,
                -1.0058586742868245,
                1.3302909153760627,
                -1.3078185705687926,
                -0.9378003598135836,
                -1.2585832672099033
            ]
        },
        {
            "positions": [
                0.006172100882393557,
                -1.0189433262514251,
                1.390268508844957,
                -1.2672234141452334,
                -0.8401393885799189,
                -1.4274351172928852
            ]
        },
        {
            "positions": [
                0.01795897229146181,
                -1.0320279782160255,
                1.4502461023138513,
                -1.2266282577216745,
                -0.7424784173462542,
                -1.596286967375867
            ]
        },
        {
            "positions": [
                0.02974584370053006,
                -1.045112630180626,
                1.5102236957827455,
                -1.1860331012981153,
                -0.6448174461125896,
                -1.765138817458849
            ]
        },
        {
            "positions": [
                0.041532715109598314,
                -1.0581972821452263,
                1.57020128925164,
                -1.1454379448745562,
                -0.5471564748789248,
                -1.9339906675418308
            ]
        },
        {
            "positions": [
                0.05331958651866656,
                -1.0712819341098268,
                1.6301788827205344,
                -1.104842788450997,
                -0.44949550364526025,
                -2.1028425176248127
            ]
        },
        {
            "positions": [
                0.06510645792773481,
                -1.0843665860744274,
                1.6901564761894285,
                -1.0642476320274379,
                -0.35183453241159557,
                -2.2716943677077945
            ]
        },
        {
            "positions": [
                0.07689332933680307,
                -1.0974512380390278,
                1.7501340696583227,
                -1.0236524756038787,
                -0.254173561177931,
                -2.4405462177907764
            ]
        },
        {
            "positions": [
                0.08868020074587132,
                -1.1105358900036282,
                1.8101116631272172,
                -0.9830573191803197,
                -0.1565125899442663,
                -2.6093980678737583
            ]
        },
        {
            "positions": [
                0.10046707215493958,
                -1.1236205419682288,
                1.8700892565961116,
                -0.9424621627567605,
                -0.058851618710601517,
                -2.77824991795674
            ]
        },
        {
            "positions": [
                0.11225394356400781,
                -1.1367051939328292,
                1.930066850065006,
                -0.9018670063332015,
                0.038809352523063056,
                -2.947101768039722
            ]
        },
        {
            "positions": [
                0.12404081497307608,
                -1.1497898458974296,
                1.9900444435339002,
                -0.8612718499096423,
                0.13647032375672766,
                -3.115953618122704
            ]
        }
    ]
}