{
    "goal": {
        "global_pose": {
            "orientation": {
                "w": 0.7047431493862688,
                "x": -0.7094548369677653,
                "y": 0.0024358444001904,
                "z": -0.0022348060817251984
            },
            "position": {
                "x": -0.39052492380142206,
                "y": 0.3671506643295288,
                "z": 0.19426114857196808
            }
        },
        "name": "move_to_magneteinheit_D"
    },
    "id": "RRTstar_move_to_magneteinheit_D_85",
    "joint_names": [
        "shoulder_pan_joint",
        "shoulder_lift_joint",
        "elbow_joint",
        "wrist_1_joint",
        "wrist_2_joint",
        "wrist_3_joint"
    ],
    "metrics": {
        "cart_traj_len": 4.5265860697133835,
        "distance_elbow_joint": 3.1082873495690078,
        "distance_shoulder_lift_joint": 1.1899396449682595,
        "distance_shoulder_pan_joint": 2.7623404515995786,
        "distance_wrist_1_joint": 2.196165345831378,
        "distance_wrist_2_joint": 0.6280732257280937,
        "distance_wrist_3_joint": 0.375930459376304,
        "smoothness": 0.33742807161861643,
        "time": 5.090372764,
        "traj_len": 3.20323843587589,
        "weighted_distance": 3.7197897746223103
    },
    "planner": "RRTstar",
    "start": {
        "state": {
            "elbow_joint": 0.749534889911806,
            "shoulder_lift_joint": -0.6476975780787326,
            "shoulder_pan_joint": -2.711696901376241,
            "wrist_1_joint": -0.07506478083263063,
            "wrist_2_joint": 0.43296659715538205,
            "wrist_3_joint": -3.14703540197715
        }
    },
    "waypoints": [
        {
            "positions": [
                -2.711696901376241,
                -0.6476975780787326,
                0.749534889911806,
                -0.07506478083263063,
                0.43296659715538205,
                -3.14703540197715
            ]
        },
        {
            "positions": [
                -2.7375611737113656,
                -0.7370518211532473,
                0.7338872326868322,
                -0.057713459062813666,
                0.40740755339253976,
                -3.229936839019728
            ]
        },
        {
            "positions": [
                -2.76342544604649,
                -0.826406064227762,
                0.7182395754618585,
                -0.0403621372929967,
                0.3818485096296975,
                -3.3128382760623056
            ]
        },
        {
            "positions": [
                -2.6468435541869098,
                -0.8703401623585301,
                0.6141782305151259,
                -0.12737571957873522,
                0.3580750691040539,
                -3.3039411330159627
            ]
        },
        {
            "positions": [
                -2.5302616623273297,
                -0.9142742604892982,
                0.5101168855683933,
                -0.21438930186447372,
                0.33430162857841034,
                -3.2950439899696202
            ]
        },
        {
            "positions": [
                -2.4136797704677493,
                -0.9582083586200661,
                0.40605554062166077,
                -0.3014028841502122,
                0.3105281880527667,
                -3.2861468469232773
            ]
        },
        {
            "positions": [
                -2.2970978786081693,
                -1.0021424567508341,
                0.3019941956749282,
                -0.38841646643595074,
                0.28675474752712315,
                -3.277249703876935
            ]
        },
        {
            "positions": [
                -2.180515986748589,
                -1.0460765548816022,
                0.19793285072819566,
                -0.47543004872168926,
                0.26298130700147954,
                -3.268352560830592
            ]
        },
        {
            "positions": [
                -2.0639340948890084,
                -1.0900106530123703,
                0.09387150578146308,
                -0.5624436310074277,
                0.23920786647583595,
                -3.2594554177842494
            ]
        },
        {
            "positions": [
                -1.9473522030294284,
                -1.1339447511431384,
                -0.010189839165269499,
                -0.6494572132931662,
                0.21543442595019233,
                -3.2505582747379065
            ]
        },
        {
            "positions": [
                -1.830770311169848,
                -1.1778788492739065,
                -0.11425118411200208,
                -0.7364707955789047,
                0.19166098542454874,
                -3.241661131691564
            ]
        },
        {
            "positions": [
                -1.7141884193102677,
                -1.2218129474046746,
                -0.21831252905873477,
                -0.8234843778646435,
                0.16788754489890512,
                -3.232763988645221
            ]
        },
        {
            "positions": [
                -1.5976065274506874,
                -1.2657470455354427,
                -0.32237387400546713,
                -0.9104979601503818,
                0.14411410437326155,
                -3.2238668455988786
            ]
        },
        {
            "positions": [
                -1.4810246355911072,
                -1.3096811436662108,
                -0.4264352189521998,
                -0.9975115424361203,
                0.12034066384761793,
                -3.2149697025525357
            ]
        },
        {
            "positions": [
                -1.364442743731527,
                -1.3536152417969787,
                -0.5304965638989323,
                -1.0845251247218588,
                0.09656722332197437,
                -3.2060725595061927
            ]
        },
        {
            "positions": [
                -1.2478608518719465,
                -1.397549339927747,
                -0.634557908845665,
                -1.1715387070075975,
                0.0727937827963307,
                -3.1971754164598503
            ]
        },
        {
            "positions": [
                -1.1312789600123665,
                -1.4414834380585149,
                -0.7386192537923975,
                -1.2585522892933358,
                0.049020342270687134,
                -3.1882782734135073
            ]
        },
        {
            "positions": [
                -1.0146970681527863,
                -1.4854175361892827,
                -0.8426805987391299,
                -1.3455658715790744,
                0.02524690174504357,
                -3.179381130367165
            ]
        },
        {
            "positions": [
                -0.8981151762932058,
                -1.529351634320051,
                -0.9467419436858626,
                -1.432579453864813,
                0.001473461219399952,
                -3.170483987320822
            ]
        },
        {
            "positions": [
                -0.7815332844336256,
                -1.573285732450819,
                -1.0508032886325953,
                -1.5195930361505514,
                -0.022299979306243667,
                -3.1615868442744794
            ]
        },
        {
            "positions": [
                -0.6649513925740451,
                -1.6172198305815872,
                -1.154864633579328,
                -1.6066066184362902,
                -0.046073419831887286,
                -3.1526897012281365
            ]
        },
        {
            "positions": [
                -0.5483695007144651,
                -1.6611539287123551,
                -1.2589259785260605,
                -1.6936202007220285,
                -0.06984686035753085,
                -3.143792558181794
            ]
        },
        {
            "positions": [
                -0.43178760885488465,
                -1.7050880268431232,
                -1.3629873234727927,
                -1.780633783007767,
                -0.09362030088317441,
                -3.134895415135451
            ]
        },
        {
            "positions": [
                -0.3152057169953042,
                -1.7490221249738913,
                -1.4670486684195254,
                -1.8676473652935055,
                -0.11739374140881809,
                -3.1259982720891086
            ]
        },
        {
            "positions": [
                -0.1986238251357243,
                -1.7929562231046594,
                -1.5711100133662579,
                -1.954660947579244,
                -0.14116718193446168,
                -3.1171011290427657
            ]
        },
        {
            "positions": [
                -0.15896131699039756,
                -1.7898362382835753,
                -1.7129578363038664,
                -2.016948881176515,
                -0.16532995543009427,
                -3.1113657539740602
            ]
        },
        {
            "positions": [
                -0.1192988088450708,
                -1.786716253462491,
                -1.854805659241475,
                -2.0792368147737865,
                -0.18949272892572683,
                -3.1056303789053548
            ]
        },
        {
            "positions": [
                -0.15254144370902611,
                -1.7674957383124088,
                -2.1067790594493383,
                -2.140530827179264,
                -0.18668577910223438,
                -3.1070902229724533
            ]
        },
        {
            "positions": [
                -0.18578407857298143,
                -1.7482752231623266,
                -2.358752459657202,
                -2.2018248395847406,
                -0.18387882927874194,
                -3.1085500670395523
            ]
        }
    ]
}