{
    "goal": {
        "global_pose": {
            "orientation": {
                "w": -0.4816463035849501,
                "x": 0.5182115481033762,
                "y": 0.4908360881923453,
                "z": -0.5084816262002911
            },
            "position": {
                "x": -0.8240239810943604,
                "y": 0.19912469901144506,
                "z": 0.16403168439865112
            }
        },
        "name": "move_to_storage_D"
    },
    "id": "RRTstar_move_to_storage_D_71",
    "joint_names": [
        "shoulder_pan_joint",
        "shoulder_lift_joint",
        "elbow_joint",
        "wrist_1_joint",
        "wrist_2_joint",
        "wrist_3_joint"
    ],
    "metrics": {
        "cart_traj_len": 3.638484816533728,
        "distance_elbow_joint": 4.2066666329118885,
        "distance_shoulder_lift_joint": 1.2664026200065392,
        "distance_shoulder_pan_joint": 2.813247917208371,
        "distance_wrist_1_joint": 2.2618476370578717,
        "distance_wrist_2_joint": 0.8712969402475147,
        "distance_wrist_3_joint": 3.138396465163116,
        "smoothness": 3.5059674673533993e-16,
        "time": 5.0421631179999995,
        "traj_len": 3.8154761449385717,
        "weighted_distance": 4.895691546679275
    },
    "planner": "RRTstar",
    "start": {
        "state": {
            "elbow_joint": -2.384821988534728,
            "shoulder_lift_joint": -2.2788054721415256,
            "shoulder_pan_joint": -0.1854694642142757,
            "wrist_1_joint": 1.4845938289331202,
            "wrist_2_joint": 0.17898776772866878,
            "wrist_3_joint": 0.037105688729662994
        }
    },
    "waypoints": [
        {
            "positions": [
                -0.1854694642142757,
                -2.2788054721415256,
                -2.384821988534728,
                1.4845938289331202,
                0.17898776772866878,
                0.037105688729662994
            ]
        },
        {
            "positions": [
                -0.06370027145989313,
                -2.227484721195932,
                -2.2594346757837362,
                1.4374977240158382,
                0.1864737870940593,
                0.07994135276820388
            ]
        },
        {
            "positions": [
                0.058068921294489456,
                -2.176163970250338,
                -2.134047363032745,
                1.3904016190985564,
                0.19395980645944982,
                0.12277701680674476
            ]
        },
        {
            "positions": [
                0.17983811404887204,
                -2.1248432193047444,
                -2.0086600502817533,
                1.3433055141812744,
                0.20144582582484033,
                0.16561268084528563
            ]
        },
        {
            "positions": [
                0.30160730680325465,
                -2.07352246835915,
                -1.8832727375307619,
                1.2962094092639924,
                0.20893184519023086,
                0.20844834488382652
            ]
        },
        {
            "positions": [
                0.42337649955763723,
                -2.0222017174135565,
                -1.7578854247797704,
                1.2491133043467104,
                0.21641786455562137,
                0.2512840089223674
            ]
        },
        {
            "positions": [
                0.5451456923120198,
                -1.9708809664679627,
                -1.6324981120287787,
                1.2020171994294286,
                0.2239038839210119,
                0.29411967296090824
            ]
        },
        {
            "positions": [
                0.6669148850664024,
                -1.919560215522369,
                -1.5071107992777872,
                1.1549210945121466,
                0.2313899032864024,
                0.33695533699944913
            ]
        },
        {
            "positions": [
                0.788684077820785,
                -1.8682394645767753,
                -1.3817234865267958,
                1.1078249895948646,
                0.23887592265179292,
                0.37979100103799
            ]
        },
        {
            "positions": [
                0.9104532705751677,
                -1.8169187136311815,
                -1.2563361737758043,
                1.0607288846775829,
                0.24636194201718345,
                0.4226266650765309
            ]
        },
        {
            "positions": [
                1.03222246332955,
                -1.7655979626855878,
                -1.1309488610248128,
                1.0136327797603009,
                0.253847961382574,
                0.4654623291150718
            ]
        },
        {
            "positions": [
                1.1539916560839325,
                -1.7142772117399938,
                -1.0055615482738212,
                0.966536674843019,
                0.2613339807479645,
                0.5082979931536127
            ]
        },
        {
            "positions": [
                1.2757608488383152,
                -1.6629564607944,
                -0.8801742355228297,
                0.9194405699257371,
                0.268820000113355,
                0.5511336571921536
            ]
        },
        {
            "positions": [
                1.397530041592698,
                -1.6116357098488063,
                -0.7547869227718382,
                0.8723444650084551,
                0.2763060194787455,
                0.5939693212306945
            ]
        },
        {
            "positions": [
                1.5192992343470804,
                -1.5603149589032124,
                -0.6293996100208465,
                0.8252483600911732,
                0.28379203884413606,
                0.6368049852692353
            ]
        },
        {
            "positions": [
                1.6410684271014628,
                -1.5089942079576186,
                -0.5040122972698551,
                0.7781522551738912,
                0.29127805820952657,
                0.6796406493077762
            ]
        },
        {
            "positions": [
                1.7628376198558455,
                -1.4576734570120249,
                -0.37862498451886384,
                0.7310561502566093,
                0.2987640775749171,
                0.7224763133463171
            ]
        },
        {
            "positions": [
                1.8040252785767146,
                -1.436470094875023,
                -0.273840716476196,
                0.6592318665241635,
                0.3345507742606917,
                0.8392870676580534
            ]
        },
        {
            "positions": [
                1.8452129372975836,
                -1.4152667327380213,
                -0.16905644843352813,
                0.5874075827917178,
                0.37033747094646624,
                0.9560978219697897
            ]
        },
        {
            "positions": [
                1.8864005960184527,
                -1.3940633706010195,
                -0.0642721803908603,
                0.515583299059272,
                0.40612416763224085,
                1.072908576281526
            ]
        },
        {
            "positions": [
                1.9275882547393217,
                -1.3728600084640175,
                0.04051208765180758,
                0.4437590153268263,
                0.4419108643180154,
                1.1897193305932623
            ]
        },
        {
            "positions": [
                1.968775913460191,
                -1.3516566463270157,
                0.1452963556944754,
                0.37193473159438056,
                0.47769756100379,
                1.3065300849049986
            ]
        },
        {
            "positions": [
                2.00996357218106,
                -1.3304532841900139,
                0.25008062373714324,
                0.3001104478619348,
                0.5134842576895646,
                1.4233408392167348
            ]
        },
        {
            "positions": [
                2.051151230901929,
                -1.309249922053012,
                0.3548648917798112,
                0.2282861641294891,
                0.5492709543753391,
                1.540151593528471
            ]
        },
        {
            "positions": [
                2.0923388896227983,
                -1.2880465599160102,
                0.459649159822479,
                0.15646188039704334,
                0.5850576510611138,
                1.6569623478402074
            ]
        },
        {
            "positions": [
                2.133526548343667,
                -1.2668431977790084,
                0.5644334278651468,
                0.08463759666459758,
                0.6208443477468883,
                1.7737731021519436
            ]
        },
        {
            "positions": [
                2.1747142070645364,
                -1.2456398356420066,
                0.6692176959078147,
                0.012813312932151821,
                0.656631044432663,
                1.8905838564636799
            ]
        },
        {
            "positions": [
                2.2159018657854053,
                -1.2244364735050046,
                0.7740019639504827,
                -0.05901097080029405,
                0.6924177411184376,
                2.007394610775416
            ]
        },
        {
            "positions": [
                2.2570895245062745,
                -1.2032331113680028,
                0.8787862319931503,
                -0.1308352545327397,
                0.7282044378042121,
                2.1242053650871524
            ]
        },
        {
            "positions": [
                2.2982771832271434,
                -1.182029749231001,
                0.9835705000358184,
                -0.20265953826518557,
                0.7639911344899868,
                2.2410161193988887
            ]
        },
        {
            "positions": [
                2.3394648419480126,
                -1.1608263870939992,
                1.0883547680784862,
                -0.2744838219976311,
                0.7997778311757613,
                2.357826873710625
            ]
        },
        {
            "positions": [
                2.380652500668882,
                -1.1396230249569974,
                1.193139036121154,
                -0.346308105730077,
                0.8355645278615359,
                2.4746376280223616
            ]
        },
        {
            "positions": [
                2.4218401593897507,
                -1.1184196628199956,
                1.2979233041638218,
                -0.4181323894625226,
                0.8713512245473105,
                2.5914483823340975
            ]
        },
        {
            "positions": [
                2.46302781811062,
                -1.0972163006829936,
                1.40270757220649,
                -0.4899566731949685,
                0.9071379212330851,
                2.708259136645834
            ]
        },
        {
            "positions": [
                2.504215476831489,
                -1.076012938545992,
                1.5074918402491575,
                -0.5617809569274141,
                0.9429246179188596,
                2.8250698909575704
            ]
        },
        {
            "positions": [
                2.545403135552358,
                -1.05480957640899,
                1.6122761082918255,
                -0.63360524065986,
                0.9787113146046342,
                2.9418806452693067
            ]
        },
        {
            "positions": [
                2.586590794273227,
                -1.0336062142719882,
                1.7170603763344932,
                -0.7054295243923057,
                1.0144980112904087,
                3.058691399581043
            ]
        },
        {
            "positions": [
                2.627778452994096,
                -1.0124028521349864,
                1.821844644377161,
                -0.7772538081247515,
                1.0502847079761835,
                3.1755021538927792
            ]
        }
    ]
}