{
    "goal": {
        "global_pose": {
            "orientation": {
                "w": -0.4816463035849501,
                "x": 0.5182115481033762,
                "y": 0.4908360881923453,
                "z": -0.5084816262002911
            },
            "position": {
                "x": -0.8240239810943604,
                "y": -0.300875300988555,
                "z": 0.16403168439865112
            }
        },
        "name": "move_to_storage_C"
    },
    "id": "RRTstar_move_to_storage_C_4",
    "joint_names": [
        "shoulder_pan_joint",
        "shoulder_lift_joint",
        "elbow_joint",
        "wrist_1_joint",
        "wrist_2_joint",
        "wrist_3_joint"
    ],
    "metrics": {
        "cart_traj_len": 0.5769245918562083,
        "distance_elbow_joint": 0.2554645764937893,
        "distance_shoulder_lift_joint": 0.18881615928881246,
        "distance_shoulder_pan_joint": 0.4955779267896827,
        "distance_wrist_1_joint": 0.06765820312080095,
        "distance_wrist_2_joint": 1.0638459843125,
        "distance_wrist_3_joint": 0.05665742248555938,
        "smoothness": 7.612957943425664e-16,
        "time": 5.00164291,
        "traj_len": 1.4587735507922897,
        "weighted_distance": 1.8365291462145557
    },
    "planner": "RRTstar",
    "start": {
        "state": {
            "elbow_joint": 2.010868314990456,
            "shoulder_lift_joint": -1.1634956873337592,
            "shoulder_pan_joint": -2.4736205022346125,
            "wrist_1_joint": -0.8367026794202681,
            "wrist_2_joint": 0.6746043897044499,
            "wrist_3_joint": -3.1496632123970403
        }
    },
    "waypoints": [
        {
            "positions": [
                -2.4736205022346125,
                -1.1634956873337592,
                2.010868314990456,
                -0.8367026794202681,
                0.6746043897044499,
                -3.1496632123970403
            ]
        },
        {
            "positions": [
                -2.5562168233662264,
                -1.1320263274522904,
                1.9682908855748242,
                -0.825426312233468,
                0.8519120537565332,
                -3.140220308649447
            ]
        },
        {
            "positions": [
                -2.63881314449784,
                -1.1005569675708218,
                1.9257134561591926,
                -0.8141499450466678,
                1.0292197178086167,
                -3.130777404901854
            ]
        },
        {
            "positions": [
                -2.7214094656294536,
                -1.069087607689353,
                1.883136026743561,
                -0.8028735778598677,
                1.2065273818606999,
                -3.1213345011542604
            ]
        },
        {
            "positions": [
                -2.8040057867610675,
                -1.0376182478078841,
                1.8405585973279297,
                -0.7915972106730674,
                1.3838350459127833,
                -3.111891597406667
            ]
        },
        {
            "positions": [
                -2.8866021078926813,
                -1.0061488879264155,
                1.7979811679122981,
                -0.7803208434862673,
                1.5611427099648667,
                -3.102448693659074
            ]
        },
        {
            "positions": [
                -2.969198429024295,
                -0.9746795280449467,
                1.7554037384966665,
                -0.7690444762994672,
                1.7384503740169501,
                -3.093005789911481
            ]
        }
    ]
}