{
    "goal": {
        "global_pose": {
            "orientation": {
                "w": 0.5084816217422485,
                "x": -0.49083608388900757,
                "y": 0.5182115435600281,
                "z": -0.4816462993621826
            },
            "position": {
                "x": 0.5540239810943604,
                "y": 0.030875300988554955,
                "z": 0.16403168439865112
            }
        },
        "name": "move_to_storage_A"
    },
    "id": "RRTstar_move_to_storage_A_85",
    "joint_names": [
        "shoulder_pan_joint",
        "shoulder_lift_joint",
        "elbow_joint",
        "wrist_1_joint",
        "wrist_2_joint",
        "wrist_3_joint"
    ],
    "metrics": {
        "cart_traj_len": 0.352686935928281,
        "distance_elbow_joint": 0.4491899172989793,
        "distance_shoulder_lift_joint": 0.23677751475852493,
        "distance_shoulder_pan_joint": 0.4608988099357424,
        "distance_wrist_1_joint": 0.23363601595001648,
        "distance_wrist_2_joint": 1.1006522401356398,
        "distance_wrist_3_joint": 0.0938713789666834,
        "smoothness": 0.0,
        "time": 5.002268367,
        "traj_len": 1.604688716557073,
        "weighted_distance": 2.0241187937136025
    },
    "planner": "RRTstar",
    "start": {
        "state": {
            "elbow_joint": 1.971548259319323,
            "shoulder_lift_joint": -1.1394851275133948,
            "shoulder_pan_joint": 0.1228115487234821,
            "wrist_1_joint": -0.7804723859257726,
            "wrist_2_joint": 0.12958671773740124,
            "wrist_3_joint": -3.192489227718131
        }
    },
    "waypoints": [
        {
            "positions": [
                0.1228115487234821,
                -1.1394851275133948,
                1.971548259319323,
                -0.7804723859257726,
                0.12958671773740124,
                -3.192489227718131
            ]
        },
        {
            "positions": [
                0.05696886158980462,
                -1.1733104867646127,
                2.0357182475048914,
                -0.8138489596329178,
                0.28682275204249263,
                -3.1790790307228907
            ]
        },
        {
            "positions": [
                -0.008873825543872865,
                -1.2071358460158306,
                2.09988823569046,
                -0.847225533340063,
                0.444058786347584,
                -3.16566883372765
            ]
        },
        {
            "positions": [
                -0.07471651267755033,
                -1.2409612052670485,
                2.164058223876028,
                -0.8806021070472082,
                0.6012948206526754,
                -3.1522586367324097
            ]
        },
        {
            "positions": [
                -0.14055919981122783,
                -1.274786564518266,
                2.228228212061597,
                -0.9139786807543535,
                0.7585308549577668,
                -3.138848439737169
            ]
        },
        {
            "positions": [
                -0.20640188694490536,
                -1.308611923769484,
                2.2923982002471655,
                -0.9473552544614987,
                0.9157668892628583,
                -3.1254382427419287
            ]
        },
        {
            "positions": [
                -0.27224457407858277,
                -1.3424372830207019,
                2.3565681884327336,
                -0.9807318281686439,
                1.0730029235679495,
                -3.1120280457466882
            ]
        },
        {
            "positions": [
                -0.3380872612122603,
                -1.3762626422719197,
                2.4207381766183023,
                -1.014108401875789,
                1.230238957873041,
                -3.0986178487514477
            ]
        }
    ]
}{
    "goal": {
        "global_pose": {
            "orientation": {
                "w": 0.5084816217422485,
                "x": -0.49083608388900757,
                "y": 0.5182115435600281,
                "z": -0.4816462993621826
            },
            "position": {
                "x": 0.5540239810943604,
                "y": 0.030875300988554955,
                "z": 0.16403168439865112
            }
        },
        "name": "move_to_storage_A"
    },
    "id": "RRTstar_move_to_storage_A_85",
    "joint_names": [
        "shoulder_pan_joint",
        "shoulder_lift_joint",
        "elbow_joint",
        "wrist_1_joint",
        "wrist_2_joint",
        "wrist_3_joint"
    ],
    "metrics": {
        "cart_traj_len": 0.3532991061219446,
        "distance_elbow_joint": 0.4488105777898159,
        "distance_shoulder_lift_joint": 0.23396917115159166,
        "distance_shoulder_pan_joint": 0.4614752477769202,
        "distance_wrist_1_joint": 0.24130626820915957,
        "distance_wrist_2_joint": 1.1008489118796843,
        "distance_wrist_3_joint": 0.0900918897179408,
        "smoothness": 1.7763568426276512e-15,
        "time": 5.004220075999999,
        "traj_len": 1.6051486119749512,
        "weighted_distance": 2.0245594646860434
    },
    "planner": "RRTstar",
    "start": {
        "state": {
            "elbow_joint": 1.97154746011099,
            "shoulder_lift_joint": -1.13948474672311,
            "shoulder_pan_joint": 0.12281154466712228,
            "wrist_1_joint": -0.7804688027058302,
            "wrist_2_joint": 0.12958655903071145,
            "wrist_3_joint": 3.0906928834467795
        }
    },
    "waypoints": [
        {
            "positions": [
                0.12281154466712228,
                -1.13948474672311,
                1.97154746011099,
                -0.7804688027058302,
                0.12958655903071145,
                3.0906928834467795
            ]
        },
        {
            "positions": [
                0.0568865092704194,
                -1.1729089140304803,
                2.0356632569381063,
                -0.8149411267357102,
                0.28685068929923774,
                3.103563153406485
            ]
        },
        {
            "positions": [
                -0.009038526126283489,
                -1.2063330813378503,
                2.0997790537652232,
                -0.84941345076559,
                0.4441148195677641,
                3.1164334233661912
            ]
        },
        {
            "positions": [
                -0.07496356152298637,
                -1.2397572486452206,
                2.1638948505923397,
                -0.88388577479547,
                0.6013789498362904,
                3.129303693325897
            ]
        },
        {
            "positions": [
                -0.14088859691968925,
                -1.273181415952591,
                2.228010647419456,
                -0.9183580988253499,
                0.7586430801048167,
                3.142173963285603
            ]
        },
        {
            "positions": [
                -0.20681363231639216,
                -1.3066055832599612,
                2.2921264442465725,
                -0.9528304228552299,
                0.9159072103733431,
                3.1550442332453086
            ]
        },
        {
            "positions": [
                -0.272738667713095,
                -1.3400297505673313,
                2.3562422410736894,
                -0.9873027468851098,
                1.0731713406418693,
                3.1679145032050147
            ]
        },
        {
            "positions": [
                -0.33866370310979793,
                -1.3734539178747016,
                2.420358037900806,
                -1.0217750709149898,
                1.2304354709103957,
                3.1807847731647203
            ]
        }
    ]
}{
    "goal": {
        "global_pose": {
            "orientation": {
                "w": 0.5084816217422485,
                "x": -0.49083608388900757,
                "y": 0.5182115435600281,
                "z": -0.4816462993621826
            },
            "position": {
                "x": 0.5540239810943604,
                "y": 0.030875300988554955,
                "z": 0.16403168439865112
            }
        },
        "name": "move_to_storage_A"
    },
    "id": "RRTstar_move_to_storage_A_85",
    "joint_names": [
        "shoulder_pan_joint",
        "shoulder_lift_joint",
        "elbow_joint",
        "wrist_1_joint",
        "wrist_2_joint",
        "wrist_3_joint"
    ],
    "metrics": {
        "cart_traj_len": 0.35367299085993564,
        "distance_elbow_joint": 0.4509827278993277,
        "distance_shoulder_lift_joint": 0.23471542780449162,
        "distance_shoulder_pan_joint": 0.4635351060799853,
        "distance_wrist_1_joint": 0.24348707233466915,
        "distance_wrist_2_joint": 1.0959441331108049,
        "distance_wrist_3_joint": 0.08884378418041017,
        "smoothness": 2.2204460668324854e-16,
        "time": 5.001322585,
        "traj_len": 1.6054620055951772,
        "weighted_distance": 2.0235184766183836
    },
    "planner": "RRTstar",
    "start": {
        "state": {
            "elbow_joint": 1.9715472970024885,
            "shoulder_lift_joint": -1.1394870060712896,
            "shoulder_pan_joint": 0.12281152778156021,
            "wrist_1_joint": -0.780463741449964,
            "wrist_2_joint": 0.12958659822042276,
            "wrist_3_joint": 3.090690232415272
        }
    },
    "waypoints": [
        {
            "positions": [
                0.12281152778156021,
                -1.1394870060712896,
                1.9715472970024885,
                -0.780463741449964,
                0.12958659822042276,
                3.090690232415272
            ]
        },
        {
            "positions": [
                0.05659222691299089,
                -1.1730177814719314,
                2.035973400988107,
                -0.8152476089263453,
                0.28615004580768055,
                3.103382201583902
            ]
        },
        {
            "positions": [
                -0.009627073955578436,
                -1.206548556872573,
                2.100399504973725,
                -0.8500314764027266,
                0.4427134933949384,
                3.116074170752532
            ]
        },
        {
            "positions": [
                -0.07584637482414774,
                -1.2400793322732147,
                2.1648256089593434,
                -0.8848153438791079,
                0.5992769409821962,
                3.128766139921162
            ]
        },
        {
            "positions": [
                -0.14206567569271708,
                -1.2736101076738562,
                2.2292517129449614,
                -0.9195992113554892,
                0.755840388569454,
                3.141458109089792
            ]
        },
        {
            "positions": [
                -0.20828497656128644,
                -1.307140883074498,
                2.29367781693058,
                -0.9543830788318706,
                0.912403836156712,
                3.154150078258422
            ]
        },
        {
            "positions": [
                -0.2745042774298557,
                -1.3406716584751395,
                2.358103920916198,
                -0.9891669463082519,
                1.0689672837439697,
                3.166842047427052
            ]
        },
        {
            "positions": [
                -0.3407235782984251,
                -1.3742024338757812,
                2.4225300249018162,
                -1.0239508137846332,
                1.2255307313312276,
                3.179534016595682
            ]
        }
    ]
}