{
    "goal": {
        "global_pose": {
            "orientation": {
                "w": 0.5084816262002911,
                "x": -0.4908360881923452,
                "y": 0.5182115481033761,
                "z": -0.48164630358495003
            },
            "position": {
                "x": 0.5540239810943604,
                "y": -0.46912469901144505,
                "z": 0.16403168439865112
            }
        },
        "name": "move_to_storage_B"
    },
    "id": "RRTstar_move_to_storage_B_45",
    "joint_names": [
        "shoulder_pan_joint",
        "shoulder_lift_joint",
        "elbow_joint",
        "wrist_1_joint",
        "wrist_2_joint",
        "wrist_3_joint"
    ],
    "metrics": {
        "cart_traj_len": 0.7292511414123862,
        "distance_elbow_joint": 0.5792568486986043,
        "distance_shoulder_lift_joint": 0.4627405937530018,
        "distance_shoulder_pan_joint": 0.23700459915935224,
        "distance_wrist_1_joint": 2.9779360867758973,
        "distance_wrist_2_joint": 2.699063641413,
        "distance_wrist_3_joint": 3.149050154574467,
        "smoothness": 0.055939787012183564,
        "time": 5.036973055,
        "traj_len": 3.178844432238596,
        "weighted_distance": 4.698952219560457
    },
    "planner": "RRTstar",
    "start": {
        "state": {
            "elbow_joint": 1.664937868594044,
            "shoulder_lift_joint": -0.661644460510453,
            "shoulder_pan_joint": -0.9139846352900073,
            "wrist_1_joint": 2.146753192139373,
            "wrist_2_joint": -2.2341966793290973,
            "wrist_3_joint": 0.005466555786416001
        }
    },
    "waypoints": [
        {
            "positions": [
                -0.9139846352900073,
                -0.661644460510453,
                1.664937868594044,
                2.146753192139373,
                -2.2341966793290973,
                0.005466555786416001
            ]
        },
        {
            "positions": [
                -0.9256423563959768,
                -0.6872173561162136,
                1.6907094076413158,
                2.034638548836711,
                -2.124227516242548,
                -0.1007574006661299
            ]
        },
        {
            "positions": [
                -0.9373000775019463,
                -0.7127902517219742,
                1.7164809466885877,
                1.922523905534049,
                -2.014258353155999,
                -0.2069813571186758
            ]
        },
        {
            "positions": [
                -0.9489577986079158,
                -0.7383631473277348,
                1.7422524857358597,
                1.8104092622313868,
                -1.9042891900694499,
                -0.31320531357122167
            ]
        },
        {
            "positions": [
                -0.9606155197138854,
                -0.7639360429334954,
                1.7680240247831316,
                1.6982946189287247,
                -1.7943200269829007,
                -0.41942927002376756
            ]
        },
        {
            "positions": [
                -0.9722732408198549,
                -0.789508938539256,
                1.7937955638304035,
                1.5861799756260626,
                -1.6843508638963516,
                -0.5256532264763136
            ]
        },
        {
            "positions": [
                -0.9839309619258244,
                -0.8150818341450166,
                1.8195671028776754,
                1.4740653323234005,
                -1.5743817008098024,
                -0.6318771829288594
            ]
        },
        {
            "positions": [
                -0.9955886830317939,
                -0.8406547297507772,
                1.8453386419249473,
                1.3619506890207385,
                -1.4644125377232533,
                -0.7381011393814054
            ]
        },
        {
            "positions": [
                -1.0072464041377633,
                -0.8662276253565377,
                1.8711101809722193,
                1.2498360457180762,
                -1.3544433746367042,
                -0.8443250958339512
            ]
        },
        {
            "positions": [
                -1.018904125243733,
                -0.8918005209622983,
                1.8968817200194912,
                1.137721402415414,
                -1.244474211550155,
                -0.9505490522864972
            ]
        },
        {
            "positions": [
                -1.0305618463497024,
                -0.9173734165680589,
                1.922653259066763,
                1.025606759112752,
                -1.134505048463606,
                -1.0567730087390432
            ]
        },
        {
            "positions": [
                -1.042219567455672,
                -0.9429463121738195,
                1.948424798114035,
                0.9134921158100897,
                -1.0245358853770568,
                -1.1629969651915892
            ]
        },
        {
            "positions": [
                -1.0538772885616414,
                -0.9685192077795801,
                1.974196337161307,
                0.8013774725074279,
                -0.9145667222905076,
                -1.2692209216441348
            ]
        },
        {
            "positions": [
                -1.065535009667611,
                -0.9940921033853407,
                1.9999678762085789,
                0.6892628292047656,
                -0.8045975592039585,
                -1.3754448780966808
            ]
        },
        {
            "positions": [
                -1.0771927307735805,
                -1.0196649989911013,
                2.0257394152558508,
                0.5771481859021035,
                -0.6946283961174093,
                -1.4816688345492268
            ]
        },
        {
            "positions": [
                -1.08885045187955,
                -1.045237894596862,
                2.0515109543031227,
                0.4650335425994412,
                -0.5846592330308602,
                -1.5878927910017728
            ]
        },
        {
            "positions": [
                -1.1005081729855195,
                -1.0708107902026225,
                2.0772824933503946,
                0.35291889929677933,
                -0.47469006994431107,
                -1.6941167474543184
            ]
        },
        {
            "positions": [
                -1.112165894091489,
                -1.096383685808383,
                2.1030540323976665,
                0.24080425599411703,
                -0.36472090685776193,
                -1.8003407039068644
            ]
        },
        {
            "positions": [
                -1.1238236151974585,
                -1.1219565814141437,
                2.1288255714449384,
                0.1286896126914548,
                -0.2547517437712127,
                -1.9065646603594104
            ]
        },
        {
            "positions": [
                -1.1204279127909709,
                -1.1216530223079797,
                2.114404428213975,
                0.00870554927545747,
                -0.1647994055393234,
                -2.0611920276629903
            ]
        },
        {
            "positions": [
                -1.1170322103844832,
                -1.121349463201816,
                2.099983284983011,
                -0.11127851414053985,
                -0.07484706730743412,
                -2.2158193949665703
            ]
        },
        {
            "positions": [
                -1.1136365079779957,
                -1.121045904095652,
                2.0855621417520473,
                -0.23126257755653717,
                0.015105270924455128,
                -2.3704467622701504
            ]
        },
        {
            "positions": [
                -1.110240805571508,
                -1.120742344989488,
                2.0711409985210834,
                -0.3512466409725345,
                0.10505760915634443,
                -2.5250741295737305
            ]
        },
        {
            "positions": [
                -1.1068451031650204,
                -1.1204387858833242,
                2.05671985529012,
                -0.4712307043885318,
                0.19500994738823374,
                -2.6797014968773105
            ]
        },
        {
            "positions": [
                -1.103449400758533,
                -1.1201352267771603,
                2.0422987120591563,
                -0.5912147678045292,
                0.28496228562012293,
                -2.8343288641808906
            ]
        },
        {
            "positions": [
                -1.1000536983520453,
                -1.1198316676709965,
                2.0278775688281923,
                -0.7111988312205264,
                0.37491462385201224,
                -2.9889562314844706
            ]
        },
        {
            "positions": [
                -1.0966579959455576,
                -1.1195281085648325,
                2.0134564255972287,
                -0.8311828946365237,
                0.4648669620839015,
                -3.1435835987880507
            ]
        }
    ]
}