{
    "goal": {
        "global_pose": {
            "orientation": {
                "w": 0.7031023502349854,
                "x": -0.7110244035720825,
                "y": 0.007748599164187908,
                "z": 0.005598929710686207
            },
            "position": {
                "x": 0.11585023208521307,
                "y": 0.44412534475326537,
                "z": 0.3711530566215515
            }
        },
        "name": "move_to_auspresseinheit_A"
    },
    "id": "RRTstar_move_to_auspresseinheit_A_49",
    "joint_names": [
        "shoulder_pan_joint",
        "shoulder_lift_joint",
        "elbow_joint",
        "wrist_1_joint",
        "wrist_2_joint",
        "wrist_3_joint"
    ],
    "metrics": {
        "cart_traj_len": 0.6917080108017684,
        "distance_elbow_joint": 0.2588290697476685,
        "distance_shoulder_lift_joint": 1.1112974874411836,
        "distance_shoulder_pan_joint": 1.0435133824854317,
        "distance_wrist_1_joint": 0.9912167800070031,
        "distance_wrist_2_joint": 0.5192791347414271,
        "distance_wrist_3_joint": 0.4387449456171848,
        "smoothness": 0.9908405689909097,
        "time": 5.009047086,
        "traj_len": 2.0887510143719616,
        "weighted_distance": 2.598242984407482
    },
    "planner": "RRTstar",
    "start": {
        "state": {
            "elbow_joint": 2.4225746658250005,
            "shoulder_lift_joint": -1.3736534386056498,
            "shoulder_pan_joint": -0.3378633547517467,
            "wrist_1_joint": -1.0288598680537169,
            "wrist_2_joint": 1.233022673432363,
            "wrist_3_joint": -3.0940220416140027
        }
    },
    "waypoints": [
        {
            "positions": [
                -0.3378633547517467,
                -1.3736534386056498,
                2.4225746658250005,
                -1.0288598680537169,
                1.233022673432363,
                -3.0940220416140027
            ]
        },
        {
            "positions": [
                -0.30562716354353847,
                -1.5110136293388297,
                2.4417537227194335,
                -0.8993836175502017,
                1.213049261257156,
                -3.0600925850409104
            ]
        },
        {
            "positions": [
                -0.2733909723353302,
                -1.6483738200720093,
                2.460932779613866,
                -0.7699073670466865,
                1.1930758490819489,
                -3.026163128467818
            ]
        },
        {
            "positions": [
                -0.24115478112712194,
                -1.7857340108051893,
                2.480111836508299,
                -0.6404311165431713,
                1.173102436906742,
                -2.9922336718947253
            ]
        },
        {
            "positions": [
                -0.20891858991891368,
                -1.923094201538369,
                2.499290893402732,
                -0.5109548660396561,
                1.153129024731535,
                -2.958304215321633
            ]
        },
        {
            "positions": [
                -0.1766823987107054,
                -2.060454392271549,
                2.5184699502971646,
                -0.3814786155361408,
                1.1331556125563278,
                -2.9243747587485407
            ]
        },
        {
            "positions": [
                -0.14444620750249715,
                -2.1978145830047287,
                2.5376490071915976,
                -0.25200236503262563,
                1.1131822003811207,
                -2.8904453021754484
            ]
        },
        {
            "positions": [
                -0.002763501629800158,
                -2.1499585258310443,
                2.5136898857947525,
                -0.2877289111969443,
                1.0466090900994232,
                -2.92964000320522
            ]
        },
        {
            "positions": [
                0.13891920424289683,
                -2.1021024686573604,
                2.489730764397907,
                -0.32345545736126297,
                0.9800359798177258,
                -2.968834704234992
            ]
        },
        {
            "positions": [
                0.2806019101155938,
                -2.0542464114836765,
                2.465771643001062,
                -0.3591820035255816,
                0.9134628695360283,
                -3.0080294052647636
            ]
        },
        {
            "positions": [
                0.4222846159882908,
                -2.006390354309992,
                2.441812521604217,
                -0.3949085496899003,
                0.846889759254331,
                -3.0472241062945353
            ]
        },
        {
            "positions": [
                0.5639673218609879,
                -1.958534297136308,
                2.4178534002073713,
                -0.430635095854219,
                0.7803166489726334,
                -3.086418807324307
            ]
        },
        {
            "positions": [
                0.7056500277336848,
                -1.9106782399626239,
                2.393894278810526,
                -0.46636164201853764,
                0.713743538690936,
                -3.125613508354079
            ]
        }
    ]
}