{
    "goal": {
        "global_pose": {
            "orientation": {
                "w": 0.7031023502349854,
                "x": -0.7110244035720825,
                "y": 0.007748599164187908,
                "z": 0.005598929710686207
            },
            "position": {
                "x": 0.11585023208521307,
                "y": 0.44412534475326537,
                "z": 0.3711530566215515
            }
        },
        "name": "move_to_auspresseinheit_A"
    },
    "id": "RRTstar_move_to_auspresseinheit_A_39",
    "joint_names": [
        "shoulder_pan_joint",
        "shoulder_lift_joint",
        "elbow_joint",
        "wrist_1_joint",
        "wrist_2_joint",
        "wrist_3_joint"
    ],
    "metrics": {
        "cart_traj_len": 0.6551138003827068,
        "distance_elbow_joint": 0.06797677227447085,
        "distance_shoulder_lift_joint": 0.5358083704594918,
        "distance_shoulder_pan_joint": 1.0478321462564593,
        "distance_wrist_1_joint": 1.191284175144181,
        "distance_wrist_2_joint": 0.5109036437442542,
        "distance_wrist_3_joint": 0.09168753988892453,
        "smoothness": 0.7925116129284288,
        "time": 5.013899338,
        "traj_len": 1.8562038271072985,
        "weighted_distance": 2.3089078687626463
    },
    "planner": "RRTstar",
    "start": {
        "state": {
            "elbow_joint": 2.4225746658250005,
            "shoulder_lift_joint": -1.3736534386056498,
            "shoulder_pan_joint": -0.3378633547517467,
            "wrist_1_joint": -1.0288598680537169,
            "wrist_2_joint": 1.233022673432363,
            "wrist_3_joint": -3.0940220416140027
        }
    },
    "waypoints": [
        {
            "positions": [
                -0.3378633547517467,
                -1.3736534386056498,
                2.4225746658250005,
                -1.0288598680537169,
                1.233022673432363,
                -3.0940220416140027
            ]
        },
        {
            "positions": [
                -0.23799054296242697,
                -1.4573013369122203,
                2.4260702084208488,
                -0.8839137752576497,
                1.2220095175776904,
                -3.0885177977493674
            ]
        },
        {
            "positions": [
                -0.13811773117310722,
                -1.5409492352187908,
                2.4295657510166975,
                -0.7389676824615825,
                1.2109963617230177,
                -3.0830135538847316
            ]
        },
        {
            "positions": [
                -0.038244919383787435,
                -1.6245971335253615,
                2.433061293612546,
                -0.5940215896655152,
                1.199983205868345,
                -3.0775093100200963
            ]
        },
        {
            "positions": [
                0.06162789240553229,
                -1.708245031831932,
                2.4365568362083945,
                -0.44907549686944803,
                1.1889700500136722,
                -3.072005066155461
            ]
        },
        {
            "positions": [
                0.16150070419485213,
                -1.7918929301385025,
                2.4400523788042427,
                -0.30412940407338074,
                1.1779568941589995,
                -3.066500822290825
            ]
        },
        {
            "positions": [
                0.2613735159841719,
                -1.875540828445073,
                2.4435479214000915,
                -0.1591833112773135,
                1.1669437383043268,
                -3.06099657842619
            ]
        },
        {
            "positions": [
                0.3735223348643071,
                -1.8840210736000902,
                2.4317970422252464,
                -0.23958521586925785,
                1.0557375611502724,
                -3.0756620976014677
            ]
        },
        {
            "positions": [
                0.4856711537444423,
                -1.8925013187551074,
                2.4200461630504018,
                -0.31998712046120215,
                0.9445313839962178,
                -3.0903276167767455
            ]
        },
        {
            "positions": [
                0.5978199726245775,
                -1.9009815639101244,
                2.4082952838755567,
                -0.4003890250531465,
                0.8333252068421633,
                -3.1049931359520238
            ]
        },
        {
            "positions": [
                0.7099687915047127,
                -1.9094618090651416,
                2.3965444047007116,
                -0.48079092964509085,
                0.7221190296881088,
                -3.1196586551273016
            ]
        }
    ]
}