{
    "goal": {
        "global_pose": {
            "orientation": {
                "w": 0.7047431468963623,
                "x": -0.7094548344612122,
                "y": 0.0024358443915843964,
                "z": -0.0022348060738295317
            },
            "position": {
                "x": 0.6094750761985779,
                "y": 0.3671506643295288,
                "z": 0.19426114857196808
            }
        },
        "name": "move_to_magneteinheit_A"
    },
    "id": "RRTstar_move_to_magneteinheit_A_136",
    "joint_names": [
        "shoulder_pan_joint",
        "shoulder_lift_joint",
        "elbow_joint",
        "wrist_1_joint",
        "wrist_2_joint",
        "wrist_3_joint"
    ],
    "metrics": {
        "cart_traj_len": 3.4168281906510503,
        "distance_elbow_joint": 3.9156982131295703,
        "distance_shoulder_lift_joint": 0.9579524063828376,
        "distance_shoulder_pan_joint": 3.520151908183213,
        "distance_wrist_1_joint": 4.720892485461115,
        "distance_wrist_2_joint": 2.6631862015015115,
        "distance_wrist_3_joint": 0.7901793288897652,
        "smoothness": 0.5054975047938929,
        "time": 5.017189055,
        "traj_len": 4.070388254644514,
        "weighted_distance": 5.052969215054666
    },
    "planner": "RRTstar",
    "start": {
        "state": {
            "elbow_joint": -1.9196185241190666,
            "shoulder_lift_joint": -1.2443396400964142,
            "shoulder_pan_joint": 2.6996025414629847,
            "wrist_1_joint": -1.5485510000780065,
            "wrist_2_joint": -1.5709468930060704,
            "wrist_3_joint": 0.4420197071253992
        }
    },
    "waypoints": [
        {
            "positions": [
                2.6996025414629847,
                -1.2443396400964142,
                -1.9196185241190666,
                -1.5485510000780065,
                -1.5709468930060704,
                0.4420197071253992
            ]
        },
        {
            "positions": [
                2.566415806273321,
                -1.2215423294695489,
                -1.826676665684916,
                -1.4755413677925917,
                -1.5183466336000646,
                0.42260074927900193
            ]
        },
        {
            "positions": [
                2.433229071083657,
                -1.1987450188426834,
                -1.7337348072507655,
                -1.402531735507177,
                -1.465746374194059,
                0.40318179143260474
            ]
        },
        {
            "positions": [
                2.300042335893993,
                -1.175947708215818,
                -1.6407929488166149,
                -1.3295221032217621,
                -1.4131461147880533,
                0.3837628335862075
            ]
        },
        {
            "positions": [
                2.1668556007043294,
                -1.1531503975889528,
                -1.5478510903824643,
                -1.2565124709363473,
                -1.3605458553820475,
                0.3643438757398103
            ]
        },
        {
            "positions": [
                2.0336688655146657,
                -1.1303530869620873,
                -1.4549092319483137,
                -1.1835028386509325,
                -1.3079455959760418,
                0.34492491789341306
            ]
        },
        {
            "positions": [
                1.9004821303250017,
                -1.107555776335222,
                -1.3619673735141633,
                -1.1104932063655175,
                -1.255345336570036,
                0.3255059600470158
            ]
        },
        {
            "positions": [
                1.7672953951353378,
                -1.0847584657083567,
                -1.2690255150800127,
                -1.037483574080103,
                -1.2027450771640305,
                0.30608700220061863
            ]
        },
        {
            "positions": [
                1.634108659945674,
                -1.0619611550814914,
                -1.1760836566458621,
                -0.964473941794688,
                -1.1501448177580247,
                0.28666804435422144
            ]
        },
        {
            "positions": [
                1.5009219247560102,
                -1.0391638444546258,
                -1.0831417982117115,
                -0.8914643095092732,
                -1.097544558352019,
                0.2672490865078242
            ]
        },
        {
            "positions": [
                1.3677351895663463,
                -1.0163665338277605,
                -0.9901999397775609,
                -0.8184546772238585,
                -1.0449442989460134,
                0.24783012866142698
            ]
        },
        {
            "positions": [
                1.2345484543766825,
                -0.9935692232008951,
                -0.8972580813434103,
                -0.7454450449384437,
                -0.9923440395400076,
                0.22841117081502976
            ]
        },
        {
            "positions": [
                1.1013617191870186,
                -0.9707719125740297,
                -0.80431622290926,
                -0.6724354126530288,
                -0.9397437801340018,
                0.20899221296863252
            ]
        },
        {
            "positions": [
                0.9681749839973548,
                -0.9479746019471644,
                -0.7113743644751094,
                -0.599425780367614,
                -0.8871435207279961,
                0.18957325512223533
            ]
        },
        {
            "positions": [
                0.834988248807691,
                -0.925177291320299,
                -0.6184325060409588,
                -0.5264161480821992,
                -0.8345432613219904,
                0.17015429727583808
            ]
        },
        {
            "positions": [
                0.7018015136180271,
                -0.9023799806934336,
                -0.5254906476068082,
                -0.45340651579678437,
                -0.7819430019159848,
                0.1507353394294409
            ]
        },
        {
            "positions": [
                0.5686147784283633,
                -0.8795826700665683,
                -0.43254878917265766,
                -0.3803968835113695,
                -0.729342742509979,
                0.13131638158304365
            ]
        },
        {
            "positions": [
                0.5227382670363496,
                -0.8919152182142892,
                -0.3203005025121036,
                -0.23359932905826275,
                -0.6686202489124422,
                0.13961372118111778
            ]
        },
        {
            "positions": [
                0.4768617556443361,
                -0.90424776636201,
                -0.20805221585154965,
                -0.08680177460515598,
                -0.6078977553149055,
                0.14791106077919192
            ]
        },
        {
            "positions": [
                0.4309852442523225,
                -0.9165803145097309,
                -0.09580392919099567,
                0.059995779847950736,
                -0.5471752617173689,
                0.15620840037726605
            ]
        },
        {
            "positions": [
                0.3851087328603089,
                -0.9289128626574517,
                0.016444357469558357,
                0.20679333430105756,
                -0.48645276811983207,
                0.16450573997534018
            ]
        },
        {
            "positions": [
                0.33923222146829524,
                -0.9412454108051725,
                0.12869264413011233,
                0.3535908887541643,
                -0.42573027452229534,
                0.17280307957341434
            ]
        },
        {
            "positions": [
                0.2933557100762817,
                -0.9535779589528934,
                0.2409409307906663,
                0.5003884432072709,
                -0.3650077809247586,
                0.18110041917148845
            ]
        },
        {
            "positions": [
                0.2474791986842681,
                -0.9659105071006142,
                0.3531892174512203,
                0.6471859976603778,
                -0.3042852873272219,
                0.1893977587695626
            ]
        },
        {
            "positions": [
                0.20160268729225445,
                -0.9782430552483351,
                0.46543750411177437,
                0.7939835521134846,
                -0.24356279372968515,
                0.19769509836763674
            ]
        },
        {
            "positions": [
                0.15572617590024085,
                -0.9905756033960559,
                0.5776857907723285,
                0.9407811065665912,
                -0.18284030013214836,
                0.20599243796571087
            ]
        },
        {
            "positions": [
                0.10984966450822725,
                -1.0029081515437768,
                0.6899340774328824,
                1.087578661019698,
                -0.12211780653461168,
                0.214289777563785
            ]
        },
        {
            "positions": [
                0.06397315311621365,
                -1.0152406996914976,
                0.8021823640934365,
                1.2343762154728048,
                -0.0613953129370749,
                0.22258711716185914
            ]
        },
        {
            "positions": [
                0.018096641724200113,
                -1.0275732478392186,
                0.9144306507539903,
                1.3811737699259115,
                -0.000672819339538222,
                0.23088445675993327
            ]
        },
        {
            "positions": [
                -0.02777986966781354,
                -1.0399057959869393,
                1.0266789374145444,
                1.5279713243790183,
                0.060049674257998564,
                0.2391817963580074
            ]
        },
        {
            "positions": [
                -0.07365638105982708,
                -1.05223834413466,
                1.1389272240750983,
                1.674768878832125,
                0.12077216785553524,
                0.24747913595608154
            ]
        },
        {
            "positions": [
                -0.11953289245184073,
                -1.064570892282381,
                1.2511755107356524,
                1.821566433285232,
                0.18149466145307191,
                0.25577647555415567
            ]
        },
        {
            "positions": [
                -0.16540940384385439,
                -1.0769034404301019,
                1.3634237973962064,
                1.9683639877383388,
                0.2422171550506087,
                0.26407381515222983
            ]
        },
        {
            "positions": [
                -0.21128591523586793,
                -1.0892359885778227,
                1.4756720840567603,
                2.115161542191445,
                0.3029396486481455,
                0.27237115475030393
            ]
        },
        {
            "positions": [
                -0.2571624266278816,
                -1.1015685367255434,
                1.5879203707173146,
                2.261959096644552,
                0.3636621422456823,
                0.2806684943483781
            ]
        },
        {
            "positions": [
                -0.3030389380198951,
                -1.1139010848732644,
                1.7001686573778683,
                2.408756651097659,
                0.42438463584321884,
                0.28896583394645226
            ]
        },
        {
            "positions": [
                -0.3489154494119088,
                -1.1262336330209852,
                1.8124169440384224,
                2.5555542055507656,
                0.4851071294407556,
                0.29726317354452636
            ]
        },
        {
            "positions": [
                -0.28153917551072,
                -1.0767272796783316,
                1.8386544790344337,
                2.467441737003288,
                0.39837396100437217,
                0.25247328620367965
            ]
        },
        {
            "positions": [
                -0.2141629016095312,
                -1.0272209263356782,
                1.8648920140304452,
                2.3793292684558107,
                0.3116407925679887,
                0.20768339886283294
            ]
        },
        {
            "positions": [
                -0.1467866277083424,
                -0.9777145729930246,
                1.8911295490264566,
                2.291216799908333,
                0.22490762413160525,
                0.16289351152198622
            ]
        },
        {
            "positions": [
                -0.07941035380715361,
                -0.928208219650371,
                1.9173670840224681,
                2.2031043313608554,
                0.1381744556952218,
                0.11810362418113951
            ]
        },
        {
            "positions": [
                -0.012034079905964779,
                -0.8787018663077175,
                1.9436046190184795,
                2.114991862813378,
                0.05144128725883834,
                0.0733137368402928
            ]
        },
        {
            "positions": [
                0.055342193995224,
                -0.8291955129650639,
                1.9698421540144908,
                2.0268793942659005,
                -0.035291881177545115,
                0.028523849499446086
            ]
        },
        {
            "positions": [
                0.12271846789641286,
                -0.7796891596224104,
                1.9960796890105024,
                1.9387669257184228,
                -0.12202504961392856,
                -0.016266037841400623
            ]
        }
    ]
}