{
    "goal": {
        "global_pose": {
            "orientation": {
                "w": -0.4816463035849501,
                "x": 0.5182115481033762,
                "y": 0.4908360881923453,
                "z": -0.5084816262002911
            },
            "position": {
                "x": -0.8240239810943604,
                "y": 0.19912469901144506,
                "z": 0.16403168439865112
            }
        },
        "name": "move_to_storage_D"
    },
    "id": "RRTstar_move_to_storage_D_62",
    "joint_names": [
        "shoulder_pan_joint",
        "shoulder_lift_joint",
        "elbow_joint",
        "wrist_1_joint",
        "wrist_2_joint",
        "wrist_3_joint"
    ],
    "metrics": {
        "cart_traj_len": 0.7152515162299717,
        "distance_elbow_joint": 0.7814130388599572,
        "distance_shoulder_lift_joint": 0.6550040479909587,
        "distance_shoulder_pan_joint": 0.8278143221249004,
        "distance_wrist_1_joint": 3.8278090720296287,
        "distance_wrist_2_joint": 1.7754886346123129,
        "distance_wrist_3_joint": 3.151277231251107,
        "smoothness": 0.12671712708569793,
        "time": 5.0146215199999995,
        "traj_len": 3.319458743058703,
        "weighted_distance": 4.787970187460759
    },
    "planner": "RRTstar",
    "start": {
        "state": {
            "elbow_joint": -2.384821988534728,
            "shoulder_lift_joint": -2.2788054721415256,
            "shoulder_pan_joint": -0.1854694642142757,
            "wrist_1_joint": 1.4845938289331202,
            "wrist_2_joint": 0.17898776772866878,
            "wrist_3_joint": 0.037105688729662994
        }
    },
    "waypoints": [
        {
            "positions": [
                -0.1854694642142757,
                -2.2788054721415256,
                -2.384821988534728,
                1.4845938289331202,
                0.17898776772866878,
                0.037105688729662994
            ]
        },
        {
            "positions": [
                -0.14465725738843566,
                -2.2451920012876116,
                -2.3941674256973497,
                1.3624560859124526,
                0.10720418446919003,
                0.12837803436026052
            ]
        },
        {
            "positions": [
                -0.10384505056259558,
                -2.2115785304336977,
                -2.403512862859971,
                1.240318342891785,
                0.03542060120971127,
                0.21965037999085804
            ]
        },
        {
            "positions": [
                -0.0630328437367555,
                -2.1779650595797837,
                -2.412858300022593,
                1.1181805998711174,
                -0.03636298204976751,
                0.3109227256214556
            ]
        },
        {
            "positions": [
                -0.022220636910915442,
                -2.1443515887258697,
                -2.4222037371852148,
                0.9960428568504497,
                -0.10814656530924624,
                0.4021950712520531
            ]
        },
        {
            "positions": [
                0.018591569914924666,
                -2.1107381178719558,
                -2.431549174347836,
                0.873905113829782,
                -0.17993014856872505,
                0.4934674168826507
            ]
        },
        {
            "positions": [
                0.05940377674076472,
                -2.0771246470180422,
                -2.440894611510458,
                0.7517673708091144,
                -0.2517137318282038,
                0.5847397625132482
            ]
        },
        {
            "positions": [
                0.1002159835666048,
                -2.0435111761641283,
                -2.4502400486730798,
                0.6296296277884467,
                -0.32349731508768265,
                0.6760121081438458
            ]
        },
        {
            "positions": [
                0.14102819039244482,
                -2.0098977053102143,
                -2.459585485835701,
                0.5074918847677792,
                -0.3952808983471613,
                0.7672844537744432
            ]
        },
        {
            "positions": [
                0.1818403972182849,
                -1.9762842344563003,
                -2.468930922998323,
                0.38535414174711136,
                -0.46706448160664016,
                0.8585567994050408
            ]
        },
        {
            "positions": [
                0.22265260404412504,
                -1.9426707636023863,
                -2.4782763601609448,
                0.26321639872644376,
                -0.5388480648661189,
                0.9498291450356384
            ]
        },
        {
            "positions": [
                0.2634648108699651,
                -1.9090572927484724,
                -2.487621797323566,
                0.14107865570577616,
                -0.6106316481255977,
                1.041101490666236
            ]
        },
        {
            "positions": [
                0.3042770176958051,
                -1.8754438218945584,
                -2.496967234486188,
                0.018940912685108446,
                -0.6824152313850764,
                1.1323738362968334
            ]
        },
        {
            "positions": [
                0.2843906741537569,
                -1.890246315879499,
                -2.457598540785688,
                -0.12000944941969255,
                -0.736184974649698,
                1.253315547101771
            ]
        },
        {
            "positions": [
                0.26450433061170864,
                -1.9050488098644398,
                -2.4182298470851884,
                -0.25895981152449354,
                -0.7899547179143197,
                1.3742572579067083
            ]
        },
        {
            "positions": [
                0.24461798706966043,
                -1.9198513038493803,
                -2.3788611533846886,
                -0.3979101736292946,
                -0.8437244611789413,
                1.4951989687116458
            ]
        },
        {
            "positions": [
                0.2247316435276122,
                -1.934653797834321,
                -2.339492459684189,
                -0.5368605357340955,
                -0.897494204443563,
                1.6161406795165831
            ]
        },
        {
            "positions": [
                0.204845299985564,
                -1.9494562918192617,
                -2.3001237659836886,
                -0.6758108978388966,
                -0.9512639477081846,
                1.7370823903215207
            ]
        },
        {
            "positions": [
                0.18495895644351576,
                -1.9642587858042024,
                -2.260755072283189,
                -0.8147612599436976,
                -1.0050336909728061,
                1.8580241011264582
            ]
        },
        {
            "positions": [
                0.16507261290146755,
                -1.9790612797891431,
                -2.221386378582689,
                -0.9537116220484986,
                -1.0588034342374277,
                1.9789658119313955
            ]
        },
        {
            "positions": [
                0.1451862693594193,
                -1.9938637737740839,
                -2.1820176848821893,
                -1.0926619841532994,
                -1.1125731775020493,
                2.099907522736333
            ]
        },
        {
            "positions": [
                0.1252999258173711,
                -2.0086662677590246,
                -2.1426489911816895,
                -1.2316123462581006,
                -1.1663429207666711,
                2.22084923354127
            ]
        },
        {
            "positions": [
                0.10541358227532285,
                -2.023468761743965,
                -2.1032802974811897,
                -1.3705627083629017,
                -1.2201126640312927,
                2.341790944346208
            ]
        },
        {
            "positions": [
                0.08552723873327461,
                -2.038271255728906,
                -2.06391160378069,
                -1.5095130704677029,
                -1.2738824072959143,
                2.4627326551511457
            ]
        },
        {
            "positions": [
                0.0656408951912264,
                -2.0530737497138465,
                -2.02454291008019,
                -1.6484634325725036,
                -1.327652150560536,
                2.5836743659560826
            ]
        },
        {
            "positions": [
                0.04575455164917819,
                -2.067876243698787,
                -1.9851742163796902,
                -1.7874137946773043,
                -1.3814218938251575,
                2.7046160767610203
            ]
        },
        {
            "positions": [
                0.025868208107129975,
                -2.082678737683728,
                -1.9458055226791904,
                -1.9263641567821055,
                -1.4351916370897793,
                2.8255577875659577
            ]
        },
        {
            "positions": [
                0.0059818645650817626,
                -2.0974812316686684,
                -1.9064368289786904,
                -2.0653145188869066,
                -1.4889613803544006,
                2.946499498370895
            ]
        },
        {
            "positions": [
                -0.013904478976966506,
                -2.1122837256536093,
                -1.8670681352781906,
                -2.2042648809917074,
                -1.5427311236190224,
                3.0674412091758327
            ]
        },
        {
            "positions": [
                -0.03379082251901474,
                -2.12708621963855,
                -1.8276994415776908,
                -2.3432152430965085,
                -1.596500866883644,
                3.18838291998077
            ]
        }
    ]
}