{
    "goal": {
        "global_pose": {
            "orientation": {
                "w": 0.005598929693374612,
                "x": 0.007748599140229565,
                "y": 0.7110244013736278,
                "z": -0.7031023480610252
            },
            "position": {
                "x": -0.8858502320852131,
                "y": -0.7141253447532654,
                "z": 0.3711530566215515
            }
        },
        "name": "move_to_auspresseinheit_C"
    },
    "id": "RRTstar_move_to_auspresseinheit_C_22",
    "joint_names": [
        "shoulder_pan_joint",
        "shoulder_lift_joint",
        "elbow_joint",
        "wrist_1_joint",
        "wrist_2_joint",
        "wrist_3_joint"
    ],
    "metrics": {
        "cart_traj_len": 0.4927683525677097,
        "distance_elbow_joint": 0.993712525635716,
        "distance_shoulder_lift_joint": 0.32189534868526715,
        "distance_shoulder_pan_joint": 0.2566855397332688,
        "distance_wrist_1_joint": 0.6684758101119879,
        "distance_wrist_2_joint": 1.3078944942743478,
        "distance_wrist_3_joint": 0.05056951246063157,
        "smoothness": 4.844609574787718e-16,
        "time": 5.00276009,
        "traj_len": 1.8971645239412471,
        "weighted_distance": 2.3825915638667103
    },
    "planner": "RRTstar",
    "start": {
        "state": {
            "elbow_joint": 1.7527959577737207,
            "shoulder_lift_joint": -0.9740617694225068,
            "shoulder_pan_joint": -2.967991417825858,
            "wrist_1_joint": -0.759517768980727,
            "wrist_2_joint": 1.7443932448377408,
            "wrist_3_joint": -3.0840537646736568
        }
    },
    "waypoints": [
        {
            "positions": [
                -2.967991417825858,
                -0.9740617694225068,
                1.7527959577737207,
                -0.759517768980727,
                1.7443932448377408,
                -3.0840537646736568
            ]
        },
        {
            "positions": [
                -2.942322863852531,
                -0.9418722345539801,
                1.6534247052101492,
                -0.6926701879695282,
                1.613603795410306,
                -3.0891107159197198
            ]
        },
        {
            "positions": [
                -2.9166543098792044,
                -0.9096826996854533,
                1.5540534526465775,
                -0.6258226069583294,
                1.4828143459828713,
                -3.094167667165783
            ]
        },
        {
            "positions": [
                -2.890985755905877,
                -0.8774931648169266,
                1.4546822000830057,
                -0.5589750259471307,
                1.3520248965554365,
                -3.099224618411846
            ]
        },
        {
            "positions": [
                -2.8653172019325504,
                -0.8453036299483999,
                1.3553109475194343,
                -0.4921274449359318,
                1.2212354471280018,
                -3.1042815696579096
            ]
        },
        {
            "positions": [
                -2.8396486479592236,
                -0.8131140950798732,
                1.2559396949558628,
                -0.42527986392473305,
                1.090445997700567,
                -3.1093385209039726
            ]
        },
        {
            "positions": [
                -2.8139800939858968,
                -0.7809245602113465,
                1.156568442392291,
                -0.3584322829135343,
                0.9596565482731322,
                -3.1143954721500355
            ]
        },
        {
            "positions": [
                -2.78831154001257,
                -0.7487350253428198,
                1.0571971898287194,
                -0.2915847019023355,
                0.8288670988456974,
                -3.119452423396099
            ]
        },
        {
            "positions": [
                -2.7626429860392427,
                -0.7165454904742931,
                0.9578259372651479,
                -0.22473712089113662,
                0.6980776494182626,
                -3.124509374642162
            ]
        },
        {
            "positions": [
                -2.736974432065916,
                -0.6843559556057663,
                0.8584546847015763,
                -0.15788953987993792,
                0.5672881999908277,
                -3.1295663258882254
            ]
        },
        {
            "positions": [
                -2.711305878092589,
                -0.6521664207372396,
                0.7590834321380047,
                -0.09104195886873914,
                0.436498750563393,
                -3.1346232771342883
            ]
        }
    ]
}