{
    "goal": {
        "global_pose": {
            "orientation": {
                "w": 0.005598929693374612,
                "x": 0.007748599140229565,
                "y": 0.7110244013736278,
                "z": -0.7031023480610252
            },
            "position": {
                "x": 0.1141497679147869,
                "y": -0.7141253447532654,
                "z": 0.3711530566215515
            }
        },
        "name": "move_to_auspresseinheit_B"
    },
    "id": "RRTstar_move_to_auspresseinheit_B_28",
    "joint_names": [
        "shoulder_pan_joint",
        "shoulder_lift_joint",
        "elbow_joint",
        "wrist_1_joint",
        "wrist_2_joint",
        "wrist_3_joint"
    ],
    "metrics": {
        "cart_traj_len": 0.5640094496218871,
        "distance_elbow_joint": 0.061098124164933765,
        "distance_shoulder_lift_joint": 0.2939338793119235,
        "distance_shoulder_pan_joint": 0.5757406286750082,
        "distance_wrist_1_joint": 0.32162077275034184,
        "distance_wrist_2_joint": 0.9980799566078133,
        "distance_wrist_3_joint": 0.0001970699335847037,
        "smoothness": 5.075305255429287e-16,
        "time": 5.0001220879999995,
        "traj_len": 1.500223460503003,
        "weighted_distance": 1.8896468719496058
    },
    "planner": "RRTstar",
    "start": {
        "state": {
            "elbow_joint": 2.0193083361928714,
            "shoulder_lift_joint": -1.1220246554650708,
            "shoulder_pan_joint": -1.0952077554168747,
            "wrist_1_joint": -0.8559753972642168,
            "wrist_2_joint": 0.4759566250798843,
            "wrist_3_joint": -3.1240929996934557
        }
    },
    "waypoints": [
        {
            "positions": [
                -1.0952077554168747,
                -1.1220246554650708,
                2.0193083361928714,
                -0.8559753972642168,
                0.4759566250798843,
                -3.1240929996934557
            ]
        },
        {
            "positions": [
                -1.1911645268627093,
                -1.1710136353503913,
                2.0091253154987156,
                -0.8023719351391598,
                0.6423032845145198,
                -3.1241258446823865
            ]
        },
        {
            "positions": [
                -1.287121298308544,
                -1.220002615235712,
                1.99894229480456,
                -0.7487684730141029,
                0.8086499439491555,
                -3.1241586896713174
            ]
        },
        {
            "positions": [
                -1.3830780697543787,
                -1.2689915951210327,
                1.9887592741104045,
                -0.6951650108890459,
                0.9749966033837909,
                -3.1241915346602482
            ]
        },
        {
            "positions": [
                -1.4790348412002134,
                -1.3179805750063531,
                1.978576253416249,
                -0.641561548763989,
                1.1413432628184266,
                -3.1242243796491787
            ]
        },
        {
            "positions": [
                -1.5749916126460481,
                -1.3669695548916736,
                1.9683932327220932,
                -0.5879580866389319,
                1.307689922253062,
                -3.1242572246381095
            ]
        },
        {
            "positions": [
                -1.6709483840918828,
                -1.4159585347769943,
                1.9582102120279377,
                -0.5343546245138749,
                1.4740365816876977,
                -3.1242900696270404
            ]
        }
    ]
}