{
    "goal": {
        "global_pose": {
            "orientation": {
                "w": 0.5084816217422485,
                "x": -0.49083608388900757,
                "y": 0.5182115435600281,
                "z": -0.4816462993621826
            },
            "position": {
                "x": 0.5540239810943604,
                "y": 0.030875300988554955,
                "z": 0.16403168439865112
            }
        },
        "name": "move_to_storage_A"
    },
    "id": "RRTstar_move_to_storage_A_71",
    "joint_names": [
        "shoulder_pan_joint",
        "shoulder_lift_joint",
        "elbow_joint",
        "wrist_1_joint",
        "wrist_2_joint",
        "wrist_3_joint"
    ],
    "metrics": {
        "cart_traj_len": 0.35256287301110045,
        "distance_elbow_joint": 0.44813860960865415,
        "distance_shoulder_lift_joint": 0.2350453173669642,
        "distance_shoulder_pan_joint": 0.45745534170127433,
        "distance_wrist_1_joint": 0.2344957072118713,
        "distance_wrist_2_joint": 1.1133609951815084,
        "distance_wrist_3_joint": 0.09411254502160382,
        "smoothness": 1.3322676346803227e-15,
        "time": 5.00198661,
        "traj_len": 1.6070496308738806,
        "weighted_distance": 2.029455668037236
    },
    "planner": "RRTstar",
    "start": {
        "state": {
            "elbow_joint": 1.971548259319323,
            "shoulder_lift_joint": -1.1394851275133948,
            "shoulder_pan_joint": 0.1228115487234821,
            "wrist_1_joint": -0.7804723859257726,
            "wrist_2_joint": 0.12958671773740124,
            "wrist_3_joint": -3.192489227718131
        }
    },
    "waypoints": [
        {
            "positions": [
                0.1228115487234821,
                -1.1394851275133948,
                1.971548259319323,
                -0.7804723859257726,
                0.12958671773740124,
                -3.192489227718131
            ]
        },
        {
            "positions": [
                0.05746078562330005,
                -1.1730630299943896,
                2.035568060691988,
                -0.8139717726703256,
                0.28863828847761674,
                -3.1790445784293304
            ]
        },
        {
            "positions": [
                -0.007889977476881999,
                -1.2066409324753846,
                2.0995878620646526,
                -0.8474711594148787,
                0.4476898592178322,
                -3.16559992914053
            ]
        },
        {
            "positions": [
                -0.07324074057706403,
                -1.2402188349563794,
                2.163607663437318,
                -0.8809705461594317,
                0.6067414299580477,
                -3.1521552798517294
            ]
        },
        {
            "positions": [
                -0.1385915036772461,
                -1.2737967374373744,
                2.2276274648099825,
                -0.9144699329039848,
                0.7657930006982632,
                -3.138710630562929
            ]
        },
        {
            "positions": [
                -0.20394226677742816,
                -1.3073746399183692,
                2.2916472661826472,
                -0.9479693196485378,
                0.9248445714384788,
                -3.1252659812741284
            ]
        },
        {
            "positions": [
                -0.26929302987761017,
                -1.3409525423993642,
                2.3556670675553124,
                -0.9814687063930909,
                1.0838961421786941,
                -3.111821331985328
            ]
        },
        {
            "positions": [
                -0.33464379297779223,
                -1.374530444880359,
                2.419686868927977,
                -1.014968093137644,
                1.2429477129189097,
                -3.0983766826965273
            ]
        }
    ]
}{
    "goal": {
        "global_pose": {
            "orientation": {
                "w": 0.5084816217422485,
                "x": -0.49083608388900757,
                "y": 0.5182115435600281,
                "z": -0.4816462993621826
            },
            "position": {
                "x": 0.5540239810943604,
                "y": 0.030875300988554955,
                "z": 0.16403168439865112
            }
        },
        "name": "move_to_storage_A"
    },
    "id": "RRTstar_move_to_storage_A_71",
    "joint_names": [
        "shoulder_pan_joint",
        "shoulder_lift_joint",
        "elbow_joint",
        "wrist_1_joint",
        "wrist_2_joint",
        "wrist_3_joint"
    ],
    "metrics": {
        "cart_traj_len": 0.3532691949762937,
        "distance_elbow_joint": 0.44926150245245955,
        "distance_shoulder_lift_joint": 0.23732182165825333,
        "distance_shoulder_pan_joint": 0.46414629246003164,
        "distance_wrist_1_joint": 0.23335976578576223,
        "distance_wrist_2_joint": 1.0912525194092293,
        "distance_wrist_3_joint": 0.09367374141694684,
        "smoothness": 4.440892098500626e-16,
        "time": 5.000976340999999,
        "traj_len": 1.6028149123285205,
        "weighted_distance": 2.020142423496811
    },
    "planner": "RRTstar",
    "start": {
        "state": {
            "elbow_joint": 1.97154746011099,
            "shoulder_lift_joint": -1.13948474672311,
            "shoulder_pan_joint": 0.12281154466712228,
            "wrist_1_joint": -0.7804688027058302,
            "wrist_2_joint": 0.12958655903071145,
            "wrist_3_joint": 3.0906928834467795
        }
    },
    "waypoints": [
        {
            "positions": [
                0.12281154466712228,
                -1.13948474672311,
                1.97154746011099,
                -0.7804688027058302,
                0.12958655903071145,
                3.0906928834467795
            ]
        },
        {
            "positions": [
                0.056504931458546334,
                -1.1733878641028603,
                2.0357276747470556,
                -0.8138059121037963,
                0.28547977608917274,
                3.1040748465063435
            ]
        },
        {
            "positions": [
                -0.009801681750029614,
                -1.207290981482611,
                2.0999078893831213,
                -0.8471430215017622,
                0.4413729931476341,
                3.117456809565907
            ]
        },
        {
            "positions": [
                -0.07610829495860556,
                -1.2411940988623613,
                2.164088104019187,
                -0.8804801308997283,
                0.5972662102060954,
                3.130838772625471
            ]
        },
        {
            "positions": [
                -0.1424149081671815,
                -1.275097216242112,
                2.2282683186552523,
                -0.9138172402976943,
                0.7531594272645568,
                3.144220735685035
            ]
        },
        {
            "positions": [
                -0.20872152137575745,
                -1.3090003336218623,
                2.292448533291318,
                -0.9471543496956604,
                0.9090526443230181,
                3.157602698744599
            ]
        },
        {
            "positions": [
                -0.2750281345843334,
                -1.3429034510016127,
                2.3566287479273837,
                -0.9804914590936263,
                1.0649458613814793,
                3.1709846618041624
            ]
        },
        {
            "positions": [
                -0.34133474779290934,
                -1.3768065683813633,
                2.4208089625634495,
                -1.0138285684915924,
                1.2208390784399408,
                3.1843666248637263
            ]
        }
    ]
}{
    "goal": {
        "global_pose": {
            "orientation": {
                "w": 0.5084816217422485,
                "x": -0.49083608388900757,
                "y": 0.5182115435600281,
                "z": -0.4816462993621826
            },
            "position": {
                "x": 0.5540239810943604,
                "y": 0.030875300988554955,
                "z": 0.16403168439865112
            }
        },
        "name": "move_to_storage_A"
    },
    "id": "RRTstar_move_to_storage_A_71",
    "joint_names": [
        "shoulder_pan_joint",
        "shoulder_lift_joint",
        "elbow_joint",
        "wrist_1_joint",
        "wrist_2_joint",
        "wrist_3_joint"
    ],
    "metrics": {
        "cart_traj_len": 0.35301222407346683,
        "distance_elbow_joint": 0.4491769706363127,
        "distance_shoulder_lift_joint": 0.23655061991706883,
        "distance_shoulder_pan_joint": 0.462868692540454,
        "distance_wrist_1_joint": 0.23670456748519908,
        "distance_wrist_2_joint": 1.094198400427668,
        "distance_wrist_3_joint": 0.09351123311235776,
        "smoothness": 8.881784197001252e-16,
        "time": 5.086987138,
        "traj_len": 1.6040606235797512,
        "weighted_distance": 2.0226062192766645
    },
    "planner": "RRTstar",
    "start": {
        "state": {
            "elbow_joint": 1.9715472970024885,
            "shoulder_lift_joint": -1.1394870060712896,
            "shoulder_pan_joint": 0.12281152778156021,
            "wrist_1_joint": -0.780463741449964,
            "wrist_2_joint": 0.12958659822042276,
            "wrist_3_joint": 3.090690232415272
        }
    },
    "waypoints": [
        {
            "positions": [
                0.12281152778156021,
                -1.1394870060712896,
                1.9715472970024885,
                -0.780463741449964,
                0.12958659822042276,
                3.090690232415272
            ]
        },
        {
            "positions": [
                0.05668742884720965,
                -1.173279951773728,
                2.035715435664819,
                -0.8142786796621353,
                0.2859006554243753,
                3.1040489800027515
            ]
        },
        {
            "positions": [
                -0.009436670087140914,
                -1.2070728974761664,
                2.099883574327149,
                -0.8480936178743066,
                0.4422147126283279,
                3.117407727590231
            ]
        },
        {
            "positions": [
                -0.07556076902149148,
                -1.2408658431786048,
                2.1640517129894796,
                -0.8819085560864779,
                0.5985287698322804,
                3.130766475177711
            ]
        },
        {
            "positions": [
                -0.14168486795584204,
                -1.2746587888810432,
                2.22821985165181,
                -0.9157234942986492,
                0.754842827036233,
                3.1441252227651906
            ]
        },
        {
            "positions": [
                -0.2078089668901926,
                -1.3084517345834816,
                2.2923879903141406,
                -0.9495384325108205,
                0.9111568842401856,
                3.1574839703526703
            ]
        },
        {
            "positions": [
                -0.27393306582454313,
                -1.34224468028592,
                2.3565561289764707,
                -0.9833533707229918,
                1.0674709414441381,
                3.17084271794015
            ]
        },
        {
            "positions": [
                -0.34005716475889375,
                -1.3760376259883584,
                2.420724267638801,
                -1.017168308935163,
                1.2237849986480906,
                3.1842014655276296
            ]
        }
    ]
}