{
    "goal": {
        "global_pose": {
            "orientation": {
                "w": 0.5084816262002911,
                "x": -0.4908360881923452,
                "y": 0.5182115481033761,
                "z": -0.48164630358495003
            },
            "position": {
                "x": 0.5540239810943604,
                "y": -0.46912469901144505,
                "z": 0.16403168439865112
            }
        },
        "name": "move_to_storage_B"
    },
    "id": "RRTstar_move_to_storage_B_127",
    "joint_names": [
        "shoulder_pan_joint",
        "shoulder_lift_joint",
        "elbow_joint",
        "wrist_1_joint",
        "wrist_2_joint",
        "wrist_3_joint"
    ],
    "metrics": {
        "cart_traj_len": 0.7475592191023122,
        "distance_elbow_joint": 0.34931354772817214,
        "distance_shoulder_lift_joint": 0.4585852429793049,
        "distance_shoulder_pan_joint": 0.1974486234975933,
        "distance_wrist_1_joint": 2.979856774793199,
        "distance_wrist_2_joint": 2.699254015318049,
        "distance_wrist_3_joint": 3.1405682646453235,
        "smoothness": 0.000828343645126008,
        "time": 5.015697897,
        "traj_len": 3.1344898259464236,
        "weighted_distance": 4.667469741558432
    },
    "planner": "RRTstar",
    "start": {
        "state": {
            "elbow_joint": 1.664937868594044,
            "shoulder_lift_joint": -0.661644460510453,
            "shoulder_pan_joint": -0.9139846352900073,
            "wrist_1_joint": 2.146753192139373,
            "wrist_2_joint": -2.2341966793290973,
            "wrist_3_joint": 0.005466555786416001
        }
    },
    "waypoints": [
        {
            "positions": [
                -0.9139846352900073,
                -0.661644460510453,
                1.664937868594044,
                2.146753192139373,
                -2.2341966793290973,
                0.005466555786416001
            ]
        },
        {
            "positions": [
                -0.9113579502898144,
                -0.686466166676517,
                1.6884768043518947,
                2.0944265299619276,
                -2.1586640066459646,
                0.0843803849333394
            ]
        },
        {
            "positions": [
                -0.9087312652896216,
                -0.7112878728425812,
                1.7120157401097456,
                2.042099867784482,
                -2.0831313339628323,
                0.1632942140802628
            ]
        },
        {
            "positions": [
                -0.9084638798326723,
                -0.7403036798828486,
                1.73849208713469,
                1.9564667052010047,
                -1.9789914866592726,
                0.2759905698240884
            ]
        },
        {
            "positions": [
                -0.908196494375723,
                -0.7693194869231159,
                1.7649684341596348,
                1.8708335426175273,
                -1.874851639355713,
                0.38868692556791407
            ]
        },
        {
            "positions": [
                -0.9079291089187739,
                -0.7983352939633833,
                1.7914447811845793,
                1.7852003800340501,
                -1.7707117920521533,
                0.5013832813117397
            ]
        },
        {
            "positions": [
                -0.9076617234618246,
                -0.8273511010036506,
                1.817921128209524,
                1.699567217450573,
                -1.6665719447485938,
                0.6140796370555653
            ]
        },
        {
            "positions": [
                -0.9073943380048753,
                -0.856366908043918,
                1.8443974752344685,
                1.6139340548670955,
                -1.562432097445034,
                0.726775992799391
            ]
        },
        {
            "positions": [
                -0.9071269525479261,
                -0.8853827150841853,
                1.8708738222594132,
                1.5283008922836183,
                -1.4582922501414743,
                0.8394723485432166
            ]
        },
        {
            "positions": [
                -0.9068595670909769,
                -0.9143985221244527,
                1.8973501692843577,
                1.442667729700141,
                -1.3541524028379146,
                0.9521687042870423
            ]
        },
        {
            "positions": [
                -0.9065921816340277,
                -0.94341432916472,
                1.9238265163093025,
                1.357034567116664,
                -1.250012555534355,
                1.064865060030868
            ]
        },
        {
            "positions": [
                -0.9063247961770784,
                -0.9724301362049874,
                1.950302863334247,
                1.2714014045331865,
                -1.1458727082307953,
                1.1775614157746936
            ]
        },
        {
            "positions": [
                -0.9181865952011199,
                -0.9816676091602856,
                1.954299647895995,
                1.1398698428339982,
                -1.0451895804670612,
                1.300591003565759
            ]
        },
        {
            "positions": [
                -0.9300483942251614,
                -0.9909050821155837,
                1.9582964324577432,
                1.00833828113481,
                -0.944506452703327,
                1.4236205913568243
            ]
        },
        {
            "positions": [
                -0.941910193249203,
                -1.0001425550708818,
                1.962293217019491,
                0.8768067194356218,
                -0.8438233249395928,
                1.5466501791478897
            ]
        },
        {
            "positions": [
                -0.9537719922732445,
                -1.00938002802618,
                1.9662900015812392,
                0.7452751577364336,
                -0.7431401971758587,
                1.669679766938955
            ]
        },
        {
            "positions": [
                -0.965633791297286,
                -1.0186175009814782,
                1.9702867861429874,
                0.6137435960372454,
                -0.6424570694121245,
                1.7927093547300204
            ]
        },
        {
            "positions": [
                -0.9774955903213276,
                -1.0278549739367764,
                1.9742835707047353,
                0.48221203433805715,
                -0.5417739416483903,
                1.9157389425210858
            ]
        },
        {
            "positions": [
                -0.9893573893453691,
                -1.0370924468920746,
                1.9782803552664834,
                0.3506804726388689,
                -0.4410908138846561,
                2.038768530312151
            ]
        },
        {
            "positions": [
                -1.0012191883694106,
                -1.0463299198473726,
                1.9822771398282315,
                0.2191489109396807,
                -0.340407686120922,
                2.161798118103216
            ]
        },
        {
            "positions": [
                -1.013080987393452,
                -1.0555673928026708,
                1.9862739243899796,
                0.08761734924049236,
                -0.23972455835718787,
                2.2848277058942816
            ]
        },
        {
            "positions": [
                -1.0249427864174936,
                -1.064804865757969,
                1.9902707089517278,
                -0.043914212458695756,
                -0.13904143059345375,
                2.407857293685347
            ]
        },
        {
            "positions": [
                -1.036804585441535,
                -1.0740423387132672,
                1.9942674935134757,
                -0.17544577415788387,
                -0.038358302829719415,
                2.5308868814764125
            ]
        },
        {
            "positions": [
                -1.0486663844655766,
                -1.0832798116685654,
                1.9982642780752238,
                -0.3069773358570722,
                0.0623248249340147,
                2.653916469267478
            ]
        },
        {
            "positions": [
                -1.0605281834896183,
                -1.0925172846238635,
                2.002261062636972,
                -0.43850889755626055,
                0.16300795269774881,
                2.7769460570585434
            ]
        },
        {
            "positions": [
                -1.0723899825136598,
                -1.1017547575791615,
                2.00625784719872,
                -0.5700404592554487,
                0.26369108046148315,
                2.899975644849609
            ]
        },
        {
            "positions": [
                -1.0842517815377013,
                -1.1109922305344597,
                2.010254631760468,
                -0.7015720209546368,
                0.36437420822521727,
                3.023005232640674
            ]
        },
        {
            "positions": [
                -1.0961135805617428,
                -1.120229703489758,
                2.014251416322216,
                -0.8331035826538253,
                0.46505733598895127,
                3.146034820431739
            ]
        }
    ]
}