{
    "goal": {
        "global_pose": {
            "orientation": {
                "w": -0.00223480608172531,
                "x": 0.0024358444001904467,
                "y": 0.7094548369677653,
                "z": -0.704743149386269
            },
            "position": {
                "x": -0.37947507619857795,
                "y": -0.6371506643295288,
                "z": 0.19426114857196808
            }
        },
        "name": "move_to_magneteinheit_C"
    },
    "id": "RRTstar_move_to_magneteinheit_C_58",
    "joint_names": [
        "shoulder_pan_joint",
        "shoulder_lift_joint",
        "elbow_joint",
        "wrist_1_joint",
        "wrist_2_joint",
        "wrist_3_joint"
    ],
    "metrics": {
        "cart_traj_len": 7.239738738000498,
        "distance_elbow_joint": 1.7752213857986576,
        "distance_shoulder_lift_joint": 3.0536588639699866,
        "distance_shoulder_pan_joint": 9.190039294469162,
        "distance_wrist_1_joint": 6.65575662236548,
        "distance_wrist_2_joint": 1.8945507360589429,
        "distance_wrist_3_joint": 0.18654731717688255,
        "smoothness": 0.6103711980002136,
        "time": 5.186406236,
        "traj_len": 4.770301271391473,
        "weighted_distance": 5.6284257312873285
    },
    "planner": "RRTstar",
    "start": {
        "state": {
            "elbow_joint": 1.9565354010623817,
            "shoulder_lift_joint": -1.4165861575791021,
            "shoulder_pan_joint": -1.6717766225146293,
            "wrist_1_joint": -0.5286633292919765,
            "wrist_2_joint": 1.472756589071564,
            "wrist_3_joint": -3.1238370188695823
        }
    },
    "waypoints": [
        {
            "positions": [
                -1.6717766225146293,
                -1.4165861575791021,
                1.9565354010623817,
                -0.5286633292919765,
                1.472756589071564,
                -3.1238370188695823
            ]
        },
        {
            "positions": [
                -1.5219759295302857,
                -1.4666171234337715,
                1.9258987952231872,
                -0.41564815711707365,
                1.4247448820504964,
                -3.127417214489159
            ]
        },
        {
            "positions": [
                -1.372175236545942,
                -1.5166480892884406,
                1.8952621893839925,
                -0.30263298494217084,
                1.376733175029429,
                -3.130997410108736
            ]
        },
        {
            "positions": [
                -1.2223745435615985,
                -1.56667905514311,
                1.864625583544798,
                -0.18961781276726797,
                1.3287214680083612,
                -3.134577605728313
            ]
        },
        {
            "positions": [
                -1.0725738505772549,
                -1.6167100209977792,
                1.8339889777056035,
                -0.07660264059236516,
                1.2807097609872937,
                -3.13815780134789
            ]
        },
        {
            "positions": [
                -0.9227731575929112,
                -1.6667409868524485,
                1.8033523718664088,
                0.036412531582537766,
                1.2326980539662262,
                -3.141737996967467
            ]
        },
        {
            "positions": [
                -0.7729724646085676,
                -1.7167719527071177,
                1.7727157660272144,
                0.14942770375744052,
                1.1846863469451587,
                -3.1453181925870437
            ]
        },
        {
            "positions": [
                -0.623171771624224,
                -1.766802918561787,
                1.7420791601880197,
                0.2624428759323434,
                1.1366746399240912,
                -3.1488983882066206
            ]
        },
        {
            "positions": [
                -0.47337107863988037,
                -1.8168338844164564,
                1.7114425543488252,
                0.37545804810724615,
                1.0886629329030235,
                -3.152478583826198
            ]
        },
        {
            "positions": [
                -0.32357038565553675,
                -1.8668648502711256,
                1.6808059485096307,
                0.4884732202821491,
                1.040651225881956,
                -3.156058779445775
            ]
        },
        {
            "positions": [
                -0.17376969267119313,
                -1.916895816125795,
                1.650169342670436,
                0.601488392457052,
                0.9926395188608885,
                -3.1596389750653517
            ]
        },
        {
            "positions": [
                -0.023968999686849513,
                -1.9669267819804643,
                1.6195327368312415,
                0.7145035646319546,
                0.9446278118398209,
                -3.1632191706849286
            ]
        },
        {
            "positions": [
                0.1258316932974941,
                -2.0169577478351335,
                1.588896130992047,
                0.8275187368068575,
                0.8966161048187534,
                -3.1667993663045055
            ]
        },
        {
            "positions": [
                0.2756323862818377,
                -2.0669887136898026,
                1.5582595251528524,
                0.9405339089817604,
                0.8486043977976858,
                -3.1703795619240824
            ]
        },
        {
            "positions": [
                0.42543307926618135,
                -2.1170196795444722,
                1.527622919313658,
                1.0535490811566632,
                0.8005926907766183,
                -3.1739597575436593
            ]
        },
        {
            "positions": [
                0.575233772250525,
                -2.1670506453991414,
                1.4969863134744634,
                1.166564253331566,
                0.7525809837555508,
                -3.1775399531632362
            ]
        },
        {
            "positions": [
                0.7250344652348686,
                -2.2170816112538105,
                1.4663497076352687,
                1.2795794255064687,
                0.7045692767344833,
                -3.181120148782813
            ]
        },
        {
            "positions": [
                0.8748351582192122,
                -2.26711257710848,
                1.4357131017960743,
                1.3925945976813716,
                0.6565575697134157,
                -3.18470034440239
            ]
        },
        {
            "positions": [
                1.0246358512035558,
                -2.3171435429631493,
                1.4050764959568798,
                1.5056097698562747,
                0.6085458626923481,
                -3.188280540021967
            ]
        },
        {
            "positions": [
                1.1744365441878994,
                -2.3671745088178184,
                1.374439890117685,
                1.6186249420311773,
                0.5605341556712805,
                -3.191860735641544
            ]
        },
        {
            "positions": [
                1.324237237172243,
                -2.417205474672488,
                1.3438032842784906,
                1.7316401142060804,
                0.512522448650213,
                -3.1954409312611207
            ]
        },
        {
            "positions": [
                1.4740379301565867,
                -2.467236440527157,
                1.3131666784392961,
                1.844655286380983,
                0.4645107416291454,
                -3.199021126880698
            ]
        },
        {
            "positions": [
                1.6238386231409303,
                -2.5172674063818263,
                1.2825300726001014,
                1.9576704585558857,
                0.4164990346080779,
                -3.202601322500275
            ]
        },
        {
            "positions": [
                1.773639316125274,
                -2.567298372236496,
                1.251893466760907,
                2.0706856307307886,
                0.3684873275870104,
                -3.206181518119852
            ]
        },
        {
            "positions": [
                1.9234400091096175,
                -2.6173293380911646,
                1.2212568609217125,
                2.1837008029056912,
                0.3204756205659429,
                -3.2097617137394288
            ]
        },
        {
            "positions": [
                2.073240702093961,
                -2.6673603039458342,
                1.1906202550825178,
                2.2967159750805948,
                0.2724639135448752,
                -3.2133419093590057
            ]
        },
        {
            "positions": [
                2.2230413950783046,
                -2.717391269800504,
                1.159983649243323,
                2.4097311472554974,
                0.2244522065238077,
                -3.2169221049785826
            ]
        },
        {
            "positions": [
                2.372842088062648,
                -2.7674222356551725,
                1.1293470434041288,
                2.5227463194304,
                0.1764404995027402,
                -3.2205023005981595
            ]
        },
        {
            "positions": [
                2.522642781046992,
                -2.817453201509842,
                1.0987104375649341,
                2.635761491605303,
                0.12842879248167272,
                -3.2240824962177363
            ]
        },
        {
            "positions": [
                2.35612211801674,
                -2.762360140841867,
                1.1292903183083078,
                2.5193837648896964,
                0.1467695571306411,
                -3.221205768223445
            ]
        },
        {
            "positions": [
                2.1896014549864886,
                -2.7072670801738923,
                1.1598701990516815,
                2.40300603817409,
                0.1651103217796095,
                -3.2183290402291544
            ]
        },
        {
            "positions": [
                2.023080791956237,
                -2.6521740195059174,
                1.1904500797950552,
                2.2866283114584833,
                0.18345108642857785,
                -3.2154523122348637
            ]
        },
        {
            "positions": [
                1.856560128925985,
                -2.5970809588379424,
                1.2210299605384287,
                2.170250584742877,
                0.20179185107754624,
                -3.2125755842405725
            ]
        },
        {
            "positions": [
                1.6900394658957336,
                -2.541987898169968,
                1.2516098412818024,
                2.0538728580272707,
                0.2201326157265146,
                -3.2096988562462814
            ]
        },
        {
            "positions": [
                1.5235188028654818,
                -2.486894837501993,
                1.2821897220251761,
                1.937495131311664,
                0.238473380375483,
                -3.2068221282519906
            ]
        },
        {
            "positions": [
                1.3569981398352302,
                -2.431801776834018,
                1.3127696027685498,
                1.8211174045960572,
                0.2568141450244514,
                -3.2039454002577
            ]
        },
        {
            "positions": [
                1.1904774768049784,
                -2.376708716166043,
                1.3433494835119235,
                1.7047396778804509,
                0.27515490967341977,
                -3.2010686722634087
            ]
        },
        {
            "positions": [
                1.0239568137747268,
                -2.3216156554980683,
                1.3739293642552972,
                1.5883619511648444,
                0.2934956743223881,
                -3.1981919442691176
            ]
        },
        {
            "positions": [
                0.8574361507444752,
                -2.2665225948300933,
                1.4045092449986707,
                1.4719842244492378,
                0.3118364389713565,
                -3.195315216274827
            ]
        },
        {
            "positions": [
                0.6909154877142236,
                -2.211429534162119,
                1.4350891257420444,
                1.3556064977336313,
                0.3301772036203249,
                -3.192438488280536
            ]
        },
        {
            "positions": [
                0.5243948246839718,
                -2.1563364734941435,
                1.465669006485418,
                1.2392287710180245,
                0.34851796826929327,
                -3.189561760286245
            ]
        },
        {
            "positions": [
                0.35787416165372,
                -2.101243412826169,
                1.4962488872287918,
                1.122851044302418,
                0.36685873291826165,
                -3.1866850322919538
            ]
        },
        {
            "positions": [
                0.19135349862346862,
                -2.046150352158194,
                1.5268287679721655,
                1.0064733175868115,
                0.38519949756723004,
                -3.183808304297663
            ]
        },
        {
            "positions": [
                0.024832835593216807,
                -1.9910572914902191,
                1.5574086487155392,
                0.8900955908712049,
                0.40354026221619843,
                -3.1809315763033723
            ]
        },
        {
            "positions": [
                -0.141687827437035,
                -1.9359642308222442,
                1.587988529458913,
                0.7737178641555984,
                0.4218810268651668,
                -3.178054848309081
            ]
        },
        {
            "positions": [
                -0.3082084904672864,
                -1.8808711701542693,
                1.6185684102022866,
                0.6573401374399919,
                0.4402217915141352,
                -3.17517812031479
            ]
        },
        {
            "positions": [
                -0.4747291534975382,
                -1.8257781094862944,
                1.6491482909456603,
                0.5409624107243856,
                0.45856255616310354,
                -3.1723013923204992
            ]
        },
        {
            "positions": [
                -0.6412498165277896,
                -1.7706850488183197,
                1.679728171689034,
                0.4245846840087788,
                0.47690332081207193,
                -3.1694246643262085
            ]
        },
        {
            "positions": [
                -0.8077704795580414,
                -1.7155919881503447,
                1.7103080524324075,
                0.3082069572931725,
                0.4952440854610403,
                -3.1665479363319173
            ]
        },
        {
            "positions": [
                -0.9742911425882932,
                -1.6604989274823698,
                1.7408879331757812,
                0.19182923057756573,
                0.5135848501100087,
                -3.1636712083376266
            ]
        },
        {
            "positions": [
                -1.1408118056185446,
                -1.6054058668143951,
                1.7714678139191549,
                0.07545150386195942,
                0.531925614758977,
                -3.1607944803433354
            ]
        },
        {
            "positions": [
                -1.3073324686487968,
                -1.55031280614642,
                1.8020476946625286,
                -0.040926222853647776,
                0.5502663794079454,
                -3.1579177523490447
            ]
        },
        {
            "positions": [
                -1.4738531316790482,
                -1.495219745478445,
                1.8326275754059023,
                -0.1573039495692541,
                0.5686071440569138,
                -3.1550410243547535
            ]
        },
        {
            "positions": [
                -1.6403737947093004,
                -1.4401266848104703,
                1.863207456149276,
                -0.27368167628486084,
                0.5869479087058822,
                -3.1521642963604624
            ]
        },
        {
            "positions": [
                -1.8068944577395518,
                -1.3850336241424954,
                1.8937873368926494,
                -0.39005940300046715,
                0.6052886733548506,
                -3.1492875683661716
            ]
        },
        {
            "positions": [
                -1.9734151207698032,
                -1.3299405634745205,
                1.9243672176360231,
                -0.5064371297160739,
                0.623629438003819,
                -3.146410840371881
            ]
        },
        {
            "positions": [
                -2.1399357838000546,
                -1.2748475028065456,
                1.9549470983793968,
                -0.6228148564316802,
                0.6419702026527874,
                -3.1435341123775897
            ]
        },
        {
            "positions": [
                -2.306456446830307,
                -1.2197544421385709,
                1.9855269791227705,
                -0.739192583147287,
                0.6603109673017558,
                -3.1406573843832986
            ]
        },
        {
            "positions": [
                -2.472977109860558,
                -1.164661381470596,
                2.0161068598661442,
                -0.8555703098628933,
                0.6786517319507241,
                -3.137780656389008
            ]
        }
    ]
}