{
    "goal": {
        "global_pose": {
            "orientation": {
                "w": 0.5084816262002911,
                "x": -0.4908360881923452,
                "y": 0.5182115481033761,
                "z": -0.48164630358495003
            },
            "position": {
                "x": 0.5540239810943604,
                "y": -0.46912469901144505,
                "z": 0.16403168439865112
            }
        },
        "name": "move_to_storage_B"
    },
    "id": "RRTstar_move_to_storage_B_116",
    "joint_names": [
        "shoulder_pan_joint",
        "shoulder_lift_joint",
        "elbow_joint",
        "wrist_1_joint",
        "wrist_2_joint",
        "wrist_3_joint"
    ],
    "metrics": {
        "cart_traj_len": 0.7509723508869196,
        "distance_elbow_joint": 0.47384030168251545,
        "distance_shoulder_lift_joint": 0.4607143097065818,
        "distance_shoulder_pan_joint": 0.17960909597078512,
        "distance_wrist_1_joint": 2.9895311106815665,
        "distance_wrist_2_joint": 2.7205492072269895,
        "distance_wrist_3_joint": 3.1351396731988483,
        "smoothness": 0.023598202306601063,
        "time": 5.066952103999999,
        "traj_len": 3.1558491247946705,
        "weighted_distance": 4.683987976369447
    },
    "planner": "RRTstar",
    "start": {
        "state": {
            "elbow_joint": 1.664937868594044,
            "shoulder_lift_joint": -0.661644460510453,
            "shoulder_pan_joint": -0.9139846352900073,
            "wrist_1_joint": 2.146753192139373,
            "wrist_2_joint": -2.2341966793290973,
            "wrist_3_joint": 0.005466555786416001
        }
    },
    "waypoints": [
        {
            "positions": [
                -0.9139846352900073,
                -0.661644460510453,
                1.664937868594044,
                2.146753192139373,
                -2.2341966793290973,
                0.005466555786416001
            ]
        },
        {
            "positions": [
                -0.9171942578034928,
                -0.6851070219954989,
                1.6878891820146384,
                2.026355317472202,
                -2.1002230649041764,
                -0.07455741098761792
            ]
        },
        {
            "positions": [
                -0.9204038803169785,
                -0.7085695834805448,
                1.7108404954352332,
                1.905957442805031,
                -1.9662494504792554,
                -0.15458137776165184
            ]
        },
        {
            "positions": [
                -0.9236135028304641,
                -0.7320321449655907,
                1.7337918088558277,
                1.78555956813786,
                -1.8322758360543345,
                -0.2346053445356858
            ]
        },
        {
            "positions": [
                -0.9268231253439497,
                -0.7554947064506365,
                1.7567431222764223,
                1.6651616934706888,
                -1.6983022216294135,
                -0.31462931130971966
            ]
        },
        {
            "positions": [
                -0.9300327478574353,
                -0.7789572679356824,
                1.779694435697017,
                1.5447638188035175,
                -1.5643286072044926,
                -0.39465327808375367
            ]
        },
        {
            "positions": [
                -0.933242370370921,
                -0.8024198294207282,
                1.8026457491176116,
                1.4243659441363465,
                -1.4303549927795718,
                -0.47467724485778756
            ]
        },
        {
            "positions": [
                -0.9364519928844065,
                -0.8258823909057741,
                1.825597062538206,
                1.3039680694691753,
                -1.2963813783546507,
                -0.5547012116318215
            ]
        },
        {
            "positions": [
                -0.9396616153978922,
                -0.84934495239082,
                1.8485483759588008,
                1.1835701948020043,
                -1.1624077639297299,
                -0.6347251784058554
            ]
        },
        {
            "positions": [
                -0.9428712379113777,
                -0.8728075138758659,
                1.8714996893793954,
                1.063172320134833,
                -1.0284341495048088,
                -0.7147491451798894
            ]
        },
        {
            "positions": [
                -0.9460808604248633,
                -0.8962700753609117,
                1.89445100279999,
                0.9427744454676619,
                -0.8944605350798878,
                -0.7947731119539234
            ]
        },
        {
            "positions": [
                -0.949290482938349,
                -0.9197326368459576,
                1.9174023162205847,
                0.8223765708004906,
                -0.7604869206549669,
                -0.8747970787279573
            ]
        },
        {
            "positions": [
                -0.9525001054518345,
                -0.9431951983310034,
                1.9403536296411792,
                0.7019786961333199,
                -0.6265133062300461,
                -0.9548210455019912
            ]
        },
        {
            "positions": [
                -0.9557097279653202,
                -0.9666577598160493,
                1.9633049430617737,
                0.5815808214661486,
                -0.492539691805125,
                -1.034845012276025
            ]
        },
        {
            "positions": [
                -0.9589193504788057,
                -0.9901203213010952,
                1.9862562564823685,
                0.4611829467989774,
                -0.3585660773802042,
                -1.114868979050059
            ]
        },
        {
            "positions": [
                -0.9621289729922914,
                -1.013582882786141,
                2.009207569902963,
                0.3407850721318062,
                -0.2245924629552829,
                -1.1948929458240931
            ]
        },
        {
            "positions": [
                -0.9653385955057769,
                -1.037045444271187,
                2.0321588833235578,
                0.22038719746463542,
                -0.0906188485303625,
                -1.2749169125981268
            ]
        },
        {
            "positions": [
                -0.9685482180192626,
                -1.0605080057562328,
                2.055110196744152,
                0.0999893227974642,
                0.04335476589455878,
                -1.354940879372161
            ]
        },
        {
            "positions": [
                -0.9717578405327482,
                -1.0839705672412787,
                2.078061510164747,
                -0.020408551869707053,
                0.17732838031947942,
                -1.4349648461461948
            ]
        },
        {
            "positions": [
                -0.9869873268737537,
                -1.0887690926132483,
                2.0704719276507704,
                -0.12320472270376777,
                0.21595639876678085,
                -1.6468033800544746
            ]
        },
        {
            "positions": [
                -1.0022168132147593,
                -1.0935676179852178,
                2.062882345136794,
                -0.22600089353782848,
                0.2545844172140823,
                -1.8586419139627544
            ]
        },
        {
            "positions": [
                -1.0174462995557647,
                -1.0983661433571872,
                2.055292762622817,
                -0.32879706437188916,
                0.2932124356613838,
                -2.070480447871034
            ]
        },
        {
            "positions": [
                -1.0326757858967703,
                -1.1031646687291567,
                2.0477031801088406,
                -0.43159323520594994,
                0.33184045410868523,
                -2.282318981779314
            ]
        },
        {
            "positions": [
                -1.0479052722377757,
                -1.1079631941011263,
                2.040113597594864,
                -0.5343894060400106,
                0.3704684725559867,
                -2.4941575156875935
            ]
        },
        {
            "positions": [
                -1.0631347585787814,
                -1.1127617194730957,
                2.032524015080887,
                -0.6371855768740713,
                0.4090964910032881,
                -2.705996049595873
            ]
        },
        {
            "positions": [
                -1.0783642449197868,
                -1.1175602448450652,
                2.0249344325669107,
                -0.7399817477081321,
                0.4477245094505895,
                -2.9178345835041526
            ]
        },
        {
            "positions": [
                -1.0935937312607924,
                -1.1223587702170348,
                2.0173448500529343,
                -0.8427779185421927,
                0.48635252789789096,
                -3.1296731174124326
            ]
        }
    ]
}