{
    "goal": {
        "global_pose": {
            "orientation": {
                "w": -0.00223480608172531,
                "x": 0.0024358444001904467,
                "y": 0.7094548369677653,
                "z": -0.704743149386269
            },
            "position": {
                "x": 0.6205249238014221,
                "y": -0.6371506643295288,
                "z": 0.19426114857196808
            }
        },
        "name": "move_to_magneteinheit_B"
    },
    "id": "RRTstar_move_to_magneteinheit_B_58",
    "joint_names": [
        "shoulder_pan_joint",
        "shoulder_lift_joint",
        "elbow_joint",
        "wrist_1_joint",
        "wrist_2_joint",
        "wrist_3_joint"
    ],
    "metrics": {
        "cart_traj_len": 1.4851284551666482,
        "distance_elbow_joint": 0.9537512631604586,
        "distance_shoulder_lift_joint": 1.4278593687192458,
        "distance_shoulder_pan_joint": 1.6212851639911383,
        "distance_wrist_1_joint": 0.7779958257750934,
        "distance_wrist_2_joint": 1.5198502389292143,
        "distance_wrist_3_joint": 1.0401496695000718,
        "smoothness": 0.5188547413942687,
        "time": 5.011738873,
        "traj_len": 2.7094079667106654,
        "weighted_distance": 3.423307893511724
    },
    "planner": "RRTstar",
    "start": {
        "state": {
            "elbow_joint": 2.6216224122426386,
            "shoulder_lift_joint": -1.4174107377796124,
            "shoulder_pan_joint": 0.7066234856936794,
            "wrist_1_joint": 1.9546482284002225,
            "wrist_2_joint": -0.7096286983471962,
            "wrist_3_joint": 0.005740856962016249
        }
    },
    "waypoints": [
        {
            "positions": [
                0.7066234856936794,
                -1.4174107377796124,
                2.6216224122426386,
                1.9546482284002225,
                -0.7096286983471962,
                0.005740856962016249
            ]
        },
        {
            "positions": [
                0.6426103837815977,
                -1.4549163557808185,
                2.600980702622625,
                2.0092471720180516,
                -0.8522695875835179,
                -0.051749071692537355
            ]
        },
        {
            "positions": [
                0.5785972818695161,
                -1.4924219737820248,
                2.5803389930026106,
                2.0638461156358807,
                -0.9949104768198396,
                -0.10923900034709096
            ]
        },
        {
            "positions": [
                0.5145841799574344,
                -1.529927591783231,
                2.559697283382597,
                2.1184450592537103,
                -1.1375513660561611,
                -0.16672892900164454
            ]
        },
        {
            "positions": [
                0.45057107804535285,
                -1.567433209784437,
                2.5390555737625826,
                2.1730440028715394,
                -1.280192255292483,
                -0.22421885765619815
            ]
        },
        {
            "positions": [
                0.3865579761332712,
                -1.6049388277856433,
                2.518413864142569,
                2.2276429464893686,
                -1.4228331445288047,
                -0.28170878631075175
            ]
        },
        {
            "positions": [
                0.3225448742211896,
                -1.6424444457868494,
                2.4977721545225546,
                2.2822418901071977,
                -1.5654740337651263,
                -0.33919871496530535
            ]
        },
        {
            "positions": [
                0.2585317723091079,
                -1.6799500637880556,
                2.477130444902541,
                2.3368408337250273,
                -1.708114923001448,
                -0.39668864361985895
            ]
        },
        {
            "positions": [
                0.1945186703970263,
                -1.7174556817892617,
                2.4564887352825266,
                2.3914397773428564,
                -1.8507558122377696,
                -0.45417857227441255
            ]
        },
        {
            "positions": [
                0.1305055684849447,
                -1.754961299790468,
                2.435847025662513,
                2.4460387209606855,
                -1.9933967014740914,
                -0.5116685009289662
            ]
        },
        {
            "positions": [
                0.025988843806704354,
                -1.645930419119629,
                2.3590494380044795,
                2.4173781876392226,
                -2.0170049250543234,
                -0.45939446976805726
            ]
        },
        {
            "positions": [
                -0.078527880871536,
                -1.53689953844879,
                2.282251850346446,
                2.3887176543177593,
                -2.0406131486345553,
                -0.4071204386071483
            ]
        },
        {
            "positions": [
                -0.18304460554977636,
                -1.427868657777951,
                2.205454262688413,
                2.3600571209962964,
                -2.0642213722147873,
                -0.3548464074462393
            ]
        },
        {
            "positions": [
                -0.2875613302280167,
                -1.3188377771071118,
                2.1286566750303795,
                2.3313965876748335,
                -2.0878295957950193,
                -0.30257237628533035
            ]
        },
        {
            "positions": [
                -0.3920780549062571,
                -1.209806896436273,
                2.0518590873723466,
                2.30273605435337,
                -2.1114378193752508,
                -0.2502983451244214
            ]
        },
        {
            "positions": [
                -0.49659477958449744,
                -1.100776015765434,
                1.9750614997143132,
                2.2740755210319072,
                -2.1350460429554827,
                -0.19802431396351244
            ]
        },
        {
            "positions": [
                -0.6011115042627377,
                -0.9917451350945949,
                1.8982639120562799,
                2.2454149877104443,
                -2.1586542665357147,
                -0.1457502828026035
            ]
        },
        {
            "positions": [
                -0.7056282289409781,
                -0.8827142544237558,
                1.8214663243982465,
                2.2167544543889814,
                -2.1822624901159466,
                -0.09347625164169449
            ]
        },
        {
            "positions": [
                -0.8101449536192185,
                -0.7736833737529168,
                1.7446687367402132,
                2.188093921067518,
                -2.2058707136961786,
                -0.041202220480785534
            ]
        },
        {
            "positions": [
                -0.9146616782974588,
                -0.664652493082078,
                1.66787114908218,
                2.159433387746055,
                -2.2294789372764106,
                0.011071810680123457
            ]
        }
    ]
}