{
    "goal": {
        "global_pose": {
            "orientation": {
                "w": 0.7031023480610252,
                "x": -0.7110244013736278,
                "y": 0.0077485991402295624,
                "z": 0.005598929693374583
            },
            "position": {
                "x": -0.8841497679147869,
                "y": 0.44412534475326537,
                "z": 0.3711530566215515
            }
        },
        "name": "move_to_auspresseinheit_D"
    },
    "id": "RRTstar_move_to_auspresseinheit_D_89",
    "joint_names": [
        "shoulder_pan_joint",
        "shoulder_lift_joint",
        "elbow_joint",
        "wrist_1_joint",
        "wrist_2_joint",
        "wrist_3_joint"
    ],
    "metrics": {
        "cart_traj_len": 0.3423356418969847,
        "distance_elbow_joint": 0.6286246349523066,
        "distance_shoulder_lift_joint": 0.11659800878857896,
        "distance_shoulder_pan_joint": 0.13395967344120444,
        "distance_wrist_1_joint": 0.5006441044858674,
        "distance_wrist_2_joint": 1.431632217734273,
        "distance_wrist_3_joint": 0.03172141958150343,
        "smoothness": 0.0,
        "time": 5.001907688999999,
        "traj_len": 1.6861731995805573,
        "weighted_distance": 2.199749808584349
    },
    "planner": "RRTstar",
    "start": {
        "state": {
            "elbow_joint": -1.8275523626775212,
            "shoulder_lift_joint": -2.126789852344167,
            "shoulder_pan_joint": -0.03513704404078235,
            "wrist_1_joint": -2.347782403156801,
            "wrist_2_joint": -1.6058999987535132,
            "wrist_3_joint": -3.0880379163319196
        }
    },
    "waypoints": [
        {
            "positions": [
                -0.03513704404078235,
                -2.126789852344167,
                -1.8275523626775212,
                -2.347782403156801,
                -1.6058999987535132,
                -3.0880379163319196
            ]
        },
        {
            "positions": [
                -0.05188200322093291,
                -2.141364603442739,
                -1.748974283308483,
                -2.4103629162175344,
                -1.426945971536729,
                -3.0920030937796077
            ]
        },
        {
            "positions": [
                -0.06862696240108346,
                -2.1559393545413115,
                -1.6703962039394447,
                -2.472943429278268,
                -1.247991944319945,
                -3.0959682712272953
            ]
        },
        {
            "positions": [
                -0.08537192158123402,
                -2.170514105639884,
                -1.5918181245704062,
                -2.535523942339001,
                -1.0690379171031608,
                -3.0999334486749834
            ]
        },
        {
            "positions": [
                -0.10211688076138456,
                -2.1850888567384565,
                -1.513240045201368,
                -2.5981044553997346,
                -0.8900838898863767,
                -3.103898626122671
            ]
        },
        {
            "positions": [
                -0.11886183994153512,
                -2.199663607837029,
                -1.4346619658323296,
                -2.660684968460468,
                -0.7111298626695925,
                -3.107863803570359
            ]
        },
        {
            "positions": [
                -0.1356067991216857,
                -2.214238358935601,
                -1.3560838864632911,
                -2.723265481521201,
                -0.5321758354528083,
                -3.1118289810180473
            ]
        },
        {
            "positions": [
                -0.15235175830183623,
                -2.2288131100341735,
                -1.2775058070942529,
                -2.7858459945819347,
                -0.35322180823602434,
                -3.115794158465735
            ]
        },
        {
            "positions": [
                -0.1690967174819868,
                -2.243387861132746,
                -1.1989277277252146,
                -2.8484265076426682,
                -0.17426778101924012,
                -3.119759335913423
            ]
        }
    ]
}