{
    "goal": {
        "global_pose": {
            "orientation": {
                "w": -0.00223480608172531,
                "x": 0.0024358444001904467,
                "y": 0.7094548369677653,
                "z": -0.704743149386269
            },
            "position": {
                "x": 0.6205249238014221,
                "y": -0.6371506643295288,
                "z": 0.19426114857196808
            }
        },
        "name": "move_to_magneteinheit_B"
    },
    "id": "RRTstar_move_to_magneteinheit_B_79",
    "joint_names": [
        "shoulder_pan_joint",
        "shoulder_lift_joint",
        "elbow_joint",
        "wrist_1_joint",
        "wrist_2_joint",
        "wrist_3_joint"
    ],
    "metrics": {
        "cart_traj_len": 1.4061031399096167,
        "distance_elbow_joint": 0.9586525474751773,
        "distance_shoulder_lift_joint": 0.757559827719949,
        "distance_shoulder_pan_joint": 1.6217085994390472,
        "distance_wrist_1_joint": 0.2306819939562419,
        "distance_wrist_2_joint": 1.5193114331095032,
        "distance_wrist_3_joint": 0.010936419844085946,
        "smoothness": 0.05155683067392027,
        "time": 5.010670384,
        "traj_len": 2.258063511406179,
        "weighted_distance": 2.6212052739718654
    },
    "planner": "RRTstar",
    "start": {
        "state": {
            "elbow_joint": 2.6216224122426386,
            "shoulder_lift_joint": -1.4174107377796124,
            "shoulder_pan_joint": 0.7066234856936794,
            "wrist_1_joint": 1.9546482284002225,
            "wrist_2_joint": -0.7096286983471962,
            "wrist_3_joint": 0.005740856962016249
        }
    },
    "waypoints": [
        {
            "positions": [
                0.7066234856936794,
                -1.4174107377796124,
                2.6216224122426386,
                1.9546482284002225,
                -0.7096286983471962,
                0.005740856962016249
            ]
        },
        {
            "positions": [
                0.5309983862508136,
                -1.3971117722847535,
                2.6205630517684266,
                1.9462683384941335,
                -0.8272673985398472,
                0.003747030753834399
            ]
        },
        {
            "positions": [
                0.355373286807948,
                -1.3768128067898944,
                2.6195036912942142,
                1.9378884485880445,
                -0.9449060987324981,
                0.0017532045456525496
            ]
        },
        {
            "positions": [
                0.17974818736508225,
                -1.3565138412950355,
                2.6184443308200023,
                1.9295085586819556,
                -1.062544798925149,
                -0.0002406216625293004
            ]
        },
        {
            "positions": [
                0.08021788726413223,
                -1.2931808475463653,
                2.531583015724317,
                1.9481942245217716,
                -1.168580738246199,
                -0.0006910708643057002
            ]
        },
        {
            "positions": [
                -0.019312412836817783,
                -1.2298478537976951,
                2.444721700628631,
                1.9668798903615874,
                -1.2746166775672492,
                -0.0011415200660821
            ]
        },
        {
            "positions": [
                -0.11884271293776777,
                -1.166514860049025,
                2.3578603855329456,
                1.9855655562014034,
                -1.380652616888299,
                -0.0015919692678584996
            ]
        },
        {
            "positions": [
                -0.2183730130387178,
                -1.1031818663003548,
                2.2709990704372602,
                2.004251222041219,
                -1.4866885562093493,
                -0.0020424184696348994
            ]
        },
        {
            "positions": [
                -0.3179033131396678,
                -1.0398488725516846,
                2.184137755341575,
                2.022936887881035,
                -1.5927244955303992,
                -0.002492867671411299
            ]
        },
        {
            "positions": [
                -0.4174336132406178,
                -0.9765158788030144,
                2.097276440245889,
                2.041622553720851,
                -1.6987604348514491,
                -0.002943316873187699
            ]
        },
        {
            "positions": [
                -0.5169639133415678,
                -0.9131828850543442,
                2.0104151251502036,
                2.060308219560667,
                -1.8047963741724993,
                -0.0033937660749640986
            ]
        },
        {
            "positions": [
                -0.6164942134425179,
                -0.8498498913056739,
                1.923553810054518,
                2.078993885400483,
                -1.9108323134935494,
                -0.0038442152767404984
            ]
        },
        {
            "positions": [
                -0.7160245135434679,
                -0.7865168975570037,
                1.8366924949588324,
                2.097679551240299,
                -2.0168682528145996,
                -0.004294664478516898
            ]
        },
        {
            "positions": [
                -0.8155548136444178,
                -0.7231839038083335,
                1.749831179863147,
                2.116365217080115,
                -2.1229041921356493,
                -0.004745113680293298
            ]
        },
        {
            "positions": [
                -0.9150851137453678,
                -0.6598509100596633,
                1.6629698647674613,
                2.1350508829199306,
                -2.2289401314566994,
                -0.005195562882069698
            ]
        }
    ]
}