{
    "goal": {
        "global_pose": {
            "orientation": {
                "w": 0.5084816217422485,
                "x": -0.49083608388900757,
                "y": 0.5182115435600281,
                "z": -0.4816462993621826
            },
            "position": {
                "x": 0.5540239810943604,
                "y": 0.030875300988554955,
                "z": 0.16403168439865112
            }
        },
        "name": "move_to_storage_A"
    },
    "id": "RRTstar_move_to_storage_A_123",
    "joint_names": [
        "shoulder_pan_joint",
        "shoulder_lift_joint",
        "elbow_joint",
        "wrist_1_joint",
        "wrist_2_joint",
        "wrist_3_joint"
    ],
    "metrics": {
        "cart_traj_len": 0.3523741568811921,
        "distance_elbow_joint": 0.44769644109219864,
        "distance_shoulder_lift_joint": 0.23421453330282338,
        "distance_shoulder_pan_joint": 0.4586017087652467,
        "distance_wrist_1_joint": 0.23651998450965495,
        "distance_wrist_2_joint": 1.1062926918131726,
        "distance_wrist_3_joint": 0.08792742736188952,
        "smoothness": 8.881784232165597e-16,
        "time": 5.000603594,
        "traj_len": 1.6035126400639896,
        "weighted_distance": 2.0223551413862975
    },
    "planner": "RRTstar",
    "start": {
        "state": {
            "elbow_joint": 1.971548259319323,
            "shoulder_lift_joint": -1.1394851275133948,
            "shoulder_pan_joint": 0.1228115487234821,
            "wrist_1_joint": -0.7804723859257726,
            "wrist_2_joint": 0.12958671773740124,
            "wrist_3_joint": -3.192489227718131
        }
    },
    "waypoints": [
        {
            "positions": [
                0.1228115487234821,
                -1.1394851275133948,
                1.971548259319323,
                -0.7804723859257726,
                0.12958671773740124,
                -3.192489227718131
            ]
        },
        {
            "positions": [
                0.05729701889987543,
                -1.1729443465566554,
                2.0355048937610656,
                -0.8142609551414376,
                0.28762853085356876,
                -3.1799281666664325
            ]
        },
        {
            "positions": [
                -0.008217510923731242,
                -1.2064035655999157,
                2.0994615282028084,
                -0.8480495243571026,
                0.44567034396973626,
                -3.1673671056147343
            ]
        },
        {
            "positions": [
                -0.07373204074733791,
                -1.2398627846431762,
                2.163418162644551,
                -0.8818380935727675,
                0.6037121570859038,
                -3.1548060445630357
            ]
        },
        {
            "positions": [
                -0.13924657057094458,
                -1.2733220036864368,
                2.2273747970862936,
                -0.9156266627884326,
                0.7617539702020713,
                -3.142244983511337
            ]
        },
        {
            "positions": [
                -0.20476110039455125,
                -1.3067812227296973,
                2.2913314315280364,
                -0.9494152320040976,
                0.9197957833182389,
                -3.1296839224596384
            ]
        },
        {
            "positions": [
                -0.2702756302181579,
                -1.3402404417729576,
                2.355288065969779,
                -0.9832038012197626,
                1.0778375964344062,
                -3.1171228614079403
            ]
        },
        {
            "positions": [
                -0.3357901600417646,
                -1.3736996608162182,
                2.4192447004115216,
                -1.0169923704354276,
                1.2358794095505738,
                -3.1045618003562416
            ]
        }
    ]
}{
    "goal": {
        "global_pose": {
            "orientation": {
                "w": 0.5084816217422485,
                "x": -0.49083608388900757,
                "y": 0.5182115435600281,
                "z": -0.4816462993621826
            },
            "position": {
                "x": 0.5540239810943604,
                "y": 0.030875300988554955,
                "z": 0.16403168439865112
            }
        },
        "name": "move_to_storage_A"
    },
    "id": "RRTstar_move_to_storage_A_123",
    "joint_names": [
        "shoulder_pan_joint",
        "shoulder_lift_joint",
        "elbow_joint",
        "wrist_1_joint",
        "wrist_2_joint",
        "wrist_3_joint"
    ],
    "metrics": {
        "cart_traj_len": 0.3531870894755822,
        "distance_elbow_joint": 0.448906569604834,
        "distance_shoulder_lift_joint": 0.235970848183918,
        "distance_shoulder_pan_joint": 0.4632720602800782,
        "distance_wrist_1_joint": 0.23477202353308146,
        "distance_wrist_2_joint": 1.093629427354093,
        "distance_wrist_3_joint": 0.09027509004012924,
        "smoothness": 4.440892133664971e-16,
        "time": 5.000922508,
        "traj_len": 1.6021317108765227,
        "weighted_distance": 2.0188555297404434
    },
    "planner": "RRTstar",
    "start": {
        "state": {
            "elbow_joint": 1.97154746011099,
            "shoulder_lift_joint": -1.13948474672311,
            "shoulder_pan_joint": 0.12281154466712228,
            "wrist_1_joint": -0.7804688027058302,
            "wrist_2_joint": 0.12958655903071145,
            "wrist_3_joint": 3.0906928834467795
        }
    },
    "waypoints": [
        {
            "positions": [
                0.12281154466712228,
                -1.13948474672311,
                1.97154746011099,
                -0.7804688027058302,
                0.12958655903071145,
                3.0906928834467795
            ]
        },
        {
            "positions": [
                0.05662982176996825,
                -1.173194867892241,
                2.0356769700545376,
                -0.8140076632105561,
                0.28581933436701046,
                3.1035893248810837
            ]
        },
        {
            "positions": [
                -0.009551901127185777,
                -1.2069049890613723,
                2.0998064799980853,
                -0.847546523715282,
                0.44205210970330944,
                3.116485766315388
            ]
        },
        {
            "positions": [
                -0.0757336240243398,
                -1.2406151102305034,
                2.163935989941633,
                -0.8810853842200079,
                0.5982848850396084,
                3.1293822077496922
            ]
        },
        {
            "positions": [
                -0.14191534692149382,
                -1.2743252313996345,
                2.2280654998851808,
                -0.9146242447247339,
                0.7545176603759074,
                3.142278649183996
            ]
        },
        {
            "positions": [
                -0.2080970698186479,
                -1.3080353525687656,
                2.2921950098287285,
                -0.9481631052294598,
                0.9107504357122065,
                3.1551750906183003
            ]
        },
        {
            "positions": [
                -0.27427879271580186,
                -1.3417454737378969,
                2.356324519772276,
                -0.9817019657341857,
                1.0669832110485054,
                3.1680715320526045
            ]
        },
        {
            "positions": [
                -0.3404605156129559,
                -1.375455594907028,
                2.420454029715824,
                -1.0152408262389117,
                1.2232159863848044,
                3.1809679734869087
            ]
        }
    ]
}{
    "goal": {
        "global_pose": {
            "orientation": {
                "w": 0.5084816217422485,
                "x": -0.49083608388900757,
                "y": 0.5182115435600281,
                "z": -0.4816462993621826
            },
            "position": {
                "x": 0.5540239810943604,
                "y": 0.030875300988554955,
                "z": 0.16403168439865112
            }
        },
        "name": "move_to_storage_A"
    },
    "id": "RRTstar_move_to_storage_A_123",
    "joint_names": [
        "shoulder_pan_joint",
        "shoulder_lift_joint",
        "elbow_joint",
        "wrist_1_joint",
        "wrist_2_joint",
        "wrist_3_joint"
    ],
    "metrics": {
        "cart_traj_len": 0.352522527526992,
        "distance_elbow_joint": 0.4497909207680193,
        "distance_shoulder_lift_joint": 0.23478557242137943,
        "distance_shoulder_pan_joint": 0.45909364094684874,
        "distance_wrist_1_joint": 0.23940179711133402,
        "distance_wrist_2_joint": 1.1062709641192165,
        "distance_wrist_3_joint": 0.08724225973537525,
        "smoothness": 2.2204460668324854e-16,
        "time": 5.002707426000001,
        "traj_len": 1.6051744936617245,
        "weighted_distance": 2.0240411151464968
    },
    "planner": "RRTstar",
    "start": {
        "state": {
            "elbow_joint": 1.9715472970024885,
            "shoulder_lift_joint": -1.1394870060712896,
            "shoulder_pan_joint": 0.12281152778156021,
            "wrist_1_joint": -0.780463741449964,
            "wrist_2_joint": 0.12958659822042276,
            "wrist_3_joint": 3.090690232415272
        }
    },
    "waypoints": [
        {
            "positions": [
                0.12281152778156021,
                -1.1394870060712896,
                1.9715472970024885,
                -0.780463741449964,
                0.12958659822042276,
                3.090690232415272
            ]
        },
        {
            "positions": [
                0.05722672193201041,
                -1.1730278021314866,
                2.035803142826491,
                -0.8146639981801546,
                0.28762530738031084,
                3.1031534123774684
            ]
        },
        {
            "positions": [
                -0.008358083917539394,
                -1.2065685981916838,
                2.100058988650494,
                -0.8488642549103451,
                0.44566401654019894,
                3.1156165923396646
            ]
        },
        {
            "positions": [
                -0.07394288976708921,
                -1.2401093942518808,
                2.1643148344744967,
                -0.8830645116405357,
                0.603702725700087,
                3.128079772301861
            ]
        },
        {
            "positions": [
                -0.139527695616639,
                -1.2736501903120778,
                2.2285706802984997,
                -0.9172647683707262,
                0.761741434859975,
                3.1405429522640578
            ]
        },
        {
            "positions": [
                -0.20511250146618884,
                -1.3071909863722748,
                2.2928265261225023,
                -0.9514650251009169,
                0.9197801440198632,
                3.1530061322262544
            ]
        },
        {
            "positions": [
                -0.2706973073157386,
                -1.340731782432472,
                2.357082371946505,
                -0.9856652818311075,
                1.0778188531797512,
                3.1654693121884505
            ]
        },
        {
            "positions": [
                -0.3362821131652885,
                -1.374272578492669,
                2.421338217770508,
                -1.019865538561298,
                1.2358575623396393,
                3.177932492150647
            ]
        }
    ]
}