{
    "goal": {
        "global_pose": {
            "orientation": {
                "w": 0.7047431493862688,
                "x": -0.7094548369677653,
                "y": 0.0024358444001904,
                "z": -0.0022348060817251984
            },
            "position": {
                "x": -0.39052492380142206,
                "y": 0.3671506643295288,
                "z": 0.19426114857196808
            }
        },
        "name": "move_to_magneteinheit_D"
    },
    "id": "RRTstar_move_to_magneteinheit_D_100",
    "joint_names": [
        "shoulder_pan_joint",
        "shoulder_lift_joint",
        "elbow_joint",
        "wrist_1_joint",
        "wrist_2_joint",
        "wrist_3_joint"
    ],
    "metrics": {
        "cart_traj_len": 4.163851793971169,
        "distance_elbow_joint": 3.1169244575503097,
        "distance_shoulder_lift_joint": 1.6336036711762447,
        "distance_shoulder_pan_joint": 4.10432867909779,
        "distance_wrist_1_joint": 2.3833829906597175,
        "distance_wrist_2_joint": 3.0230837727841102,
        "distance_wrist_3_joint": 0.717489075567896,
        "smoothness": 0.47759981479502656,
        "time": 5.048360473,
        "traj_len": 3.8702471041053785,
        "weighted_distance": 4.671215854723016
    },
    "planner": "RRTstar",
    "start": {
        "state": {
            "elbow_joint": 0.749534889911806,
            "shoulder_lift_joint": -0.6476975780787326,
            "shoulder_pan_joint": -2.711696901376241,
            "wrist_1_joint": -0.07506478083263063,
            "wrist_2_joint": 0.43296659715538205,
            "wrist_3_joint": -3.14703540197715
        }
    },
    "waypoints": [
        {
            "positions": [
                -2.711696901376241,
                -0.6476975780787326,
                0.749534889911806,
                -0.07506478083263063,
                0.43296659715538205,
                -3.14703540197715
            ]
        },
        {
            "positions": [
                -2.73401622691339,
                -0.7785575485735401,
                0.7401229996703397,
                -0.014888555910401724,
                0.5268107161589581,
                -3.1699104013256996
            ]
        },
        {
            "positions": [
                -2.756335552450539,
                -0.9094175190683474,
                0.7307111094288734,
                0.04528766901182718,
                0.6206548351625343,
                -3.192785400674249
            ]
        },
        {
            "positions": [
                -2.618188171781886,
                -0.8983443489369268,
                0.6018978438118227,
                -0.010950760733852968,
                0.6631125746310531,
                -3.204824200128584
            ]
        },
        {
            "positions": [
                -2.4800407911132334,
                -0.8872711788055062,
                0.4730845781947719,
                -0.06718919047953312,
                0.7055703140995718,
                -3.2168629995829185
            ]
        },
        {
            "positions": [
                -2.3418934104445803,
                -0.8761980086740856,
                0.3442713125777211,
                -0.12342762022521328,
                0.7480280535680907,
                -3.2289017990372533
            ]
        },
        {
            "positions": [
                -2.2037460297759273,
                -0.865124838542665,
                0.2154580469606704,
                -0.17966604997089342,
                0.7904857930366094,
                -3.240940598491588
            ]
        },
        {
            "positions": [
                -2.065598649107274,
                -0.8540516684112444,
                0.08664478134361953,
                -0.23590447971657358,
                0.8329435325051282,
                -3.2529793979459227
            ]
        },
        {
            "positions": [
                -1.9274512684386214,
                -0.8429784982798237,
                -0.04216848427343123,
                -0.29214290946225374,
                0.875401271973647,
                -3.2650181974002574
            ]
        },
        {
            "positions": [
                -1.7893038877699683,
                -0.8319053281484031,
                -0.1709817498904821,
                -0.3483813392079339,
                0.9178590114421659,
                -3.277056996854592
            ]
        },
        {
            "positions": [
                -1.6511565071013155,
                -0.8208321580169825,
                -0.2997950155075326,
                -0.404619768953614,
                0.9603167509106846,
                -3.289095796308927
            ]
        },
        {
            "positions": [
                -1.5130091264326624,
                -0.8097589878855619,
                -0.4286082811245835,
                -0.4608581986992942,
                1.0027744903792035,
                -3.3011345957632616
            ]
        },
        {
            "positions": [
                -1.3748617457640095,
                -0.7986858177541412,
                -0.5574215467416344,
                -0.5170966284449743,
                1.0452322298477221,
                -3.3131733952175964
            ]
        },
        {
            "positions": [
                -1.2367143650953567,
                -0.7876126476227207,
                -0.686234812358685,
                -0.5733350581906544,
                1.087689969316241,
                -3.325212194671931
            ]
        },
        {
            "positions": [
                -1.0985669844267036,
                -0.7765394774912999,
                -0.8150480779757359,
                -0.6295734879363346,
                1.1301477087847598,
                -3.337250994126266
            ]
        },
        {
            "positions": [
                -0.9604196037580508,
                -0.7654663073598793,
                -0.9438613435927865,
                -0.6858119176820148,
                1.1726054482532784,
                -3.349289793580601
            ]
        },
        {
            "positions": [
                -0.8222722230893975,
                -0.7543931372284587,
                -1.0726746092098376,
                -0.7420503474276949,
                1.2150631877217974,
                -3.3613285930349357
            ]
        },
        {
            "positions": [
                -0.6841248424207449,
                -0.7433199670970381,
                -1.2014878748268882,
                -0.7982887771733751,
                1.257520927190316,
                -3.3733673924892704
            ]
        },
        {
            "positions": [
                -0.5459774617520918,
                -0.7322467969656175,
                -1.3303011404439387,
                -0.8545272069190553,
                1.2999786666588349,
                -3.385406191943605
            ]
        },
        {
            "positions": [
                -0.40783008108343877,
                -0.7211736268341968,
                -1.4591144060609897,
                -0.9107656366647354,
                1.3424364061273537,
                -3.39744499139794
            ]
        },
        {
            "positions": [
                -0.2696827004147857,
                -0.7101004567027762,
                -1.5879276716780404,
                -0.9670040664104156,
                1.3848941455958725,
                -3.4094837908522746
            ]
        },
        {
            "positions": [
                -0.13153531974613308,
                -0.6990272865713556,
                -1.716740937295091,
                -1.0232424961560957,
                1.4273518850643914,
                -3.4215225903066093
            ]
        },
        {
            "positions": [
                0.00661206092251998,
                -0.687954116439935,
                -1.8455542029121421,
                -1.079480925901776,
                1.4698096245329102,
                -3.433561389760944
            ]
        },
        {
            "positions": [
                0.14475944159117304,
                -0.6768809463085144,
                -1.9743674685291928,
                -1.135719355647456,
                1.512267364001429,
                -3.4456001892152788
            ]
        },
        {
            "positions": [
                0.28290682225982566,
                -0.6658077761770937,
                -2.1031807341462434,
                -1.1919577853931362,
                1.5547251034699476,
                -3.4576389886696135
            ]
        },
        {
            "positions": [
                0.42105420292847917,
                -0.6547346060456731,
                -2.2319939997632945,
                -1.2481962151388164,
                1.5971828429384667,
                -3.4696777881239482
            ]
        },
        {
            "positions": [
                0.5592015835971318,
                -0.6436614359142525,
                -2.360807265380345,
                -1.3044346448844966,
                1.6396405824069853,
                -3.481716587578283
            ]
        },
        {
            "positions": [
                0.5019590534451456,
                -0.7287481779936783,
                -2.3603009344374097,
                -1.3746891238782608,
                1.4999167525967925,
                -3.4522698268116088
            ]
        },
        {
            "positions": [
                0.44471652329315936,
                -0.8138349200731041,
                -2.359794603494475,
                -1.4449436028720253,
                1.3601929227865996,
                -3.4228230660449346
            ]
        },
        {
            "positions": [
                0.3874739931411732,
                -0.8989216621525298,
                -2.3592882725515394,
                -1.5151980818657895,
                1.2204690929764068,
                -3.393376305278261
            ]
        },
        {
            "positions": [
                0.330231462989187,
                -0.9840084042319556,
                -2.358781941608604,
                -1.585452560859554,
                1.080745263166214,
                -3.3639295445115867
            ]
        },
        {
            "positions": [
                0.27298893283720077,
                -1.0690951463113814,
                -2.358275610665669,
                -1.6557070398533182,
                0.9410214333560212,
                -3.3344827837449125
            ]
        },
        {
            "positions": [
                0.2157464026852146,
                -1.154181888390807,
                -2.3577692797227336,
                -1.7259615188470825,
                0.8012976035458285,
                -3.3050360229782383
            ]
        },
        {
            "positions": [
                0.1585038725332284,
                -1.239268630470233,
                -2.3572629487797983,
                -1.796215997840847,
                0.6615737737356356,
                -3.2755892622115645
            ]
        },
        {
            "positions": [
                0.10126134238124218,
                -1.3243553725496586,
                -2.356756617836863,
                -1.8664704768346112,
                0.5218499439254427,
                -3.2461425014448904
            ]
        },
        {
            "positions": [
                0.044018812229255966,
                -1.4094421146290843,
                -2.356250286893928,
                -1.9367249558283754,
                0.3821261141152501,
                -3.216695740678216
            ]
        },
        {
            "positions": [
                -0.01322371792273025,
                -1.4945288567085102,
                -2.3557439559509925,
                -2.00697943482214,
                0.24240228430505706,
                -3.187248979911542
            ]
        },
        {
            "positions": [
                -0.07046624807471635,
                -1.579615598787936,
                -2.355237625008057,
                -2.0772339138159044,
                0.10267845449486446,
                -3.157802219144868
            ]
        },
        {
            "positions": [
                -0.12770877822670257,
                -1.6647023408673618,
                -2.354731294065122,
                -2.1474883928096684,
                -0.037045375315328366,
                -3.128355458378194
            ]
        },
        {
            "positions": [
                -0.18495130837868876,
                -1.7497890829467875,
                -2.3542249631221868,
                -2.217742871803433,
                -0.1767692051255212,
                -3.09890869761152
            ]
        }
    ]
}