{
    "goal": {
        "global_pose": {
            "orientation": {
                "w": 0.005598929693374612,
                "x": 0.007748599140229565,
                "y": 0.7110244013736278,
                "z": -0.7031023480610252
            },
            "position": {
                "x": 0.1141497679147869,
                "y": -0.7141253447532654,
                "z": 0.3711530566215515
            }
        },
        "name": "move_to_auspresseinheit_B"
    },
    "id": "RRTstar_move_to_auspresseinheit_B_125",
    "joint_names": [
        "shoulder_pan_joint",
        "shoulder_lift_joint",
        "elbow_joint",
        "wrist_1_joint",
        "wrist_2_joint",
        "wrist_3_joint"
    ],
    "metrics": {
        "cart_traj_len": 0.56469398653747,
        "distance_elbow_joint": 0.06109537229966344,
        "distance_shoulder_lift_joint": 0.2958915657223171,
        "distance_shoulder_pan_joint": 0.5779954602246702,
        "distance_wrist_1_joint": 0.3232243631211572,
        "distance_wrist_2_joint": 0.9893033553722335,
        "distance_wrist_3_joint": 0.0012295264722408383,
        "smoothness": 0.0,
        "time": 5.00091632,
        "traj_len": 1.499579822220972,
        "weighted_distance": 1.8877834660389825
    },
    "planner": "RRTstar",
    "start": {
        "state": {
            "elbow_joint": 2.0193083361928714,
            "shoulder_lift_joint": -1.1220246554650708,
            "shoulder_pan_joint": -1.0952077554168747,
            "wrist_1_joint": -0.8559753972642168,
            "wrist_2_joint": 0.4759566250798843,
            "wrist_3_joint": -3.1240929996934557
        }
    },
    "waypoints": [
        {
            "positions": [
                -1.0952077554168747,
                -1.1220246554650708,
                2.0193083361928714,
                -0.8559753972642168,
                0.4759566250798843,
                -3.1240929996934557
            ]
        },
        {
            "positions": [
                -1.1915403321209863,
                -1.1713399164187903,
                2.0091257741429276,
                -0.8021046700773573,
                0.6408405176419232,
                -3.123888078614749
            ]
        },
        {
            "positions": [
                -1.287872908825098,
                -1.2206551773725098,
                1.9989432120929835,
                -0.7482339428904977,
                0.805724410203962,
                -3.123683157536042
            ]
        },
        {
            "positions": [
                -1.3842054855292099,
                -1.2699704383262294,
                1.9887606500430397,
                -0.6943632157036381,
                0.9706083027660011,
                -3.123478236457335
            ]
        },
        {
            "positions": [
                -1.4805380622333213,
                -1.3192856992799489,
                1.9785780879930959,
                -0.6404924885167786,
                1.13549219532804,
                -3.1232733153786283
            ]
        },
        {
            "positions": [
                -1.5768706389374332,
                -1.3686009602336684,
                1.9683955259431518,
                -0.5866217613299192,
                1.300376087890079,
                -3.1230683942999216
            ]
        },
        {
            "positions": [
                -1.6732032156415448,
                -1.417916221187388,
                1.958212963893208,
                -0.5327510341430596,
                1.4652599804521178,
                -3.122863473221215
            ]
        }
    ]
}