{
    "goal": {
        "global_pose": {
            "orientation": {
                "w": -0.00223480608172531,
                "x": 0.0024358444001904467,
                "y": 0.7094548369677653,
                "z": -0.704743149386269
            },
            "position": {
                "x": 0.6205249238014221,
                "y": -0.6371506643295288,
                "z": 0.19426114857196808
            }
        },
        "name": "move_to_magneteinheit_B"
    },
    "id": "RRTstar_move_to_magneteinheit_B_29",
    "joint_names": [
        "shoulder_pan_joint",
        "shoulder_lift_joint",
        "elbow_joint",
        "wrist_1_joint",
        "wrist_2_joint",
        "wrist_3_joint"
    ],
    "metrics": {
        "cart_traj_len": 3.172186480836851,
        "distance_elbow_joint": 4.344181681627102,
        "distance_shoulder_lift_joint": 1.063615085076961,
        "distance_shoulder_pan_joint": 2.107006741266145,
        "distance_wrist_1_joint": 0.9621972343627054,
        "distance_wrist_2_joint": 1.1987121920173995,
        "distance_wrist_3_joint": 0.1999234880344722,
        "smoothness": 0.22137088801273824,
        "time": 5.051694833,
        "traj_len": 3.1425525329554613,
        "weighted_distance": 3.5265270202897687
    },
    "planner": "RRTstar",
    "start": {
        "state": {
            "elbow_joint": 2.6216224122426386,
            "shoulder_lift_joint": -1.4174107377796124,
            "shoulder_pan_joint": 0.7066234856936794,
            "wrist_1_joint": 1.9546482284002225,
            "wrist_2_joint": -0.7096286983471962,
            "wrist_3_joint": 0.005740856962016249
        }
    },
    "waypoints": [
        {
            "positions": [
                0.7066234856936794,
                -1.4174107377796124,
                2.6216224122426386,
                1.9546482284002225,
                -0.7096286983471962,
                0.005740856962016249
            ]
        },
        {
            "positions": [
                0.8400386176063449,
                -1.4442125874490241,
                2.5938807604969356,
                1.9051921069260596,
                -0.6062759597706034,
                0.017840650734764846
            ]
        },
        {
            "positions": [
                0.9734537495190103,
                -1.4710144371184357,
                2.5661391087512326,
                1.8557359854518967,
                -0.5029232211940107,
                0.029940444507513445
            ]
        },
        {
            "positions": [
                1.1068688814316758,
                -1.4978162867878475,
                2.538397457005529,
                1.8062798639777338,
                -0.39957048261741795,
                0.04204023828026204
            ]
        },
        {
            "positions": [
                1.2402840133443414,
                -1.524618136457259,
                2.5106558052598262,
                1.7568237425035709,
                -0.2962177440408252,
                0.05414003205301064
            ]
        },
        {
            "positions": [
                1.3736991452570069,
                -1.5514199861266709,
                2.4829141535141233,
                1.707367621029408,
                -0.19286500546423246,
                0.06623982582575924
            ]
        },
        {
            "positions": [
                1.4847808997667409,
                -1.5670636720048843,
                2.2907860511770393,
                1.7103005004429002,
                -0.13385766433032426,
                0.06044848430230129
            ]
        },
        {
            "positions": [
                1.5958626542764751,
                -1.582707357883098,
                2.098657948839955,
                1.7132333798563923,
                -0.07485032319641607,
                0.05465714277884334
            ]
        },
        {
            "positions": [
                1.6619575903699326,
                -1.6210289093782133,
                1.8877769205322172,
                1.6908576700194562,
                -0.04325264247546743,
                0.04908820524598639
            ]
        },
        {
            "positions": [
                1.72805252646339,
                -1.6593504608733285,
                1.6768958922244797,
                1.6684819601825203,
                -0.011654961754518786,
                0.04351926771312943
            ]
        },
        {
            "positions": [
                1.7941474625568474,
                -1.697672012368444,
                1.466014863916742,
                1.646106250345584,
                0.01994271896642985,
                0.03795033018027247
            ]
        },
        {
            "positions": [
                1.8602423986503047,
                -1.7359935638635593,
                1.2551338356090045,
                1.6237305405086482,
                0.0515403996873785,
                0.03238139264741552
            ]
        },
        {
            "positions": [
                1.9263373347437622,
                -1.7743151153586747,
                1.044252807301267,
                1.601354830671712,
                0.08313808040832713,
                0.026812455114558556
            ]
        },
        {
            "positions": [
                1.9924322708372195,
                -1.8126366668537899,
                0.8333717789935293,
                1.5789791208347759,
                0.11473576112927578,
                0.0212435175817016
            ]
        },
        {
            "positions": [
                2.058527206930677,
                -1.8509582183489053,
                0.6224907506857917,
                1.55660341099784,
                0.1463334418502244,
                0.015674580048844644
            ]
        },
        {
            "positions": [
                2.1246221430241343,
                -1.8892797698440207,
                0.41160972237805415,
                1.5342277011609038,
                0.17793112257117308,
                0.010105642515987688
            ]
        },
        {
            "positions": [
                2.190717079117592,
                -1.9276013213391359,
                0.20072869407031657,
                1.5118519913239679,
                0.20952880329212167,
                0.004536704983130725
            ]
        },
        {
            "positions": [
                2.2568120152110493,
                -1.9659228728342513,
                -0.010152334237421012,
                1.4894762814870317,
                0.24112648401307032,
                -0.0010322325497262308
            ]
        },
        {
            "positions": [
                2.322906951304507,
                -2.0042444243293667,
                -0.2210333625451586,
                1.4671005716500956,
                0.27272416473401895,
                -0.006601170082583187
            ]
        },
        {
            "positions": [
                2.389001887397964,
                -2.042565975824482,
                -0.4319143908528962,
                1.4447248618131596,
                0.30432184545496765,
                -0.012170107615440143
            ]
        },
        {
            "positions": [
                2.4550968234914214,
                -2.0808875273195975,
                -0.6427954191606338,
                1.4223491519762237,
                0.33591952617591625,
                -0.017739045148297092
            ]
        },
        {
            "positions": [
                2.5211917595848785,
                -2.1192090788147127,
                -0.8536764474683713,
                1.3999734421392875,
                0.36751720689686485,
                -0.023307982681154055
            ]
        },
        {
            "positions": [
                2.587286695678336,
                -2.157530630309828,
                -1.064557475776109,
                1.3775977323023514,
                0.39911488761781355,
                -0.028876920214011018
            ]
        },
        {
            "positions": [
                2.6533816317717935,
                -2.1958521818049435,
                -1.2754385040838465,
                1.3552220224654152,
                0.43071256833876226,
                -0.03444585774686797
            ]
        },
        {
            "positions": [
                2.719476567865251,
                -2.2341737333000586,
                -1.486319532391584,
                1.3328463126284793,
                0.4623102490597108,
                -0.040014795279724936
            ]
        },
        {
            "positions": [
                2.737259197284309,
                -2.2953944005878952,
                -1.6221656981108377,
                1.2662851347732738,
                0.477804377304064,
                -0.03751356126084854
            ]
        },
        {
            "positions": [
                2.7138238371817263,
                -2.394135236410501,
                -1.6930708870020923,
                1.1348196143984763,
                0.4862344010604908,
                -0.02424560203475051
            ]
        },
        {
            "positions": [
                2.660888167608794,
                -2.4810258228565734,
                -1.6635825046197208,
                1.0041825116914858,
                0.4833853084507779,
                -0.006844897214479862
            ]
        }
    ]
}