{
    "goal": {
        "global_pose": {
            "orientation": {
                "w": 0.7031023480610252,
                "x": -0.7110244013736278,
                "y": 0.0077485991402295624,
                "z": 0.005598929693374583
            },
            "position": {
                "x": -0.8841497679147869,
                "y": 0.44412534475326537,
                "z": 0.3711530566215515
            }
        },
        "name": "move_to_auspresseinheit_D"
    },
    "id": "RRTstar_move_to_auspresseinheit_D_84",
    "joint_names": [
        "shoulder_pan_joint",
        "shoulder_lift_joint",
        "elbow_joint",
        "wrist_1_joint",
        "wrist_2_joint",
        "wrist_3_joint"
    ],
    "metrics": {
        "cart_traj_len": 0.3422600437996341,
        "distance_elbow_joint": 0.6324026446509279,
        "distance_shoulder_lift_joint": 0.11805189536496297,
        "distance_shoulder_pan_joint": 0.13315302260844405,
        "distance_wrist_1_joint": 0.5162691042317626,
        "distance_wrist_2_joint": 1.4344259408689066,
        "distance_wrist_3_joint": 0.02093862015411263,
        "smoothness": 3.947459674368863e-16,
        "time": 5.004124226,
        "traj_len": 1.6897459063063642,
        "weighted_distance": 2.201775082356963
    },
    "planner": "RRTstar",
    "start": {
        "state": {
            "elbow_joint": -1.8275523626775212,
            "shoulder_lift_joint": -2.126789852344167,
            "shoulder_pan_joint": -0.03513704404078235,
            "wrist_1_joint": -2.347782403156801,
            "wrist_2_joint": -1.6058999987535132,
            "wrist_3_joint": -3.0880379163319196
        }
    },
    "waypoints": [
        {
            "positions": [
                -0.03513704404078235,
                -2.126789852344167,
                -1.8275523626775212,
                -2.347782403156801,
                -1.6058999987535132,
                -3.0880379163319196
            ]
        },
        {
            "positions": [
                -0.05178117186683785,
                -2.1415463392647873,
                -1.7485020320961553,
                -2.4123160411857714,
                -1.4265967561448998,
                -3.0906552438511836
            ]
        },
        {
            "positions": [
                -0.06842529969289336,
                -2.1563028261854074,
                -1.6694517015147892,
                -2.4768496792147414,
                -1.2472935135362866,
                -3.0932725713704476
            ]
        },
        {
            "positions": [
                -0.08506942751894886,
                -2.171059313106028,
                -1.5904013709334233,
                -2.541383317243712,
                -1.0679902709276732,
                -3.0958898988897117
            ]
        },
        {
            "positions": [
                -0.10171355534500437,
                -2.1858158000266483,
                -1.5113510403520571,
                -2.605916955272682,
                -0.8886870283190599,
                -3.0985072264089757
            ]
        },
        {
            "positions": [
                -0.11835768317105988,
                -2.200572286947269,
                -1.4323007097706912,
                -2.6704505933016525,
                -0.7093837857104466,
                -3.10112455392824
            ]
        },
        {
            "positions": [
                -0.1350018109971154,
                -2.2153287738678893,
                -1.3532503791893253,
                -2.734984231330623,
                -0.5300805431018332,
                -3.103741881447504
            ]
        },
        {
            "positions": [
                -0.1516459388231709,
                -2.2300852607885093,
                -1.2742000486079594,
                -2.799517869359593,
                -0.35077730049322,
                -3.106359208966768
            ]
        },
        {
            "positions": [
                -0.1682900666492264,
                -2.24484174770913,
                -1.1951497180265933,
                -2.8640515073885635,
                -0.1714740578846066,
                -3.1089765364860322
            ]
        }
    ]
}