{
    "goal": {
        "global_pose": {
            "orientation": {
                "w": 0.7031023480610252,
                "x": -0.7110244013736278,
                "y": 0.0077485991402295624,
                "z": 0.005598929693374583
            },
            "position": {
                "x": -0.8841497679147869,
                "y": 0.44412534475326537,
                "z": 0.3711530566215515
            }
        },
        "name": "move_to_auspresseinheit_D"
    },
    "id": "RRTstar_move_to_auspresseinheit_D_62",
    "joint_names": [
        "shoulder_pan_joint",
        "shoulder_lift_joint",
        "elbow_joint",
        "wrist_1_joint",
        "wrist_2_joint",
        "wrist_3_joint"
    ],
    "metrics": {
        "cart_traj_len": 0.34257378909530445,
        "distance_elbow_joint": 0.6356231660124387,
        "distance_shoulder_lift_joint": 0.12030558470669739,
        "distance_shoulder_pan_joint": 0.13372512955301064,
        "distance_wrist_1_joint": 0.5234951259037306,
        "distance_wrist_2_joint": 1.4356217652565268,
        "distance_wrist_3_joint": 0.005989169510685066,
        "smoothness": 5.921189480296099e-16,
        "time": 5.007625002,
        "traj_len": 1.6896034863076868,
        "weighted_distance": 2.1967829139732302
    },
    "planner": "RRTstar",
    "start": {
        "state": {
            "elbow_joint": -1.8275523626775212,
            "shoulder_lift_joint": -2.126789852344167,
            "shoulder_pan_joint": -0.03513704404078235,
            "wrist_1_joint": -2.347782403156801,
            "wrist_2_joint": -1.6058999987535132,
            "wrist_3_joint": -3.0880379163319196
        }
    },
    "waypoints": [
        {
            "positions": [
                -0.03513704404078235,
                -2.126789852344167,
                -1.8275523626775212,
                -2.347782403156801,
                -1.6058999987535132,
                -3.0880379163319196
            ]
        },
        {
            "positions": [
                -0.05185268523490868,
                -2.141828050432504,
                -1.7480994669259664,
                -2.413219293894767,
                -1.4264472780964472,
                -3.088786562520755
            ]
        },
        {
            "positions": [
                -0.06856832642903501,
                -2.156866248520841,
                -1.6686465711744116,
                -2.4786561846327335,
                -1.2469945574393815,
                -3.0895352087095906
            ]
        },
        {
            "positions": [
                -0.08528396762316134,
                -2.1719044466091786,
                -1.5891936754228566,
                -2.5440930753707,
                -1.0675418367823157,
                -3.0902838548984266
            ]
        },
        {
            "positions": [
                -0.10199960881728767,
                -2.1869426446975155,
                -1.5097407796713018,
                -2.609529966108666,
                -0.8880891161252498,
                -3.091032501087262
            ]
        },
        {
            "positions": [
                -0.118715250011414,
                -2.2019808427858525,
                -1.430287883919747,
                -2.6749668568466323,
                -0.7086363954681839,
                -3.0917811472760977
            ]
        },
        {
            "positions": [
                -0.13543089120554033,
                -2.21701904087419,
                -1.350834988168192,
                -2.740403747584599,
                -0.529183674811118,
                -3.0925297934649336
            ]
        },
        {
            "positions": [
                -0.15214653239966666,
                -2.2320572389625273,
                -1.2713820924166372,
                -2.8058406383225654,
                -0.3497309541540523,
                -3.093278439653769
            ]
        },
        {
            "positions": [
                -0.168862173593793,
                -2.2470954370508642,
                -1.1919291966650825,
                -2.8712775290605315,
                -0.17027823349698631,
                -3.0940270858426047
            ]
        }
    ]
}