{
    "goal": {
        "global_pose": {
            "orientation": {
                "w": 0.7047431493862688,
                "x": -0.7094548369677653,
                "y": 0.0024358444001904,
                "z": -0.0022348060817251984
            },
            "position": {
                "x": -0.39052492380142206,
                "y": 0.3671506643295288,
                "z": 0.19426114857196808
            }
        },
        "name": "move_to_magneteinheit_D"
    },
    "id": "RRTstar_move_to_magneteinheit_D_1",
    "joint_names": [
        "shoulder_pan_joint",
        "shoulder_lift_joint",
        "elbow_joint",
        "wrist_1_joint",
        "wrist_2_joint",
        "wrist_3_joint"
    ],
    "metrics": {
        "cart_traj_len": 4.067902487404114,
        "distance_elbow_joint": 3.115729515379528,
        "distance_shoulder_lift_joint": 1.0973356985431142,
        "distance_shoulder_pan_joint": 3.8120364874712163,
        "distance_wrist_1_joint": 3.9822012134295908,
        "distance_wrist_2_joint": 2.3695204975383373,
        "distance_wrist_3_joint": 6.394866438548778,
        "smoothness": 0.4511968572504546,
        "time": 5.055196867,
        "traj_len": 4.557596938180313,
        "weighted_distance": 6.31768505379748
    },
    "planner": "RRTstar",
    "start": {
        "state": {
            "elbow_joint": 0.749534889911806,
            "shoulder_lift_joint": -0.6476975780787326,
            "shoulder_pan_joint": -2.711696901376241,
            "wrist_1_joint": -0.07506478083263063,
            "wrist_2_joint": 0.43296659715538205,
            "wrist_3_joint": -3.14703540197715
        }
    },
    "waypoints": [
        {
            "positions": [
                -2.711696901376241,
                -0.6476975780787326,
                0.749534889911806,
                -0.07506478083263063,
                0.43296659715538205,
                -3.14703540197715
            ]
        },
        {
            "positions": [
                -2.7332127443777785,
                -0.6537856885629778,
                0.6543336507314074,
                -0.07152226772761472,
                0.3751969855691697,
                -3.174986050947127
            ]
        },
        {
            "positions": [
                -2.754728587379316,
                -0.659873799047223,
                0.5591324115510088,
                -0.06797975462259881,
                0.31742737398295734,
                -3.2029366999171045
            ]
        },
        {
            "positions": [
                -2.726207367716862,
                -0.6824152822502779,
                0.38930280669068845,
                -0.09926906747139097,
                0.30053409422650035,
                -3.1051595157681384
            ]
        },
        {
            "positions": [
                -2.6976861480544083,
                -0.7049567654533329,
                0.21947320183036811,
                -0.13055838032018313,
                0.28364081447004336,
                -3.007382331619172
            ]
        },
        {
            "positions": [
                -2.6691649283919547,
                -0.7274982486563878,
                0.04964359697004772,
                -0.1618476931689753,
                0.26674753471358637,
                -2.909605147470206
            ]
        },
        {
            "positions": [
                -2.6406437087295007,
                -0.7500397318594427,
                -0.12018600789027256,
                -0.19313700601776745,
                0.2498542549571294,
                -2.8118279633212397
            ]
        },
        {
            "positions": [
                -2.6121224890670467,
                -0.7725812150624976,
                -0.29001561275059284,
                -0.22442631886655962,
                0.2329609752006724,
                -2.7140507791722737
            ]
        },
        {
            "positions": [
                -2.583601269404593,
                -0.7951226982655525,
                -0.45984521761091335,
                -0.2557156317153518,
                0.21606769544421545,
                -2.6162735950233076
            ]
        },
        {
            "positions": [
                -2.5550800497421395,
                -0.8176641814686074,
                -0.6296748224712336,
                -0.28700494456414394,
                0.19917441568775845,
                -2.518496410874341
            ]
        },
        {
            "positions": [
                -2.5265588300796855,
                -0.8402056646716624,
                -0.799504427331554,
                -0.3182942574129361,
                0.18228113593130146,
                -2.420719226725375
            ]
        },
        {
            "positions": [
                -2.475453465605643,
                -0.8603614809783423,
                -0.8802807304689872,
                -0.3915153604158971,
                0.17593505314000674,
                -2.2754960733774765
            ]
        },
        {
            "positions": [
                -2.4243481011316,
                -0.8805172972850224,
                -0.9610570336064205,
                -0.464736463418858,
                0.16958897034871198,
                -2.1302729200295776
            ]
        },
        {
            "positions": [
                -2.3732427366575575,
                -0.9006731135917023,
                -1.0418333367438537,
                -0.537957566421819,
                0.16324288755741725,
                -1.985049766681679
            ]
        },
        {
            "positions": [
                -2.3221373721835152,
                -0.9208289298983823,
                -1.122609639881287,
                -0.6111786694247799,
                0.15689680476612253,
                -1.8398266133337806
            ]
        },
        {
            "positions": [
                -2.2710320077094726,
                -0.9409847462050622,
                -1.2033859430187204,
                -0.6843997724277409,
                0.15055072197482777,
                -1.694603459985882
            ]
        },
        {
            "positions": [
                -2.21992664323543,
                -0.9611405625117423,
                -1.2841622461561535,
                -0.7576208754307019,
                0.14420463918353305,
                -1.5493803066379832
            ]
        },
        {
            "positions": [
                -2.168821278761387,
                -0.9812963788184222,
                -1.3649385492935866,
                -0.8308419784336629,
                0.13785855639223832,
                -1.4041571532900847
            ]
        },
        {
            "positions": [
                -2.1177159142873445,
                -1.0014521951251023,
                -1.44571485243102,
                -0.9040630814366237,
                0.13151247360094356,
                -1.258933999942186
            ]
        },
        {
            "positions": [
                -2.066610549813302,
                -1.0216080114317823,
                -1.5264911555684533,
                -0.9772841844395848,
                0.12516639080964884,
                -1.1137108465942875
            ]
        },
        {
            "positions": [
                -2.0155051853392596,
                -1.0417638277384622,
                -1.6072674587058864,
                -1.0505052874425458,
                0.1188203080183541,
                -0.9684876932463888
            ]
        },
        {
            "positions": [
                -1.9643998208652167,
                -1.0619196440451422,
                -1.6880437618433197,
                -1.1237263904455068,
                0.11247422522705935,
                -0.8232645398984901
            ]
        },
        {
            "positions": [
                -1.9132944563911742,
                -1.0820754603518221,
                -1.768820064980753,
                -1.1969474934484676,
                0.10612814243576461,
                -0.6780413865505914
            ]
        },
        {
            "positions": [
                -1.8621890919171316,
                -1.102231276658502,
                -1.8495963681181862,
                -1.2701685964514287,
                0.09978205964446989,
                -0.5328182332026932
            ]
        },
        {
            "positions": [
                -1.8110837274430889,
                -1.122387092965182,
                -1.9303726712556193,
                -1.3433896994543897,
                0.09343597685317515,
                -0.38759507985479447
            ]
        },
        {
            "positions": [
                -1.7599783629690462,
                -1.1425429092718622,
                -2.011148974393053,
                -1.4166108024573505,
                0.08708989406188042,
                -0.24237192650689598
            ]
        },
        {
            "positions": [
                -1.7088729984950037,
                -1.1626987255785421,
                -2.091925277530486,
                -1.4898319054603115,
                0.08074381127058568,
                -0.09714877315899706
            ]
        },
        {
            "positions": [
                -1.657767634020961,
                -1.182854541885222,
                -2.172701580667919,
                -1.5630530084632726,
                0.07439772847929094,
                0.04807438018890155
            ]
        },
        {
            "positions": [
                -1.5777928628675577,
                -1.206395865803767,
                -2.180566828719577,
                -1.6407853655296813,
                0.10836274710577509,
                0.21417659974016584
            ]
        },
        {
            "positions": [
                -1.4978180917141544,
                -1.229937189722312,
                -2.1884320767712353,
                -1.7185177225960904,
                0.14232776573225925,
                0.3802788192914301
            ]
        },
        {
            "positions": [
                -1.417843320560751,
                -1.253478513640857,
                -2.1962973248228934,
                -1.7962500796624992,
                0.1762927843587434,
                0.5463810388426944
            ]
        },
        {
            "positions": [
                -1.3378685494073477,
                -1.277019837559402,
                -2.2041625728745515,
                -1.8739824367289082,
                0.21025780298522756,
                0.7124832583939587
            ]
        },
        {
            "positions": [
                -1.257893778253944,
                -1.3005611614779469,
                -2.21202782092621,
                -1.951714793795317,
                0.24422282161171172,
                0.8785854779452229
            ]
        },
        {
            "positions": [
                -1.1779190071005408,
                -1.3241024853964918,
                -2.219893068977868,
                -2.029447150861726,
                0.27818784023819587,
                1.0446876974964872
            ]
        },
        {
            "positions": [
                -1.0979442359471374,
                -1.347643809315037,
                -2.2277583170295263,
                -2.1071795079281346,
                0.31215285886468,
                1.2107899170477516
            ]
        },
        {
            "positions": [
                -1.017969464793734,
                -1.3711851332335818,
                -2.2356235650811844,
                -2.1849118649945436,
                0.3461178774911642,
                1.3768921365990159
            ]
        },
        {
            "positions": [
                -0.9379946936403307,
                -1.3947264571521267,
                -2.2434888131328425,
                -2.2626442220609526,
                0.38008289611764834,
                1.5429943561502801
            ]
        },
        {
            "positions": [
                -0.8149555929185894,
                -1.4112190391904713,
                -2.254430118732577,
                -2.3397916753308725,
                0.43272488168545736,
                1.6503029073066469
            ]
        },
        {
            "positions": [
                -0.691916492196848,
                -1.427711621228816,
                -2.265371424332311,
                -2.416939128600792,
                0.4853668672532664,
                1.7576114584630138
            ]
        },
        {
            "positions": [
                -0.5688773914751067,
                -1.4442042032671605,
                -2.2763127299320454,
                -2.494086581870712,
                0.5380088528210754,
                1.8649200096193805
            ]
        },
        {
            "positions": [
                -0.4458382907533654,
                -1.460696785305505,
                -2.2872540355317796,
                -2.5712340351406318,
                0.5906508383888844,
                1.9722285607757473
            ]
        },
        {
            "positions": [
                -0.32279919003162405,
                -1.4771893673438496,
                -2.298195341131514,
                -2.648381488410551,
                0.6432928239566934,
                2.079537111932114
            ]
        },
        {
            "positions": [
                -0.19976008930988276,
                -1.4936819493821942,
                -2.309136646731248,
                -2.725528941680471,
                0.6959348095245024,
                2.186845663088481
            ]
        },
        {
            "positions": [
                -0.07672098858814147,
                -1.5101745314205388,
                -2.3200779523309825,
                -2.8026763949503906,
                0.7485767950923115,
                2.2941542142448474
            ]
        },
        {
            "positions": [
                0.04631811213359993,
                -1.5266671134588834,
                -2.3310192579307167,
                -2.8798238482203105,
                0.8012187806601205,
                2.4014627654012144
            ]
        },
        {
            "positions": [
                0.16935721285534133,
                -1.543159695497228,
                -2.341960563530451,
                -2.9569713014902304,
                0.8538607662279296,
                2.5087713165575813
            ]
        },
        {
            "positions": [
                0.2923963135770826,
                -1.5596522775355726,
                -2.3529018691301853,
                -3.03411875476015,
                0.9065027517957385,
                2.616079867713948
            ]
        },
        {
            "positions": [
                0.4154354142988239,
                -1.5761448595739171,
                -2.3638431747299196,
                -3.1112662080300697,
                0.9591447373635476,
                2.723388418870315
            ]
        },
        {
            "positions": [
                0.3488975476554905,
                -1.5949102392459094,
                -2.3635819024257194,
                -3.0077295709398375,
                0.8340108906993264,
                2.7692373101838044
            ]
        },
        {
            "positions": [
                0.2823596810121571,
                -1.6136756189179016,
                -2.3633206301215193,
                -2.9041929338496058,
                0.7088770440351053,
                2.815086201497294
            ]
        },
        {
            "positions": [
                0.21582181436882364,
                -1.6324409985898938,
                -2.3630593578173187,
                -2.8006562967593736,
                0.5837431973708843,
                2.860935092810783
            ]
        },
        {
            "positions": [
                0.14928394772549025,
                -1.651206378261886,
                -2.3627980855131185,
                -2.697119659669142,
                0.4586093507066632,
                2.9067839841242726
            ]
        },
        {
            "positions": [
                0.08274608108215675,
                -1.669971757933878,
                -2.3625368132089184,
                -2.5935830225789096,
                0.3334755040424421,
                2.952632875437762
            ]
        },
        {
            "positions": [
                0.016208214438823365,
                -1.6887371376058702,
                -2.3622755409047183,
                -2.490046385488678,
                0.20834165737822108,
                2.9984817667512518
            ]
        },
        {
            "positions": [
                -0.05032965220451008,
                -1.7075025172778624,
                -2.3620142686005177,
                -2.3865097483984457,
                0.08320781071399985,
                3.044330658064741
            ]
        },
        {
            "positions": [
                -0.11686751884784341,
                -1.7262678969498546,
                -2.3617529962963175,
                -2.282973111308214,
                -0.04192603595022115,
                3.0901795493782305
            ]
        },
        {
            "positions": [
                -0.1834053854911769,
                -1.7450332766218468,
                -2.3614917239921174,
                -2.1794364742179817,
                -0.16705988261444224,
                3.13602844069172
            ]
        }
    ]
}