{
    "goal": {
        "global_pose": {
            "orientation": {
                "w": 0.5084816262002911,
                "x": -0.4908360881923452,
                "y": 0.5182115481033761,
                "z": -0.48164630358495003
            },
            "position": {
                "x": 0.5540239810943604,
                "y": -0.46912469901144505,
                "z": 0.16403168439865112
            }
        },
        "name": "move_to_storage_B"
    },
    "id": "RRTstar_move_to_storage_B_58",
    "joint_names": [
        "shoulder_pan_joint",
        "shoulder_lift_joint",
        "elbow_joint",
        "wrist_1_joint",
        "wrist_2_joint",
        "wrist_3_joint"
    ],
    "metrics": {
        "cart_traj_len": 1.2190836894318804,
        "distance_elbow_joint": 1.7870673838726918,
        "distance_shoulder_lift_joint": 1.010556191812833,
        "distance_shoulder_pan_joint": 0.8670930794440931,
        "distance_wrist_1_joint": 3.0547614249815873,
        "distance_wrist_2_joint": 2.706770101946325,
        "distance_wrist_3_joint": 3.681153615700224,
        "smoothness": 0.780956103142672,
        "time": 5.043067914,
        "traj_len": 3.620414589209052,
        "weighted_distance": 5.121644321512976
    },
    "planner": "RRTstar",
    "start": {
        "state": {
            "elbow_joint": 1.664937868594044,
            "shoulder_lift_joint": -0.661644460510453,
            "shoulder_pan_joint": -0.9139846352900073,
            "wrist_1_joint": 2.146753192139373,
            "wrist_2_joint": -2.2341966793290973,
            "wrist_3_joint": 0.005466555786416001
        }
    },
    "waypoints": [
        {
            "positions": [
                -0.9139846352900073,
                -0.661644460510453,
                1.664937868594044,
                2.146753192139373,
                -2.2341966793290973,
                0.005466555786416001
            ]
        },
        {
            "positions": [
                -0.871067647752881,
                -0.6940330890870862,
                1.7293631648836074,
                2.0626550205069334,
                -2.142297039593995,
                0.05925088392029252
            ]
        },
        {
            "positions": [
                -0.8281506602157548,
                -0.7264217176637193,
                1.7937884611731711,
                1.9785568488744933,
                -2.050397399858893,
                0.11303521205416904
            ]
        },
        {
            "positions": [
                -0.7852336726786286,
                -0.7588103462403526,
                1.8582137574627349,
                1.8944586772420535,
                -1.9584977601237905,
                0.16681954018804557
            ]
        },
        {
            "positions": [
                -0.7423166851415024,
                -0.7911989748169858,
                1.9226390537522984,
                1.8103605056096135,
                -1.866598120388688,
                0.22060386832192208
            ]
        },
        {
            "positions": [
                -0.6993996976043761,
                -0.8235876033936189,
                1.9870643500418619,
                1.7262623339771737,
                -1.7746984806535857,
                0.27438819645579865
            ]
        },
        {
            "positions": [
                -0.6564827100672499,
                -0.8559762319702522,
                2.051489646331426,
                1.6421641623447338,
                -1.6827988409184835,
                0.32817252458967516
            ]
        },
        {
            "positions": [
                -0.6135657225301236,
                -0.8883648605468853,
                2.1159149426209893,
                1.558065990712294,
                -1.5908992011833814,
                0.3819568527235517
            ]
        },
        {
            "positions": [
                -0.5706487349929974,
                -0.9207534891235185,
                2.180340238910553,
                1.473967819079854,
                -1.498999561448279,
                0.4357411808574282
            ]
        },
        {
            "positions": [
                -0.5821675575262959,
                -0.8516933518087768,
                2.000387232711434,
                1.483399481338686,
                -1.4885503403544293,
                0.36786682141991567
            ]
        },
        {
            "positions": [
                -0.5936863800595945,
                -0.7826332144940352,
                1.8204342265123157,
                1.492831143597518,
                -1.4781011192605797,
                0.2999924619824031
            ]
        },
        {
            "positions": [
                -0.6052052025928931,
                -0.7135730771792936,
                1.640481220313197,
                1.5022628058563499,
                -1.4676518981667301,
                0.23211810254489054
            ]
        },
        {
            "positions": [
                -0.6167240251261916,
                -0.6445129398645519,
                1.4605282141140785,
                1.5116944681151818,
                -1.4572026770728805,
                0.164243743107378
            ]
        },
        {
            "positions": [
                -0.6374928029094041,
                -0.6651740969924128,
                1.4845218223210224,
                1.4097705810331496,
                -1.373299368390702,
                0.2937820714934285
            ]
        },
        {
            "positions": [
                -0.6582615806926168,
                -0.6858352541202738,
                1.5085154305279662,
                1.3078466939511175,
                -1.2893960597085234,
                0.42332039987947895
            ]
        },
        {
            "positions": [
                -0.6790303584758293,
                -0.7064964112481347,
                1.53250903873491,
                1.2059228068690853,
                -1.2054927510263447,
                0.5528587282655295
            ]
        },
        {
            "positions": [
                -0.6997991362590419,
                -0.7271575683759955,
                1.556502646941854,
                1.103998919787053,
                -1.1215894423441661,
                0.6823970566515799
            ]
        },
        {
            "positions": [
                -0.7205679140422544,
                -0.7478187255038564,
                1.5804962551487978,
                1.0020750327050207,
                -1.0376861336619876,
                0.8119353850376304
            ]
        },
        {
            "positions": [
                -0.741336691825467,
                -0.7684798826317174,
                1.6044898633557416,
                0.9001511456229886,
                -0.953782824979809,
                0.9414737134236809
            ]
        },
        {
            "positions": [
                -0.7621054696086795,
                -0.7891410397595783,
                1.6284834715626855,
                0.7982272585409563,
                -0.8698795162976304,
                1.0710120418097313
            ]
        },
        {
            "positions": [
                -0.7828742473918922,
                -0.8098021968874392,
                1.6524770797696293,
                0.6963033714589242,
                -0.7859762076154518,
                1.2005503701957818
            ]
        },
        {
            "positions": [
                -0.8036430251751048,
                -0.8304633540153001,
                1.6764706879765732,
                0.5943794843768919,
                -0.7020728989332732,
                1.3300886985818323
            ]
        },
        {
            "positions": [
                -0.8244118029583173,
                -0.851124511143161,
                1.700464296183517,
                0.49245559729485966,
                -0.6181695902510946,
                1.4596270269678828
            ]
        },
        {
            "positions": [
                -0.8451805807415298,
                -0.8717856682710219,
                1.7244579043904609,
                0.3905317102128274,
                -0.534266281568916,
                1.5891653553539333
            ]
        },
        {
            "positions": [
                -0.8659493585247424,
                -0.8924468253988829,
                1.7484515125974047,
                0.28860782313079536,
                -0.45036297288673754,
                1.7187036837399838
            ]
        },
        {
            "positions": [
                -0.8867181363079549,
                -0.9131079825267437,
                1.7724451208043486,
                0.1866839360487631,
                -0.366459664204559,
                1.8482420121260341
            ]
        },
        {
            "positions": [
                -0.9074869140911676,
                -0.9337691396546046,
                1.7964387290112924,
                0.08476004896673084,
                -0.28255635552238023,
                1.9777803405120848
            ]
        },
        {
            "positions": [
                -0.9282556918743801,
                -0.9544302967824656,
                1.8204323372182363,
                -0.017163838115301422,
                -0.19865304684020169,
                2.1073186688981353
            ]
        },
        {
            "positions": [
                -0.9490244696575927,
                -0.9750914539103265,
                1.8444259454251801,
                -0.11908772519733346,
                -0.11474973815802314,
                2.2368569972841854
            ]
        },
        {
            "positions": [
                -0.9697932474408052,
                -0.9957526110381874,
                1.868419553632124,
                -0.22101161227936572,
                -0.030846429475844594,
                2.3663953256702364
            ]
        },
        {
            "positions": [
                -0.9905620252240178,
                -1.0164137681660483,
                1.8924131618390678,
                -0.322935499361398,
                0.05305687920633417,
                2.4959336540562864
            ]
        },
        {
            "positions": [
                -1.0113308030072303,
                -1.037074925293909,
                1.9164067700460117,
                -0.42485938644343024,
                0.13696018788851272,
                2.6254719824423374
            ]
        },
        {
            "positions": [
                -1.032099580790443,
                -1.05773608242177,
                1.9404003782529555,
                -0.5267832735254625,
                0.22086349657069126,
                2.7550103108283874
            ]
        },
        {
            "positions": [
                -1.0528683585736553,
                -1.078397239549631,
                1.9643939864598994,
                -0.6287071606074945,
                0.3047668052528698,
                2.8845486392144384
            ]
        },
        {
            "positions": [
                -1.073637136356868,
                -1.099058396677492,
                1.9883875946668432,
                -0.730631047689527,
                0.3886701139350486,
                3.0140869676004884
            ]
        },
        {
            "positions": [
                -1.0944059141400806,
                -1.1197195538053528,
                2.012381202873787,
                -0.8325549347715591,
                0.4725734226172271,
                3.1436252959865394
            ]
        }
    ]
}