{
    "goal": {
        "global_pose": {
            "orientation": {
                "w": -0.4816463035849501,
                "x": 0.5182115481033762,
                "y": 0.4908360881923453,
                "z": -0.5084816262002911
            },
            "position": {
                "x": -0.8240239810943604,
                "y": 0.19912469901144506,
                "z": 0.16403168439865112
            }
        },
        "name": "move_to_storage_D"
    },
    "id": "RRTstar_move_to_storage_D_85",
    "joint_names": [
        "shoulder_pan_joint",
        "shoulder_lift_joint",
        "elbow_joint",
        "wrist_1_joint",
        "wrist_2_joint",
        "wrist_3_joint"
    ],
    "metrics": {
        "cart_traj_len": 0.9507690999865038,
        "distance_elbow_joint": 0.9205762116477267,
        "distance_shoulder_lift_joint": 0.21877968356362887,
        "distance_shoulder_pan_joint": 1.7921778060085989,
        "distance_wrist_1_joint": 4.469094323745104,
        "distance_wrist_2_joint": 1.775662977867648,
        "distance_wrist_3_joint": 3.1191702875190668,
        "smoothness": 0.3631145291375981,
        "time": 5.018675606,
        "traj_len": 3.506488455756239,
        "weighted_distance": 4.977806662276334
    },
    "planner": "RRTstar",
    "start": {
        "state": {
            "elbow_joint": -2.384821988534728,
            "shoulder_lift_joint": -2.2788054721415256,
            "shoulder_pan_joint": -0.1854694642142757,
            "wrist_1_joint": 1.4845938289331202,
            "wrist_2_joint": 0.17898776772866878,
            "wrist_3_joint": 0.037105688729662994
        }
    },
    "waypoints": [
        {
            "positions": [
                -0.1854694642142757,
                -2.2788054721415256,
                -2.384821988534728,
                1.4845938289331202,
                0.17898776772866878,
                0.037105688729662994
            ]
        },
        {
            "positions": [
                0.008818938006396576,
                -2.2854559285924254,
                -2.42149045707786,
                1.549349315124478,
                0.16512663039900083,
                0.006843300198005518
            ]
        },
        {
            "positions": [
                0.20310734022706886,
                -2.292106385043325,
                -2.4581589256209924,
                1.614104801315836,
                0.15126549306933285,
                -0.023419088333651958
            ]
        },
        {
            "positions": [
                0.3973957424477411,
                -2.2987568414942245,
                -2.4948273941641244,
                1.6788602875071936,
                0.1374043557396649,
                -0.05368147686530943
            ]
        },
        {
            "positions": [
                0.5916841446684135,
                -2.3054072979451243,
                -2.531495862707257,
                1.7436157736985516,
                0.12354321840999691,
                -0.08394386539696691
            ]
        },
        {
            "positions": [
                0.7859725468890857,
                -2.312057754396024,
                -2.568164331250389,
                1.8083712598899093,
                0.10968208108032895,
                -0.11420625392862438
            ]
        },
        {
            "positions": [
                0.7555749248555584,
                -2.3051863691623526,
                -2.5408593731417937,
                1.6548410046014532,
                0.04648366288702124,
                -0.2241269333679125
            ]
        },
        {
            "positions": [
                0.7251773028220311,
                -2.298314983928681,
                -2.5135544150331985,
                1.5013107493129971,
                -0.016714755306286466,
                -0.33404761280720063
            ]
        },
        {
            "positions": [
                0.6947796807885038,
                -2.2914435986950097,
                -2.486249456924604,
                1.347780494024541,
                -0.07991317349959418,
                -0.44396829224648876
            ]
        },
        {
            "positions": [
                0.6643820587549765,
                -2.284572213461338,
                -2.4589444988160087,
                1.194250238736085,
                -0.14311159169290188,
                -0.5538889716857769
            ]
        },
        {
            "positions": [
                0.6339844367214492,
                -2.2777008282276667,
                -2.4316395407074136,
                1.0407199834476288,
                -0.20631000988620957,
                -0.6638096511250651
            ]
        },
        {
            "positions": [
                0.603586814687922,
                -2.2708294429939953,
                -2.4043345825988185,
                0.8871897281591726,
                -0.2695084280795173,
                -0.7737303305643531
            ]
        },
        {
            "positions": [
                0.5731891926543946,
                -2.2639580577603238,
                -2.3770296244902234,
                0.7336594728707164,
                -0.332706846272825,
                -0.8836510100036413
            ]
        },
        {
            "positions": [
                0.5427915706208672,
                -2.2570866725266523,
                -2.3497246663816287,
                0.5801292175822603,
                -0.3959052644661327,
                -0.9935716894429294
            ]
        },
        {
            "positions": [
                0.51239394858734,
                -2.250215287292981,
                -2.3224197082730336,
                0.42659896229380423,
                -0.45910368265944035,
                -1.1034923688822176
            ]
        },
        {
            "positions": [
                0.4819963265538127,
                -2.2433439020593093,
                -2.2951147501644384,
                0.27306870700534813,
                -0.5223021008527481,
                -1.2134130483215058
            ]
        },
        {
            "positions": [
                0.45159870452028544,
                -2.236472516825638,
                -2.2678097920558433,
                0.11953845171689204,
                -0.5855005190460558,
                -1.3233337277607937
            ]
        },
        {
            "positions": [
                0.42120108248675814,
                -2.2296011315919664,
                -2.2405048339472486,
                -0.03399180357156406,
                -0.6486989372393636,
                -1.433254407200082
            ]
        },
        {
            "positions": [
                0.39080346045323083,
                -2.222729746358295,
                -2.2131998758386535,
                -0.18752205886002016,
                -0.7118973554326712,
                -1.54317508663937
            ]
        },
        {
            "positions": [
                0.36040583841970353,
                -2.2158583611246234,
                -2.1858949177300584,
                -0.3410523141484765,
                -0.7750957736259789,
                -1.6530957660786583
            ]
        },
        {
            "positions": [
                0.33000821638617617,
                -2.2089869758909515,
                -2.1585899596214633,
                -0.4945825694369326,
                -0.8382941918192867,
                -1.7630164455179465
            ]
        },
        {
            "positions": [
                0.2996105943526489,
                -2.20211559065728,
                -2.131285001512868,
                -0.6481128247253887,
                -0.9014926100125944,
                -1.8729371249572344
            ]
        },
        {
            "positions": [
                0.26921297231912156,
                -2.1952442054236085,
                -2.103980043404273,
                -0.8016430800138448,
                -0.964691028205902,
                -1.9828578043965226
            ]
        },
        {
            "positions": [
                0.2388153502855943,
                -2.188372820189937,
                -2.0766750852956783,
                -0.9551733353023009,
                -1.0278894463992096,
                -2.0927784838358106
            ]
        },
        {
            "positions": [
                0.20841772825206695,
                -2.1815014349562656,
                -2.0493701271870832,
                -1.1087035905907574,
                -1.0910878645925175,
                -2.202699163275099
            ]
        },
        {
            "positions": [
                0.1780201062185397,
                -2.174630049722594,
                -2.022065169078488,
                -1.262233845879213,
                -1.1542862827858251,
                -2.312619842714387
            ]
        },
        {
            "positions": [
                0.14762248418501245,
                -2.1677586644889226,
                -1.994760210969893,
                -1.4157641011676696,
                -1.217484700979133,
                -2.4225405221536755
            ]
        },
        {
            "positions": [
                0.1172248621514852,
                -2.160887279255251,
                -1.967455252861298,
                -1.5692943564561253,
                -1.2806831191724406,
                -2.5324612015929633
            ]
        },
        {
            "positions": [
                0.08682724011795784,
                -2.1540158940215797,
                -1.9401502947527032,
                -1.7228246117445818,
                -1.3438815373657484,
                -2.642381881032251
            ]
        },
        {
            "positions": [
                0.05642961808443059,
                -2.147144508787908,
                -1.912845336644108,
                -1.8763548670330374,
                -1.407079955559056,
                -2.7523025604715396
            ]
        },
        {
            "positions": [
                0.026031996050903228,
                -2.1402731235542367,
                -1.885540378535513,
                -2.029885122321494,
                -1.4702783737523637,
                -2.8622232399108274
            ]
        },
        {
            "positions": [
                -0.004365625982624022,
                -2.1334017383205652,
                -1.858235420426918,
                -2.1834153776099496,
                -1.5334767919456713,
                -2.972143919350116
            ]
        },
        {
            "positions": [
                -0.03476324801615141,
                -2.1265303530868938,
                -1.830930462318323,
                -2.3369456328984066,
                -1.5966752101389792,
                -3.0820645987894038
            ]
        }
    ]
}