{
    "goal": {
        "global_pose": {
            "orientation": {
                "w": 0.5084816262002911,
                "x": -0.4908360881923452,
                "y": 0.5182115481033761,
                "z": -0.48164630358495003
            },
            "position": {
                "x": 0.5540239810943604,
                "y": -0.46912469901144505,
                "z": 0.16403168439865112
            }
        },
        "name": "move_to_storage_B"
    },
    "id": "RRTstar_move_to_storage_B_49",
    "joint_names": [
        "shoulder_pan_joint",
        "shoulder_lift_joint",
        "elbow_joint",
        "wrist_1_joint",
        "wrist_2_joint",
        "wrist_3_joint"
    ],
    "metrics": {
        "cart_traj_len": 1.4208541058893724,
        "distance_elbow_joint": 0.3491664884327035,
        "distance_shoulder_lift_joint": 0.6695256452327896,
        "distance_shoulder_pan_joint": 1.1204262262105011,
        "distance_wrist_1_joint": 2.981645424602265,
        "distance_wrist_2_joint": 2.7058885108269166,
        "distance_wrist_3_joint": 3.1354510840898158,
        "smoothness": 0.05434245217228514,
        "time": 5.10578809,
        "traj_len": 3.310906730700065,
        "weighted_distance": 4.787540024167297
    },
    "planner": "RRTstar",
    "start": {
        "state": {
            "elbow_joint": 1.664937868594044,
            "shoulder_lift_joint": -0.661644460510453,
            "shoulder_pan_joint": -0.9139846352900073,
            "wrist_1_joint": 2.146753192139373,
            "wrist_2_joint": -2.2341966793290973,
            "wrist_3_joint": 0.005466555786416001
        }
    },
    "waypoints": [
        {
            "positions": [
                -0.9139846352900073,
                -0.661644460510453,
                1.664937868594044,
                2.146753192139373,
                -2.2341966793290973,
                0.005466555786416001
            ]
        },
        {
            "positions": [
                -0.7966910860515682,
                -0.6878363781574248,
                1.6750072063948043,
                2.074759560046385,
                -2.137581220348293,
                0.0119554507675785
            ]
        },
        {
            "positions": [
                -0.6793975368131292,
                -0.7140282958043966,
                1.6850765441955649,
                2.002765927953397,
                -2.040965761367488,
                0.018444345748741
            ]
        },
        {
            "positions": [
                -0.5621039875746902,
                -0.7402202134513685,
                1.6951458819963254,
                1.9307722958604088,
                -1.9443503023866837,
                0.0249332407299035
            ]
        },
        {
            "positions": [
                -0.4448104383362511,
                -0.7664121310983403,
                1.7052152197970858,
                1.8587786637674206,
                -1.8477348434058793,
                0.031422135711066
            ]
        },
        {
            "positions": [
                -0.4568531628378398,
                -0.8173837336195717,
                1.7195232085730856,
                1.8100132161724425,
                -1.7350870486743815,
                0.18663638028403232
            ]
        },
        {
            "positions": [
                -0.4688958873394285,
                -0.8683553361408032,
                1.7338311973490856,
                1.7612477685774643,
                -1.6224392539428838,
                0.34185062485699863
            ]
        },
        {
            "positions": [
                -0.48093861184101716,
                -0.9193269386620346,
                1.7481391861250855,
                1.712482320982486,
                -1.5097914592113861,
                0.497064869429965
            ]
        },
        {
            "positions": [
                -0.4929813363426058,
                -0.9702985411832661,
                1.7624471749010855,
                1.6637168733875078,
                -1.3971436644798882,
                0.6522791140029313
            ]
        },
        {
            "positions": [
                -0.5050240608441945,
                -1.0212701437044975,
                1.7767551636770853,
                1.6149514257925297,
                -1.2844958697483904,
                0.8074933585758978
            ]
        },
        {
            "positions": [
                -0.5170667853457832,
                -1.072241746225729,
                1.7910631524530853,
                1.5661859781975516,
                -1.1718480750168927,
                0.9627076031488639
            ]
        },
        {
            "positions": [
                -0.5291095098473719,
                -1.1232133487469604,
                1.8053711412290852,
                1.5174205306025734,
                -1.0592002802853948,
                1.1179218477218305
            ]
        },
        {
            "positions": [
                -0.5411522343489605,
                -1.174184951268192,
                1.8196791300050852,
                1.468655083007595,
                -0.9465524855538971,
                1.2731360922947965
            ]
        },
        {
            "positions": [
                -0.5531949588505493,
                -1.2251565537894233,
                1.833987118781085,
                1.419889635412617,
                -0.8339046908223993,
                1.428350336867763
            ]
        },
        {
            "positions": [
                -0.5871241781469522,
                -1.2185307067923097,
                1.845244446171439,
                1.2789657686703975,
                -0.7523049081773856,
                1.5353857933057924
            ]
        },
        {
            "positions": [
                -0.6210533974433552,
                -1.211904859795196,
                1.8565017735617928,
                1.1380419019281782,
                -0.6707051255323718,
                1.6424212497438218
            ]
        },
        {
            "positions": [
                -0.6549826167397581,
                -1.2052790127980821,
                1.8677591009521466,
                0.9971180351859589,
                -0.589105342887358,
                1.749456706181851
            ]
        },
        {
            "positions": [
                -0.688911836036161,
                -1.1986531658009685,
                1.8790164283425006,
                0.8561941684437395,
                -0.5075055602423444,
                1.8564921626198803
            ]
        },
        {
            "positions": [
                -0.7228410553325639,
                -1.1920273188038548,
                1.8902737557328546,
                0.7152703017015202,
                -0.42590577759733067,
                1.9635276190579096
            ]
        },
        {
            "positions": [
                -0.756770274628967,
                -1.1854014718067412,
                1.9015310831232084,
                0.5743464349593008,
                -0.34430599495231695,
                2.0705630754959388
            ]
        },
        {
            "positions": [
                -0.7906994939253699,
                -1.1787756248096275,
                1.9127884105135622,
                0.43342256821708147,
                -0.2627062123073032,
                2.177598531933968
            ]
        },
        {
            "positions": [
                -0.8246287132217729,
                -1.1721497778125136,
                1.9240457379039162,
                0.2924987014748621,
                -0.18110642966228951,
                2.2846339883719975
            ]
        },
        {
            "positions": [
                -0.8585579325181758,
                -1.1655239308154,
                1.9353030652942702,
                0.15157483473264288,
                -0.09950664701727585,
                2.391669444810027
            ]
        },
        {
            "positions": [
                -0.8924871518145787,
                -1.1588980838182863,
                1.946560392684624,
                0.010650967990423421,
                -0.017906864372262077,
                2.498704901248056
            ]
        },
        {
            "positions": [
                -0.9264163711109816,
                -1.1522722368211726,
                1.9578177200749778,
                -0.13027289875179604,
                0.0636929182727517,
                2.605740357686085
            ]
        },
        {
            "positions": [
                -0.9603455904073847,
                -1.145646389824059,
                1.9690750474653318,
                -0.2711967654940153,
                0.14529270091776536,
                2.7127758141241145
            ]
        },
        {
            "positions": [
                -0.9942748097037876,
                -1.1390205428269453,
                1.9803323748556858,
                -0.4121206322362345,
                0.22689248356277902,
                2.819811270562144
            ]
        },
        {
            "positions": [
                -1.0282040290001906,
                -1.1323946958298314,
                1.9915897022460396,
                -0.553044498978454,
                0.3084922662077929,
                2.9268467270001732
            ]
        },
        {
            "positions": [
                -1.0621332482965935,
                -1.1257688488327178,
                2.0028470296363934,
                -0.6939683657206734,
                0.39009204885280657,
                3.0338821834382026
            ]
        },
        {
            "positions": [
                -1.0960624675929964,
                -1.1191430018356041,
                2.0141043570267474,
                -0.8348922324628929,
                0.4716918314978202,
                3.140917639876232
            ]
        }
    ]
}