{
    "goal": {
        "global_pose": {
            "orientation": {
                "w": 0.7047431468963623,
                "x": -0.7094548344612122,
                "y": 0.0024358443915843964,
                "z": -0.0022348060738295317
            },
            "position": {
                "x": 0.6094750761985779,
                "y": 0.3671506643295288,
                "z": 0.19426114857196808
            }
        },
        "name": "move_to_magneteinheit_A"
    },
    "id": "RRTstar_move_to_magneteinheit_A_96",
    "joint_names": [
        "shoulder_pan_joint",
        "shoulder_lift_joint",
        "elbow_joint",
        "wrist_1_joint",
        "wrist_2_joint",
        "wrist_3_joint"
    ],
    "metrics": {
        "cart_traj_len": 3.6928828467171133,
        "distance_elbow_joint": 3.8782399947609854,
        "distance_shoulder_lift_joint": 0.8390423006499399,
        "distance_shoulder_pan_joint": 2.6127283200238276,
        "distance_wrist_1_joint": 1.032300376149713,
        "distance_wrist_2_joint": 1.6997954558057682,
        "distance_wrist_3_joint": 2.5827841947912966,
        "smoothness": 0.05405843271783805,
        "time": 5.015156382,
        "traj_len": 3.555965500701818,
        "weighted_distance": 4.532389531331085
    },
    "planner": "RRTstar",
    "start": {
        "state": {
            "elbow_joint": -1.9196185241190666,
            "shoulder_lift_joint": -1.2443396400964142,
            "shoulder_pan_joint": 2.6996025414629847,
            "wrist_1_joint": -1.5485510000780065,
            "wrist_2_joint": -1.5709468930060704,
            "wrist_3_joint": 0.4420197071253992
        }
    },
    "waypoints": [
        {
            "positions": [
                2.6996025414629847,
                -1.2443396400964142,
                -1.9196185241190666,
                -1.5485510000780065,
                -1.5709468930060704,
                0.4420197071253992
            ]
        },
        {
            "positions": [
                2.574336743969809,
                -1.2146235722901542,
                -1.799256689021261,
                -1.5548185537434474,
                -1.5273368434425032,
                0.500250495177949
            ]
        },
        {
            "positions": [
                2.449070946476633,
                -1.1849075044838941,
                -1.6788948539234554,
                -1.5610861074088882,
                -1.483726793878936,
                0.5584812832304988
            ]
        },
        {
            "positions": [
                2.3238051489834572,
                -1.1551914366776344,
                -1.5585330188256497,
                -1.567353661074329,
                -1.4401167443153686,
                0.6167120712830486
            ]
        },
        {
            "positions": [
                2.1985393514902816,
                -1.1254753688713743,
                -1.4381711837278441,
                -1.5736212147397701,
                -1.3965066947518014,
                0.6749428593355984
            ]
        },
        {
            "positions": [
                2.073273553997106,
                -1.0957593010651143,
                -1.3178093486300384,
                -1.579888768405211,
                -1.3528966451882343,
                0.7331736473881483
            ]
        },
        {
            "positions": [
                1.94800775650393,
                -1.0660432332588543,
                -1.1974475135322327,
                -1.5861563220706518,
                -1.309286595624667,
                0.791404435440698
            ]
        },
        {
            "positions": [
                1.822741959010754,
                -1.0363271654525943,
                -1.0770856784344272,
                -1.5924238757360927,
                -1.2656765460611,
                0.8496352234932478
            ]
        },
        {
            "positions": [
                1.6974761615175784,
                -1.0066110976463343,
                -0.9567238433366214,
                -1.5986914294015335,
                -1.2220664964975325,
                0.9078660115457977
            ]
        },
        {
            "positions": [
                1.5722103640244027,
                -0.9768950298400744,
                -0.8363620082388157,
                -1.6049589830669744,
                -1.1784564469339653,
                0.9660967995983475
            ]
        },
        {
            "positions": [
                1.4469445665312268,
                -0.9471789620338144,
                -0.7160001731410102,
                -1.6112265367324152,
                -1.1348463973703982,
                1.0243275876508973
            ]
        },
        {
            "positions": [
                1.321678769038051,
                -0.9174628942275544,
                -0.5956383380432044,
                -1.617494090397856,
                -1.0912363478068308,
                1.0825583757034472
            ]
        },
        {
            "positions": [
                1.1964129715448752,
                -0.8877468264212944,
                -0.4752765029453987,
                -1.623761644063297,
                -1.0476262982432636,
                1.140789163755997
            ]
        },
        {
            "positions": [
                1.0711471740516996,
                -0.8580307586150344,
                -0.3549146678475932,
                -1.630029197728738,
                -1.0040162486796964,
                1.1990199518085467
            ]
        },
        {
            "positions": [
                0.9458813765585237,
                -0.8283146908087744,
                -0.23455283274978744,
                -1.6362967513941788,
                -0.9604061991161292,
                1.2572507398610964
            ]
        },
        {
            "positions": [
                0.8206155790653478,
                -0.7985986230025144,
                -0.11419099765198193,
                -1.6425643050596197,
                -0.916796149552562,
                1.3154815279136463
            ]
        },
        {
            "positions": [
                0.695349781572172,
                -0.7688825551962545,
                0.006170837445823918,
                -1.6488318587250606,
                -0.8731860999889948,
                1.3737123159661961
            ]
        },
        {
            "positions": [
                0.6416473861824463,
                -0.7816861366237982,
                0.12945917374032667,
                -1.6023927217746046,
                -0.8134502268956962,
                1.4694867957125382
            ]
        },
        {
            "positions": [
                0.5879449907927206,
                -0.7944897180513417,
                0.2527475100348294,
                -1.5559535848241488,
                -0.7537143538023977,
                1.5652612754588804
            ]
        },
        {
            "positions": [
                0.5342425954029949,
                -0.8072932994788854,
                0.37603584632933207,
                -1.5095144478736928,
                -0.6939784807090992,
                1.6610357552052224
            ]
        },
        {
            "positions": [
                0.48054020001326925,
                -0.8200968809064291,
                0.4993241826238349,
                -1.4630753109232368,
                -0.6342426076158005,
                1.7568102349515644
            ]
        },
        {
            "positions": [
                0.42683780462354354,
                -0.8329004623339726,
                0.6226125189183376,
                -1.4166361739727809,
                -0.5745067345225021,
                1.8525847146979064
            ]
        },
        {
            "positions": [
                0.3731354092338179,
                -0.8457040437615163,
                0.7459008552128402,
                -1.370197037022325,
                -0.5147708614292035,
                1.9483591944442487
            ]
        },
        {
            "positions": [
                0.3194330138440922,
                -0.85850762518906,
                0.8691891915073431,
                -1.323757900071869,
                -0.455034988335905,
                2.044133674190591
            ]
        },
        {
            "positions": [
                0.26573061845436646,
                -0.8713112066166036,
                0.9924775278018458,
                -1.2773187631214131,
                -0.3952991152426064,
                2.1399081539369327
            ]
        },
        {
            "positions": [
                0.2120282230646408,
                -0.8841147880441472,
                1.1157658640963484,
                -1.2308796261709571,
                -0.3355632421493079,
                2.235682633683275
            ]
        },
        {
            "positions": [
                0.1583258276749151,
                -0.8969183694716908,
                1.2390542003908513,
                -1.1844404892205014,
                -0.27582736905600935,
                2.3314571134296167
            ]
        },
        {
            "positions": [
                0.10462343228518942,
                -0.9097219508992345,
                1.3623425366853539,
                -1.1380013522700454,
                -0.21609149596271077,
                2.427231593175959
            ]
        },
        {
            "positions": [
                0.1075816340928615,
                -0.9468462542403678,
                1.461722359011448,
                -1.0678031837621047,
                -0.1586014861689759,
                2.5268269779660817
            ]
        },
        {
            "positions": [
                0.1105398359005336,
                -0.9839705575815012,
                1.5611021813375423,
                -0.9976050152541642,
                -0.10111147637524104,
                2.6264223627562044
            ]
        },
        {
            "positions": [
                0.11349803770820568,
                -1.0210948609226347,
                1.6604820036636365,
                -0.9274068467462235,
                -0.043621466581506174,
                2.726017747546327
            ]
        },
        {
            "positions": [
                0.11645623951587776,
                -1.058219164263768,
                1.7598618259897307,
                -0.8572086782382831,
                0.01386854321222869,
                2.82561313233645
            ]
        },
        {
            "positions": [
                0.11941444132354985,
                -1.0953434676049012,
                1.8592416483158252,
                -0.7870105097303424,
                0.07135855300596355,
                2.9252085171265727
            ]
        },
        {
            "positions": [
                0.12237264313122194,
                -1.1324677709460347,
                1.9586214706419194,
                -0.7168123412224018,
                0.1288485627996984,
                3.0248039019166955
            ]
        }
    ]
}