{
    "goal": {
        "global_pose": {
            "orientation": {
                "w": 0.005598929693374612,
                "x": 0.007748599140229565,
                "y": 0.7110244013736278,
                "z": -0.7031023480610252
            },
            "position": {
                "x": -0.8858502320852131,
                "y": -0.7141253447532654,
                "z": 0.3711530566215515
            }
        },
        "name": "move_to_auspresseinheit_C"
    },
    "id": "RRTstar_move_to_auspresseinheit_C_38",
    "joint_names": [
        "shoulder_pan_joint",
        "shoulder_lift_joint",
        "elbow_joint",
        "wrist_1_joint",
        "wrist_2_joint",
        "wrist_3_joint"
    ],
    "metrics": {
        "cart_traj_len": 0.49222406928386936,
        "distance_elbow_joint": 0.9884840468165969,
        "distance_shoulder_lift_joint": 0.31913324422623324,
        "distance_shoulder_pan_joint": 0.2562673761711416,
        "distance_wrist_1_joint": 0.6580164730032916,
        "distance_wrist_2_joint": 1.303068771803777,
        "distance_wrist_3_joint": 0.04518042267260425,
        "smoothness": 8.074349282788172e-16,
        "time": 5.000091801,
        "traj_len": 1.8894841451289408,
        "weighted_distance": 2.3709905999066976
    },
    "planner": "RRTstar",
    "start": {
        "state": {
            "elbow_joint": 1.7527959577737207,
            "shoulder_lift_joint": -0.9740617694225068,
            "shoulder_pan_joint": -2.967991417825858,
            "wrist_1_joint": -0.759517768980727,
            "wrist_2_joint": 1.7443932448377408,
            "wrist_3_joint": -3.0840537646736568
        }
    },
    "waypoints": [
        {
            "positions": [
                -2.967991417825858,
                -0.9740617694225068,
                1.7527959577737207,
                -0.759517768980727,
                1.7443932448377408,
                -3.0840537646736568
            ]
        },
        {
            "positions": [
                -2.942364680208744,
                -0.9421484449998835,
                1.6539475530920609,
                -0.6937161216803979,
                1.6140863676573631,
                -3.088571806940917
            ]
        },
        {
            "positions": [
                -2.9167379425916296,
                -0.9102351205772601,
                1.5550991484104013,
                -0.6279144743800686,
                1.4837794904769854,
                -3.0930898492081775
            ]
        },
        {
            "positions": [
                -2.8911112049745156,
                -0.8783217961546368,
                1.4562507437287415,
                -0.5621128270797395,
                1.3534726132966077,
                -3.097607891475438
            ]
        },
        {
            "positions": [
                -2.865484467357401,
                -0.8464084717320135,
                1.357402339047082,
                -0.49631117977941036,
                1.22316573611623,
                -3.1021259337426983
            ]
        },
        {
            "positions": [
                -2.839857729740287,
                -0.8144951473093902,
                1.2585539343654222,
                -0.4305095324790812,
                1.0928588589358523,
                -3.106643976009959
            ]
        },
        {
            "positions": [
                -2.814230992123173,
                -0.7825818228867668,
                1.1597055296837626,
                -0.364707885178752,
                0.9625519817554746,
                -3.1111620182772195
            ]
        },
        {
            "positions": [
                -2.7886042545060588,
                -0.7506684984641435,
                1.0608571250021028,
                -0.2989062378784229,
                0.832245104575097,
                -3.11568006054448
            ]
        },
        {
            "positions": [
                -2.7629775168889448,
                -0.7187551740415201,
                0.9620087203204432,
                -0.23310459057809374,
                0.7019382273947192,
                -3.1201981028117403
            ]
        },
        {
            "positions": [
                -2.7373507792718303,
                -0.6868418496188968,
                0.8631603156387835,
                -0.16730294327776452,
                0.5716313502143415,
                -3.1247161450790006
            ]
        },
        {
            "positions": [
                -2.7117240416547164,
                -0.6549285251962735,
                0.7643119109571238,
                -0.10150129597743537,
                0.44132447303396377,
                -3.129234187346261
            ]
        }
    ]
}