{
    "goal": {
        "global_pose": {
            "orientation": {
                "w": 0.7031023480610252,
                "x": -0.7110244013736278,
                "y": 0.0077485991402295624,
                "z": 0.005598929693374583
            },
            "position": {
                "x": -0.8841497679147869,
                "y": 0.44412534475326537,
                "z": 0.3711530566215515
            }
        },
        "name": "move_to_auspresseinheit_D"
    },
    "id": "RRTstar_move_to_auspresseinheit_D_136",
    "joint_names": [
        "shoulder_pan_joint",
        "shoulder_lift_joint",
        "elbow_joint",
        "wrist_1_joint",
        "wrist_2_joint",
        "wrist_3_joint"
    ],
    "metrics": {
        "cart_traj_len": 0.343386284965258,
        "distance_elbow_joint": 0.6292417533310444,
        "distance_shoulder_lift_joint": 0.11621434872795922,
        "distance_shoulder_pan_joint": 0.1349035232733936,
        "distance_wrist_1_joint": 0.5011789558876281,
        "distance_wrist_2_joint": 1.434868963670008,
        "distance_wrist_3_joint": 0.025633372221670836,
        "smoothness": 2.171102805274277e-15,
        "time": 5.0003623,
        "traj_len": 1.6858353766342975,
        "weighted_distance": 2.1975794823197368
    },
    "planner": "RRTstar",
    "start": {
        "state": {
            "elbow_joint": -1.8275523626775212,
            "shoulder_lift_joint": -2.126789852344167,
            "shoulder_pan_joint": -0.03513704404078235,
            "wrist_1_joint": -2.347782403156801,
            "wrist_2_joint": -1.6058999987535132,
            "wrist_3_joint": -3.0880379163319196
        }
    },
    "waypoints": [
        {
            "positions": [
                -0.03513704404078235,
                -2.126789852344167,
                -1.8275523626775212,
                -2.347782403156801,
                -1.6058999987535132,
                -3.0880379163319196
            ]
        },
        {
            "positions": [
                -0.05199998444995655,
                -2.1413166459351616,
                -1.7488971435111407,
                -2.4104297726427544,
                -1.4265413782947622,
                -3.0912420878596283
            ]
        },
        {
            "positions": [
                -0.06886292485913076,
                -2.1558434395261568,
                -1.6702419243447602,
                -2.473077142128708,
                -1.2471827578360113,
                -3.0944462593873374
            ]
        },
        {
            "positions": [
                -0.08572586526830495,
                -2.1703702331171515,
                -1.5915867051783796,
                -2.5357245116146614,
                -1.0678241373772601,
                -3.097650430915046
            ]
        },
        {
            "positions": [
                -0.10258880567747916,
                -2.1848970267081462,
                -1.5129314860119991,
                -2.598371881100615,
                -0.8884655169185092,
                -3.1008546024427552
            ]
        },
        {
            "positions": [
                -0.11945174608665335,
                -2.1994238202991414,
                -1.4342762668456186,
                -2.6610192505865684,
                -0.7091068964597582,
                -3.104058773970464
            ]
        },
        {
            "positions": [
                -0.13631468649582756,
                -2.213950613890136,
                -1.3556210476792379,
                -2.723666620072522,
                -0.529748276001007,
                -3.1072629454981726
            ]
        },
        {
            "positions": [
                -0.15317762690500175,
                -2.2284774074811313,
                -1.2769658285128573,
                -2.7863139895584754,
                -0.3503896555422561,
                -3.1104671170258817
            ]
        },
        {
            "positions": [
                -0.17004056731417597,
                -2.243004201072126,
                -1.1983106093464768,
                -2.848961359044429,
                -0.17103103508350523,
                -3.1136712885535904
            ]
        }
    ]
}