{
    "goal": {
        "global_pose": {
            "orientation": {
                "w": 0.7047431468963623,
                "x": -0.7094548344612122,
                "y": 0.0024358443915843964,
                "z": -0.0022348060738295317
            },
            "position": {
                "x": 0.6094750761985779,
                "y": 0.3671506643295288,
                "z": 0.19426114857196808
            }
        },
        "name": "move_to_magneteinheit_A"
    },
    "id": "RRTstar_move_to_magneteinheit_A_115",
    "joint_names": [
        "shoulder_pan_joint",
        "shoulder_lift_joint",
        "elbow_joint",
        "wrist_1_joint",
        "wrist_2_joint",
        "wrist_3_joint"
    ],
    "metrics": {
        "cart_traj_len": 3.691191470728377,
        "distance_elbow_joint": 3.886317156890266,
        "distance_shoulder_lift_joint": 0.11747332544180655,
        "distance_shoulder_pan_joint": 2.590690522888246,
        "distance_wrist_1_joint": 0.7878258997886134,
        "distance_wrist_2_joint": 1.6995315037699608,
        "distance_wrist_3_joint": 2.625582390894281,
        "smoothness": 0.01045029802025923,
        "time": 5.014046429,
        "traj_len": 3.421610848660785,
        "weighted_distance": 4.409755433697011
    },
    "planner": "RRTstar",
    "start": {
        "state": {
            "elbow_joint": -1.9196185241190666,
            "shoulder_lift_joint": -1.2443396400964142,
            "shoulder_pan_joint": 2.6996025414629847,
            "wrist_1_joint": -1.5485510000780065,
            "wrist_2_joint": -1.5709468930060704,
            "wrist_3_joint": 0.4420197071253992
        }
    },
    "waypoints": [
        {
            "positions": [
                2.6996025414629847,
                -1.2443396400964142,
                -1.9196185241190666,
                -1.5485510000780065,
                -1.5709468930060704,
                0.4420197071253992
            ]
        },
        {
            "positions": [
                2.5449110580692795,
                -1.2359955327233814,
                -1.910622213951074,
                -1.5055154458076039,
                -1.4901052876019343,
                0.5301816333009024
            ]
        },
        {
            "positions": [
                2.3902195746755748,
                -1.2276514253503485,
                -1.9016259037830816,
                -1.462479891537201,
                -1.409263682197798,
                0.6183435594764056
            ]
        },
        {
            "positions": [
                2.2355280912818696,
                -1.2193073179773155,
                -1.892629593615089,
                -1.4194443372667984,
                -1.3284220767936619,
                0.7065054856519088
            ]
        },
        {
            "positions": [
                2.0808366078881644,
                -1.2109632106042827,
                -1.8836332834470966,
                -1.3764087829963958,
                -1.2475804713895258,
                0.794667411827412
            ]
        },
        {
            "positions": [
                1.9261451244944594,
                -1.2026191032312499,
                -1.874636973279104,
                -1.3333732287259932,
                -1.1667388659853895,
                0.8828293380029152
            ]
        },
        {
            "positions": [
                1.7714536411007544,
                -1.194274995858217,
                -1.8656406631111113,
                -1.2903376744555903,
                -1.0858972605812534,
                0.9709912641784184
            ]
        },
        {
            "positions": [
                1.6167621577070495,
                -1.185930888485184,
                -1.856644352943119,
                -1.2473021201851877,
                -1.0050556551771173,
                1.0591531903539215
            ]
        },
        {
            "positions": [
                1.4620706743133443,
                -1.1775867811121512,
                -1.8476480427751263,
                -1.204266565914785,
                -0.924214049772981,
                1.1473151165294249
            ]
        },
        {
            "positions": [
                1.3073791909196393,
                -1.1692426737391184,
                -1.8386517326071337,
                -1.1612310116443822,
                -0.843372444368845,
                1.235477042704928
            ]
        },
        {
            "positions": [
                1.152687707525934,
                -1.1608985663660856,
                -1.8296554224391413,
                -1.1181954573739796,
                -0.7625308389647086,
                1.3236389688804313
            ]
        },
        {
            "positions": [
                0.9979962241322291,
                -1.1525544589930525,
                -1.8206591122711486,
                -1.075159903103577,
                -0.6816892335605725,
                1.4118008950559342
            ]
        },
        {
            "positions": [
                0.8433047407385239,
                -1.1442103516200197,
                -1.8116628021031562,
                -1.0321243488331744,
                -0.6008476281564363,
                1.4999628212314375
            ]
        },
        {
            "positions": [
                0.6886132573448189,
                -1.135866244246987,
                -1.8026664919351636,
                -0.9890887945627717,
                -0.5200060227523003,
                1.5881247474069409
            ]
        },
        {
            "positions": [
                0.650459359231306,
                -1.1355984910662387,
                -1.5876740174761388,
                -0.9744196847732501,
                -0.47994458924576205,
                1.6757837901113217
            ]
        },
        {
            "positions": [
                0.6123054611177933,
                -1.1353307378854902,
                -1.372681543017114,
                -0.9597505749837287,
                -0.43988315573922376,
                1.7634428328157026
            ]
        },
        {
            "positions": [
                0.5741515630042804,
                -1.135062984704742,
                -1.1576890685580894,
                -0.9450814651942072,
                -0.3998217222326855,
                1.8511018755200834
            ]
        },
        {
            "positions": [
                0.5359976648907676,
                -1.1347952315239938,
                -0.9426965940990646,
                -0.9304123554046858,
                -0.3597602887261472,
                1.9387609182244643
            ]
        },
        {
            "positions": [
                0.4978437667772547,
                -1.1345274783432455,
                -0.7277041196400398,
                -0.9157432456151643,
                -0.31969885521960895,
                2.026419960928845
            ]
        },
        {
            "positions": [
                0.45968986866374184,
                -1.134259725162497,
                -0.512711645181015,
                -0.9010741358256429,
                -0.2796374217130706,
                2.114079003633226
            ]
        },
        {
            "positions": [
                0.42153597055022907,
                -1.1339919719817488,
                -0.29771917072199017,
                -0.8864050260361214,
                -0.2395759882065323,
                2.2017380463376064
            ]
        },
        {
            "positions": [
                0.3833820724367162,
                -1.1337242188010006,
                -0.08272669626296558,
                -0.8717359162466,
                -0.19951455469999407,
                2.2893970890419872
            ]
        },
        {
            "positions": [
                0.34522817432320335,
                -1.1334564656202524,
                0.13226577819605922,
                -0.8570668064570784,
                -0.15945312119345578,
                2.377056131746368
            ]
        },
        {
            "positions": [
                0.3070742762096905,
                -1.133188712439504,
                0.34725825265508403,
                -0.842397696667557,
                -0.11939168768691749,
                2.464715174450749
            ]
        },
        {
            "positions": [
                0.2689203780961777,
                -1.1329209592587557,
                0.5622507271141086,
                -0.8277285868780355,
                -0.0793302541803792,
                2.55237421715513
            ]
        },
        {
            "positions": [
                0.2307664799826648,
                -1.1326532060780075,
                0.7772432015731336,
                -0.813059477088514,
                -0.039268820673840854,
                2.6400332598595107
            ]
        },
        {
            "positions": [
                0.19261258186915198,
                -1.1323854528972592,
                0.9922356760321582,
                -0.7983903672989926,
                0.0007926128326973814,
                2.7276923025638915
            ]
        },
        {
            "positions": [
                0.1544586837556392,
                -1.1321176997165108,
                1.2072281504911833,
                -0.7837212575094712,
                0.04085404633923573,
                2.8153513452682724
            ]
        },
        {
            "positions": [
                0.11630478564212629,
                -1.1318499465357625,
                1.4222206249502078,
                -0.7690521477199497,
                0.08091547984577402,
                2.903010387972653
            ]
        },
        {
            "positions": [
                0.12000116917582063,
                -1.1343417624763399,
                1.6944596288607037,
                -0.7648886240046714,
                0.10475004530483167,
                2.9853062429961668
            ]
        },
        {
            "positions": [
                0.12369755270951495,
                -1.1368335784169175,
                1.9666986327711995,
                -0.7607251002893931,
                0.12858461076388933,
                3.0676020980196803
            ]
        }
    ]
}