{
    "goal": {
        "global_pose": {
            "orientation": {
                "w": 0.5084816217422485,
                "x": -0.49083608388900757,
                "y": 0.5182115435600281,
                "z": -0.4816462993621826
            },
            "position": {
                "x": 0.5540239810943604,
                "y": 0.030875300988554955,
                "z": 0.16403168439865112
            }
        },
        "name": "move_to_storage_A"
    },
    "id": "RRTstar_move_to_storage_A_51",
    "joint_names": [
        "shoulder_pan_joint",
        "shoulder_lift_joint",
        "elbow_joint",
        "wrist_1_joint",
        "wrist_2_joint",
        "wrist_3_joint"
    ],
    "metrics": {
        "cart_traj_len": 0.3532344748714511,
        "distance_elbow_joint": 0.45147552717369144,
        "distance_shoulder_lift_joint": 0.23632455735820335,
        "distance_shoulder_pan_joint": 0.4633711916927328,
        "distance_wrist_1_joint": 0.2467812851019785,
        "distance_wrist_2_joint": 1.093817312259268,
        "distance_wrist_3_joint": 0.08917563137152795,
        "smoothness": 2.2204460668324854e-16,
        "time": 5.000690997,
        "traj_len": 1.6065321362977467,
        "weighted_distance": 2.0248198352104576
    },
    "planner": "RRTstar",
    "start": {
        "state": {
            "elbow_joint": 1.971548259319323,
            "shoulder_lift_joint": -1.1394851275133948,
            "shoulder_pan_joint": 0.1228115487234821,
            "wrist_1_joint": -0.7804723859257726,
            "wrist_2_joint": 0.12958671773740124,
            "wrist_3_joint": -3.192489227718131
        }
    },
    "waypoints": [
        {
            "positions": [
                0.1228115487234821,
                -1.1394851275133948,
                1.971548259319323,
                -0.7804723859257726,
                0.12958671773740124,
                -3.192489227718131
            ]
        },
        {
            "positions": [
                0.05661566419594885,
                -1.1732457785645667,
                2.036044763201279,
                -0.8157268552260553,
                0.2858463337744395,
                -3.179749851807913
            ]
        },
        {
            "positions": [
                -0.0095802203315844,
                -1.2070064296157386,
                2.100541267083235,
                -0.8509813245263379,
                0.44210594981147777,
                -3.1670104758976945
            ]
        },
        {
            "positions": [
                -0.07577610485911765,
                -1.2407670806669104,
                2.1650377709651907,
                -0.8862357938266205,
                0.5983655658485161,
                -3.154271099987476
            ]
        },
        {
            "positions": [
                -0.1419719893866509,
                -1.2745277317180825,
                2.2295342748471465,
                -0.9214902631269032,
                0.7546251818855544,
                -3.1415317240772582
            ]
        },
        {
            "positions": [
                -0.20816787391418418,
                -1.3082883827692544,
                2.2940307787291028,
                -0.9567447324271858,
                0.9108847979225927,
                -3.12879234816704
            ]
        },
        {
            "positions": [
                -0.2743637584417174,
                -1.3420490338204263,
                2.3585272826110586,
                -0.9919992017274685,
                1.0671444139596309,
                -3.1160529722568215
            ]
        },
        {
            "positions": [
                -0.3405596429692507,
                -1.3758096848715982,
                2.4230237864930144,
                -1.0272536710277511,
                1.2234040299966693,
                -3.103313596346603
            ]
        }
    ]
}{
    "goal": {
        "global_pose": {
            "orientation": {
                "w": 0.5084816217422485,
                "x": -0.49083608388900757,
                "y": 0.5182115435600281,
                "z": -0.4816462993621826
            },
            "position": {
                "x": 0.5540239810943604,
                "y": 0.030875300988554955,
                "z": 0.16403168439865112
            }
        },
        "name": "move_to_storage_A"
    },
    "id": "RRTstar_move_to_storage_A_51",
    "joint_names": [
        "shoulder_pan_joint",
        "shoulder_lift_joint",
        "elbow_joint",
        "wrist_1_joint",
        "wrist_2_joint",
        "wrist_3_joint"
    ],
    "metrics": {
        "cart_traj_len": 0.3522829016466533,
        "distance_elbow_joint": 0.44911784553755174,
        "distance_shoulder_lift_joint": 0.23587217911385805,
        "distance_shoulder_pan_joint": 0.45835470077805296,
        "distance_wrist_1_joint": 0.237080396119278,
        "distance_wrist_2_joint": 1.1079090333529746,
        "distance_wrist_3_joint": 0.09281355783454659,
        "smoothness": 4.440892098500626e-16,
        "time": 5.000362741,
        "traj_len": 1.6065950680667056,
        "weighted_distance": 2.027748568703134
    },
    "planner": "RRTstar",
    "start": {
        "state": {
            "elbow_joint": 1.97154746011099,
            "shoulder_lift_joint": -1.13948474672311,
            "shoulder_pan_joint": 0.12281154466712228,
            "wrist_1_joint": -0.7804688027058302,
            "wrist_2_joint": 0.12958655903071145,
            "wrist_3_joint": 3.0906928834467795
        }
    },
    "waypoints": [
        {
            "positions": [
                0.12281154466712228,
                -1.13948474672311,
                1.97154746011099,
                -0.7804688027058302,
                0.12958655903071145,
                3.0906928834467795
            ]
        },
        {
            "positions": [
                0.05733230169882901,
                -1.1731807723108039,
                2.03570715233064,
                -0.8143374307228699,
                0.2878592780811364,
                3.103951963137429
            ]
        },
        {
            "positions": [
                -0.008146941269464261,
                -1.206876797898498,
                2.0998668445502906,
                -0.8482060587399096,
                0.4461319971315614,
                3.1172110428280786
            ]
        },
        {
            "positions": [
                -0.07362618423775753,
                -1.240572823486192,
                2.1640265367699407,
                -0.8820746867569493,
                0.6044047161819863,
                3.130470122518728
            ]
        },
        {
            "positions": [
                -0.1391054272060508,
                -1.274268849073886,
                2.228186228989591,
                -0.915943314773989,
                0.7626774352324113,
                3.1437292022093777
            ]
        },
        {
            "positions": [
                -0.20458467017434412,
                -1.30796487466158,
                2.2923459212092414,
                -0.9498119427910288,
                0.9209501542828362,
                3.156988281900027
            ]
        },
        {
            "positions": [
                -0.27006391314263734,
                -1.3416609002492739,
                2.3565056134288915,
                -0.9836805708080685,
                1.0792228733332612,
                3.1702473615906768
            ]
        },
        {
            "positions": [
                -0.33554315611093066,
                -1.375356925836968,
                2.4206653056485417,
                -1.0175491988251082,
                1.2374955923836861,
                3.183506441281326
            ]
        }
    ]
}{
    "goal": {
        "global_pose": {
            "orientation": {
                "w": 0.5084816217422485,
                "x": -0.49083608388900757,
                "y": 0.5182115435600281,
                "z": -0.4816462993621826
            },
            "position": {
                "x": 0.5540239810943604,
                "y": 0.030875300988554955,
                "z": 0.16403168439865112
            }
        },
        "name": "move_to_storage_A"
    },
    "id": "RRTstar_move_to_storage_A_51",
    "joint_names": [
        "shoulder_pan_joint",
        "shoulder_lift_joint",
        "elbow_joint",
        "wrist_1_joint",
        "wrist_2_joint",
        "wrist_3_joint"
    ],
    "metrics": {
        "cart_traj_len": 0.35365037311792535,
        "distance_elbow_joint": 0.4489695744036344,
        "distance_shoulder_lift_joint": 0.2340996924371317,
        "distance_shoulder_pan_joint": 0.46344925866183123,
        "distance_wrist_1_joint": 0.2364079476010834,
        "distance_wrist_2_joint": 1.0955841810450762,
        "distance_wrist_3_joint": 0.08935749825576922,
        "smoothness": 6.661338146305771e-16,
        "time": 5.001871276,
        "traj_len": 1.60245691124739,
        "weighted_distance": 2.019548285523826
    },
    "planner": "RRTstar",
    "start": {
        "state": {
            "elbow_joint": 1.9715472970024885,
            "shoulder_lift_joint": -1.1394870060712896,
            "shoulder_pan_joint": 0.12281152778156021,
            "wrist_1_joint": -0.780463741449964,
            "wrist_2_joint": 0.12958659822042276,
            "wrist_3_joint": 3.090690232415272
        }
    },
    "waypoints": [
        {
            "positions": [
                0.12281152778156021,
                -1.1394870060712896,
                1.9715472970024885,
                -0.780463741449964,
                0.12958659822042276,
                3.090690232415272
            ]
        },
        {
            "positions": [
                0.05660449082987004,
                -1.1729298192765942,
                2.0356858076315794,
                -0.8142363053929759,
                0.28609862408400505,
                3.103455589308953
            ]
        },
        {
            "positions": [
                -0.009602546121820127,
                -1.2063726324818986,
                2.0998243182606697,
                -0.8480088693359878,
                0.44261064994758736,
                3.1162209462026347
            ]
        },
        {
            "positions": [
                -0.0758095830735103,
                -1.2398154456872033,
                2.1639628288897605,
                -0.8817814332789997,
                0.5991226758111696,
                3.128986303096316
            ]
        },
        {
            "positions": [
                -0.14201662002520046,
                -1.2732582588925077,
                2.228101339518851,
                -0.9155539972220117,
                0.7556347016747519,
                3.141751659989997
            ]
        },
        {
            "positions": [
                -0.20822365697689063,
                -1.3067010720978123,
                2.2922398501479417,
                -0.9493265611650236,
                0.9121467275383343,
                3.1545170168836782
            ]
        },
        {
            "positions": [
                -0.27443069392858077,
                -1.3401438853031167,
                2.356378360777032,
                -0.9830991251080354,
                1.0686587534019165,
                3.16728237377736
            ]
        },
        {
            "positions": [
                -0.340637730880271,
                -1.3735866985084213,
                2.420516871406123,
                -1.0168716890510474,
                1.2251707792654989,
                3.180047730671041
            ]
        }
    ]
}