{
    "goal": {
        "global_pose": {
            "orientation": {
                "w": 0.5084816262002911,
                "x": -0.4908360881923452,
                "y": 0.5182115481033761,
                "z": -0.48164630358495003
            },
            "position": {
                "x": 0.5540239810943604,
                "y": -0.46912469901144505,
                "z": 0.16403168439865112
            }
        },
        "name": "move_to_storage_B"
    },
    "id": "RRTstar_move_to_storage_B_37",
    "joint_names": [
        "shoulder_pan_joint",
        "shoulder_lift_joint",
        "elbow_joint",
        "wrist_1_joint",
        "wrist_2_joint",
        "wrist_3_joint"
    ],
    "metrics": {
        "cart_traj_len": 1.2422417610423586,
        "distance_elbow_joint": 1.1491581648175635,
        "distance_shoulder_lift_joint": 0.45858400769409613,
        "distance_shoulder_pan_joint": 0.6067196698940357,
        "distance_wrist_1_joint": 2.978898873521542,
        "distance_wrist_2_joint": 2.710097421377129,
        "distance_wrist_3_joint": 3.1380534239264692,
        "smoothness": 0.1397210426307608,
        "time": 5.016458643,
        "traj_len": 3.3228770006172117,
        "weighted_distance": 4.796521104298661
    },
    "planner": "RRTstar",
    "start": {
        "state": {
            "elbow_joint": 1.664937868594044,
            "shoulder_lift_joint": -0.661644460510453,
            "shoulder_pan_joint": -0.9139846352900073,
            "wrist_1_joint": 2.146753192139373,
            "wrist_2_joint": -2.2341966793290973,
            "wrist_3_joint": 0.005466555786416001
        }
    },
    "waypoints": [
        {
            "positions": [
                -0.9139846352900073,
                -0.661644460510453,
                1.664937868594044,
                2.146753192139373,
                -2.2341966793290973,
                0.005466555786416001
            ]
        },
        {
            "positions": [
                -0.9014419514924287,
                -0.6814068205157755,
                1.708992879433575,
                2.0537809681180197,
                -2.1151504114687545,
                0.11024177022698219
            ]
        },
        {
            "positions": [
                -0.88889926769485,
                -0.7011691805210981,
                1.753047890273106,
                1.9608087440966662,
                -1.996104143608412,
                0.21501698466754837
            ]
        },
        {
            "positions": [
                -0.8763565838972713,
                -0.7209315405264206,
                1.7971029011126372,
                1.8678365200753126,
                -1.8770578757480694,
                0.3197921991081146
            ]
        },
        {
            "positions": [
                -0.8638139000996926,
                -0.7406939005317431,
                1.8411579119521682,
                1.7748642960539591,
                -1.7580116078877268,
                0.42456741354868077
            ]
        },
        {
            "positions": [
                -0.851271216302114,
                -0.7604562605370657,
                1.8852129227916992,
                1.6818920720326056,
                -1.6389653400273843,
                0.5293426279892469
            ]
        },
        {
            "positions": [
                -0.8387285325045353,
                -0.7802186205423882,
                1.9292679336312302,
                1.588919848011252,
                -1.5199190721670415,
                0.6341178424298132
            ]
        },
        {
            "positions": [
                -0.8261858487069567,
                -0.7999809805477107,
                1.9733229444707612,
                1.4959476239898988,
                -1.400872804306699,
                0.7388930568703793
            ]
        },
        {
            "positions": [
                -0.8136431649093779,
                -0.8197433405530332,
                2.0173779553102924,
                1.4029753999685453,
                -1.2818265364463564,
                0.8436682713109455
            ]
        },
        {
            "positions": [
                -0.8011004811117993,
                -0.8395057005583558,
                2.061432966149823,
                1.3100031759471917,
                -1.1627802685860136,
                0.9484434857515117
            ]
        },
        {
            "positions": [
                -0.7885577973142206,
                -0.8592680605636783,
                2.1054879769893544,
                1.2170309519258382,
                -1.043734000725671,
                1.0532187001920779
            ]
        },
        {
            "positions": [
                -0.776015113516642,
                -0.8790304205690008,
                2.1495429878288856,
                1.1240587279044847,
                -0.9246877328653282,
                1.1579939146326441
            ]
        },
        {
            "positions": [
                -0.7634724297190633,
                -0.8987927805743234,
                2.1935979986684164,
                1.0310865038831312,
                -0.8056414650049857,
                1.2627691290732104
            ]
        },
        {
            "positions": [
                -0.7509297459214846,
                -0.9185551405796459,
                2.237653009507947,
                0.9381142798617779,
                -0.6865951971446433,
                1.3675443435137764
            ]
        },
        {
            "positions": [
                -0.7383870621239059,
                -0.9383175005849684,
                2.2817080203474784,
                0.8451420558404243,
                -0.5675489292843006,
                1.4723195579543427
            ]
        },
        {
            "positions": [
                -0.7258443783263273,
                -0.9580798605902909,
                2.3257630311870097,
                0.7521698318190708,
                -0.448502661423958,
                1.5770947723949087
            ]
        },
        {
            "positions": [
                -0.7133016945287487,
                -0.9778422205956134,
                2.369818042026541,
                0.6591976077977173,
                -0.3294563935636152,
                1.681869986835475
            ]
        },
        {
            "positions": [
                -0.70075901073117,
                -0.997604580600936,
                2.4138730528660717,
                0.5662253837763639,
                -0.2104101257032726,
                1.7866452012760412
            ]
        },
        {
            "positions": [
                -0.7365311966707334,
                -1.008752206746719,
                2.37748914554375,
                0.4391007414892245,
                -0.14801822863497216,
                1.9099974538612088
            ]
        },
        {
            "positions": [
                -0.772303382610297,
                -1.019899832892502,
                2.341105238221429,
                0.31197609920208513,
                -0.0856263315666717,
                2.0333497064463764
            ]
        },
        {
            "positions": [
                -0.8080755685498604,
                -1.031047459038285,
                2.3047213308991075,
                0.18485145691494576,
                -0.02323443449837126,
                2.156701959031544
            ]
        },
        {
            "positions": [
                -0.843847754489424,
                -1.042195085184068,
                2.268337423576786,
                0.05772681462780638,
                0.03915746256992922,
                2.280054211616712
            ]
        },
        {
            "positions": [
                -0.8796199404289874,
                -1.053342711329851,
                2.2319535162544644,
                -0.069397827659333,
                0.10154935963822964,
                2.4034064642018795
            ]
        },
        {
            "positions": [
                -0.9153921263685509,
                -1.064490337475634,
                2.1955696089321433,
                -0.19652246994647238,
                0.1639412567065301,
                2.526758716787047
            ]
        },
        {
            "positions": [
                -0.9511643123081144,
                -1.075637963621417,
                2.1591857016098217,
                -0.32364711223361187,
                0.2263331537748306,
                2.6501109693722147
            ]
        },
        {
            "positions": [
                -0.9869364982476778,
                -1.0867855897672,
                2.1228017942875,
                -0.45077175452075113,
                0.28872505084313105,
                2.7734632219573827
            ]
        },
        {
            "positions": [
                -1.0227086841872415,
                -1.097933215912983,
                2.0864178869651786,
                -0.5778963968078906,
                0.3511169479114315,
                2.8968154745425503
            ]
        },
        {
            "positions": [
                -1.058480870126805,
                -1.1090808420587661,
                2.0500339796428575,
                -0.7050210390950299,
                0.4135088449797319,
                3.020167727127718
            ]
        },
        {
            "positions": [
                -1.0942530560663684,
                -1.1202284682045491,
                2.013650072320536,
                -0.8321456813821695,
                0.47590074204803245,
                3.1435199797128854
            ]
        }
    ]
}