{
    "goal": {
        "global_pose": {
            "orientation": {
                "w": 0.005598929693374612,
                "x": 0.007748599140229565,
                "y": 0.7110244013736278,
                "z": -0.7031023480610252
            },
            "position": {
                "x": 0.1141497679147869,
                "y": -0.7141253447532654,
                "z": 0.3711530566215515
            }
        },
        "name": "move_to_auspresseinheit_B"
    },
    "id": "RRTstar_move_to_auspresseinheit_B_106",
    "joint_names": [
        "shoulder_pan_joint",
        "shoulder_lift_joint",
        "elbow_joint",
        "wrist_1_joint",
        "wrist_2_joint",
        "wrist_3_joint"
    ],
    "metrics": {
        "cart_traj_len": 0.5649974171988446,
        "distance_elbow_joint": 0.059883409937788734,
        "distance_shoulder_lift_joint": 0.29469869668147797,
        "distance_shoulder_pan_joint": 0.5793359860119556,
        "distance_wrist_1_joint": 0.3161048896302947,
        "distance_wrist_2_joint": 0.9842435005774781,
        "distance_wrist_3_joint": 0.004438303785874176,
        "smoothness": 0.0,
        "time": 5.005914724999999,
        "traj_len": 1.496230191723476,
        "weighted_distance": 1.88359490984776
    },
    "planner": "RRTstar",
    "start": {
        "state": {
            "elbow_joint": 2.0193083361928714,
            "shoulder_lift_joint": -1.1220246554650708,
            "shoulder_pan_joint": -1.0952077554168747,
            "wrist_1_joint": -0.8559753972642168,
            "wrist_2_joint": 0.4759566250798843,
            "wrist_3_joint": -3.1240929996934557
        }
    },
    "waypoints": [
        {
            "positions": [
                -1.0952077554168747,
                -1.1220246554650708,
                2.0193083361928714,
                -0.8559753972642168,
                0.4759566250798843,
                -3.1240929996934557
            ]
        },
        {
            "positions": [
                -1.1917637530855338,
                -1.1711411049119838,
                2.0093277678699066,
                -0.803291248992501,
                0.639997208509464,
                -3.12335328239581
            ]
        },
        {
            "positions": [
                -1.2883197507541932,
                -1.2202575543588967,
                1.9993471995469418,
                -0.7506071007207852,
                0.8040377919390436,
                -3.122613565098164
            ]
        },
        {
            "positions": [
                -1.3848757484228524,
                -1.26937400380581,
                1.989366631223977,
                -0.6979229524490694,
                0.9680783753686233,
                -3.1218738478005186
            ]
        },
        {
            "positions": [
                -1.4814317460915116,
                -1.3184904532527228,
                1.9793860629010123,
                -0.6452388041773537,
                1.132118958798203,
                -3.121134130502873
            ]
        },
        {
            "positions": [
                -1.577987743760171,
                -1.3676069026996358,
                1.9694054945780475,
                -0.5925546559056378,
                1.2961595422277827,
                -3.120394413205227
            ]
        },
        {
            "positions": [
                -1.6745437414288302,
                -1.4167233521465488,
                1.9594249262550827,
                -0.5398705076339221,
                1.4602001256573625,
                -3.1196546959075815
            ]
        }
    ]
}