{
    "goal": {
        "global_pose": {
            "orientation": {
                "w": 0.7031023502349854,
                "x": -0.7110244035720825,
                "y": 0.007748599164187908,
                "z": 0.005598929710686207
            },
            "position": {
                "x": 0.11585023208521307,
                "y": 0.44412534475326537,
                "z": 0.3711530566215515
            }
        },
        "name": "move_to_auspresseinheit_A"
    },
    "id": "RRTstar_move_to_auspresseinheit_A_12",
    "joint_names": [
        "shoulder_pan_joint",
        "shoulder_lift_joint",
        "elbow_joint",
        "wrist_1_joint",
        "wrist_2_joint",
        "wrist_3_joint"
    ],
    "metrics": {
        "cart_traj_len": 1.0577603540668974,
        "distance_elbow_joint": 0.36968155793200985,
        "distance_shoulder_lift_joint": 1.3846356105246627,
        "distance_shoulder_pan_joint": 1.5326038642159,
        "distance_wrist_1_joint": 0.5582110688855919,
        "distance_wrist_2_joint": 0.513960950479076,
        "distance_wrist_3_joint": 0.5127242248433683,
        "smoothness": 1.4283858370822309,
        "time": 5.008656249,
        "traj_len": 2.207219354047216,
        "weighted_distance": 2.639969269884029
    },
    "planner": "RRTstar",
    "start": {
        "state": {
            "elbow_joint": 2.4225746658250005,
            "shoulder_lift_joint": -1.3736534386056498,
            "shoulder_pan_joint": -0.3378633547517467,
            "wrist_1_joint": -1.0288598680537169,
            "wrist_2_joint": 1.233022673432363,
            "wrist_3_joint": -3.0940220416140027
        }
    },
    "waypoints": [
        {
            "positions": [
                -0.3378633547517467,
                -1.3736534386056498,
                2.4225746658250005,
                -1.0288598680537169,
                1.233022673432363,
                -3.0940220416140027
            ]
        },
        {
            "positions": [
                -0.20891141905147376,
                -1.469598206315566,
                2.43964831931963,
                -0.976211163272228,
                1.1848905319348686,
                -3.070803004344027
            ]
        },
        {
            "positions": [
                -0.07995948335120079,
                -1.5655429740254818,
                2.4567219728142593,
                -0.9235624584907391,
                1.1367583904373744,
                -3.047583967074051
            ]
        },
        {
            "positions": [
                0.04899245234907218,
                -1.6614877417353977,
                2.4737956263088887,
                -0.8709137537092502,
                1.08862624893988,
                -3.0243649298040753
            ]
        },
        {
            "positions": [
                0.17794438804934515,
                -1.7574325094453138,
                2.490869279803518,
                -0.8182650489277613,
                1.0404941074423855,
                -3.0011458925340992
            ]
        },
        {
            "positions": [
                0.3068963237496181,
                -1.85337727715523,
                2.507942933298147,
                -0.7656163441462724,
                0.9923619659448912,
                -2.9779268552641236
            ]
        },
        {
            "positions": [
                0.4358482594498911,
                -1.9493220448651458,
                2.5250165867927765,
                -0.7129676393647836,
                0.9442298244473969,
                -2.954707817994148
            ]
        },
        {
            "positions": [
                0.564800195150164,
                -2.0452668125750617,
                2.542090240287406,
                -0.6603189345832947,
                0.8960976829499026,
                -2.931488780724172
            ]
        },
        {
            "positions": [
                0.6937521308504371,
                -2.1412115802849776,
                2.5591638937820353,
                -0.6076702298018057,
                0.8479655414524081,
                -2.908269743454196
            ]
        },
        {
            "positions": [
                0.8227040665507102,
                -2.237156347994894,
                2.5762375472766648,
                -0.5550215250203169,
                0.7998333999549138,
                -2.88505070618422
            ]
        },
        {
            "positions": [
                0.951656002250983,
                -2.33310111570481,
                2.593311200771294,
                -0.502372820238828,
                0.7517012584574194,
                -2.8618316689142445
            ]
        },
        {
            "positions": [
                0.8908848754476906,
                -2.226804132348434,
                2.543574945024865,
                -0.49444181497115225,
                0.7435413745813864,
                -2.9319651319501467
            ]
        },
        {
            "positions": [
                0.830113748644398,
                -2.1205071489920586,
                2.4938386892784363,
                -0.4865108097034765,
                0.7353814907053533,
                -3.0020985949860495
            ]
        },
        {
            "positions": [
                0.7693426218411055,
                -2.014210165635683,
                2.444102433532007,
                -0.4785798044358007,
                0.7272216068293201,
                -3.072232058021952
            ]
        },
        {
            "positions": [
                0.708571495037813,
                -1.9079131822793072,
                2.394366177785578,
                -0.47064879916812496,
                0.7190617229532871,
                -3.1423655210578545
            ]
        }
    ]
}