{
    "goal": {
        "global_pose": {
            "orientation": {
                "w": 0.7031023480610252,
                "x": -0.7110244013736278,
                "y": 0.0077485991402295624,
                "z": 0.005598929693374583
            },
            "position": {
                "x": -0.8841497679147869,
                "y": 0.44412534475326537,
                "z": 0.3711530566215515
            }
        },
        "name": "move_to_auspresseinheit_D"
    },
    "id": "RRTstar_move_to_auspresseinheit_D_87",
    "joint_names": [
        "shoulder_pan_joint",
        "shoulder_lift_joint",
        "elbow_joint",
        "wrist_1_joint",
        "wrist_2_joint",
        "wrist_3_joint"
    ],
    "metrics": {
        "cart_traj_len": 0.3425821943307197,
        "distance_elbow_joint": 0.6326383452315403,
        "distance_shoulder_lift_joint": 0.11830276267785234,
        "distance_shoulder_pan_joint": 0.133280405534189,
        "distance_wrist_1_joint": 0.5077643775577765,
        "distance_wrist_2_joint": 1.4419759319741585,
        "distance_wrist_3_joint": 0.012806538432429626,
        "smoothness": 3.9474596431116675e-16,
        "time": 5.000177827,
        "traj_len": 1.6872369013887605,
        "weighted_distance": 2.1959330016657477
    },
    "planner": "RRTstar",
    "start": {
        "state": {
            "elbow_joint": -1.8275523626775212,
            "shoulder_lift_joint": -2.126789852344167,
            "shoulder_pan_joint": -0.03513704404078235,
            "wrist_1_joint": -2.347782403156801,
            "wrist_2_joint": -1.6058999987535132,
            "wrist_3_joint": -3.0880379163319196
        }
    },
    "waypoints": [
        {
            "positions": [
                -0.03513704404078235,
                -2.126789852344167,
                -1.8275523626775212,
                -2.347782403156801,
                -1.6058999987535132,
                -3.0880379163319196
            ]
        },
        {
            "positions": [
                -0.051797094732555976,
                -2.1415776976788985,
                -1.7484725695235785,
                -2.411252950351523,
                -1.4256530072567433,
                -3.089638733635973
            ]
        },
        {
            "positions": [
                -0.0684571454243296,
                -2.1563655430136297,
                -1.6693927763696361,
                -2.474723497546245,
                -1.2454060157599736,
                -3.091239550940027
            ]
        },
        {
            "positions": [
                -0.08511719611610322,
                -2.1711533883483614,
                -1.5903129832156937,
                -2.538194044740967,
                -1.0651590242632039,
                -3.092840368244081
            ]
        },
        {
            "positions": [
                -0.10177724680787684,
                -2.185941233683093,
                -1.511233190061751,
                -2.6016645919356893,
                -0.8849120327664339,
                -3.0944411855481344
            ]
        },
        {
            "positions": [
                -0.11843729749965046,
                -2.2007290790178247,
                -1.4321533969078084,
                -2.665135139130411,
                -0.7046650412696641,
                -3.096042002852188
            ]
        },
        {
            "positions": [
                -0.1350973481914241,
                -2.2155169243525563,
                -1.353073603753866,
                -2.728605686325133,
                -0.5244180497728943,
                -3.097642820156242
            ]
        },
        {
            "positions": [
                -0.15175739888319772,
                -2.2303047696872875,
                -1.2739938105999236,
                -2.7920762335198552,
                -0.3441710582761246,
                -3.0992436374602956
            ]
        },
        {
            "positions": [
                -0.16841744957497135,
                -2.245092615022019,
                -1.194914017445981,
                -2.8555467807145773,
                -0.1639240667793547,
                -3.1008444547643492
            ]
        }
    ]
}