{
    "goal": {
        "global_pose": {
            "orientation": {
                "w": 0.5084816262002911,
                "x": -0.4908360881923452,
                "y": 0.5182115481033761,
                "z": -0.48164630358495003
            },
            "position": {
                "x": 0.5540239810943604,
                "y": -0.46912469901144505,
                "z": 0.16403168439865112
            }
        },
        "name": "move_to_storage_B"
    },
    "id": "RRTstar_move_to_storage_B_132",
    "joint_names": [
        "shoulder_pan_joint",
        "shoulder_lift_joint",
        "elbow_joint",
        "wrist_1_joint",
        "wrist_2_joint",
        "wrist_3_joint"
    ],
    "metrics": {
        "cart_traj_len": 1.3697642156737746,
        "distance_elbow_joint": 0.7702683044622676,
        "distance_shoulder_lift_joint": 1.7549284465840618,
        "distance_shoulder_pan_joint": 0.4452716193242173,
        "distance_wrist_1_joint": 2.9773831701284643,
        "distance_wrist_2_joint": 2.710957444022641,
        "distance_wrist_3_joint": 3.1398770491096726,
        "smoothness": 0.15675280687064852,
        "time": 5.035554085,
        "traj_len": 3.434921546939802,
        "weighted_distance": 4.875118536610343
    },
    "planner": "RRTstar",
    "start": {
        "state": {
            "elbow_joint": 1.664937868594044,
            "shoulder_lift_joint": -0.661644460510453,
            "shoulder_pan_joint": -0.9139846352900073,
            "wrist_1_joint": 2.146753192139373,
            "wrist_2_joint": -2.2341966793290973,
            "wrist_3_joint": 0.005466555786416001
        }
    },
    "waypoints": [
        {
            "positions": [
                -0.9139846352900073,
                -0.661644460510453,
                1.664937868594044,
                2.146753192139373,
                -2.2341966793290973,
                0.005466555786416001
            ]
        },
        {
            "positions": [
                -0.9363854602309396,
                -0.7407471323786147,
                1.7049633773933202,
                2.123007512317237,
                -2.1371167416501624,
                -0.11816856799121657
            ]
        },
        {
            "positions": [
                -0.958786285171872,
                -0.8198498042467762,
                1.7449888861925962,
                2.099261832495101,
                -2.0400368039712276,
                -0.24180369176884914
            ]
        },
        {
            "positions": [
                -0.9811871101128045,
                -0.8989524761149379,
                1.7850143949918724,
                2.075516152672965,
                -1.9429568662922927,
                -0.36543881554648167
            ]
        },
        {
            "positions": [
                -1.0035879350537367,
                -0.9780551479830994,
                1.8250399037911484,
                2.0517704728508286,
                -1.8458769286133578,
                -0.48907393932411425
            ]
        },
        {
            "positions": [
                -1.025988759994669,
                -1.0571578198512612,
                1.8650654125904247,
                2.0280247930286928,
                -1.748796990934423,
                -0.6127090631017469
            ]
        },
        {
            "positions": [
                -1.0483895849356015,
                -1.1362604917194228,
                1.9050909213897007,
                2.0042791132065565,
                -1.6517170532554881,
                -0.7363441868793794
            ]
        },
        {
            "positions": [
                -1.070790409876534,
                -1.2153631635875843,
                1.945116430188977,
                1.9805334333844204,
                -1.5546371155765533,
                -0.859979310657012
            ]
        },
        {
            "positions": [
                -1.0931912348174664,
                -1.2944658354557461,
                1.985141938988253,
                1.9567877535622844,
                -1.4575571778976186,
                -0.9836144344346446
            ]
        },
        {
            "positions": [
                -1.1155920597583986,
                -1.373568507323908,
                2.0251674477875294,
                1.9330420737401481,
                -1.3604772402186835,
                -1.1072495582122772
            ]
        },
        {
            "positions": [
                -1.137992884699331,
                -1.4526711791920692,
                2.0651929565868055,
                1.909296393918012,
                -1.2633973025397487,
                -1.2308846819899097
            ]
        },
        {
            "positions": [
                -1.1603937096402634,
                -1.531773851060231,
                2.1052184653860815,
                1.885550714095876,
                -1.166317364860814,
                -1.3545198057675423
            ]
        },
        {
            "positions": [
                -1.1827945345811957,
                -1.6108765229283926,
                2.1452439741853575,
                1.86180503427374,
                -1.0692374271818792,
                -1.4781549295451748
            ]
        },
        {
            "positions": [
                -1.205195359522128,
                -1.6899791947965543,
                2.185269482984634,
                1.8380593544516037,
                -0.9721574895029443,
                -1.6017900533228075
            ]
        },
        {
            "positions": [
                -1.2275961844630605,
                -1.769081866664716,
                2.22529499178391,
                1.8143136746294677,
                -0.8750775518240095,
                -1.72542517710044
            ]
        },
        {
            "positions": [
                -1.2198514744541684,
                -1.7309941584041395,
                2.2129472752384745,
                1.6587287538871995,
                -0.7955576508523886,
                -1.8083066662900176
            ]
        },
        {
            "positions": [
                -1.2121067644452765,
                -1.6929064501435631,
                2.2005995586930394,
                1.5031438331449314,
                -0.7160377498807677,
                -1.8911881554795948
            ]
        },
        {
            "positions": [
                -1.2043620544363844,
                -1.6548187418829867,
                2.188251842147604,
                1.3475589124026632,
                -0.636517848909147,
                -1.9740696446691723
            ]
        },
        {
            "positions": [
                -1.1966173444274926,
                -1.6167310336224103,
                2.1759041256021683,
                1.191973991660395,
                -0.5569979479375261,
                -2.0569511338587496
            ]
        },
        {
            "positions": [
                -1.1888726344186005,
                -1.578643325361834,
                2.163556409056733,
                1.036389070918127,
                -0.4774780469659053,
                -2.1398326230483273
            ]
        },
        {
            "positions": [
                -1.1811279244097084,
                -1.5405556171012575,
                2.1512086925112976,
                0.8808041501758588,
                -0.3979581459942844,
                -2.2227141122379046
            ]
        },
        {
            "positions": [
                -1.1733832144008165,
                -1.5024679088406812,
                2.138860975965862,
                0.7252192294335909,
                -0.3184382450226636,
                -2.3055956014274823
            ]
        },
        {
            "positions": [
                -1.1656385043919244,
                -1.4643802005801048,
                2.126513259420427,
                0.5696343086913227,
                -0.23891834405104273,
                -2.3884770906170596
            ]
        },
        {
            "positions": [
                -1.1578937943830325,
                -1.4262924923195284,
                2.1141655428749915,
                0.4140493879490543,
                -0.15939844307942197,
                -2.471358579806637
            ]
        },
        {
            "positions": [
                -1.1501490843741404,
                -1.3882047840589518,
                2.1018178263295564,
                0.2584644672067862,
                -0.0798785421078011,
                -2.554240068996214
            ]
        },
        {
            "positions": [
                -1.1424043743652486,
                -1.3501170757983754,
                2.089470109784121,
                0.10287954646451802,
                -0.00035864113618022664,
                -2.637121558185792
            ]
        },
        {
            "positions": [
                -1.1346596643563565,
                -1.312029367537799,
                2.0771223932386853,
                -0.05270537427775013,
                0.07916125983544064,
                -2.7200030473753696
            ]
        },
        {
            "positions": [
                -1.1269149543474644,
                -1.2739416592772228,
                2.06477467669325,
                -0.20829029502001806,
                0.1586811608070613,
                -2.802884536564947
            ]
        },
        {
            "positions": [
                -1.1191702443385725,
                -1.2358539510166464,
                2.0524269601478147,
                -0.363875215762286,
                0.23820106177868228,
                -2.885766025754524
            ]
        },
        {
            "positions": [
                -1.1114255343296804,
                -1.1977662427560698,
                2.040079243602379,
                -0.5194601365045544,
                0.31772096275030304,
                -2.9686475149441014
            ]
        },
        {
            "positions": [
                -1.1036808243207885,
                -1.1596785344954934,
                2.027731527056944,
                -0.6750450572468223,
                0.397240863721924,
                -3.0515290041336787
            ]
        },
        {
            "positions": [
                -1.0959361143118964,
                -1.121590826234917,
                2.0153838105115085,
                -0.8306299779890907,
                0.4767607646935448,
                -3.1344104933232564
            ]
        }
    ]
}