{
    "goal": {
        "global_pose": {
            "orientation": {
                "w": 0.005598929693374612,
                "x": 0.007748599140229565,
                "y": 0.7110244013736278,
                "z": -0.7031023480610252
            },
            "position": {
                "x": -0.8858502320852131,
                "y": -0.7141253447532654,
                "z": 0.3711530566215515
            }
        },
        "name": "move_to_auspresseinheit_C"
    },
    "id": "RRTstar_move_to_auspresseinheit_C_147",
    "joint_names": [
        "shoulder_pan_joint",
        "shoulder_lift_joint",
        "elbow_joint",
        "wrist_1_joint",
        "wrist_2_joint",
        "wrist_3_joint"
    ],
    "metrics": {
        "cart_traj_len": 0.49340465165656433,
        "distance_elbow_joint": 0.9935945542834868,
        "distance_shoulder_lift_joint": 0.3214966714018269,
        "distance_shoulder_pan_joint": 0.2562878671202995,
        "distance_wrist_1_joint": 0.6572863561436635,
        "distance_wrist_2_joint": 1.3156645242249654,
        "distance_wrist_3_joint": 0.03358970661136551,
        "smoothness": 6.45947944157498e-16,
        "time": 5.003848302,
        "traj_len": 1.8915389712574275,
        "weighted_distance": 2.3702425980006705
    },
    "planner": "RRTstar",
    "start": {
        "state": {
            "elbow_joint": 1.7527959577737207,
            "shoulder_lift_joint": -0.9740617694225068,
            "shoulder_pan_joint": -2.967991417825858,
            "wrist_1_joint": -0.759517768980727,
            "wrist_2_joint": 1.7443932448377408,
            "wrist_3_joint": -3.0840537646736568
        }
    },
    "waypoints": [
        {
            "positions": [
                -2.967991417825858,
                -0.9740617694225068,
                1.7527959577737207,
                -0.759517768980727,
                1.7443932448377408,
                -3.0840537646736568
            ]
        },
        {
            "positions": [
                -2.942362631113828,
                -0.941912102282324,
                1.653436502345372,
                -0.6937891333663606,
                1.6128267924152442,
                -3.0874127353347935
            ]
        },
        {
            "positions": [
                -2.916733844401798,
                -0.9097624351421414,
                1.5540770469170233,
                -0.6280604977519942,
                1.4812603399927478,
                -3.09077170599593
            ]
        },
        {
            "positions": [
                -2.891105057689768,
                -0.8776127680019588,
                1.4547175914886745,
                -0.562331862137628,
                1.3496938875702513,
                -3.094130676657066
            ]
        },
        {
            "positions": [
                -2.865476270977738,
                -0.845463100861776,
                1.355358136060326,
                -0.49660322652326155,
                1.2181274351477547,
                -3.097489647318203
            ]
        },
        {
            "positions": [
                -2.839847484265708,
                -0.8133134337215933,
                1.2559986806319774,
                -0.43087459090889524,
                1.086560982725258,
                -3.1008486179793397
            ]
        },
        {
            "positions": [
                -2.8142186975536783,
                -0.7811637665814106,
                1.1566392252036286,
                -0.3651459552945289,
                0.9549945303027616,
                -3.104207588640476
            ]
        },
        {
            "positions": [
                -2.7885899108416483,
                -0.749014099441228,
                1.0572797697752798,
                -0.29941731968016255,
                0.8234280778802652,
                -3.1075665593016124
            ]
        },
        {
            "positions": [
                -2.7629611241296184,
                -0.7168644323010452,
                0.9579203143469313,
                -0.23368868406579613,
                0.6918616254577685,
                -3.110925529962749
            ]
        },
        {
            "positions": [
                -2.7373323374175884,
                -0.6847147651608625,
                0.8585608589185826,
                -0.16796004845142987,
                0.5602951730352719,
                -3.114284500623886
            ]
        },
        {
            "positions": [
                -2.7117035507055585,
                -0.6525650980206799,
                0.7592014034902339,
                -0.10223141283706348,
                0.4287287206127755,
                -3.1176434712850223
            ]
        }
    ]
}