{
    "goal": {
        "global_pose": {
            "orientation": {
                "w": 0.7047431468963623,
                "x": -0.7094548344612122,
                "y": 0.0024358443915843964,
                "z": -0.0022348060738295317
            },
            "position": {
                "x": 0.6094750761985779,
                "y": 0.3671506643295288,
                "z": 0.19426114857196808
            }
        },
        "name": "move_to_magneteinheit_A"
    },
    "id": "RRTstar_move_to_magneteinheit_A_97",
    "joint_names": [
        "shoulder_pan_joint",
        "shoulder_lift_joint",
        "elbow_joint",
        "wrist_1_joint",
        "wrist_2_joint",
        "wrist_3_joint"
    ],
    "metrics": {
        "cart_traj_len": 3.082641876724722,
        "distance_elbow_joint": 3.9326135555380723,
        "distance_shoulder_lift_joint": 1.0424292826884338,
        "distance_shoulder_pan_joint": 2.6169974906065874,
        "distance_wrist_1_joint": 3.53905599906283,
        "distance_wrist_2_joint": 1.4497957565741606,
        "distance_wrist_3_joint": 1.201068627628198,
        "smoothness": 0.08661832819148131,
        "time": 5.02580977,
        "traj_len": 3.712406323679869,
        "weighted_distance": 4.601407363295676
    },
    "planner": "RRTstar",
    "start": {
        "state": {
            "elbow_joint": -1.9196185241190666,
            "shoulder_lift_joint": -1.2443396400964142,
            "shoulder_pan_joint": 2.6996025414629847,
            "wrist_1_joint": -1.5485510000780065,
            "wrist_2_joint": -1.5709468930060704,
            "wrist_3_joint": 0.4420197071253992
        }
    },
    "waypoints": [
        {
            "positions": [
                2.6996025414629847,
                -1.2443396400964142,
                -1.9196185241190666,
                -1.5485510000780065,
                -1.5709468930060704,
                0.4420197071253992
            ]
        },
        {
            "positions": [
                2.5805995058113287,
                -1.204861851343648,
                -1.868974379350242,
                -1.4565121059543744,
                -1.5224184159097656,
                0.3967069655114259
            ]
        },
        {
            "positions": [
                2.461596470159672,
                -1.1653840625908818,
                -1.8183302345814174,
                -1.3644732118307423,
                -1.4738899388134608,
                0.3513942238974527
            ]
        },
        {
            "positions": [
                2.342593434508016,
                -1.1259062738381156,
                -1.7676860898125928,
                -1.2724343177071102,
                -1.4253614617171562,
                0.30608148228347937
            ]
        },
        {
            "positions": [
                2.22359039885636,
                -1.0864284850853492,
                -1.7170419450437682,
                -1.1803954235834782,
                -1.3768329846208514,
                0.2607687406695061
            ]
        },
        {
            "positions": [
                2.104587363204704,
                -1.046950696332583,
                -1.6663978002749436,
                -1.088356529459846,
                -1.3283045075245465,
                0.21545599905553284
            ]
        },
        {
            "positions": [
                1.9855843275530478,
                -1.0074729075798168,
                -1.6157536555061192,
                -0.996317635336214,
                -1.2797760304282417,
                0.17014325744155956
            ]
        },
        {
            "positions": [
                1.8665812919013915,
                -0.9679951188270506,
                -1.5651095107372945,
                -0.9042787412125819,
                -1.231247553331937,
                0.12483051582758631
            ]
        },
        {
            "positions": [
                1.7475782562497355,
                -0.9285173300742844,
                -1.51446536596847,
                -0.8122398470889498,
                -1.182719076235632,
                0.07951777421361306
            ]
        },
        {
            "positions": [
                1.6285752205980795,
                -0.8890395413215182,
                -1.4638212211996453,
                -0.7202009529653176,
                -1.1341905991393273,
                0.034205032599639806
            ]
        },
        {
            "positions": [
                1.5095721849464232,
                -0.8495617525687519,
                -1.4131770764308207,
                -0.6281620588416855,
                -1.0856621220430227,
                -0.0111077090143335
            ]
        },
        {
            "positions": [
                1.390569149294767,
                -0.8100839638159856,
                -1.362532931661996,
                -0.5361231647180533,
                -1.0371336449467177,
                -0.056420450628306806
            ]
        },
        {
            "positions": [
                1.271566113643111,
                -0.7706061750632194,
                -1.3118887868931717,
                -0.44408427059442146,
                -0.9886051678504131,
                -0.10173319224228006
            ]
        },
        {
            "positions": [
                1.1525630779914546,
                -0.7311283863104532,
                -1.261244642124347,
                -0.35204537647078915,
                -0.9400766907541083,
                -0.1470459338562533
            ]
        },
        {
            "positions": [
                1.0335600423397986,
                -0.691650597557687,
                -1.2106004973555224,
                -0.2600064823471573,
                -0.8915482136578036,
                -0.19235867547022656
            ]
        },
        {
            "positions": [
                0.9145570066881423,
                -0.6521728088049207,
                -1.1599563525866978,
                -0.16796758822352498,
                -0.8430197365614988,
                -0.2376714170841998
            ]
        },
        {
            "positions": [
                0.7955539710364863,
                -0.6126950200521545,
                -1.1093122078178732,
                -0.07592869409989311,
                -0.7944912594651939,
                -0.28298415869817306
            ]
        },
        {
            "positions": [
                0.6765509353848298,
                -0.5732172312993883,
                -1.0586680630490486,
                0.016110200023739196,
                -0.7459627823688891,
                -0.3282969003121464
            ]
        },
        {
            "positions": [
                0.5575478997331742,
                -0.5337394425466221,
                -1.008023918280224,
                0.10814909414737128,
                -0.6974343052725844,
                -0.37360964192611956
            ]
        },
        {
            "positions": [
                0.4385448640815178,
                -0.4942616537938558,
                -0.9573797735113994,
                0.20018798827100343,
                -0.6489058281762796,
                -0.4189223835400929
            ]
        },
        {
            "positions": [
                0.40873694884639133,
                -0.5090201220792353,
                -0.7929788374089879,
                0.32081411939546395,
                -0.6038685905945361,
                -0.40104446734960025
            ]
        },
        {
            "positions": [
                0.37892903361126484,
                -0.5237785903646149,
                -0.6285779013065764,
                0.4414402505199244,
                -0.5588313530127925,
                -0.3831665511591076
            ]
        },
        {
            "positions": [
                0.34912111837613835,
                -0.5385370586499945,
                -0.46417696520416507,
                0.5620663816443849,
                -0.513794115431049,
                -0.36528863496861486
            ]
        },
        {
            "positions": [
                0.31931320314101186,
                -0.5532955269353741,
                -0.2997760291017536,
                0.6826925127688455,
                -0.4687568778493055,
                -0.3474107187781222
            ]
        },
        {
            "positions": [
                0.28950528790588537,
                -0.5680539952207536,
                -0.13537509299934214,
                0.803318643893306,
                -0.4237196402675619,
                -0.3295328025876295
            ]
        },
        {
            "positions": [
                0.2596973726707589,
                -0.5828124635061332,
                0.029025843103069215,
                0.9239447750177663,
                -0.37868240268581843,
                -0.31165488639713684
            ]
        },
        {
            "positions": [
                0.22988945743563238,
                -0.5975709317915128,
                0.19342677920548068,
                1.044570906142227,
                -0.3336451651040749,
                -0.2937769702066442
            ]
        },
        {
            "positions": [
                0.2000815422005059,
                -0.6123294000768924,
                0.35782771530789215,
                1.1651970372666876,
                -0.28860792752233133,
                -0.27589905401615145
            ]
        },
        {
            "positions": [
                0.1702736269653794,
                -0.6270878683622719,
                0.5222286514103038,
                1.2858231683911479,
                -0.24357068994058778,
                -0.2580211378256588
            ]
        },
        {
            "positions": [
                0.1404657117302529,
                -0.6418463366476514,
                0.6866295875127151,
                1.4064492995156084,
                -0.1985334523588443,
                -0.2401432216351661
            ]
        },
        {
            "positions": [
                0.11065779649512639,
                -0.6566048049330311,
                0.8510305236151267,
                1.527075430640069,
                -0.15349621477710074,
                -0.2222653054446734
            ]
        },
        {
            "positions": [
                0.10821596588561305,
                -0.6742991688338412,
                1.013600769461195,
                1.5994105015938784,
                -0.14542009516109825,
                -0.20252215330385603
            ]
        },
        {
            "positions": [
                0.10577413527609973,
                -0.6919935327346515,
                1.1761710153072633,
                1.6717455725476877,
                -0.13734397554509573,
                -0.18277900116303866
            ]
        },
        {
            "positions": [
                0.1033323046665864,
                -0.7096878966354616,
                1.3387412611533316,
                1.7440806435014973,
                -0.12926785592909323,
                -0.1630358490222213
            ]
        },
        {
            "positions": [
                0.11024138926998212,
                -0.7353295811502182,
                1.5634925179085561,
                1.8262220953292727,
                -0.13197342909482107,
                -0.13495584820727657
            ]
        },
        {
            "positions": [
                0.11715047387337782,
                -0.7609712656649747,
                1.7882437746637807,
                1.9083635471570484,
                -0.13467900226054888,
                -0.10687584739233189
            ]
        },
        {
            "positions": [
                0.12405955847677354,
                -0.7866129501797313,
                2.0129950314190053,
                1.9905049989848238,
                -0.13738457542627672,
                -0.07879584657738718
            ]
        }
    ]
}