{
    "goal": {
        "global_pose": {
            "orientation": {
                "w": -0.4816463035849501,
                "x": 0.5182115481033762,
                "y": 0.4908360881923453,
                "z": -0.5084816262002911
            },
            "position": {
                "x": -0.8240239810943604,
                "y": -0.300875300988555,
                "z": 0.16403168439865112
            }
        },
        "name": "move_to_storage_C"
    },
    "id": "RRTstar_move_to_storage_C_6",
    "joint_names": [
        "shoulder_pan_joint",
        "shoulder_lift_joint",
        "elbow_joint",
        "wrist_1_joint",
        "wrist_2_joint",
        "wrist_3_joint"
    ],
    "metrics": {
        "cart_traj_len": 0.5759999681799576,
        "distance_elbow_joint": 0.25522245638689967,
        "distance_shoulder_lift_joint": 0.18789809767096854,
        "distance_shoulder_pan_joint": 0.4954823638238244,
        "distance_wrist_1_joint": 0.0735942672313088,
        "distance_wrist_2_joint": 1.060972248445692,
        "distance_wrist_3_joint": 0.059982367879489296,
        "smoothness": 0.0,
        "time": 5.001038875,
        "traj_len": 1.4605313421622224,
        "weighted_distance": 1.8405659599357376
    },
    "planner": "RRTstar",
    "start": {
        "state": {
            "elbow_joint": 2.010868314990456,
            "shoulder_lift_joint": -1.1634956873337592,
            "shoulder_pan_joint": -2.4736205022346125,
            "wrist_1_joint": -0.8367026794202681,
            "wrist_2_joint": 0.6746043897044499,
            "wrist_3_joint": -3.1496632123970403
        }
    },
    "waypoints": [
        {
            "positions": [
                -2.4736205022346125,
                -1.1634956873337592,
                2.010868314990456,
                -0.8367026794202681,
                0.6746043897044499,
                -3.1496632123970403
            ]
        },
        {
            "positions": [
                -2.55620089620525,
                -1.1321793377219311,
                1.9683312389259726,
                -0.82443696821505,
                0.8514330977787319,
                -3.139666151083792
            ]
        },
        {
            "positions": [
                -2.638781290175887,
                -1.100862988110103,
                1.9257941628614892,
                -0.8121712570098318,
                1.028261805853014,
                -3.1296690897705437
            ]
        },
        {
            "positions": [
                -2.7213616841465247,
                -1.069546638498275,
                1.883257086797006,
                -0.7999055458046137,
                1.205090513927296,
                -3.1196720284572956
            ]
        },
        {
            "positions": [
                -2.8039420781171622,
                -1.0382302888864468,
                1.8407200107325228,
                -0.7876398345993956,
                1.381919222001578,
                -3.1096749671440476
            ]
        },
        {
            "positions": [
                -2.8865224720877993,
                -1.0069139392746187,
                1.7981829346680394,
                -0.7753741233941774,
                1.55874793007586,
                -3.099677905830799
            ]
        },
        {
            "positions": [
                -2.969102866058437,
                -0.9755975896627906,
                1.7556458586035562,
                -0.7631084121889593,
                1.735576638150142,
                -3.089680844517551
            ]
        }
    ]
}