{
    "goal": {
        "global_pose": {
            "orientation": {
                "w": 0.5084816262002911,
                "x": -0.4908360881923452,
                "y": 0.5182115481033761,
                "z": -0.48164630358495003
            },
            "position": {
                "x": 0.5540239810943604,
                "y": -0.46912469901144505,
                "z": 0.16403168439865112
            }
        },
        "name": "move_to_storage_B"
    },
    "id": "RRTstar_move_to_storage_B_73",
    "joint_names": [
        "shoulder_pan_joint",
        "shoulder_lift_joint",
        "elbow_joint",
        "wrist_1_joint",
        "wrist_2_joint",
        "wrist_3_joint"
    ],
    "metrics": {
        "cart_traj_len": 1.3117964183365478,
        "distance_elbow_joint": 0.45085484099618744,
        "distance_shoulder_lift_joint": 1.2548813034808297,
        "distance_shoulder_pan_joint": 0.41931204865427885,
        "distance_wrist_1_joint": 2.9887674293658355,
        "distance_wrist_2_joint": 2.7203165051028964,
        "distance_wrist_3_joint": 3.1391732703294006,
        "smoothness": 0.10130702712991163,
        "time": 5.018713356,
        "traj_len": 3.3125979831439594,
        "weighted_distance": 4.791736206539021
    },
    "planner": "RRTstar",
    "start": {
        "state": {
            "elbow_joint": 1.664937868594044,
            "shoulder_lift_joint": -0.661644460510453,
            "shoulder_pan_joint": -0.9139846352900073,
            "wrist_1_joint": 2.146753192139373,
            "wrist_2_joint": -2.2341966793290973,
            "wrist_3_joint": 0.005466555786416001
        }
    },
    "waypoints": [
        {
            "positions": [
                -0.9139846352900073,
                -0.661644460510453,
                1.664937868594044,
                2.146753192139373,
                -2.2341966793290973,
                0.005466555786416001
            ]
        },
        {
            "positions": [
                -0.902051058030874,
                -0.7474117040994753,
                1.705120725218808,
                2.1061226921363936,
                -2.1569529748624703,
                0.13026281487459213
            ]
        },
        {
            "positions": [
                -0.8901174807717407,
                -0.8331789476884977,
                1.745303581843572,
                2.065492192133414,
                -2.0797092703958433,
                0.2550590739627682
            ]
        },
        {
            "positions": [
                -0.8781839035126074,
                -0.9189461912775199,
                1.7854864384683362,
                2.0248616921304343,
                -2.002465565929216,
                0.3798553330509443
            ]
        },
        {
            "positions": [
                -0.8662503262534742,
                -1.0047134348665423,
                1.8256692950931002,
                1.984231192127455,
                -1.925221861462589,
                0.5046515921391205
            ]
        },
        {
            "positions": [
                -0.8543167489943408,
                -1.0904806784555645,
                1.8658521517178643,
                1.9436006921244753,
                -1.847978156995962,
                0.6294478512272965
            ]
        },
        {
            "positions": [
                -0.8423831717352076,
                -1.176247922044587,
                1.9060350083426285,
                1.9029701921214957,
                -1.770734452529335,
                0.7542441103154726
            ]
        },
        {
            "positions": [
                -0.8304495944760744,
                -1.262015165633609,
                1.9462178649673925,
                1.8623396921185162,
                -1.693490748062708,
                0.8790403694036487
            ]
        },
        {
            "positions": [
                -0.818516017216941,
                -1.3477824092226314,
                1.9864007215921566,
                1.8217091921155366,
                -1.6162470435960805,
                1.003836628491825
            ]
        },
        {
            "positions": [
                -0.8065824399578078,
                -1.4335496528116538,
                2.0265835782169206,
                1.781078692112557,
                -1.5390033391294535,
                1.128632887580001
            ]
        },
        {
            "positions": [
                -0.7946488626986745,
                -1.519316896400676,
                2.0667664348416848,
                1.7404481921095774,
                -1.4617596346628265,
                1.253429146668177
            ]
        },
        {
            "positions": [
                -0.8104370877546191,
                -1.4984111665274862,
                2.0641861045917613,
                1.6045291168813647,
                -1.359239663060899,
                1.3529665508496318
            ]
        },
        {
            "positions": [
                -0.8262253128105636,
                -1.4775054366542963,
                2.061605774341838,
                1.468610041653152,
                -1.2567196914589713,
                1.4525039550310865
            ]
        },
        {
            "positions": [
                -0.8420135378665081,
                -1.4565997067811065,
                2.0590254440919145,
                1.3326909664249396,
                -1.1541997198570435,
                1.5520413592125413
            ]
        },
        {
            "positions": [
                -0.8578017629224526,
                -1.4356939769079167,
                2.0564451138419906,
                1.1967718911967269,
                -1.051679748255116,
                1.651578763393996
            ]
        },
        {
            "positions": [
                -0.8735899879783972,
                -1.4147882470347268,
                2.053864783592067,
                1.0608528159685142,
                -0.9491597766531883,
                1.7511161675754505
            ]
        },
        {
            "positions": [
                -0.8893782130343417,
                -1.393882517161537,
                2.0512844533421437,
                0.9249337407403015,
                -0.8466398050512607,
                1.8506535717569053
            ]
        },
        {
            "positions": [
                -0.9051664380902862,
                -1.3729767872883472,
                2.0487041230922203,
                0.789014665512089,
                -0.744119833449333,
                1.95019097593836
            ]
        },
        {
            "positions": [
                -0.9209546631462308,
                -1.3520710574151575,
                2.046123792842297,
                0.6530955902838764,
                -0.6415998618474054,
                2.0497283801198147
            ]
        },
        {
            "positions": [
                -0.9367428882021753,
                -1.3311653275419677,
                2.0435434625923734,
                0.5171765150556638,
                -0.5390798902454778,
                2.1492657843012695
            ]
        },
        {
            "positions": [
                -0.9525311132581198,
                -1.3102595976687779,
                2.0409631323424495,
                0.3812574398274511,
                -0.43655991864355004,
                2.248803188482724
            ]
        },
        {
            "positions": [
                -0.9683193383140644,
                -1.289353867795588,
                2.038382802092526,
                0.2453383645992382,
                -0.3340399470416222,
                2.3483405926641794
            ]
        },
        {
            "positions": [
                -0.9841075633700089,
                -1.2684481379223982,
                2.0358024718426027,
                0.10941928937102574,
                -0.23151997543969483,
                2.4478779968456337
            ]
        },
        {
            "positions": [
                -0.9998957884259534,
                -1.2475424080492084,
                2.0332221415926792,
                -0.02649978585718693,
                -0.129000003837767,
                2.5474154010270884
            ]
        },
        {
            "positions": [
                -1.0156840134818979,
                -1.2266366781760185,
                2.030641811342756,
                -0.16241886108539938,
                -0.02648003223583939,
                2.646952805208543
            ]
        },
        {
            "positions": [
                -1.0314722385378425,
                -1.2057309483028287,
                2.0280614810928324,
                -0.29833793631361205,
                0.07603993936608822,
                2.746490209389998
            ]
        },
        {
            "positions": [
                -1.047260463593787,
                -1.1848252184296388,
                2.0254811508429085,
                -0.4342570115418245,
                0.17855991096801582,
                2.8460276135714526
            ]
        },
        {
            "positions": [
                -1.0630486886497317,
                -1.163919488556449,
                2.022900820592985,
                -0.5701760867700374,
                0.28107988256994365,
                2.9455650177529074
            ]
        },
        {
            "positions": [
                -1.078836913705676,
                -1.1430137586832592,
                2.0203204903430616,
                -0.7060951619982498,
                0.38359985417187104,
                3.045102421934362
            ]
        },
        {
            "positions": [
                -1.0946251387616206,
                -1.1221080288100693,
                2.017740160093138,
                -0.8420142372264626,
                0.4861198257737989,
                3.144639826115817
            ]
        }
    ]
}