{
    "goal": {
        "global_pose": {
            "orientation": {
                "w": 0.005598929693374612,
                "x": 0.007748599140229565,
                "y": 0.7110244013736278,
                "z": -0.7031023480610252
            },
            "position": {
                "x": -0.8858502320852131,
                "y": -0.7141253447532654,
                "z": 0.3711530566215515
            }
        },
        "name": "move_to_auspresseinheit_C"
    },
    "id": "RRTstar_move_to_auspresseinheit_C_96",
    "joint_names": [
        "shoulder_pan_joint",
        "shoulder_lift_joint",
        "elbow_joint",
        "wrist_1_joint",
        "wrist_2_joint",
        "wrist_3_joint"
    ],
    "metrics": {
        "cart_traj_len": 0.4916635291437351,
        "distance_elbow_joint": 0.9855072654900568,
        "distance_shoulder_lift_joint": 0.31769204624280933,
        "distance_shoulder_pan_joint": 0.255915962245445,
        "distance_wrist_1_joint": 0.653985050857255,
        "distance_wrist_2_joint": 1.30810519842055,
        "distance_wrist_3_joint": 0.051404635573114366,
        "smoothness": 1.6148698667872622e-16,
        "time": 5.000489904,
        "traj_len": 1.8901349578348183,
        "weighted_distance": 2.3743440524181123
    },
    "planner": "RRTstar",
    "start": {
        "state": {
            "elbow_joint": 1.7527959577737207,
            "shoulder_lift_joint": -0.9740617694225068,
            "shoulder_pan_joint": -2.967991417825858,
            "wrist_1_joint": -0.759517768980727,
            "wrist_2_joint": 1.7443932448377408,
            "wrist_3_joint": -3.0840537646736568
        }
    },
    "waypoints": [
        {
            "positions": [
                -2.967991417825858,
                -0.9740617694225068,
                1.7527959577737207,
                -0.759517768980727,
                1.7443932448377408,
                -3.0840537646736568
            ]
        },
        {
            "positions": [
                -2.9423998216013136,
                -0.9422925647982259,
                1.654245231224715,
                -0.6941192638950014,
                1.6135827249956858,
                -3.0891942282309683
            ]
        },
        {
            "positions": [
                -2.916808225376769,
                -0.9105233601739449,
                1.5556945046757094,
                -0.628720758809276,
                1.4827722051536307,
                -3.0943346917882795
            ]
        },
        {
            "positions": [
                -2.8912166291522245,
                -0.878754155549664,
                1.4571437781267036,
                -0.5633222537235505,
                1.351961685311576,
                -3.099475155345591
            ]
        },
        {
            "positions": [
                -2.86562503292768,
                -0.8469849509253831,
                1.3585930515776978,
                -0.49792374863782496,
                1.2211511654695206,
                -3.1046156189029026
            ]
        },
        {
            "positions": [
                -2.8400334367031355,
                -0.815215746301102,
                1.2600423250286923,
                -0.4325252435520995,
                1.0903406456274658,
                -3.1097560824602137
            ]
        },
        {
            "positions": [
                -2.814441840478591,
                -0.7834465416768212,
                1.1614915984796865,
                -0.367126738466374,
                0.9595301257854109,
                -3.1148965460175253
            ]
        },
        {
            "positions": [
                -2.7888502442540464,
                -0.7516773370525403,
                1.0629408719306808,
                -0.3017282333806485,
                0.8287196059433558,
                -3.120037009574837
            ]
        },
        {
            "positions": [
                -2.763258648029502,
                -0.7199081324282592,
                0.9643901453816751,
                -0.23632972829492294,
                0.6979090861013006,
                -3.1251774731321484
            ]
        },
        {
            "positions": [
                -2.7376670518049573,
                -0.6881389278039783,
                0.8658394188326695,
                -0.1709312232091975,
                0.5670985662592458,
                -3.1303179366894596
            ]
        },
        {
            "positions": [
                -2.712075455580413,
                -0.6563697231796974,
                0.7672886922836638,
                -0.10553271812347195,
                0.4362880464171909,
                -3.135458400246771
            ]
        }
    ]
}