{
    "goal": {
        "global_pose": {
            "orientation": {
                "w": 0.7031023480610252,
                "x": -0.7110244013736278,
                "y": 0.0077485991402295624,
                "z": 0.005598929693374583
            },
            "position": {
                "x": -0.8841497679147869,
                "y": 0.44412534475326537,
                "z": 0.3711530566215515
            }
        },
        "name": "move_to_auspresseinheit_D"
    },
    "id": "RRTstar_move_to_auspresseinheit_D_1",
    "joint_names": [
        "shoulder_pan_joint",
        "shoulder_lift_joint",
        "elbow_joint",
        "wrist_1_joint",
        "wrist_2_joint",
        "wrist_3_joint"
    ],
    "metrics": {
        "cart_traj_len": 0.343886530119843,
        "distance_elbow_joint": 0.6430326097135994,
        "distance_shoulder_lift_joint": 0.12325506019029175,
        "distance_shoulder_pan_joint": 0.13371237736490849,
        "distance_wrist_1_joint": 0.5376610594151212,
        "distance_wrist_2_joint": 1.4449515263438548,
        "distance_wrist_3_joint": 0.00799586958943177,
        "smoothness": 0.0,
        "time": 5.0015031819999995,
        "traj_len": 1.700178961938186,
        "weighted_distance": 2.2111564457439568
    },
    "planner": "RRTstar",
    "start": {
        "state": {
            "elbow_joint": -1.8275523626775212,
            "shoulder_lift_joint": -2.126789852344167,
            "shoulder_pan_joint": -0.03513704404078235,
            "wrist_1_joint": -2.347782403156801,
            "wrist_2_joint": -1.6058999987535132,
            "wrist_3_joint": -3.0880379163319196
        }
    },
    "waypoints": [
        {
            "positions": [
                -0.03513704404078235,
                -2.126789852344167,
                -1.8275523626775212,
                -2.347782403156801,
                -1.6058999987535132,
                -3.0880379163319196
            ]
        },
        {
            "positions": [
                -0.05185109121139591,
                -2.1421967348679534,
                -1.7471732864633212,
                -2.414990035583691,
                -1.4252810579605313,
                -3.0890374000305987
            ]
        },
        {
            "positions": [
                -0.06856513838200948,
                -2.15760361739174,
                -1.6667942102491213,
                -2.4821976680105813,
                -1.2446621171675494,
                -3.0900368837292778
            ]
        },
        {
            "positions": [
                -0.08527918555262304,
                -2.1730104999155264,
                -1.5864151340349215,
                -2.5494053004374715,
                -1.0640431763745677,
                -3.0910363674279564
            ]
        },
        {
            "positions": [
                -0.1019932327232366,
                -2.1884173824393125,
                -1.5060360578207215,
                -2.6166129328643617,
                -0.8834242355815858,
                -3.0920358511266355
            ]
        },
        {
            "positions": [
                -0.11870727989385016,
                -2.203824264963099,
                -1.4256569816065214,
                -2.6838205652912515,
                -0.7028052947886039,
                -3.0930353348253146
            ]
        },
        {
            "positions": [
                -0.13542132706446372,
                -2.2192311474868855,
                -1.3452779053923216,
                -2.7510281977181417,
                -0.5221863539956222,
                -3.094034818523993
            ]
        },
        {
            "positions": [
                -0.15213537423507728,
                -2.234638030010672,
                -1.2648988291781218,
                -2.818235830145032,
                -0.3415674132026403,
                -3.0950343022226723
            ]
        },
        {
            "positions": [
                -0.16884942140569084,
                -2.2500449125344586,
                -1.1845197529639218,
                -2.885443462571922,
                -0.1609484724096583,
                -3.0960337859213514
            ]
        }
    ]
}