{
    "goal": {
        "global_pose": {
            "orientation": {
                "w": 0.7047431468963623,
                "x": -0.7094548344612122,
                "y": 0.0024358443915843964,
                "z": -0.0022348060738295317
            },
            "position": {
                "x": 0.6094750761985779,
                "y": 0.3671506643295288,
                "z": 0.19426114857196808
            }
        },
        "name": "move_to_magneteinheit_A"
    },
    "id": "RRTstar_move_to_magneteinheit_A_67",
    "joint_names": [
        "shoulder_pan_joint",
        "shoulder_lift_joint",
        "elbow_joint",
        "wrist_1_joint",
        "wrist_2_joint",
        "wrist_3_joint"
    ],
    "metrics": {
        "cart_traj_len": 3.6753253720213923,
        "distance_elbow_joint": 3.8789066990045056,
        "distance_shoulder_lift_joint": 0.6186143895461349,
        "distance_shoulder_pan_joint": 2.5781702290767794,
        "distance_wrist_1_joint": 0.8118109014081898,
        "distance_wrist_2_joint": 1.6897370272970789,
        "distance_wrist_3_joint": 2.6159237786253438,
        "smoothness": 0.04741611482076113,
        "time": 5.0330121310000004,
        "traj_len": 3.491870992026772,
        "weighted_distance": 4.4639173951714195
    },
    "planner": "RRTstar",
    "start": {
        "state": {
            "elbow_joint": -1.9196185241190666,
            "shoulder_lift_joint": -1.2443396400964142,
            "shoulder_pan_joint": 2.6996025414629847,
            "wrist_1_joint": -1.5485510000780065,
            "wrist_2_joint": -1.5709468930060704,
            "wrist_3_joint": 0.4420197071253992
        }
    },
    "waypoints": [
        {
            "positions": [
                2.6996025414629847,
                -1.2443396400964142,
                -1.9196185241190666,
                -1.5485510000780065,
                -1.5709468930060704,
                0.4420197071253992
            ]
        },
        {
            "positions": [
                2.5749247576223286,
                -1.2251221595192792,
                -1.764173207633207,
                -1.5442703518826848,
                -1.5037422751645628,
                0.46632753548479783
            ]
        },
        {
            "positions": [
                2.450246973781672,
                -1.2059046789421444,
                -1.6087278911473475,
                -1.5399897036873633,
                -1.4365376573230555,
                0.4906353638441965
            ]
        },
        {
            "positions": [
                2.325569189941016,
                -1.1866871983650094,
                -1.453282574661488,
                -1.5357090554920416,
                -1.369333039481548,
                0.5149431922035952
            ]
        },
        {
            "positions": [
                2.2008914061003595,
                -1.1674697177878746,
                -1.2978372581756283,
                -1.5314284072967201,
                -1.3021284216400404,
                0.5392510205629938
            ]
        },
        {
            "positions": [
                2.0762136222597034,
                -1.1482522372107395,
                -1.1423919416897685,
                -1.5271477591013984,
                -1.2349238037985328,
                0.5635588489223925
            ]
        },
        {
            "positions": [
                1.951535838419047,
                -1.1290347566336045,
                -0.986946625203909,
                -1.522867110906077,
                -1.1677191859570255,
                0.5878666772817911
            ]
        },
        {
            "positions": [
                1.8268580545783908,
                -1.1098172760564697,
                -0.8315013087180494,
                -1.5185864627107553,
                -1.100514568115518,
                0.6121745056411898
            ]
        },
        {
            "positions": [
                1.7021802707377347,
                -1.0905997954793347,
                -0.6760559922321898,
                -1.5143058145154338,
                -1.0333099502740104,
                0.6364823340005885
            ]
        },
        {
            "positions": [
                1.5775024868970784,
                -1.0713823149021997,
                -0.52061067574633,
                -1.510025166320112,
                -0.966105332432503,
                0.6607901623599871
            ]
        },
        {
            "positions": [
                1.452824703056422,
                -1.052164834325065,
                -0.36516535926047045,
                -1.5057445181247906,
                -0.8989007145909955,
                0.6850979907193858
            ]
        },
        {
            "positions": [
                1.3281469192157656,
                -1.03294735374793,
                -0.20972004277461065,
                -1.501463869929469,
                -0.831696096749488,
                0.7094058190787844
            ]
        },
        {
            "positions": [
                1.2034691353751095,
                -1.0137298731707949,
                -0.054274726288751296,
                -1.4971832217341474,
                -0.7644914789079805,
                0.7337136474381831
            ]
        },
        {
            "positions": [
                1.0787913515344532,
                -0.9945123925936601,
                0.10117059019710828,
                -1.4929025735388257,
                -0.697286861066473,
                0.7580214757975818
            ]
        },
        {
            "positions": [
                0.9541135676937971,
                -0.9752949120165251,
                0.25661590668296785,
                -1.4886219253435042,
                -0.6300822432249655,
                0.7823293041569804
            ]
        },
        {
            "positions": [
                0.8294357838531405,
                -0.9560774314393902,
                0.4120612231688279,
                -1.4843412771481825,
                -0.562877625383458,
                0.806637132516379
            ]
        },
        {
            "positions": [
                0.7047580000124845,
                -0.9368599508622553,
                0.567506539654687,
                -1.480060628952861,
                -0.49567300754195043,
                0.8309449608757777
            ]
        },
        {
            "positions": [
                0.5800802161718281,
                -0.9176424702851202,
                0.722951856140547,
                -1.4757799807575394,
                -0.4284683897004429,
                0.8552527892351764
            ]
        },
        {
            "positions": [
                0.45540243233117206,
                -0.8984249897079855,
                0.8783971726264066,
                -1.4714993325622179,
                -0.36126377185893555,
                0.879560617594575
            ]
        },
        {
            "positions": [
                0.33072464849051536,
                -0.8792075091308504,
                1.0338424891122662,
                -1.4672186843668962,
                -0.294059154017428,
                0.9038684459539738
            ]
        },
        {
            "positions": [
                0.31079159038248083,
                -0.8975922414732964,
                1.1150647010524053,
                -1.4091849319249548,
                -0.25644482057108975,
                1.075263396228842
            ]
        },
        {
            "positions": [
                0.29085853227444636,
                -0.9159769738157423,
                1.1962869129925446,
                -1.351151179483013,
                -0.21883048712475153,
                1.2466583465037102
            ]
        },
        {
            "positions": [
                0.27092547416641183,
                -0.9343617061581881,
                1.277509124932684,
                -1.2931174270410717,
                -0.18121615367841332,
                1.4180532967785784
            ]
        },
        {
            "positions": [
                0.2509924160583773,
                -0.9527464385006341,
                1.358731336872823,
                -1.2350836745991303,
                -0.14360182023207507,
                1.5894482470534466
            ]
        },
        {
            "positions": [
                0.23479740309935573,
                -0.9752393546519825,
                1.4338009416244,
                -1.172790727607966,
                -0.11080282591668952,
                1.7730101518906087
            ]
        },
        {
            "positions": [
                0.21860239014033417,
                -0.9977322708033309,
                1.5088705463759768,
                -1.110497780616802,
                -0.07800383160130397,
                1.9565720567277707
            ]
        },
        {
            "positions": [
                0.20240737718131258,
                -1.0202251869546795,
                1.5839401511275537,
                -1.0482048336256378,
                -0.045204837285918426,
                2.1401339615649326
            ]
        },
        {
            "positions": [
                0.186212364222291,
                -1.042718103106028,
                1.6590097558791306,
                -0.9859118866344735,
                -0.012405842970532877,
                2.323695866402095
            ]
        },
        {
            "positions": [
                0.17001735126326945,
                -1.0652110192573763,
                1.7340793606307074,
                -0.9236189396433093,
                0.020393151344852672,
                2.507257771239257
            ]
        },
        {
            "positions": [
                0.15382233830424785,
                -1.0877039354087248,
                1.8091489653822845,
                -0.861325992652145,
                0.05319214566023822,
                2.690819676076419
            ]
        },
        {
            "positions": [
                0.1376273253452263,
                -1.110196851560073,
                1.8842185701338614,
                -0.7990330456609809,
                0.08599113997562377,
                2.874381580913581
            ]
        },
        {
            "positions": [
                0.12143231238620472,
                -1.1326897677114216,
                1.9592881748854383,
                -0.7367400986698167,
                0.11879013429100935,
                3.057943485750743
            ]
        }
    ]
}