{
    "goal": {
        "global_pose": {
            "orientation": {
                "w": 0.7047431493862688,
                "x": -0.7094548369677653,
                "y": 0.0024358444001904,
                "z": -0.0022348060817251984
            },
            "position": {
                "x": -0.39052492380142206,
                "y": 0.3671506643295288,
                "z": 0.19426114857196808
            }
        },
        "name": "move_to_magneteinheit_D"
    },
    "id": "RRTstar_move_to_magneteinheit_D_132",
    "joint_names": [
        "shoulder_pan_joint",
        "shoulder_lift_joint",
        "elbow_joint",
        "wrist_1_joint",
        "wrist_2_joint",
        "wrist_3_joint"
    ],
    "metrics": {
        "cart_traj_len": 3.7864224719358077,
        "distance_elbow_joint": 3.3088309018896687,
        "distance_shoulder_lift_joint": 1.6289733688137893,
        "distance_shoulder_pan_joint": 3.088188453383422,
        "distance_wrist_1_joint": 1.540072958024908,
        "distance_wrist_2_joint": 1.1011238844540385,
        "distance_wrist_3_joint": 3.2063177221026598,
        "smoothness": 0.19017245207145464,
        "time": 5.06435748,
        "traj_len": 3.7247157325987295,
        "weighted_distance": 4.788250157975537
    },
    "planner": "RRTstar",
    "start": {
        "state": {
            "elbow_joint": 0.749534889911806,
            "shoulder_lift_joint": -0.6476975780787326,
            "shoulder_pan_joint": -2.711696901376241,
            "wrist_1_joint": -0.07506478083263063,
            "wrist_2_joint": 0.43296659715538205,
            "wrist_3_joint": -3.14703540197715
        }
    },
    "waypoints": [
        {
            "positions": [
                -2.711696901376241,
                -0.6476975780787326,
                0.749534889911806,
                -0.07506478083263063,
                0.43296659715538205,
                -3.14703540197715
            ]
        },
        {
            "positions": [
                -2.741606880877842,
                -0.7369818153447749,
                0.7155775661627723,
                -0.062149416588566056,
                0.4200471345531894,
                -3.079744039848093
            ]
        },
        {
            "positions": [
                -2.7715168603794433,
                -0.8262660526108172,
                0.6816202424137386,
                -0.049234052344501476,
                0.40712767195099675,
                -3.012452677719036
            ]
        },
        {
            "positions": [
                -2.6494283029795,
                -0.857466367698185,
                0.5455497118812929,
                -0.008378098735854454,
                0.3785454049620114,
                -2.9758265913547692
            ]
        },
        {
            "positions": [
                -2.5273397455795568,
                -0.8886666827855526,
                0.4094791813488472,
                0.03247785487279257,
                0.34996313797302603,
                -2.939200504990502
            ]
        },
        {
            "positions": [
                -2.4052511881796135,
                -0.9198669978729204,
                0.2734086508164015,
                0.07333380848143958,
                0.32138087098404067,
                -2.902574418626235
            ]
        },
        {
            "positions": [
                -2.28316263077967,
                -0.9510673129602881,
                0.13733812028395576,
                0.1141897620900866,
                0.29279860399505525,
                -2.865948332261968
            ]
        },
        {
            "positions": [
                -2.1610740733797273,
                -0.9822676280476559,
                0.0012675897515100898,
                0.15504571569873363,
                0.2642163370060699,
                -2.829322245897701
            ]
        },
        {
            "positions": [
                -2.038985515979784,
                -1.0134679431350235,
                -0.1348029407809357,
                0.19590166930738065,
                0.23563407001708453,
                -2.792696159533434
            ]
        },
        {
            "positions": [
                -1.9168969585798408,
                -1.0446682582223912,
                -0.27087347131338146,
                0.23675762291602767,
                0.20705180302809914,
                -2.756070073169167
            ]
        },
        {
            "positions": [
                -1.7948084011798975,
                -1.075868573309759,
                -0.40694400184582713,
                0.2776135765246747,
                0.17846953603911378,
                -2.7194439868049
            ]
        },
        {
            "positions": [
                -1.6727198437799542,
                -1.1070688883971267,
                -0.543014532378273,
                0.31846953013332174,
                0.1498872690501284,
                -2.682817900440633
            ]
        },
        {
            "positions": [
                -1.5506312863800111,
                -1.1382692034844943,
                -0.6790850629107185,
                0.35932548374196877,
                0.12130500206114303,
                -2.646191814076366
            ]
        },
        {
            "positions": [
                -1.4285427289800678,
                -1.1694695185718622,
                -0.8151555934431644,
                0.4001814373506158,
                0.09272273507215767,
                -2.609565727712099
            ]
        },
        {
            "positions": [
                -1.3064541715801246,
                -1.2006698336592299,
                -0.95122612397561,
                0.4410373909592628,
                0.06414046808317231,
                -2.572939641347832
            ]
        },
        {
            "positions": [
                -1.1843656141801815,
                -1.2318701487465975,
                -1.0872966545080556,
                0.48189334456790983,
                0.03555820109418695,
                -2.536313554983565
            ]
        },
        {
            "positions": [
                -1.062277056780238,
                -1.2630704638339654,
                -1.2233671850405017,
                0.5227492981765568,
                0.006975934105201531,
                -2.499687468619298
            ]
        },
        {
            "positions": [
                -0.9401884993802949,
                -1.294270778921333,
                -1.3594377155729473,
                0.5636052517852038,
                -0.02160633288378383,
                -2.463061382255031
            ]
        },
        {
            "positions": [
                -0.8180999419803516,
                -1.3254710940087007,
                -1.495508246105393,
                0.6044612053938508,
                -0.05018859987276919,
                -2.426435295890764
            ]
        },
        {
            "positions": [
                -0.6960113845804088,
                -1.3566714090960685,
                -1.6315787766378387,
                0.6453171590024979,
                -0.0787708668617545,
                -2.389809209526497
            ]
        },
        {
            "positions": [
                -0.5739228271804651,
                -1.3878717241834364,
                -1.7676493071702848,
                0.6861731126111449,
                -0.10735313385073997,
                -2.3531831231622298
            ]
        },
        {
            "positions": [
                -0.45183426978052177,
                -1.4190720392708038,
                -1.9037198377027305,
                0.7270290662197919,
                -0.13593540083972533,
                -2.316557036797963
            ]
        },
        {
            "positions": [
                -0.3297457123805789,
                -1.4502723543581717,
                -2.0397903682351757,
                0.7678850198284389,
                -0.1645176678287107,
                -2.279930950433696
            ]
        },
        {
            "positions": [
                -0.20765715498063564,
                -1.4814726694455393,
                -2.1758608987676213,
                0.808740973437086,
                -0.19309993481769605,
                -2.2433048640694286
            ]
        },
        {
            "positions": [
                -0.08556859758069235,
                -1.512672984532907,
                -2.3119314293000675,
                0.849596927045733,
                -0.2216822018066814,
                -2.2066787777051617
            ]
        },
        {
            "positions": [
                0.03651995981925106,
                -1.5438732996202749,
                -2.448001959832513,
                0.89045288065438,
                -0.2502644687956668,
                -2.170052691340895
            ]
        },
        {
            "positions": [
                0.02985179324489929,
                -1.5956670019289994,
                -2.460703120909538,
                0.9367450456071102,
                -0.22334785752596606,
                -2.0103048383855064
            ]
        },
        {
            "positions": [
                0.023183626670547523,
                -1.6474607042377238,
                -2.4734042819865625,
                0.9830372105598405,
                -0.19643124625626535,
                -1.8505569854301178
            ]
        },
        {
            "positions": [
                0.0024840925672652316,
                -1.7103817285032037,
                -2.4648151089874326,
                1.031234307223084,
                -0.16002528665990648,
                -1.659573054874555
            ]
        },
        {
            "positions": [
                -0.01821544153601706,
                -1.7733027527686835,
                -2.4562259359883023,
                1.0794314038863277,
                -0.12361932706354763,
                -1.4685891243189921
            ]
        },
        {
            "positions": [
                -0.038914975639299354,
                -1.8362237770341632,
                -2.4476367629891724,
                1.1276285005495714,
                -0.08721336746718876,
                -1.2776051937634294
            ]
        },
        {
            "positions": [
                -0.059614509742581645,
                -1.899144801299643,
                -2.439047589990042,
                1.175825597212815,
                -0.05080740787082991,
                -1.0866212632078665
            ]
        },
        {
            "positions": [
                -0.08031404384586394,
                -1.9620658255651229,
                -2.4304584169909123,
                1.2240226938760588,
                -0.01440144827447104,
                -0.8956373326523037
            ]
        },
        {
            "positions": [
                -0.10101357794914623,
                -2.0249868498306025,
                -2.4218692439917824,
                1.2722197905393022,
                0.022004511321887826,
                -0.704653402096741
            ]
        },
        {
            "positions": [
                -0.12171311205242852,
                -2.0879078740960826,
                -2.413280070992652,
                1.320416887202546,
                0.05841047091824669,
                -0.5136694715411783
            ]
        },
        {
            "positions": [
                -0.1424126461557108,
                -2.150828898361562,
                -2.404690897993522,
                1.3686139838657896,
                0.09481643051460553,
                -0.3226855409856151
            ]
        },
        {
            "positions": [
                -0.1631121802589931,
                -2.2137499226270423,
                -2.396101724994392,
                1.4168110805290333,
                0.13122239011096443,
                -0.13170161043005235
            ]
        },
        {
            "positions": [
                -0.1838117143622754,
                -2.276670946892522,
                -2.387512551995262,
                1.465008177192277,
                0.16762834970732324,
                0.05928232012551038
            ]
        }
    ]
}