{
    "goal": {
        "global_pose": {
            "orientation": {
                "w": 0.5084816262002911,
                "x": -0.4908360881923452,
                "y": 0.5182115481033761,
                "z": -0.48164630358495003
            },
            "position": {
                "x": 0.5540239810943604,
                "y": -0.46912469901144505,
                "z": 0.16403168439865112
            }
        },
        "name": "move_to_storage_B"
    },
    "id": "RRTstar_move_to_storage_B_92",
    "joint_names": [
        "shoulder_pan_joint",
        "shoulder_lift_joint",
        "elbow_joint",
        "wrist_1_joint",
        "wrist_2_joint",
        "wrist_3_joint"
    ],
    "metrics": {
        "cart_traj_len": 0.7726906330592456,
        "distance_elbow_joint": 0.3501904538641232,
        "distance_shoulder_lift_joint": 0.45991362558580784,
        "distance_shoulder_pan_joint": 0.47954102712763913,
        "distance_wrist_1_joint": 3.0140948728717833,
        "distance_wrist_2_joint": 2.708822327967031,
        "distance_wrist_3_joint": 3.145621132158271,
        "smoothness": 0.06513915001322698,
        "time": 5.015435311,
        "traj_len": 3.1871905245175816,
        "weighted_distance": 4.708751735304168
    },
    "planner": "RRTstar",
    "start": {
        "state": {
            "elbow_joint": 1.664937868594044,
            "shoulder_lift_joint": -0.661644460510453,
            "shoulder_pan_joint": -0.9139846352900073,
            "wrist_1_joint": 2.146753192139373,
            "wrist_2_joint": -2.2341966793290973,
            "wrist_3_joint": 0.005466555786416001
        }
    },
    "waypoints": [
        {
            "positions": [
                -0.9139846352900073,
                -0.661644460510453,
                1.664937868594044,
                2.146753192139373,
                -2.2341966793290973,
                0.005466555786416001
            ]
        },
        {
            "positions": [
                -0.8392170924318998,
                -0.7241786354569651,
                1.6693628697057057,
                2.1536122783935925,
                -2.117627992979652,
                0.10539098372700091
            ]
        },
        {
            "positions": [
                -0.7644495495737923,
                -0.7867128104034773,
                1.6737878708173675,
                2.1604713646478113,
                -2.0010593066302063,
                0.20531541166758582
            ]
        },
        {
            "positions": [
                -0.7781997971326017,
                -0.8006646968906767,
                1.6880103896357341,
                2.0354556687993384,
                -1.8979057668273671,
                0.3280559231791317
            ]
        },
        {
            "positions": [
                -0.791950044691411,
                -0.8146165833778759,
                1.7022329084541008,
                1.9104399729508659,
                -1.794752227024528,
                0.4507964346906776
            ]
        },
        {
            "positions": [
                -0.8057002922502203,
                -0.8285684698650753,
                1.7164554272724675,
                1.7854242771023932,
                -1.6915986872216888,
                0.5735369462022235
            ]
        },
        {
            "positions": [
                -0.8194505398090297,
                -0.8425203563522745,
                1.7306779460908341,
                1.6604085812539204,
                -1.5884451474188497,
                0.6962774577137694
            ]
        },
        {
            "positions": [
                -0.833200787367839,
                -0.8564722428394739,
                1.7449004649092008,
                1.5353928854054477,
                -1.4852916076160105,
                0.8190179692253153
            ]
        },
        {
            "positions": [
                -0.8469510349266484,
                -0.8704241293266732,
                1.7591229837275675,
                1.410377189556975,
                -1.3821380678131714,
                0.9417584807368612
            ]
        },
        {
            "positions": [
                -0.8607012824854576,
                -0.8843760158138725,
                1.773345502545934,
                1.285361493708502,
                -1.278984528010332,
                1.0644989922484072
            ]
        },
        {
            "positions": [
                -0.874451530044267,
                -0.8983279023010718,
                1.7875680213643006,
                1.1603457978600296,
                -1.175830988207493,
                1.1872395037599528
            ]
        },
        {
            "positions": [
                -0.8882017776030764,
                -0.9122797887882711,
                1.8017905401826673,
                1.0353301020115568,
                -1.0726774484046537,
                1.309980015271499
            ]
        },
        {
            "positions": [
                -0.9019520251618857,
                -0.9262316752754705,
                1.816013059001034,
                0.9103144061630841,
                -0.9695239086018146,
                1.432720526783045
            ]
        },
        {
            "positions": [
                -0.915702272720695,
                -0.9401835617626697,
                1.8302355778194006,
                0.7852987103146114,
                -0.8663703687989754,
                1.5554610382945908
            ]
        },
        {
            "positions": [
                -0.9294525202795043,
                -0.9541354482498691,
                1.8444580966377673,
                0.6602830144661387,
                -0.7632168289961363,
                1.6782015498061367
            ]
        },
        {
            "positions": [
                -0.9432027678383137,
                -0.9680873347370684,
                1.858680615456134,
                0.5352673186176662,
                -0.6600632891932972,
                1.8009420613176825
            ]
        },
        {
            "positions": [
                -0.9569530153971231,
                -0.9820392212242677,
                1.8729031342745006,
                0.410251622769193,
                -0.5569097493904578,
                1.9236825728292284
            ]
        },
        {
            "positions": [
                -0.9707032629559325,
                -0.995991107711467,
                1.8871256530928673,
                0.28523592692072053,
                -0.45375620958761886,
                2.0464230843407742
            ]
        },
        {
            "positions": [
                -0.9844535105147417,
                -1.0099429941986664,
                1.901348171911234,
                0.1602202310722478,
                -0.3506026697847797,
                2.16916359585232
            ]
        },
        {
            "positions": [
                -0.9982037580735511,
                -1.0238948806858656,
                1.9155706907296006,
                0.03520453522377487,
                -0.24744912998194035,
                2.2919041073638664
            ]
        },
        {
            "positions": [
                -1.0119540056323604,
                -1.037846767173065,
                1.929793209547967,
                -0.08981116062469763,
                -0.1442955901791012,
                2.4146446188754123
            ]
        },
        {
            "positions": [
                -1.0257042531911698,
                -1.0517986536602644,
                1.9440157283663337,
                -0.21482685647317012,
                -0.041142050376262285,
                2.5373851303869577
            ]
        },
        {
            "positions": [
                -1.0394545007499791,
                -1.0657505401474636,
                1.9582382471847004,
                -0.33984255232164307,
                0.06201148942657708,
                2.660125641898504
            ]
        },
        {
            "positions": [
                -1.0532047483087883,
                -1.0797024266346629,
                1.972460766003067,
                -0.46485824817011556,
                0.16516502922941623,
                2.78286615341005
            ]
        },
        {
            "positions": [
                -1.0669549958675977,
                -1.0936543131218621,
                1.9866832848214337,
                -0.5898739440185885,
                0.26831856903225537,
                2.9056066649215957
            ]
        },
        {
            "positions": [
                -1.080705243426407,
                -1.1076061996090616,
                2.0009058036398004,
                -0.7148896398670614,
                0.3714721088350945,
                3.0283471764331416
            ]
        },
        {
            "positions": [
                -1.0944554909852164,
                -1.1215580860962608,
                2.015128322458167,
                -0.839905335715534,
                0.4746256486379335,
                3.1510876879446874
            ]
        }
    ]
}