{
    "goal": {
        "global_pose": {
            "orientation": {
                "w": 0.5084816217422485,
                "x": -0.49083608388900757,
                "y": 0.5182115435600281,
                "z": -0.4816462993621826
            },
            "position": {
                "x": 0.5540239810943604,
                "y": 0.030875300988554955,
                "z": 0.16403168439865112
            }
        },
        "name": "move_to_storage_A"
    },
    "id": "RRTstar_move_to_storage_A_42",
    "joint_names": [
        "shoulder_pan_joint",
        "shoulder_lift_joint",
        "elbow_joint",
        "wrist_1_joint",
        "wrist_2_joint",
        "wrist_3_joint"
    ],
    "metrics": {
        "cart_traj_len": 0.3531386217779871,
        "distance_elbow_joint": 0.4488533155891996,
        "distance_shoulder_lift_joint": 0.23726691309602677,
        "distance_shoulder_pan_joint": 0.45851897393049346,
        "distance_wrist_1_joint": 0.23294383230216742,
        "distance_wrist_2_joint": 1.1143605983173184,
        "distance_wrist_3_joint": 0.08682096199440537,
        "smoothness": 4.440892098500626e-16,
        "time": 5.000178658,
        "traj_len": 1.6058532296662764,
        "weighted_distance": 2.024774296023611
    },
    "planner": "RRTstar",
    "start": {
        "state": {
            "elbow_joint": 1.971548259319323,
            "shoulder_lift_joint": -1.1394851275133948,
            "shoulder_pan_joint": 0.1228115487234821,
            "wrist_1_joint": -0.7804723859257726,
            "wrist_2_joint": 0.12958671773740124,
            "wrist_3_joint": -3.192489227718131
        }
    },
    "waypoints": [
        {
            "positions": [
                0.1228115487234821,
                -1.1394851275133948,
                1.971548259319323,
                -0.7804723859257726,
                0.12958671773740124,
                -3.192489227718131
            ]
        },
        {
            "positions": [
                0.05730883816198304,
                -1.1733804008128272,
                2.0356701615463515,
                -0.8137500762546537,
                0.28878108892558957,
                -3.180086233147502
            ]
        },
        {
            "positions": [
                -0.008193872399516022,
                -1.2072756741122597,
                2.0997920637733802,
                -0.8470277665835347,
                0.44797546011377787,
                -3.1676832385768723
            ]
        },
        {
            "positions": [
                -0.07369658296101508,
                -1.241170947411692,
                2.1639139660004085,
                -0.8803054569124158,
                0.6071698313019662,
                -3.155280244006243
            ]
        },
        {
            "positions": [
                -0.13919929352251414,
                -1.2750662207111243,
                2.228035868227437,
                -0.9135831472412969,
                0.7663642024901546,
                -3.142877249435614
            ]
        },
        {
            "positions": [
                -0.20470200408401323,
                -1.3089614940105567,
                2.2921577704544656,
                -0.9468608375701779,
                0.9255585736783429,
                -3.1304742548649847
            ]
        },
        {
            "positions": [
                -0.27020471464551227,
                -1.3428567673099892,
                2.3562796726814943,
                -0.980138527899059,
                1.0847529448665312,
                -3.118071260294355
            ]
        },
        {
            "positions": [
                -0.33570742520701136,
                -1.3767520406094216,
                2.4204015749085226,
                -1.01341621822794,
                1.2439473160547196,
                -3.105668265723726
            ]
        }
    ]
}{
    "goal": {
        "global_pose": {
            "orientation": {
                "w": 0.5084816217422485,
                "x": -0.49083608388900757,
                "y": 0.5182115435600281,
                "z": -0.4816462993621826
            },
            "position": {
                "x": 0.5540239810943604,
                "y": 0.030875300988554955,
                "z": 0.16403168439865112
            }
        },
        "name": "move_to_storage_A"
    },
    "id": "RRTstar_move_to_storage_A_42",
    "joint_names": [
        "shoulder_pan_joint",
        "shoulder_lift_joint",
        "elbow_joint",
        "wrist_1_joint",
        "wrist_2_joint",
        "wrist_3_joint"
    ],
    "metrics": {
        "cart_traj_len": 0.3521068658789201,
        "distance_elbow_joint": 0.44786724270332323,
        "distance_shoulder_lift_joint": 0.2344928446096095,
        "distance_shoulder_pan_joint": 0.45979198722502296,
        "distance_wrist_1_joint": 0.23543777340098337,
        "distance_wrist_2_joint": 1.0994275953573869,
        "distance_wrist_3_joint": 0.09280530583663937,
        "smoothness": 4.440892098500626e-16,
        "time": 5.000460619,
        "traj_len": 1.6030666702083747,
        "weighted_distance": 2.022448696398654
    },
    "planner": "RRTstar",
    "start": {
        "state": {
            "elbow_joint": 1.97154746011099,
            "shoulder_lift_joint": -1.13948474672311,
            "shoulder_pan_joint": 0.12281154466712228,
            "wrist_1_joint": -0.7804688027058302,
            "wrist_2_joint": 0.12958655903071145,
            "wrist_3_joint": 3.0906928834467795
        }
    },
    "waypoints": [
        {
            "positions": [
                0.12281154466712228,
                -1.13948474672311,
                1.97154746011099,
                -0.7804688027058302,
                0.12958655903071145,
                3.0906928834467795
            ]
        },
        {
            "positions": [
                0.05712697506354758,
                -1.1729837245244827,
                2.035528494782893,
                -0.8141027703345421,
                0.2866476440817667,
                3.103950784280585
            ]
        },
        {
            "positions": [
                -0.008557594540027122,
                -1.2064827023258555,
                2.0995095294547967,
                -0.847736737963254,
                0.443708729132822,
                3.1172086851143908
            ]
        },
        {
            "positions": [
                -0.07424216414360184,
                -1.2399816801272283,
                2.1634905641267,
                -0.881370705591966,
                0.6007698141838772,
                3.1304665859481964
            ]
        },
        {
            "positions": [
                -0.1399267337471765,
                -1.273480657928601,
                2.227471598798603,
                -0.9150046732206778,
                0.7578308992349325,
                3.143724486782002
            ]
        },
        {
            "positions": [
                -0.20561130335075123,
                -1.3069796357299739,
                2.2914526334705068,
                -0.9486386408493898,
                0.9148919842859878,
                3.1569823876158076
            ]
        },
        {
            "positions": [
                -0.27129587295432595,
                -1.3404786135313467,
                2.35543366814241,
                -0.9822726084781016,
                1.071953069337043,
                3.1702402884496133
            ]
        },
        {
            "positions": [
                -0.33698044255790066,
                -1.3739775913327195,
                2.419414702814313,
                -1.0159065761068136,
                1.2290141543880984,
                3.183498189283419
            ]
        }
    ]
}{
    "goal": {
        "global_pose": {
            "orientation": {
                "w": 0.5084816217422485,
                "x": -0.49083608388900757,
                "y": 0.5182115435600281,
                "z": -0.4816462993621826
            },
            "position": {
                "x": 0.5540239810943604,
                "y": 0.030875300988554955,
                "z": 0.16403168439865112
            }
        },
        "name": "move_to_storage_A"
    },
    "id": "RRTstar_move_to_storage_A_42",
    "joint_names": [
        "shoulder_pan_joint",
        "shoulder_lift_joint",
        "elbow_joint",
        "wrist_1_joint",
        "wrist_2_joint",
        "wrist_3_joint"
    ],
    "metrics": {
        "cart_traj_len": 0.352638392586061,
        "distance_elbow_joint": 0.44716856244985514,
        "distance_shoulder_lift_joint": 0.2339310725214654,
        "distance_shoulder_pan_joint": 0.46231518379482606,
        "distance_wrist_1_joint": 0.23701839701102956,
        "distance_wrist_2_joint": 1.0917817603563054,
        "distance_wrist_3_joint": 0.10026733299182711,
        "smoothness": 4.440892133664971e-16,
        "time": 5.000481254,
        "traj_len": 1.6038959782745603,
        "weighted_distance": 2.0252943323073556
    },
    "planner": "RRTstar",
    "start": {
        "state": {
            "elbow_joint": 1.9715472970024885,
            "shoulder_lift_joint": -1.1394870060712896,
            "shoulder_pan_joint": 0.12281152778156021,
            "wrist_1_joint": -0.780463741449964,
            "wrist_2_joint": 0.12958659822042276,
            "wrist_3_joint": 3.090690232415272
        }
    },
    "waypoints": [
        {
            "positions": [
                0.12281152778156021,
                -1.1394870060712896,
                1.9715472970024885,
                -0.780463741449964,
                0.12958659822042276,
                3.090690232415272
            ]
        },
        {
            "positions": [
                0.056766501525156485,
                -1.1729057307172133,
                2.0354285202096105,
                -0.8143235124515397,
                0.2855554211284664,
                3.10501413712839
            ]
        },
        {
            "positions": [
                -0.00927852473124724,
                -1.206324455363137,
                2.099309743416733,
                -0.8481832834531153,
                0.44152424403651,
                3.119338041841508
            ]
        },
        {
            "positions": [
                -0.07532355098765095,
                -1.2397431800090606,
                2.163190966623855,
                -0.8820430544546909,
                0.5974930669445536,
                3.1336619465546263
            ]
        },
        {
            "positions": [
                -0.1413685772440547,
                -1.273161904654984,
                2.2270721898309773,
                -0.9159028254562666,
                0.7534618898525972,
                3.1479858512677446
            ]
        },
        {
            "positions": [
                -0.20741360350045843,
                -1.3065806293009077,
                2.2909534130380993,
                -0.9497625964578422,
                0.9094307127606409,
                3.162309755980863
            ]
        },
        {
            "positions": [
                -0.2734586297568621,
                -1.3399993539468313,
                2.3548346362452213,
                -0.9836223674594179,
                1.0653995356686845,
                3.1766336606939807
            ]
        },
        {
            "positions": [
                -0.3395036560132658,
                -1.373418078592755,
                2.4187158594523437,
                -1.0174821384609936,
                1.221368358576728,
                3.190957565407099
            ]
        }
    ]
}