{
    "goal": {
        "global_pose": {
            "orientation": {
                "w": 0.5084816217422485,
                "x": -0.49083608388900757,
                "y": 0.5182115435600281,
                "z": -0.4816462993621826
            },
            "position": {
                "x": 0.5540239810943604,
                "y": 0.030875300988554955,
                "z": 0.16403168439865112
            }
        },
        "name": "move_to_storage_A"
    },
    "id": "RRTstar_move_to_storage_A_62",
    "joint_names": [
        "shoulder_pan_joint",
        "shoulder_lift_joint",
        "elbow_joint",
        "wrist_1_joint",
        "wrist_2_joint",
        "wrist_3_joint"
    ],
    "metrics": {
        "cart_traj_len": 0.3532320878022491,
        "distance_elbow_joint": 0.45045466701649217,
        "distance_shoulder_lift_joint": 0.23347450370841316,
        "distance_shoulder_pan_joint": 0.46329617529183514,
        "distance_wrist_1_joint": 0.24387942528890882,
        "distance_wrist_2_joint": 1.092905098093274,
        "distance_wrist_3_joint": 0.08762662652217701,
        "smoothness": 4.440892098500626e-16,
        "time": 5.000337933,
        "traj_len": 1.6036322820151445,
        "weighted_distance": 2.0208103009307026
    },
    "planner": "RRTstar",
    "start": {
        "state": {
            "elbow_joint": 1.971548259319323,
            "shoulder_lift_joint": -1.1394851275133948,
            "shoulder_pan_joint": 0.1228115487234821,
            "wrist_1_joint": -0.7804723859257726,
            "wrist_2_joint": 0.12958671773740124,
            "wrist_3_joint": -3.192489227718131
        }
    },
    "waypoints": [
        {
            "positions": [
                0.1228115487234821,
                -1.1394851275133948,
                1.971548259319323,
                -0.7804723859257726,
                0.12958671773740124,
                -3.192489227718131
            ]
        },
        {
            "positions": [
                0.056626380824648506,
                -1.1728386280431682,
                2.035898926035965,
                -0.8153123038241882,
                0.2857160174650118,
                -3.179971138214963
            ]
        },
        {
            "positions": [
                -0.009558787074185088,
                -1.2061921285729413,
                2.1002495927526064,
                -0.8501522217226037,
                0.4418453171926223,
                -3.1674530487117947
            ]
        },
        {
            "positions": [
                -0.07574395497301867,
                -1.2395456291027147,
                2.1646002594692484,
                -0.8849921396210192,
                0.5979746169202329,
                -3.1549349592086267
            ]
        },
        {
            "positions": [
                -0.14192912287185228,
                -1.272899129632488,
                2.22895092618589,
                -0.9198320575194348,
                0.7541039166478435,
                -3.1424168697054586
            ]
        },
        {
            "positions": [
                -0.20811429077068588,
                -1.3062526301622615,
                2.2933015929025315,
                -0.9546719754178503,
                0.9102332163754541,
                -3.1298987802022906
            ]
        },
        {
            "positions": [
                -0.27429945866951944,
                -1.3396061306920346,
                2.3576522596191736,
                -0.9895118933162659,
                1.0663625161030645,
                -3.117380690699122
            ]
        },
        {
            "positions": [
                -0.34048462656835304,
                -1.372959631221808,
                2.422002926335815,
                -1.0243518112146814,
                1.2224918158306752,
                -3.104862601195954
            ]
        }
    ]
}{
    "goal": {
        "global_pose": {
            "orientation": {
                "w": 0.5084816217422485,
                "x": -0.49083608388900757,
                "y": 0.5182115435600281,
                "z": -0.4816462993621826
            },
            "position": {
                "x": 0.5540239810943604,
                "y": 0.030875300988554955,
                "z": 0.16403168439865112
            }
        },
        "name": "move_to_storage_A"
    },
    "id": "RRTstar_move_to_storage_A_62",
    "joint_names": [
        "shoulder_pan_joint",
        "shoulder_lift_joint",
        "elbow_joint",
        "wrist_1_joint",
        "wrist_2_joint",
        "wrist_3_joint"
    ],
    "metrics": {
        "cart_traj_len": 0.35208146063804474,
        "distance_elbow_joint": 0.4480844563650215,
        "distance_shoulder_lift_joint": 0.233632688010883,
        "distance_shoulder_pan_joint": 0.46098058317395063,
        "distance_wrist_1_joint": 0.2366434563090294,
        "distance_wrist_2_joint": 1.0937872036183804,
        "distance_wrist_3_joint": 0.09760657028044362,
        "smoothness": 4.440892133664971e-16,
        "time": 5.000732709,
        "traj_len": 1.6033511648287497,
        "weighted_distance": 2.0239512736837333
    },
    "planner": "RRTstar",
    "start": {
        "state": {
            "elbow_joint": 1.97154746011099,
            "shoulder_lift_joint": -1.13948474672311,
            "shoulder_pan_joint": 0.12281154466712228,
            "wrist_1_joint": -0.7804688027058302,
            "wrist_2_joint": 0.12958655903071145,
            "wrist_3_joint": 3.0906928834467795
        }
    },
    "waypoints": [
        {
            "positions": [
                0.12281154466712228,
                -1.13948474672311,
                1.97154746011099,
                -0.7804688027058302,
                0.12958655903071145,
                3.0906928834467795
            ]
        },
        {
            "positions": [
                0.05695717564227219,
                -1.172860845010379,
                2.035559525305993,
                -0.8142750107499772,
                0.28584187383333726,
                3.1046366792011284
            ]
        },
        {
            "positions": [
                -0.008897193382577898,
                -1.2062369432976479,
                2.099571590500996,
                -0.8480812187941242,
                0.44209718863596303,
                3.1185804749554777
            ]
        },
        {
            "positions": [
                -0.07475156240742799,
                -1.239613041584917,
                2.1635836556959993,
                -0.8818874268382714,
                0.5983525034385888,
                3.1325242707098266
            ]
        },
        {
            "positions": [
                -0.14060593143227806,
                -1.272989139872186,
                2.227595720891002,
                -0.9156936348824184,
                0.7546078182412146,
                3.146468066464176
            ]
        },
        {
            "positions": [
                -0.20646030045712815,
                -1.306365238159455,
                2.291607786086005,
                -0.9494998429265655,
                0.9108631330438404,
                3.160411862218525
            ]
        },
        {
            "positions": [
                -0.27231466948197824,
                -1.3397413364467239,
                2.3556198512810083,
                -0.9833060509707126,
                1.0671184478464661,
                3.1743556579728742
            ]
        },
        {
            "positions": [
                -0.33816903850682833,
                -1.373117434733993,
                2.4196319164760114,
                -1.0171122590148596,
                1.223373762649092,
                3.188299453727223
            ]
        }
    ]
}{
    "goal": {
        "global_pose": {
            "orientation": {
                "w": 0.5084816217422485,
                "x": -0.49083608388900757,
                "y": 0.5182115435600281,
                "z": -0.4816462993621826
            },
            "position": {
                "x": 0.5540239810943604,
                "y": 0.030875300988554955,
                "z": 0.16403168439865112
            }
        },
        "name": "move_to_storage_A"
    },
    "id": "RRTstar_move_to_storage_A_62",
    "joint_names": [
        "shoulder_pan_joint",
        "shoulder_lift_joint",
        "elbow_joint",
        "wrist_1_joint",
        "wrist_2_joint",
        "wrist_3_joint"
    ],
    "metrics": {
        "cart_traj_len": 0.352337030206467,
        "distance_elbow_joint": 0.4489314551615555,
        "distance_shoulder_lift_joint": 0.23310803692943138,
        "distance_shoulder_pan_joint": 0.46127043528990513,
        "distance_wrist_1_joint": 0.23921743210856783,
        "distance_wrist_2_joint": 1.0944635433744567,
        "distance_wrist_3_joint": 0.09804608487642019,
        "smoothness": 0.0,
        "time": 5.026783076,
        "traj_len": 1.604692178500393,
        "weighted_distance": 2.0260331026358385
    },
    "planner": "RRTstar",
    "start": {
        "state": {
            "elbow_joint": 1.9715472970024885,
            "shoulder_lift_joint": -1.1394870060712896,
            "shoulder_pan_joint": 0.12281152778156021,
            "wrist_1_joint": -0.780463741449964,
            "wrist_2_joint": 0.12958659822042276,
            "wrist_3_joint": 3.090690232415272
        }
    },
    "waypoints": [
        {
            "positions": [
                0.12281152778156021,
                -1.1394870060712896,
                1.9715472970024885,
                -0.780463741449964,
                0.12958659822042276,
                3.090690232415272
            ]
        },
        {
            "positions": [
                0.05691575131157377,
                -1.1727881542040655,
                2.035680362025568,
                -0.8146376603226165,
                0.28593853298820227,
                3.1046968159690462
            ]
        },
        {
            "positions": [
                -0.008980025158412674,
                -1.2060893023368415,
                2.0998134270486473,
                -0.8488115791952691,
                0.4422904677559818,
                3.1187033995228206
            ]
        },
        {
            "positions": [
                -0.0748758016283991,
                -1.2393904504696174,
                2.1639464920717266,
                -0.8829854980679216,
                0.5986424025237613,
                3.132709983076595
            ]
        },
        {
            "positions": [
                -0.14077157809838556,
                -1.2726915986023932,
                2.228079557094806,
                -0.9171594169405741,
                0.7549943372915409,
                3.146716566630369
            ]
        },
        {
            "positions": [
                -0.206667354568372,
                -1.305992746735169,
                2.2922126221178853,
                -0.9513333358132268,
                0.9113462720593204,
                3.1607231501841433
            ]
        },
        {
            "positions": [
                -0.2725631310383584,
                -1.3392938948679451,
                2.3563456871409647,
                -0.9855072546858793,
                1.0676982068271,
                3.1747297337379177
            ]
        },
        {
            "positions": [
                -0.3384589075083449,
                -1.372595043000721,
                2.420478752164044,
                -1.0196811735585318,
                1.2240501415948795,
                3.188736317291692
            ]
        }
    ]
}