{
    "goal": {
        "global_pose": {
            "orientation": {
                "w": 0.7047431493862688,
                "x": -0.7094548369677653,
                "y": 0.0024358444001904,
                "z": -0.0022348060817251984
            },
            "position": {
                "x": -0.39052492380142206,
                "y": 0.3671506643295288,
                "z": 0.19426114857196808
            }
        },
        "name": "move_to_magneteinheit_D"
    },
    "id": "RRTstar_move_to_magneteinheit_D_95",
    "joint_names": [
        "shoulder_pan_joint",
        "shoulder_lift_joint",
        "elbow_joint",
        "wrist_1_joint",
        "wrist_2_joint",
        "wrist_3_joint"
    ],
    "metrics": {
        "cart_traj_len": 4.417518016988649,
        "distance_elbow_joint": 3.1327925650399733,
        "distance_shoulder_lift_joint": 1.63258865586647,
        "distance_shoulder_pan_joint": 3.0617635211147514,
        "distance_wrist_1_joint": 1.5737994035534881,
        "distance_wrist_2_joint": 0.3269200828494391,
        "distance_wrist_3_joint": 3.2871274948531926,
        "smoothness": 0.2038521118992104,
        "time": 5.03787665,
        "traj_len": 3.607629654395988,
        "weighted_distance": 4.635727148936467
    },
    "planner": "RRTstar",
    "start": {
        "state": {
            "elbow_joint": 0.749534889911806,
            "shoulder_lift_joint": -0.6476975780787326,
            "shoulder_pan_joint": -2.711696901376241,
            "wrist_1_joint": -0.07506478083263063,
            "wrist_2_joint": 0.43296659715538205,
            "wrist_3_joint": -3.14703540197715
        }
    },
    "waypoints": [
        {
            "positions": [
                -2.711696901376241,
                -0.6476975780787326,
                0.749534889911806,
                -0.07506478083263063,
                0.43296659715538205,
                -3.14703540197715
            ]
        },
        {
            "positions": [
                -2.728635328288731,
                -0.7805467004634421,
                0.6866925705149872,
                0.010938645536664834,
                0.4700832296657572,
                -3.2064103774489654
            ]
        },
        {
            "positions": [
                -2.602854116151281,
                -0.8560999139042995,
                0.6139754863293323,
                0.06009640032895472,
                0.47058686401035654,
                -3.156917890394069
            ]
        },
        {
            "positions": [
                -2.477072904013831,
                -0.9316531273451568,
                0.5412584021436774,
                0.1092541551212446,
                0.47109049835495587,
                -3.1074254033391724
            ]
        },
        {
            "positions": [
                -2.351291691876381,
                -1.0072063407860141,
                0.46854131795802245,
                0.1584119099135345,
                0.4715941326995552,
                -3.057932916284276
            ]
        },
        {
            "positions": [
                -2.2255104797389307,
                -1.0827595542268715,
                0.3958242337723676,
                0.20756966470582439,
                0.4720977670441545,
                -3.0084404292293794
            ]
        },
        {
            "positions": [
                -2.099729267601481,
                -1.158312767667729,
                0.32310714958671266,
                0.25672741949811423,
                0.47260140138875384,
                -2.958947942174483
            ]
        },
        {
            "positions": [
                -1.9739480554640307,
                -1.2338659811085861,
                0.25039006540105774,
                0.3058851742904041,
                0.4731050357333532,
                -2.909455455119587
            ]
        },
        {
            "positions": [
                -1.8481668433265808,
                -1.3094191945494433,
                0.17767298121540287,
                0.355042929082694,
                0.47360867007795254,
                -2.85996296806469
            ]
        },
        {
            "positions": [
                -1.7223856311891306,
                -1.384972407990301,
                0.10495589702974795,
                0.4042006838749839,
                0.47411230442255187,
                -2.810470481009794
            ]
        },
        {
            "positions": [
                -1.5966044190516806,
                -1.4605256214311582,
                0.03223881284409302,
                0.45335843866727377,
                0.4746159387671512,
                -2.760977993954897
            ]
        },
        {
            "positions": [
                -1.4708232069142306,
                -1.5360788348720156,
                -0.0404782713415619,
                0.5025161934595637,
                0.4751195731117505,
                -2.711485506900001
            ]
        },
        {
            "positions": [
                -1.390014685765022,
                -1.5730473274469996,
                -0.1446305748038088,
                0.5482757996109054,
                0.4637222051972879,
                -2.6025550375900246
            ]
        },
        {
            "positions": [
                -1.3092061646158135,
                -1.6100158200219838,
                -0.24878287826605575,
                0.5940354057622471,
                0.4523248372828253,
                -2.4936245682800484
            ]
        },
        {
            "positions": [
                -1.2283976434666048,
                -1.6469843125969679,
                -0.3529351817283027,
                0.6397950119135889,
                0.4409274693683627,
                -2.3846940989700722
            ]
        },
        {
            "positions": [
                -1.1475891223173962,
                -1.6839528051719521,
                -0.4570874851905496,
                0.6855546180649306,
                0.42953010145390014,
                -2.275763629660096
            ]
        },
        {
            "positions": [
                -1.0667806011681877,
                -1.7209212977469361,
                -0.5612397886527966,
                0.7313142242162723,
                0.41813273353943753,
                -2.1668331603501203
            ]
        },
        {
            "positions": [
                -0.9859720800189791,
                -1.7578897903219204,
                -0.6653920921150435,
                0.7770738303676141,
                0.4067353656249749,
                -2.057902691040144
            ]
        },
        {
            "positions": [
                -0.9051635588697705,
                -1.7948582828969044,
                -0.7695443955772904,
                0.8228334365189558,
                0.3953379977105123,
                -1.948972221730168
            ]
        },
        {
            "positions": [
                -0.8243550377205618,
                -1.8318267754718884,
                -0.8736966990395373,
                0.8685930426702976,
                0.3839406297960497,
                -1.8400417524201917
            ]
        },
        {
            "positions": [
                -0.7435465165713533,
                -1.8687952680468727,
                -0.9778490025017842,
                0.9143526488216394,
                0.37254326188158715,
                -1.7311112831102156
            ]
        },
        {
            "positions": [
                -0.6627379954221447,
                -1.9057637606218567,
                -1.0820013059640312,
                0.960112254972981,
                0.36114589396712454,
                -1.6221808138002394
            ]
        },
        {
            "positions": [
                -0.5819294742729361,
                -1.942732253196841,
                -1.1861536094262781,
                1.005871861124323,
                0.34974852605266193,
                -1.5132503444902632
            ]
        },
        {
            "positions": [
                -0.5011209531237275,
                -1.979700745771825,
                -1.290305912888525,
                1.0516314672756644,
                0.3383511581381993,
                -1.4043198751802872
            ]
        },
        {
            "positions": [
                -0.42031243197451884,
                -2.0166692383468092,
                -1.3944582163507722,
                1.0973910734270063,
                0.3269537902237367,
                -1.295389405870311
            ]
        },
        {
            "positions": [
                -0.3395039108253104,
                -2.0536377309217935,
                -1.4986105198130188,
                1.1431506795783482,
                0.31555642230927416,
                -1.1864589365603349
            ]
        },
        {
            "positions": [
                -0.25869538967610173,
                -2.0906062234967773,
                -1.602762823275266,
                1.1889102857296898,
                0.3041590543948115,
                -1.0775284672503587
            ]
        },
        {
            "positions": [
                -0.17788686852689306,
                -2.1275747160717615,
                -1.7069151267375127,
                1.2346698918810315,
                0.29276168648034895,
                -0.9685979979403827
            ]
        },
        {
            "positions": [
                -0.09707834737768439,
                -2.1645432086467453,
                -1.8110674301997598,
                1.2804294980323734,
                0.2813643185658863,
                -0.8596675286304065
            ]
        },
        {
            "positions": [
                -0.016269826228475948,
                -2.2015117012217296,
                -1.9152197336620065,
                1.3261891041837148,
                0.26996695065142373,
                -0.7507370593204303
            ]
        },
        {
            "positions": [
                0.06453869492073272,
                -2.238480193796714,
                -2.0193720371242536,
                1.3719487103350567,
                0.2585695827369611,
                -0.6418065900104541
            ]
        },
        {
            "positions": [
                0.045130719869554844,
                -2.2502293720539406,
                -2.117949989031816,
                1.4084093514974436,
                0.2441841415482773,
                -0.5044079234652853
            ]
        },
        {
            "positions": [
                0.025722744818376962,
                -2.261978550311168,
                -2.2165279409393785,
                1.4448699926598305,
                0.22979870035959346,
                -0.36700925692011643
            ]
        },
        {
            "positions": [
                0.00631476976719908,
                -2.2737277285683946,
                -2.315105892846941,
                1.4813306338222174,
                0.21541325917090964,
                -0.2296105903749476
            ]
        },
        {
            "positions": [
                -0.06622040992252581,
                -2.2761871680846975,
                -2.3406628112024004,
                1.4878571296592074,
                0.2060154618138235,
                -0.13550331575968783
            ]
        },
        {
            "positions": [
                -0.1387555896122507,
                -2.278646607601001,
                -2.3662197295578604,
                1.4943836254961975,
                0.19661766445673734,
                -0.04139604114442806
            ]
        },
        {
            "positions": [
                -0.18711237607206732,
                -2.2802862339452026,
                -2.383257675128167,
                1.4987346227208576,
                0.19035246621867988,
                0.021342141932411792
            ]
        }
    ]
}