{
    "goal": {
        "global_pose": {
            "orientation": {
                "w": 0.7031023502349854,
                "x": -0.7110244035720825,
                "y": 0.007748599164187908,
                "z": 0.005598929710686207
            },
            "position": {
                "x": 0.11585023208521307,
                "y": 0.44412534475326537,
                "z": 0.3711530566215515
            }
        },
        "name": "move_to_auspresseinheit_A"
    },
    "id": "RRTstar_move_to_auspresseinheit_A_11",
    "joint_names": [
        "shoulder_pan_joint",
        "shoulder_lift_joint",
        "elbow_joint",
        "wrist_1_joint",
        "wrist_2_joint",
        "wrist_3_joint"
    ],
    "metrics": {
        "cart_traj_len": 0.6884336134714136,
        "distance_elbow_joint": 0.03394000672415931,
        "distance_shoulder_lift_joint": 0.5309551307709024,
        "distance_shoulder_pan_joint": 1.0439714089275483,
        "distance_wrist_1_joint": 0.5774037036802555,
        "distance_wrist_2_joint": 0.5292940097070082,
        "distance_wrist_3_joint": 0.05898887123113017,
        "smoothness": 9.868649107779169e-17,
        "time": 5.000115644,
        "traj_len": 1.665698991727198,
        "weighted_distance": 1.9998071374236386
    },
    "planner": "RRTstar",
    "start": {
        "state": {
            "elbow_joint": 2.4225746658250005,
            "shoulder_lift_joint": -1.3736534386056498,
            "shoulder_pan_joint": -0.3378633547517467,
            "wrist_1_joint": -1.0288598680537169,
            "wrist_2_joint": 1.233022673432363,
            "wrist_3_joint": -3.0940220416140027
        }
    },
    "waypoints": [
        {
            "positions": [
                -0.3378633547517467,
                -1.3736534386056498,
                2.4225746658250005,
                -1.0288598680537169,
                1.233022673432363,
                -3.0940220416140027
            ]
        },
        {
            "positions": [
                -0.2073669286358032,
                -1.4400228299520126,
                2.4183321649844807,
                -0.9566844050936849,
                1.166860922218987,
                -3.101395650517894
            ]
        },
        {
            "positions": [
                -0.07687050251985966,
                -1.5063922212983754,
                2.414089664143961,
                -0.8845089421336529,
                1.100699171005611,
                -3.108769259421785
            ]
        },
        {
            "positions": [
                0.05362592359608387,
                -1.5727616126447381,
                2.4098471633034406,
                -0.8123334791736211,
                1.034537419792235,
                -3.1161428683256767
            ]
        },
        {
            "positions": [
                0.1841223497120274,
                -1.6391310039911011,
                2.405604662462921,
                -0.7401580162135891,
                0.9683756685788589,
                -3.123516477229568
            ]
        },
        {
            "positions": [
                0.314618775827971,
                -1.705500395337464,
                2.401362161622401,
                -0.6679825532535572,
                0.9022139173654828,
                -3.130890086133459
            ]
        },
        {
            "positions": [
                0.44511520194391446,
                -1.7718697866838267,
                2.3971196607818808,
                -0.5958070902935253,
                0.8360521661521069,
                -3.1382636950373506
            ]
        },
        {
            "positions": [
                0.575611628059858,
                -1.8382391780301894,
                2.392877159941361,
                -0.5236316273334933,
                0.7698904149387309,
                -3.1456373039412417
            ]
        },
        {
            "positions": [
                0.7061080541758015,
                -1.9046085693765522,
                2.388634659100841,
                -0.4514561643734614,
                0.7037286637253548,
                -3.153010912845133
            ]
        }
    ]
}