{
    "goal": {
        "global_pose": {
            "orientation": {
                "w": 0.7031023502349854,
                "x": -0.7110244035720825,
                "y": 0.007748599164187908,
                "z": 0.005598929710686207
            },
            "position": {
                "x": 0.11585023208521307,
                "y": 0.44412534475326537,
                "z": 0.3711530566215515
            }
        },
        "name": "move_to_auspresseinheit_A"
    },
    "id": "RRTstar_move_to_auspresseinheit_A_17",
    "joint_names": [
        "shoulder_pan_joint",
        "shoulder_lift_joint",
        "elbow_joint",
        "wrist_1_joint",
        "wrist_2_joint",
        "wrist_3_joint"
    ],
    "metrics": {
        "cart_traj_len": 0.6673940389105489,
        "distance_elbow_joint": 0.2882692689138109,
        "distance_shoulder_lift_joint": 0.5368323461834663,
        "distance_shoulder_pan_joint": 1.0475819689129202,
        "distance_wrist_1_joint": 0.5450999144409967,
        "distance_wrist_2_joint": 0.5155891126251009,
        "distance_wrist_3_joint": 0.7408824200566086,
        "smoothness": 0.8180768101564894,
        "time": 5.006514932,
        "traj_len": 1.9168346384424775,
        "weighted_distance": 2.4933328895902007
    },
    "planner": "RRTstar",
    "start": {
        "state": {
            "elbow_joint": 2.4225746658250005,
            "shoulder_lift_joint": -1.3736534386056498,
            "shoulder_pan_joint": -0.3378633547517467,
            "wrist_1_joint": -1.0288598680537169,
            "wrist_2_joint": 1.233022673432363,
            "wrist_3_joint": -3.0940220416140027
        }
    },
    "waypoints": [
        {
            "positions": [
                -0.3378633547517467,
                -1.3736534386056498,
                2.4225746658250005,
                -1.0288598680537169,
                1.233022673432363,
                -3.0940220416140027
            ]
        },
        {
            "positions": [
                -0.2329024699350959,
                -1.437462380933781,
                2.4488586130271734,
                -1.0039249869295572,
                1.1778057488057496,
                -3.022089046836487
            ]
        },
        {
            "positions": [
                -0.12794158511844506,
                -1.5012713232619121,
                2.475142560229347,
                -0.9789901058053976,
                1.1225888241791362,
                -2.9501560520589716
            ]
        },
        {
            "positions": [
                -0.022980700301794277,
                -1.565080265590043,
                2.50142650743152,
                -0.954055224681238,
                1.067371899552523,
                -2.8782230572814558
            ]
        },
        {
            "positions": [
                0.08198018451485661,
                -1.6288892079181743,
                2.5277104546336933,
                -0.9291203435570784,
                1.0121549749259096,
                -2.8062900625039404
            ]
        },
        {
            "positions": [
                0.18694106933150742,
                -1.6926981502463054,
                2.5539944018358662,
                -0.9041854624329188,
                0.9569380502992961,
                -2.7343570677264246
            ]
        },
        {
            "positions": [
                0.2914965782974407,
                -1.7362556771548676,
                2.522624495255277,
                -0.820100360668879,
                0.9090371524008893,
                -2.810600556960231
            ]
        },
        {
            "positions": [
                0.39605208726337393,
                -1.7798132040634298,
                2.491254588674688,
                -0.7360152589048393,
                0.8611362545024825,
                -2.886844046194037
            ]
        },
        {
            "positions": [
                0.5006075962293072,
                -1.8233707309719918,
                2.459884682094099,
                -0.6519301571407996,
                0.8132353566040758,
                -2.9630875354278428
            ]
        },
        {
            "positions": [
                0.6051631051952404,
                -1.866928257880554,
                2.42851477551351,
                -0.5678450553767599,
                0.765334458705669,
                -3.039331024661649
            ]
        },
        {
            "positions": [
                0.7097186141611737,
                -1.9104857847891161,
                2.397144868932921,
                -0.48375995361272023,
                0.7174335608072622,
                -3.115574513895455
            ]
        }
    ]
}