{
    "goal": {
        "global_pose": {
            "orientation": {
                "w": 0.005598929693374612,
                "x": 0.007748599140229565,
                "y": 0.7110244013736278,
                "z": -0.7031023480610252
            },
            "position": {
                "x": -0.8858502320852131,
                "y": -0.7141253447532654,
                "z": 0.3711530566215515
            }
        },
        "name": "move_to_auspresseinheit_C"
    },
    "id": "RRTstar_move_to_auspresseinheit_C_140",
    "joint_names": [
        "shoulder_pan_joint",
        "shoulder_lift_joint",
        "elbow_joint",
        "wrist_1_joint",
        "wrist_2_joint",
        "wrist_3_joint"
    ],
    "metrics": {
        "cart_traj_len": 0.493443898942016,
        "distance_elbow_joint": 0.99643795249478,
        "distance_shoulder_lift_joint": 0.32250029275703374,
        "distance_shoulder_pan_joint": 0.25615121843288646,
        "distance_wrist_1_joint": 0.6657711003187152,
        "distance_wrist_2_joint": 1.3166414561752966,
        "distance_wrist_3_joint": 0.03962331441955458,
        "smoothness": 1.6148698667872622e-16,
        "time": 5.0004872350000005,
        "traj_len": 1.8966089039647227,
        "weighted_distance": 2.3788199847679494
    },
    "planner": "RRTstar",
    "start": {
        "state": {
            "elbow_joint": 1.7527959577737207,
            "shoulder_lift_joint": -0.9740617694225068,
            "shoulder_pan_joint": -2.967991417825858,
            "wrist_1_joint": -0.759517768980727,
            "wrist_2_joint": 1.7443932448377408,
            "wrist_3_joint": -3.0840537646736568
        }
    },
    "waypoints": [
        {
            "positions": [
                -2.967991417825858,
                -0.9740617694225068,
                1.7527959577737207,
                -0.759517768980727,
                1.7443932448377408,
                -3.0840537646736568
            ]
        },
        {
            "positions": [
                -2.9423762959825694,
                -0.9418117401468034,
                1.6531521625242427,
                -0.6929406589488555,
                1.6127290992202112,
                -3.088016096115612
            ]
        },
        {
            "positions": [
                -2.9167611741392805,
                -0.9095617108711,
                1.5535083672747647,
                -0.6263635489169839,
                1.4810649536026814,
                -3.0919784275575677
            ]
        },
        {
            "positions": [
                -2.891146052295992,
                -0.8773116815953966,
                1.4538645720252867,
                -0.5597864388851124,
                1.3494008079851518,
                -3.0959407589995234
            ]
        },
        {
            "positions": [
                -2.8655309304527035,
                -0.8450616523196932,
                1.3542207767758088,
                -0.49320932885324087,
                1.217736662367622,
                -3.0999030904414786
            ]
        },
        {
            "positions": [
                -2.8399158086094145,
                -0.8128116230439899,
                1.2545769815263306,
                -0.42663221882136937,
                1.0860725167500926,
                -3.103865421883434
            ]
        },
        {
            "positions": [
                -2.814300686766126,
                -0.7805615937682866,
                1.1549331862768528,
                -0.36005510878949787,
                0.9544083711325629,
                -3.1078277533253895
            ]
        },
        {
            "positions": [
                -2.7886855649228375,
                -0.7483115644925832,
                1.0552893910273746,
                -0.29347799875762637,
                0.8227442255150332,
                -3.1117900847673448
            ]
        },
        {
            "positions": [
                -2.763070443079549,
                -0.7160615352168798,
                0.9556455957778967,
                -0.22690088872575476,
                0.6910800798975034,
                -3.1157524162093004
            ]
        },
        {
            "positions": [
                -2.73745532123626,
                -0.6838115059411765,
                0.8560018005284187,
                -0.16032377869388326,
                0.5594159342799738,
                -3.1197147476512557
            ]
        },
        {
            "positions": [
                -2.7118401993929715,
                -0.651561476665473,
                0.7563580052789407,
                -0.09374666866201181,
                0.4277517886624443,
                -3.1236770790932114
            ]
        }
    ]
}