{
    "goal": {
        "global_pose": {
            "orientation": {
                "w": 0.005598929693374612,
                "x": 0.007748599140229565,
                "y": 0.7110244013736278,
                "z": -0.7031023480610252
            },
            "position": {
                "x": -0.8858502320852131,
                "y": -0.7141253447532654,
                "z": 0.3711530566215515
            }
        },
        "name": "move_to_auspresseinheit_C"
    },
    "id": "RRTstar_move_to_auspresseinheit_C_56",
    "joint_names": [
        "shoulder_pan_joint",
        "shoulder_lift_joint",
        "elbow_joint",
        "wrist_1_joint",
        "wrist_2_joint",
        "wrist_3_joint"
    ],
    "metrics": {
        "cart_traj_len": 0.49294178772868025,
        "distance_elbow_joint": 0.9956517843278321,
        "distance_shoulder_lift_joint": 0.32327887974739933,
        "distance_shoulder_pan_joint": 0.2556075053768301,
        "distance_wrist_1_joint": 0.6578439573666858,
        "distance_wrist_2_joint": 1.320013138492056,
        "distance_wrist_3_joint": 0.034431635513973546,
        "smoothness": 8.074349308362242e-16,
        "time": 5.001515038,
        "traj_len": 1.8938919981943998,
        "weighted_distance": 2.3735094833835118
    },
    "planner": "RRTstar",
    "start": {
        "state": {
            "elbow_joint": 1.7527959577737207,
            "shoulder_lift_joint": -0.9740617694225068,
            "shoulder_pan_joint": -2.967991417825858,
            "wrist_1_joint": -0.759517768980727,
            "wrist_2_joint": 1.7443932448377408,
            "wrist_3_joint": -3.0840537646736568
        }
    },
    "waypoints": [
        {
            "positions": [
                -2.967991417825858,
                -0.9740617694225068,
                1.7527959577737207,
                -0.759517768980727,
                1.7443932448377408,
                -3.0840537646736568
            ]
        },
        {
            "positions": [
                -2.942430667288175,
                -0.9417338814477668,
                1.6532307793409375,
                -0.6937333732440584,
                1.6123919309885353,
                -3.087496928225054
            ]
        },
        {
            "positions": [
                -2.916869916750492,
                -0.9094059934730269,
                1.5536656009081542,
                -0.6279489775073899,
                1.4803906171393297,
                -3.0909400917764516
            ]
        },
        {
            "positions": [
                -2.891309166212809,
                -0.877078105498287,
                1.454100422475371,
                -0.5621645817707213,
                1.3483893032901242,
                -3.0943832553278487
            ]
        },
        {
            "positions": [
                -2.865748415675126,
                -0.8447502175235471,
                1.3545352440425877,
                -0.49638018603405265,
                1.2163879894409184,
                -3.0978264188792464
            ]
        },
        {
            "positions": [
                -2.840187665137443,
                -0.8124223295488071,
                1.2549700656098046,
                -0.4305957902973841,
                1.0843866755917129,
                -3.1012695824306435
            ]
        },
        {
            "positions": [
                -2.81462691459976,
                -0.7800944415740672,
                1.1554048871770215,
                -0.36481139456071554,
                0.9523853617425073,
                -3.1047127459820407
            ]
        },
        {
            "positions": [
                -2.789066164062077,
                -0.7477665535993272,
                1.0558397087442382,
                -0.299026998824047,
                0.8203840478933018,
                -3.1081559095334383
            ]
        },
        {
            "positions": [
                -2.7635054135243937,
                -0.7154386656245872,
                0.9562745303114549,
                -0.23324260308737832,
                0.688382734044096,
                -3.1115990730848355
            ]
        },
        {
            "positions": [
                -2.737944662986711,
                -0.6831107776498473,
                0.8567093518786718,
                -0.16745820735070982,
                0.5563814201948905,
                -3.115042236636233
            ]
        },
        {
            "positions": [
                -2.712383912449028,
                -0.6507828896751074,
                0.7571441734458886,
                -0.10167381161404122,
                0.42438010634568496,
                -3.1184854001876303
            ]
        }
    ]
}