{
    "goal": {
        "global_pose": {
            "orientation": {
                "w": 0.7047431493862688,
                "x": -0.7094548369677653,
                "y": 0.0024358444001904,
                "z": -0.0022348060817251984
            },
            "position": {
                "x": -0.39052492380142206,
                "y": 0.3671506643295288,
                "z": 0.19426114857196808
            }
        },
        "name": "move_to_magneteinheit_D"
    },
    "id": "RRTstar_move_to_magneteinheit_D_38",
    "joint_names": [
        "shoulder_pan_joint",
        "shoulder_lift_joint",
        "elbow_joint",
        "wrist_1_joint",
        "wrist_2_joint",
        "wrist_3_joint"
    ],
    "metrics": {
        "cart_traj_len": 4.035453671560376,
        "distance_elbow_joint": 3.1042492521944154,
        "distance_shoulder_lift_joint": 1.3933719311063903,
        "distance_shoulder_pan_joint": 2.847833106916293,
        "distance_wrist_1_joint": 2.5535063696161613,
        "distance_wrist_2_joint": 2.0388074968084857,
        "distance_wrist_3_joint": 0.178672120682569,
        "smoothness": 0.3706554603357314,
        "time": 5.028727769,
        "traj_len": 3.480867747749736,
        "weighted_distance": 4.13111345585111
    },
    "planner": "RRTstar",
    "start": {
        "state": {
            "elbow_joint": 0.749534889911806,
            "shoulder_lift_joint": -0.6476975780787326,
            "shoulder_pan_joint": -2.711696901376241,
            "wrist_1_joint": -0.07506478083263063,
            "wrist_2_joint": 0.43296659715538205,
            "wrist_3_joint": -3.14703540197715
        }
    },
    "waypoints": [
        {
            "positions": [
                -2.711696901376241,
                -0.6476975780787326,
                0.749534889911806,
                -0.07506478083263063,
                0.43296659715538205,
                -3.14703540197715
            ]
        },
        {
            "positions": [
                -2.74374922072429,
                -0.6359029487495677,
                0.644844658054997,
                -0.14477037148842248,
                0.32367028077898663,
                -3.1607587619141895
            ]
        },
        {
            "positions": [
                -2.7758015400723397,
                -0.6241083194204027,
                0.5401544261981881,
                -0.2144759621442143,
                0.21437396440259127,
                -3.174482121851229
            ]
        },
        {
            "positions": [
                -2.807853859420389,
                -0.6123136900912378,
                0.4354641943413791,
                -0.2841815528000061,
                0.1050776480261959,
                -3.188205481788268
            ]
        },
        {
            "positions": [
                -2.8399061787684383,
                -0.6005190607620728,
                0.33077396248457014,
                -0.35388714345579797,
                -0.004218668350199517,
                -3.2019288417253073
            ]
        },
        {
            "positions": [
                -2.8719584981164874,
                -0.5887244314329079,
                0.22608373062776121,
                -0.42359273411158976,
                -0.11351498472659488,
                -3.2156522016623468
            ]
        },
        {
            "positions": [
                -2.7973675980356045,
                -0.6347921106183129,
                0.11221822103513208,
                -0.528954473127659,
                -0.0760918234480698,
                -3.2146924015781795
            ]
        },
        {
            "positions": [
                -2.722776697954722,
                -0.6808597898037179,
                -0.0016472885574970453,
                -0.6343162121437282,
                -0.038668662169544746,
                -3.2137326014940117
            ]
        },
        {
            "positions": [
                -2.6481857978738392,
                -0.7269274689891227,
                -0.11551279815012616,
                -0.7396779511597975,
                -0.0012455008910196852,
                -3.2127728014098444
            ]
        },
        {
            "positions": [
                -2.5735948977929564,
                -0.7729951481745277,
                -0.2293783077427553,
                -0.8450396901758668,
                0.03617766038750539,
                -3.2118130013256767
            ]
        },
        {
            "positions": [
                -2.499003997712074,
                -0.8190628273599327,
                -0.34324381733538445,
                -0.950401429191936,
                0.07360082166603046,
                -3.2108532012415094
            ]
        },
        {
            "positions": [
                -2.424413097631191,
                -0.8651305065453377,
                -0.45710932692801354,
                -1.0557631682080053,
                0.11102398294455551,
                -3.2098934011573417
            ]
        },
        {
            "positions": [
                -2.349822197550308,
                -0.9111981857307427,
                -0.5709748365206427,
                -1.1611249072240746,
                0.14844714422308058,
                -3.2089336010731744
            ]
        },
        {
            "positions": [
                -2.2752312974694258,
                -0.9572658649161476,
                -0.6848403461132718,
                -1.2664866462401438,
                0.18587030550160566,
                -3.2079738009890066
            ]
        },
        {
            "positions": [
                -2.200640397388543,
                -1.0033335441015527,
                -0.798705855705901,
                -1.371848385256213,
                0.22329346678013073,
                -3.2070140009048393
            ]
        },
        {
            "positions": [
                -2.12604949730766,
                -1.0494012232869576,
                -0.9125713652985301,
                -1.4772101242722822,
                0.2607166280586558,
                -3.2060542008206716
            ]
        },
        {
            "positions": [
                -2.0514585972267776,
                -1.0954689024723625,
                -1.0264368748911594,
                -1.5825718632883516,
                0.2981397893371809,
                -3.2050944007365043
            ]
        },
        {
            "positions": [
                -1.9768676971458947,
                -1.1415365816577676,
                -1.1403023844837883,
                -1.6879336023044207,
                0.3355629506157059,
                -3.2041346006523366
            ]
        },
        {
            "positions": [
                -1.9022767970650118,
                -1.1876042608431727,
                -1.2541678940764176,
                -1.79329534132049,
                0.37298611189423103,
                -3.2031748005681693
            ]
        },
        {
            "positions": [
                -1.8276858969841292,
                -1.2336719400285774,
                -1.3680334036690467,
                -1.8986570803365592,
                0.41040927317275605,
                -3.2022150004840015
            ]
        },
        {
            "positions": [
                -1.7530949969032463,
                -1.2797396192139825,
                -1.4818989132616758,
                -2.0040188193526287,
                0.4478324344512811,
                -3.2012552003998342
            ]
        },
        {
            "positions": [
                -1.6785040968223637,
                -1.3258072983993876,
                -1.5957644228543049,
                -2.1093805583686978,
                0.4852555957298062,
                -3.2002954003156665
            ]
        },
        {
            "positions": [
                -1.603913196741481,
                -1.3718749775847925,
                -1.7096299324469342,
                -2.2147422973847672,
                0.5226787570083313,
                -3.199335600231499
            ]
        },
        {
            "positions": [
                -1.5293222966605984,
                -1.4179426567701974,
                -1.8234954420395633,
                -2.3201040364008363,
                0.5601019182868563,
                -3.1983758001473315
            ]
        },
        {
            "positions": [
                -1.4547313965797155,
                -1.4640103359556025,
                -1.9373609516321926,
                -2.4254657754169058,
                0.5975250795653814,
                -3.197416000063164
            ]
        },
        {
            "positions": [
                -1.2481805034591686,
                -1.5382522861834111,
                -2.013921595959222,
                -2.4149143443293557,
                0.5732478456632122,
                -3.193852567102023
            ]
        },
        {
            "positions": [
                -1.041629610338622,
                -1.6124942364112198,
                -2.090482240286251,
                -2.4043629132418056,
                0.548970611761043,
                -3.190289134140881
            ]
        },
        {
            "positions": [
                -0.8350787172180753,
                -1.6867361866390285,
                -2.16704288461328,
                -2.3938114821542555,
                0.5246933778588739,
                -3.1867257011797396
            ]
        },
        {
            "positions": [
                -0.6285278240975284,
                -1.7609781368668371,
                -2.243603528940309,
                -2.3832600510667055,
                0.5004161439567048,
                -3.183162268218598
            ]
        },
        {
            "positions": [
                -0.4219769309769815,
                -1.8352200870946458,
                -2.3201641732673384,
                -2.3727086199791554,
                0.47613891005453557,
                -3.1795988352574565
            ]
        },
        {
            "positions": [
                -0.3625794452178461,
                -1.813244304894939,
                -2.3288017205211564,
                -2.3351215650806214,
                0.311163989773614,
                -3.161098346609336
            ]
        },
        {
            "positions": [
                -0.3031819594587106,
                -1.791268522695232,
                -2.3374392677749745,
                -2.2975345101820874,
                0.1461890694926924,
                -3.1425978579612153
            ]
        },
        {
            "positions": [
                -0.2437844736995752,
                -1.769292740495525,
                -2.346076815028792,
                -2.2599474552835535,
                -0.018785850788229197,
                -3.124097369313095
            ]
        },
        {
            "positions": [
                -0.18438698794043976,
                -1.7473169582958181,
                -2.35471436228261,
                -2.2223604003850195,
                -0.18376077106915079,
                -3.1055968806649745
            ]
        }
    ]
}