{
    "goal": {
        "global_pose": {
            "orientation": {
                "w": 0.7031023480610252,
                "x": -0.7110244013736278,
                "y": 0.0077485991402295624,
                "z": 0.005598929693374583
            },
            "position": {
                "x": -0.8841497679147869,
                "y": 0.44412534475326537,
                "z": 0.3711530566215515
            }
        },
        "name": "move_to_auspresseinheit_D"
    },
    "id": "RRTstar_move_to_auspresseinheit_D_60",
    "joint_names": [
        "shoulder_pan_joint",
        "shoulder_lift_joint",
        "elbow_joint",
        "wrist_1_joint",
        "wrist_2_joint",
        "wrist_3_joint"
    ],
    "metrics": {
        "cart_traj_len": 0.34188478183343357,
        "distance_elbow_joint": 0.6300555706005897,
        "distance_shoulder_lift_joint": 0.11749360351260885,
        "distance_shoulder_pan_joint": 0.13331214876425898,
        "distance_wrist_1_joint": 0.5071237187572724,
        "distance_wrist_2_joint": 1.4384943627489175,
        "distance_wrist_3_joint": 0.028761024638144228,
        "smoothness": 0.0,
        "time": 5.001379991,
        "traj_len": 1.6897456699224862,
        "weighted_distance": 2.2041734414070664
    },
    "planner": "RRTstar",
    "start": {
        "state": {
            "elbow_joint": -1.8275523626775212,
            "shoulder_lift_joint": -2.126789852344167,
            "shoulder_pan_joint": -0.03513704404078235,
            "wrist_1_joint": -2.347782403156801,
            "wrist_2_joint": -1.6058999987535132,
            "wrist_3_joint": -3.0880379163319196
        }
    },
    "waypoints": [
        {
            "positions": [
                -0.03513704404078235,
                -2.126789852344167,
                -1.8275523626775212,
                -2.347782403156801,
                -1.6058999987535132,
                -3.0880379163319196
            ]
        },
        {
            "positions": [
                -0.05180106263631472,
                -2.141476552783243,
                -1.7487954163524475,
                -2.4111728680014597,
                -1.4260882034098985,
                -3.0916330444116875
            ]
        },
        {
            "positions": [
                -0.0684650812318471,
                -2.156163253222319,
                -1.6700384700273738,
                -2.474563332846119,
                -1.2462764080662838,
                -3.0952281724914554
            ]
        },
        {
            "positions": [
                -0.08512909982737946,
                -2.170849953661395,
                -1.5912815237023001,
                -2.5379537976907782,
                -1.0664646127226691,
                -3.098823300571224
            ]
        },
        {
            "positions": [
                -0.10179311842291183,
                -2.1855366541004715,
                -1.5125245773772265,
                -2.601344262535437,
                -0.8866528173790544,
                -3.1024184286509917
            ]
        },
        {
            "positions": [
                -0.11845713701844421,
                -2.2002233545395473,
                -1.4337676310521528,
                -2.664734727380096,
                -0.7068410220354397,
                -3.1060135567307596
            ]
        },
        {
            "positions": [
                -0.13512115561397658,
                -2.2149100549786236,
                -1.3550106847270789,
                -2.728125192224755,
                -0.5270292266918251,
                -3.109608684810528
            ]
        },
        {
            "positions": [
                -0.15178517420950896,
                -2.2295967554176994,
                -1.2762537384020052,
                -2.7915156570694144,
                -0.34721743134821037,
                -3.113203812890296
            ]
        },
        {
            "positions": [
                -0.16844919280504134,
                -2.2442834558567757,
                -1.1974967920769315,
                -2.8549061219140732,
                -0.16740563600459568,
                -3.116798940970064
            ]
        }
    ]
}