{
    "goal": {
        "global_pose": {
            "orientation": {
                "w": -0.4816463035849501,
                "x": 0.5182115481033762,
                "y": 0.4908360881923453,
                "z": -0.5084816262002911
            },
            "position": {
                "x": -0.8240239810943604,
                "y": 0.19912469901144506,
                "z": 0.16403168439865112
            }
        },
        "name": "move_to_storage_D"
    },
    "id": "RRTstar_move_to_storage_D_16",
    "joint_names": [
        "shoulder_pan_joint",
        "shoulder_lift_joint",
        "elbow_joint",
        "wrist_1_joint",
        "wrist_2_joint",
        "wrist_3_joint"
    ],
    "metrics": {
        "cart_traj_len": 0.7215942694466114,
        "distance_elbow_joint": 0.7478697637490466,
        "distance_shoulder_lift_joint": 0.7430065864503788,
        "distance_shoulder_pan_joint": 0.15100543332324035,
        "distance_wrist_1_joint": 3.824982897415814,
        "distance_wrist_2_joint": 1.77627296945761,
        "distance_wrist_3_joint": 3.1298487228112206,
        "smoothness": 0.09365273369925291,
        "time": 5.017742656999999,
        "traj_len": 3.220712091014549,
        "weighted_distance": 4.71528786880538
    },
    "planner": "RRTstar",
    "start": {
        "state": {
            "elbow_joint": -2.384821988534728,
            "shoulder_lift_joint": -2.2788054721415256,
            "shoulder_pan_joint": -0.1854694642142757,
            "wrist_1_joint": 1.4845938289331202,
            "wrist_2_joint": 0.17898776772866878,
            "wrist_3_joint": 0.037105688729662994
        }
    },
    "waypoints": [
        {
            "positions": [
                -0.1854694642142757,
                -2.2788054721415256,
                -2.384821988534728,
                1.4845938289331202,
                0.17898776772866878,
                0.037105688729662994
            ]
        },
        {
            "positions": [
                -0.18505226973683245,
                -2.2489544283896152,
                -2.391234722519673,
                1.3864487455787686,
                0.09787210776876644,
                -0.13462883663376135
            ]
        },
        {
            "positions": [
                -0.18463507525938916,
                -2.2191033846377053,
                -2.3976474565046177,
                1.288303662224417,
                0.016756447808864094,
                -0.3063633619971857
            ]
        },
        {
            "positions": [
                -0.1842178807819459,
                -2.189252340885795,
                -2.4040601904895627,
                1.1901585788700655,
                -0.06435921215103826,
                -0.4780978873606101
            ]
        },
        {
            "positions": [
                -0.18380068630450264,
                -2.1594012971338845,
                -2.4104729244745076,
                1.0920134955157141,
                -0.1454748721109406,
                -0.6498324127240344
            ]
        },
        {
            "positions": [
                -0.18338349182705938,
                -2.129550253381974,
                -2.4168856584594525,
                0.9938684121613626,
                -0.22659053207084293,
                -0.8215669380874587
            ]
        },
        {
            "positions": [
                -0.18296629734961609,
                -2.099699209630064,
                -2.4232983924443974,
                0.895723328807011,
                -0.30770619203074534,
                -0.9933014634508832
            ]
        },
        {
            "positions": [
                -0.18254910287217282,
                -2.069848165878154,
                -2.4297111264293423,
                0.7975782454526595,
                -0.38882185199064767,
                -1.1650359888143076
            ]
        },
        {
            "positions": [
                -0.18213190839472956,
                -2.0399971221262434,
                -2.4361238604142867,
                0.699433162098308,
                -0.46993751195055,
                -1.3367705141777317
            ]
        },
        {
            "positions": [
                -0.1817147139172863,
                -2.0101460783743335,
                -2.4425365943992317,
                0.6012880787439565,
                -0.5510531719104523,
                -1.5085050395411561
            ]
        },
        {
            "positions": [
                -0.181297519439843,
                -1.980295034622423,
                -2.4489493283841766,
                0.5031429953896049,
                -0.6321688318703547,
                -1.6802395649045805
            ]
        },
        {
            "positions": [
                -0.18088032496239975,
                -1.950443990870513,
                -2.4553620623691215,
                0.4049979120352536,
                -0.713284491830257,
                -1.8519740902680049
            ]
        },
        {
            "positions": [
                -0.1804631304849565,
                -1.9205929471186025,
                -2.4617747963540664,
                0.3068528286809018,
                -0.7944001517901594,
                -2.0237086156314295
            ]
        },
        {
            "positions": [
                -0.18004593600751323,
                -1.8907419033666923,
                -2.4681875303390113,
                0.20870774532655023,
                -0.8755158117500618,
                -2.1954431409948536
            ]
        },
        {
            "positions": [
                -0.17962874153006994,
                -1.860890859614782,
                -2.474600264323956,
                0.11056266197219888,
                -0.9566314717099641,
                -2.367177666358278
            ]
        },
        {
            "positions": [
                -0.17921154705262668,
                -1.8310398158628718,
                -2.481012998308901,
                0.012417578617847258,
                -1.0377471316698663,
                -2.5389121917217023
            ]
        },
        {
            "positions": [
                -0.16714925403916073,
                -1.8556432267105156,
                -2.4267064354776617,
                -0.18364964197386444,
                -1.0843753041747892,
                -2.585064761918357
            ]
        },
        {
            "positions": [
                -0.1550869610256948,
                -1.8802466375581592,
                -2.3723998726464224,
                -0.37971686256557613,
                -1.1310034766797121,
                -2.6312173321150114
            ]
        },
        {
            "positions": [
                -0.14302466801222885,
                -1.904850048405803,
                -2.3180933098151826,
                -0.5757840831572878,
                -1.177631649184635,
                -2.677369902311666
            ]
        },
        {
            "positions": [
                -0.1309623749987629,
                -1.9294534592534467,
                -2.263786746983943,
                -0.7718513037489996,
                -1.224259821689558,
                -2.723522472508321
            ]
        },
        {
            "positions": [
                -0.11890008198529696,
                -1.9540568701010905,
                -2.209480184152704,
                -0.9679185243407114,
                -1.270887994194481,
                -2.7696750427049754
            ]
        },
        {
            "positions": [
                -0.10683778897183102,
                -1.9786602809487341,
                -2.1551736213214645,
                -1.163985744932423,
                -1.317516166699404,
                -2.81582761290163
            ]
        },
        {
            "positions": [
                -0.09477549595836507,
                -2.003263691796378,
                -2.100867058490225,
                -1.3600529655241347,
                -1.3641443392043269,
                -2.8619801830982845
            ]
        },
        {
            "positions": [
                -0.08271320294489914,
                -2.027867102644022,
                -2.0465604956589853,
                -1.5561201861158462,
                -1.4107725117092498,
                -2.908132753294939
            ]
        },
        {
            "positions": [
                -0.07065090993143319,
                -2.0524705134916656,
                -1.992253932827746,
                -1.752187406707558,
                -1.4574006842141727,
                -2.954285323491594
            ]
        },
        {
            "positions": [
                -0.05858861691796724,
                -2.077073924339309,
                -1.9379473699965066,
                -1.9482546272992698,
                -1.5040288567190956,
                -3.0004378936882485
            ]
        },
        {
            "positions": [
                -0.046526323904501315,
                -2.101677335186953,
                -1.8836408071652673,
                -2.1443218478909816,
                -1.5506570292240185,
                -3.046590463884903
            ]
        },
        {
            "positions": [
                -0.03446403089103537,
                -2.1262807460345967,
                -1.8293342443340277,
                -2.3403890684826933,
                -1.5972852017289414,
                -3.0927430340815576
            ]
        }
    ]
}