{
    "goal": {
        "global_pose": {
            "orientation": {
                "w": 0.7047431468963623,
                "x": -0.7094548344612122,
                "y": 0.0024358443915843964,
                "z": -0.0022348060738295317
            },
            "position": {
                "x": 0.6094750761985779,
                "y": 0.3671506643295288,
                "z": 0.19426114857196808
            }
        },
        "name": "move_to_magneteinheit_A"
    },
    "id": "RRTstar_move_to_magneteinheit_A_110",
    "joint_names": [
        "shoulder_pan_joint",
        "shoulder_lift_joint",
        "elbow_joint",
        "wrist_1_joint",
        "wrist_2_joint",
        "wrist_3_joint"
    ],
    "metrics": {
        "cart_traj_len": 3.3811036634778513,
        "distance_elbow_joint": 3.9116744246411246,
        "distance_shoulder_lift_joint": 0.4690896477091697,
        "distance_shoulder_pan_joint": 2.7757744208273603,
        "distance_wrist_1_joint": 3.459518374780111,
        "distance_wrist_2_joint": 1.4327289128277985,
        "distance_wrist_3_joint": 0.4762693526587245,
        "smoothness": 0.03128912413881873,
        "time": 5.022916709,
        "traj_len": 3.5390754630898003,
        "weighted_distance": 4.286005264388933
    },
    "planner": "RRTstar",
    "start": {
        "state": {
            "elbow_joint": -1.9196185241190666,
            "shoulder_lift_joint": -1.2443396400964142,
            "shoulder_pan_joint": 2.6996025414629847,
            "wrist_1_joint": -1.5485510000780065,
            "wrist_2_joint": -1.5709468930060704,
            "wrist_3_joint": 0.4420197071253992
        }
    },
    "waypoints": [
        {
            "positions": [
                2.6996025414629847,
                -1.2443396400964142,
                -1.9196185241190666,
                -1.5485510000780065,
                -1.5709468930060704,
                0.4420197071253992
            ]
        },
        {
            "positions": [
                2.5414203581296184,
                -1.2376186410453962,
                -1.8156780149397123,
                -1.524587691339598,
                -1.5086064560983417,
                0.41383477812673647
            ]
        },
        {
            "positions": [
                2.3832381747962526,
                -1.2308976419943785,
                -1.711737505760358,
                -1.5006243826011891,
                -1.4462660191906132,
                0.3856498491280737
            ]
        },
        {
            "positions": [
                2.2250559914628862,
                -1.2241766429433605,
                -1.6077969965810037,
                -1.4766610738627806,
                -1.3839255822828844,
                0.357464920129411
            ]
        },
        {
            "positions": [
                2.06687380812952,
                -1.2174556438923427,
                -1.5038564874016496,
                -1.452697765124372,
                -1.3215851453751557,
                0.3292799911307483
            ]
        },
        {
            "positions": [
                1.9086916247961538,
                -1.2107346448413248,
                -1.3999159782222952,
                -1.4287344563859634,
                -1.259244708467427,
                0.3010950621320856
            ]
        },
        {
            "positions": [
                1.7505094414627878,
                -1.2040136457903068,
                -1.2959754690429408,
                -1.4047711476475548,
                -1.1969042715596983,
                0.2729101331334228
            ]
        },
        {
            "positions": [
                1.5923272581294214,
                -1.197292646739289,
                -1.1920349598635864,
                -1.380807838909146,
                -1.1345638346519697,
                0.24472520413476012
            ]
        },
        {
            "positions": [
                1.4341450747960554,
                -1.190571647688271,
                -1.0880944506842323,
                -1.3568445301707375,
                -1.072223397744241,
                0.2165402751360974
            ]
        },
        {
            "positions": [
                1.2759628914626893,
                -1.183850648637253,
                -0.984153941504878,
                -1.332881221432329,
                -1.0098829608365123,
                0.18835534613743465
            ]
        },
        {
            "positions": [
                1.117780708129323,
                -1.1771296495862353,
                -0.8802134323255237,
                -1.30891791269392,
                -0.9475425239287837,
                0.16017041713877195
            ]
        },
        {
            "positions": [
                0.9595985247959569,
                -1.1704086505352174,
                -0.7762729231461694,
                -1.2849546039555115,
                -0.8852020870210551,
                0.13198548814010924
            ]
        },
        {
            "positions": [
                0.8014163414625908,
                -1.1636876514841994,
                -0.672332413966815,
                -1.260991295217103,
                -0.8228616501133263,
                0.10380055914144648
            ]
        },
        {
            "positions": [
                0.6432341581292245,
                -1.1569666524331816,
                -0.5683919047874608,
                -1.2370279864786944,
                -0.7605212132055976,
                0.07561563014278377
            ]
        },
        {
            "positions": [
                0.48505197479585815,
                -1.1502456533821637,
                -0.46445139560810644,
                -1.2130646777402858,
                -0.698180776297869,
                0.04743070114412107
            ]
        },
        {
            "positions": [
                0.3268697914624923,
                -1.143524654331146,
                -0.3605108864287523,
                -1.189101369001877,
                -0.6358403393901404,
                0.019245772145458306
            ]
        },
        {
            "positions": [
                0.16868760812912614,
                -1.136803655280128,
                -0.25657037724939785,
                -1.1651380602634684,
                -0.5734999024824117,
                -0.00893915685320441
            ]
        },
        {
            "positions": [
                0.1583286025143511,
                -1.115042961105787,
                -0.09847563003126694,
                -0.989969241762881,
                -0.5490496928271642,
                -0.007811186544591226
            ]
        },
        {
            "positions": [
                0.1479695968995761,
                -1.0932822669314461,
                0.05961911718686397,
                -0.8148004232622936,
                -0.5245994831719168,
                -0.006683216235978041
            ]
        },
        {
            "positions": [
                0.13761059128480108,
                -1.0715215727571052,
                0.21771386440499485,
                -0.6396316047617063,
                -0.5001492735166694,
                -0.005555245927364857
            ]
        },
        {
            "positions": [
                0.12725158567002604,
                -1.0497608785827643,
                0.3758086116231258,
                -0.4644627862611189,
                -0.47569906386142197,
                -0.004427275618751672
            ]
        },
        {
            "positions": [
                0.11689258005525101,
                -1.0280001844084232,
                0.5339033588412567,
                -0.2892939677605315,
                -0.45124885420617455,
                -0.0032993053101384867
            ]
        },
        {
            "positions": [
                0.10653357444047598,
                -1.0062394902340823,
                0.6919981060593876,
                -0.11412514925994421,
                -0.4267986445509271,
                -0.0021713350015253033
            ]
        },
        {
            "positions": [
                0.09617456882570095,
                -0.9844787960597414,
                0.8500928532775185,
                0.061043669240643306,
                -0.4023484348956797,
                -0.001043364692912118
            ]
        },
        {
            "positions": [
                0.08581556321092593,
                -0.9627181018854005,
                1.0081876004956494,
                0.2362124877412306,
                -0.37789822524043226,
                8.460561570106627e-05
            ]
        },
        {
            "positions": [
                0.0754565575961509,
                -0.9409574077110596,
                1.1662823477137805,
                0.4113813062418181,
                -0.3534480155851848,
                0.0012125759243142523
            ]
        },
        {
            "positions": [
                0.06509755198137587,
                -0.9191967135367187,
                1.3243770949319114,
                0.5865501247424054,
                -0.3289978059299374,
                0.0023405462329274367
            ]
        },
        {
            "positions": [
                0.054738546366600846,
                -0.8974360193623778,
                1.482471842150042,
                0.7617189432429929,
                -0.30454759627468997,
                0.0034685165415406193
            ]
        },
        {
            "positions": [
                0.04437954075182582,
                -0.8756753251880369,
                1.640566589368173,
                0.93688776174358,
                -0.28009738661944256,
                0.004596486850153804
            ]
        },
        {
            "positions": [
                0.03402053513705078,
                -0.8539146310136959,
                1.7986613365863042,
                1.1120565802441675,
                -0.2556471769641951,
                0.00572445715876699
            ]
        },
        {
            "positions": [
                0.023661529522275765,
                -0.832153936839355,
                1.9567560838044349,
                1.287225398744755,
                -0.23119696730894765,
                0.006852427467380176
            ]
        },
        {
            "positions": [
                0.056939332484492663,
                -0.8131859553553181,
                1.9685226893769756,
                1.4951393907305381,
                -0.20020397159872255,
                0.010025395587225695
            ]
        },
        {
            "positions": [
                0.09021713544670956,
                -0.7942179738712813,
                1.9802892949495163,
                1.703053382716321,
                -0.16921097588849748,
                0.013198363707071213
            ]
        },
        {
            "positions": [
                0.12349493840892646,
                -0.7752499923872445,
                1.992055900522057,
                1.910967374702104,
                -0.1382179801782724,
                0.016371331826916732
            ]
        }
    ]
}