{
    "goal": {
        "global_pose": {
            "orientation": {
                "w": 0.5084816217422485,
                "x": -0.49083608388900757,
                "y": 0.5182115435600281,
                "z": -0.4816462993621826
            },
            "position": {
                "x": 0.5540239810943604,
                "y": 0.030875300988554955,
                "z": 0.16403168439865112
            }
        },
        "name": "move_to_storage_A"
    },
    "id": "RRTstar_move_to_storage_A_97",
    "joint_names": [
        "shoulder_pan_joint",
        "shoulder_lift_joint",
        "elbow_joint",
        "wrist_1_joint",
        "wrist_2_joint",
        "wrist_3_joint"
    ],
    "metrics": {
        "cart_traj_len": 0.35317514511772574,
        "distance_elbow_joint": 0.449736413238236,
        "distance_shoulder_lift_joint": 0.23433293503675112,
        "distance_shoulder_pan_joint": 0.4623711162072966,
        "distance_wrist_1_joint": 0.23808231695827853,
        "distance_wrist_2_joint": 1.0969782515064979,
        "distance_wrist_3_joint": 0.09189532039185666,
        "smoothness": 4.440892098500626e-16,
        "time": 5.001486202,
        "traj_len": 1.6041808979472723,
        "weighted_distance": 2.022930439384263
    },
    "planner": "RRTstar",
    "start": {
        "state": {
            "elbow_joint": 1.971548259319323,
            "shoulder_lift_joint": -1.1394851275133948,
            "shoulder_pan_joint": 0.1228115487234821,
            "wrist_1_joint": -0.7804723859257726,
            "wrist_2_joint": 0.12958671773740124,
            "wrist_3_joint": -3.192489227718131
        }
    },
    "waypoints": [
        {
            "positions": [
                0.1228115487234821,
                -1.1394851275133948,
                1.971548259319323,
                -0.7804723859257726,
                0.12958671773740124,
                -3.192489227718131
            ]
        },
        {
            "positions": [
                0.05675853212243974,
                -1.1729612610900735,
                2.0357963183533565,
                -0.8144841454912409,
                0.2862978965240438,
                -3.1793613248050088
            ]
        },
        {
            "positions": [
                -0.009294484478602622,
                -1.2064373946667524,
                2.1000443773873902,
                -0.8484959050567094,
                0.44300907531068634,
                -3.1662334218918864
            ]
        },
        {
            "positions": [
                -0.075347501079645,
                -1.239913528243431,
                2.164292436421424,
                -0.8825076646221777,
                0.5997202540973289,
                -3.153105518978764
            ]
        },
        {
            "positions": [
                -0.14140051768068734,
                -1.2733896618201097,
                2.2285404954554577,
                -0.9165194241876461,
                0.7564314328839714,
                -3.1399776160656416
            ]
        },
        {
            "positions": [
                -0.20745353428172975,
                -1.3068657953967886,
                2.2927885544894915,
                -0.9505311837531144,
                0.9131426116706141,
                -3.1268497131525193
            ]
        },
        {
            "positions": [
                -0.2735065508827721,
                -1.3403419289734673,
                2.3570366135235252,
                -0.9845429433185828,
                1.0698537904572565,
                -3.113721810239397
            ]
        },
        {
            "positions": [
                -0.3395595674838145,
                -1.373818062550146,
                2.421284672557559,
                -1.0185547028840511,
                1.2265649692438991,
                -3.1005939073262745
            ]
        }
    ]
}{
    "goal": {
        "global_pose": {
            "orientation": {
                "w": 0.5084816217422485,
                "x": -0.49083608388900757,
                "y": 0.5182115435600281,
                "z": -0.4816462993621826
            },
            "position": {
                "x": 0.5540239810943604,
                "y": 0.030875300988554955,
                "z": 0.16403168439865112
            }
        },
        "name": "move_to_storage_A"
    },
    "id": "RRTstar_move_to_storage_A_97",
    "joint_names": [
        "shoulder_pan_joint",
        "shoulder_lift_joint",
        "elbow_joint",
        "wrist_1_joint",
        "wrist_2_joint",
        "wrist_3_joint"
    ],
    "metrics": {
        "cart_traj_len": 0.3531142163947628,
        "distance_elbow_joint": 0.4482727757406457,
        "distance_shoulder_lift_joint": 0.2337191713379838,
        "distance_shoulder_pan_joint": 0.4615953175455892,
        "distance_wrist_1_joint": 0.24011190763458257,
        "distance_wrist_2_joint": 1.0986882049081,
        "distance_wrist_3_joint": 0.09646847674912395,
        "smoothness": 4.440892098500626e-16,
        "time": 5.000799151,
        "traj_len": 1.605881643806923,
        "weighted_distance": 2.0274597209209744
    },
    "planner": "RRTstar",
    "start": {
        "state": {
            "elbow_joint": 1.97154746011099,
            "shoulder_lift_joint": -1.13948474672311,
            "shoulder_pan_joint": 0.12281154466712228,
            "wrist_1_joint": -0.7804688027058302,
            "wrist_2_joint": 0.12958655903071145,
            "wrist_3_joint": 3.0906928834467795
        }
    },
    "waypoints": [
        {
            "positions": [
                0.12281154466712228,
                -1.13948474672311,
                1.97154746011099,
                -0.7804688027058302,
                0.12958655903071145,
                3.0906928834467795
            ]
        },
        {
            "positions": [
                0.056869356446323835,
                -1.1728731997713933,
                2.0355864280739393,
                -0.8147705037964849,
                0.2865420168747257,
                3.10447409441094
            ]
        },
        {
            "positions": [
                -0.009072831774474613,
                -1.2062616528196768,
                2.0996253960368887,
                -0.8490722048871395,
                0.44349747471874,
                3.1182553053751008
            ]
        },
        {
            "positions": [
                -0.07501501999527306,
                -1.23965010586796,
                2.163664363999838,
                -0.8833739059777941,
                0.6004529325627542,
                3.1320365163392614
            ]
        },
        {
            "positions": [
                -0.1409572082160715,
                -1.2730385589162436,
                2.2277033319627875,
                -0.9176756070684488,
                0.7574083904067686,
                3.1458177273034216
            ]
        },
        {
            "positions": [
                -0.20689939643687,
                -1.306427011964527,
                2.291742299925737,
                -0.9519773081591034,
                0.9143638482507829,
                3.159598938267582
            ]
        },
        {
            "positions": [
                -0.2728415846576684,
                -1.3398154650128102,
                2.3557812678886862,
                -0.9862790092497581,
                1.071319306094797,
                3.173380149231743
            ]
        },
        {
            "positions": [
                -0.3387837728784669,
                -1.3732039180610938,
                2.4198202358516356,
                -1.0205807103404128,
                1.2282747639388114,
                3.1871613601959035
            ]
        }
    ]
}{
    "goal": {
        "global_pose": {
            "orientation": {
                "w": 0.5084816217422485,
                "x": -0.49083608388900757,
                "y": 0.5182115435600281,
                "z": -0.4816462993621826
            },
            "position": {
                "x": 0.5540239810943604,
                "y": 0.030875300988554955,
                "z": 0.16403168439865112
            }
        },
        "name": "move_to_storage_A"
    },
    "id": "RRTstar_move_to_storage_A_97",
    "joint_names": [
        "shoulder_pan_joint",
        "shoulder_lift_joint",
        "elbow_joint",
        "wrist_1_joint",
        "wrist_2_joint",
        "wrist_3_joint"
    ],
    "metrics": {
        "cart_traj_len": 0.35217402467820785,
        "distance_elbow_joint": 0.4521569776201666,
        "distance_shoulder_lift_joint": 0.23515415148401408,
        "distance_shoulder_pan_joint": 0.46098398276045655,
        "distance_wrist_1_joint": 0.2535748751001048,
        "distance_wrist_2_joint": 1.0954284700166912,
        "distance_wrist_3_joint": 0.09349743780612929,
        "smoothness": 4.440892098500626e-16,
        "time": 5.007850575,
        "traj_len": 1.6095949474285642,
        "weighted_distance": 2.0314512338514596
    },
    "planner": "RRTstar",
    "start": {
        "state": {
            "elbow_joint": 1.9715472970024885,
            "shoulder_lift_joint": -1.1394870060712896,
            "shoulder_pan_joint": 0.12281152778156021,
            "wrist_1_joint": -0.780463741449964,
            "wrist_2_joint": 0.12958659822042276,
            "wrist_3_joint": 3.090690232415272
        }
    },
    "waypoints": [
        {
            "positions": [
                0.12281152778156021,
                -1.1394870060712896,
                1.9715472970024885,
                -0.780463741449964,
                0.12958659822042276,
                3.090690232415272
            ]
        },
        {
            "positions": [
                0.056956673101495006,
                -1.1730804562832917,
                2.0361411509482266,
                -0.8166887236071219,
                0.28607637965137866,
                3.1040470092447188
            ]
        },
        {
            "positions": [
                -0.008898181578570197,
                -1.2066739064952936,
                2.1007350048939646,
                -0.8529137057642796,
                0.4425661610823345,
                3.117403786074166
            ]
        },
        {
            "positions": [
                -0.07475303625863541,
                -1.2402673567072957,
                2.1653288588397026,
                -0.8891386879214375,
                0.5990559425132904,
                3.130760562903613
            ]
        },
        {
            "positions": [
                -0.1406078909387006,
                -1.2738608069192976,
                2.2299227127854406,
                -0.9253636700785953,
                0.7555457239442462,
                3.14411733973306
            ]
        },
        {
            "positions": [
                -0.20646274561876585,
                -1.3074542571312997,
                2.294516566731179,
                -0.9615886522357531,
                0.9120355053752022,
                3.157474116562507
            ]
        },
        {
            "positions": [
                -0.272317600298831,
                -1.3410477073433016,
                2.359110420676917,
                -0.9978136343929109,
                1.068525286806158,
                3.1708308933919542
            ]
        },
        {
            "positions": [
                -0.3381724549788963,
                -1.3746411575553037,
                2.423704274622655,
                -1.0340386165500688,
                1.225015068237114,
                3.184187670221401
            ]
        }
    ]
}