{
    "goal": {
        "global_pose": {
            "orientation": {
                "w": -0.00223480608172531,
                "x": 0.0024358444001904467,
                "y": 0.7094548369677653,
                "z": -0.704743149386269
            },
            "position": {
                "x": 0.6205249238014221,
                "y": -0.6371506643295288,
                "z": 0.19426114857196808
            }
        },
        "name": "move_to_magneteinheit_B"
    },
    "id": "RRTstar_move_to_magneteinheit_B_92",
    "joint_names": [
        "shoulder_pan_joint",
        "shoulder_lift_joint",
        "elbow_joint",
        "wrist_1_joint",
        "wrist_2_joint",
        "wrist_3_joint"
    ],
    "metrics": {
        "cart_traj_len": 1.4717914121453413,
        "distance_elbow_joint": 0.9553386426309849,
        "distance_shoulder_lift_joint": 0.9593442266517798,
        "distance_shoulder_pan_joint": 1.6204579891584618,
        "distance_wrist_1_joint": 0.1971929723140291,
        "distance_wrist_2_joint": 1.5206560024941147,
        "distance_wrist_3_joint": 0.36998909033746713,
        "smoothness": 0.26844898512657644,
        "time": 5.009233953,
        "traj_len": 2.3712821265270896,
        "weighted_distance": 2.842675865987875
    },
    "planner": "RRTstar",
    "start": {
        "state": {
            "elbow_joint": 2.6216224122426386,
            "shoulder_lift_joint": -1.4174107377796124,
            "shoulder_pan_joint": 0.7066234856936794,
            "wrist_1_joint": 1.9546482284002225,
            "wrist_2_joint": -0.7096286983471962,
            "wrist_3_joint": 0.005740856962016249
        }
    },
    "waypoints": [
        {
            "positions": [
                0.7066234856936794,
                -1.4174107377796124,
                2.6216224122426386,
                1.9546482284002225,
                -0.7096286983471962,
                0.005740856962016249
            ]
        },
        {
            "positions": [
                0.5645812772679584,
                -1.4514458316048344,
                2.5909020929505604,
                1.9906552031003282,
                -0.7718650071055998,
                0.06960358868641252
            ]
        },
        {
            "positions": [
                0.42253906884223746,
                -1.4854809254300565,
                2.5601817736584827,
                2.026662177800434,
                -0.8341013158640035,
                0.1334663204108088
            ]
        },
        {
            "positions": [
                0.28049686041651645,
                -1.5195160192552786,
                2.5294614543664045,
                2.0626691525005394,
                -0.8963376246224071,
                0.19732905213520507
            ]
        },
        {
            "positions": [
                0.18096924675974152,
                -1.4480794404906026,
                2.457529980636842,
                2.0701001565183486,
                -1.0074998809739824,
                0.1824623108715152
            ]
        },
        {
            "positions": [
                0.08144163310296657,
                -1.3766428617259263,
                2.385598506907279,
                2.077531160536158,
                -1.1186621373255576,
                0.16759556960782535
            ]
        },
        {
            "positions": [
                -0.01808598055380839,
                -1.30520628296125,
                2.3136670331777167,
                2.0849621645539673,
                -1.229824393677133,
                0.1527288283441355
            ]
        },
        {
            "positions": [
                -0.11761359421058332,
                -1.233769704196574,
                2.2417355594481543,
                2.092393168571777,
                -1.3409866500287082,
                0.13786208708044564
            ]
        },
        {
            "positions": [
                -0.2171412078673583,
                -1.162333125431898,
                2.1698040857185914,
                2.099824172589586,
                -1.4521489063802837,
                0.12299534581675578
            ]
        },
        {
            "positions": [
                -0.3166688215241332,
                -1.0908965466672218,
                2.097872611989029,
                2.1072551766073957,
                -1.563311162731859,
                0.10812860455306593
            ]
        },
        {
            "positions": [
                -0.4161964351809082,
                -1.0194599679025456,
                2.0259411382594665,
                2.114686180625205,
                -1.6744734190834345,
                0.09326186328937607
            ]
        },
        {
            "positions": [
                -0.5157240488376831,
                -0.9480233891378695,
                1.954009664529904,
                2.122117184643014,
                -1.7856356754350096,
                0.07839512202568621
            ]
        },
        {
            "positions": [
                -0.6152516624944581,
                -0.8765868103731934,
                1.8820781908003414,
                2.1295481886608236,
                -1.896797931786585,
                0.06352838076199635
            ]
        },
        {
            "positions": [
                -0.714779276151233,
                -0.8051502316085173,
                1.8101467170707788,
                2.136979192678633,
                -2.0079601881381604,
                0.048661639498306486
            ]
        },
        {
            "positions": [
                -0.8143068898080078,
                -0.7337136528438412,
                1.7382152433412164,
                2.1444101966964424,
                -2.1191224444897356,
                0.03379489823461665
            ]
        },
        {
            "positions": [
                -0.9138345034647828,
                -0.662277074079165,
                1.6662837696116537,
                2.1518412007142516,
                -2.230284700841311,
                0.018928156970926795
            ]
        }
    ]
}