{
    "goal": {
        "global_pose": {
            "orientation": {
                "w": 0.005598929693374612,
                "x": 0.007748599140229565,
                "y": 0.7110244013736278,
                "z": -0.7031023480610252
            },
            "position": {
                "x": -0.8858502320852131,
                "y": -0.7141253447532654,
                "z": 0.3711530566215515
            }
        },
        "name": "move_to_auspresseinheit_C"
    },
    "id": "RRTstar_move_to_auspresseinheit_C_34",
    "joint_names": [
        "shoulder_pan_joint",
        "shoulder_lift_joint",
        "elbow_joint",
        "wrist_1_joint",
        "wrist_2_joint",
        "wrist_3_joint"
    ],
    "metrics": {
        "cart_traj_len": 0.4924068093962849,
        "distance_elbow_joint": 0.9879297317521296,
        "distance_shoulder_lift_joint": 0.3188300619945563,
        "distance_shoulder_pan_joint": 0.25690367132350556,
        "distance_wrist_1_joint": 0.6608785854514612,
        "distance_wrist_2_joint": 1.3055220172600117,
        "distance_wrist_3_joint": 0.053225071842067706,
        "smoothness": 1.6148698667872622e-16,
        "time": 5.001877734,
        "traj_len": 1.8929577754465978,
        "weighted_distance": 2.3782640488430506
    },
    "planner": "RRTstar",
    "start": {
        "state": {
            "elbow_joint": 1.7527959577737207,
            "shoulder_lift_joint": -0.9740617694225068,
            "shoulder_pan_joint": -2.967991417825858,
            "wrist_1_joint": -0.759517768980727,
            "wrist_2_joint": 1.7443932448377408,
            "wrist_3_joint": -3.0840537646736568
        }
    },
    "waypoints": [
        {
            "positions": [
                -2.967991417825858,
                -0.9740617694225068,
                1.7527959577737207,
                -0.759517768980727,
                1.7443932448377408,
                -3.0840537646736568
            ]
        },
        {
            "positions": [
                -2.9423010506935072,
                -0.9421787632230512,
                1.6540029845985078,
                -0.6934299104355809,
                1.6138410431117396,
                -3.0893762718578635
            ]
        },
        {
            "positions": [
                -2.916610683561157,
                -0.9102957570235956,
                1.5552100114232947,
                -0.6273420518904347,
                1.4832888413857384,
                -3.09469877904207
            ]
        },
        {
            "positions": [
                -2.890920316428806,
                -0.8784127508241398,
                1.4564170382480817,
                -0.5612541933452886,
                1.3527366396597373,
                -3.1000212862262773
            ]
        },
        {
            "positions": [
                -2.865229949296456,
                -0.8465297446246842,
                1.3576240650728688,
                -0.4951663348001425,
                1.222184437933736,
                -3.105343793410484
            ]
        },
        {
            "positions": [
                -2.839539582164105,
                -0.8146467384252286,
                1.258831091897656,
                -0.4290784762549964,
                1.0916322362077349,
                -3.1106663005946906
            ]
        },
        {
            "positions": [
                -2.8138492150317544,
                -0.782763732225773,
                1.160038118722443,
                -0.3629906177098503,
                0.9610800344817338,
                -3.1159888077788973
            ]
        },
        {
            "positions": [
                -2.788158847899404,
                -0.7508807260263174,
                1.0612451455472298,
                -0.2969027591647042,
                0.8305278327557327,
                -3.121311314963104
            ]
        },
        {
            "positions": [
                -2.7624684807670534,
                -0.7189977198268618,
                0.962452172372017,
                -0.230814900619558,
                0.6999756310297314,
                -3.126633822147311
            ]
        },
        {
            "positions": [
                -2.736778113634703,
                -0.6871147136274061,
                0.863659199196804,
                -0.1647270420744119,
                0.5694234293037304,
                -3.131956329331518
            ]
        },
        {
            "positions": [
                -2.7110877465023524,
                -0.6552317074279504,
                0.764866226021591,
                -0.09863918352926583,
                0.4388712275777291,
                -3.1372788365157245
            ]
        }
    ]
}