{
    "goal": {
        "global_pose": {
            "orientation": {
                "w": 0.005598929693374612,
                "x": 0.007748599140229565,
                "y": 0.7110244013736278,
                "z": -0.7031023480610252
            },
            "position": {
                "x": -0.8858502320852131,
                "y": -0.7141253447532654,
                "z": 0.3711530566215515
            }
        },
        "name": "move_to_auspresseinheit_C"
    },
    "id": "RRTstar_move_to_auspresseinheit_C_99",
    "joint_names": [
        "shoulder_pan_joint",
        "shoulder_lift_joint",
        "elbow_joint",
        "wrist_1_joint",
        "wrist_2_joint",
        "wrist_3_joint"
    ],
    "metrics": {
        "cart_traj_len": 0.4928125733341998,
        "distance_elbow_joint": 0.9936155965637774,
        "distance_shoulder_lift_joint": 0.32258449066425166,
        "distance_shoulder_pan_joint": 0.2563701703288519,
        "distance_wrist_1_joint": 0.6599780142113103,
        "distance_wrist_2_joint": 1.314058641373235,
        "distance_wrist_3_joint": 0.03820991261810125,
        "smoothness": 9.689219200723571e-16,
        "time": 5.00159427,
        "traj_len": 1.8933612507283248,
        "weighted_distance": 2.373873060334161
    },
    "planner": "RRTstar",
    "start": {
        "state": {
            "elbow_joint": 1.7527959577737207,
            "shoulder_lift_joint": -0.9740617694225068,
            "shoulder_pan_joint": -2.967991417825858,
            "wrist_1_joint": -0.759517768980727,
            "wrist_2_joint": 1.7443932448377408,
            "wrist_3_joint": -3.0840537646736568
        }
    },
    "waypoints": [
        {
            "positions": [
                -2.967991417825858,
                -0.9740617694225068,
                1.7527959577737207,
                -0.759517768980727,
                1.7443932448377408,
                -3.0840537646736568
            ]
        },
        {
            "positions": [
                -2.942354400792973,
                -0.9418033203560816,
                1.653434398117343,
                -0.693519967559596,
                1.6129873807004174,
                -3.087874755935467
            ]
        },
        {
            "positions": [
                -2.9167173837600875,
                -0.9095448712896564,
                1.5540728384609652,
                -0.6275221661384649,
                1.481581516563094,
                -3.091695747197277
            ]
        },
        {
            "positions": [
                -2.8910803667272025,
                -0.8772864222232313,
                1.4547112788045875,
                -0.5615243647173339,
                1.3501756524257704,
                -3.095516738459087
            ]
        },
        {
            "positions": [
                -2.865443349694317,
                -0.8450279731568061,
                1.3553497191482098,
                -0.49552656329620287,
                1.218769788288447,
                -3.0993377297208973
            ]
        },
        {
            "positions": [
                -2.839806332661432,
                -0.812769524090381,
                1.255988159491832,
                -0.42952876187507183,
                1.0873639241511235,
                -3.1031587209827074
            ]
        },
        {
            "positions": [
                -2.814169315628547,
                -0.7805110750239558,
                1.1566265998354543,
                -0.3635309604539408,
                0.9559580600137999,
                -3.1069797122445175
            ]
        },
        {
            "positions": [
                -2.7885322985956615,
                -0.7482526259575306,
                1.0572650401790766,
                -0.2975331590328098,
                0.8245521958764764,
                -3.1108007035063276
            ]
        },
        {
            "positions": [
                -2.7628952815627765,
                -0.7159941768911054,
                0.9579034805226987,
                -0.23153535761167876,
                0.6931463317391529,
                -3.1146216947681378
            ]
        },
        {
            "positions": [
                -2.737258264529891,
                -0.6837357278246803,
                0.858541920866321,
                -0.16553755619054766,
                0.5617404676018294,
                -3.118442686029948
            ]
        },
        {
            "positions": [
                -2.711621247497006,
                -0.6514772787582551,
                0.7591803612099433,
                -0.09953975476941664,
                0.43033460346450586,
                -3.122263677291758
            ]
        }
    ]
}