{
    "goal": {
        "global_pose": {
            "orientation": {
                "w": 0.005598929693374612,
                "x": 0.007748599140229565,
                "y": 0.7110244013736278,
                "z": -0.7031023480610252
            },
            "position": {
                "x": -0.8858502320852131,
                "y": -0.7141253447532654,
                "z": 0.3711530566215515
            }
        },
        "name": "move_to_auspresseinheit_C"
    },
    "id": "RRTstar_move_to_auspresseinheit_C_17",
    "joint_names": [
        "shoulder_pan_joint",
        "shoulder_lift_joint",
        "elbow_joint",
        "wrist_1_joint",
        "wrist_2_joint",
        "wrist_3_joint"
    ],
    "metrics": {
        "cart_traj_len": 0.491991906579734,
        "distance_elbow_joint": 0.9881622657517889,
        "distance_shoulder_lift_joint": 0.3198858379228857,
        "distance_shoulder_pan_joint": 0.25636047307736387,
        "distance_wrist_1_joint": 0.6561525842319154,
        "distance_wrist_2_joint": 1.3103403655265913,
        "distance_wrist_3_joint": 0.04499256266192875,
        "smoothness": 0.0,
        "time": 5.001157647,
        "traj_len": 1.8910034609097028,
        "weighted_distance": 2.3732619249157554
    },
    "planner": "RRTstar",
    "start": {
        "state": {
            "elbow_joint": 1.7527959577737207,
            "shoulder_lift_joint": -0.9740617694225068,
            "shoulder_pan_joint": -2.967991417825858,
            "wrist_1_joint": -0.759517768980727,
            "wrist_2_joint": 1.7443932448377408,
            "wrist_3_joint": -3.0840537646736568
        }
    },
    "waypoints": [
        {
            "positions": [
                -2.967991417825858,
                -0.9740617694225068,
                1.7527959577737207,
                -0.759517768980727,
                1.7443932448377408,
                -3.0840537646736568
            ]
        },
        {
            "positions": [
                -2.9423553705181216,
                -0.9420731856302182,
                1.6539797311985418,
                -0.6939025105575355,
                1.6133592082850816,
                -3.0885530209398495
            ]
        },
        {
            "positions": [
                -2.916719323210385,
                -0.9100846018379296,
                1.555163504623363,
                -0.6282872521343439,
                1.4823251717324226,
                -3.0930522772060427
            ]
        },
        {
            "positions": [
                -2.891083275902649,
                -0.8780960180456411,
                1.456347278048184,
                -0.5626719937111524,
                1.3512911351797634,
                -3.0975515334722354
            ]
        },
        {
            "positions": [
                -2.8654472285949124,
                -0.8461074342533524,
                1.357531051473005,
                -0.49705673528796085,
                1.2202570986271044,
                -3.102050789738428
            ]
        },
        {
            "positions": [
                -2.839811181287176,
                -0.8141188504610639,
                1.2587148248978262,
                -0.4314414768647693,
                1.0892230620744452,
                -3.106550046004621
            ]
        },
        {
            "positions": [
                -2.8141751339794396,
                -0.7821302666687754,
                1.1598985983226473,
                -0.36582621844157776,
                0.9581890255217861,
                -3.111049302270814
            ]
        },
        {
            "positions": [
                -2.7885390866717032,
                -0.7501416828764867,
                1.0610823717474684,
                -0.30021096001838626,
                0.827154988969127,
                -3.115548558537007
            ]
        },
        {
            "positions": [
                -2.762903039363967,
                -0.7181530990841982,
                0.9622661451722895,
                -0.23459570159519472,
                0.6961209524164678,
                -3.1200478148031996
            ]
        },
        {
            "positions": [
                -2.7372669920562305,
                -0.6861645152919096,
                0.8634499185971106,
                -0.16898044317200311,
                0.5650869158638085,
                -3.124547071069393
            ]
        },
        {
            "positions": [
                -2.711630944748494,
                -0.654175931499621,
                0.7646336920219318,
                -0.10336518474881161,
                0.4340528793111496,
                -3.1290463273355855
            ]
        }
    ]
}