{
    "goal": {
        "global_pose": {
            "orientation": {
                "w": 0.005598929693374612,
                "x": 0.007748599140229565,
                "y": 0.7110244013736278,
                "z": -0.7031023480610252
            },
            "position": {
                "x": 0.1141497679147869,
                "y": -0.7141253447532654,
                "z": 0.3711530566215515
            }
        },
        "name": "move_to_auspresseinheit_B"
    },
    "id": "RRTstar_move_to_auspresseinheit_B_139",
    "joint_names": [
        "shoulder_pan_joint",
        "shoulder_lift_joint",
        "elbow_joint",
        "wrist_1_joint",
        "wrist_2_joint",
        "wrist_3_joint"
    ],
    "metrics": {
        "cart_traj_len": 0.5641184406783865,
        "distance_elbow_joint": 0.05976996717512373,
        "distance_shoulder_lift_joint": 0.29441904129643937,
        "distance_shoulder_pan_joint": 0.5753693822659858,
        "distance_wrist_1_joint": 0.3146673235291586,
        "distance_wrist_2_joint": 0.9993261606113986,
        "distance_wrist_3_joint": 0.010726518986887701,
        "smoothness": 0.0,
        "time": 5.01612681,
        "traj_len": 1.5014254539819796,
        "weighted_distance": 1.89465693886237
    },
    "planner": "RRTstar",
    "start": {
        "state": {
            "elbow_joint": 2.0193083361928714,
            "shoulder_lift_joint": -1.1220246554650708,
            "shoulder_pan_joint": -1.0952077554168747,
            "wrist_1_joint": -0.8559753972642168,
            "wrist_2_joint": 0.4759566250798843,
            "wrist_3_joint": -3.1240929996934557
        }
    },
    "waypoints": [
        {
            "positions": [
                -1.0952077554168747,
                -1.1220246554650708,
                2.0193083361928714,
                -0.8559753972642168,
                0.4759566250798843,
                -3.1240929996934557
            ]
        },
        {
            "positions": [
                -1.1911026524612056,
                -1.171094495681144,
                2.0093466749970172,
                -0.8035308433426903,
                0.6425109851817841,
                -3.1223052465289745
            ]
        },
        {
            "positions": [
                -1.2869975495055366,
                -1.2201643358972172,
                1.9993850138011635,
                -0.751086289421164,
                0.8090653452836838,
                -3.1205174933644932
            ]
        },
        {
            "positions": [
                -1.3828924465498675,
                -1.2692341761132906,
                1.9894233526053096,
                -0.6986417354996375,
                0.9756197053855835,
                -3.1187297402000116
            ]
        },
        {
            "positions": [
                -1.4787873435941985,
                -1.3183040163293638,
                1.9794616914094556,
                -0.6461971815781111,
                1.1421740654874832,
                -3.1169419870355304
            ]
        },
        {
            "positions": [
                -1.5746822406385295,
                -1.367373856545437,
                1.9695000302136016,
                -0.5937526276565845,
                1.3087284255893832,
                -3.115154233871049
            ]
        },
        {
            "positions": [
                -1.6705771376828604,
                -1.4164436967615102,
                1.9595383690177477,
                -0.5413080737350582,
                1.475282785691283,
                -3.113366480706568
            ]
        }
    ]
}