{
    "goal": {
        "global_pose": {
            "orientation": {
                "w": 0.005598929693374612,
                "x": 0.007748599140229565,
                "y": 0.7110244013736278,
                "z": -0.7031023480610252
            },
            "position": {
                "x": 0.1141497679147869,
                "y": -0.7141253447532654,
                "z": 0.3711530566215515
            }
        },
        "name": "move_to_auspresseinheit_B"
    },
    "id": "RRTstar_move_to_auspresseinheit_B_56",
    "joint_names": [
        "shoulder_pan_joint",
        "shoulder_lift_joint",
        "elbow_joint",
        "wrist_1_joint",
        "wrist_2_joint",
        "wrist_3_joint"
    ],
    "metrics": {
        "cart_traj_len": 0.564915746335218,
        "distance_elbow_joint": 0.06100364732393637,
        "distance_shoulder_lift_joint": 0.294016416688883,
        "distance_shoulder_pan_joint": 0.5787340404480714,
        "distance_wrist_1_joint": 0.3176440950337689,
        "distance_wrist_2_joint": 0.9849933161769819,
        "distance_wrist_3_joint": 0.002040989586463482,
        "smoothness": 0.0,
        "time": 5.000300431,
        "traj_len": 1.496139199826709,
        "weighted_distance": 1.8828573752788031
    },
    "planner": "RRTstar",
    "start": {
        "state": {
            "elbow_joint": 2.0193083361928714,
            "shoulder_lift_joint": -1.1220246554650708,
            "shoulder_pan_joint": -1.0952077554168747,
            "wrist_1_joint": -0.8559753972642168,
            "wrist_2_joint": 0.4759566250798843,
            "wrist_3_joint": -3.1240929996934557
        }
    },
    "waypoints": [
        {
            "positions": [
                -1.0952077554168747,
                -1.1220246554650708,
                2.0193083361928714,
                -0.8559753972642168,
                0.4759566250798843,
                -3.1240929996934557
            ]
        },
        {
            "positions": [
                -1.1916634288248866,
                -1.1710273915798846,
                2.009141061638882,
                -0.8030347147585887,
                0.640122177776048,
                -3.1237528347623784
            ]
        },
        {
            "positions": [
                -1.2881191022328984,
                -1.2200301276946985,
                1.9989737870848927,
                -0.7500940322529605,
                0.8042877304722116,
                -3.123412669831301
            ]
        },
        {
            "positions": [
                -1.3845747756409104,
                -1.2690328638095123,
                1.9888065125309033,
                -0.6971533497473323,
                0.9684532831683752,
                -3.123072504900224
            ]
        },
        {
            "positions": [
                -1.4810304490489221,
                -1.318035599924326,
                1.9786392379769138,
                -0.6442126672417042,
                1.1326188358645388,
                -3.1227323399691467
            ]
        },
        {
            "positions": [
                -1.5774861224569343,
                -1.36703833603914,
                1.9684719634229244,
                -0.591271984736076,
                1.2967843885607027,
                -3.1223921750380694
            ]
        },
        {
            "positions": [
                -1.673941795864946,
                -1.4160410721539538,
                1.958304688868935,
                -0.5383313022304479,
                1.4609499412568663,
                -3.122052010106992
            ]
        }
    ]
}