{
    "goal": {
        "global_pose": {
            "orientation": {
                "w": 0.7031023502349854,
                "x": -0.7110244035720825,
                "y": 0.007748599164187908,
                "z": 0.005598929710686207
            },
            "position": {
                "x": 0.11585023208521307,
                "y": 0.44412534475326537,
                "z": 0.3711530566215515
            }
        },
        "name": "move_to_auspresseinheit_A"
    },
    "id": "RRTstar_move_to_auspresseinheit_A_108",
    "joint_names": [
        "shoulder_pan_joint",
        "shoulder_lift_joint",
        "elbow_joint",
        "wrist_1_joint",
        "wrist_2_joint",
        "wrist_3_joint"
    ],
    "metrics": {
        "cart_traj_len": 0.7917757143250307,
        "distance_elbow_joint": 0.17654081808924937,
        "distance_shoulder_lift_joint": 0.5381719775677638,
        "distance_shoulder_pan_joint": 1.0467661789188019,
        "distance_wrist_1_joint": 0.5563813993916148,
        "distance_wrist_2_joint": 0.6640964437528017,
        "distance_wrist_3_joint": 0.21653327391872734,
        "smoothness": 0.5731099732734359,
        "time": 5.006667928,
        "traj_len": 1.7884322999876063,
        "weighted_distance": 2.2027334116095005
    },
    "planner": "RRTstar",
    "start": {
        "state": {
            "elbow_joint": 2.4225746658250005,
            "shoulder_lift_joint": -1.3736534386056498,
            "shoulder_pan_joint": -0.3378633547517467,
            "wrist_1_joint": -1.0288598680537169,
            "wrist_2_joint": 1.233022673432363,
            "wrist_3_joint": -3.0940220416140027
        }
    },
    "waypoints": [
        {
            "positions": [
                -0.3378633547517467,
                -1.3736534386056498,
                2.4225746658250005,
                -1.0288598680537169,
                1.233022673432363,
                -3.0940220416140027
            ]
        },
        {
            "positions": [
                -0.22696700707485246,
                -1.491633151156626,
                2.3719515784685017,
                -1.0306505275774311,
                1.2707725149716054,
                -3.1568994068757865
            ]
        },
        {
            "positions": [
                -0.11607065939795816,
                -1.6096128637076021,
                2.3213284911120033,
                -1.0324411871011452,
                1.308522356510848,
                -3.2197767721375707
            ]
        },
        {
            "positions": [
                0.0017826953970437182,
                -1.6527860854884324,
                2.3320848687371822,
                -0.9534697470519757,
                1.2244371049859455,
                -3.206808408795405
            ]
        },
        {
            "positions": [
                0.1196360501920456,
                -1.6959593072692625,
                2.342841246362361,
                -0.8744983070028062,
                1.140351853461043,
                -3.1938400454532396
            ]
        },
        {
            "positions": [
                0.2374894049870475,
                -1.7391325290500927,
                2.35359762398754,
                -0.7955268669536367,
                1.0562666019361406,
                -3.180871682111074
            ]
        },
        {
            "positions": [
                0.3553427597820493,
                -1.782305750830923,
                2.364354001612719,
                -0.7165554269044672,
                0.9721813504112382,
                -3.167903318768908
            ]
        },
        {
            "positions": [
                0.47319611457705135,
                -1.8254789726117533,
                2.375110379237898,
                -0.6375839868552977,
                0.8880960988863358,
                -3.1549349554267425
            ]
        },
        {
            "positions": [
                0.5910494693720532,
                -1.8686521943925833,
                2.3858667568630767,
                -0.5586125468061283,
                0.8040108473614335,
                -3.141966592084577
            ]
        },
        {
            "positions": [
                0.7089028241670551,
                -1.9118254161734136,
                2.3966231344882556,
                -0.4796411067569587,
                0.719925595836531,
                -3.1289982287424114
            ]
        }
    ]
}