{
    "goal": {
        "global_pose": {
            "orientation": {
                "w": 0.7047431493862688,
                "x": -0.7094548369677653,
                "y": 0.0024358444001904,
                "z": -0.0022348060817251984
            },
            "position": {
                "x": -0.39052492380142206,
                "y": 0.3671506643295288,
                "z": 0.19426114857196808
            }
        },
        "name": "move_to_magneteinheit_D"
    },
    "id": "RRTstar_move_to_magneteinheit_D_119",
    "joint_names": [
        "shoulder_pan_joint",
        "shoulder_lift_joint",
        "elbow_joint",
        "wrist_1_joint",
        "wrist_2_joint",
        "wrist_3_joint"
    ],
    "metrics": {
        "cart_traj_len": 5.611075622878481,
        "distance_elbow_joint": 3.115211956209325,
        "distance_shoulder_lift_joint": 1.344964088504287,
        "distance_shoulder_pan_joint": 5.219882418707785,
        "distance_wrist_1_joint": 2.0865629413550897,
        "distance_wrist_2_joint": 2.873285688403681,
        "distance_wrist_3_joint": 6.263804191307408,
        "smoothness": 0.21890952001663064,
        "time": 5.0514286450000006,
        "traj_len": 4.572057664169119,
        "weighted_distance": 6.196060707970925
    },
    "planner": "RRTstar",
    "start": {
        "state": {
            "elbow_joint": 0.749534889911806,
            "shoulder_lift_joint": -0.6476975780787326,
            "shoulder_pan_joint": -2.711696901376241,
            "wrist_1_joint": -0.07506478083263063,
            "wrist_2_joint": 0.43296659715538205,
            "wrist_3_joint": -3.14703540197715
        }
    },
    "waypoints": [
        {
            "positions": [
                -2.711696901376241,
                -0.6476975780787326,
                0.749534889911806,
                -0.07506478083263063,
                0.43296659715538205,
                -3.14703540197715
            ]
        },
        {
            "positions": [
                -2.715468409296794,
                -0.673153564874915,
                0.7374407389388109,
                -0.0727117047851854,
                0.4376122383816231,
                -3.132368308561664
            ]
        },
        {
            "positions": [
                -2.7137420257987523,
                -0.7782101438000101,
                0.6828601122230705,
                -0.07939777915012161,
                0.45527895186351913,
                -3.0505048259318523
            ]
        },
        {
            "positions": [
                -2.712015642300711,
                -0.8832667227251051,
                0.62827948550733,
                -0.08608385351505783,
                0.4729456653454151,
                -2.968641343302041
            ]
        },
        {
            "positions": [
                -2.7102892588026695,
                -0.9883233016502002,
                0.5736988587915897,
                -0.09276992787999404,
                0.4906123788273111,
                -2.8867778606722294
            ]
        },
        {
            "positions": [
                -2.5615616550427407,
                -1.0193017583773754,
                0.5423293693987811,
                -0.1360242402195688,
                0.5318957220470234,
                -2.794336535972872
            ]
        },
        {
            "positions": [
                -2.412834051282812,
                -1.0502802151045507,
                0.5109598800059725,
                -0.17927855255914354,
                0.5731790652667358,
                -2.701895211273514
            ]
        },
        {
            "positions": [
                -2.264106447522883,
                -1.0812586718317259,
                0.4795903906131639,
                -0.22253286489871826,
                0.6144624084864481,
                -2.609453886574157
            ]
        },
        {
            "positions": [
                -2.1153788437629544,
                -1.112237128558901,
                0.4482209012203553,
                -0.26578717723829304,
                0.6557457517061603,
                -2.5170125618747994
            ]
        },
        {
            "positions": [
                -1.9666512400030258,
                -1.1432155852860764,
                0.41685141182754665,
                -0.3090414895778678,
                0.6970290949258727,
                -2.4245712371754418
            ]
        },
        {
            "positions": [
                -1.817923636243097,
                -1.1741940420132515,
                0.38548192243473806,
                -0.35229580191744253,
                0.738312438145585,
                -2.332129912476084
            ]
        },
        {
            "positions": [
                -1.6691960324831685,
                -1.2051724987404266,
                0.35411243304192946,
                -0.3955501142570173,
                0.7795957813652973,
                -2.239688587776727
            ]
        },
        {
            "positions": [
                -1.5204684287232397,
                -1.236150955467602,
                0.3227429436491209,
                -0.4388044265965921,
                0.8208791245850096,
                -2.1472472630773694
            ]
        },
        {
            "positions": [
                -1.371740824963311,
                -1.2671294121947771,
                0.2913734542563123,
                -0.4820587389361668,
                0.8621624678047219,
                -2.0548059383780117
            ]
        },
        {
            "positions": [
                -1.2230132212033822,
                -1.2981078689219525,
                0.26000396486350363,
                -0.5253130512757416,
                0.9034458110244343,
                -1.9623646136786541
            ]
        },
        {
            "positions": [
                -1.0742856174434536,
                -1.3290863256491277,
                0.22863447547069504,
                -0.5685673636153162,
                0.9447291542441465,
                -1.8699232889792967
            ]
        },
        {
            "positions": [
                -0.9255580136835246,
                -1.3600647823763028,
                0.19726498607788645,
                -0.611821675954891,
                0.9860124974638589,
                -1.777481964279939
            ]
        },
        {
            "positions": [
                -0.7768304099235961,
                -1.3910432391034782,
                0.16589549668507786,
                -0.6550759882944658,
                1.0272958406835713,
                -1.6850406395805817
            ]
        },
        {
            "positions": [
                -0.6281028061636675,
                -1.4220216958306533,
                0.13452600729226927,
                -0.6983303006340406,
                1.0685791839032834,
                -1.5925993148812243
            ]
        },
        {
            "positions": [
                -0.47937520240373876,
                -1.4530001525578284,
                0.10315651789946068,
                -0.7415846129736152,
                1.1098625271229956,
                -1.5001579901818667
            ]
        },
        {
            "positions": [
                -0.33064759864381,
                -1.4839786092850038,
                0.07178702850665208,
                -0.7848389253131901,
                1.1511458703427082,
                -1.407716665482509
            ]
        },
        {
            "positions": [
                -0.18191999488388122,
                -1.514957066012179,
                0.04041753911384349,
                -0.8280932376527648,
                1.1924292135624204,
                -1.3152753407831517
            ]
        },
        {
            "positions": [
                -0.03319239112395245,
                -1.545935522739354,
                0.009048049721034901,
                -0.8713475499923395,
                1.2337125567821325,
                -1.222834016083794
            ]
        },
        {
            "positions": [
                0.11553521263597588,
                -1.5769139794665294,
                -0.02232143967177369,
                -0.9146018623319142,
                1.274995900001845,
                -1.1303926913844367
            ]
        },
        {
            "positions": [
                0.2642628163959051,
                -1.6078924361937046,
                -0.05369092906458239,
                -0.9578561746714891,
                1.3162792432215573,
                -1.037951366685079
            ]
        },
        {
            "positions": [
                0.41299042015583387,
                -1.6388708929208797,
                -0.08506041845739098,
                -1.0011104870110636,
                1.3575625864412697,
                -0.9455100419857216
            ]
        },
        {
            "positions": [
                0.5617180239157622,
                -1.669849349648055,
                -0.11642990785019958,
                -1.0443647993506384,
                1.398845929660982,
                -0.853068717286364
            ]
        },
        {
            "positions": [
                0.710445627675691,
                -1.7008278063752302,
                -0.14779939724300817,
                -1.0876191116902132,
                1.4401292728806943,
                -0.7606273925870064
            ]
        },
        {
            "positions": [
                0.8591732314356202,
                -1.7318062631024054,
                -0.17916888663581676,
                -1.130873424029788,
                1.4814126161004066,
                -0.6681860678876488
            ]
        },
        {
            "positions": [
                1.0079008351955485,
                -1.7627847198295807,
                -0.21053837602862535,
                -1.1741277363693627,
                1.5226959593201188,
                -0.5757447431882916
            ]
        },
        {
            "positions": [
                1.1566284389554773,
                -1.7937631765567559,
                -0.24190786542143394,
                -1.2173820487089375,
                1.5639793025398312,
                -0.4833034184889342
            ]
        },
        {
            "positions": [
                1.0838810155126208,
                -1.78684180213802,
                -0.3472462315590075,
                -1.2590518484682303,
                1.5088598819716965,
                -0.38092974639869676
            ]
        },
        {
            "positions": [
                1.0111335920697646,
                -1.7799204277192842,
                -0.4525845976965811,
                -1.300721648227523,
                1.4537404614035618,
                -0.2785560743084593
            ]
        },
        {
            "positions": [
                0.9383861686269082,
                -1.7729990533005482,
                -0.5579229638341547,
                -1.3423914479868158,
                1.3986210408354274,
                -0.1761824022182218
            ]
        },
        {
            "positions": [
                0.8656387451840518,
                -1.7660776788818122,
                -0.6632613299717283,
                -1.3840612477461085,
                1.3435016202672927,
                -0.07380873012798433
            ]
        },
        {
            "positions": [
                0.7928913217411954,
                -1.7591563044630762,
                -0.768599696109302,
                -1.4257310475054012,
                1.288382199699158,
                0.028564941962253232
            ]
        },
        {
            "positions": [
                0.720143898298339,
                -1.7522349300443405,
                -0.8739380622468755,
                -1.467400847264694,
                1.2332627791310233,
                0.13093861405249063
            ]
        },
        {
            "positions": [
                0.6473964748554827,
                -1.7453135556256045,
                -0.9792764283844492,
                -1.5090706470239867,
                1.1781433585628887,
                0.23331228614272814
            ]
        },
        {
            "positions": [
                0.5746490514126263,
                -1.7383921812068686,
                -1.0846147945220226,
                -1.5507404467832795,
                1.123023937994754,
                0.33568595823296554
            ]
        },
        {
            "positions": [
                0.5019016279697699,
                -1.7314708067881326,
                -1.1899531606595963,
                -1.5924102465425722,
                1.0679045174266193,
                0.43805963032320305
            ]
        },
        {
            "positions": [
                0.42915420452691344,
                -1.7245494323693968,
                -1.29529152679717,
                -1.634080046301865,
                1.0127850968584848,
                0.5404333024134407
            ]
        },
        {
            "positions": [
                0.3564067810840571,
                -1.7176280579506609,
                -1.4006298929347436,
                -1.6757498460611577,
                0.95766567629035,
                0.6428069745036782
            ]
        },
        {
            "positions": [
                0.28365935764120076,
                -1.710706683531925,
                -1.5059682590723171,
                -1.7174196458204505,
                0.9025462557222155,
                0.7451806465939155
            ]
        },
        {
            "positions": [
                0.21091193419834442,
                -1.7037853091131892,
                -1.6113066252098907,
                -1.7590894455797432,
                0.8474268351540808,
                0.847554318684153
            ]
        },
        {
            "positions": [
                0.13816451075548808,
                -1.6968639346944532,
                -1.7166449913474644,
                -1.800759245339036,
                0.7923074145859461,
                0.9499279907743905
            ]
        },
        {
            "positions": [
                0.06541708731263163,
                -1.6899425602757172,
                -1.821983357485038,
                -1.8424290450983287,
                0.7371879940178114,
                1.052301662864628
            ]
        },
        {
            "positions": [
                -0.007330336130224602,
                -1.6830211858569815,
                -1.9273217236226114,
                -1.8840988448576215,
                0.6820685734496769,
                1.1546753349548653
            ]
        },
        {
            "positions": [
                -0.08007775957308105,
                -1.6760998114382455,
                -2.032660089760185,
                -1.9257686446169142,
                0.6269491528815422,
                1.2570490070451028
            ]
        },
        {
            "positions": [
                -0.15282518301593753,
                -1.6691784370195095,
                -2.1379984558977587,
                -1.967438444376207,
                0.5718297323134075,
                1.3594226791353403
            ]
        },
        {
            "positions": [
                -0.15714523808638067,
                -1.6784676558306366,
                -2.1664582821977287,
                -1.991123835090785,
                0.47806430571430647,
                1.5790909429097049
            ]
        },
        {
            "positions": [
                -0.16146529315682384,
                -1.687756874641764,
                -2.194918108497699,
                -2.0148092258053625,
                0.3842988791152055,
                1.7987592066840694
            ]
        },
        {
            "positions": [
                -0.16578534822726698,
                -1.697046093452891,
                -2.223377934797669,
                -2.0384946165199405,
                0.2905334525161045,
                2.018427470458434
            ]
        },
        {
            "positions": [
                -0.17010540329771012,
                -1.7063353122640184,
                -2.2518377610976392,
                -2.0621800072345184,
                0.1967680259170035,
                2.2380957342327985
            ]
        },
        {
            "positions": [
                -0.17442545836815326,
                -1.7156245310751455,
                -2.2802975873976092,
                -2.0858653979490964,
                0.10300259931790245,
                2.457763998007163
            ]
        },
        {
            "positions": [
                -0.1787455134385964,
                -1.7249137498862726,
                -2.3087574136975793,
                -2.1095507886636744,
                0.009237172718801534,
                2.677432261781528
            ]
        },
        {
            "positions": [
                -0.18306556850903957,
                -1.7342029686973999,
                -2.3372172399975497,
                -2.133236179378252,
                -0.0845282538802995,
                2.8971005255558926
            ]
        },
        {
            "positions": [
                -0.1873856235794827,
                -1.743492187508527,
                -2.3656770662975197,
                -2.15692157009283,
                -0.17829368047940058,
                3.116768789330257
            ]
        }
    ]
}