{
    "goal": {
        "global_pose": {
            "orientation": {
                "w": 0.7031023480610252,
                "x": -0.7110244013736278,
                "y": 0.0077485991402295624,
                "z": 0.005598929693374583
            },
            "position": {
                "x": -0.8841497679147869,
                "y": 0.44412534475326537,
                "z": 0.3711530566215515
            }
        },
        "name": "move_to_auspresseinheit_D"
    },
    "id": "RRTstar_move_to_auspresseinheit_D_57",
    "joint_names": [
        "shoulder_pan_joint",
        "shoulder_lift_joint",
        "elbow_joint",
        "wrist_1_joint",
        "wrist_2_joint",
        "wrist_3_joint"
    ],
    "metrics": {
        "cart_traj_len": 0.3418872911049505,
        "distance_elbow_joint": 0.6280755526265624,
        "distance_shoulder_lift_joint": 0.11583653928179594,
        "distance_shoulder_pan_joint": 0.1329422818073182,
        "distance_wrist_1_joint": 0.5012356097402626,
        "distance_wrist_2_joint": 1.4393668280300527,
        "distance_wrist_3_joint": 0.02710294159560167,
        "smoothness": 1.9737298371844314e-16,
        "time": 5.005195476,
        "traj_len": 1.6865822698823776,
        "weighted_distance": 2.199856375776181
    },
    "planner": "RRTstar",
    "start": {
        "state": {
            "elbow_joint": -1.8275523626775212,
            "shoulder_lift_joint": -2.126789852344167,
            "shoulder_pan_joint": -0.03513704404078235,
            "wrist_1_joint": -2.347782403156801,
            "wrist_2_joint": -1.6058999987535132,
            "wrist_3_joint": -3.0880379163319196
        }
    },
    "waypoints": [
        {
            "positions": [
                -0.03513704404078235,
                -2.126789852344167,
                -1.8275523626775212,
                -2.347782403156801,
                -1.6058999987535132,
                -3.0880379163319196
            ]
        },
        {
            "positions": [
                -0.051754829266697125,
                -2.1412694197543916,
                -1.749042918599201,
                -2.4104368543743337,
                -1.4259791452497566,
                -3.0914257840313697
            ]
        },
        {
            "positions": [
                -0.0683726144926119,
                -2.155748987164616,
                -1.6705334745208806,
                -2.4730913055918666,
                -1.246058291746,
                -3.09481365173082
            ]
        },
        {
            "positions": [
                -0.08499039971852668,
                -2.17022855457484,
                -1.5920240304425604,
                -2.5357457568093995,
                -1.0661374382422435,
                -3.0982015194302703
            ]
        },
        {
            "positions": [
                -0.10160818494444146,
                -2.184708121985065,
                -1.51351458636424,
                -2.5984002080269324,
                -0.8862165847384869,
                -3.1015893871297204
            ]
        },
        {
            "positions": [
                -0.11822597017035624,
                -2.1991876893952895,
                -1.4350051422859198,
                -2.661054659244465,
                -0.7062957312347302,
                -3.1049772548291705
            ]
        },
        {
            "positions": [
                -0.134843755396271,
                -2.213667256805514,
                -1.3564956982075993,
                -2.7237091104619977,
                -0.5263748777309738,
                -3.108365122528621
            ]
        },
        {
            "positions": [
                -0.15146154062218578,
                -2.228146824215738,
                -1.277986254129279,
                -2.7863635616795306,
                -0.34645402422721716,
                -3.111752990228071
            ]
        },
        {
            "positions": [
                -0.16807932584810056,
                -2.242626391625963,
                -1.1994768100509587,
                -2.8490180128970635,
                -0.16653317072346052,
                -3.1151408579275213
            ]
        }
    ]
}