{
    "goal": {
        "global_pose": {
            "orientation": {
                "w": 0.7031023502349854,
                "x": -0.7110244035720825,
                "y": 0.007748599164187908,
                "z": 0.005598929710686207
            },
            "position": {
                "x": 0.11585023208521307,
                "y": 0.44412534475326537,
                "z": 0.3711530566215515
            }
        },
        "name": "move_to_auspresseinheit_A"
    },
    "id": "RRTstar_move_to_auspresseinheit_A_110",
    "joint_names": [
        "shoulder_pan_joint",
        "shoulder_lift_joint",
        "elbow_joint",
        "wrist_1_joint",
        "wrist_2_joint",
        "wrist_3_joint"
    ],
    "metrics": {
        "cart_traj_len": 0.6649497978253478,
        "distance_elbow_joint": 0.22118585044041783,
        "distance_shoulder_lift_joint": 0.7494322866625618,
        "distance_shoulder_pan_joint": 1.04057468148944,
        "distance_wrist_1_joint": 0.5688146453530897,
        "distance_wrist_2_joint": 0.5336932396761164,
        "distance_wrist_3_joint": 0.4320318089505806,
        "smoothness": 0.6988026966588018,
        "time": 5.0155741549999995,
        "traj_len": 1.8830115540198384,
        "weighted_distance": 2.34782963936964
    },
    "planner": "RRTstar",
    "start": {
        "state": {
            "elbow_joint": 2.4225746658250005,
            "shoulder_lift_joint": -1.3736534386056498,
            "shoulder_pan_joint": -0.3378633547517467,
            "wrist_1_joint": -1.0288598680537169,
            "wrist_2_joint": 1.233022673432363,
            "wrist_3_joint": -3.0940220416140027
        }
    },
    "waypoints": [
        {
            "positions": [
                -0.3378633547517467,
                -1.3736534386056498,
                2.4225746658250005,
                -1.0288598680537169,
                1.233022673432363,
                -3.0940220416140027
            ]
        },
        {
            "positions": [
                -0.22915192468946968,
                -1.4652582853885618,
                2.436138868813593,
                -0.9509899684632046,
                1.1743000926277578,
                -3.0666019517199907
            ]
        },
        {
            "positions": [
                -0.12044049462719264,
                -1.5568631321714739,
                2.449703071802186,
                -0.8731200688726923,
                1.1155775118231523,
                -3.039181861825979
            ]
        },
        {
            "positions": [
                -0.011729064564915626,
                -1.648467978954386,
                2.4632672747907787,
                -0.7952501692821801,
                1.056854931018547,
                -3.011761771931967
            ]
        },
        {
            "positions": [
                0.09698236549736144,
                -1.7400728257372982,
                2.476831477779371,
                -0.7173802696916678,
                0.9981323502139418,
                -2.9843416820379556
            ]
        },
        {
            "positions": [
                0.20569379555963857,
                -1.8316776725202102,
                2.4903956807679637,
                -0.6395103701011555,
                0.9394097694093364,
                -2.9569215921439436
            ]
        },
        {
            "positions": [
                0.3144052256219155,
                -1.9232825193031222,
                2.5039598837565564,
                -0.5616404705106433,
                0.880687188604731,
                -2.929501502249932
            ]
        },
        {
            "positions": [
                0.4231166556841926,
                -2.0148873660860342,
                2.517524086745149,
                -0.4837705709201309,
                0.8219646078001257,
                -2.90208141235592
            ]
        },
        {
            "positions": [
                0.5163148793686928,
                -1.9788212463586419,
                2.4754452769050594,
                -0.47586212151362967,
                0.781086216452166,
                -2.9821118055867526
            ]
        },
        {
            "positions": [
                0.6095131030531931,
                -1.9427551266312493,
                2.4333664670649697,
                -0.46795367210712835,
                0.7402078251042064,
                -3.062142198817585
            ]
        },
        {
            "positions": [
                0.7027113267376933,
                -1.906689006903857,
                2.39128765722488,
                -0.4600452227006271,
                0.6993294337562467,
                -3.142172592048418
            ]
        }
    ]
}