{
    "goal": {
        "global_pose": {
            "orientation": {
                "w": -0.00223480608172531,
                "x": 0.0024358444001904467,
                "y": 0.7094548369677653,
                "z": -0.704743149386269
            },
            "position": {
                "x": 0.6205249238014221,
                "y": -0.6371506643295288,
                "z": 0.19426114857196808
            }
        },
        "name": "move_to_magneteinheit_B"
    },
    "id": "RRTstar_move_to_magneteinheit_B_28",
    "joint_names": [
        "shoulder_pan_joint",
        "shoulder_lift_joint",
        "elbow_joint",
        "wrist_1_joint",
        "wrist_2_joint",
        "wrist_3_joint"
    ],
    "metrics": {
        "cart_traj_len": 5.497645852675202,
        "distance_elbow_joint": 7.02955176895284,
        "distance_shoulder_lift_joint": 4.9739721529516725,
        "distance_shoulder_pan_joint": 3.4705729397514173,
        "distance_wrist_1_joint": 6.275780747055561,
        "distance_wrist_2_joint": 9.297520909218719,
        "distance_wrist_3_joint": 8.378363972569723,
        "smoothness": 0.6932032154905846,
        "time": 5.073509917,
        "traj_len": 6.278993748245012,
        "weighted_distance": 8.47087906252437
    },
    "planner": "RRTstar",
    "start": {
        "state": {
            "elbow_joint": 2.6216224122426386,
            "shoulder_lift_joint": -1.4174107377796124,
            "shoulder_pan_joint": 0.7066234856936794,
            "wrist_1_joint": 1.9546482284002225,
            "wrist_2_joint": -0.7096286983471962,
            "wrist_3_joint": 0.005740856962016249
        }
    },
    "waypoints": [
        {
            "positions": [
                0.7066234856936794,
                -1.4174107377796124,
                2.6216224122426386,
                1.9546482284002225,
                -0.7096286983471962,
                0.005740856962016249
            ]
        },
        {
            "positions": [
                0.6191948058638546,
                -1.357985440895384,
                2.6081120689625066,
                1.8546374487642963,
                -0.7646272266216847,
                0.02539084448512057
            ]
        },
        {
            "positions": [
                0.5317661260340297,
                -1.2985601440111558,
                2.5946017256823746,
                1.75462666912837,
                -0.8196257548961733,
                0.045040832008224896
            ]
        },
        {
            "positions": [
                0.47342830861537755,
                -1.373209360268541,
                2.5323222130104197,
                1.672135881726401,
                -0.796078413440383,
                -0.0028690017644471613
            ]
        },
        {
            "positions": [
                0.41509049119672536,
                -1.4478585765259258,
                2.470042700338465,
                1.5896450943244316,
                -0.7725310719845928,
                -0.05077883553711922
            ]
        },
        {
            "positions": [
                0.35675267377807324,
                -1.5225077927833108,
                2.40776318766651,
                1.5071543069224624,
                -0.7489837305288025,
                -0.09868866930979128
            ]
        },
        {
            "positions": [
                0.29841485635942105,
                -1.597157009040696,
                2.345483674994555,
                1.424663519520493,
                -0.7254363890730122,
                -0.14659850308246333
            ]
        },
        {
            "positions": [
                0.24007703894076887,
                -1.671806225298081,
                2.2832041623226007,
                1.342172732118524,
                -0.7018890476172219,
                -0.19450833685513538
            ]
        },
        {
            "positions": [
                0.18173922152211675,
                -1.746455441555466,
                2.220924649650646,
                1.2596819447165548,
                -0.6783417061614316,
                -0.24241817062780746
            ]
        },
        {
            "positions": [
                0.12340140410346456,
                -1.821104657812851,
                2.158645136978691,
                1.1771911573145855,
                -0.6547943647056415,
                -0.2903280044004795
            ]
        },
        {
            "positions": [
                0.06506358668481241,
                -1.895753874070236,
                2.096365624306736,
                1.0947003699126163,
                -0.6312470232498512,
                -0.33823783817315156
            ]
        },
        {
            "positions": [
                0.18799776887735026,
                -1.861701593810726,
                2.005494498501997,
                1.1332861001485706,
                -0.7048828252278985,
                -0.3196464157956863
            ]
        },
        {
            "positions": [
                0.3109319510698881,
                -1.8276493135512157,
                1.9146233726972581,
                1.1718718303845248,
                -0.7785186272059459,
                -0.30105499341822106
            ]
        },
        {
            "positions": [
                0.43386613326242596,
                -1.7935970332917055,
                1.8237522468925191,
                1.210457560620479,
                -0.8521544291839933,
                -0.2824635710407558
            ]
        },
        {
            "positions": [
                0.5568003154549638,
                -1.7595447530321955,
                1.7328811210877801,
                1.2490432908564333,
                -0.9257902311620406,
                -0.26387214866329056
            ]
        },
        {
            "positions": [
                0.6797344976475016,
                -1.7254924727726855,
                1.6420099952830411,
                1.2876290210923875,
                -0.999426033140088,
                -0.24528072628582534
            ]
        },
        {
            "positions": [
                0.8026686798400394,
                -1.6914401925131752,
                1.5511388694783022,
                1.3262147513283418,
                -1.0730618351181354,
                -0.22668930390836012
            ]
        },
        {
            "positions": [
                0.9256028620325774,
                -1.657387912253665,
                1.4602677436735632,
                1.364800481564296,
                -1.1466976370961828,
                -0.20809788153089484
            ]
        },
        {
            "positions": [
                1.0485370442251152,
                -1.623335631994155,
                1.3693966178688242,
                1.40338621180025,
                -1.22033343907423,
                -0.18950645915342962
            ]
        },
        {
            "positions": [
                1.171471226417653,
                -1.589283351734645,
                1.2785254920640852,
                1.4419719420362043,
                -1.2939692410522774,
                -0.17091503677596437
            ]
        },
        {
            "positions": [
                1.2944054086101908,
                -1.5552310714751347,
                1.1876543662593462,
                1.4805576722721585,
                -1.3676050430303248,
                -0.15232361439849912
            ]
        },
        {
            "positions": [
                1.4173395908027289,
                -1.5211787912156245,
                1.0967832404546072,
                1.5191434025081128,
                -1.4412408450083722,
                -0.13373219202103387
            ]
        },
        {
            "positions": [
                1.5402737729952665,
                -1.4871265109561145,
                1.0059121146498682,
                1.557729132744067,
                -1.5148766469864197,
                -0.11514076964356865
            ]
        },
        {
            "positions": [
                1.6632079551878043,
                -1.4530742306966045,
                0.9150409888451292,
                1.5963148629800212,
                -1.588512448964467,
                -0.0965493472661034
            ]
        },
        {
            "positions": [
                1.7861421373803423,
                -1.4190219504370942,
                0.8241698630403902,
                1.6349005932159755,
                -1.6621482509425145,
                -0.07795792488863812
            ]
        },
        {
            "positions": [
                1.9090763195728802,
                -1.384969670177584,
                0.7332987372356512,
                1.6734863234519297,
                -1.735784052920562,
                -0.05936650251117287
            ]
        },
        {
            "positions": [
                2.0320105017654178,
                -1.350917389918074,
                0.6424276114309122,
                1.712072053687884,
                -1.809419854898609,
                -0.040775080133707675
            ]
        },
        {
            "positions": [
                2.154944683957956,
                -1.316865109658564,
                0.5515564856261732,
                1.7506577839238382,
                -1.8830556568766563,
                -0.022183657756242425
            ]
        },
        {
            "positions": [
                2.277878866150494,
                -1.2828128293990537,
                0.4606853598214342,
                1.7892435141597924,
                -1.956691458854704,
                -0.0035922353787771755
            ]
        },
        {
            "positions": [
                2.286380129759263,
                -1.285068961673957,
                0.5084140101466899,
                1.643169269470417,
                -1.8602231735473396,
                -0.08973245532309086
            ]
        },
        {
            "positions": [
                2.294881393368032,
                -1.28732509394886,
                0.5561426604719456,
                1.4970950247810415,
                -1.763754888239975,
                -0.17587267526740455
            ]
        },
        {
            "positions": [
                2.3033826569768014,
                -1.2895812262237634,
                0.6038713107972014,
                1.3510207800916663,
                -1.6672866029326106,
                -0.2620128952117183
            ]
        },
        {
            "positions": [
                2.3118839205855704,
                -1.2918373584986664,
                0.651599961122457,
                1.2049465354022908,
                -1.570818317625246,
                -0.3481531151560319
            ]
        },
        {
            "positions": [
                2.3203851841943397,
                -1.2940934907735697,
                0.6993286114477126,
                1.0588722907129156,
                -1.4743500323178815,
                -0.4342933351003456
            ]
        },
        {
            "positions": [
                2.3288864478031086,
                -1.2963496230484728,
                0.7470572617729684,
                0.91279804602354,
                -1.377881747010517,
                -0.5204335550446594
            ]
        },
        {
            "positions": [
                2.337387711411878,
                -1.298605755323376,
                0.794785912098224,
                0.7667238013341646,
                -1.2814134617031527,
                -0.6065737749889729
            ]
        },
        {
            "positions": [
                2.345888975020647,
                -1.3008618875982794,
                0.8425145624234798,
                0.6206495566447892,
                -1.1849451763957881,
                -0.6927139949332867
            ]
        },
        {
            "positions": [
                2.354390238629416,
                -1.3031180198731824,
                0.8902432127487354,
                0.4745753119554139,
                -1.0884768910884235,
                -0.7788542148776003
            ]
        },
        {
            "positions": [
                2.362891502238185,
                -1.3053741521480857,
                0.9379718630739912,
                0.32850106726603845,
                -0.9920086057810591,
                -0.8649944348219141
            ]
        },
        {
            "positions": [
                2.3713927658469545,
                -1.3076302844229888,
                0.9857005133992468,
                0.18242682257666298,
                -0.8955403204736947,
                -0.9511346547662277
            ]
        },
        {
            "positions": [
                2.3798940294557234,
                -1.309886416697892,
                1.0334291637245026,
                0.03635257788728752,
                -0.7990720351663301,
                -1.0372748747105416
            ]
        },
        {
            "positions": [
                2.3883952930644927,
                -1.3121425489727954,
                1.0811578140497582,
                -0.10972166680208773,
                -0.7026037498589657,
                -1.1234150946548551
            ]
        },
        {
            "positions": [
                2.396896556673262,
                -1.3143986812476984,
                1.1288864643750138,
                -0.2557959114914632,
                -0.6061354645516013,
                -1.2095553145991687
            ]
        },
        {
            "positions": [
                2.405397820282031,
                -1.3166548135226017,
                1.1766151147002695,
                -0.4018701561808382,
                -0.5096671792442369,
                -1.2956955345434824
            ]
        },
        {
            "positions": [
                2.4138990838908003,
                -1.3189109457975048,
                1.2243437650255253,
                -0.5479444008702141,
                -0.41319889393687204,
                -1.3818357544877962
            ]
        },
        {
            "positions": [
                2.4224003474995692,
                -1.321167078072408,
                1.272072415350781,
                -0.6940186455595891,
                -0.31673060862950764,
                -1.46797597443211
            ]
        },
        {
            "positions": [
                2.4309016111083386,
                -1.3234232103473111,
                1.3198010656760366,
                -0.8400928902489646,
                -0.22026232332214324,
                -1.5541161943764235
            ]
        },
        {
            "positions": [
                2.4394028747171075,
                -1.3256793426222144,
                1.3675297160012923,
                -0.9861671349383401,
                -0.12379403801477884,
                -1.6402564143207372
            ]
        },
        {
            "positions": [
                2.447904138325877,
                -1.3279354748971177,
                1.4152583663265481,
                -1.1322413796277155,
                -0.02732575270741422,
                -1.726396634265051
            ]
        },
        {
            "positions": [
                2.4564054019346457,
                -1.3301916071720208,
                1.4629870166518038,
                -1.278315624317091,
                0.0691425325999504,
                -1.8125368542093647
            ]
        },
        {
            "positions": [
                2.464906665543415,
                -1.332447739446924,
                1.5107156669770594,
                -1.4243898690064665,
                0.16561081790731458,
                -1.8986770741536783
            ]
        },
        {
            "positions": [
                2.473407929152184,
                -1.3347038717218271,
                1.558444317302315,
                -1.5704641136958415,
                0.2620791032146792,
                -1.984817294097992
            ]
        },
        {
            "positions": [
                2.4819091927609533,
                -1.3369600039967304,
                1.606172967627571,
                -1.7165383583852174,
                0.3585473885220438,
                -2.070957514042306
            ]
        },
        {
            "positions": [
                2.4904104563697222,
                -1.3392161362716335,
                1.6539016179528265,
                -1.8626126030745924,
                0.455015673829408,
                -2.1570977339866193
            ]
        },
        {
            "positions": [
                2.4989117199784916,
                -1.3414722685465368,
                1.7016302682780822,
                -2.008686847763968,
                0.5514839591367728,
                -2.243237953930933
            ]
        },
        {
            "positions": [
                2.5048775720409777,
                -1.292502279504632,
                1.626996911075919,
                -2.0330492337408343,
                0.6254986218087555,
                -2.0823514826605334
            ]
        },
        {
            "positions": [
                2.510843424103464,
                -1.243532290462727,
                1.5523635538737557,
                -2.0574116197177004,
                0.6995132844807381,
                -1.9214650113901337
            ]
        },
        {
            "positions": [
                2.51680927616595,
                -1.1945623014208222,
                1.4777301966715926,
                -2.081774005694567,
                0.7735279471527208,
                -1.7605785401197338
            ]
        },
        {
            "positions": [
                2.5227751282284365,
                -1.1455923123789176,
                1.4030968394694292,
                -2.1061363916714333,
                0.8475426098247034,
                -1.5996920688493341
            ]
        },
        {
            "positions": [
                2.5287409802909226,
                -1.0966223233370127,
                1.328463482267266,
                -2.1304987776482993,
                0.9215572724966862,
                -1.4388055975789342
            ]
        },
        {
            "positions": [
                2.5347068323534088,
                -1.0476523342951078,
                1.253830125065103,
                -2.1548611636251658,
                0.9955719351686687,
                -1.2779191263085345
            ]
        },
        {
            "positions": [
                2.540672684415895,
                -0.998682345253203,
                1.1791967678629396,
                -2.179223549602032,
                1.0695865978406514,
                -1.1170326550381349
            ]
        },
        {
            "positions": [
                2.546638536478381,
                -0.9497123562112981,
                1.1045634106607762,
                -2.2035859355788983,
                1.143601260512634,
                -0.9561461837677352
            ]
        },
        {
            "positions": [
                2.552604388540867,
                -0.9007423671693933,
                1.029930053458613,
                -2.2279483215557647,
                1.2176159231846169,
                -0.7952597124973353
            ]
        },
        {
            "positions": [
                2.5585702406033533,
                -0.8517723781274884,
                0.9552966962564499,
                -2.2523107075326307,
                1.2916305858565995,
                -0.6343732412269356
            ]
        },
        {
            "positions": [
                2.56453609266584,
                -0.8028023890855835,
                0.8806633390542867,
                -2.276673093509497,
                1.365645248528582,
                -0.47348676995653594
            ]
        },
        {
            "positions": [
                2.570501944728326,
                -0.7538324000436788,
                0.8060299818521235,
                -2.3010354794863637,
                1.4396599112005646,
                -0.31260029868613626
            ]
        },
        {
            "positions": [
                2.576467796790812,
                -0.7048624110017739,
                0.7313966246499602,
                -2.3253978654632297,
                1.5136745738725474,
                -0.15171382741573636
            ]
        },
        {
            "positions": [
                2.582433648853298,
                -0.6558924219598691,
                0.656763267447797,
                -2.349760251440096,
                1.58768923654453,
                0.00917264385466332
            ]
        },
        {
            "positions": [
                2.5883995009157843,
                -0.6069224329179642,
                0.5821299102456339,
                -2.3741226374169626,
                1.6617038992165127,
                0.170059115125063
            ]
        },
        {
            "positions": [
                2.5943653529782704,
                -0.5579524438760595,
                0.5074965530434705,
                -2.3984850233938286,
                1.7357185618884954,
                0.3309455863954627
            ]
        },
        {
            "positions": [
                2.6003312050407565,
                -0.5089824548341546,
                0.4328631958413074,
                -2.422847409370695,
                1.809733224560478,
                0.49183205766586235
            ]
        },
        {
            "positions": [
                2.606297057103243,
                -0.46001246579224964,
                0.35822983863914404,
                -2.4472097953475616,
                1.883747887232461,
                0.6527185289362625
            ]
        },
        {
            "positions": [
                2.6122629091657292,
                -0.4110424767503449,
                0.2835964814369809,
                -2.4715721813244276,
                1.9577625499044435,
                0.8136050002066622
            ]
        },
        {
            "positions": [
                2.6182287612282154,
                -0.36207248770844,
                0.20896312423481755,
                -2.495934567301294,
                2.031777212576426,
                0.9744914714770618
            ]
        },
        {
            "positions": [
                2.6241946132907015,
                -0.31310249866653517,
                0.13432976703265442,
                -2.5202969532781605,
                2.105791875248409,
                1.1353779427474615
            ]
        },
        {
            "positions": [
                2.6301604653531876,
                -0.2641325096246303,
                0.05969640983049129,
                -2.5446593392550265,
                2.179806537920391,
                1.2962644140178612
            ]
        },
        {
            "positions": [
                2.6361263174156737,
                -0.21516252058272567,
                -0.01493694737167206,
                -2.569021725231893,
                2.253821200592374,
                1.4571508852882609
            ]
        },
        {
            "positions": [
                2.64209216947816,
                -0.1661925315408208,
                -0.08957030457383519,
                -2.593384111208759,
                2.3278358632643563,
                1.6180373565586605
            ]
        },
        {
            "positions": [
                2.6480580215406464,
                -0.11722254249891573,
                -0.16420366177599854,
                -2.6177464971856255,
                2.4018505259363394,
                1.778923827829061
            ]
        },
        {
            "positions": [
                2.6540238736031325,
                -0.06825255345701109,
                -0.23883701897816167,
                -2.642108883162492,
                2.475865188608322,
                1.9398102990994603
            ]
        },
        {
            "positions": [
                2.6599897256656186,
                -0.01928256441510623,
                -0.3134703761803248,
                -2.6664712691393584,
                2.5498798512803047,
                2.1006967703698605
            ]
        },
        {
            "positions": [
                2.6659555777281048,
                0.02968742462679863,
                -0.38810373338248816,
                -2.6908336551162244,
                2.6238945139522873,
                2.2615832416402593
            ]
        },
        {
            "positions": [
                2.6598207015265687,
                -0.08103539085578378,
                -0.4618187464323608,
                -2.6794318023070995,
                2.476640722300591,
                2.298359073695416
            ]
        },
        {
            "positions": [
                2.653685825325033,
                -0.19175820633836618,
                -0.5355337594822335,
                -2.6680299494979742,
                2.3293869306488943,
                2.3351349057505733
            ]
        },
        {
            "positions": [
                2.647550949123497,
                -0.30248102182094855,
                -0.6092487725321062,
                -2.6566280966888494,
                2.182133138997198,
                2.37191073780573
            ]
        },
        {
            "positions": [
                2.641416072921961,
                -0.413203837303531,
                -0.6829637855819788,
                -2.6452262438797245,
                2.034879347345502,
                2.4086865698608872
            ]
        },
        {
            "positions": [
                2.6352811967204253,
                -0.5239266527861134,
                -0.7566787986318515,
                -2.6338243910705996,
                1.8876255556938055,
                2.445462401916044
            ]
        },
        {
            "positions": [
                2.629146320518889,
                -0.6346494682686957,
                -0.8303938116817242,
                -2.6224225382614743,
                1.740371764042109,
                2.4822382339712012
            ]
        },
        {
            "positions": [
                2.6230114443173536,
                -0.7453722837512782,
                -0.9041088247315968,
                -2.6110206854523494,
                1.5931179723904128,
                2.519014066026358
            ]
        },
        {
            "positions": [
                2.6168765681158175,
                -0.8560950992338606,
                -0.9778238377814694,
                -2.5996188326432246,
                1.4458641807387163,
                2.5557898980815152
            ]
        },
        {
            "positions": [
                2.6107416919142814,
                -0.966817914716443,
                -1.0515388508313421,
                -2.5882169798340997,
                1.29861038908702,
                2.592565730136672
            ]
        },
        {
            "positions": [
                2.6046068157127458,
                -1.0775407301990254,
                -1.1252538638812148,
                -2.5768151270249744,
                1.1513565974353235,
                2.6293415621918292
            ]
        },
        {
            "positions": [
                2.5984719395112097,
                -1.188263545681608,
                -1.1989688769310876,
                -2.5654132742158495,
                1.004102805783627,
                2.666117394246986
            ]
        },
        {
            "positions": [
                2.5923370633096736,
                -1.29898636116419,
                -1.2726838899809603,
                -2.5540114214067247,
                0.8568490141319307,
                2.7028932263021432
            ]
        },
        {
            "positions": [
                2.586202187108138,
                -1.4097091766467726,
                -1.346398903030833,
                -2.5426095685976,
                0.7095952224802342,
                2.7396690583573
            ]
        },
        {
            "positions": [
                2.580067310906602,
                -1.520431992129355,
                -1.4201139160807055,
                -2.5312077157884745,
                0.5623414308285382,
                2.7764448904124572
            ]
        },
        {
            "positions": [
                2.5739324347050663,
                -1.6311548076119375,
                -1.4938289291305782,
                -2.5198058629793496,
                0.41508763917684144,
                2.813220722467614
            ]
        },
        {
            "positions": [
                2.56779755850353,
                -1.7418776230945199,
                -1.5675439421804507,
                -2.5084040101702247,
                0.26783384752514516,
                2.849996554522771
            ]
        },
        {
            "positions": [
                2.561662682301994,
                -1.8526004385771022,
                -1.6412589552303234,
                -2.4970021573610994,
                0.12058005587344844,
                2.886772386577928
            ]
        },
        {
            "positions": [
                2.5555278061004585,
                -1.9633232540596846,
                -1.714973968280196,
                -2.4856003045519746,
                -0.026673735778247387,
                2.9235482186330852
            ]
        },
        {
            "positions": [
                2.5493929298989224,
                -2.074046069542267,
                -1.7886889813300688,
                -2.4741984517428497,
                -0.17392752742994427,
                2.960324050688242
            ]
        },
        {
            "positions": [
                2.586579063855614,
                -2.1111907888632904,
                -1.742905461841122,
                -2.4660059945190547,
                -0.2723584178397247,
                3.0196347178137195
            ]
        },
        {
            "positions": [
                2.623765197812306,
                -2.1483355081843136,
                -1.6971219423521748,
                -2.4578135372952596,
                -0.37078930824950507,
                3.078945384939197
            ]
        },
        {
            "positions": [
                2.660951331768998,
                -2.185480227505337,
                -1.651338422863228,
                -2.4496210800714646,
                -0.4692201986592855,
                3.1382560520646745
            ]
        }
    ]
}