{
    "goal": {
        "global_pose": {
            "orientation": {
                "w": 0.7031023480610252,
                "x": -0.7110244013736278,
                "y": 0.0077485991402295624,
                "z": 0.005598929693374583
            },
            "position": {
                "x": -0.8841497679147869,
                "y": 0.44412534475326537,
                "z": 0.3711530566215515
            }
        },
        "name": "move_to_auspresseinheit_D"
    },
    "id": "RRTstar_move_to_auspresseinheit_D_149",
    "joint_names": [
        "shoulder_pan_joint",
        "shoulder_lift_joint",
        "elbow_joint",
        "wrist_1_joint",
        "wrist_2_joint",
        "wrist_3_joint"
    ],
    "metrics": {
        "cart_traj_len": 0.3423911416105011,
        "distance_elbow_joint": 0.6295995456953498,
        "distance_shoulder_lift_joint": 0.11670845321799117,
        "distance_shoulder_pan_joint": 0.13349521528239786,
        "distance_wrist_1_joint": 0.5022995151706651,
        "distance_wrist_2_joint": 1.4384872327764053,
        "distance_wrist_3_joint": 0.024933382543014915,
        "smoothness": 3.9474596431116675e-16,
        "time": 5.001409801,
        "traj_len": 1.6868679096733759,
        "weighted_distance": 2.1991309323728143
    },
    "planner": "RRTstar",
    "start": {
        "state": {
            "elbow_joint": -1.8275523626775212,
            "shoulder_lift_joint": -2.126789852344167,
            "shoulder_pan_joint": -0.03513704404078235,
            "wrist_1_joint": -2.347782403156801,
            "wrist_2_joint": -1.6058999987535132,
            "wrist_3_joint": -3.0880379163319196
        }
    },
    "waypoints": [
        {
            "positions": [
                -0.03513704404078235,
                -2.126789852344167,
                -1.8275523626775212,
                -2.347782403156801,
                -1.6058999987535132,
                -3.0880379163319196
            ]
        },
        {
            "positions": [
                -0.051823945951082084,
                -2.141378408996416,
                -1.7488524194656025,
                -2.410569842553134,
                -1.4260890946564626,
                -3.0911545891497965
            ]
        },
        {
            "positions": [
                -0.06851084786138181,
                -2.1559669656486644,
                -1.6701524762536837,
                -2.4733572819494674,
                -1.2462781905594118,
                -3.0942712619676733
            ]
        },
        {
            "positions": [
                -0.08519774977168154,
                -2.1705555223009134,
                -1.591452533041765,
                -2.5361447213458,
                -1.0664672864623612,
                -3.09738793478555
            ]
        },
        {
            "positions": [
                -0.10188465168198127,
                -2.1851440789531624,
                -1.5127525898298462,
                -2.5989321607421334,
                -0.8866563823653105,
                -3.100504607603427
            ]
        },
        {
            "positions": [
                -0.118571553592281,
                -2.1997326356054114,
                -1.4340526466179275,
                -2.6617196001384666,
                -0.7068454782682598,
                -3.103621280421304
            ]
        },
        {
            "positions": [
                -0.13525845550258075,
                -2.2143211922576604,
                -1.3553527034060089,
                -2.7245070395347994,
                -0.5270345741712092,
                -3.106737953239181
            ]
        },
        {
            "positions": [
                -0.15194535741288048,
                -2.228909748909909,
                -1.2766527601940902,
                -2.7872944789311327,
                -0.34722367007415844,
                -3.1098546260570576
            ]
        },
        {
            "positions": [
                -0.1686322593231802,
                -2.243498305562158,
                -1.1979528169821714,
                -2.850081918327466,
                -0.16741276597710789,
                -3.1129712988749345
            ]
        }
    ]
}