{
    "goal": {
        "global_pose": {
            "orientation": {
                "w": -0.4816463035849501,
                "x": 0.5182115481033762,
                "y": 0.4908360881923453,
                "z": -0.5084816262002911
            },
            "position": {
                "x": -0.8240239810943604,
                "y": -0.300875300988555,
                "z": 0.16403168439865112
            }
        },
        "name": "move_to_storage_C"
    },
    "id": "RRTstar_move_to_storage_C_141",
    "joint_names": [
        "shoulder_pan_joint",
        "shoulder_lift_joint",
        "elbow_joint",
        "wrist_1_joint",
        "wrist_2_joint",
        "wrist_3_joint"
    ],
    "metrics": {
        "cart_traj_len": 0.5771762886179667,
        "distance_elbow_joint": 0.2571021319877962,
        "distance_shoulder_lift_joint": 0.18852913653059156,
        "distance_shoulder_pan_joint": 0.4954493153242878,
        "distance_wrist_1_joint": 0.07567780153406645,
        "distance_wrist_2_joint": 1.0687127624289348,
        "distance_wrist_3_joint": 0.05537883818734102,
        "smoothness": 0.0,
        "time": 5.000414854000001,
        "traj_len": 1.4631643742221918,
        "weighted_distance": 1.842823438729468
    },
    "planner": "RRTstar",
    "start": {
        "state": {
            "elbow_joint": 2.010868314990456,
            "shoulder_lift_joint": -1.1634956873337592,
            "shoulder_pan_joint": -2.4736205022346125,
            "wrist_1_joint": -0.8367026794202681,
            "wrist_2_joint": 0.6746043897044499,
            "wrist_3_joint": -3.1496632123970403
        }
    },
    "waypoints": [
        {
            "positions": [
                -2.4736205022346125,
                -1.1634956873337592,
                2.010868314990456,
                -0.8367026794202681,
                0.6746043897044499,
                -3.1496632123970403
            ]
        },
        {
            "positions": [
                -2.556195388121994,
                -1.1320741645786605,
                1.9680179596591565,
                -0.8240897124979237,
                0.8527231834426057,
                -3.1404334060324834
            ]
        },
        {
            "positions": [
                -2.6387702740093752,
                -1.100652641823562,
                1.9251676043278572,
                -0.8114767455755793,
                1.0308419771807615,
                -3.1312035996679266
            ]
        },
        {
            "positions": [
                -2.7213451598967566,
                -1.0692311190684634,
                1.8823172489965576,
                -0.7988637786532349,
                1.2089607709189174,
                -3.1219737933033698
            ]
        },
        {
            "positions": [
                -2.8039200457841376,
                -1.037809596313365,
                1.8394668936652583,
                -0.7862508117308905,
                1.387079564657073,
                -3.112743986938813
            ]
        },
        {
            "positions": [
                -2.886494931671519,
                -1.0063880735582662,
                1.796616538333959,
                -0.773637844808546,
                1.565198358395229,
                -3.103514180574256
            ]
        },
        {
            "positions": [
                -2.9690698175589003,
                -0.9749665508031676,
                1.7537661830026596,
                -0.7610248778862017,
                1.7433171521333848,
                -3.0942843742096993
            ]
        }
    ]
}