{
    "goal": {
        "global_pose": {
            "orientation": {
                "w": 0.005598929693374612,
                "x": 0.007748599140229565,
                "y": 0.7110244013736278,
                "z": -0.7031023480610252
            },
            "position": {
                "x": 0.1141497679147869,
                "y": -0.7141253447532654,
                "z": 0.3711530566215515
            }
        },
        "name": "move_to_auspresseinheit_B"
    },
    "id": "RRTstar_move_to_auspresseinheit_B_13",
    "joint_names": [
        "shoulder_pan_joint",
        "shoulder_lift_joint",
        "elbow_joint",
        "wrist_1_joint",
        "wrist_2_joint",
        "wrist_3_joint"
    ],
    "metrics": {
        "cart_traj_len": 0.5649377821061918,
        "distance_elbow_joint": 0.05847224745945523,
        "distance_shoulder_lift_joint": 0.2964015742911037,
        "distance_shoulder_pan_joint": 0.5789387824930319,
        "distance_wrist_1_joint": 0.3164607238848086,
        "distance_wrist_2_joint": 0.9894356203436443,
        "distance_wrist_3_joint": 0.0019517652614382541,
        "smoothness": 2.5376526478085547e-16,
        "time": 5.000110441,
        "traj_len": 1.4972176574344433,
        "weighted_distance": 1.8845319282211197
    },
    "planner": "RRTstar",
    "start": {
        "state": {
            "elbow_joint": 2.0193083361928714,
            "shoulder_lift_joint": -1.1220246554650708,
            "shoulder_pan_joint": -1.0952077554168747,
            "wrist_1_joint": -0.8559753972642168,
            "wrist_2_joint": 0.4759566250798843,
            "wrist_3_joint": -3.1240929996934557
        }
    },
    "waypoints": [
        {
            "positions": [
                -1.0952077554168747,
                -1.1220246554650708,
                2.0193083361928714,
                -0.8559753972642168,
                0.4759566250798843,
                -3.1240929996934557
            ]
        },
        {
            "positions": [
                -1.1916975524990465,
                -1.1714249178469214,
                2.0095629616162958,
                -0.8032319432834154,
                0.6408625618038251,
                -3.123767705483216
            ]
        },
        {
            "positions": [
                -1.2881873495812186,
                -1.220825180228772,
                1.9998175870397197,
                -0.7504884893026139,
                0.8057684985277658,
                -3.1234424112729764
            ]
        },
        {
            "positions": [
                -1.3846771466633907,
                -1.2702254426106228,
                1.9900722124631438,
                -0.6977450353218124,
                0.9706744352517065,
                -3.1231171170627365
            ]
        },
        {
            "positions": [
                -1.4811669437455626,
                -1.3196257049924733,
                1.980326837886568,
                -0.645001581341011,
                1.1355803719756472,
                -3.1227918228524967
            ]
        },
        {
            "positions": [
                -1.5776567408277344,
                -1.369025967374324,
                1.970581463309992,
                -0.5922581273602097,
                1.300486308699588,
                -3.1224665286422573
            ]
        },
        {
            "positions": [
                -1.6741465379099065,
                -1.4184262297561745,
                1.9608360887334162,
                -0.5395146733794082,
                1.4653922454235286,
                -3.1221412344320174
            ]
        }
    ]
}