{
    "goal": {
        "global_pose": {
            "orientation": {
                "w": 0.005598929693374612,
                "x": 0.007748599140229565,
                "y": 0.7110244013736278,
                "z": -0.7031023480610252
            },
            "position": {
                "x": -0.8858502320852131,
                "y": -0.7141253447532654,
                "z": 0.3711530566215515
            }
        },
        "name": "move_to_auspresseinheit_C"
    },
    "id": "RRTstar_move_to_auspresseinheit_C_107",
    "joint_names": [
        "shoulder_pan_joint",
        "shoulder_lift_joint",
        "elbow_joint",
        "wrist_1_joint",
        "wrist_2_joint",
        "wrist_3_joint"
    ],
    "metrics": {
        "cart_traj_len": 0.49247844740842456,
        "distance_elbow_joint": 0.9938699489927957,
        "distance_shoulder_lift_joint": 0.3221978950951877,
        "distance_shoulder_pan_joint": 0.25591030424922234,
        "distance_wrist_1_joint": 0.6634044658722367,
        "distance_wrist_2_joint": 1.3065576656992146,
        "distance_wrist_3_joint": 0.04560879074906454,
        "smoothness": 0.0,
        "time": 5.005966362000001,
        "traj_len": 1.8940826462057356,
        "weighted_distance": 2.376705447405568
    },
    "planner": "RRTstar",
    "start": {
        "state": {
            "elbow_joint": 1.7527959577737207,
            "shoulder_lift_joint": -0.9740617694225068,
            "shoulder_pan_joint": -2.967991417825858,
            "wrist_1_joint": -0.759517768980727,
            "wrist_2_joint": 1.7443932448377408,
            "wrist_3_joint": -3.0840537646736568
        }
    },
    "waypoints": [
        {
            "positions": [
                -2.967991417825858,
                -0.9740617694225068,
                1.7527959577737207,
                -0.759517768980727,
                1.7443932448377408,
                -3.0840537646736568
            ]
        },
        {
            "positions": [
                -2.942400387400936,
                -0.941841979912988,
                1.653408962874441,
                -0.6931773223935033,
                1.6137374782678193,
                -3.088614643748563
            ]
        },
        {
            "positions": [
                -2.9168093569760134,
                -0.9096221904034693,
                1.5540219679751615,
                -0.6268368758062797,
                1.4830817116978978,
                -3.09317552282347
            ]
        },
        {
            "positions": [
                -2.8912183265510913,
                -0.8774024008939505,
                1.454634973075882,
                -0.560496429219056,
                1.3524259451279765,
                -3.097736401898376
            ]
        },
        {
            "positions": [
                -2.865627296126169,
                -0.8451826113844316,
                1.3552479781766023,
                -0.4941559826318323,
                1.2217701785580548,
                -3.1022972809732825
            ]
        },
        {
            "positions": [
                -2.840036265701247,
                -0.812962821874913,
                1.2558609832773229,
                -0.42781553604460865,
                1.0911144119881335,
                -3.106858160048189
            ]
        },
        {
            "positions": [
                -2.8144452352763247,
                -0.7807430323653941,
                1.1564739883780433,
                -0.361475089457385,
                0.9604586454182121,
                -3.1114190391230956
            ]
        },
        {
            "positions": [
                -2.7888542048514022,
                -0.7485232428558755,
                1.0570869934787637,
                -0.29513464287016133,
                0.8298028788482906,
                -3.115979918198002
            ]
        },
        {
            "positions": [
                -2.76326317442648,
                -0.7163034533463566,
                0.9576999985794841,
                -0.22879419628293762,
                0.699147112278369,
                -3.1205407972729082
            ]
        },
        {
            "positions": [
                -2.7376721440015577,
                -0.6840836638368378,
                0.8583130036802046,
                -0.1624537496957139,
                0.5684913457084477,
                -3.125101676347815
            ]
        },
        {
            "positions": [
                -2.7120811135766356,
                -0.6518638743273191,
                0.758926008780925,
                -0.09611330310849028,
                0.4378355791385262,
                -3.1296625554227213
            ]
        }
    ]
}