{
    "goal": {
        "global_pose": {
            "orientation": {
                "w": -0.4816463035849501,
                "x": 0.5182115481033762,
                "y": 0.4908360881923453,
                "z": -0.5084816262002911
            },
            "position": {
                "x": -0.8240239810943604,
                "y": -0.300875300988555,
                "z": 0.16403168439865112
            }
        },
        "name": "move_to_storage_C"
    },
    "id": "RRTstar_move_to_storage_C_100",
    "joint_names": [
        "shoulder_pan_joint",
        "shoulder_lift_joint",
        "elbow_joint",
        "wrist_1_joint",
        "wrist_2_joint",
        "wrist_3_joint"
    ],
    "metrics": {
        "cart_traj_len": 0.5758899233142072,
        "distance_elbow_joint": 0.2569062944402867,
        "distance_shoulder_lift_joint": 0.18870489517904265,
        "distance_shoulder_pan_joint": 0.4946143683751463,
        "distance_wrist_1_joint": 0.07585565139956474,
        "distance_wrist_2_joint": 1.0625995112383433,
        "distance_wrist_3_joint": 0.05596278756618389,
        "smoothness": 0.0,
        "time": 5.000739529,
        "traj_len": 1.4610419255444274,
        "weighted_distance": 1.8398435384479963
    },
    "planner": "RRTstar",
    "start": {
        "state": {
            "elbow_joint": 2.010868314990456,
            "shoulder_lift_joint": -1.1634956873337592,
            "shoulder_pan_joint": -2.4736205022346125,
            "wrist_1_joint": -0.8367026794202681,
            "wrist_2_joint": 0.6746043897044499,
            "wrist_3_joint": -3.1496632123970403
        }
    },
    "waypoints": [
        {
            "positions": [
                -2.4736205022346125,
                -1.1634956873337592,
                2.010868314990456,
                -0.8367026794202681,
                0.6746043897044499,
                -3.1496632123970403
            ]
        },
        {
            "positions": [
                -2.556056230297137,
                -1.1320448714705855,
                1.968050599250408,
                -0.8240600708536739,
                0.8517043082441738,
                -3.1403360811360095
            ]
        },
        {
            "positions": [
                -2.638491958359661,
                -1.1005940556074116,
                1.9252328835103603,
                -0.8114174622870799,
                1.0288042267838977,
                -3.131008949874979
            ]
        },
        {
            "positions": [
                -2.7209276864221854,
                -1.0691432397442377,
                1.8824151677703125,
                -0.7987748537204857,
                1.2059041453236214,
                -3.1216818186139483
            ]
        },
        {
            "positions": [
                -2.80336341448471,
                -1.037692423881064,
                1.8395974520302647,
                -0.7861322451538916,
                1.3830040638633454,
                -3.1123546873529175
            ]
        },
        {
            "positions": [
                -2.8857991425472345,
                -1.0062416080178904,
                1.796779736290217,
                -0.7734896365872975,
                1.5601039824030694,
                -3.103027556091887
            ]
        },
        {
            "positions": [
                -2.9682348706097588,
                -0.9747907921547165,
                1.7539620205501691,
                -0.7608470280207034,
                1.7372039009427933,
                -3.0937004248308564
            ]
        }
    ]
}