{
    "goal": {
        "global_pose": {
            "orientation": {
                "w": 0.5084816217422485,
                "x": -0.49083608388900757,
                "y": 0.5182115435600281,
                "z": -0.4816462993621826
            },
            "position": {
                "x": 0.5540239810943604,
                "y": 0.030875300988554955,
                "z": 0.16403168439865112
            }
        },
        "name": "move_to_storage_A"
    },
    "id": "RRTstar_move_to_storage_A_36",
    "joint_names": [
        "shoulder_pan_joint",
        "shoulder_lift_joint",
        "elbow_joint",
        "wrist_1_joint",
        "wrist_2_joint",
        "wrist_3_joint"
    ],
    "metrics": {
        "cart_traj_len": 0.3535224466974812,
        "distance_elbow_joint": 0.44969614832385196,
        "distance_shoulder_lift_joint": 0.23425494207921171,
        "distance_shoulder_pan_joint": 0.4623633863691374,
        "distance_wrist_1_joint": 0.23701765235336614,
        "distance_wrist_2_joint": 1.0996850193061256,
        "distance_wrist_3_joint": 0.08695777974716279,
        "smoothness": 8.881784232165597e-16,
        "time": 5.002611735,
        "traj_len": 1.6031141344828994,
        "weighted_distance": 2.0200478111501896
    },
    "planner": "RRTstar",
    "start": {
        "state": {
            "elbow_joint": 1.971548259319323,
            "shoulder_lift_joint": -1.1394851275133948,
            "shoulder_pan_joint": 0.1228115487234821,
            "wrist_1_joint": -0.7804723859257726,
            "wrist_2_joint": 0.12958671773740124,
            "wrist_3_joint": -3.192489227718131
        }
    },
    "waypoints": [
        {
            "positions": [
                0.1228115487234821,
                -1.1394851275133948,
                1.971548259319323,
                -0.7804723859257726,
                0.12958671773740124,
                -3.192489227718131
            ]
        },
        {
            "positions": [
                0.05675963638503391,
                -1.1729501192389964,
                2.0357905662227305,
                -0.8143320505476821,
                0.2866845776382763,
                -3.180066687754251
            ]
        },
        {
            "positions": [
                -0.00929227595341428,
                -1.2064151109645982,
                2.1000328731261377,
                -0.8481917151695915,
                0.44378243753915136,
                -3.1676441477903703
            ]
        },
        {
            "positions": [
                -0.07534418829186249,
                -1.2398801026901998,
                2.1642751800295454,
                -0.882051379791501,
                0.6008802974400265,
                -3.15522160782649
            ]
        },
        {
            "positions": [
                -0.14139610063031066,
                -1.2733450944158016,
                2.2285174869329527,
                -0.9159110444134104,
                0.7579781573409016,
                -3.1427990678626094
            ]
        },
        {
            "positions": [
                -0.20744801296875887,
                -1.3068100861414031,
                2.29275979383636,
                -0.9497707090353198,
                0.9150760172417767,
                -3.1303765278987292
            ]
        },
        {
            "positions": [
                -0.27349992530720707,
                -1.340275077867005,
                2.3570021007397677,
                -0.9836303736572293,
                1.0721738771426517,
                -3.1179539879348486
            ]
        },
        {
            "positions": [
                -0.3395518376456553,
                -1.3737400695926065,
                2.421244407643175,
                -1.0174900382791388,
                1.2292717370435269,
                -3.1055314479709684
            ]
        }
    ]
}{
    "goal": {
        "global_pose": {
            "orientation": {
                "w": 0.5084816217422485,
                "x": -0.49083608388900757,
                "y": 0.5182115435600281,
                "z": -0.4816462993621826
            },
            "position": {
                "x": 0.5540239810943604,
                "y": 0.030875300988554955,
                "z": 0.16403168439865112
            }
        },
        "name": "move_to_storage_A"
    },
    "id": "RRTstar_move_to_storage_A_36",
    "joint_names": [
        "shoulder_pan_joint",
        "shoulder_lift_joint",
        "elbow_joint",
        "wrist_1_joint",
        "wrist_2_joint",
        "wrist_3_joint"
    ],
    "metrics": {
        "cart_traj_len": 0.35252725124976714,
        "distance_elbow_joint": 0.4505413055047667,
        "distance_shoulder_lift_joint": 0.23521206368827974,
        "distance_shoulder_pan_joint": 0.4620880644435828,
        "distance_wrist_1_joint": 0.2421561646444368,
        "distance_wrist_2_joint": 1.0936325883026594,
        "distance_wrist_3_joint": 0.09890373488933868,
        "smoothness": 8.881784232165597e-16,
        "time": 5.00058032,
        "traj_len": 1.6070264221452815,
        "weighted_distance": 2.0288248185091877
    },
    "planner": "RRTstar",
    "start": {
        "state": {
            "elbow_joint": 1.97154746011099,
            "shoulder_lift_joint": -1.13948474672311,
            "shoulder_pan_joint": 0.12281154466712228,
            "wrist_1_joint": -0.7804688027058302,
            "wrist_2_joint": 0.12958655903071145,
            "wrist_3_joint": 3.0906928834467795
        }
    },
    "waypoints": [
        {
            "positions": [
                0.12281154466712228,
                -1.13948474672311,
                1.97154746011099,
                -0.7804688027058302,
                0.12958655903071145,
                3.0906928834467795
            ]
        },
        {
            "positions": [
                0.05679896403232475,
                -1.17308647010715,
                2.035910503754528,
                -0.8150625405121783,
                0.28581978593109136,
                3.1048219884309707
            ]
        },
        {
            "positions": [
                -0.009213616602472788,
                -1.20668819349119,
                2.100273547398066,
                -0.8496562783185264,
                0.44205301283147125,
                3.118951093415162
            ]
        },
        {
            "positions": [
                -0.07522619723727032,
                -1.24028991687523,
                2.1646365910416043,
                -0.8842500161248745,
                0.5982862397318511,
                3.133080198399353
            ]
        },
        {
            "positions": [
                -0.14123877787206784,
                -1.2738916402592697,
                2.228999634685142,
                -0.9188437539312226,
                0.7545194666322311,
                3.1472093033835447
            ]
        },
        {
            "positions": [
                -0.20725135850686544,
                -1.3074933636433097,
                2.2933626783286805,
                -0.9534374917375708,
                0.9107526935326111,
                3.161338408367736
            ]
        },
        {
            "positions": [
                -0.2732639391416629,
                -1.3410950870273497,
                2.3577257219722183,
                -0.9880312295439189,
                1.0669859204329908,
                3.175467513351927
            ]
        },
        {
            "positions": [
                -0.3392765197764605,
                -1.3746968104113897,
                2.4220887656157566,
                -1.022624967350267,
                1.223219147333371,
                3.189596618336118
            ]
        }
    ]
}{
    "goal": {
        "global_pose": {
            "orientation": {
                "w": 0.5084816217422485,
                "x": -0.49083608388900757,
                "y": 0.5182115435600281,
                "z": -0.4816462993621826
            },
            "position": {
                "x": 0.5540239810943604,
                "y": 0.030875300988554955,
                "z": 0.16403168439865112
            }
        },
        "name": "move_to_storage_A"
    },
    "id": "RRTstar_move_to_storage_A_36",
    "joint_names": [
        "shoulder_pan_joint",
        "shoulder_lift_joint",
        "elbow_joint",
        "wrist_1_joint",
        "wrist_2_joint",
        "wrist_3_joint"
    ],
    "metrics": {
        "cart_traj_len": 0.3537121085771749,
        "distance_elbow_joint": 0.44783123333463637,
        "distance_shoulder_lift_joint": 0.23474267176375174,
        "distance_shoulder_pan_joint": 0.4599759640674992,
        "distance_wrist_1_joint": 0.23624185863268243,
        "distance_wrist_2_joint": 1.1106848244966918,
        "distance_wrist_3_joint": 0.09852139913486324,
        "smoothness": 8.881784197001252e-16,
        "time": 5.011857426000001,
        "traj_len": 1.6087255674695187,
        "weighted_distance": 2.0327241408585732
    },
    "planner": "RRTstar",
    "start": {
        "state": {
            "elbow_joint": 1.9715472970024885,
            "shoulder_lift_joint": -1.1394870060712896,
            "shoulder_pan_joint": 0.12281152778156021,
            "wrist_1_joint": -0.780463741449964,
            "wrist_2_joint": 0.12958659822042276,
            "wrist_3_joint": 3.090690232415272
        }
    },
    "waypoints": [
        {
            "positions": [
                0.12281152778156021,
                -1.1394870060712896,
                1.9715472970024885,
                -0.780463741449964,
                0.12958659822042276,
                3.090690232415272
            ]
        },
        {
            "positions": [
                0.05710067577191748,
                -1.1730216734661112,
                2.0355231874788653,
                -0.8142125783974901,
                0.2882558588628073,
                3.1047647180059665
            ]
        },
        {
            "positions": [
                -0.008610176237725253,
                -1.206556340860933,
                2.0994990779552416,
                -0.8479614153450161,
                0.44692511950519187,
                3.1188392035966612
            ]
        },
        {
            "positions": [
                -0.074321028247368,
                -1.2400910082557546,
                2.1634749684316184,
                -0.8817102522925422,
                0.6055943801475764,
                3.132913689187356
            ]
        },
        {
            "positions": [
                -0.14003188025701072,
                -1.2736256756505764,
                2.227450858907995,
                -0.9154590892400682,
                0.7642636407899609,
                3.146988174778051
            ]
        },
        {
            "positions": [
                -0.2057427322666535,
                -1.307160343045398,
                2.291426749384372,
                -0.9492079261875943,
                0.9229329014323455,
                3.1610626603687457
            ]
        },
        {
            "positions": [
                -0.2714535842762962,
                -1.3406950104402195,
                2.355402639860748,
                -0.9829567631351204,
                1.08160216207473,
                3.1751371459594404
            ]
        },
        {
            "positions": [
                -0.33716443628593895,
                -1.3742296778350414,
                2.419378530337125,
                -1.0167056000826464,
                1.2402714227171145,
                3.189211631550135
            ]
        }
    ]
}