{
    "goal": {
        "global_pose": {
            "orientation": {
                "w": 0.005598929693374612,
                "x": 0.007748599140229565,
                "y": 0.7110244013736278,
                "z": -0.7031023480610252
            },
            "position": {
                "x": -0.8858502320852131,
                "y": -0.7141253447532654,
                "z": 0.3711530566215515
            }
        },
        "name": "move_to_auspresseinheit_C"
    },
    "id": "RRTstar_move_to_auspresseinheit_C_125",
    "joint_names": [
        "shoulder_pan_joint",
        "shoulder_lift_joint",
        "elbow_joint",
        "wrist_1_joint",
        "wrist_2_joint",
        "wrist_3_joint"
    ],
    "metrics": {
        "cart_traj_len": 0.4927734589443097,
        "distance_elbow_joint": 0.9886896355168586,
        "distance_shoulder_lift_joint": 0.31875057309908683,
        "distance_shoulder_pan_joint": 0.25656813270530954,
        "distance_wrist_1_joint": 0.6571053487355603,
        "distance_wrist_2_joint": 1.3064917226003658,
        "distance_wrist_3_joint": 0.04914953894553653,
        "smoothness": 6.459479416000911e-16,
        "time": 5.001931968,
        "traj_len": 1.8912310677446893,
        "weighted_distance": 2.3745844059181636
    },
    "planner": "RRTstar",
    "start": {
        "state": {
            "elbow_joint": 1.7527959577737207,
            "shoulder_lift_joint": -0.9740617694225068,
            "shoulder_pan_joint": -2.967991417825858,
            "wrist_1_joint": -0.759517768980727,
            "wrist_2_joint": 1.7443932448377408,
            "wrist_3_joint": -3.0840537646736568
        }
    },
    "waypoints": [
        {
            "positions": [
                -2.967991417825858,
                -0.9740617694225068,
                1.7527959577737207,
                -0.759517768980727,
                1.7443932448377408,
                -3.0840537646736568
            ]
        },
        {
            "positions": [
                -2.942334604555327,
                -0.9421867121125981,
                1.6539269942220347,
                -0.6938072341071709,
                1.6137440725777044,
                -3.0889687185682106
            ]
        },
        {
            "positions": [
                -2.916677791284796,
                -0.9103116548026894,
                1.555058030670349,
                -0.6280966992336149,
                1.4830949003176677,
                -3.093883672462764
            ]
        },
        {
            "positions": [
                -2.8910209780142653,
                -0.8784365974927807,
                1.456189067118663,
                -0.562386164360059,
                1.352445728057631,
                -3.0987986263573175
            ]
        },
        {
            "positions": [
                -2.8653641647437342,
                -0.846561540182872,
                1.3573201035669773,
                -0.49667562948650285,
                1.2217965557975945,
                -3.1037135802518714
            ]
        },
        {
            "positions": [
                -2.839707351473203,
                -0.8146864828729634,
                1.2584511400152913,
                -0.43096509461294685,
                1.091147383537558,
                -3.1086285341464253
            ]
        },
        {
            "positions": [
                -2.814050538202672,
                -0.7828114255630547,
                1.1595821764636054,
                -0.36525455973939086,
                0.9604982112775213,
                -3.1135434880409787
            ]
        },
        {
            "positions": [
                -2.788393724932141,
                -0.750936368253146,
                1.0607132129119197,
                -0.2995440248658348,
                0.8298490390174849,
                -3.118458441935532
            ]
        },
        {
            "positions": [
                -2.7627369116616105,
                -0.7190613109432373,
                0.9618442493602337,
                -0.2338334899922787,
                0.6991998667574482,
                -3.123373395830086
            ]
        },
        {
            "positions": [
                -2.7370800983910795,
                -0.6871862536333286,
                0.8629752858085479,
                -0.16812295511872277,
                0.5685506944974115,
                -3.12828834972464
            ]
        },
        {
            "positions": [
                -2.7114232851205484,
                -0.6553111963234199,
                0.764106322256862,
                -0.10241242024516677,
                0.43790152223737505,
                -3.1332033036191933
            ]
        }
    ]
}