{
    "goal": {
        "global_pose": {
            "orientation": {
                "w": 0.7047431493862688,
                "x": -0.7094548369677653,
                "y": 0.0024358444001904,
                "z": -0.0022348060817251984
            },
            "position": {
                "x": -0.39052492380142206,
                "y": 0.3671506643295288,
                "z": 0.19426114857196808
            }
        },
        "name": "move_to_magneteinheit_D"
    },
    "id": "RRTstar_move_to_magneteinheit_D_70",
    "joint_names": [
        "shoulder_pan_joint",
        "shoulder_lift_joint",
        "elbow_joint",
        "wrist_1_joint",
        "wrist_2_joint",
        "wrist_3_joint"
    ],
    "metrics": {
        "cart_traj_len": 4.830216971700697,
        "distance_elbow_joint": 6.156607366901772,
        "distance_shoulder_lift_joint": 1.9032125954241608,
        "distance_shoulder_pan_joint": 3.3240884792239154,
        "distance_wrist_1_joint": 4.2117762442319435,
        "distance_wrist_2_joint": 3.6705649544302346,
        "distance_wrist_3_joint": 6.336299743166643,
        "smoothness": 0.8930737538531534,
        "time": 5.036993223,
        "traj_len": 5.0598961830633105,
        "weighted_distance": 6.793930384422127
    },
    "planner": "RRTstar",
    "start": {
        "state": {
            "elbow_joint": 0.749534889911806,
            "shoulder_lift_joint": -0.6476975780787326,
            "shoulder_pan_joint": -2.711696901376241,
            "wrist_1_joint": -0.07506478083263063,
            "wrist_2_joint": 0.43296659715538205,
            "wrist_3_joint": -3.14703540197715
        }
    },
    "waypoints": [
        {
            "positions": [
                -2.711696901376241,
                -0.6476975780787326,
                0.749534889911806,
                -0.07506478083263063,
                0.43296659715538205,
                -3.14703540197715
            ]
        },
        {
            "positions": [
                -2.7208699942932117,
                -0.7001123836882754,
                0.711760059911804,
                -0.02913214039256977,
                0.45321055014033784,
                -2.922258001562697
            ]
        },
        {
            "positions": [
                -2.730043087210183,
                -0.7525271892978183,
                0.6739852299118021,
                0.01680050004749109,
                0.47345450312529364,
                -2.6974806011482433
            ]
        },
        {
            "positions": [
                -2.739216180127154,
                -0.804941994907361,
                0.6362103999118002,
                0.06273314048755196,
                0.49369845611024943,
                -2.4727032007337897
            ]
        },
        {
            "positions": [
                -2.7483892730441246,
                -0.8573568005169038,
                0.5984355699117982,
                0.10866578092761281,
                0.5139424090952052,
                -2.2479258003193365
            ]
        },
        {
            "positions": [
                -2.7575623659610953,
                -0.9097716061264466,
                0.5606607399117962,
                0.15459842136767366,
                0.534186362080161,
                -2.0231483999048834
            ]
        },
        {
            "positions": [
                -2.7667354588780664,
                -0.9621864117359893,
                0.5228859099117943,
                0.20053106180773456,
                0.5544303150651168,
                -1.7983709994904298
            ]
        },
        {
            "positions": [
                -2.7759085517950375,
                -1.014601217345532,
                0.48511107991179236,
                0.2464637022477954,
                0.5746742680500725,
                -1.5735935990759764
            ]
        },
        {
            "positions": [
                -2.785081644712008,
                -1.067016022955075,
                0.44733624991179044,
                0.29239634268785625,
                0.5949182210350283,
                -1.348816198661523
            ]
        },
        {
            "positions": [
                -2.7565408216259506,
                -1.1168515614184253,
                0.5314789693911292,
                0.23111932942978858,
                0.5074172837508356,
                -1.4292004481535314
            ]
        },
        {
            "positions": [
                -2.7279999985398935,
                -1.1666870998817758,
                0.6156216888704678,
                0.1698423161717209,
                0.4199163464666429,
                -1.5095846976455396
            ]
        },
        {
            "positions": [
                -2.699459175453836,
                -1.2165226383451262,
                0.6997644083498065,
                0.10856530291365324,
                0.3324154091824502,
                -1.589968947137548
            ]
        },
        {
            "positions": [
                -2.670918352367779,
                -1.2663581768084766,
                0.7839071278291452,
                0.04728828965558557,
                0.2449144718982575,
                -1.6703531966295562
            ]
        },
        {
            "positions": [
                -2.6423775292817213,
                -1.316193715271827,
                0.8680498473084839,
                -0.0139887236024821,
                0.15741353461406477,
                -1.7507374461215646
            ]
        },
        {
            "positions": [
                -2.613836706195664,
                -1.3660292537351775,
                0.9521925667878225,
                -0.07526573686054977,
                0.0699125973298721,
                -1.8311216956135727
            ]
        },
        {
            "positions": [
                -2.5852958831096067,
                -1.415864792198528,
                1.0363352862671613,
                -0.13654275011861744,
                -0.01758833995432063,
                -1.9115059451055811
            ]
        },
        {
            "positions": [
                -2.5567550600235496,
                -1.4657003306618783,
                1.1204780057465,
                -0.1978197633766851,
                -0.10508927723851336,
                -1.9918901945975893
            ]
        },
        {
            "positions": [
                -2.528214236937492,
                -1.5155358691252288,
                1.2046207252258387,
                -0.2590967766347528,
                -0.19259021452270608,
                -2.0722744440895977
            ]
        },
        {
            "positions": [
                -2.4996734138514345,
                -1.5653714075885792,
                1.2887634447051775,
                -0.32037378989282045,
                -0.2800911518068988,
                -2.152658693581606
            ]
        },
        {
            "positions": [
                -2.4711325907653774,
                -1.6152069460519296,
                1.3729061641845162,
                -0.3816508031508881,
                -0.36759208909109153,
                -2.2330429430736145
            ]
        },
        {
            "positions": [
                -2.44259176767932,
                -1.66504248451528,
                1.4570488836638544,
                -0.4429278164089558,
                -0.45509302637528415,
                -2.3134271925656225
            ]
        },
        {
            "positions": [
                -2.4140509445932627,
                -1.7148780229786305,
                1.5411916031431931,
                -0.5042048296670234,
                -0.542593963659477,
                -2.393811442057631
            ]
        },
        {
            "positions": [
                -2.385510121507205,
                -1.7647135614419809,
                1.6253343226225323,
                -0.5654818429250912,
                -0.6300949009436696,
                -2.4741956915496393
            ]
        },
        {
            "positions": [
                -2.356969298421148,
                -1.8145490999053313,
                1.709477042101871,
                -0.6267588561831587,
                -0.7175958382278624,
                -2.5545799410416477
            ]
        },
        {
            "positions": [
                -2.3284284753350906,
                -1.8643846383686817,
                1.7936197615812093,
                -0.6880358694412265,
                -0.805096775512055,
                -2.6349641905336556
            ]
        },
        {
            "positions": [
                -2.2998876522490335,
                -1.9142201768320322,
                1.877762481060548,
                -0.7493128826992941,
                -0.8925977127962477,
                -2.715348440025664
            ]
        },
        {
            "positions": [
                -2.271346829162976,
                -1.9640557152953826,
                1.9619052005398867,
                -0.8105898959573619,
                -0.9800986500804405,
                -2.7957326895176724
            ]
        },
        {
            "positions": [
                -2.2036640326334545,
                -1.9714663399278745,
                1.84750165968727,
                -0.7415927427180891,
                -0.9358516227787635,
                -2.711652344414196
            ]
        },
        {
            "positions": [
                -2.135981236103933,
                -1.9788769645603663,
                1.7330981188346533,
                -0.6725955894788164,
                -0.8916045954770866,
                -2.6275719993107187
            ]
        },
        {
            "positions": [
                -2.0682984395744115,
                -1.9862875891928582,
                1.6186945779820365,
                -0.6035984362395436,
                -0.8473575681754097,
                -2.543491654207242
            ]
        },
        {
            "positions": [
                -2.00061564304489,
                -1.99369821382535,
                1.5042910371294198,
                -0.5346012830002709,
                -0.8031105408737328,
                -2.459411309103765
            ]
        },
        {
            "positions": [
                -1.9329328465153686,
                -2.001108838457842,
                1.389887496276803,
                -0.4656041297609981,
                -0.7588635135720558,
                -2.3753309640002884
            ]
        },
        {
            "positions": [
                -1.865250049985847,
                -2.008519463090334,
                1.2754839554241864,
                -0.3966069765217253,
                -0.714616486270379,
                -2.291250618896812
            ]
        },
        {
            "positions": [
                -1.7975672534563256,
                -2.015930087722826,
                1.1610804145715696,
                -0.3276098232824525,
                -0.6703694589687019,
                -2.2071702737933347
            ]
        },
        {
            "positions": [
                -1.7298844569268041,
                -2.0233407123553175,
                1.046676873718953,
                -0.2586126700431798,
                -0.6261224316670251,
                -2.1230899286898577
            ]
        },
        {
            "positions": [
                -1.6622016603972827,
                -2.0307513369878096,
                0.9322733328663364,
                -0.1896155168039071,
                -0.5818754043653482,
                -2.039009583586381
            ]
        },
        {
            "positions": [
                -1.5945188638677612,
                -2.0381619616203013,
                0.8178697920137197,
                -0.12061836356463429,
                -0.5376283770636713,
                -1.9549292384829045
            ]
        },
        {
            "positions": [
                -1.5268360673382397,
                -2.0455725862527934,
                0.703466251161103,
                -0.05162121032536149,
                -0.4933813497619943,
                -1.8708488933794274
            ]
        },
        {
            "positions": [
                -1.4591532708087183,
                -2.0529832108852855,
                0.5890627103084862,
                0.017375942913911313,
                -0.44913432246031737,
                -1.7867685482759508
            ]
        },
        {
            "positions": [
                -1.3914704742791966,
                -2.060393835517777,
                0.4746591694558695,
                0.08637309615318411,
                -0.4048872951586404,
                -1.702688203172474
            ]
        },
        {
            "positions": [
                -1.323787677749675,
                -2.067804460150269,
                0.36025562860325255,
                0.15537024939245692,
                -0.36064026785696346,
                -1.618607858068997
            ]
        },
        {
            "positions": [
                -1.2561048812201536,
                -2.075215084782761,
                0.24585208775063605,
                0.2243674026317295,
                -0.3163932405552866,
                -1.5345275129655203
            ]
        },
        {
            "positions": [
                -1.1884220846906322,
                -2.082625709415253,
                0.13144854689801933,
                0.2933645558710023,
                -0.27214621325360966,
                -1.4504471678620434
            ]
        },
        {
            "positions": [
                -1.1207392881611107,
                -2.0900363340477446,
                0.0170450060454026,
                0.3623617091102751,
                -0.2278991859519327,
                -1.3663668227585666
            ]
        },
        {
            "positions": [
                -1.0530564916315894,
                -2.0974469586802367,
                -0.0973585348072139,
                0.4313588623495477,
                -0.18365215865025586,
                -1.28228647765509
            ]
        },
        {
            "positions": [
                -0.9853736951020677,
                -2.1048575833127283,
                -0.21176207565983063,
                0.5003560155888205,
                -0.1394051313485789,
                -1.1982061325516131
            ]
        },
        {
            "positions": [
                -0.9176908985725463,
                -2.1122682079452204,
                -0.32616561651244735,
                0.5693531688280933,
                -0.09515810404690206,
                -1.1141257874481363
            ]
        },
        {
            "positions": [
                -0.8500081020430248,
                -2.119678832577712,
                -0.4405691573650641,
                0.6383503220673661,
                -0.0509110767452251,
                -1.0300454423446594
            ]
        },
        {
            "positions": [
                -0.7823253055135033,
                -2.127089457210204,
                -0.5549726982176808,
                0.7073474753066389,
                -0.006664049443548148,
                -0.9459650972411826
            ]
        },
        {
            "positions": [
                -0.7146425089839819,
                -2.1345000818426962,
                -0.6693762390702975,
                0.7763446285459117,
                0.03758297785812892,
                -0.8618847521377058
            ]
        },
        {
            "positions": [
                -0.6469597124544604,
                -2.141910706475188,
                -0.7837797799229143,
                0.8453417817851845,
                0.08183000515980576,
                -0.7778044070342292
            ]
        },
        {
            "positions": [
                -0.5792769159249387,
                -2.14932133110768,
                -0.898183320775531,
                0.9143389350244573,
                0.1260770324614826,
                -0.6937240619307521
            ]
        },
        {
            "positions": [
                -0.5115941193954172,
                -2.1567319557401716,
                -1.0125868616281477,
                0.9833360882637301,
                0.17032405976315967,
                -0.6096437168272755
            ]
        },
        {
            "positions": [
                -0.44391132286589574,
                -2.1641425803726637,
                -1.1269904024807649,
                1.052333241503003,
                0.21457108706483652,
                -0.5255633717237984
            ]
        },
        {
            "positions": [
                -0.37622852633637427,
                -2.1715532050051554,
                -1.2413939433333816,
                1.1213303947422757,
                0.2588181143665136,
                -0.4414830266203218
            ]
        },
        {
            "positions": [
                -0.3085457298068528,
                -2.1789638296376475,
                -1.3557974841859983,
                1.1903275479815485,
                0.30306514166819043,
                -0.35740268151684473
            ]
        },
        {
            "positions": [
                -0.24086293327733133,
                -2.186374454270139,
                -1.4702010250386146,
                1.2593247012208209,
                0.3473121689698673,
                -0.2733223364133681
            ]
        },
        {
            "positions": [
                -0.17318013674780985,
                -2.193785078902631,
                -1.5846045658912313,
                1.3283218544600937,
                0.3915591962715441,
                -0.1892419913098915
            ]
        },
        {
            "positions": [
                -0.10549734021828838,
                -2.201195703535123,
                -1.699008106743848,
                1.3973190076993665,
                0.4358062235732212,
                -0.10516164620641444
            ]
        },
        {
            "positions": [
                -0.03781454368876691,
                -2.208606328167615,
                -1.8134116475964648,
                1.4663161609386393,
                0.48005325087489803,
                -0.02108130110293782
            ]
        },
        {
            "positions": [
                0.02986825284075456,
                -2.216016952800107,
                -1.9278151884490815,
                1.535313314177912,
                0.5243002781765751,
                0.06299904400053924
            ]
        },
        {
            "positions": [
                0.09755104937027614,
                -2.2234275774325987,
                -2.0422187293016982,
                1.6043104674171846,
                0.5685473054782519,
                0.14707938910401588
            ]
        },
        {
            "positions": [
                0.11188471250427977,
                -2.1784396745601846,
                -2.093310898474053,
                1.6442954018416571,
                0.46455732286796436,
                0.13165914740705736
            ]
        },
        {
            "positions": [
                0.1262183756382834,
                -2.1334517716877706,
                -2.1444030676464076,
                1.6842803362661294,
                0.3605673402576767,
                0.11623890571009884
            ]
        },
        {
            "positions": [
                0.140552038772287,
                -2.0884638688153565,
                -2.1954952368187626,
                1.7242652706906019,
                0.2565773576473891,
                0.10081866401314032
            ]
        },
        {
            "positions": [
                0.03219535463766904,
                -2.1526368312997075,
                -2.2563083497904315,
                1.6554406988845105,
                0.23225050563220034,
                0.06678824891903726
            ]
        },
        {
            "positions": [
                -0.07616132949694893,
                -2.216809793784058,
                -2.317121462762101,
                1.586616127078419,
                0.2079236536170116,
                0.03275783382493419
            ]
        },
        {
            "positions": [
                -0.18451801363156692,
                -2.280982756268409,
                -2.3779345757337698,
                1.5177915552723276,
                0.18359680160182282,
                -0.0012725812691688821
            ]
        }
    ]
}