{
    "goal": {
        "global_pose": {
            "orientation": {
                "w": 0.7031023502349854,
                "x": -0.7110244035720825,
                "y": 0.007748599164187908,
                "z": 0.005598929710686207
            },
            "position": {
                "x": 0.11585023208521307,
                "y": 0.44412534475326537,
                "z": 0.3711530566215515
            }
        },
        "name": "move_to_auspresseinheit_A"
    },
    "id": "RRTstar_move_to_auspresseinheit_A_4",
    "joint_names": [
        "shoulder_pan_joint",
        "shoulder_lift_joint",
        "elbow_joint",
        "wrist_1_joint",
        "wrist_2_joint",
        "wrist_3_joint"
    ],
    "metrics": {
        "cart_traj_len": 0.6773825433610992,
        "distance_elbow_joint": 0.09478474515056057,
        "distance_shoulder_lift_joint": 0.6815534989737664,
        "distance_shoulder_pan_joint": 1.0425148533164705,
        "distance_wrist_1_joint": 0.5537163224773547,
        "distance_wrist_2_joint": 0.5750559258473866,
        "distance_wrist_3_joint": 0.1061174047929403,
        "smoothness": 0.6839442488126163,
        "time": 5.0087202159999995,
        "traj_len": 1.7474961374945808,
        "weighted_distance": 2.096365857494608
    },
    "planner": "RRTstar",
    "start": {
        "state": {
            "elbow_joint": 2.4225746658250005,
            "shoulder_lift_joint": -1.3736534386056498,
            "shoulder_pan_joint": -0.3378633547517467,
            "wrist_1_joint": -1.0288598680537169,
            "wrist_2_joint": 1.233022673432363,
            "wrist_3_joint": -3.0940220416140027
        }
    },
    "waypoints": [
        {
            "positions": [
                -0.3378633547517467,
                -1.3736534386056498,
                2.4225746658250005,
                -1.0288598680537169,
                1.233022673432363,
                -3.0940220416140027
            ]
        },
        {
            "positions": [
                -0.21208477451730406,
                -1.4604964597554535,
                2.427274119098563,
                -0.9594973412438791,
                1.1539851995524883,
                -3.0886248064773016
            ]
        },
        {
            "positions": [
                -0.0863061942828614,
                -1.5473394809052574,
                2.4319735723721254,
                -0.8901348144340412,
                1.0749477256726134,
                -3.0832275713406005
            ]
        },
        {
            "positions": [
                0.03947238595158126,
                -1.634182502055061,
                2.436673025645688,
                -0.8207722876242034,
                0.9959102517927387,
                -3.0778303362038995
            ]
        },
        {
            "positions": [
                0.16525096618602392,
                -1.721025523204865,
                2.441372478919251,
                -0.7514097608143655,
                0.916872777912864,
                -3.072433101067198
            ]
        },
        {
            "positions": [
                0.2910295464204666,
                -1.8078685443546687,
                2.4460719321928135,
                -0.6820472340045277,
                0.8378353040329892,
                -3.067035865930497
            ]
        },
        {
            "positions": [
                0.41680812665490924,
                -1.8947115655044726,
                2.4507713854663757,
                -0.6126847071946899,
                0.7587978301531145,
                -3.0616386307937957
            ]
        },
        {
            "positions": [
                0.542586706889352,
                -1.9815545866542763,
                2.4554708387399384,
                -0.543322180384852,
                0.6797603562732397,
                -3.0562413956570946
            ]
        },
        {
            "positions": [
                0.6236191027270379,
                -1.9447284111917065,
                2.424526552622127,
                -0.5092328629806071,
                0.6906571606173714,
                -3.090409775075111
            ]
        },
        {
            "positions": [
                0.7046514985647238,
                -1.9079022357291364,
                2.393582266504316,
                -0.4751435455763622,
                0.701553964961503,
                -3.124578154493127
            ]
        }
    ]
}