{
    "goal": {
        "global_pose": {
            "orientation": {
                "w": -0.00223480608172531,
                "x": 0.0024358444001904467,
                "y": 0.7094548369677653,
                "z": -0.704743149386269
            },
            "position": {
                "x": 0.6205249238014221,
                "y": -0.6371506643295288,
                "z": 0.19426114857196808
            }
        },
        "name": "move_to_magneteinheit_B"
    },
    "id": "RRTstar_move_to_magneteinheit_B_61",
    "joint_names": [
        "shoulder_pan_joint",
        "shoulder_lift_joint",
        "elbow_joint",
        "wrist_1_joint",
        "wrist_2_joint",
        "wrist_3_joint"
    ],
    "metrics": {
        "cart_traj_len": 3.141987803330999,
        "distance_elbow_joint": 4.906179537700124,
        "distance_shoulder_lift_joint": 1.2382481587526413,
        "distance_shoulder_pan_joint": 2.919610255210013,
        "distance_wrist_1_joint": 0.9816292512159075,
        "distance_wrist_2_joint": 1.3746736921713427,
        "distance_wrist_3_joint": 0.9938477575862255,
        "smoothness": 0.6353736480145988,
        "time": 5.041575182,
        "traj_len": 3.52337744964065,
        "weighted_distance": 4.093676478569838
    },
    "planner": "RRTstar",
    "start": {
        "state": {
            "elbow_joint": 2.6216224122426386,
            "shoulder_lift_joint": -1.4174107377796124,
            "shoulder_pan_joint": 0.7066234856936794,
            "wrist_1_joint": 1.9546482284002225,
            "wrist_2_joint": -0.7096286983471962,
            "wrist_3_joint": 0.005740856962016249
        }
    },
    "waypoints": [
        {
            "positions": [
                0.7066234856936794,
                -1.4174107377796124,
                2.6216224122426386,
                1.9546482284002225,
                -0.7096286983471962,
                0.005740856962016249
            ]
        },
        {
            "positions": [
                0.6663925087345629,
                -1.5317995877365502,
                2.633608583792829,
                1.8247367165695025,
                -0.7291626960967573,
                -0.04588325637654011
            ]
        },
        {
            "positions": [
                0.6261615317754463,
                -1.646188437693488,
                2.6455947553430192,
                1.6948252047387828,
                -0.7486966938463183,
                -0.09750736971509646
            ]
        },
        {
            "positions": [
                0.5859305548163298,
                -1.760577287650426,
                2.6575809268932096,
                1.564913692908063,
                -0.7682306915958794,
                -0.14913148305365279
            ]
        },
        {
            "positions": [
                0.5456995778572132,
                -1.8749661376073639,
                2.6695670984434,
                1.4350021810773432,
                -0.7877646893454404,
                -0.20075559639220916
            ]
        },
        {
            "positions": [
                0.5054686008980968,
                -1.9893549875643017,
                2.6815532699935902,
                1.3050906692466233,
                -0.8072986870950015,
                -0.2523797097307655
            ]
        },
        {
            "positions": [
                0.6114291578718063,
                -1.9854883653543465,
                2.481623872657331,
                1.2973661588751357,
                -0.7562594555873642,
                -0.23008108602032148
            ]
        },
        {
            "positions": [
                0.717389714845516,
                -1.9816217431443914,
                2.2816944753210717,
                1.2896416485036482,
                -0.7052202240797267,
                -0.20778246230987746
            ]
        },
        {
            "positions": [
                0.8233502718192254,
                -1.9777551209344362,
                2.0817650779848127,
                1.2819171381321608,
                -0.6541809925720894,
                -0.18548383859943346
            ]
        },
        {
            "positions": [
                0.929310828792935,
                -1.9738884987244811,
                1.8818356806485537,
                1.2741926277606732,
                -0.603141761064452,
                -0.1631852148889894
            ]
        },
        {
            "positions": [
                1.0352713857666447,
                -1.9700218765145259,
                1.6819062833122942,
                1.2664681173891856,
                -0.5521025295568147,
                -0.1408865911785454
            ]
        },
        {
            "positions": [
                1.141231942740354,
                -1.9661552543045708,
                1.4819768859760352,
                1.258743607017698,
                -0.5010632980491773,
                -0.11858796746810138
            ]
        },
        {
            "positions": [
                1.2471924997140638,
                -1.9622886320946156,
                1.282047488639776,
                1.2510190966462105,
                -0.45002406654153987,
                -0.09628934375765735
            ]
        },
        {
            "positions": [
                1.3531530566877734,
                -1.9584220098846603,
                1.0821180913035169,
                1.2432945862747231,
                -0.39898483503390253,
                -0.07399072004721333
            ]
        },
        {
            "positions": [
                1.4591136136614828,
                -1.9545553876747053,
                0.8821886939672574,
                1.2355700759032355,
                -0.3479456035262651,
                -0.0516920963367693
            ]
        },
        {
            "positions": [
                1.5650741706351923,
                -1.95068876546475,
                0.6822592966309984,
                1.227845565531748,
                -0.2969063720186278,
                -0.0293934726263253
            ]
        },
        {
            "positions": [
                1.6710347276089021,
                -1.946822143254795,
                0.48232989929473913,
                1.2201210551602604,
                -0.24586714051099035,
                -0.007094848915881247
            ]
        },
        {
            "positions": [
                1.7769952845826116,
                -1.9429555210448397,
                0.2824005019584801,
                1.212396544788773,
                -0.194827909003353,
                0.015203774794562752
            ]
        },
        {
            "positions": [
                1.882955841556321,
                -1.9390888988348847,
                0.08247110462222107,
                1.2046720344172854,
                -0.14378867749571567,
                0.03750239850500675
            ]
        },
        {
            "positions": [
                1.9889163985300309,
                -1.9352222766249294,
                -0.1174582927140384,
                1.1969475240457979,
                -0.09274944598807822,
                0.059801022215450805
            ]
        },
        {
            "positions": [
                2.0948769555037403,
                -1.9313556544149744,
                -0.31738769005029743,
                1.1892230136743103,
                -0.04171021448044088,
                0.08209964592589486
            ]
        },
        {
            "positions": [
                2.2008375124774497,
                -1.927489032205019,
                -0.5173170873865565,
                1.181498503302823,
                0.009329017027196462,
                0.10439826963633886
            ]
        },
        {
            "positions": [
                2.306798069451159,
                -1.9236224099950638,
                -0.7172464847228155,
                1.1737739929313353,
                0.0603682485348338,
                0.12669689334678286
            ]
        },
        {
            "positions": [
                2.412758626424869,
                -1.9197557877851088,
                -0.9171758820590754,
                1.1660494825598477,
                0.11140748004247136,
                0.1489955170572269
            ]
        },
        {
            "positions": [
                2.5187191833985785,
                -1.9158891655751535,
                -1.1171052793953344,
                1.1583249721883602,
                0.1624467115501087,
                0.1712941407676709
            ]
        },
        {
            "positions": [
                2.624679740372288,
                -1.9120225433651985,
                -1.3170346767315935,
                1.1506004618168726,
                0.21348594305774593,
                0.1935927644781149
            ]
        },
        {
            "positions": [
                2.7306402973459973,
                -1.9081559211552432,
                -1.516964074067852,
                1.1428759514453852,
                0.26452517456538327,
                0.21589138818855896
            ]
        },
        {
            "positions": [
                2.836600854319707,
                -1.9042892989452882,
                -1.716893471404112,
                1.1351514410738976,
                0.31556440607302083,
                0.23819001189900302
            ]
        },
        {
            "positions": [
                2.9425614112934166,
                -1.900422676735333,
                -1.9168228687403714,
                1.12742693070241,
                0.3666036375806583,
                0.2604886356094471
            ]
        },
        {
            "positions": [
                2.8862888992895943,
                -2.0158969963631295,
                -1.867248360497329,
                1.096545339998791,
                0.38722391333023376,
                0.21591686649880082
            ]
        },
        {
            "positions": [
                2.8300163872857724,
                -2.131371315990926,
                -1.8176738522542863,
                1.065663749295172,
                0.40784418907980924,
                0.17134509738815457
            ]
        },
        {
            "positions": [
                2.77374387528195,
                -2.246845635618723,
                -1.7680993440112438,
                1.034782158591553,
                0.42846446482938466,
                0.1267733282775083
            ]
        },
        {
            "positions": [
                2.717471363278128,
                -2.3623199552465195,
                -1.7185248357682013,
                1.003900567887934,
                0.44908474057896014,
                0.08220155916686206
            ]
        },
        {
            "positions": [
                2.661198851274306,
                -2.477794274874316,
                -1.6689503275251587,
                0.973018977184315,
                0.4697050163285356,
                0.03762979005621582
            ]
        }
    ]
}