{
    "goal": {
        "global_pose": {
            "orientation": {
                "w": 0.005598929693374612,
                "x": 0.007748599140229565,
                "y": 0.7110244013736278,
                "z": -0.7031023480610252
            },
            "position": {
                "x": 0.1141497679147869,
                "y": -0.7141253447532654,
                "z": 0.3711530566215515
            }
        },
        "name": "move_to_auspresseinheit_B"
    },
    "id": "RRTstar_move_to_auspresseinheit_B_60",
    "joint_names": [
        "shoulder_pan_joint",
        "shoulder_lift_joint",
        "elbow_joint",
        "wrist_1_joint",
        "wrist_2_joint",
        "wrist_3_joint"
    ],
    "metrics": {
        "cart_traj_len": 0.563709897943703,
        "distance_elbow_joint": 0.06034396612408344,
        "distance_shoulder_lift_joint": 0.295072132599987,
        "distance_shoulder_pan_joint": 0.5771907921675383,
        "distance_wrist_1_joint": 0.31983939727462174,
        "distance_wrist_2_joint": 0.9867686261459301,
        "distance_wrist_3_joint": 0.003721006462091392,
        "smoothness": 2.5376526478085547e-16,
        "time": 5.000245407,
        "traj_len": 1.4976434558246006,
        "weighted_distance": 1.8859973375164099
    },
    "planner": "RRTstar",
    "start": {
        "state": {
            "elbow_joint": 2.0193083361928714,
            "shoulder_lift_joint": -1.1220246554650708,
            "shoulder_pan_joint": -1.0952077554168747,
            "wrist_1_joint": -0.8559753972642168,
            "wrist_2_joint": 0.4759566250798843,
            "wrist_3_joint": -3.1240929996934557
        }
    },
    "waypoints": [
        {
            "positions": [
                -1.0952077554168747,
                -1.1220246554650708,
                2.0193083361928714,
                -0.8559753972642168,
                0.4759566250798843,
                -3.1240929996934557
            ]
        },
        {
            "positions": [
                -1.191406220778131,
                -1.1712033442317353,
                2.009251008505524,
                -0.8026688310517798,
                0.6404180627708727,
                -3.1234728319497735
            ]
        },
        {
            "positions": [
                -1.2876046861393875,
                -1.2203820329983999,
                1.999193680818177,
                -0.7493622648393429,
                0.804879500461861,
                -3.122852664206092
            ]
        },
        {
            "positions": [
                -1.383803151500644,
                -1.2695607217650644,
                1.9891363531308297,
                -0.696055698626906,
                0.9693409381528493,
                -3.12223249646241
            ]
        },
        {
            "positions": [
                -1.4800016168619001,
                -1.3187394105317287,
                1.9790790254434825,
                -0.642749132414469,
                1.1338023758438376,
                -3.121612328718728
            ]
        },
        {
            "positions": [
                -1.5762000822231566,
                -1.3679180992983933,
                1.9690216977561352,
                -0.589442566202032,
                1.2982638135348261,
                -3.120992160975046
            ]
        },
        {
            "positions": [
                -1.672398547584413,
                -1.4170967880650578,
                1.958964370068788,
                -0.536135999989595,
                1.4627252512258144,
                -3.1203719932313643
            ]
        }
    ]
}