{
    "goal": {
        "global_pose": {
            "orientation": {
                "w": 0.7047431468963623,
                "x": -0.7094548344612122,
                "y": 0.0024358443915843964,
                "z": -0.0022348060738295317
            },
            "position": {
                "x": 0.6094750761985779,
                "y": 0.3671506643295288,
                "z": 0.19426114857196808
            }
        },
        "name": "move_to_magneteinheit_A"
    },
    "id": "RRTstar_move_to_magneteinheit_A_44",
    "joint_names": [
        "shoulder_pan_joint",
        "shoulder_lift_joint",
        "elbow_joint",
        "wrist_1_joint",
        "wrist_2_joint",
        "wrist_3_joint"
    ],
    "metrics": {
        "cart_traj_len": 3.823876822633312,
        "distance_elbow_joint": 3.944924953595332,
        "distance_shoulder_lift_joint": 0.09511930424939252,
        "distance_shoulder_pan_joint": 3.403144675059693,
        "distance_wrist_1_joint": 0.7320030519078472,
        "distance_wrist_2_joint": 1.704020949245012,
        "distance_wrist_3_joint": 2.706216051084867,
        "smoothness": 0.24566839627300882,
        "time": 5.0180092,
        "traj_len": 3.5475948169347276,
        "weighted_distance": 4.520385502196105
    },
    "planner": "RRTstar",
    "start": {
        "state": {
            "elbow_joint": -1.9196185241190666,
            "shoulder_lift_joint": -1.2443396400964142,
            "shoulder_pan_joint": 2.6996025414629847,
            "wrist_1_joint": -1.5485510000780065,
            "wrist_2_joint": -1.5709468930060704,
            "wrist_3_joint": 0.4420197071253992
        }
    },
    "waypoints": [
        {
            "positions": [
                2.6996025414629847,
                -1.2443396400964142,
                -1.9196185241190666,
                -1.5485510000780065,
                -1.5709468930060704,
                0.4420197071253992
            ]
        },
        {
            "positions": [
                2.549306078705714,
                -1.2355311013216188,
                -1.822101492006496,
                -1.5512125753571286,
                -1.5015970540449781,
                0.5030474092782402
            ]
        },
        {
            "positions": [
                2.399009615948443,
                -1.2267225625468234,
                -1.7245844598939253,
                -1.5538741506362506,
                -1.4322472150838859,
                0.5640751114310811
            ]
        },
        {
            "positions": [
                2.248713153191172,
                -1.217914023772028,
                -1.6270674277813546,
                -1.5565357259153727,
                -1.3628973761227936,
                0.6251028135839221
            ]
        },
        {
            "positions": [
                2.098416690433901,
                -1.2091054849972325,
                -1.529550395668784,
                -1.5591973011944946,
                -1.2935475371617011,
                0.6861305157367631
            ]
        },
        {
            "positions": [
                1.9481202276766303,
                -1.200296946222437,
                -1.4320333635562132,
                -1.5618588764736168,
                -1.2241976982006089,
                0.7471582178896041
            ]
        },
        {
            "positions": [
                1.7978237649193594,
                -1.1914884074476417,
                -1.3345163314436426,
                -1.5645204517527387,
                -1.1548478592395166,
                0.808185920042445
            ]
        },
        {
            "positions": [
                1.6475273021620884,
                -1.1826798686728464,
                -1.2369992993310719,
                -1.5671820270318608,
                -1.0854980202784243,
                0.8692136221952861
            ]
        },
        {
            "positions": [
                1.5552481639805429,
                -1.182198909446367,
                -1.0825036257254097,
                -1.5510177058977277,
                -1.0343262069786452,
                0.9471031381057053
            ]
        },
        {
            "positions": [
                1.4629690257989971,
                -1.1817179502198878,
                -0.9280079521197475,
                -1.5348533847635946,
                -0.983154393678866,
                1.0249926540161247
            ]
        },
        {
            "positions": [
                1.3706898876174516,
                -1.1812369909934084,
                -0.7735122785140853,
                -1.5186890636294614,
                -0.931982580379087,
                1.1028821699265439
            ]
        },
        {
            "positions": [
                1.2784107494359058,
                -1.180756031766929,
                -0.6190166049084231,
                -1.502524742495328,
                -0.8808107670793078,
                1.1807716858369632
            ]
        },
        {
            "positions": [
                1.1861316112543603,
                -1.1802750725404498,
                -0.46452093130276084,
                -1.486360421361195,
                -0.8296389537795287,
                1.2586612017473824
            ]
        },
        {
            "positions": [
                1.0938524730728147,
                -1.1797941133139704,
                -0.31002525769709866,
                -1.4701961002270618,
                -0.7784671404797496,
                1.3365507176578018
            ]
        },
        {
            "positions": [
                1.001573334891269,
                -1.179313154087491,
                -0.15552958409143658,
                -1.4540317790929287,
                -0.7272953271799705,
                1.4144402335682211
            ]
        },
        {
            "positions": [
                0.9092941967097234,
                -1.1788321948610119,
                -0.001033910485774392,
                -1.4378674579587956,
                -0.6761235138801913,
                1.4923297494786403
            ]
        },
        {
            "positions": [
                0.8170150585281778,
                -1.1783512356345325,
                0.15346176311988802,
                -1.4217031368246624,
                -0.6249517005804122,
                1.5702192653890594
            ]
        },
        {
            "positions": [
                0.7247359203466321,
                -1.177870276408053,
                0.3079574367255502,
                -1.4055388156905293,
                -0.573779887280633,
                1.6481087812994788
            ]
        },
        {
            "positions": [
                0.6324567821650864,
                -1.177389317181574,
                0.4624531103312124,
                -1.389374494556396,
                -0.5226080739808538,
                1.7259982972098982
            ]
        },
        {
            "positions": [
                0.5401776439835408,
                -1.1769083579550945,
                0.6169487839368746,
                -1.3732101734222628,
                -0.4714362606810748,
                1.8038878131203173
            ]
        },
        {
            "positions": [
                0.4478985058019951,
                -1.1764273987286151,
                0.771444457542537,
                -1.3570458522881297,
                -0.42026444738129554,
                1.881777329030737
            ]
        },
        {
            "positions": [
                0.35561936762044954,
                -1.175946439502136,
                0.9259401311481987,
                -1.3408815311539966,
                -0.3690926340815165,
                1.959666844941156
            ]
        },
        {
            "positions": [
                0.2633402294389038,
                -1.1754654802756566,
                1.0804358047538614,
                -1.3247172100198634,
                -0.31792082078173733,
                2.037556360851575
            ]
        },
        {
            "positions": [
                0.17106109125735847,
                -1.1749845210491772,
                1.234931478359523,
                -1.3085528888857303,
                -0.2667490074819582,
                2.1154458767619944
            ]
        },
        {
            "positions": [
                0.0787819530758127,
                -1.174503561822698,
                1.3894271519651857,
                -1.2923885677515972,
                -0.21557719418217902,
                2.193335392672414
            ]
        },
        {
            "positions": [
                -0.013497185105732834,
                -1.1740226025962186,
                1.543922825570848,
                -1.2762242466174638,
                -0.16440538088239998,
                2.271224908582833
            ]
        },
        {
            "positions": [
                -0.1057763232872786,
                -1.1735416433697392,
                1.69841849917651,
                -1.2600599254833307,
                -0.11323356758262082,
                2.3491144244932523
            ]
        },
        {
            "positions": [
                -0.19805546146882413,
                -1.17306068414326,
                1.8529141727821723,
                -1.2438956043491975,
                -0.062061754282841664,
                2.4270039404036714
            ]
        },
        {
            "positions": [
                -0.29033459965036995,
                -1.1725797249167806,
                2.0074098463878345,
                -1.2277312832150644,
                -0.010889940983062563,
                2.504893456314091
            ]
        },
        {
            "positions": [
                -0.20769309286110244,
                -1.1679078471028288,
                2.0038305297701484,
                -1.1529470269876252,
                0.01790285846133834,
                2.633561916693326
            ]
        },
        {
            "positions": [
                -0.12505158607183492,
                -1.163235969288877,
                2.000251213152462,
                -1.0781627707601857,
                0.04669565790573924,
                2.762230377072561
            ]
        },
        {
            "positions": [
                -0.0424100792825674,
                -1.1585640914749253,
                1.9966718965347758,
                -1.0033785145327465,
                0.07548845735014013,
                2.8908988374517963
            ]
        },
        {
            "positions": [
                0.04023142750670011,
                -1.1538922136609735,
                1.9930925799170895,
                -0.9285942583053073,
                0.10428125679454105,
                3.0195672978310313
            ]
        },
        {
            "positions": [
                0.12287293429596766,
                -1.1492203358470217,
                1.9895132632994033,
                -0.853810002077868,
                0.13307405623894195,
                3.1482357582102662
            ]
        }
    ]
}