{
    "goal": {
        "global_pose": {
            "orientation": {
                "w": 0.005598929693374612,
                "x": 0.007748599140229565,
                "y": 0.7110244013736278,
                "z": -0.7031023480610252
            },
            "position": {
                "x": 0.1141497679147869,
                "y": -0.7141253447532654,
                "z": 0.3711530566215515
            }
        },
        "name": "move_to_auspresseinheit_B"
    },
    "id": "RRTstar_move_to_auspresseinheit_B_115",
    "joint_names": [
        "shoulder_pan_joint",
        "shoulder_lift_joint",
        "elbow_joint",
        "wrist_1_joint",
        "wrist_2_joint",
        "wrist_3_joint"
    ],
    "metrics": {
        "cart_traj_len": 0.564808891426127,
        "distance_elbow_joint": 0.05940231651820249,
        "distance_shoulder_lift_joint": 0.295539046484913,
        "distance_shoulder_pan_joint": 0.5785986477668223,
        "distance_wrist_1_joint": 0.3160256190199473,
        "distance_wrist_2_joint": 0.9874874476105031,
        "distance_wrist_3_joint": 0.0005933711530423658,
        "smoothness": 0.0,
        "time": 5.003214971,
        "traj_len": 1.4958764817167995,
        "weighted_distance": 1.8821121798367828
    },
    "planner": "RRTstar",
    "start": {
        "state": {
            "elbow_joint": 2.0193083361928714,
            "shoulder_lift_joint": -1.1220246554650708,
            "shoulder_pan_joint": -1.0952077554168747,
            "wrist_1_joint": -0.8559753972642168,
            "wrist_2_joint": 0.4759566250798843,
            "wrist_3_joint": -3.1240929996934557
        }
    },
    "waypoints": [
        {
            "positions": [
                -1.0952077554168747,
                -1.1220246554650708,
                2.0193083361928714,
                -0.8559753972642168,
                0.4759566250798843,
                -3.1240929996934557
            ]
        },
        {
            "positions": [
                -1.1916408633780118,
                -1.1712811632125564,
                2.0094079501065045,
                -0.8033044607608922,
                0.6405378663483015,
                -3.1241918948856293
            ]
        },
        {
            "positions": [
                -1.2880739713391487,
                -1.2205376709600417,
                1.9995075640201372,
                -0.7506335242575677,
                0.8051191076167186,
                -3.124290790077803
            ]
        },
        {
            "positions": [
                -1.3845070793002858,
                -1.2697941787075273,
                1.9896071779337703,
                -0.6979625877542431,
                0.9697003488851359,
                -3.1243896852699766
            ]
        },
        {
            "positions": [
                -1.4809401872614227,
                -1.3190506864550129,
                1.9797067918474032,
                -0.6452916512509186,
                1.134281590153553,
                -3.1244885804621507
            ]
        },
        {
            "positions": [
                -1.5773732952225599,
                -1.3683071942024982,
                1.969806405761036,
                -0.592620714747594,
                1.2988628314219703,
                -3.1245874756543244
            ]
        },
        {
            "positions": [
                -1.673806403183697,
                -1.4175637019499838,
                1.959906019674669,
                -0.5399497782442695,
                1.4634440726903875,
                -3.124686370846498
            ]
        }
    ]
}