{
    "goal": {
        "global_pose": {
            "orientation": {
                "w": 0.5084816217422485,
                "x": -0.49083608388900757,
                "y": 0.5182115435600281,
                "z": -0.4816462993621826
            },
            "position": {
                "x": 0.5540239810943604,
                "y": 0.030875300988554955,
                "z": 0.16403168439865112
            }
        },
        "name": "move_to_storage_A"
    },
    "id": "RRTstar_move_to_storage_A_94",
    "joint_names": [
        "shoulder_pan_joint",
        "shoulder_lift_joint",
        "elbow_joint",
        "wrist_1_joint",
        "wrist_2_joint",
        "wrist_3_joint"
    ],
    "metrics": {
        "cart_traj_len": 0.3524110115357993,
        "distance_elbow_joint": 0.4503434477878001,
        "distance_shoulder_lift_joint": 0.2346473024039497,
        "distance_shoulder_pan_joint": 0.4602490001675542,
        "distance_wrist_1_joint": 0.24215590724727265,
        "distance_wrist_2_joint": 1.1004104589739752,
        "distance_wrist_3_joint": 0.0905499669274179,
        "smoothness": 2.2204460668324854e-16,
        "time": 5.004923456999999,
        "traj_len": 1.6057260300275293,
        "weighted_distance": 2.0253450035942158
    },
    "planner": "RRTstar",
    "start": {
        "state": {
            "elbow_joint": 1.971548259319323,
            "shoulder_lift_joint": -1.1394851275133948,
            "shoulder_pan_joint": 0.1228115487234821,
            "wrist_1_joint": -0.7804723859257726,
            "wrist_2_joint": 0.12958671773740124,
            "wrist_3_joint": -3.192489227718131
        }
    },
    "waypoints": [
        {
            "positions": [
                0.1228115487234821,
                -1.1394851275133948,
                1.971548259319323,
                -0.7804723859257726,
                0.12958671773740124,
                -3.192489227718131
            ]
        },
        {
            "positions": [
                0.05706169155668865,
                -1.173006170713959,
                2.035883037574723,
                -0.8150660869610973,
                0.2867882118765406,
                -3.1795535181570713
            ]
        },
        {
            "positions": [
                -0.008688165610104798,
                -1.2065272139145233,
                2.1002178158301232,
                -0.849659787996422,
                0.4439897060156799,
                -3.166617808596012
            ]
        },
        {
            "positions": [
                -0.07443802277689826,
                -1.2400482571150875,
                2.164552594085523,
                -0.8842534890317466,
                0.6011912001548192,
                -3.153682099034952
            ]
        },
        {
            "positions": [
                -0.1401878799436917,
                -1.2735693003156519,
                2.228887372340923,
                -0.9188471900670713,
                0.7583926942939585,
                -3.1407463894738923
            ]
        },
        {
            "positions": [
                -0.2059377371104852,
                -1.307090343516216,
                2.293222150596323,
                -0.9534408911023959,
                0.9155941884330978,
                -3.1278106799128325
            ]
        },
        {
            "positions": [
                -0.2716875942772786,
                -1.3406113867167804,
                2.3575569288517233,
                -0.9880345921377206,
                1.0727956825722371,
                -3.114874970351773
            ]
        },
        {
            "positions": [
                -0.3374374514440721,
                -1.3741324299173445,
                2.421891707107123,
                -1.0226282931730453,
                1.2299971767113764,
                -3.1019392607907132
            ]
        }
    ]
}{
    "goal": {
        "global_pose": {
            "orientation": {
                "w": 0.5084816217422485,
                "x": -0.49083608388900757,
                "y": 0.5182115435600281,
                "z": -0.4816462993621826
            },
            "position": {
                "x": 0.5540239810943604,
                "y": 0.030875300988554955,
                "z": 0.16403168439865112
            }
        },
        "name": "move_to_storage_A"
    },
    "id": "RRTstar_move_to_storage_A_94",
    "joint_names": [
        "shoulder_pan_joint",
        "shoulder_lift_joint",
        "elbow_joint",
        "wrist_1_joint",
        "wrist_2_joint",
        "wrist_3_joint"
    ],
    "metrics": {
        "cart_traj_len": 0.35265427077374567,
        "distance_elbow_joint": 0.44773760685047925,
        "distance_shoulder_lift_joint": 0.23637317209522712,
        "distance_shoulder_pan_joint": 0.4620292085987874,
        "distance_wrist_1_joint": 0.23320721053676885,
        "distance_wrist_2_joint": 1.0946630448318602,
        "distance_wrist_3_joint": 0.09754252178210976,
        "smoothness": 4.440892098500626e-16,
        "time": 5.0598382189999995,
        "traj_len": 1.6036061750614559,
        "weighted_distance": 2.023489081667623
    },
    "planner": "RRTstar",
    "start": {
        "state": {
            "elbow_joint": 1.97154746011099,
            "shoulder_lift_joint": -1.13948474672311,
            "shoulder_pan_joint": 0.12281154466712228,
            "wrist_1_joint": -0.7804688027058302,
            "wrist_2_joint": 0.12958655903071145,
            "wrist_3_joint": 3.0906928834467795
        }
    },
    "waypoints": [
        {
            "positions": [
                0.12281154466712228,
                -1.13948474672311,
                1.97154746011099,
                -0.7804688027058302,
                0.12958655903071145,
                3.0906928834467795
            ]
        },
        {
            "positions": [
                0.056807372010152665,
                -1.1732523427367139,
                2.0355099753753443,
                -0.8137841184967972,
                0.28596699400669146,
                3.1046275294156525
            ]
        },
        {
            "positions": [
                -0.009196800646816952,
                -1.2070199387503178,
                2.099472490639698,
                -0.8470994342877641,
                0.44234742898267143,
                3.118562175384525
            ]
        },
        {
            "positions": [
                -0.07520097330378657,
                -1.2407875347639217,
                2.1634350059040526,
                -0.8804147500787312,
                0.5987278639586515,
                3.132496821353398
            ]
        },
        {
            "positions": [
                -0.14120514596075617,
                -1.2745551307775254,
                2.2273975211684065,
                -0.9137300658696981,
                0.7551082989346315,
                3.146431467322271
            ]
        },
        {
            "positions": [
                -0.20720931861772585,
                -1.3083227267911293,
                2.291360036432761,
                -0.9470453816606651,
                0.9114887339106116,
                3.160366113291144
            ]
        },
        {
            "positions": [
                -0.2732134912746954,
                -1.3420903228047332,
                2.355322551697115,
                -0.980360697451632,
                1.0678691688865916,
                3.1743007592600163
            ]
        },
        {
            "positions": [
                -0.3392176639316651,
                -1.375857918818337,
                2.419285066961469,
                -1.013676013242599,
                1.2242496038625716,
                3.1882354052288893
            ]
        }
    ]
}{
    "goal": {
        "global_pose": {
            "orientation": {
                "w": 0.5084816217422485,
                "x": -0.49083608388900757,
                "y": 0.5182115435600281,
                "z": -0.4816462993621826
            },
            "position": {
                "x": 0.5540239810943604,
                "y": 0.030875300988554955,
                "z": 0.16403168439865112
            }
        },
        "name": "move_to_storage_A"
    },
    "id": "RRTstar_move_to_storage_A_94",
    "joint_names": [
        "shoulder_pan_joint",
        "shoulder_lift_joint",
        "elbow_joint",
        "wrist_1_joint",
        "wrist_2_joint",
        "wrist_3_joint"
    ],
    "metrics": {
        "cart_traj_len": 0.3540859196963541,
        "distance_elbow_joint": 0.4503395109340307,
        "distance_shoulder_lift_joint": 0.23458594408097078,
        "distance_shoulder_pan_joint": 0.46264482392031375,
        "distance_wrist_1_joint": 0.24120319462664508,
        "distance_wrist_2_joint": 1.1027436585953712,
        "distance_wrist_3_joint": 0.09351276878148251,
        "smoothness": 4.440892098500626e-16,
        "time": 5.002686154,
        "traj_len": 1.6078028178041033,
        "weighted_distance": 2.028793309266322
    },
    "planner": "RRTstar",
    "start": {
        "state": {
            "elbow_joint": 1.9715472970024885,
            "shoulder_lift_joint": -1.1394870060712896,
            "shoulder_pan_joint": 0.12281152778156021,
            "wrist_1_joint": -0.780463741449964,
            "wrist_2_joint": 0.12958659822042276,
            "wrist_3_joint": 3.090690232415272
        }
    },
    "waypoints": [
        {
            "positions": [
                0.12281152778156021,
                -1.1394870060712896,
                1.9715472970024885,
                -0.780463741449964,
                0.12958659822042276,
                3.090690232415272
            ]
        },
        {
            "positions": [
                0.05671941007865826,
                -1.1729992837971426,
                2.035881512850207,
                -0.8149213406823419,
                0.28712140659119006,
                3.104049199384055
            ]
        },
        {
            "positions": [
                -0.009372707624243692,
                -1.2065115615229955,
                2.100215728697926,
                -0.8493789399147197,
                0.4446562149619574,
                3.1174081663528384
            ]
        },
        {
            "positions": [
                -0.07546482532714566,
                -1.2400238392488485,
                2.1645499445456444,
                -0.8838365391470976,
                0.6021910233327247,
                3.1307671333216214
            ]
        },
        {
            "positions": [
                -0.1415569430300476,
                -1.2735361169747015,
                2.2288841603933633,
                -0.9182941383794755,
                0.759725831703492,
                3.144126100290405
            ]
        },
        {
            "positions": [
                -0.20764906073294956,
                -1.3070483947005545,
                2.293218376241082,
                -0.9527517376118533,
                0.9172606400742593,
                3.157485067259188
            ]
        },
        {
            "positions": [
                -0.27374117843585155,
                -1.3405606724264074,
                2.3575525920888003,
                -0.9872093368442312,
                1.0747954484450266,
                3.1708440342279713
            ]
        },
        {
            "positions": [
                -0.3398332961387535,
                -1.3740729501522604,
                2.4218868079365192,
                -1.021666936076609,
                1.232330256815794,
                3.1842030011967544
            ]
        }
    ]
}