{
    "goal": {
        "global_pose": {
            "orientation": {
                "w": -0.4816463035849501,
                "x": 0.5182115481033762,
                "y": 0.4908360881923453,
                "z": -0.5084816262002911
            },
            "position": {
                "x": -0.8240239810943604,
                "y": -0.300875300988555,
                "z": 0.16403168439865112
            }
        },
        "name": "move_to_storage_C"
    },
    "id": "RRTstar_move_to_storage_C_87",
    "joint_names": [
        "shoulder_pan_joint",
        "shoulder_lift_joint",
        "elbow_joint",
        "wrist_1_joint",
        "wrist_2_joint",
        "wrist_3_joint"
    ],
    "metrics": {
        "cart_traj_len": 0.576293845356165,
        "distance_elbow_joint": 0.25502943664678956,
        "distance_shoulder_lift_joint": 0.18915676914631852,
        "distance_shoulder_pan_joint": 0.4954024389517331,
        "distance_wrist_1_joint": 0.0693910868323101,
        "distance_wrist_2_joint": 1.061430917577392,
        "distance_wrist_3_joint": 0.06612557152241427,
        "smoothness": 0.0,
        "time": 5.0043792709999995,
        "traj_len": 1.4616895089850503,
        "weighted_distance": 1.8438029634783346
    },
    "planner": "RRTstar",
    "start": {
        "state": {
            "elbow_joint": 2.010868314990456,
            "shoulder_lift_joint": -1.1634956873337592,
            "shoulder_pan_joint": -2.4736205022346125,
            "wrist_1_joint": -0.8367026794202681,
            "wrist_2_joint": 0.6746043897044499,
            "wrist_3_joint": -3.1496632123970403
        }
    },
    "waypoints": [
        {
            "positions": [
                -2.4736205022346125,
                -1.1634956873337592,
                2.010868314990456,
                -0.8367026794202681,
                0.6746043897044499,
                -3.1496632123970403
            ]
        },
        {
            "positions": [
                -2.556187575393235,
                -1.1319695591427061,
                1.9683634088826576,
                -0.8251374982815498,
                0.8515095426340152,
                -3.138642283809971
            ]
        },
        {
            "positions": [
                -2.6387546485518567,
                -1.100443430951653,
                1.9258585027748594,
                -0.8135723171428314,
                1.0284146955635807,
                -3.127621355222902
            ]
        },
        {
            "positions": [
                -2.721321721710479,
                -1.0689173027606,
                1.8833535966670611,
                -0.802007136004113,
                1.2053198484931458,
                -3.1166004266358334
            ]
        },
        {
            "positions": [
                -2.8038887948691014,
                -1.0373911745695468,
                1.8408486905592627,
                -0.7904419548653947,
                1.3822250014227113,
                -3.105579498048764
            ]
        },
        {
            "positions": [
                -2.8864558680277232,
                -1.0058650463784937,
                1.7983437844514645,
                -0.7788767737266764,
                1.5591301543522764,
                -3.094558569461695
            ]
        },
        {
            "positions": [
                -2.9690229411863456,
                -0.9743389181874407,
                1.7558388783436663,
                -0.767311592587958,
                1.736035307281842,
                -3.083537640874626
            ]
        }
    ]
}