{
    "goal": {
        "global_pose": {
            "orientation": {
                "w": 0.7031023502349854,
                "x": -0.7110244035720825,
                "y": 0.007748599164187908,
                "z": 0.005598929710686207
            },
            "position": {
                "x": 0.11585023208521307,
                "y": 0.44412534475326537,
                "z": 0.3711530566215515
            }
        },
        "name": "move_to_auspresseinheit_A"
    },
    "id": "RRTstar_move_to_auspresseinheit_A_8",
    "joint_names": [
        "shoulder_pan_joint",
        "shoulder_lift_joint",
        "elbow_joint",
        "wrist_1_joint",
        "wrist_2_joint",
        "wrist_3_joint"
    ],
    "metrics": {
        "cart_traj_len": 0.6825423092912727,
        "distance_elbow_joint": 0.05602993459535632,
        "distance_shoulder_lift_joint": 0.5325814469150714,
        "distance_shoulder_pan_joint": 1.042279747258106,
        "distance_wrist_1_joint": 0.6294724741996258,
        "distance_wrist_2_joint": 0.5315447894076055,
        "distance_wrist_3_joint": 0.09716878644590077,
        "smoothness": 0.35395494260408505,
        "time": 5.009995221,
        "traj_len": 1.6997285603359336,
        "weighted_distance": 2.0602019355686227
    },
    "planner": "RRTstar",
    "start": {
        "state": {
            "elbow_joint": 2.4225746658250005,
            "shoulder_lift_joint": -1.3736534386056498,
            "shoulder_pan_joint": -0.3378633547517467,
            "wrist_1_joint": -1.0288598680537169,
            "wrist_2_joint": 1.233022673432363,
            "wrist_3_joint": -3.0940220416140027
        }
    },
    "waypoints": [
        {
            "positions": [
                -0.3378633547517467,
                -1.3736534386056498,
                2.4225746658250005,
                -1.0288598680537169,
                1.233022673432363,
                -3.0940220416140027
            ]
        },
        {
            "positions": [
                -0.22967616041139627,
                -1.4451727900120532,
                2.4163420658952157,
                -0.9432712346271284,
                1.1755714918707882,
                -3.104986734653721
            ]
        },
        {
            "positions": [
                -0.12148896607104584,
                -1.5166921414184569,
                2.4101094659654314,
                -0.85768260120054,
                1.1181203103092134,
                -3.11595142769344
            ]
        },
        {
            "positions": [
                -0.01330177173069541,
                -1.5882114928248603,
                2.4038768660356467,
                -0.7720939677739515,
                1.0606691287476386,
                -3.1269161207331586
            ]
        },
        {
            "positions": [
                0.09488542260965505,
                -1.659730844231264,
                2.3976442661058623,
                -0.686505334347363,
                1.0032179471860638,
                -3.137880813772877
            ]
        },
        {
            "positions": [
                0.2030726169500055,
                -1.7312501956376674,
                2.3914116661760776,
                -0.6009167009207745,
                0.945766765624489,
                -3.1488455068125956
            ]
        },
        {
            "positions": [
                0.3112598112903559,
                -1.802769547044071,
                2.3851790662462933,
                -0.515328067494186,
                0.8883155840629142,
                -3.1598101998523145
            ]
        },
        {
            "positions": [
                0.41944700563070636,
                -1.8742888984504744,
                2.3789464663165085,
                -0.4297394340675975,
                0.8308644025013394,
                -3.170774892892033
            ]
        },
        {
            "positions": [
                0.5619316990685328,
                -1.8902618919855978,
                2.3851473338599405,
                -0.4449154541743507,
                0.7661711432630485,
                -3.160566925308098
            ]
        },
        {
            "positions": [
                0.7044163925063592,
                -1.9062348855207212,
                2.391348201403373,
                -0.46009147428110386,
                0.7014778840247575,
                -3.1503589577241624
            ]
        }
    ]
}