{
    "goal": {
        "global_pose": {
            "orientation": {
                "w": 0.5084816262002911,
                "x": -0.4908360881923452,
                "y": 0.5182115481033761,
                "z": -0.48164630358495003
            },
            "position": {
                "x": 0.5540239810943604,
                "y": -0.46912469901144505,
                "z": 0.16403168439865112
            }
        },
        "name": "move_to_storage_B"
    },
    "id": "RRTstar_move_to_storage_B_138",
    "joint_names": [
        "shoulder_pan_joint",
        "shoulder_lift_joint",
        "elbow_joint",
        "wrist_1_joint",
        "wrist_2_joint",
        "wrist_3_joint"
    ],
    "metrics": {
        "cart_traj_len": 0.8361241926079028,
        "distance_elbow_joint": 0.35720566845152435,
        "distance_shoulder_lift_joint": 0.5586282778807214,
        "distance_shoulder_pan_joint": 0.2912617667730105,
        "distance_wrist_1_joint": 3.0200415333321846,
        "distance_wrist_2_joint": 2.710537858052337,
        "distance_wrist_3_joint": 3.1058665318658383,
        "smoothness": 0.024668322053151163,
        "time": 5.044388094,
        "traj_len": 3.169154719535733,
        "weighted_distance": 4.688907558426782
    },
    "planner": "RRTstar",
    "start": {
        "state": {
            "elbow_joint": 1.664937868594044,
            "shoulder_lift_joint": -0.661644460510453,
            "shoulder_pan_joint": -0.9139846352900073,
            "wrist_1_joint": 2.146753192139373,
            "wrist_2_joint": -2.2341966793290973,
            "wrist_3_joint": 0.005466555786416001
        }
    },
    "waypoints": [
        {
            "positions": [
                -0.9139846352900073,
                -0.661644460510453,
                1.664937868594044,
                2.146753192139373,
                -2.2341966793290973,
                0.005466555786416001
            ]
        },
        {
            "positions": [
                -0.9097158938691494,
                -0.7008739633117592,
                1.680924332658226,
                1.994332107178764,
                -2.120459235529319,
                -0.060784415769442365
            ]
        },
        {
            "positions": [
                -0.9054471524482915,
                -0.7401034661130654,
                1.6969107967224077,
                1.841911022218155,
                -2.006721791729541,
                -0.12703538732530073
            ]
        },
        {
            "positions": [
                -0.9011784110274337,
                -0.7793329689143716,
                1.7128972607865898,
                1.6894899372575456,
                -1.8929843479297626,
                -0.1932863588811591
            ]
        },
        {
            "positions": [
                -0.8969096696065757,
                -0.8185624717156779,
                1.7288837248507716,
                1.5370688522969365,
                -1.779246904129984,
                -0.25953733043701743
            ]
        },
        {
            "positions": [
                -0.8926409281857178,
                -0.8577919745169842,
                1.7448701889149536,
                1.384647767336327,
                -1.6655094603302059,
                -0.32578830199287584
            ]
        },
        {
            "positions": [
                -0.88837218676486,
                -0.8970214773182903,
                1.7608566529791354,
                1.232226682375718,
                -1.5517720165304276,
                -0.3920392735487342
            ]
        },
        {
            "positions": [
                -0.8841034453440021,
                -0.9362509801195966,
                1.7768431170433174,
                1.079805597415109,
                -1.4380345727306494,
                -0.45829024510459254
            ]
        },
        {
            "positions": [
                -0.8798347039231442,
                -0.9754804829209028,
                1.7928295811074992,
                0.9273845124544997,
                -1.324297128930871,
                -0.524541216660451
            ]
        },
        {
            "positions": [
                -0.8755659625022864,
                -1.014709985722209,
                1.8088160451716813,
                0.7749634274938906,
                -1.210559685131093,
                -0.5907921882163093
            ]
        },
        {
            "positions": [
                -0.8712972210814284,
                -1.0539394885235152,
                1.824802509235863,
                0.6225423425332812,
                -1.0968222413313145,
                -0.6570431597721678
            ]
        },
        {
            "positions": [
                -0.8670284796605705,
                -1.0931689913248215,
                1.840788973300045,
                0.4701212575726723,
                -0.9830847975315362,
                -0.7232941313280261
            ]
        },
        {
            "positions": [
                -0.8627597382397126,
                -1.1323984941261278,
                1.856775437364227,
                0.31770017261206296,
                -0.869347353731758,
                -0.7895451028838845
            ]
        },
        {
            "positions": [
                -0.8584909968188548,
                -1.171627996927434,
                1.872761901428409,
                0.16527908765145377,
                -0.7556099099319797,
                -0.8557960744397428
            ]
        },
        {
            "positions": [
                -0.8766270066882285,
                -1.1678860937379154,
                1.8842527964758826,
                0.08538928543266425,
                -0.660844441573886,
                -1.0284579130274105
            ]
        },
        {
            "positions": [
                -0.8947630165576022,
                -1.164144190548397,
                1.8957436915233565,
                0.005499483213874723,
                -0.5660789732157923,
                -1.201119751615078
            ]
        },
        {
            "positions": [
                -0.9128990264269758,
                -1.1604022873588784,
                1.9072345865708302,
                -0.07439031900491477,
                -0.47131350485769846,
                -1.3737815902027457
            ]
        },
        {
            "positions": [
                -0.9310350362963495,
                -1.15666038416936,
                1.9187254816183041,
                -0.15428012122370433,
                -0.3765480364996047,
                -1.5464434287904134
            ]
        },
        {
            "positions": [
                -0.9491710461657232,
                -1.1529184809798414,
                1.9302163766657778,
                -0.23416992344249382,
                -0.281782568141511,
                -1.719105267378081
            ]
        },
        {
            "positions": [
                -0.9673070560350969,
                -1.149176577790323,
                1.9417072717132517,
                -0.3140597256612833,
                -0.18701709978341718,
                -1.8917671059657486
            ]
        },
        {
            "positions": [
                -0.9854430659044706,
                -1.1454346746008044,
                1.9531981667607254,
                -0.3939495278800728,
                -0.09225163142532355,
                -2.0644289445534163
            ]
        },
        {
            "positions": [
                -1.0035790757738443,
                -1.141692771411286,
                1.9646890618081994,
                -0.4738393300988624,
                0.002513836932770297,
                -2.237090783141084
            ]
        },
        {
            "positions": [
                -1.021715085643218,
                -1.1379508682217674,
                1.976179956855673,
                -0.5537291323176519,
                0.09727930529086404,
                -2.4097526217287513
            ]
        },
        {
            "positions": [
                -1.0398510955125917,
                -1.1342089650322489,
                1.987670851903147,
                -0.6336189345364414,
                0.19204477364895778,
                -2.582414460316419
            ]
        },
        {
            "positions": [
                -1.0579871053819654,
                -1.1304670618427304,
                1.9991617469506207,
                -0.7135087367552309,
                0.2868102420070515,
                -2.7550762989040867
            ]
        },
        {
            "positions": [
                -1.076123115251339,
                -1.1267251586532119,
                2.0106526419980946,
                -0.7933985389740204,
                0.38157571036514537,
                -2.9277381374917546
            ]
        },
        {
            "positions": [
                -1.0942591251207128,
                -1.1229832554636934,
                2.0221435370455683,
                -0.8732883411928098,
                0.47634117872323906,
                -3.100399976079422
            ]
        }
    ]
}