{
    "goal": {
        "global_pose": {
            "orientation": {
                "w": -0.4816463035849501,
                "x": 0.5182115481033762,
                "y": 0.4908360881923453,
                "z": -0.5084816262002911
            },
            "position": {
                "x": -0.8240239810943604,
                "y": 0.19912469901144506,
                "z": 0.16403168439865112
            }
        },
        "name": "move_to_storage_D"
    },
    "id": "RRTstar_move_to_storage_D_58",
    "joint_names": [
        "shoulder_pan_joint",
        "shoulder_lift_joint",
        "elbow_joint",
        "wrist_1_joint",
        "wrist_2_joint",
        "wrist_3_joint"
    ],
    "metrics": {
        "cart_traj_len": 3.6842743941210214,
        "distance_elbow_joint": 4.210815702410775,
        "distance_shoulder_lift_joint": 1.2644889730256785,
        "distance_shoulder_pan_joint": 2.8116182391346767,
        "distance_wrist_1_joint": 2.2694767791703265,
        "distance_wrist_2_joint": 0.8675436036983775,
        "distance_wrist_3_joint": 3.135465933112299,
        "smoothness": 5.010237231226081e-16,
        "time": 5.020501060000001,
        "traj_len": 3.81567939305075,
        "weighted_distance": 4.895647197219733
    },
    "planner": "RRTstar",
    "start": {
        "state": {
            "elbow_joint": -2.384821988534728,
            "shoulder_lift_joint": -2.2788054721415256,
            "shoulder_pan_joint": -0.1854694642142757,
            "wrist_1_joint": 1.4845938289331202,
            "wrist_2_joint": 0.17898776772866878,
            "wrist_3_joint": 0.037105688729662994
        }
    },
    "waypoints": [
        {
            "positions": [
                -0.1854694642142757,
                -2.2788054721415256,
                -2.384821988534728,
                1.4845938289331202,
                0.17898776772866878,
                0.037105688729662994
            ]
        },
        {
            "positions": [
                -0.07658977018166502,
                -2.2476723433577144,
                -2.271563003846306,
                1.460103991504852,
                0.18882302974280762,
                -0.05525755475028393
            ]
        },
        {
            "positions": [
                0.03228992385094567,
                -2.2165392145739027,
                -2.1583040191578835,
                1.4356141540765839,
                0.1986582917569465,
                -0.14762079823023086
            ]
        },
        {
            "positions": [
                0.14116961788355634,
                -2.1854060857900914,
                -2.045045034469461,
                1.4111243166483156,
                0.20849355377108533,
                -0.23998404171017776
            ]
        },
        {
            "positions": [
                0.2500493119161671,
                -2.15427295700628,
                -1.931786049781039,
                1.3866344792200473,
                0.21832881578522417,
                -0.3323472851901247
            ]
        },
        {
            "positions": [
                0.35892900594877775,
                -2.123139828222469,
                -1.8185270650926169,
                1.3621446417917793,
                0.228164077799363,
                -0.42471052867007164
            ]
        },
        {
            "positions": [
                0.4678086999813884,
                -2.0920066994386572,
                -1.7052680804041946,
                1.337654804363511,
                0.23799933981350185,
                -0.5170737721500185
            ]
        },
        {
            "positions": [
                0.5766883940139992,
                -2.060873570654846,
                -1.5920090957157724,
                1.3131649669352428,
                0.24783460182764072,
                -0.6094370156299654
            ]
        },
        {
            "positions": [
                0.6855680880466098,
                -2.0297404418710348,
                -1.4787501110273502,
                1.2886751295069745,
                0.2576698638417796,
                -0.7018002591099124
            ]
        },
        {
            "positions": [
                0.7944477820792205,
                -1.9986073130872233,
                -1.365491126338928,
                1.2641852920787064,
                0.2675051258559184,
                -0.7941635025898592
            ]
        },
        {
            "positions": [
                0.9033274761118312,
                -1.9674741843034118,
                -1.2522321416505058,
                1.2396954546504382,
                0.27734038787005727,
                -0.8865267460698062
            ]
        },
        {
            "positions": [
                1.012207170144442,
                -1.9363410555196006,
                -1.1389731569620833,
                1.21520561722217,
                0.28717564988419614,
                -0.9788899895497531
            ]
        },
        {
            "positions": [
                1.1210868641770524,
                -1.905207926735789,
                -1.0257141722736614,
                1.1907157797939019,
                0.29701091189833495,
                -1.0712532330297
            ]
        },
        {
            "positions": [
                1.2299665582096633,
                -1.8740747979519776,
                -0.9124551875852389,
                1.1662259423656336,
                0.3068461739124738,
                -1.163616476509647
            ]
        },
        {
            "positions": [
                1.338846252242274,
                -1.8429416691681664,
                -0.7991962028968169,
                1.1417361049373653,
                0.3166814359266127,
                -1.255979719989594
            ]
        },
        {
            "positions": [
                1.4477259462748846,
                -1.8118085403843551,
                -0.6859372182083945,
                1.1172462675090973,
                0.3265166979407515,
                -1.348342963469541
            ]
        },
        {
            "positions": [
                1.5566056403074953,
                -1.7806754116005437,
                -0.5726782335199725,
                1.092756430080829,
                0.3363519599548903,
                -1.4407062069494878
            ]
        },
        {
            "positions": [
                1.6654853343401061,
                -1.7495422828167322,
                -0.45941924883155005,
                1.0682665926525607,
                0.3461872219690292,
                -1.5330694504294349
            ]
        },
        {
            "positions": [
                1.7743650283727166,
                -1.718409154032921,
                -0.34616026414312806,
                1.0437767552242927,
                0.35602248398316805,
                -1.6254326939093815
            ]
        },
        {
            "positions": [
                1.8832447224053275,
                -1.6872760252491095,
                -0.23290127945470562,
                1.0192869177960244,
                0.3658577459973069,
                -1.7177959373893286
            ]
        },
        {
            "positions": [
                1.992124416437938,
                -1.656142896465298,
                -0.11964229476628363,
                0.9947970803677562,
                0.37569300801144573,
                -1.8101591808692754
            ]
        },
        {
            "positions": [
                2.101004110470549,
                -1.6250097676814867,
                -0.006383310077861137,
                0.970307242939488,
                0.3855282700255846,
                -1.9025224243492225
            ]
        },
        {
            "positions": [
                2.131894973085246,
                -1.5890866342364491,
                0.10140357368413355,
                0.8670607609879177,
                0.42441080540214116,
                -1.9728658255276585
            ]
        },
        {
            "positions": [
                2.162785835699943,
                -1.5531635007914115,
                0.20919045744612824,
                0.7638142790363475,
                0.4632933407786977,
                -2.043209226706095
            ]
        },
        {
            "positions": [
                2.1936766983146403,
                -1.517240367346374,
                0.31697734120812293,
                0.6605677970847772,
                0.5021758761552543,
                -2.113552627884531
            ]
        },
        {
            "positions": [
                2.2245675609293376,
                -1.4813172339013363,
                0.4247642249701176,
                0.5573213151332068,
                0.5410584115318109,
                -2.183896029062967
            ]
        },
        {
            "positions": [
                2.255458423544035,
                -1.4453941004562987,
                0.5325511087321124,
                0.45407483318163655,
                0.5799409469083674,
                -2.254239430241403
            ]
        },
        {
            "positions": [
                2.286349286158732,
                -1.409470967011261,
                0.6403379924941071,
                0.3508283512300663,
                0.618823482284924,
                -2.324582831419839
            ]
        },
        {
            "positions": [
                2.317240148773429,
                -1.3735478335662235,
                0.7481248762561017,
                0.24758186927849601,
                0.6577060176614806,
                -2.394926232598275
            ]
        },
        {
            "positions": [
                2.3481310113881264,
                -1.3376247001211858,
                0.8559117600180963,
                0.14433538732692575,
                0.6965885530380371,
                -2.4652696337767113
            ]
        },
        {
            "positions": [
                2.3790218740028233,
                -1.3017015666761482,
                0.963698643780091,
                0.04108890537535537,
                0.7354710884145937,
                -2.5356130349551473
            ]
        },
        {
            "positions": [
                2.4099127366175206,
                -1.2657784332311104,
                1.0714855275420858,
                -0.0621575765762149,
                0.7743536237911504,
                -2.6059564361335834
            ]
        },
        {
            "positions": [
                2.440803599232218,
                -1.2298552997860728,
                1.1792724113040804,
                -0.16540405852778528,
                0.8132361591677069,
                -2.6762998373120195
            ]
        },
        {
            "positions": [
                2.4716944618469148,
                -1.1939321663410352,
                1.287059295066075,
                -0.26865054047935544,
                0.8521186945442635,
                -2.7466432384904556
            ]
        },
        {
            "positions": [
                2.502585324461612,
                -1.1580090328959978,
                1.3948461788280697,
                -0.3718970224309256,
                0.8910012299208199,
                -2.8169866396688916
            ]
        },
        {
            "positions": [
                2.5334761870763094,
                -1.1220858994509602,
                1.5026330625900644,
                -0.475143504382496,
                0.9298837652973766,
                -2.8873300408473277
            ]
        },
        {
            "positions": [
                2.5643670496910067,
                -1.0861627660059223,
                1.610419946352059,
                -0.5783899863340664,
                0.9687663006739331,
                -2.9576734420257638
            ]
        },
        {
            "positions": [
                2.5952579123057036,
                -1.0502396325608847,
                1.7182068301140538,
                -0.6816364682856365,
                1.0076488360504896,
                -3.0280168432042
            ]
        },
        {
            "positions": [
                2.626148774920401,
                -1.014316499115847,
                1.8259937138760485,
                -0.7848829502372069,
                1.0465313714270463,
                -3.098360244382636
            ]
        }
    ]
}